learning evaluation instances,evaluation time (cpu seconds),model cost (RAM-Hours),classified instances,classifications correct (percent),Kappa Statistic (percent),Kappa Temporal Statistic (percent),Kappa M Statistic (percent),model training instances,model serialized size (bytes),labeling cost,newThreshold,maxPosterior,accuracyBaseLearner (percent),Change detected,Warning detected,tree size (nodes),tree size (leaves),active learning leaves,tree depth,active leaf byte size estimate,inactive leaf byte size estimate,byte size estimate overhead
100000.0,0.375,2.989467854301135E-8,100000.0,83.2,65.8086259952132,66.06060606060605,62.99559471365638,19800.0,122080.0,0.0,1.0,0.0,?,0.0,21.0,45.0,35.0,35.0,3.0,0.0,0.0,1.0
200000.0,0.75,7.25213127831618E-8,200000.0,85.2,70.25759335699327,69.91869918699186,69.10229645093945,39800.0,268096.0,0.0,1.0,0.0,?,0.0,0.0,106.0,79.0,79.0,5.0,0.0,0.0,1.0
300000.0,1.140625,1.3736707235996921E-7,300000.0,90.2,80.10588540989997,80.20202020202021,78.50877192982456,59800.0,485008.0,0.0,1.0,0.0,?,0.0,0.0,201.0,149.0,149.0,6.0,0.0,0.0,1.0
400000.0,1.5,2.0418316125869752E-7,400000.0,92.2,84.2164691027265,84.08163265306123,82.62806236080179,79800.0,576784.0,0.0,1.0,0.0,?,0.0,0.0,239.0,171.0,171.0,6.0,0.0,0.0,1.0
500000.0,1.859375,2.778842786533965E-7,500000.0,94.89999999999999,89.71126999241457,89.57055214723925,88.8157894736842,99800.0,665616.0,0.0,1.0,0.0,?,0.0,0.0,301.0,208.0,208.0,6.0,0.0,0.0,1.0
600000.0,2.234375,3.6341927221251857E-7,600000.0,95.3,90.55504199991961,90.14675052410901,89.89247311827955,119800.0,769224.0,0.0,1.0,0.0,?,0.0,0.0,359.0,240.0,240.0,7.0,0.0,0.0,1.0
700000.0,2.59375,4.5541625392312806E-7,700000.0,95.7,91.28064953077727,91.06029106029105,90.27149321266967,139800.0,891736.0,0.0,1.0,0.0,?,0.0,0.0,415.0,274.0,274.0,7.0,0.0,0.0,1.0
800000.0,2.9375,5.485726352263656E-7,800000.0,96.1,92.11962012527782,91.9753086419753,91.31403118040087,159800.0,964504.0,0.0,1.0,0.0,?,0.0,0.0,455.0,294.0,294.0,8.0,0.0,0.0,1.0
900000.0,3.296875,6.513318900639812E-7,900000.0,96.7,93.38141501335751,93.54207436399217,93.0379746835443,179800.0,1037032.0,0.0,1.0,0.0,?,0.0,0.0,498.0,317.0,317.0,8.0,0.0,0.0,1.0
1000000.0,3.625,7.492667646147311E-7,1000000.0,97.2,94.36574372182871,94.238683127572,93.93939393939394,199800.0,1100392.0,0.0,1.0,0.0,?,0.0,0.0,524.0,333.0,333.0,8.0,0.0,0.0,1.0
1100000.0,3.984375,8.737915454225408E-7,1100000.0,97.8,95.55749410358307,95.6,95.08928571428571,219600.0,1148832.0,0.0,1.0,0.0,?,0.0,0.0,559.0,352.0,352.0,8.0,0.0,0.0,1.0
1200000.0,4.328125,9.951140317651962E-7,1200000.0,97.7,95.36009683276174,95.1063829787234,94.9671772428884,239600.0,1188696.0,0.0,1.0,0.0,?,0.0,0.0,586.0,367.0,367.0,8.0,0.0,0.0,1.0
1300000.0,4.65625,1.1130861174832616E-6,1300000.0,98.2,96.39369618092425,96.28099173553719,96.25779625779626,259600.0,1229208.0,0.0,1.0,0.0,?,0.0,0.0,603.0,377.0,377.0,9.0,0.0,0.0,1.0
1400000.0,5.0,1.2392804556940165E-6,1400000.0,98.3,96.59430567909546,96.64694280078895,96.44351464435145,279600.0,1273520.0,0.0,1.0,0.0,?,0.0,0.0,614.0,384.0,384.0,9.0,0.0,0.0,1.0
1500000.0,5.34375,1.3644453590839273E-6,1500000.0,98.1,96.18093522866148,96.22266401590457,95.94017094017093,299600.0,1277112.0,0.0,1.0,0.0,?,0.0,0.0,622.0,388.0,388.0,9.0,0.0,0.0,1.0
1600000.0,5.6875,1.4912394302276273E-6,1600000.0,97.0,93.92400140963166,94.0,93.19727891156462,319600.0,1310488.0,0.0,1.0,0.0,?,0.0,0.0,644.0,402.0,402.0,9.0,0.0,0.0,1.0
1700000.0,6.0,1.6072505321871074E-6,1700000.0,98.1,96.18850452966146,96.13034623217922,95.99156118143459,339600.0,1334744.0,0.0,1.0,0.0,?,0.0,0.0,656.0,408.0,408.0,9.0,0.0,0.0,1.0
1800000.0,6.328125,1.7294125993632606E-6,1800000.0,98.0,95.98354861512756,96.03960396039604,95.72649572649571,359600.0,1353944.0,0.0,1.0,0.0,?,0.0,0.0,668.0,414.0,414.0,10.0,0.0,0.0,1.0
1900000.0,6.65625,1.853072058616413E-6,1900000.0,98.4,96.78333768923021,96.81908548707753,96.55913978494624,379600.0,1386648.0,0.0,1.0,0.0,?,0.0,0.0,688.0,427.0,427.0,10.0,0.0,0.0,1.0
2000000.0,7.046875,2.0017877816119128E-6,2000000.0,97.7,95.39248052822205,95.25773195876288,95.23809523809523,399600.0,1416568.0,0.0,1.0,0.0,?,0.0,0.0,707.0,438.0,438.0,10.0,0.0,0.0,1.0
2100000.0,7.375,2.139472473774933E-6,2100000.0,98.4,96.77386833350135,96.80638722554889,96.48351648351648,419400.0,1429904.0,0.0,1.0,0.0,?,0.0,0.0,713.0,441.0,441.0,10.0,0.0,0.0,1.0
2200000.0,7.71875,2.2844306982329322E-6,2200000.0,99.0,97.9851302613286,98.01980198019803,97.82135076252723,439400.0,1453056.0,0.0,1.0,0.0,?,0.0,0.0,739.0,457.0,457.0,10.0,0.0,0.0,1.0
2300000.0,8.046875,2.424898977753603E-6,2300000.0,98.5,96.9812353589915,96.81528662420382,96.72489082969432,459400.0,1492792.0,0.0,1.0,0.0,?,0.0,0.0,747.0,461.0,461.0,10.0,0.0,0.0,1.0
2400000.0,8.40625,2.578716181839506E-6,2400000.0,98.9,97.76631604597328,97.74590163934425,97.51131221719457,479400.0,1507632.0,0.0,1.0,0.0,?,0.0,0.0,758.0,468.0,468.0,10.0,0.0,0.0,1.0
2500000.0,8.734375,2.7184605520839494E-6,2500000.0,98.3,96.56210059698111,96.6067864271457,96.20535714285714,499400.0,1514608.0,0.0,1.0,0.0,?,0.0,0.0,767.0,474.0,474.0,10.0,0.0,0.0,1.0
2600000.0,9.078125,2.867797609522111E-6,2600000.0,98.0,95.98664354973351,96.1089494163424,95.78059071729957,519400.0,1562624.0,0.0,1.0,0.0,?,0.0,0.0,786.0,485.0,485.0,10.0,0.0,0.0,1.0
2700000.0,9.40625,3.011882039977031E-6,2700000.0,98.6,97.18989486192348,97.22772277227722,97.0276008492569,539400.0,1595848.0,0.0,1.0,0.0,?,0.0,0.0,814.0,505.0,505.0,10.0,0.0,0.0,1.0
2800000.0,9.765625,3.1737958650208185E-6,2800000.0,98.8,97.5940235545094,97.5560081466395,97.48427672955975,559400.0,1654936.0,0.0,1.0,0.0,?,0.0,0.0,833.0,516.0,516.0,10.0,0.0,0.0,1.0
2900000.0,10.125,3.3359744702465834E-6,2900000.0,98.4,96.78632258893852,96.69421487603306,96.61016949152543,579400.0,1672872.0,0.0,1.0,0.0,?,0.0,0.0,852.0,527.0,527.0,10.0,0.0,0.0,1.0
3000000.0,10.46875,3.4926726625093986E-6,3000000.0,98.2,96.36928414385703,96.29629629629629,96.04395604395603,599400.0,1705576.0,0.0,1.0,0.0,?,0.0,0.0,867.0,536.0,536.0,10.0,0.0,0.0,1.0
3100000.0,10.796875,3.6569864864254166E-6,3100000.0,99.0,97.98714996537898,97.95918367346938,97.83549783549783,619200.0,1742064.0,0.0,1.0,0.0,?,0.0,0.0,877.0,541.0,541.0,10.0,0.0,0.0,1.0
3200000.0,11.15625,3.8394527574483725E-6,3200000.0,98.9,97.79237043221373,97.88867562380038,97.67441860465115,639200.0,1784032.0,0.0,1.0,0.0,?,0.0,0.0,888.0,548.0,548.0,10.0,0.0,0.0,1.0
3300000.0,11.515625,4.025255556270067E-6,3300000.0,98.5,96.99983199059147,97.02380952380952,96.98189134808854,659200.0,1834872.0,0.0,1.0,0.0,?,0.0,0.0,898.0,553.0,553.0,10.0,0.0,0.0,1.0
3400000.0,11.890625,4.218567854776565E-6,3400000.0,99.0,97.98220303073104,97.95918367346938,97.8021978021978,679200.0,1844144.0,0.0,1.0,0.0,?,0.0,0.0,906.0,557.0,557.0,10.0,0.0,0.0,1.0
3500000.0,12.265625,4.4116038609192606E-6,3500000.0,99.2,98.3863485083809,98.39357429718876,98.27213822894169,699200.0,1856432.0,0.0,1.0,0.0,?,0.0,0.0,910.0,559.0,559.0,10.0,0.0,0.0,1.0
3600000.0,12.625,4.597778542019013E-6,3600000.0,99.3,98.58933537543831,98.64341085271317,98.46153846153845,719200.0,1884240.0,0.0,1.0,0.0,?,0.0,0.0,919.0,565.0,565.0,11.0,0.0,0.0,1.0
3700000.0,13.0,4.792531286107583E-6,3700000.0,99.2,98.3857428811261,98.44660194174757,98.23788546255507,739200.0,1904288.0,0.0,1.0,0.0,?,0.0,0.0,933.0,572.0,572.0,11.0,0.0,0.0,1.0
3800000.0,13.375,4.987308865464809E-6,3800000.0,98.5,96.97158131909842,96.82203389830508,96.69603524229075,759200.0,1919624.0,0.0,1.0,0.0,?,0.0,0.0,947.0,579.0,579.0,11.0,0.0,0.0,1.0
3900000.0,13.75,5.182845472720348E-6,3900000.0,98.8,97.57276643945063,97.57575757575758,97.32739420935411,779200.0,1942504.0,0.0,1.0,0.0,?,0.0,0.0,959.0,585.0,585.0,11.0,0.0,0.0,1.0
4000000.0,14.09375,5.364602968458914E-6,4000000.0,98.4,96.76092378453664,96.82539682539682,96.38009049773756,799200.0,1985840.0,0.0,1.0,0.0,?,0.0,0.0,975.0,596.0,596.0,11.0,0.0,0.0,1.0
4100000.0,14.46875,5.5788731293028425E-6,4100000.0,99.6,99.19946203848986,99.22630560928432,99.18032786885246,819000.0,2013576.0,0.0,1.0,0.0,?,0.0,0.0,979.0,598.0,598.0,11.0,0.0,0.0,1.0
4200000.0,14.828125,5.782807420473546E-6,4200000.0,99.4,98.7933974709611,98.78296146044624,98.7012987012987,839000.0,2013592.0,0.0,1.0,0.0,?,0.0,0.0,989.0,603.0,603.0,11.0,0.0,0.0,1.0
4300000.0,15.234375,6.014764431812283E-6,4300000.0,98.8,97.58900586675239,97.61431411530815,97.40259740259741,859000.0,2042168.0,0.0,1.0,0.0,?,0.0,0.0,1001.0,609.0,609.0,11.0,0.0,0.0,1.0
4400000.0,15.59375,6.22004642435867E-6,4400000.0,99.0,97.98579583220874,97.95081967213115,97.81181619256017,879000.0,2058232.0,0.0,1.0,0.0,?,0.0,0.0,1009.0,613.0,613.0,11.0,0.0,0.0,1.0
4500000.0,15.953125,6.426042430878928E-6,4500000.0,99.3,98.56911579532633,98.6111111111111,98.36829836829837,899000.0,2081000.0,0.0,1.0,0.0,?,0.0,0.0,1024.0,622.0,622.0,11.0,0.0,0.0,1.0
4600000.0,16.3125,6.633058882370178E-6,4600000.0,98.8,97.59353141243663,97.67441860465115,97.47899159663865,919000.0,2107016.0,0.0,1.0,0.0,?,0.0,0.0,1036.0,628.0,628.0,11.0,0.0,0.0,1.0
4700000.0,16.671875,6.840857774174462E-6,4700000.0,98.9,97.79233498707512,97.74590163934425,97.66454352441613,939000.0,2130568.0,0.0,1.0,0.0,?,0.0,0.0,1043.0,633.0,633.0,11.0,0.0,0.0,1.0
4800000.0,17.015625,7.039705879934546E-6,4800000.0,98.9,97.7943181635894,97.78672032193158,97.69392033542977,959000.0,2146680.0,0.0,1.0,0.0,?,0.0,0.0,1057.0,643.0,643.0,11.0,0.0,0.0,1.0
4900000.0,17.390625,7.256763023583012E-6,4900000.0,99.0,97.99022445173323,98.00399201596807,97.86324786324786,979000.0,2163176.0,0.0,1.0,0.0,?,0.0,0.0,1057.0,643.0,643.0,11.0,0.0,0.0,1.0
5000000.0,17.75,7.463856826588098E-6,5000000.0,99.3,98.58442871587462,98.62204724409449,98.44444444444444,999000.0,2166264.0,0.0,1.0,0.0,?,0.0,0.0,1070.0,651.0,651.0,11.0,0.0,0.0,1.0
5100000.0,18.25,7.498245395254345E-6,5100000.0,73.8,47.578192528091684,45.86776859504132,47.070707070707066,19391.0,77632.0,0.0,1.0,0.0,?,1.0,10.0,25.0,19.0,19.0,3.0,0.0,0.0,1.0
5200000.0,18.609375,7.527780285777732E-6,5200000.0,77.0,53.78630788767259,50.95948827292111,52.083333333333336,39391.0,144472.0,0.0,1.0,0.0,?,0.0,0.0,62.0,45.0,45.0,6.0,0.0,0.0,1.0
5300000.0,18.9375,7.560276749750807E-6,5300000.0,75.7,51.4,51.976284584980235,50.40816326530613,59391.0,224608.0,0.0,1.0,0.0,?,0.0,0.0,82.0,61.0,61.0,6.0,0.0,0.0,1.0
5400000.0,19.359375,7.625061876347496E-6,5400000.0,77.4,54.98528058511168,54.800000000000004,52.81837160751566,79391.0,449920.0,0.0,1.0,0.0,?,0.0,0.0,156.0,116.0,116.0,7.0,0.0,0.0,1.0
5500000.0,19.75,7.691125146165078E-6,5500000.0,80.10000000000001,60.30004388939872,59.71659919028342,57.65957446808512,99391.0,524928.0,0.0,1.0,0.0,?,0.0,0.0,188.0,135.0,135.0,8.0,0.0,0.0,1.0
5600000.0,20.265625,7.802066134495869E-6,5600000.0,83.0,66.07910353056671,66.8615984405458,65.23517382413087,119391.0,717528.0,0.0,1.0,0.0,?,0.0,0.0,281.0,201.0,201.0,9.0,0.0,0.0,1.0
5700000.0,20.6875,7.911419411862476E-6,5700000.0,83.7,67.4382925679401,67.26907630522088,65.97077244258872,139391.0,902424.0,0.0,1.0,0.0,?,0.0,0.0,355.0,253.0,253.0,11.0,0.0,0.0,1.0
5800000.0,21.09375,8.026774901534535E-6,5800000.0,86.8,73.55716260341754,74.76099426386233,73.6,159391.0,1012840.0,0.0,1.0,0.0,?,0.0,0.0,417.0,293.0,293.0,11.0,0.0,0.0,1.0
5900000.0,21.484375,8.142685756966887E-6,5900000.0,89.1,78.1816726049882,78.06841046277665,76.95560253699789,179391.0,1077176.0,0.0,1.0,0.0,?,0.0,0.0,445.0,310.0,310.0,12.0,0.0,0.0,1.0
6000000.0,21.859375,8.26398586569768E-6,6000000.0,87.0,74.04205187596095,73.68421052631578,71.42857142857143,199391.0,1195248.0,0.0,1.0,0.0,?,0.0,0.0,506.0,348.0,348.0,13.0,0.0,0.0,1.0
6100000.0,22.265625,8.41745126914854E-6,6100000.0,88.8,77.6039417062597,75.91397849462366,76.56903765690377,219191.0,1267800.0,0.0,1.0,0.0,?,0.0,0.0,552.0,374.0,374.0,13.0,0.0,0.0,1.0
6200000.0,22.65625,8.571703995888433E-6,6200000.0,91.0,81.9853721221632,82.0,80.89171974522293,239191.0,1348888.0,0.0,1.0,0.0,?,0.0,0.0,598.0,403.0,403.0,13.0,0.0,0.0,1.0
6300000.0,23.078125,8.750208847535155E-6,6300000.0,88.7,77.4177045196566,78.35249042145594,76.0593220338983,259191.0,1472800.0,0.0,1.0,0.0,?,0.0,0.0,648.0,437.0,437.0,13.0,0.0,0.0,1.0
6400000.0,23.46875,8.920288398965366E-6,6400000.0,89.5,78.96482919441306,79.0,79.33070866141733,279191.0,1535224.0,0.0,1.0,0.0,?,0.0,0.0,679.0,457.0,457.0,13.0,0.0,0.0,1.0
6500000.0,23.859375,9.099018255559108E-6,6500000.0,89.2,78.39732126783721,79.34990439770556,76.97228144989339,299191.0,1635648.0,0.0,1.0,0.0,?,0.0,0.0,725.0,486.0,486.0,14.0,0.0,0.0,1.0
6600000.0,24.25,9.28710014300628E-6,6600000.0,90.2,80.41042165567919,80.5168986083499,79.58333333333334,319191.0,1742952.0,0.0,1.0,0.0,?,0.0,0.0,771.0,515.0,515.0,14.0,0.0,0.0,1.0
6700000.0,24.640625,9.480742478950157E-6,6700000.0,89.9,79.81953469041969,79.13223140495869,79.63709677419355,339191.0,1812872.0,0.0,1.0,0.0,?,0.0,0.0,812.0,540.0,540.0,14.0,0.0,0.0,1.0
6800000.0,25.046875,9.690386100879147E-6,6800000.0,90.60000000000001,81.10476803087562,81.60469667318982,80.97165991902835,359191.0,1906256.0,0.0,1.0,0.0,?,0.0,0.0,849.0,563.0,563.0,15.0,0.0,0.0,1.0
6900000.0,25.46875,9.914015277495816E-6,6900000.0,92.2,84.37199461434892,84.88372093023257,83.33333333333334,379191.0,1975504.0,0.0,1.0,0.0,?,0.0,0.0,883.0,586.0,586.0,15.0,0.0,0.0,1.0
7000000.0,25.890625,1.014298267869486E-5,7000000.0,92.80000000000001,85.59354590856705,85.45454545454547,85.57114228456915,399191.0,2039336.0,0.0,1.0,0.0,?,0.0,0.0,926.0,612.0,612.0,15.0,0.0,0.0,1.0
7100000.0,26.328125,1.0400039738871987E-5,7100000.0,92.10000000000001,84.19570123073477,83.43815513626835,83.64389233954452,418991.0,2075464.0,0.0,1.0,0.0,?,0.0,0.0,953.0,627.0,627.0,15.0,0.0,0.0,1.0
7200000.0,26.75,1.0652939219855602E-5,7200000.0,92.60000000000001,85.1947885655751,85.34653465346535,84.51882845188285,438991.0,2136352.0,0.0,1.0,0.0,?,0.0,0.0,988.0,646.0,646.0,15.0,0.0,0.0,1.0
7300000.0,27.1875,1.092101654244794E-5,7300000.0,92.2,84.3902595219417,84.73581213307241,83.54430379746837,458991.0,2202600.0,0.0,1.0,0.0,?,0.0,0.0,1024.0,667.0,667.0,15.0,0.0,0.0,1.0
7400000.0,27.625,1.1196486884728075E-5,7400000.0,94.6,89.18425227130702,89.13480885311871,88.67924528301886,478991.0,2282784.0,0.0,1.0,0.0,?,0.0,0.0,1061.0,690.0,690.0,15.0,0.0,0.0,1.0
7500000.0,28.0625,1.1474728817120196E-5,7500000.0,94.19999999999999,88.38420251542097,87.89144050104383,87.55364806866952,498991.0,2322272.0,0.0,1.0,0.0,?,0.0,0.0,1090.0,706.0,706.0,15.0,0.0,0.0,1.0
7600000.0,28.5,1.1760063158969085E-5,7600000.0,95.19999999999999,90.3684470324784,90.66147859922178,89.58785249457699,518991.0,2399808.0,0.0,1.0,0.0,?,0.0,0.0,1118.0,723.0,723.0,15.0,0.0,0.0,1.0
7700000.0,28.953125,1.2061504530720413E-5,7700000.0,92.7,85.3807025273361,84.75991649269312,84.72803347280336,538991.0,2465264.0,0.0,1.0,0.0,?,0.0,0.0,1156.0,748.0,748.0,15.0,0.0,0.0,1.0
7800000.0,29.40625,1.2366871491798924E-5,7800000.0,92.10000000000001,84.20303301766062,84.54011741682976,84.2,558991.0,2513704.0,0.0,1.0,0.0,?,0.0,0.0,1185.0,764.0,764.0,15.0,0.0,0.0,1.0
7900000.0,29.875,1.2690325642728971E-5,7900000.0,94.1,88.16677229660887,87.86008230452674,87.52642706131077,578991.0,2590880.0,0.0,1.0,0.0,?,0.0,0.0,1224.0,788.0,788.0,15.0,0.0,0.0,1.0
8000000.0,30.375,1.3045544490321643E-5,8000000.0,94.19999999999999,88.39405775757186,88.53754940711461,88.01652892561982,598991.0,2684576.0,0.0,1.0,0.0,?,0.0,0.0,1257.0,809.0,809.0,15.0,0.0,0.0,1.0
8100000.0,30.828125,1.3386260511146652E-5,8100000.0,92.10000000000001,84.20139027765558,84.1683366733467,83.84458077709613,618791.0,2707864.0,0.0,1.0,0.0,?,0.0,0.0,1273.0,817.0,817.0,15.0,0.0,0.0,1.0
8200000.0,31.3125,1.375878863554034E-5,8200000.0,95.8,91.56629893052639,91.41104294478527,91.37577002053388,638791.0,2789072.0,0.0,1.0,0.0,?,0.0,0.0,1312.0,841.0,841.0,15.0,0.0,0.0,1.0
8300000.0,31.78125,1.412638747650716E-5,8300000.0,93.2,86.3923797326503,86.71875000000001,86.00823045267491,658791.0,2862416.0,0.0,1.0,0.0,?,0.0,0.0,1349.0,864.0,864.0,15.0,0.0,0.0,1.0
8400000.0,32.25,1.4497269229549501E-5,8400000.0,94.19999999999999,88.40013919832961,88.60510805500982,88.35341365461846,678791.0,2904416.0,0.0,1.0,0.0,?,0.0,0.0,1373.0,876.0,876.0,16.0,0.0,0.0,1.0
8500000.0,32.734375,1.4887727447785437E-5,8500000.0,93.7,87.39717696764076,87.34939759036145,87.11656441717793,698791.0,2976840.0,0.0,1.0,0.0,?,0.0,0.0,1420.0,904.0,904.0,16.0,0.0,0.0,1.0
8600000.0,33.171875,1.5248826433283587E-5,8600000.0,94.6,89.173626955263,88.13186813186812,88.36206896551722,718791.0,3066224.0,0.0,1.0,0.0,?,0.0,0.0,1455.0,929.0,929.0,16.0,0.0,0.0,1.0
8700000.0,33.671875,1.566724069157822E-5,8700000.0,93.4,86.8012670783605,86.69354838709678,86.47540983606558,738791.0,3125424.0,0.0,1.0,0.0,?,0.0,0.0,1484.0,945.0,945.0,16.0,0.0,0.0,1.0
8800000.0,34.15625,1.6075482643726798E-5,8800000.0,93.60000000000001,87.19590268886044,87.20000000000002,86.9387755102041,758791.0,3163552.0,0.0,1.0,0.0,?,0.0,0.0,1508.0,957.0,957.0,16.0,0.0,0.0,1.0
8900000.0,34.625,1.6473319394410482E-5,8900000.0,94.1,88.19678952675126,88.3399209486166,87.47346072186836,778791.0,3201400.0,0.0,1.0,0.0,?,0.0,0.0,1530.0,971.0,971.0,16.0,0.0,0.0,1.0
9000000.0,35.125,1.6901177263611717E-5,9000000.0,95.39999999999999,90.76631551901335,90.9090909090909,89.84547461368652,798791.0,3243424.0,0.0,1.0,0.0,?,0.0,0.0,1546.0,979.0,979.0,16.0,0.0,0.0,1.0
9100000.0,35.59375,1.7326825634679856E-5,9100000.0,95.8,91.58923421980134,91.48073022312373,91.24999999999999,818591.0,3308552.0,0.0,1.0,0.0,?,0.0,0.0,1573.0,997.0,997.0,16.0,0.0,0.0,1.0
9200000.0,36.078125,1.7770838555103784E-5,9200000.0,95.3,90.59819485341185,90.69306930693068,90.54325955734406,838591.0,3356856.0,0.0,1.0,0.0,?,0.0,0.0,1603.0,1015.0,1015.0,16.0,0.0,0.0,1.0
9300000.0,36.5625,1.821903075324371E-5,9300000.0,94.39999999999999,88.74815148202919,88.79999999999998,87.61061946902655,858591.0,3405272.0,0.0,1.0,0.0,?,0.0,0.0,1626.0,1031.0,1031.0,17.0,0.0,0.0,1.0
9400000.0,37.078125,1.869915218170111E-5,9400000.0,94.0,87.97498797498797,87.73006134969324,87.34177215189872,878591.0,3443944.0,0.0,1.0,0.0,?,0.0,0.0,1647.0,1043.0,1043.0,17.0,0.0,0.0,1.0
9500000.0,37.546875,1.9136968864283213E-5,9500000.0,94.39999999999999,88.78564562640179,88.79999999999998,88.33333333333331,898591.0,3470072.0,0.0,1.0,0.0,?,0.0,0.0,1659.0,1049.0,1049.0,17.0,0.0,0.0,1.0
9600000.0,38.03125,1.95913282287721E-5,9600000.0,94.89999999999999,89.78913564032129,89.88095238095238,90.15444015444014,918591.0,3500704.0,0.0,1.0,0.0,?,0.0,0.0,1672.0,1057.0,1057.0,17.0,0.0,0.0,1.0
9700000.0,38.515625,2.0047585260019535E-5,9700000.0,93.89999999999999,87.79755951190236,88.20116054158606,87.55102040816325,938591.0,3530880.0,0.0,1.0,0.0,?,0.0,0.0,1697.0,1071.0,1071.0,17.0,0.0,0.0,1.0
9800000.0,39.0,2.050595147819776E-5,9800000.0,96.39999999999999,92.78484818118046,92.48434237995824,92.22462203023757,958591.0,3562696.0,0.0,1.0,0.0,?,0.0,0.0,1730.0,1089.0,1089.0,17.0,0.0,0.0,1.0
9900000.0,39.5,2.0980317527169572E-5,9900000.0,94.1,88.19896150861275,88.22355289421156,88.24701195219123,978591.0,3587128.0,0.0,1.0,0.0,?,0.0,0.0,1755.0,1103.0,1103.0,17.0,0.0,0.0,1.0
1.0E7,40.0,2.1455149237428693E-5,1.0E7,95.0,89.9945970824245,89.69072164948453,89.81670061099796,998591.0,3605856.0,0.0,1.0,0.0,?,0.0,0.0,1768.0,1111.0,1111.0,17.0,0.0,0.0,1.0
