learning evaluation instances,evaluation time (cpu seconds),model cost (RAM-Hours),classified instances,classifications correct (percent),Kappa Statistic (percent),Kappa Temporal Statistic (percent),Kappa M Statistic (percent),model training instances,model serialized size (bytes),labeling cost,newThreshold,maxPosterior,accuracyBaseLearner (percent),Change detected,Warning detected,tree size (nodes),tree size (leaves),active learning leaves,tree depth,active leaf byte size estimate,inactive leaf byte size estimate,byte size estimate overhead
100000.0,0.203125,0.0,100000.0,96.5,92.83790752306193,92.67782426778241,91.87935034802783,9900.0,0.0,0.0,1.0,0.0,?,0.0,9.0,22.0,13.0,13.0,3.0,0.0,0.0,1.0
200000.0,0.375,0.0,200000.0,96.7,93.33473371251291,93.59223300970874,92.69911504424778,19900.0,0.0,0.0,1.0,0.0,?,0.0,0.0,24.0,14.0,14.0,3.0,0.0,0.0,1.0
300000.0,0.515625,0.0,300000.0,96.3,92.54867527529623,92.3076923076923,91.93899782135075,29900.0,0.0,0.0,1.0,0.0,?,0.0,0.0,26.0,15.0,15.0,4.0,0.0,0.0,1.0
400000.0,0.65625,0.0,400000.0,95.7,91.34042210407604,91.50197628458497,90.65217391304347,39900.0,0.0,0.0,1.0,0.0,?,0.0,0.0,26.0,15.0,15.0,4.0,0.0,0.0,1.0
500000.0,0.8125,0.0,500000.0,95.39999999999999,90.73831719250205,90.43659043659042,90.06479481641468,49900.0,0.0,0.0,1.0,0.0,?,0.0,0.0,26.0,15.0,15.0,4.0,0.0,0.0,1.0
600000.0,0.96875,0.0,600000.0,96.2,92.332278685349,92.51968503937007,91.5929203539823,59900.0,0.0,0.0,1.0,0.0,?,0.0,0.0,28.0,16.0,16.0,4.0,0.0,0.0,1.0
700000.0,1.09375,0.0,700000.0,96.2,92.27369028884198,92.22903885480572,91.22401847575057,69900.0,0.0,0.0,1.0,0.0,?,0.0,0.0,30.0,17.0,17.0,5.0,0.0,0.0,1.0
800000.0,1.234375,0.0,800000.0,96.7,93.31155196316084,93.37349397590361,92.5339366515837,79900.0,0.0,0.0,1.0,0.0,?,0.0,0.0,32.0,18.0,18.0,5.0,0.0,0.0,1.0
900000.0,1.375,0.0,900000.0,96.3,92.59555733440064,92.22689075630251,92.58517034068136,89900.0,0.0,0.0,1.0,0.0,?,0.0,0.0,32.0,18.0,18.0,5.0,0.0,0.0,1.0
1000000.0,1.515625,0.0,1000000.0,96.0,91.92359722979384,92.21789883268482,91.24726477024069,99900.0,0.0,0.0,1.0,0.0,?,0.0,0.0,32.0,18.0,18.0,5.0,0.0,0.0,1.0
1100000.0,1.671875,0.0,1100000.0,95.0,89.96854134565999,90.32882011605416,89.40677966101694,109800.0,0.0,0.0,1.0,0.0,?,0.0,0.0,32.0,18.0,18.0,5.0,0.0,0.0,1.0
1200000.0,1.8125,0.0,1200000.0,96.3,92.5448317549869,92.51012145748987,92.0086393088553,119800.0,0.0,0.0,1.0,0.0,?,0.0,0.0,34.0,19.0,19.0,5.0,0.0,0.0,1.0
1300000.0,1.953125,0.0,1300000.0,96.1,92.19044109990628,92.42718446601941,91.92546583850931,129800.0,0.0,0.0,1.0,0.0,?,0.0,0.0,34.0,19.0,19.0,5.0,0.0,0.0,1.0
1400000.0,2.09375,0.0,1400000.0,96.7,93.39757030587256,93.75,93.37349397590361,139800.0,0.0,0.0,1.0,0.0,?,0.0,0.0,34.0,19.0,19.0,5.0,0.0,0.0,1.0
1500000.0,2.25,0.0,1500000.0,94.6,89.18273564609115,88.5593220338983,88.70292887029288,149800.0,0.0,0.0,1.0,0.0,?,0.0,0.0,34.0,19.0,19.0,5.0,0.0,0.0,1.0
1600000.0,2.40625,0.0,1600000.0,95.7,91.38324903612623,91.66666666666666,91.07883817427384,159800.0,0.0,0.0,1.0,0.0,?,0.0,0.0,34.0,19.0,19.0,5.0,0.0,0.0,1.0
1700000.0,2.578125,0.0,1700000.0,96.8,93.55233888906798,93.23467230443974,92.95154185022025,169800.0,0.0,0.0,1.0,0.0,?,0.0,0.0,34.0,19.0,19.0,5.0,0.0,0.0,1.0
1800000.0,2.71875,0.0,1800000.0,96.5,92.95144958473968,93.16406249999999,92.35807860262007,179800.0,0.0,0.0,1.0,0.0,?,0.0,0.0,34.0,19.0,19.0,5.0,0.0,0.0,1.0
1900000.0,2.875,0.0,1900000.0,95.3,90.51072489985785,90.6,89.57871396895786,189800.0,0.0,0.0,1.0,0.0,?,0.0,0.0,34.0,19.0,19.0,5.0,0.0,0.0,1.0
2000000.0,3.015625,0.0,2000000.0,95.5,90.9037250256717,90.87221095334684,90.02217294900221,199800.0,0.0,0.0,1.0,0.0,?,0.0,0.0,34.0,19.0,19.0,5.0,0.0,0.0,1.0
2100000.0,3.1875,0.0,2100000.0,96.89999999999999,93.77714969367517,93.83697813121272,93.446088794926,209700.0,0.0,0.0,1.0,0.0,?,0.0,0.0,34.0,19.0,19.0,5.0,0.0,0.0,1.0
2200000.0,3.328125,0.0,2200000.0,95.89999999999999,91.792777644327,91.91321499013806,91.58110882956878,219700.0,0.0,0.0,1.0,0.0,?,0.0,0.0,34.0,19.0,19.0,5.0,0.0,0.0,1.0
2300000.0,3.46875,0.0,2300000.0,95.8,91.58090549365961,91.68316831683168,91.23173277661795,229700.0,0.0,0.0,1.0,0.0,?,0.0,0.0,34.0,19.0,19.0,5.0,0.0,0.0,1.0
2400000.0,3.625,0.0,2400000.0,96.5,92.97036305062142,93.20388349514562,92.53731343283582,239700.0,0.0,0.0,1.0,0.0,?,0.0,0.0,34.0,19.0,19.0,5.0,0.0,0.0,1.0
2500000.0,3.8125,0.0,2500000.0,96.1,92.1491263386746,92.3679060665362,91.59482758620689,249700.0,0.0,0.0,1.0,0.0,?,0.0,0.0,34.0,19.0,19.0,5.0,0.0,0.0,1.0
2600000.0,3.953125,0.0,2600000.0,96.2,92.3780487804878,92.7063339731286,92.01680672268907,259700.0,0.0,0.0,1.0,0.0,?,0.0,0.0,34.0,19.0,19.0,5.0,0.0,0.0,1.0
2700000.0,4.125,0.0,2700000.0,96.3,92.5646075318516,92.95238095238093,92.04301075268816,269700.0,0.0,0.0,1.0,0.0,?,0.0,0.0,34.0,19.0,19.0,5.0,0.0,0.0,1.0
2800000.0,4.28125,0.0,2800000.0,95.6,91.16377146299828,91.14688128772636,90.73684210526315,279700.0,0.0,0.0,1.0,0.0,?,0.0,0.0,34.0,19.0,19.0,5.0,0.0,0.0,1.0
2900000.0,4.421875,0.0,2900000.0,96.3,92.58719066546992,92.51012145748987,92.35537190082644,289700.0,0.0,0.0,1.0,0.0,?,0.0,0.0,34.0,19.0,19.0,5.0,0.0,0.0,1.0
3000000.0,4.578125,0.0,3000000.0,95.7,91.2968150391036,91.04166666666666,90.29345372460496,299700.0,0.0,0.0,1.0,0.0,?,0.0,0.0,34.0,19.0,19.0,5.0,0.0,0.0,1.0
3100000.0,4.71875,0.0,3100000.0,95.6,91.16508441360254,91.48936170212765,90.71729957805907,309600.0,0.0,0.0,1.0,0.0,?,0.0,0.0,34.0,19.0,19.0,5.0,0.0,0.0,1.0
3200000.0,4.859375,0.0,3200000.0,95.89999999999999,91.7529588774369,91.31355932203388,91.25799573560766,319600.0,0.0,0.0,1.0,0.0,?,0.0,0.0,34.0,19.0,19.0,5.0,0.0,0.0,1.0
3300000.0,5.015625,0.0,3300000.0,96.8,93.55379359247083,93.86973180076627,93.16239316239316,329600.0,0.0,0.0,1.0,0.0,?,0.0,0.0,34.0,19.0,19.0,5.0,0.0,0.0,1.0
3400000.0,5.15625,0.0,3400000.0,95.89999999999999,91.75912526129602,91.96078431372548,91.25799573560766,339600.0,0.0,0.0,1.0,0.0,?,0.0,0.0,36.0,20.0,20.0,5.0,0.0,0.0,1.0
3500000.0,5.3125,0.0,3500000.0,96.7,93.35887817365123,93.33333333333333,92.88793103448275,349600.0,0.0,0.0,1.0,0.0,?,0.0,0.0,36.0,20.0,20.0,5.0,0.0,0.0,1.0
3600000.0,5.46875,0.0,3600000.0,96.89999999999999,93.79150678127678,93.69918699186991,93.56846473029044,359600.0,0.0,0.0,1.0,0.0,?,0.0,0.0,36.0,20.0,20.0,5.0,0.0,0.0,1.0
3700000.0,5.609375,0.0,3700000.0,96.1,92.1263021884842,91.92546583850931,91.42857142857143,369600.0,0.0,0.0,1.0,0.0,?,0.0,0.0,36.0,20.0,20.0,5.0,0.0,0.0,1.0
3800000.0,5.765625,0.0,3800000.0,96.1,92.17093852380034,92.05702647657841,91.66666666666666,379600.0,0.0,0.0,1.0,0.0,?,0.0,0.0,36.0,20.0,20.0,5.0,0.0,0.0,1.0
3900000.0,5.90625,0.0,3900000.0,96.39999999999999,92.7879992307199,92.88537549407114,92.56198347107437,389600.0,0.0,0.0,1.0,0.0,?,0.0,0.0,36.0,20.0,20.0,5.0,0.0,0.0,1.0
4000000.0,6.0625,0.0,4000000.0,97.39999999999999,94.77082118219666,94.921875,94.46808510638297,399600.0,0.0,0.0,1.0,0.0,?,0.0,0.0,40.0,22.0,22.0,6.0,0.0,0.0,1.0
4100000.0,6.1875,0.0,4100000.0,97.1,94.13354479544277,94.49715370018976,93.58407079646017,409500.0,0.0,0.0,1.0,0.0,?,0.0,0.0,40.0,22.0,22.0,6.0,0.0,0.0,1.0
4200000.0,6.34375,0.0,4200000.0,96.89999999999999,93.77605024132862,93.83697813121272,93.45991561181434,419500.0,0.0,0.0,1.0,0.0,?,0.0,0.0,42.0,23.0,23.0,6.0,0.0,0.0,1.0
4300000.0,6.484375,0.0,4300000.0,95.7,91.33756114070218,91.53543307086613,90.7725321888412,429500.0,0.0,0.0,1.0,0.0,?,0.0,0.0,42.0,23.0,23.0,6.0,0.0,0.0,1.0
4400000.0,6.640625,0.0,4400000.0,95.0,89.96213718144841,89.22413793103448,89.51781970649894,439500.0,0.0,0.0,1.0,0.0,?,0.0,0.0,44.0,24.0,24.0,6.0,0.0,0.0,1.0
4500000.0,6.78125,0.0,4500000.0,96.39999999999999,92.77746569296204,92.5,92.40506329113923,449500.0,0.0,0.0,1.0,0.0,?,0.0,0.0,46.0,25.0,25.0,6.0,0.0,0.0,1.0
4600000.0,6.9375,0.0,4600000.0,96.5,92.96029606983386,93.2301740812379,92.5531914893617,459500.0,0.0,0.0,1.0,0.0,?,0.0,0.0,66.0,44.0,44.0,7.0,0.0,0.0,1.0
4700000.0,7.078125,0.0,4700000.0,97.0,93.94880690642837,93.64406779661016,93.4065934065934,469500.0,0.0,0.0,1.0,0.0,?,0.0,0.0,66.0,44.0,44.0,7.0,0.0,0.0,1.0
4800000.0,7.234375,0.0,4800000.0,96.6,93.16676313589298,93.33333333333333,92.73504273504273,479500.0,0.0,0.0,1.0,0.0,?,0.0,0.0,66.0,44.0,44.0,7.0,0.0,0.0,1.0
4900000.0,7.375,0.0,4900000.0,95.89999999999999,91.7283342882736,91.71717171717171,91.12554112554112,489500.0,0.0,0.0,1.0,0.0,?,0.0,0.0,66.0,44.0,44.0,7.0,0.0,0.0,1.0
5000000.0,7.515625,0.0,5000000.0,96.8,93.58357394931022,93.53535353535352,93.33333333333333,499500.0,0.0,0.0,1.0,0.0,?,0.0,0.0,66.0,44.0,44.0,7.0,0.0,0.0,1.0
5100000.0,7.734375,0.0,5100000.0,84.39999999999999,67.23239791631659,65.78947368421052,57.837837837837824,9758.0,0.0,0.0,1.0,0.0,?,1.0,6.0,17.0,12.0,12.0,4.0,0.0,0.0,1.0
5200000.0,7.953125,0.0,5200000.0,87.2,73.12448821046885,72.41379310344827,66.9250645994832,19758.0,0.0,0.0,1.0,0.0,?,0.0,3.0,34.0,22.0,22.0,6.0,0.0,0.0,1.0
5300000.0,8.171875,0.0,5300000.0,91.8,82.85838517626598,83.12757201646092,79.2929292929293,29758.0,0.0,0.0,1.0,0.0,?,0.0,0.0,40.0,25.0,25.0,6.0,0.0,0.0,1.0
5400000.0,8.34375,0.0,5400000.0,91.8,82.3123382226057,82.51599147121536,77.83783783783785,39758.0,0.0,0.0,1.0,0.0,?,0.0,0.0,63.0,38.0,38.0,7.0,0.0,0.0,1.0
5500000.0,8.515625,0.0,5500000.0,89.5,78.2390635750939,78.70182555780933,74.2014742014742,49758.0,0.0,0.0,1.0,0.0,?,0.0,0.0,67.0,40.0,40.0,7.0,0.0,0.0,1.0
5600000.0,8.703125,0.0,5600000.0,90.60000000000001,79.99446655457893,79.43107221006565,75.58441558441558,59758.0,0.0,0.0,1.0,0.0,?,0.0,0.0,97.0,64.0,64.0,8.0,0.0,0.0,1.0
5700000.0,8.875,0.0,5700000.0,94.1,87.20395592955668,86.77130044843048,83.61111111111109,69758.0,0.0,0.0,1.0,0.0,?,0.0,0.0,99.0,65.0,65.0,8.0,0.0,0.0,1.0
5800000.0,9.046875,0.0,5800000.0,92.10000000000001,83.5768396018527,83.64389233954452,80.15075376884423,79758.0,0.0,0.0,1.0,0.0,?,0.0,0.0,119.0,75.0,75.0,8.0,0.0,0.0,1.0
5900000.0,9.21875,0.0,5900000.0,91.7,82.75990993610782,82.81573498964804,79.1457286432161,89758.0,0.0,0.0,1.0,0.0,?,0.0,0.0,129.0,80.0,80.0,8.0,0.0,0.0,1.0
6000000.0,9.390625,0.0,6000000.0,94.0,87.5325711578501,87.17948717948717,85.33007334963324,99758.0,0.0,0.0,1.0,0.0,?,0.0,0.0,133.0,82.0,82.0,8.0,0.0,0.0,1.0
6100000.0,9.5625,0.0,6100000.0,92.80000000000001,84.88461926035404,83.96436525612472,81.25000000000001,109658.0,0.0,0.0,1.0,0.0,?,0.0,0.0,135.0,83.0,83.0,9.0,0.0,0.0,1.0
6200000.0,9.734375,0.0,6200000.0,93.2,85.29634354660844,85.3448275862069,81.1634349030471,119658.0,0.0,0.0,1.0,0.0,?,0.0,0.0,143.0,87.0,87.0,9.0,0.0,0.0,1.0
6300000.0,9.890625,0.0,6300000.0,93.7,86.66463461098836,86.90228690228692,83.72093023255816,129658.0,0.0,0.0,1.0,0.0,?,0.0,0.0,147.0,89.0,89.0,9.0,0.0,0.0,1.0
6400000.0,10.046875,0.0,6400000.0,92.80000000000001,84.37561032772159,83.44827586206898,80.16528925619836,139658.0,0.0,0.0,1.0,0.0,?,0.0,0.0,153.0,92.0,92.0,9.0,0.0,0.0,1.0
6500000.0,10.21875,0.0,6500000.0,92.80000000000001,84.5037987215634,83.78378378378379,80.48780487804879,149658.0,0.0,0.0,1.0,0.0,?,0.0,0.0,161.0,96.0,96.0,9.0,0.0,0.0,1.0
6600000.0,10.375,0.0,6600000.0,92.60000000000001,84.43442264328746,84.38818565400845,80.72916666666667,159658.0,0.0,0.0,1.0,0.0,?,0.0,0.0,167.0,99.0,99.0,9.0,0.0,0.0,1.0
6700000.0,10.546875,0.0,6700000.0,93.4,86.23899119295437,85.71428571428572,83.58208955223883,169658.0,0.0,0.0,1.0,0.0,?,0.0,0.0,175.0,103.0,103.0,10.0,0.0,0.0,1.0
6800000.0,10.703125,0.0,6800000.0,92.7,84.60695006747639,83.59550561797754,81.18556701030928,179658.0,0.0,0.0,1.0,0.0,?,0.0,0.0,177.0,104.0,104.0,10.0,0.0,0.0,1.0
6900000.0,10.875,0.0,6900000.0,93.2,85.64092168389757,85.6842105263158,82.47422680412373,189658.0,0.0,0.0,1.0,0.0,?,0.0,0.0,183.0,107.0,107.0,10.0,0.0,0.0,1.0
7000000.0,11.046875,0.0,7000000.0,93.30000000000001,85.39910564073956,85.95387840670861,81.49171270718233,199658.0,0.0,0.0,1.0,0.0,?,0.0,0.0,185.0,108.0,108.0,10.0,0.0,0.0,1.0
7100000.0,11.21875,0.0,7100000.0,93.5,86.11431549984194,86.76171079429736,82.93963254593177,209558.0,0.0,0.0,1.0,0.0,?,0.0,0.0,189.0,110.0,110.0,10.0,0.0,0.0,1.0
7200000.0,11.40625,0.0,7200000.0,92.9,84.92453775660137,85.59837728194726,81.21693121693123,219558.0,0.0,0.0,1.0,0.0,?,0.0,0.0,191.0,111.0,111.0,10.0,0.0,0.0,1.0
7300000.0,11.578125,0.0,7300000.0,92.4,83.66188705204549,84.06708595387842,79.51482479784367,229558.0,0.0,0.0,1.0,0.0,?,0.0,0.0,193.0,112.0,112.0,10.0,0.0,0.0,1.0
7400000.0,11.765625,0.0,7400000.0,92.30000000000001,83.82420906684594,83.85744234800839,80.25641025641028,239558.0,0.0,0.0,1.0,0.0,?,0.0,0.0,193.0,112.0,112.0,10.0,0.0,0.0,1.0
7500000.0,11.9375,0.0,7500000.0,93.4,86.26190634783188,85.95744680851065,83.66336633663369,249558.0,0.0,0.0,1.0,0.0,?,0.0,0.0,199.0,115.0,115.0,10.0,0.0,0.0,1.0
7600000.0,12.125,0.0,7600000.0,93.8,86.99402564274685,87.26899383983572,84.34343434343432,259558.0,0.0,0.0,1.0,0.0,?,0.0,0.0,223.0,136.0,136.0,10.0,0.0,0.0,1.0
7700000.0,12.296875,0.0,7700000.0,91.8,81.95803703442935,82.25108225108225,76.96629213483148,269558.0,0.0,0.0,1.0,0.0,?,0.0,0.0,227.0,138.0,138.0,10.0,0.0,0.0,1.0
7800000.0,12.484375,0.0,7800000.0,93.5,86.06645230439443,86.0215053763441,82.66666666666667,279558.0,0.0,0.0,1.0,0.0,?,0.0,0.0,229.0,139.0,139.0,10.0,0.0,0.0,1.0
7900000.0,12.65625,0.0,7900000.0,94.8,88.83655427366757,89.4736842105263,86.20689655172413,289558.0,0.0,0.0,1.0,0.0,?,0.0,0.0,233.0,141.0,141.0,10.0,0.0,0.0,1.0
8000000.0,12.84375,0.0,8000000.0,91.3,81.72361057425677,81.52866242038218,77.63496143958871,299558.0,0.0,0.0,1.0,0.0,?,0.0,0.0,241.0,145.0,145.0,10.0,0.0,0.0,1.0
8100000.0,13.03125,0.0,8100000.0,92.2,83.2696292292447,82.43243243243245,79.08847184986595,309458.0,0.0,0.0,1.0,0.0,?,0.0,0.0,281.0,183.0,183.0,11.0,0.0,0.0,1.0
8200000.0,13.203125,0.0,8200000.0,93.7,86.84726966020027,87.42514970059881,84.13098236775821,319458.0,0.0,0.0,1.0,0.0,?,0.0,0.0,281.0,183.0,183.0,11.0,0.0,0.0,1.0
8300000.0,13.390625,0.0,8300000.0,92.7,84.84760426093672,84.79166666666667,82.06388206388208,329458.0,0.0,0.0,1.0,0.0,?,0.0,0.0,281.0,183.0,183.0,11.0,0.0,0.0,1.0
8400000.0,13.5625,0.0,8400000.0,93.0,85.14437544832154,84.34004474272932,81.53034300791559,339458.0,0.0,0.0,1.0,0.0,?,0.0,0.0,283.0,184.0,184.0,11.0,0.0,0.0,1.0
8500000.0,13.75,0.0,8500000.0,94.39999999999999,88.23158558369232,87.8524945770065,85.82278481012658,349458.0,0.0,0.0,1.0,0.0,?,0.0,0.0,303.0,203.0,203.0,11.0,0.0,0.0,1.0
8600000.0,13.9375,0.0,8600000.0,93.0,85.39305210089645,85.77235772357724,82.58706467661693,359458.0,0.0,0.0,1.0,0.0,?,0.0,0.0,305.0,204.0,204.0,11.0,0.0,0.0,1.0
8700000.0,14.125,0.0,8700000.0,93.10000000000001,85.50554150456682,85.16129032258065,82.17054263565893,369458.0,0.0,0.0,1.0,0.0,?,0.0,0.0,305.0,204.0,204.0,11.0,0.0,0.0,1.0
8800000.0,14.296875,0.0,8800000.0,92.5,84.17187236197874,83.4070796460177,80.81841432225065,379458.0,0.0,0.0,1.0,0.0,?,0.0,0.0,307.0,205.0,205.0,11.0,0.0,0.0,1.0
8900000.0,14.484375,0.0,8900000.0,93.30000000000001,85.8167438630956,85.65310492505354,82.4607329842932,389458.0,0.0,0.0,1.0,0.0,?,0.0,0.0,311.0,207.0,207.0,11.0,0.0,0.0,1.0
9000000.0,14.65625,0.0,9000000.0,92.4,83.67971001421584,83.82978723404257,79.40379403794039,399458.0,0.0,0.0,1.0,0.0,?,0.0,0.0,311.0,207.0,207.0,11.0,0.0,0.0,1.0
9100000.0,14.84375,0.0,9100000.0,93.89999999999999,86.95265310312963,86.76789587852494,83.42391304347825,409358.0,0.0,0.0,1.0,0.0,?,0.0,0.0,335.0,228.0,228.0,11.0,0.0,0.0,1.0
9200000.0,15.0,0.0,9200000.0,93.0,85.23256598933371,84.91379310344828,81.95876288659795,419358.0,0.0,0.0,1.0,0.0,?,0.0,0.0,337.0,229.0,229.0,11.0,0.0,0.0,1.0
9300000.0,15.171875,0.0,9300000.0,92.7,84.5797669643687,84.50106157112526,81.3299232736573,429358.0,0.0,0.0,1.0,0.0,?,0.0,0.0,339.0,230.0,230.0,11.0,0.0,0.0,1.0
9400000.0,15.359375,0.0,9400000.0,92.5,84.44448131678503,84.27672955974843,81.57248157248158,439358.0,0.0,0.0,1.0,0.0,?,0.0,0.0,339.0,230.0,230.0,11.0,0.0,0.0,1.0
9500000.0,15.546875,0.0,9500000.0,93.30000000000001,85.66808131973443,85.8649789029536,81.98924731182797,449358.0,0.0,0.0,1.0,0.0,?,0.0,0.0,341.0,231.0,231.0,11.0,0.0,0.0,1.0
9600000.0,15.734375,0.0,9600000.0,94.0,87.0268587268159,86.66666666666666,83.28690807799441,459358.0,0.0,0.0,1.0,0.0,?,0.0,0.0,361.0,250.0,250.0,11.0,0.0,0.0,1.0
9700000.0,15.921875,0.0,9700000.0,92.9,84.89335988697681,84.76394849785409,81.26649076517151,469358.0,0.0,0.0,1.0,0.0,?,0.0,0.0,361.0,250.0,250.0,11.0,0.0,0.0,1.0
9800000.0,16.109375,0.0,9800000.0,94.5,88.14205388250714,88.19742489270385,84.89010989010988,479358.0,0.0,0.0,1.0,0.0,?,0.0,0.0,381.0,269.0,269.0,11.0,0.0,0.0,1.0
9900000.0,16.296875,0.0,9900000.0,92.9,84.05368741633802,84.82905982905984,78.9940828402367,489358.0,0.0,0.0,1.0,0.0,?,0.0,0.0,381.0,269.0,269.0,11.0,0.0,0.0,1.0
1.0E7,16.5,0.0,1.0E7,92.9,84.76329456199838,85.08403361344538,81.01604278074868,499358.0,0.0,0.0,1.0,0.0,?,0.0,0.0,423.0,308.0,308.0,11.0,0.0,0.0,1.0
