learning evaluation instances,evaluation time (cpu seconds),model cost (RAM-Hours),classified instances,classifications correct (percent),Kappa Statistic (percent),Kappa Temporal Statistic (percent),Kappa M Statistic (percent),model training instances,model serialized size (bytes),labeling cost,newThreshold,maxPosterior,accuracyBaseLearner (percent),Change detected,Warning detected
100000.0,0.15625,6.769227588342296E-9,100000.0,67.30000000000001,30.971882124461704,29.373650107991367,28.13186813186814,9159.0,9208.0,0.0,1.0,0.0,?,1.0,26.0
200000.0,0.3125,1.2925011105835438E-8,200000.0,58.599999999999994,10.091862662062677,9.606986899563303,4.387990762124715,19159.0,9208.0,0.0,1.0,0.0,?,0.0,64.0
300000.0,0.484375,1.9020517356693744E-8,300000.0,60.199999999999996,12.294619561384943,16.38655462184873,6.132075471698118,29159.0,9208.0,0.0,1.0,0.0,?,0.0,0.0
400000.0,0.640625,2.3947472477124796E-8,400000.0,62.3,17.06265399507217,24.448897795591183,12.121212121212132,39159.0,9208.0,0.0,1.0,0.0,?,0.0,0.0
500000.0,0.765625,2.7433464614053564E-8,500000.0,62.1,14.144617615077937,19.532908704883223,6.188118811881193,49159.0,9208.0,0.0,1.0,0.0,?,0.0,45.0
600000.0,0.921875,3.117654058668348E-8,600000.0,59.9,12.658999825753606,23.47328244274809,6.088992974238881,59159.0,9208.0,0.0,1.0,0.0,?,0.0,0.0
700000.0,1.078125,3.4305202360782355E-8,700000.0,59.8,11.936348819684193,15.723270440251563,5.6338028169014125,69159.0,9208.0,0.0,1.0,0.0,?,0.0,0.0
800000.0,1.21875,3.65680251787934E-8,800000.0,67.0,28.292358572974486,31.818181818181824,23.787528868360294,79159.0,9208.0,0.0,1.0,0.0,?,0.0,0.0
900000.0,1.375,3.8467858555830185E-8,900000.0,58.5,10.39813455393382,18.78669275929549,5.681818181818162,89159.0,9208.0,0.0,1.0,0.0,?,0.0,0.0
1000000.0,1.53125,3.9753277734335926E-8,1000000.0,61.3,14.93159357085077,20.85889570552147,9.579439252336456,99159.0,9208.0,0.0,1.0,0.0,?,0.0,0.0
1100000.0,1.6875,4.657456884160638E-8,1100000.0,56.99999999999999,5.683966713020435,10.973084886128351,0.6928406466512708,109059.0,9208.0,0.0,1.0,0.0,?,0.0,0.0
1200000.0,1.84375,5.2781445750345785E-8,1200000.0,59.9,10.935598219600376,20.90729783037475,2.905569007263925,119059.0,9208.0,0.0,1.0,0.0,?,0.0,0.0
1300000.0,2.015625,5.893315473157498E-8,1300000.0,66.9,26.45621145061236,32.310838445807775,21.377672209026144,129059.0,9208.0,0.0,1.0,0.0,?,0.0,0.0
1400000.0,2.171875,6.39112032432523E-8,1400000.0,64.60000000000001,20.723077198702917,27.902240325865584,15.311004784689008,139059.0,9208.0,0.0,1.0,0.0,?,0.0,0.0
1500000.0,2.3125,6.783847412508395E-8,1500000.0,63.1,18.465291403722752,24.539877300613497,12.765957446808521,149059.0,9208.0,0.0,1.0,0.0,?,0.0,0.0
1600000.0,2.46875,7.158769423969917E-8,1600000.0,65.2,23.084063813704304,26.42706131078224,17.339667458432316,159059.0,9208.0,0.0,1.0,0.0,?,0.0,0.0
1700000.0,2.625,7.472250015578336E-8,1700000.0,67.80000000000001,29.29044498708783,33.19502074688798,23.696682464454994,169059.0,9208.0,0.0,1.0,0.0,?,0.0,0.0
1800000.0,2.78125,7.72428918733365E-8,1800000.0,59.199999999999996,12.177985948477744,16.904276985743376,8.520179372197292,179059.0,9208.0,0.0,1.0,0.0,?,0.0,0.0
1900000.0,2.921875,7.895827164045638E-8,1900000.0,58.699999999999996,9.350307287093935,14.137214137214126,2.8235294117647083,189059.0,9208.0,0.0,1.0,0.0,?,0.0,0.0
2000000.0,3.078125,8.024983496094743E-8,2000000.0,61.1,15.299261426978816,22.0440881763527,10.16166281755197,199059.0,9208.0,0.0,1.0,0.0,?,0.0,0.0
2100000.0,3.234375,8.70772702102032E-8,2100000.0,59.8,10.5907681631963,19.438877755511015,4.057279236276853,208959.0,9208.0,0.0,1.0,0.0,?,0.0,0.0
2200000.0,3.40625,9.391159336600039E-8,2200000.0,69.1,31.284468955701815,33.1168831168831,25.54216867469879,218959.0,9208.0,0.0,1.0,0.0,?,0.0,0.0
2300000.0,3.546875,9.89503395329747E-8,2300000.0,59.8,12.50827036250304,14.830508474576263,6.94444444444445,228959.0,9208.0,0.0,1.0,0.0,?,0.0,0.0
2400000.0,3.671875,1.0291130618295736E-7,2400000.0,58.199999999999996,0.0,14.168377823408616,0.0,506.0,8800.0,0.0,1.0,0.0,?,4.0,25.0
2500000.0,3.828125,1.0726750285054247E-7,2500000.0,58.4,9.114742637420251,13.333333333333321,3.2558139534883748,8471.0,9208.0,0.0,1.0,0.0,?,1.0,80.0
2600000.0,3.984375,1.11022867107143E-7,2600000.0,70.39999999999999,35.53333101021012,39.094650205761305,30.516431924882625,18471.0,9208.0,0.0,1.0,0.0,?,0.0,1.0
2700000.0,4.140625,1.141638171652125E-7,2700000.0,60.3,13.003462330718312,20.599999999999994,6.807511737089207,28471.0,9208.0,0.0,1.0,0.0,?,0.0,0.0
2800000.0,4.296875,1.1669035302475096E-7,2800000.0,61.3,14.068745003996796,21.0204081632653,6.746987951807235,38471.0,9208.0,0.0,1.0,0.0,?,0.0,0.0
2900000.0,4.453125,1.1860247468575835E-7,2900000.0,67.30000000000001,27.868071364286113,34.33734939759037,22.877358490566056,48471.0,9208.0,0.0,1.0,0.0,?,0.0,0.0
3000000.0,4.609375,1.1990018214823472E-7,3000000.0,68.89999999999999,29.751170060897365,35.4771784232365,23.58722358722358,58471.0,9208.0,0.0,1.0,0.0,?,0.0,0.0
3100000.0,4.765625,1.267337615394758E-7,3100000.0,58.599999999999994,9.149959622204266,14.989733059548247,1.8957345971563997,68371.0,9208.0,0.0,1.0,0.0,?,0.0,0.0
3200000.0,4.921875,1.3295292673218582E-7,3200000.0,60.0,11.556082288221035,15.611814345991554,5.213270142180098,78371.0,9208.0,0.0,1.0,0.0,?,0.0,0.0
3300000.0,5.0625,1.379972026269469E-7,3300000.0,62.2,14.705032854357716,21.900826446280988,6.435643564356441,88371.0,9208.0,0.0,1.0,0.0,?,0.0,0.0
3400000.0,5.21875,1.4298753942259483E-7,3400000.0,60.699999999999996,15.75129267100558,17.954070981210847,11.085972850678719,98371.0,9208.0,0.0,1.0,0.0,?,0.0,0.0
3500000.0,5.375,1.4736346201971173E-7,3500000.0,59.099999999999994,9.884899441242313,19.169960474308294,4.215456674473071,108371.0,9208.0,0.0,1.0,0.0,?,0.0,0.0
3600000.0,5.53125,1.5112497041829758E-7,3600000.0,62.4,15.01019425595495,23.732251521298174,8.958837772397102,118371.0,9208.0,0.0,1.0,0.0,?,0.0,0.0
3700000.0,5.6875,1.5427206461835238E-7,3700000.0,61.8,15.934578616573658,16.775599128540296,8.612440191387567,128371.0,9208.0,0.0,1.0,0.0,?,0.0,0.0
3800000.0,5.84375,1.5680474461987613E-7,3800000.0,61.199999999999996,11.89827429609446,25.240847784200387,3.0000000000000027,138371.0,9208.0,0.0,1.0,0.0,?,0.0,0.0
3900000.0,6.0,1.5872301042286886E-7,3900000.0,66.0,24.394376720583868,29.752066115702487,18.46522781774582,148371.0,9208.0,0.0,1.0,0.0,?,0.0,0.0
4000000.0,6.15625,1.6002686202733053E-7,4000000.0,62.5,14.101154480483771,26.7578125,5.303030303030307,158371.0,9208.0,0.0,1.0,0.0,?,0.0,0.0
4100000.0,6.3125,1.668665855605569E-7,4100000.0,59.5,11.199010691200591,21.81467181467181,3.8004750593824257,168271.0,9208.0,0.0,1.0,0.0,?,0.0,0.0
4200000.0,6.46875,1.7309189489525224E-7,4200000.0,69.3,29.938747752106394,34.957627118644055,23.057644110275678,178271.0,9208.0,0.0,1.0,0.0,?,0.0,0.0
4300000.0,6.625,1.7870279003141655E-7,4300000.0,72.0,38.4184990828755,44.66403162055336,32.853717026378895,188271.0,9208.0,0.0,1.0,0.0,?,0.0,0.0
4400000.0,6.78125,1.836992709690498E-7,4400000.0,59.8,11.502476609796371,14.649681528662411,5.411764705882357,198271.0,9208.0,0.0,1.0,0.0,?,0.0,0.0
4500000.0,6.9375,1.88081337708152E-7,4500000.0,61.3,14.573308021720887,20.696721311475404,7.637231503579958,208271.0,9208.0,0.0,1.0,0.0,?,0.0,0.0
4600000.0,7.09375,1.9184899024872315E-7,4600000.0,59.8,11.560884391156085,18.12627291242362,5.411764705882357,218271.0,9208.0,0.0,1.0,0.0,?,0.0,0.0
4700000.0,7.25,1.9500222859076328E-7,4700000.0,58.9,8.785043410329694,18.774703557312247,0.48426150121065414,228271.0,9208.0,0.0,1.0,0.0,?,0.0,0.0
4800000.0,7.40625,1.9754105273427236E-7,4800000.0,62.4,17.341927427970965,21.008403361344534,11.943793911007035,238271.0,9208.0,0.0,1.0,0.0,?,0.0,0.0
4900000.0,7.5625,1.9946546267925039E-7,4900000.0,67.0,27.664574053940328,32.653061224489804,23.61111111111113,248271.0,9208.0,0.0,1.0,0.0,?,0.0,0.0
5000000.0,7.71875,2.008689140590529E-7,5000000.0,68.2,29.58993888938094,36.27254509018037,24.644549763033194,258271.0,9208.0,0.0,1.0,0.0,?,0.0,0.0
5100000.0,7.859375,2.0711430503676338E-7,5100000.0,50.4,0.33436213991769526,-0.20202020202020218,0.0,268171.0,9208.0,0.0,1.0,0.0,?,0.0,0.0
5200000.0,8.015625,2.1343921414679954E-7,5200000.0,49.1,-2.1628825588490335,-4.948453608247427,-4.303278688524594,278171.0,9208.0,0.0,1.0,0.0,?,0.0,0.0
5300000.0,8.171875,2.1914970905830464E-7,5300000.0,54.50000000000001,3.5362957937584865,10.256410256410266,-0.6637168141592927,288171.0,9208.0,0.0,1.0,0.0,?,0.0,0.0
5400000.0,8.3125,2.237361816999813E-7,5400000.0,48.1,-3.318946982847865,1.5180265654648968,-4.6370967741935525,298171.0,9208.0,0.0,1.0,0.0,?,0.0,0.0
5500000.0,8.484375,2.2866601486586865E-7,5500000.0,51.800000000000004,1.0575754589943274,2.822580645161293,-0.8368200836820092,308171.0,9208.0,0.0,1.0,0.0,?,0.0,0.0
5600000.0,8.625,2.3210550554924544E-7,5600000.0,53.0,0.8003512089693404,3.8854805725971406,-0.4273504273504277,309678.0,9208.0,0.0,1.0,0.0,?,1.0,2.0
5700000.0,8.765625,2.349920234539443E-7,5700000.0,50.8,-0.04717671747653568,4.093567251461992,-1.234567901234569,319678.0,9208.0,0.0,1.0,0.0,?,0.0,0.0
5800000.0,8.921875,2.375848513717453E-7,5800000.0,54.2,4.426034515139491,10.371819960861066,-2.9213483146067443,329678.0,9208.0,0.0,1.0,0.0,?,0.0,0.0
5900000.0,9.046875,2.391675823471613E-7,5900000.0,51.2,-0.5141049301344693,2.008032128514058,-2.521008403361347,339678.0,9208.0,0.0,1.0,0.0,?,0.0,0.0
6000000.0,9.203125,2.405315818679002E-7,6000000.0,51.9,2.5392477083552816,-0.6276150627615069,5.686274509803926,349678.0,9208.0,0.0,1.0,0.0,?,0.0,0.0
6100000.0,9.359375,2.4743145331740385E-7,6100000.0,50.3,0.832448740153072,1.38888888888889,3.1189083820662793,359578.0,9208.0,0.0,1.0,0.0,?,0.0,0.0
6200000.0,9.5,2.530883648432792E-7,6200000.0,48.5,-4.162452975203277,-2.385685884691851,-4.887983706720982,369578.0,9208.0,0.0,1.0,0.0,?,0.0,0.0
6300000.0,9.65625,2.5875940789572076E-7,6300000.0,47.5,-3.0219780219780157,-6.924643584521391,-12.660944206008596,379578.0,9208.0,0.0,1.0,0.0,?,0.0,0.0
6400000.0,9.8125,2.6381603674963126E-7,6400000.0,49.9,-1.3382310107123343,1.9569471624266161,0.7920792079207928,389578.0,9208.0,0.0,1.0,0.0,?,0.0,0.0
6500000.0,9.96875,2.682582514050107E-7,6500000.0,52.5,1.272031925507153,3.651115618661261,-1.495726495726497,399578.0,9208.0,0.0,1.0,0.0,?,0.0,0.0
6600000.0,10.125,2.720860518618591E-7,6600000.0,49.5,-2.4606794461848165,1.1741682974559697,-4.989604989604994,409578.0,9208.0,0.0,1.0,0.0,?,0.0,0.0
6700000.0,10.28125,2.7529943812017646E-7,6700000.0,50.6,1.7755950132225147,0.8032128514056233,1.200000000000001,419578.0,9208.0,0.0,1.0,0.0,?,0.0,0.0
6800000.0,10.421875,2.7763851297398417E-7,6800000.0,50.9,0.21866540940829585,0.8080808080808087,-1.0288065843621408,429578.0,9208.0,0.0,1.0,0.0,?,0.0,0.0
6900000.0,10.578125,2.796230708352395E-7,6900000.0,49.2,-1.4753882232618352,-1.195219123505977,-6.498951781970656,439578.0,9208.0,0.0,1.0,0.0,?,0.0,0.0
7000000.0,10.734375,2.809932144979637E-7,7000000.0,52.400000000000006,-0.39483008807747794,4.609218436873752,-3.9301310043668156,449578.0,9208.0,0.0,1.0,0.0,?,0.0,0.0
7100000.0,10.875,2.8720862853030376E-7,7100000.0,49.9,0.7173714874559097,3.281853281853285,-2.6639344262295106,459478.0,9208.0,0.0,1.0,0.0,?,0.0,0.0
7200000.0,11.03125,2.9350022992326164E-7,7200000.0,53.900000000000006,5.4490860761986095,7.429718875502014,3.75782881002088,469478.0,9208.0,0.0,1.0,0.0,?,0.0,0.0
7300000.0,11.171875,2.986096983982458E-7,7300000.0,52.1,-0.6353261508983703,5.335968379446645,-3.904555314533626,479478.0,9208.0,0.0,1.0,0.0,?,0.0,0.0
7400000.0,11.34375,3.041787486937312E-7,7400000.0,53.800000000000004,4.25703876553752,11.663479923518175,1.9108280254777086,489478.0,9208.0,0.0,1.0,0.0,?,0.0,0.0
7500000.0,11.5,3.0862710749109596E-7,7500000.0,48.4,-3.6040558176889914,4.4444444444444375,-5.954825462012326,499478.0,9208.0,0.0,1.0,0.0,?,0.0,0.0
7600000.0,11.65625,3.124610520899297E-7,7600000.0,51.800000000000004,3.172409359732584,2.4291497975708523,3.0181086519114717,509478.0,9208.0,0.0,1.0,0.0,?,0.0,0.0
7700000.0,11.796875,3.153586294502021E-7,7700000.0,48.699999999999996,-4.795679067829168,-2.805611222444892,-6.43153526970955,519478.0,9208.0,0.0,1.0,0.0,?,0.0,0.0
7800000.0,11.953125,3.179637456519737E-7,7800000.0,54.300000000000004,2.646647806673709,7.302231237322522,-1.330376940133039,529478.0,9208.0,0.0,1.0,0.0,?,0.0,0.0
7900000.0,12.09375,3.197553774548902E-7,7900000.0,49.2,-3.2482551451369774,0.9746588693957123,-4.312114989733064,539478.0,9208.0,0.0,1.0,0.0,?,0.0,0.0
8000000.0,12.234375,3.209940364791288E-7,8000000.0,51.300000000000004,-1.5277106022448677,-1.03734439834025,-4.282655246252681,549478.0,9208.0,0.0,1.0,0.0,?,0.0,0.0
8100000.0,12.375,3.272149802392556E-7,8100000.0,51.2,0.25997808989681404,4.873294346978561,-1.2448132780082999,559378.0,9208.0,0.0,1.0,0.0,?,0.0,0.0
8200000.0,12.53125,3.335127257741988E-7,8200000.0,49.8,0.5672814857070375,-0.40000000000000036,0.39682539682539714,569378.0,9208.0,0.0,1.0,0.0,?,0.0,0.0
8300000.0,12.6875,3.3919605711061097E-7,8300000.0,48.6,0.05910900945743587,-5.54414784394251,-6.418219461697729,579378.0,9208.0,0.0,1.0,0.0,?,0.0,0.0
8400000.0,12.84375,3.442649742484921E-7,8400000.0,51.800000000000004,2.2625608831246784,1.2295081967213126,1.4314928425357885,589378.0,9208.0,0.0,1.0,0.0,?,0.0,0.0
8500000.0,13.0,3.487194771878421E-7,8500000.0,53.6,2.212443466568881,4.132231404958682,-1.0893246187363845,599378.0,9208.0,0.0,1.0,0.0,?,0.0,0.0
8600000.0,13.140625,3.5217555705457925E-7,8600000.0,51.2,0.8061532707544882,0.6109979633401228,-1.2448132780082999,609378.0,9208.0,0.0,1.0,0.0,?,0.0,0.0
8700000.0,13.28125,3.5507866414263844E-7,8700000.0,52.800000000000004,1.1394101876675604,5.78842315369262,-2.6086956521739157,619378.0,9208.0,0.0,1.0,0.0,?,0.0,0.0
8800000.0,13.4375,3.576899244863954E-7,8800000.0,52.300000000000004,3.7864179501867814,3.63636363636364,3.245436105476676,629378.0,9208.0,0.0,1.0,0.0,?,0.0,0.0
8900000.0,13.578125,3.594870860170987E-7,8900000.0,52.5,2.0416580738296597,8.123791102514513,0.0,639378.0,9208.0,0.0,1.0,0.0,?,0.0,0.0
9000000.0,13.734375,3.6086951796379355E-7,9000000.0,55.60000000000001,5.925825479693538,17.47211895910781,1.7699115044247804,649378.0,9208.0,0.0,1.0,0.0,?,0.0,0.0
9100000.0,13.890625,3.6778782183925313E-7,9100000.0,53.300000000000004,2.0463297787547483,8.610567514677111,-1.3015184381778755,659278.0,9208.0,0.0,1.0,0.0,?,0.0,0.0
9200000.0,14.03125,3.734613225484888E-7,9200000.0,51.5,3.0000000000000027,4.339250493096651,3.0000000000000027,669278.0,9208.0,0.0,1.0,0.0,?,0.0,0.0
9300000.0,14.1875,3.791507980268863E-7,9300000.0,51.300000000000004,1.1921862699745966,2.6000000000000023,0.0,679278.0,9208.0,0.0,1.0,0.0,?,0.0,0.0
9400000.0,14.34375,3.842258593067527E-7,9400000.0,50.0,0.7530855865691065,2.9126213592233037,5.303030303030307,689278.0,9208.0,0.0,1.0,0.0,?,0.0,0.0
9500000.0,14.46875,3.87794376971821E-7,9500000.0,51.7,1.5571498451002732,5.294117647058829,3.206412825651305,699278.0,9208.0,0.0,1.0,0.0,?,0.0,0.0
9600000.0,14.625,3.9164060985462534E-7,9600000.0,49.3,-2.0983527326916076,-1.1976047904191627,-2.4242424242424265,709278.0,9208.0,0.0,1.0,0.0,?,0.0,0.0
9700000.0,14.78125,3.948724285388986E-7,9700000.0,50.4,-1.6226848057695538,8.148148148148145,-3.765690376569041,719278.0,9208.0,0.0,1.0,0.0,?,0.0,0.0
9800000.0,14.921875,3.9722809257606666E-7,9800000.0,50.2,-0.4579105561495157,1.7751479289940844,-1.0141987829614614,729278.0,9208.0,0.0,1.0,0.0,?,0.0,0.0
9900000.0,15.078125,3.992310828632779E-7,9900000.0,52.7,0.12584565748022383,6.150793650793656,-3.0501089324618764,739278.0,9208.0,0.0,1.0,0.0,?,0.0,0.0
1.0E7,15.21875,4.0048080134309005E-7,1.0E7,51.300000000000004,-2.0835953548819983,4.3222003929273125,-2.0964360587002115,749278.0,9208.0,0.0,1.0,0.0,?,0.0,0.0
