learning evaluation instances,evaluation time (cpu seconds),model cost (RAM-Hours),classified instances,classifications correct (percent),Kappa Statistic (percent),Kappa Temporal Statistic (percent),Kappa M Statistic (percent),model training instances,model serialized size (bytes),labeling cost,newThreshold,maxPosterior,accuracyBaseLearner (percent),Change detected,Warning detected
100000.0,0.15625,1.1835557719071708E-9,100000.0,60.0,10.554561717352419,14.712153518123658,2.9126213592233037,1452.0,9208.0,0.0,1.0,0.0,?,6.0,48.0
200000.0,0.3125,2.2283832853039105E-9,200000.0,63.0,0.0,20.258620689655167,0.0,942.0,8800.0,0.0,1.0,0.0,?,5.0,48.0
300000.0,0.453125,3.2665169176956017E-9,300000.0,63.0,22.752838311251782,16.099773242630377,4.392764857881141,5591.0,9208.0,0.0,1.0,0.0,?,3.0,65.0
400000.0,0.609375,4.2867678631511E-9,400000.0,52.6,-1.7241601318551107,2.268041237113404,-24.40944881889763,153.0,8800.0,0.0,1.0,0.0,?,9.0,40.0
500000.0,0.765625,5.42149387506975E-9,500000.0,62.2,11.658712834727005,20.920502092050206,0.7874015748031503,1256.0,9208.0,0.0,1.0,0.0,?,8.0,44.0
600000.0,0.921875,6.5157979002429375E-9,600000.0,58.599999999999994,13.401803083230481,14.462809917355363,-11.590296495956883,9672.0,9208.0,0.0,1.0,0.0,?,1.0,5.0
700000.0,1.0625,7.415688337965143E-9,700000.0,63.1,8.062587203508086,20.985010706638114,-1.6528925619834725,1034.0,9208.0,0.0,1.0,0.0,?,6.0,18.0
800000.0,1.21875,8.53004166856408E-9,800000.0,61.199999999999996,10.845588235294121,16.198704103671698,1.0204081632653068,9426.0,9208.0,0.0,1.0,0.0,?,1.0,30.0
900000.0,1.375,9.622082062479522E-9,900000.0,62.6,9.364094610314076,21.593291404612156,-3.8888888888888924,18950.0,9208.0,0.0,1.0,0.0,?,0.0,3.0
1000000.0,1.515625,1.059385896142986E-8,1000000.0,60.3,9.215641436085068,15.531914893617014,-1.7948717948717965,28474.0,9208.0,0.0,1.0,0.0,?,0.0,0.0
1100000.0,1.671875,1.179034976909558E-8,1100000.0,61.5,8.803213916866449,16.846652267818566,-1.8518518518518534,37996.0,9208.0,0.0,1.0,0.0,?,0.0,0.0
1200000.0,1.828125,1.2974552292790678E-8,1200000.0,60.3,8.508480825958692,15.711252653927804,-2.3195876288659814,47520.0,9208.0,0.0,1.0,0.0,?,0.0,0.0
1300000.0,1.96875,1.4029275108542707E-8,1300000.0,56.99999999999999,2.278057560496683,7.725321888412001,-8.040201005025132,57044.0,9208.0,0.0,1.0,0.0,?,0.0,0.0
1400000.0,2.125,1.5188901064296563E-8,1400000.0,57.099999999999994,6.557119955391374,11.728395061728383,0.0,66568.0,9208.0,0.0,1.0,0.0,?,0.0,0.0
1500000.0,2.265625,1.6221504968901475E-8,1500000.0,64.2,14.641590050738165,25.10460251046025,1.1049723756906087,76092.0,9208.0,0.0,1.0,0.0,?,0.0,0.0
1600000.0,2.40625,1.724304941793283E-8,1600000.0,58.599999999999994,6.261887079537018,14.639175257731948,-4.020100502512566,85616.0,9208.0,0.0,1.0,0.0,?,0.0,0.0
1700000.0,2.5625,1.8365810521774823E-8,1700000.0,60.0,4.549185804554906,11.504424778761049,-9.289617486338807,95140.0,9208.0,0.0,1.0,0.0,?,0.0,0.0
1800000.0,2.703125,1.936523605965906E-8,1800000.0,58.5,-0.13415563984519038,12.262156448202948,-17.23163841807911,104664.0,9208.0,0.0,1.0,0.0,?,0.0,0.0
1900000.0,2.859375,2.046342059555981E-8,1900000.0,59.9,7.681965522322076,16.28392484342379,-3.3505154639175285,114188.0,9208.0,0.0,1.0,0.0,?,0.0,0.0
2000000.0,3.015625,2.1549316847489943E-8,2000000.0,56.10000000000001,-0.43835967457054426,1.5695067264574005,-11.704834605597945,123712.0,9208.0,0.0,1.0,0.0,?,0.0,0.0
2100000.0,3.171875,2.2622924815449453E-8,2100000.0,63.0,13.184260541073222,20.940170940170937,2.3746701846965723,133236.0,9208.0,0.0,1.0,0.0,?,0.0,0.0
2200000.0,3.3125,2.3694236814561823E-8,2200000.0,61.3,6.963102576184475,17.659574468085097,-7.799442896935941,142758.0,9208.0,0.0,1.0,0.0,?,0.0,0.0
2300000.0,3.46875,2.487229519627161E-8,2300000.0,59.599999999999994,6.654343807763387,14.947368421052623,-6.315789473684216,152282.0,9208.0,0.0,1.0,0.0,?,0.0,0.0
2400000.0,3.609375,2.592148828423686E-8,2400000.0,57.9,1.4476197610397317,10.9936575052854,-11.67108753315651,161806.0,9208.0,0.0,1.0,0.0,?,0.0,0.0
2500000.0,3.765625,2.7074970098005404E-8,2500000.0,57.8,-0.9110691312561494,7.65864332603937,-15.616438356164398,171330.0,9208.0,0.0,1.0,0.0,?,0.0,0.0
2600000.0,3.921875,2.821616362780333E-8,2600000.0,62.4,11.395984541427081,16.81415929203539,0.5291005291005296,180854.0,9208.0,0.0,1.0,0.0,?,0.0,0.0
2700000.0,4.0625,2.92321783490479E-8,2700000.0,60.6,8.201304753028893,16.17021276595744,-3.141361256544505,190378.0,9208.0,0.0,1.0,0.0,?,0.0,0.0
2800000.0,4.21875,3.034879531090458E-8,2800000.0,64.60000000000001,16.531482249971695,25.0,5.851063829787239,199902.0,9208.0,0.0,1.0,0.0,?,0.0,0.0
2900000.0,4.359375,3.134269112100204E-8,2900000.0,60.4,11.641854985541395,20.48192771084337,5.263157894736846,209426.0,9208.0,0.0,1.0,0.0,?,0.0,0.0
3000000.0,4.5,3.232552747552594E-8,3000000.0,58.3,5.0978607191624885,10.897435897435884,-4.5112781954887256,218950.0,9208.0,0.0,1.0,0.0,?,0.0,0.0
3100000.0,4.640625,3.329730437447628E-8,3100000.0,64.5,16.319372418865143,24.78813559322034,3.532608695652177,228474.0,9208.0,0.0,1.0,0.0,?,0.0,0.0
3200000.0,4.78125,3.4374146101375425E-8,3200000.0,62.6,14.474797506505855,21.097046413502106,4.834605597964381,237996.0,9208.0,0.0,1.0,0.0,?,0.0,0.0
3300000.0,4.921875,3.543992837270101E-8,3300000.0,61.5,10.672853828306273,17.55888650963597,0.0,247520.0,9208.0,0.0,1.0,0.0,?,0.0,0.0
3400000.0,5.0625,3.649465118845304E-8,3400000.0,57.99999999999999,4.12316064849266,11.949685534591183,-7.969151670951163,257044.0,9208.0,0.0,1.0,0.0,?,0.0,0.0
3500000.0,5.203125,3.753831454863151E-8,3500000.0,57.199999999999996,1.296520932978471,8.351177730192703,-10.025706940874045,266568.0,9208.0,0.0,1.0,0.0,?,0.0,0.0
3600000.0,5.359375,3.868565222041474E-8,3600000.0,63.3,12.592409115158912,20.21739130434782,1.3440860215053776,276092.0,9208.0,0.0,1.0,0.0,?,0.0,0.0
3700000.0,5.5,3.970719666944609E-8,3700000.0,55.1,-3.1197751116173795,6.263048016701466,-14.540816326530596,285616.0,9208.0,0.0,1.0,0.0,?,0.0,0.0
3800000.0,5.65625,4.082995777328809E-8,3800000.0,62.1,15.046802711329477,23.895582329317268,7.33496332518338,295140.0,9208.0,0.0,1.0,0.0,?,0.0,0.0
3900000.0,5.8125,4.194043059315946E-8,3900000.0,62.3,11.606096131301287,16.035634743875267,-0.5333333333333339,304664.0,9208.0,0.0,1.0,0.0,?,0.0,0.0
4000000.0,5.9375,4.281897822188006E-8,4000000.0,60.4,9.109688080975005,16.455696202531637,-1.278772378516625,314188.0,9208.0,0.0,1.0,0.0,?,0.0,0.0
4100000.0,6.09375,4.3904874473810194E-8,4100000.0,63.9,16.079299250525377,24.31865828092243,5.989583333333338,323712.0,9208.0,0.0,1.0,0.0,?,0.0,0.0
4200000.0,6.25,4.4978482441769705E-8,4200000.0,57.8,2.997425524089725,13.701431492842525,-8.762886597938152,333236.0,9208.0,0.0,1.0,0.0,?,0.0,0.0
4300000.0,6.390625,4.604979444088207E-8,4300000.0,61.7,16.038968441174667,20.041753653444673,9.241706161137447,342758.0,9208.0,0.0,1.0,0.0,?,0.0,0.0
4400000.0,6.53125,4.711004698442088E-8,4400000.0,57.8,0.6946666917675302,10.403397027600835,-10.471204188481686,352282.0,9208.0,0.0,1.0,0.0,?,0.0,0.0
4500000.0,6.671875,4.815924007238613E-8,4500000.0,63.1,11.827114237651013,18.54304635761589,-3.6516853932584303,361806.0,9208.0,0.0,1.0,0.0,?,0.0,0.0
4600000.0,6.828125,4.931272188615468E-8,4600000.0,58.599999999999994,2.257059212390219,11.349036402569581,-11.891891891891902,371330.0,9208.0,0.0,1.0,0.0,?,0.0,0.0
4700000.0,6.984375,5.045391541595261E-8,4700000.0,61.5,10.2555734785406,15.384615384615374,-1.8518518518518534,380854.0,9208.0,0.0,1.0,0.0,?,0.0,0.0
4800000.0,7.125,5.1469930137197183E-8,4800000.0,63.7,14.606720427578038,24.688796680497923,3.9682539682539715,390378.0,9208.0,0.0,1.0,0.0,?,0.0,0.0
4900000.0,7.265625,5.24748854028682E-8,4900000.0,62.8,10.037145952638932,22.821576763485474,-2.1978021978021998,399902.0,9208.0,0.0,1.0,0.0,?,0.0,0.0
5000000.0,7.421875,5.367266971410977E-8,5000000.0,64.7,15.601928005814617,24.411134903640257,4.336043360433608,409426.0,9208.0,0.0,1.0,0.0,?,0.0,0.0
5100000.0,7.5625,5.473961613865363E-8,5100000.0,55.60000000000001,-5.513307984790875,4.516129032258069,-20.652173913043466,418950.0,9208.0,0.0,1.0,0.0,?,0.0,0.0
5200000.0,7.71875,5.5912823881953964E-8,5200000.0,53.800000000000004,-8.462416129441214,5.71428571428572,-24.528301886792445,428474.0,9208.0,0.0,1.0,0.0,?,0.0,0.0
5300000.0,7.859375,5.7073775678873074E-8,5300000.0,52.0,-10.403709564641357,3.2258064516129057,-22.448979591836725,437996.0,9208.0,0.0,1.0,0.0,?,0.0,0.0
5400000.0,8.015625,5.8351433835923687E-8,5400000.0,55.7,-4.537345553741141,2.63736263736264,-15.968586387434538,447520.0,9208.0,0.0,1.0,0.0,?,0.0,0.0
5500000.0,8.171875,5.961680370900367E-8,5500000.0,55.2,-6.292113504792633,4.4776119402985115,-21.08108108108107,457044.0,9208.0,0.0,1.0,0.0,?,0.0,0.0
5600000.0,8.3125,6.07445771392021E-8,5600000.0,52.900000000000006,-11.216056670602121,1.670146137787058,-25.599999999999994,466568.0,9208.0,0.0,1.0,0.0,?,0.0,0.0
5700000.0,8.46875,6.198537044434085E-8,5700000.0,59.699999999999996,2.666409042604565,7.990867579908659,-11.944444444444455,476092.0,9208.0,0.0,1.0,0.0,?,0.0,0.0
5800000.0,8.609375,6.309102496339215E-8,5800000.0,60.099999999999994,3.917470163845986,15.106382978723396,-10.22099447513813,485616.0,9208.0,0.0,1.0,0.0,?,0.0,0.0
5900000.0,8.765625,6.430724170058965E-8,5900000.0,61.199999999999996,4.759566999680874,13.199105145413858,-9.915014164305958,495140.0,9208.0,0.0,1.0,0.0,?,0.0,0.0
6000000.0,8.921875,6.551117015381654E-8,6000000.0,61.8,0.0,21.399176954732507,0.0,504664.0,9208.0,0.0,1.0,0.0,?,0.0,0.0
6100000.0,9.0625,6.658364630614718E-8,6100000.0,62.0,0.0,19.83122362869198,0.0,514188.0,9208.0,0.0,1.0,0.0,?,0.0,0.0
6200000.0,9.21875,6.776299819143282E-8,6200000.0,61.4,0.0,20.247933884297517,0.0,523712.0,9208.0,0.0,1.0,0.0,?,0.0,0.0
6300000.0,9.359375,6.872924536259638E-8,6300000.0,62.4,0.0,18.790496760259174,0.0,533236.0,9208.0,0.0,1.0,0.0,?,0.0,0.0
6400000.0,9.5,6.98846674317287E-8,6400000.0,60.4,0.0,18.01242236024844,0.0,542758.0,9208.0,0.0,1.0,0.0,?,0.0,0.0
6500000.0,9.640625,7.102903004528747E-8,6500000.0,61.8,0.0,20.416666666666664,0.0,552282.0,9208.0,0.0,1.0,0.0,?,0.0,0.0
6600000.0,9.796875,7.228825577638216E-8,6600000.0,60.3,0.0,15.889830508474567,0.0,561806.0,9208.0,0.0,1.0,0.0,?,0.0,0.0
6700000.0,9.9375,7.341049947879381E-8,6700000.0,64.3,0.0,26.239669421487605,0.0,571330.0,9208.0,0.0,1.0,0.0,?,0.0,0.0
6800000.0,10.09375,7.464514864194725E-8,6800000.0,60.9,0.0,14.628820960698679,0.0,580854.0,9208.0,0.0,1.0,0.0,?,0.0,0.0
6900000.0,10.21875,7.56230373452935E-8,6900000.0,64.1,0.0,20.222222222222218,0.0,590378.0,9208.0,0.0,1.0,0.0,?,0.0,0.0
7000000.0,10.34375,7.659109542146325E-8,7000000.0,60.099999999999994,0.0,18.73727087576374,0.0,599902.0,9208.0,0.0,1.0,0.0,?,0.0,0.0
7100000.0,10.484375,7.766910130158067E-8,7100000.0,59.9,0.0,12.253829321663007,0.0,609426.0,9208.0,0.0,1.0,0.0,?,0.0,0.0
7200000.0,10.625,7.873604772612452E-8,7200000.0,60.4,0.0,20.799999999999997,0.0,618950.0,9208.0,0.0,1.0,0.0,?,0.0,0.0
7300000.0,10.765625,7.979193469509483E-8,7300000.0,65.5,0.0,20.138888888888903,0.0,628474.0,9208.0,0.0,1.0,0.0,?,0.0,0.0
7400000.0,10.90625,8.095288649201393E-8,7400000.0,63.6,0.0,20.175438596491226,0.0,637996.0,9208.0,0.0,1.0,0.0,?,0.0,0.0
7500000.0,11.046875,8.210277883335949E-8,7500000.0,63.4,0.0,21.12068965517241,0.0,647520.0,9208.0,0.0,1.0,0.0,?,0.0,0.0
7600000.0,11.1875,8.324161171913148E-8,7600000.0,62.5,11.1627025490382,23.15573770491803,-1.90217391304348,657044.0,9208.0,0.0,1.0,0.0,?,0.0,0.0
7700000.0,11.34375,8.449469330824085E-8,7700000.0,60.199999999999996,4.400920441389105,13.289760348583869,-10.249307479224386,666568.0,9208.0,0.0,1.0,0.0,?,0.0,0.0
7800000.0,11.484375,8.561140728286572E-8,7800000.0,58.9,5.273347469346365,11.422413793103434,-7.031250000000005,676092.0,9208.0,0.0,1.0,0.0,?,0.0,0.0
7900000.0,11.640625,8.683991230403385E-8,7900000.0,63.4,13.553653421007878,22.78481012658228,3.174603174603177,685616.0,9208.0,0.0,1.0,0.0,?,0.0,0.0
8000000.0,11.796875,8.805612904123135E-8,8000000.0,61.0,8.546451367816788,15.948275862068956,-3.4482758620689684,695140.0,9208.0,0.0,1.0,0.0,?,0.0,0.0
8100000.0,11.9375,8.913966464913555E-8,8100000.0,59.5,1.7200209663955233,10.199556541019941,-15.056818181818196,704664.0,9208.0,0.0,1.0,0.0,?,0.0,0.0
8200000.0,12.09375,9.03313048183918E-8,8200000.0,61.6,10.56122829246477,15.04424778761061,-3.2258064516129057,714188.0,9208.0,0.0,1.0,0.0,?,0.0,0.0
8300000.0,12.234375,9.139272151514888E-8,8300000.0,63.9,14.926709713908648,23.678646934460886,2.4324324324324347,723712.0,9208.0,0.0,1.0,0.0,?,0.0,0.0
8400000.0,12.390625,9.246632948310838E-8,8400000.0,59.9,4.702605587611795,15.578947368421044,-10.773480662983435,733236.0,9208.0,0.0,1.0,0.0,?,0.0,0.0
8500000.0,12.5,9.336499109243353E-8,8500000.0,59.9,6.098668989612301,10.491071428571413,-6.08465608465609,742758.0,9208.0,0.0,1.0,0.0,?,0.0,0.0
8600000.0,12.65625,9.463650510749882E-8,8600000.0,63.6,12.005879167633621,22.881355932203387,-1.6759776536312867,752282.0,9208.0,0.0,1.0,0.0,?,0.0,0.0
8700000.0,12.796875,9.576980826548404E-8,8700000.0,62.1,10.464544904747505,15.590200445434288,-5.571030640668529,761806.0,9208.0,0.0,1.0,0.0,?,0.0,0.0
8800000.0,12.953125,9.701674571260809E-8,8800000.0,61.1,9.982875919840783,17.584745762711858,-1.5665796344647531,771330.0,9208.0,0.0,1.0,0.0,?,0.0,0.0
8900000.0,13.109375,9.825139487576154E-8,8900000.0,60.9,10.68083589945084,16.631130063965877,-1.2953367875647679,780854.0,9208.0,0.0,1.0,0.0,?,0.0,0.0
9000000.0,13.234375,9.922928357910779E-8,9000000.0,59.4,5.632310009483238,11.739130434782597,-5.1813471502590716,790378.0,9208.0,0.0,1.0,0.0,?,0.0,0.0
9100000.0,13.375,1.0031834891479876E-7,9100000.0,61.4,9.914115011202382,16.45021645021644,-1.578947368421054,799902.0,9208.0,0.0,1.0,0.0,?,0.0,0.0
9200000.0,13.53125,1.0151613322604034E-7,9200000.0,64.60000000000001,13.567466208297512,25.158562367864697,0.5617977528089892,809426.0,9208.0,0.0,1.0,0.0,?,0.0,0.0
9300000.0,13.671875,1.0258307965058419E-7,9300000.0,59.599999999999994,9.030317222992817,16.528925619834702,-1.5075376884422125,818950.0,9208.0,0.0,1.0,0.0,?,0.0,0.0
9400000.0,13.828125,1.0375628739388452E-7,9400000.0,62.8,10.563163563625167,23.140495867768593,-5.681818181818187,828474.0,9208.0,0.0,1.0,0.0,?,0.0,0.0
9500000.0,13.96875,1.0492626137824521E-7,9500000.0,60.4,6.383421354981792,17.327766179540703,-5.039787798408493,837996.0,9208.0,0.0,1.0,0.0,?,0.0,21.0
9600000.0,14.109375,1.0608517590703235E-7,9600000.0,60.3,6.065739785536488,14.80686695278969,-6.149732620320861,847520.0,9208.0,0.0,1.0,0.0,?,0.0,0.0
9700000.0,14.265625,1.0736057043282521E-7,9700000.0,62.4,7.967651608607968,14.932126696832567,-5.027932960893859,857044.0,9208.0,0.0,1.0,0.0,?,0.0,0.0
9800000.0,14.40625,1.0849736605046523E-7,9800000.0,62.0,9.534579216759916,20.83333333333333,-0.795755968169762,866568.0,9208.0,0.0,1.0,0.0,?,0.0,0.0
9900000.0,14.5625,1.0974818400831685E-7,9900000.0,60.0,3.868338075828629,13.79310344827585,-10.497237569060783,876092.0,9208.0,0.0,1.0,0.0,?,0.0,0.0
1.0E7,14.71875,1.1098671368219785E-7,1.0E7,63.6,11.802476315088082,22.388059701492537,-2.535211267605636,885616.0,9208.0,0.0,1.0,0.0,?,0.0,0.0
