learning evaluation instances,evaluation time (cpu seconds),model cost (RAM-Hours),classified instances,classifications correct (percent),Kappa Statistic (percent),Kappa Temporal Statistic (percent),Kappa M Statistic (percent),model training instances,model serialized size (bytes),labeling cost,newThreshold,maxPosterior,accuracyBaseLearner (percent),Change detected,Warning detected
100000.0,0.4375,1.9648319317234885E-9,100000.0,67.0,19.718577121254135,27.947598253275114,7.5630252100840405,17480.0,3024.0,0.0,1.0,0.0,?,1.0,26.0
200000.0,0.890625,3.982956210772196E-9,200000.0,70.7,36.48109608047172,37.791932059447966,22.691292875989436,35662.0,3024.0,0.0,1.0,0.0,?,0.0,0.0
300000.0,1.3125,5.846183436612288E-9,300000.0,68.30000000000001,35.473102257830774,35.95959595959597,17.015706806282736,53844.0,3024.0,0.0,1.0,0.0,?,0.0,0.0
400000.0,1.765625,7.830547272331184E-9,400000.0,69.8,38.14112017828465,38.74239350912778,17.486338797814195,72026.0,3024.0,0.0,1.0,0.0,?,0.0,0.0
500000.0,2.21875,9.798030886385176E-9,500000.0,70.3,38.98079435911342,37.866108786610866,24.42748091603053,90208.0,3024.0,0.0,1.0,0.0,?,0.0,0.0
600000.0,2.65625,1.168137209282981E-8,600000.0,70.39999999999999,38.673948444680164,38.33333333333332,24.68193384223918,108390.0,3024.0,0.0,1.0,0.0,?,0.0,0.0
700000.0,3.109375,1.3615095263553991E-8,700000.0,70.0,36.99623237469599,34.782608695652165,17.355371900826434,126572.0,3024.0,0.0,1.0,0.0,?,0.0,0.0
800000.0,3.53125,1.5399742147160903E-8,800000.0,70.89999999999999,39.319376094753515,37.284482758620676,19.166666666666654,144754.0,3024.0,0.0,1.0,0.0,?,0.0,0.0
900000.0,3.96875,1.7234188918438226E-8,900000.0,71.2,41.33200787128893,40.61855670103092,25.964010282776346,162936.0,3024.0,0.0,1.0,0.0,?,0.0,0.0
1000000.0,4.421875,1.911727142416769E-8,1000000.0,70.7,40.55251667775811,38.18565400843881,25.25510204081632,181118.0,3024.0,0.0,1.0,0.0,?,0.0,0.0
1100000.0,4.875,2.0983473708232248E-8,1100000.0,69.69999999999999,38.723507523054515,34.83870967741934,21.29870129870129,199300.0,3024.0,0.0,1.0,0.0,?,0.0,0.0
1200000.0,5.3125,2.2948305639955735E-8,1200000.0,72.2,42.58096497025775,42.203742203742195,24.456521739130427,217480.0,3024.0,0.0,1.0,0.0,?,0.0,0.0
1300000.0,5.75,2.4896839426623453E-8,1300000.0,71.0,40.10640407111229,43.579766536964975,26.76767676767676,235662.0,3024.0,0.0,1.0,0.0,?,0.0,0.0
1400000.0,6.203125,2.6898083484007256E-8,1400000.0,72.7,42.445375812721885,37.096774193548384,24.585635359116015,253844.0,3024.0,0.0,1.0,0.0,?,0.0,0.0
1500000.0,6.640625,2.8814020980563432E-8,1500000.0,72.3,43.002707885791416,38.30734966592427,28.423772609819114,272026.0,3024.0,0.0,1.0,0.0,?,0.0,0.0
1600000.0,7.09375,3.0781504594617425E-8,1600000.0,68.2,36.201714930002446,30.869565217391308,18.25192802056557,290208.0,3024.0,0.0,1.0,0.0,?,0.0,0.0
1700000.0,7.53125,3.266484580106206E-8,1700000.0,72.0,42.80648574451656,40.29850746268656,28.02056555269922,308390.0,3024.0,0.0,1.0,0.0,?,0.0,0.0
1800000.0,7.96875,3.4531888862450924E-8,1800000.0,70.1,38.92474875398316,38.47736625514403,22.135416666666657,326572.0,3024.0,0.0,1.0,0.0,?,0.0,0.0
1900000.0,8.421875,3.64487318115102E-8,1900000.0,68.7,36.305991713674075,32.68817204301076,19.121447028423788,344754.0,3024.0,0.0,1.0,0.0,?,0.0,0.0
2000000.0,8.859375,3.828317858278752E-8,2000000.0,73.0,44.643772424397746,41.8103448275862,27.999999999999996,362936.0,3024.0,0.0,1.0,0.0,?,0.0,0.0
2100000.0,9.296875,4.010132720900908E-8,2100000.0,72.5,43.95075819338007,44.21906693711967,28.198433420365532,381118.0,3024.0,0.0,1.0,0.0,?,0.0,0.0
2200000.0,9.734375,4.1903177690174855E-8,2200000.0,72.6,43.4911730737502,42.43697478991596,23.88888888888888,399300.0,3024.0,0.0,1.0,0.0,?,0.0,0.0
2300000.0,10.1875,4.393818219088847E-8,2300000.0,72.6,43.93793069582439,37.29977116704806,25.136612021857918,417480.0,3024.0,0.0,1.0,0.0,?,0.0,0.0
2400000.0,10.625,4.588671597755618E-8,2400000.0,73.2,45.66120980855714,46.18473895582329,32.49370277078086,435662.0,3024.0,0.0,1.0,0.0,?,0.0,0.0
2500000.0,11.078125,4.788796003493998E-8,2500000.0,68.89999999999999,36.65987780040732,36.13963039014372,22.249999999999993,453844.0,3024.0,0.0,1.0,0.0,?,0.0,0.0
2600000.0,11.53125,4.987232387065888E-8,2600000.0,69.3,37.20700008999647,33.83620689655171,24.384236453201964,472026.0,3024.0,0.0,1.0,0.0,?,0.0,0.0
2700000.0,11.953125,5.17041189596057E-8,2700000.0,73.2,43.40475315602971,39.50338600451466,27.37127371273712,490208.0,3024.0,0.0,1.0,0.0,?,0.0,0.0
2800000.0,12.390625,5.358746016605033E-8,2800000.0,71.5,41.67580753425778,37.90849673202613,23.180592991913738,508390.0,3024.0,0.0,1.0,0.0,?,0.0,0.0
2900000.0,12.84375,5.552118333677451E-8,2900000.0,71.7,41.67113236324661,42.36252545824847,23.513513513513505,526572.0,3024.0,0.0,1.0,0.0,?,0.0,0.0
3000000.0,13.28125,5.73719282531076E-8,3000000.0,70.8,40.387481371087915,37.06896551724137,24.547803617571052,544754.0,3024.0,0.0,1.0,0.0,?,0.0,0.0
3100000.0,13.734375,5.927189098050197E-8,3100000.0,69.6,38.275615619517886,35.864978902953574,23.232323232323225,562936.0,3024.0,0.0,1.0,0.0,?,0.0,0.0
3200000.0,14.1875,6.115497348623143E-8,3200000.0,70.19999999999999,38.71465295629818,37.787056367432136,20.533333333333324,581118.0,3024.0,0.0,1.0,0.0,?,0.0,0.0
3300000.0,14.609375,6.289247216449843E-8,3300000.0,70.7,39.82732701896772,39.2116182572614,22.691292875989436,599300.0,3024.0,0.0,1.0,0.0,?,0.0,0.0
3400000.0,15.0625,6.492747666521205E-8,3400000.0,70.6,39.1074897787572,38.87733887733887,22.427440633245375,617480.0,3024.0,0.0,1.0,0.0,?,0.0,0.0
3500000.0,15.515625,6.694560094426075E-8,3500000.0,70.0,38.73925384411181,33.481152993348104,24.0506329113924,635662.0,3024.0,0.0,1.0,0.0,?,0.0,0.0
3600000.0,15.953125,6.88778365858727E-8,3600000.0,70.89999999999999,40.03017038850557,35.90308370044051,23.622047244094478,653844.0,3024.0,0.0,1.0,0.0,?,0.0,0.0
3700000.0,16.390625,7.079377408242887E-8,3700000.0,70.3,39.06442347148131,35.434782608695635,17.499999999999986,672026.0,3024.0,0.0,1.0,0.0,?,0.0,0.0
3800000.0,16.828125,7.269341343392928E-8,3800000.0,69.5,37.58288174718815,31.767337807606243,17.11956521739129,690208.0,3024.0,0.0,1.0,0.0,?,0.0,0.0
3900000.0,17.25,7.450949245442946E-8,3900000.0,70.6,40.26454273929739,38.105263157894726,19.452054794520535,708390.0,3024.0,0.0,1.0,0.0,?,0.0,0.0
4000000.0,17.6875,7.637653551581833E-8,4000000.0,71.39999999999999,41.89708063303739,40.041928721173996,26.478149100257063,726572.0,3024.0,0.0,1.0,0.0,?,0.0,0.0
4100000.0,18.125,7.822728043215143E-8,4100000.0,70.89999999999999,40.91370558375633,38.085106382978715,22.399999999999988,744754.0,3024.0,0.0,1.0,0.0,?,0.0,0.0
4200000.0,18.578125,8.01272431595458E-8,4200000.0,70.7,40.30689995191954,37.52665245202558,25.063938618925825,762936.0,3024.0,0.0,1.0,0.0,?,0.0,0.0
4300000.0,19.0,8.188045790625943E-8,4300000.0,72.8,44.81303386288474,42.00426439232409,29.35064935064935,781118.0,3024.0,0.0,1.0,0.0,?,0.0,0.0
4400000.0,19.453125,8.374666019032399E-8,4400000.0,71.0,40.96860343929128,39.07563025210083,26.76767676767676,799300.0,3024.0,0.0,1.0,0.0,?,0.0,0.0
4500000.0,19.90625,8.578166469103761E-8,4500000.0,70.6,38.41951808036461,36.08695652173912,11.976047904191596,817480.0,3024.0,0.0,1.0,0.0,?,0.0,0.0
4600000.0,20.3125,8.759101749294335E-8,4600000.0,72.5,42.82411450146786,39.427312775330385,24.863387978142068,835662.0,3024.0,0.0,1.0,0.0,?,0.0,0.0
4700000.0,20.75,8.952325313455529E-8,4700000.0,69.1,36.660599203030436,34.53389830508473,17.819148936170198,853844.0,3024.0,0.0,1.0,0.0,?,0.0,0.0
4800000.0,21.203125,9.150761697027419E-8,4800000.0,71.39999999999999,41.56300570475832,40.16736401673639,23.529411764705873,872026.0,3024.0,0.0,1.0,0.0,?,0.0,0.0
4900000.0,21.65625,9.347510058432818E-8,4900000.0,70.8,39.493402294277566,38.52631578947368,21.50537634408601,890208.0,3024.0,0.0,1.0,0.0,?,0.0,0.0
5000000.0,22.078125,9.5652649179101E-8,5000000.0,71.7,42.24489795918366,38.876889848812084,24.533333333333328,908390.0,3024.0,0.0,1.0,0.0,?,0.0,0.0
5100000.0,22.53125,9.764263975537486E-8,5100000.0,67.2,32.26275442770289,31.524008350730693,24.07407407407409,3291.0,3024.0,0.0,1.0,0.0,?,7.0,37.0
5200000.0,22.984375,9.961575010998382E-8,5200000.0,80.7,60.388480231183514,62.45136186770429,57.30088495575222,21473.0,3024.0,0.0,1.0,0.0,?,0.0,0.0
5300000.0,23.4375,1.0157198024292787E-7,5300000.0,81.10000000000001,61.67883211678833,60.706860706860724,58.913043478260875,39655.0,3024.0,0.0,1.0,0.0,?,0.0,0.0
5400000.0,23.890625,1.0351133015420702E-7,5400000.0,81.69999999999999,62.97944651238063,63.83399209486165,60.217391304347814,57837.0,3024.0,0.0,1.0,0.0,?,0.0,0.0
5500000.0,24.34375,1.0504555474552843E-7,5500000.0,82.3,64.22941675760883,63.278008298755175,61.771058315334756,76019.0,3024.0,0.0,1.0,0.0,?,0.0,0.0
5600000.0,24.78125,1.0706471382743782E-7,5600000.0,82.89999999999999,65.35431794605809,66.33858267716535,62.16814159292034,94199.0,3024.0,0.0,1.0,0.0,?,0.0,0.0
5700000.0,25.234375,1.0913910551203621E-7,5700000.0,85.1,69.67995051116755,69.59183673469387,65.58891454965358,112381.0,3024.0,0.0,1.0,0.0,?,0.0,0.0
5800000.0,25.6875,1.111966169749697E-7,5800000.0,82.69999999999999,64.90302686034244,65.33066132264528,60.77097505668932,130563.0,3024.0,0.0,1.0,0.0,?,0.0,0.0
5900000.0,26.140625,1.1323724821623828E-7,5900000.0,83.39999999999999,66.76051148764732,65.1991614255765,66.8,148745.0,3024.0,0.0,1.0,0.0,?,0.0,0.0
6000000.0,26.59375,1.1526099923584196E-7,6000000.0,83.89999999999999,67.52067782933226,68.67704280155641,64.7702407002188,166927.0,3024.0,0.0,1.0,0.0,?,0.0,0.0
6100000.0,27.046875,1.1726787003378074E-7,6100000.0,83.39999999999999,66.58292266563596,67.95366795366795,64.83050847457626,185109.0,3024.0,0.0,1.0,0.0,?,0.0,0.0
6200000.0,27.5,1.192578606100546E-7,6200000.0,83.5,66.78289298857331,66.53144016227179,64.28571428571428,203291.0,3024.0,0.0,1.0,0.0,?,0.0,0.0
6300000.0,27.953125,1.2123097096466357E-7,6300000.0,81.10000000000001,62.09082156611041,63.30097087378642,60.95041322314051,221473.0,3024.0,0.0,1.0,0.0,?,0.0,0.0
6400000.0,28.40625,1.2318720109760762E-7,6400000.0,82.3,64.57023900076064,66.5406427221172,64.38631790744466,239655.0,3024.0,0.0,1.0,0.0,?,0.0,0.0
6500000.0,28.859375,1.2512655100888677E-7,6500000.0,83.2,66.31376323387873,64.48202959830866,64.77987421383646,257837.0,3024.0,0.0,1.0,0.0,?,0.0,0.0
6600000.0,29.3125,1.2666077560020818E-7,6600000.0,83.5,66.96908306174578,68.02325581395348,65.76763485477177,276019.0,3024.0,0.0,1.0,0.0,?,0.0,0.0
6700000.0,29.75,1.2867993468211757E-7,6700000.0,82.0,63.75688115881331,61.945031712473565,60.26490066225164,294199.0,3024.0,0.0,1.0,0.0,?,0.0,0.0
6800000.0,30.203125,1.3075432636671598E-7,6800000.0,84.39999999999999,68.48230160012929,69.53125,65.93886462882095,312381.0,3024.0,0.0,1.0,0.0,?,0.0,0.0
6900000.0,30.65625,1.3281183782964948E-7,6900000.0,83.3,66.21484928181265,66.66666666666666,62.88888888888887,330563.0,3024.0,0.0,1.0,0.0,?,0.0,0.0
7000000.0,31.109375,1.3485246907091805E-7,7000000.0,83.1,65.98447765039288,65.72008113590263,62.61061946902654,348745.0,3024.0,0.0,1.0,0.0,?,0.0,0.0
7100000.0,31.5625,1.3687622009052171E-7,7100000.0,83.1,66.06071316683668,66.33466135458167,64.2706131078224,366927.0,3024.0,0.0,1.0,0.0,?,0.0,0.0
7200000.0,32.015625,1.3888309088846048E-7,7200000.0,83.5,66.97490092470277,67.45562130177514,66.18852459016392,385109.0,3024.0,0.0,1.0,0.0,?,0.0,0.0
7300000.0,32.46875,1.4087308146473434E-7,7300000.0,82.0,63.91339214113872,64.35643564356435,62.499999999999986,403291.0,3024.0,0.0,1.0,0.0,?,0.0,0.0
7400000.0,32.921875,1.428461918193433E-7,7400000.0,85.39999999999999,70.70190999466213,71.59533073929961,68.86993603411513,421473.0,3024.0,0.0,1.0,0.0,?,0.0,0.0
7500000.0,33.34375,1.4466750952932569E-7,7500000.0,83.5,66.78369542460501,67.71037181996086,64.36285097192224,439655.0,3024.0,0.0,1.0,0.0,?,0.0,0.0
7600000.0,33.796875,1.4660685944060484E-7,7600000.0,83.3,66.4927768860353,67.94625719769674,64.84210526315789,457837.0,3024.0,0.0,1.0,0.0,?,0.0,0.0
7700000.0,34.234375,1.480881797356738E-7,7700000.0,83.89999999999999,67.58058540200072,69.33333333333333,65.30172413793103,476019.0,3024.0,0.0,1.0,0.0,?,0.0,0.0
7800000.0,34.6875,1.501794516419371E-7,7800000.0,83.2,66.2102366892468,66.19718309859154,64.55696202531644,494199.0,3024.0,0.0,1.0,0.0,?,0.0,0.0
7900000.0,35.125,1.5218231257879071E-7,7900000.0,83.1,66.12167330868968,65.72008113590263,65.01035196687369,512381.0,3024.0,0.0,1.0,0.0,?,0.0,0.0
8000000.0,35.5625,1.5416887537058857E-7,8000000.0,84.7,69.14675657799215,68.12499999999999,65.4627539503386,530563.0,3024.0,0.0,1.0,0.0,?,0.0,0.0
8100000.0,36.03125,1.5627987320638366E-7,8100000.0,83.1,66.11189091638259,67.24806201550388,64.34599156118142,548745.0,3024.0,0.0,1.0,0.0,?,0.0,0.0
8200000.0,36.484375,1.5830362422598733E-7,8200000.0,83.8,67.39130434782608,65.7505285412262,65.38461538461537,566927.0,3024.0,0.0,1.0,0.0,?,0.0,0.0
8300000.0,36.9375,1.603104950239261E-7,8300000.0,82.8,65.44963681943818,67.04980842911877,63.247863247863236,585109.0,3024.0,0.0,1.0,0.0,?,0.0,0.0
8400000.0,37.359375,1.6216324487080176E-7,8400000.0,83.5,66.90070210631895,67.71037181996086,64.89361702127658,603291.0,3024.0,0.0,1.0,0.0,?,0.0,0.0
8500000.0,37.8125,1.641363552254107E-7,8500000.0,83.89999999999999,67.55235960853231,67.4089068825911,65.30172413793103,621473.0,3024.0,0.0,1.0,0.0,?,0.0,0.0
8600000.0,38.265625,1.6609258535835477E-7,8600000.0,83.39999999999999,66.70891559306261,66.260162601626,65.56016597510373,639655.0,3024.0,0.0,1.0,0.0,?,0.0,0.0
8700000.0,38.71875,1.6803193526963391E-7,8700000.0,83.8,67.30073633897427,66.45962732919254,64.4736842105263,657837.0,3024.0,0.0,1.0,0.0,?,0.0,0.0
8800000.0,39.171875,1.6956615986095533E-7,8800000.0,84.89999999999999,69.58318897098516,69.24643584521385,67.66595289079228,676019.0,3024.0,0.0,1.0,0.0,?,0.0,0.0
8900000.0,39.609375,1.7158531894286472E-7,8900000.0,84.39999999999999,68.75688450061084,69.10891089108911,67.83505154639174,694199.0,3024.0,0.0,1.0,0.0,?,0.0,0.0
9000000.0,40.0625,1.7365971062746312E-7,9000000.0,83.0,65.86016322858427,66.73189823874755,63.75266524520254,712381.0,3024.0,0.0,1.0,0.0,?,0.0,0.0
9100000.0,40.515625,1.7571722209039662E-7,9100000.0,82.89999999999999,65.52780756856134,67.55218216318785,62.25165562913906,730563.0,3024.0,0.0,1.0,0.0,?,0.0,0.0
9200000.0,40.984375,1.7782821992619172E-7,9200000.0,84.39999999999999,68.66966580976863,68.92430278884461,67.0886075949367,748745.0,3024.0,0.0,1.0,0.0,?,0.0,0.0
9300000.0,41.4375,1.7985197094579539E-7,9300000.0,83.7,67.2082337509757,67.91338582677164,65.0214592274678,766927.0,3024.0,0.0,1.0,0.0,?,0.0,0.0
9400000.0,41.890625,1.8185884174373415E-7,9400000.0,82.39999999999999,64.73186195730149,62.06896551724137,63.1027253668763,785109.0,3024.0,0.0,1.0,0.0,?,0.0,0.0
9500000.0,42.328125,1.8378021195530892E-7,9500000.0,82.0,63.8163316997077,62.42171189979122,61.945031712473565,803291.0,3024.0,0.0,1.0,0.0,?,0.0,0.0
9600000.0,42.765625,1.8568528402182792E-7,9600000.0,83.1,66.04243690724964,67.31141199226305,64.11889596602971,821473.0,3024.0,0.0,1.0,0.0,?,0.0,0.0
9700000.0,43.21875,1.8764151415477197E-7,9700000.0,85.39999999999999,70.5080294919705,69.06779661016948,67.9120879120879,839655.0,3024.0,0.0,1.0,0.0,?,0.0,0.0
9800000.0,43.671875,1.8958086406605112E-7,9800000.0,82.1,64.05766836673226,64.9706457925636,61.67023554603853,857837.0,3024.0,0.0,1.0,0.0,?,0.0,0.0
9900000.0,44.125,1.9111508865737253E-7,9900000.0,84.6,68.89743424028953,68.9516129032258,66.66666666666666,876019.0,3024.0,0.0,1.0,0.0,?,0.0,0.0
1.0E7,44.578125,1.9320636056363584E-7,1.0E7,83.2,66.26343438237986,65.99190283400809,64.85355648535564,894199.0,3024.0,0.0,1.0,0.0,?,0.0,0.0
