learning evaluation instances,evaluation time (cpu seconds),model cost (RAM-Hours),classified instances,classifications correct (percent),Kappa Statistic (percent),Kappa Temporal Statistic (percent),Kappa M Statistic (percent),model training instances,model serialized size (bytes),labeling cost,newThreshold,maxPosterior,accuracyBaseLearner (percent),Change detected,Warning detected,tree size (nodes),tree size (leaves),active learning leaves,tree depth,active leaf byte size estimate,inactive leaf byte size estimate,byte size estimate overhead
100000.0,0.34375,2.2232092710004913E-8,100000.0,79.5,58.88157894736843,55.723542116630675,54.94505494505495,9578.0,63920.0,0.0,1.0,0.0,?,1.0,1.0,28.0,22.0,22.0,3.0,0.0,0.0,1.0
200000.0,0.671875,4.358470000119673E-8,200000.0,82.6,65.11585945300062,62.00873362445414,59.81524249422632,19578.0,80560.0,0.0,1.0,0.0,?,0.0,0.0,38.0,27.0,27.0,4.0,0.0,0.0,1.0
300000.0,1.015625,6.835800983632604E-8,300000.0,84.39999999999999,68.43536534041243,67.22689075630251,63.20754716981132,29578.0,122672.0,0.0,1.0,0.0,?,0.0,0.0,50.0,36.0,36.0,4.0,0.0,0.0,1.0
400000.0,1.375,9.700261418604188E-8,400000.0,83.89999999999999,67.67146173184582,67.73547094188376,62.470862470862464,39578.0,167224.0,0.0,1.0,0.0,?,0.0,0.0,72.0,50.0,50.0,5.0,0.0,0.0,1.0
500000.0,1.6875,1.266303135909968E-7,500000.0,82.19999999999999,63.8446538836529,62.208067940552006,55.94059405940593,49578.0,240496.0,0.0,1.0,0.0,?,0.0,0.0,98.0,66.0,66.0,5.0,0.0,0.0,1.0
600000.0,2.046875,1.6602231577659647E-7,600000.0,82.19999999999999,64.41039216548766,66.03053435114504,58.31381733021077,59578.0,312696.0,0.0,1.0,0.0,?,0.0,0.0,119.0,81.0,81.0,6.0,0.0,0.0,1.0
700000.0,2.40625,2.0477244915026758E-7,700000.0,86.6,73.13638696433154,71.9077568134172,68.54460093896714,69578.0,320928.0,0.0,1.0,0.0,?,0.0,0.0,127.0,85.0,85.0,6.0,0.0,0.0,1.0
800000.0,2.765625,2.4408486852836277E-7,800000.0,84.7,69.53065256181493,68.3884297520661,64.66512702078522,79578.0,342048.0,0.0,1.0,0.0,?,0.0,0.0,139.0,91.0,91.0,6.0,0.0,0.0,1.0
900000.0,3.140625,2.8729745988837544E-7,900000.0,86.2,72.62339311220441,72.99412915851272,68.63636363636363,89578.0,379648.0,0.0,1.0,0.0,?,0.0,0.0,160.0,103.0,103.0,6.0,0.0,0.0,1.0
1000000.0,3.515625,3.369470424432721E-7,1000000.0,84.0,68.43633608989332,67.280163599182,62.616822429906534,99578.0,460920.0,0.0,1.0,0.0,?,0.0,0.0,194.0,126.0,126.0,6.0,0.0,0.0,1.0
1100000.0,3.890625,4.015311585842735E-7,1100000.0,85.8,71.93842262316463,70.60041407867494,67.2055427251732,109478.0,477808.0,0.0,1.0,0.0,?,0.0,0.0,215.0,138.0,138.0,6.0,0.0,0.0,1.0
1200000.0,4.28125,4.7644522661964097E-7,1200000.0,84.0,68.36331568269986,68.44181459566074,61.25907990314769,119478.0,568328.0,0.0,1.0,0.0,?,0.0,0.0,250.0,163.0,163.0,6.0,0.0,0.0,1.0
1300000.0,4.6875,5.564586414645115E-7,1300000.0,82.8,66.12452781136876,64.82617586912065,59.14489311163895,129478.0,603456.0,0.0,1.0,0.0,?,0.0,0.0,282.0,185.0,185.0,7.0,0.0,0.0,1.0
1400000.0,5.09375,6.403673776528901E-7,1400000.0,84.1,68.62197172425226,67.61710794297352,61.961722488038276,139478.0,655536.0,0.0,1.0,0.0,?,0.0,0.0,309.0,203.0,203.0,7.0,0.0,0.0,1.0
1500000.0,5.484375,7.225234488335748E-7,1500000.0,85.6,71.33244410822002,70.5521472392638,65.95744680851064,149478.0,685200.0,0.0,1.0,0.0,?,0.0,0.0,324.0,212.0,212.0,7.0,0.0,0.0,1.0
1600000.0,5.890625,8.132365959075589E-7,1600000.0,87.2,74.4242458149674,72.93868921775898,69.59619952494062,159478.0,750344.0,0.0,1.0,0.0,?,0.0,0.0,352.0,232.0,232.0,7.0,0.0,0.0,1.0
1700000.0,6.3125,9.123883986224731E-7,1700000.0,89.60000000000001,79.16098937210458,78.42323651452283,75.35545023696683,169478.0,810672.0,0.0,1.0,0.0,?,0.0,0.0,374.0,246.0,246.0,7.0,0.0,0.0,1.0
1800000.0,6.71875,1.013273269765907E-6,1800000.0,92.2,84.3729965380177,84.11405295315683,82.51121076233184,179478.0,877008.0,0.0,1.0,0.0,?,0.0,0.0,406.0,265.0,265.0,8.0,0.0,0.0,1.0
1900000.0,7.15625,1.1304650817894274E-6,1900000.0,92.2,84.25355809023924,83.78378378378379,81.64705882352943,189478.0,967376.0,0.0,1.0,0.0,?,0.0,0.0,448.0,292.0,292.0,8.0,0.0,0.0,1.0
2000000.0,7.5625,1.238999345029394E-6,2000000.0,91.8,83.49828341899469,83.56713426853707,81.06235565819863,199478.0,979776.0,0.0,1.0,0.0,?,0.0,0.0,465.0,302.0,302.0,8.0,0.0,0.0,1.0
2100000.0,7.96875,1.368295763515764E-6,2100000.0,92.2,84.17959004855649,84.36873747494991,81.38424821002388,209378.0,1040168.0,0.0,1.0,0.0,?,0.0,0.0,490.0,319.0,319.0,8.0,0.0,0.0,1.0
2200000.0,8.40625,1.5150379234304032E-6,2200000.0,91.60000000000001,82.92717627690494,81.81818181818183,79.75903614457832,219378.0,1121408.0,0.0,1.0,0.0,?,0.0,0.0,525.0,344.0,344.0,8.0,0.0,0.0,1.0
2300000.0,8.828125,1.657065780212482E-6,2300000.0,91.2,82.30373230373232,81.35593220338984,79.62962962962963,229378.0,1141360.0,0.0,1.0,0.0,?,0.0,0.0,534.0,350.0,350.0,8.0,0.0,0.0,1.0
2400000.0,9.265625,1.805600736083256E-6,2400000.0,90.8,81.35538261997407,81.10882956878851,77.99043062200958,239378.0,1167432.0,0.0,1.0,0.0,?,0.0,0.0,553.0,361.0,361.0,8.0,0.0,0.0,1.0
2500000.0,9.6875,1.9479900624396075E-6,2500000.0,90.3,80.3969120084071,79.79166666666667,77.44186046511629,249378.0,1174872.0,0.0,1.0,0.0,?,0.0,0.0,559.0,364.0,364.0,8.0,0.0,0.0,1.0
2600000.0,10.109375,2.0903566878082025E-6,2600000.0,91.60000000000001,83.09995171414776,82.71604938271606,80.28169014084509,259378.0,1189792.0,0.0,1.0,0.0,?,0.0,0.0,565.0,367.0,367.0,8.0,0.0,0.0,1.0
2700000.0,10.546875,2.2403005277737975E-6,2700000.0,91.10000000000001,82.01366153348694,82.2,79.10798122065728,269378.0,1225216.0,0.0,1.0,0.0,?,0.0,0.0,585.0,380.0,380.0,8.0,0.0,0.0,1.0
2800000.0,10.984375,2.3905286798253656E-6,2800000.0,92.7,85.12693044293225,85.10204081632654,82.40963855421688,279378.0,1242856.0,0.0,1.0,0.0,?,0.0,0.0,598.0,388.0,388.0,8.0,0.0,0.0,1.0
2900000.0,11.4375,2.546837656862206E-6,2900000.0,92.0,83.79306991669638,83.93574297188756,81.13207547169813,289378.0,1264040.0,0.0,1.0,0.0,?,0.0,0.0,608.0,393.0,393.0,8.0,0.0,0.0,1.0
3000000.0,11.890625,2.7060397163343926E-6,3000000.0,91.9,83.4804457424418,83.19502074688798,80.0982800982801,299378.0,1303808.0,0.0,1.0,0.0,?,0.0,0.0,629.0,408.0,408.0,8.0,0.0,0.0,1.0
3100000.0,12.328125,2.878238673373643E-6,3100000.0,90.5,80.76596020375935,80.49281314168378,77.48815165876778,309278.0,1330048.0,0.0,1.0,0.0,?,0.0,0.0,641.0,414.0,414.0,8.0,0.0,0.0,1.0
3200000.0,12.796875,3.064108346330209E-6,3200000.0,92.4,84.61762658074127,83.9662447257384,81.99052132701424,319278.0,1356408.0,0.0,1.0,0.0,?,0.0,0.0,653.0,420.0,420.0,8.0,0.0,0.0,1.0
3300000.0,13.25,3.244551351397402E-6,3300000.0,92.10000000000001,83.78276292452212,83.67768595041323,80.44554455445547,329278.0,1378040.0,0.0,1.0,0.0,?,0.0,0.0,665.0,426.0,426.0,8.0,0.0,0.0,1.0
3400000.0,13.6875,3.420750597595341E-6,3400000.0,92.30000000000001,84.48118797513766,83.92484342379959,82.579185520362,339278.0,1410608.0,0.0,1.0,0.0,?,0.0,0.0,683.0,438.0,438.0,8.0,0.0,0.0,1.0
3500000.0,14.15625,3.6103067557430936E-6,3500000.0,92.10000000000001,83.9753991951188,84.38735177865614,81.49882903981266,349278.0,1432088.0,0.0,1.0,0.0,?,0.0,0.0,701.0,450.0,450.0,8.0,0.0,0.0,1.0
3600000.0,14.625,3.802611285613643E-6,3600000.0,93.10000000000001,85.9456728967394,86.00405679513186,83.29297820823246,359278.0,1469800.0,0.0,1.0,0.0,?,0.0,0.0,721.0,463.0,463.0,8.0,0.0,0.0,1.0
3700000.0,15.0625,3.981127584767011E-6,3700000.0,91.8,83.41504457712409,82.13507625272331,80.38277511961724,369278.0,1476456.0,0.0,1.0,0.0,?,0.0,0.0,737.0,474.0,474.0,8.0,0.0,0.0,1.0
3800000.0,15.5,4.162244343509277E-6,3800000.0,92.60000000000001,84.73597359735975,85.7418111753372,81.50000000000001,379278.0,1514512.0,0.0,1.0,0.0,?,0.0,0.0,753.0,485.0,485.0,8.0,0.0,0.0,1.0
3900000.0,15.953125,4.3511274594089224E-6,3900000.0,91.8,83.31753245960606,83.05785123966943,80.33573141486812,389278.0,1540624.0,0.0,1.0,0.0,?,0.0,0.0,769.0,493.0,493.0,8.0,0.0,0.0,1.0
4000000.0,16.40625,4.5420418286489115E-6,4000000.0,91.9,83.434769804653,84.17968750000001,79.54545454545455,399278.0,1573056.0,0.0,1.0,0.0,?,0.0,0.0,794.0,510.0,510.0,8.0,0.0,0.0,1.0
4100000.0,16.875,4.761183970711297E-6,4100000.0,93.0,85.79804824605897,86.48648648648648,83.37292161520192,409178.0,1614424.0,0.0,1.0,0.0,?,0.0,0.0,807.0,518.0,518.0,8.0,0.0,0.0,1.0
4200000.0,17.34375,4.9806210315889775E-6,4200000.0,92.5,84.51194026152106,84.11016949152543,81.203007518797,419178.0,1631984.0,0.0,1.0,0.0,?,0.0,0.0,820.0,526.0,526.0,8.0,0.0,0.0,1.0
4300000.0,17.8125,5.202033272426988E-6,4300000.0,92.9,85.52119615312458,85.96837944664033,82.97362110311752,429178.0,1663424.0,0.0,1.0,0.0,?,0.0,0.0,844.0,544.0,544.0,8.0,0.0,0.0,1.0
4400000.0,18.265625,5.418639339040964E-6,4400000.0,94.8,89.43840763684369,88.9596602972399,87.76470588235293,439178.0,1700448.0,0.0,1.0,0.0,?,0.0,0.0,864.0,557.0,557.0,8.0,0.0,0.0,1.0
4500000.0,18.734375,5.645227211061864E-6,4500000.0,93.8,87.39996179343252,87.29508196721311,85.20286396181383,449178.0,1736232.0,0.0,1.0,0.0,?,0.0,0.0,877.0,565.0,565.0,8.0,0.0,0.0,1.0
4600000.0,19.203125,5.873304229074467E-6,4600000.0,93.89999999999999,87.57637474541751,87.57637474541751,85.64705882352939,459178.0,1764536.0,0.0,1.0,0.0,?,0.0,0.0,903.0,581.0,581.0,8.0,0.0,0.0,1.0
4700000.0,19.6875,6.113202188215735E-6,4700000.0,92.30000000000001,84.34946625582323,84.78260869565219,81.35593220338984,469178.0,1813144.0,0.0,1.0,0.0,?,0.0,0.0,937.0,601.0,601.0,8.0,0.0,0.0,1.0
4800000.0,20.171875,6.356220821746521E-6,4800000.0,95.1,90.07245084850155,89.70588235294117,88.52459016393442,479178.0,1853112.0,0.0,1.0,0.0,?,0.0,0.0,957.0,614.0,614.0,8.0,0.0,0.0,1.0
4900000.0,20.640625,6.593610095377597E-6,4900000.0,94.8,89.48560336460692,89.38775510204081,87.96296296296295,489178.0,1886400.0,0.0,1.0,0.0,?,0.0,0.0,970.0,622.0,622.0,8.0,0.0,0.0,1.0
5000000.0,21.125,6.837698359352846E-6,5000000.0,93.8,87.41944385825364,87.5751503006012,85.30805687203791,499178.0,1889696.0,0.0,1.0,0.0,?,0.0,0.0,974.0,624.0,624.0,8.0,0.0,0.0,1.0
5100000.0,21.671875,6.868006118262807E-6,5100000.0,75.0,49.990398156446034,49.494949494949495,49.596774193548384,7864.0,26184.0,0.0,1.0,0.0,?,3.0,20.0,8.0,6.0,6.0,2.0,0.0,0.0,1.0
5200000.0,22.015625,6.8837699169913925E-6,5200000.0,69.0,38.069114867807514,36.08247422680411,36.47540983606556,1340.0,4488.0,0.0,1.0,0.0,?,2.0,10.0,1.0,1.0,1.0,0.0,0.0,0.0,1.0
5300000.0,22.453125,6.908011596856846E-6,5300000.0,61.6,25.15436911370298,24.2603550295858,15.04424778761061,11340.0,51936.0,0.0,1.0,0.0,?,0.0,15.0,16.0,13.0,13.0,2.0,0.0,0.0,1.0
5400000.0,22.8125,6.92767226913323E-6,5400000.0,68.7,37.25040496543762,40.60721062618597,36.89516129032259,21340.0,64360.0,0.0,1.0,0.0,?,0.0,0.0,20.0,15.0,15.0,2.0,0.0,0.0,1.0
5500000.0,23.171875,6.947508469844858E-6,5500000.0,66.8,34.25950860962822,33.06451612903227,30.543933054393314,31340.0,81408.0,0.0,1.0,0.0,?,0.0,0.0,25.0,19.0,19.0,3.0,0.0,0.0,1.0
5600000.0,23.515625,6.9681227776325415E-6,5600000.0,66.3,33.72456163812431,31.083844580777104,27.99145299145299,41340.0,114960.0,0.0,1.0,0.0,?,0.0,0.0,39.0,29.0,29.0,3.0,0.0,0.0,1.0
5700000.0,23.875,6.990583723462704E-6,5700000.0,68.10000000000001,36.6223486684733,37.816764132553615,34.36213991769549,51340.0,139848.0,0.0,1.0,0.0,?,0.0,0.0,50.0,36.0,36.0,3.0,0.0,0.0,1.0
5800000.0,24.265625,7.0168895439969175E-6,5800000.0,66.10000000000001,33.59451518119491,33.65949119373778,23.82022471910112,61340.0,173656.0,0.0,1.0,0.0,?,0.0,0.0,68.0,48.0,48.0,4.0,0.0,0.0,1.0
5900000.0,24.640625,7.043543219980267E-6,5900000.0,68.30000000000001,37.363662230090746,36.345381526104426,33.40336134453782,71340.0,203160.0,0.0,1.0,0.0,?,0.0,0.0,83.0,57.0,57.0,5.0,0.0,0.0,1.0
6000000.0,25.015625,7.070820882088608E-6,6000000.0,65.3,30.994710257328084,27.405857740585777,31.960784313725497,81340.0,224752.0,0.0,1.0,0.0,?,0.0,0.0,95.0,66.0,66.0,5.0,0.0,0.0,1.0
6100000.0,25.390625,7.1147280848688555E-6,6100000.0,67.9,35.7408816110822,36.30952380952382,37.426900584795334,91240.0,259048.0,0.0,1.0,0.0,?,0.0,0.0,105.0,71.0,71.0,5.0,0.0,0.0,1.0
6200000.0,25.78125,7.162775275193983E-6,6200000.0,70.0,40.29874507962157,40.35785288270377,38.90020366598777,101240.0,296968.0,0.0,1.0,0.0,?,0.0,0.0,127.0,85.0,85.0,6.0,0.0,0.0,1.0
6300000.0,26.1875,7.213654074197014E-6,6300000.0,71.3,42.04361873990306,41.5478615071283,38.41201716738196,111240.0,320768.0,0.0,1.0,0.0,?,0.0,0.0,139.0,94.0,94.0,6.0,0.0,0.0,1.0
6400000.0,26.578125,7.262322954678287E-6,6400000.0,72.39999999999999,45.07091027054566,45.98825831702544,45.34653465346534,121240.0,333432.0,0.0,1.0,0.0,?,0.0,0.0,146.0,99.0,99.0,6.0,0.0,0.0,1.0
6500000.0,26.96875,7.310597316568924E-6,6500000.0,68.30000000000001,37.70829403257247,35.69979716024342,32.264957264957275,131240.0,344656.0,0.0,1.0,0.0,?,0.0,0.0,152.0,102.0,102.0,6.0,0.0,0.0,1.0
6600000.0,27.375,7.3614323951510914E-6,6600000.0,67.60000000000001,35.663224781572694,36.5949119373777,32.640332640332645,141240.0,365776.0,0.0,1.0,0.0,?,0.0,0.0,161.0,108.0,108.0,6.0,0.0,0.0,1.0
6700000.0,27.78125,7.416594113844136E-6,6700000.0,69.1,38.01901552533396,37.951807228915655,38.19999999999999,151240.0,421936.0,0.0,1.0,0.0,?,0.0,0.0,179.0,120.0,120.0,6.0,0.0,0.0,1.0
6800000.0,28.203125,7.4750666196147595E-6,6800000.0,71.0,42.438389227642276,41.41414141414141,40.329218106995874,161240.0,447928.0,0.0,1.0,0.0,?,0.0,0.0,192.0,128.0,128.0,6.0,0.0,0.0,1.0
6900000.0,28.625,7.535004212210575E-6,6900000.0,70.89999999999999,41.76599133894194,42.03187250996015,38.99371069182389,171240.0,476448.0,0.0,1.0,0.0,?,0.0,0.0,201.0,134.0,134.0,6.0,0.0,0.0,1.0
7000000.0,29.046875,7.599894112596909E-6,7000000.0,66.0,33.67147873585642,31.863727454909824,25.76419213973799,181240.0,536832.0,0.0,1.0,0.0,?,0.0,0.0,222.0,149.0,149.0,7.0,0.0,0.0,1.0
7100000.0,29.484375,7.687790914335184E-6,7100000.0,69.69999999999999,39.12386585552063,41.5057915057915,37.90983606557376,191140.0,581728.0,0.0,1.0,0.0,?,0.0,0.0,237.0,158.0,158.0,8.0,0.0,0.0,1.0
7200000.0,29.953125,7.786137608086897E-6,7200000.0,71.39999999999999,43.535172059781644,42.57028112449798,40.29227557411272,201140.0,631112.0,0.0,1.0,0.0,?,0.0,0.0,261.0,173.0,173.0,8.0,0.0,0.0,1.0
7300000.0,30.421875,7.89049230257256E-6,7300000.0,66.7,35.1600165118036,34.18972332015811,27.765726681127983,211140.0,695640.0,0.0,1.0,0.0,?,0.0,0.0,284.0,189.0,189.0,8.0,0.0,0.0,1.0
7400000.0,30.921875,8.005913178850378E-6,7400000.0,68.10000000000001,37.36255105246623,39.00573613766732,32.27176220806795,221140.0,742472.0,0.0,1.0,0.0,?,0.0,0.0,296.0,198.0,198.0,8.0,0.0,0.0,1.0
7500000.0,31.421875,8.122571679349573E-6,7500000.0,71.3,42.72371677177296,46.85185185185184,41.067761806981515,231140.0,767136.0,0.0,1.0,0.0,?,0.0,0.0,309.0,206.0,206.0,8.0,0.0,0.0,1.0
7600000.0,31.953125,8.252815847905972E-6,7600000.0,68.8,37.76132265168681,36.84210526315788,37.22334004024144,241140.0,827952.0,0.0,1.0,0.0,?,0.0,0.0,328.0,220.0,220.0,8.0,0.0,0.0,1.0
7700000.0,32.453125,8.380605722777543E-6,7700000.0,68.2,37.142224611784066,36.27254509018037,34.02489626556017,251140.0,883240.0,0.0,1.0,0.0,?,0.0,0.0,351.0,236.0,236.0,8.0,0.0,0.0,1.0
7800000.0,32.96875,8.51781650756796E-6,7800000.0,67.80000000000001,37.759255894507746,34.685598377281956,28.603104212860313,261140.0,939000.0,0.0,1.0,0.0,?,0.0,0.0,375.0,254.0,254.0,8.0,0.0,0.0,1.0
7900000.0,33.453125,8.650496796083945E-6,7900000.0,67.80000000000001,36.14785143469037,37.231968810916186,33.88090349075976,271140.0,984216.0,0.0,1.0,0.0,?,0.0,0.0,401.0,270.0,270.0,8.0,0.0,0.0,1.0
8000000.0,33.953125,8.791235159151254E-6,8000000.0,68.0,37.364207559357205,33.609958506224075,31.47751605995718,281140.0,1028392.0,0.0,1.0,0.0,?,0.0,0.0,426.0,284.0,284.0,8.0,0.0,0.0,1.0
8100000.0,34.5,8.970837322218962E-6,8100000.0,78.5,57.01547442920549,58.089668615984415,55.3941908713693,291040.0,1072688.0,0.0,1.0,0.0,?,0.0,2.0,445.0,295.0,295.0,9.0,0.0,0.0,1.0
8200000.0,35.015625,8.99982939396674E-6,8200000.0,70.1,40.186601798802926,40.19999999999999,40.67460317460317,7064.0,17656.0,0.0,1.0,0.0,?,2.0,11.0,6.0,5.0,5.0,1.0,0.0,0.0,1.0
8300000.0,35.421875,9.023722603968859E-6,8300000.0,72.0,43.805792819985875,42.505133470225864,42.02898550724637,17064.0,65352.0,0.0,1.0,0.0,?,0.0,39.0,23.0,18.0,18.0,2.0,0.0,0.0,1.0
8400000.0,35.75,9.04173612879175E-6,8400000.0,73.8,47.703546976985564,46.31147540983606,46.42126789366053,27064.0,65416.0,0.0,1.0,0.0,?,0.0,0.0,23.0,18.0,18.0,2.0,0.0,0.0,1.0
8500000.0,36.0625,9.061057191704292E-6,8500000.0,71.6,43.50574689778915,41.322314049586765,38.12636165577341,37064.0,107248.0,0.0,1.0,0.0,?,0.0,0.0,43.0,31.0,31.0,4.0,0.0,0.0,1.0
8600000.0,36.375,9.081888420041647E-6,8600000.0,69.6,39.45501547482005,38.08553971486761,36.929460580912846,47064.0,141064.0,0.0,1.0,0.0,?,0.0,0.0,60.0,44.0,44.0,4.0,0.0,0.0,1.0
8700000.0,36.734375,9.10569781101205E-6,8700000.0,71.2,42.838996506827556,42.51497005988023,37.39130434782608,57064.0,154608.0,0.0,1.0,0.0,?,0.0,0.0,68.0,48.0,48.0,4.0,0.0,0.0,1.0
8800000.0,37.03125,9.125554449080176E-6,8800000.0,71.6,43.36966448520233,42.626262626262616,42.393509127789045,67064.0,172200.0,0.0,1.0,0.0,?,0.0,0.0,77.0,54.0,54.0,4.0,0.0,0.0,1.0
8900000.0,37.375,9.149847545712769E-6,8900000.0,72.1,44.70868014268728,46.0348162475822,41.263157894736835,77064.0,201960.0,0.0,1.0,0.0,?,0.0,0.0,89.0,63.0,63.0,4.0,0.0,0.0,1.0
9000000.0,37.734375,9.175013563233528E-6,9000000.0,70.19999999999999,41.32379812236153,44.60966542750928,34.07079646017698,87064.0,214600.0,0.0,1.0,0.0,?,0.0,0.0,95.0,66.0,66.0,4.0,0.0,0.0,1.0
9100000.0,38.0625,9.212053135140899E-6,9100000.0,72.2,45.161379408295225,45.596868884540115,39.696312364425154,96964.0,243200.0,0.0,1.0,0.0,?,0.0,0.0,104.0,72.0,72.0,5.0,0.0,0.0,1.0
9200000.0,38.46875,9.261095676467647E-6,9200000.0,72.1,44.199999999999996,44.97041420118343,44.199999999999996,106964.0,288520.0,0.0,1.0,0.0,?,0.0,0.0,126.0,86.0,86.0,5.0,0.0,0.0,1.0
9300000.0,38.84375,9.306458846872877E-6,9300000.0,74.9,50.09583190844672,49.8,48.45995893223819,116964.0,304584.0,0.0,1.0,0.0,?,0.0,0.0,134.0,90.0,90.0,6.0,0.0,0.0,1.0
9400000.0,39.234375,9.35306943978907E-6,9400000.0,73.8,47.41004508283921,49.12621359223301,50.378787878787875,126964.0,313368.0,0.0,1.0,0.0,?,0.0,0.0,140.0,93.0,93.0,6.0,0.0,0.0,1.0
9500000.0,39.640625,9.40524051353956E-6,9500000.0,72.8,45.998530842383204,46.666666666666664,45.49098196392785,136964.0,363552.0,0.0,1.0,0.0,?,0.0,0.0,160.0,106.0,106.0,6.0,0.0,0.0,1.0
9600000.0,40.015625,9.454650280531492E-6,9600000.0,74.7,49.56582755898605,49.50099800399202,48.888888888888886,146964.0,391584.0,0.0,1.0,0.0,?,0.0,0.0,172.0,115.0,115.0,6.0,0.0,0.0,1.0
9700000.0,40.390625,9.505499717003352E-6,9700000.0,69.8,40.335071914019274,44.07407407407406,36.82008368200835,156964.0,421528.0,0.0,1.0,0.0,?,0.0,0.0,186.0,125.0,125.0,6.0,0.0,0.0,1.0
9800000.0,40.796875,9.562507782700572E-6,9800000.0,73.1,46.407083031167566,46.94280078895463,45.43610547667342,166964.0,454880.0,0.0,1.0,0.0,?,0.0,0.0,197.0,132.0,132.0,6.0,0.0,0.0,1.0
9900000.0,41.21875,9.625090040369991E-6,9900000.0,72.6,46.33532976352291,45.63492063492063,40.30501089324618,176964.0,500904.0,0.0,1.0,0.0,?,0.0,0.0,215.0,144.0,144.0,6.0,0.0,0.0,1.0
1.0E7,41.625,9.689726478730636E-6,1.0E7,70.3,41.80578415236303,41.65029469548133,37.73584905660376,186964.0,557536.0,0.0,1.0,0.0,?,0.0,0.0,234.0,158.0,158.0,6.0,0.0,0.0,1.0
