learning evaluation instances,evaluation time (cpu seconds),model cost (RAM-Hours),classified instances,classifications correct (percent),Kappa Statistic (percent),Kappa Temporal Statistic (percent),Kappa M Statistic (percent),model training instances,model serialized size (bytes),labeling cost,newThreshold,maxPosterior,accuracyBaseLearner (percent),Change detected,Warning detected,tree size (nodes),tree size (leaves),active learning leaves,tree depth,active leaf byte size estimate,inactive leaf byte size estimate,byte size estimate overhead
100000.0,0.328125,9.167706593871117E-9,100000.0,70.6,41.0053175479081,40.606060606060595,39.87730061349693,9940.0,47544.0,0.0,1.0,0.0,?,0.0,3.0,21.0,17.0,17.0,2.0,0.0,0.0,1.0
200000.0,0.625,2.0204428842084274E-8,200000.0,73.0,45.60246279812872,41.8103448275862,42.67515923566878,19900.0,98072.0,0.0,1.0,0.0,?,0.0,0.0,46.0,37.0,37.0,3.0,0.0,0.0,1.0
300000.0,0.9375,4.033845875205265E-8,300000.0,74.8,48.963885873527644,46.723044397463,45.454545454545446,29840.0,187480.0,0.0,1.0,0.0,?,0.0,0.0,72.0,56.0,56.0,3.0,0.0,0.0,1.0
400000.0,1.25,7.063295925036072E-8,400000.0,88.2,76.38715461210899,75.96741344195519,76.11336032388664,39800.0,327624.0,0.0,1.0,0.0,?,0.0,0.0,139.0,103.0,103.0,5.0,0.0,0.0,1.0
500000.0,1.546875,1.0442574016956818E-7,500000.0,89.5,78.87323943661973,79.4921875,77.89473684210526,49740.0,377152.0,0.0,1.0,0.0,?,0.0,0.0,179.0,132.0,132.0,5.0,0.0,0.0,1.0
600000.0,1.8125,1.3453604575867453E-7,600000.0,90.4,80.77385243931747,81.9548872180451,79.87421383647799,59700.0,390208.0,0.0,1.0,0.0,?,0.0,0.0,193.0,142.0,142.0,5.0,0.0,0.0,1.0
700000.0,2.078125,1.6930319058398405E-7,700000.0,90.2,80.1779935275081,79.71014492753625,78.69565217391305,69640.0,442176.0,0.0,1.0,0.0,?,0.0,0.0,214.0,157.0,157.0,5.0,0.0,0.0,1.0
800000.0,2.359375,2.0704911245654028E-7,800000.0,88.4,76.31541335729017,76.56565656565657,73.93258426966291,79600.0,469792.0,0.0,1.0,0.0,?,0.0,0.0,236.0,171.0,171.0,5.0,0.0,0.0,1.0
900000.0,2.65625,2.5063688452872966E-7,900000.0,91.0,81.9757754421943,83.2089552238806,80.51948051948052,89540.0,502768.0,0.0,1.0,0.0,?,0.0,0.0,258.0,185.0,185.0,5.0,0.0,0.0,1.0
1000000.0,2.9375,2.939497870910499E-7,1000000.0,92.30000000000001,84.58668289402044,84.66135458167332,84.34959349593497,99500.0,545208.0,0.0,1.0,0.0,?,0.0,0.0,288.0,203.0,203.0,6.0,0.0,0.0,1.0
1100000.0,3.203125,3.392196958884597E-7,1100000.0,93.7,87.33556334630602,87.42514970059881,86.76470588235296,109440.0,592880.0,0.0,1.0,0.0,?,0.0,0.0,308.0,216.0,216.0,6.0,0.0,0.0,1.0
1200000.0,3.5,3.9263379423775605E-7,1200000.0,92.80000000000001,85.49083302770043,85.90998043052839,84.58244111349038,119400.0,644304.0,0.0,1.0,0.0,?,0.0,0.0,331.0,232.0,232.0,6.0,0.0,0.0,1.0
1300000.0,3.796875,4.507880981287194E-7,1300000.0,94.69999999999999,89.34056297917185,88.8655462184874,89.22764227642276,129340.0,690208.0,0.0,1.0,0.0,?,0.0,0.0,349.0,244.0,244.0,6.0,0.0,0.0,1.0
1400000.0,4.078125,5.089369693046643E-7,1400000.0,94.0,88.001199880012,87.80487804878048,88.14229249011856,139300.0,746896.0,0.0,1.0,0.0,?,0.0,0.0,376.0,262.0,262.0,6.0,0.0,0.0,1.0
1500000.0,4.390625,5.752697729298638E-7,1500000.0,94.3,88.60319110649017,88.17427385892115,88.55421686746988,149240.0,752520.0,0.0,1.0,0.0,?,0.0,0.0,380.0,264.0,264.0,7.0,0.0,0.0,1.0
1600000.0,4.6875,6.383897723733551E-7,1600000.0,95.1,90.15107051833508,90.4669260700389,89.64059196617336,159200.0,768648.0,0.0,1.0,0.0,?,0.0,0.0,394.0,271.0,271.0,7.0,0.0,0.0,1.0
1700000.0,4.96875,7.004781380399234E-7,1700000.0,94.6,89.1806116560877,89.30693069306929,88.84297520661157,169140.0,784416.0,0.0,1.0,0.0,?,0.0,0.0,403.0,277.0,277.0,7.0,0.0,0.0,1.0
1800000.0,5.28125,7.700970874995821E-7,1800000.0,93.89999999999999,87.75769057863977,87.96844181459565,87.10359408033825,179100.0,807032.0,0.0,1.0,0.0,?,0.0,0.0,414.0,284.0,284.0,7.0,0.0,0.0,1.0
1900000.0,5.578125,8.376138349477616E-7,1900000.0,95.5,90.98593806337887,91.10671936758892,90.75975359342915,189040.0,809304.0,0.0,1.0,0.0,?,0.0,0.0,420.0,287.0,287.0,7.0,0.0,0.0,1.0
2000000.0,5.859375,9.009513370175329E-7,2000000.0,95.0,90.00027999216022,90.1185770750988,89.42917547568709,199000.0,815544.0,0.0,1.0,0.0,?,0.0,0.0,430.0,292.0,292.0,7.0,0.0,0.0,1.0
2100000.0,6.140625,9.666596371163097E-7,2100000.0,94.39999999999999,88.79592171550443,88.99803536345775,88.64097363083164,208940.0,832352.0,0.0,1.0,0.0,?,0.0,0.0,444.0,299.0,299.0,7.0,0.0,0.0,1.0
2200000.0,6.421875,1.0322911031026808E-6,2200000.0,94.5,88.9942770240525,89.06560636182903,88.7295081967213,218900.0,846104.0,0.0,1.0,0.0,?,0.0,0.0,454.0,304.0,304.0,7.0,0.0,0.0,1.0
2300000.0,6.703125,1.1001204903651443E-6,2300000.0,95.3,90.48274744856633,90.48582995951416,89.4144144144144,228840.0,860576.0,0.0,1.0,0.0,?,0.0,0.0,462.0,308.0,308.0,7.0,0.0,0.0,1.0
2400000.0,7.0,1.1724462577452263E-6,2400000.0,94.8,89.59200666111573,89.40936863543787,89.43089430894308,238800.0,884880.0,0.0,1.0,0.0,?,0.0,0.0,478.0,319.0,319.0,7.0,0.0,0.0,1.0
2500000.0,7.28125,1.2441854535912476E-6,2500000.0,95.8,91.59949596975818,91.65009940357852,91.56626506024097,248740.0,913328.0,0.0,1.0,0.0,?,0.0,0.0,488.0,324.0,324.0,7.0,0.0,0.0,1.0
2600000.0,7.578125,1.3210474409990841E-6,2600000.0,96.5,92.94787065991811,92.78350515463917,92.3076923076923,258700.0,942928.0,0.0,1.0,0.0,?,0.0,0.0,504.0,335.0,335.0,7.0,0.0,0.0,1.0
2700000.0,7.859375,1.3966929529690082E-6,2700000.0,94.6,89.18962203715566,88.77338877338876,88.93442622950819,268640.0,966064.0,0.0,1.0,0.0,?,0.0,0.0,513.0,341.0,341.0,7.0,0.0,0.0,1.0
2800000.0,8.125,1.4674069825559857E-6,2800000.0,95.5,90.95804533033274,91.22807017543859,90.44585987261145,278600.0,970328.0,0.0,1.0,0.0,?,0.0,0.0,515.0,342.0,342.0,7.0,0.0,0.0,1.0
2900000.0,8.40625,1.5437131514772775E-6,2900000.0,95.39999999999999,90.79988959867518,90.98039215686273,90.65040650406503,288540.0,974328.0,0.0,1.0,0.0,?,0.0,0.0,519.0,344.0,344.0,7.0,0.0,0.0,1.0
3000000.0,8.703125,1.6236189468246369E-6,3000000.0,95.5,90.93830800086991,91.10671936758892,90.08810572687224,298500.0,980832.0,0.0,1.0,0.0,?,0.0,0.0,527.0,348.0,348.0,7.0,0.0,0.0,1.0
3100000.0,8.984375,1.7010357179161576E-6,3100000.0,96.39999999999999,92.76658160702445,92.7710843373494,92.29122055674517,308440.0,988720.0,0.0,1.0,0.0,?,0.0,0.0,531.0,350.0,350.0,7.0,0.0,0.0,1.0
3200000.0,9.265625,1.7779850814905432E-6,3200000.0,96.8,93.53537965503169,93.4020618556701,92.90465631929045,318400.0,997176.0,0.0,1.0,0.0,?,0.0,0.0,538.0,355.0,355.0,7.0,0.0,0.0,1.0
3300000.0,9.5625,1.8613813638997575E-6,3300000.0,96.39999999999999,92.7944661500032,92.72727272727272,92.62295081967213,328340.0,1009744.0,0.0,1.0,0.0,?,0.0,0.0,540.0,356.0,356.0,7.0,0.0,0.0,1.0
3400000.0,9.84375,1.939895349399497E-6,3400000.0,95.39999999999999,90.79311324871003,90.96267190569743,90.59304703476482,338300.0,1017816.0,0.0,1.0,0.0,?,0.0,0.0,544.0,358.0,358.0,7.0,0.0,0.0,1.0
3500000.0,10.09375,2.010499431182527E-6,3500000.0,95.8,91.59000893060956,91.12050739957715,91.41104294478527,348240.0,1014744.0,0.0,1.0,0.0,?,0.0,0.0,548.0,360.0,360.0,7.0,0.0,0.0,1.0
3600000.0,10.375,2.0895367035538786E-6,3600000.0,96.3,92.58909114216125,93.00567107750472,92.33954451345755,358200.0,1024208.0,0.0,1.0,0.0,?,0.0,0.0,550.0,361.0,361.0,7.0,0.0,0.0,1.0
3700000.0,10.671875,2.174174717058324E-6,3700000.0,96.1,92.16055189714643,91.95876288659794,91.63090128755364,368140.0,1024304.0,0.0,1.0,0.0,?,0.0,0.0,550.0,361.0,361.0,7.0,0.0,0.0,1.0
3800000.0,10.953125,2.2535880109191767E-6,3800000.0,94.8,89.55185494759851,89.36605316973414,88.88888888888887,378100.0,1028584.0,0.0,1.0,0.0,?,0.0,0.0,565.0,370.0,370.0,8.0,0.0,0.0,1.0
3900000.0,11.21875,2.3302821015628675E-6,3900000.0,97.1,94.20092785154375,94.31372549019608,94.34697855750487,388040.0,1037504.0,0.0,1.0,0.0,?,0.0,0.0,571.0,373.0,373.0,8.0,0.0,0.0,1.0
4000000.0,11.515625,2.4148629745468497E-6,4000000.0,95.5,90.99243364426117,90.89068825910931,90.81632653061223,398000.0,1037592.0,0.0,1.0,0.0,?,0.0,0.0,575.0,375.0,375.0,8.0,0.0,0.0,1.0
4100000.0,11.796875,2.4953339016065003E-6,4100000.0,96.3,92.53881831014317,92.32365145228215,91.75946547884186,407960.0,1057120.0,0.0,1.0,0.0,?,0.0,0.0,582.0,380.0,380.0,8.0,0.0,0.0,1.0
4200000.0,12.078125,2.5770312640815976E-6,4200000.0,95.89999999999999,91.78626663781843,91.33192389006342,91.47609147609147,417900.0,1058304.0,0.0,1.0,0.0,?,0.0,0.0,586.0,382.0,382.0,8.0,0.0,0.0,1.0
4300000.0,12.375,2.662452041274972E-6,4300000.0,96.0,91.994588341719,91.47121535181236,91.78644763860369,427860.0,1062568.0,0.0,1.0,0.0,?,0.0,0.0,597.0,389.0,389.0,8.0,0.0,0.0,1.0
4400000.0,12.65625,2.7458618731341432E-6,4400000.0,96.5,92.99041088208668,92.90060851926977,92.73858921161825,437800.0,1081000.0,0.0,1.0,0.0,?,0.0,0.0,604.0,394.0,394.0,8.0,0.0,0.0,1.0
4500000.0,12.9375,2.828335725805826E-6,4500000.0,96.6,93.19327495565618,93.35937499999999,93.44894026974951,447760.0,1083024.0,0.0,1.0,0.0,?,0.0,0.0,606.0,395.0,395.0,8.0,0.0,0.0,1.0
4600000.0,13.21875,2.911999925143189E-6,4600000.0,96.39999999999999,92.77064883426712,92.85714285714285,92.35668789808916,457700.0,1083712.0,0.0,1.0,0.0,?,0.0,0.0,610.0,397.0,397.0,8.0,0.0,0.0,1.0
4700000.0,13.5,2.9946094016648004E-6,4700000.0,95.6,91.1596881780921,90.92783505154638,90.5781584582441,467660.0,1084096.0,0.0,1.0,0.0,?,0.0,0.0,614.0,399.0,399.0,8.0,0.0,0.0,1.0
4800000.0,13.796875,3.0838370892322727E-6,4800000.0,95.39999999999999,90.70767142326152,90.83665338645417,89.86784140969162,477600.0,1094784.0,0.0,1.0,0.0,?,0.0,0.0,620.0,402.0,402.0,8.0,0.0,0.0,1.0
4900000.0,14.078125,3.1670938349432415E-6,4900000.0,96.89999999999999,93.7793973640698,93.9334637964775,93.50104821802935,487560.0,1092168.0,0.0,1.0,0.0,?,0.0,0.0,622.0,403.0,403.0,8.0,0.0,0.0,1.0
5000000.0,14.359375,3.2523738789475625E-6,5000000.0,95.6,91.20084471890698,91.21756487025947,90.8902691511387,497500.0,1102040.0,0.0,1.0,0.0,?,0.0,0.0,630.0,407.0,407.0,8.0,0.0,0.0,1.0
5100000.0,14.6875,3.2613018669912384E-6,5100000.0,67.10000000000001,28.74469375379019,29.85074626865672,20.338983050847474,9660.0,54616.0,0.0,1.0,0.0,?,1.0,12.0,21.0,17.0,17.0,3.0,0.0,0.0,1.0
5200000.0,14.96875,3.271346180958466E-6,5200000.0,71.89999999999999,40.024417105633866,39.569892473118266,24.258760107816705,19600.0,71840.0,0.0,1.0,0.0,?,0.0,0.0,36.0,29.0,29.0,3.0,0.0,0.0,1.0
5300000.0,15.21875,3.281954462484767E-6,5300000.0,75.8,49.760636420632196,44.99999999999999,37.46770025839793,29560.0,112624.0,0.0,1.0,0.0,?,0.0,0.0,51.0,41.0,41.0,3.0,0.0,0.0,1.0
5400000.0,15.546875,3.311202162876725E-6,5400000.0,74.4,48.50835130177324,47.21649484536082,32.98429319371728,39500.0,277064.0,0.0,1.0,0.0,?,0.0,0.0,109.0,85.0,85.0,4.0,0.0,0.0,1.0
5500000.0,15.875,3.3544961479492486E-6,5500000.0,73.2,47.14837895401119,44.050104384133604,29.84293193717277,49460.0,457040.0,0.0,1.0,0.0,?,0.0,0.0,192.0,149.0,149.0,5.0,0.0,0.0,1.0
5600000.0,16.1875,3.4028292025646403E-6,5600000.0,75.3,48.98169950840666,48.86128364389234,33.24324324324324,59400.0,528968.0,0.0,1.0,0.0,?,0.0,0.0,219.0,167.0,167.0,5.0,0.0,0.0,1.0
5700000.0,16.484375,3.4501065318990085E-6,5700000.0,78.0,54.68383737265129,52.78969957081545,39.3939393939394,69360.0,561464.0,0.0,1.0,0.0,?,0.0,0.0,239.0,180.0,180.0,5.0,0.0,0.0,1.0
5800000.0,16.765625,3.500664542015228E-6,5800000.0,77.2,54.34027708242382,50.75593952483801,41.68797953964195,79300.0,624928.0,0.0,1.0,0.0,?,0.0,0.0,265.0,199.0,199.0,5.0,0.0,0.0,1.0
5900000.0,17.09375,3.561792772315029E-6,5900000.0,81.3,60.78645182395422,60.796645702306066,47.910863509749284,89260.0,664936.0,0.0,1.0,0.0,?,0.0,0.0,287.0,213.0,213.0,5.0,0.0,0.0,1.0
6000000.0,17.40625,3.6271263444278806E-6,6000000.0,82.3,63.689328355147076,62.340425531914875,54.61538461538461,99200.0,737032.0,0.0,1.0,0.0,?,0.0,0.0,320.0,234.0,234.0,5.0,0.0,0.0,1.0
6100000.0,17.734375,3.6996524108366838E-6,6100000.0,80.80000000000001,59.04069903873642,58.531317494600444,49.071618037135295,109160.0,797888.0,0.0,1.0,0.0,?,0.0,0.0,354.0,254.0,254.0,5.0,0.0,0.0,1.0
6200000.0,18.046875,3.7769690000762548E-6,6200000.0,82.8,64.81178396072012,63.40425531914893,55.6701030927835,119100.0,883904.0,0.0,1.0,0.0,?,0.0,0.0,390.0,278.0,278.0,5.0,0.0,0.0,1.0
6300000.0,18.375,3.86391009669751E-6,6300000.0,85.7,70.65029103417702,69.24731182795698,63.979848866498735,129060.0,966400.0,0.0,1.0,0.0,?,0.0,0.0,418.0,298.0,298.0,6.0,0.0,0.0,1.0
6400000.0,18.6875,3.9518263009894235E-6,6400000.0,85.8,71.20189499643065,70.72164948453607,66.82242990654206,139000.0,1013840.0,0.0,1.0,0.0,?,0.0,0.0,447.0,317.0,317.0,6.0,0.0,0.0,1.0
6500000.0,19.046875,4.0582173581545564E-6,6500000.0,88.4,75.55877692748543,75.73221757322176,67.95580110497238,148960.0,1085392.0,0.0,1.0,0.0,?,0.0,0.0,484.0,343.0,343.0,6.0,0.0,0.0,1.0
6600000.0,19.375,4.160021683977297E-6,6600000.0,86.3,71.80257687399661,71.75257731958763,65.6641604010025,158900.0,1124576.0,0.0,1.0,0.0,?,0.0,0.0,509.0,360.0,360.0,6.0,0.0,0.0,1.0
6700000.0,19.6875,4.257480710900079E-6,6700000.0,87.3,73.32269041717431,71.96467991169978,65.39509536784742,168860.0,1145592.0,0.0,1.0,0.0,?,0.0,0.0,524.0,369.0,369.0,6.0,0.0,0.0,1.0
6800000.0,20.015625,4.367089810936403E-6,6800000.0,88.0,74.41200929696996,74.63002114164905,66.19718309859155,178800.0,1215416.0,0.0,1.0,0.0,?,0.0,0.0,551.0,387.0,387.0,7.0,0.0,0.0,1.0
6900000.0,20.359375,4.484754139816183E-6,6900000.0,87.9,74.97787299512792,74.73903966597078,68.89460154241645,188760.0,1262056.0,0.0,1.0,0.0,?,0.0,0.0,587.0,411.0,411.0,7.0,0.0,0.0,1.0
7000000.0,20.6875,4.602761538181869E-6,7000000.0,89.4,78.05810049389974,76.23318385650224,73.02798982188295,198700.0,1313272.0,0.0,1.0,0.0,?,0.0,0.0,609.0,425.0,425.0,7.0,0.0,0.0,1.0
7100000.0,21.03125,4.731043914539948E-6,7100000.0,89.3,77.71204799200135,77.08779443254818,71.84210526315789,208660.0,1380304.0,0.0,1.0,0.0,?,0.0,0.0,643.0,448.0,448.0,7.0,0.0,0.0,1.0
7200000.0,21.375,4.865327177362311E-6,7200000.0,89.5,77.33747733747734,77.70700636942675,70.83333333333334,218600.0,1431872.0,0.0,1.0,0.0,?,0.0,0.0,666.0,461.0,461.0,7.0,0.0,0.0,1.0
7300000.0,21.71875,5.00186068368041E-6,7300000.0,89.60000000000001,78.30141833613608,78.10526315789474,72.70341207349081,228560.0,1471968.0,0.0,1.0,0.0,?,0.0,0.0,693.0,479.0,479.0,7.0,0.0,0.0,1.0
7400000.0,22.09375,5.157739247402384E-6,7400000.0,89.2,77.49962499374989,77.16701902748414,71.42857142857143,238500.0,1527592.0,0.0,1.0,0.0,?,0.0,0.0,720.0,497.0,497.0,7.0,0.0,0.0,1.0
7500000.0,22.453125,5.30896071318744E-6,7500000.0,89.8,78.59876460319593,77.68052516411379,71.97802197802197,248460.0,1562064.0,0.0,1.0,0.0,?,0.0,0.0,747.0,512.0,512.0,7.0,0.0,0.0,1.0
7600000.0,22.8125,5.464054961016196E-6,7600000.0,90.4,80.01998001998003,78.76106194690266,74.60317460317462,258400.0,1587952.0,0.0,1.0,0.0,?,0.0,0.0,762.0,521.0,521.0,7.0,0.0,0.0,1.0
7700000.0,23.15625,5.615895529950246E-6,7700000.0,87.8,74.53952009082295,74.09766454352442,68.1462140992167,268360.0,1641928.0,0.0,1.0,0.0,?,0.0,0.0,794.0,543.0,543.0,7.0,0.0,0.0,1.0
7800000.0,23.515625,5.779906771042282E-6,7800000.0,90.7,80.35753510298565,80.29661016949153,75.26595744680851,278300.0,1682840.0,0.0,1.0,0.0,?,0.0,0.0,817.0,559.0,559.0,7.0,0.0,0.0,1.0
7900000.0,23.875,5.944629051049965E-6,7900000.0,90.3,80.04345178333362,80.48289738430584,76.73860911270984,288260.0,1705296.0,0.0,1.0,0.0,?,0.0,0.0,830.0,567.0,567.0,7.0,0.0,0.0,1.0
8000000.0,24.25,6.125283123563148E-6,8000000.0,90.60000000000001,80.62870166964106,79.91452991452992,76.44110275689225,298200.0,1779832.0,0.0,1.0,0.0,?,0.0,0.0,879.0,602.0,602.0,7.0,0.0,0.0,1.0
8100000.0,24.609375,6.301312856117471E-6,8100000.0,92.5,84.01343723888614,84.07643312101911,79.56403269754769,308160.0,1825736.0,0.0,1.0,0.0,?,0.0,0.0,900.0,614.0,614.0,7.0,0.0,0.0,1.0
8200000.0,25.0,6.494760358085236E-6,8200000.0,90.3,79.96281759966949,79.57894736842105,75.38071065989848,318120.0,1861328.0,0.0,1.0,0.0,?,0.0,0.0,923.0,627.0,627.0,7.0,0.0,0.0,1.0
8300000.0,25.375,6.685350866367421E-6,8300000.0,91.3,81.79763996987197,81.37044967880087,77.34375000000001,328060.0,1895824.0,0.0,1.0,0.0,?,0.0,0.0,953.0,645.0,645.0,7.0,0.0,0.0,1.0
8400000.0,25.71875,6.8609495388550905E-6,8400000.0,90.3,79.92549668874173,79.66457023060796,75.00000000000001,338020.0,1920600.0,0.0,1.0,0.0,?,0.0,0.0,974.0,657.0,657.0,7.0,0.0,0.0,1.0
8500000.0,26.078125,7.047411313073504E-6,8500000.0,92.0,83.38594450905467,82.86937901498929,79.48717948717949,347960.0,1935848.0,0.0,1.0,0.0,?,0.0,0.0,980.0,660.0,660.0,7.0,0.0,0.0,1.0
8600000.0,26.421875,7.230632214082614E-6,8600000.0,90.10000000000001,79.16806949027003,78.43137254901961,73.31536388140162,357920.0,2005160.0,0.0,1.0,0.0,?,0.0,0.0,1017.0,683.0,683.0,7.0,0.0,0.0,1.0
8700000.0,26.765625,7.416089130048124E-6,8700000.0,92.5,84.41422420242391,84.30962343096236,80.86734693877553,367860.0,2014576.0,0.0,1.0,0.0,?,0.0,0.0,1027.0,688.0,688.0,7.0,0.0,0.0,1.0
8800000.0,27.140625,7.618275380486418E-6,8800000.0,92.7,85.0871888738172,85.3118712273642,82.1078431372549,377820.0,2028048.0,0.0,1.0,0.0,?,0.0,0.0,1046.0,699.0,699.0,7.0,0.0,0.0,1.0
8900000.0,27.5,7.8159932874971E-6,8900000.0,91.5,82.1221248170147,81.06904231625836,77.39361702127661,387760.0,2054848.0,0.0,1.0,0.0,?,0.0,0.0,1064.0,711.0,711.0,7.0,0.0,0.0,1.0
9000000.0,27.859375,8.013346749875282E-6,9000000.0,93.7,86.80152850869844,86.70886075949367,83.88746803069054,397720.0,2065776.0,0.0,1.0,0.0,?,0.0,0.0,1068.0,713.0,713.0,7.0,0.0,0.0,1.0
9100000.0,28.21875,8.213705764824733E-6,9100000.0,93.5,86.48120263221385,86.37316561844864,83.02872062663187,407660.0,2082384.0,0.0,1.0,0.0,?,0.0,0.0,1079.0,720.0,720.0,7.0,0.0,0.0,1.0
9200000.0,28.578125,8.415835683182297E-6,9200000.0,92.30000000000001,84.0793304221252,84.22131147540985,80.15463917525774,417620.0,2116216.0,0.0,1.0,0.0,?,0.0,0.0,1097.0,732.0,732.0,7.0,0.0,0.0,1.0
9300000.0,28.9375,8.621965567322655E-6,9300000.0,93.5,86.79666869794842,86.43006263048018,84.63356973995273,427560.0,2143504.0,0.0,1.0,0.0,?,0.0,0.0,1111.0,742.0,742.0,7.0,0.0,0.0,1.0
9400000.0,29.3125,8.837051411521518E-6,9400000.0,91.2,81.61918288913026,81.27659574468086,76.96335078534032,437520.0,2158264.0,0.0,1.0,0.0,?,0.0,0.0,1117.0,745.0,745.0,8.0,0.0,0.0,1.0
9500000.0,29.671875,9.045604480585704E-6,9500000.0,93.4,85.7315807679004,85.4625550660793,81.46067415730339,447460.0,2168648.0,0.0,1.0,0.0,?,0.0,0.0,1131.0,752.0,752.0,8.0,0.0,0.0,1.0
9600000.0,30.03125,9.254204406816926E-6,9600000.0,91.7,82.47776999012,82.2269807280514,77.62803234501348,457420.0,2183984.0,0.0,1.0,0.0,?,0.0,0.0,1146.0,761.0,761.0,8.0,0.0,0.0,1.0
9700000.0,30.40625,9.476784293332861E-6,9700000.0,92.80000000000001,84.90768534200863,84.21052631578948,80.95238095238096,467360.0,2218784.0,0.0,1.0,0.0,?,0.0,0.0,1161.0,770.0,770.0,8.0,0.0,0.0,1.0
9800000.0,30.765625,9.691036086426013E-6,9800000.0,92.2,83.70001337434802,83.81742738589213,79.36507936507937,477320.0,2243736.0,0.0,1.0,0.0,?,0.0,0.0,1178.0,780.0,780.0,8.0,0.0,0.0,1.0
9900000.0,31.140625,9.918628040597671E-6,9900000.0,92.80000000000001,84.87299619723933,85.03118503118505,80.27397260273975,487260.0,2269464.0,0.0,1.0,0.0,?,0.0,0.0,1191.0,788.0,788.0,8.0,0.0,0.0,1.0
1.0E7,31.515625,1.0146962724522585E-5,1.0E7,92.5,84.08116483423187,83.90557939914164,79.72972972972974,497220.0,2291952.0,0.0,1.0,0.0,?,0.0,0.0,1209.0,800.0,800.0,8.0,0.0,0.0,1.0
