learning evaluation instances,evaluation time (cpu seconds),model cost (RAM-Hours),classified instances,classifications correct (percent),Kappa Statistic (percent),Kappa Temporal Statistic (percent),Kappa M Statistic (percent),model training instances,model serialized size (bytes),labeling cost,newThreshold,maxPosterior,accuracyBaseLearner (percent),Change detected,Warning detected,tree size (nodes),tree size (leaves),active learning leaves,tree depth,active leaf byte size estimate,inactive leaf byte size estimate,byte size estimate overhead
100000.0,0.484375,4.002543088669578E-8,100000.0,88.7,76.37722848446332,75.90618336886993,72.57281553398059,29945.0,274936.0,30000.0,1.0,0.5710075238249486,0.0,1.0,4.0,93.0,65.0,65.0,4.0,0.0,0.0,1.0
200000.0,0.953125,1.1081467770660917E-7,200000.0,90.5,79.61110872644547,79.52586206896552,74.32432432432434,59945.0,538352.0,60000.0,1.0,0.9663343780242947,0.0,0.0,0.0,188.0,129.0,129.0,5.0,0.0,0.0,1.0
300000.0,1.40625,2.002038915331165E-7,300000.0,92.0,83.15484487717777,81.859410430839,79.32816537467701,89945.0,716560.0,90000.0,1.0,1.0,0.0,0.0,0.0,252.0,173.0,173.0,5.0,0.0,0.0,1.0
400000.0,1.859375,3.090541253590749E-7,400000.0,93.8,86.84216111137049,87.21649484536081,83.72703412073488,119945.0,882016.0,120000.0,1.0,0.9324504808501933,0.0,0.0,0.0,309.0,212.0,212.0,5.0,0.0,0.0,1.0
500000.0,2.359375,4.481543954979214E-7,500000.0,95.3,90.03054471406753,90.1673640167364,87.66404199475065,149945.0,1028392.0,150000.0,1.0,0.0,0.0,0.0,0.0,372.0,257.0,257.0,5.0,0.0,0.0,1.0
600000.0,2.84375,6.031515658833086E-7,600000.0,94.3,87.72599247194204,88.22314049586775,84.63611859838274,179945.0,1189320.0,180000.0,1.0,0.993947358375088,0.0,0.0,0.0,420.0,287.0,287.0,6.0,0.0,0.0,1.0
700000.0,3.328125,7.720469147898256E-7,700000.0,93.60000000000001,86.27487143414727,86.29550321199144,82.36914600550965,209945.0,1299688.0,210000.0,1.0,0.0,0.0,0.0,0.0,473.0,318.0,318.0,6.0,0.0,0.0,1.0
800000.0,3.8125,9.509779435272018E-7,800000.0,95.89999999999999,91.40259348106892,91.14470842332612,89.5408163265306,239944.0,1379488.0,239999.0,1.0,1.0,0.0,0.0,0.0,502.0,337.0,337.0,6.0,0.0,0.0,1.0
900000.0,4.296875,1.1434552854754858E-6,900000.0,95.7,90.65136098791199,90.98532494758909,88.05555555555554,269945.0,1487168.0,270000.0,1.0,1.0,0.0,0.0,0.0,544.0,364.0,364.0,7.0,0.0,0.0,1.0
1000000.0,4.796875,1.3544360667260155E-6,1000000.0,97.3,94.34365441823438,94.25531914893617,93.07692307692307,299944.0,1581816.0,299999.0,1.0,1.0,0.0,0.0,0.0,578.0,384.0,384.0,8.0,0.0,0.0,1.0
1100000.0,5.34375,1.6046567341416244E-6,1100000.0,95.89999999999999,91.230846886309,91.14470842332612,89.15343915343914,329943.0,1718856.0,329998.0,1.0,0.0,0.0,0.0,0.0,636.0,422.0,422.0,8.0,0.0,0.0,1.0
1200000.0,5.890625,1.8734697368927298E-6,1200000.0,96.7,93.0414979757085,92.9936305732484,91.49484536082474,359944.0,1849888.0,359999.0,1.0,0.9999999999999999,0.0,0.0,0.0,674.0,450.0,450.0,8.0,0.0,0.0,1.0
1300000.0,6.453125,2.167066850233823E-6,1300000.0,96.8,93.3107012057461,93.13304721030042,91.95979899497488,389945.0,1967016.0,390000.0,1.0,0.9999999999999968,0.0,0.0,0.0,726.0,485.0,485.0,8.0,0.0,0.0,1.0
1400000.0,7.015625,2.472130872774869E-6,1400000.0,97.0,93.87652627582574,93.82716049382715,93.006993006993,419945.0,2045480.0,420000.0,1.0,0.9774427552403302,0.0,0.0,0.0,752.0,501.0,501.0,8.0,0.0,0.0,1.0
1500000.0,7.578125,2.791205479297787E-6,1500000.0,98.3,96.32184305953422,96.44351464435145,95.30386740331491,449941.0,2141296.0,449996.0,1.0,0.9999999999999999,0.0,0.0,0.0,801.0,530.0,530.0,8.0,0.0,0.0,1.0
1600000.0,8.171875,3.1524466208389237E-6,1600000.0,96.5,92.68045807784647,92.78350515463917,91.20603015075376,479945.0,2299792.0,480000.0,1.0,0.9778483419778762,0.0,0.0,0.0,857.0,567.0,567.0,9.0,0.0,0.0,1.0
1700000.0,8.75,3.5195539304469197E-6,1700000.0,98.0,95.69544405799097,95.57522123893804,94.53551912568305,509945.0,2402192.0,510000.0,1.0,0.9878542510121457,0.0,0.0,0.0,893.0,591.0,591.0,10.0,0.0,0.0,1.0
1800000.0,9.34375,3.91240176718889E-6,1800000.0,97.39999999999999,94.3080318049669,94.50317124735729,92.65536723163841,539945.0,2504856.0,540000.0,1.0,1.0,0.0,0.0,0.0,928.0,616.0,616.0,10.0,0.0,0.0,1.0
1900000.0,9.953125,4.327708771193607E-6,1900000.0,97.7,95.14554910171552,95.1983298538622,94.0721649484536,569945.0,2581456.0,570000.0,1.0,1.0,0.0,0.0,0.0,957.0,635.0,635.0,10.0,0.0,0.0,1.0
2000000.0,10.5625,4.752787289261404E-6,2000000.0,97.6,94.98313077723846,94.61883408071749,93.89312977099236,599944.0,2643168.0,599999.0,1.0,0.0,0.0,0.0,0.0,983.0,651.0,651.0,10.0,0.0,0.0,1.0
2100000.0,11.171875,5.185198226374471E-6,2100000.0,98.0,95.76423745684816,95.72649572649571,94.72295514511873,629945.0,2689472.0,630000.0,1.0,0.7424943636747278,0.0,0.0,0.0,1009.0,667.0,667.0,10.0,0.0,0.0,1.0
2200000.0,11.78125,5.629612941346649E-6,2200000.0,97.1,93.71047357965142,93.82978723404256,91.92200557103062,659943.0,2765344.0,659998.0,1.0,0.9984408463879234,0.0,0.0,0.0,1027.0,679.0,679.0,10.0,0.0,0.0,1.0
2300000.0,12.390625,6.079589398319109E-6,2300000.0,97.39999999999999,94.51569355383057,94.52631578947368,93.1578947368421,689945.0,2800432.0,690000.0,1.0,1.0,0.0,0.0,0.0,1050.0,692.0,692.0,10.0,0.0,0.0,1.0
2400000.0,13.0,6.537859282818519E-6,2400000.0,97.8,95.32636820570778,95.34883720930232,94.16445623342175,719945.0,2852776.0,720000.0,1.0,0.0,0.0,0.0,0.0,1075.0,706.0,706.0,10.0,0.0,0.0,1.0
2500000.0,13.625,7.019179724415557E-6,2500000.0,98.1,95.90834697217676,95.84245076586433,94.79452054794521,749945.0,2922296.0,750000.0,1.0,0.836549710419233,0.0,0.0,0.0,1106.0,723.0,723.0,10.0,0.0,0.0,1.0
2600000.0,14.28125,7.541009658274965E-6,2600000.0,97.89999999999999,95.54567591186377,95.35398230088495,94.44444444444444,779945.0,3018736.0,780000.0,1.0,0.0,0.0,0.0,0.0,1150.0,751.0,751.0,10.0,0.0,0.0,1.0
2700000.0,14.953125,8.094989979225728E-6,2700000.0,97.39999999999999,94.4767343054281,94.46808510638297,93.19371727748691,809945.0,3131712.0,810000.0,1.0,0.0,0.0,0.0,0.0,1191.0,776.0,776.0,10.0,0.0,0.0,1.0
2800000.0,15.609375,8.651814746877385E-6,2800000.0,97.7,95.0959488272921,95.12711864406779,93.88297872340425,839943.0,3223952.0,839998.0,1.0,0.9999999999999999,0.0,0.0,0.0,1239.0,806.0,806.0,10.0,0.0,0.0,1.0
2900000.0,16.25,9.205508556786097E-6,2900000.0,97.89999999999999,95.66785216236065,95.78313253012047,94.97607655502392,869945.0,3284744.0,870000.0,1.0,1.0,0.0,0.0,0.0,1257.0,815.0,815.0,10.0,0.0,0.0,1.0
3000000.0,16.90625,9.7809621042365E-6,3000000.0,97.3,94.377389609416,94.23076923076923,93.23308270676691,899942.0,3333080.0,899997.0,1.0,1.0,0.0,0.0,0.0,1281.0,827.0,827.0,10.0,0.0,0.0,1.0
3100000.0,17.53125,1.0335224505979569E-5,3100000.0,98.9,97.63114824704971,97.66949152542372,97.01086956521738,929945.0,3371336.0,930000.0,1.0,0.9999999999999999,0.0,0.0,0.0,1296.0,836.0,836.0,10.0,0.0,0.0,1.0
3200000.0,18.203125,1.094295106466032E-5,3200000.0,97.89999999999999,95.61612264836293,95.56962025316456,94.65648854961832,959944.0,3439384.0,959999.0,1.0,0.9999999999999999,0.0,0.0,0.0,1331.0,855.0,855.0,10.0,0.0,0.0,1.0
3300000.0,18.84375,1.152744283899665E-5,3300000.0,97.8,95.36324741290282,95.28907922912205,94.28571428571428,989943.0,3469584.0,989998.0,1.0,1.0,0.0,0.0,0.0,1343.0,861.0,861.0,10.0,0.0,0.0,1.0
3400000.0,19.65625,1.2277180794626475E-5,3400000.0,97.8,95.37622792674263,95.38784067085953,94.34447300771208,1019943.0,3509424.0,1019998.0,1.0,0.8888888888888888,0.0,0.0,0.0,1367.0,873.0,873.0,10.0,3955.814814814815,0.0,1.0176158865991929
3500000.0,20.328125,1.2903940741024498E-5,3500000.0,98.1,96.00860460817101,95.93147751605994,95.11568123393316,1049945.0,3548256.0,1050000.0,1.0,0.0,0.0,0.0,0.0,1381.0,880.0,880.0,10.0,3955.814814814815,0.0,1.0176158865991929
3600000.0,20.984375,1.352145165179132E-5,3600000.0,97.6,94.85773054508056,94.78260869565217,93.54838709677419,1079945.0,3579512.0,1080000.0,1.0,0.5316115848555457,0.0,0.0,0.0,1401.0,893.0,893.0,10.0,3955.814814814815,0.0,1.0176158865991929
3700000.0,21.671875,1.418237726385188E-5,3700000.0,98.2,96.22039307911977,96.24217118997912,95.40816326530613,1109945.0,3657984.0,1110000.0,1.0,0.0,0.0,0.0,0.0,1439.0,918.0,918.0,10.0,3955.814814814815,0.0,1.0176158865991929
3800000.0,22.3125,1.4812117345475904E-5,3800000.0,98.4,96.69037187808985,96.7871485943775,96.0880195599022,1139945.0,3741432.0,1140000.0,1.0,1.0,0.0,0.0,0.0,1460.0,933.0,933.0,10.0,3955.814814814815,0.0,1.0176158865991929
3900000.0,23.0,1.549681315534852E-5,3900000.0,99.0,97.86666666666667,97.7728285077951,97.33333333333333,1169942.0,3791136.0,1169997.0,1.0,0.6951467714402626,0.0,0.0,0.0,1475.0,942.0,942.0,10.0,3955.814814814815,0.0,1.0176158865991929
4000000.0,23.6875,1.618901451972003E-5,4000000.0,98.1,95.99757326547464,95.99156118143459,95.14066496163682,1199945.0,3833184.0,1200000.0,1.0,0.9681348856589415,0.0,0.0,0.0,1495.0,955.0,955.0,10.0,3955.814814814815,0.0,1.0176158865991929
4100000.0,24.34375,1.685511699179188E-5,4100000.0,97.6,94.93687976777154,94.96855345911949,93.75,1229944.0,3864608.0,1229999.0,1.0,0.0,0.0,0.0,0.0,1507.0,961.0,961.0,10.0,3955.814814814815,0.0,1.0176158865991929
4200000.0,25.0,1.7525787019015604E-5,4200000.0,98.1,96.00491185573946,96.11451942740285,95.10309278350515,1259945.0,3891384.0,1260000.0,1.0,1.0,0.0,0.0,0.0,1515.0,965.0,965.0,10.0,3955.814814814815,0.0,1.0176158865991929
4300000.0,25.6875,1.8232687887373488E-5,4300000.0,98.9,97.74296008732692,97.7035490605428,97.39336492890996,1289945.0,3915360.0,1290000.0,1.0,0.9978241267812313,0.0,0.0,0.0,1533.0,974.0,974.0,10.0,3955.814814814815,0.0,1.0176158865991929
4400000.0,26.390625,1.8961933835978726E-5,4400000.0,98.8,97.45844558531998,97.45222929936305,96.8586387434555,1319943.0,3949736.0,1319998.0,1.0,0.9999999999999999,0.0,0.0,0.0,1544.0,981.0,981.0,10.0,3955.814814814815,0.0,1.0176158865991929
4500000.0,27.078125,1.967840481989293E-5,4500000.0,98.5,96.72248636554328,96.6887417218543,95.78651685393258,1349944.0,3968920.0,1349999.0,1.0,0.6047664244076717,0.0,0.0,0.0,1554.0,986.0,986.0,10.0,3955.814814814815,0.0,1.0176158865991929
4600000.0,27.78125,2.041689996581732E-5,4600000.0,97.8,95.2967333675389,95.28907922912205,94.05405405405405,1379944.0,4000304.0,1379999.0,1.0,1.0,0.0,0.0,0.0,1577.0,999.0,999.0,10.0,3955.814814814815,0.0,1.0176158865991929
4700000.0,28.484375,2.1165563990103292E-5,4700000.0,98.5,96.81504318801437,96.7032967032967,96.03174603174602,1409945.0,4056000.0,1410000.0,1.0,0.0,0.0,0.0,0.0,1606.0,1018.0,1018.0,10.0,3955.814814814815,0.0,1.0176158865991929
4800000.0,29.1875,2.1926966760980176E-5,4800000.0,98.8,97.45071380013596,97.5103734439834,96.82539682539682,1439945.0,4125760.0,1440000.0,1.0,1.0,0.0,0.0,0.0,1624.0,1030.0,1030.0,10.0,3955.814814814815,0.0,1.0176158865991929
4900000.0,29.90625,2.271386817382235E-5,4900000.0,97.89999999999999,95.48829534907703,95.64315352697095,94.23076923076923,1469945.0,4171760.0,1470000.0,1.0,0.0,0.0,0.0,0.0,1654.0,1051.0,1051.0,10.0,3955.814814814815,0.0,1.0176158865991929
5000000.0,30.625,2.3513205330042794E-5,5000000.0,98.0,95.71483054297381,95.71734475374733,94.57994579945799,1499945.0,4238304.0,1500000.0,1.0,1.0,0.0,0.0,0.0,1681.0,1066.0,1066.0,11.0,3955.814814814815,0.0,1.0176158865991929
5100000.0,31.46875,2.3577922353676215E-5,5100000.0,83.8,64.0715375607679,65.16129032258064,55.97826086956521,29387.0,256608.0,1529999.0,1.0,0.9696403088918238,0.0,1.0,1.0,80.0,60.0,60.0,4.0,0.0,0.0,1.0
5200000.0,31.9375,2.3640902072656905E-5,5200000.0,88.6,74.76502698371237,76.73469387755102,69.2722371967655,59388.0,478760.0,1560000.0,1.0,0.8953488372093024,0.0,0.0,0.0,156.0,113.0,113.0,4.0,0.0,0.0,1.0
5300000.0,32.40625,2.3719140929946062E-5,5300000.0,88.2,74.64764523891373,76.20967741935483,69.89795918367348,89388.0,604120.0,1590000.0,1.0,1.0,0.0,0.0,0.0,202.0,142.0,142.0,5.0,0.0,0.0,1.0
5400000.0,32.875,2.3809457876874764E-5,5400000.0,90.8,80.27816363979353,79.78021978021978,75.91623036649216,119388.0,703144.0,1620000.0,1.0,0.6041084271525401,0.0,0.0,0.0,250.0,166.0,166.0,5.0,0.0,0.0,1.0
5500000.0,33.359375,2.3912098291071348E-5,5500000.0,91.3,81.15985967343758,81.4498933901919,76.4864864864865,149388.0,777032.0,1650000.0,1.0,0.803921568627451,0.0,0.0,0.0,286.0,184.0,184.0,5.0,0.0,0.0,1.0
5600000.0,33.84375,2.4029066941390443E-5,5600000.0,91.8,82.26068144943214,82.88100208768267,78.13333333333334,179388.0,890896.0,1680000.0,1.0,0.6400307134574422,0.0,0.0,0.0,331.0,211.0,211.0,6.0,0.0,0.0,1.0
5700000.0,34.328125,2.4153266373711334E-5,5700000.0,92.2,82.88572933122697,82.19178082191782,78.33333333333334,209387.0,948344.0,1709999.0,1.0,0.9542439581741433,0.0,0.0,0.0,361.0,229.0,229.0,6.0,0.0,0.0,1.0
5800000.0,34.8125,2.428865131352925E-5,5800000.0,90.7,79.65968242859019,80.21276595744682,74.30939226519338,239388.0,1037192.0,1740000.0,1.0,0.7070610366179935,0.0,0.0,0.0,392.0,246.0,246.0,6.0,0.0,0.0,1.0
5900000.0,35.3125,2.4436877510096468E-5,5900000.0,91.8,81.93203802204292,81.65548098434006,76.77053824362608,269388.0,1103384.0,1770000.0,1.0,0.9999999999999999,0.0,0.0,0.0,418.0,262.0,262.0,6.0,0.0,0.0,1.0
6000000.0,35.8125,2.4598041846830818E-5,6000000.0,94.0,87.20267549397671,87.65432098765432,84.29319371727748,299388.0,1203112.0,1800000.0,1.0,0.9491205691402386,0.0,0.0,0.0,451.0,286.0,286.0,6.0,0.0,0.0,1.0
6100000.0,36.3125,2.4772357493121595E-5,6100000.0,93.8,86.76118893064569,86.91983122362869,83.68421052631577,329388.0,1304448.0,1830000.0,1.0,0.6219561251043682,0.0,0.0,0.0,497.0,318.0,318.0,6.0,0.0,0.0,1.0
6200000.0,36.84375,2.4979984025574396E-5,6200000.0,94.0,87.25616801468088,87.60330578512395,84.45595854922279,359387.0,1467016.0,1859999.0,1.0,1.0,0.0,0.0,0.0,559.0,361.0,361.0,6.0,0.0,0.0,1.0
6300000.0,37.421875,2.52323873509239E-5,6300000.0,94.0,87.18649627554157,87.04103671706262,84.04255319148935,389387.0,1643256.0,1889999.0,1.0,1.0,0.0,0.0,0.0,613.0,397.0,397.0,7.0,0.0,0.0,1.0
6400000.0,38.0,2.5520989309168525E-5,6400000.0,94.5,88.44731977818853,88.61283643892338,86.1111111111111,419388.0,1884496.0,1920000.0,1.0,0.5624811597800506,0.0,0.0,0.0,710.0,465.0,465.0,7.0,0.0,0.0,1.0
6500000.0,38.5625,2.5820918251863785E-5,6500000.0,93.7,86.60998937300745,86.87500000000001,83.50785340314137,449388.0,2015376.0,1950000.0,1.0,0.9692939186265989,0.0,0.0,0.0,752.0,489.0,489.0,7.0,0.0,0.0,1.0
6600000.0,39.125,2.613719074159033E-5,6600000.0,94.0,87.40316180638659,87.28813559322033,84.8866498740554,479387.0,2127216.0,1979999.0,1.0,0.76307541938039,0.0,0.0,0.0,795.0,515.0,515.0,7.0,0.0,0.0,1.0
6700000.0,39.6875,2.6466847500867316E-5,6700000.0,95.0,89.06831429033682,89.6694214876033,85.99439775910362,509388.0,2218864.0,2010000.0,1.0,0.5131659109510074,0.0,0.0,0.0,826.0,535.0,535.0,7.0,0.0,0.0,1.0
6800000.0,40.265625,2.6822108354988615E-5,6800000.0,95.5,90.52056826033467,90.17467248908297,88.49104859335037,539388.0,2328432.0,2040000.0,1.0,1.0,0.0,0.0,0.0,866.0,561.0,561.0,7.0,0.0,0.0,1.0
6900000.0,40.84375,2.71887298893287E-5,6900000.0,96.1,91.51051825020896,91.33333333333333,89.13649025069637,569388.0,2404080.0,2070000.0,1.0,0.9999999929826604,0.0,0.0,0.0,901.0,583.0,583.0,7.0,0.0,0.0,1.0
7000000.0,41.484375,2.7623851072146666E-5,7000000.0,96.7,93.07548975172483,93.27902240325865,91.72932330827066,599388.0,2577616.0,2100000.0,1.0,0.6694459341775324,0.0,0.0,0.0,964.0,625.0,625.0,7.0,0.0,0.0,1.0
7100000.0,42.109375,2.806240957902952E-5,7100000.0,96.39999999999999,92.4938386925935,92.12253829321662,91.0224438902743,629388.0,2664168.0,2130000.0,1.0,1.0,0.0,0.0,0.0,999.0,647.0,647.0,7.0,0.0,0.0,1.0
7200000.0,42.75,2.8526879581881486E-5,7200000.0,95.89999999999999,91.32737672183299,91.8,89.64646464646464,659387.0,2753992.0,2159999.0,1.0,0.9267495253441231,0.0,0.0,0.0,1036.0,670.0,670.0,7.0,0.0,0.0,1.0
7300000.0,43.390625,2.9022479009452384E-5,7300000.0,95.7,90.47914268001061,90.04629629629629,87.53623188405795,689388.0,2941184.0,2190000.0,1.0,0.0,0.0,0.0,0.0,1107.0,719.0,719.0,7.0,0.0,0.0,1.0
7400000.0,44.046875,2.9546427702169042E-5,7400000.0,96.8,93.09678310092502,92.98245614035086,91.2087912087912,719387.0,3036632.0,2219999.0,1.0,0.9999999999999999,0.0,0.0,0.0,1136.0,738.0,738.0,7.0,0.0,0.0,1.0
7500000.0,44.703125,3.0083394538248998E-5,7500000.0,95.89999999999999,91.08827390733542,91.16379310344827,88.79781420765026,749388.0,3113008.0,2250000.0,1.0,0.9219181267649309,0.0,0.0,0.0,1180.0,766.0,766.0,7.0,0.0,0.0,1.0
7600000.0,45.375,3.0652158828969634E-5,7600000.0,96.39999999999999,92.2429842101634,92.62295081967213,90.21739130434781,779384.0,3221888.0,2279996.0,1.0,1.0,0.0,0.0,0.0,1209.0,782.0,782.0,7.0,0.0,0.0,1.0
7700000.0,46.03125,3.121763655346715E-5,7700000.0,97.0,93.4974575058848,93.4640522875817,91.68975069252076,809386.0,3280240.0,2309998.0,1.0,0.9886363636363636,0.0,0.0,0.0,1233.0,797.0,797.0,7.0,0.0,0.0,1.0
7800000.0,46.703125,3.180968086881977E-5,7800000.0,96.3,92.12886536530573,92.02586206896551,90.36458333333333,839388.0,3355288.0,2340000.0,1.0,0.91961315471295,0.0,0.0,0.0,1267.0,817.0,817.0,8.0,0.0,0.0,1.0
7900000.0,47.375,3.241371977815612E-5,7900000.0,97.0,93.6267845003399,93.67088607594937,92.06349206349206,869388.0,3424080.0,2370000.0,1.0,1.0,0.0,0.0,0.0,1301.0,840.0,840.0,8.0,0.0,0.0,1.0
8000000.0,48.046875,3.3038420369848615E-5,8000000.0,96.39999999999999,92.34423712449545,92.24137931034481,90.45092838196285,899385.0,3542488.0,2399997.0,1.0,0.8113207547169811,0.0,0.0,0.0,1337.0,864.0,864.0,8.0,0.0,0.0,1.0
8100000.0,48.75,3.371250728378073E-5,8100000.0,96.7,92.78025728537673,92.68292682926828,90.62499999999999,929388.0,3653864.0,2430000.0,1.0,0.9999999999999999,0.0,0.0,0.0,1378.0,892.0,892.0,8.0,0.0,0.0,1.0
8200000.0,49.453125,3.441654494963587E-5,8200000.0,97.2,93.96759738021372,93.80530973451326,92.47311827956989,959388.0,3817952.0,2460000.0,1.0,0.885213626325059,0.0,0.0,0.0,1451.0,942.0,942.0,8.0,0.0,0.0,1.0
8300000.0,50.1875,3.518690154629036E-5,8300000.0,97.1,93.74109725039926,93.86892177589851,92.16216216216215,989388.0,4001648.0,2490000.0,1.0,0.5095530005496746,0.0,0.0,0.0,1514.0,984.0,984.0,8.0,0.0,0.0,1.0
8400000.0,51.09375,3.616632014099095E-5,8400000.0,96.6,92.61280678578878,92.84210526315789,90.60773480662982,1019388.0,4123920.0,2520000.0,1.0,0.0,0.0,0.0,0.0,1566.0,1019.0,1019.0,8.0,4009.929648241206,0.0,1.0165859624850873
8500000.0,51.859375,3.70214403503471E-5,8500000.0,96.8,93.19484850031473,92.85714285714285,91.53439153439152,1049388.0,4263088.0,2550000.0,1.0,0.5451873626061514,0.0,0.0,0.0,1616.0,1050.0,1050.0,8.0,4009.929648241206,0.0,1.0165859624850873
8600000.0,52.59375,3.785713753637134E-5,8600000.0,97.6,94.77888581423275,94.91525423728812,93.29608938547486,1079388.0,4344304.0,2580000.0,1.0,1.0,0.0,0.0,0.0,1657.0,1078.0,1078.0,8.0,4009.929648241206,0.0,1.0165859624850873
8700000.0,53.328125,3.8716710308411475E-5,8700000.0,97.2,93.93106557483645,93.76391982182626,92.20055710306406,1109387.0,4469632.0,2609999.0,1.0,1.0,0.0,0.0,0.0,1707.0,1115.0,1115.0,8.0,4009.929648241206,0.0,1.0165859624850873
8800000.0,54.09375,3.963746382699659E-5,8800000.0,96.7,93.00034786150022,93.00847457627118,91.38381201044385,1139388.0,4593416.0,2640000.0,1.0,1.0,0.0,0.0,0.0,1742.0,1140.0,1140.0,8.0,4009.929648241206,0.0,1.0165859624850873
8900000.0,54.890625,4.062827385496349E-5,8900000.0,96.6,92.81329793530276,92.75053304904051,91.19170984455958,1169387.0,4750408.0,2669999.0,1.0,0.0,0.0,0.0,0.0,1804.0,1183.0,1183.0,8.0,4009.929648241206,0.0,1.0165859624850873
9000000.0,55.71875,4.1698758949577405E-5,9000000.0,96.7,93.0145720261128,92.82608695652173,91.45077720207253,1199388.0,4940320.0,2700000.0,1.0,0.0,0.0,0.0,0.0,1903.0,1252.0,1252.0,8.0,4009.929648241206,0.0,1.0165859624850873
9100000.0,56.578125,4.285546983333513E-5,9100000.0,96.7,92.97154540807632,92.85714285714285,91.3157894736842,1229384.0,5145656.0,2729996.0,1.0,0.9484890170176284,0.0,0.0,0.0,1959.0,1289.0,1289.0,8.0,4009.929648241206,0.0,1.0165859624850873
9200000.0,57.4375,4.403801085168704E-5,9200000.0,97.39999999999999,94.31539914643531,94.50317124735729,92.69662921348313,1259387.0,5261392.0,2759999.0,1.0,0.0,0.0,0.0,0.0,1988.0,1308.0,1308.0,8.0,4009.929648241206,0.0,1.0165859624850873
9300000.0,58.296875,4.524382264612037E-5,9300000.0,96.6,92.87438803567835,92.97520661157024,91.4572864321608,1289388.0,5365680.0,2790000.0,1.0,0.7732263244890768,0.0,0.0,0.0,2024.0,1332.0,1332.0,9.0,4009.929648241206,0.0,1.0165859624850873
9400000.0,59.1875,4.65165521664959E-5,9400000.0,97.2,93.87812215769958,94.21487603305785,92.04545454545455,1319388.0,5465480.0,2820000.0,1.0,1.0,0.0,0.0,0.0,2054.0,1353.0,1353.0,9.0,4009.929648241206,0.0,1.0165859624850873
9500000.0,60.0625,4.778971255291255E-5,9500000.0,98.1,95.94886184339579,96.03340292275574,94.9602122015915,1349387.0,5565600.0,2849999.0,1.0,0.0,0.0,0.0,0.0,2093.0,1377.0,1377.0,9.0,4009.929648241206,0.0,1.0165859624850873
9600000.0,60.9375,4.9078137057626424E-5,9600000.0,97.1,93.79668529087128,93.77682403433477,92.24598930481282,1379388.0,5632800.0,2880000.0,1.0,0.5340771909900112,0.0,0.0,0.0,2131.0,1402.0,1402.0,9.0,4009.929648241206,0.0,1.0165859624850873
9700000.0,61.84375,5.0434582905533424E-5,9700000.0,97.1,93.68725347636419,93.43891402714931,91.89944134078212,1409385.0,5726280.0,2909997.0,1.0,1.0,0.0,0.0,0.0,2157.0,1418.0,1418.0,9.0,4009.929648241206,0.0,1.0165859624850873
9800000.0,62.734375,5.1782050383432466E-5,9800000.0,98.3,96.37529743882781,96.45833333333333,95.49071618037135,1439388.0,5788592.0,2940000.0,1.0,0.9551548774849745,0.0,0.0,0.0,2182.0,1435.0,1435.0,9.0,4009.929648241206,0.0,1.0165859624850873
9900000.0,63.640625,5.316490064918375E-5,9900000.0,97.3,94.14423402243408,94.18103448275862,92.54143646408839,1469388.0,5838472.0,2970000.0,1.0,1.0,0.0,0.0,0.0,2215.0,1456.0,1456.0,9.0,4009.929648241206,0.0,1.0165859624850873
1.0E7,64.515625,5.451994110545558E-5,1.0E7,98.6,96.93902092397839,97.01492537313433,96.05633802816901,1499388.0,5925936.0,3000000.0,1.0,1.0,0.0,0.0,0.0,2244.0,1475.0,1475.0,9.0,4009.929648241206,0.0,1.0165859624850873
