learning evaluation instances,evaluation time (cpu seconds),model cost (RAM-Hours),classified instances,classifications correct (percent),Kappa Statistic (percent),Kappa Temporal Statistic (percent),Kappa M Statistic (percent),model training instances,model serialized size (bytes),labeling cost,newThreshold,maxPosterior,accuracyBaseLearner (percent),Change detected,Warning detected
100000.0,0.65625,1.3659203735490641E-8,100000.0,63.9,27.809817864770388,27.800000000000004,25.25879917184265,19900.0,2904.0,0.0,1.0,0.0,?,0.0,5.0
200000.0,1.328125,2.500164555385709E-8,200000.0,66.60000000000001,33.33679290096722,34.63796477495109,29.386892177589857,39900.0,2904.0,0.0,1.0,0.0,?,0.0,0.0
300000.0,2.0,3.370210631854005E-8,300000.0,66.8,33.60929469874219,34.64566929133859,29.511677282377924,59900.0,2904.0,0.0,1.0,0.0,?,0.0,0.0
400000.0,2.65625,3.961969115253952E-8,400000.0,64.8,29.577183007294366,31.115459882583174,25.581395348837212,79900.0,2904.0,0.0,1.0,0.0,?,0.0,0.0
500000.0,3.328125,4.303618980985549E-8,500000.0,63.6,27.1895152902018,30.401529636711285,27.345309381237527,99900.0,2904.0,0.0,1.0,0.0,?,0.0,0.0
600000.0,4.0,5.7020612681905436E-8,600000.0,65.3,30.57500700252092,33.65200764818356,28.008298755186722,119800.0,2904.0,0.0,1.0,0.0,?,0.0,0.0
700000.0,4.671875,6.836305450027188E-8,700000.0,62.9,25.820770184348383,24.898785425101213,24.746450304259636,139800.0,2904.0,0.0,1.0,0.0,?,0.0,0.0
800000.0,5.359375,7.726585156180793E-8,800000.0,68.0,35.90334224009808,34.02061855670104,32.05944798301486,159800.0,2904.0,0.0,1.0,0.0,?,0.0,0.0
900000.0,6.03125,8.332433127280739E-8,900000.0,66.10000000000001,32.372585162664876,34.0466926070039,23.30316742081448,179800.0,2904.0,0.0,1.0,0.0,?,0.0,0.0
1000000.0,6.734375,8.689973684441712E-8,1000000.0,63.1,26.290220769777783,25.303643724696357,24.84725050916497,199800.0,2904.0,0.0,1.0,0.0,?,0.0,0.0
1100000.0,7.421875,1.0123641307776174E-7,1100000.0,64.5,28.944292325182953,27.402862985685072,21.2860310421286,219700.0,2904.0,0.0,1.0,0.0,?,0.0,0.0
1200000.0,8.109375,1.1286966683756975E-7,1200000.0,67.2,34.45034213723861,35.30571992110455,30.06396588486141,239700.0,2904.0,0.0,1.0,0.0,?,0.0,0.0
1300000.0,8.796875,1.2179949812384116E-7,1300000.0,63.9,27.78440143070904,30.174081237911032,25.87268993839836,259700.0,2904.0,0.0,1.0,0.0,?,0.0,0.0
1400000.0,9.46875,1.2788439764537745E-7,1400000.0,67.9,35.766598631288275,34.489795918367356,32.27848101265823,279700.0,2904.0,0.0,1.0,0.0,?,0.0,0.0
1500000.0,10.125,1.3124724824188485E-7,1500000.0,65.3,30.746263890662927,29.03885480572598,25.69593147751606,299700.0,2904.0,0.0,1.0,0.0,?,0.0,0.0
1600000.0,10.78125,1.449322573737138E-7,1600000.0,65.5,31.046336861628994,33.00970873786409,27.368421052631582,319600.0,2904.0,0.0,1.0,0.0,?,0.0,0.0
1700000.0,11.453125,1.5630111900261707E-7,1700000.0,66.8,33.64246881995523,33.60000000000001,30.83333333333334,339600.0,2904.0,0.0,1.0,0.0,?,0.0,0.0
1800000.0,12.140625,1.6523095028888848E-7,1800000.0,62.7,25.51619473621151,27.005870841487283,20.638297872340424,359600.0,2904.0,0.0,1.0,0.0,?,0.0,0.0
1900000.0,12.796875,1.7117434051922626E-7,1900000.0,63.1,26.20295188192473,20.81545064377682,26.640159045725646,379600.0,2904.0,0.0,1.0,0.0,?,0.0,0.0
2000000.0,13.46875,1.7461725898707906E-7,2000000.0,63.4,26.668590113483365,22.457627118644066,21.794871794871792,399600.0,2904.0,0.0,1.0,0.0,?,0.0,0.0
2100000.0,14.125,1.8832807351524632E-7,2100000.0,65.5,31.093162044915278,31.13772455089821,27.21518987341772,419500.0,2904.0,0.0,1.0,0.0,?,0.0,0.0
2200000.0,14.8125,1.999883614997897E-7,2200000.0,65.8,31.704901271646758,29.192546583850937,30.061349693251536,439500.0,2904.0,0.0,1.0,0.0,?,0.0,0.0
2300000.0,15.484375,2.087416618855463E-7,2300000.0,65.2,30.559989783538725,26.890756302521012,23.008849557522122,459500.0,2904.0,0.0,1.0,0.0,?,0.0,0.0
2400000.0,16.15625,2.1485298121761945E-7,2400000.0,66.3,32.653338555863755,33.13492063492064,27.837259100642402,479500.0,2904.0,0.0,1.0,0.0,?,0.0,0.0
2500000.0,16.8125,2.1824163721046514E-7,2500000.0,64.7,29.524600506304854,32.11538461538462,27.51540041067762,499500.0,2904.0,0.0,1.0,0.0,?,0.0,0.0
2600000.0,17.46875,2.319524517386324E-7,2600000.0,65.9,31.898066783831297,30.122950819672134,28.361344537815132,519400.0,2904.0,0.0,1.0,0.0,?,0.0,0.0
2700000.0,18.15625,2.436127397231758E-7,2700000.0,67.30000000000001,34.676820059609916,31.44654088050315,32.71604938271606,539400.0,2904.0,0.0,1.0,0.0,?,0.0,0.0
2800000.0,18.8125,2.5216247498368226E-7,2800000.0,67.4,34.826069572171136,39.852398523985244,33.46938775510205,559400.0,2904.0,0.0,1.0,0.0,?,0.0,0.0
2900000.0,19.484375,2.582737943157554E-7,2900000.0,66.3,32.68723734040684,34.17968750000001,27.370689655172413,579400.0,2904.0,0.0,1.0,0.0,?,0.0,0.0
3000000.0,20.15625,2.6174313259414506E-7,3000000.0,64.4,28.75896516393442,28.94211576846308,29.50495049504951,599400.0,2904.0,0.0,1.0,0.0,?,0.0,0.0
3100000.0,20.8125,2.7547975251865064E-7,3100000.0,70.1,40.19090901817076,40.319361277445104,38.979591836734684,619300.0,2904.0,0.0,1.0,0.0,?,0.0,0.0
3200000.0,21.484375,2.869014537686276E-7,3200000.0,66.4,33.03064246734248,31.983805668016203,26.797385620915033,639300.0,2904.0,0.0,1.0,0.0,?,0.0,0.0
3300000.0,22.15625,2.9568117396492107E-7,3300000.0,66.60000000000001,33.31443243394337,31.975560081466405,27.548806941431675,659300.0,2904.0,0.0,1.0,0.0,?,0.0,0.0
3400000.0,22.8125,3.016761749879355E-7,3400000.0,63.4,26.821075530247295,22.292993630573246,21.290322580645157,679300.0,2904.0,0.0,1.0,0.0,?,0.0,0.0
3500000.0,23.484375,3.0517193307686194E-7,3500000.0,64.4,28.733009028486784,26.446280991735538,21.412803532008827,699300.0,2904.0,0.0,1.0,0.0,?,0.0,0.0
3600000.0,24.140625,3.1890855300136746E-7,3600000.0,65.60000000000001,31.26928056519029,28.482328482328484,28.18371607515658,719200.0,2904.0,0.0,1.0,0.0,?,0.0,0.0
3700000.0,24.828125,3.305958752106462E-7,3700000.0,65.4,30.81798732329594,30.382293762575458,29.817444219066942,739200.0,2904.0,0.0,1.0,0.0,?,0.0,0.0
3800000.0,25.5,3.393755954069397E-7,3800000.0,67.30000000000001,34.61882977702423,33.939393939393945,34.205231388329985,759200.0,2904.0,0.0,1.0,0.0,?,0.0,0.0
3900000.0,26.15625,3.453705964299541E-7,3900000.0,64.2,28.51894447639129,26.789366053169733,20.089285714285708,779200.0,2904.0,0.0,1.0,0.0,?,0.0,0.0
4000000.0,26.828125,3.4886635451888056E-7,4000000.0,66.5,33.06265335645836,33.13373253493015,31.21149897330596,799200.0,2904.0,0.0,1.0,0.0,?,0.0,0.0
4100000.0,27.515625,3.632841334264313E-7,4100000.0,64.0,28.179264555669057,28.571428571428577,19.642857142857135,819100.0,2904.0,0.0,1.0,0.0,?,0.0,0.0
4200000.0,28.1875,3.747322544869451E-7,4200000.0,64.8,29.545045135205466,30.980392156862752,23.644251626898047,839100.0,2904.0,0.0,1.0,0.0,?,0.0,0.0
4300000.0,28.859375,3.8353839449377537E-7,4300000.0,65.7,31.54894948591864,27.330508474576277,28.985507246376812,859100.0,2904.0,0.0,1.0,0.0,?,0.0,0.0
4400000.0,29.546875,3.898459059807163E-7,4400000.0,65.3,30.808681018049562,33.52490421455939,26.326963906581742,879100.0,2904.0,0.0,1.0,0.0,?,0.0,0.0
4500000.0,30.21875,3.933680838801796E-7,4500000.0,66.3,32.81767074678043,25.770925110132158,28.297872340425535,899100.0,2904.0,0.0,1.0,0.0,?,0.0,0.0
4600000.0,30.890625,4.074581859943769E-7,4600000.0,66.9,33.87406105162219,36.8320610687023,32.86004056795132,919000.0,2904.0,0.0,1.0,0.0,?,0.0,0.0
4700000.0,31.578125,4.1917254242839096E-7,4700000.0,68.5,37.03173600505347,36.87374749498999,34.782608695652186,939000.0,2904.0,0.0,1.0,0.0,?,0.0,0.0
4800000.0,32.234375,4.2777388848157406E-7,4800000.0,67.2,34.582384312536654,34.268537074148306,28.540305010893253,959000.0,2904.0,0.0,1.0,0.0,?,0.0,0.0
4900000.0,32.90625,4.3393804743472086E-7,4900000.0,63.9,27.815591832164255,29.35420743639922,25.103734439834025,979000.0,2904.0,0.0,1.0,0.0,?,0.0,0.0
5000000.0,33.5625,4.377708278803363E-7,5000000.0,65.8,31.713628522139174,32.14285714285715,27.848101265822788,999000.0,2904.0,0.0,1.0,0.0,?,0.0,0.0
5100000.0,34.25,4.526268457993866E-7,5100000.0,53.7,7.674759914494479,1.906779661016951,-13.759213759213743,1018900.0,2904.0,0.0,1.0,0.0,?,0.0,0.0
5200000.0,34.9375,4.647794412449003E-7,5200000.0,55.400000000000006,9.473607294072755,11.857707509881434,-11.221945137157089,1038900.0,2904.0,0.0,1.0,0.0,?,0.0,0.0
5300000.0,35.609375,4.7401386028569613E-7,5300000.0,52.6,4.399633733617849,1.250000000000001,-15.892420537897298,1058900.0,2904.0,0.0,1.0,0.0,?,0.0,0.0
5400000.0,36.265625,4.804529857614803E-7,5400000.0,52.2,3.6787464534433942,4.590818363273457,-20.707070707070695,1078900.0,2904.0,0.0,1.0,0.0,?,0.0,0.0
5500000.0,36.921875,4.843115716034341E-7,5500000.0,51.6,1.5231359591117535,-0.8333333333333341,-20.698254364089767,1098900.0,2904.0,0.0,1.0,0.0,?,0.0,0.0
5600000.0,37.59375,4.988299527515969E-7,5600000.0,53.2,5.781929457239507,5.835010060362178,-11.96172248803826,1118800.0,2904.0,0.0,1.0,0.0,?,0.0,0.0
5700000.0,38.28125,5.109825481971107E-7,5700000.0,54.1,6.616210937499998,7.645875251509062,-9.285714285714267,1138800.0,2904.0,0.0,1.0,0.0,?,0.0,0.0
5800000.0,38.953125,5.202169672379065E-7,5800000.0,54.6,8.078186184191877,6.391752577319594,-17.312661498707996,1158800.0,2904.0,0.0,1.0,0.0,?,0.0,0.0
5900000.0,39.625,5.268094052250189E-7,5900000.0,52.2,3.3484309285021068,2.647657841140532,-10.648148148148131,1178800.0,2904.0,0.0,1.0,0.0,?,0.0,0.0
6000000.0,40.296875,5.307598621584477E-7,6000000.0,55.60000000000001,9.030188045255464,10.121457489878551,-8.02919708029195,1198800.0,2904.0,0.0,1.0,0.0,?,0.0,0.0
6100000.0,40.96875,5.453046631171474E-7,6100000.0,53.7,6.252530979185231,3.138075313807534,-11.566265060240946,1218700.0,2904.0,0.0,1.0,0.0,?,0.0,0.0
6200000.0,41.625,5.569306732569306E-7,6200000.0,54.50000000000001,6.81881481724202,8.450704225352121,-7.56501182033095,1238700.0,2904.0,0.0,1.0,0.0,?,0.0,0.0
6300000.0,42.28125,5.659761437628834E-7,6300000.0,56.00000000000001,11.112547675997167,10.386965376782086,-4.265402843601873,1258700.0,2904.0,0.0,1.0,0.0,?,0.0,0.0
6400000.0,42.96875,5.727489284860593E-7,6400000.0,58.5,15.392456676860327,15.650406504065032,-2.469135802469138,1278700.0,2904.0,0.0,1.0,0.0,?,0.0,0.0
6500000.0,43.625,5.766469015118979E-7,6500000.0,57.3,12.089269538005434,12.320328542094444,-8.101265822784818,1298700.0,2904.0,0.0,1.0,0.0,?,0.0,3.0
6600000.0,44.296875,5.91205607634038E-7,6600000.0,56.10000000000001,9.748776777270697,3.51648351648352,-8.933002481389558,1318600.0,2904.0,0.0,1.0,0.0,?,0.0,0.0
6700000.0,44.96875,6.031223327024946E-7,6700000.0,56.10000000000001,10.305655442955223,5.387931034482764,-8.663366336633644,1338600.0,2904.0,0.0,1.0,0.0,?,0.0,0.0
6800000.0,45.65625,6.126127684385415E-7,6800000.0,56.39999999999999,10.361842105263158,11.020408163265294,-9.000000000000007,1358600.0,2904.0,0.0,1.0,0.0,?,0.0,0.0
6900000.0,46.34375,6.193997817010518E-7,6900000.0,57.4,12.70885328940087,6.373626373626355,-10.07751937984497,1378600.0,2904.0,0.0,1.0,0.0,?,0.0,0.0
7000000.0,47.015625,6.233905636084579E-7,7000000.0,52.0,2.29286086503386,-1.0526315789473695,-21.2121212121212,1398600.0,2904.0,0.0,1.0,0.0,?,0.0,0.0
7100000.0,47.703125,6.383148785163133E-7,7100000.0,57.199999999999996,12.56455514153102,15.07936507936507,-2.3923444976076578,1418500.0,2904.0,0.0,1.0,0.0,?,0.0,0.0
7200000.0,48.375,6.502580233953068E-7,7200000.0,62.1,21.573009527120426,25.393700787401574,3.8071065989847748,1438500.0,2904.0,0.0,1.0,0.0,?,0.0,0.0
7300000.0,49.015625,6.591265749496721E-7,7300000.0,57.49999999999999,12.777572548536712,14.314516129032247,-5.7213930348258755,1458500.0,2904.0,0.0,1.0,0.0,?,0.0,0.0
7400000.0,49.703125,6.659406224369177E-7,7400000.0,58.9,16.08819926500612,14.374999999999991,-2.7500000000000027,1478500.0,2904.0,0.0,1.0,0.0,?,0.0,0.0
7500000.0,50.375,6.699578241548606E-7,7500000.0,56.10000000000001,10.72154884893844,13.752455795677813,-1.856148491879326,1498500.0,2904.0,0.0,1.0,0.0,?,0.0,0.0
7600000.0,51.0625,6.848821390627161E-7,7600000.0,59.599999999999994,16.91072427523116,16.182572614107876,2.884615384615387,1518400.0,2904.0,0.0,1.0,0.0,?,0.0,0.0
7700000.0,51.75,6.97103031497035E-7,7700000.0,58.199999999999996,14.77840346105698,14.168377823408616,3.4642032332563537,1538400.0,2904.0,0.0,1.0,0.0,?,0.0,0.0
7800000.0,52.359375,7.055389707804556E-7,7800000.0,59.599999999999994,17.4890530030717,21.093749999999996,5.607476635514023,1558400.0,2904.0,0.0,1.0,0.0,?,0.0,0.0
7900000.0,53.046875,7.123530182677013E-7,7900000.0,61.0,19.7557282064788,19.421487603305778,4.411764705882357,1578400.0,2904.0,0.0,1.0,0.0,?,0.0,0.0
8000000.0,53.75,7.165570665771765E-7,8000000.0,61.0,19.245295520805726,16.12903225806451,1.5151515151515165,1598400.0,2904.0,0.0,1.0,0.0,?,0.0,0.0
8100000.0,54.421875,7.311686123203903E-7,8100000.0,59.5,17.57168210755979,15.0943396226415,4.481132075471702,1618300.0,2904.0,0.0,1.0,0.0,?,0.0,0.0
8200000.0,55.109375,7.434165389794445E-7,8200000.0,58.8,14.664457332228661,13.445378151260492,0.48309178743961395,1638300.0,2904.0,0.0,1.0,0.0,?,0.0,0.0
8300000.0,55.796875,7.529610431649622E-7,8300000.0,58.099999999999994,13.674460001813038,10.85106382978722,-6.345177664974624,1658300.0,2904.0,0.0,1.0,0.0,?,0.0,0.0
8400000.0,56.46875,7.596466457471254E-7,8400000.0,63.3,23.205691567273487,18.26280623608017,0.8108108108108115,1678300.0,2904.0,0.0,1.0,0.0,?,0.0,0.0
8500000.0,57.15625,7.637843049855699E-7,8500000.0,62.2,22.429396385784468,21.249999999999996,8.474576271186447,1698300.0,2904.0,0.0,1.0,0.0,?,0.0,0.0
8600000.0,57.84375,7.787356541181607E-7,8600000.0,59.599999999999994,17.15879265091865,12.742980561555065,1.9417475728155356,1718200.0,2904.0,0.0,1.0,0.0,?,0.0,0.0
8700000.0,58.5,7.904268568381669E-7,8700000.0,62.9,24.07809110629069,24.746450304259636,15.102974828375299,1738200.0,2904.0,0.0,1.0,0.0,?,0.0,0.0
8800000.0,59.1875,7.999713610236846E-7,8800000.0,60.3,18.58481124801077,16.596638655462176,8.101851851851858,1758200.0,2904.0,0.0,1.0,0.0,?,0.0,0.0
8900000.0,59.875,8.068124427356656E-7,8900000.0,60.3,18.60350681516231,21.230158730158728,7.025761124121785,1778200.0,2904.0,0.0,1.0,0.0,?,0.0,0.0
9000000.0,60.546875,8.108560642641453E-7,9000000.0,61.3,19.867149258305247,20.370370370370367,6.295399515738503,1798200.0,2904.0,0.0,1.0,0.0,?,0.0,0.0
9100000.0,61.203125,8.251536120143203E-7,9100000.0,62.9,22.750176987465125,23.975409836065573,6.075949367088613,1818100.0,2904.0,0.0,1.0,0.0,?,0.0,0.0
9200000.0,61.875,8.371495965143874E-7,9200000.0,62.2,21.8733852799537,20.253164556962023,4.303797468354434,1838100.0,2904.0,0.0,1.0,0.0,?,0.0,0.0
9300000.0,62.59375,8.471562048523791E-7,9300000.0,61.9,20.04130150095699,19.957983193277308,1.5503875968992262,1858100.0,2904.0,0.0,1.0,0.0,?,0.0,0.0
9400000.0,63.28125,8.540243207890955E-7,9400000.0,60.199999999999996,16.743368755752655,20.399999999999995,2.926829268292685,1878100.0,2904.0,0.0,1.0,0.0,?,0.0,0.0
9500000.0,63.96875,8.581890142522753E-7,9500000.0,60.199999999999996,17.627336134279854,15.856236786469335,0.7481296758104744,1898100.0,2904.0,0.0,1.0,0.0,?,0.0,0.0
9600000.0,64.65625,8.731673976096014E-7,9600000.0,61.3,19.549309828704477,19.20668058455114,8.076009501187654,1918000.0,2904.0,0.0,1.0,0.0,?,0.0,0.0
9700000.0,65.34375,8.85442358493391E-7,9700000.0,61.5,20.253531629313553,21.428571428571423,7.89473684210527,1938000.0,2904.0,0.0,1.0,0.0,?,0.0,0.0
9800000.0,66.0,8.945788269759052E-7,9800000.0,60.5,16.36317438807487,12.995594713656375,-9.72222222222223,1958000.0,2904.0,0.0,1.0,0.0,?,0.0,0.0
9900000.0,66.6875,9.014469429126217E-7,9900000.0,60.9,19.343526441296106,15.55075593952483,6.682577565632464,1978000.0,2904.0,0.0,1.0,0.0,?,0.0,0.0
1.0E7,67.375,9.056116363758014E-7,1.0E7,61.0,18.976864778619863,17.5475687103594,5.339805825242723,1998000.0,2904.0,0.0,1.0,0.0,?,0.0,0.0
