learning evaluation instances,evaluation time (cpu seconds),model cost (RAM-Hours),classified instances,classifications correct (percent),Kappa Statistic (percent),Kappa Temporal Statistic (percent),Kappa M Statistic (percent),model training instances,model serialized size (bytes),labeling cost,newThreshold,maxPosterior,accuracyBaseLearner (percent),Change detected,Warning detected
100000.0,0.296875,1.1526410364442402E-9,100000.0,64.4,26.34005238960319,25.523012552301257,17.401392111368924,9987.0,3024.0,9987.0,1.0,0.0,0.0,0.0,10.0
200000.0,0.578125,2.291764960520797E-9,200000.0,66.8,32.24711029843924,35.53398058252428,26.548672566371685,19915.0,3024.0,19915.0,1.0,0.0,0.0,0.0,18.0
300000.0,0.84375,3.3676042221486567E-9,300000.0,65.4,29.493371154230204,28.06652806652807,24.618736383442265,29890.0,3024.0,29890.0,1.0,0.0,0.0,0.0,0.0
400000.0,1.109375,4.443443483776516E-9,400000.0,65.7,30.521795495057535,32.213438735177874,25.434782608695656,39895.0,3024.0,39895.0,1.0,0.0,0.0,0.0,0.0
500000.0,1.390625,5.582567407853073E-9,500000.0,64.1,27.274347900072115,25.363825363825367,22.4622030237581,49881.0,3024.0,49881.0,1.0,0.0,0.0,0.0,0.0
600000.0,1.65625,6.658406669480933E-9,600000.0,66.0,30.64168679417717,33.07086614173229,24.778761061946902,59758.0,3024.0,59758.0,1.0,0.0,0.0,0.0,0.0
700000.0,1.921875,7.734245931108793E-9,700000.0,67.9,34.32144435532714,34.3558282208589,25.866050808314107,69609.0,3024.0,69609.0,1.0,0.0,0.0,0.0,0.0
800000.0,2.1875,8.810085192736653E-9,800000.0,65.2,28.780759344455543,30.120481927710845,21.26696832579185,79615.0,3024.0,79615.0,1.0,0.0,0.0,0.0,0.0
900000.0,2.453125,9.885924454364513E-9,900000.0,65.9,31.59478435305919,28.361344537815132,31.663326653306616,89617.0,3024.0,89617.0,1.0,0.0,0.0,0.0,0.0
1000000.0,2.71875,1.0961763715992372E-8,1000000.0,67.60000000000001,34.37602537460353,36.96498054474709,29.102844638949676,99704.0,3024.0,99704.0,1.0,0.0,0.0,0.0,0.0
1100000.0,2.984375,1.2037602977620232E-8,1100000.0,65.9,31.035319623990816,34.042553191489375,27.7542372881356,109593.0,3024.0,109593.0,1.0,0.0,0.0,0.0,0.0
1200000.0,3.25,1.3113442239248092E-8,1200000.0,67.0,33.03870362930227,33.198380566801625,28.725701943844495,119597.0,3024.0,119597.0,1.0,0.0,0.0,0.0,0.0
1300000.0,3.515625,1.4189281500875952E-8,1300000.0,64.0,27.472288370181435,30.09708737864078,25.465838509316768,129466.0,3024.0,129466.0,1.0,0.0,0.0,0.0,0.0
1400000.0,3.765625,1.5201836100055115E-8,1400000.0,66.5,32.90015543128176,36.55303030303031,32.73092369477912,139708.0,3024.0,139708.0,1.0,0.0,0.0,0.0,0.0
1500000.0,4.015625,1.6214390699234278E-8,1500000.0,63.5,26.440951229343007,22.669491525423727,23.640167364016733,149600.0,3024.0,149600.0,1.0,0.0,0.0,0.0,0.0
1600000.0,4.28125,1.7290229960862136E-8,1600000.0,66.8,33.2926123577445,35.65891472868218,31.120331950207476,159502.0,3024.0,159502.0,1.0,0.0,0.0,0.0,0.0
1700000.0,4.5625,1.8429353884938693E-8,1700000.0,65.0,28.53525866152665,26.004228329809724,22.907488986784138,169516.0,3024.0,169516.0,1.0,0.0,0.0,0.0,0.0
1800000.0,4.828125,1.950519314656655E-8,1800000.0,68.8,36.35977938056851,39.062499999999986,31.877729257641903,179689.0,3024.0,179689.0,1.0,0.0,0.0,0.0,0.0
1900000.0,5.078125,2.0517747745745714E-8,1900000.0,67.7,34.266223828595635,35.400000000000006,28.381374722838142,189839.0,3024.0,189839.0,1.0,0.0,0.0,0.0,0.0
2000000.0,5.34375,2.1593587007373573E-8,2000000.0,65.10000000000001,28.889866907911365,29.208924949290065,22.616407982261638,199843.0,3024.0,199843.0,1.0,0.0,0.0,0.0,0.0
2100000.0,5.609375,2.266942626900143E-8,2100000.0,65.9,30.995127163231935,32.20675944333997,27.906976744186053,209734.0,3024.0,209734.0,1.0,0.0,0.0,0.0,0.0
2200000.0,5.875,2.374526553062929E-8,2200000.0,64.2,28.124861971627396,29.388560157790934,26.488706365503084,219737.0,3024.0,219737.0,1.0,0.0,0.0,0.0,0.0
2300000.0,6.140625,2.4821104792257147E-8,2300000.0,66.4,32.328192155709615,33.46534653465347,29.85386221294364,229897.0,3024.0,229897.0,1.0,0.0,0.0,0.0,0.0
2400000.0,6.390625,2.583365939143631E-8,2400000.0,66.4,32.101185400138235,34.757281553398066,28.358208955223883,239938.0,3024.0,239938.0,1.0,0.0,0.0,0.0,0.0
2500000.0,6.640625,2.6846213990615474E-8,2500000.0,66.3,31.645220439093265,34.050880626223105,27.370689655172413,249937.0,3024.0,249937.0,1.0,0.0,0.0,0.0,0.0
2600000.0,6.890625,2.7858768589794637E-8,2600000.0,64.60000000000001,28.67964670234028,32.05374280230327,25.63025210084034,259975.0,3024.0,259975.0,1.0,0.0,0.0,0.0,0.0
2700000.0,7.1875,2.9061177176319892E-8,2700000.0,66.3,31.72056082340547,35.80952380952382,27.526881720430108,269905.0,3024.0,269905.0,1.0,0.0,0.0,0.0,0.0
2800000.0,7.453125,3.013701643794775E-8,2800000.0,64.2,27.684072315927686,27.96780684104628,24.63157894736842,279788.0,3024.0,279788.0,1.0,0.0,0.0,0.0,0.0
2900000.0,7.71875,3.121285569957561E-8,2900000.0,66.10000000000001,31.7676800206106,31.376518218623488,29.95867768595042,289861.0,3024.0,289861.0,1.0,0.0,0.0,0.0,0.0
3000000.0,7.96875,3.222541029875477E-8,3000000.0,66.5,31.276412423583484,30.208333333333336,24.37923250564334,299719.0,3024.0,299719.0,1.0,0.0,0.0,0.0,0.0
3100000.0,8.234375,3.330124956038263E-8,3100000.0,66.8,33.014817445201295,35.78336557059962,29.957805907173,309746.0,3024.0,309746.0,1.0,0.0,0.0,0.0,0.0
3200000.0,8.5,3.437708882201049E-8,3200000.0,66.9,32.8507786063798,29.872881355932208,29.42430703624734,319838.0,3024.0,319838.0,1.0,0.0,0.0,0.0,0.0
3300000.0,8.765625,3.5452928083638346E-8,3300000.0,66.9,33.03715931896161,36.590038314176255,29.273504273504276,329832.0,3024.0,329832.0,1.0,0.0,0.0,0.0,0.0
3400000.0,9.015625,3.646548268281751E-8,3400000.0,66.7,32.648355649043324,34.70588235294119,28.997867803837956,339781.0,3024.0,339781.0,1.0,0.0,0.0,0.0,0.0
3500000.0,9.28125,3.754132194444537E-8,3500000.0,68.30000000000001,35.87046238003529,35.95959595959597,31.681034482758623,349799.0,3024.0,349799.0,1.0,0.0,0.0,0.0,0.0
3600000.0,9.546875,3.8617161206073226E-8,3600000.0,64.9,29.265245254121158,28.65853658536586,27.178423236514526,359815.0,3024.0,359815.0,1.0,0.0,0.0,0.0,0.0
3700000.0,9.8125,3.9693000467701084E-8,3700000.0,65.4,29.518649039538815,28.364389233954455,23.956043956043953,369853.0,3024.0,369853.0,1.0,0.0,0.0,0.0,0.0
3800000.0,10.078125,4.076883972932894E-8,3800000.0,69.69999999999999,38.669926808731134,38.28920570264765,35.25641025641024,379877.0,3024.0,379877.0,1.0,0.0,0.0,0.0,0.0
3900000.0,10.34375,4.18446789909568E-8,3900000.0,68.2,36.113789778206375,37.154150197628475,34.29752066115703,389894.0,3024.0,389894.0,1.0,0.0,0.0,0.0,0.0
4000000.0,10.609375,4.292051825258466E-8,4000000.0,66.4,32.0841671214602,34.37500000000001,28.510638297872344,399673.0,3024.0,399673.0,1.0,0.0,0.0,0.0,0.0
4100000.0,10.859375,4.393307285176382E-8,4100000.0,66.9,32.59644206959468,37.19165085388995,26.769911504424783,409664.0,3024.0,409664.0,1.0,0.0,0.0,0.0,0.0
4200000.0,11.109375,4.4945627450942985E-8,4200000.0,68.8,36.99718910536007,37.97216699801192,34.17721518987341,419746.0,3024.0,419746.0,1.0,0.0,0.0,0.0,0.0
4300000.0,11.375,4.602146671257084E-8,4300000.0,66.0,31.024409244352125,33.07086614173229,27.038626609442062,429744.0,3024.0,429744.0,1.0,0.0,0.0,0.0,0.0
4400000.0,11.640625,4.70973059741987E-8,4400000.0,64.7,28.664963786859797,23.92241379310345,25.995807127882603,439634.0,3024.0,439634.0,1.0,0.0,0.0,0.0,0.0
4500000.0,11.90625,4.817314523582656E-8,4500000.0,66.5,32.45913273494141,30.208333333333336,29.324894514767934,449755.0,3024.0,449755.0,1.0,0.0,0.0,0.0,0.0
4600000.0,12.171875,4.924898449745442E-8,4600000.0,66.9,32.889988240541754,35.976789168278536,29.574468085106385,459694.0,3024.0,459694.0,1.0,0.0,0.0,0.0,0.0
4700000.0,12.4375,5.0324823759082276E-8,4700000.0,66.9,32.53709440730474,29.872881355932208,27.252747252747255,469746.0,3024.0,469746.0,1.0,0.0,0.0,0.0,0.0
4800000.0,12.703125,5.1400663020710134E-8,4800000.0,64.5,28.181847607949763,30.3921568627451,24.145299145299145,479765.0,3024.0,479765.0,1.0,0.0,0.0,0.0,0.0
4900000.0,12.96875,5.247650228233799E-8,4900000.0,67.4,33.44439544645337,34.14141414141415,29.43722943722944,489564.0,3024.0,489564.0,1.0,0.0,0.0,0.0,0.0
5000000.0,13.234375,5.355234154396585E-8,5000000.0,69.69999999999999,38.965433889291745,38.787878787878775,36.874999999999986,499551.0,3024.0,499551.0,1.0,0.0,0.0,0.0,0.0
5100000.0,13.5,5.459849489852784E-8,5100000.0,69.1,32.55336796612388,32.23684210526314,16.48648648648647,8929.0,3024.0,509539.0,1.0,0.0,0.0,1.0,50.0
5200000.0,13.78125,5.573994712904094E-8,5200000.0,69.39999999999999,34.125265328792416,34.05172413793102,20.930232558139526,18715.0,3024.0,519325.0,1.0,0.0,0.0,0.0,9.0
5300000.0,14.046875,5.681798534674775E-8,5300000.0,70.39999999999999,35.8929932774274,39.094650205761305,25.252525252525242,28550.0,3024.0,529160.0,1.0,0.0,0.0,0.0,0.0
5400000.0,14.3125,5.7896023564454565E-8,5400000.0,69.6,32.921447484554264,35.181236673773974,17.837837837837824,38432.0,3024.0,539042.0,1.0,0.0,0.0,0.0,0.0
5500000.0,14.578125,5.897406178216138E-8,5500000.0,67.30000000000001,30.350844309642692,33.6713995943205,19.656019656019673,48414.0,3024.0,549024.0,1.0,0.0,0.0,0.0,0.0
5600000.0,14.84375,6.005209999986819E-8,5600000.0,70.3,35.10749868904037,35.01094091903719,22.857142857142847,58236.0,3024.0,558846.0,1.0,0.0,0.0,0.0,0.0
5700000.0,15.109375,6.1130138217575E-8,5700000.0,70.1,33.37195828505212,32.95964125560536,16.94444444444443,68241.0,3024.0,568851.0,1.0,0.0,0.0,0.0,0.0
5800000.0,15.375,6.220817643528181E-8,5800000.0,68.30000000000001,31.48434730735647,34.36853002070394,20.351758793969864,78248.0,3024.0,578858.0,1.0,0.0,0.0,0.0,0.0
5900000.0,15.640625,6.328621465298863E-8,5900000.0,67.0,28.76877914004491,31.677018633540378,17.085427135678405,88293.0,3024.0,588903.0,1.0,0.0,0.0,0.0,0.0
6000000.0,15.921875,6.442766688350172E-8,6000000.0,69.8,35.83996532808721,35.47008547008546,26.161369193154027,98551.0,3024.0,599161.0,1.0,0.0,0.0,0.0,0.0
6100000.0,16.1875,6.550570510120853E-8,6100000.0,71.6,38.211438716190344,36.74832962138083,26.041666666666664,108526.0,3024.0,609136.0,1.0,0.0,0.0,0.0,0.0
6200000.0,16.453125,6.658374331891535E-8,6200000.0,70.7,34.802538473177805,36.85344827586206,18.836565096952896,118419.0,3024.0,619029.0,1.0,0.0,0.0,0.0,0.0
6300000.0,16.71875,6.766178153662216E-8,6300000.0,70.5,35.58445642015529,38.66943866943866,23.77260981912144,128542.0,3024.0,629152.0,1.0,0.0,0.0,0.0,0.0
6400000.0,16.96875,6.867640574152268E-8,6400000.0,71.1,35.40340462055646,33.5632183908046,20.385674931129465,138673.0,3024.0,639283.0,1.0,0.0,0.0,0.0,0.0
6500000.0,17.25,6.981785797203577E-8,6500000.0,68.8,31.694288153775414,29.72972972972971,15.4471544715447,148516.0,3024.0,649126.0,1.0,0.0,0.0,0.0,0.0
6600000.0,17.515625,7.089589618974259E-8,6600000.0,66.9,27.949499346974328,30.16877637130802,13.802083333333345,158544.0,3024.0,659154.0,1.0,0.0,0.0,0.0,0.0
6700000.0,17.78125,7.19739344074494E-8,6700000.0,70.3,36.0635833670596,35.7142857142857,26.11940298507462,168465.0,3024.0,669075.0,1.0,0.0,0.0,0.0,0.0
6800000.0,18.046875,7.305197262515622E-8,6800000.0,69.5,34.00325439689792,31.46067415730335,21.39175257731958,178489.0,3024.0,679099.0,1.0,0.0,0.0,0.0,0.0
6900000.0,18.3125,7.413001084286303E-8,6900000.0,70.0,35.11661706692504,36.84210526315788,22.68041237113401,188434.0,3024.0,689044.0,1.0,0.0,0.0,0.0,0.0
7000000.0,18.578125,7.520804906056984E-8,7000000.0,70.1,33.64344113130164,37.31656184486372,17.40331491712706,198625.0,3024.0,699235.0,1.0,0.0,0.0,0.0,0.0
7100000.0,18.84375,7.628608727827666E-8,7100000.0,68.2,30.039468299959093,35.23421588594706,16.535433070866155,208666.0,3024.0,709276.0,1.0,0.0,0.0,0.0,0.0
7200000.0,19.109375,7.736412549598347E-8,7200000.0,68.0,28.92426880841537,35.091277890466536,15.343915343915357,218550.0,3024.0,719160.0,1.0,0.0,0.0,0.0,0.0
7300000.0,19.375,7.844216371369029E-8,7300000.0,69.8,34.27552916904245,36.68763102725366,18.59838274932613,228528.0,3024.0,729138.0,1.0,0.0,0.0,0.0,0.0
7400000.0,19.640625,7.95202019313971E-8,7400000.0,68.89999999999999,33.057815661457646,34.800838574423466,20.256410256410245,238402.0,3024.0,739012.0,1.0,0.0,0.0,0.0,0.0
7500000.0,19.90625,8.059824014910391E-8,7500000.0,67.7,31.142983832457876,31.276595744680858,20.049504950495066,248494.0,3024.0,749104.0,1.0,0.0,0.0,0.0,0.0
7600000.0,20.1875,8.1739692379617E-8,7600000.0,68.8,32.791066381746724,35.934291581108816,21.2121212121212,258549.0,3024.0,759159.0,1.0,0.0,0.0,0.0,0.0
7700000.0,20.4375,8.275431658451753E-8,7700000.0,69.89999999999999,32.87962037962036,34.84848484848484,15.449438202247173,268602.0,3024.0,769212.0,1.0,0.0,0.0,0.0,0.0
7800000.0,20.703125,8.383235480222434E-8,7800000.0,70.39999999999999,35.12328767123287,36.34408602150536,21.066666666666656,278517.0,3024.0,779127.0,1.0,0.0,0.0,0.0,0.0
7900000.0,20.984375,8.497380703273743E-8,7900000.0,68.5,31.616880861410213,36.23481781376519,16.445623342175082,288502.0,3024.0,789112.0,1.0,0.0,0.0,0.0,0.0
8000000.0,21.25,8.605184525044425E-8,8000000.0,68.60000000000001,32.17058449946644,33.33333333333334,19.28020565552701,298529.0,3024.0,799139.0,1.0,0.0,0.0,0.0,0.0
8100000.0,21.515625,8.712988346815106E-8,8100000.0,71.1,36.59555422944949,34.9099099099099,22.52010723860589,308708.0,3024.0,809318.0,1.0,0.0,0.0,0.0,0.0
8200000.0,21.78125,8.820792168585787E-8,8200000.0,67.60000000000001,29.915942392635124,35.32934131736528,18.387909319899258,318667.0,3024.0,819277.0,1.0,0.0,0.0,0.0,0.0
8300000.0,22.0625,8.934937391637096E-8,8300000.0,68.8,33.5720764261777,34.999999999999986,23.34152334152333,328759.0,3024.0,829369.0,1.0,0.0,0.0,0.0,0.0
8400000.0,22.3125,9.036399812127149E-8,8400000.0,68.7,31.35302529191415,29.977628635346758,17.414248021108193,338678.0,3024.0,839288.0,1.0,0.0,0.0,0.0,0.0
8500000.0,22.578125,9.14420363389783E-8,8500000.0,69.69999999999999,34.85832222556648,34.27331887201734,23.29113924050632,348636.0,3024.0,849246.0,1.0,0.0,0.0,0.0,0.0
8600000.0,22.84375,9.252007455668512E-8,8600000.0,66.8,28.67945280813915,32.520325203252035,17.4129353233831,358790.0,3024.0,859400.0,1.0,0.0,0.0,0.0,0.0
8700000.0,23.125,9.36615267871982E-8,8700000.0,68.8,31.500533505460194,32.903225806451594,19.3798449612403,368955.0,3024.0,869565.0,1.0,0.0,0.0,0.0,0.0
8800000.0,23.390625,9.473956500490502E-8,8800000.0,67.60000000000001,28.907768801042693,28.318584070796465,17.135549872122777,378918.0,3024.0,879528.0,1.0,0.0,0.0,0.0,0.0
8900000.0,23.65625,9.581760322261183E-8,8900000.0,68.89999999999999,31.91947672127701,33.40471092077087,18.58638743455496,388897.0,3024.0,889507.0,1.0,0.0,0.0,0.0,0.0
9000000.0,23.9375,9.695905545312492E-8,9000000.0,69.1,30.476807603002303,34.25531914893615,16.260162601626003,398841.0,3024.0,899451.0,1.0,0.0,0.0,0.0,0.0
9100000.0,24.203125,9.803709367083174E-8,9100000.0,68.30000000000001,30.145438519171446,31.236442516268987,13.858695652173925,408864.0,3024.0,909474.0,1.0,0.0,0.0,0.0,0.0
9200000.0,24.484375,9.917854590134483E-8,9200000.0,69.1,31.950317124735722,33.40517241379309,20.36082474226803,418748.0,3024.0,919358.0,1.0,0.0,0.0,0.0,0.0
9300000.0,24.765625,1.0031999813185792E-7,9300000.0,70.5,36.753368151140144,37.36730360934181,24.552429667519174,428638.0,3024.0,929248.0,1.0,0.0,0.0,0.0,0.0
9400000.0,25.03125,1.0139803634956473E-7,9400000.0,68.30000000000001,32.534243659921515,33.54297693920336,22.113022113022133,438765.0,3024.0,939375.0,1.0,0.0,0.0,0.0,0.0
9500000.0,25.296875,1.0247607456727154E-7,9500000.0,69.6,32.876421960008464,35.864978902953574,18.279569892473106,448725.0,3024.0,949335.0,1.0,0.0,0.0,0.0,0.0
9600000.0,25.578125,1.0361752679778463E-7,9600000.0,71.3,35.710765646700416,36.222222222222214,20.055710306406674,458666.0,3024.0,959276.0,1.0,0.0,0.0,0.0,0.0
9700000.0,25.84375,1.0469556501549145E-7,9700000.0,71.0,36.69974286999,37.76824034334763,23.482849604221627,468674.0,3024.0,969284.0,1.0,0.0,0.0,0.0,0.0
9800000.0,26.109375,1.0577360323319826E-7,9800000.0,70.89999999999999,35.521324493919934,37.55364806866952,20.05494505494504,478462.0,3024.0,979072.0,1.0,0.0,0.0,0.0,0.0
9900000.0,26.390625,1.0691505546371135E-7,9900000.0,71.1,34.03573482821899,38.247863247863236,14.497041420118325,488272.0,3024.0,988882.0,1.0,0.0,0.0,0.0,0.0
1.0E7,26.640625,1.0792967966861188E-7,1.0E7,67.2,26.635054129014957,31.092436974789923,12.299465240641721,498231.0,3024.0,998841.0,1.0,0.0,0.0,0.0,0.0
