learning evaluation instances,evaluation time (cpu seconds),model cost (RAM-Hours),classified instances,classifications correct (percent),Kappa Statistic (percent),Kappa Temporal Statistic (percent),Kappa M Statistic (percent),model training instances,model serialized size (bytes),labeling cost,newThreshold,maxPosterior,accuracyBaseLearner (percent),Change detected,Warning detected
100000.0,0.3125,1.219773872031106E-9,100000.0,69.5,33.936353633283936,33.40611353711789,14.565826330532195,10000.0,3024.0,10000.0,1.0,0.8475047413021732,0.0,0.0,2.0
200000.0,0.609375,2.3785590504606563E-9,200000.0,70.7,37.658513336397206,37.791932059447966,22.691292875989436,20000.0,3024.0,20000.0,1.0,0.5682182723699761,0.0,0.0,0.0
300000.0,0.90625,3.537344228890207E-9,300000.0,69.19999999999999,34.89693423744862,37.777777777777764,19.371727748691086,30000.0,3024.0,30000.0,1.0,0.533798085088611,0.0,0.0,0.0
400000.0,1.1875,4.635140713718202E-9,400000.0,69.89999999999999,35.55100677463835,38.94523326572007,17.75956284153004,40000.0,3024.0,40000.0,1.0,0.5504516525077495,0.0,0.0,0.0
500000.0,1.484375,5.793925892147753E-9,500000.0,72.1,41.44314318095957,41.63179916317991,29.00763358778626,50000.0,3024.0,50000.0,1.0,0.5349671781781534,0.0,0.0,0.0
600000.0,1.765625,6.891722376975748E-9,600000.0,70.1,36.09745672152168,37.70833333333332,23.918575063613222,60000.0,3024.0,60000.0,1.0,0.563598180680255,0.0,0.0,0.0
700000.0,2.0625,8.0505075554053E-9,700000.0,71.0,37.95384621967761,36.95652173913042,20.11019283746555,70000.0,3024.0,70000.0,1.0,0.7643897599514513,0.0,0.0,0.0
800000.0,2.375,9.270281427436405E-9,800000.0,70.7,36.91327189733872,36.85344827586206,18.611111111111097,80000.0,3024.0,80000.0,1.0,0.5418089264834492,0.0,0.0,0.0
900000.0,2.65625,1.0368077912264399E-8,900000.0,70.5,37.26767775575648,39.17525773195875,24.16452442159382,90000.0,3024.0,90000.0,1.0,0.5218313189492372,0.0,0.0,0.0
1000000.0,2.953125,1.1526863090693949E-8,1000000.0,73.3,43.85944254739356,43.67088607594936,31.887755102040817,100000.0,3024.0,100000.0,1.0,0.6794942762503883,0.0,0.0,0.0
1100000.0,3.234375,1.2624659575521945E-8,1100000.0,69.89999999999999,36.46840305627083,35.26881720430106,21.81818181818181,110000.0,3024.0,110000.0,1.0,0.6394597660578726,0.0,0.0,0.0
1200000.0,3.515625,1.3722456060349941E-8,1200000.0,72.8,40.58021670744494,43.451143451143444,26.086956521739125,120000.0,3024.0,120000.0,1.0,0.5248566048891472,0.0,0.0,0.0
1300000.0,3.8125,1.4881241238779491E-8,1300000.0,71.39999999999999,39.20895116310705,44.3579766536965,27.777777777777775,130000.0,3024.0,130000.0,1.0,0.5843699550081023,0.0,0.0,0.0
1400000.0,4.09375,1.5979037723607487E-8,1400000.0,71.5,38.11504955138838,34.331797235023046,21.27071823204419,140000.0,3024.0,140000.0,1.0,0.9635560340215353,0.0,0.0,0.0
1500000.0,4.390625,1.7137822902037037E-8,1500000.0,72.5,40.99978545376528,38.75278396436524,28.940568475452196,150000.0,3024.0,150000.0,1.0,0.5513386549438571,0.0,0.0,0.0
1600000.0,4.65625,1.8174630693263476E-8,1600000.0,68.7,33.87696467804632,31.956521739130437,19.53727506426737,160000.0,3024.0,160000.0,1.0,0.5713816050923988,0.0,0.0,0.0
1700000.0,4.953125,1.9333415871693026E-8,1700000.0,73.2,43.41001136022907,42.85714285714285,31.105398457583544,170000.0,3024.0,170000.0,1.0,0.514263292957925,0.0,0.0,0.0
1800000.0,5.21875,2.0370223662919465E-8,1800000.0,70.1,36.39272281693017,38.47736625514403,22.135416666666657,180000.0,3024.0,180000.0,1.0,0.5365596769343304,0.0,0.0,0.0
1900000.0,5.515625,2.1529008841349015E-8,1900000.0,69.3,34.95431971117174,33.9784946236559,20.671834625322987,190000.0,3024.0,190000.0,1.0,0.508588577322646,0.0,0.0,0.0
2000000.0,5.796875,2.262680532617701E-8,2000000.0,72.8,41.41087775982768,41.37931034482758,27.46666666666666,200000.0,3024.0,200000.0,1.0,0.5284784648320182,0.0,0.0,0.0
2100000.0,6.09375,2.378559050460656E-8,2100000.0,71.89999999999999,39.91977900741488,43.002028397565915,26.631853785900777,210000.0,3024.0,210000.0,1.0,0.7437043512496365,0.0,0.0,0.0
2200000.0,6.375,2.4883386989434557E-8,2200000.0,74.0,42.52873563218391,45.3781512605042,27.777777777777775,220000.0,3024.0,220000.0,1.0,0.7595516625421473,0.0,0.0,0.0
2300000.0,6.65625,2.5981183474262553E-8,2300000.0,72.3,40.34749201044026,36.61327231121282,24.316939890710373,230000.0,3024.0,230000.0,1.0,0.5039630617337634,0.0,0.0,0.0
2400000.0,6.9375,2.707897995909055E-8,2400000.0,73.0,43.166748759140674,45.78313253012048,31.989924433249367,240000.0,3024.0,240000.0,1.0,0.7230978783308952,0.0,0.0,0.0
2500000.0,7.234375,2.82377651375201E-8,2500000.0,69.0,35.57772236076474,36.344969199178635,22.499999999999993,250000.0,3024.0,250000.0,1.0,0.5543075330428947,0.0,0.0,0.0
2600000.0,7.515625,2.9335561622348095E-8,2600000.0,69.6,36.67616524188038,34.482758620689644,25.123152709359598,260000.0,3024.0,260000.0,1.0,0.6782510419707439,0.0,0.0,0.0
2700000.0,7.8125,3.049434680077765E-8,2700000.0,71.8,38.614249330634095,36.343115124153485,23.577235772357717,270000.0,3024.0,270000.0,1.0,0.5051621048632796,0.0,0.0,0.0
2800000.0,8.09375,3.1592143285605645E-8,2800000.0,72.6,41.0313910996139,40.30501089324618,26.145552560646895,280000.0,3024.0,280000.0,1.0,0.5888958801586548,0.0,0.0,0.0
2900000.0,8.390625,3.27509284640352E-8,2900000.0,72.39999999999999,39.92686749085843,43.788187372708755,25.405405405405396,290000.0,3024.0,290000.0,1.0,0.6082220211273263,0.0,0.0,0.0
3000000.0,8.671875,3.3848724948863194E-8,3000000.0,69.1,34.27881097820353,33.40517241379309,20.155038759689912,300000.0,3024.0,300000.0,1.0,0.5989822899897604,0.0,0.0,0.0
3100000.0,8.96875,3.500751012729275E-8,3100000.0,69.6,36.005389019872005,35.864978902953574,23.232323232323225,310000.0,3024.0,310000.0,1.0,0.5784225878199709,0.0,0.0,0.0
3200000.0,9.25,3.6105306612120744E-8,3200000.0,68.7,32.104121475054235,34.655532359081434,16.533333333333346,320000.0,3024.0,320000.0,1.0,0.5576489463109396,0.0,0.0,0.0
3300000.0,9.546875,3.72640917905503E-8,3300000.0,72.5,41.668575695098454,42.9460580912863,27.44063324538258,330000.0,3024.0,330000.0,1.0,0.5413305615102515,0.0,0.0,0.0
3400000.0,9.828125,3.836188827537829E-8,3400000.0,71.0,38.26503459286854,39.7089397089397,23.482849604221627,340000.0,3024.0,340000.0,1.0,0.5627632629979685,0.0,0.0,0.0
3500000.0,10.125,3.9520673453807846E-8,3500000.0,68.30000000000001,32.87880071144238,29.71175166297118,19.74683544303799,350000.0,3024.0,350000.0,1.0,0.5586698204665889,0.0,0.0,0.0
3600000.0,10.40625,4.061846993863584E-8,3600000.0,71.39999999999999,39.36541454127604,37.0044052863436,24.93438320209973,360000.0,3024.0,360000.0,1.0,0.5221067572162711,0.0,0.0,0.0
3700000.0,10.703125,4.1777255117065396E-8,3700000.0,71.3,37.374530854499426,37.6086956521739,20.277777777777768,370000.0,3024.0,370000.0,1.0,0.5171238505722283,0.0,0.0,0.0
3800000.0,10.984375,4.287505160189339E-8,3800000.0,69.5,34.467229317427844,31.767337807606243,17.11956521739129,380000.0,3024.0,380000.0,1.0,0.554099239257507,0.0,0.0,0.0
3900000.0,11.28125,4.4033836780322945E-8,3900000.0,71.1,37.76380394521491,39.157894736842096,20.82191780821917,390000.0,3024.0,390000.0,1.0,0.777759362041179,0.0,0.0,0.0
4000000.0,11.5625,4.513163326515094E-8,4000000.0,70.7,37.456774733390816,38.574423480083844,24.67866323907454,400000.0,3024.0,400000.0,1.0,0.5702496265700633,0.0,0.0,0.0
4100000.0,11.84375,4.622942974997894E-8,4100000.0,72.0,40.07490636704119,40.42553191489361,25.333333333333325,410000.0,3024.0,410000.0,1.0,0.622082981987211,0.0,0.0,0.0
4200000.0,12.125,4.732722623480693E-8,4200000.0,72.5,41.533149641119834,41.36460554371001,29.66751918158567,420000.0,3024.0,420000.0,1.0,0.5160957643604809,0.0,0.0,0.0
4300000.0,12.421875,4.8486011413236486E-8,4300000.0,73.0,42.817205667450274,42.43070362473347,29.87012987012987,430000.0,3024.0,430000.0,1.0,0.5500805084059072,0.0,0.0,0.0
4400000.0,12.71875,4.964479659166604E-8,4400000.0,70.8,38.6389617376101,38.65546218487394,26.262626262626256,440000.0,3024.0,440000.0,1.0,0.5173958670045613,0.0,0.0,0.0
4500000.0,13.0,5.0742593076494036E-8,4500000.0,71.1,35.948013723525904,37.173913043478244,13.47305389221555,450000.0,3024.0,450000.0,1.0,0.5689213989814711,0.0,0.0,0.0
4600000.0,13.28125,5.184038956132203E-8,4600000.0,73.7,43.09970316651233,42.070484581497794,28.142076502732237,460000.0,3024.0,460000.0,1.0,0.5266219583263596,0.0,0.0,0.0
4700000.0,13.578125,5.2999174739751585E-8,4700000.0,69.39999999999999,34.37306979617047,35.169491525423716,18.617021276595732,470000.0,3024.0,470000.0,1.0,0.5605085943894639,0.0,0.0,0.0
4800000.0,13.859375,5.409697122457958E-8,4800000.0,71.3,38.27585316965323,39.95815899581589,23.262032085561486,480000.0,3024.0,480000.0,1.0,0.5623106914428688,0.0,0.0,0.0
4900000.0,14.15625,5.5255756403009135E-8,4900000.0,71.1,37.2873411568641,39.157894736842096,22.311827956989237,490000.0,3024.0,490000.0,1.0,0.5638835705668094,0.0,0.0,0.0
5000000.0,14.4375,5.635355288783713E-8,5000000.0,72.1,39.67567567567568,39.74082073434124,25.599999999999994,500000.0,3024.0,500000.0,1.0,0.5760399300109194,0.0,0.0,0.0
5100000.0,14.734375,5.751602455145787E-8,5100000.0,80.2,59.15571984949503,58.663883089770366,54.166666666666686,9153.0,3024.0,510000.0,1.0,0.6686922664002296,0.0,1.0,6.0
5200000.0,15.03125,5.86784962150786E-8,5200000.0,83.8,67.10740042882203,68.48249027237352,64.15929203539822,19153.0,3024.0,520000.0,1.0,0.8566724187413465,0.0,0.0,0.0
5300000.0,15.328125,5.984096787869934E-8,5300000.0,85.3,70.30063035396799,69.43866943866944,68.04347826086956,29153.0,3024.0,530000.0,1.0,0.59706067435528,0.0,0.0,0.0
5400000.0,15.625,6.100343954232008E-8,5400000.0,83.5,66.696269982238,67.39130434782608,64.13043478260867,39153.0,3024.0,540000.0,1.0,0.5468475052444846,0.0,0.0,0.0
5500000.0,15.921875,6.216591120594082E-8,5500000.0,82.69999999999999,65.04824554314621,64.10788381742738,62.63498920086392,49153.0,3024.0,550000.0,1.0,0.8547411018654489,0.0,0.0,0.0
5600000.0,16.203125,6.326720015042363E-8,5600000.0,85.0,69.60313857726477,70.47244094488188,66.81415929203538,59153.0,3024.0,560000.0,1.0,0.5916292957505592,0.0,0.0,0.0
5700000.0,16.5,6.442967181404438E-8,5700000.0,86.1,71.69941932909299,71.63265306122449,67.89838337182448,69153.0,3024.0,570000.0,1.0,0.7729431000412376,0.0,0.0,0.0
5800000.0,16.796875,6.559214347766512E-8,5800000.0,82.39999999999999,64.16573348264276,64.72945891783566,60.090702947845784,79153.0,3024.0,580000.0,1.0,0.547407999762214,0.0,0.0,0.0
5900000.0,17.09375,6.675461514128586E-8,5900000.0,84.89999999999999,69.76952768390538,68.34381551362682,69.8,89153.0,3024.0,590000.0,1.0,0.6028622519097216,0.0,0.0,0.0
6000000.0,17.390625,6.79170868049066E-8,6000000.0,84.7,69.07016423136324,70.23346303501945,66.52078774617067,99153.0,3024.0,600000.0,1.0,0.6174029688017549,0.0,0.0,0.0
6100000.0,17.671875,6.901837574938941E-8,6100000.0,83.89999999999999,67.58580701274019,68.91891891891892,65.88983050847457,109153.0,3024.0,610000.0,1.0,0.6867088540000872,0.0,0.0,0.0
6200000.0,17.96875,7.018084741301015E-8,6200000.0,83.89999999999999,67.52853858255011,67.34279918864097,65.15151515151514,119153.0,3024.0,620000.0,1.0,0.7256147993005052,0.0,0.0,0.0
6300000.0,18.25,7.128213635749296E-8,6300000.0,81.89999999999999,63.672125883108535,64.85436893203882,62.60330578512395,129153.0,3024.0,630000.0,1.0,0.8222992396774361,0.0,0.0,0.0
6400000.0,18.546875,7.24446080211137E-8,6400000.0,83.5,66.96696696696695,68.80907372400755,66.80080482897384,139153.0,3024.0,640000.0,1.0,0.716591786352323,0.0,0.0,0.0
6500000.0,18.84375,7.360707968473445E-8,6500000.0,82.69999999999999,65.297279948648,63.42494714587736,63.73165618448636,149153.0,3024.0,650000.0,1.0,0.6109028318342746,0.0,0.0,0.0
6600000.0,19.140625,7.476955134835519E-8,6600000.0,84.7,69.34482067721899,70.34883720930232,68.25726141078837,159153.0,3024.0,660000.0,1.0,0.5299790388566599,0.0,0.0,0.0
6700000.0,19.4375,7.593202301197593E-8,6700000.0,83.39999999999999,66.50619231902246,64.90486257928117,63.355408388520964,169153.0,3024.0,670000.0,1.0,0.594438749104433,0.0,0.0,0.0
6800000.0,19.734375,7.709449467559668E-8,6800000.0,85.6,70.89686171158789,71.875,68.55895196506549,179153.0,3024.0,680000.0,1.0,0.5636539780194224,0.0,0.0,0.0
6900000.0,20.015625,7.819578362007948E-8,6900000.0,85.39999999999999,70.44534412955466,70.85828343313374,67.55555555555554,189153.0,3024.0,690000.0,1.0,0.861996254774882,0.0,0.0,0.0
7000000.0,20.328125,7.941943800283815E-8,7000000.0,84.0,67.67729006399895,67.54563894523325,64.60176991150442,199153.0,3024.0,700000.0,1.0,0.5024629976557444,0.0,0.0,0.0
7100000.0,20.625,8.058190966645889E-8,7100000.0,84.1,68.01345446644832,68.32669322709162,66.38477801268499,209153.0,3024.0,710000.0,1.0,0.6892444439351664,0.0,0.0,0.0
7200000.0,20.921875,8.174438133007963E-8,7200000.0,84.2,68.35696547304333,68.83629191321499,67.62295081967213,219153.0,3024.0,720000.0,1.0,0.604604746161029,0.0,0.0,0.0
7300000.0,21.21875,8.290685299370038E-8,7300000.0,82.6,65.10508583346703,65.54455445544554,63.749999999999986,229153.0,3024.0,730000.0,1.0,0.5208174261322668,0.0,0.0,0.0
7400000.0,21.515625,8.406932465732112E-8,7400000.0,85.1,70.07383127264546,71.01167315175097,68.23027718550107,239153.0,3024.0,740000.0,1.0,0.5770050954821192,0.0,0.0,0.0
7500000.0,21.8125,8.523179632094186E-8,7500000.0,84.89999999999999,69.58392419749903,70.45009784735812,67.3866090712743,249153.0,3024.0,750000.0,1.0,0.5179293917423737,0.0,0.0,0.0
7600000.0,22.109375,8.63942679845626E-8,7600000.0,84.1,68.04662379421221,69.48176583493282,66.52631578947367,259153.0,3024.0,760000.0,1.0,0.5157167560712953,0.0,0.0,0.0
7700000.0,22.40625,8.755673964818335E-8,7700000.0,84.6,68.94960965223562,70.66666666666667,66.81034482758619,269153.0,3024.0,770000.0,1.0,0.6390408886162641,0.0,0.0,0.0
7800000.0,22.703125,8.871921131180409E-8,7800000.0,82.89999999999999,65.54558862641746,65.59356136820925,63.924050632911374,279153.0,3024.0,780000.0,1.0,0.7187683849009096,0.0,0.0,0.0
7900000.0,23.0,8.988168297542483E-8,7900000.0,84.0,67.89740009068984,67.54563894523325,66.87370600414077,289153.0,3024.0,790000.0,1.0,0.5432441773219907,0.0,0.0,0.0
8000000.0,23.296875,9.104415463904558E-8,8000000.0,85.5,70.66558769977746,69.79166666666666,67.26862302483069,299153.0,3024.0,800000.0,1.0,0.5699776520768811,0.0,0.0,0.0
8100000.0,23.578125,9.214544358352838E-8,8100000.0,84.3,68.46553704998112,69.5736434108527,66.87763713080169,309153.0,3024.0,810000.0,1.0,0.6323296089658763,0.0,0.0,0.0
8200000.0,23.875,9.330791524714913E-8,8200000.0,83.89999999999999,67.52146407591503,65.96194503171246,65.59829059829059,319153.0,3024.0,820000.0,1.0,0.7949788977383573,0.0,0.0,0.0
8300000.0,24.171875,9.447038691076987E-8,8300000.0,84.89999999999999,69.63285925735245,71.0727969348659,67.73504273504273,329153.0,3024.0,830000.0,1.0,0.7400322685175809,0.0,0.0,0.0
8400000.0,24.46875,9.563285857439061E-8,8400000.0,85.0,69.89160979526294,70.64579256360078,68.08510638297872,339153.0,3024.0,840000.0,1.0,0.737786460968656,0.0,0.0,0.0
8500000.0,24.78125,9.685651295714928E-8,8500000.0,85.6,70.96586876572681,70.85020242914979,68.9655172413793,349153.0,3024.0,850000.0,1.0,0.5369889775860456,0.0,0.0,0.0
8600000.0,25.078125,9.801898462077002E-8,8600000.0,84.1,68.08741239091515,67.68292682926828,67.01244813278008,359153.0,3024.0,860000.0,1.0,0.7719178381377849,0.0,0.0,0.0
8700000.0,25.375,9.918145628439076E-8,8700000.0,83.6,66.81451743451937,66.0455486542443,64.03508771929823,369153.0,3024.0,870000.0,1.0,0.5622558609845655,0.0,0.0,0.0
8800000.0,25.671875,1.003439279480115E-7,8800000.0,86.4,72.58650369074351,72.30142566191445,70.87794432548179,379153.0,3024.0,880000.0,1.0,0.616585221113525,0.0,0.0,0.0
8900000.0,25.984375,1.0156758233077017E-7,8900000.0,85.3,70.53990139885366,70.89108910891089,69.69072164948453,389153.0,3024.0,890000.0,1.0,0.7188258077656646,0.0,0.0,0.0
9000000.0,26.265625,1.0266887127525298E-7,9000000.0,84.39999999999999,68.59094130532826,69.4716242661448,66.73773987206822,399153.0,3024.0,900000.0,1.0,0.6176789880103575,0.0,0.0,0.0
9100000.0,26.578125,1.0389252565801164E-7,9100000.0,84.7,69.07441544581351,70.96774193548386,66.2251655629139,409153.0,3024.0,910000.0,1.0,0.8434983871234665,0.0,0.0,0.0
9200000.0,26.859375,1.0499381460249445E-7,9200000.0,86.8,73.48417889340641,73.70517928286853,72.15189873417721,419153.0,3024.0,920000.0,1.0,0.6071681320185374,0.0,0.0,0.0
9300000.0,27.140625,1.0609510354697726E-7,9300000.0,83.5,66.72394182134991,67.51968503937007,64.59227467811158,429153.0,3024.0,930000.0,1.0,0.7568548911478415,0.0,0.0,0.0
9400000.0,27.421875,1.0719639249146007E-7,9400000.0,83.5,66.86587305412309,64.43965517241378,65.40880503144653,439153.0,3024.0,940000.0,1.0,0.7732948903698221,0.0,0.0,0.0
9500000.0,27.703125,1.0829768143594287E-7,9500000.0,83.3,66.43324033799917,65.13569937369519,64.69344608879491,449153.0,3024.0,950000.0,1.0,0.6345946787578827,0.0,0.0,0.0
9600000.0,27.984375,1.0939897038042568E-7,9600000.0,83.39999999999999,66.61021244755187,67.8916827852998,64.75583864118894,459153.0,3024.0,960000.0,1.0,0.5393057205778713,0.0,0.0,0.0
9700000.0,28.28125,1.1056144204404642E-7,9700000.0,85.5,70.72599531615926,69.27966101694915,68.13186813186812,469153.0,3024.0,970000.0,1.0,0.8299897370059924,0.0,0.0,0.0
9800000.0,28.578125,1.1172391370766717E-7,9800000.0,83.0,65.78774718352659,66.73189823874755,63.59743040685224,479153.0,3024.0,980000.0,1.0,0.5368199848705585,0.0,0.0,0.0
9900000.0,28.875,1.1288638537128791E-7,9900000.0,84.8,69.24471494706853,69.35483870967741,67.0995670995671,489153.0,3024.0,990000.0,1.0,0.7117007796440428,0.0,0.0,0.0
1.0E7,29.171875,1.1404885703490865E-7,1.0E7,84.2,68.26595539559096,68.0161943319838,66.94560669456067,499153.0,3024.0,1000000.0,1.0,0.6091583552362155,0.0,0.0,0.0
