learning evaluation instances,evaluation time (cpu seconds),model cost (RAM-Hours),classified instances,classifications correct (percent),Kappa Statistic (percent),Kappa Temporal Statistic (percent),Kappa M Statistic (percent),model training instances,model serialized size (bytes),labeling cost,newThreshold,maxPosterior,accuracyBaseLearner (percent),Change detected,Warning detected
100000.0,0.109375,1.7070043314662244E-9,100000.0,69.1,39.15070931762148,35.8921161825726,24.078624078624074,39800.0,3256.0,0.0,1.0,0.0,?,0.0,12.0
200000.0,0.234375,3.3474255663653214E-9,200000.0,68.60000000000001,38.10124586027442,34.30962343096235,29.910714285714292,79800.0,3256.0,0.0,1.0,0.0,?,0.0,0.0
300000.0,0.34375,4.511158395972517E-9,300000.0,66.7,34.17931688804555,33.92857142857144,20.71428571428573,119800.0,3256.0,0.0,1.0,0.0,?,0.0,0.0
400000.0,0.453125,5.403255474650197E-9,400000.0,65.2,31.843019589256283,31.764705882352946,19.63048498845267,159800.0,3256.0,0.0,1.0,0.0,?,0.0,0.0
500000.0,0.578125,6.112354134933816E-9,500000.0,69.5,39.77806736958496,36.7219917012448,26.506024096385538,199800.0,3256.0,0.0,1.0,0.0,?,0.0,0.0
600000.0,0.703125,8.063216228038073E-9,600000.0,68.0,36.77888414730521,34.02061855670104,25.581395348837226,239600.0,3256.0,0.0,1.0,0.0,?,0.0,0.0
700000.0,0.8125,9.498584808574782E-9,700000.0,67.10000000000001,35.33449167800114,28.008752735229763,17.336683417085442,279600.0,3256.0,0.0,1.0,0.0,?,0.0,0.0
800000.0,0.9375,1.082856518526872E-8,800000.0,68.0,36.526071915960536,32.05944798301486,24.88262910798124,319600.0,3256.0,0.0,1.0,0.0,?,0.0,0.0
900000.0,1.0625,1.1848104703757498E-8,900000.0,67.30000000000001,35.260344486240356,34.33734939759037,21.20481927710845,359600.0,3256.0,0.0,1.0,0.0,?,0.0,0.0
1000000.0,1.1875,1.2557203364041115E-8,1000000.0,69.6,39.98357445195526,37.44855967078188,24.752475247524746,399600.0,3256.0,0.0,1.0,0.0,?,0.0,0.0
1100000.0,1.3125,1.4511169865727424E-8,1100000.0,69.1,38.93859871000378,41.03053435114503,29.290617848970246,439400.0,3256.0,0.0,1.0,0.0,?,0.0,0.0
1200000.0,1.421875,1.5949254803773427E-8,1200000.0,71.1,42.73599112308788,37.98283261802574,34.318181818181806,479400.0,3256.0,0.0,1.0,0.0,?,0.0,0.0
1300000.0,1.546875,1.7282339589049417E-8,1300000.0,72.0,44.47507129004239,42.740286298568506,35.03480278422274,519400.0,3256.0,0.0,1.0,0.0,?,0.0,0.0
1400000.0,1.671875,1.8304983516120245E-8,1400000.0,68.5,38.08475509080903,34.10041841004185,28.40909090909091,559400.0,3256.0,0.0,1.0,0.0,?,0.0,0.0
1500000.0,1.78125,1.8928161201377707E-8,1500000.0,67.0,35.32049673858506,31.818181818181824,19.90291262135924,599400.0,3256.0,0.0,1.0,0.0,?,0.0,0.0
1600000.0,1.90625,2.0882127703064013E-8,1600000.0,69.0,38.78260320068246,36.08247422680411,23.645320197044327,639200.0,3256.0,0.0,1.0,0.0,?,0.0,0.0
1700000.0,2.03125,2.252565334654516E-8,1700000.0,66.9,34.493322672830764,34.84251968503938,26.607538802660756,679200.0,3256.0,0.0,1.0,0.0,?,0.0,0.0
1800000.0,2.15625,2.385873813182115E-8,1800000.0,69.69999999999999,40.47338394077985,34.97854077253217,25.73529411764705,719200.0,3256.0,0.0,1.0,0.0,?,0.0,0.0
1900000.0,2.265625,2.475355156800813E-8,1900000.0,70.3,41.584649153862486,38.3817427385892,28.26086956521739,759200.0,3256.0,0.0,1.0,0.0,?,0.0,0.0
2000000.0,2.390625,2.5465754636873798E-8,2000000.0,69.0,38.589540412044364,29.545454545454525,18.421052631578934,799200.0,3256.0,0.0,1.0,0.0,?,0.0,0.0
2100000.0,2.5,2.7178191683358612E-8,2100000.0,69.69999999999999,40.41954081753041,41.5057915057915,30.82191780821916,839000.0,3256.0,0.0,1.0,0.0,?,0.0,0.0
2200000.0,2.625,2.8824821735421812E-8,2200000.0,68.0,36.72663136539976,30.885529157667392,20.199501246882807,879000.0,3256.0,0.0,1.0,0.0,?,0.0,0.0
2300000.0,2.734375,2.99939872800476E-8,2300000.0,68.60000000000001,38.009349927348545,32.61802575107297,27.314814814814838,919000.0,3256.0,0.0,1.0,0.0,?,0.0,0.0
2400000.0,2.859375,3.101973561570048E-8,2400000.0,67.30000000000001,35.19876342594428,32.157676348547724,16.153846153846168,959000.0,3256.0,0.0,1.0,0.0,?,0.0,0.0
2500000.0,2.984375,3.17350430931482E-8,2500000.0,68.2,36.945547126263584,36.01609657947687,19.89924433249372,999000.0,3256.0,0.0,1.0,0.0,?,0.0,0.0
2600000.0,3.109375,3.3692114003416565E-8,2600000.0,71.1,42.62913407710326,42.084168336673336,37.98283261802574,1038800.0,3256.0,0.0,1.0,0.0,?,0.0,0.0
2700000.0,3.234375,3.5338744055479765E-8,2700000.0,70.8,42.228553339664444,44.592030360531304,30.476190476190474,1078800.0,3256.0,0.0,1.0,0.0,?,0.0,0.0
2800000.0,3.34375,3.650790960010555E-8,2800000.0,68.0,36.44841994884098,31.034482758620697,14.438502673796805,1118800.0,3256.0,0.0,1.0,0.0,?,0.0,0.0
2900000.0,3.46875,3.7533657935758434E-8,2900000.0,67.7,36.309500335213166,32.56784968684761,22.1686746987952,1158800.0,3256.0,0.0,1.0,0.0,?,0.0,0.0
3000000.0,3.59375,3.8248965413206156E-8,3000000.0,70.3,40.99697236989534,42.774566473988436,32.80542986425338,1198800.0,3256.0,0.0,1.0,0.0,?,0.0,0.0
3100000.0,3.703125,3.9964118817200266E-8,3100000.0,70.19999999999999,41.22195222015337,37.13080168776371,29.71698113207547,1238600.0,3256.0,0.0,1.0,0.0,?,0.0,0.0
3200000.0,3.828125,4.1613853277845515E-8,3200000.0,69.0,39.02654902068768,37.999999999999986,28.07424593967517,1278600.0,3256.0,0.0,1.0,0.0,?,0.0,0.0
3300000.0,3.953125,4.295314688028561E-8,3300000.0,67.7,36.38476385551661,34.482758620689665,21.980676328502433,1318600.0,3256.0,0.0,1.0,0.0,?,0.0,0.0
3400000.0,4.078125,4.398199962452054E-8,3400000.0,68.30000000000001,37.168499417272535,36.85258964143428,24.881516587677748,1358600.0,3256.0,0.0,1.0,0.0,?,0.0,0.0
3500000.0,4.1875,4.4610610024796595E-8,3500000.0,69.8,40.078176154288776,34.49023861171365,25.432098765432094,1398600.0,3256.0,0.0,1.0,0.0,?,0.0,0.0
3600000.0,4.296875,4.6325763428790704E-8,3600000.0,68.60000000000001,37.95766104333877,36.30831643002029,26.806526806526826,1438400.0,3256.0,0.0,1.0,0.0,?,0.0,0.0
3700000.0,4.421875,4.7975497889435953E-8,3700000.0,68.8,38.04606830818109,35.26970954356845,21.999999999999993,1478400.0,3256.0,0.0,1.0,0.0,?,0.0,0.0
3800000.0,4.546875,4.931479149187605E-8,3800000.0,69.69999999999999,39.98573918554903,39.27855711422845,30.979498861047816,1518400.0,3256.0,0.0,1.0,0.0,?,0.0,0.0
3900000.0,4.65625,5.021503764308161E-8,3900000.0,68.7,38.46964371368138,37.773359840954285,25.119617224880404,1558400.0,3256.0,0.0,1.0,0.0,?,0.0,0.0
4000000.0,4.78125,5.0933449529111384E-8,4000000.0,68.7,38.65439493242186,35.463917525773205,27.039627039627064,1598400.0,3256.0,0.0,1.0,0.0,?,0.0,0.0
4100000.0,4.90625,5.2906818584435515E-8,4100000.0,70.1,40.73997732660001,38.603696098562615,30.946882217090067,1638200.0,3256.0,0.0,1.0,0.0,?,0.0,24.0
4200000.0,5.03125,5.4569746781554485E-8,4200000.0,68.2,37.83404426685227,34.96932515337424,24.465558194774367,1678200.0,3256.0,0.0,1.0,0.0,?,0.0,0.0
4300000.0,5.15625,5.59222341204683E-8,4300000.0,66.60000000000001,34.18485778805949,32.79678068410464,19.12832929782084,1718200.0,3256.0,0.0,1.0,0.0,?,0.0,113.0
4400000.0,5.28125,5.696428060117695E-8,4400000.0,70.19999999999999,41.51266309723814,39.676113360323875,28.70813397129186,1758200.0,3256.0,0.0,1.0,0.0,?,0.0,0.0
4500000.0,5.40625,5.769588622368044E-8,4500000.0,69.0,38.437096614040314,35.95041322314048,27.738927738927732,1798200.0,3256.0,0.0,1.0,0.0,?,0.0,0.0
4600000.0,5.53125,5.966925527900457E-8,4600000.0,70.5,41.68300860323886,41.117764471057875,32.801822323462396,1838000.0,3256.0,0.0,1.0,0.0,?,0.0,0.0
4700000.0,5.65625,6.133218347612354E-8,4700000.0,70.19999999999999,41.380816183615735,41.68297455968688,27.493917274939168,1878000.0,3256.0,0.0,1.0,0.0,?,0.0,0.0
4800000.0,5.796875,6.285373173240159E-8,4800000.0,69.0,38.952583881119004,37.499999999999986,25.659472422062347,1918000.0,3256.0,0.0,1.0,0.0,?,0.0,0.0
4900000.0,5.90625,6.376552240302165E-8,4900000.0,67.10000000000001,35.30499075785583,36.608863198458586,23.488372093023273,1958000.0,3256.0,0.0,1.0,0.0,?,0.0,0.0
5000000.0,6.03125,6.452144589275122E-8,5000000.0,68.0,36.983064198503364,33.19415448851775,24.170616113744096,1998000.0,3256.0,0.0,1.0,0.0,?,0.0,0.0
5100000.0,6.140625,6.627213830749194E-8,5100000.0,71.8,0.0,30.882352941176467,0.0,10108.0,3256.0,0.0,1.0,0.0,?,28.0,161.0
5200000.0,6.28125,6.817378258953492E-8,5200000.0,69.5,35.922754355151795,27.72511848341232,-4.095563139931744,50108.0,3256.0,0.0,1.0,0.0,?,0.0,0.0
5300000.0,6.40625,6.955369220425686E-8,5300000.0,69.6,36.34840871021775,29.137529137529132,-1.3333333333333344,90108.0,3256.0,0.0,1.0,0.0,?,0.0,0.0
5400000.0,6.53125,7.062316096077362E-8,5400000.0,65.3,29.762203564112745,17.380952380952394,-20.905923344947713,7642.0,3256.0,0.0,1.0,0.0,?,8.0,39.0
5500000.0,6.65625,7.138218885908524E-8,5500000.0,66.5,32.02606952414192,20.616113744075847,-11.295681063122895,47642.0,3256.0,0.0,1.0,0.0,?,0.0,0.0
5600000.0,6.765625,7.313288127382595E-8,5600000.0,66.60000000000001,29.991657688550923,22.50580046403714,-11.705685618729069,32152.0,3256.0,0.0,1.0,0.0,?,8.0,57.0
5700000.0,6.890625,7.482323174675305E-8,5700000.0,70.6,37.223484395551836,24.42159383033418,-2.7972027972027993,72152.0,3256.0,0.0,1.0,0.0,?,0.0,0.0
5800000.0,7.03125,7.637563006331523E-8,5800000.0,66.9,31.825109780110232,14.248704663212447,-15.331010452961646,112152.0,3256.0,0.0,1.0,0.0,?,0.0,0.0
5900000.0,7.15625,7.7445098819832E-8,5900000.0,68.0,32.76548179835528,22.705314009661855,-10.726643598615887,152152.0,3256.0,0.0,1.0,0.0,?,0.0,0.0
6000000.0,7.28125,7.820412671814361E-8,6000000.0,68.60000000000001,34.178807252908506,18.65284974093266,-14.181818181818153,192152.0,3256.0,0.0,1.0,0.0,?,0.0,0.0
6100000.0,7.40625,8.020802245785792E-8,6100000.0,69.0,35.65794935657948,32.754880694143154,2.5157232704402195,231952.0,3256.0,0.0,1.0,0.0,?,0.0,0.0
6200000.0,7.53125,8.190147733936706E-8,6200000.0,71.0,39.330543933054386,29.268292682926827,-3.571428571428574,271952.0,3256.0,0.0,1.0,0.0,?,0.0,0.0
6300000.0,7.65625,8.328449136267104E-8,6300000.0,70.3,38.24798942106968,29.28571428571428,-1.3651877133105812,311952.0,3256.0,0.0,1.0,0.0,?,0.0,0.0
6400000.0,7.78125,8.435706452776987E-8,6400000.0,70.39999999999999,38.83261213676696,27.804878048780484,5.431309904153325,351952.0,3256.0,0.0,1.0,0.0,?,0.0,0.0
6500000.0,7.90625,8.511919683466353E-8,6500000.0,69.0,35.083428265094135,22.30576441102756,-9.154929577464795,391952.0,3256.0,0.0,1.0,0.0,?,0.0,0.0
6600000.0,8.03125,8.712309257437784E-8,6600000.0,70.39999999999999,37.68289858733868,29.355608591885442,-0.3389830508474579,431752.0,3256.0,0.0,1.0,0.0,?,0.0,0.0
6700000.0,8.171875,8.902822931607563E-8,6700000.0,66.2,30.45725384336835,18.357487922705328,-10.457516339869253,471752.0,3256.0,0.0,1.0,0.0,?,0.0,0.0
6800000.0,8.296875,9.041124333937962E-8,6800000.0,70.0,37.42908629780417,25.373134328358205,-4.8951048951048985,511752.0,3256.0,0.0,1.0,0.0,?,0.0,0.0
6900000.0,8.421875,9.148381650447845E-8,6900000.0,69.69999999999999,36.967447743309805,29.20560747663551,-1.3377926421404693,551752.0,3256.0,0.0,1.0,0.0,?,0.0,0.0
7000000.0,8.546875,9.224594881137211E-8,7000000.0,68.10000000000001,32.16576221016281,13.783783783783795,-20.83333333333331,591752.0,3256.0,0.0,1.0,0.0,?,0.0,0.0
7100000.0,8.671875,9.425294895966846E-8,7100000.0,70.7,39.47281441084117,30.568720379146917,2.6578073089701015,631552.0,3256.0,0.0,1.0,0.0,?,0.0,0.0
7200000.0,8.796875,9.594950824975967E-8,7200000.0,69.5,36.060844919247984,24.317617866004955,-9.318996415770616,671552.0,3256.0,0.0,1.0,0.0,?,0.0,0.0
7300000.0,8.921875,9.73356266816457E-8,7300000.0,70.0,37.531234382808584,28.57142857142857,3.2258064516129052,711552.0,3256.0,0.0,1.0,0.0,?,0.0,0.0
7400000.0,9.046875,9.841130425532658E-8,7400000.0,67.60000000000001,31.761603686558303,12.432432432432444,-16.129032258064488,751552.0,3256.0,0.0,1.0,0.0,?,0.0,0.0
7500000.0,9.171875,9.91765409708023E-8,7500000.0,69.3,35.357533900446384,26.904761904761898,-5.498281786941585,791552.0,3256.0,0.0,1.0,0.0,?,0.0,0.0
7600000.0,9.296875,1.0118354111909866E-7,7600000.0,69.5,37.16263546087599,28.066037735849054,7.5757575757575495,831352.0,3256.0,0.0,1.0,0.0,?,0.0,0.0
7700000.0,9.421875,1.0288010040918986E-7,7700000.0,70.89999999999999,39.526184538653354,34.162895927601795,3.000000000000002,871352.0,3256.0,0.0,1.0,0.0,?,0.0,0.0
7800000.0,9.546875,1.042662188410759E-7,7800000.0,67.0,29.414784394250532,16.66666666666668,-23.134328358208933,911352.0,3256.0,0.0,1.0,0.0,?,0.0,0.0
7900000.0,9.65625,1.0520743671804667E-7,7900000.0,68.30000000000001,34.27490918741396,22.30392156862747,-6.020066889632075,951352.0,3256.0,0.0,1.0,0.0,?,0.0,0.0
8000000.0,9.78125,1.0597267343352239E-7,8000000.0,66.7,30.45577572092092,23.094688221709024,-7.073954983922799,991352.0,3256.0,0.0,1.0,0.0,?,0.0,0.0
8100000.0,9.90625,1.079827779904008E-7,8100000.0,68.2,34.712983493471306,22.249388753056255,-2.5806451612902888,1031152.0,3256.0,0.0,1.0,0.0,?,0.0,0.0
8200000.0,10.03125,1.0968244168907405E-7,8200000.0,67.7,33.77401973247164,24.532710280373852,-2.866242038216564,1071152.0,3256.0,0.0,1.0,0.0,?,0.0,0.0
8300000.0,10.15625,1.1107166452954213E-7,8300000.0,66.5,29.784701029544923,16.04010025062658,-17.957746478873215,1111152.0,3256.0,0.0,1.0,0.0,?,0.0,0.0
8400000.0,10.28125,1.1215044651180506E-7,8400000.0,69.3,34.92674489588278,26.378896882494,-11.231884057971024,1151152.0,3256.0,0.0,1.0,0.0,?,0.0,0.0
8500000.0,10.40625,1.1291878763586283E-7,8500000.0,68.5,33.57737497785914,17.754569190600538,-14.963503649635006,1191152.0,3256.0,0.0,1.0,0.0,?,0.0,0.0
8600000.0,10.515625,1.1467762912313144E-7,8600000.0,67.30000000000001,32.60511129431163,25.34246575342466,-8.99999999999997,1230952.0,3256.0,0.0,1.0,0.0,?,0.0,0.0
8700000.0,10.65625,1.1658975078413884E-7,8700000.0,68.8,34.288121314237564,21.999999999999993,-7.5862068965517295,1270952.0,3256.0,0.0,1.0,0.0,?,0.0,0.0
8800000.0,10.78125,1.1797897362460692E-7,8800000.0,69.1,35.75723302868261,28.139534883720923,-0.9803921568627458,1310952.0,3256.0,0.0,1.0,0.0,?,0.0,0.0
8900000.0,10.90625,1.1905775560686985E-7,8900000.0,69.8,37.84575869336142,26.699029126213585,0.6578947368421058,1350952.0,3256.0,0.0,1.0,0.0,?,0.0,0.0
9000000.0,11.03125,1.198260967309276E-7,9000000.0,69.39999999999999,36.86139218566876,31.081081081081063,-2.6845637583892636,1390952.0,3256.0,0.0,1.0,0.0,?,0.0,0.0
9100000.0,11.15625,1.2183930569638806E-7,9100000.0,68.5,34.009301546067796,24.096385542168694,-7.14285714285711,1430752.0,3256.0,0.0,1.0,0.0,?,0.0,0.0
9200000.0,11.28125,1.2354207380364338E-7,9200000.0,66.5,32.49941566658338,16.250000000000014,-13.94557823129249,1470752.0,3256.0,0.0,1.0,0.0,?,0.0,0.0
9300000.0,11.40625,1.2493440105269352E-7,9300000.0,66.8,31.7052298982984,20.76372315035801,-12.162162162162133,1510752.0,3256.0,0.0,1.0,0.0,?,0.0,0.0
9400000.0,11.53125,1.260162874435385E-7,9400000.0,70.8,40.275550610334776,29.126213592233007,3.3112582781456976,1550752.0,3256.0,0.0,1.0,0.0,?,0.0,0.0
9500000.0,11.65625,1.2678773297617833E-7,9500000.0,68.7,33.472198605679324,21.553884711779467,-6.101694915254204,1590752.0,3256.0,0.0,1.0,0.0,?,0.0,0.0
9600000.0,11.78125,1.2880094194163879E-7,9600000.0,68.10000000000001,34.39993419429137,25.813953488372114,-4.9342105263157565,1630552.0,3256.0,0.0,1.0,0.0,?,0.0,0.0
9700000.0,11.890625,1.3029086403548718E-7,9700000.0,69.39999999999999,35.92106144877034,28.83720930232558,-4.7945205479452095,1670552.0,3256.0,0.0,1.0,0.0,?,0.0,0.0
9800000.0,12.03125,1.3185723219066858E-7,9800000.0,69.6,36.3838398212051,24.37810945273631,-7.420494699646649,1710552.0,3256.0,0.0,1.0,0.0,?,0.0,0.0
9900000.0,12.171875,1.3307435438036918E-7,9900000.0,68.7,35.054156119018984,28.045977011494273,-9.82456140350874,1750552.0,3256.0,0.0,1.0,0.0,?,0.0,0.0
1.0E7,12.3125,1.3394223060458897E-7,1.0E7,69.6,36.9103504380995,24.938271604938265,-5.190311418685125,1790552.0,3256.0,0.0,1.0,0.0,?,0.0,0.0
