learning evaluation instances,evaluation time (cpu seconds),model cost (RAM-Hours),classified instances,classifications correct (percent),Kappa Statistic (percent),Kappa Temporal Statistic (percent),Kappa M Statistic (percent),model training instances,model serialized size (bytes),labeling cost,newThreshold,maxPosterior,accuracyBaseLearner (percent),Change detected,Warning detected
100000.0,0.171875,7.46749315617813E-9,100000.0,57.599999999999994,15.575183882824708,14.343434343434334,13.292433537832299,29700.0,9208.0,0.0,1.0,0.0,?,0.0,20.0
200000.0,0.328125,1.3641709099627204E-8,200000.0,60.199999999999996,21.26763070958042,14.224137931034472,15.498938428874725,59700.0,9208.0,0.0,1.0,0.0,?,0.0,0.0
300000.0,0.484375,1.9201510844545233E-8,300000.0,62.1,25.32372853303489,19.87315010570824,17.96536796536796,89700.0,9208.0,0.0,1.0,0.0,?,0.0,0.0
400000.0,0.65625,2.4641437145570916E-8,400000.0,64.5,29.130400063882465,27.698574338085542,28.137651821862352,119700.0,9208.0,0.0,1.0,0.0,?,0.0,0.0
500000.0,0.8125,2.8972410493426855E-8,500000.0,61.1,22.817460317460316,24.0234375,18.10526315789473,149700.0,9208.0,0.0,1.0,0.0,?,0.0,0.0
600000.0,0.9375,3.194565781288677E-8,600000.0,63.9,28.090514322138567,32.14285714285714,24.31865828092243,179700.0,9208.0,0.0,1.0,0.0,?,0.0,0.0
700000.0,1.125,3.5668231753839394E-8,700000.0,60.699999999999996,22.674327089563974,18.6335403726708,14.565217391304339,209700.0,9208.0,0.0,1.0,0.0,?,0.0,0.0
800000.0,1.265625,3.790718943087592E-8,800000.0,60.5,22.767089003597675,20.2020202020202,11.235955056179762,239700.0,9208.0,0.0,1.0,0.0,?,0.0,0.0
900000.0,1.421875,3.9780505984607676E-8,900000.0,61.199999999999996,22.642592828888606,27.611940298507452,16.01731601731601,269700.0,9208.0,0.0,1.0,0.0,?,0.0,0.0
1000000.0,1.59375,4.116529857532846E-8,1000000.0,61.199999999999996,22.62284620293554,22.709163346613543,21.138211382113816,299700.0,9208.0,0.0,1.0,0.0,?,0.0,0.0
1100000.0,1.75,4.796007285929389E-8,1100000.0,61.199999999999996,23.19630075378475,22.554890219560875,18.487394957983184,329400.0,9208.0,0.0,1.0,0.0,?,0.0,0.0
1200000.0,1.90625,5.414043294472828E-8,1200000.0,61.9,24.733901747121713,25.440313111545986,18.415417558886503,359400.0,9208.0,0.0,1.0,0.0,?,0.0,0.0
1300000.0,2.0625,5.970637883163161E-8,1300000.0,60.6,22.79596187609731,17.226890756302513,19.918699186991866,389400.0,9208.0,0.0,1.0,0.0,?,0.0,0.0
1400000.0,2.21875,6.46579105200039E-8,1400000.0,62.4,24.635705838728423,23.57723577235772,25.691699604743086,419400.0,9208.0,0.0,1.0,0.0,?,0.0,0.0
1500000.0,2.375,6.899502800984516E-8,1500000.0,59.5,18.822708796010485,15.975103734439825,18.674698795180717,449400.0,9208.0,0.0,1.0,0.0,?,0.0,0.0
1600000.0,2.53125,7.271773130115536E-8,1600000.0,61.5,23.838989689579584,25.09727626459144,18.60465116279069,479400.0,9208.0,0.0,1.0,0.0,?,0.0,0.0
1700000.0,2.671875,7.55151914846566E-8,1700000.0,62.6,25.599974536889686,25.940594059405942,22.727272727272727,509400.0,9208.0,0.0,1.0,0.0,?,0.0,0.0
1800000.0,2.828125,7.800906637890471E-8,1800000.0,61.8,24.472792410899636,24.65483234714004,19.238900634249468,539400.0,9208.0,0.0,1.0,0.0,?,0.0,0.0
1900000.0,2.96875,7.970058100505007E-8,1900000.0,62.3,25.013326544088976,25.494071146245062,22.587268993839835,569400.0,9208.0,0.0,1.0,0.0,?,0.0,0.0
2000000.0,3.125,8.09656275022361E-8,2000000.0,61.5,22.749089041205842,23.913043478260867,18.60465116279069,599400.0,9208.0,0.0,1.0,0.0,?,0.0,0.0
2100000.0,3.25,8.64063622429967E-8,2100000.0,62.4,25.041366798907518,26.129666011787823,23.732251521298174,629100.0,9208.0,0.0,1.0,0.0,?,0.0,0.0
2200000.0,3.390625,9.197421604767442E-8,2200000.0,60.5,21.14509302882696,21.471172962226635,19.05737704918032,659100.0,9208.0,0.0,1.0,0.0,?,0.0,0.0
2300000.0,3.546875,9.754630607656307E-8,2300000.0,60.4,22.940407248271992,19.838056680161937,10.810810810810796,689100.0,9208.0,0.0,1.0,0.0,?,0.0,0.0
2400000.0,3.6875,1.0200821432388492E-7,2400000.0,62.7,25.654558790700648,24.032586558044805,24.186991869918696,719100.0,9208.0,0.0,1.0,0.0,?,0.0,0.0
2500000.0,3.828125,1.0591714979252882E-7,2500000.0,63.6,27.29161256816412,27.634194831013918,26.907630522088354,749100.0,9208.0,0.0,1.0,0.0,?,0.0,0.0
2600000.0,3.96875,1.0927311248249478E-7,2600000.0,59.199999999999996,19.157654462378588,15.876288659793806,10.329670329670314,779100.0,9208.0,0.0,1.0,0.0,?,0.0,0.0
2700000.0,4.125,1.1238754571725925E-7,2700000.0,59.4,19.241908277903303,15.592515592515586,16.803278688524586,809100.0,9208.0,0.0,1.0,0.0,?,0.0,0.0
2800000.0,4.28125,1.1488756475349267E-7,2800000.0,61.0,22.86789049613746,23.976608187134502,17.197452229299355,839100.0,9208.0,0.0,1.0,0.0,?,0.0,0.0
2900000.0,4.4375,1.1677316959119505E-7,2900000.0,63.7,27.305788301638927,28.82352941176471,26.21951219512195,869100.0,9208.0,0.0,1.0,0.0,?,0.0,0.0
3000000.0,4.59375,1.1804436023036639E-7,3000000.0,60.6,22.59575337513948,22.134387351778653,13.215859030836993,899100.0,9208.0,0.0,1.0,0.0,?,0.0,0.0
3100000.0,4.734375,1.2417071654150883E-7,3100000.0,62.2,25.35574504050141,24.096385542168676,19.057815845824404,928800.0,9208.0,0.0,1.0,0.0,?,0.0,0.0
3200000.0,4.90625,1.3098262974785434E-7,3200000.0,57.99999999999999,17.725461618927838,13.402061855670091,6.873614190687344,958800.0,9208.0,0.0,1.0,0.0,?,0.0,0.0
3300000.0,5.046875,1.360030405016409E-7,3300000.0,60.699999999999996,20.888624065962375,20.606060606060602,19.46721311475409,988800.0,9208.0,0.0,1.0,0.0,?,0.0,0.0
3400000.0,5.203125,1.4096686047398382E-7,3400000.0,61.8,23.924689425531824,24.95088408644401,21.88139059304703,1018800.0,9208.0,0.0,1.0,0.0,?,0.0,0.0
3500000.0,5.359375,1.453162662477957E-7,3500000.0,61.5,23.40442463791182,18.60465116279069,21.267893660531694,1048800.0,9208.0,0.0,1.0,0.0,?,0.0,0.0
3600000.0,5.515625,1.490512578230765E-7,3600000.0,59.8,20.131604043486547,24.007561436672965,16.770186335403718,1078800.0,9208.0,0.0,1.0,0.0,?,0.0,0.0
3700000.0,5.671875,1.521718351998263E-7,3700000.0,58.699999999999996,18.25602292789904,14.84536082474226,11.373390557939901,1108800.0,9208.0,0.0,1.0,0.0,?,0.0,0.0
3800000.0,5.828125,1.5467799837804504E-7,3800000.0,60.8,22.335636847777845,19.836400817995905,16.23931623931623,1138800.0,9208.0,0.0,1.0,0.0,?,0.0,0.0
3900000.0,5.984375,1.5656974735773273E-7,3900000.0,65.8,31.358381502890182,32.94117647058824,33.33333333333334,1168800.0,9208.0,0.0,1.0,0.0,?,0.0,0.0
4000000.0,6.125,1.5771934866077371E-7,4000000.0,62.0,24.41270662184473,23.076923076923077,22.448979591836732,1198800.0,9208.0,0.0,1.0,0.0,?,0.0,0.0
4100000.0,6.28125,1.6453255537069508E-7,4100000.0,60.0,21.354279310277015,17.012448132780076,10.913140311803996,1228500.0,9208.0,0.0,1.0,0.0,?,0.0,0.0
4200000.0,6.4375,1.707313478820854E-7,4200000.0,59.699999999999996,20.104359962569973,14.799154334038045,16.21621621621621,1258500.0,9208.0,0.0,1.0,0.0,?,0.0,0.0
4300000.0,6.59375,1.7631572619494467E-7,4300000.0,61.7,23.741030113333174,18.336886993603404,21.35523613963039,1288500.0,9208.0,0.0,1.0,0.0,?,0.0,0.0
4400000.0,6.75,1.812856903092729E-7,4400000.0,62.3,25.03718314788156,23.52941176470588,21.784232365145225,1318500.0,9208.0,0.0,1.0,0.0,?,0.0,0.0
4500000.0,6.90625,1.8564124022507006E-7,4500000.0,62.8,24.978522076884918,27.34375,28.32369942196532,1348500.0,9208.0,0.0,1.0,0.0,?,0.0,0.0
4600000.0,7.0625,1.893823759423362E-7,4600000.0,61.199999999999996,23.140008002947614,23.015873015873016,17.622080679405514,1378500.0,9208.0,0.0,1.0,0.0,?,0.0,0.0
4700000.0,7.21875,1.925090974610713E-7,4700000.0,59.9,20.609780241536324,17.319587628865975,14.132762312633822,1408500.0,9208.0,0.0,1.0,0.0,?,0.0,0.0
4800000.0,7.375,1.9502140478127534E-7,4800000.0,59.5,20.333928697882644,19.32270916334661,10.792951541850208,1438500.0,9208.0,0.0,1.0,0.0,?,0.0,0.0
4900000.0,7.515625,1.9672950859078103E-7,4900000.0,60.9,22.653900933692032,23.483365949119374,18.029350104821795,1468500.0,9208.0,0.0,1.0,0.0,?,0.0,0.0
5000000.0,7.65625,1.9796874969162875E-7,5000000.0,62.2,24.01338007783603,24.550898203592812,21.739130434782606,1498500.0,9208.0,0.0,1.0,0.0,?,0.0,0.0
5100000.0,7.78125,2.034989948798385E-7,5100000.0,54.2,5.063159945774079,2.3454157782516014,-10.89588377723969,1528200.0,9208.0,0.0,1.0,0.0,?,0.0,0.0
5200000.0,7.9375,2.0979738716656965E-7,5200000.0,57.199999999999996,9.987591747460499,7.956989247311812,-15.363881401617263,1558200.0,9208.0,0.0,1.0,0.0,?,0.0,0.0
5300000.0,8.0625,2.1434456963712972E-7,5300000.0,56.00000000000001,7.87771184985743,0.0,-13.69509043927647,1588200.0,9208.0,0.0,1.0,0.0,?,0.0,0.0
5400000.0,8.21875,2.1941413352679876E-7,5400000.0,59.8,15.027816764462168,17.113402061855663,-5.235602094240843,1618200.0,9208.0,0.0,1.0,0.0,?,0.0,0.0
5500000.0,8.375,2.2389159615462027E-7,5500000.0,54.900000000000006,6.306351224457584,5.845511482254703,-18.062827225130874,1648200.0,9208.0,0.0,1.0,0.0,?,0.0,2.0
5600000.0,8.53125,2.2775464458391073E-7,5600000.0,57.9,11.132688816650484,12.836438923395436,-13.783783783783795,1678200.0,9208.0,0.0,1.0,0.0,?,0.0,0.0
5700000.0,8.703125,2.3132814223774609E-7,5700000.0,56.699999999999996,8.166208558145843,7.081545064377666,-19.283746556473847,1708200.0,9208.0,0.0,1.0,0.0,?,0.0,0.0
5800000.0,8.875,2.3422578427319728E-7,5800000.0,58.5,13.057687795394349,10.367170626349878,-6.138107416879801,1738200.0,9208.0,0.0,1.0,0.0,?,0.0,0.0
5900000.0,9.03125,2.3624559010689458E-7,5900000.0,57.9,10.87381764910111,11.740041928721162,-17.27019498607244,1768200.0,9208.0,0.0,1.0,0.0,?,0.0,0.0
6000000.0,9.1875,2.3764095708934798E-7,6000000.0,61.0,0.0,17.021276595744673,0.0,178323.0,9208.0,0.0,1.0,0.0,?,1.0,86.0
6100000.0,9.34375,2.445721960005661E-7,6100000.0,62.3,0.0,18.57451403887688,0.0,208023.0,9208.0,0.0,1.0,0.0,?,0.0,0.0
6200000.0,9.5,2.5088902071325313E-7,6200000.0,61.199999999999996,0.0,17.44680851063829,0.0,238023.0,9208.0,0.0,1.0,0.0,?,0.0,0.0
6300000.0,9.625,2.5545094912457793E-7,6300000.0,60.3,0.0,14.623655913978483,0.0,268023.0,9208.0,0.0,1.0,0.0,?,0.0,0.0
6400000.0,9.796875,2.61015730858263E-7,6400000.0,57.199999999999996,0.0,11.752577319587616,0.0,298023.0,9208.0,0.0,1.0,0.0,?,0.0,7.0
6500000.0,9.921875,2.6457131348757275E-7,6500000.0,63.800000000000004,0.0,24.267782426778243,0.0,328023.0,9208.0,0.0,1.0,0.0,?,0.0,0.0
6600000.0,10.0625,2.680183711668683E-7,6600000.0,60.099999999999994,0.0,17.731958762886592,0.0,358023.0,9208.0,0.0,1.0,0.0,?,0.0,0.0
6700000.0,10.21875,2.712340210564434E-7,6700000.0,63.3,0.0,18.98454746136865,0.0,388023.0,9208.0,0.0,1.0,0.0,?,0.0,0.0
6800000.0,10.375,2.738352567474875E-7,6800000.0,62.6,9.251935069031616,20.93023255813953,-5.352112676056343,418023.0,9208.0,0.0,1.0,0.0,?,0.0,0.0
6900000.0,10.53125,2.758220782400005E-7,6900000.0,61.1,0.0,18.78914405010438,0.0,448023.0,9208.0,0.0,1.0,0.0,?,0.0,0.0
7000000.0,10.671875,2.770572448045843E-7,7000000.0,60.699999999999996,0.0,11.883408071748866,0.0,478023.0,9208.0,0.0,1.0,0.0,?,0.0,0.0
7100000.0,10.828125,2.83965524027331E-7,7100000.0,62.2,13.33455612619222,19.057815845824404,0.5263157894736846,507723.0,9208.0,0.0,1.0,0.0,?,0.0,0.0
7200000.0,10.984375,2.9025938905154663E-7,7200000.0,64.0,0.0,23.56687898089172,0.0,537723.0,9208.0,0.0,1.0,0.0,?,0.0,0.0
7300000.0,11.140625,2.959388398772312E-7,7300000.0,61.9,0.0,19.78947368421052,0.0,567723.0,9208.0,0.0,1.0,0.0,?,0.0,0.0
7400000.0,11.296875,3.0100387650438476E-7,7400000.0,62.2,0.0,20.0845665961945,0.0,597723.0,9208.0,0.0,1.0,0.0,?,0.0,0.0
7500000.0,11.453125,3.0545449893300725E-7,7500000.0,63.6,0.0,20.350109409190367,0.0,627723.0,9208.0,0.0,1.0,0.0,?,0.0,0.0
7600000.0,11.59375,3.0890708634008955E-7,7600000.0,62.3,10.904192465850537,16.592920353982294,0.2645502645502648,657723.0,9208.0,0.0,1.0,0.0,?,0.0,0.0
7700000.0,11.734375,3.118067009684939E-7,7700000.0,60.5,8.096789204281048,16.13588110403396,-3.1331592689295062,687723.0,9208.0,0.0,1.0,0.0,?,0.0,0.0
7800000.0,11.890625,3.144140808015233E-7,7800000.0,64.60000000000001,16.531482249971695,25.0,5.851063829787239,717723.0,9208.0,0.0,1.0,0.0,?,0.0,0.0
7900000.0,12.046875,3.1640704643602163E-7,7900000.0,60.5,11.74052160234525,20.523138832997983,5.275779376498805,747723.0,9208.0,0.0,1.0,0.0,?,0.0,0.0
8000000.0,12.1875,3.1764774272839217E-7,8000000.0,61.4,12.594934129187394,17.521367521367516,3.258145363408524,777723.0,9208.0,0.0,1.0,0.0,?,0.0,0.0
8100000.0,12.34375,3.245621660931242E-7,8100000.0,64.60000000000001,16.44203579302173,24.840764331210192,3.542234332425071,807423.0,9208.0,0.0,1.0,0.0,?,0.0,0.0
8200000.0,12.5,3.3086217525932516E-7,8200000.0,62.6,14.547880604653704,21.26315789473684,5.076142131979699,837423.0,9208.0,0.0,1.0,0.0,?,0.0,0.0
8300000.0,12.65625,3.365477702269951E-7,8300000.0,61.6,10.780669144981411,17.773019271948602,0.0,867423.0,9208.0,0.0,1.0,0.0,?,0.0,0.0
8400000.0,12.8125,3.4161895099613395E-7,8400000.0,62.8,13.600891861761417,22.0125786163522,4.123711340206189,897423.0,9208.0,0.0,1.0,0.0,?,0.0,0.0
8500000.0,12.953125,3.45630040909681E-7,8500000.0,61.7,11.4368958978865,17.987152034261236,1.7948717948717965,927423.0,9208.0,0.0,1.0,0.0,?,0.0,0.0
8600000.0,13.109375,3.4947239328175774E-7,8600000.0,63.4,12.700419324215382,20.261437908496728,1.3477088948787075,957423.0,9208.0,0.0,1.0,0.0,?,0.0,0.0
8700000.0,13.265625,3.5270033145530346E-7,8700000.0,60.099999999999994,7.537865445579429,16.52719665271966,-1.7857142857142874,987423.0,9208.0,0.0,1.0,0.0,?,0.0,0.0
8800000.0,13.40625,3.5505250303281667E-7,8800000.0,58.3,6.443507134523909,16.09657947686116,-2.2058823529411784,1017423.0,9208.0,0.0,1.0,0.0,?,0.0,0.0
8900000.0,13.546875,3.5685170183165194E-7,8900000.0,62.3,11.676506419267172,16.035634743875267,-0.2659574468085109,1047423.0,9208.0,0.0,1.0,0.0,?,0.0,0.0
9000000.0,13.6875,3.5809792785180927E-7,9000000.0,60.6,8.930792024741228,16.87763713080168,-0.7672634271099751,1077423.0,9208.0,0.0,1.0,0.0,?,0.0,0.0
9100000.0,13.84375,3.6501849535852656E-7,9100000.0,64.0,16.19448466591863,24.528301886792452,6.005221932114887,1107123.0,9208.0,0.0,1.0,0.0,?,0.0,0.0
9200000.0,14.0,3.713246486667128E-7,9200000.0,63.7,15.471311475409847,25.614754098360653,6.44329896907217,1137123.0,9208.0,0.0,1.0,0.0,?,0.0,0.0
9300000.0,14.15625,3.7701638777636805E-7,9300000.0,59.3,10.857433219733132,15.031315240083497,3.7825059101654874,1167123.0,9208.0,0.0,1.0,0.0,?,0.0,0.0
9400000.0,14.3125,3.8209371268749225E-7,9400000.0,61.1,8.915509183377198,17.234042553191482,-1.8324607329842948,1197123.0,9208.0,0.0,1.0,0.0,?,0.0,0.0
9500000.0,14.4375,3.8566404125756675E-7,9500000.0,63.2,12.005509220292302,18.942731277533035,-3.370786516853936,1227123.0,9208.0,0.0,1.0,0.0,?,0.0,0.0
9600000.0,14.59375,3.8951253777162885E-7,9600000.0,64.2,20.11460653096564,23.340471092077088,3.5040431266846395,1257123.0,9208.0,0.0,1.0,0.0,?,0.0,0.0
9700000.0,14.75,3.927466200871599E-7,9700000.0,61.9,13.73923438476376,16.447368421052623,-0.7936507936507943,1287123.0,9208.0,0.0,1.0,0.0,?,0.0,0.0
9800000.0,14.90625,3.953662882041599E-7,9800000.0,63.7,14.606720427578038,24.688796680497923,3.9682539682539715,1317123.0,9208.0,0.0,1.0,0.0,?,0.0,0.0
9900000.0,15.046875,3.9717101673078195E-7,9900000.0,62.8,10.233826403802986,22.66112266112266,-1.917808219178084,1347123.0,9208.0,0.0,1.0,0.0,?,0.0,0.0
1.0E7,15.203125,3.9856185645071984E-7,1.0E7,60.6,16.141665247743916,15.450643776824025,-6.486486486486492,1377123.0,9208.0,0.0,1.0,0.0,?,0.0,0.0
