learning evaluation instances,evaluation time (cpu seconds),model cost (RAM-Hours),classified instances,classifications correct (percent),Kappa Statistic (percent),Kappa Temporal Statistic (percent),Kappa M Statistic (percent),model training instances,model serialized size (bytes),labeling cost,newThreshold,maxPosterior,accuracyBaseLearner (percent),Change detected,Warning detected
100000.0,0.75,1.5626040597756706E-8,100000.0,68.0,35.634144477208466,31.62393162393163,29.046563192904664,56921.0,2904.0,0.0,1.0,0.0,?,4.0,66.0
200000.0,1.53125,2.8831095227764713E-8,200000.0,66.4,31.784683225122723,31.56822810590632,23.462414578587698,116921.0,2904.0,0.0,1.0,0.0,?,0.0,16.0
300000.0,2.28125,3.842526995059517E-8,300000.0,67.60000000000001,34.43286451482344,32.07547169811321,28.791208791208796,176921.0,2904.0,0.0,1.0,0.0,?,0.0,21.0
400000.0,3.03125,4.507025652047661E-8,400000.0,69.0,36.94342401275776,35.28183716075155,27.738927738927732,236921.0,2904.0,0.0,1.0,0.0,?,0.0,0.0
500000.0,3.765625,4.868905913705627E-8,500000.0,66.0,31.31424138599781,27.50533049040512,27.350427350427353,296921.0,2904.0,0.0,1.0,0.0,?,0.0,0.0
600000.0,4.515625,6.418161016578476E-8,600000.0,67.30000000000001,33.5500914448283,33.939393939393945,27.333333333333336,356621.0,2904.0,0.0,1.0,0.0,?,0.0,0.0
700000.0,5.265625,7.685225379342834E-8,700000.0,66.7,32.47627544813042,31.481481481481488,24.318181818181817,416621.0,2904.0,0.0,1.0,0.0,?,0.0,54.0
800000.0,6.015625,8.657370926812291E-8,800000.0,68.4,35.939020434641584,33.05084745762713,28.181818181818187,476621.0,2904.0,0.0,1.0,0.0,?,0.0,0.0
900000.0,6.78125,9.348706549240484E-8,900000.0,65.3,29.669955491418516,29.75708502024292,21.493212669683253,536621.0,2904.0,0.0,1.0,0.0,?,0.0,0.0
1000000.0,7.53125,9.731014466120138E-8,1000000.0,67.80000000000001,35.14889571861871,35.341365461847396,28.918322295805744,596621.0,2904.0,0.0,1.0,0.0,?,0.0,0.0
1100000.0,8.265625,1.1263344074702925E-7,1100000.0,65.2,29.641535755443687,30.120481927710845,22.83813747228381,656321.0,2904.0,0.0,1.0,0.0,?,0.0,0.0
1200000.0,8.984375,1.2480440394332012E-7,1200000.0,66.10000000000001,31.375962558401287,29.95867768595042,26.623376623376625,716321.0,2904.0,0.0,1.0,0.0,?,0.0,0.0
1300000.0,9.765625,1.3496164077272018E-7,1300000.0,67.2,33.93809516136829,36.18677042801558,29.00432900432901,776321.0,2904.0,0.0,1.0,0.0,?,0.0,0.0
1400000.0,10.5,1.4162169665926033E-7,1400000.0,70.89999999999999,40.733197556008136,41.4486921529175,33.863636363636346,836321.0,2904.0,0.0,1.0,0.0,?,0.0,0.0
1500000.0,11.234375,1.4539400581270456E-7,1500000.0,68.7,36.53278396002985,36.25254582484726,29.50450450450451,896321.0,2904.0,0.0,1.0,0.0,?,0.0,0.0
1600000.0,12.0,1.6136935705112087E-7,1600000.0,67.4,33.070268006356294,26.576576576576578,20.293398533007352,956021.0,2904.0,0.0,1.0,0.0,?,0.0,0.0
1700000.0,12.734375,1.7380490640385283E-7,1700000.0,68.2,35.32799687622024,31.01952277657267,28.378378378378383,1016021.0,2904.0,0.0,1.0,0.0,?,0.0,0.0
1800000.0,13.484375,1.835558537600769E-7,1800000.0,67.5,34.33122923856556,33.4016393442623,24.942263279445747,1076021.0,2904.0,0.0,1.0,0.0,?,0.0,0.0
1900000.0,14.234375,1.9035761296335194E-7,1900000.0,69.19999999999999,37.34514282459486,35.564853556485346,28.538283062645007,1136021.0,2904.0,0.0,1.0,0.0,?,0.0,0.0
2000000.0,14.96875,1.9412992211679617E-7,2000000.0,68.4,36.394194963869495,36.926147704590825,28.988764044943828,1196021.0,2904.0,0.0,1.0,0.0,?,0.0,0.0
2100000.0,15.734375,2.101353796509405E-7,2100000.0,68.30000000000001,35.672657023652995,39.272030651341005,26.620370370370388,1255721.0,2904.0,0.0,1.0,0.0,?,0.0,0.0
2200000.0,16.484375,2.2286500704164305E-7,2200000.0,67.2,33.56692929333847,34.13654618473896,26.29213483146067,1315721.0,2904.0,0.0,1.0,0.0,?,0.0,0.0
2300000.0,17.234375,2.326454462793966E-7,2300000.0,64.8,29.23570541145818,28.888888888888893,24.62526766595289,1375721.0,2904.0,0.0,1.0,0.0,?,0.0,0.0
2400000.0,17.96875,2.3933437963326773E-7,2400000.0,67.0,33.07781225284421,33.33333333333334,24.137931034482776,1435721.0,2904.0,0.0,1.0,0.0,?,0.0,0.0
2500000.0,18.71875,2.4321644256512327E-7,2500000.0,65.7,30.406200543764967,28.39248434237996,23.608017817371937,1495721.0,2904.0,0.0,1.0,0.0,?,0.0,0.0
2600000.0,19.453125,2.585686161182821E-7,2600000.0,67.2,33.30974775632033,32.51028806584363,25.28473804100228,1555421.0,2904.0,0.0,1.0,0.0,?,0.0,0.0
2700000.0,20.203125,2.7129824350898467E-7,2700000.0,67.80000000000001,34.6280498450969,33.19502074688798,26.984126984126988,1615421.0,2904.0,0.0,1.0,0.0,?,0.0,0.0
2800000.0,20.953125,2.810786827467382E-7,2800000.0,69.5,37.61505420331356,36.7219917012448,28.403755868544593,1675421.0,2904.0,0.0,1.0,0.0,?,0.0,0.0
2900000.0,21.71875,2.880522515624762E-7,2900000.0,67.9,35.261374636979674,37.91102514506771,31.410256410256416,1735421.0,2904.0,0.0,1.0,0.0,?,0.0,0.0
3000000.0,22.46875,2.9193431449433174E-7,3000000.0,66.10000000000001,31.47362037598544,26.939655172413797,24.666666666666668,1795421.0,2904.0,0.0,1.0,0.0,?,0.0,0.0
3100000.0,23.21875,3.076426219195128E-7,3100000.0,66.5,32.238907408006746,34.57031250000001,27.331887201735363,1855121.0,2904.0,0.0,1.0,0.0,?,0.0,0.0
3200000.0,23.953125,3.201359262069067E-7,3200000.0,67.4,33.97200899276934,34.53815261044178,26.410835214446955,1915121.0,2904.0,0.0,1.0,0.0,?,0.0,0.0
3300000.0,24.703125,3.2994585732618976E-7,3300000.0,67.7,34.93150684931507,35.270541082164335,24.532710280373852,1975121.0,2904.0,0.0,1.0,0.0,?,0.0,0.0
3400000.0,25.421875,3.3652073600225985E-7,3400000.0,68.8,36.08417222857283,35.934291581108816,26.241134751773043,2035121.0,2904.0,0.0,1.0,0.0,?,0.0,0.0
3500000.0,26.171875,3.4043229081564485E-7,3500000.0,68.2,35.757835321877494,37.769080234833666,29.17594654788419,2095121.0,2904.0,0.0,1.0,0.0,?,0.0,0.0
3600000.0,26.9375,3.564678546455172E-7,3600000.0,69.69999999999999,38.45916369456246,40.118577075098806,32.81596452328158,2154821.0,2904.0,0.0,1.0,0.0,?,0.0,0.0
3700000.0,27.65625,3.686953439480729E-7,3700000.0,69.19999999999999,37.9832474226804,38.15261044176706,32.75109170305675,2214821.0,2904.0,0.0,1.0,0.0,?,0.0,0.0
3800000.0,28.390625,3.7817931216624055E-7,3800000.0,66.8,32.47201249674564,29.809725158562372,24.8868778280543,2274821.0,2904.0,0.0,1.0,0.0,?,0.0,10.0
3900000.0,29.140625,3.849158787892925E-7,3900000.0,69.19999999999999,37.50101459391891,39.250493096646935,29.680365296803636,2334821.0,2904.0,0.0,1.0,0.0,?,0.0,0.0
4000000.0,29.890625,3.8870325725939546E-7,4000000.0,66.2,31.507959666699104,31.854838709677423,25.877192982456144,2394821.0,2904.0,0.0,1.0,0.0,?,0.0,0.0
4100000.0,30.65625,4.0464216403456203E-7,4100000.0,65.60000000000001,30.567049220695857,32.28346456692914,24.72647702407002,2454521.0,2904.0,0.0,1.0,0.0,?,0.0,0.0
4200000.0,31.40625,4.1730659884504154E-7,4200000.0,65.5,30.36043019087298,31.27490039840638,24.836601307189543,2514521.0,2904.0,0.0,1.0,0.0,?,0.0,0.0
4300000.0,32.15625,4.27021845502572E-7,4300000.0,65.5,30.899389511128216,30.020283975659233,29.158110882956883,2574521.0,2904.0,0.0,1.0,0.0,?,0.0,0.0
4400000.0,32.90625,4.3378790400715345E-7,4400000.0,66.0,31.4762041041723,33.59375000000001,24.6119733924612,2634521.0,2904.0,0.0,1.0,0.0,?,0.0,0.0
4500000.0,33.640625,4.375252562264602E-7,4500000.0,64.9,28.537689751775368,25.949367088607595,19.49541284403671,2694521.0,2904.0,0.0,1.0,0.0,?,0.0,0.0
4600000.0,34.390625,4.531388791898887E-7,4600000.0,67.10000000000001,33.655979028029854,33.26572008113591,28.32244008714597,2754221.0,2904.0,0.0,1.0,0.0,?,0.0,0.0
4700000.0,35.15625,4.6606715639225317E-7,4700000.0,67.30000000000001,33.035714285714306,30.2771855010661,22.14285714285716,2814221.0,2904.0,0.0,1.0,0.0,?,0.0,0.0
4800000.0,35.890625,4.7558000207775173E-7,4800000.0,69.39999999999999,37.879372297448164,38.922155688622745,30.92550790067718,2874221.0,2904.0,0.0,1.0,0.0,?,0.0,0.0
4900000.0,36.640625,4.823460605823332E-7,4900000.0,67.5,34.34502597916819,34.077079107505085,26.47058823529412,2934221.0,2904.0,0.0,1.0,0.0,?,0.0,0.0
5000000.0,37.375,4.865226542784109E-7,5000000.0,68.7,36.4699196232849,35.72895277207393,28.701594533029617,2994221.0,2904.0,0.0,1.0,0.0,?,0.0,0.0
5100000.0,38.125,5.027230104638471E-7,5100000.0,71.39999999999999,35.81140222909494,39.14893617021276,22.911051212938,32958.0,2904.0,0.0,1.0,0.0,?,5.0,153.0
5200000.0,38.875,5.159741784963344E-7,5200000.0,69.8,32.99817630797764,38.11475409836064,20.73490813648293,92958.0,2904.0,0.0,1.0,0.0,?,0.0,0.0
5300000.0,39.625,5.262761583758726E-7,5300000.0,71.89999999999999,36.87322526149311,37.55555555555554,24.664879356568356,152958.0,2904.0,0.0,1.0,0.0,?,0.0,0.0
5400000.0,40.375,5.336289501024618E-7,5400000.0,70.39999999999999,32.97678188923959,34.36807095343679,18.45730027548208,212958.0,2904.0,0.0,1.0,0.0,?,0.0,0.0
5500000.0,41.078125,5.377573284527494E-7,5500000.0,70.0,31.162346721492018,37.369519832985375,17.582417582417566,272958.0,2904.0,0.0,1.0,0.0,?,0.0,0.0
5600000.0,41.828125,5.539576846381857E-7,5600000.0,70.8,36.17346827253055,41.365461847389554,25.319693094629148,332658.0,2904.0,0.0,1.0,0.0,?,0.0,0.0
5700000.0,42.546875,5.666567206693193E-7,5700000.0,68.4,28.26789670577127,29.306487695749446,15.508021390374346,392658.0,2904.0,0.0,1.0,0.0,?,0.0,0.0
5800000.0,43.296875,5.769587005488575E-7,5800000.0,69.5,31.53329502190933,36.05870020964359,18.01075268817203,452658.0,2904.0,0.0,1.0,0.0,?,0.0,0.0
5900000.0,44.015625,5.840051259535055E-7,5900000.0,70.1,34.079985890030414,37.052631578947356,23.333333333333325,512658.0,2904.0,0.0,1.0,0.0,?,0.0,0.0
6000000.0,44.765625,5.884087295271457E-7,6000000.0,70.19999999999999,35.00601957671034,37.13080168776371,22.79792746113989,572658.0,2904.0,0.0,1.0,0.0,?,0.0,0.0
6100000.0,45.515625,6.046385775941114E-7,6100000.0,69.3,33.43682786373412,36.701030927835035,23.057644110275678,632358.0,2904.0,0.0,1.0,0.0,?,0.0,0.0
6200000.0,46.234375,6.173658766783775E-7,6200000.0,69.69999999999999,32.783175828563806,33.40659340659339,21.29870129870129,692358.0,2904.0,0.0,1.0,0.0,?,0.0,0.0
6300000.0,46.984375,6.276973484394452E-7,6300000.0,70.6,31.09848697902018,35.38461538461537,15.028901734104029,752358.0,2904.0,0.0,1.0,0.0,?,0.0,0.0
6400000.0,47.734375,6.350796320475638E-7,6400000.0,69.1,30.312488723703666,33.54838709677418,16.260162601626003,812358.0,2904.0,0.0,1.0,0.0,?,0.0,0.0
6500000.0,48.484375,6.395127275027335E-7,6500000.0,70.5,35.89687872124051,38.92339544513457,24.93638676844783,872358.0,2904.0,0.0,1.0,0.0,?,0.0,0.0
6600000.0,49.234375,6.557425755696992E-7,6600000.0,71.1,35.01178333063485,37.31019522776571,23.138297872340416,932058.0,2904.0,0.0,1.0,0.0,?,0.0,0.0
6700000.0,49.984375,6.690232354837159E-7,6700000.0,70.89999999999999,35.40051679586562,35.47671840354766,23.015873015873005,992058.0,2904.0,0.0,1.0,0.0,?,0.0,0.0
6800000.0,50.71875,6.791394682497614E-7,6800000.0,72.2,36.019295475781675,38.49557522123892,22.12885154061624,1052058.0,2904.0,0.0,1.0,0.0,?,0.0,0.0
6900000.0,51.484375,6.866755494330493E-7,6900000.0,71.2,36.062516650386286,38.06451612903224,24.60732984293193,1112058.0,2904.0,0.0,1.0,0.0,?,0.0,0.0
7000000.0,52.234375,6.911086448882189E-7,7000000.0,68.30000000000001,31.026979982593573,34.23236514522822,20.551378446115308,1172058.0,2904.0,0.0,1.0,0.0,?,0.0,0.0
7100000.0,52.984375,7.073679848367142E-7,7100000.0,70.19999999999999,32.58528639942085,31.494252873563216,17.67955801104971,1231758.0,2904.0,0.0,1.0,0.0,?,0.0,0.0
7200000.0,53.703125,7.201235469741126E-7,7200000.0,73.3,38.567589456633776,43.55179704016913,24.999999999999993,1291758.0,2904.0,0.0,1.0,0.0,?,0.0,0.0
7300000.0,54.453125,7.304845106167098E-7,7300000.0,69.8,32.69415063138235,35.19313304721028,21.963824289405675,1351758.0,2904.0,0.0,1.0,0.0,?,0.0,0.0
7400000.0,55.171875,7.375874621276226E-7,7400000.0,69.5,32.17157699971534,33.695652173913025,19.525065963060673,1411758.0,2904.0,0.0,1.0,0.0,?,0.0,0.0
7500000.0,55.921875,7.420500494643218E-7,7500000.0,69.3,33.94383289295888,37.21881390593046,25.304136253041353,1471758.0,2904.0,0.0,1.0,0.0,?,0.0,0.0
7600000.0,56.671875,7.58309389412817E-7,7600000.0,70.8,34.00443887952193,34.67561521252795,19.113573407202203,1531458.0,2904.0,0.0,1.0,0.0,?,0.0,0.0
7700000.0,57.421875,7.716195412083632E-7,7700000.0,70.19999999999999,32.54255704454908,36.32478632478631,19.459459459459445,1591458.0,2904.0,0.0,1.0,0.0,?,0.0,0.0
7800000.0,58.171875,7.819805048509604E-7,7800000.0,70.8,34.34041347550583,35.6828193832599,20.867208672086708,1651458.0,2904.0,0.0,1.0,0.0,?,0.0,0.0
7900000.0,58.9375,7.895466923299763E-7,7900000.0,71.5,36.821664183868904,37.22466960352422,23.387096774193537,1711458.0,2904.0,0.0,1.0,0.0,?,0.0,0.0
8000000.0,59.6875,7.940092796666754E-7,8000000.0,71.7,36.736026038825756,41.04166666666666,24.33155080213903,1771458.0,2904.0,0.0,1.0,0.0,?,0.0,0.0
8100000.0,60.4375,8.102981114967001E-7,8100000.0,69.69999999999999,30.83455076698319,36.0759493670886,14.887640449438186,1831158.0,2904.0,0.0,1.0,0.0,?,0.0,0.0
8200000.0,61.15625,8.23081936687231E-7,8200000.0,68.10000000000001,29.518338488731782,28.953229398663698,20.250000000000018,1891158.0,2904.0,0.0,1.0,0.0,?,0.0,0.0
8300000.0,61.921875,8.336888600347769E-7,8300000.0,70.1,33.61338567292491,37.83783783783783,21.932114882506518,1951158.0,2904.0,0.0,1.0,0.0,?,0.0,0.0
8400000.0,62.671875,8.411301274059546E-7,8400000.0,71.1,33.45307175094408,37.173913043478244,16.231884057970998,2011158.0,2904.0,0.0,1.0,0.0,?,0.0,0.0
8500000.0,63.40625,8.455286216404701E-7,8500000.0,69.1,30.36902165095275,30.405405405405382,16.032608695652158,2071158.0,2904.0,0.0,1.0,0.0,?,0.0,0.0
8600000.0,64.140625,8.614781028073694E-7,8600000.0,69.3,32.42291369503583,38.22937625754526,20.05208333333332,2130858.0,2904.0,0.0,1.0,0.0,?,0.0,0.0
8700000.0,64.859375,8.742619279979002E-7,8700000.0,68.8,30.68053056055454,33.19057815845823,18.96103896103895,2190858.0,2904.0,0.0,1.0,0.0,?,0.0,0.0
8800000.0,65.609375,8.846523835220269E-7,8800000.0,68.8,30.973451327433608,35.67010309278349,17.89473684210525,2250858.0,2904.0,0.0,1.0,0.0,?,0.0,0.0
8900000.0,66.359375,8.920936508932045E-7,8900000.0,68.8,31.827716403300236,34.453781512605026,20.40816326530611,2310858.0,2904.0,0.0,1.0,0.0,?,0.0,0.0
9000000.0,67.09375,8.964921451277201E-7,9000000.0,69.8,32.57724593677441,36.68763102725366,19.680851063829774,2370858.0,2904.0,0.0,1.0,0.0,?,0.0,0.0
9100000.0,67.859375,9.131504339165984E-7,9100000.0,72.39999999999999,37.10261844534081,42.97520661157024,22.253521126760553,2430558.0,2904.0,0.0,1.0,0.0,?,0.0,0.0
9200000.0,68.59375,9.262410458177326E-7,9200000.0,69.0,31.30650593866335,34.04255319148935,19.27083333333332,2490558.0,2904.0,0.0,1.0,0.0,?,0.0,0.0
9300000.0,69.34375,9.366609932233889E-7,9300000.0,70.0,35.68001234943762,39.27125506072874,27.360774818401936,2550558.0,2904.0,0.0,1.0,0.0,?,0.0,0.0
9400000.0,70.0625,9.438204708405666E-7,9400000.0,68.60000000000001,32.116621050765545,37.45019920318726,22.084367245657585,2610558.0,2904.0,0.0,1.0,0.0,?,0.0,0.0
9500000.0,70.796875,9.482478425424131E-7,9500000.0,70.6,35.54356071401949,40.12219959266802,25.944584382871533,2670558.0,2904.0,0.0,1.0,0.0,?,0.0,0.0
9600000.0,71.53125,9.642262011766433E-7,9600000.0,69.5,32.91277340794313,37.11340206185566,22.391857506361315,2730258.0,2904.0,0.0,1.0,0.0,?,0.0,0.0
9700000.0,72.25,9.770382894203066E-7,9700000.0,72.3,38.40447579318135,41.56118143459915,25.737265415549594,2790258.0,2904.0,0.0,1.0,0.0,?,0.0,0.0
9800000.0,73.0,9.874582368259628E-7,9800000.0,71.39999999999999,37.23803462880467,39.915966386554615,27.594936708860757,2850258.0,2904.0,0.0,1.0,0.0,?,0.0,0.0
9900000.0,73.75,9.9492899607867E-7,9900000.0,71.5,34.863693708518454,37.22466960352422,19.034090909090896,2910258.0,2904.0,0.0,1.0,0.0,?,0.0,0.0
1.0E7,74.5,9.994505671784282E-7,1.0E7,68.5,30.521858044024892,34.91735537190084,19.02313624678665,2970258.0,2904.0,0.0,1.0,0.0,?,0.0,0.0
