learning evaluation instances,evaluation time (cpu seconds),model cost (RAM-Hours),classified instances,classifications correct (percent),Kappa Statistic (percent),Kappa Temporal Statistic (percent),Kappa M Statistic (percent),model training instances,model serialized size (bytes),labeling cost,newThreshold,maxPosterior,accuracyBaseLearner (percent),Change detected,Warning detected
100000.0,0.140625,4.0739541873335835E-9,100000.0,71.8,0.0,30.882352941176467,0.0,489.0,7008.0,0.0,1.0,0.0,?,25.0,101.0
200000.0,0.28125,7.803610060364008E-9,200000.0,65.5,28.758456061519666,18.439716312056753,-17.74744027303752,1149.0,7320.0,0.0,1.0,0.0,?,26.0,111.0
300000.0,0.421875,1.1145020835101604E-8,300000.0,69.89999999999999,0.0,30.0,0.0,807.0,7008.0,0.0,1.0,0.0,?,26.0,112.0
400000.0,0.5625,1.4137185644358397E-8,400000.0,71.3,0.0,31.828978622327792,0.0,808.0,7008.0,0.0,1.0,0.0,?,26.0,117.0
500000.0,0.6875,1.6486446838825942E-8,500000.0,48.3,12.952411740143585,-22.51184834123222,-71.76079734219267,252.0,7008.0,0.0,1.0,0.0,?,26.0,72.0
600000.0,0.828125,1.8791470210999253E-8,600000.0,67.30000000000001,12.00215285252965,24.305555555555575,-8.99999999999997,1054.0,7320.0,0.0,1.0,0.0,?,26.0,125.0
700000.0,0.953125,2.0519849689056478E-8,700000.0,71.3,0.0,26.221079691516703,0.0,832.0,7008.0,0.0,1.0,0.0,?,27.0,136.0
800000.0,1.09375,2.2115030636390054E-8,800000.0,71.3,0.0,25.454545454545446,0.0,894.0,7008.0,0.0,1.0,0.0,?,25.0,93.0
900000.0,1.203125,2.3084091177831096E-8,900000.0,68.0,30.548622475333936,22.705314009661855,-10.726643598615887,275.0,7008.0,0.0,1.0,0.0,?,28.0,99.0
1000000.0,1.328125,2.3881148081272842E-8,1000000.0,67.4,31.534180405334457,15.544041450777216,-18.545454545454522,248.0,7008.0,0.0,1.0,0.0,?,26.0,96.0
1100000.0,1.46875,2.796994522213936E-8,1100000.0,66.9,33.0154772697837,28.04347826086957,-4.4164037854889635,7536.0,7320.0,0.0,1.0,0.0,?,21.0,101.0
1200000.0,1.609375,3.170891432091594E-8,1200000.0,65.3,32.902776703534684,15.365853658536599,-23.928571428571406,37536.0,7320.0,0.0,1.0,0.0,?,0.0,26.0
1300000.0,1.75,3.5105040296912195E-8,1300000.0,68.4,33.66946402408051,24.582338902147992,-7.849829351535805,67536.0,7320.0,0.0,1.0,0.0,?,0.0,48.0
1400000.0,1.890625,3.815745003521442E-8,1400000.0,67.4,33.860018584117476,20.487804878048795,-4.153354632587864,97536.0,7320.0,0.0,1.0,0.0,?,0.0,22.0
1500000.0,2.03125,4.085508408024907E-8,1500000.0,67.0,31.441107911696147,17.085427135678405,-16.60777385159008,127536.0,7320.0,0.0,1.0,0.0,?,0.0,32.0
1600000.0,2.15625,4.29425401509636E-8,1600000.0,65.4,32.88121915639841,17.42243436754178,-16.891891891891866,157536.0,7320.0,0.0,1.0,0.0,?,0.0,56.0
1700000.0,2.3125,4.516380916660031E-8,1700000.0,66.2,30.45725384336835,18.357487922705328,-10.457516339869253,187536.0,7320.0,0.0,1.0,0.0,?,0.0,0.0
1800000.0,2.4375,4.663038352090452E-8,1800000.0,69.89999999999999,37.27650848955163,25.124378109452728,-5.244755244755249,217536.0,7320.0,0.0,1.0,0.0,?,0.0,37.0
1900000.0,2.578125,4.793103370401595E-8,1900000.0,63.7,30.420848443957155,15.18691588785048,-21.40468227424747,247536.0,7320.0,0.0,1.0,0.0,?,0.0,1.0
2000000.0,2.6875,4.86710147621731E-8,2000000.0,64.2,29.726758793969854,3.243243243243246,-35.606060606060595,277536.0,7320.0,0.0,1.0,0.0,?,0.0,0.0
2100000.0,2.828125,5.276912512878577E-8,2100000.0,67.4,36.37013065593418,22.931442080378268,-8.305647840531531,307236.0,7320.0,0.0,1.0,0.0,?,0.0,0.0
2200000.0,2.96875,5.651798952991764E-8,2200000.0,63.5,29.443512282628028,9.429280397022339,-31.29496402877696,337236.0,7320.0,0.0,1.0,0.0,?,0.0,0.0
2300000.0,3.09375,5.9539872583829696E-8,2300000.0,67.9,36.42809046619402,23.389021479713623,-3.54838709677416,367236.0,7320.0,0.0,1.0,0.0,?,0.0,0.0
2400000.0,3.234375,6.259024505399996E-8,2400000.0,65.8,31.660412195619088,7.567567567567575,-22.5806451612903,397236.0,7320.0,0.0,1.0,0.0,?,0.0,0.0
2500000.0,3.34375,6.469112122431399E-8,2500000.0,66.3,31.8018083651052,19.952494061757736,-15.807560137457019,427236.0,7320.0,0.0,1.0,0.0,?,0.0,0.0
2600000.0,3.484375,6.704300176352264E-8,2600000.0,64.7,31.223941082492303,16.548463356974008,-6.969696969696977,457236.0,7320.0,0.0,1.0,0.0,?,0.0,0.0
2700000.0,3.625,6.904563633725048E-8,2700000.0,68.30000000000001,35.51668022782752,28.280542986425345,-5.666666666666634,487236.0,7320.0,0.0,1.0,0.0,?,0.0,0.0
2800000.0,3.75,7.051531510013674E-8,2800000.0,65.2,31.2926459438969,12.121212121212132,-29.850746268656696,517236.0,7320.0,0.0,1.0,0.0,?,0.0,0.0
2900000.0,3.890625,7.182498747068975E-8,2900000.0,68.7,34.11580462915408,23.095823095823114,-4.6822742474916055,547236.0,7320.0,0.0,1.0,0.0,?,0.0,1.0
3000000.0,4.03125,7.274001190024946E-8,3000000.0,69.1,0.4446162768219399,28.637413394919164,0.32258064516129054,1283.0,7320.0,0.0,1.0,0.0,?,5.0,31.0
3100000.0,4.15625,7.634034975328379E-8,3100000.0,68.89999999999999,4.3206458202581635,23.77450980392156,-0.6472491909385117,209.0,7008.0,0.0,1.0,0.0,?,26.0,130.0
3200000.0,4.28125,7.966051473178797E-8,3200000.0,68.60000000000001,0.0,26.63551401869161,0.0,836.0,7008.0,0.0,1.0,0.0,?,23.0,103.0
3300000.0,4.40625,8.2639970868412E-8,3300000.0,59.5,1.7657902396429763,-1.5037593984962419,-42.105263157894726,493.0,7008.0,0.0,1.0,0.0,?,26.0,114.0
3400000.0,4.546875,8.568801503214572E-8,3400000.0,70.8,25.252783821835383,29.807692307692307,-6.181818181818187,1031.0,7320.0,0.0,1.0,0.0,?,26.0,96.0
3500000.0,4.671875,8.808694676392609E-8,3500000.0,68.89999999999999,18.38384262515352,18.58638743455496,-13.91941391941393,1249.0,7320.0,0.0,1.0,0.0,?,26.0,88.0
3600000.0,4.796875,9.016146779888207E-8,3600000.0,70.0,0.0,31.662870159453284,0.0,755.0,7008.0,0.0,1.0,0.0,?,25.0,102.0
3700000.0,4.921875,9.189916050268545E-8,3700000.0,71.0,0.0,27.499999999999996,0.0,519.0,7008.0,0.0,1.0,0.0,?,26.0,99.0
3800000.0,5.0625,9.353246746791734E-8,3800000.0,61.1,26.154009704388237,9.324009324009332,-27.12418300653593,243.0,7008.0,0.0,1.0,0.0,?,26.0,89.0
3900000.0,5.1875,9.46795464389854E-8,3900000.0,69.6,0.0,26.034063260340627,0.0,568.0,7008.0,0.0,1.0,0.0,?,25.0,107.0
4000000.0,5.3125,9.54859165681733E-8,4000000.0,70.19999999999999,0.0,33.03370786516852,0.0,224.0,7008.0,0.0,1.0,0.0,?,25.0,132.0
4100000.0,5.4375,9.91196268134647E-8,4100000.0,70.5,0.0,28.915662650602407,0.0,545.0,7008.0,0.0,1.0,0.0,?,25.0,98.0
4200000.0,5.578125,1.0283560388618045E-7,4200000.0,67.10000000000001,27.967771598721384,17.955112219451387,-11.904761904761877,1147.0,7320.0,0.0,1.0,0.0,?,25.0,102.0
4300000.0,5.671875,1.0509522528284125E-7,4300000.0,69.89999999999999,13.945908856995809,28.16229116945107,-1.3468013468013478,231.0,7008.0,0.0,1.0,0.0,?,26.0,126.0
4400000.0,5.8125,1.0814676190622978E-7,4400000.0,69.8,0.0,26.699029126213585,0.0,1443.0,7320.0,0.0,1.0,0.0,?,25.0,102.0
4500000.0,5.9375,1.1050844073502553E-7,4500000.0,70.6,0.0,26.130653266331656,0.0,850.0,7008.0,0.0,1.0,0.0,?,27.0,88.0
4600000.0,6.046875,1.123032739592923E-7,4600000.0,47.3,1.9060382696746283,-22.843822843822835,-73.35526315789471,563.0,7008.0,0.0,1.0,0.0,?,28.0,83.0
4700000.0,6.171875,1.1405416039956939E-7,4700000.0,69.5,12.186751428044968,29.06976744186046,-4.452054794520551,1086.0,7320.0,0.0,1.0,0.0,?,25.0,82.0
4800000.0,6.3125,1.1567466167940032E-7,4800000.0,71.8,12.791237065579756,29.850746268656714,0.3533568904593642,1146.0,7320.0,0.0,1.0,0.0,?,26.0,123.0
4900000.0,6.4375,1.168349343869421E-7,4900000.0,69.8,3.3711316456344536,30.73394495412844,-5.594405594405599,1111.0,7320.0,0.0,1.0,0.0,?,25.0,102.0
5000000.0,6.546875,1.1758827086951996E-7,5000000.0,71.1,0.0,28.287841191066992,0.0,533.0,7008.0,0.0,1.0,0.0,?,27.0,153.0
5100000.0,6.6875,1.2171490298998023E-7,5100000.0,69.8,39.91795418644533,39.357429718875494,33.037694013303756,12277.0,7320.0,0.0,1.0,0.0,?,5.0,25.0
5200000.0,6.828125,1.254922891449597E-7,5200000.0,70.3,40.683043738765726,41.30434782608695,39.139344262295076,13758.0,7320.0,0.0,1.0,0.0,?,4.0,59.0
5300000.0,6.953125,1.2854469888326193E-7,5300000.0,69.5,38.40673365859962,38.1338742393509,33.26039387308533,18895.0,7320.0,0.0,1.0,0.0,?,2.0,81.0
5400000.0,7.09375,1.316235931072798E-7,5400000.0,67.30000000000001,35.22648939457567,37.35632183908047,30.2771855010661,3362.0,7320.0,0.0,1.0,0.0,?,7.0,65.0
5500000.0,7.234375,1.3431918988418246E-7,5500000.0,67.60000000000001,35.83624776714104,33.74233128834357,30.021598272138235,3300.0,7320.0,0.0,1.0,0.0,?,3.0,15.0
5600000.0,7.375,1.3671094267111684E-7,5600000.0,68.8,37.93366859761919,37.349397590361434,33.89830508474575,33300.0,7320.0,0.0,1.0,0.0,?,0.0,48.0
5700000.0,7.515625,1.3874791976478363E-7,5700000.0,67.80000000000001,36.36967244213988,31.779661016949156,24.766355140186935,63300.0,7320.0,0.0,1.0,0.0,?,0.0,63.0
5800000.0,7.65625,1.404411806207564E-7,5800000.0,68.4,37.067839276041184,34.16666666666667,31.601731601731608,93300.0,7320.0,0.0,1.0,0.0,?,0.0,92.0
5900000.0,7.78125,1.4163586052341592E-7,5900000.0,71.8,44.06715115356541,44.268774703557305,36.19909502262442,123300.0,7320.0,0.0,1.0,0.0,?,0.0,51.0
6000000.0,7.921875,1.4261287611184846E-7,6000000.0,69.39999999999999,38.1047930353733,38.67735470941883,31.39013452914796,17968.0,7320.0,0.0,1.0,0.0,?,3.0,9.0
6100000.0,8.0625,1.4673863511739503E-7,6100000.0,70.3,41.041481387371356,44.3820224719101,35.574837310195214,6839.0,7320.0,0.0,1.0,0.0,?,3.0,75.0
6200000.0,8.203125,1.505081632381512E-7,6200000.0,47.099999999999994,0.0,-11.36842105263159,-12.314225053078568,362.0,7008.0,0.0,1.0,0.0,?,6.0,74.0
6300000.0,8.328125,1.5355850337073206E-7,6300000.0,69.3,39.14574099475898,38.353413654618464,33.549783549783534,6804.0,7320.0,0.0,1.0,0.0,?,1.0,83.0
6400000.0,8.453125,1.5630849197299943E-7,6400000.0,72.0,43.810980137181474,41.787941787941776,40.552016985137996,28263.0,7320.0,0.0,1.0,0.0,?,2.0,10.0
6500000.0,8.59375,1.590352298484908E-7,6500000.0,60.699999999999996,17.976674486362835,20.925553319919512,13.24503311258277,1103.0,7320.0,0.0,1.0,0.0,?,9.0,104.0
6600000.0,8.734375,1.6138507311956747E-7,6600000.0,68.89999999999999,37.5195879105425,39.13894324853228,30.734966592427597,10176.0,7320.0,0.0,1.0,0.0,?,3.0,15.0
6700000.0,8.875,1.6342554267288906E-7,6700000.0,68.30000000000001,36.40769687535108,39.03846153846155,33.8204592901879,23814.0,7320.0,0.0,1.0,0.0,?,2.0,11.0
6800000.0,9.015625,1.6512229598851664E-7,6800000.0,69.19999999999999,38.98573692551505,34.88372093023254,31.555555555555536,13448.0,7320.0,0.0,1.0,0.0,?,2.0,92.0
6900000.0,9.140625,1.6630999097186655E-7,6900000.0,72.39999999999999,44.41871236683649,42.97520661157024,38.802660753880254,14792.0,7320.0,0.0,1.0,0.0,?,5.0,51.0
7000000.0,9.28125,1.6730272262874572E-7,7000000.0,69.5,39.414405466608386,33.55119825708059,25.06142506142505,44792.0,7320.0,0.0,1.0,0.0,?,0.0,15.0
7100000.0,9.40625,1.7097704888631897E-7,7100000.0,70.8,41.41722173180322,44.48669201520912,38.39662447257383,3273.0,7320.0,0.0,1.0,0.0,?,5.0,45.0
7200000.0,9.546875,1.7477277045448618E-7,7200000.0,71.6,42.350242575563804,41.92229038854805,36.179775280898866,33273.0,7320.0,0.0,1.0,0.0,?,0.0,99.0
7300000.0,9.6875,1.7820731348668533E-7,7300000.0,68.2,36.81525017584436,32.05128205128206,32.19616204690832,24913.0,7320.0,0.0,1.0,0.0,?,2.0,47.0
7400000.0,9.828125,1.8129261055340368E-7,7400000.0,68.8,38.485804416403774,36.969696969696955,27.102803738317753,54913.0,7320.0,0.0,1.0,0.0,?,0.0,31.0
7500000.0,9.96875,1.8402284088854988E-7,7500000.0,68.4,37.37117488504837,37.425742574257434,25.47169811320757,4330.0,7320.0,0.0,1.0,0.0,?,4.0,89.0
7600000.0,10.109375,1.8642157859479387E-7,7600000.0,71.3,42.49879788427632,43.50393700787401,43.28063241106719,34330.0,7320.0,0.0,1.0,0.0,?,0.0,2.0
7700000.0,10.25,1.8847107033555706E-7,7700000.0,70.8,41.98176001907447,45.215759849906185,35.54083885209712,64330.0,7320.0,0.0,1.0,0.0,?,0.0,0.0
7800000.0,10.375,1.8998239991358584E-7,7800000.0,67.0,35.03911432722177,32.098765432098766,18.918918918918934,94330.0,7320.0,0.0,1.0,0.0,?,0.0,0.0
7900000.0,10.515625,1.9133339972338742E-7,7900000.0,68.60000000000001,37.439481664189486,34.854771784232376,32.762312633832984,124330.0,7320.0,0.0,1.0,0.0,?,0.0,0.0
8000000.0,10.65625,1.923351535677082E-7,8000000.0,71.2,42.593116755235386,44.82758620689655,38.85350318471337,154330.0,7320.0,0.0,1.0,0.0,?,0.0,0.0
8100000.0,10.796875,1.9648361356101102E-7,8100000.0,71.2,42.82197383311163,39.74895397489539,37.2549019607843,184030.0,7320.0,0.0,1.0,0.0,?,0.0,0.0
8200000.0,10.9375,2.0028282758883303E-7,8200000.0,70.8,42.05061442225254,42.51968503937007,37.06896551724137,214030.0,7320.0,0.0,1.0,0.0,?,0.0,0.0
8300000.0,11.078125,2.0373279565117425E-7,8300000.0,68.7,37.68118250453952,39.45841392649905,30.905077262693165,244030.0,7320.0,0.0,1.0,0.0,?,0.0,0.0
8400000.0,11.21875,2.0683351774803465E-7,8400000.0,68.30000000000001,37.012692836535024,36.726546906187636,30.78602620087337,274030.0,7320.0,0.0,1.0,0.0,?,0.0,0.0
8500000.0,11.375,2.0989071344956756E-7,8500000.0,70.0,40.346467715508325,36.57505285412261,30.87557603686636,304030.0,7320.0,0.0,1.0,0.0,?,0.0,0.0
8600000.0,11.515625,2.1229294361546635E-7,8600000.0,69.8,40.155358275206076,39.11290322580644,34.34782608695651,334030.0,7320.0,0.0,1.0,0.0,?,0.0,0.0
8700000.0,11.65625,2.1434592781588435E-7,8700000.0,69.89999999999999,39.88416217295786,39.06882591093117,30.0,364030.0,7320.0,0.0,1.0,0.0,?,0.0,0.0
8800000.0,11.796875,2.1604966605082154E-7,8800000.0,69.3,39.0795656591313,38.59999999999999,33.11546840958604,394030.0,7320.0,0.0,1.0,0.0,?,0.0,0.0
8900000.0,11.9375,2.1740415832027792E-7,8900000.0,70.3,41.09947643979056,42.33009708737863,35.434782608695635,424030.0,7320.0,0.0,1.0,0.0,?,0.0,0.0
9000000.0,12.078125,2.184094046242535E-7,9000000.0,70.6,41.81144533244664,43.24324324324324,36.5010799136069,454030.0,7320.0,0.0,1.0,0.0,?,0.0,0.0
9100000.0,12.21875,2.2256135707721113E-7,9100000.0,71.39999999999999,43.06440888513742,42.454728370221325,37.417943107221,483730.0,7320.0,0.0,1.0,0.0,?,0.0,0.0
9200000.0,12.359375,2.2636406356468795E-7,9200000.0,69.69999999999999,39.71972657027127,39.27855711422845,34.27331887201734,513730.0,7320.0,0.0,1.0,0.0,?,0.0,0.0
9300000.0,12.5,2.2981752408668397E-7,9300000.0,67.10000000000001,34.85354919448096,34.98023715415021,25.733634311512414,543730.0,7320.0,0.0,1.0,0.0,?,0.0,0.0
9400000.0,12.640625,2.3292173864319918E-7,9400000.0,67.30000000000001,35.25265325518771,34.072580645161295,26.351351351351354,573730.0,7320.0,0.0,1.0,0.0,?,0.0,0.0
9500000.0,12.78125,2.356767072342336E-7,9500000.0,69.1,38.42413614443425,37.701612903225794,33.54838709677418,603730.0,7320.0,0.0,1.0,0.0,?,0.0,0.0
9600000.0,12.90625,2.378151273458368E-7,9600000.0,71.6,43.50372397988414,42.51012145748987,40.70981210855949,633730.0,7320.0,0.0,1.0,0.0,?,0.0,0.0
9700000.0,13.046875,2.3987160400590963E-7,9700000.0,69.89999999999999,40.55988246259814,41.89189189189189,30.32407407407407,663730.0,7320.0,0.0,1.0,0.0,?,0.0,0.0
9800000.0,13.1875,2.415788347005016E-7,9800000.0,69.69999999999999,39.829855512220675,40.35433070866141,34.4155844155844,693730.0,7320.0,0.0,1.0,0.0,?,0.0,0.0
9900000.0,13.328125,2.429368194296128E-7,9900000.0,73.8,47.77984620965395,50.4725897920605,45.302713987473894,723730.0,7320.0,0.0,1.0,0.0,?,0.0,0.0
1.0E7,13.46875,2.439455581932432E-7,1.0E7,68.2,37.004754358161655,34.836065573770504,29.646017699115053,753730.0,7320.0,0.0,1.0,0.0,?,0.0,0.0
