learning evaluation instances,evaluation time (cpu seconds),model cost (RAM-Hours),classified instances,classifications correct (percent),Kappa Statistic (percent),Kappa Temporal Statistic (percent),Kappa M Statistic (percent),model training instances,model serialized size (bytes),labeling cost,newThreshold,maxPosterior,accuracyBaseLearner (percent),Change detected,Warning detected
100000.0,0.328125,2.423669987668594E-9,100000.0,65.5,30.943650018415035,31.000000000000007,28.571428571428577,29820.0,2904.0,0.0,1.0,0.0,?,0.0,0.0
200000.0,0.640625,3.5276752896606924E-9,200000.0,66.7,33.52921919787933,34.83365949119375,29.59830866807611,59700.0,2904.0,0.0,1.0,0.0,?,0.0,0.0
300000.0,0.96875,6.2447118883331616E-9,300000.0,66.3,32.42972290171232,33.66141732283465,28.450106157112533,89520.0,2904.0,0.0,1.0,0.0,?,0.0,28.0
400000.0,1.296875,7.697284066428741E-9,400000.0,68.0,35.85451804693045,37.37769080234835,32.34672304439747,119400.0,2904.0,0.0,1.0,0.0,?,0.0,0.0
500000.0,1.609375,1.0346379389779436E-8,500000.0,65.5,30.990614723602423,34.034416826003834,31.13772455089821,149220.0,2904.0,0.0,1.0,0.0,?,0.0,0.0
600000.0,1.9375,1.1863465058720775E-8,600000.0,65.8,31.53098323109696,34.60803059273424,29.045643153526974,179100.0,2904.0,0.0,1.0,0.0,?,0.0,0.0
700000.0,2.28125,1.4845055476244954E-8,700000.0,65.0,29.97843335747411,29.149797570850204,29.00608519269777,208920.0,2904.0,0.0,1.0,0.0,?,0.0,0.0
800000.0,2.59375,1.6351340390327904E-8,800000.0,66.2,32.23492427553521,30.309278350515466,28.23779193205945,238800.0,2904.0,0.0,1.0,0.0,?,0.0,0.0
900000.0,2.921875,1.9261917461537653E-8,900000.0,68.2,36.22244328209736,38.132295719844365,28.054298642533944,268620.0,2904.0,0.0,1.0,0.0,?,0.0,0.0
1000000.0,3.25,2.090803011217051E-8,1000000.0,64.1,28.21033771136956,27.327935222672068,26.883910386965375,298500.0,2904.0,0.0,1.0,0.0,?,0.0,0.0
1100000.0,3.578125,2.3883120674226018E-8,1100000.0,67.10000000000001,34.0189479932936,32.719836400818004,27.0509977827051,328320.0,2904.0,0.0,1.0,0.0,?,0.0,0.0
1200000.0,3.890625,2.5512288428015178E-8,1200000.0,67.7,35.4480266681589,36.291913214990146,31.13006396588487,358200.0,2904.0,0.0,1.0,0.0,?,0.0,0.0
1300000.0,4.21875,2.8551892480916444E-8,1300000.0,65.8,31.574545731011938,33.84912959381045,29.774127310061605,388020.0,2904.0,0.0,1.0,0.0,?,0.0,0.0
1400000.0,4.546875,3.032703211324082E-8,1400000.0,69.1,38.013047350810034,36.93877551020407,34.810126582278464,417900.0,2904.0,0.0,1.0,0.0,?,0.0,0.0
1500000.0,4.859375,3.328333453585704E-8,1500000.0,66.4,32.89743292738944,31.288343558282218,28.051391862955033,447720.0,2904.0,0.0,1.0,0.0,?,0.0,0.0
1600000.0,5.203125,3.5210590188701946E-8,1600000.0,66.7,33.35521470428128,35.33980582524273,29.894736842105267,477600.0,2904.0,0.0,1.0,0.0,?,0.0,0.0
1700000.0,5.53125,3.837922122329473E-8,1700000.0,66.5,32.9731892757103,33.00000000000001,30.208333333333336,507420.0,2904.0,0.0,1.0,0.0,?,0.0,0.0
1800000.0,5.859375,4.028338783731063E-8,1800000.0,64.9,29.80842298924129,31.311154598825837,25.319148936170212,537300.0,2904.0,0.0,1.0,0.0,?,0.0,0.0
1900000.0,6.171875,4.336257309963305E-8,1900000.0,64.0,27.996831860601873,22.746781115879827,28.429423459244536,567120.0,2904.0,0.0,1.0,0.0,?,0.0,0.0
2000000.0,6.5,4.533125320449471E-8,2000000.0,64.9,29.502217366154625,25.635593220338983,25.0,597000.0,2904.0,0.0,1.0,0.0,?,0.0,0.0
2100000.0,6.8125,4.847187988667024E-8,2100000.0,65.9,31.721889841979227,31.936127744510983,28.059071729957807,626820.0,2904.0,0.0,1.0,0.0,?,0.0,0.0
2200000.0,7.171875,5.0698710967683126E-8,2200000.0,67.9,35.86977368622939,33.540372670807464,34.3558282208589,656700.0,2904.0,0.0,1.0,0.0,?,0.0,0.0
2300000.0,7.484375,5.390077906971176E-8,2300000.0,66.10000000000001,31.89926716379533,28.78151260504202,25.0,686520.0,2904.0,0.0,1.0,0.0,?,0.0,0.0
2400000.0,7.8125,5.599848615626493E-8,2400000.0,67.7,35.125972106176484,35.912698412698425,30.835117773019277,716400.0,2904.0,0.0,1.0,0.0,?,0.0,0.0
2500000.0,8.125,5.9261995678146674E-8,2500000.0,65.3,30.57834044221797,33.26923076923078,28.747433264887068,746220.0,2904.0,0.0,1.0,0.0,?,0.0,0.0
2600000.0,8.453125,6.142421625554562E-8,2600000.0,66.3,32.59352897878197,30.942622950819676,29.20168067226891,776100.0,2904.0,0.0,1.0,0.0,?,0.0,0.0
2700000.0,8.78125,6.49154147443672E-8,2700000.0,67.5,34.95264552594289,31.86582809224319,33.12757201646092,805920.0,2904.0,0.0,1.0,0.0,?,0.0,0.0
2800000.0,9.109375,6.71421488126119E-8,2800000.0,68.60000000000001,37.12454945935122,42.066420664206646,35.91836734693879,835800.0,2904.0,0.0,1.0,0.0,?,0.0,0.0
2900000.0,9.4375,7.069786079227924E-8,2900000.0,68.2,36.43661251119356,37.890625000000014,31.465517241379317,865620.0,2904.0,0.0,1.0,0.0,?,0.0,0.0
3000000.0,9.75,7.288000132474634E-8,3000000.0,65.10000000000001,30.189947352418756,30.33932135728543,30.891089108910897,895500.0,2904.0,0.0,1.0,0.0,?,0.0,0.0
3100000.0,10.078125,7.650022679525944E-8,3100000.0,69.8,39.60579784340703,39.720558882235515,38.3673469387755,925320.0,2904.0,0.0,1.0,0.0,?,0.0,0.0
3200000.0,10.40625,7.885598784519565E-8,3200000.0,68.89999999999999,37.636357802874734,37.04453441295546,32.24400871459693,955200.0,2904.0,0.0,1.0,0.0,?,0.0,0.0
3300000.0,10.71875,8.236526304648981E-8,3300000.0,67.4,34.606172695870576,33.604887983706725,29.28416485900217,985020.0,2904.0,0.0,1.0,0.0,?,0.0,0.0
3400000.0,11.046875,8.478553758727178E-8,3400000.0,63.7,27.279574976160514,22.929936305732483,21.93548387096774,1014900.0,2904.0,0.0,1.0,0.0,?,0.0,0.0
3500000.0,11.375,8.85347900394764E-8,3500000.0,65.0,29.509669259368152,27.685950413223143,22.737306843267106,1044720.0,2904.0,0.0,1.0,0.0,?,0.0,0.0
3600000.0,11.6875,9.090125483150282E-8,3600000.0,66.10000000000001,32.04833187674891,29.521829521829524,29.22755741127349,1074600.0,2904.0,0.0,1.0,0.0,?,0.0,0.0
3700000.0,12.015625,9.47150207745532E-8,3700000.0,65.5,30.997239889595583,30.583501006036222,30.020283975659233,1104420.0,2904.0,0.0,1.0,0.0,?,0.0,0.0
3800000.0,12.328125,9.714292698643273E-8,3800000.0,68.8,37.600748791014496,36.969696969696955,37.22334004024144,1134300.0,2904.0,0.0,1.0,0.0,?,0.0,0.0
3900000.0,12.640625,1.008365264472862E-7,3900000.0,65.60000000000001,30.999069289771818,29.65235173824131,23.21428571428571,1164120.0,2904.0,0.0,1.0,0.0,?,0.0,0.0
4000000.0,12.96875,1.0345034146060545E-7,4000000.0,68.10000000000001,36.14687419933386,36.32734530938125,34.49691991786448,1194000.0,2904.0,0.0,1.0,0.0,?,0.0,0.0
4100000.0,13.296875,1.0479969205334781E-7,4100000.0,66.0,31.82984729885795,32.539682539682545,24.107142857142858,1223880.0,2904.0,0.0,1.0,0.0,?,0.0,0.0
4200000.0,13.625,1.0747802055751282E-7,4200000.0,65.3,30.208048399813354,31.960784313725497,24.728850325379607,1253700.0,2904.0,0.0,1.0,0.0,?,0.0,0.0
4300000.0,13.9375,1.0882455777997771E-7,4300000.0,66.4,32.831971981336885,28.8135593220339,30.43478260869566,1283580.0,2904.0,0.0,1.0,0.0,?,0.0,0.0
4400000.0,14.265625,1.1156739977498848E-7,4400000.0,66.60000000000001,33.207747901243465,36.01532567049809,29.087048832271766,1313400.0,2904.0,0.0,1.0,0.0,?,0.0,0.0
4500000.0,14.578125,1.1297537841730646E-7,4500000.0,67.10000000000001,33.98611501264097,27.533039647577095,30.000000000000004,1343280.0,2904.0,0.0,1.0,0.0,?,0.0,0.0
4600000.0,14.890625,1.156490503085984E-7,4600000.0,68.0,36.01254154185781,38.931297709923676,35.091277890466536,1373100.0,2904.0,0.0,1.0,0.0,?,0.0,0.0
4700000.0,15.234375,1.172654123769866E-7,4700000.0,70.0,40.01655543070111,39.87975951903807,37.888198757763966,1402980.0,2904.0,0.0,1.0,0.0,?,0.0,0.0
4800000.0,15.5625,1.2013728135368888E-7,4800000.0,68.2,36.45210927039829,36.27254509018037,30.71895424836602,1432800.0,2904.0,0.0,1.0,0.0,?,0.0,0.0
4900000.0,15.875,1.2166814283571308E-7,4900000.0,65.2,30.32977241058989,31.89823874755382,27.800829875518673,1462680.0,2904.0,0.0,1.0,0.0,?,0.0,0.0
5000000.0,16.203125,1.248007821333077E-7,5000000.0,66.0,31.82984729885795,32.539682539682545,28.27004219409283,1492500.0,2904.0,0.0,1.0,0.0,?,0.0,0.0
5100000.0,16.53125,1.2661530894951684E-7,5100000.0,70.3,37.2872623461743,37.07627118644067,27.027027027027025,24064.0,2904.0,0.0,1.0,0.0,?,1.0,41.0
5200000.0,16.828125,1.2945943227451705E-7,5200000.0,72.1,40.12155967240698,44.86166007905138,30.423940149625935,53884.0,2904.0,0.0,1.0,0.0,?,0.0,0.0
5300000.0,17.140625,1.3124899447171222E-7,5300000.0,69.8,36.57567446099822,37.08333333333332,26.161369193154027,83764.0,2904.0,0.0,1.0,0.0,?,0.0,0.0
5400000.0,17.46875,1.3445701269018978E-7,5400000.0,71.89999999999999,40.24531319111292,43.912175648702586,29.040404040404038,113584.0,2904.0,0.0,1.0,0.0,?,0.0,0.0
5500000.0,17.796875,1.3640056648809045E-7,5500000.0,70.39999999999999,37.613023702835655,38.33333333333332,26.18453865336658,143464.0,2904.0,0.0,1.0,0.0,?,0.0,0.0
5600000.0,18.109375,1.3951726335411265E-7,5600000.0,70.6,38.15734118636937,40.8450704225352,29.665071770334926,173284.0,2904.0,0.0,1.0,0.0,?,0.0,0.0
5700000.0,18.4375,1.415253306428591E-7,5700000.0,74.0,45.008460236886634,47.686116700201204,38.0952380952381,203164.0,2904.0,0.0,1.0,0.0,?,0.0,0.0
5800000.0,18.765625,1.4486237584302818E-7,5800000.0,69.5,35.12957070664102,37.11340206185566,21.18863049095606,232984.0,2904.0,0.0,1.0,0.0,?,0.0,0.0
5900000.0,19.09375,1.4693495662262037E-7,5900000.0,68.60000000000001,34.49162160357835,36.04887983706722,27.314814814814838,262864.0,2904.0,0.0,1.0,0.0,?,0.0,0.0
6000000.0,19.421875,1.5033651531363522E-7,6000000.0,68.0,32.71854907551082,35.22267206477734,22.14111922141121,292684.0,2904.0,0.0,1.0,0.0,?,0.0,0.0
6100000.0,19.734375,1.523718431902428E-7,6100000.0,68.5,33.61433087460487,34.10041841004185,24.096385542168694,322564.0,2904.0,0.0,1.0,0.0,?,0.0,0.0
6200000.0,20.046875,1.5567286431582434E-7,6200000.0,69.1,35.16466915097189,37.82696177062373,26.95035460992907,352384.0,2904.0,0.0,1.0,0.0,?,0.0,0.0
6300000.0,20.359375,1.5776963361228503E-7,6300000.0,69.69999999999999,36.57000745250076,38.28920570264765,28.199052132701418,382264.0,2904.0,0.0,1.0,0.0,?,0.0,0.0
6400000.0,20.703125,1.6146834241226313E-7,6400000.0,71.39999999999999,39.46449359720605,41.86991869918699,29.38271604938271,412084.0,2904.0,0.0,1.0,0.0,?,0.0,0.0
6500000.0,21.03125,1.6373446366439262E-7,6500000.0,69.8,34.749259987468385,37.9876796714579,23.544303797468345,441964.0,2904.0,0.0,1.0,0.0,?,0.0,0.0
6600000.0,21.328125,1.6698717243141598E-7,6600000.0,69.6,35.09515818420164,33.18681318681317,24.56575682382133,471784.0,2904.0,0.0,1.0,0.0,?,0.0,0.0
6700000.0,21.640625,1.6920682456758287E-7,6700000.0,71.2,39.07804778988695,37.931034482758605,28.71287128712871,501664.0,2904.0,0.0,1.0,0.0,?,0.0,0.0
6800000.0,21.96875,1.7286643722198074E-7,6800000.0,70.0,36.38676844783714,38.77551020408162,24.999999999999993,531484.0,2904.0,0.0,1.0,0.0,?,0.0,0.0
6900000.0,22.265625,1.7503347610019975E-7,6900000.0,72.0,39.07029981764611,38.46153846153845,27.648578811369507,561364.0,2904.0,0.0,1.0,0.0,?,0.0,0.0
7000000.0,22.59375,1.787576022454434E-7,7000000.0,69.0,33.519763930826244,34.73684210526314,21.717171717171706,591184.0,2904.0,0.0,1.0,0.0,?,0.0,0.0
7100000.0,22.90625,1.811001372213165E-7,7100000.0,69.8,36.996178046297366,40.07936507936507,27.7511961722488,621064.0,2904.0,0.0,1.0,0.0,?,0.0,0.0
7200000.0,23.21875,1.8476204584456152E-7,7200000.0,72.3,41.13046509057831,45.47244094488189,29.695431472081214,650884.0,2904.0,0.0,1.0,0.0,?,0.0,59.0
7300000.0,23.546875,1.8734258547839192E-7,7300000.0,65.5,26.841681156961712,30.44354838709678,14.17910447761195,680764.0,2904.0,0.0,1.0,0.0,?,0.0,88.0
7400000.0,23.875,1.912358048785892E-7,7400000.0,70.0,36.332767402376895,37.499999999999986,24.999999999999993,710584.0,2904.0,0.0,1.0,0.0,?,0.0,81.0
7500000.0,24.203125,1.9386455985820958E-7,7500000.0,69.69999999999999,37.466979262977134,40.47151277013752,29.698375870069604,740464.0,2904.0,0.0,1.0,0.0,?,0.0,0.0
7600000.0,24.53125,1.978222927492526E-7,7600000.0,70.19999999999999,37.103201404835865,38.17427385892115,28.36538461538461,770284.0,2904.0,0.0,1.0,0.0,?,0.0,0.0
7700000.0,24.828125,2.0025905946062673E-7,7700000.0,69.0,35.49326841042928,36.344969199178635,28.40646651270207,800164.0,2904.0,0.0,1.0,0.0,?,0.0,0.0
7800000.0,25.171875,2.0447284138451022E-7,7800000.0,72.39999999999999,42.377071084981296,46.09374999999999,35.51401869158879,829984.0,2904.0,0.0,1.0,0.0,?,0.0,0.0
7900000.0,25.484375,2.0709930039528346E-7,7900000.0,70.8,37.84906688462062,39.669421487603294,28.431372549019603,859864.0,2904.0,0.0,1.0,0.0,?,0.0,0.0
8000000.0,25.796875,2.1099145265503065E-7,8000000.0,71.1,38.38058199433698,37.849462365591386,27.020202020202017,889684.0,2904.0,0.0,1.0,0.0,?,0.0,0.0
8100000.0,26.125,2.138137481071883E-7,8100000.0,69.39999999999999,36.24149886651553,35.84905660377357,27.83018867924528,919564.0,2904.0,0.0,1.0,0.0,?,0.0,0.0
8200000.0,26.421875,2.1522321427861852E-7,8200000.0,70.7,37.96420979530307,38.44537815126049,29.227053140096615,949444.0,2904.0,0.0,1.0,0.0,?,0.0,0.0
8300000.0,26.734375,2.1797255612909795E-7,8300000.0,72.39999999999999,40.403185406553916,41.27659574468085,29.9492385786802,979264.0,2904.0,0.0,1.0,0.0,?,0.0,0.0
8400000.0,27.078125,2.1967215515259242E-7,8400000.0,72.7,40.74749316317229,39.19821826280623,26.21621621621621,1009144.0,2904.0,0.0,1.0,0.0,?,0.0,0.0
8500000.0,27.40625,2.226234775864416E-7,8500000.0,71.2,38.981240969011786,39.99999999999999,30.26634382566586,1038964.0,2904.0,0.0,1.0,0.0,?,0.0,0.0
8600000.0,27.71875,2.242300090276533E-7,8600000.0,70.0,37.12273641851105,35.20518358531316,27.18446601941747,1068844.0,2904.0,0.0,1.0,0.0,?,0.0,0.0
8700000.0,28.03125,2.2710223371783895E-7,8700000.0,71.6,40.92219619655434,42.393509127789045,35.01144164759726,1098664.0,2904.0,0.0,1.0,0.0,?,0.0,0.0
8800000.0,28.359375,2.2885360522195698E-7,8800000.0,70.1,37.638696544474655,37.184873949579824,30.787037037037035,1128544.0,2904.0,0.0,1.0,0.0,?,0.0,0.0
8900000.0,28.6875,2.3193395463749768E-7,8900000.0,69.39999999999999,36.82619772161409,39.28571428571427,28.337236533957842,1158364.0,2904.0,0.0,1.0,0.0,?,0.0,0.0
9000000.0,29.0,2.336633689184156E-7,9000000.0,72.8,43.084565454842206,44.032921810699584,34.14043583535109,1188244.0,2904.0,0.0,1.0,0.0,?,0.0,0.0
9100000.0,29.328125,2.3680823182480204E-7,9100000.0,72.3,40.71569214964472,43.23770491803278,29.873417721518987,1218064.0,2904.0,0.0,1.0,0.0,?,0.0,0.0
9200000.0,29.65625,2.386886303106116E-7,9200000.0,70.7,37.34764572552708,38.18565400843881,25.822784810126574,1247944.0,2904.0,0.0,1.0,0.0,?,0.0,0.0
9300000.0,29.96875,2.417451792603566E-7,9300000.0,69.69999999999999,35.49293615716731,36.34453781512604,21.70542635658914,1277764.0,2904.0,0.0,1.0,0.0,?,0.0,0.0
9400000.0,30.28125,2.435974763809807E-7,9400000.0,73.6,44.1860465116279,47.199999999999996,35.60975609756098,1307644.0,2904.0,0.0,1.0,0.0,?,0.0,0.0
9500000.0,30.609375,2.4687136626905866E-7,9500000.0,71.39999999999999,39.56937900141567,39.534883720930225,28.67830423940149,1337464.0,2904.0,0.0,1.0,0.0,?,0.0,0.0
9600000.0,30.9375,2.4888079173655973E-7,9600000.0,71.8,41.203207552677334,41.12734864300626,33.0166270783848,1367344.0,2904.0,0.0,1.0,0.0,?,0.0,0.0
9700000.0,31.234375,2.5190125193653835E-7,9700000.0,70.6,38.242559698858955,39.99999999999999,29.665071770334926,1397164.0,2904.0,0.0,1.0,0.0,?,0.0,0.0
9800000.0,31.5625,2.539751908948852E-7,9800000.0,73.0,40.97586568730324,40.52863436123347,24.999999999999993,1427044.0,2904.0,0.0,1.0,0.0,?,0.0,0.0
9900000.0,31.875,2.572160641041895E-7,9900000.0,66.9,30.37090639830367,28.509719222462206,21.002386634844886,1456864.0,2904.0,0.0,1.0,0.0,?,0.0,0.0
1.0E7,32.1875,2.5925268548437293E-7,1.0E7,71.1,38.54411214317307,38.90063424947145,29.85436893203883,1486744.0,2904.0,0.0,1.0,0.0,?,0.0,0.0
