learning evaluation instances,evaluation time (cpu seconds),model cost (RAM-Hours),classified instances,classifications correct (percent),Kappa Statistic (percent),Kappa Temporal Statistic (percent),Kappa M Statistic (percent),model training instances,model serialized size (bytes),labeling cost,newThreshold,maxPosterior,accuracyBaseLearner (percent),Change detected,Warning detected
100000.0,0.109375,4.453468136489391E-9,100000.0,68.10000000000001,0.0,25.813953488372114,0.0,2754.0,5160.0,0.0,1.0,0.0,?,2.0,7.0
200000.0,0.203125,7.91934629281362E-9,200000.0,67.30000000000001,0.0,24.82758620689657,0.0,1443.0,5160.0,0.0,1.0,0.0,?,3.0,5.0
300000.0,0.328125,1.2006558891799715E-8,300000.0,66.2,0.0,22.654462242562946,0.0,1141.0,5160.0,0.0,1.0,0.0,?,3.0,10.0
400000.0,0.421875,1.4722722375558482E-8,400000.0,66.8,0.0,22.790697674418624,0.0,2951.0,5160.0,0.0,1.0,0.0,?,2.0,3.0
500000.0,0.53125,1.7545017827716137E-8,500000.0,67.80000000000001,0.0,23.333333333333353,0.0,1664.0,5160.0,0.0,1.0,0.0,?,3.0,7.0
600000.0,0.640625,1.9898967972646154E-8,600000.0,66.5,0.0,21.361502347417858,0.0,4457.0,5160.0,0.0,1.0,0.0,?,2.0,7.0
700000.0,0.734375,2.16254071953396E-8,700000.0,65.4,0.0,19.72157772621811,0.0,143.0,4856.0,0.0,1.0,0.0,?,3.0,25.0
800000.0,0.84375,2.3164450087481072E-8,800000.0,65.2,0.0,22.666666666666664,0.0,3947.0,5160.0,0.0,1.0,0.0,?,2.0,7.0
900000.0,0.953125,2.437662462600403E-8,900000.0,66.8,0.0,23.325635103926114,0.0,2660.0,5160.0,0.0,1.0,0.0,?,3.0,22.0
1000000.0,1.0625,2.5092158466577526E-8,1000000.0,68.10000000000001,0.0,24.941176470588257,0.0,241.0,4856.0,0.0,1.0,0.0,?,4.0,9.0
1100000.0,1.15625,2.891038699696461E-8,1100000.0,68.5,0.0,26.056338028169034,0.0,2961.0,5160.0,0.0,1.0,0.0,?,2.0,14.0
1200000.0,1.265625,3.289822618373566E-8,1200000.0,65.2,0.0,25.0,0.0,2673.0,5160.0,0.0,1.0,0.0,?,3.0,6.0
1300000.0,1.375,3.6470009945333E-8,1300000.0,66.8,0.0,26.05790645879733,0.0,357.0,4856.0,0.0,1.0,0.0,?,3.0,9.0
1400000.0,1.46875,3.924185875803232E-8,1400000.0,67.30000000000001,0.0,28.446389496717728,0.0,1395.0,5160.0,0.0,1.0,0.0,?,3.0,18.0
1500000.0,1.578125,4.199850890371534E-8,1500000.0,52.7,5.538291940598959,-19.746835443037963,-49.211356466876985,58.0,4848.0,0.0,1.0,0.0,?,3.0,7.0
1600000.0,1.6875,4.443213886891802E-8,1600000.0,66.2,0.0,25.221238938053098,0.0,1873.0,5160.0,0.0,1.0,0.0,?,2.0,10.0
1700000.0,1.78125,4.610405691588918E-8,1700000.0,70.5,0.0,30.424528301886788,0.0,3647.0,5160.0,0.0,1.0,0.0,?,2.0,2.0
1800000.0,1.890625,4.763857254551516E-8,1800000.0,65.9,0.0,21.247113163972305,0.0,348.0,4856.0,0.0,1.0,0.0,?,3.0,3.0
1900000.0,2.0,4.8834675302108124E-8,1900000.0,63.800000000000004,0.0,20.960698689956327,0.0,2148.0,5160.0,0.0,1.0,0.0,?,2.0,10.0
2000000.0,2.109375,4.963962257736258E-8,2000000.0,68.4,0.0,24.038461538461558,0.0,3953.0,5160.0,0.0,1.0,0.0,?,2.0,14.0
2100000.0,2.21875,5.40928643507262E-8,2100000.0,67.10000000000001,0.0,23.488372093023273,0.0,556.0,4856.0,0.0,1.0,0.0,?,3.0,6.0
2200000.0,2.328125,5.8084778073761186E-8,2200000.0,68.89999999999999,0.0,26.477541371158388,0.0,2361.0,5160.0,0.0,1.0,0.0,?,2.0,33.0
2300000.0,2.4375,6.166018364537092E-8,2300000.0,66.4,0.0,25.16703786191537,0.0,53.0,4840.0,0.0,1.0,0.0,?,3.0,3.0
2400000.0,2.546875,6.491505903088383E-8,2400000.0,67.9,0.0,26.376146788990845,0.0,1853.0,5160.0,0.0,1.0,0.0,?,2.0,18.0
2500000.0,2.640625,6.728158849808904E-8,2500000.0,66.9,0.0,25.45045045045045,0.0,539.0,4856.0,0.0,1.0,0.0,?,3.0,12.0
2600000.0,2.75,6.963508591676751E-8,2600000.0,67.9,0.0,29.60526315789474,0.0,257.0,4856.0,0.0,1.0,0.0,?,3.0,4.0
2700000.0,2.859375,7.158973150783114E-8,2700000.0,68.89999999999999,0.0,20.66326530612244,0.0,3046.0,5160.0,0.0,1.0,0.0,?,2.0,2.0
2800000.0,2.96875,7.318989244393176E-8,2800000.0,70.1,0.0,29.812206572769952,0.0,747.0,4856.0,0.0,1.0,0.0,?,3.0,5.0
2900000.0,3.0625,7.416681101959611E-8,2900000.0,65.4,0.0,24.12280701754386,0.0,2558.0,5160.0,0.0,1.0,0.0,?,2.0,3.0
3000000.0,3.171875,7.497266374735367E-8,3000000.0,66.60000000000001,0.0,29.237288135593225,0.0,1246.0,5160.0,0.0,1.0,0.0,?,3.0,10.0
3100000.0,3.28125,7.945148455392982E-8,3100000.0,68.89999999999999,0.0,26.995305164319245,0.0,3957.0,5160.0,0.0,1.0,0.0,?,2.0,36.0
3200000.0,3.390625,8.352647354412409E-8,3200000.0,67.4,0.0,24.186046511627925,0.0,1650.0,5160.0,0.0,1.0,0.0,?,3.0,6.0
3300000.0,3.515625,8.762765598172941E-8,3300000.0,68.60000000000001,0.0,29.753914988814323,0.0,1142.0,5160.0,0.0,1.0,0.0,?,4.0,4.0
3400000.0,3.640625,9.135346368162166E-8,3400000.0,67.9,0.0,28.348214285714292,0.0,1953.0,5160.0,0.0,1.0,0.0,?,2.0,16.0
3500000.0,3.75,9.420360179824959E-8,3500000.0,65.5,0.0,23.672566371681413,0.0,4747.0,5160.0,0.0,1.0,0.0,?,2.0,17.0
3600000.0,3.875,9.690780037393169E-8,3600000.0,70.6,0.0,28.813559322033893,0.0,3561.0,5160.0,0.0,1.0,0.0,?,2.0,2.0
3700000.0,3.984375,9.886652050125926E-8,3700000.0,69.69999999999999,0.0,31.60270880361172,0.0,1157.0,5160.0,0.0,1.0,0.0,?,4.0,39.0
3800000.0,4.109375,1.0072528513976266E-7,3800000.0,64.7,0.0,17.523364485981322,0.0,2868.0,5160.0,0.0,1.0,0.0,?,3.0,11.0
3900000.0,4.234375,1.0203249985352154E-7,3900000.0,66.60000000000001,0.0,25.112107623318387,0.0,3647.0,5160.0,0.0,1.0,0.0,?,2.0,4.0
4000000.0,4.359375,1.0296097672027014E-7,4000000.0,67.10000000000001,0.0,25.900900900900904,0.0,1347.0,5160.0,0.0,1.0,0.0,?,3.0,23.0
4100000.0,4.484375,1.0799813834536402E-7,4100000.0,67.2,0.0,24.423963133640573,0.0,3048.0,5160.0,0.0,1.0,0.0,?,2.0,2.0
4200000.0,4.59375,1.1206973188867167E-7,4200000.0,67.2,0.0,21.904761904761923,0.0,751.0,4856.0,0.0,1.0,0.0,?,3.0,6.0
4300000.0,4.703125,1.1571598911864886E-7,4300000.0,67.2,0.0,23.543123543123563,0.0,448.0,4856.0,0.0,1.0,0.0,?,3.0,9.0
4400000.0,4.796875,1.185151955319775E-7,4400000.0,68.4,0.0,23.671497584541083,0.0,2014.0,5160.0,0.0,1.0,0.0,?,3.0,27.0
4500000.0,4.90625,1.2129289744835756E-7,4500000.0,65.9,0.0,26.82403433476395,0.0,4858.0,5160.0,0.0,1.0,0.0,?,2.0,15.0
4600000.0,5.015625,1.2365454393956393E-7,4600000.0,68.5,0.0,29.84409799554566,0.0,533.0,4856.0,0.0,1.0,0.0,?,3.0,29.0
4700000.0,5.125,1.2561733860315545E-7,4700000.0,69.39999999999999,0.0,22.72727272727272,0.0,4350.0,5160.0,0.0,1.0,0.0,?,2.0,8.0
4800000.0,5.25,1.2748567516812018E-7,4800000.0,68.8,0.0,24.637681159420282,0.0,1052.0,5160.0,0.0,1.0,0.0,?,3.0,16.0
4900000.0,5.375,1.2887877851931583E-7,4900000.0,67.10000000000001,0.0,26.7260579064588,0.0,3861.0,5160.0,0.0,1.0,0.0,?,2.0,19.0
5000000.0,5.484375,1.2977132832424506E-7,5000000.0,65.4,0.0,22.595078299776283,0.0,2541.0,5160.0,0.0,1.0,0.0,?,3.0,10.0
5100000.0,5.578125,1.3370985268718665E-7,5100000.0,64.3,0.0,22.052401746724886,0.0,9844.0,5168.0,0.0,1.0,0.0,?,1.0,2.0
5200000.0,5.671875,1.3729913108464743E-7,5200000.0,62.1,0.0,19.70338983050847,0.0,19844.0,5168.0,0.0,1.0,0.0,?,0.0,0.0
5300000.0,5.78125,1.410791689219574E-7,5300000.0,61.8,0.0,22.983870967741936,0.0,29844.0,5168.0,0.0,1.0,0.0,?,0.0,0.0
5400000.0,5.890625,1.4445175313287309E-7,5400000.0,63.4,0.0,25.910931174089068,0.0,39844.0,5168.0,0.0,1.0,0.0,?,0.0,0.0
5500000.0,6.0,1.474168837173945E-7,5500000.0,60.8,0.0,17.819706498951778,0.0,49844.0,5168.0,0.0,1.0,0.0,?,0.0,0.0
5600000.0,6.109375,1.4997456067552165E-7,5600000.0,60.8,0.0,18.16283924843423,0.0,59844.0,5168.0,0.0,1.0,0.0,?,0.0,0.0
5700000.0,6.21875,1.5212478400725452E-7,5700000.0,63.800000000000004,0.0,21.132897603485834,0.0,69844.0,5168.0,0.0,1.0,0.0,?,0.0,0.0
5800000.0,6.34375,1.541165208133558E-7,5800000.0,64.1,0.0,22.4622030237581,0.0,79844.0,5168.0,0.0,1.0,0.0,?,0.0,0.0
5900000.0,6.4375,1.5526107745245095E-7,5900000.0,61.1,0.0,19.95884773662551,0.0,89844.0,5168.0,0.0,1.0,0.0,?,0.0,0.0
6000000.0,6.546875,1.56188939905001E-7,6000000.0,60.9,0.0,17.684210526315784,0.0,99844.0,5168.0,0.0,1.0,0.0,?,0.0,0.0
6100000.0,6.65625,1.6078795953136347E-7,6100000.0,61.5,0.0,17.381974248927033,0.0,109744.0,5168.0,0.0,1.0,0.0,?,0.0,0.0
6200000.0,6.765625,1.6497952553133165E-7,6200000.0,63.1,0.0,23.284823284823283,0.0,119744.0,5168.0,0.0,1.0,0.0,?,0.0,0.0
6300000.0,6.875,1.6876363790490557E-7,6300000.0,60.4,0.0,22.957198443579767,0.0,129744.0,5168.0,0.0,1.0,0.0,?,0.0,0.0
6400000.0,6.984375,1.721402966520852E-7,6400000.0,63.7,0.0,16.55172413793105,0.0,139744.0,5168.0,0.0,1.0,0.0,?,0.0,0.0
6500000.0,7.109375,1.7553367393298278E-7,6500000.0,61.3,0.0,13.99999999999999,0.0,149744.0,5168.0,0.0,1.0,0.0,?,0.0,0.0
6600000.0,7.21875,1.7809542542737388E-7,6600000.0,61.1,0.0,15.434782608695643,0.0,159744.0,5168.0,0.0,1.0,0.0,?,0.0,0.0
6700000.0,7.328125,1.802497232953707E-7,6700000.0,61.1,0.0,16.880341880341874,0.0,169744.0,5168.0,0.0,1.0,0.0,?,0.0,0.0
6800000.0,7.4375,1.8199656753697326E-7,6800000.0,61.7,0.0,21.030927835051543,0.0,179744.0,5168.0,0.0,1.0,0.0,?,0.0,0.0
6900000.0,7.546875,1.8333595815218154E-7,6900000.0,61.4,0.0,16.98924731182795,0.0,189744.0,5168.0,0.0,1.0,0.0,?,0.0,0.0
7000000.0,7.65625,1.8426789514099555E-7,7000000.0,62.5,0.0,19.181034482758616,0.0,199744.0,5168.0,0.0,1.0,0.0,?,0.0,0.0
7100000.0,7.765625,1.8887098930362196E-7,7100000.0,61.6,0.0,22.109533468559835,0.0,209644.0,5168.0,0.0,1.0,0.0,?,0.0,0.0
7200000.0,7.875,1.930666298398541E-7,7200000.0,64.1,0.0,24.421052631578945,0.0,219644.0,5168.0,0.0,1.0,0.0,?,0.0,0.0
7300000.0,7.984375,1.9685481674969197E-7,7300000.0,63.4,0.0,16.055045871559646,0.0,229644.0,5168.0,0.0,1.0,0.0,?,0.0,0.0
7400000.0,8.09375,2.0023555003313556E-7,7400000.0,60.4,0.0,20.321931589537222,0.0,239644.0,5168.0,0.0,1.0,0.0,?,0.0,0.0
7500000.0,8.203125,2.0320882969018488E-7,7500000.0,60.099999999999994,0.0,18.06981519507186,0.0,249644.0,5168.0,0.0,1.0,0.0,?,0.0,0.0
7600000.0,8.3125,2.0577465572083993E-7,7600000.0,59.4,0.0,12.499999999999988,0.0,259644.0,5168.0,0.0,1.0,0.0,?,0.0,0.0
7700000.0,8.421875,2.0793302812510071E-7,7700000.0,63.1,0.0,16.891891891891884,0.0,269644.0,5168.0,0.0,1.0,0.0,?,0.0,0.0
7800000.0,8.53125,2.0968394690296722E-7,7800000.0,62.9,0.0,19.347826086956516,0.0,279644.0,5168.0,0.0,1.0,0.0,?,0.0,0.0
7900000.0,8.640625,2.1102741205443946E-7,7900000.0,63.0,0.0,24.796747967479675,0.0,289644.0,5168.0,0.0,1.0,0.0,?,0.0,0.0
8000000.0,8.75,2.1196342357951742E-7,8000000.0,61.3,0.0,16.59482758620689,0.0,299644.0,5168.0,0.0,1.0,0.0,?,0.0,0.0
8100000.0,8.859375,2.1657059227840776E-7,8100000.0,60.4,0.0,16.455696202531637,0.0,309544.0,5168.0,0.0,1.0,0.0,?,0.0,0.0
8200000.0,8.96875,2.2077030735090382E-7,8200000.0,62.5,0.0,21.548117154811713,0.0,319544.0,5168.0,0.0,1.0,0.0,?,0.0,0.0
8300000.0,9.0625,2.240208171618482E-7,8300000.0,62.1,0.0,21.369294605809124,0.0,329544.0,5168.0,0.0,1.0,0.0,?,0.0,0.0
8400000.0,9.15625,2.269220810073118E-7,8400000.0,62.1,0.0,21.369294605809124,0.0,339544.0,5168.0,0.0,1.0,0.0,?,0.0,0.0
8500000.0,9.265625,2.2989943520062505E-7,8500000.0,60.4,0.0,12.1951219512195,0.0,349544.0,5168.0,0.0,1.0,0.0,?,0.0,0.0
8600000.0,9.359375,2.3210220711512703E-7,8600000.0,61.9,0.0,16.079295154185015,0.0,359544.0,5168.0,0.0,1.0,0.0,?,0.0,0.0
8700000.0,9.46875,2.3426465405565173E-7,8700000.0,63.9,0.0,21.691973969631235,0.0,369544.0,5168.0,0.0,1.0,0.0,?,0.0,0.0
8800000.0,9.578125,2.3601964736978217E-7,8800000.0,63.1,0.0,17.44966442953019,0.0,379544.0,5168.0,0.0,1.0,0.0,?,0.0,0.0
8900000.0,9.6875,2.3736718705751833E-7,8900000.0,63.4,0.0,22.94736842105263,0.0,389544.0,5168.0,0.0,1.0,0.0,?,0.0,0.0
9000000.0,9.796875,2.3830727311886022E-7,9000000.0,61.199999999999996,0.0,18.65828092243186,0.0,399544.0,5168.0,0.0,1.0,0.0,?,0.0,0.0
9100000.0,9.890625,2.42259767320421E-7,9100000.0,62.6,0.0,20.594479830148614,0.0,409444.0,5168.0,0.0,1.0,0.0,?,0.0,0.0
9200000.0,10.0,2.4646355692918104E-7,9200000.0,60.9,0.0,16.452991452991444,0.0,419444.0,5168.0,0.0,1.0,0.0,?,0.0,0.0
9300000.0,10.125,2.508022266233133E-7,9300000.0,61.6,0.0,18.123667377398714,0.0,429444.0,5168.0,0.0,1.0,0.0,?,0.0,0.0
9400000.0,10.25,2.5467523503013783E-7,9400000.0,60.4,0.0,16.806722689075624,0.0,439444.0,5168.0,0.0,1.0,0.0,?,0.0,0.0
9500000.0,10.359375,2.5765666375971503E-7,9500000.0,66.60000000000001,0.0,27.39130434782609,0.0,449444.0,5168.0,0.0,1.0,0.0,?,0.0,0.0
9600000.0,10.46875,2.6023063886289796E-7,9600000.0,63.3,0.0,19.340659340659336,0.0,459444.0,5168.0,0.0,1.0,0.0,?,0.0,0.0
9700000.0,10.5625,2.6208765727157397E-7,9700000.0,62.4,0.0,20.338983050847453,0.0,469444.0,5168.0,0.0,1.0,0.0,?,0.0,0.0
9800000.0,10.671875,2.6384672512196835E-7,9800000.0,62.6,0.0,21.757322175732213,0.0,479444.0,5168.0,0.0,1.0,0.0,?,0.0,0.0
9900000.0,10.78125,2.6519833934596847E-7,9900000.0,62.8,0.0,21.51898734177215,0.0,489444.0,5168.0,0.0,1.0,0.0,?,0.0,0.0
1.0E7,10.890625,2.661424999435743E-7,1.0E7,62.6,0.0,19.04761904761904,0.0,499444.0,5168.0,0.0,1.0,0.0,?,0.0,0.0
