learning evaluation instances,evaluation time (cpu seconds),model cost (RAM-Hours),classified instances,classifications correct (percent),Kappa Statistic (percent),Kappa Temporal Statistic (percent),Kappa M Statistic (percent),model training instances,model serialized size (bytes),labeling cost,newThreshold,maxPosterior,accuracyBaseLearner (percent),Change detected,Warning detected
100000.0,0.078125,2.3813400831487444E-9,100000.0,71.8,0.0,30.882352941176467,0.0,457.0,7112.0,0.0,1.0,0.0,?,9.0,77.0
200000.0,0.15625,4.5686546299192635E-9,200000.0,70.7,0.0,30.73286052009456,0.0,438.0,7112.0,0.0,1.0,0.0,?,9.0,50.0
300000.0,0.234375,6.580861130108435E-9,300000.0,69.89999999999999,0.0,30.0,0.0,148.0,7112.0,0.0,1.0,0.0,?,10.0,33.0
400000.0,0.328125,8.765976720800002E-9,400000.0,68.7,24.07409204257675,25.653206650831372,-9.05923344947732,1032.0,7424.0,0.0,1.0,0.0,?,9.0,40.0
500000.0,0.40625,1.0371214658435848E-8,500000.0,49.6,-0.8803007193726233,-19.43127962085307,-67.44186046511625,238.0,7112.0,0.0,1.0,0.0,?,11.0,41.0
600000.0,0.484375,1.1782427059693469E-8,600000.0,69.3,24.384236453201964,28.93518518518518,-2.3333333333333353,155.0,7112.0,0.0,1.0,0.0,?,9.0,31.0
700000.0,0.5625,1.3024837244302034E-8,700000.0,69.19999999999999,35.48684392424311,20.822622107969142,-7.317073170731712,1152.0,7424.0,0.0,1.0,0.0,?,9.0,32.0
800000.0,0.640625,1.4047998572803205E-8,800000.0,71.3,0.0,25.454545454545446,0.0,931.0,7112.0,0.0,1.0,0.0,?,10.0,24.0
900000.0,0.71875,1.489605185472303E-8,900000.0,71.1,0.0,30.19323671497584,0.0,685.0,7112.0,0.0,1.0,0.0,?,8.0,42.0
1000000.0,0.796875,1.555638543019692E-8,1000000.0,72.5,0.0,28.75647668393782,0.0,1706.0,7424.0,0.0,1.0,0.0,?,8.0,36.0
1100000.0,0.875,1.7939665768709448E-8,1100000.0,68.30000000000001,0.0,31.086956521739133,0.0,943.0,7112.0,0.0,1.0,0.0,?,10.0,33.0
1200000.0,0.9375,1.9711248266200224E-8,1200000.0,72.0,0.0,31.70731707317073,0.0,1225.0,7424.0,0.0,1.0,0.0,?,9.0,46.0
1300000.0,1.015625,2.17064775319563E-8,1300000.0,70.7,0.0,30.07159904534606,0.0,385.0,7112.0,0.0,1.0,0.0,?,10.0,59.0
1400000.0,1.09375,2.352934744622972E-8,1400000.0,68.7,0.0,23.658536585365873,0.0,1384.0,7424.0,0.0,1.0,0.0,?,8.0,44.0
1500000.0,1.171875,2.516805478889081E-8,1500000.0,63.1,29.73730511146825,7.286432160804027,-30.388692579505282,9986.0,7424.0,0.0,1.0,0.0,?,1.0,3.0
1600000.0,1.265625,2.690167295643025E-8,1600000.0,69.19999999999999,35.888896289882084,26.491646778042956,-4.054054054054057,19986.0,7424.0,0.0,1.0,0.0,?,0.0,0.0
1700000.0,1.359375,2.840246048031582E-8,1700000.0,67.30000000000001,32.4508564487742,21.014492753623205,-6.862745098039184,29986.0,7424.0,0.0,1.0,0.0,?,0.0,0.0
1800000.0,1.4375,2.9459091213842234E-8,1800000.0,67.10000000000001,31.563839081416152,18.159203980099516,-15.034965034965008,39986.0,7424.0,0.0,1.0,0.0,?,0.0,0.0
1900000.0,1.53125,3.049421745042006E-8,1900000.0,69.69999999999999,36.967447743309805,29.20560747663551,-1.3377926421404693,49986.0,7424.0,0.0,1.0,0.0,?,0.0,0.0
2000000.0,1.609375,3.1162797111190026E-8,2000000.0,68.0,32.02134529757656,13.513513513513525,-21.212121212121186,59986.0,7424.0,0.0,1.0,0.0,?,0.0,0.0
2100000.0,1.6875,3.35795468547278E-8,2100000.0,70.7,39.47281441084117,30.73286052009456,2.6578073089701015,69886.0,7424.0,0.0,1.0,0.0,?,0.0,0.0
2200000.0,1.78125,3.624681590331926E-8,2200000.0,69.5,35.98730659771484,24.317617866004955,-9.712230215827345,79886.0,7424.0,0.0,1.0,0.0,?,0.0,0.0
2300000.0,1.859375,3.827551457410058E-8,2300000.0,67.30000000000001,32.812821039654835,21.95704057279238,-5.483870967741904,89886.0,7424.0,0.0,1.0,0.0,?,0.0,0.0
2400000.0,1.953125,4.0477122335384295E-8,2400000.0,63.5,30.090021068760763,1.3513513513513526,-30.824372759856615,99886.0,7424.0,0.0,1.0,0.0,?,0.0,0.0
2500000.0,2.03125,4.211776993340917E-8,2500000.0,64.60000000000001,30.421519798418966,15.914489311163907,-21.649484536082454,109886.0,7424.0,0.0,1.0,0.0,?,0.0,0.0
2600000.0,2.109375,4.3564391995055814E-8,2600000.0,69.5,37.16263546087599,27.895981087470446,7.5757575757575495,119886.0,7424.0,0.0,1.0,0.0,?,0.0,0.0
2700000.0,2.1875,4.481698852032423E-8,2700000.0,65.60000000000001,33.43653250773995,22.171945701357462,-14.666666666666641,129886.0,7424.0,0.0,1.0,0.0,?,0.0,0.0
2800000.0,2.265625,4.587555950921443E-8,2800000.0,62.5,27.877957965350642,5.303030303030307,-39.92537313432835,139886.0,7424.0,0.0,1.0,0.0,?,0.0,0.0
2900000.0,2.359375,4.69130140522288E-8,2900000.0,68.2,34.1224824637363,21.867321867321884,-6.354515050167192,149886.0,7424.0,0.0,1.0,0.0,?,0.0,0.0
3000000.0,2.453125,4.77176379515893E-8,3000000.0,69.0,36.05610561056105,28.40646651270207,0.0,159886.0,7424.0,0.0,1.0,0.0,?,0.0,0.0
3100000.0,2.546875,5.0620065950271166E-8,3100000.0,68.2,34.755044173707525,22.058823529411782,-2.9126213592232673,169786.0,7424.0,0.0,1.0,0.0,?,0.0,0.0
3200000.0,2.640625,5.328966330529916E-8,3200000.0,64.7,31.88326373719675,17.523364485981322,-12.420382165605108,179786.0,7424.0,0.0,1.0,0.0,?,0.0,0.0
3300000.0,2.734375,5.5726430016673285E-8,3300000.0,64.5,30.435804985107385,11.027568922305774,-24.56140350877191,189786.0,7424.0,0.0,1.0,0.0,?,0.0,0.0
3400000.0,2.828125,5.793036608439354E-8,3400000.0,62.2,26.322970470714356,9.134615384615392,-37.454545454545446,199786.0,7424.0,0.0,1.0,0.0,?,0.0,0.0
3500000.0,2.921875,5.990147150845992E-8,3500000.0,66.5,30.343582876581316,12.303664921465979,-22.710622710622687,209786.0,7424.0,0.0,1.0,0.0,?,0.0,0.0
3600000.0,3.0,6.135003382547035E-8,3600000.0,62.5,28.380443086325435,14.578587699316618,-24.999999999999982,219786.0,7424.0,0.0,1.0,0.0,?,0.0,0.0
3700000.0,3.078125,6.260457060610255E-8,3700000.0,68.89999999999999,34.440743707576196,22.249999999999993,-7.241379310344834,229786.0,7424.0,0.0,1.0,0.0,?,0.0,0.0
3800000.0,3.171875,6.387718409920732E-8,3800000.0,63.4,29.428641944838656,14.685314685314696,-19.60784313725488,239786.0,7424.0,0.0,1.0,0.0,?,0.0,0.0
3900000.0,3.265625,6.491696694865822E-8,3900000.0,65.4,33.510638297872354,15.815085158150865,-13.815789473684184,249786.0,7424.0,0.0,1.0,0.0,?,0.0,0.0
4000000.0,3.34375,6.558942712015575E-8,4000000.0,61.8,27.80029031087456,14.157303370786506,-28.18791946308723,259786.0,7424.0,0.0,1.0,0.0,?,0.0,0.0
4100000.0,3.453125,6.897830947612722E-8,4100000.0,69.3,35.64480965956732,26.024096385542162,-4.067796610169495,269686.0,7424.0,0.0,1.0,0.0,?,0.0,0.0
4200000.0,3.546875,7.165023513759176E-8,4200000.0,70.3,38.206875889446465,25.935162094763086,-1.0204081632653068,279686.0,7424.0,0.0,1.0,0.0,?,0.0,0.0
4300000.0,3.640625,7.408933015540242E-8,4300000.0,68.30000000000001,35.12500204652991,24.343675417661117,-6.734006734006702,289686.0,7424.0,0.0,1.0,0.0,?,0.0,0.0
4400000.0,3.734375,7.629559452955922E-8,4400000.0,69.89999999999999,37.77957847214756,26.941747572815526,0.3311258278145698,299686.0,7424.0,0.0,1.0,0.0,?,0.0,0.0
4500000.0,3.828125,7.826902826006215E-8,4500000.0,62.8,28.65690877289883,6.532663316582921,-26.530612244897945,309686.0,7424.0,0.0,1.0,0.0,?,0.0,0.0
4600000.0,3.90625,7.971953083243636E-8,4600000.0,68.10000000000001,34.39993419429137,25.64102564102566,-4.9342105263157565,319686.0,7424.0,0.0,1.0,0.0,?,0.0,0.0
4700000.0,3.984375,8.097600786843236E-8,4700000.0,67.60000000000001,33.427575777500174,24.651162790697693,-10.958904109589012,329686.0,7424.0,0.0,1.0,0.0,?,0.0,0.0
4800000.0,4.078125,8.225094966797368E-8,4800000.0,64.4,31.590820871717423,11.442786069651751,-25.795053003533553,339686.0,7424.0,0.0,1.0,0.0,?,0.0,0.0
4900000.0,4.15625,8.311937563121322E-8,4900000.0,68.7,35.12307960170132,28.211009174311947,-9.44055944055941,349686.0,7424.0,0.0,1.0,0.0,?,0.0,0.0
5000000.0,4.234375,8.380897472509082E-8,5000000.0,63.6,30.3170573888806,9.677419354838717,-25.95155709342559,359686.0,7424.0,0.0,1.0,0.0,?,0.0,0.0
5100000.0,4.328125,8.673429773706531E-8,5100000.0,69.5,38.371886264810946,38.75502008032127,32.37250554323723,369586.0,7424.0,0.0,1.0,0.0,?,0.0,0.0
5200000.0,4.40625,8.89780413773325E-8,5200000.0,68.2,36.368184092046036,37.154150197628475,34.836065573770504,379586.0,7424.0,0.0,1.0,0.0,?,0.0,0.0
5300000.0,4.5,9.143770310199925E-8,5300000.0,71.8,43.317266525428835,42.799188640973625,38.29321663019692,389586.0,7424.0,0.0,1.0,0.0,?,0.0,0.0
5400000.0,4.59375,9.366453418301214E-8,5400000.0,69.6,38.751908965995206,41.762452107279685,35.181236673773974,399586.0,7424.0,0.0,1.0,0.0,?,0.0,0.0
5500000.0,4.6875,9.565853462037115E-8,5500000.0,70.5,40.648639948495074,39.67280163599181,36.285097192224605,409586.0,7424.0,0.0,1.0,0.0,?,0.0,0.0
5600000.0,4.78125,9.74197044140763E-8,5600000.0,69.3,38.20550393713465,38.353413654618464,34.957627118644055,419586.0,7424.0,0.0,1.0,0.0,?,0.0,0.0
5700000.0,4.875,9.894804356412757E-8,5700000.0,68.5,36.023462125889594,33.26271186440678,26.401869158878526,429586.0,7424.0,0.0,1.0,0.0,?,0.0,0.0
5800000.0,4.953125,1.0002763398612541E-7,5800000.0,69.3,37.96826884996807,36.04166666666666,33.549783549783534,439586.0,7424.0,0.0,1.0,0.0,?,0.0,0.0
5900000.0,5.03125,1.0091319887174503E-7,5900000.0,70.89999999999999,41.18598164840939,42.490118577075094,34.162895927601795,449586.0,7424.0,0.0,1.0,0.0,?,0.0,0.0
6000000.0,5.109375,1.0160473822098641E-7,6000000.0,69.39999999999999,38.1047930353733,38.67735470941883,31.39013452914796,459586.0,7424.0,0.0,1.0,0.0,?,0.0,0.0
6100000.0,5.1875,1.040444476529956E-7,6100000.0,71.5,42.55190485789155,46.62921348314605,38.177874186550966,469486.0,7424.0,0.0,1.0,0.0,?,0.0,0.0
6200000.0,5.265625,1.0629013154862657E-7,6200000.0,73.5,46.69080667873667,44.210526315789465,43.73673036093418,479486.0,7424.0,0.0,1.0,0.0,?,0.0,0.0
6300000.0,5.359375,1.0875212157972986E-7,6300000.0,69.6,38.7718930763901,38.95582329317268,34.199134199134186,489486.0,7424.0,0.0,1.0,0.0,?,0.0,0.0
6400000.0,5.4375,1.1060975440260439E-7,6400000.0,70.6,40.90523531374495,38.87733887733887,37.57961783439489,499486.0,7424.0,0.0,1.0,0.0,?,0.0,0.0
6500000.0,5.53125,1.1260608314639994E-7,6500000.0,67.9,35.28904227782571,35.41247484909458,29.139072847682122,509486.0,7424.0,0.0,1.0,0.0,?,0.0,0.0
6600000.0,5.609375,1.1407566489651801E-7,6600000.0,73.2,45.881108064118756,47.55381604696673,40.31180400890867,519486.0,7424.0,0.0,1.0,0.0,?,0.0,0.0
6700000.0,5.703125,1.1560633235300582E-7,6700000.0,68.60000000000001,36.982969346429115,39.61538461538463,34.44676409185804,529486.0,7424.0,0.0,1.0,0.0,?,0.0,0.0
6800000.0,5.78125,1.1668786303036744E-7,6800000.0,69.39999999999999,38.231731933790854,35.30655391120506,31.999999999999986,539486.0,7424.0,0.0,1.0,0.0,?,0.0,0.0
6900000.0,5.875,1.1775286919954751E-7,6900000.0,68.10000000000001,35.59406900116295,34.0909090909091,29.268292682926834,549486.0,7424.0,0.0,1.0,0.0,?,0.0,0.0
7000000.0,5.953125,1.1844634880415268E-7,7000000.0,71.1,40.858674743175214,37.037037037037024,28.992628992628987,559486.0,7424.0,0.0,1.0,0.0,?,0.0,0.0
7100000.0,6.03125,1.2088799849152566E-7,7100000.0,71.2,42.159383033419005,45.247148288973385,39.24050632911392,569386.0,7424.0,0.0,1.0,0.0,?,0.0,0.0
7200000.0,6.109375,1.2313562264252042E-7,7200000.0,68.7,36.67556850368213,35.99182004089981,29.662921348314615,579386.0,7424.0,0.0,1.0,0.0,?,0.0,0.0
7300000.0,6.1875,1.2518922125713695E-7,7300000.0,68.60000000000001,36.92625996826227,32.90598290598291,33.049040511727085,589386.0,7424.0,0.0,1.0,0.0,?,0.0,0.0
7400000.0,6.265625,1.2704879433537524E-7,7400000.0,69.1,37.168559065621224,37.575757575757564,27.803738317757006,599386.0,7424.0,0.0,1.0,0.0,?,0.0,0.0
7500000.0,6.34375,1.2871434187723533E-7,7500000.0,70.19999999999999,39.292698826597125,40.99009900990098,29.71698113207547,609386.0,7424.0,0.0,1.0,0.0,?,0.0,0.0
7600000.0,6.4375,1.3048016828381354E-7,7600000.0,69.69999999999999,39.48327101907774,40.35433070866141,40.118577075098806,619386.0,7424.0,0.0,1.0,0.0,?,0.0,0.0
7700000.0,6.515625,1.3175766475291716E-7,7700000.0,71.2,41.88650919524921,45.96622889305816,36.42384105960264,629386.0,7424.0,0.0,1.0,0.0,?,0.0,0.0
7800000.0,6.609375,1.3305782987218764E-7,7800000.0,69.6,37.35910951028835,37.44855967078188,25.3071253071253,639386.0,7424.0,0.0,1.0,0.0,?,0.0,0.0
7900000.0,6.6875,1.3394727526853482E-7,7900000.0,69.89999999999999,39.44831581827252,37.551867219917,35.546038543897204,649386.0,7424.0,0.0,1.0,0.0,?,0.0,0.0
8000000.0,6.78125,1.3478177910049756E-7,8000000.0,68.60000000000001,36.914601657900356,39.846743295019174,33.33333333333334,659386.0,7424.0,0.0,1.0,0.0,?,0.0,0.0
8100000.0,6.875,1.3771408703178166E-7,8100000.0,70.89999999999999,41.47365711205682,39.12133891213388,36.60130718954247,669286.0,7424.0,0.0,1.0,0.0,?,0.0,0.0
8200000.0,6.953125,1.399636514381402E-7,8200000.0,69.69999999999999,39.11065382698582,40.35433070866141,34.698275862068954,679286.0,7424.0,0.0,1.0,0.0,?,0.0,0.0
8300000.0,7.03125,1.4201919030812051E-7,8300000.0,68.8,36.971988897373414,39.65183752417794,31.12582781456952,689286.0,7424.0,0.0,1.0,0.0,?,0.0,0.0
8400000.0,7.125,1.44253006308443E-7,8400000.0,70.6,40.66168278623672,41.31736526946107,35.80786026200872,699286.0,7424.0,0.0,1.0,0.0,?,0.0,0.0
8500000.0,7.203125,1.4592049410566687E-7,8500000.0,69.19999999999999,37.70932095070137,34.88372093023254,29.032258064516125,709286.0,7424.0,0.0,1.0,0.0,?,0.0,0.0
8600000.0,7.28125,1.473939563665125E-7,8600000.0,68.4,36.14613643711608,36.290322580645174,31.304347826086964,719286.0,7424.0,0.0,1.0,0.0,?,0.0,0.0
8700000.0,7.375,1.489292804358734E-7,8700000.0,72.2,43.12602291325697,43.7246963562753,35.348837209302324,729286.0,7424.0,0.0,1.0,0.0,?,0.0,0.0
8800000.0,7.453125,1.5001469162396259E-7,8800000.0,70.19999999999999,40.09544524361854,40.39999999999999,35.07625272331153,739286.0,7424.0,0.0,1.0,0.0,?,0.0,0.0
8900000.0,7.53125,1.5090607727567355E-7,8900000.0,70.3,40.207762924786586,42.33009708737863,35.434782608695635,749286.0,7424.0,0.0,1.0,0.0,?,0.0,0.0
9000000.0,7.625,1.5174290941407282E-7,9000000.0,69.89999999999999,39.459520342405675,41.89189189189189,34.98920086393087,759286.0,7424.0,0.0,1.0,0.0,?,0.0,0.0
9100000.0,7.71875,1.5467754565179346E-7,9100000.0,71.7,42.84952664060227,43.05835010060362,38.07439824945294,769186.0,7424.0,0.0,1.0,0.0,?,0.0,0.0
9200000.0,7.8125,1.5737935124586023E-7,9200000.0,71.6,42.78046637949444,43.08617234468937,38.39479392624728,779186.0,7424.0,0.0,1.0,0.0,?,0.0,0.0
9300000.0,7.90625,1.5984832619627313E-7,9300000.0,67.7,34.98494388174103,36.16600790513835,27.088036117381492,789186.0,7424.0,0.0,1.0,0.0,?,0.0,0.0
9400000.0,7.984375,1.61711779785239E-7,9400000.0,68.60000000000001,36.63222473361318,36.69354838709678,29.279279279279287,799186.0,7424.0,0.0,1.0,0.0,?,0.0,0.0
9500000.0,8.0625,1.6338120783782663E-7,9500000.0,69.1,37.57071278487149,37.701612903225794,33.54838709677418,809186.0,7424.0,0.0,1.0,0.0,?,0.0,0.0
9600000.0,8.15625,1.6515169085727793E-7,9600000.0,72.7,45.185125692715445,44.73684210526315,43.0062630480167,819186.0,7424.0,0.0,1.0,0.0,?,0.0,0.0
9700000.0,8.234375,1.664330678371091E-7,9700000.0,70.39999999999999,40.280198850797326,42.85714285714285,31.48148148148148,829186.0,7424.0,0.0,1.0,0.0,?,0.0,0.0
9800000.0,8.3125,1.6752041928056208E-7,9800000.0,71.8,43.098355098548794,44.48818897637795,38.96103896103895,839186.0,7424.0,0.0,1.0,0.0,?,0.0,0.0
9900000.0,8.390625,1.6841374518763682E-7,9900000.0,72.89999999999999,45.6081053958365,48.77126654064272,43.42379958246346,849186.0,7424.0,0.0,1.0,0.0,?,0.0,0.0
1.0E7,8.484375,1.6925290563247263E-7,1.0E7,69.6,38.68198541276705,37.70491803278687,32.74336283185839,859186.0,7424.0,0.0,1.0,0.0,?,0.0,0.0
