learning evaluation instances,evaluation time (cpu seconds),model cost (RAM-Hours),classified instances,classifications correct (percent),Kappa Statistic (percent),Kappa Temporal Statistic (percent),Kappa M Statistic (percent),model training instances,model serialized size (bytes),labeling cost,newThreshold,maxPosterior,accuracyBaseLearner (percent),Change detected,Warning detected,tree size (nodes),tree size (leaves),active learning leaves,tree depth,active leaf byte size estimate,inactive leaf byte size estimate,byte size estimate overhead
100000.0,0.484375,1.2625047626594703E-8,100000.0,96.8,93.44624900157699,93.30543933054393,92.57540603248259,10978.0,56648.0,0.0,1.0,0.0,?,2.0,12.0,22.0,13.0,13.0,3.0,0.0,0.0,1.0
200000.0,0.8125,2.276113567252954E-8,200000.0,97.3,94.55715391562379,94.75728155339806,94.02654867256636,29160.0,75352.0,0.0,1.0,0.0,?,0.0,0.0,30.0,17.0,17.0,4.0,0.0,0.0,1.0
300000.0,1.140625,3.353488864377141E-8,300000.0,97.39999999999999,94.76997968338262,94.5945945945946,94.3355119825708,47342.0,82960.0,0.0,1.0,0.0,?,0.0,0.0,34.0,19.0,19.0,4.0,0.0,0.0,1.0
400000.0,1.46875,4.503322998061776E-8,400000.0,98.3,96.57865078087265,96.6403162055336,96.30434782608695,65524.0,91592.0,0.0,1.0,0.0,?,0.0,0.0,38.0,21.0,21.0,5.0,0.0,0.0,1.0
500000.0,1.796875,5.6990635736534995E-8,500000.0,97.6,95.17213355487876,95.01039501039502,94.81641468682504,83706.0,97120.0,0.0,1.0,0.0,?,0.0,0.0,40.0,22.0,22.0,5.0,0.0,0.0,1.0
600000.0,2.109375,6.94419011577136E-8,600000.0,97.8,95.56594646888101,95.66929133858267,95.13274336283185,101888.0,110344.0,0.0,1.0,0.0,?,0.0,0.0,46.0,25.0,25.0,5.0,0.0,0.0,1.0
700000.0,2.421875,8.189769384140769E-8,700000.0,97.3,94.5147370730637,94.47852760736197,93.76443418013857,120070.0,110544.0,0.0,1.0,0.0,?,0.0,0.0,46.0,25.0,25.0,5.0,0.0,0.0,1.0
800000.0,2.734375,9.43444320000708E-8,800000.0,97.7,95.340545358778,95.38152610441767,94.79638009049773,138252.0,110576.0,0.0,1.0,0.0,?,0.0,0.0,46.0,25.0,25.0,5.0,0.0,0.0,1.0
900000.0,3.046875,1.0710807853481835E-7,900000.0,97.39999999999999,94.79666986871598,94.53781512605042,94.78957915831663,156434.0,114616.0,0.0,1.0,0.0,?,0.0,0.0,48.0,26.0,26.0,5.0,0.0,0.0,1.0
1000000.0,3.328125,1.1893005446634358E-7,1000000.0,97.1,94.1598195585629,94.3579766536965,93.6542669584245,174616.0,119336.0,0.0,1.0,0.0,?,0.0,0.0,50.0,27.0,27.0,5.0,0.0,0.0,1.0
1100000.0,3.609375,1.3109196313760346E-7,1100000.0,97.0,93.97841865245039,94.19729206963248,93.64406779661016,192798.0,124128.0,0.0,1.0,0.0,?,0.0,0.0,52.0,28.0,28.0,5.0,0.0,0.0,1.0
1200000.0,3.90625,1.442895801220503E-7,1200000.0,98.2,96.3801778539281,96.35627530364373,96.11231101511879,210978.0,127352.0,0.0,1.0,0.0,?,0.0,0.0,54.0,29.0,29.0,5.0,0.0,0.0,1.0
1300000.0,4.203125,1.5748289620710742E-7,1300000.0,97.5,94.99319073940559,95.14563106796116,94.824016563147,229160.0,127440.0,0.0,1.0,0.0,?,0.0,0.0,54.0,29.0,29.0,5.0,0.0,0.0,1.0
1400000.0,4.5,1.7066576725078952E-7,1400000.0,97.1,94.1986076658398,94.50757575757575,94.17670682730923,247342.0,127448.0,0.0,1.0,0.0,?,0.0,0.0,54.0,29.0,29.0,5.0,0.0,0.0,1.0
1500000.0,4.796875,1.838443373950819E-7,1500000.0,96.5,92.98614061385297,92.58474576271186,92.67782426778241,265524.0,127528.0,0.0,1.0,0.0,?,0.0,0.0,56.0,30.0,30.0,6.0,0.0,0.0,1.0
1600000.0,5.109375,1.9768805941566823E-7,1600000.0,97.8,95.59429020009932,95.73643410852712,95.43568464730289,283706.0,127312.0,0.0,1.0,0.0,?,0.0,0.0,58.0,31.0,31.0,6.0,0.0,0.0,1.0
1700000.0,5.40625,2.1148964555727108E-7,1700000.0,97.3,94.56438585612935,94.29175475687103,94.05286343612335,301888.0,135880.0,0.0,1.0,0.0,?,0.0,0.0,60.0,32.0,32.0,6.0,0.0,0.0,1.0
1800000.0,5.703125,2.2528693079948423E-7,1800000.0,97.39999999999999,94.76835903544637,94.921875,94.32314410480349,320070.0,135968.0,0.0,1.0,0.0,?,0.0,0.0,60.0,32.0,32.0,6.0,0.0,0.0,1.0
1900000.0,6.0,2.393803636853893E-7,1900000.0,97.39999999999999,94.74957491750774,94.8,94.23503325942349,338252.0,139952.0,0.0,1.0,0.0,?,0.0,0.0,60.0,32.0,32.0,6.0,0.0,0.0,1.0
2000000.0,6.296875,2.5346826684350766E-7,2000000.0,97.3,94.55517822716602,94.5233265720081,94.01330376940132,356434.0,140024.0,0.0,1.0,0.0,?,0.0,0.0,60.0,32.0,32.0,6.0,0.0,0.0,1.0
2100000.0,6.59375,2.6780685099462666E-7,2100000.0,97.0,93.98114895853814,94.03578528827038,93.65750528541226,374616.0,143408.0,0.0,1.0,0.0,?,0.0,0.0,62.0,33.0,33.0,6.0,0.0,0.0,1.0
2200000.0,6.890625,2.8213560451856913E-7,2200000.0,97.5,94.9964775201742,95.06903353057199,94.8665297741273,392798.0,143424.0,0.0,1.0,0.0,?,0.0,0.0,62.0,33.0,33.0,6.0,0.0,0.0,1.0
2300000.0,7.203125,2.9733491828665133E-7,2300000.0,97.1,94.18828357969666,94.25742574257426,93.94572025052192,410978.0,143424.0,0.0,1.0,0.0,?,0.0,0.0,62.0,33.0,33.0,6.0,0.0,0.0,1.0
2400000.0,7.5,3.1176505015335143E-7,2400000.0,97.5,94.97757991674835,95.14563106796116,94.66950959488273,429160.0,143448.0,0.0,1.0,0.0,?,0.0,0.0,62.0,33.0,33.0,6.0,0.0,0.0,1.0
2500000.0,7.796875,3.26184122564478E-7,2500000.0,96.89999999999999,93.76859371231004,93.9334637964775,93.31896551724137,447342.0,143448.0,0.0,1.0,0.0,?,0.0,0.0,62.0,33.0,33.0,6.0,0.0,0.0,1.0
2600000.0,8.09375,3.40592135520031E-7,2600000.0,97.7,95.38804581475183,95.58541266794626,95.16806722689076,465524.0,143448.0,0.0,1.0,0.0,?,0.0,0.0,62.0,33.0,33.0,6.0,0.0,0.0,1.0
2700000.0,8.421875,3.565500567977626E-7,2700000.0,97.6,95.18043255617808,95.42857142857143,94.83870967741936,483706.0,143984.0,0.0,1.0,0.0,?,0.0,0.0,62.0,33.0,33.0,6.0,0.0,0.0,1.0
2800000.0,8.71875,3.7097895983606566E-7,2800000.0,97.39999999999999,94.77964059833349,94.76861167002012,94.52631578947368,501888.0,144008.0,0.0,1.0,0.0,?,0.0,0.0,62.0,33.0,33.0,6.0,0.0,0.0,1.0
2900000.0,9.03125,3.8615693079514624E-7,2900000.0,97.2,94.39138516761746,94.331983805668,94.21487603305785,520070.0,144024.0,0.0,1.0,0.0,?,0.0,0.0,62.0,33.0,33.0,6.0,0.0,0.0,1.0
3000000.0,9.328125,4.005661725790963E-7,3000000.0,97.1,94.13041014265127,93.95833333333333,93.45372460496614,538252.0,144040.0,0.0,1.0,0.0,?,0.0,0.0,62.0,33.0,33.0,6.0,0.0,0.0,1.0
3100000.0,9.640625,4.1598667545864967E-7,3100000.0,96.0,91.96490269497163,92.26305609284331,91.56118143459915,556434.0,147288.0,0.0,1.0,0.0,?,0.0,0.0,64.0,34.0,34.0,6.0,0.0,0.0,1.0
3200000.0,9.953125,4.313961835578083E-7,3200000.0,97.3,94.58388163173605,94.27966101694915,94.24307036247335,574616.0,147296.0,0.0,1.0,0.0,?,0.0,0.0,64.0,34.0,34.0,6.0,0.0,0.0,1.0
3300000.0,10.25,4.4602538562483245E-7,3300000.0,97.3,94.5701139069438,94.82758620689656,94.23076923076923,592798.0,147312.0,0.0,1.0,0.0,?,0.0,0.0,64.0,34.0,34.0,6.0,0.0,0.0,1.0
3400000.0,10.5625,4.6154096101721116E-7,3400000.0,97.1,94.17254101325445,94.31372549019608,93.81663113006397,610978.0,147304.0,0.0,1.0,0.0,?,0.0,0.0,66.0,35.0,35.0,6.0,0.0,0.0,1.0
3500000.0,10.859375,4.7628075763997095E-7,3500000.0,97.7,95.37535991764119,95.35353535353535,95.04310344827586,629160.0,147448.0,0.0,1.0,0.0,?,0.0,0.0,66.0,35.0,35.0,6.0,0.0,0.0,1.0
3600000.0,11.15625,4.910285416473116E-7,3600000.0,97.8,95.59365486300273,95.52845528455283,95.43568464730289,647342.0,147688.0,0.0,1.0,0.0,?,0.0,0.0,68.0,36.0,36.0,6.0,0.0,0.0,1.0
3700000.0,11.46875,5.065512313093575E-7,3700000.0,96.89999999999999,93.74823538902109,93.58178053830227,93.18681318681318,665524.0,147816.0,0.0,1.0,0.0,?,0.0,0.0,68.0,36.0,36.0,6.0,0.0,0.0,1.0
3800000.0,11.765625,5.215828746764195E-7,3800000.0,97.8,95.58303886925795,95.5193482688391,95.2991452991453,683706.0,151656.0,0.0,1.0,0.0,?,0.0,0.0,68.0,36.0,36.0,6.0,0.0,0.0,1.0
3900000.0,12.0625,5.366458531676066E-7,3900000.0,98.0,95.99538668546165,96.04743083003953,95.86776859504131,701888.0,152208.0,0.0,1.0,0.0,?,0.0,0.0,68.0,36.0,36.0,6.0,0.0,0.0,1.0
4000000.0,12.359375,5.517008442742128E-7,4000000.0,98.1,96.18391137033734,96.2890625,95.95744680851064,720070.0,152248.0,0.0,1.0,0.0,?,0.0,0.0,68.0,36.0,36.0,6.0,0.0,0.0,1.0
4100000.0,12.640625,5.659547362787026E-7,4100000.0,97.1,94.15398013159592,94.49715370018976,93.58407079646017,738252.0,152272.0,0.0,1.0,0.0,?,0.0,0.0,68.0,36.0,36.0,6.0,0.0,0.0,1.0
4200000.0,12.9375,5.809900661309558E-7,4200000.0,97.3,94.5870522289316,94.63220675944333,94.30379746835442,756434.0,152280.0,0.0,1.0,0.0,?,0.0,0.0,68.0,36.0,36.0,6.0,0.0,0.0,1.0
4300000.0,13.25,5.968070278565087E-7,4300000.0,96.8,93.56851143197092,93.70078740157479,93.13304721030042,774616.0,152304.0,0.0,1.0,0.0,?,0.0,0.0,68.0,36.0,36.0,6.0,0.0,0.0,1.0
4400000.0,13.53125,6.110318160305418E-7,4400000.0,96.2,92.38107458927976,91.81034482758619,92.0335429769392,792798.0,152304.0,0.0,1.0,0.0,?,0.0,0.0,68.0,36.0,36.0,6.0,0.0,0.0,1.0
4500000.0,13.84375,6.269535515457389E-7,4500000.0,97.5,94.98382786102394,94.79166666666666,94.72573839662446,810978.0,152304.0,0.0,1.0,0.0,?,0.0,0.0,68.0,36.0,36.0,6.0,0.0,0.0,1.0
4600000.0,14.140625,6.423569155029122E-7,4600000.0,98.0,95.98748094053447,96.13152804642165,95.74468085106382,829160.0,156040.0,0.0,1.0,0.0,?,0.0,0.0,70.0,37.0,37.0,6.0,0.0,0.0,1.0
4700000.0,14.4375,6.577590506316885E-7,4700000.0,98.2,96.36928414385703,96.1864406779661,96.04395604395603,847342.0,156168.0,0.0,1.0,0.0,?,0.0,0.0,70.0,37.0,37.0,6.0,0.0,0.0,1.0
4800000.0,14.734375,6.731513551332882E-7,4800000.0,97.2,94.38562720564644,94.50980392156862,94.01709401709401,865524.0,156184.0,0.0,1.0,0.0,?,0.0,0.0,70.0,37.0,37.0,6.0,0.0,0.0,1.0
4900000.0,15.046875,6.893421393922631E-7,4900000.0,97.3,94.56779790598668,94.54545454545455,94.15584415584415,883706.0,156184.0,0.0,1.0,0.0,?,0.0,0.0,70.0,37.0,37.0,6.0,0.0,0.0,1.0
5000000.0,15.34375,7.050090870406062E-7,5000000.0,97.6,95.1923076923077,95.15151515151514,95.0,901888.0,156840.0,0.0,1.0,0.0,?,0.0,0.0,70.0,37.0,37.0,6.0,0.0,0.0,1.0
5100000.0,15.859375,7.234257969280909E-7,5100000.0,74.2,46.45080946450809,43.421052631578945,30.270270270270267,17978.0,91064.0,0.0,1.0,0.0,?,1.0,43.0,23.0,21.0,21.0,2.0,0.0,0.0,1.0
5200000.0,16.34375,7.44622925089465E-7,5200000.0,74.3,45.5480787158669,44.61206896551724,33.59173126614987,36160.0,108656.0,0.0,1.0,0.0,?,0.0,5.0,28.0,25.0,25.0,2.0,0.0,0.0,1.0
5300000.0,16.765625,7.694036725701554E-7,5300000.0,83.1,65.55519321702266,65.22633744855966,57.32323232323232,24362.0,179928.0,0.0,1.0,0.0,?,1.0,11.0,62.0,48.0,48.0,7.0,0.0,0.0,1.0
5400000.0,17.1875,8.045028921009763E-7,5400000.0,87.3,72.68229726822972,72.92110874200426,65.67567567567568,42544.0,274200.0,0.0,1.0,0.0,?,0.0,0.0,93.0,65.0,65.0,9.0,0.0,0.0,1.0
5500000.0,17.578125,8.389302982120876E-7,5500000.0,85.1,68.8802746890116,69.77687626774848,63.39066339066339,60726.0,296528.0,0.0,1.0,0.0,?,0.0,0.0,99.0,68.0,68.0,9.0,0.0,0.0,1.0
5600000.0,17.984375,8.867461454226736E-7,5600000.0,85.9,70.52552364229273,69.14660831509846,63.37662337662338,78906.0,405904.0,0.0,1.0,0.0,?,0.0,0.0,137.0,96.0,96.0,9.0,0.0,0.0,1.0
5700000.0,18.40625,9.400864817305568E-7,5700000.0,89.9,78.14798788403289,77.3542600896861,71.94444444444444,97088.0,439664.0,0.0,1.0,0.0,?,0.0,0.0,154.0,106.0,106.0,10.0,0.0,0.0,1.0
5800000.0,18.84375,1.0106583552745479E-6,5800000.0,90.7,80.5840647364861,80.74534161490683,76.63316582914574,115270.0,574216.0,0.0,1.0,0.0,?,0.0,0.0,198.0,137.0,137.0,10.0,0.0,0.0,1.0
5900000.0,19.25,1.0798433989596861E-6,5900000.0,91.0,81.29800179539184,81.3664596273292,77.38693467336685,133452.0,608944.0,0.0,1.0,0.0,?,0.0,0.0,212.0,144.0,144.0,11.0,0.0,0.0,1.0
6000000.0,19.671875,1.154210961734255E-6,6000000.0,90.7,80.72650706280258,80.12820512820514,77.26161369193156,151634.0,632080.0,0.0,1.0,0.0,?,0.0,0.0,220.0,148.0,148.0,11.0,0.0,0.0,1.0
6100000.0,20.09375,1.23822382496049E-6,6100000.0,89.2,77.63197136892336,75.94654788418708,71.875,169816.0,720416.0,0.0,1.0,0.0,?,0.0,0.0,254.0,174.0,174.0,11.0,0.0,0.0,1.0
6200000.0,20.5,1.3222729709620276E-6,6200000.0,91.4,81.44880517362625,81.46551724137932,76.17728531855957,187998.0,750360.0,0.0,1.0,0.0,?,0.0,0.0,264.0,179.0,179.0,11.0,0.0,0.0,1.0
6300000.0,20.921875,1.4126071861634651E-6,6300000.0,91.7,82.5976836049213,82.74428274428274,78.5529715762274,206180.0,778336.0,0.0,1.0,0.0,?,0.0,0.0,274.0,184.0,184.0,11.0,0.0,0.0,1.0
6400000.0,21.359375,1.514866275505887E-6,6400000.0,92.0,82.96371697623013,81.60919540229887,77.96143250688706,224362.0,854168.0,0.0,1.0,0.0,?,0.0,0.0,298.0,205.0,205.0,11.0,0.0,0.0,1.0
6500000.0,21.796875,1.6195483557466003E-6,6500000.0,90.8,80.33238273183204,79.27927927927928,75.06775067750678,242544.0,875632.0,0.0,1.0,0.0,?,0.0,0.0,300.0,206.0,206.0,11.0,0.0,0.0,1.0
6600000.0,22.234375,1.725071601362692E-6,6600000.0,92.2,83.64093959731545,83.54430379746837,79.68750000000001,260726.0,886360.0,0.0,1.0,0.0,?,0.0,0.0,306.0,209.0,209.0,12.0,0.0,0.0,1.0
6700000.0,22.671875,1.8343778275367285E-6,6700000.0,91.4,82.3147158015958,81.38528138528139,78.60696517412936,278906.0,914968.0,0.0,1.0,0.0,?,0.0,0.0,320.0,216.0,216.0,12.0,0.0,0.0,1.0
6800000.0,23.125,1.957946676864392E-6,6800000.0,92.4,84.13175653103495,82.92134831460675,80.41237113402063,297088.0,1003304.0,0.0,1.0,0.0,?,0.0,0.0,344.0,237.0,237.0,12.0,0.0,0.0,1.0
6900000.0,23.578125,2.0825583487749097E-6,6900000.0,92.7,84.7510026737968,84.63157894736844,81.18556701030928,315270.0,1012296.0,0.0,1.0,0.0,?,0.0,0.0,348.0,239.0,239.0,12.0,0.0,0.0,1.0
7000000.0,24.046875,2.2209722859164076E-6,7000000.0,92.9,84.81958829012976,85.11530398322851,80.38674033149172,333452.0,1090712.0,0.0,1.0,0.0,?,0.0,0.0,372.0,260.0,260.0,12.0,0.0,0.0,1.0
7100000.0,24.515625,2.3625051835551857E-6,7100000.0,92.9,85.06043160623507,85.53971486761712,81.36482939632548,351634.0,1116456.0,0.0,1.0,0.0,?,0.0,0.0,382.0,265.0,265.0,12.0,0.0,0.0,1.0
7200000.0,24.96875,2.5011733911621073E-6,7200000.0,92.10000000000001,83.2605839725389,83.97565922920893,79.10052910052912,369816.0,1132328.0,0.0,1.0,0.0,?,0.0,0.0,390.0,269.0,269.0,12.0,0.0,0.0,1.0
7300000.0,25.421875,2.6420228985241716E-6,7300000.0,91.0,80.8224198696777,81.13207547169812,75.7412398921833,387998.0,1151000.0,0.0,1.0,0.0,?,0.0,0.0,394.0,271.0,271.0,12.0,0.0,0.0,1.0
7400000.0,25.875,2.785154986971368E-6,7400000.0,90.2,79.57311989327998,79.45492662473795,74.87179487179489,406180.0,1170504.0,0.0,1.0,0.0,?,0.0,0.0,406.0,277.0,277.0,13.0,0.0,0.0,1.0
7500000.0,26.34375,2.93748831609264E-6,7500000.0,92.60000000000001,84.70669929237485,84.25531914893618,81.6831683168317,424362.0,1205640.0,0.0,1.0,0.0,?,0.0,0.0,420.0,284.0,284.0,13.0,0.0,0.0,1.0
7600000.0,26.796875,3.090997051913291E-6,7600000.0,93.5,86.42983598891006,86.65297741273102,83.5858585858586,442544.0,1258832.0,0.0,1.0,0.0,?,0.0,0.0,446.0,297.0,297.0,13.0,0.0,0.0,1.0
7700000.0,27.25,3.2481575423541165E-6,7700000.0,90.60000000000001,79.67831200276721,79.65367965367966,73.59550561797754,460726.0,1293160.0,0.0,1.0,0.0,?,0.0,0.0,458.0,303.0,303.0,13.0,0.0,0.0,1.0
7800000.0,27.796875,3.477426038848029E-6,7800000.0,92.5,84.07643312101911,83.87096774193549,80.00000000000001,478906.0,1567736.0,0.0,1.0,0.0,?,0.0,0.0,542.0,369.0,369.0,13.0,0.0,0.0,1.0
7900000.0,28.359375,3.747212726415859E-6,7900000.0,91.60000000000001,82.13655329048942,82.99595141700405,77.71883289124669,497088.0,1800872.0,0.0,1.0,0.0,?,0.0,0.0,614.0,429.0,429.0,13.0,0.0,0.0,1.0
8000000.0,28.890625,4.009464626303977E-6,8000000.0,89.8,78.76070814297792,78.343949044586,73.7789203084833,515270.0,1855048.0,0.0,1.0,0.0,?,0.0,0.0,624.0,434.0,434.0,13.0,0.0,0.0,1.0
8100000.0,29.421875,4.286006442271173E-6,8100000.0,91.7,82.45525031918763,81.30630630630631,77.74798927613942,533452.0,1958976.0,0.0,1.0,0.0,?,0.0,0.0,659.0,462.0,462.0,13.0,0.0,0.0,1.0
8200000.0,29.984375,4.593966878019273E-6,8200000.0,92.80000000000001,85.01342547301377,85.62874251497007,81.8639798488665,551634.0,2063008.0,0.0,1.0,0.0,?,0.0,0.0,696.0,491.0,491.0,13.0,0.0,0.0,1.0
8300000.0,30.53125,4.898808967684292E-6,8300000.0,91.3,82.13478992977124,81.87500000000001,78.62407862407863,569816.0,2101440.0,0.0,1.0,0.0,?,0.0,0.0,702.0,494.0,494.0,13.0,0.0,0.0,1.0
8400000.0,31.09375,5.227265484993242E-6,8400000.0,91.7,82.43059024749584,81.43176733780761,78.10026385224276,587998.0,2203992.0,0.0,1.0,0.0,?,0.0,0.0,750.0,536.0,536.0,14.0,0.0,0.0,1.0
8500000.0,31.671875,5.5793915331984556E-6,8500000.0,92.80000000000001,84.96209194009901,84.38177874186552,81.7721518987342,606180.0,2301008.0,0.0,1.0,0.0,?,0.0,0.0,769.0,547.0,547.0,14.0,0.0,0.0,1.0
8600000.0,32.203125,5.908124472221566E-6,8600000.0,92.5,84.39437698191414,84.75609756097562,81.34328358208957,624362.0,2338528.0,0.0,1.0,0.0,?,0.0,0.0,779.0,552.0,552.0,14.0,0.0,0.0,1.0
8700000.0,32.765625,6.257351811250879E-6,8700000.0,93.0,85.28849265895785,84.9462365591398,81.9121447028424,642544.0,2346600.0,0.0,1.0,0.0,?,0.0,0.0,781.0,553.0,553.0,14.0,0.0,0.0,1.0
8800000.0,33.328125,6.6182369806079404E-6,8800000.0,92.9,85.09830918279968,84.2920353982301,81.84143222506395,660726.0,2429920.0,0.0,1.0,0.0,?,0.0,0.0,809.0,576.0,576.0,15.0,0.0,0.0,1.0
8900000.0,33.890625,6.98323975989802E-6,8900000.0,92.80000000000001,84.81140831997301,84.58244111349038,81.151832460733,678906.0,2453472.0,0.0,1.0,0.0,?,0.0,0.0,813.0,578.0,578.0,15.0,0.0,0.0,1.0
9000000.0,34.453125,7.351506824812128E-6,9000000.0,92.5,83.97559162115735,84.04255319148936,79.67479674796749,697088.0,2475960.0,0.0,1.0,0.0,?,0.0,0.0,815.0,579.0,579.0,15.0,0.0,0.0,1.0
9100000.0,35.03125,7.732603504943351E-6,9100000.0,92.80000000000001,84.67772140692567,84.38177874186552,80.43478260869567,715270.0,2493384.0,0.0,1.0,0.0,?,0.0,0.0,825.0,584.0,584.0,15.0,0.0,0.0,1.0
9200000.0,35.59375,8.104672694268326E-6,9200000.0,92.7,84.62147768639613,84.26724137931035,81.18556701030928,733452.0,2502256.0,0.0,1.0,0.0,?,0.0,0.0,825.0,584.0,584.0,15.0,0.0,0.0,1.0
9300000.0,36.140625,8.467976456611522E-6,9300000.0,92.80000000000001,84.96410179303086,84.71337579617835,81.58567774936063,751634.0,2513480.0,0.0,1.0,0.0,?,0.0,0.0,832.0,589.0,589.0,15.0,0.0,0.0,1.0
9400000.0,36.75,8.899217031689155E-6,9400000.0,92.5,84.50426029536948,84.27672955974843,81.57248157248158,769816.0,2680920.0,0.0,1.0,0.0,?,0.0,0.0,876.0,629.0,629.0,15.0,0.0,0.0,1.0
9500000.0,37.390625,9.380030678585172E-6,9500000.0,93.7,86.56785153851403,86.70886075949367,83.06451612903227,787998.0,2846552.0,0.0,1.0,0.0,?,0.0,0.0,923.0,672.0,672.0,15.0,0.0,0.0,1.0
9600000.0,38.03125,9.875634083679568E-6,9600000.0,93.5,86.02246727106953,85.55555555555556,81.89415041782732,806180.0,2935808.0,0.0,1.0,0.0,?,0.0,0.0,954.0,698.0,698.0,15.0,0.0,0.0,1.0
9700000.0,38.65625,1.0368928487878294E-5,9700000.0,92.9,84.84654458530756,84.76394849785409,81.26649076517151,824362.0,2996480.0,0.0,1.0,0.0,?,0.0,0.0,988.0,727.0,727.0,15.0,0.0,0.0,1.0
9800000.0,39.28125,1.087706713911353E-5,9800000.0,94.89999999999999,89.01733108224511,89.0557939914163,85.98901098901098,842544.0,3088144.0,0.0,1.0,0.0,?,0.0,0.0,1009.0,742.0,742.0,15.0,0.0,0.0,1.0
9900000.0,39.921875,1.1410156051473072E-5,9900000.0,92.5,83.34917012263891,83.97435897435899,77.81065088757397,860726.0,3165360.0,0.0,1.0,0.0,?,0.0,0.0,1046.0,774.0,774.0,15.0,0.0,0.0,1.0
1.0E7,40.59375,1.2000567900637786E-5,1.0E7,93.8,86.77338976687031,86.97478991596638,83.42245989304811,878906.0,3340872.0,0.0,1.0,0.0,?,0.0,0.0,1118.0,840.0,840.0,16.0,0.0,0.0,1.0
