learning evaluation instances,evaluation time (cpu seconds),model cost (RAM-Hours),classified instances,classifications correct (percent),Kappa Statistic (percent),Kappa Temporal Statistic (percent),Kappa M Statistic (percent),model training instances,model serialized size (bytes),labeling cost,newThreshold,maxPosterior,accuracyBaseLearner (percent),Change detected,Warning detected
100000.0,0.21875,5.705256222022904E-9,100000.0,89.1,75.16405395552316,74.53271028037383,67.94117647058823,29700.0,1112.0,0.0,1.0,0.0,?,0.0,12.0
200000.0,0.4375,1.086724094218678E-8,200000.0,90.7,79.30721443955927,79.19463087248323,73.65439093484419,59700.0,1112.0,0.0,1.0,0.0,?,0.0,0.0
300000.0,0.609375,1.4496229899426302E-8,300000.0,88.6,74.18665314107675,75.32467532467533,67.24137931034483,89700.0,1112.0,0.0,1.0,0.0,?,0.0,0.0
400000.0,0.828125,1.8571671615872117E-8,400000.0,87.3,71.62315550510783,73.15010570824523,64.62395543175488,119700.0,1112.0,0.0,1.0,0.0,?,0.0,0.0
500000.0,1.046875,2.2103841830458904E-8,500000.0,86.9,70.52974471110151,72.00854700854701,63.305322128851536,149700.0,1112.0,0.0,1.0,0.0,?,0.0,0.0
600000.0,1.25,2.4879247777991824E-8,600000.0,86.9,70.69088956506175,72.12765957446808,64.01098901098901,179700.0,1112.0,0.0,1.0,0.0,?,0.0,0.0
700000.0,1.46875,2.7324874988860555E-8,700000.0,89.5,75.60250202150698,75.86206896551725,68.27794561933534,209700.0,1112.0,0.0,1.0,0.0,?,0.0,0.0
800000.0,1.671875,2.9091348147226705E-8,800000.0,87.6,71.74111212397447,71.88208616780045,64.57142857142857,239700.0,1112.0,0.0,1.0,0.0,?,0.0,0.0
900000.0,1.890625,3.045043235437737E-8,900000.0,87.7,72.08580324803239,73.9406779661017,64.55331412103746,269700.0,1112.0,0.0,1.0,0.0,?,0.0,0.0
1000000.0,2.09375,3.120797272357675E-8,1000000.0,87.5,71.34631078020557,72.22222222222221,63.87283236994219,299700.0,1112.0,0.0,1.0,0.0,?,0.0,0.0
1100000.0,2.3125,3.691866166061824E-8,1100000.0,87.2,72.35803258296909,74.5019920318725,66.83937823834198,329400.0,1112.0,0.0,1.0,0.0,?,0.0,0.0
1200000.0,2.515625,4.1716977850430534E-8,1200000.0,90.4,78.67074292468551,78.76106194690266,73.25905292479109,359400.0,1112.0,0.0,1.0,0.0,?,0.0,0.0
1300000.0,2.734375,4.634112378375397E-8,1300000.0,89.1,75.68462286626989,76.7590618336887,70.21857923497268,389400.0,1112.0,0.0,1.0,0.0,?,0.0,0.0
1400000.0,2.9375,5.013050718439949E-8,1400000.0,87.6,73.0962330386937,73.04347826086956,67.95865633074936,419400.0,1112.0,0.0,1.0,0.0,?,0.0,0.0
1500000.0,3.15625,5.366811011400487E-8,1500000.0,88.1,72.81540977914234,73.31838565022422,65.2046783625731,449400.0,1112.0,0.0,1.0,0.0,?,0.0,0.0
1600000.0,3.34375,5.6234679909216025E-8,1600000.0,89.1,75.15431676650529,76.95560253699789,68.4971098265896,479400.0,1112.0,0.0,1.0,0.0,?,0.0,0.0
1700000.0,3.5625,5.868573983510334E-8,1700000.0,86.6,70.2782312442331,71.36752136752136,63.97849462365591,509400.0,1112.0,0.0,1.0,0.0,?,0.0,0.0
1800000.0,3.765625,6.045725765741532E-8,1800000.0,88.3,73.34123222748815,73.52941176470587,65.58823529411765,539400.0,1112.0,0.0,1.0,0.0,?,0.0,0.0
1900000.0,3.984375,6.182177457958458E-8,1900000.0,88.8,74.78215837705177,75.43859649122807,67.90830945558739,569400.0,1112.0,0.0,1.0,0.0,?,0.0,0.0
2000000.0,4.1875,6.25843596127298E-8,2000000.0,87.9,71.22062601084579,70.48780487804879,62.18749999999999,599400.0,1112.0,0.0,1.0,0.0,?,0.0,0.0
2100000.0,4.40625,6.830048126478988E-8,2100000.0,88.8,75.28772152792487,76.32135306553911,69.23076923076923,629100.0,1112.0,0.0,1.0,0.0,?,0.0,0.0
2200000.0,4.625,7.347333141499094E-8,2200000.0,89.4,74.67991591821136,75.85421412300684,66.875,659100.0,1112.0,0.0,1.0,0.0,?,0.0,0.0
2300000.0,4.828125,7.777222587416567E-8,2300000.0,86.4,69.77455373017565,70.24070021881838,62.637362637362635,689100.0,1112.0,0.0,1.0,0.0,?,0.0,0.0
2400000.0,5.046875,8.185853302064867E-8,2400000.0,88.4,73.3108776579835,73.39449541284404,65.78171091445427,719100.0,1112.0,0.0,1.0,0.0,?,0.0,0.0
2500000.0,5.25,8.514849469065664E-8,2500000.0,86.9,69.2291791942273,70.42889390519187,59.5679012345679,749100.0,1112.0,0.0,1.0,0.0,?,0.0,0.0
2600000.0,5.546875,8.921960317012334E-8,2600000.0,87.6,73.29888027562447,74.32712215320912,69.0,779100.0,1112.0,0.0,1.0,0.0,?,0.0,0.0
2700000.0,5.75,9.150063205096454E-8,2700000.0,89.8,77.37325696437841,79.6812749003984,71.74515235457064,809100.0,1112.0,0.0,1.0,0.0,?,0.0,0.0
2800000.0,5.96875,9.341385319001142E-8,2800000.0,89.60000000000001,75.24281089316321,76.25570776255708,67.5,839100.0,1112.0,0.0,1.0,0.0,?,0.0,0.0
2900000.0,6.171875,9.468594928168585E-8,2900000.0,88.3,73.2309550829154,73.10344827586206,66.37931034482759,869100.0,1112.0,0.0,1.0,0.0,?,0.0,0.0
3000000.0,6.390625,9.551262741701468E-8,3000000.0,87.8,72.67367892916658,74.09766454352442,66.29834254143645,899100.0,1112.0,0.0,1.0,0.0,?,0.0,0.0
3100000.0,6.59375,1.0082549932930202E-7,3100000.0,87.4,72.12697710430261,72.12389380530973,65.2892561983471,928800.0,1112.0,0.0,1.0,0.0,?,0.0,0.0
3200000.0,6.8125,1.0600378219452166E-7,3200000.0,87.1,71.69836157646708,72.66949152542372,65.41554959785523,958800.0,1112.0,0.0,1.0,0.0,?,0.0,0.0
3300000.0,7.03125,1.1063879355788228E-7,3300000.0,87.7,71.99708587560332,72.96703296703296,64.34782608695652,988800.0,1112.0,0.0,1.0,0.0,?,0.0,0.0
3400000.0,7.234375,1.1443826628641947E-7,3400000.0,88.7,73.44575414058241,74.43438914027149,66.36904761904762,1018800.0,1112.0,0.0,1.0,0.0,?,0.0,0.0
3500000.0,7.453125,1.1798673464606203E-7,3500000.0,87.1,70.10068420759859,70.0,61.60714285714285,1048800.0,1112.0,0.0,1.0,0.0,?,0.0,0.0
3600000.0,7.671875,1.2099193150384555E-7,3600000.0,87.3,71.99311956953204,73.15010570824523,65.67567567567568,1078800.0,1112.0,0.0,1.0,0.0,?,0.0,0.0
3700000.0,7.875,1.2327800504863257E-7,3700000.0,88.8,73.73419947937431,73.95348837209302,66.56716417910448,1108800.0,1112.0,0.0,1.0,0.0,?,0.0,0.0
3800000.0,8.09375,1.2519665890269806E-7,3800000.0,88.6,74.93128092358438,76.3975155279503,69.60000000000001,1138800.0,1112.0,0.0,1.0,0.0,?,0.0,0.0
3900000.0,8.296875,1.2647379965831833E-7,3900000.0,89.8,77.3627115032935,77.28285077951003,71.50837988826815,1168800.0,1112.0,0.0,1.0,0.0,?,0.0,0.0
4000000.0,8.515625,1.2730591050866574E-7,4000000.0,86.8,70.85423585105632,72.09302325581395,64.51612903225806,1198800.0,1112.0,0.0,1.0,0.0,?,0.0,0.0
4100000.0,8.71875,1.3262382708489892E-7,4100000.0,86.9,70.71212026363564,72.1868365180467,63.812154696132595,1228500.0,1112.0,0.0,1.0,0.0,?,0.0,0.0
4200000.0,8.9375,1.3780754266513717E-7,4200000.0,86.8,70.60395510422234,70.98901098901098,63.33333333333333,1258500.0,1112.0,0.0,1.0,0.0,?,0.0,0.0
4300000.0,9.140625,1.4211652645220358E-7,4300000.0,85.6,67.82726817759347,68.35164835164834,59.5505617977528,1288500.0,1112.0,0.0,1.0,0.0,?,0.0,0.0
4400000.0,9.359375,1.4621369902872374E-7,4400000.0,87.8,72.47652608638762,73.00884955752213,65.43909348441926,1318500.0,1112.0,0.0,1.0,0.0,?,0.0,0.0
4500000.0,9.578125,1.497676001033849E-7,4500000.0,89.2,75.91403988456581,75.34246575342466,69.91643454038997,1348500.0,1112.0,0.0,1.0,0.0,?,0.0,0.0
4600000.0,9.78125,1.5256318470670115E-7,4600000.0,87.6,72.37470592428888,74.22037422037423,65.93406593406593,1378500.0,1112.0,0.0,1.0,0.0,?,0.0,0.0
4700000.0,10.0,1.5503054277764423E-7,4700000.0,88.7,74.45057429682555,76.84426229508196,67.89772727272727,1408500.0,1112.0,0.0,1.0,0.0,?,0.0,0.0
4800000.0,10.21875,1.569546293467283E-7,4800000.0,89.4,75.75169738118332,77.05627705627705,68.63905325443788,1438500.0,1112.0,0.0,1.0,0.0,?,0.0,0.0
4900000.0,10.53125,1.589272222999069E-7,4900000.0,89.60000000000001,76.7191977077364,78.28810020876827,70.45454545454545,1468500.0,1112.0,0.0,1.0,0.0,?,0.0,0.0
5000000.0,10.734375,1.5974445785913199E-7,5000000.0,87.9,72.90883037793301,73.05122494432071,65.91549295774648,1498500.0,1112.0,0.0,1.0,0.0,?,0.0,0.0
5100000.0,10.953125,1.6551943392389346E-7,5100000.0,88.5,76.1486004413546,76.19047619047619,71.81372549019608,23291.0,1112.0,0.0,1.0,0.0,?,4.0,18.0
5200000.0,11.15625,1.7037744530373145E-7,5200000.0,89.5,78.65818956405796,78.03347280334728,76.5625,53291.0,1112.0,0.0,1.0,0.0,?,0.0,0.0
5300000.0,11.375,1.7506587836477487E-7,5300000.0,88.0,75.07115108959844,76.14314115308152,71.36038186157518,83291.0,1112.0,0.0,1.0,0.0,?,0.0,0.0
5400000.0,11.578125,1.7891495695544608E-7,5400000.0,86.7,72.71257519429467,73.92156862745098,69.28406466512702,113291.0,1112.0,0.0,1.0,0.0,?,0.0,0.0
5500000.0,11.796875,1.8251684701277145E-7,5500000.0,87.8,74.69887513687495,74.74120082815735,70.67307692307693,143291.0,1112.0,0.0,1.0,0.0,?,0.0,0.0
5600000.0,12.015625,1.8557546556823778E-7,5600000.0,87.6,74.397092831186,74.48559670781893,71.16279069767442,173291.0,1112.0,0.0,1.0,0.0,?,0.0,0.0
5700000.0,12.21875,1.8791114497515884E-7,5700000.0,89.5,77.92837863971546,77.07423580786026,73.61809045226131,203291.0,1112.0,0.0,1.0,0.0,?,0.0,0.0
5800000.0,12.4375,1.8988322052690713E-7,5800000.0,87.8,74.7942216786222,74.15254237288136,71.36150234741785,233291.0,1112.0,0.0,1.0,0.0,?,0.0,0.0
5900000.0,12.640625,1.9120996714466144E-7,5900000.0,88.0,74.98801509056423,75.90361445783132,71.0843373493976,263291.0,1112.0,0.0,1.0,0.0,?,0.0,0.0
6000000.0,12.859375,1.9209549969269164E-7,6000000.0,89.0,76.95804269046272,77.41273100616016,72.8395061728395,293291.0,1112.0,0.0,1.0,0.0,?,0.0,0.0
6100000.0,13.078125,1.9787590847247172E-7,6100000.0,88.6,76.70093400641747,78.2442748091603,73.91304347826087,322991.0,1112.0,0.0,1.0,0.0,?,0.0,0.0
6200000.0,13.28125,2.0273896451625555E-7,6200000.0,89.4,78.33471636873496,77.30192719486082,75.96371882086169,352991.0,1112.0,0.0,1.0,0.0,?,0.0,0.0
6300000.0,13.5,2.0743283029231755E-7,6300000.0,89.60000000000001,78.56704188082452,78.77551020408163,75.87006960556846,382991.0,1112.0,0.0,1.0,0.0,?,0.0,0.0
6400000.0,13.703125,2.112869535469346E-7,6400000.0,88.0,75.42584954885956,74.84276729559748,72.78911564625851,412991.0,1112.0,0.0,1.0,0.0,?,0.0,0.0
6500000.0,13.921875,2.1489427631927855E-7,6500000.0,89.0,77.09945913086203,77.31958762886599,73.36561743341406,442991.0,1112.0,0.0,1.0,0.0,?,0.0,0.0
6600000.0,14.125,2.1773946678472884E-7,6600000.0,89.3,77.55966612138752,77.93814432989691,73.58024691358025,472991.0,1112.0,0.0,1.0,0.0,?,0.0,0.0
6700000.0,14.34375,2.2026024655335475E-7,6700000.0,87.7,74.91822934934216,75.78740157480314,72.72727272727273,502991.0,1112.0,0.0,1.0,0.0,?,0.0,0.0
6800000.0,14.546875,2.2209650422963826E-7,6800000.0,88.0,75.04377737385668,74.19354838709677,70.51597051597052,532991.0,1112.0,0.0,1.0,0.0,?,0.0,0.0
6900000.0,14.765625,2.235307409945461E-7,6900000.0,88.5,76.18909584820652,76.14107883817427,72.22222222222223,562991.0,1112.0,0.0,1.0,0.0,?,0.0,0.0
7000000.0,14.96875,2.2435806588166283E-7,7000000.0,87.4,72.98236134161874,71.29840546697038,66.75461741424802,592991.0,1112.0,0.0,1.0,0.0,?,0.0,0.0
7100000.0,15.15625,2.2931735859149024E-7,7100000.0,89.9,79.36501450578189,80.5019305019305,76.9406392694064,622691.0,1112.0,0.0,1.0,0.0,?,0.0,0.0
7200000.0,15.390625,2.3493439786963985E-7,7200000.0,88.8,76.31894991457906,75.80993520518359,72.13930348258707,652691.0,1112.0,0.0,1.0,0.0,?,0.0,0.0
7300000.0,15.59375,2.392980321827861E-7,7300000.0,86.6,72.46605516651871,71.24463519313305,68.9814814814815,682691.0,1112.0,0.0,1.0,0.0,?,0.0,0.0
7400000.0,15.796875,2.43157200101349E-7,7400000.0,88.2,74.98972035116128,75.46777546777547,69.66580976863753,712691.0,1112.0,0.0,1.0,0.0,?,0.0,0.0
7500000.0,16.015625,2.4676995558871154E-7,7500000.0,87.5,73.72426028537555,74.84909456740442,68.5929648241206,742691.0,1112.0,0.0,1.0,0.0,?,0.0,0.0
7600000.0,16.21875,2.4962019071810763E-7,7600000.0,88.7,77.1245799425078,77.35470941883767,75.6989247311828,772691.0,1112.0,0.0,1.0,0.0,?,0.0,0.0
7700000.0,16.4375,2.521464032017521E-7,7700000.0,90.0,79.42124303923546,81.02466793168881,76.24703087885987,802691.0,1112.0,0.0,1.0,0.0,?,0.0,0.0
7800000.0,16.640625,2.5398770554198144E-7,7800000.0,89.2,76.70968187150645,76.72413793103449,71.12299465240642,832691.0,1112.0,0.0,1.0,0.0,?,0.0,0.0
7900000.0,16.859375,2.554273750219079E-7,7900000.0,88.2,75.42229905646623,75.31380753138075,71.56626506024097,862691.0,1112.0,0.0,1.0,0.0,?,0.0,0.0
8000000.0,17.0625,2.562597445729705E-7,8000000.0,87.9,75.2663466963198,76.64092664092664,72.62443438914026,892691.0,1112.0,0.0,1.0,0.0,?,0.0,0.0
8100000.0,17.28125,2.620510187827877E-7,8100000.0,87.7,74.67051070840198,74.10526315789474,71.05882352941177,922391.0,1112.0,0.0,1.0,0.0,?,0.0,0.0
8200000.0,17.5,2.672990214907459E-7,8200000.0,87.4,74.10678689885619,74.8,70.76566125290023,952391.0,1112.0,0.0,1.0,0.0,?,0.0,0.0
8300000.0,17.6875,2.713316482388309E-7,8300000.0,88.2,75.46950943176573,76.06490872210954,71.42857142857143,982391.0,1112.0,0.0,1.0,0.0,?,0.0,0.0
8400000.0,17.90625,2.7549310794307106E-7,8400000.0,89.2,77.4918407922872,78.52882703777337,74.46808510638299,1012391.0,1112.0,0.0,1.0,0.0,?,0.0,0.0
8500000.0,18.109375,2.788528541309964E-7,8500000.0,87.3,73.43118467627886,72.45119305856834,68.7192118226601,1042391.0,1112.0,0.0,1.0,0.0,?,0.0,0.0
8600000.0,18.328125,2.8192777083151853E-7,8600000.0,87.2,73.70550992822427,73.98373983739837,70.16317016317016,1072391.0,1112.0,0.0,1.0,0.0,?,0.0,0.0
8700000.0,18.546875,2.844594160301816E-7,8700000.0,88.3,75.15923566878982,75.72614107883817,70.75,1102391.0,1112.0,0.0,1.0,0.0,?,0.0,0.0
8800000.0,18.75,2.863057630343568E-7,8800000.0,89.2,77.84315415010032,78.4,75.39863325740319,1132391.0,1112.0,0.0,1.0,0.0,?,0.0,0.0
8900000.0,18.953125,2.876476436439486E-7,8900000.0,89.5,78.21902122504522,79.12524850894633,74.82014388489209,1162391.0,1112.0,0.0,1.0,0.0,?,0.0,0.0
9000000.0,19.171875,2.8854947433703454E-7,9000000.0,87.9,75.1071831206129,75.0,71.7948717948718,1192391.0,1112.0,0.0,1.0,0.0,?,0.0,0.0
9100000.0,19.375,2.9393213076723925E-7,9100000.0,86.5,72.22176496732456,72.27926078028747,68.75,1222091.0,1112.0,0.0,1.0,0.0,?,0.0,0.0
9200000.0,19.59375,2.9918556619021605E-7,9200000.0,87.6,74.38482259423907,74.64212678936605,70.61611374407583,1252091.0,1112.0,0.0,1.0,0.0,?,0.0,0.0
9300000.0,19.8125,3.0389573011133384E-7,9300000.0,86.7,72.49975187746055,73.23943661971832,67.71844660194175,1282091.0,1112.0,0.0,1.0,0.0,?,0.0,0.0
9400000.0,19.984375,3.0716971701218E-7,9400000.0,88.0,75.20292274883867,75.7085020242915,71.29186602870814,1312091.0,1112.0,0.0,1.0,0.0,?,0.0,0.0
9500000.0,20.234375,3.1131099806063683E-7,9500000.0,88.9,77.16707121405358,77.11340206185568,74.18604651162791,1342091.0,1112.0,0.0,1.0,0.0,?,0.0,0.0
9600000.0,20.421875,3.139512975596717E-7,9600000.0,87.5,74.37474374743748,75.0996015936255,71.5261958997722,1372091.0,1112.0,0.0,1.0,0.0,?,0.0,0.0
9700000.0,20.640625,3.164883754733534E-7,9700000.0,88.0,74.90096338468875,76.5625,70.8029197080292,1402091.0,1112.0,0.0,1.0,0.0,?,0.0,0.0
9800000.0,20.859375,3.18482181885176E-7,9800000.0,89.4,78.064457385035,78.62903225806453,74.58033573141488,1432091.0,1112.0,0.0,1.0,0.0,?,0.0,0.0
9900000.0,21.0625,3.1982910715871366E-7,9900000.0,90.4,80.32504662554055,81.5028901734104,77.62237762237764,1462091.0,1112.0,0.0,1.0,0.0,?,0.0,0.0
1.0E7,21.28125,3.2073637056681826E-7,1.0E7,89.3,77.90589148695416,77.61506276150628,74.70449172576834,1492091.0,1112.0,0.0,1.0,0.0,?,0.0,0.0
