learning evaluation instances,evaluation time (cpu seconds),model cost (RAM-Hours),classified instances,classifications correct (percent),Kappa Statistic (percent),Kappa Temporal Statistic (percent),Kappa M Statistic (percent),model training instances,model serialized size (bytes),labeling cost,newThreshold,maxPosterior,accuracyBaseLearner (percent),Change detected,Warning detected,tree size (nodes),tree size (leaves),active learning leaves,tree depth,active leaf byte size estimate,inactive leaf byte size estimate,byte size estimate overhead
100000.0,0.46875,4.0107988752424714E-8,100000.0,87.6,74.35133703997882,73.56076759061834,69.90291262135922,29088.0,149128.0,0.0,1.0,0.0,?,2.0,10.0,60.0,44.0,44.0,3.0,0.0,0.0,1.0
200000.0,1.015625,1.2510055158701206E-7,200000.0,86.4,71.14976665252439,70.6896551724138,63.24324324324324,59088.0,433512.0,0.0,1.0,0.0,?,0.0,0.0,169.0,124.0,124.0,5.0,0.0,0.0,1.0
300000.0,1.546875,2.300666205378042E-7,300000.0,87.0,72.88469320073253,70.52154195011337,66.40826873385012,89088.0,611048.0,0.0,1.0,0.0,?,0.0,0.0,240.0,170.0,170.0,6.0,0.0,0.0,1.0
400000.0,2.109375,3.8558468481318814E-7,400000.0,92.80000000000001,84.81198503136747,85.15463917525774,81.10236220472441,119088.0,930088.0,0.0,1.0,0.0,?,0.0,0.0,369.0,257.0,257.0,7.0,0.0,0.0,1.0
500000.0,2.609375,5.456303996551367E-7,500000.0,94.0,87.4316596493433,87.44769874476987,84.251968503937,149088.0,1113080.0,0.0,1.0,0.0,?,0.0,0.0,462.0,314.0,314.0,7.0,0.0,0.0,1.0
600000.0,3.109375,7.202906352985236E-7,600000.0,94.0,87.24299959602831,87.60330578512395,83.82749326145552,179088.0,1241848.0,0.0,1.0,0.0,?,0.0,0.0,528.0,356.0,356.0,7.0,0.0,0.0,1.0
700000.0,3.59375,9.08780170397626E-7,700000.0,94.3,87.75447069236651,87.79443254817986,84.29752066115701,209088.0,1410376.0,0.0,1.0,0.0,?,0.0,0.0,597.0,401.0,401.0,8.0,0.0,0.0,1.0
800000.0,4.109375,1.132247917768028E-6,800000.0,95.7,90.97503232197725,90.71274298056154,89.03061224489795,239088.0,1596008.0,0.0,1.0,0.0,?,0.0,0.0,675.0,455.0,455.0,8.0,0.0,0.0,1.0
900000.0,4.609375,1.3609879857136144E-6,900000.0,95.89999999999999,91.15082448415781,91.40461215932913,88.6111111111111,269088.0,1703920.0,0.0,1.0,0.0,?,0.0,0.0,723.0,485.0,485.0,8.0,0.0,0.0,1.0
1000000.0,5.09375,1.5930185974058178E-6,1000000.0,97.0,93.7122736418511,93.61702127659574,92.3076923076923,299088.0,1802072.0,0.0,1.0,0.0,?,0.0,0.0,774.0,518.0,518.0,8.0,0.0,0.0,1.0
1100000.0,5.59375,1.8606382784330182E-6,1100000.0,96.5,92.55300135322602,92.44060475161986,90.74074074074073,328788.0,1882128.0,0.0,1.0,0.0,?,0.0,0.0,819.0,548.0,548.0,8.0,0.0,0.0,1.0
1200000.0,6.078125,2.1300849039107562E-6,1200000.0,96.2,92.01358531172237,91.93205944798301,90.2061855670103,358788.0,1978312.0,0.0,1.0,0.0,?,0.0,0.0,873.0,584.0,584.0,8.0,0.0,0.0,1.0
1300000.0,6.5625,2.4034351291548876E-6,1300000.0,96.89999999999999,93.53902843661162,93.34763948497854,92.2110552763819,388788.0,2024440.0,0.0,1.0,0.0,?,0.0,0.0,903.0,602.0,602.0,8.0,0.0,0.0,1.0
1400000.0,7.046875,2.6821074425242844E-6,1400000.0,96.39999999999999,92.63475332561346,92.59259259259258,91.6083916083916,418788.0,2081832.0,0.0,1.0,0.0,?,0.0,0.0,939.0,623.0,623.0,8.0,0.0,0.0,1.0
1500000.0,7.515625,2.9525101611701156E-6,1500000.0,96.8,93.08879174801734,93.30543933054393,91.16022099447513,448788.0,2102912.0,0.0,1.0,0.0,?,0.0,0.0,955.0,634.0,634.0,8.0,0.0,0.0,1.0
1600000.0,8.015625,3.243456368282852E-6,1600000.0,97.0,93.74478732276897,93.81443298969072,92.46231155778894,478788.0,2137416.0,0.0,1.0,0.0,?,0.0,0.0,990.0,656.0,656.0,8.0,0.0,0.0,1.0
1700000.0,8.53125,3.5515419505019163E-6,1700000.0,97.5,94.62859991233874,94.46902654867256,93.16939890710381,508788.0,2212648.0,0.0,1.0,0.0,?,0.0,0.0,1022.0,675.0,675.0,8.0,0.0,0.0,1.0
1800000.0,9.046875,3.865699561881937E-6,1800000.0,96.89999999999999,93.26935602935428,93.446088794926,91.24293785310734,538788.0,2273152.0,0.0,1.0,0.0,?,0.0,0.0,1049.0,693.0,693.0,8.0,0.0,0.0,1.0
1900000.0,9.546875,4.176757162592064E-6,1900000.0,96.2,91.99096243339852,92.06680584551148,90.2061855670103,568788.0,2337680.0,0.0,1.0,0.0,?,0.0,0.0,1101.0,725.0,725.0,8.0,0.0,0.0,1.0
2000000.0,10.03125,4.485939506493096E-6,2000000.0,96.8,93.33469416660765,92.82511210762331,91.85750636132315,598788.0,2415080.0,0.0,1.0,0.0,?,0.0,0.0,1134.0,743.0,743.0,8.0,0.0,0.0,1.0
2100000.0,10.515625,4.816664829074095E-6,2100000.0,97.2,94.0881124609921,94.01709401709401,92.61213720316623,628488.0,2449976.0,0.0,1.0,0.0,?,0.0,0.0,1164.0,764.0,764.0,8.0,0.0,0.0,1.0
2200000.0,11.0625,5.192416299703635E-6,2200000.0,97.1,93.7334693242519,93.82978723404256,91.92200557103062,658488.0,2481608.0,0.0,1.0,0.0,?,0.0,0.0,1191.0,779.0,779.0,8.0,0.0,0.0,1.0
2300000.0,11.609375,5.5710889864712955E-6,2300000.0,97.3,94.30764041153651,94.3157894736842,92.89473684210525,688488.0,2517288.0,0.0,1.0,0.0,?,0.0,0.0,1223.0,798.0,798.0,8.0,0.0,0.0,1.0
2400000.0,12.15625,5.957175065608075E-6,2400000.0,96.8,93.22323920694956,93.23467230443974,91.51193633952253,718488.0,2584576.0,0.0,1.0,0.0,?,0.0,0.0,1266.0,824.0,824.0,8.0,0.0,0.0,1.0
2500000.0,12.6875,6.3395559360894065E-6,2500000.0,97.2,93.98767473320306,93.87308533916848,92.32876712328768,748488.0,2652768.0,0.0,1.0,0.0,?,0.0,0.0,1291.0,838.0,838.0,8.0,0.0,0.0,1.0
2600000.0,13.21875,6.734231170008166E-6,2600000.0,97.5,94.69723322840925,94.46902654867256,93.38624338624338,778488.0,2757088.0,0.0,1.0,0.0,?,0.0,0.0,1337.0,870.0,870.0,8.0,0.0,0.0,1.0
2700000.0,13.734375,7.125271982254668E-6,2700000.0,97.7,95.12137178540823,95.1063829787234,93.97905759162303,808488.0,2831752.0,0.0,1.0,0.0,?,0.0,0.0,1372.0,892.0,892.0,8.0,0.0,0.0,1.0
2800000.0,14.28125,7.542724067914403E-6,2800000.0,98.3,96.37526652452026,96.39830508474576,95.47872340425532,838488.0,2865896.0,0.0,1.0,0.0,?,0.0,0.0,1396.0,904.0,904.0,9.0,0.0,0.0,1.0
2900000.0,14.828125,7.962849502089537E-6,2900000.0,98.2,96.30049819957578,96.3855421686747,95.69377990430623,868488.0,2899848.0,0.0,1.0,0.0,?,0.0,0.0,1411.0,913.0,913.0,9.0,0.0,0.0,1.0
3000000.0,15.375,8.384965799955858E-6,3000000.0,97.0,93.75002604155816,93.58974358974358,92.48120300751879,898488.0,2928936.0,0.0,1.0,0.0,?,0.0,0.0,1436.0,927.0,927.0,9.0,0.0,0.0,1.0
3100000.0,15.921875,8.837454370222986E-6,3100000.0,98.6,96.99364370383095,97.03389830508475,96.19565217391303,928188.0,3006328.0,0.0,1.0,0.0,?,0.0,0.0,1473.0,950.0,950.0,9.0,0.0,0.0,1.0
3200000.0,16.453125,9.282757269425525E-6,3200000.0,97.6,95.00102062495573,94.9367088607595,93.89312977099236,958188.0,3063040.0,0.0,1.0,0.0,?,0.0,0.0,1496.0,963.0,963.0,9.0,0.0,0.0,1.0
3300000.0,17.03125,9.776478432791515E-6,3300000.0,97.6,94.94662371296823,94.86081370449678,93.76623376623377,988188.0,3138976.0,0.0,1.0,0.0,?,0.0,0.0,1525.0,982.0,982.0,9.0,0.0,0.0,1.0
3400000.0,17.53125,1.0203133861068636E-5,3400000.0,98.0,95.80048966290529,95.80712788259957,94.8586118251928,1018188.0,3151408.0,0.0,1.0,0.0,?,0.0,0.0,1535.0,987.0,987.0,9.0,3129.18006103764,0.0,1.0219246914158202
3500000.0,17.984375,1.0591714688214577E-5,3500000.0,97.2,94.13708336648673,94.00428265524626,92.80205655526991,1048188.0,3182880.0,0.0,1.0,0.0,?,0.0,0.0,1550.0,996.0,996.0,9.0,3129.18006103764,0.0,1.0219246914158202
3600000.0,18.421875,1.0968892699262748E-5,3600000.0,97.7,95.08547008547008,95.0,93.81720430107526,1078188.0,3215560.0,0.0,1.0,0.0,?,0.0,0.0,1569.0,1007.0,1007.0,9.0,3129.18006103764,0.0,1.0219246914158202
3700000.0,18.890625,1.1375943722669036E-5,3700000.0,98.2,96.21696146344743,96.24217118997912,95.40816326530613,1108188.0,3254728.0,0.0,1.0,0.0,?,0.0,0.0,1581.0,1013.0,1013.0,9.0,3129.18006103764,0.0,1.0219246914158202
3800000.0,19.359375,1.1781673432172587E-5,3800000.0,98.8,97.5177789085674,97.59036144578313,97.06601466992664,1138188.0,3259032.0,0.0,1.0,0.0,?,0.0,0.0,1599.0,1025.0,1025.0,9.0,3129.18006103764,0.0,1.0219246914158202
3900000.0,19.796875,1.216092945671537E-5,3900000.0,98.0,95.73787959509855,95.5456570155902,94.66666666666667,1168188.0,3279248.0,0.0,1.0,0.0,?,0.0,0.0,1617.0,1037.0,1037.0,9.0,3129.18006103764,0.0,1.0219246914158202
4000000.0,20.296875,1.2597830468116121E-5,4000000.0,97.39999999999999,94.53053015991888,94.51476793248945,93.35038363171356,1198188.0,3321144.0,0.0,1.0,0.0,?,0.0,0.0,1641.0,1055.0,1055.0,9.0,3129.18006103764,0.0,1.0219246914158202
4100000.0,20.859375,1.3117641178218441E-5,4100000.0,97.6,94.94677267214661,94.96855345911949,93.75,1227888.0,3378408.0,0.0,1.0,0.0,?,0.0,0.0,1656.0,1064.0,1064.0,9.0,3129.18006103764,0.0,1.0219246914158202
4200000.0,21.484375,1.3699081383593795E-5,4200000.0,98.1,96.00491185573946,96.11451942740285,95.10309278350515,1257888.0,3417472.0,0.0,1.0,0.0,?,0.0,0.0,1675.0,1078.0,1078.0,9.0,3129.18006103764,0.0,1.0219246914158202
4300000.0,22.015625,1.4193891579957887E-5,4300000.0,98.6,97.13015956312829,97.07724425887265,96.6824644549763,1287888.0,3436816.0,0.0,1.0,0.0,?,0.0,0.0,1685.0,1083.0,1083.0,9.0,3129.18006103764,0.0,1.0219246914158202
4400000.0,22.609375,1.4752955661000064E-5,4400000.0,97.89999999999999,95.55893922091104,95.54140127388536,94.50261780104712,1317888.0,3491136.0,0.0,1.0,0.0,?,0.0,0.0,1692.0,1088.0,1088.0,9.0,3129.18006103764,0.0,1.0219246914158202
4500000.0,23.21875,1.5328405521965278E-5,4500000.0,97.7,95.00590605892162,94.92273730684326,93.53932584269661,1347888.0,3516888.0,0.0,1.0,0.0,?,0.0,0.0,1717.0,1105.0,1105.0,9.0,3129.18006103764,0.0,1.0219246914158202
4600000.0,23.84375,1.5922670815295233E-5,4600000.0,97.6,94.87486119415733,94.86081370449678,93.51351351351352,1377888.0,3557000.0,0.0,1.0,0.0,?,0.0,0.0,1738.0,1117.0,1117.0,9.0,3129.18006103764,0.0,1.0219246914158202
4700000.0,24.46875,1.6517739374345794E-5,4700000.0,98.5,96.82162986820359,96.7032967032967,96.03174603174602,1407888.0,3577056.0,0.0,1.0,0.0,?,0.0,0.0,1757.0,1128.0,1128.0,9.0,3129.18006103764,0.0,1.0219246914158202
4800000.0,25.046875,1.7071749316528445E-5,4800000.0,98.5,96.81504318801437,96.88796680497926,96.03174603174602,1437888.0,3615984.0,0.0,1.0,0.0,?,0.0,0.0,1777.0,1141.0,1141.0,9.0,3129.18006103764,0.0,1.0219246914158202
4900000.0,25.625,1.7625662342955674E-5,4900000.0,97.6,94.81650425046651,95.0207468879668,93.4065934065934,1467888.0,3630496.0,0.0,1.0,0.0,?,0.0,0.0,1797.0,1154.0,1154.0,9.0,3129.18006103764,0.0,1.0219246914158202
5000000.0,26.203125,1.8182838199815406E-5,5000000.0,97.6,94.84041844206435,94.86081370449678,93.4959349593496,1497888.0,3665112.0,0.0,1.0,0.0,?,0.0,0.0,1811.0,1161.0,1161.0,9.0,3129.18006103764,0.0,1.0219246914158202
5100000.0,26.890625,1.823220838559792E-5,5100000.0,71.1,27.7398835837017,37.849462365591386,21.467391304347817,29206.0,89624.0,0.0,1.0,0.0,?,1.0,7.0,31.0,22.0,22.0,3.0,0.0,0.0,1.0
5200000.0,27.359375,1.828300136063869E-5,5200000.0,88.7,75.74815857699639,76.93877551020408,69.54177897574124,59206.0,245432.0,0.0,1.0,0.0,?,0.0,2.0,104.0,66.0,66.0,5.0,0.0,0.0,1.0
5300000.0,27.78125,1.8341478231983883E-5,5300000.0,88.9,76.93305181958738,77.62096774193549,71.68367346938776,89206.0,377000.0,0.0,1.0,0.0,?,0.0,0.0,153.0,95.0,95.0,5.0,0.0,0.0,1.0
5400000.0,28.25,1.8430168274790052E-5,5400000.0,92.0,83.07322522766512,82.41758241758242,79.05759162303666,119206.0,586984.0,0.0,1.0,0.0,?,0.0,0.0,237.0,149.0,149.0,6.0,0.0,0.0,1.0
5500000.0,28.734375,1.85555877073461E-5,5500000.0,91.2,81.18693347015564,81.2366737739872,76.21621621621622,149206.0,870912.0,0.0,1.0,0.0,?,0.0,0.0,353.0,234.0,234.0,6.0,0.0,0.0,1.0
5600000.0,29.203125,1.869685964063845E-5,5600000.0,92.9,84.8936170212766,85.17745302713988,81.06666666666668,179206.0,1049712.0,0.0,1.0,0.0,?,0.0,0.0,431.0,291.0,291.0,6.0,0.0,0.0,1.0
5700000.0,29.71875,1.887255471148011E-5,5700000.0,92.60000000000001,83.97990994111535,83.10502283105023,79.44444444444446,209206.0,1216552.0,0.0,1.0,0.0,?,0.0,0.0,509.0,345.0,345.0,6.0,0.0,0.0,1.0
5800000.0,30.171875,1.9039807698896364E-5,5800000.0,91.2,81.2401937376356,81.27659574468086,75.69060773480663,239206.0,1340960.0,0.0,1.0,0.0,?,0.0,0.0,556.0,376.0,376.0,6.0,0.0,0.0,1.0
5900000.0,30.640625,1.9226392355954484E-5,5900000.0,93.89999999999999,86.8904037755637,86.35346756152124,82.71954674220962,269206.0,1467656.0,0.0,1.0,0.0,?,0.0,0.0,632.0,429.0,429.0,7.0,0.0,0.0,1.0
6000000.0,31.109375,1.9430046409575478E-5,6000000.0,95.6,90.69956203392123,90.94650205761316,88.48167539267014,299206.0,1623184.0,0.0,1.0,0.0,?,0.0,0.0,706.0,481.0,481.0,7.0,0.0,0.0,1.0
6100000.0,31.609375,1.9689184846356514E-5,6100000.0,95.1,89.65895660982609,89.66244725738396,87.10526315789473,328906.0,1809648.0,0.0,1.0,0.0,?,0.0,0.0,792.0,542.0,542.0,7.0,0.0,0.0,1.0
6200000.0,32.078125,1.995203318074346E-5,6200000.0,95.3,90.11782911834214,90.2892561983471,87.82383419689118,358906.0,1988520.0,0.0,1.0,0.0,?,0.0,0.0,872.0,600.0,600.0,7.0,0.0,0.0,1.0
6300000.0,32.59375,2.0250576393057907E-5,6300000.0,95.8,91.08719272035854,90.92872570194383,88.82978723404254,388906.0,2073976.0,0.0,1.0,0.0,?,0.0,0.0,908.0,624.0,624.0,7.0,0.0,0.0,1.0
6400000.0,33.125,2.0575123619184732E-5,6400000.0,95.8,91.21250669523299,91.30434782608695,89.39393939393938,418906.0,2212072.0,0.0,1.0,0.0,?,0.0,0.0,989.0,678.0,678.0,7.0,0.0,0.0,1.0
6500000.0,33.65625,2.091609154983114E-5,6500000.0,96.6,92.82760948443169,92.91666666666666,91.09947643979058,448906.0,2346392.0,0.0,1.0,0.0,?,0.0,0.0,1061.0,729.0,729.0,8.0,0.0,0.0,1.0
6600000.0,34.203125,2.128262325034788E-5,6600000.0,94.3,88.15087059919176,87.92372881355931,85.64231738035262,478906.0,2470976.0,0.0,1.0,0.0,?,0.0,0.0,1120.0,769.0,769.0,8.0,0.0,0.0,1.0
6700000.0,34.734375,2.164608650168198E-5,6700000.0,96.1,91.55251734982974,91.94214876033057,89.07563025210084,508906.0,2539752.0,0.0,1.0,0.0,?,0.0,0.0,1152.0,788.0,788.0,8.0,0.0,0.0,1.0
6800000.0,35.296875,2.2041148881220992E-5,6800000.0,96.89999999999999,93.51735675449602,93.23144104803492,92.07161125319693,538906.0,2624936.0,0.0,1.0,0.0,?,0.0,0.0,1205.0,825.0,825.0,8.0,0.0,0.0,1.0
6900000.0,35.859375,2.2452503585049686E-5,6900000.0,97.2,93.9236374842123,93.77777777777777,92.20055710306406,568906.0,2751776.0,0.0,1.0,0.0,?,0.0,0.0,1271.0,873.0,873.0,8.0,0.0,0.0,1.0
7000000.0,36.46875,2.290512470709575E-5,7000000.0,96.7,93.12792063373065,93.27902240325865,91.72932330827066,598906.0,2811152.0,0.0,1.0,0.0,?,0.0,0.0,1317.0,905.0,905.0,8.0,0.0,0.0,1.0
7100000.0,37.078125,2.3388562420020926E-5,7100000.0,96.39999999999999,92.5430946985546,92.12253829321662,91.0224438902743,628606.0,2869488.0,0.0,1.0,0.0,?,0.0,0.0,1360.0,934.0,934.0,8.0,0.0,0.0,1.0
7200000.0,37.671875,2.3878700287443493E-5,7200000.0,96.3,92.24851674320382,92.6,90.65656565656565,658606.0,3008576.0,0.0,1.0,0.0,?,0.0,0.0,1438.0,988.0,988.0,8.0,0.0,0.0,1.0
7300000.0,38.25,2.4364388211526814E-5,7300000.0,96.2,91.67196300598303,91.2037037037037,88.9855072463768,688606.0,3080016.0,0.0,1.0,0.0,?,0.0,0.0,1472.0,1011.0,1011.0,8.0,0.0,0.0,1.0
7400000.0,38.84375,2.487385554963517E-5,7400000.0,96.3,92.04150462883297,91.8859649122807,89.83516483516483,718606.0,3164400.0,0.0,1.0,0.0,?,0.0,0.0,1522.0,1048.0,1048.0,8.0,0.0,0.0,1.0
7500000.0,39.40625,2.5359740506650684E-5,7500000.0,96.3,92.06859592711683,92.02586206896551,89.89071038251365,748606.0,3201624.0,0.0,1.0,0.0,?,0.0,0.0,1536.0,1055.0,1055.0,8.0,0.0,0.0,1.0
7600000.0,39.9375,2.5830330301283146E-5,7600000.0,96.3,92.08603548878355,92.41803278688523,89.94565217391303,778606.0,3301736.0,0.0,1.0,0.0,?,0.0,0.0,1602.0,1103.0,1103.0,8.0,0.0,0.0,1.0
7700000.0,40.515625,2.6347517042369077E-5,7700000.0,96.7,92.86868878957877,92.81045751633987,90.85872576177285,808606.0,3350656.0,0.0,1.0,0.0,?,0.0,0.0,1621.0,1114.0,1114.0,8.0,0.0,0.0,1.0
7800000.0,41.09375,2.6867514340362214E-5,7800000.0,97.1,93.87306684695344,93.74999999999999,92.44791666666666,838606.0,3384456.0,0.0,1.0,0.0,?,0.0,0.0,1644.0,1127.0,1127.0,8.0,0.0,0.0,1.0
7900000.0,41.625,2.7348063207076254E-5,7900000.0,97.39999999999999,94.47654656696125,94.51476793248945,93.12169312169311,868606.0,3419240.0,0.0,1.0,0.0,?,0.0,0.0,1670.0,1143.0,1143.0,8.0,0.0,0.0,1.0
8000000.0,42.1875,2.7859107843445005E-5,8000000.0,97.2,94.05174135271899,93.9655172413793,92.57294429708223,898606.0,3449664.0,0.0,1.0,0.0,?,0.0,0.0,1686.0,1154.0,1154.0,8.0,0.0,0.0,1.0
8100000.0,42.75,2.839341808188087E-5,8100000.0,98.0,95.62156292689761,95.56541019955654,94.31818181818181,928306.0,3472552.0,0.0,1.0,0.0,?,0.0,0.0,1709.0,1170.0,1170.0,8.0,0.0,0.0,1.0
8200000.0,43.34375,2.8962358256750236E-5,8200000.0,97.3,94.24336494507743,94.02654867256636,92.74193548387096,958306.0,3519744.0,0.0,1.0,0.0,?,0.0,0.0,1739.0,1188.0,1188.0,9.0,0.0,0.0,1.0
8300000.0,43.90625,2.9503770993970763E-5,8300000.0,96.2,91.85807336304421,91.9661733615222,89.72972972972973,988306.0,3551416.0,0.0,1.0,0.0,?,0.0,0.0,1752.0,1196.0,1196.0,9.0,0.0,0.0,1.0
8400000.0,44.578125,3.01571774050697E-5,8400000.0,97.0,93.5514934741114,93.68421052631578,91.71270718232043,1018306.0,3605184.0,0.0,1.0,0.0,?,0.0,0.0,1777.0,1216.0,1216.0,9.0,2915.346666666667,0.0,1.0194419417244833
8500000.0,45.1875,3.075933119463218E-5,8500000.0,96.5,92.59910850975648,92.18749999999999,90.74074074074073,1048306.0,3680576.0,0.0,1.0,0.0,?,0.0,0.0,1816.0,1243.0,1243.0,9.0,2915.346666666667,0.0,1.0194419417244833
8600000.0,45.765625,3.133742410379152E-5,8600000.0,98.1,95.87934728861052,95.97457627118644,94.6927374301676,1078306.0,3741224.0,0.0,1.0,0.0,?,0.0,0.0,1851.0,1268.0,1268.0,9.0,2915.346666666667,0.0,1.0194419417244833
8700000.0,46.359375,3.1937446264136175E-5,8700000.0,96.7,92.8429526940861,92.65033407572383,90.80779944289694,1108306.0,3797256.0,0.0,1.0,0.0,?,0.0,0.0,1871.0,1281.0,1281.0,9.0,2915.346666666667,0.0,1.0194419417244833
8800000.0,46.9375,3.2524023489612676E-5,8800000.0,97.5,94.72342293664731,94.70338983050847,93.47258485639685,1138306.0,3827976.0,0.0,1.0,0.0,?,0.0,0.0,1894.0,1294.0,1294.0,9.0,2915.346666666667,0.0,1.0194419417244833
8900000.0,47.53125,3.313282317119754E-5,8900000.0,96.3,92.2575353014539,92.11087420042642,90.41450777202071,1168306.0,3884456.0,0.0,1.0,0.0,?,0.0,0.0,1917.0,1310.0,1310.0,9.0,2915.346666666667,0.0,1.0194419417244833
9000000.0,48.125,3.374928459783809E-5,9000000.0,97.7,95.16404403663552,95.0,94.04145077720206,1198306.0,3949320.0,0.0,1.0,0.0,?,0.0,0.0,1951.0,1333.0,1333.0,9.0,2915.346666666667,0.0,1.0194419417244833
9100000.0,48.71875,3.439405085777657E-5,9100000.0,96.89999999999999,93.45107317897583,93.29004329004327,91.84210526315789,1228006.0,3996416.0,0.0,1.0,0.0,?,0.0,0.0,1974.0,1346.0,1346.0,9.0,2915.346666666667,0.0,1.0194419417244833
9200000.0,49.328125,3.505691339442921E-5,9200000.0,97.6,94.81148391560014,94.9260042283298,93.25842696629213,1258006.0,4018736.0,0.0,1.0,0.0,?,0.0,0.0,1990.0,1357.0,1357.0,9.0,2915.346666666667,0.0,1.0194419417244833
9300000.0,49.875,3.5652207669853756E-5,9300000.0,96.89999999999999,93.53902843661162,93.59504132231405,92.2110552763819,1288006.0,4036744.0,0.0,1.0,0.0,?,0.0,0.0,2010.0,1367.0,1367.0,9.0,2915.346666666667,0.0,1.0194419417244833
9400000.0,50.484375,3.632383909361024E-5,9400000.0,97.5,94.53757275953085,94.83471074380165,92.89772727272727,1318006.0,4104408.0,0.0,1.0,0.0,?,0.0,0.0,2049.0,1394.0,1394.0,9.0,2915.346666666667,0.0,1.0194419417244833
9500000.0,51.0625,3.69655853137374E-5,9500000.0,97.5,94.68071525230431,94.78079331941545,93.36870026525197,1348006.0,4149920.0,0.0,1.0,0.0,?,0.0,0.0,2078.0,1413.0,1413.0,9.0,2915.346666666667,0.0,1.0194419417244833
9600000.0,51.6875,3.766338004627162E-5,9600000.0,97.39999999999999,94.47710974407777,94.4206008583691,93.04812834224599,1378006.0,4189768.0,0.0,1.0,0.0,?,0.0,0.0,2110.0,1432.0,1432.0,9.0,2915.346666666667,0.0,1.0194419417244833
9700000.0,52.296875,3.8350078620068325E-5,9700000.0,96.8,93.10665724576491,92.76018099547511,91.06145251396647,1408006.0,4245088.0,0.0,1.0,0.0,?,0.0,0.0,2147.0,1458.0,1458.0,9.0,2915.346666666667,0.0,1.0194419417244833
9800000.0,52.921875,3.905992363191521E-5,9800000.0,97.89999999999999,95.55043266745204,95.625,94.42970822281167,1438006.0,4294472.0,0.0,1.0,0.0,?,0.0,0.0,2183.0,1485.0,1485.0,9.0,2915.346666666667,0.0,1.0194419417244833
9900000.0,53.53125,3.976269450504334E-5,9900000.0,97.39999999999999,94.40465532676812,94.39655172413792,92.81767955801105,1468006.0,4377152.0,0.0,1.0,0.0,?,0.0,0.0,2230.0,1519.0,1519.0,9.0,2915.346666666667,0.0,1.0194419417244833
1.0E7,54.140625,4.0474198952627694E-5,1.0E7,97.8,95.23221290336562,95.30916844349679,93.80281690140845,1498006.0,4447528.0,0.0,1.0,0.0,?,0.0,0.0,2255.0,1536.0,1536.0,9.0,2915.346666666667,0.0,1.0194419417244833
