learning evaluation instances,evaluation time (cpu seconds),model cost (RAM-Hours),classified instances,classifications correct (percent),Kappa Statistic (percent),Kappa Temporal Statistic (percent),Kappa M Statistic (percent),model training instances,model serialized size (bytes),labeling cost,newThreshold,maxPosterior,accuracyBaseLearner (percent),Change detected,Warning detected
100000.0,0.140625,6.376940291374922E-9,100000.0,62.2,10.059532024041214,19.7452229299363,-1.8867924528301903,13643.0,9312.0,0.0,1.0,0.0,?,13.0,84.0
200000.0,0.296875,1.2848015305482679E-8,200000.0,63.4,14.653085780644428,24.84599589322382,3.9370078740157513,43643.0,9312.0,0.0,1.0,0.0,?,0.0,0.0
300000.0,0.4375,1.8115517579846912E-8,300000.0,52.7,7.37622094981475,-5.111111111111116,-26.809651474530828,73643.0,9216.0,0.0,1.0,0.0,?,0.0,0.0
400000.0,0.59375,2.3353883686165017E-8,400000.0,54.800000000000004,12.404458845599295,-0.44444444444444486,-24.861878453038667,103643.0,9216.0,0.0,1.0,0.0,?,0.0,0.0
500000.0,0.734375,2.7518932862828177E-8,500000.0,63.800000000000004,14.32155451941965,24.4258872651357,0.8219178082191789,133643.0,9312.0,0.0,1.0,0.0,?,0.0,0.0
600000.0,0.90625,3.1929424343009794E-8,600000.0,62.7,14.602316955904564,25.250501002004004,4.60358056265985,163643.0,9312.0,0.0,1.0,0.0,?,0.0,0.0
700000.0,1.03125,3.464552315158977E-8,700000.0,61.6,8.899823018926996,14.093959731543611,-2.9490616621983943,193643.0,9312.0,0.0,1.0,0.0,?,0.0,0.0
800000.0,1.1875,3.7426232463783694E-8,800000.0,64.4,15.398033241918855,25.210084033613445,4.043126684636123,223643.0,9312.0,0.0,1.0,0.0,?,0.0,0.0
900000.0,1.328125,3.9375898066080285E-8,900000.0,51.300000000000004,4.759297213573848,-2.310924369747901,-24.552429667519174,253643.0,9216.0,0.0,1.0,0.0,?,0.0,0.0
1000000.0,1.484375,4.092777898121212E-8,1000000.0,63.6,15.840485350695477,23.36842105263158,5.699481865284979,283643.0,9312.0,0.0,1.0,0.0,?,0.0,0.0
1100000.0,1.625,4.731024900037382E-8,1100000.0,60.0,8.159141839021347,17.525773195876283,-0.5025125628140708,313343.0,9312.0,0.0,1.0,0.0,?,0.0,0.0
1200000.0,1.765625,5.313974624085758E-8,1200000.0,61.199999999999996,10.622143594279802,14.725274725274714,-1.0416666666666676,343343.0,9312.0,0.0,1.0,0.0,?,0.0,0.0
1300000.0,1.921875,5.90025511984196E-8,1300000.0,67.30000000000001,17.923334872793724,28.28947368421053,5.763688760806922,373343.0,9312.0,0.0,1.0,0.0,?,0.0,0.0
1400000.0,2.09375,6.477578103335368E-8,1400000.0,63.9,14.372189225602,22.198275862068964,1.90217391304348,403343.0,9312.0,0.0,1.0,0.0,?,0.0,0.0
1500000.0,2.25,6.940587708312605E-8,1500000.0,54.900000000000006,12.041876647995887,6.625258799171848,-15.051020408163248,433343.0,9216.0,0.0,1.0,0.0,?,0.0,0.0
1600000.0,2.421875,7.382739568129183E-8,1600000.0,63.9,14.858490566037725,21.52173913043478,3.7333333333333365,463343.0,9312.0,0.0,1.0,0.0,?,0.0,0.0
1700000.0,2.5625,7.68920290283859E-8,1700000.0,65.7,20.109191868373482,23.946784922394677,9.49868073878629,493343.0,9312.0,0.0,1.0,0.0,?,0.0,0.0
1800000.0,2.703125,7.940368959680202E-8,1800000.0,64.1,11.866370760256899,20.399113082039907,-0.5602240896358549,523343.0,9312.0,0.0,1.0,0.0,?,0.0,0.0
1900000.0,2.84375,8.135539246723058E-8,1900000.0,53.800000000000004,9.957317429690693,0.4310344827586211,-21.25984251968503,553343.0,9216.0,0.0,1.0,0.0,?,0.0,0.0
2000000.0,3.0,8.291341752434773E-8,2000000.0,61.1,11.143394916214376,19.12681912681912,2.506265664160403,583343.0,9312.0,0.0,1.0,0.0,?,0.0,0.0
2100000.0,3.171875,9.07209727706181E-8,2100000.0,61.9,9.63769697084687,12.413793103448285,-4.958677685950417,613043.0,9312.0,0.0,1.0,0.0,?,0.0,0.0
2200000.0,3.3125,9.655599973888863E-8,2200000.0,64.8,18.88167324984907,25.581395348837212,1.400560224089637,643043.0,9312.0,0.0,1.0,0.0,?,0.0,0.0
2300000.0,3.46875,1.0242494883843596E-7,2300000.0,63.2,14.18110585107624,21.03004291845493,4.9095607235142165,673043.0,9312.0,0.0,1.0,0.0,?,0.0,0.0
2400000.0,3.625,1.0767948373945224E-7,2400000.0,59.699999999999996,11.894850986427874,12.200435729847483,-6.332453825857526,703043.0,9312.0,0.0,1.0,0.0,?,0.0,0.0
2500000.0,3.765625,1.1185559237168896E-7,2500000.0,59.3,9.511316643692457,16.768916155419216,0.7317073170731713,733043.0,9312.0,0.0,1.0,0.0,?,0.0,0.0
2600000.0,3.921875,1.1588129887564315E-7,2600000.0,66.9,20.699568758984196,26.11607142857143,8.055555555555562,763043.0,9312.0,0.0,1.0,0.0,?,0.0,0.0
2700000.0,4.046875,1.1861033271998167E-7,2700000.0,64.3,14.186817941445137,23.717948717948715,3.5135135135135167,793043.0,9312.0,0.0,1.0,0.0,?,0.0,0.0
2800000.0,4.203125,1.214072108268738E-7,2800000.0,64.0,15.35983824324642,20.704845814977972,2.4390243902439046,823043.0,9312.0,0.0,1.0,0.0,?,0.0,0.0
2900000.0,4.359375,1.2358967473523486E-7,2900000.0,65.7,18.901793145191803,24.282560706401764,7.79569892473119,853043.0,9312.0,0.0,1.0,0.0,?,0.0,0.0
3000000.0,4.5,1.2499742701442707E-7,3000000.0,55.300000000000004,11.800222571250439,7.068607068607075,-19.518716577540093,883043.0,9312.0,0.0,1.0,0.0,?,0.0,0.0
3100000.0,4.65625,1.321013486530218E-7,3100000.0,64.0,12.959381044487426,24.210526315789473,-1.1235955056179785,912743.0,9312.0,0.0,1.0,0.0,?,0.0,0.0
3200000.0,4.8125,1.3858309507163034E-7,3200000.0,51.800000000000004,5.0953181669613485,-7.349665924276176,-20.802005012531318,942743.0,9216.0,0.0,1.0,0.0,?,0.0,0.0
3300000.0,4.953125,1.4387067898900973E-7,3300000.0,63.7,15.28429935681413,24.375,4.9738219895288,972743.0,9312.0,0.0,1.0,0.0,?,0.0,0.0
3400000.0,5.109375,1.4913135803201132E-7,3400000.0,64.60000000000001,14.004615571480622,23.043478260869563,-2.6086956521739157,1002743.0,9312.0,0.0,1.0,0.0,?,0.0,0.0
3500000.0,5.28125,1.5424224936092893E-7,3500000.0,62.9,11.333957899164465,16.62921348314606,-0.8152173913043484,1032743.0,9312.0,0.0,1.0,0.0,?,0.0,0.0
3600000.0,5.421875,1.578709149422745E-7,3600000.0,61.5,10.618104825229373,22.379032258064512,-0.522193211488251,1062743.0,9312.0,0.0,1.0,0.0,?,0.0,0.0
3700000.0,5.578125,1.6128835138968297E-7,3700000.0,63.4,15.236965946566858,21.794871794871792,4.687500000000004,1092743.0,9312.0,0.0,1.0,0.0,?,0.0,0.0
3800000.0,5.734375,1.640913736385604E-7,3800000.0,62.5,13.629495872641511,22.52066115702479,1.0554089709762544,1122743.0,9312.0,0.0,1.0,0.0,?,0.0,0.0
3900000.0,5.875,1.6605762842421733E-7,3900000.0,53.900000000000006,9.558188809542493,3.3542976939203384,-17.602040816326518,1152743.0,9216.0,0.0,1.0,0.0,?,0.0,0.0
4000000.0,6.03125,1.6763182227603265E-7,4000000.0,62.8,12.522045855379194,22.17573221757322,0.8000000000000007,1182743.0,9312.0,0.0,1.0,0.0,?,0.0,0.0
4100000.0,6.1875,1.7473800754588514E-7,4100000.0,64.3,13.071004188175698,26.239669421487605,-0.5633802816901414,1212443.0,9312.0,0.0,1.0,0.0,?,0.0,0.0
4200000.0,6.34375,1.8123365912793414E-7,4200000.0,62.4,12.165950289665487,19.999999999999996,2.0833333333333353,1242443.0,9312.0,0.0,1.0,0.0,?,0.0,0.0
4300000.0,6.484375,1.865232803134455E-7,4300000.0,61.8,14.260960905691542,22.672064777327932,7.50605326876514,1272443.0,9312.0,0.0,1.0,0.0,?,0.0,0.0
4400000.0,6.625,1.912634211799337E-7,4400000.0,60.9,11.108079843586598,22.266401590457257,2.9776674937965284,1302443.0,9312.0,0.0,1.0,0.0,?,0.0,0.0
4500000.0,6.78125,1.9591194965566201E-7,4500000.0,62.3,13.970937237577118,23.217922606924642,4.797979797979802,1332443.0,9312.0,0.0,1.0,0.0,?,0.0,0.0
4600000.0,6.9375,1.9994994444358684E-7,4600000.0,63.2,15.755544567148325,24.123711340206185,6.59898477157361,1362443.0,9312.0,0.0,1.0,0.0,?,0.0,0.0
4700000.0,7.078125,2.0302418205473162E-7,4700000.0,53.900000000000006,9.994689491440713,2.7426160337552767,-23.592493297587122,1392443.0,9216.0,0.0,1.0,0.0,?,0.0,0.0
4800000.0,7.21875,2.0554544688719846E-7,4800000.0,54.1,9.642111894169068,3.7735849056603805,-16.202531645569607,1422443.0,9216.0,0.0,1.0,0.0,?,0.0,0.0
4900000.0,7.375,2.0773631856880257E-7,4900000.0,55.300000000000004,13.220059949989912,1.3245033112582794,-26.98863636363636,1452443.0,9216.0,0.0,1.0,0.0,?,0.0,0.0
5000000.0,7.53125,2.094023511745036E-7,5000000.0,53.0,9.340966695343226,2.6915113871635636,-20.822622107969142,1482443.0,9216.0,0.0,1.0,0.0,?,0.0,0.0
5100000.0,7.6875,2.1660425570896933E-7,5100000.0,54.7,9.041258724409062,9.40000000000001,6.211180124223608,1512143.0,9216.0,0.0,1.0,0.0,?,0.0,0.0
5200000.0,7.828125,2.2253299701131055E-7,5200000.0,52.2,3.8801840352626966,6.4579256360078325,-0.8438818565400852,1542143.0,9216.0,0.0,1.0,0.0,?,0.0,0.0
5300000.0,7.984375,2.285060731487142E-7,5300000.0,53.800000000000004,7.069179151312309,9.23379174852653,1.9108280254777086,1572143.0,9216.0,0.0,1.0,0.0,?,0.0,0.0
5400000.0,8.125,2.3332886889369955E-7,5400000.0,52.6,4.612796374481307,7.05882352941177,-0.2114164904862581,1602143.0,9216.0,0.0,1.0,0.0,?,0.0,0.0
5500000.0,8.28125,2.380731166340411E-7,5500000.0,51.4,2.810496466381633,7.074569789674959,2.994011976047907,1632143.0,9216.0,0.0,1.0,0.0,?,0.0,0.0
5600000.0,8.421875,2.4178996682167054E-7,5600000.0,54.0,7.5291383725932635,12.045889101338442,4.3659043659043695,1662143.0,9216.0,0.0,1.0,0.0,?,0.0,0.0
5700000.0,8.578125,2.4530538616495E-7,5700000.0,52.6,5.096745258841627,4.242424242424246,3.658536585365857,1692143.0,9216.0,0.0,1.0,0.0,?,0.0,0.0
5800000.0,8.703125,2.4762619028074875E-7,5800000.0,55.2,9.895414320193085,7.628865979381451,5.084745762711869,1722143.0,9216.0,0.0,1.0,0.0,?,0.0,0.0
5900000.0,8.84375,2.4968412213234437E-7,5900000.0,51.6,2.061167252815747,6.019417475728161,-9.255079006772018,1752143.0,9216.0,0.0,1.0,0.0,?,0.0,0.0
6000000.0,9.03125,2.5169073422956797E-7,6000000.0,51.4,2.6282362086720905,1.6194331983805683,1.0183299389002045,1782143.0,9216.0,0.0,1.0,0.0,?,0.0,0.0
6100000.0,9.1875,2.58898782906019E-7,6100000.0,55.7,10.667473280903419,9.406952965235183,1.5555555555555571,1811843.0,9216.0,0.0,1.0,0.0,?,0.0,0.0
6200000.0,9.34375,2.65492417383939E-7,6200000.0,52.800000000000004,5.537654852202448,6.903353057199217,-0.42553191489361747,1841843.0,9216.0,0.0,1.0,0.0,?,0.0,0.0
6300000.0,9.484375,2.70873715635389E-7,6300000.0,54.50000000000001,8.960671009876275,12.162162162162172,6.570841889117049,1871843.0,9216.0,0.0,1.0,0.0,?,0.0,0.0
6400000.0,9.625,2.7570204110816114E-7,6400000.0,54.2,8.036560487044813,6.5306122448979655,3.3755274261603407,1901843.0,9216.0,0.0,1.0,0.0,?,0.0,0.0
6500000.0,9.765625,2.799773938022553E-7,6500000.0,53.300000000000004,5.889275810924104,4.498977505112479,0.21367521367521386,1931843.0,9216.0,0.0,1.0,0.0,?,0.0,0.0
6600000.0,9.9375,2.8452696925443074E-7,6600000.0,51.4,2.3876855839064226,5.813953488372098,-2.1008403361344556,1961843.0,9216.0,0.0,1.0,0.0,?,0.0,0.0
6700000.0,10.109375,2.88400689088222E-7,6700000.0,53.400000000000006,6.308682732247911,6.613226452905817,3.1185031185031216,1991843.0,9216.0,0.0,1.0,0.0,?,0.0,0.0
6800000.0,10.265625,2.9130783837495573E-7,6800000.0,54.1,7.729049066435093,10.176125244618405,2.547770700636945,2021843.0,9216.0,0.0,1.0,0.0,?,0.0,0.0
6900000.0,10.40625,2.9337129995433814E-7,6900000.0,52.400000000000006,4.800000000000004,-1.9271948608137062,5.367793240556665,2051843.0,9216.0,0.0,1.0,0.0,?,0.0,0.0
7000000.0,10.5625,2.9504962084400976E-7,7000000.0,54.50000000000001,8.4551249034252,3.8054968287526463,2.9850746268656745,2081843.0,9216.0,0.0,1.0,0.0,?,0.0,0.0
7100000.0,10.703125,3.015423943806025E-7,7100000.0,53.900000000000006,7.1687474828836235,7.984031936127751,2.947368421052634,2111543.0,9216.0,0.0,1.0,0.0,?,0.0,0.0
7200000.0,10.859375,3.081421730005078E-7,7200000.0,51.300000000000004,2.342183364081179,-0.828157349896481,0.40899795501022534,2141543.0,9216.0,0.0,1.0,0.0,?,0.0,0.0
7300000.0,11.0,3.1352900097974464E-7,7300000.0,53.5,6.449925562306358,2.5157232704402537,-3.104212860310424,2171543.0,9216.0,0.0,1.0,0.0,?,0.0,0.0
7400000.0,11.140625,3.1836285618030355E-7,7400000.0,53.400000000000006,6.441859437928402,7.539682539682547,0.214132762312634,2201543.0,9216.0,0.0,1.0,0.0,?,0.0,0.0
7500000.0,11.28125,3.226437386021845E-7,7500000.0,55.50000000000001,10.814494147827483,14.423076923076936,8.624229979466127,2231543.0,9216.0,0.0,1.0,0.0,?,0.0,0.0
7600000.0,11.4375,3.2678586042796567E-7,7600000.0,55.60000000000001,10.726852317281594,8.829568788501035,6.526315789473689,2261543.0,9216.0,0.0,1.0,0.0,?,0.0,0.0
7700000.0,11.578125,3.2996079729249075E-7,7700000.0,51.9,3.589439335508758,-1.0504201680672278,1.0288065843621408,2291543.0,9216.0,0.0,1.0,0.0,?,0.0,0.0
7800000.0,11.734375,3.328740907212098E-7,7800000.0,53.0,5.864444800512734,13.284132841328415,4.081632653061228,2321543.0,9216.0,0.0,1.0,0.0,?,0.0,0.0
7900000.0,11.890625,3.351729699513978E-7,7900000.0,52.1,3.254994789099932,6.627680311890844,-3.4557235421166337,2351543.0,9216.0,0.0,1.0,0.0,?,0.0,0.0
8000000.0,12.046875,3.3685743498305476E-7,8000000.0,52.1,4.244430584208932,4.200000000000004,4.960317460317465,2381543.0,9216.0,0.0,1.0,0.0,?,0.0,0.0
8100000.0,12.203125,3.4407777194347645E-7,8100000.0,55.7,11.411339348563386,11.57684630738524,9.591836734693885,2411243.0,9216.0,0.0,1.0,0.0,?,0.0,0.0
8200000.0,12.34375,3.50023102429178E-7,8200000.0,51.800000000000004,2.9478092783505128,2.231237322515215,-5.240174672489088,2441243.0,9216.0,0.0,1.0,0.0,?,0.0,0.0
8300000.0,12.484375,3.5541546013620166E-7,8300000.0,52.5,4.31643662323638,3.258655804480655,-2.8138528138528165,2471243.0,9216.0,0.0,1.0,0.0,?,0.0,0.0
8400000.0,12.640625,3.607925545010302E-7,8400000.0,52.800000000000004,5.258551820762016,-0.21231422505307876,-1.2875536480686707,2501243.0,9216.0,0.0,1.0,0.0,?,0.0,0.0
8500000.0,12.78125,3.6507896665069795E-7,8500000.0,53.7,6.953376205787796,4.140786749482405,-2.433628318584073,2531243.0,9216.0,0.0,1.0,0.0,?,0.0,0.0
8600000.0,12.9375,3.692272326184644E-7,8600000.0,55.1,9.856010536206169,6.846473029045649,6.458333333333339,2561243.0,9216.0,0.0,1.0,0.0,?,0.0,0.0
8700000.0,13.078125,3.7240769921077626E-7,8700000.0,51.6,3.151575787893955,2.8112449799196813,1.8255578093306306,2591243.0,9216.0,0.0,1.0,0.0,?,0.0,0.0
8800000.0,13.203125,3.7474324926733976E-7,8800000.0,53.900000000000006,7.740215659747525,6.6801619433198445,7.243460764587531,2621243.0,9216.0,0.0,1.0,0.0,?,0.0,0.0
8900000.0,13.375,3.772787749767304E-7,8900000.0,53.800000000000004,6.743909085403999,5.521472392638041,-2.8953229398663725,2651243.0,9216.0,0.0,1.0,0.0,?,0.0,0.0
9000000.0,13.53125,3.789693841503727E-7,9000000.0,50.9,1.5850617749164229,2.1912350597609582,-0.8213552361396311,2681243.0,9216.0,0.0,1.0,0.0,?,0.0,0.0
9100000.0,13.671875,3.8547321714253896E-7,9100000.0,53.900000000000006,6.811455924446539,8.71287128712872,-2.672605790645882,2710943.0,9216.0,0.0,1.0,0.0,?,0.0,0.0
9200000.0,13.828125,3.920852840464149E-7,9200000.0,53.400000000000006,5.855542805424016,8.806262230919772,-0.8658008658008667,2740943.0,9216.0,0.0,1.0,0.0,?,0.0,0.0
9300000.0,13.96875,3.974831714812253E-7,9300000.0,55.1,9.905932965198403,4.872881355932208,7.039337474120089,2770943.0,9216.0,0.0,1.0,0.0,?,0.0,0.0
9400000.0,14.125,4.0286640998803916E-7,9400000.0,54.400000000000006,8.360128617363358,12.476007677543196,2.978723404255322,2800943.0,9216.0,0.0,1.0,0.0,?,0.0,0.0
9500000.0,14.28125,4.0763523429632197E-7,9500000.0,54.6,8.893517793858557,-0.2207505518763799,3.6093418259023387,2830943.0,9216.0,0.0,1.0,0.0,?,0.0,0.0
9600000.0,14.421875,4.1137420339509853E-7,9600000.0,50.8,1.4549416741443282,6.285714285714292,0.0,2860943.0,9216.0,0.0,1.0,0.0,?,0.0,0.0
9700000.0,14.578125,4.1491419930631923E-7,9700000.0,51.4,2.7252930250432255,2.6052104208416855,-0.8298755186721999,2890943.0,9216.0,0.0,1.0,0.0,?,0.0,0.0
9800000.0,14.71875,4.175472228477399E-7,9800000.0,50.8,0.9980682549903342,1.402805611222446,-6.956521739130442,2920943.0,9216.0,0.0,1.0,0.0,?,0.0,0.0
9900000.0,14.875,4.198583903618985E-7,9900000.0,50.5,0.6351322054584545,3.3203125000000027,-2.6970954356846497,2950943.0,9216.0,0.0,1.0,0.0,?,0.0,0.0
1.0E7,15.015625,4.213854683459633E-7,1.0E7,53.800000000000004,6.826661288696187,8.514851485148522,2.7368421052631606,2980943.0,9216.0,0.0,1.0,0.0,?,0.0,0.0
