learning evaluation instances,evaluation time (cpu seconds),model cost (RAM-Hours),classified instances,classifications correct (percent),Kappa Statistic (percent),Kappa Temporal Statistic (percent),Kappa M Statistic (percent),model training instances,model serialized size (bytes),labeling cost,newThreshold,maxPosterior,accuracyBaseLearner (percent),Change detected,Warning detected,tree size (nodes),tree size (leaves),active learning leaves,tree depth,active leaf byte size estimate,inactive leaf byte size estimate,byte size estimate overhead
100000.0,0.3125,9.97549957699246E-9,100000.0,68.5,37.21347418776161,37.000000000000014,34.782608695652186,9940.0,63352.0,0.0,1.0,0.0,?,0.0,30.0,21.0,17.0,17.0,2.0,0.0,0.0,1.0
200000.0,0.609375,2.113571907911036E-8,200000.0,70.89999999999999,42.507843431669286,43.05283757338551,38.477801268498936,19900.0,100096.0,0.0,1.0,0.0,?,0.0,0.0,36.0,29.0,29.0,3.0,0.0,0.0,1.0
300000.0,0.890625,3.6890204581949454E-8,300000.0,67.0,35.43716862637686,35.03937007874017,29.93630573248408,29840.0,155496.0,0.0,1.0,0.0,?,0.0,0.0,53.0,42.0,42.0,3.0,0.0,0.0,1.0
400000.0,1.234375,6.211029055217903E-8,400000.0,73.7,47.60371674927881,48.53228962818004,44.39746300211416,39800.0,237184.0,0.0,1.0,0.0,?,0.0,0.0,87.0,65.0,65.0,4.0,0.0,0.0,1.0
500000.0,1.5,8.389204999225009E-8,500000.0,76.2,52.36875390256009,54.49330783938815,52.49500998003992,49740.0,254864.0,0.0,1.0,0.0,?,0.0,0.0,92.0,69.0,69.0,4.0,0.0,0.0,1.0
600000.0,1.78125,1.0963497010784018E-7,600000.0,73.2,46.61524732279449,48.75717017208413,44.39834024896265,59700.0,306432.0,0.0,1.0,0.0,?,0.0,0.0,113.0,84.0,84.0,4.0,0.0,0.0,1.0
700000.0,2.078125,1.4427441379262344E-7,700000.0,74.8,49.68593642059363,48.987854251012145,48.88438133874239,69640.0,387768.0,0.0,1.0,0.0,?,0.0,0.0,148.0,109.0,109.0,4.0,0.0,0.0,1.0
800000.0,2.375,1.8303350467855735E-7,800000.0,79.4,58.94762434286307,57.5257731958763,56.263269639065825,79600.0,456120.0,0.0,1.0,0.0,?,0.0,0.0,181.0,133.0,133.0,5.0,0.0,0.0,1.0
900000.0,2.671875,2.2586739052914914E-7,900000.0,77.7,55.47231296374687,56.61478599221791,49.547511312217196,89540.0,493392.0,0.0,1.0,0.0,?,0.0,0.0,199.0,145.0,145.0,5.0,0.0,0.0,1.0
1000000.0,2.984375,2.7269804074118536E-7,1000000.0,80.0,60.03596762913378,59.51417004048584,59.266802443991864,99500.0,529720.0,0.0,1.0,0.0,?,0.0,0.0,215.0,156.0,156.0,5.0,0.0,0.0,1.0
1100000.0,3.3125,3.308111142056684E-7,1100000.0,76.7,54.04846801931149,52.3517382413088,48.3370288248337,109440.0,619136.0,0.0,1.0,0.0,?,0.0,0.0,250.0,181.0,181.0,6.0,0.0,0.0,1.0
1200000.0,3.609375,3.854233202421003E-7,1200000.0,79.10000000000001,58.28110153860896,58.77712031558187,55.43710021321962,119400.0,660416.0,0.0,1.0,0.0,?,0.0,0.0,267.0,194.0,194.0,6.0,0.0,0.0,1.0
1300000.0,3.921875,4.4881210972865425E-7,1300000.0,78.5,57.03815012269106,58.41392649903289,55.852156057494874,129340.0,717576.0,0.0,1.0,0.0,?,0.0,0.0,292.0,211.0,211.0,6.0,0.0,0.0,1.0
1400000.0,4.25,5.182788784926136E-7,1400000.0,81.3,62.8127112914131,61.83673469387754,60.548523206751035,139300.0,766608.0,0.0,1.0,0.0,?,0.0,0.0,309.0,224.0,224.0,6.0,0.0,0.0,1.0
1500000.0,4.546875,5.852426531621152E-7,1500000.0,81.2,62.71010278523798,61.55419222903886,59.74304068522485,149240.0,804352.0,0.0,1.0,0.0,?,0.0,0.0,333.0,239.0,239.0,6.0,0.0,0.0,1.0
1600000.0,4.859375,6.575650250953105E-7,1600000.0,83.5,67.18585929296465,67.96116504854368,65.26315789473684,159200.0,841824.0,0.0,1.0,0.0,?,0.0,0.0,351.0,251.0,251.0,6.0,0.0,0.0,1.0
1700000.0,5.171875,7.34679827777048E-7,1700000.0,83.3,66.73041676627619,66.6,65.20833333333333,169140.0,885344.0,0.0,1.0,0.0,?,0.0,0.0,377.0,270.0,270.0,7.0,0.0,0.0,1.0
1800000.0,5.5,8.220623324935635E-7,1800000.0,86.4,72.90404845393688,73.38551859099805,71.06382978723403,179100.0,975576.0,0.0,1.0,0.0,?,0.0,0.0,427.0,307.0,307.0,7.0,0.0,0.0,1.0
1900000.0,5.828125,9.139478788711131E-7,1900000.0,85.1,70.20524387707763,68.02575107296137,70.37773359840955,189040.0,1012832.0,0.0,1.0,0.0,?,0.0,0.0,447.0,320.0,320.0,7.0,0.0,0.0,1.0
2000000.0,6.1875,1.0193653482322893E-6,2000000.0,83.5,67.18899140948137,65.04237288135593,64.74358974358974,199000.0,1078984.0,0.0,1.0,0.0,?,0.0,0.0,491.0,351.0,351.0,7.0,0.0,0.0,1.0
2100000.0,6.515625,1.119315760054936E-6,2100000.0,84.0,68.15235911399861,68.06387225548902,66.24472573839661,208940.0,1106808.0,0.0,1.0,0.0,?,0.0,0.0,515.0,366.0,366.0,7.0,0.0,0.0,1.0
2200000.0,6.84375,1.2238255779569348E-6,2200000.0,84.5,69.09296835119957,67.90890269151139,68.30265848670756,218900.0,1175224.0,0.0,1.0,0.0,?,0.0,0.0,550.0,391.0,391.0,7.0,0.0,0.0,1.0
2300000.0,7.15625,1.3258338569559985E-6,2300000.0,85.5,71.18258712795725,69.53781512605042,67.92035398230087,228840.0,1190112.0,0.0,1.0,0.0,?,0.0,0.0,567.0,401.0,401.0,7.0,0.0,0.0,1.0
2400000.0,7.515625,1.4469150078689887E-6,2400000.0,88.0,76.03479747406764,76.19047619047619,74.30406852248393,238800.0,1245328.0,0.0,1.0,0.0,?,0.0,0.0,595.0,418.0,418.0,7.0,0.0,0.0,1.0
2500000.0,7.828125,1.5545765442463258E-6,2500000.0,87.6,75.2373420881311,76.15384615384615,74.53798767967146,248740.0,1258968.0,0.0,1.0,0.0,?,0.0,0.0,610.0,427.0,427.0,7.0,0.0,0.0,1.0
2600000.0,8.171875,1.6765763090612986E-6,2600000.0,88.4,76.84445863941232,76.22950819672131,75.63025210084034,258700.0,1313824.0,0.0,1.0,0.0,?,0.0,0.0,639.0,446.0,446.0,7.0,0.0,0.0,1.0
2700000.0,8.5,1.7972280814622837E-6,2700000.0,90.10000000000001,80.21661804084569,79.24528301886792,79.62962962962963,268640.0,1347512.0,0.0,1.0,0.0,?,0.0,0.0,659.0,459.0,459.0,7.0,0.0,0.0,1.0
2800000.0,8.828125,1.9170445739291607E-6,2800000.0,88.7,77.42798929327634,79.15129151291512,76.93877551020408,278600.0,1352544.0,0.0,1.0,0.0,?,0.0,0.0,661.0,460.0,460.0,7.0,0.0,0.0,1.0
2900000.0,9.171875,2.046252516770942E-6,2900000.0,89.9,79.88977205753517,80.2734375,78.23275862068965,288540.0,1378168.0,0.0,1.0,0.0,?,0.0,0.0,690.0,476.0,476.0,7.0,0.0,0.0,1.0
3000000.0,9.5,2.1699011105940574E-6,3000000.0,90.8,81.59057437407954,81.63672654690619,81.7821782178218,298500.0,1396648.0,0.0,1.0,0.0,?,0.0,0.0,702.0,482.0,482.0,7.0,0.0,0.0,1.0
3100000.0,9.828125,2.296250442870789E-6,3100000.0,90.7,81.3968746749454,81.43712574850301,81.02040816326532,308440.0,1412712.0,0.0,1.0,0.0,?,0.0,0.0,710.0,486.0,486.0,7.0,0.0,0.0,1.0
3200000.0,10.140625,2.4186682680414783E-6,3200000.0,90.2,80.4224749987015,80.16194331983806,78.64923747276688,318400.0,1453232.0,0.0,1.0,0.0,?,0.0,0.0,734.0,501.0,501.0,7.0,0.0,0.0,1.0
3300000.0,10.484375,2.5568515734954012E-6,3300000.0,90.60000000000001,81.16179612253651,80.85539714867618,79.60954446854664,328340.0,1477128.0,0.0,1.0,0.0,?,0.0,0.0,743.0,507.0,507.0,7.0,0.0,0.0,1.0
3400000.0,10.8125,2.6894267971834374E-6,3400000.0,90.8,81.61323846830282,80.46709129511677,80.21505376344086,338300.0,1499832.0,0.0,1.0,0.0,?,0.0,0.0,760.0,517.0,517.0,7.0,0.0,0.0,1.0
3500000.0,11.203125,2.853479430389901E-6,3500000.0,91.0,81.98984227104087,81.40495867768595,80.13245033112584,348240.0,1545672.0,0.0,1.0,0.0,?,0.0,0.0,786.0,536.0,536.0,7.0,0.0,0.0,1.0
3600000.0,11.546875,2.9991227590168516E-6,3600000.0,91.4,82.81979160007673,82.12058212058213,82.04592901878915,358200.0,1574784.0,0.0,1.0,0.0,?,0.0,0.0,794.0,540.0,540.0,7.0,0.0,0.0,1.0
3700000.0,11.875,3.145960217807442E-6,3700000.0,91.7,83.4092907971536,83.29979879275655,83.16430020283977,368140.0,1650968.0,0.0,1.0,0.0,?,0.0,0.0,827.0,564.0,564.0,7.0,0.0,0.0,1.0
3800000.0,12.203125,3.293737536296248E-6,3800000.0,92.60000000000001,85.20443866839949,85.05050505050505,85.11066398390344,378100.0,1676856.0,0.0,1.0,0.0,?,0.0,0.0,834.0,569.0,569.0,7.0,0.0,0.0,1.0
3900000.0,12.5625,3.4576796072845656E-6,3900000.0,91.2,82.28206945428774,82.00408997955012,80.35714285714286,388040.0,1683632.0,0.0,1.0,0.0,?,0.0,0.0,851.0,579.0,579.0,7.0,0.0,0.0,1.0
4000000.0,12.90625,3.614176465715799E-6,4000000.0,92.80000000000001,85.59925116106038,85.62874251497007,85.21560574948667,398000.0,1694936.0,0.0,1.0,0.0,?,0.0,0.0,867.0,590.0,590.0,7.0,0.0,0.0,1.0
4100000.0,13.25,3.7764593596673673E-6,4100000.0,92.5,84.90897091254448,85.11904761904762,83.25892857142858,407960.0,1774576.0,0.0,1.0,0.0,?,0.0,0.0,900.0,611.0,611.0,7.0,0.0,0.0,1.0
4200000.0,13.578125,3.935625686103271E-6,4200000.0,90.7,81.37093866431634,81.76470588235296,79.82646420824295,417900.0,1809048.0,0.0,1.0,0.0,?,0.0,0.0,919.0,625.0,625.0,7.0,0.0,0.0,1.0
4300000.0,13.921875,4.101903242472973E-6,4300000.0,91.60000000000001,83.2034265009938,82.20338983050848,82.60869565217392,427860.0,1818656.0,0.0,1.0,0.0,?,0.0,0.0,928.0,631.0,631.0,8.0,0.0,0.0,1.0
4400000.0,14.34375,4.3124592694867815E-6,4400000.0,92.60000000000001,85.18453265208879,85.82375478927204,84.28874734607218,437800.0,1862304.0,0.0,1.0,0.0,?,0.0,0.0,953.0,648.0,648.0,8.0,0.0,0.0,1.0
4500000.0,14.6875,4.483851274320235E-6,4500000.0,93.0,85.98317981577894,84.58149779735685,85.10638297872342,447760.0,1875216.0,0.0,1.0,0.0,?,0.0,0.0,968.0,657.0,657.0,8.0,0.0,0.0,1.0
4600000.0,15.03125,4.658177915391409E-6,4600000.0,92.7,85.41225370688622,86.06870229007635,85.19269776876268,457700.0,1892472.0,0.0,1.0,0.0,?,0.0,0.0,974.0,660.0,660.0,8.0,0.0,0.0,1.0
4700000.0,15.390625,4.840176358508568E-6,4700000.0,92.30000000000001,84.60406452696489,84.56913827655312,84.05797101449276,467660.0,1904576.0,0.0,1.0,0.0,?,0.0,0.0,982.0,664.0,664.0,8.0,0.0,0.0,1.0
4800000.0,15.75,5.024383782357392E-6,4800000.0,92.10000000000001,84.17924316703515,84.1683366733467,82.78867102396515,477600.0,1912632.0,0.0,1.0,0.0,?,0.0,0.0,997.0,673.0,673.0,8.0,0.0,0.0,1.0
4900000.0,16.09375,5.201719048070826E-6,4900000.0,93.5,86.99906393260316,87.27984344422701,86.51452282157678,487560.0,1940184.0,0.0,1.0,0.0,?,0.0,0.0,1012.0,682.0,682.0,8.0,0.0,0.0,1.0
5000000.0,16.453125,5.390556406281475E-6,5000000.0,94.1,88.19631725098229,88.29365079365078,87.55274261603374,497500.0,1959232.0,0.0,1.0,0.0,?,0.0,0.0,1024.0,688.0,688.0,8.0,0.0,0.0,1.0
5100000.0,16.8125,5.39999552226315E-6,5100000.0,71.3,38.333147115194535,39.19491525423728,29.484029484029485,9094.0,50824.0,0.0,1.0,0.0,?,1.0,10.0,18.0,14.0,14.0,3.0,0.0,0.0,1.0
5200000.0,17.109375,5.41683907310168E-6,5200000.0,75.7,48.330852647246445,51.976284584980235,39.401496259351624,19034.0,152672.0,0.0,1.0,0.0,?,0.0,0.0,54.0,41.0,41.0,4.0,0.0,0.0,1.0
5300000.0,17.4375,5.438751250039786E-6,5300000.0,77.3,51.940991158836084,52.708333333333336,44.49877750611248,28994.0,206208.0,0.0,1.0,0.0,?,0.0,0.0,70.0,52.0,52.0,4.0,0.0,0.0,1.0
5400000.0,17.703125,5.458202116036167E-6,5400000.0,78.3,53.52602542576158,56.686626746506995,45.20202020202021,38934.0,215424.0,0.0,1.0,0.0,?,0.0,0.0,74.0,54.0,54.0,4.0,0.0,0.0,1.0
5500000.0,17.96875,5.479505052790046E-6,5500000.0,78.4,53.42478750059298,55.00000000000001,46.1346633416459,48894.0,257088.0,0.0,1.0,0.0,?,0.0,0.0,91.0,64.0,64.0,5.0,0.0,0.0,1.0
5600000.0,18.265625,5.506918371085906E-6,5600000.0,79.2,56.21716287215413,58.14889336016097,50.23923444976079,58834.0,288240.0,0.0,1.0,0.0,?,0.0,0.0,104.0,72.0,72.0,5.0,0.0,0.0,1.0
5700000.0,18.546875,5.533104251501047E-6,5700000.0,80.4,58.205390651654746,60.56338028169015,53.33333333333334,68794.0,305992.0,0.0,1.0,0.0,?,0.0,0.0,114.0,77.0,77.0,5.0,0.0,0.0,1.0
5800000.0,18.828125,5.562855351147138E-6,5800000.0,82.19999999999999,61.113125849284955,63.29896907216494,54.00516795865632,78734.0,339136.0,0.0,1.0,0.0,?,0.0,0.0,132.0,86.0,86.0,6.0,0.0,0.0,1.0
5900000.0,19.125,5.595199957800408E-6,5900000.0,79.0,55.42991035044827,57.230142566191454,51.38888888888891,88694.0,366168.0,0.0,1.0,0.0,?,0.0,0.0,143.0,93.0,93.0,6.0,0.0,0.0,1.0
6000000.0,19.421875,5.633041113873736E-6,6000000.0,82.8,63.67307456735054,65.1821862348178,58.15085158150851,98634.0,421896.0,0.0,1.0,0.0,?,0.0,0.0,166.0,109.0,109.0,6.0,0.0,0.0,1.0
6100000.0,19.734375,5.677074562602986E-6,6100000.0,81.6,61.29167981487325,61.506276150627606,55.66265060240963,108594.0,488552.0,0.0,1.0,0.0,?,0.0,0.0,185.0,123.0,123.0,6.0,0.0,0.0,1.0
6200000.0,20.03125,5.720889053514433E-6,6200000.0,81.0,60.120729244938495,61.770623742454745,55.08274231678488,118534.0,498664.0,0.0,1.0,0.0,?,0.0,0.0,189.0,125.0,125.0,6.0,0.0,0.0,1.0
6300000.0,20.359375,5.7705467851418575E-6,6300000.0,85.0,68.69103478217309,69.45010183299388,64.45497630331754,128494.0,527952.0,0.0,1.0,0.0,?,0.0,0.0,200.0,132.0,132.0,6.0,0.0,0.0,1.0
6400000.0,20.671875,5.822292102190354E-6,6400000.0,85.3,68.7725708459022,70.1219512195122,63.703703703703695,138434.0,567168.0,0.0,1.0,0.0,?,0.0,0.0,221.0,144.0,144.0,7.0,0.0,0.0,1.0
6500000.0,20.984375,5.873818817134531E-6,6500000.0,83.39999999999999,64.61535182145674,65.91375770020534,57.974683544303794,148394.0,579288.0,0.0,1.0,0.0,?,0.0,0.0,227.0,147.0,147.0,7.0,0.0,0.0,1.0
6600000.0,21.3125,5.932902988408587E-6,6600000.0,82.6,63.003754906254905,61.75824175824175,56.82382133995036,158334.0,622176.0,0.0,1.0,0.0,?,0.0,0.0,250.0,163.0,163.0,7.0,0.0,0.0,1.0
6700000.0,21.65625,5.9996092265161365E-6,6700000.0,86.0,70.457154433115,69.82758620689654,65.34653465346535,168294.0,690856.0,0.0,1.0,0.0,?,0.0,0.0,276.0,179.0,179.0,7.0,0.0,0.0,1.0
6800000.0,21.96875,6.0640399331330416E-6,6800000.0,84.0,66.3582842724979,67.3469387755102,60.0,178234.0,721944.0,0.0,1.0,0.0,?,0.0,0.0,289.0,187.0,187.0,7.0,0.0,0.0,1.0
6900000.0,22.3125,6.140536829156593E-6,6900000.0,86.6,71.12479690388867,70.54945054945054,65.37467700258398,188194.0,799880.0,0.0,1.0,0.0,?,0.0,0.0,316.0,208.0,208.0,7.0,0.0,0.0,1.0
7000000.0,22.625,6.212377371007783E-6,7000000.0,83.2,64.25896929675267,64.63157894736841,57.57575757575757,198134.0,812576.0,0.0,1.0,0.0,?,0.0,0.0,322.0,211.0,211.0,7.0,0.0,0.0,1.0
7100000.0,22.953125,6.290625444509916E-6,7100000.0,85.6,70.10165437512458,71.42857142857143,65.55023923444976,208094.0,860480.0,0.0,1.0,0.0,?,0.0,0.0,347.0,228.0,228.0,8.0,0.0,0.0,1.0
7200000.0,23.296875,6.378875114023685E-6,7200000.0,86.2,70.71108394458028,72.83464566929133,64.9746192893401,218034.0,915192.0,0.0,1.0,0.0,?,0.0,0.0,378.0,248.0,248.0,8.0,0.0,0.0,1.0
7300000.0,23.625,6.463026511482894E-6,7300000.0,86.1,70.71933534997767,71.9758064516129,65.4228855721393,227994.0,929016.0,0.0,1.0,0.0,?,0.0,0.0,382.0,250.0,250.0,8.0,0.0,0.0,1.0
7400000.0,23.9375,6.549588417530888E-6,7400000.0,85.39999999999999,69.40486169321038,69.58333333333333,63.5,237934.0,992536.0,0.0,1.0,0.0,?,0.0,0.0,407.0,267.0,267.0,8.0,0.0,0.0,1.0
7500000.0,24.25,6.635800430861612E-6,7500000.0,86.2,71.57628061213981,72.88801571709233,67.98143851508121,247894.0,1003024.0,0.0,1.0,0.0,?,0.0,0.0,415.0,271.0,271.0,8.0,0.0,0.0,1.0
7600000.0,24.5625,6.72441124657376E-6,7600000.0,86.1,70.85856129346058,71.16182572614107,66.58653846153845,257834.0,1016944.0,0.0,1.0,0.0,?,0.0,0.0,427.0,277.0,277.0,8.0,0.0,0.0,1.0
7700000.0,24.953125,6.8345369072631E-6,7700000.0,86.8,72.86552400373306,72.8952772073922,69.5150115473441,267794.0,1025472.0,0.0,1.0,0.0,?,0.0,0.0,433.0,280.0,280.0,8.0,0.0,0.0,1.0
7800000.0,25.28125,6.930916667139779E-6,7800000.0,87.4,74.05271828665569,75.390625,70.56074766355141,277734.0,1055336.0,0.0,1.0,0.0,?,0.0,0.0,446.0,288.0,288.0,8.0,0.0,0.0,1.0
7900000.0,25.625,7.033619686909434E-6,7900000.0,87.0,72.9446238886484,73.14049586776859,68.13725490196079,287694.0,1089568.0,0.0,1.0,0.0,?,0.0,0.0,465.0,299.0,299.0,8.0,0.0,0.0,1.0
8000000.0,25.984375,7.145569640366982E-6,8000000.0,87.0,72.65782743303271,72.04301075268818,67.17171717171718,297634.0,1123000.0,0.0,1.0,0.0,?,0.0,0.0,484.0,310.0,310.0,8.0,0.0,0.0,1.0
8100000.0,26.3125,7.248438099243989E-6,8100000.0,87.2,73.54759779122442,73.16561844863732,69.81132075471699,307594.0,1145448.0,0.0,1.0,0.0,?,0.0,0.0,500.0,318.0,318.0,8.0,0.0,0.0,1.0
8200000.0,26.65625,7.358870061580092E-6,8200000.0,91.10000000000001,81.53297090924183,81.30252100840337,78.50241545893721,317554.0,1190112.0,0.0,1.0,0.0,?,0.0,0.0,517.0,328.0,328.0,8.0,0.0,0.0,1.0
8300000.0,27.0,7.47521825057144E-6,8300000.0,88.3,75.3345644969516,75.1063829787234,70.30456852791879,327494.0,1240784.0,0.0,1.0,0.0,?,0.0,0.0,541.0,343.0,343.0,8.0,0.0,0.0,1.0
8400000.0,27.328125,7.585970258029799E-6,8400000.0,87.2,72.32791421653407,71.49220489977728,65.4054054054054,337454.0,1252056.0,0.0,1.0,0.0,?,0.0,0.0,555.0,353.0,353.0,8.0,0.0,0.0,1.0
8500000.0,27.671875,7.70756237519284E-6,8500000.0,89.1,77.24995825680413,77.29166666666667,73.60774818401937,347394.0,1298856.0,0.0,1.0,0.0,?,0.0,0.0,578.0,369.0,369.0,8.0,0.0,0.0,1.0
8600000.0,28.03125,7.835067420577009E-6,8600000.0,89.9,79.11635292950012,78.18574514038878,75.4854368932039,357354.0,1317808.0,0.0,1.0,0.0,?,0.0,0.0,586.0,373.0,373.0,8.0,0.0,0.0,1.0
8700000.0,28.375,7.960674831540219E-6,8700000.0,86.8,72.78384184937919,73.22515212981745,69.79405034324942,367294.0,1342992.0,0.0,1.0,0.0,?,0.0,0.0,602.0,381.0,381.0,8.0,0.0,0.0,1.0
8800000.0,28.734375,8.095870402434633E-6,8800000.0,90.3,79.9960404533681,79.6218487394958,77.5462962962963,377254.0,1399376.0,0.0,1.0,0.0,?,0.0,0.0,626.0,396.0,396.0,8.0,0.0,0.0,1.0
8900000.0,29.0625,8.222706641794906E-6,8900000.0,89.7,78.6906545072369,79.56349206349206,75.87822014051523,387194.0,1423608.0,0.0,1.0,0.0,?,0.0,0.0,638.0,402.0,402.0,8.0,0.0,0.0,1.0
9000000.0,29.421875,8.36137038681449E-6,9000000.0,89.8,78.70323585539916,79.01234567901236,75.30266343825667,397154.0,1435736.0,0.0,1.0,0.0,?,0.0,0.0,644.0,405.0,405.0,8.0,0.0,0.0,1.0
9100000.0,29.796875,8.511238039419468E-6,9100000.0,90.2,79.20336141586911,79.91803278688525,75.18987341772153,407094.0,1473288.0,0.0,1.0,0.0,?,0.0,0.0,664.0,418.0,418.0,8.0,0.0,0.0,1.0
9200000.0,30.21875,8.681815007649775E-6,9200000.0,91.10000000000001,81.22204405435059,81.22362869198312,77.46835443037976,417054.0,1506160.0,0.0,1.0,0.0,?,0.0,0.0,675.0,425.0,425.0,8.0,0.0,0.0,1.0
9300000.0,30.671875,8.868827232314892E-6,9300000.0,90.5,79.81386256427692,80.0420168067227,75.45219638242895,426994.0,1522872.0,0.0,1.0,0.0,?,0.0,0.0,693.0,437.0,437.0,8.0,0.0,0.0,1.0
9400000.0,31.109375,9.05132390067188E-6,9400000.0,90.60000000000001,80.62814277470943,81.2,77.07317073170734,436954.0,1554680.0,0.0,1.0,0.0,?,0.0,0.0,703.0,442.0,442.0,8.0,0.0,0.0,1.0
9500000.0,31.484375,9.210386811496894E-6,9500000.0,90.2,79.56656088539343,79.28118393234672,75.56109725685786,446894.0,1566168.0,0.0,1.0,0.0,?,0.0,0.0,716.0,450.0,450.0,8.0,0.0,0.0,1.0
9600000.0,31.828125,9.360662952531126E-6,9600000.0,90.3,79.98002129960621,79.74947807933195,76.95961995249408,456854.0,1631128.0,0.0,1.0,0.0,?,0.0,0.0,742.0,469.0,469.0,8.0,0.0,0.0,1.0
9700000.0,32.21875,9.536675643175837E-6,9700000.0,89.5,78.28047559552867,78.57142857142857,74.88038277511963,466794.0,1667232.0,0.0,1.0,0.0,?,0.0,0.0,762.0,482.0,482.0,8.0,0.0,0.0,1.0
9800000.0,32.578125,9.698810366292791E-6,9800000.0,92.10000000000001,82.94914961581628,82.59911894273128,78.05555555555557,476754.0,1684216.0,0.0,1.0,0.0,?,0.0,0.0,770.0,486.0,486.0,8.0,0.0,0.0,1.0
9900000.0,32.984375,9.88727648897717E-6,9900000.0,89.8,78.99427903011232,77.96976241900649,75.65632458233891,486694.0,1717664.0,0.0,1.0,0.0,?,0.0,0.0,792.0,497.0,497.0,8.0,0.0,0.0,1.0
1.0E7,33.359375,1.006186532322317E-5,1.0E7,91.5,82.28280807070203,82.02959830866808,79.36893203883496,496654.0,1738872.0,0.0,1.0,0.0,?,0.0,0.0,803.0,504.0,504.0,8.0,0.0,0.0,1.0
