learning evaluation instances,evaluation time (cpu seconds),model cost (RAM-Hours),classified instances,classifications correct (percent),Kappa Statistic (percent),Kappa Temporal Statistic (percent),Kappa M Statistic (percent),model training instances,model serialized size (bytes),labeling cost,newThreshold,maxPosterior,accuracyBaseLearner (percent),Change detected,Warning detected
100000.0,0.15625,6.523785284823842E-9,100000.0,65.10000000000001,27.60237314857073,26.98744769874477,19.025522041763356,7070.0,9328.0,0.0,1.0,0.0,?,7.0,96.0
200000.0,0.328125,1.2969669316791826E-8,200000.0,68.10000000000001,34.81068532566049,38.05825242718448,29.424778761061955,9597.0,9328.0,0.0,1.0,0.0,?,5.0,28.0
300000.0,0.5,1.877526907871167E-8,300000.0,66.10000000000001,30.838909743757135,29.521829521829524,26.143790849673206,29597.0,9328.0,0.0,1.0,0.0,?,0.0,0.0
400000.0,0.671875,2.3940584570583372E-8,400000.0,66.5,32.032137639993515,33.79446640316207,27.173913043478265,49597.0,9328.0,0.0,1.0,0.0,?,0.0,0.0
500000.0,0.828125,2.8163550369855433E-8,500000.0,64.9,28.80959914328134,27.027027027027028,24.19006479481641,69597.0,9328.0,0.0,1.0,0.0,?,0.0,57.0
600000.0,0.984375,3.178439025456707E-8,600000.0,66.3,31.13229139419305,33.66141732283465,25.442477876106196,89597.0,9328.0,0.0,1.0,0.0,?,0.0,40.0
700000.0,1.140625,3.4843526211463746E-8,700000.0,68.2,34.738440700227805,34.96932515337424,26.558891454965377,109597.0,9328.0,0.0,1.0,0.0,?,0.0,36.0
800000.0,1.3125,3.756829149400195E-8,800000.0,65.7,29.620236541665644,31.124497991967875,22.398190045248867,129597.0,9328.0,0.0,1.0,0.0,?,0.0,0.0
900000.0,1.484375,3.965277250649201E-8,900000.0,66.10000000000001,31.97415419191717,28.78151260504202,32.06412825651303,149597.0,9328.0,0.0,1.0,0.0,?,0.0,0.0
1000000.0,1.65625,4.109696924893393E-8,1000000.0,67.80000000000001,34.64450262842762,37.35408560311285,29.540481400437642,169597.0,9328.0,0.0,1.0,0.0,?,0.0,0.0
1100000.0,1.78125,4.634290235117078E-8,1100000.0,65.9,30.97277776878108,34.042553191489375,27.7542372881356,189397.0,9328.0,0.0,1.0,0.0,?,0.0,0.0
1200000.0,1.953125,5.291577609669832E-8,1200000.0,67.0,32.978321533456004,33.198380566801625,28.725701943844495,209397.0,9328.0,0.0,1.0,0.0,?,0.0,0.0
1300000.0,2.125,5.884836557217771E-8,1300000.0,64.4,28.238827632082895,30.873786407766996,26.293995859213254,229397.0,9328.0,0.0,1.0,0.0,?,0.0,0.0
1400000.0,2.296875,6.414067077760896E-8,1400000.0,66.2,32.28732611064812,35.98484848484849,32.12851405622491,249397.0,9328.0,0.0,1.0,0.0,?,0.0,0.0
1500000.0,2.46875,6.879269171299206E-8,1500000.0,63.5,26.38457504739624,22.669491525423727,23.640167364016733,269397.0,9328.0,0.0,1.0,0.0,?,0.0,0.0
1600000.0,2.625,7.243972504511476E-8,1600000.0,67.0,33.66567500201014,36.04651162790699,31.535269709543574,289397.0,9328.0,0.0,1.0,0.0,?,0.0,0.0
1700000.0,2.796875,7.581117744040158E-8,1700000.0,65.2,28.894846102293343,26.42706131078224,23.348017621145374,309397.0,9328.0,0.0,1.0,0.0,?,0.0,0.0
1800000.0,2.96875,7.854234556564026E-8,1800000.0,69.1,36.93929029150782,39.648437499999986,32.53275109170304,329397.0,9328.0,0.0,1.0,0.0,?,0.0,0.0
1900000.0,3.125,8.044314907035894E-8,1900000.0,68.2,35.219175124163264,36.40000000000001,29.490022172949004,349397.0,9328.0,0.0,1.0,0.0,?,0.0,0.0
2000000.0,3.296875,8.189374865550133E-8,2000000.0,65.2,29.07945953657095,29.41176470588236,22.83813747228381,369397.0,9328.0,0.0,1.0,0.0,?,0.0,0.0
2100000.0,3.453125,8.845698579938874E-8,2100000.0,66.10000000000001,31.384852042262075,32.60437375745527,28.329809725158565,389197.0,9328.0,0.0,1.0,0.0,?,0.0,0.0
2200000.0,3.625,9.503626238761676E-8,2200000.0,64.3,28.322464582864864,29.585798816568055,26.69404517453799,409197.0,9328.0,0.0,1.0,0.0,?,0.0,0.0
2300000.0,3.796875,1.0097525470579663E-7,2300000.0,66.5,32.52388855766288,33.66336633663367,30.06263048016702,429197.0,9328.0,0.0,1.0,0.0,?,0.0,0.0
2400000.0,3.953125,1.0579226202228002E-7,2400000.0,66.8,32.875864829783715,35.53398058252428,29.21108742004265,449197.0,9328.0,0.0,1.0,0.0,?,0.0,0.0
2500000.0,4.109375,1.1002719272962873E-7,2500000.0,66.60000000000001,32.224025974025984,34.63796477495109,28.01724137931035,469197.0,9328.0,0.0,1.0,0.0,?,0.0,0.0
2600000.0,4.28125,1.1404533223766418E-7,2600000.0,65.3,30.042579271636406,33.39731285988484,27.100840336134457,489197.0,9328.0,0.0,1.0,0.0,?,0.0,0.0
2700000.0,4.4375,1.1711610972674355E-7,2700000.0,66.8,32.68587417124551,36.76190476190477,28.60215053763441,509197.0,9328.0,0.0,1.0,0.0,?,0.0,0.0
2800000.0,4.578125,1.1935594051869378E-7,2800000.0,64.9,29.04790782292299,29.376257545271635,26.105263157894736,529197.0,9328.0,0.0,1.0,0.0,?,0.0,0.0
2900000.0,4.734375,1.212625647895038E-7,2900000.0,66.2,31.964573268921104,31.578947368421055,30.165289256198353,549197.0,9328.0,0.0,1.0,0.0,?,0.0,0.0
3000000.0,4.90625,1.2271956721734666E-7,3000000.0,66.7,31.65473532116118,30.625000000000007,24.830699774266364,569197.0,9328.0,0.0,1.0,0.0,?,0.0,0.0
3100000.0,5.078125,1.299455309183233E-7,3100000.0,66.9,33.195553366863386,35.976789168278536,30.16877637130802,588997.0,9328.0,0.0,1.0,0.0,?,0.0,0.0
3200000.0,5.234375,1.3593251221916737E-7,3200000.0,67.30000000000001,33.62885744209271,30.720338983050855,30.2771855010661,608997.0,9328.0,0.0,1.0,0.0,?,0.0,0.0
3300000.0,5.40625,1.4187790738004772E-7,3300000.0,67.4,34.005959707197,37.54789272030653,30.341880341880344,628997.0,9328.0,0.0,1.0,0.0,?,0.0,0.0
3400000.0,5.5625,1.4670073546262245E-7,3400000.0,66.8,32.84219128647662,34.90196078431374,29.21108742004265,648997.0,9328.0,0.0,1.0,0.0,?,0.0,0.0
3500000.0,5.734375,1.5136556208340652E-7,3500000.0,68.30000000000001,35.87046238003529,35.95959595959597,31.681034482758623,668997.0,9328.0,0.0,1.0,0.0,?,0.0,0.0
3600000.0,5.90625,1.5539010443414245E-7,3600000.0,65.0,29.45141419679428,28.86178861788618,27.385892116182575,688997.0,9328.0,0.0,1.0,0.0,?,0.0,0.0
3700000.0,6.078125,1.5877187252044671E-7,3700000.0,65.4,29.466924880236476,28.364389233954455,23.956043956043953,708997.0,9328.0,0.0,1.0,0.0,?,0.0,107.0
3800000.0,6.234375,1.6124472798158718E-7,3800000.0,69.6,38.44359489405817,38.08553971486761,35.04273504273503,728997.0,9328.0,0.0,1.0,0.0,?,0.0,16.0
3900000.0,6.40625,1.6332458471879355E-7,3900000.0,68.30000000000001,36.310595345248814,37.35177865612649,34.50413223140497,748997.0,9328.0,0.0,1.0,0.0,?,0.0,0.0
4000000.0,6.578125,1.6480115138822123E-7,4000000.0,66.5,32.27781057193916,34.57031250000001,28.723404255319153,768997.0,9328.0,0.0,1.0,0.0,?,0.0,27.0
4100000.0,6.734375,1.7138476121342835E-7,4100000.0,67.10000000000001,32.977509778357245,37.57115749525618,27.212389380530976,788797.0,9328.0,0.0,1.0,0.0,?,0.0,17.0
4200000.0,6.90625,1.7798644775110805E-7,4200000.0,69.1,37.58332323354743,38.56858846918488,34.810126582278464,808797.0,9328.0,0.0,1.0,0.0,?,0.0,0.0
4300000.0,7.078125,1.839478500187396E-7,4300000.0,66.2,31.411224208185207,33.464566929133866,27.467811158798284,828797.0,9328.0,0.0,1.0,0.0,?,0.0,0.0
4400000.0,7.234375,1.887852300165427E-7,4400000.0,64.7,28.664963786859797,23.92241379310345,25.995807127882603,848797.0,9328.0,0.0,1.0,0.0,?,0.0,0.0
4500000.0,7.390625,1.9304053340521113E-7,4500000.0,66.60000000000001,32.653686706563654,30.41666666666667,29.53586497890296,868797.0,9328.0,0.0,1.0,0.0,?,0.0,0.0
4600000.0,7.5625,1.9708108286269826E-7,4600000.0,67.10000000000001,33.27925370107484,36.363636363636374,30.000000000000004,888797.0,9328.0,0.0,1.0,0.0,?,0.0,0.0
4700000.0,7.734375,2.0048134805013726E-7,4700000.0,67.2,33.11173195750148,30.508474576271194,27.912087912087912,908797.0,9328.0,0.0,1.0,0.0,?,0.0,0.0
4800000.0,7.90625,2.032413289675281E-7,4800000.0,64.7,28.567959593343257,30.784313725490204,24.57264957264957,928797.0,9328.0,0.0,1.0,0.0,?,0.0,0.0
4900000.0,8.0625,2.0516832591965783E-7,4900000.0,67.5,33.63825703434476,34.34343434343435,29.65367965367966,948797.0,9328.0,0.0,1.0,0.0,?,0.0,0.0
5000000.0,8.234375,2.0679500367906346E-7,5000000.0,69.69999999999999,38.965433889291745,38.787878787878775,36.874999999999986,968797.0,9328.0,0.0,1.0,0.0,?,0.0,0.0
5100000.0,8.390625,2.1352380928066029E-7,5100000.0,67.30000000000001,39.36134703111672,28.28947368421053,11.621621621621632,6673.0,9232.0,0.0,1.0,0.0,?,8.0,47.0
5200000.0,8.578125,2.2089988407161486E-7,5200000.0,63.3,33.72915267214168,20.9051724137931,5.167958656330754,26673.0,9232.0,0.0,1.0,0.0,?,0.0,0.0
5300000.0,8.75,2.270210016932751E-7,5300000.0,64.4,35.066830093970694,26.74897119341564,10.10101010101011,46673.0,9232.0,0.0,1.0,0.0,?,0.0,0.0
5400000.0,8.90625,2.320035774674679E-7,5400000.0,61.8,31.570650616222405,18.550106609808097,-3.243243243243246,66673.0,9232.0,0.0,1.0,0.0,?,0.0,0.0
5500000.0,9.078125,2.3684412654903183E-7,5500000.0,64.1,34.17481994337935,27.180527383367142,11.793611793611804,86673.0,9232.0,0.0,1.0,0.0,?,0.0,0.0
5600000.0,9.25,2.4104439136054766E-7,5600000.0,62.5,32.400764322024735,17.943107221006557,2.5974025974025996,106673.0,9232.0,0.0,1.0,0.0,?,0.0,0.0
5700000.0,9.40625,2.4428073730733647E-7,5700000.0,61.1,30.76813554495622,12.780269058295952,-8.055555555555562,126673.0,9232.0,0.0,1.0,0.0,?,0.0,0.0
5800000.0,9.5625,2.469350066449906E-7,5800000.0,64.60000000000001,35.41843019352579,26.70807453416149,11.055276381909557,146673.0,9232.0,0.0,1.0,0.0,?,0.0,0.0
5900000.0,9.734375,2.49214418646362E-7,5900000.0,47.0,8.679890278026654,-9.730848861283652,-33.165829145728644,166673.0,9232.0,0.0,1.0,0.0,?,0.0,0.0
6000000.0,9.890625,2.5070453476574677E-7,6000000.0,65.5,36.458471467091016,26.282051282051285,15.647921760391212,186673.0,9232.0,0.0,1.0,0.0,?,0.0,0.0
6100000.0,10.0625,2.581126237702038E-7,6100000.0,62.7,32.73461732669696,16.92650334075723,2.8645833333333357,206473.0,9232.0,0.0,1.0,0.0,?,0.0,0.0
6200000.0,10.234375,2.6488042850461267E-7,6200000.0,61.7,31.88350122360708,17.456896551724128,-6.09418282548477,226473.0,9232.0,0.0,1.0,0.0,?,0.0,0.0
6300000.0,10.40625,2.710079489689734E-7,6300000.0,64.1,34.80124367989772,25.363825363825367,7.235142118863055,246473.0,9232.0,0.0,1.0,0.0,?,0.0,0.0
6400000.0,10.578125,2.76495185163286E-7,6400000.0,63.7,34.7643248916333,16.55172413793105,0.0,266473.0,9232.0,0.0,1.0,0.0,?,0.0,0.0
6500000.0,10.75,2.8134213708755046E-7,6500000.0,62.6,32.90011446451063,15.765765765765757,-1.3550135501355027,286473.0,9232.0,0.0,1.0,0.0,?,0.0,0.0
6600000.0,10.90625,2.8516638040956526E-7,6600000.0,61.4,30.361111912940565,18.565400843881854,-0.5208333333333338,306473.0,9232.0,0.0,1.0,0.0,?,0.0,0.0
6700000.0,11.078125,2.8873276379373343E-7,6700000.0,65.2,36.339289634280206,24.675324675324674,13.432835820895534,326473.0,9232.0,0.0,1.0,0.0,?,0.0,0.0
6800000.0,11.25,2.9165886290785347E-7,6800000.0,63.7,34.42160943461673,18.426966292134825,6.44329896907217,346473.0,9232.0,0.0,1.0,0.0,?,0.0,0.0
6900000.0,11.421875,2.9394467775192536E-7,6900000.0,64.2,34.92991333682313,24.63157894736842,7.731958762886605,366473.0,9232.0,0.0,1.0,0.0,?,0.0,0.0
7000000.0,11.578125,2.9544061463740146E-7,7000000.0,63.2,34.0454512868306,22.851153039832283,-1.6574585635359134,386473.0,9232.0,0.0,1.0,0.0,?,0.0,0.0
7100000.0,11.75,3.0285510648455894E-7,7100000.0,64.4,35.24235004784063,27.4949083503055,6.561679790026252,406273.0,9232.0,0.0,1.0,0.0,?,0.0,0.0
7200000.0,11.921875,3.096293140616683E-7,7200000.0,64.7,35.934199159340544,28.397565922920897,6.613756613756619,426273.0,9232.0,0.0,1.0,0.0,?,0.0,0.0
7300000.0,12.09375,3.157632373687295E-7,7300000.0,62.1,31.927581004382503,20.54507337526205,-2.156334231805932,446273.0,9232.0,0.0,1.0,0.0,?,0.0,0.0
7400000.0,12.265625,3.2125687640574255E-7,7400000.0,61.5,30.492868748871626,19.287211740041922,1.2820512820512833,466273.0,9232.0,0.0,1.0,0.0,?,0.0,0.0
7500000.0,12.4375,3.2611023117270747E-7,7500000.0,64.0,34.07559331966012,23.404255319148934,10.891089108910899,486273.0,9232.0,0.0,1.0,0.0,?,0.0,0.0
7600000.0,12.609375,3.3032330166962424E-7,7600000.0,63.0,32.71748617980797,24.024640657084188,6.565656565656572,506273.0,9232.0,0.0,1.0,0.0,?,0.0,0.0
7700000.0,12.78125,3.338960878964929E-7,7700000.0,61.4,31.201163520219016,16.45021645021644,-8.42696629213484,526273.0,9232.0,0.0,1.0,0.0,?,0.0,0.0
7800000.0,12.953125,3.368285898533134E-7,7800000.0,63.3,34.111310592459596,21.0752688172043,2.1333333333333355,546273.0,9232.0,0.0,1.0,0.0,?,0.0,0.0
7900000.0,13.125,3.3912080754008573E-7,7900000.0,62.6,32.892890593879976,24.291497975708502,0.795755968169762,566273.0,9232.0,0.0,1.0,0.0,?,0.0,0.0
8000000.0,13.28125,3.406225651916532E-7,8000000.0,64.1,34.85282909302072,23.779193205944797,7.712082262210804,586273.0,9232.0,0.0,1.0,0.0,?,0.0,0.0
8100000.0,13.453125,3.4804345988151114E-7,8100000.0,62.0,31.733501963560055,14.414414414414404,-1.8766756032171599,606073.0,9232.0,0.0,1.0,0.0,?,0.0,0.0
8200000.0,13.609375,3.542076511722473E-7,8200000.0,64.9,35.876356461690236,29.940119760479046,11.586901763224192,626073.0,9232.0,0.0,1.0,0.0,?,0.0,0.0
8300000.0,13.78125,3.60347977322009E-7,8300000.0,65.3,36.37510451351709,27.708333333333336,14.742014742014753,646073.0,9232.0,0.0,1.0,0.0,?,0.0,0.0
8400000.0,13.953125,3.658480192017225E-7,8400000.0,65.10000000000001,36.58419583672521,21.923937360178968,7.915567282321907,666073.0,9232.0,0.0,1.0,0.0,?,0.0,0.0
8500000.0,14.125,3.707077768113879E-7,8500000.0,53.5,18.32074477428422,-0.8676789587852504,-17.72151898734176,686073.0,9232.0,0.0,1.0,0.0,?,0.0,0.0
8600000.0,14.296875,3.7492725015100513E-7,8600000.0,63.9,34.079338529074484,26.626016260162604,10.199004975124387,706073.0,9232.0,0.0,1.0,0.0,?,0.0,0.0
8700000.0,14.46875,3.7850643922057423E-7,8700000.0,64.0,34.53902746815141,22.58064516129032,6.976744186046517,726073.0,9232.0,0.0,1.0,0.0,?,0.0,0.0
8800000.0,14.640625,3.814453440200952E-7,8800000.0,65.5,36.686559933052926,23.672566371681413,11.764705882352951,746073.0,9232.0,0.0,1.0,0.0,?,0.0,0.0
8900000.0,14.796875,3.8353499904688864E-7,8900000.0,61.8,31.140401476695896,18.20128479657387,0.0,766073.0,9232.0,0.0,1.0,0.0,?,0.0,0.0
9000000.0,14.96875,3.851933353063133E-7,9000000.0,61.9,31.932196606971857,18.93617021276595,-3.2520325203252063,786073.0,9232.0,0.0,1.0,0.0,?,0.0,0.0
9100000.0,15.125,3.9194542397227554E-7,9100000.0,43.7,7.074855082988915,-22.12581344902387,-52.989130434782616,805873.0,9232.0,0.0,1.0,0.0,?,0.0,0.0
9200000.0,15.296875,3.9873243723478586E-7,9200000.0,64.7,35.65533131124592,23.92241379310345,9.02061855670104,825873.0,9232.0,0.0,1.0,0.0,?,0.0,0.0
9300000.0,15.484375,4.054379597720173E-7,9300000.0,65.9,37.66999093381687,27.60084925690022,12.787723785166252,845873.0,9232.0,0.0,1.0,0.0,?,0.0,0.0
9400000.0,15.65625,4.1094440449443133E-7,9400000.0,65.5,36.5687557915484,27.672955974842772,15.233415233415245,865873.0,9232.0,0.0,1.0,0.0,?,0.0,0.0
9500000.0,15.828125,4.158105649467972E-7,9500000.0,43.6,6.770695583179053,-18.987341772151904,-51.61290322580645,885873.0,9232.0,0.0,1.0,0.0,?,0.0,0.0
9600000.0,16.0,4.20036441129115E-7,9600000.0,42.9,7.162925001951039,-26.8888888888889,-59.05292479108636,905873.0,9232.0,0.0,1.0,0.0,?,0.0,0.0
9700000.0,16.171875,4.236220330413846E-7,9700000.0,44.1,6.712059010046391,-19.957081545064383,-47.4934036939314,925873.0,9232.0,0.0,1.0,0.0,?,0.0,0.0
9800000.0,16.328125,4.262995854434041E-7,9800000.0,63.4,34.6876427592508,21.459227467811157,-0.5494505494505499,945873.0,9232.0,0.0,1.0,0.0,?,0.0,0.0
9900000.0,16.5,4.286046088155774E-7,9900000.0,59.199999999999996,29.1440321213721,12.820512820512809,-20.710059171597653,965873.0,9232.0,0.0,1.0,0.0,?,0.0,0.0
1.0E7,16.671875,4.302693479177026E-7,1.0E7,62.8,33.26827588186332,21.848739495798316,0.5347593582887705,985873.0,9232.0,0.0,1.0,0.0,?,0.0,0.0
