learning evaluation instances,evaluation time (cpu seconds),model cost (RAM-Hours),classified instances,classifications correct (percent),Kappa Statistic (percent),Kappa Temporal Statistic (percent),Kappa M Statistic (percent),model training instances,model serialized size (bytes),labeling cost,newThreshold,maxPosterior,accuracyBaseLearner (percent),Change detected,Warning detected
100000.0,0.703125,1.4617398846894503E-8,100000.0,70.5,40.9915027763998,40.4040404040404,40.643863179074444,29199.0,2904.0,0.0,1.0,0.0,?,3.0,77.0
200000.0,1.390625,2.6206544134765865E-8,200000.0,68.5,36.99092669344387,35.05154639175259,35.31827515400411,69199.0,2904.0,0.0,1.0,0.0,?,0.0,0.0
300000.0,2.09375,3.5294215194880964E-8,300000.0,67.5,34.482675203406096,36.0236220472441,28.256070640176606,109199.0,2904.0,0.0,1.0,0.0,?,0.0,0.0
400000.0,2.796875,4.161702236160636E-8,400000.0,69.39999999999999,38.84525451166136,41.93548387096773,38.18181818181817,149199.0,2904.0,0.0,1.0,0.0,?,0.0,0.0
500000.0,3.5,4.5174965634942056E-8,500000.0,70.39999999999999,40.66423978061805,40.32258064516128,38.075313807531366,189199.0,2904.0,0.0,1.0,0.0,?,0.0,0.0
600000.0,4.203125,5.979236448183655E-8,600000.0,67.0,33.48732026459954,32.51533742331289,29.487179487179493,228999.0,2904.0,0.0,1.0,0.0,?,0.0,0.0
700000.0,4.90625,7.164489943534135E-8,700000.0,69.69999999999999,39.210336249097175,41.050583657587545,37.525773195876276,268999.0,2904.0,0.0,1.0,0.0,?,0.0,0.0
800000.0,5.609375,8.073257049545645E-8,800000.0,70.7,41.051970835814636,42.66144814090019,34.00900900900899,308999.0,2904.0,0.0,1.0,0.0,?,0.0,0.0
900000.0,6.3125,8.705537766218185E-8,900000.0,67.4,34.46024189397839,34.669338677354716,31.512605042016812,348999.0,2904.0,0.0,1.0,0.0,?,0.0,0.0
1000000.0,7.0,9.053425552944342E-8,1000000.0,68.0,35.96900900035619,33.19415448851775,37.25490196078432,388999.0,2904.0,0.0,1.0,0.0,?,0.0,0.0
1100000.0,7.671875,1.0452841201590166E-7,1100000.0,68.0,36.01126201788486,36.50793650793652,37.500000000000014,428799.0,2904.0,0.0,1.0,0.0,?,0.0,0.0
1200000.0,8.390625,1.1667259968817233E-7,1200000.0,68.60000000000001,37.12354222734846,37.45019920318726,36.178861788617894,468799.0,2904.0,0.0,1.0,0.0,?,0.0,0.0
1300000.0,9.109375,1.259904820472002E-7,1300000.0,68.30000000000001,36.82993902196008,35.43788187372709,31.974248927038634,508799.0,2904.0,0.0,1.0,0.0,?,0.0,0.0
1400000.0,9.828125,1.3248205909298525E-7,1400000.0,68.0,35.9282396283838,37.25490196078432,36.50793650793652,548799.0,2904.0,0.0,1.0,0.0,?,0.0,0.0
1500000.0,10.53125,1.3606765100525484E-7,1500000.0,67.30000000000001,34.38846842219315,33.80566801619434,30.2771855010661,588799.0,2904.0,0.0,1.0,0.0,?,0.0,0.0
1600000.0,11.234375,1.5071269849108323E-7,1600000.0,67.80000000000001,35.52908199018921,36.98630136986302,33.19502074688798,628599.0,2904.0,0.0,1.0,0.0,?,0.0,0.0
1700000.0,11.953125,1.628568861633539E-7,1700000.0,70.3,40.62375049980007,40.361445783132524,40.71856287425149,668599.0,2904.0,0.0,1.0,0.0,?,0.0,0.0
1800000.0,12.671875,1.7217476852238176E-7,1800000.0,68.2,36.230884305177334,35.757575757575765,34.702258726899395,708599.0,2904.0,0.0,1.0,0.0,?,0.0,0.0
1900000.0,13.390625,1.786663455681668E-7,1900000.0,70.1,40.20191353876675,40.438247011952186,37.447698744769866,748599.0,2904.0,0.0,1.0,0.0,?,0.0,0.0
2000000.0,14.109375,1.8233161730070907E-7,2000000.0,68.0,35.4112085773915,35.871743486973955,29.978118161925604,788599.0,2904.0,0.0,1.0,0.0,?,0.0,0.0
2100000.0,14.84375,1.9765643325323857E-7,2100000.0,71.0,42.06326691253151,44.12331406551059,40.45174537987678,828399.0,2904.0,0.0,1.0,0.0,?,0.0,0.0
2200000.0,15.5625,2.0982888397864166E-7,2200000.0,67.2,34.317239722049784,34.268537074148306,31.524008350730693,868399.0,2904.0,0.0,1.0,0.0,?,0.0,0.0
2300000.0,16.234375,2.1856549816826977E-7,2300000.0,69.3,38.136768119680156,39.32806324110671,33.405639913232086,908399.0,2904.0,0.0,1.0,0.0,?,0.0,0.0
2400000.0,16.953125,2.2508533826718727E-7,2400000.0,66.7,33.07770221386197,36.450381679389324,29.449152542372886,948399.0,2904.0,0.0,1.0,0.0,?,0.0,0.0
2500000.0,17.671875,2.2877887305286195E-7,2500000.0,66.60000000000001,33.167118222165314,38.26247689463956,31.416837782340867,988399.0,2904.0,0.0,1.0,0.0,?,0.0,0.0
2600000.0,18.375,2.4345156917762424E-7,2600000.0,72.39999999999999,44.775259316173646,44.242424242424235,44.46680080482897,1028199.0,2904.0,0.0,1.0,0.0,?,0.0,0.0
2700000.0,19.09375,2.5562401990302736E-7,2700000.0,68.30000000000001,36.392384743803774,36.345381526104426,34.36853002070394,1068199.0,2904.0,0.0,1.0,0.0,?,0.0,0.0
2800000.0,19.796875,2.6476698824101024E-7,2800000.0,69.1,37.714170530135036,37.322515212981735,31.333333333333314,1108199.0,2904.0,0.0,1.0,0.0,?,0.0,0.0
2900000.0,20.53125,2.71428563994252E-7,2900000.0,67.9,35.72286744092912,37.54863813229573,34.22131147540984,1148199.0,2904.0,0.0,1.0,0.0,?,0.0,0.0
3000000.0,21.25,2.751220987799267E-7,3000000.0,69.69999999999999,39.126801083261654,37.1369294605809,35.11777301927194,1188199.0,2904.0,0.0,1.0,0.0,?,0.0,0.0
3100000.0,21.953125,2.898224435436229E-7,3100000.0,70.3,40.49479479720144,41.99218749999999,38.509316770186324,1227999.0,2904.0,0.0,1.0,0.0,?,0.0,0.0
3200000.0,22.671875,3.020231573221584E-7,3200000.0,69.5,39.04096447187489,38.87775551102203,39.6039603960396,1267999.0,2904.0,0.0,1.0,0.0,?,0.0,0.0
3300000.0,23.359375,3.1098998281069925E-7,3300000.0,71.6,43.45445495271279,41.563786008230444,41.078838174273855,1307999.0,2904.0,0.0,1.0,0.0,?,0.0,0.0
3400000.0,24.078125,3.1753808596274915E-7,3400000.0,71.3,42.589895821664605,41.30879345603271,41.30879345603271,1347999.0,2904.0,0.0,1.0,0.0,?,0.0,0.0
3500000.0,24.765625,3.210980665042168E-7,3500000.0,69.69999999999999,39.040092707344144,37.39669421487602,33.98692810457515,1387999.0,2904.0,0.0,1.0,0.0,?,0.0,0.0
3600000.0,25.453125,3.354717369398309E-7,3600000.0,69.3,38.527708585296295,37.47454175152748,36.17463617463616,1427799.0,2904.0,0.0,1.0,0.0,?,0.0,0.0
3700000.0,26.171875,3.476724507183664E-7,3700000.0,70.89999999999999,41.12410472221098,41.91616766467065,36.60130718954247,1467799.0,2904.0,0.0,1.0,0.0,?,0.0,0.0
3800000.0,26.890625,3.570468591836591E-7,3800000.0,69.6,39.11037046532494,38.585858585858574,38.21138211382113,1507799.0,2904.0,0.0,1.0,0.0,?,0.0,0.0
3900000.0,27.59375,3.634526122671862E-7,3900000.0,69.69999999999999,39.219116089482284,41.392649903288195,36.34453781512604,1547799.0,2904.0,0.0,1.0,0.0,?,0.0,0.0
4000000.0,28.328125,3.6725531875466303E-7,4000000.0,70.5,40.347159311505095,45.26901669758812,34.73451327433627,1587799.0,2904.0,0.0,1.0,0.0,?,0.0,0.0
4100000.0,29.046875,3.823106008995738E-7,4100000.0,66.60000000000001,32.729645682612826,34.63796477495109,27.705627705627705,1627599.0,2904.0,0.0,1.0,0.0,?,0.0,0.0
4200000.0,29.765625,3.945395777312418E-7,4200000.0,68.4,36.78710456933214,37.67258382642999,36.80000000000001,1667599.0,2904.0,0.0,1.0,0.0,?,0.0,0.0
4300000.0,30.453125,4.03533437444518E-7,4300000.0,70.39999999999999,40.69823817671123,40.681362725450896,39.21971252566735,1707599.0,2904.0,0.0,1.0,0.0,?,0.0,0.0
4400000.0,31.15625,4.0996683916697897E-7,4400000.0,70.39999999999999,40.80852357260553,42.412451361867696,43.93939393939393,1747599.0,2904.0,0.0,1.0,0.0,?,0.0,0.0
4500000.0,31.84375,4.13553853933182E-7,4500000.0,68.7,37.24184946064082,38.74755381604698,37.14859437751005,1787599.0,2904.0,0.0,1.0,0.0,?,0.0,0.0
4600000.0,32.546875,4.282818473358121E-7,4600000.0,67.9,35.784588301192294,35.92814371257486,35.282258064516135,1827399.0,2904.0,0.0,1.0,0.0,?,0.0,0.0
4700000.0,33.25,4.4024497684505245E-7,4700000.0,68.0,35.88716140407118,40.630797773654926,33.05439330543934,1867399.0,2904.0,0.0,1.0,0.0,?,0.0,0.0
4800000.0,33.9375,4.492388365583287E-7,4800000.0,70.0,39.90769822447278,40.94488188976377,39.02439024390243,1907399.0,2904.0,0.0,1.0,0.0,?,0.0,0.0
4900000.0,34.65625,4.55815202763511E-7,4900000.0,71.5,42.73704852683522,43.45238095238095,37.90849673202613,1947399.0,2904.0,0.0,1.0,0.0,?,0.0,0.0
5000000.0,35.375,4.599951595688859E-7,5000000.0,69.1,37.73625966196228,39.530332681017605,35.22012578616351,1987399.0,2904.0,0.0,1.0,0.0,?,0.0,0.0
5100000.0,36.078125,4.751713519605497E-7,5100000.0,49.1,-1.7145597697933799,-2.828282828282831,-3.8775510204081667,2027199.0,2904.0,0.0,1.0,0.0,?,0.0,0.0
5200000.0,36.78125,4.875826804588238E-7,5200000.0,49.7,-0.5067297547875537,-8.405172413793112,-6.79405520169852,2067199.0,2904.0,0.0,1.0,0.0,?,0.0,0.0
5300000.0,37.5,4.974435109438168E-7,5300000.0,46.300000000000004,-6.799360397126572,-13.29113924050633,-16.233766233766236,2107199.0,2904.0,0.0,1.0,0.0,?,0.0,0.0
5400000.0,38.203125,5.043251116553115E-7,5400000.0,47.199999999999996,-5.534568567488155,-7.535641547861514,-7.09939148073023,2147199.0,2904.0,0.0,1.0,0.0,?,0.0,0.0
5500000.0,38.921875,5.085333315138188E-7,5500000.0,51.2,2.6045304859794443,4.687500000000004,-2.7368421052631606,2187199.0,2904.0,0.0,1.0,0.0,?,0.0,0.0
5600000.0,39.625,5.237095239054827E-7,5600000.0,50.7,1.570086889854328,7.156308851224111,-3.138075313807534,2226999.0,2904.0,0.0,1.0,0.0,?,0.0,0.0
5700000.0,40.328125,5.361208524037568E-7,5700000.0,48.3,-2.7906569853906142,-7.039337474120089,-12.147505422993504,2266999.0,2904.0,0.0,1.0,0.0,?,0.0,0.0
5800000.0,41.046875,5.459816828887497E-7,5800000.0,50.8,2.522140550393262,0.8064516129032264,-10.561797752809,2306999.0,2904.0,0.0,1.0,0.0,?,0.0,0.0
5900000.0,41.765625,5.53048933700969E-7,5900000.0,48.5,-2.825607769223408,3.917910447761187,-11.713665943600878,2346999.0,2904.0,0.0,1.0,0.0,?,0.0,1.0
6000000.0,42.46875,5.571976847325764E-7,6000000.0,49.7,-0.5774706465751676,-0.19920318725099617,-2.2357723577235795,2386999.0,2904.0,0.0,1.0,0.0,?,0.0,0.0
6100000.0,43.1875,5.727721145376565E-7,6100000.0,48.3,-3.2480189161554303,-3.1936127744511005,-8.385744234800846,2426799.0,2904.0,0.0,1.0,0.0,?,0.0,0.0
6200000.0,43.90625,5.855202390294938E-7,6200000.0,52.800000000000004,5.885730920924083,7.45098039215687,-1.0706638115631701,2466799.0,2904.0,0.0,1.0,0.0,?,0.0,0.0
6300000.0,44.625,5.954420582080883E-7,6300000.0,49.8,0.14322087842137632,-5.462184873949584,-2.24032586558045,2506799.0,2904.0,0.0,1.0,0.0,?,0.0,0.0
6400000.0,45.359375,6.026918223748606E-7,6400000.0,50.4,0.761892566745637,-1.0183299389002045,1.9762845849802388,2546799.0,2904.0,0.0,1.0,0.0,?,0.0,0.0
6500000.0,46.078125,6.069610309269695E-7,6500000.0,51.2,2.395314975118803,-1.0351966873706013,2.008032128514058,2586799.0,2904.0,0.0,1.0,0.0,?,0.0,0.0
6600000.0,46.796875,6.225354607320497E-7,6600000.0,49.1,-1.8114028771222281,0.7797270955165698,-7.838983050847465,2626599.0,2904.0,0.0,1.0,0.0,?,0.0,0.0
6700000.0,47.515625,6.352835852238869E-7,6700000.0,50.8,1.6377710958991702,2.3809523809523827,-1.6528925619834725,2666599.0,2904.0,0.0,1.0,0.0,?,0.0,0.0
6800000.0,48.25,6.454210961237552E-7,6800000.0,49.2,-1.2597671822675793,-0.1972386587771205,-7.627118644067804,2706599.0,2904.0,0.0,1.0,0.0,?,0.0,0.0
6900000.0,48.984375,6.526708602905275E-7,6900000.0,53.800000000000004,7.558586246638501,8.514851485148522,4.938271604938276,2746599.0,2904.0,0.0,1.0,0.0,?,0.0,0.0
7000000.0,49.703125,6.569400688426364E-7,7000000.0,54.6,9.110928710135942,10.276679841897241,3.813559322033902,2786599.0,2904.0,0.0,1.0,0.0,?,0.0,0.0
7100000.0,50.4375,6.728819506760275E-7,7100000.0,52.5,5.095663571120306,6.8627450980392215,3.651115618661261,2826399.0,2904.0,0.0,1.0,0.0,?,0.0,0.0
7200000.0,51.171875,6.859360857763226E-7,7200000.0,54.0,7.972391717515265,8.730158730158738,5.737704918032792,2866399.0,2904.0,0.0,1.0,0.0,?,0.0,0.0
7300000.0,51.90625,6.961024741435219E-7,7300000.0,50.7,2.253909843606243,0.20242914979757104,-11.036036036036046,2906399.0,2904.0,0.0,1.0,0.0,?,0.0,0.0
7400000.0,52.625,7.032262510620059E-7,7400000.0,53.7,7.499900107883489,5.702647657841146,5.702647657841146,2946399.0,2904.0,0.0,1.0,0.0,?,0.0,0.0
7500000.0,53.390625,7.078039925545456E-7,7500000.0,50.6,1.2347653625923594,1.7892644135188884,0.6036217303822944,2986399.0,2904.0,0.0,1.0,0.0,?,0.0,0.0
7600000.0,54.125,7.237458743879367E-7,7600000.0,52.400000000000006,4.825887358638459,1.8556701030927854,-4.845814977973573,3026199.0,2904.0,0.0,1.0,0.0,?,0.0,0.0
7700000.0,54.828125,7.36244514377581E-7,7700000.0,51.9,4.0295612893957635,0.0,1.2320328542094467,3066199.0,2904.0,0.0,1.0,0.0,?,0.0,0.0
7800000.0,55.546875,7.461945966093079E-7,7800000.0,54.2,8.543403942617983,10.721247563352836,2.966101694915257,3106199.0,2904.0,0.0,1.0,0.0,?,0.0,0.0
7900000.0,56.28125,7.534732382434112E-7,7900000.0,54.800000000000004,9.590235745460518,11.372549019607852,8.316430020283983,3146199.0,2904.0,0.0,1.0,0.0,?,0.0,0.0
8000000.0,56.984375,7.576772865528864E-7,8000000.0,51.6,3.2181949793438824,4.536489151873771,-6.843267108167778,3186199.0,2904.0,0.0,1.0,0.0,?,0.0,0.0
8100000.0,57.6875,7.729684390748543E-7,8100000.0,53.7,7.624656834578311,7.214428857715436,1.0683760683760695,3225999.0,2904.0,0.0,1.0,0.0,?,0.0,0.0
8200000.0,58.421875,7.860514516424805E-7,8200000.0,52.6,5.6254405141621575,2.469135802469138,-5.099778270509983,3265999.0,2904.0,0.0,1.0,0.0,?,0.0,0.0
8300000.0,59.140625,7.960297969273398E-7,8300000.0,52.6,5.116122652424738,4.242424242424246,2.868852459016396,3305999.0,2904.0,0.0,1.0,0.0,?,0.0,0.0
8400000.0,59.84375,8.030263577691386E-7,8400000.0,50.6,1.200000000000001,2.946954813359531,-1.2295081967213126,3345999.0,2904.0,0.0,1.0,0.0,?,0.0,0.0
8500000.0,60.5625,8.073520924275123E-7,8500000.0,52.2,4.404206214926541,-1.2711864406779672,2.2494887525562395,3385999.0,2904.0,0.0,1.0,0.0,?,0.0,0.0
8600000.0,61.296875,8.233228517282344E-7,8600000.0,53.7,7.588519420382431,12.476370510396986,3.9419087136929494,3425799.0,2904.0,0.0,1.0,0.0,?,0.0,0.0
8700000.0,62.03125,8.364058642958605E-7,8700000.0,53.0,6.259847702169591,3.092783505154642,-0.6423982869379021,3465799.0,2904.0,0.0,1.0,0.0,?,0.0,0.0
8800000.0,62.75,8.463842095807198E-7,8800000.0,54.7,9.4449153220003,7.361963190184055,3.4115138592750567,3505799.0,2904.0,0.0,1.0,0.0,?,0.0,0.0
8900000.0,63.46875,8.535362495523364E-7,8900000.0,58.9,17.78618807959737,19.253438113948913,19.88304093567251,3545799.0,2904.0,0.0,1.0,0.0,?,0.0,0.0
9000000.0,64.203125,8.579560219206747E-7,9000000.0,56.39999999999999,12.75288655874171,11.740890688259098,11.020408163265294,3585799.0,2904.0,0.0,1.0,0.0,?,0.0,0.0
9100000.0,64.90625,8.732748230815765E-7,9100000.0,54.800000000000004,9.851334479471245,6.224066390041499,-0.6681514476614705,3625599.0,2904.0,0.0,1.0,0.0,?,0.0,0.0
9200000.0,65.625,8.861077367328111E-7,9200000.0,55.50000000000001,11.064033895595186,5.919661733615227,7.291666666666674,3665599.0,2904.0,0.0,1.0,0.0,?,0.0,0.0
9300000.0,66.34375,8.961143450708029E-7,9300000.0,55.400000000000006,10.85990214575806,4.904051172707894,8.230452674897126,3705599.0,2904.0,0.0,1.0,0.0,?,0.0,0.0
9400000.0,67.0625,9.032946480955518E-7,9400000.0,53.2,6.350178294852869,5.070993914807307,2.7027027027027053,3745599.0,2904.0,0.0,1.0,0.0,?,0.0,0.0
9500000.0,67.78125,9.07648645807058E-7,9500000.0,56.99999999999999,13.900813737425501,15.851272015655567,17.14836223506743,3785599.0,2904.0,0.0,1.0,0.0,?,0.0,0.0
9600000.0,68.515625,9.23648282575111E-7,9600000.0,54.1,7.923771313941823,8.747514910536786,2.340425531914896,3825399.0,2904.0,0.0,1.0,0.0,?,0.0,0.0
9700000.0,69.25,9.36760172610068E-7,9700000.0,57.49999999999999,14.788675916272343,12.371134020618545,8.993576017130605,3865399.0,2904.0,0.0,1.0,0.0,?,0.0,0.0
9800000.0,69.984375,9.469843159119292E-7,9800000.0,56.3,12.86211077080141,12.774451097804379,3.532008830022054,3905399.0,2904.0,0.0,1.0,0.0,?,0.0,0.0
9900000.0,70.703125,9.541646189366781E-7,9900000.0,57.699999999999996,15.424357784957929,17.2211350293542,11.134453781512592,3945399.0,2904.0,0.0,1.0,0.0,?,0.0,0.0
1.0E7,71.421875,9.585186166481843E-7,1.0E7,56.10000000000001,12.153617109833997,12.723658051689874,9.109730848861291,3985399.0,2904.0,0.0,1.0,0.0,?,0.0,0.0
