learning evaluation instances,evaluation time (cpu seconds),model cost (RAM-Hours),classified instances,classifications correct (percent),Kappa Statistic (percent),Kappa Temporal Statistic (percent),Kappa M Statistic (percent),model training instances,model serialized size (bytes),labeling cost,newThreshold,maxPosterior,accuracyBaseLearner (percent),Change detected,Warning detected,tree size (nodes),tree size (leaves),active learning leaves,tree depth,active leaf byte size estimate,inactive leaf byte size estimate,byte size estimate overhead
100000.0,0.3125,1.4997527210248842E-8,100000.0,79.80000000000001,55.97843379112858,56.55913978494625,45.25745257452576,9987.0,141488.0,9987.0,1.0,0.0,0.0,0.0,11.0,43.0,34.0,34.0,3.0,0.0,0.0,1.0
200000.0,0.578125,3.218456792334716E-8,200000.0,86.6,70.37168063325005,72.65306122448979,63.88140161725067,19915.0,205920.0,19915.0,1.0,0.0,0.0,0.0,0.0,62.0,48.0,48.0,3.0,0.0,0.0,1.0
300000.0,0.84375,4.967781327043971E-8,300000.0,85.39999999999999,68.33795975017348,70.5050505050505,62.755102040816325,29890.0,210352.0,29890.0,1.0,0.0,0.0,0.0,0.0,64.0,49.0,49.0,3.0,0.0,0.0,1.0
400000.0,1.15625,8.033061425925958E-8,400000.0,84.3,65.58587311051099,65.49450549450549,58.79265091863516,39895.0,334600.0,39895.0,1.0,0.0,0.0,0.0,0.0,110.0,84.0,84.0,4.0,0.0,0.0,1.0
500000.0,1.46875,1.1756217443487712E-7,500000.0,85.2,67.60878414756387,68.44349680170575,60.10781671159029,49881.0,415736.0,49881.0,1.0,0.0,0.0,0.0,0.0,131.0,99.0,99.0,4.0,0.0,0.0,1.0
600000.0,1.75,1.534425407751567E-7,600000.0,86.1,69.23880425256932,70.92050209205021,62.834224598930476,59758.0,448224.0,59758.0,1.0,0.0,0.0,0.0,0.0,142.0,106.0,106.0,4.0,0.0,0.0,1.0
700000.0,2.015625,1.8779518237958354E-7,700000.0,87.3,71.4863044454423,71.00456621004567,64.72222222222223,69609.0,454976.0,69609.0,1.0,0.0,0.0,0.0,0.0,144.0,107.0,107.0,4.0,0.0,0.0,1.0
800000.0,2.3125,2.2649160301726727E-7,800000.0,86.5,70.18577574403054,71.27659574468085,62.70718232044199,79615.0,458888.0,79615.0,1.0,0.0,0.0,0.0,0.0,146.0,108.0,108.0,4.0,0.0,0.0,1.0
900000.0,2.640625,2.79432052694675E-7,900000.0,85.9,68.09175092556552,68.38565022421524,60.16949152542372,89617.0,578248.0,89617.0,1.0,0.0,0.0,0.0,0.0,192.0,137.0,137.0,5.0,0.0,0.0,1.0
1000000.0,2.953125,3.3252843422815204E-7,1000000.0,91.0,80.64815770461348,81.51950718685832,76.43979057591625,99704.0,611176.0,99704.0,1.0,0.0,0.0,0.0,0.0,206.0,144.0,144.0,5.0,0.0,0.0,1.0
1100000.0,3.25,3.850055509246886E-7,1100000.0,90.2,78.8135593220339,79.32489451476795,74.21052631578948,109593.0,637536.0,109593.0,1.0,0.0,0.0,0.0,0.0,218.0,150.0,150.0,5.0,0.0,0.0,1.0
1200000.0,3.578125,4.44585457444191E-7,1200000.0,90.7,80.0049880029928,80.78512396694215,75.90673575129534,119597.0,656040.0,119597.0,1.0,0.0,0.0,0.0,0.0,226.0,154.0,154.0,5.0,0.0,0.0,1.0
1300000.0,3.890625,5.027336171931691E-7,1300000.0,91.7,82.05824369660706,82.07343412526998,77.98408488063662,129466.0,673384.0,129466.0,1.0,0.0,0.0,0.0,0.0,231.0,158.0,158.0,5.0,0.0,0.0,1.0
1400000.0,4.1875,5.59662164758063E-7,1400000.0,90.9,80.68596655064097,81.15942028985508,77.07808564231739,139708.0,695208.0,139708.0,1.0,0.0,0.0,0.0,0.0,245.0,165.0,165.0,5.0,0.0,0.0,1.0
1500000.0,4.5,6.220782395555741E-7,1500000.0,91.0,80.74586249978607,81.21085594989562,76.43979057591625,149600.0,725912.0,149600.0,1.0,0.0,0.0,0.0,0.0,256.0,172.0,172.0,6.0,0.0,0.0,1.0
1600000.0,4.828125,6.892646261904803E-7,1600000.0,89.4,77.5514093902878,77.49469214437367,73.29974811083125,159502.0,745208.0,159502.0,1.0,0.0,0.0,0.0,0.0,270.0,179.0,179.0,6.0,0.0,0.0,1.0
1700000.0,5.15625,7.601948325625724E-7,1700000.0,91.3,80.91921150286431,82.02479338842976,75.63025210084035,169516.0,789104.0,169516.0,1.0,0.0,0.0,0.0,0.0,289.0,190.0,190.0,6.0,0.0,0.0,1.0
1800000.0,5.5,8.363815464286341E-7,1800000.0,90.2,79.03824023887852,78.55579868708972,74.93606138107417,179689.0,810136.0,179689.0,1.0,0.0,0.0,0.0,0.0,293.0,192.0,192.0,6.0,0.0,0.0,1.0
1900000.0,5.8125,9.082395505780975E-7,1900000.0,91.8,81.872123304933,81.77777777777779,77.15877437325906,189839.0,842128.0,189839.0,1.0,0.0,0.0,0.0,0.0,306.0,200.0,200.0,6.0,0.0,0.0,1.0
2000000.0,6.125,9.803594892016716E-7,2000000.0,92.10000000000001,83.312209547951,83.91038696537679,80.25000000000001,199843.0,845368.0,199843.0,1.0,0.0,0.0,0.0,0.0,306.0,200.0,200.0,6.0,0.0,0.0,1.0
2100000.0,6.46875,1.061857716801266E-6,2100000.0,91.5,82.10526315789475,81.44104803493451,78.75000000000001,209734.0,869640.0,209734.0,1.0,0.0,0.0,0.0,0.0,315.0,206.0,206.0,6.0,0.0,0.0,1.0
2200000.0,6.828125,1.1520347066430584E-6,2200000.0,91.9,82.80576028257991,83.80000000000001,79.54545454545455,219737.0,922960.0,219737.0,1.0,0.0,0.0,0.0,0.0,338.0,222.0,222.0,6.0,0.0,0.0,1.0
2300000.0,7.171875,1.240508475651344E-6,2300000.0,90.7,79.00487628679791,78.47222222222223,73.04347826086958,229897.0,947784.0,229897.0,1.0,0.0,0.0,0.0,0.0,346.0,226.0,226.0,6.0,0.0,0.0,1.0
2400000.0,7.53125,1.3349814495692653E-6,2400000.0,90.3,78.7377687370673,78.7746170678337,73.35164835164835,239938.0,968944.0,239938.0,1.0,0.0,0.0,0.0,0.0,354.0,230.0,230.0,6.0,0.0,0.0,1.0
2500000.0,7.859375,1.4217167821091912E-6,2500000.0,90.10000000000001,78.43118458548659,78.66379310344827,72.95081967213115,249937.0,974544.0,249937.0,1.0,0.0,0.0,0.0,0.0,356.0,231.0,231.0,6.0,0.0,0.0,1.0
2600000.0,8.203125,1.5126897940515646E-6,2600000.0,92.2,83.13557269865431,84.01639344262296,78.80434782608697,259975.0,975736.0,259975.0,1.0,0.0,0.0,0.0,0.0,360.0,233.0,233.0,6.0,0.0,0.0,1.0
2700000.0,8.546875,1.6050984656127791E-6,2700000.0,93.30000000000001,85.31075428180552,85.40305010893248,81.49171270718233,269905.0,991800.0,269905.0,1.0,0.0,0.0,0.0,0.0,364.0,235.0,235.0,6.0,0.0,0.0,1.0
2800000.0,8.890625,1.6992949531413615E-6,2800000.0,92.9,84.76054741830797,84.66522678185746,81.51041666666667,279788.0,1011840.0,279788.0,1.0,0.0,0.0,0.0,0.0,371.0,240.0,240.0,6.0,0.0,0.0,1.0
2900000.0,9.234375,1.7935967318610185E-6,2900000.0,92.80000000000001,84.49532275569797,84.81012658227849,80.95238095238096,289861.0,1013024.0,289861.0,1.0,0.0,0.0,0.0,0.0,371.0,240.0,240.0,6.0,0.0,0.0,1.0
3000000.0,9.578125,1.8886291460754972E-6,3000000.0,93.0,85.035508600307,84.91379310344828,81.43236074270558,299719.0,1021192.0,299719.0,1.0,0.0,0.0,0.0,0.0,375.0,242.0,242.0,6.0,0.0,0.0,1.0
3100000.0,9.9375,1.990961480057902E-6,3100000.0,92.5,83.46371277130537,83.4070796460177,78.75354107648727,309746.0,1053160.0,309746.0,1.0,0.0,0.0,0.0,0.0,387.0,251.0,251.0,6.0,0.0,0.0,1.0
3200000.0,10.28125,2.0900568536793193E-6,3200000.0,93.2,85.16993509665713,84.95575221238938,81.7204301075269,319838.0,1066728.0,319838.0,1.0,0.0,0.0,0.0,0.0,391.0,253.0,253.0,6.0,0.0,0.0,1.0
3300000.0,10.65625,2.2011582041159273E-6,3300000.0,92.7,84.12187440185144,84.59915611814347,80.32345013477091,329832.0,1097560.0,329832.0,1.0,0.0,0.0,0.0,0.0,408.0,266.0,266.0,6.0,0.0,0.0,1.0
3400000.0,11.0,2.3069481054941813E-6,3400000.0,93.10000000000001,84.92607221503724,85.47368421052633,80.8864265927978,339781.0,1141824.0,339781.0,1.0,0.0,0.0,0.0,0.0,423.0,278.0,278.0,6.0,0.0,0.0,1.0
3500000.0,11.375,2.4251872673630715E-6,3500000.0,93.2,85.37206580849454,84.82142857142858,82.01058201058203,349799.0,1170976.0,349799.0,1.0,0.0,0.0,0.0,0.0,438.0,290.0,290.0,6.0,0.0,0.0,1.0
3600000.0,11.734375,2.54412563258989E-6,3600000.0,94.69999999999999,88.47715868474376,88.74734607218683,85.19553072625698,359815.0,1231280.0,359815.0,1.0,0.0,0.0,0.0,0.0,459.0,305.0,305.0,7.0,0.0,0.0,1.0
3700000.0,12.140625,2.6857201009988785E-6,3700000.0,93.60000000000001,86.06028924899809,85.77777777777779,82.22222222222224,369853.0,1299016.0,369853.0,1.0,0.0,0.0,0.0,0.0,480.0,320.0,320.0,7.0,0.0,0.0,1.0
3800000.0,12.515625,2.818802216400703E-6,3800000.0,93.30000000000001,85.68914254468406,85.83509513742072,82.50652741514361,379877.0,1323456.0,379877.0,1.0,0.0,0.0,0.0,0.0,482.0,321.0,321.0,7.0,0.0,0.0,1.0
3900000.0,12.875,2.9503414407372477E-6,3900000.0,91.4,81.7149660876406,81.62393162393164,77.66233766233768,389894.0,1366320.0,389894.0,1.0,0.0,0.0,0.0,0.0,495.0,329.0,329.0,7.0,0.0,0.0,1.0
4000000.0,13.265625,3.0938524287194015E-6,4000000.0,93.30000000000001,85.73484700091127,85.43478260869566,82.64248704663214,399673.0,1371608.0,399673.0,1.0,0.0,0.0,0.0,0.0,511.0,340.0,340.0,7.0,0.0,0.0,1.0
4100000.0,13.671875,3.24985025347107E-6,4100000.0,93.30000000000001,85.6715141146279,85.52915766738663,82.36842105263159,409664.0,1435512.0,409664.0,1.0,0.0,0.0,0.0,0.0,530.0,351.0,351.0,7.0,0.0,0.0,1.0
4200000.0,14.09375,3.421109997563892E-6,4200000.0,93.0,84.5580287220666,85.20084566596195,80.28169014084509,419746.0,1520064.0,419746.0,1.0,0.0,0.0,0.0,0.0,568.0,376.0,376.0,7.0,0.0,0.0,1.0
4300000.0,14.5,3.5925125444514886E-6,4300000.0,92.7,84.62860175023373,84.88612836438925,81.65829145728645,429744.0,1581504.0,429744.0,1.0,0.0,0.0,0.0,0.0,580.0,382.0,382.0,7.0,0.0,0.0,1.0
4400000.0,14.890625,3.7612662547164493E-6,4400000.0,94.5,87.84111207399677,88.65979381443297,84.37499999999999,439634.0,1620336.0,439634.0,1.0,0.0,0.0,0.0,0.0,603.0,395.0,395.0,7.0,0.0,0.0,1.0
4500000.0,15.3125,3.9498066891812615E-6,4500000.0,95.0,89.2994110395836,89.53974895397488,86.70212765957446,449755.0,1677752.0,449755.0,1.0,0.0,0.0,0.0,0.0,626.0,411.0,411.0,7.0,0.0,0.0,1.0
4600000.0,15.734375,4.145474360686623E-6,4600000.0,93.0,84.9534847729266,84.9785407725322,81.28342245989306,459694.0,1742800.0,459694.0,1.0,0.0,0.0,0.0,0.0,648.0,425.0,425.0,7.0,0.0,0.0,1.0
4700000.0,16.15625,4.347382184480213E-6,4700000.0,93.60000000000001,86.02522446983197,85.48752834467122,82.12290502793297,469746.0,1799744.0,469746.0,1.0,0.0,0.0,0.0,0.0,665.0,435.0,435.0,7.0,0.0,0.0,1.0
4800000.0,16.578125,4.553380551644497E-6,4800000.0,92.80000000000001,84.47733907096875,85.03118503118505,80.90185676392574,479765.0,1837112.0,479765.0,1.0,0.0,0.0,0.0,0.0,679.0,445.0,445.0,7.0,0.0,0.0,1.0
4900000.0,16.984375,4.755468107759952E-6,4900000.0,94.39999999999999,87.8328582354168,87.90496760259178,84.53038674033148,489564.0,1872392.0,489564.0,1.0,0.0,0.0,0.0,0.0,691.0,454.0,454.0,7.0,0.0,0.0,1.0
5000000.0,17.421875,4.979398282658722E-6,5000000.0,95.19999999999999,89.49188905186189,89.78723404255318,86.47887323943661,499551.0,1927832.0,499551.0,1.0,0.0,0.0,0.0,0.0,718.0,472.0,472.0,7.0,0.0,0.0,1.0
5100000.0,17.890625,4.990808924453126E-6,5100000.0,70.19999999999999,39.93582404824482,39.676113360323875,34.361233480176196,9508.0,54728.0,509539.0,1.0,0.0,0.0,1.0,1.0,19.0,13.0,13.0,3.0,0.0,0.0,1.0
5200000.0,18.1875,5.002793073395474E-6,5200000.0,83.5,66.95638242480074,66.39511201629327,65.48117154811715,19294.0,116504.0,519325.0,1.0,0.0,0.0,0.0,0.0,38.0,27.0,27.0,4.0,0.0,0.0,1.0
5300000.0,18.515625,5.0281672479791776E-6,5300000.0,88.6,76.98940705335228,76.92307692307693,75.0,29129.0,258960.0,529160.0,1.0,0.0,0.0,0.0,0.0,85.0,61.0,61.0,4.0,0.0,0.0,1.0
5400000.0,18.828125,5.056975512868828E-6,5400000.0,90.60000000000001,81.06365834004835,80.77709611451944,79.11111111111111,39011.0,316216.0,539042.0,1.0,0.0,0.0,0.0,0.0,104.0,75.0,75.0,5.0,0.0,0.0,1.0
5500000.0,19.171875,5.097051616758108E-6,5500000.0,92.0,83.84647691661552,83.6734693877551,82.4561403508772,48993.0,410216.0,549024.0,1.0,0.0,0.0,0.0,0.0,152.0,108.0,108.0,5.0,0.0,0.0,1.0
5600000.0,19.53125,5.1560142957088015E-6,5600000.0,92.5,84.9327397502451,84.27672955974843,83.83620689655173,58815.0,593160.0,558846.0,1.0,0.0,0.0,0.0,0.0,204.0,146.0,146.0,6.0,0.0,0.0,1.0
5700000.0,19.859375,5.215103220608499E-6,5700000.0,92.9,85.60304972017197,85.23908523908524,83.97291196388262,68820.0,654856.0,568851.0,1.0,0.0,0.0,0.0,0.0,225.0,161.0,161.0,6.0,0.0,0.0,1.0
5800000.0,20.1875,5.277673836745735E-6,5800000.0,92.0,83.89694041867955,83.57289527720741,82.22222222222223,78827.0,695672.0,578858.0,1.0,0.0,0.0,0.0,0.0,246.0,173.0,173.0,6.0,0.0,0.0,1.0
5900000.0,20.515625,5.344619146651691E-6,5900000.0,91.9,83.75777020252659,84.11764705882354,82.9113924050633,88872.0,747024.0,588903.0,1.0,0.0,0.0,0.0,0.0,262.0,184.0,184.0,6.0,0.0,0.0,1.0
6000000.0,20.84375,5.413442817775325E-6,6000000.0,94.1,88.11097498065513,87.88501026694044,87.20173535791756,99130.0,769032.0,599161.0,1.0,0.0,0.0,0.0,0.0,272.0,189.0,189.0,6.0,0.0,0.0,1.0
6100000.0,21.1875,5.485612103560318E-6,6100000.0,94.6,89.10024544632475,89.19999999999999,87.94642857142856,109105.0,769784.0,609136.0,1.0,0.0,0.0,0.0,0.0,276.0,191.0,191.0,6.0,0.0,0.0,1.0
6200000.0,21.515625,5.557122931350022E-6,6200000.0,95.5,90.94421637285679,90.4051172707889,90.13157894736841,118998.0,800472.0,619029.0,1.0,0.0,0.0,0.0,0.0,294.0,200.0,200.0,6.0,0.0,0.0,1.0
6300000.0,21.84375,5.630714488991846E-6,6300000.0,96.2,92.3878510102123,92.14876033057851,92.09979209979208,129121.0,824856.0,629152.0,1.0,0.0,0.0,0.0,0.0,302.0,204.0,204.0,6.0,0.0,0.0,1.0
6400000.0,22.15625,5.702842835388663E-6,6400000.0,95.8,91.58515621556424,91.71597633136093,91.23173277661795,139252.0,850016.0,639283.0,1.0,0.0,0.0,0.0,0.0,311.0,210.0,210.0,6.0,0.0,0.0,1.0
6500000.0,22.484375,5.78091230838456E-6,6500000.0,95.3,90.57012615967383,90.65606361829025,89.9357601713062,149095.0,877416.0,649126.0,1.0,0.0,0.0,0.0,0.0,320.0,216.0,216.0,7.0,0.0,0.0,1.0
6600000.0,22.828125,5.8665104895933626E-6,6600000.0,95.1,90.07349664119538,90.19999999999999,88.88888888888887,159123.0,920120.0,659154.0,1.0,0.0,0.0,0.0,0.0,336.0,227.0,227.0,7.0,0.0,0.0,1.0
6700000.0,23.203125,5.966595070074415E-6,6700000.0,96.1,92.17809867629362,92.05702647657841,91.78947368421052,169044.0,988912.0,669075.0,1.0,0.0,0.0,0.0,0.0,373.0,250.0,250.0,7.0,0.0,0.0,1.0
6800000.0,23.578125,6.074601325154718E-6,6800000.0,96.1,92.17093852380034,92.26190476190476,91.66666666666666,179068.0,1070168.0,679099.0,1.0,0.0,0.0,0.0,0.0,418.0,277.0,277.0,7.0,0.0,0.0,1.0
6900000.0,23.9375,6.1837524925875995E-6,6900000.0,96.0,91.94928046694173,92.03187250996015,91.39784946236558,189013.0,1130584.0,689044.0,1.0,0.0,0.0,0.0,0.0,441.0,290.0,290.0,7.0,0.0,0.0,1.0
7000000.0,24.3125,6.303270670792295E-6,7000000.0,95.8,91.58569568266051,91.35802469135803,91.30434782608695,199204.0,1188216.0,699235.0,1.0,0.0,0.0,0.0,0.0,459.0,299.0,299.0,7.0,0.0,0.0,1.0
7100000.0,24.671875,6.420612917281688E-6,7100000.0,95.5,90.9113676573949,91.01796407185628,90.08810572687224,209245.0,1218264.0,709276.0,1.0,0.0,0.0,0.0,0.0,470.0,306.0,306.0,7.0,0.0,0.0,1.0
7200000.0,25.015625,6.533749013518294E-6,7200000.0,96.3,92.54615341225009,92.67326732673267,91.92139737991265,219129.0,1228288.0,719160.0,1.0,0.0,0.0,0.0,0.0,474.0,308.0,308.0,7.0,0.0,0.0,1.0
7300000.0,25.390625,6.660868336136143E-6,7300000.0,97.3,94.56438585612935,94.25531914893617,94.10480349344978,229107.0,1266168.0,729138.0,1.0,0.0,0.0,0.0,0.0,494.0,318.0,318.0,7.0,0.0,0.0,1.0
7400000.0,25.75,6.784390522322308E-6,7400000.0,97.1,94.11411313892316,94.04517453798768,93.45372460496614,238981.0,1284352.0,739012.0,1.0,0.0,0.0,0.0,0.0,502.0,322.0,322.0,7.0,0.0,0.0,1.0
7500000.0,26.125,6.914891321988156E-6,7500000.0,97.8,95.54639642740018,95.60878243512974,95.10022271714922,249073.0,1300832.0,749104.0,1.0,0.0,0.0,0.0,0.0,510.0,326.0,326.0,7.0,0.0,0.0,1.0
7600000.0,26.46875,7.035420567262918E-6,7600000.0,97.3,94.58127287907007,94.73684210526315,94.29175475687103,259128.0,1310944.0,759159.0,1.0,0.0,0.0,0.0,0.0,514.0,328.0,328.0,7.0,0.0,0.0,1.0
7700000.0,26.828125,7.162302337949061E-6,7700000.0,96.3,92.56878891343644,92.67326732673267,92.12765957446808,269181.0,1320296.0,769212.0,1.0,0.0,0.0,0.0,0.0,518.0,330.0,330.0,7.0,0.0,0.0,1.0
7800000.0,27.203125,7.29626920979677E-6,7800000.0,97.8,95.58904318326724,95.51020408163265,95.38784067085953,279096.0,1336360.0,779127.0,1.0,0.0,0.0,0.0,0.0,528.0,335.0,335.0,7.0,0.0,0.0,1.0
7900000.0,27.5625,7.425461856958768E-6,7900000.0,97.2,94.37509291141173,94.20289855072464,94.08033826638477,289081.0,1345000.0,789112.0,1.0,0.0,0.0,0.0,0.0,532.0,337.0,337.0,7.0,0.0,0.0,1.0
8000000.0,27.9375,7.561155556080243E-6,8000000.0,97.1,94.1494512588767,94.03292181069959,93.62637362637362,299108.0,1354056.0,799139.0,1.0,0.0,0.0,0.0,0.0,538.0,340.0,340.0,7.0,0.0,0.0,1.0
8100000.0,28.3125,7.698475189196568E-6,8100000.0,97.7,95.37260582649283,95.29652351738241,95.03239740820733,309287.0,1370736.0,809318.0,1.0,0.0,0.0,0.0,0.0,542.0,342.0,342.0,7.0,0.0,0.0,1.0
8200000.0,28.6875,7.83731753472239E-6,8200000.0,98.3,96.58894819214254,96.73076923076923,96.4059196617336,319246.0,1386368.0,819277.0,1.0,0.0,0.0,0.0,0.0,553.0,349.0,349.0,7.0,0.0,0.0,1.0
8300000.0,29.0625,7.97846024700751E-6,8300000.0,96.6,93.19828596806394,93.24055666003976,93.14516129032258,329338.0,1409960.0,829369.0,1.0,0.0,0.0,0.0,0.0,570.0,359.0,359.0,7.0,0.0,0.0,1.0
8400000.0,29.4375,8.122151678738496E-6,8400000.0,97.5,94.95825434598476,94.89795918367346,94.5054945054945,339257.0,1436120.0,839288.0,1.0,0.0,0.0,0.0,0.0,570.0,359.0,359.0,7.0,0.0,0.0,1.0
8500000.0,29.796875,8.260021083212149E-6,8500000.0,97.5,94.9527578131309,94.97991967871485,94.60043196544275,349215.0,1437896.0,849246.0,1.0,0.0,0.0,0.0,0.0,570.0,359.0,359.0,7.0,0.0,0.0,1.0
8600000.0,30.15625,8.399013572165537E-6,8600000.0,97.0,93.9577526062227,94.17475728155338,93.3920704845815,359369.0,1449904.0,859400.0,1.0,0.0,0.0,0.0,0.0,576.0,362.0,362.0,7.0,0.0,0.0,1.0
8700000.0,30.53125,8.545226559767295E-6,8700000.0,98.0,95.96135827598462,96.12403100775194,95.59471365638767,369534.0,1462008.0,869565.0,1.0,0.0,0.0,0.0,0.0,583.0,367.0,367.0,7.0,0.0,0.0,1.0
8800000.0,30.90625,8.69178413672166E-6,8800000.0,97.6,95.1608220150337,94.91525423728812,94.7136563876652,379497.0,1465536.0,879528.0,1.0,0.0,0.0,0.0,0.0,585.0,368.0,368.0,7.0,0.0,0.0,1.0
8900000.0,31.28125,8.83996997597731E-6,8900000.0,97.3,94.53308495990929,94.55645161290323,93.98663697104676,389476.0,1482200.0,889507.0,1.0,0.0,0.0,0.0,0.0,595.0,373.0,373.0,7.0,0.0,0.0,1.0
9000000.0,31.671875,8.996108792618746E-6,9000000.0,97.7,95.33176913771688,95.43650793650794,94.79638009049773,399420.0,1499704.0,899451.0,1.0,0.0,0.0,0.0,0.0,603.0,377.0,377.0,7.0,0.0,0.0,1.0
9100000.0,32.0625,9.154715775770861E-6,9100000.0,98.0,95.99630058173753,96.13152804642165,95.91002044989774,409443.0,1524000.0,909474.0,1.0,0.0,0.0,0.0,0.0,611.0,381.0,381.0,7.0,0.0,0.0,1.0
9200000.0,32.4375,9.307882638596413E-6,9200000.0,98.0,95.97198110053532,95.94320486815415,95.68034557235421,419327.0,1533264.0,919358.0,1.0,0.0,0.0,0.0,0.0,617.0,384.0,384.0,7.0,0.0,0.0,1.0
9300000.0,32.84375,9.476608991260744E-6,9300000.0,98.2,96.38250579803932,96.42147117296223,96.09544468546638,429217.0,1559744.0,929248.0,1.0,0.0,0.0,0.0,0.0,641.0,399.0,399.0,7.0,0.0,0.0,1.0
9400000.0,33.203125,9.629364099560513E-6,9400000.0,98.2,96.37443249797573,96.31147540983606,96.06126914660831,439344.0,1597168.0,939375.0,1.0,0.0,0.0,0.0,0.0,649.0,403.0,403.0,7.0,0.0,0.0,1.0
9500000.0,33.578125,9.789893843440547E-6,9500000.0,98.4,96.72845791774525,96.82539682539682,96.27039627039626,449304.0,1608768.0,949335.0,1.0,0.0,0.0,0.0,0.0,657.0,407.0,407.0,8.0,0.0,0.0,1.0
9600000.0,33.96875,9.958788222219382E-6,9600000.0,98.0,95.99003925751568,96.11650485436894,95.80712788259957,459245.0,1625256.0,959276.0,1.0,0.0,0.0,0.0,0.0,665.0,411.0,411.0,8.0,0.0,0.0,1.0
9700000.0,34.375,1.013736344046063E-5,9700000.0,98.4,96.78776781985802,96.72131147540983,96.60297239915074,469253.0,1652944.0,969284.0,1.0,0.0,0.0,0.0,0.0,673.0,415.0,415.0,8.0,0.0,0.0,1.0
9800000.0,34.78125,1.0317558836605815E-5,9800000.0,98.2,96.3923662469786,96.3855421686747,96.22641509433963,479041.0,1668264.0,979072.0,1.0,0.0,0.0,0.0,0.0,681.0,419.0,419.0,8.0,0.0,0.0,1.0
9900000.0,35.15625,1.0485495699362624E-5,9900000.0,97.89999999999999,95.78326800745357,95.8,95.51282051282051,488851.0,1684728.0,988882.0,1.0,0.0,0.0,0.0,0.0,690.0,425.0,425.0,8.0,0.0,0.0,1.0
1.0E7,35.546875,1.0662505196200478E-5,1.0E7,98.1,96.159257402526,96.25984251968504,95.7683741648107,498810.0,1705192.0,998841.0,1.0,0.0,0.0,0.0,0.0,699.0,431.0,431.0,8.0,0.0,0.0,1.0
