learning evaluation instances,evaluation time (cpu seconds),model cost (RAM-Hours),classified instances,classifications correct (percent),Kappa Statistic (percent),Kappa Temporal Statistic (percent),Kappa M Statistic (percent),model training instances,model serialized size (bytes),labeling cost,newThreshold,maxPosterior,accuracyBaseLearner (percent),Change detected,Warning detected,tree size (nodes),tree size (leaves),active learning leaves,tree depth,active leaf byte size estimate,inactive leaf byte size estimate,byte size estimate overhead
100000.0,0.3125,7.363915857341555E-9,100000.0,75.8,47.627436298082124,48.61995753715499,34.77088948787062,9987.0,47816.0,9987.0,1.0,0.0,0.0,0.0,19.0,15.0,11.0,11.0,2.0,0.0,0.0,1.0
200000.0,0.59375,1.4965254296031262E-8,200000.0,79.10000000000001,55.12402088772848,57.08418891170432,45.14435695538059,19915.0,61128.0,19915.0,1.0,0.0,0.0,0.0,0.0,21.0,14.0,14.0,3.0,0.0,0.0,1.0
300000.0,0.875,2.354273520823982E-8,300000.0,83.2,63.886655689356445,62.66666666666666,54.959785522788195,29890.0,74472.0,29890.0,1.0,0.0,0.0,0.0,0.0,27.0,17.0,17.0,3.0,0.0,0.0,1.0
400000.0,1.15625,3.4057949152257706E-8,400000.0,81.10000000000001,59.446585359573625,58.00000000000001,47.7900552486188,39895.0,100960.0,39895.0,1.0,0.0,0.0,0.0,0.0,39.0,23.0,23.0,4.0,0.0,0.0,1.0
500000.0,1.453125,4.961184458807111E-8,500000.0,84.0,65.56399715902977,66.59707724425886,56.164383561643824,49881.0,158736.0,49881.0,1.0,0.0,0.0,0.0,0.0,61.0,37.0,37.0,5.0,0.0,0.0,1.0
600000.0,1.75,7.07980749818186E-8,600000.0,83.39999999999999,64.9509524473103,66.73346693386773,57.544757033248075,59758.0,231832.0,59758.0,1.0,0.0,0.0,0.0,0.0,86.0,54.0,54.0,5.0,0.0,0.0,1.0
700000.0,2.03125,9.370686408753196E-8,700000.0,85.3,68.38356117243218,67.11409395973153,60.58981233243968,69609.0,270728.0,69609.0,1.0,0.0,0.0,0.0,0.0,98.0,63.0,63.0,5.0,0.0,0.0,1.0
800000.0,2.328125,1.1879216698515746E-7,800000.0,84.5,67.09855997826382,67.43697478991596,58.2210242587601,79615.0,282424.0,79615.0,1.0,0.0,0.0,0.0,0.0,104.0,66.0,66.0,5.0,0.0,0.0,1.0
900000.0,2.609375,1.4320387789565655E-7,900000.0,83.7,65.913843580092,65.7563025210084,58.31202046035805,89617.0,291264.0,89617.0,1.0,0.0,0.0,0.0,0.0,108.0,68.0,68.0,6.0,0.0,0.0,1.0
1000000.0,2.90625,1.711339185324808E-7,1000000.0,84.2,66.92180146381496,66.73684210526315,59.067357512953365,99704.0,319304.0,99704.0,1.0,0.0,0.0,0.0,0.0,119.0,75.0,75.0,7.0,0.0,0.0,1.0
1100000.0,3.21875,2.0601453595898218E-7,1100000.0,85.39999999999999,69.32309088769729,69.89690721649484,63.31658291457286,109593.0,386856.0,109593.0,1.0,0.0,0.0,0.0,0.0,144.0,92.0,92.0,7.0,0.0,0.0,1.0
1200000.0,3.5,2.3973074146649903E-7,1200000.0,82.5,63.350478328614265,61.53846153846153,54.42708333333333,119597.0,418696.0,119597.0,1.0,0.0,0.0,0.0,0.0,158.0,102.0,102.0,7.0,0.0,0.0,1.0
1300000.0,3.8125,2.8026979028557736E-7,1300000.0,85.1,67.23200619293091,67.32456140350877,57.060518731988466,129466.0,456608.0,129466.0,1.0,0.0,0.0,0.0,0.0,169.0,109.0,109.0,8.0,0.0,0.0,1.0
1400000.0,4.125,3.250263075137304E-7,1400000.0,87.5,73.35391121949556,73.0603448275862,66.03260869565217,139708.0,508600.0,139708.0,1.0,0.0,0.0,0.0,0.0,187.0,121.0,121.0,8.0,0.0,0.0,1.0
1500000.0,4.4375,3.712826421380871E-7,1500000.0,87.0,73.02098552264577,73.08488612836439,66.83673469387756,149600.0,527056.0,149600.0,1.0,0.0,0.0,0.0,0.0,195.0,125.0,125.0,9.0,0.0,0.0,1.0
1600000.0,4.75,4.2065632038025395E-7,1600000.0,88.5,75.58386411889597,75.0,69.33333333333334,159502.0,565464.0,159502.0,1.0,0.0,0.0,0.0,0.0,215.0,138.0,138.0,9.0,0.0,0.0,1.0
1700000.0,5.078125,4.753820960306459E-7,1700000.0,88.0,74.68920452388285,73.39246119733924,68.33773087071239,169516.0,599320.0,169516.0,1.0,0.0,0.0,0.0,0.0,222.0,143.0,143.0,9.0,0.0,0.0,1.0
1800000.0,5.390625,5.287210094845957E-7,1800000.0,87.4,72.5208819488365,72.06208425720621,64.70588235294117,179689.0,614328.0,179689.0,1.0,0.0,0.0,0.0,0.0,228.0,146.0,146.0,10.0,0.0,0.0,1.0
1900000.0,5.703125,5.851171186400784E-7,1900000.0,87.9,74.4114636642784,73.92241379310344,68.24146981627297,189839.0,652040.0,189839.0,1.0,0.0,0.0,0.0,0.0,240.0,155.0,155.0,10.0,0.0,0.0,1.0
2000000.0,6.015625,6.419219749255312E-7,2000000.0,87.6,74.42507992162525,74.22037422037423,68.92230576441104,199843.0,657064.0,199843.0,1.0,0.0,0.0,0.0,0.0,244.0,157.0,157.0,10.0,0.0,0.0,1.0
2100000.0,6.34375,7.066174617244138E-7,2100000.0,88.7,75.37589888864676,74.02298850574714,68.87052341597797,209734.0,716400.0,209734.0,1.0,0.0,0.0,0.0,0.0,261.0,170.0,170.0,11.0,0.0,0.0,1.0
2200000.0,6.671875,7.730514173292452E-7,2200000.0,88.5,74.93548612079788,75.68710359408034,67.78711484593838,219737.0,736808.0,219737.0,1.0,0.0,0.0,0.0,0.0,270.0,176.0,176.0,11.0,0.0,0.0,1.0
2300000.0,7.015625,8.452143002715377E-7,2300000.0,89.7,78.26013542036033,77.8969957081545,73.38501291989664,229897.0,765552.0,229897.0,1.0,0.0,0.0,0.0,0.0,279.0,182.0,182.0,11.0,0.0,0.0,1.0
2400000.0,7.359375,9.246351611283092E-7,2400000.0,89.7,78.08473335716353,77.5599128540305,72.82321899736148,239938.0,846856.0,239938.0,1.0,0.0,0.0,0.0,0.0,310.0,202.0,202.0,11.0,0.0,0.0,1.0
2500000.0,7.71875,1.0140988807607856E-6,2500000.0,90.5,80.3418449695816,80.57259713701433,76.82926829268294,249937.0,915840.0,249937.0,1.0,0.0,0.0,0.0,0.0,342.0,224.0,224.0,11.0,0.0,0.0,1.0
2600000.0,8.109375,1.128718657936487E-6,2600000.0,88.9,76.12903225806453,75.22321428571429,69.16666666666667,259975.0,1087264.0,259975.0,1.0,0.0,0.0,0.0,0.0,397.0,265.0,265.0,11.0,0.0,0.0,1.0
2700000.0,8.484375,1.246207329030666E-6,2700000.0,89.1,77.0419983992586,76.70940170940172,70.54054054054055,269905.0,1163896.0,269905.0,1.0,0.0,0.0,0.0,0.0,416.0,279.0,279.0,11.0,0.0,0.0,1.0
2800000.0,8.84375,1.3602271792478858E-6,2800000.0,88.8,76.34825505028108,75.33039647577093,69.64769647696477,279788.0,1179168.0,279788.0,1.0,0.0,0.0,0.0,0.0,422.0,282.0,282.0,12.0,0.0,0.0,1.0
2900000.0,9.21875,1.4811625199702877E-6,2900000.0,88.1,74.87500844537531,73.73068432671081,68.01075268817205,289861.0,1199288.0,289861.0,1.0,0.0,0.0,0.0,0.0,429.0,287.0,287.0,12.0,0.0,0.0,1.0
3000000.0,9.59375,1.605671034970631E-6,3000000.0,90.2,79.16064168211898,79.62577962577963,73.79679144385027,299719.0,1236008.0,299719.0,1.0,0.0,0.0,0.0,0.0,443.0,297.0,297.0,12.0,0.0,0.0,1.0
3100000.0,9.984375,1.7383942031301557E-6,3100000.0,89.4,77.22585080783774,77.6842105263158,70.2247191011236,309746.0,1265864.0,309746.0,1.0,0.0,0.0,0.0,0.0,450.0,302.0,302.0,12.0,0.0,0.0,1.0
3200000.0,10.375,1.8729323184945516E-6,3200000.0,90.10000000000001,79.45290772487652,77.9510022271715,75.18796992481204,319838.0,1283728.0,319838.0,1.0,0.0,0.0,0.0,0.0,458.0,306.0,306.0,12.0,0.0,0.0,1.0
3300000.0,10.765625,2.0084154999090566E-6,3300000.0,90.5,80.04889071832395,80.20833333333334,75.13089005235602,329832.0,1293032.0,329832.0,1.0,0.0,0.0,0.0,0.0,462.0,308.0,308.0,12.0,0.0,0.0,1.0
3400000.0,11.15625,2.1450644514213005E-6,3400000.0,89.1,76.41611493357566,76.30434782608695,68.40579710144927,339781.0,1304496.0,339781.0,1.0,0.0,0.0,0.0,0.0,468.0,311.0,311.0,13.0,0.0,0.0,1.0
3500000.0,11.546875,2.2822235284062723E-6,3500000.0,89.8,78.31780151010136,77.07865168539327,72.28260869565219,349799.0,1309480.0,349799.0,1.0,0.0,0.0,0.0,0.0,480.0,317.0,317.0,13.0,0.0,0.0,1.0
3600000.0,11.921875,2.4154251635385055E-6,3600000.0,90.7,80.50592368383543,81.25000000000001,75.71801566579636,359815.0,1325152.0,359815.0,1.0,0.0,0.0,0.0,0.0,486.0,320.0,320.0,13.0,0.0,0.0,1.0
3700000.0,12.34375,2.5703655167793235E-6,3700000.0,91.9,82.88684188286994,82.6923076923077,78.90625000000001,369853.0,1371544.0,369853.0,1.0,0.0,0.0,0.0,0.0,507.0,332.0,332.0,13.0,0.0,0.0,1.0
3800000.0,12.765625,2.727595177323868E-6,3800000.0,89.4,77.57344696120207,78.09917355371901,72.0316622691293,379877.0,1392448.0,379877.0,1.0,0.0,0.0,0.0,0.0,509.0,333.0,333.0,13.0,0.0,0.0,1.0
3900000.0,13.171875,2.8837123924555878E-6,3900000.0,90.0,79.22828940808935,79.03563941299791,74.48979591836735,389894.0,1437112.0,389894.0,1.0,0.0,0.0,0.0,0.0,527.0,345.0,345.0,13.0,0.0,0.0,1.0
4000000.0,13.609375,3.0630472206717563E-6,4000000.0,90.60000000000001,80.03186404673393,80.33472803347281,74.93333333333334,399673.0,1535864.0,399673.0,1.0,0.0,0.0,0.0,0.0,556.0,367.0,367.0,13.0,0.0,0.0,1.0
4100000.0,14.046875,3.2471166600266266E-6,4100000.0,91.60000000000001,81.93198683616185,82.64462809917356,76.3380281690141,409664.0,1577528.0,409664.0,1.0,0.0,0.0,0.0,0.0,580.0,382.0,382.0,13.0,0.0,0.0,1.0
4200000.0,14.484375,3.436793566733185E-6,4200000.0,90.9,80.71739756912072,80.63829787234043,76.30208333333334,419746.0,1626896.0,419746.0,1.0,0.0,0.0,0.0,0.0,598.0,394.0,394.0,13.0,0.0,0.0,1.0
4300000.0,14.921875,3.6314151495591636E-6,4300000.0,91.0,81.41133412920362,81.78137651821864,78.2082324455206,429744.0,1670424.0,429744.0,1.0,0.0,0.0,0.0,0.0,609.0,401.0,401.0,13.0,0.0,0.0,1.0
4400000.0,15.375,3.835550483523144E-6,4400000.0,91.10000000000001,81.51133417536397,82.3061630218688,77.91563275434244,439634.0,1692208.0,439634.0,1.0,0.0,0.0,0.0,0.0,620.0,408.0,408.0,13.0,0.0,0.0,1.0
4500000.0,15.8125,4.036159823752112E-6,4500000.0,91.5,82.13024319687847,82.68839103869654,78.53535353535355,449755.0,1723064.0,449755.0,1.0,0.0,0.0,0.0,0.0,634.0,415.0,415.0,13.0,0.0,0.0,1.0
4600000.0,16.25,4.240079498332408E-6,4600000.0,91.5,82.16039692067464,82.47422680412372,78.4263959390863,459694.0,1752200.0,459694.0,1.0,0.0,0.0,0.0,0.0,645.0,422.0,422.0,13.0,0.0,0.0,1.0
4700000.0,16.703125,4.456133206581904E-6,4700000.0,92.2,83.52101071134305,83.54430379746837,79.08847184986595,469746.0,1793424.0,469746.0,1.0,0.0,0.0,0.0,0.0,663.0,434.0,434.0,13.0,0.0,0.0,1.0
4800000.0,17.15625,4.677586710183985E-6,4800000.0,90.4,80.01956417674361,79.87421383647799,75.69620253164557,479765.0,1839272.0,479765.0,1.0,0.0,0.0,0.0,0.0,680.0,444.0,444.0,13.0,0.0,0.0,1.0
4900000.0,17.59375,4.8954195679268905E-6,4900000.0,91.4,81.3897929506267,81.01545253863135,75.56818181818183,489564.0,1874632.0,489564.0,1.0,0.0,0.0,0.0,0.0,689.0,450.0,450.0,13.0,0.0,0.0,1.0
5000000.0,18.046875,5.1243744544788365E-6,5000000.0,91.5,82.0600923588657,82.4016563146998,78.14910025706942,499551.0,1902960.0,499551.0,1.0,0.0,0.0,0.0,0.0,707.0,459.0,459.0,13.0,0.0,0.0,1.0
5100000.0,18.515625,5.143987525823629E-6,5100000.0,78.60000000000001,57.04519086788786,57.2,55.6935817805383,9401.0,118344.0,509539.0,1.0,0.0,0.0,1.0,4.0,36.0,29.0,29.0,3.0,0.0,0.0,1.0
5200000.0,18.8125,5.1595156158631044E-6,5200000.0,83.0,65.90070284668955,66.73189823874755,64.1350210970464,19187.0,158656.0,519325.0,1.0,0.0,0.0,0.0,0.0,56.0,42.0,42.0,3.0,0.0,0.0,1.0
5300000.0,19.125,5.178210623044934E-6,5300000.0,81.89999999999999,63.64673463321362,64.44007858546168,61.571125265392766,29022.0,187592.0,529160.0,1.0,0.0,0.0,0.0,0.0,60.0,44.0,44.0,3.0,0.0,0.0,1.0
5400000.0,19.453125,5.207170389540907E-6,5400000.0,84.2,68.35557122199567,69.01960784313725,66.59619450317123,38904.0,297136.0,539042.0,1.0,0.0,0.0,0.0,0.0,99.0,71.0,71.0,4.0,0.0,0.0,1.0
5500000.0,19.75,5.237176535754567E-6,5500000.0,86.5,73.00151191533274,74.18738049713193,73.05389221556887,48886.0,346496.0,549024.0,1.0,0.0,0.0,0.0,0.0,117.0,83.0,83.0,4.0,0.0,0.0,1.0
5600000.0,20.078125,5.276750469218111E-6,5600000.0,85.2,70.2938897742737,71.70172084130019,69.23076923076923,58708.0,421728.0,558846.0,1.0,0.0,0.0,0.0,0.0,149.0,105.0,105.0,4.0,0.0,0.0,1.0
5700000.0,20.390625,5.3186399357703815E-6,5700000.0,84.39999999999999,68.7920107547532,68.48484848484848,68.29268292682926,68713.0,473504.0,568851.0,1.0,0.0,0.0,0.0,0.0,167.0,117.0,117.0,5.0,0.0,0.0,1.0
5800000.0,20.703125,5.362055736542161E-6,5800000.0,86.9,73.69689181591839,72.98969072164948,72.2457627118644,78720.0,492296.0,578858.0,1.0,0.0,0.0,0.0,0.0,173.0,120.0,120.0,5.0,0.0,0.0,1.0
5900000.0,21.03125,5.418915211016104E-6,5900000.0,85.7,71.05685001376317,72.23300970873787,67.72009029345372,88765.0,624752.0,588903.0,1.0,0.0,0.0,0.0,0.0,212.0,150.0,150.0,5.0,0.0,0.0,1.0
6000000.0,21.359375,5.477361717364853E-6,6000000.0,87.4,74.77729956961265,74.49392712550608,74.33808553971487,99023.0,643328.0,599161.0,1.0,0.0,0.0,0.0,0.0,222.0,155.0,155.0,5.0,0.0,0.0,1.0
6100000.0,21.703125,5.546072045237652E-6,6100000.0,88.6,77.02539298669892,76.68711656441718,74.66666666666667,108998.0,727240.0,609136.0,1.0,0.0,0.0,0.0,0.0,267.0,188.0,188.0,5.0,0.0,0.0,1.0
6200000.0,22.09375,5.645582083767899E-6,6200000.0,90.10000000000001,80.19920796831875,80.4733727810651,78.93617021276597,118891.0,938656.0,619029.0,1.0,0.0,0.0,0.0,0.0,320.0,228.0,228.0,5.0,0.0,0.0,1.0
6300000.0,22.421875,5.7298285537399336E-6,6300000.0,88.8,77.59704280965087,78.37837837837837,77.00205338809035,129014.0,946408.0,629152.0,1.0,0.0,0.0,0.0,0.0,327.0,233.0,233.0,5.0,0.0,0.0,1.0
6400000.0,22.78125,5.828126708769962E-6,6400000.0,89.0,77.94495059668934,77.55102040816327,76.79324894514768,139145.0,1011008.0,639283.0,1.0,0.0,0.0,0.0,0.0,345.0,245.0,245.0,5.0,0.0,0.0,1.0
6500000.0,23.109375,5.918717910794333E-6,6500000.0,91.3,82.52619062921782,82.20858895705521,81.41025641025642,148988.0,1020864.0,649126.0,1.0,0.0,0.0,0.0,0.0,349.0,247.0,247.0,5.0,0.0,0.0,1.0
6600000.0,23.453125,6.015469843987374E-6,6600000.0,91.3,82.57490786732896,83.13953488372093,81.72268907563026,159016.0,1041568.0,659154.0,1.0,0.0,0.0,0.0,0.0,356.0,252.0,252.0,5.0,0.0,0.0,1.0
6700000.0,23.796875,6.114768685721273E-6,6700000.0,90.7,81.38302131543969,81.3627254509018,80.66528066528068,168937.0,1070080.0,669075.0,1.0,0.0,0.0,0.0,0.0,371.0,261.0,261.0,5.0,0.0,0.0,1.0
6800000.0,24.171875,6.230410233709132E-6,6800000.0,91.9,83.73585420900031,84.14872798434443,82.80254777070064,178961.0,1145136.0,679099.0,1.0,0.0,0.0,0.0,0.0,401.0,279.0,279.0,5.0,0.0,0.0,1.0
6900000.0,24.53125,6.345670683205954E-6,6900000.0,91.2,82.4,81.15631691648822,82.50497017892646,188906.0,1192712.0,689044.0,1.0,0.0,0.0,0.0,0.0,417.0,290.0,290.0,5.0,0.0,0.0,1.0
7000000.0,24.90625,6.469802788665724E-6,7000000.0,90.4,80.66332840516773,79.70401691331924,79.53091684434969,199097.0,1232344.0,699235.0,1.0,0.0,0.0,0.0,0.0,432.0,299.0,299.0,6.0,0.0,0.0,1.0
7100000.0,25.28125,6.5955693652439435E-6,7100000.0,89.9,79.7473430920393,79.84031936127745,78.73684210526316,209138.0,1249088.0,709276.0,1.0,0.0,0.0,0.0,0.0,442.0,304.0,304.0,6.0,0.0,0.0,1.0
7200000.0,25.625,6.711639386291304E-6,7200000.0,92.2,84.3896972001521,83.85093167701864,84.04907975460122,219022.0,1257840.0,719160.0,1.0,0.0,0.0,0.0,0.0,450.0,308.0,308.0,6.0,0.0,0.0,1.0
7300000.0,26.03125,6.856531383366219E-6,7300000.0,92.0,83.88312038906149,83.22851153039834,82.26164079822618,229000.0,1330984.0,729138.0,1.0,0.0,0.0,0.0,0.0,488.0,333.0,333.0,6.0,0.0,0.0,1.0
7400000.0,26.4375,7.0128243209587195E-6,7400000.0,91.9,83.73990268030641,83.92857142857144,82.65524625267666,238874.0,1439056.0,739012.0,1.0,0.0,0.0,0.0,0.0,540.0,368.0,368.0,6.0,0.0,0.0,1.0
7500000.0,26.84375,7.17982035388963E-6,7500000.0,90.8,81.59138476807146,82.30769230769232,81.10882956878851,248966.0,1540448.0,749104.0,1.0,0.0,0.0,0.0,0.0,566.0,384.0,384.0,6.0,0.0,0.0,1.0
7600000.0,27.265625,7.358773986601994E-6,7600000.0,91.2,82.35235134864133,81.93018480492815,81.47368421052632,259021.0,1590944.0,759159.0,1.0,0.0,0.0,0.0,0.0,583.0,394.0,394.0,6.0,0.0,0.0,1.0
7700000.0,27.65625,7.527917364819181E-6,7700000.0,92.2,84.38250840941855,83.61344537815127,83.95061728395062,269074.0,1624952.0,769212.0,1.0,0.0,0.0,0.0,0.0,599.0,405.0,405.0,6.0,0.0,0.0,1.0
7800000.0,28.0625,7.706846550313961E-6,7800000.0,91.60000000000001,83.18250981020262,84.50184501845018,82.85714285714286,278989.0,1653584.0,779127.0,1.0,0.0,0.0,0.0,0.0,601.0,406.0,406.0,6.0,0.0,0.0,1.0
7900000.0,28.453125,7.880931920630648E-6,7900000.0,92.5,84.91516287601472,85.38011695906434,83.8012958963283,288974.0,1674640.0,789112.0,1.0,0.0,0.0,0.0,0.0,608.0,411.0,411.0,6.0,0.0,0.0,1.0
8000000.0,28.84375,8.056200038279509E-6,8000000.0,92.2,84.40499040307103,84.4,84.52380952380953,299001.0,1686296.0,799139.0,1.0,0.0,0.0,0.0,0.0,612.0,413.0,413.0,6.0,0.0,0.0,1.0
8100000.0,29.234375,8.232009002111023E-6,8100000.0,93.30000000000001,86.60107191424687,86.62674650698604,86.32653061224491,309180.0,1691616.0,809318.0,1.0,0.0,0.0,0.0,0.0,616.0,415.0,415.0,6.0,0.0,0.0,1.0
8200000.0,29.640625,8.417772866475084E-6,8200000.0,93.10000000000001,86.09487727217767,86.00405679513186,84.9344978165939,319139.0,1719352.0,819277.0,1.0,0.0,0.0,0.0,0.0,628.0,424.0,424.0,7.0,0.0,0.0,1.0
8300000.0,30.03125,8.598487442618027E-6,8300000.0,92.2,84.2853458835665,84.11405295315683,83.11688311688312,329231.0,1740016.0,829369.0,1.0,0.0,0.0,0.0,0.0,630.0,425.0,425.0,7.0,0.0,0.0,1.0
8400000.0,30.4375,8.787316781106506E-6,8400000.0,91.3,82.5620550317491,81.52866242038218,81.3304721030043,339150.0,1748392.0,839288.0,1.0,0.0,0.0,0.0,0.0,636.0,428.0,428.0,7.0,0.0,0.0,1.0
8500000.0,30.828125,8.970797029582574E-6,8500000.0,93.4,86.6461638070573,86.33540372670808,85.39823008849558,349108.0,1767216.0,849246.0,1.0,0.0,0.0,0.0,0.0,644.0,432.0,432.0,7.0,0.0,0.0,1.0
8600000.0,31.234375,9.163351011617728E-6,8600000.0,94.6,89.18286565920417,88.7966804979253,88.74999999999999,359262.0,1783648.0,859400.0,1.0,0.0,0.0,0.0,0.0,657.0,440.0,440.0,7.0,0.0,0.0,1.0
8700000.0,31.65625,9.36770268405477E-6,8700000.0,92.10000000000001,84.1968393678736,84.13654618473898,83.97565922920893,369427.0,1823736.0,869565.0,1.0,0.0,0.0,0.0,0.0,677.0,453.0,453.0,7.0,0.0,0.0,1.0
8800000.0,32.046875,9.56114776070333E-6,8800000.0,94.1,88.19886709124076,88.05668016194332,88.12877263581488,379390.0,1865456.0,879528.0,1.0,0.0,0.0,0.0,0.0,684.0,458.0,458.0,7.0,0.0,0.0,1.0
8900000.0,32.453125,9.764629325622483E-6,8900000.0,91.8,83.44123455693186,83.2310838445808,81.73719376391982,389369.0,1887232.0,889507.0,1.0,0.0,0.0,0.0,0.0,699.0,467.0,467.0,7.0,0.0,0.0,1.0
9000000.0,32.890625,9.992085332568318E-6,9000000.0,92.9,85.7792946530148,85.8565737051793,85.42094455852157,399313.0,1960512.0,899451.0,1.0,0.0,0.0,0.0,0.0,718.0,481.0,481.0,7.0,0.0,0.0,1.0
9100000.0,33.3125,1.0219357144604951E-5,9100000.0,93.89999999999999,87.64371774200082,87.92079207920791,86.4142538975501,409336.0,2033024.0,909474.0,1.0,0.0,0.0,0.0,0.0,741.0,497.0,497.0,7.0,0.0,0.0,1.0
9200000.0,33.71875,1.0440214213708205E-5,9200000.0,94.39999999999999,88.71768422409902,89.04109589041094,87.87878787878786,419220.0,2052040.0,919358.0,1.0,0.0,0.0,0.0,0.0,746.0,501.0,501.0,7.0,0.0,0.0,1.0
9300000.0,34.15625,1.0681022928717232E-5,9300000.0,94.0,87.97956526094359,87.28813559322033,87.57763975155278,429110.0,2078104.0,929248.0,1.0,0.0,0.0,0.0,0.0,761.0,510.0,510.0,7.0,0.0,0.0,1.0
9400000.0,34.609375,1.0934161546174433E-5,9400000.0,93.2,86.34428468150053,86.9481765834933,85.53191489361703,439237.0,2109792.0,939375.0,1.0,0.0,0.0,0.0,0.0,772.0,517.0,517.0,7.0,0.0,0.0,1.0
9500000.0,35.046875,1.1183791179468645E-5,9500000.0,95.0,89.95923449203767,88.962472406181,89.38428874734606,449197.0,2155760.0,949335.0,1.0,0.0,0.0,0.0,0.0,788.0,528.0,528.0,7.0,0.0,0.0,1.0
9600000.0,35.515625,1.1455506480868074E-5,9600000.0,93.60000000000001,87.19508291183816,87.80952380952381,86.9918699186992,459138.0,2190688.0,959276.0,1.0,0.0,0.0,0.0,0.0,803.0,537.0,537.0,7.0,0.0,0.0,1.0
9700000.0,35.953125,1.1711572070554309E-5,9700000.0,94.39999999999999,88.79713206580884,88.77755511022043,88.3817427385892,469146.0,2212336.0,969284.0,1.0,0.0,0.0,0.0,0.0,815.0,543.0,543.0,7.0,0.0,0.0,1.0
9800000.0,36.375,1.1962544586923383E-5,9800000.0,95.5,90.94348736113346,90.9819639278557,90.21739130434781,478934.0,2249280.0,979072.0,1.0,0.0,0.0,0.0,0.0,832.0,553.0,553.0,7.0,0.0,0.0,1.0
9900000.0,36.828125,1.2233649386972599E-5,9900000.0,95.6,91.1809508538443,91.40624999999999,90.8713692946058,488744.0,2262344.0,988882.0,1.0,0.0,0.0,0.0,0.0,842.0,558.0,558.0,7.0,0.0,0.0,1.0
1.0E7,37.28125,1.2508606628721783E-5,1.0E7,95.0,89.9689036011636,90.0990099009901,89.4736842105263,498703.0,2295088.0,998841.0,1.0,0.0,0.0,0.0,0.0,851.0,564.0,564.0,7.0,0.0,0.0,1.0
