learning evaluation instances,evaluation time (cpu seconds),model cost (RAM-Hours),classified instances,classifications correct (percent),Kappa Statistic (percent),Kappa Temporal Statistic (percent),Kappa M Statistic (percent),model training instances,model serialized size (bytes),labeling cost,newThreshold,maxPosterior,accuracyBaseLearner (percent),Change detected,Warning detected
100000.0,0.125,1.1121543745199839E-9,100000.0,64.3,0.0,22.052401746724886,0.0,18899.0,9336.0,20000.0,0.5082885386420145,0.510507424708905,0.0,1.0,21.0
200000.0,0.28125,2.5023473426699635E-9,200000.0,62.1,0.0,19.532908704883223,0.0,38899.0,9336.0,40000.0,0.5082460956880461,0.5096831826570352,0.0,0.0,0.0
300000.0,0.421875,3.753521014004946E-9,300000.0,61.8,0.0,22.828282828282827,0.0,58899.0,9336.0,60000.0,0.5082036562781369,0.50974026439885,0.0,0.0,0.0
400000.0,0.578125,5.143713982154926E-9,400000.0,63.4,0.0,25.760649087221093,0.0,78899.0,9336.0,80000.0,0.5031299211999889,0.5052224802666105,0.0,0.0,0.0
500000.0,0.734375,6.5339069503049055E-9,500000.0,60.699999999999996,0.0,17.782426778242673,0.0,98899.0,9336.0,100000.0,0.5030879089992965,0.5045935823647404,0.0,0.0,0.0
600000.0,0.875,7.785080621639888E-9,600000.0,60.699999999999996,0.0,18.124999999999993,0.0,118899.0,9336.0,120000.0,0.503045900306706,0.5033000987417147,0.0,0.0,0.0
700000.0,1.015625,9.03625429297487E-9,700000.0,63.7,0.0,21.086956521739125,0.0,138899.0,9336.0,140000.0,0.49802365853654745,0.5027070899870264,0.0,0.0,0.0
800000.0,1.140625,1.013676713531216E-8,800000.0,64.0,0.0,22.413793103448274,0.0,157729.0,9336.0,160000.0,0.5029618934446161,0.5034609175571148,0.0,1.0,11.0
900000.0,1.265625,1.1244006196243895E-8,900000.0,61.1,0.0,19.793814432989688,0.0,177729.0,9336.0,180000.0,0.5029198952745348,0.5029548806116559,0.0,0.0,48.0
1000000.0,1.390625,1.2356160570763878E-8,1000000.0,60.8,0.0,17.299578059071724,0.0,197729.0,9336.0,200000.0,0.49789891149641263,0.5022261861917423,0.0,0.0,0.0
1100000.0,1.53125,1.360733424209886E-8,1100000.0,61.5,0.0,17.20430107526881,0.0,217729.0,9336.0,220000.0,0.5078642685493802,0.50204831037559,0.0,0.0,0.0
1200000.0,1.703125,1.513654650706384E-8,1200000.0,63.2,0.0,23.492723492723492,0.0,237729.0,9336.0,240000.0,0.49781576416299217,0.5022625811286793,0.0,0.0,0.0
1300000.0,1.84375,1.638772017839882E-8,1300000.0,60.4,0.0,22.957198443579767,0.0,257729.0,9336.0,260000.0,0.49777419570341014,0.5005434560974693,0.0,0.0,0.0
1400000.0,2.0,1.77779131465488E-8,1400000.0,63.800000000000004,0.0,16.589861751152085,0.0,277729.0,9336.0,280000.0,0.49773263071486057,0.5021038183336424,0.0,0.0,90.0
1500000.0,2.125,1.8885152207480537E-8,1500000.0,61.3,0.0,13.808463251670366,0.0,297729.0,9336.0,300000.0,0.528309098726848,0.502291178184863,0.0,0.0,39.0
1600000.0,2.265625,2.013079615102874E-8,1600000.0,61.1,0.0,15.434782608695643,0.0,317729.0,9336.0,320000.0,0.4976495111497328,0.5007880559607623,0.0,0.0,0.0
1700000.0,2.390625,2.1238035211960475E-8,1700000.0,61.1,0.0,17.05756929637526,0.0,337729.0,9336.0,340000.0,0.4976079565725697,0.5024254883424166,0.0,0.0,0.0
1800000.0,2.53125,2.2483679155508676E-8,1800000.0,61.6,0.0,20.98765432098765,0.0,357729.0,9336.0,360000.0,0.49756640546527575,0.5024038467222989,0.0,0.0,0.0
1900000.0,2.65625,2.3590918216440413E-8,1900000.0,61.3,0.0,16.77419354838709,0.0,377729.0,9336.0,380000.0,0.5025001064058463,0.5022977069460569,0.0,0.0,0.0
2000000.0,2.796875,2.4836562159988614E-8,2000000.0,62.5,0.0,19.181034482758616,0.0,397729.0,9336.0,400000.0,0.5024581467957578,0.5023181909862903,0.0,0.0,0.0
2100000.0,2.921875,2.594380122092035E-8,2100000.0,61.7,0.0,22.312373225152125,0.0,417729.0,9336.0,420000.0,0.4974417729597752,0.5022965682287651,0.0,0.0,0.0
2200000.0,3.046875,2.7051040281852087E-8,2200000.0,64.0,0.0,24.369747899159663,0.0,437729.0,9336.0,440000.0,0.5023742380863913,0.5025904679022241,0.0,0.0,0.0
2300000.0,3.1875,2.829668422540029E-8,2300000.0,63.4,0.0,16.247139588100698,0.0,457729.0,9336.0,460000.0,0.502332288986517,0.5027276978413956,0.0,0.0,0.0
2400000.0,3.328125,2.954232816894849E-8,2400000.0,60.3,0.0,20.281124497991964,0.0,477729.0,9336.0,480000.0,0.5073132468233504,0.5028055088494618,0.0,0.0,0.0
2500000.0,3.46875,3.078797211249669E-8,2500000.0,60.0,0.0,17.864476386036955,0.0,497729.0,9336.0,500000.0,0.5022484012949301,0.5026615651157633,0.0,0.0,0.0
2600000.0,3.609375,3.203361605604489E-8,2600000.0,59.4,0.0,12.499999999999988,0.0,517729.0,9336.0,520000.0,0.5022064627026507,0.5029390542854891,0.0,0.0,0.0
2700000.0,3.75,3.327925999959309E-8,2700000.0,63.1,0.0,16.70428893905191,0.0,537729.0,9336.0,540000.0,0.4971926015963415,0.5015176443930286,0.0,0.0,0.0
2800000.0,3.875,3.438649906052483E-8,2800000.0,62.9,0.0,19.172113289760343,0.0,557729.0,9336.0,560000.0,0.4971510851718893,0.5013271279278235,0.0,0.0,0.0
2900000.0,3.984375,3.5355333238840095E-8,2900000.0,63.0,0.0,24.643584521384927,0.0,577729.0,9336.0,580000.0,0.5020806679362759,0.5029347581336759,0.0,0.0,0.0
3000000.0,4.109375,3.646257229977183E-8,3000000.0,61.3,0.0,16.59482758620689,0.0,597729.0,9336.0,600000.0,0.5070591307835158,0.5014304407657573,0.0,0.0,0.0
3100000.0,4.234375,3.756981136070357E-8,3100000.0,60.4,0.0,16.455696202531637,0.0,617729.0,9336.0,620000.0,0.5070167904871818,0.5029719794553533,0.0,0.0,0.0
3200000.0,4.390625,3.895386018686824E-8,3200000.0,62.5,0.0,21.71189979123173,0.0,637729.0,9336.0,640000.0,0.5120441982635864,0.5029777940917073,0.0,0.0,0.0
3300000.0,4.515625,4.006109924779998E-8,3300000.0,62.1,0.0,21.369294605809124,0.0,657729.0,9336.0,660000.0,0.5019129905947096,0.5012685623895726,0.0,0.0,0.0
3400000.0,4.65625,4.130674319134818E-8,3400000.0,62.1,0.0,21.205821205821202,0.0,677729.0,9336.0,680000.0,0.5018710800097823,0.5027883506463409,0.0,0.0,0.0
3500000.0,4.796875,4.255238713489638E-8,3500000.0,60.5,0.0,12.416851441241674,0.0,697729.0,9336.0,700000.0,0.5068474646537169,0.502733374098204,0.0,0.0,0.0
3600000.0,4.9375,4.379803107844458E-8,3600000.0,61.9,0.0,16.079295154185015,0.0,717729.0,9336.0,720000.0,0.5017872693384772,0.5027703711589252,0.0,0.0,0.0
3700000.0,5.0625,4.490527013937632E-8,3700000.0,64.0,0.0,21.739130434782606,0.0,737729.0,9336.0,740000.0,0.5017453692515013,0.5028483638736915,0.0,0.0,0.0
3800000.0,5.203125,4.615091408292452E-8,3800000.0,63.2,0.0,17.673378076062633,0.0,757729.0,9336.0,760000.0,0.5017034726632408,0.5027499836030986,0.0,0.0,0.0
3900000.0,5.34375,4.739655802647272E-8,3900000.0,63.5,0.0,23.157894736842103,0.0,777729.0,9336.0,780000.0,0.5066781953691468,0.5027200925455673,0.0,0.0,0.0
4000000.0,5.46875,4.8503797087404457E-8,4000000.0,61.1,0.0,18.44863731656184,0.0,797729.0,9336.0,800000.0,0.5016196899817431,0.5026529078299233,0.0,0.0,0.0
4100000.0,5.578125,4.947263126571972E-8,4100000.0,62.5,0.0,20.212765957446805,0.0,817729.0,9336.0,820000.0,0.4966116870177485,0.5009703012262169,0.0,0.0,0.0
4200000.0,5.71875,5.071827520926792E-8,4200000.0,60.9,0.0,16.631130063965877,0.0,837729.0,9336.0,840000.0,0.5116167933096266,0.5026393378859121,0.0,0.0,0.0
4300000.0,5.859375,5.1963919152816124E-8,4300000.0,61.5,0.0,17.910447761194025,0.0,857729.0,9336.0,860000.0,0.5014940421926702,0.5025307601200902,0.0,0.0,0.0
4400000.0,5.984375,5.307115821374786E-8,4400000.0,60.4,0.0,16.806722689075624,0.0,877729.0,9336.0,880000.0,0.5014521665906475,0.5024413867370713,0.0,0.0,0.0
4500000.0,6.125,5.431680215729606E-8,4500000.0,66.60000000000001,0.0,27.39130434782609,0.0,897729.0,9336.0,900000.0,0.5064243974301654,0.5024451071328002,0.0,0.0,0.0
4600000.0,6.265625,5.556244610084426E-8,4600000.0,63.4,0.0,19.383259911894267,0.0,917729.0,9336.0,920000.0,0.5063821101351379,0.5025229935833023,0.0,0.0,0.0
4700000.0,6.40625,5.6808090044392464E-8,4700000.0,62.4,0.0,20.338983050847453,0.0,937729.0,9336.0,940000.0,0.5114032246348805,0.5024891684598379,0.0,0.0,0.0
4800000.0,6.53125,5.79153291053242E-8,4800000.0,62.6,0.0,21.757322175732213,0.0,957729.0,9336.0,960000.0,0.5113605215993365,0.5023089979040968,0.0,0.0,0.0
4900000.0,6.671875,5.91609730488724E-8,4900000.0,62.8,0.0,21.684210526315788,0.0,977729.0,9336.0,980000.0,0.50625526943521,0.5007345896753309,0.0,0.0,0.0
5000000.0,6.8125,6.040661699242061E-8,5000000.0,62.5,0.0,19.006479481641463,0.0,997729.0,9336.0,1000000.0,0.4962386003947148,0.5008127211174461,0.0,0.0,0.0
5100000.0,6.953125,6.165226093596882E-8,5100000.0,43.2,0.0,-18.58037578288101,-31.481481481481467,1017729.0,9336.0,1020000.0,0.5011591352672966,0.5016294612572227,0.0,0.0,0.0
5200000.0,7.09375,6.290692706695861E-8,5200000.0,45.2,0.0,-6.614785992217893,-21.238938053097353,1037729.0,9336.0,1040000.0,0.49615573032729676,0.5010705203650937,0.0,0.0,6.0
5300000.0,7.234375,6.41615931979484E-8,5300000.0,46.0,0.0,-12.266112266112266,-17.391304347826093,1057729.0,9336.0,1060000.0,0.496114300483362,0.5003111061218346,0.0,0.0,0.0
5400000.0,7.375,6.54162593289382E-8,5400000.0,52.2,0.8463325589113785,5.5335968379446685,-3.913043478260873,1077729.0,9336.0,1080000.0,0.49607287409887707,0.5003266749056879,0.0,0.0,0.0
5500000.0,7.53125,6.681033280781575E-8,5500000.0,51.9,0.19587337947978514,0.20746887966804997,-3.887688984881213,1097729.0,9336.0,1100000.0,0.49603145117357317,0.5010042370088883,0.0,0.0,0.0
5600000.0,7.671875,6.806499893880554E-8,5600000.0,52.800000000000004,1.0797397894172183,7.086614173228353,-4.424778761061951,1117728.0,9336.0,1119999.0,0.537139845743355,0.7744005681822643,0.0,0.0,0.0
5700000.0,7.8125,6.931966506979533E-8,5700000.0,51.6,-2.8942187905252315,1.2244897959183685,-11.778290993071577,1137729.0,9336.0,1140000.0,0.5059171828749034,0.502298204373124,0.0,0.0,0.0
5800000.0,7.953125,7.057433120078513E-8,5800000.0,54.300000000000004,3.209136040935981,8.416833667334677,-3.6281179138322033,1157729.0,9336.0,1160000.0,0.5058749379331396,0.5027622089749302,0.0,0.0,0.0
5900000.0,8.109375,7.196840467966267E-8,5900000.0,50.0,-0.8385735778735958,-4.821802935010487,0.0,1177729.0,9336.0,1180000.0,0.500824451998917,0.50329664210652,0.0,0.0,0.0
6000000.0,8.25,7.322307081065247E-8,6000000.0,52.7,1.3975284758934767,7.976653696498061,-3.5010940919037234,1197729.0,9336.0,1200000.0,0.5007826323088088,0.503670568966887,0.0,0.0,0.0
6100000.0,8.40625,7.461714428953001E-8,6100000.0,52.5,2.4320105168022272,8.301158301158308,-0.6355932203389836,1217729.0,9336.0,1220000.0,0.5007408161107157,0.504109781339354,0.0,0.0,0.0
6200000.0,8.546875,7.587181042051981E-8,6200000.0,51.2,-1.0402173192870927,1.0141987829614614,-5.627705627705633,1237729.0,9336.0,1240000.0,0.5006990034043559,0.5045448656236451,0.0,0.0,0.0
6300000.0,8.6875,7.71264765515096E-8,6300000.0,51.800000000000004,2.1979092266736053,6.407766990291268,0.4132231404958681,1257729.0,9336.0,1260000.0,0.5107204037926273,0.5049717225928468,0.0,0.0,0.0
6400000.0,8.8125,7.824173533461164E-8,6400000.0,50.3,0.18877776438929428,6.0491493383742965,0.0,1277729.0,9336.0,1280000.0,0.5056215423502801,0.5053876882124047,0.0,0.0,0.0
6500000.0,8.953125,7.94841778568096E-8,6500000.0,50.9,0.04885595635534931,-3.8054968287526463,-2.9350104821802963,1297729.0,9336.0,1300000.0,0.5261078699451449,0.5059321662797451,0.0,0.0,31.0
6600000.0,9.09375,8.072662037900757E-8,6600000.0,47.4,-7.0027828860644155,-1.9379844961240327,-9.1286307053942,1317729.0,9336.0,1320000.0,0.5208553851948732,0.5063752213201569,0.0,0.0,0.0
6700000.0,9.234375,8.196906290120553E-8,6700000.0,53.900000000000006,3.864601319619962,2.5369978858350977,-1.7660044150110392,1337729.0,9336.0,1340000.0,0.5054948921605508,0.5067822055444643,0.0,0.0,0.0
6800000.0,9.375,8.32115054234035E-8,6800000.0,53.1,2.2761937306740325,8.398437500000007,-2.401746724890832,1357729.0,9336.0,1360000.0,0.5054526824807954,0.5071952834770206,0.0,0.0,0.0
6900000.0,9.515625,8.445394794560146E-8,6900000.0,52.2,-0.08375209380233584,4.590818363273457,-6.2222222222222285,1377729.0,9336.0,1380000.0,0.5054104763256104,0.5076387132832327,0.0,0.0,0.0
7000000.0,9.65625,8.569639046779942E-8,7000000.0,51.4,-1.283761253751262,1.4198782961460459,-7.522123893805317,1397729.0,9336.0,1400000.0,0.5053682736947109,0.5081386013788639,0.0,0.0,0.0
7100000.0,9.796875,8.693883298999739E-8,7100000.0,50.6,-1.081614195623619,1.5936254980079694,-4.439746300211421,1417729.0,9336.0,1420000.0,0.5053260745878029,0.5085101766228303,0.0,0.0,0.0
7200000.0,9.921875,8.804322634306224E-8,7200000.0,51.1,1.375499173087017,3.5502958579881687,-0.20491803278688542,1437729.0,9336.0,1440000.0,0.5052838790045834,0.5088552963942271,0.0,0.0,0.0
7300000.0,10.0625,8.92856688652602E-8,7300000.0,51.0,0.2442996742670967,2.970297029702973,-2.0833333333333353,1457729.0,9336.0,1460000.0,0.5052416869447713,0.5091574993067733,0.0,0.0,0.0
7400000.0,10.203125,9.052811138745817E-8,7400000.0,53.0,3.0548049751449002,8.5603112840467,-0.21321961620469104,1477729.0,9336.0,1480000.0,0.505199498408082,0.5095178947429445,0.0,0.0,0.0
7500000.0,10.34375,9.177055390965613E-8,7500000.0,53.1,2.745520902455215,8.219178082191787,-1.2958963282937377,1497729.0,9336.0,1500000.0,0.5051573133941992,0.5098968067104049,0.0,0.0,0.0
7600000.0,10.484375,9.30129964318541E-8,7600000.0,51.1,-0.20491803278688542,6.142034548944343,-2.947368421052634,1517729.0,9336.0,1520000.0,0.510166283221876,0.5102401215815372,0.0,0.0,0.0
7700000.0,10.625,9.425543895405206E-8,7700000.0,53.0,3.0400052812252385,10.476190476190485,-1.2931034482758632,1537729.0,9336.0,1540000.0,0.5101236834730485,0.5105094629587924,0.0,0.0,0.0
7800000.0,10.765625,9.550137393590483E-8,7800000.0,65.0,29.219718173140713,29.5774647887324,26.160337552742618,1557729.0,9432.0,1560000.0,0.563446854764809,0.540230651289914,0.0,0.0,0.0
7900000.0,10.90625,9.67473089177576E-8,7900000.0,66.3,32.13854208618608,31.64300202839757,30.227743271221534,1577729.0,9432.0,1580000.0,0.5578215900970468,0.5428878589220875,0.0,0.0,0.0
8000000.0,11.015625,9.771636945919864E-8,8000000.0,66.8,31.84402957804885,30.83333333333334,25.056433408577877,1597729.0,9432.0,1600000.0,0.5522524861874859,0.5508001798018485,0.0,0.0,0.0
8100000.0,11.15625,9.89623044410514E-8,8100000.0,66.9,33.195553366863386,35.85271317829458,30.16877637130802,1617729.0,9432.0,1620000.0,0.5522063721694118,0.5532259431449464,0.0,0.0,0.0
8200000.0,11.296875,1.0020823942290417E-7,8200000.0,67.30000000000001,33.58841879508676,30.866807610993664,30.12820512820513,1637729.0,9432.0,1640000.0,0.574580182801872,0.5550737078478141,0.0,0.0,0.0
8300000.0,11.4375,1.0145417440475694E-7,8300000.0,67.5,34.21691819418358,37.73946360153258,30.555555555555564,1657729.0,9432.0,1660000.0,0.5576352972415921,0.5528646969808605,0.0,0.0,0.0
8400000.0,11.578125,1.0270010938660971E-7,8400000.0,66.8,32.87505054589568,35.029354207436405,29.361702127659576,1677729.0,9432.0,1680000.0,0.5575887337496833,0.5591277566736736,0.0,0.0,0.0
8500000.0,11.71875,1.0394604436846248E-7,8500000.0,68.4,36.06345095500163,36.03238866396762,31.89655172413794,1697729.0,9432.0,1700000.0,0.5687487718462353,0.5715872139590839,0.0,0.0,0.0
8600000.0,11.859375,1.0519197935031525E-7,8600000.0,65.10000000000001,29.647876535047047,29.06504065040651,27.593360995850624,1717729.0,9432.0,1720000.0,0.5687012803603761,0.5627746320625633,0.0,0.0,0.0
8700000.0,11.984375,1.0629947711196215E-7,8700000.0,65.4,29.509746398070273,28.364389233954455,24.12280701754386,1737729.0,9432.0,1740000.0,0.5686537928401368,0.5644798798436652,0.0,0.0,0.0
8800000.0,12.109375,1.0740697487360906E-7,8800000.0,69.6,38.41141981936717,38.08553971486761,34.9036402569593,1757729.0,9432.0,1760000.0,0.5629765438467117,0.5623730922063835,0.0,0.0,0.0
8900000.0,12.25,1.0865290985546183E-7,8900000.0,68.2,36.12790487476652,37.02970297029704,34.43298969072166,1777729.0,9432.0,1780000.0,0.5629295343516607,0.5675308010946768,0.0,0.0,0.0
9000000.0,12.390625,1.098988448373146E-7,9000000.0,66.60000000000001,32.45648094221188,34.63796477495109,28.784648187633266,1797729.0,9432.0,1800000.0,0.5685113540697977,0.5737823550969954,0.0,0.0,0.0
9100000.0,12.53125,1.1114477981916736E-7,9100000.0,67.10000000000001,33.016263406927216,37.57115749525618,27.373068432671083,1817729.0,9432.0,1820000.0,0.5741485212328139,0.5743741657855719,0.0,0.0,0.0
9200000.0,12.671875,1.1239071480102013E-7,9200000.0,69.19999999999999,37.79185315645751,38.64541832669322,35.02109704641349,1837729.0,9432.0,1840000.0,0.5684164147116192,0.5716698051416408,0.0,0.0,0.0
9300000.0,12.8125,1.136366497828729E-7,9300000.0,66.2,31.411224208185207,33.464566929133866,27.467811158798284,1857729.0,9432.0,1860000.0,0.5683689509781363,0.5729951069672038,0.0,0.0,0.0
9400000.0,12.9375,1.147441475445198E-7,9400000.0,64.7,28.664963786859797,23.92241379310345,25.995807127882603,1877729.0,9432.0,1880000.0,0.5740047061200435,0.5741040739455692,0.0,0.0,0.0
9500000.0,13.078125,1.1599008252637257E-7,9500000.0,66.60000000000001,32.625157846748465,30.2713987473904,29.386892177589857,1897729.0,9432.0,1900000.0,0.5739567757547673,0.5752911094986352,0.0,0.0,0.0
9600000.0,13.21875,1.1723601750822534E-7,9600000.0,67.0,33.10765613281173,36.17021276595745,29.93630573248408,1917729.0,9432.0,1920000.0,0.5682265835561907,0.5734926198886712,0.0,0.0,0.0
9700000.0,13.359375,1.1848195249007811E-7,9700000.0,67.2,33.11173195750148,30.508474576271194,27.912087912087912,1937729.0,9432.0,1940000.0,0.573860927030675,0.5745899574968852,0.0,0.0,0.0
9800000.0,13.5,1.1972788747193088E-7,9800000.0,64.7,28.532093746456983,30.91976516634051,24.411134903640257,1957729.0,9432.0,1960000.0,0.5738130086712024,0.5755570601994336,0.0,0.0,0.0
9900000.0,13.640625,1.2097382245378366E-7,9900000.0,67.4,33.44439544645337,34.2741935483871,29.43722943722944,1977729.0,9432.0,1980000.0,0.5737650943129835,0.5765682316624763,0.0,0.0,0.0
1.0E7,13.796875,1.223581946558423E-7,1.0E7,69.8,39.117813079590356,38.86639676113359,36.82008368200835,1997729.0,9432.0,2000000.0,0.5794543557952555,0.5801887234680867,0.0,0.0,0.0
