learning evaluation instances,evaluation time (cpu seconds),model cost (RAM-Hours),classified instances,classifications correct (percent),Kappa Statistic (percent),Kappa Temporal Statistic (percent),Kappa M Statistic (percent),model training instances,model serialized size (bytes),labeling cost,newThreshold,maxPosterior,accuracyBaseLearner (percent),Change detected,Warning detected
100000.0,0.15625,1.1441039128435982E-9,100000.0,59.8,10.10733452593918,14.285714285714276,2.4271844660194195,15979.0,9208.0,0.0,1.0,0.0,?,3.0,47.0
200000.0,0.328125,2.395859660787715E-9,200000.0,62.8,13.65704205737629,19.827586206896548,-0.540540540540541,34161.0,9208.0,0.0,1.0,0.0,?,0.0,0.0
300000.0,0.5,3.64085685254799E-9,300000.0,62.8,13.793502996370977,15.64625850340135,3.8759689922480653,52343.0,9208.0,0.0,1.0,0.0,?,0.0,0.0
400000.0,0.6875,4.99166263681319E-9,400000.0,55.1,4.663626094563511,7.422680412371141,-17.847769028871376,70525.0,9208.0,0.0,1.0,0.0,?,0.0,0.0
500000.0,0.859375,6.223142716205782E-9,500000.0,60.099999999999994,15.959660637105802,16.52719665271966,-4.724409448818902,88707.0,9208.0,0.0,1.0,0.0,?,0.0,0.0
600000.0,1.03125,7.447864239414533E-9,600000.0,56.89999999999999,9.699641312728371,10.950413223140483,-16.17250673854449,106889.0,9208.0,0.0,1.0,0.0,?,0.0,0.0
700000.0,1.21875,8.776551112532616E-9,700000.0,61.6,11.289763670386021,17.773019271948602,-5.7851239669421535,125071.0,9208.0,0.0,1.0,0.0,?,0.0,0.0
800000.0,1.390625,9.987755523373684E-9,800000.0,55.00000000000001,5.338090269597132,2.807775377969765,-14.795918367346921,143253.0,9208.0,0.0,1.0,0.0,?,0.0,0.0
900000.0,1.5625,1.119220137803091E-8,900000.0,62.6,9.364094610314076,21.593291404612156,-3.8888888888888924,161435.0,9208.0,0.0,1.0,0.0,?,0.0,0.0
1000000.0,1.734375,1.2389888676504295E-8,1000000.0,60.3,9.215641436085068,15.531914893617014,-1.7948717948717965,179617.0,9208.0,0.0,1.0,0.0,?,0.0,0.0
1100000.0,1.90625,1.3580817418793839E-8,1100000.0,56.2,9.48468265908378,5.399568034557241,-15.873015873015857,197799.0,9208.0,0.0,1.0,0.0,?,0.0,0.0
1200000.0,2.046875,1.4610510940353077E-8,1200000.0,57.599999999999994,11.38901892596803,9.978768577494677,-9.278350515463925,215979.0,9208.0,0.0,1.0,0.0,?,0.0,0.0
1300000.0,2.21875,1.5862266688297195E-8,1300000.0,60.5,10.356847829047105,15.236051502145914,0.7537688442211062,234161.0,9208.0,0.0,1.0,0.0,?,0.0,0.0
1400000.0,2.390625,1.710726388005747E-8,1400000.0,59.8,11.920526899295792,17.283950617283946,6.293706293706299,252343.0,9208.0,0.0,1.0,0.0,?,0.0,0.0
1500000.0,2.546875,1.823293536694514E-8,1500000.0,62.8,11.069461444308425,22.17573221757322,-2.762430939226522,270525.0,9208.0,0.0,1.0,0.0,?,0.0,0.0
1600000.0,2.703125,1.9352462711847497E-8,1600000.0,61.6,12.56989854465311,20.824742268041234,3.5175879396984953,288707.0,9208.0,0.0,1.0,0.0,?,0.0,0.0
1700000.0,2.875,2.0577184235056247E-8,1700000.0,60.0,4.549185804554906,11.504424778761049,-9.289617486338807,306889.0,9208.0,0.0,1.0,0.0,?,0.0,0.0
1800000.0,3.046875,2.1795147202081158E-8,1800000.0,62.2,10.98845204679465,20.0845665961945,-6.779661016949159,325071.0,9208.0,0.0,1.0,0.0,?,0.0,0.0
1900000.0,3.21875,2.3006351612922226E-8,1900000.0,61.5,10.720911249628957,19.624217118997908,0.7731958762886604,343253.0,9208.0,0.0,1.0,0.0,?,0.0,0.0
2000000.0,3.375,2.4101302389883342E-8,2000000.0,63.9,16.837139013287636,19.058295964125556,8.142493638676852,361435.0,9208.0,0.0,1.0,0.0,?,0.0,0.0
2100000.0,3.546875,2.5298989688356727E-8,2100000.0,63.0,13.184260541073222,20.940170940170937,2.3746701846965723,379617.0,9208.0,0.0,1.0,0.0,?,0.0,0.0
2200000.0,3.71875,2.648991843064627E-8,2200000.0,62.3,9.489878231475437,19.787234042553187,-5.013927576601676,397799.0,9208.0,0.0,1.0,0.0,?,0.0,0.0
2300000.0,3.890625,2.7748432734774228E-8,2300000.0,60.099999999999994,7.450361848209298,15.999999999999993,-5.000000000000004,415979.0,9208.0,0.0,1.0,0.0,?,0.0,0.0
2400000.0,4.046875,2.8886392505632517E-8,2400000.0,61.0,8.440817553069095,17.5475687103594,-3.4482758620689684,434161.0,9208.0,0.0,1.0,0.0,?,0.0,0.0
2500000.0,4.21875,3.0131389697392793E-8,2500000.0,62.3,8.490703432205448,17.505470459518595,-3.2876712328767157,452343.0,9208.0,0.0,1.0,0.0,?,0.0,0.0
2600000.0,4.390625,3.136962833296923E-8,2600000.0,62.4,11.395984541427081,16.81415929203539,0.5291005291005296,470525.0,9208.0,0.0,1.0,0.0,?,0.0,0.0
2700000.0,4.5625,3.260110841236182E-8,2700000.0,60.6,8.201304753028893,16.17021276595744,-3.141361256544505,488707.0,9208.0,0.0,1.0,0.0,?,0.0,0.0
2800000.0,4.71875,3.3714491615278864E-8,2800000.0,64.60000000000001,16.531482249971695,25.0,5.851063829787239,506889.0,9208.0,0.0,1.0,0.0,?,0.0,0.0
2900000.0,4.890625,3.4932454582303775E-8,2900000.0,61.4,13.42962231990671,22.489959839357425,7.655502392344504,525071.0,9208.0,0.0,1.0,0.0,?,0.0,0.0
3000000.0,5.0625,3.614365899314484E-8,3000000.0,58.5,5.204393034007619,11.324786324786313,-4.010025062656645,543253.0,9208.0,0.0,1.0,0.0,?,0.0,0.0
3100000.0,5.234375,3.7348104847802064E-8,3100000.0,64.5,16.319372418865143,24.78813559322034,3.532608695652177,561435.0,9208.0,0.0,1.0,0.0,?,0.0,0.0
3200000.0,5.390625,3.8436911482777867E-8,3200000.0,62.6,14.474797506505855,21.097046413502106,4.834605597964381,579617.0,9208.0,0.0,1.0,0.0,?,0.0,0.0
3300000.0,5.5625,3.962784022506741E-8,3300000.0,61.1,9.841004959903572,16.702355460385434,-1.0389610389610398,597799.0,9208.0,0.0,1.0,0.0,?,0.0,0.0
3400000.0,5.734375,4.088635452919537E-8,3400000.0,62.8,13.680683500480317,22.0125786163522,4.370179948586122,615979.0,9208.0,0.0,1.0,0.0,?,0.0,0.0
3500000.0,5.890625,4.202431430005365E-8,3500000.0,62.9,13.690420799910669,20.556745182012843,4.627249357326482,634161.0,9208.0,0.0,1.0,0.0,?,0.0,0.0
3600000.0,6.046875,4.315612992892663E-8,3600000.0,63.3,12.592409115158912,20.21739130434782,1.3440860215053776,652343.0,9208.0,0.0,1.0,0.0,?,0.0,0.0
3700000.0,6.21875,4.439436856450307E-8,3700000.0,60.0,7.352505188259707,16.492693110647174,-2.0408163265306136,670525.0,9208.0,0.0,1.0,0.0,?,0.0,0.0
3800000.0,6.390625,4.562584864389566E-8,3800000.0,59.8,17.281567781787952,19.277108433734934,1.7114914425427885,688707.0,9208.0,0.0,1.0,0.0,?,0.0,0.0
3900000.0,6.546875,4.67392318468127E-8,3900000.0,60.199999999999996,16.953573291601447,11.358574610244975,-6.133333333333338,706889.0,9208.0,0.0,1.0,0.0,?,0.0,0.0
4000000.0,6.71875,4.795719481383761E-8,4000000.0,59.3,15.121332699350171,14.135021097046405,-4.092071611253201,725071.0,9208.0,0.0,1.0,0.0,?,0.0,0.0
4100000.0,6.890625,4.916839922467868E-8,4100000.0,55.7,8.73205544476128,7.127882599580719,-15.364583333333318,743253.0,9208.0,0.0,1.0,0.0,?,0.0,0.0
4200000.0,7.046875,5.0263350001639793E-8,4200000.0,61.6,19.597989949748744,21.47239263803681,1.0309278350515472,761435.0,9208.0,0.0,1.0,0.0,?,0.0,0.0
4300000.0,7.21875,5.146103730011318E-8,4300000.0,60.8,20.205836373110998,18.16283924843423,7.109004739336498,779617.0,9208.0,0.0,1.0,0.0,?,0.0,0.0
4400000.0,7.375,5.2543699793103674E-8,4400000.0,62.7,13.332403922115338,20.806794055201692,2.356020942408379,797799.0,9208.0,0.0,1.0,0.0,?,0.0,0.0
4500000.0,7.546875,5.380221409723163E-8,4500000.0,63.1,11.827114237651013,18.54304635761589,-3.6516853932584303,815979.0,9208.0,0.0,1.0,0.0,?,0.0,0.0
4600000.0,7.6875,5.482637789100409E-8,4600000.0,62.3,10.828326789346692,19.27194860813704,-1.8918918918918937,834161.0,9208.0,0.0,1.0,0.0,?,0.0,0.0
4700000.0,7.859375,5.607137508276437E-8,4700000.0,61.5,10.2555734785406,15.384615384615374,-1.8518518518518534,852343.0,9208.0,0.0,1.0,0.0,?,0.0,0.0
4800000.0,8.03125,5.7309613718340804E-8,4800000.0,63.7,14.606720427578038,24.688796680497923,3.9682539682539715,870525.0,9208.0,0.0,1.0,0.0,?,0.0,0.0
4900000.0,8.1875,5.842914106324316E-8,4900000.0,60.8,16.609938733832546,18.672199170124475,-7.6923076923077,888707.0,9208.0,0.0,1.0,0.0,?,0.0,0.0
5000000.0,8.359375,5.975666378314298E-8,5000000.0,64.7,15.601928005814617,24.411134903640257,4.336043360433608,906889.0,9208.0,0.0,1.0,0.0,?,0.0,0.0
5100000.0,8.53125,6.107742794685896E-8,5100000.0,60.5,15.32181995918297,15.053763440860205,-7.336956521739137,925071.0,9208.0,0.0,1.0,0.0,?,0.0,0.0
5200000.0,8.6875,6.227197849916089E-8,5200000.0,58.4,12.034002241441291,15.102040816326523,-12.129380053908367,943253.0,9208.0,0.0,1.0,0.0,?,0.0,0.0
5300000.0,8.859375,6.357922555050917E-8,5300000.0,58.599999999999994,13.772993868301779,16.53225806451612,-5.612244897959188,961435.0,9208.0,0.0,1.0,0.0,?,0.0,0.0
5400000.0,9.015625,6.476148781884049E-8,5400000.0,58.099999999999994,12.439083515142398,7.912087912087895,-9.685863874345559,979617.0,9208.0,0.0,1.0,0.0,?,0.0,0.0
5500000.0,9.1875,6.595241656113003E-8,5500000.0,59.8,14.90982981965963,14.285714285714276,-8.648648648648656,997799.0,9208.0,0.0,1.0,0.0,?,0.0,0.0
5600000.0,9.34375,6.718997610732915E-8,5600000.0,57.199999999999996,10.60052219321148,10.647181628392472,-14.133333333333345,1015979.0,9208.0,0.0,1.0,0.0,?,0.0,0.0
5700000.0,9.515625,6.854453305196433E-8,5700000.0,61.5,17.994376757263357,12.100456621004554,-6.94444444444445,1034161.0,9208.0,0.0,1.0,0.0,?,0.0,0.0
5800000.0,9.671875,6.976980431419282E-8,5800000.0,56.3,7.97752714347081,7.021276595744663,-20.718232044198913,1052343.0,9208.0,0.0,1.0,0.0,?,0.0,0.0
5900000.0,9.84375,7.11108441464603E-8,5900000.0,58.3,11.056318200820755,6.711409395973137,-18.130311614730896,1070525.0,9208.0,0.0,1.0,0.0,?,0.0,0.0
6000000.0,10.015625,7.244512542254396E-8,6000000.0,60.5,17.373005447106173,18.72427983539094,-3.4031413612565475,1088707.0,9208.0,0.0,1.0,0.0,?,0.0,0.0
6100000.0,10.171875,7.365196425881652E-8,6100000.0,60.8,18.22429906542056,17.299578059071724,-3.157894736842108,1106889.0,9208.0,0.0,1.0,0.0,?,0.0,0.0
6200000.0,10.34375,7.49727284225325E-8,6200000.0,65.0,20.005119672340978,27.685950413223143,9.32642487046633,1125071.0,9208.0,0.0,1.0,0.0,?,0.0,0.0
6300000.0,10.515625,7.628673403006463E-8,6300000.0,64.5,16.442276912648033,23.326133909287254,5.585106382978728,1143253.0,9208.0,0.0,1.0,0.0,?,0.0,0.0
6400000.0,10.671875,7.747514044038126E-8,6400000.0,64.60000000000001,19.486899563318776,26.70807453416149,10.606060606060614,1161435.0,9208.0,0.0,1.0,0.0,?,0.0,0.0
6500000.0,10.84375,7.877562893554571E-8,6500000.0,65.3,20.506922999386056,27.708333333333336,9.162303664921474,1179617.0,9208.0,0.0,1.0,0.0,?,0.0,0.0
6600000.0,11.015625,7.996655767783526E-8,6600000.0,63.6,17.974049152473622,22.881355932203387,8.312342569269529,1197799.0,9208.0,0.0,1.0,0.0,?,0.0,0.0
6700000.0,11.171875,8.120411722403437E-8,6700000.0,64.7,14.063412924083677,27.066115702479344,1.1204481792717098,1215979.0,9208.0,0.0,1.0,0.0,?,0.0,0.0
6800000.0,11.34375,8.255867416866955E-8,6800000.0,64.5,17.821030408533662,22.48908296943231,9.2071611253197,1234161.0,9208.0,0.0,1.0,0.0,?,0.0,0.0
6900000.0,11.5,8.378394543089804E-8,6900000.0,66.0,18.317533381702177,24.444444444444443,5.292479108635102,1252343.0,9208.0,0.0,1.0,0.0,?,0.0,0.0
7000000.0,11.65625,8.500307255114121E-8,7000000.0,64.2,19.597177366830028,27.08757637474542,10.275689223057654,1270525.0,9208.0,0.0,1.0,0.0,?,0.0,0.0
7100000.0,11.828125,8.633735382722487E-8,7100000.0,62.8,15.379540956757138,18.599562363238505,7.231920199501253,1288707.0,9208.0,0.0,1.0,0.0,?,0.0,0.0
7200000.0,11.984375,8.754419266349743E-8,7200000.0,65.5,20.28945325496285,31.000000000000007,12.87878787878789,1306889.0,9208.0,0.0,1.0,0.0,?,0.0,0.0
7300000.0,12.15625,8.88649568272134E-8,7300000.0,68.0,21.07534837834506,25.925925925925945,7.24637681159421,1325071.0,9208.0,0.0,1.0,0.0,?,0.0,0.0
7400000.0,12.328125,9.017896243474553E-8,7400000.0,66.5,20.808275653390822,26.535087719298247,7.967032967032975,1343253.0,9208.0,0.0,1.0,0.0,?,0.0,0.0
7500000.0,12.484375,9.136736884506216E-8,7500000.0,64.1,12.600181129429643,22.629310344827584,1.9125683060109306,1361435.0,9208.0,0.0,1.0,0.0,?,0.0,0.0
7600000.0,12.65625,9.266785734022662E-8,7600000.0,65.9,19.01468660346169,30.122950819672134,7.336956521739137,1379617.0,9208.0,0.0,1.0,0.0,?,0.0,0.0
7700000.0,12.8125,9.37505198332171E-8,7700000.0,65.4,17.002096536636618,24.618736383442265,4.155124653739616,1397799.0,9208.0,0.0,1.0,0.0,?,0.0,0.0
7800000.0,12.96875,9.498807937941622E-8,7800000.0,63.3,15.051015684313828,20.9051724137931,4.4270833333333375,1415979.0,9208.0,0.0,1.0,0.0,?,0.0,0.0
7900000.0,13.140625,9.63426363240514E-8,7900000.0,58.5,11.608093716719912,12.447257383966233,-9.788359788359797,1434161.0,9208.0,0.0,1.0,0.0,?,0.0,0.0
8000000.0,13.3125,9.769043471250274E-8,8000000.0,57.199999999999996,9.549310419158628,7.758620689655156,-13.527851458885953,1452343.0,9208.0,0.0,1.0,0.0,?,0.0,0.0
8100000.0,13.46875,9.890956183274591E-8,8100000.0,65.5,15.67431219569425,23.50332594235033,1.9886363636363658,1470525.0,9208.0,0.0,1.0,0.0,?,0.0,0.0
8200000.0,13.640625,1.0024384310882957E-7,8200000.0,65.3,19.034196968565666,23.230088495575217,6.720430107526888,1488707.0,9208.0,0.0,1.0,0.0,?,0.0,0.0
8300000.0,13.8125,1.0157136582872938E-7,8300000.0,57.8,10.182189681593732,10.78224101479914,-14.054054054054067,1506889.0,9208.0,0.0,1.0,0.0,?,0.0,0.0
8400000.0,13.96875,1.0277206052301662E-7,8400000.0,60.099999999999994,11.989694632915404,15.999999999999993,-10.22099447513813,1525071.0,9208.0,0.0,1.0,0.0,?,0.0,0.0
8500000.0,14.140625,1.0408606613054875E-7,8500000.0,66.0,21.23795404002965,24.107142857142858,10.052910052910063,1543253.0,9208.0,0.0,1.0,0.0,?,0.0,0.0
8600000.0,14.3125,1.0539331318189704E-7,8600000.0,67.9,22.347476897769614,31.991525423728824,10.335195530726267,1561435.0,9208.0,0.0,1.0,0.0,?,0.0,0.0
8700000.0,14.453125,1.0645734922339522E-7,8700000.0,64.2,13.169600628671486,20.267260579064583,0.2785515320334264,1579617.0,9208.0,0.0,1.0,0.0,?,0.0,0.0
8800000.0,14.625,1.0764827796568476E-7,8800000.0,56.49999999999999,8.548891654613325,7.838983050847441,-13.57702349869453,1597799.0,9208.0,0.0,1.0,0.0,?,0.0,0.0
8900000.0,14.796875,1.0900959346650378E-7,8900000.0,55.60000000000001,7.575480024646557,5.330490405117276,-15.02590673575128,1615979.0,9208.0,0.0,1.0,0.0,?,0.0,0.0
9000000.0,14.953125,1.1024100887071758E-7,9000000.0,64.0,18.061144594766834,21.739130434782606,6.735751295336794,1634161.0,9208.0,0.0,1.0,0.0,?,0.0,0.0
9100000.0,15.125,1.1158880725916892E-7,9100000.0,64.0,17.370547190598597,22.077922077922075,5.263157894736847,1652343.0,9208.0,0.0,1.0,0.0,?,0.0,0.0
9200000.0,15.296875,1.129298470914364E-7,9200000.0,61.3,6.88520172466892,18.181818181818176,-8.707865168539335,1670525.0,9208.0,0.0,1.0,0.0,?,0.0,0.0
9300000.0,15.453125,1.1414283006969428E-7,9300000.0,63.7,18.299918074848986,25.0,8.793969849246238,1688707.0,9208.0,0.0,1.0,0.0,?,0.0,0.0
9400000.0,15.625,1.1547035278959409E-7,9400000.0,65.4,16.217891596606083,28.512396694214882,1.7045454545454561,1706889.0,9208.0,0.0,1.0,0.0,?,0.0,0.0
9500000.0,15.796875,1.1679111695331007E-7,9500000.0,64.1,15.86437055299841,25.052192066805844,4.774535809018572,1725071.0,9208.0,0.0,1.0,0.0,?,0.0,0.0
9600000.0,15.96875,1.181051225608422E-7,9600000.0,60.3,6.400596018370934,14.80686695278969,-6.149732620320861,1743253.0,9208.0,0.0,1.0,0.0,?,0.0,0.0
9700000.0,16.140625,1.194123696121905E-7,9700000.0,59.3,0.17169487368163694,7.9185520361990775,-13.68715083798884,1761435.0,9208.0,0.0,1.0,0.0,?,0.0,0.0
9800000.0,16.296875,1.205946318805218E-7,9800000.0,61.8,20.101400107925862,20.416666666666664,-1.3262599469496033,1779617.0,9208.0,0.0,1.0,0.0,?,0.0,0.0
9900000.0,16.46875,1.2178556062281136E-7,9900000.0,67.2,20.433154146208928,29.31034482758621,9.392265193370175,1797799.0,9208.0,0.0,1.0,0.0,?,0.0,0.0
1.0E7,16.640625,1.2314687612363037E-7,1.0E7,66.10000000000001,17.453978766923147,27.71855010660981,4.507042253521131,1815979.0,9208.0,0.0,1.0,0.0,?,0.0,0.0
