learning evaluation instances,evaluation time (cpu seconds),model cost (RAM-Hours),classified instances,classifications correct (percent),Kappa Statistic (percent),Kappa Temporal Statistic (percent),Kappa M Statistic (percent),model training instances,model serialized size (bytes),labeling cost,newThreshold,maxPosterior,accuracyBaseLearner (percent),Change detected,Warning detected
100000.0,0.125,1.955777406692505E-9,100000.0,68.60000000000001,38.84387659707074,26.63551401869161,7.647058823529419,29394.0,3256.0,0.0,1.0,0.0,?,13.0,126.0
200000.0,0.25,3.6011139551798503E-9,200000.0,65.3,33.34357831649315,22.371364653243845,1.6997167138810214,89394.0,3256.0,0.0,1.0,0.0,?,0.0,0.0
300000.0,0.375,4.936009645462036E-9,300000.0,67.10000000000001,35.64767001533503,28.78787878787879,5.4597701149425335,149394.0,3256.0,0.0,1.0,0.0,?,0.0,119.0
400000.0,0.5,5.960464477539063E-9,400000.0,64.8,32.60294326010286,25.581395348837212,1.9498607242339852,209394.0,3256.0,0.0,1.0,0.0,?,0.0,2.0
500000.0,0.625,6.67447845141093E-9,500000.0,65.10000000000001,32.96093677966624,25.427350427350426,2.2408963585434196,269394.0,3256.0,0.0,1.0,0.0,?,0.0,0.0
600000.0,0.734375,8.385783682266871E-9,600000.0,65.4,32.417651103193954,26.382978723404253,4.94505494505495,329094.0,3256.0,0.0,1.0,0.0,?,0.0,0.0
700000.0,0.859375,1.0031120230754215E-8,700000.0,69.6,39.48635058901278,30.11494252873563,8.15709969788517,389094.0,3256.0,0.0,1.0,0.0,?,0.0,0.0
800000.0,0.984375,1.1366015921036402E-8,800000.0,67.2,35.483870967741936,25.623582766439913,6.285714285714292,449094.0,3256.0,0.0,1.0,0.0,?,0.0,0.0
900000.0,1.125,1.2518527607123057E-8,900000.0,65.7,32.63678856200165,27.330508474576277,1.1527377521613844,509094.0,3256.0,0.0,1.0,0.0,?,0.0,0.0
1000000.0,1.25,1.3237456894583173E-8,1000000.0,67.0,35.353946935385295,26.666666666666668,4.624277456647404,569094.0,3256.0,0.0,1.0,0.0,?,0.0,61.0
1100000.0,1.375,1.5201254023445978E-8,1100000.0,67.60000000000001,36.58796267301309,35.4581673306773,16.062176165803123,628794.0,3256.0,0.0,1.0,0.0,?,0.0,0.0
1200000.0,1.484375,1.6647940760271417E-8,1200000.0,69.6,40.50857341907403,32.74336283185839,15.320334261838422,688794.0,3256.0,0.0,1.0,0.0,?,0.0,0.0
1300000.0,1.625,1.8158720599280463E-8,1300000.0,66.3,34.666118663388986,28.144989339019194,7.92349726775957,748794.0,3256.0,0.0,1.0,0.0,?,0.0,0.0
1400000.0,1.75,1.9191195153527788E-8,1400000.0,66.60000000000001,35.333728300980844,27.39130434782609,13.695090439276496,808794.0,3256.0,0.0,1.0,0.0,?,0.0,0.0
1500000.0,1.875,1.9913228849569954E-8,1500000.0,66.5,34.44996673580402,24.887892376681613,2.046783625730996,868794.0,3256.0,0.0,1.0,0.0,?,0.0,0.0
1600000.0,2.0,2.187702597843276E-8,1600000.0,68.0,37.46384628613417,32.34672304439747,7.51445086705203,928494.0,3256.0,0.0,1.0,0.0,?,0.0,0.0
1700000.0,2.140625,2.373705178292261E-8,1700000.0,65.0,31.88329077660833,25.213675213675213,5.913978494623661,988494.0,3256.0,0.0,1.0,0.0,?,0.0,0.0
1800000.0,2.265625,2.5079967195375097E-8,1800000.0,64.9,32.10306406685237,20.588235294117645,-3.235294117647062,1048494.0,3256.0,0.0,1.0,0.0,?,0.0,0.0
1900000.0,2.390625,2.6112441749622425E-8,1900000.0,66.8,36.03403297715337,27.192982456140353,4.871060171919775,1108494.0,3256.0,0.0,1.0,0.0,?,0.0,0.0
2000000.0,2.515625,2.6834475445664592E-8,2000000.0,67.0,34.93690851735016,19.512195121951233,-3.1250000000000036,1168494.0,3256.0,0.0,1.0,0.0,?,0.0,0.0
2100000.0,2.640625,2.8801376983109447E-8,2100000.0,67.2,36.33935780386312,30.655391120507403,9.8901098901099,1228194.0,3256.0,0.0,1.0,0.0,?,0.0,0.0
2200000.0,2.765625,3.0457837662349144E-8,2200000.0,66.9,35.877566834560255,24.601366742596813,-3.4375000000000036,1288194.0,3256.0,0.0,1.0,0.0,?,0.0,0.0
2300000.0,2.90625,3.1972109961013E-8,2300000.0,67.10000000000001,35.90842502259763,28.008752735229763,9.615384615384624,1348194.0,3256.0,0.0,1.0,0.0,?,0.0,0.0
2400000.0,3.046875,3.313713629419605E-8,2400000.0,67.30000000000001,36.64018601046308,25.000000000000018,3.539823008849561,1408194.0,3256.0,0.0,1.0,0.0,?,0.0,0.0
2500000.0,3.1875,3.395291666189829E-8,2500000.0,65.9,33.256607791557066,23.024830699774267,-5.246913580246919,1468194.0,3256.0,0.0,1.0,0.0,?,0.0,0.0
2600000.0,3.3125,3.591981819934315E-8,2600000.0,68.30000000000001,37.96477495107633,34.36853002070394,20.750000000000018,1527894.0,3256.0,0.0,1.0,0.0,?,0.0,0.0
2700000.0,3.4375,3.757627887858285E-8,2700000.0,68.7,38.561434639573505,37.649402390438254,13.29639889196677,1587894.0,3256.0,0.0,1.0,0.0,?,0.0,0.0
2800000.0,3.578125,3.90905511772467E-8,2800000.0,65.5,33.072088150849694,21.232876712328764,-7.812500000000008,1647894.0,3256.0,0.0,1.0,0.0,?,0.0,0.0
2900000.0,3.703125,4.012613014007608E-8,2900000.0,65.2,32.13305042436346,20.000000000000014,0.0,1707894.0,3256.0,0.0,1.0,0.0,?,0.0,0.0
3000000.0,3.828125,4.08512682447003E-8,3000000.0,68.10000000000001,37.20521885654445,32.27176220806795,11.878453038674044,1767894.0,3256.0,0.0,1.0,0.0,?,0.0,0.0
3100000.0,3.953125,4.282127419072721E-8,3100000.0,65.60000000000001,33.63659864418028,23.89380530973451,5.23415977961433,1827594.0,3256.0,0.0,1.0,0.0,?,0.0,0.0
3200000.0,4.078125,4.448083927854895E-8,3200000.0,68.60000000000001,38.906940093779795,33.47457627118645,15.817694369973204,1887594.0,3256.0,0.0,1.0,0.0,?,0.0,0.0
3300000.0,4.234375,4.6167244565569687E-8,3300000.0,63.9,29.71731173584612,20.659340659340657,-4.6376811594202945,1947594.0,3256.0,0.0,1.0,0.0,?,0.0,0.0
3400000.0,4.375,4.733576335840755E-8,3400000.0,65.60000000000001,32.701036091025756,22.171945701357462,-2.380952380952383,2007594.0,3256.0,0.0,1.0,0.0,?,0.0,0.0
3500000.0,4.484375,4.797297555746303E-8,3500000.0,64.0,30.197927654029904,16.27906976744187,-7.1428571428571495,2067594.0,3256.0,0.0,1.0,0.0,?,0.0,0.0
3600000.0,4.609375,4.994298150348994E-8,3600000.0,65.7,33.441999456669386,27.48414376321353,7.297297297297304,2127294.0,3256.0,0.0,1.0,0.0,?,0.0,0.0
3700000.0,4.75,5.180999222728941E-8,3700000.0,68.8,37.8869622344767,27.441860465116275,6.865671641791018,2187294.0,3256.0,0.0,1.0,0.0,?,0.0,0.0
3800000.0,4.859375,5.2990475928203925E-8,3800000.0,67.7,36.9140625,33.12629399585922,13.86666666666668,2247294.0,3256.0,0.0,1.0,0.0,?,0.0,0.0
3900000.0,4.984375,5.4029159299615354E-8,3900000.0,67.80000000000001,37.44754918720667,28.28507795100223,10.055865921787719,2307294.0,3256.0,0.0,1.0,0.0,?,0.0,0.0
4000000.0,5.109375,5.475740181282162E-8,4000000.0,65.8,34.03184988580952,27.695560253699792,8.064516129032265,2367294.0,3256.0,0.0,1.0,0.0,?,0.0,0.0
4100000.0,5.234375,5.673051216743058E-8,4100000.0,65.10000000000001,32.47374408903404,25.902335456475583,3.5911602209944786,2426994.0,3256.0,0.0,1.0,0.0,?,0.0,0.0
4200000.0,5.359375,5.839318166383438E-8,4200000.0,65.9,34.478518176927224,25.054945054945055,5.277777777777783,2486994.0,3256.0,0.0,1.0,0.0,?,0.0,0.0
4300000.0,5.5,5.991443888180785E-8,4300000.0,64.7,31.106357731701223,22.417582417582416,0.842696629213484,2546994.0,3256.0,0.0,1.0,0.0,?,0.0,0.0
4400000.0,5.625,6.095622666180133E-8,4400000.0,68.30000000000001,38.69088602306925,29.867256637168143,10.198300283286128,2606994.0,3256.0,0.0,1.0,0.0,?,0.0,0.0
4500000.0,5.75,6.168757358358965E-8,4500000.0,66.5,34.908989165746966,23.515981735159816,6.685236768802234,2666994.0,3256.0,0.0,1.0,0.0,?,0.0,0.0
4600000.0,5.875,6.36606839381986E-8,4600000.0,68.2,38.01846192228529,33.887733887733894,12.637362637362648,2726694.0,3256.0,0.0,1.0,0.0,?,0.0,0.0
4700000.0,6.015625,6.553118712165288E-8,4700000.0,68.10000000000001,37.92711592646213,34.63114754098361,9.375000000000009,2786694.0,3256.0,0.0,1.0,0.0,?,0.0,0.0
4800000.0,6.140625,6.688341575985153E-8,4800000.0,67.30000000000001,36.53295240165519,29.220779220779225,3.2544378698224885,2846694.0,3256.0,0.0,1.0,0.0,?,0.0,0.0
4900000.0,6.296875,6.818565048484338E-8,4900000.0,69.0,39.50416835794796,35.28183716075155,11.931818181818162,2906694.0,3256.0,0.0,1.0,0.0,?,0.0,0.0
5000000.0,6.421875,6.894131527385777E-8,5000000.0,65.60000000000001,33.25183848497197,23.385300668151444,3.0985915492957776,2966694.0,3256.0,0.0,1.0,0.0,?,0.0,0.0
5100000.0,6.546875,7.094184790427485E-8,5100000.0,69.1,39.11857888183092,36.02484472049688,24.26470588235293,3026394.0,3256.0,0.0,1.0,0.0,?,0.0,0.0
5200000.0,6.671875,7.262702436289852E-8,5200000.0,68.60000000000001,38.10124586027442,34.30962343096235,29.910714285714292,3086394.0,3256.0,0.0,1.0,0.0,?,0.0,2.0
5300000.0,6.796875,7.400175996331703E-8,5300000.0,66.8,34.38657375383898,33.996023856858855,20.76372315035801,3146394.0,3256.0,0.0,1.0,0.0,?,0.0,0.0
5400000.0,6.90625,7.493301786275372E-8,5400000.0,65.3,32.02103233996537,31.960784313725497,19.86143187066976,3206394.0,3256.0,0.0,1.0,0.0,?,0.0,0.0
5500000.0,7.03125,7.56868717467619E-8,5500000.0,69.5,39.78900488005179,36.853002070393366,26.682692307692303,3266394.0,3256.0,0.0,1.0,0.0,?,0.0,0.0
5600000.0,7.15625,7.768248906359074E-8,5600000.0,68.10000000000001,36.64349553128104,34.36213991769549,25.813953488372114,3326094.0,3256.0,0.0,1.0,0.0,?,0.0,0.0
5700000.0,7.28125,7.936766552221441E-8,5700000.0,68.10000000000001,36.99686366832306,30.34934497816594,19.849246231155796,3386094.0,3256.0,0.0,1.0,0.0,?,0.0,0.0
5800000.0,7.40625,8.074240112263292E-8,5800000.0,69.19999999999999,39.404432132963976,34.745762711864394,27.69953051643192,3446094.0,3256.0,0.0,1.0,0.0,?,0.0,0.0
5900000.0,7.53125,8.180669586484628E-8,5900000.0,70.5,41.713427645617635,40.76305220883533,28.915662650602407,3506094.0,3256.0,0.0,1.0,0.0,?,0.0,0.0
6000000.0,7.640625,8.246631801335346E-8,6000000.0,69.69999999999999,40.17296528847292,37.782340862422984,25.185185185185176,3566094.0,3256.0,0.0,1.0,0.0,?,0.0,0.0
6100000.0,7.75,8.421519952308799E-8,6100000.0,68.8,38.696836206591655,40.45801526717556,28.604118993135007,3625794.0,3256.0,0.0,1.0,0.0,?,0.0,0.0
6200000.0,7.890625,8.611451549869443E-8,6200000.0,71.1,42.74052940244095,38.11563169164881,34.46712018140588,3685794.0,3256.0,0.0,1.0,0.0,?,0.0,0.0
6300000.0,8.015625,8.7492355507695E-8,6300000.0,72.0,44.47507129004239,42.85714285714285,35.03480278422274,3745794.0,3256.0,0.0,1.0,0.0,?,0.0,0.0
6400000.0,8.15625,8.869317955233983E-8,6400000.0,68.60000000000001,38.26359478897554,34.171907756813425,28.798185941043087,3805794.0,3256.0,0.0,1.0,0.0,?,0.0,0.0
6500000.0,8.265625,8.93555180583563E-8,6500000.0,67.0,35.32784861229242,31.958762886597945,20.096852300242148,3865794.0,3256.0,0.0,1.0,0.0,?,0.0,0.0
6600000.0,8.390625,9.135423978376719E-8,6600000.0,69.19999999999999,39.162897268256046,36.494845360824726,23.95061728395061,3925494.0,3256.0,0.0,1.0,0.0,?,0.0,0.0
6700000.0,8.515625,9.304252065097292E-8,6700000.0,66.9,34.493322672830764,34.84251968503938,26.607538802660756,3985494.0,3256.0,0.0,1.0,0.0,?,0.0,0.0
6800000.0,8.640625,9.442036065997348E-8,6800000.0,69.69999999999999,40.46309104627765,34.83870967741934,25.55282555282555,4045494.0,3256.0,0.0,1.0,0.0,?,0.0,0.0
6900000.0,8.734375,9.522091002307003E-8,6900000.0,70.39999999999999,41.761631933513804,38.58921161825725,28.502415458937193,4105494.0,3256.0,0.0,1.0,0.0,?,0.0,0.0
7000000.0,8.859375,9.597786831566029E-8,7000000.0,69.0,38.5649566585678,29.38496583143506,18.205804749340356,4165494.0,3256.0,0.0,1.0,0.0,?,0.0,0.0
7100000.0,8.984375,9.797969444965322E-8,7100000.0,69.69999999999999,40.2154611104534,41.5057915057915,30.82191780821916,4225194.0,3256.0,0.0,1.0,0.0,?,0.0,0.0
7200000.0,9.140625,1.0009392604438795E-7,7200000.0,66.8,34.625078764965345,28.29373650107992,17.4129353233831,4285194.0,3256.0,0.0,1.0,0.0,?,0.0,0.0
7300000.0,9.28125,1.016474885141684E-7,7300000.0,68.60000000000001,38.009349927348545,32.61802575107297,27.314814814814838,4345194.0,3256.0,0.0,1.0,0.0,?,0.0,0.0
7400000.0,9.390625,1.0258417912862368E-7,7400000.0,68.89999999999999,39.1508511054588,35.343035343035325,20.05141388174806,4405194.0,3256.0,0.0,1.0,0.0,?,0.0,0.0
7500000.0,9.515625,1.0334424182979598E-7,7500000.0,68.10000000000001,36.74199459034988,35.8148893360161,19.849246231155796,4465194.0,3256.0,0.0,1.0,0.0,?,0.0,0.0
7600000.0,9.640625,1.0534606796378891E-7,7600000.0,71.0,42.44318745658428,41.883767535070135,37.63440860215053,4524894.0,3256.0,0.0,1.0,0.0,?,0.0,0.0
7700000.0,9.75,1.0682603008010321E-7,7700000.0,70.8,42.238838446778615,44.592030360531304,30.64133016627078,4584894.0,3256.0,0.0,1.0,0.0,?,0.0,0.0
7800000.0,9.875,1.0820697449768584E-7,7800000.0,67.10000000000001,35.5957685049605,29.0948275862069,12.032085561497336,4644894.0,3256.0,0.0,1.0,0.0,?,0.0,0.0
7900000.0,10.0,1.0927747805706329E-7,7900000.0,67.60000000000001,36.09089295224571,32.21757322175733,21.927710843373514,4704894.0,3256.0,0.0,1.0,0.0,?,0.0,0.0
8000000.0,10.109375,1.0994253292058905E-7,8000000.0,70.3,40.99697236989534,42.66409266409266,32.80542986425338,4764894.0,3256.0,0.0,1.0,0.0,?,0.0,0.0
8100000.0,10.25,1.1219807978098592E-7,8100000.0,70.19999999999999,41.193882585101136,37.26315789473683,29.882352941176464,4824594.0,3256.0,0.0,1.0,0.0,?,0.0,0.0
8200000.0,10.359375,1.1368075825480951E-7,8200000.0,69.0,39.02654902068768,37.999999999999986,28.07424593967517,4884594.0,3256.0,0.0,1.0,0.0,?,0.0,0.0
8300000.0,10.46875,1.148918009777036E-7,8300000.0,68.7,37.918504649170146,36.51115618661259,24.213075060532706,4944594.0,3256.0,0.0,1.0,0.0,?,0.0,0.0
8400000.0,10.59375,1.1596540894566311E-7,8400000.0,67.4,35.573886475654454,35.18886679920478,22.931442080378268,5004594.0,3256.0,0.0,1.0,0.0,?,0.0,0.0
8500000.0,10.71875,1.1672857605541746E-7,8500000.0,69.8,40.09552977767903,34.49023861171365,25.61576354679802,5064594.0,3256.0,0.0,1.0,0.0,?,0.0,0.0
8600000.0,10.828125,1.1848289028017057E-7,8600000.0,65.4,31.7115147017609,29.674796747967484,19.34731934731936,5124294.0,3256.0,0.0,1.0,0.0,?,0.0,0.0
8700000.0,10.953125,1.201773799645404E-7,8700000.0,68.7,37.87217149662566,35.062240663900425,21.750000000000018,5184294.0,3256.0,0.0,1.0,0.0,?,0.0,0.0
8800000.0,11.109375,1.2190744099724624E-7,8800000.0,68.5,37.72931427125506,37.000000000000014,28.246013667425974,5244294.0,3256.0,0.0,1.0,0.0,?,0.0,0.0
8900000.0,11.21875,1.228468479692108E-7,8900000.0,69.5,40.0352317589141,39.3638170974155,26.858513189448434,5304294.0,3256.0,0.0,1.0,0.0,?,0.0,0.0
9000000.0,11.34375,1.2361001507896516E-7,9000000.0,68.8,38.83336404734924,35.537190082644614,27.27272727272727,5364294.0,3256.0,0.0,1.0,0.0,?,0.0,0.0
9100000.0,11.46875,1.256180500301222E-7,9100000.0,70.1,40.63596944042948,38.603696098562615,30.787037037037035,5423994.0,3256.0,0.0,1.0,0.0,?,0.0,0.0
9200000.0,11.59375,1.2731564412307408E-7,9200000.0,68.2,37.83525952801716,34.96932515337424,24.644549763033194,5483994.0,3256.0,0.0,1.0,0.0,?,0.0,0.0
9300000.0,11.703125,1.2852940320347746E-7,9300000.0,66.60000000000001,34.218818932375385,32.79678068410464,18.932038834951474,5543994.0,3256.0,0.0,1.0,0.0,?,0.0,0.0
9400000.0,11.84375,1.2974070462708672E-7,9400000.0,70.19999999999999,41.51266309723814,39.676113360323875,28.70813397129186,5603994.0,3256.0,0.0,1.0,0.0,?,0.0,0.0
9500000.0,11.953125,1.3041119220563106E-7,9500000.0,69.0,38.448097847668954,36.08247422680411,27.90697674418604,5663994.0,3256.0,0.0,1.0,0.0,?,0.0,0.0
9600000.0,12.078125,1.324192271567881E-7,9600000.0,70.5,41.68300860323886,41.23505976095617,32.801822323462396,5723694.0,3256.0,0.0,1.0,0.0,?,0.0,0.0
9700000.0,12.21875,1.3432902051135896E-7,9700000.0,70.19999999999999,41.380816183615735,41.79687499999999,27.493917274939168,5783694.0,3256.0,0.0,1.0,0.0,?,0.0,0.0
9800000.0,12.34375,1.3571617374610568E-7,9800000.0,69.0,38.952583881119004,37.499999999999986,25.659472422062347,5843694.0,3256.0,0.0,1.0,0.0,?,0.0,0.0
9900000.0,12.46875,1.3679288612264723E-7,9900000.0,72.39999999999999,45.43535077556927,46.82080924855491,35.66433566433567,5903694.0,3256.0,0.0,1.0,0.0,?,0.0,0.0
1.0E7,12.59375,1.3755915764098364E-7,1.0E7,67.2,35.49275276810826,31.380753138075317,22.458628841607585,5963694.0,3256.0,0.0,1.0,0.0,?,0.0,0.0
