learning evaluation instances,evaluation time (cpu seconds),model cost (RAM-Hours),classified instances,classifications correct (percent),Kappa Statistic (percent),Kappa Temporal Statistic (percent),Kappa M Statistic (percent),model training instances,model serialized size (bytes),labeling cost,newThreshold,maxPosterior,accuracyBaseLearner (percent),Change detected,Warning detected
100000.0,0.234375,6.113259587436914E-9,100000.0,88.0,68.82274692384436,70.58823529411765,57.446808510638306,19800.0,1112.0,0.0,1.0,0.0,?,0.0,4.0
200000.0,0.453125,1.1275697033852337E-8,200000.0,89.3,72.90068989271712,74.70449172576834,63.481228668941995,39800.0,1112.0,0.0,1.0,0.0,?,0.0,0.0
300000.0,0.703125,1.6554743827631074E-8,300000.0,87.5,68.41232778401108,70.93023255813954,58.4717607973422,59800.0,1112.0,0.0,1.0,0.0,?,0.0,0.0
400000.0,0.921875,2.063063827032844E-8,400000.0,84.6,60.21802588411562,63.42042755344418,46.34146341463414,79800.0,1112.0,0.0,1.0,0.0,?,0.0,0.0
500000.0,1.171875,2.466792163128654E-8,500000.0,87.6,68.57019745013055,70.61611374407583,58.803986710963464,99800.0,1112.0,0.0,1.0,0.0,?,0.0,0.0
600000.0,1.390625,2.7657273070265848E-8,600000.0,85.9,63.39563862928349,67.36111111111111,53.0,119800.0,1112.0,0.0,1.0,0.0,?,0.0,0.0
700000.0,1.625,3.027807300289472E-8,700000.0,87.8,68.20449202766731,68.63753213367609,57.491289198606275,139800.0,1112.0,0.0,1.0,0.0,?,0.0,0.0
800000.0,1.875,3.245271121462186E-8,800000.0,87.0,65.66206186111626,66.23376623376623,54.703832752613245,159800.0,1112.0,0.0,1.0,0.0,?,0.0,0.0
900000.0,2.125,3.4006467709938686E-8,900000.0,86.8,65.46870994239555,68.11594202898551,54.325259515570934,179800.0,1112.0,0.0,1.0,0.0,?,0.0,0.0
1000000.0,2.359375,3.488103781516353E-8,1000000.0,87.2,65.06073427050634,66.83937823834198,53.45454545454545,199800.0,1112.0,0.0,1.0,0.0,?,0.0,0.0
1100000.0,2.59375,4.1000118168691794E-8,1100000.0,86.4,66.9149665987126,70.43478260869564,57.097791798107245,219600.0,1112.0,0.0,1.0,0.0,?,0.0,0.0
1200000.0,2.828125,4.653712191308538E-8,1200000.0,88.9,71.04851330203444,72.92682926829269,60.35714285714286,239600.0,1112.0,0.0,1.0,0.0,?,0.0,0.0
1300000.0,3.078125,5.182237752402822E-8,1300000.0,90.2,74.72963285766596,76.6109785202864,66.5529010238908,259600.0,1112.0,0.0,1.0,0.0,?,0.0,0.0
1400000.0,3.3125,5.619522805015246E-8,1400000.0,87.5,69.24969249692496,69.51219512195122,60.06389776357827,279600.0,1112.0,0.0,1.0,0.0,?,0.0,0.0
1500000.0,3.546875,5.998600196714203E-8,1500000.0,87.9,68.53514182589791,69.59798994974875,57.24381625441697,299600.0,1112.0,0.0,1.0,0.0,?,0.0,0.0
1600000.0,3.78125,6.319469927499692E-8,1600000.0,87.8,68.30707843218754,70.88305489260144,58.7837837837838,319600.0,1112.0,0.0,1.0,0.0,?,0.0,0.0
1700000.0,4.03125,6.599642802029849E-8,1700000.0,86.5,65.53907103546159,67.3913043478261,55.88235294117647,339600.0,1112.0,0.0,1.0,0.0,?,0.0,0.0
1800000.0,4.25,6.790466917057833E-8,1800000.0,87.2,66.77878825630165,68.1592039800995,55.244755244755254,359600.0,1112.0,0.0,1.0,0.0,?,0.0,0.0
1900000.0,4.484375,6.93671366510292E-8,1900000.0,86.9,66.67243326854387,69.39252336448598,56.18729096989967,379600.0,1112.0,0.0,1.0,0.0,?,0.0,0.0
2000000.0,4.71875,7.024752752234539E-8,2000000.0,87.2,64.47286615152322,65.4054054054054,51.515151515151516,399600.0,1112.0,0.0,1.0,0.0,?,0.0,0.0
2100000.0,4.953125,7.6372428641965E-8,2100000.0,88.5,71.1712976425642,72.81323877068559,61.79401993355482,419400.0,1112.0,0.0,1.0,0.0,?,0.0,0.0
2200000.0,5.203125,8.228477478648225E-8,2200000.0,88.5,68.91118872800804,71.46401985111663,58.63309352517986,439400.0,1112.0,0.0,1.0,0.0,?,0.0,0.0
2300000.0,5.4375,8.724552268783251E-8,2300000.0,86.4,66.16578764056126,67.5417661097852,56.12903225806451,459400.0,1112.0,0.0,1.0,0.0,?,0.0,0.0
2400000.0,5.671875,9.162419398004809E-8,2400000.0,87.3,66.32407377944654,65.67567567567568,54.48028673835126,479400.0,1112.0,0.0,1.0,0.0,?,0.0,0.0
2500000.0,5.90625,9.5420788663129E-8,2500000.0,87.5,67.21638236713456,70.30878859857482,57.04467353951891,499400.0,1112.0,0.0,1.0,0.0,?,0.0,0.0
2600000.0,6.140625,9.863530673707523E-8,2600000.0,86.2,66.36115444617784,67.37588652482269,58.181818181818166,519400.0,1112.0,0.0,1.0,0.0,?,0.0,0.0
2700000.0,6.375,1.0126774820188679E-7,2700000.0,88.8,71.7741935483871,74.6606334841629,62.66666666666667,539400.0,1112.0,0.0,1.0,0.0,?,0.0,0.0
2800000.0,6.609375,1.0331811305756367E-7,2800000.0,88.1,67.06010009300677,69.94949494949495,55.59701492537313,559400.0,1112.0,0.0,1.0,0.0,?,0.0,0.0
2900000.0,6.84375,1.0478640130410588E-7,2900000.0,86.8,65.89482169709434,67.56756756756756,55.85284280936455,579400.0,1112.0,0.0,1.0,0.0,?,0.0,0.0
3000000.0,7.078125,1.0567261294151342E-7,3000000.0,86.8,66.46341463414633,69.5150115473441,57.41935483870968,599400.0,1112.0,0.0,1.0,0.0,?,0.0,0.0
3100000.0,7.3125,1.1180333482722437E-7,3100000.0,87.3,68.54380089959776,68.87254901960785,58.89967637540454,619200.0,1112.0,0.0,1.0,0.0,?,0.0,0.0
3200000.0,7.5625,1.1772188978890574E-7,3200000.0,85.6,64.35855295725005,66.35514018691589,54.14012738853502,639200.0,1112.0,0.0,1.0,0.0,?,0.0,0.0
3300000.0,7.796875,1.2268845845634735E-7,3300000.0,86.7,65.27777777777777,66.66666666666666,53.333333333333336,659200.0,1112.0,0.0,1.0,0.0,?,0.0,0.0
3400000.0,8.046875,1.273652499852081E-7,3400000.0,87.9,67.09273864563502,70.91346153846155,56.00000000000001,679200.0,1112.0,0.0,1.0,0.0,?,0.0,0.0
3500000.0,8.28125,1.3116766543438034E-7,3500000.0,86.6,64.019697872866,64.92146596858639,50.91575091575091,699200.0,1112.0,0.0,1.0,0.0,?,0.0,0.0
3600000.0,8.515625,1.343880042744179E-7,3600000.0,86.2,64.86761710794298,68.56492027334852,54.0,719200.0,1112.0,0.0,1.0,0.0,?,0.0,0.0
3700000.0,8.734375,1.3685038235659396E-7,3700000.0,87.8,67.95545282622399,69.5,57.931034482758626,739200.0,1112.0,0.0,1.0,0.0,?,0.0,0.0
3800000.0,8.96875,1.3890656797836218E-7,3800000.0,86.8,66.86281204185327,69.23076923076923,56.86274509803923,759200.0,1112.0,0.0,1.0,0.0,?,0.0,0.0
3900000.0,9.21875,1.4047895092517131E-7,3900000.0,87.8,69.17074354101807,70.31630170316302,59.86842105263158,779200.0,1112.0,0.0,1.0,0.0,?,0.0,0.0
4000000.0,9.453125,1.413709833286702E-7,4000000.0,86.8,66.71508109416607,70.33707865168539,55.70469798657719,799200.0,1112.0,0.0,1.0,0.0,?,0.0,0.0
4100000.0,9.6875,1.475075259804725E-7,4100000.0,86.1,64.51909332244232,66.50602409638554,52.88135593220339,819000.0,1112.0,0.0,1.0,0.0,?,0.0,0.0
4200000.0,9.9375,1.5343228975931798E-7,4200000.0,86.9,67.17285621209844,67.33167082294264,55.442176870748305,839000.0,1112.0,0.0,1.0,0.0,?,0.0,0.0
4300000.0,10.171875,1.5840467919285095E-7,4300000.0,85.3,63.03635010359881,64.91646778042958,50.505050505050505,859000.0,1112.0,0.0,1.0,0.0,?,0.0,0.0
4400000.0,10.421875,1.6308767953887578E-7,4400000.0,88.4,71.29906375566597,71.84466019417476,61.58940397350994,879000.0,1112.0,0.0,1.0,0.0,?,0.0,0.0
4500000.0,10.65625,1.668959157541394E-7,4500000.0,86.6,65.67693284973669,66.33165829145729,54.421768707483,899000.0,1112.0,0.0,1.0,0.0,?,0.0,0.0
4600000.0,10.890625,1.7012207536026834E-7,4600000.0,86.8,66.6437553066753,69.23076923076923,56.57894736842106,919000.0,1112.0,0.0,1.0,0.0,?,0.0,0.0
4700000.0,11.125,1.727661583572626E-7,4700000.0,87.9,68.75516443563046,71.86046511627907,58.56164383561645,939000.0,1112.0,0.0,1.0,0.0,?,0.0,0.0
4800000.0,11.359375,1.748281647451222E-7,4800000.0,88.3,69.77993594379586,70.8955223880597,58.65724381625442,959000.0,1112.0,0.0,1.0,0.0,?,0.0,0.0
4900000.0,11.578125,1.7620943253859878E-7,4900000.0,89.2,72.21650545379707,75.22935779816514,62.237762237762254,979000.0,1112.0,0.0,1.0,0.0,?,0.0,0.0
5000000.0,11.828125,1.7721577832061383E-7,5000000.0,88.2,69.33424117839677,70.71960297766749,59.169550173010386,999000.0,1112.0,0.0,1.0,0.0,?,0.0,0.0
5100000.0,12.0625,1.8339646178194219E-7,5100000.0,89.1,77.95806775164202,78.1124497991968,75.83148558758315,16658.0,1112.0,0.0,1.0,0.0,?,2.0,8.0
5200000.0,12.296875,1.8900234459175005E-7,5200000.0,89.60000000000001,79.1845966014851,79.44664031620555,78.68852459016394,36658.0,1112.0,0.0,1.0,0.0,?,0.0,12.0
5300000.0,12.53125,1.9402615079242323E-7,5300000.0,87.5,74.70413961695996,74.64503042596348,72.64770240700219,56658.0,1112.0,0.0,1.0,0.0,?,0.0,46.0
5400000.0,12.765625,1.9846788038396174E-7,5400000.0,87.5,74.81889751089838,76.0536398467433,73.34754797441364,76658.0,1112.0,0.0,1.0,0.0,?,0.0,8.0
5500000.0,13.015625,2.025848435651925E-7,5500000.0,86.7,73.12153914554787,72.80163599182004,71.2742980561555,96658.0,1112.0,0.0,1.0,0.0,?,0.0,4.0
5600000.0,13.25,2.0586241993846166E-7,5600000.0,86.8,73.40339791740547,73.49397590361446,72.03389830508475,116658.0,1112.0,0.0,1.0,0.0,?,0.0,0.0
5700000.0,13.5,2.0873761968687177E-7,5700000.0,89.3,78.06298179432508,77.33050847457628,75.00000000000001,136658.0,1112.0,0.0,1.0,0.0,?,0.0,0.0
5800000.0,13.734375,2.1085104284187159E-7,5800000.0,87.8,75.33759197865287,74.58333333333333,73.59307359307358,156658.0,1112.0,0.0,1.0,0.0,?,0.0,0.0
5900000.0,13.953125,2.1228029961801238E-7,5900000.0,88.2,75.93094220162527,76.6798418972332,73.30316742081448,176658.0,1112.0,0.0,1.0,0.0,?,0.0,0.0
6000000.0,14.171875,2.1316628489229414E-7,6000000.0,88.4,76.40242810877668,76.75350701402806,73.99103139013454,196658.0,1112.0,0.0,1.0,0.0,?,0.0,0.0
6100000.0,14.390625,2.1894714639832575E-7,6100000.0,87.9,75.60975609756098,77.34082397003745,73.7527114967462,216458.0,1112.0,0.0,1.0,0.0,?,0.0,0.0
6200000.0,14.609375,2.2418473640249834E-7,6200000.0,89.1,78.062584026341,77.05263157894737,76.85774946921444,236458.0,1112.0,0.0,1.0,0.0,?,0.0,0.0
6300000.0,14.859375,2.2954967183371384E-7,6300000.0,89.4,78.57858828855046,78.714859437751,77.05627705627705,256458.0,1112.0,0.0,1.0,0.0,?,0.0,0.0
6400000.0,15.078125,2.3370071883416836E-7,6400000.0,88.3,76.43048807020088,75.67567567567568,75.15923566878982,276458.0,1112.0,0.0,1.0,0.0,?,0.0,0.0
6500000.0,15.3125,2.3756619258266354E-7,6500000.0,87.8,75.27932338292328,75.45271629778672,73.06843267108167,296458.0,1112.0,0.0,1.0,0.0,?,0.0,0.0
6600000.0,15.546875,2.4084958972202405E-7,6600000.0,88.9,77.45973211602349,78.27788649706459,75.27839643652561,316458.0,1112.0,0.0,1.0,0.0,?,0.0,0.0
6700000.0,15.78125,2.435509102522499E-7,6700000.0,87.8,75.47433046932483,76.53846153846155,74.53027139874739,336458.0,1112.0,0.0,1.0,0.0,?,0.0,0.0
6800000.0,16.03125,2.458114371014138E-7,6800000.0,87.8,75.35353535353535,74.20718816067652,72.88888888888889,356458.0,1112.0,0.0,1.0,0.0,?,0.0,0.0
6900000.0,16.265625,2.473486044133703E-7,6900000.0,88.4,76.4912835353867,76.03305785123968,74.27937915742794,376458.0,1112.0,0.0,1.0,0.0,?,0.0,0.0
7000000.0,16.5,2.4830369511619214E-7,7000000.0,87.5,74.07607117673898,72.76688453159042,69.28746928746929,396458.0,1112.0,0.0,1.0,0.0,?,0.0,0.0
7100000.0,16.734375,2.5450329606731736E-7,7100000.0,88.4,76.69821781541775,77.9467680608365,75.52742616033755,416258.0,1112.0,0.0,1.0,0.0,?,0.0,0.0
7200000.0,16.96875,2.601208204093079E-7,7200000.0,88.8,77.16289786513876,77.0961145194274,74.8314606741573,436258.0,1112.0,0.0,1.0,0.0,?,0.0,0.0
7300000.0,17.203125,2.651562681421638E-7,7300000.0,87.1,74.0455189286634,72.43589743589743,72.49466950959487,456258.0,1112.0,0.0,1.0,0.0,?,0.0,0.0
7400000.0,17.4375,2.6960963926588497E-7,7400000.0,87.4,74.14472388206711,74.54545454545455,70.56074766355141,476258.0,1112.0,0.0,1.0,0.0,?,0.0,0.0
7500000.0,17.671875,2.734809337804715E-7,7500000.0,87.6,74.51831393437233,75.44554455445545,70.75471698113208,496258.0,1112.0,0.0,1.0,0.0,?,0.0,0.0
7600000.0,17.90625,2.7677015168592334E-7,7600000.0,87.2,74.43762781186093,74.80314960629921,74.70355731225297,516258.0,1112.0,0.0,1.0,0.0,?,0.0,0.0
7700000.0,18.140625,2.794772929822405E-7,7700000.0,89.1,77.95967226639274,79.54971857410882,75.93818984547461,536258.0,1112.0,0.0,1.0,0.0,?,0.0,0.0
7800000.0,18.375,2.81602357669423E-7,7800000.0,89.2,77.55676268770235,77.77777777777779,73.46437346437347,556258.0,1112.0,0.0,1.0,0.0,?,0.0,0.0
7900000.0,18.609375,2.8314534574747083E-7,7900000.0,87.7,75.1838012767228,74.48132780082987,73.66167023554604,576258.0,1112.0,0.0,1.0,0.0,?,0.0,0.0
8000000.0,18.84375,2.84106257216384E-7,8000000.0,88.4,76.67282021581663,77.77777777777779,75.3715498938429,596258.0,1112.0,0.0,1.0,0.0,?,0.0,0.0
8100000.0,19.078125,2.9031167893360057E-7,8100000.0,87.6,74.97426789642576,74.05857740585773,72.98474945533769,616058.0,1112.0,0.0,1.0,0.0,?,0.0,0.0
8200000.0,19.296875,2.9556013436781034E-7,8200000.0,86.8,73.36217752090666,74.01574803149606,71.55172413793103,636058.0,1112.0,0.0,1.0,0.0,?,0.0,0.0
8300000.0,19.53125,3.006014028667576E-7,8300000.0,88.4,76.5129887221851,77.56286266924565,74.39293598233996,656058.0,1112.0,0.0,1.0,0.0,?,0.0,0.0
8400000.0,19.75,3.0476331529724926E-7,8400000.0,89.5,78.69577567666275,79.04191616766467,77.07423580786026,676058.0,1112.0,0.0,1.0,0.0,?,0.0,0.0
8500000.0,20.0,3.088989049299723E-7,8500000.0,87.9,75.24448627194239,74.4186046511628,72.11981566820278,696058.0,1112.0,0.0,1.0,0.0,?,0.0,0.0
8600000.0,20.234375,3.121939436015155E-7,8600000.0,86.9,73.53321480523678,73.58870967741935,71.52173913043478,716058.0,1112.0,0.0,1.0,0.0,?,0.0,0.0
8700000.0,20.453125,3.1472604152643013E-7,8700000.0,87.9,75.00929406419101,75.50607287449392,71.86046511627907,736058.0,1112.0,0.0,1.0,0.0,?,0.0,0.0
8800000.0,20.703125,3.169989860099222E-7,8800000.0,89.1,77.9395097309025,78.2,76.25272331154684,756058.0,1112.0,0.0,1.0,0.0,?,0.0,0.0
8900000.0,20.9375,3.185477948540614E-7,8900000.0,88.8,77.37556561085974,78.25242718446603,75.65217391304347,776058.0,1112.0,0.0,1.0,0.0,?,0.0,0.0
9000000.0,21.15625,3.194500782733989E-7,9000000.0,88.3,76.40443999870931,77.41312741312741,74.73002159827213,796058.0,1112.0,0.0,1.0,0.0,?,0.0,0.0
9100000.0,21.375,3.2524723792448634E-7,9100000.0,87.5,74.74808691506468,74.84909456740442,72.64770240700219,815858.0,1112.0,0.0,1.0,0.0,?,0.0,0.0
9200000.0,21.609375,3.3087640379865957E-7,9200000.0,87.0,73.74193574449691,73.94789579158316,71.8004338394794,835858.0,1112.0,0.0,1.0,0.0,?,0.0,0.0
9300000.0,21.828125,3.355870204460289E-7,9300000.0,86.7,73.05597873650773,73.71541501976284,69.97742663656884,855858.0,1112.0,0.0,1.0,0.0,?,0.0,0.0
9400000.0,22.078125,3.403497006123264E-7,9400000.0,88.7,77.0660821561942,77.21774193548387,74.54954954954955,875858.0,1112.0,0.0,1.0,0.0,?,0.0,0.0
9500000.0,22.3125,3.442326366590956E-7,9500000.0,89.2,78.189308722257,78.22580645161291,76.77419354838709,895858.0,1112.0,0.0,1.0,0.0,?,0.0,0.0
9600000.0,22.546875,3.475334960967301E-7,9600000.0,87.4,74.63523045704899,74.49392712550608,73.69519832985387,915858.0,1112.0,0.0,1.0,0.0,?,0.0,0.0
9700000.0,22.78125,3.5025227892523E-7,9700000.0,89.0,77.46049439381024,78.76447876447877,74.53703703703705,935858.0,1112.0,0.0,1.0,0.0,?,0.0,0.0
9800000.0,23.015625,3.5238898514459516E-7,9800000.0,89.1,77.97570457539584,78.54330708661418,76.40692640692642,955858.0,1112.0,0.0,1.0,0.0,?,0.0,0.0
9900000.0,23.25,3.5394361475482567E-7,9900000.0,89.4,78.7016013984609,79.96219281663517,77.8705636743215,975858.0,1112.0,0.0,1.0,0.0,?,0.0,0.0
1.0E7,23.484375,3.549161677559215E-7,1.0E7,88.8,77.32132443465302,77.04918032786885,75.22123893805309,995858.0,1112.0,0.0,1.0,0.0,?,0.0,0.0
