learning evaluation instances,evaluation time (cpu seconds),model cost (RAM-Hours),classified instances,classifications correct (percent),Kappa Statistic (percent),Kappa Temporal Statistic (percent),Kappa M Statistic (percent),model training instances,model serialized size (bytes),labeling cost,newThreshold,maxPosterior,accuracyBaseLearner (percent),Change detected,Warning detected,tree size (nodes),tree size (leaves),active learning leaves,tree depth,active leaf byte size estimate,inactive leaf byte size estimate,byte size estimate overhead
100000.0,0.421875,2.9763614293187855E-8,100000.0,69.39999999999999,38.904839295768454,33.18777292576417,14.285714285714269,21662.0,93472.0,0.0,1.0,0.0,?,1.0,136.0,27.0,23.0,23.0,3.0,0.0,0.0,1.0
200000.0,0.796875,5.4847235636164744E-8,200000.0,74.2,48.22458489361958,45.222929936305725,31.926121372031663,51662.0,93712.0,0.0,1.0,0.0,?,0.0,0.0,29.0,24.0,24.0,3.0,0.0,0.0,1.0
300000.0,1.265625,8.389285843198499E-8,300000.0,61.8,18.111505547838316,22.828282828282827,0.0,12838.0,88456.0,0.0,1.0,0.0,?,1.0,37.0,23.0,21.0,21.0,2.0,0.0,0.0,1.0
400000.0,1.6875,1.303984511954089E-7,400000.0,60.9,14.913433667296278,20.68965517241379,-6.830601092896181,42838.0,289064.0,0.0,1.0,0.0,?,0.0,0.0,97.0,79.0,79.0,4.0,0.0,0.0,1.0
500000.0,2.09375,1.8637908700232704E-7,500000.0,60.9,18.30338487254492,18.200836820083676,0.5089058524173032,72838.0,409552.0,0.0,1.0,0.0,?,0.0,0.0,126.0,97.0,97.0,5.0,0.0,0.0,1.0
600000.0,2.515625,2.468073701796432E-7,600000.0,64.60000000000001,28.185694752686953,26.25,9.923664122137414,102838.0,444776.0,0.0,1.0,0.0,?,0.0,0.0,144.0,106.0,106.0,6.0,0.0,0.0,1.0
700000.0,2.90625,3.049907779010633E-7,700000.0,62.4,22.985223813951972,18.260869565217387,-3.5812672176308578,132838.0,481112.0,0.0,1.0,0.0,?,0.0,0.0,159.0,115.0,115.0,6.0,0.0,0.0,1.0
800000.0,3.296875,3.6307151377614997E-7,800000.0,64.5,25.800518351308423,23.491379310344826,1.3888888888888902,162838.0,494408.0,0.0,1.0,0.0,?,0.0,0.0,169.0,120.0,120.0,7.0,0.0,0.0,1.0
900000.0,3.703125,4.2545466890765555E-7,900000.0,66.0,29.592922846268234,29.89690721649485,12.596401028277645,192838.0,527472.0,0.0,1.0,0.0,?,0.0,0.0,183.0,127.0,127.0,8.0,0.0,0.0,1.0
1000000.0,4.109375,4.894008290850454E-7,1000000.0,65.10000000000001,29.00385698244016,26.371308016877638,10.96938775510205,222838.0,556568.0,0.0,1.0,0.0,?,0.0,0.0,199.0,135.0,135.0,9.0,0.0,0.0,1.0
1100000.0,4.515625,5.736534431990649E-7,1100000.0,63.0,24.150796416637622,20.430107526881716,3.8961038961038996,252538.0,619808.0,0.0,1.0,0.0,?,0.0,0.0,224.0,151.0,151.0,9.0,0.0,0.0,1.0
1200000.0,4.953125,6.799191598676973E-7,1200000.0,66.4,31.645075190417295,30.145530145530152,8.695652173913052,282538.0,770680.0,0.0,1.0,0.0,?,0.0,0.0,296.0,190.0,190.0,9.0,0.0,0.0,1.0
1300000.0,5.359375,7.915197380094064E-7,1300000.0,67.2,32.72070889399409,36.18677042801558,17.171717171717184,312538.0,907448.0,0.0,1.0,0.0,?,0.0,0.0,349.0,220.0,220.0,10.0,0.0,0.0,1.0
1400000.0,5.796875,9.24726288455228E-7,1400000.0,68.10000000000001,33.9013534682105,26.49769585253458,11.878453038674044,342538.0,1036216.0,0.0,1.0,0.0,?,0.0,0.0,410.0,252.0,252.0,10.0,0.0,0.0,1.0
1500000.0,6.203125,1.0550450921679537E-6,1500000.0,71.1,40.03154050464806,35.63474387527838,25.322997416020666,372538.0,1113368.0,0.0,1.0,0.0,?,0.0,0.0,445.0,273.0,273.0,10.0,0.0,0.0,1.0
1600000.0,6.625,1.1967769629942875E-6,1600000.0,68.5,36.20692448520001,31.52173913043479,19.02313624678665,402538.0,1186048.0,0.0,1.0,0.0,?,0.0,0.0,480.0,292.0,292.0,10.0,0.0,0.0,1.0
1700000.0,7.046875,1.343056889406095E-6,1700000.0,70.3,40.17500322289544,36.67377398720681,23.650385604113104,432538.0,1241744.0,0.0,1.0,0.0,?,0.0,0.0,522.0,313.0,313.0,11.0,0.0,0.0,1.0
1800000.0,7.5,1.5058216134396694E-6,1800000.0,67.0,33.877276224673,32.098765432098766,14.06250000000001,462538.0,1303968.0,0.0,1.0,0.0,?,0.0,0.0,554.0,329.0,329.0,11.0,0.0,0.0,1.0
1900000.0,7.921875,1.6626155896422766E-6,1900000.0,69.69999999999999,39.23520587834205,34.83870967741934,21.70542635658914,492538.0,1366128.0,0.0,1.0,0.0,?,0.0,0.0,594.0,349.0,349.0,11.0,0.0,0.0,1.0
2000000.0,8.34375,1.8253179344659051E-6,2000000.0,68.8,36.553126588713766,32.75862068965515,16.799999999999983,522538.0,1434240.0,0.0,1.0,0.0,?,0.0,0.0,636.0,370.0,370.0,11.0,0.0,0.0,1.0
2100000.0,8.78125,2.0142587082874445E-6,2100000.0,72.0,42.29873593016498,43.20486815415821,26.892950391644906,552238.0,1482808.0,0.0,1.0,0.0,?,0.0,0.0,660.0,382.0,382.0,11.0,0.0,0.0,1.0
2200000.0,9.203125,2.2003902187053527E-6,2200000.0,73.6,45.364238410596016,44.53781512605042,26.66666666666666,582238.0,1532976.0,0.0,1.0,0.0,?,0.0,0.0,692.0,398.0,398.0,11.0,0.0,0.0,1.0
2300000.0,9.671875,2.414673961336828E-6,2300000.0,74.4,46.92232413873178,41.4187643020595,30.054644808743163,612238.0,1608656.0,0.0,1.0,0.0,?,0.0,0.0,733.0,422.0,422.0,11.0,0.0,0.0,1.0
2400000.0,10.203125,2.6691602478321227E-6,2400000.0,74.6,48.88410376124448,48.99598393574297,36.02015113350126,642238.0,1707112.0,0.0,1.0,0.0,?,0.0,0.0,785.0,448.0,448.0,11.0,0.0,0.0,1.0
2500000.0,10.75,2.938250545412302E-6,2500000.0,71.6,43.38118022328549,41.68377823408623,28.999999999999996,672238.0,1771464.0,0.0,1.0,0.0,?,0.0,0.0,821.0,466.0,466.0,12.0,0.0,0.0,1.0
2600000.0,11.3125,3.2311014365404845E-6,2600000.0,75.9,51.74556900183407,48.060344827586206,40.64039408866996,702238.0,1895568.0,0.0,1.0,0.0,?,0.0,0.0,891.0,501.0,501.0,12.0,0.0,0.0,1.0
2700000.0,11.859375,3.5250373508056832E-6,2700000.0,75.6,50.288287187009765,44.92099322799096,33.87533875338754,732238.0,1974816.0,0.0,1.0,0.0,?,0.0,0.0,926.0,522.0,522.0,12.0,0.0,0.0,1.0
2800000.0,12.390625,3.815246778281613E-6,2800000.0,77.4,54.35247163187895,50.76252723311547,39.08355795148248,762238.0,2022920.0,0.0,1.0,0.0,?,0.0,0.0,954.0,536.0,536.0,12.0,0.0,0.0,1.0
2900000.0,12.9375,4.116547416843888E-6,2900000.0,77.2,53.33224168986409,53.564154786150716,38.37837837837838,792238.0,2055192.0,0.0,1.0,0.0,?,0.0,0.0,974.0,546.0,546.0,12.0,0.0,0.0,1.0
3000000.0,13.484375,4.4250905436153215E-6,3000000.0,75.8,51.09154773020319,47.8448275862069,37.46770025839793,822238.0,2120440.0,0.0,1.0,0.0,?,0.0,0.0,1007.0,564.0,564.0,12.0,0.0,0.0,1.0
3100000.0,14.078125,4.790497413422498E-6,3100000.0,75.8,51.8802494273352,48.9451476793249,38.88888888888889,851938.0,2188368.0,0.0,1.0,0.0,?,0.0,0.0,1042.0,583.0,583.0,12.0,0.0,0.0,1.0
3200000.0,14.625,5.134457314852625E-6,3200000.0,76.9,53.19148936170214,51.774530271398746,38.400000000000006,881938.0,2254720.0,0.0,1.0,0.0,?,0.0,0.0,1076.0,600.0,600.0,12.0,0.0,0.0,1.0
3300000.0,15.1875,5.494574143085628E-6,3300000.0,78.60000000000001,56.71818685608191,55.601659751037346,43.535620052770454,911938.0,2312328.0,0.0,1.0,0.0,?,0.0,0.0,1103.0,615.0,615.0,12.0,0.0,0.0,1.0
3400000.0,15.75,5.8668575366027645E-6,3400000.0,78.4,56.14195387595483,55.0935550935551,43.00791556728233,941938.0,2409864.0,0.0,1.0,0.0,?,0.0,0.0,1144.0,637.0,637.0,12.0,0.0,0.0,1.0
3500000.0,16.328125,6.256929094282288E-6,3500000.0,78.5,56.67244367417679,52.328159645232816,45.569620253164565,971938.0,2473696.0,0.0,1.0,0.0,?,0.0,0.0,1185.0,659.0,659.0,12.0,0.0,0.0,1.0
3600000.0,16.96875,6.694473914750333E-6,3600000.0,78.3,56.30884212391377,52.20264317180617,43.04461942257219,1001938.0,2519840.0,0.0,1.0,0.0,?,0.0,0.0,1209.0,671.0,671.0,12.0,3652.1490312965725,0.0,1.0280095585066793
3700000.0,17.546875,7.0982046114901695E-6,3700000.0,78.8,56.528871391076116,53.91304347826087,41.11111111111112,1031938.0,2593144.0,0.0,1.0,0.0,?,0.0,0.0,1247.0,690.0,690.0,12.0,3652.1490312965725,0.0,1.0280095585066793
3800000.0,18.140625,7.5228668154320774E-6,3800000.0,77.3,54.04188464715506,49.21700223713646,38.31521739130435,1061938.0,2672360.0,0.0,1.0,0.0,?,0.0,0.0,1294.0,715.0,715.0,12.0,3652.1490312965725,0.0,1.0280095585066793
3900000.0,18.734375,7.953394217313163E-6,3900000.0,77.4,53.36456119353707,52.421052631578945,38.08219178082192,1091938.0,2724632.0,0.0,1.0,0.0,?,0.0,0.0,1324.0,730.0,730.0,12.0,3652.1490312965725,0.0,1.0280095585066793
4000000.0,19.34375,8.399592220990193E-6,4000000.0,80.60000000000001,60.408971245484786,59.32914046121594,50.128534704370196,1121938.0,2766312.0,0.0,1.0,0.0,?,0.0,0.0,1348.0,742.0,742.0,12.0,3652.1490312965725,0.0,1.0280095585066793
4100000.0,19.953125,8.87718569073412E-6,4100000.0,80.2,59.735638027452985,57.872340425531924,47.20000000000002,1151638.0,2835296.0,0.0,1.0,0.0,?,0.0,0.0,1390.0,763.0,763.0,12.0,3652.1490312965725,0.0,1.0280095585066793
4200000.0,20.578125,9.376692792607678E-6,4200000.0,78.7,56.68231255440133,54.58422174840085,45.52429667519183,1181638.0,2909112.0,0.0,1.0,0.0,?,0.0,0.0,1431.0,785.0,785.0,12.0,3652.1490312965725,0.0,1.0280095585066793
4300000.0,21.203125,9.884804280267822E-6,4300000.0,79.2,57.95516565260457,55.65031982942431,45.974025974025984,1211638.0,2976352.0,0.0,1.0,0.0,?,0.0,0.0,1472.0,807.0,807.0,12.0,3652.1490312965725,0.0,1.0280095585066793
4400000.0,21.84375,1.0416542160479973E-5,4400000.0,80.7,60.563311210645054,59.453781512605055,51.26262626262628,1241638.0,3056248.0,0.0,1.0,0.0,?,0.0,0.0,1515.0,830.0,830.0,12.0,3652.1490312965725,0.0,1.0280095585066793
4500000.0,22.4375,1.0916373026298566E-5,4500000.0,78.60000000000001,54.925353014524994,53.47826086956522,35.92814371257485,1271638.0,3115912.0,0.0,1.0,0.0,?,0.0,0.0,1548.0,848.0,848.0,12.0,3652.1490312965725,0.0,1.0280095585066793
4600000.0,22.96875,1.1372804842216687E-5,4600000.0,81.69999999999999,62.03666055380835,59.69162995594712,49.999999999999986,1301638.0,3196960.0,0.0,1.0,0.0,?,0.0,0.0,1587.0,869.0,869.0,13.0,3652.1490312965725,0.0,1.0280095585066793
4700000.0,23.515625,1.185055553732026E-5,4700000.0,80.7,60.236356743749084,59.11016949152543,48.67021276595746,1331638.0,3266800.0,0.0,1.0,0.0,?,0.0,0.0,1617.0,884.0,884.0,13.0,3652.1490312965725,0.0,1.0280095585066793
4800000.0,24.109375,1.2378576955395854E-5,4800000.0,83.8,66.62436339063504,66.10878661087865,56.68449197860962,1361638.0,3341440.0,0.0,1.0,0.0,?,0.0,0.0,1659.0,905.0,905.0,13.0,3652.1490312965725,0.0,1.0280095585066793
4900000.0,24.65625,1.2871843710955646E-5,4900000.0,79.9,57.92584901868847,57.684210526315795,45.96774193548388,1391638.0,3404448.0,0.0,1.0,0.0,?,0.0,0.0,1699.0,925.0,925.0,13.0,3652.1490312965725,0.0,1.0280095585066793
5000000.0,25.1875,1.3359280807587007E-5,5000000.0,80.4,59.27272727272728,57.66738660907128,47.73333333333334,1421638.0,3475344.0,0.0,1.0,0.0,?,0.0,0.0,1737.0,944.0,944.0,13.0,3652.1490312965725,0.0,1.0280095585066793
5100000.0,25.65625,1.339058003698786E-5,5100000.0,97.89999999999999,95.71253572886891,95.61586638830897,95.13888888888889,25067.0,78816.0,0.0,1.0,0.0,?,2.0,5.0,32.0,18.0,18.0,4.0,0.0,0.0,1.0
5200000.0,25.90625,1.3408271544095543E-5,5200000.0,97.8,95.56079292309678,95.71984435797664,95.13274336283185,55067.0,108488.0,0.0,1.0,0.0,?,0.0,0.0,46.0,25.0,25.0,5.0,0.0,0.0,1.0
5300000.0,26.15625,1.342503379823433E-5,5300000.0,96.8,93.5629224332153,93.34719334719334,93.04347826086956,85067.0,108520.0,0.0,1.0,0.0,?,0.0,0.0,46.0,25.0,25.0,5.0,0.0,0.0,1.0
5400000.0,26.40625,1.3440864729798502E-5,5400000.0,97.8,95.57308435286542,95.65217391304347,95.21739130434781,115067.0,108520.0,0.0,1.0,0.0,?,0.0,0.0,46.0,25.0,25.0,5.0,0.0,0.0,1.0
5500000.0,26.625,1.3453901887664363E-5,5500000.0,97.3,94.57107468592662,94.39834024896265,94.16846652267819,145067.0,108520.0,0.0,1.0,0.0,?,0.0,0.0,46.0,25.0,25.0,5.0,0.0,0.0,1.0
5600000.0,26.859375,1.3466997156178371E-5,5600000.0,97.2,94.35665914221218,94.48818897637796,93.80530973451326,175067.0,108520.0,0.0,1.0,0.0,?,0.0,0.0,46.0,25.0,25.0,5.0,0.0,0.0,1.0
5700000.0,27.109375,1.3480034120018696E-5,5700000.0,96.6,93.08698604791125,93.06122448979592,92.14780600461893,205067.0,108520.0,0.0,1.0,0.0,?,0.0,0.0,46.0,25.0,25.0,5.0,0.0,0.0,1.0
5800000.0,27.359375,1.3492139761284406E-5,5800000.0,97.39999999999999,94.72657279966249,94.78957915831663,94.10430839002267,235067.0,108520.0,0.0,1.0,0.0,?,0.0,0.0,46.0,25.0,25.0,5.0,0.0,0.0,1.0
5900000.0,27.59375,1.3502615685057308E-5,5900000.0,96.6,93.19485531061483,92.87211740041928,93.19999999999999,265067.0,108520.0,0.0,1.0,0.0,?,0.0,0.0,46.0,25.0,25.0,5.0,0.0,0.0,1.0
6000000.0,27.828125,1.3512218493916507E-5,6000000.0,97.1,94.16184179799167,94.3579766536965,93.6542669584245,295067.0,108520.0,0.0,1.0,0.0,?,0.0,0.0,46.0,25.0,25.0,5.0,0.0,0.0,1.0
6100000.0,28.0625,1.3529688068148162E-5,6100000.0,97.0,93.98382853109158,94.20849420849422,93.64406779661016,324767.0,108520.0,0.0,1.0,0.0,?,0.0,0.0,46.0,25.0,25.0,5.0,0.0,0.0,1.0
6200000.0,28.296875,1.3546555193089362E-5,6200000.0,98.6,97.18631423242653,97.16024340770791,96.96969696969695,354767.0,112960.0,0.0,1.0,0.0,?,0.0,0.0,48.0,26.0,26.0,5.0,0.0,0.0,1.0
6300000.0,28.546875,1.3563915563281625E-5,6300000.0,97.6,95.19569534302735,95.33980582524272,95.04132231404958,384767.0,117576.0,0.0,1.0,0.0,?,0.0,0.0,50.0,27.0,27.0,5.0,0.0,0.0,1.0
6400000.0,28.78125,1.357931779542317E-5,6400000.0,97.1,94.1986076658398,94.5179584120983,94.16498993963782,414767.0,117576.0,0.0,1.0,0.0,?,0.0,0.0,50.0,27.0,27.0,5.0,0.0,0.0,1.0
6500000.0,29.015625,1.3594086534188439E-5,6500000.0,96.89999999999999,93.7875751503006,93.446088794926,93.50104821802935,444767.0,121504.0,0.0,1.0,0.0,?,0.0,0.0,52.0,28.0,28.0,5.0,0.0,0.0,1.0
6600000.0,29.25,1.3607982158040007E-5,6600000.0,96.8,93.5944656182942,93.7984496124031,93.3609958506224,474767.0,121504.0,0.0,1.0,0.0,?,0.0,0.0,52.0,28.0,28.0,5.0,0.0,0.0,1.0
6700000.0,29.484375,1.3621286974133303E-5,6700000.0,97.7,95.36973659840719,95.13742071881607,94.92273730684326,504767.0,126136.0,0.0,1.0,0.0,?,0.0,0.0,54.0,29.0,29.0,6.0,0.0,0.0,1.0
6800000.0,29.71875,1.363371964544058E-5,6800000.0,96.89999999999999,93.76332837082042,93.9453125,93.23144104803492,534767.0,126152.0,0.0,1.0,0.0,?,0.0,0.0,54.0,29.0,29.0,6.0,0.0,0.0,1.0
6900000.0,29.953125,1.3645522218818467E-5,6900000.0,96.5,92.9364278506559,93.01397205588822,92.22222222222221,564767.0,130136.0,0.0,1.0,0.0,?,0.0,0.0,56.0,30.0,30.0,6.0,0.0,0.0,1.0
7000000.0,30.1875,1.3656459923367948E-5,7000000.0,97.5,94.96227753417591,94.9290060851927,94.46902654867256,594767.0,130272.0,0.0,1.0,0.0,?,0.0,0.0,56.0,30.0,30.0,6.0,0.0,0.0,1.0
7100000.0,30.421875,1.367526681860909E-5,7100000.0,97.2,94.38362264362881,94.42231075697211,94.08033826638477,624467.0,130312.0,0.0,1.0,0.0,?,0.0,0.0,56.0,30.0,30.0,6.0,0.0,0.0,1.0
7200000.0,30.640625,1.3692005013581366E-5,7200000.0,96.7,93.39498018494055,93.49112426035502,93.23770491803278,654467.0,130312.0,0.0,1.0,0.0,?,0.0,0.0,56.0,30.0,30.0,6.0,0.0,0.0,1.0
7300000.0,30.890625,1.3710203056689353E-5,7300000.0,96.89999999999999,93.79056165371364,93.86138613861385,93.54166666666666,684467.0,130312.0,0.0,1.0,0.0,?,0.0,0.0,56.0,30.0,30.0,6.0,0.0,0.0,1.0
7400000.0,31.140625,1.3727469777222725E-5,7400000.0,97.8,95.58302113323616,95.71984435797664,95.30916844349679,714467.0,130312.0,0.0,1.0,0.0,?,0.0,0.0,56.0,30.0,30.0,6.0,0.0,0.0,1.0
7500000.0,31.390625,1.3743813453604366E-5,7500000.0,97.2,94.36916555055484,94.52054794520548,93.9524838012959,744467.0,130432.0,0.0,1.0,0.0,?,0.0,0.0,58.0,31.0,31.0,6.0,0.0,0.0,1.0
7600000.0,31.625,1.375850749253813E-5,7600000.0,97.6,95.18410755493126,95.39347408829174,94.94736842105263,774467.0,134456.0,0.0,1.0,0.0,?,0.0,0.0,58.0,31.0,31.0,6.0,0.0,0.0,1.0
7700000.0,31.875,1.3778105623916622E-5,7700000.0,97.8,95.57963093936861,95.80952380952381,95.25862068965517,804467.0,209456.0,0.0,1.0,0.0,?,0.0,0.0,78.0,50.0,50.0,7.0,0.0,0.0,1.0
7800000.0,32.125,1.3797240163613528E-5,7800000.0,97.1,94.1715103425544,94.16498993963782,93.88185654008439,834467.0,216672.0,0.0,1.0,0.0,?,0.0,0.0,78.0,50.0,50.0,7.0,0.0,0.0,1.0
7900000.0,32.359375,1.3814318291325539E-5,7900000.0,96.8,93.5899747204628,93.50912778904664,93.37474120082815,864467.0,216880.0,0.0,1.0,0.0,?,0.0,0.0,78.0,50.0,50.0,7.0,0.0,0.0,1.0
8000000.0,32.578125,1.3829445233568552E-5,8000000.0,97.6,95.13904360682965,95.0,94.58239277652369,894467.0,216920.0,0.0,1.0,0.0,?,0.0,0.0,78.0,50.0,50.0,7.0,0.0,0.0,1.0
8100000.0,32.8125,1.3853520892250045E-5,8100000.0,95.7,91.36317256782922,91.66666666666666,90.92827004219409,924167.0,216944.0,0.0,1.0,0.0,?,0.0,0.0,78.0,50.0,50.0,7.0,0.0,0.0,1.0
8200000.0,33.046875,1.3876961117299899E-5,8200000.0,97.89999999999999,95.78326800745357,95.56025369978857,95.51282051282051,954167.0,220840.0,0.0,1.0,0.0,?,0.0,0.0,80.0,51.0,51.0,7.0,0.0,0.0,1.0
8300000.0,33.296875,1.3901032701445126E-5,8300000.0,96.39999999999999,92.75921992662676,93.10344827586206,92.3076923076923,984167.0,220840.0,0.0,1.0,0.0,?,0.0,0.0,80.0,51.0,51.0,7.0,0.0,0.0,1.0
8400000.0,33.546875,1.3928711608362698E-5,8400000.0,97.2,94.37570303712035,94.52054794520548,94.04255319148935,1014167.0,290952.0,0.0,1.0,0.0,?,0.0,0.0,100.0,70.0,70.0,7.0,3128.5714285714284,0.0,1.017972602739726
8500000.0,33.78125,1.395440786533679E-5,8500000.0,97.1,94.16217086721957,94.12955465587044,93.74999999999999,1044167.0,301152.0,0.0,1.0,0.0,?,0.0,0.0,100.0,70.0,70.0,7.0,3128.5714285714284,0.0,1.017972602739726
8600000.0,34.03125,1.3983436155184694E-5,8600000.0,97.39999999999999,94.79175013220942,94.71544715447155,94.6058091286307,1074167.0,340632.0,0.0,1.0,0.0,?,0.0,0.0,120.0,89.0,89.0,7.0,3128.5714285714284,0.0,1.017972602739726
8700000.0,34.265625,1.4012227604527858E-5,8700000.0,96.5,92.9365989118326,92.75362318840578,92.32456140350877,1104167.0,380904.0,0.0,1.0,0.0,?,0.0,0.0,120.0,89.0,89.0,7.0,3128.5714285714284,0.0,1.017972602739726
8800000.0,34.515625,1.4042043379352743E-5,8800000.0,96.7,93.37024566253345,93.27902240325865,92.93361884368308,1134167.0,381464.0,0.0,1.0,0.0,?,0.0,0.0,120.0,89.0,89.0,7.0,3128.5714285714284,0.0,1.017972602739726
8900000.0,34.765625,1.4070935592624467E-5,8900000.0,97.2,94.39428216781116,94.45544554455445,94.22680412371133,1164167.0,381584.0,0.0,1.0,0.0,?,0.0,0.0,120.0,89.0,89.0,7.0,3128.5714285714284,0.0,1.017972602739726
9000000.0,35.0,1.409742832442539E-5,9000000.0,97.7,95.38167448435392,95.49902152641879,95.0959488272921,1194167.0,386168.0,0.0,1.0,0.0,?,0.0,0.0,122.0,90.0,90.0,7.0,3128.5714285714284,0.0,1.017972602739726
9100000.0,35.25,1.4139052752094969E-5,9100000.0,97.2,94.35221977933315,94.68690702087285,93.81898454746135,1223867.0,463000.0,0.0,1.0,0.0,?,0.0,0.0,142.0,109.0,109.0,7.0,3128.5714285714284,0.0,1.017972602739726
9200000.0,35.515625,1.4187542482330986E-5,9200000.0,96.8,93.57862967957361,93.62549800796812,93.24894514767932,1253867.0,539368.0,0.0,1.0,0.0,?,0.0,0.0,162.0,128.0,128.0,7.0,3128.5714285714284,0.0,1.017972602739726
9300000.0,35.765625,1.4232997232789386E-5,9300000.0,96.39999999999999,92.76259710182221,92.91338582677164,92.27467811158797,1283867.0,550904.0,0.0,1.0,0.0,?,0.0,0.0,164.0,129.0,129.0,7.0,3128.5714285714284,0.0,1.017972602739726
9400000.0,36.015625,1.4277534113110359E-5,9400000.0,95.89999999999999,91.7757879196354,91.16379310344827,91.40461215932913,1313867.0,551112.0,0.0,1.0,0.0,?,0.0,0.0,164.0,129.0,129.0,7.0,3128.5714285714284,0.0,1.017972602739726
9500000.0,36.28125,1.4323868316649982E-5,9500000.0,97.3,94.57892285204876,94.36325678496867,94.29175475687103,1343867.0,551160.0,0.0,1.0,0.0,?,0.0,0.0,164.0,129.0,129.0,7.0,3128.5714285714284,0.0,1.017972602739726
9600000.0,36.53125,1.4366547725836026E-5,9600000.0,98.0,95.9818217616497,96.13152804642165,95.75371549893843,1373867.0,551192.0,0.0,1.0,0.0,?,0.0,0.0,164.0,129.0,129.0,7.0,3128.5714285714284,0.0,1.017972602739726
9700000.0,36.796875,1.4410908366294788E-5,9700000.0,98.2,96.36796545531588,96.1864406779661,96.04395604395603,1403867.0,551240.0,0.0,1.0,0.0,?,0.0,0.0,164.0,129.0,129.0,7.0,3128.5714285714284,0.0,1.017972602739726
9800000.0,37.046875,1.4451729786944476E-5,9800000.0,97.6,95.18155499251134,95.30332681017613,94.86081370449678,1433867.0,551264.0,0.0,1.0,0.0,?,0.0,0.0,164.0,129.0,129.0,7.0,3128.5714285714284,0.0,1.017972602739726
9900000.0,37.296875,1.449162143722384E-5,9900000.0,96.7,93.35047433283091,93.34677419354837,92.85714285714285,1463867.0,551288.0,0.0,1.0,0.0,?,0.0,0.0,164.0,129.0,129.0,7.0,3128.5714285714284,0.0,1.017972602739726
1.0E7,37.546875,1.4530581764928588E-5,1.0E7,97.6,95.18814358579539,95.1417004048583,94.97907949790795,1493867.0,551288.0,0.0,1.0,0.0,?,0.0,0.0,164.0,129.0,129.0,7.0,3128.5714285714284,0.0,1.017972602739726
