learning evaluation instances,evaluation time (cpu seconds),model cost (RAM-Hours),classified instances,classifications correct (percent),Kappa Statistic (percent),Kappa Temporal Statistic (percent),Kappa M Statistic (percent),model training instances,model serialized size (bytes),labeling cost,newThreshold,maxPosterior,accuracyBaseLearner (percent),Change detected,Warning detected
100000.0,0.109375,4.741175669348902E-9,100000.0,59.099999999999994,16.77586866458843,17.373737373737367,9.91189427312774,19800.0,9208.0,0.0,1.0,0.0,?,0.0,16.0
200000.0,0.28125,1.1521786089158721E-8,200000.0,58.099999999999994,15.490116982654293,14.837398373983731,12.526096033402911,39800.0,9208.0,0.0,1.0,0.0,?,0.0,30.0
300000.0,0.4375,1.70980800046689E-8,300000.0,59.8,18.480905875863858,18.787878787878782,11.842105263157881,59800.0,9208.0,0.0,1.0,0.0,?,0.0,107.0
400000.0,0.578125,2.1542525953716704E-8,400000.0,57.49999999999999,13.839940965154844,13.265306122448969,5.34521158129174,79800.0,9208.0,0.0,1.0,0.0,?,0.0,116.0
500000.0,0.71875,2.543399912408657E-8,500000.0,63.0,24.539076521455375,24.335378323108383,18.859649122807014,99800.0,9208.0,0.0,1.0,0.0,?,0.0,0.0
600000.0,0.859375,2.8772499515778493E-8,600000.0,60.0,18.87561603829071,16.142557651991606,13.978494623655905,119800.0,9208.0,0.0,1.0,0.0,?,0.0,0.0
700000.0,1.0,3.1558027128792474E-8,700000.0,61.0,19.995404864279383,18.918918918918916,11.764705882352928,139800.0,9208.0,0.0,1.0,0.0,?,0.0,0.0
800000.0,1.140625,3.379058196312852E-8,800000.0,61.5,21.26531747460039,20.781893004115222,14.253897550111347,159800.0,9208.0,0.0,1.0,0.0,?,0.0,0.0
900000.0,1.25,3.509692356197371E-8,900000.0,59.3,17.71860166099254,20.352250489236788,14.135021097046405,179800.0,9208.0,0.0,1.0,0.0,?,0.0,0.0
1000000.0,1.390625,3.622353283895387E-8,1000000.0,61.6,21.990541353139072,20.98765432098765,16.883116883116873,199800.0,9208.0,0.0,1.0,0.0,?,0.0,0.0
1100000.0,1.515625,4.165366085039245E-8,1100000.0,57.599999999999994,13.947069329436596,15.199999999999992,5.357142857142837,219600.0,9208.0,0.0,1.0,0.0,?,0.0,0.0
1200000.0,1.65625,4.720958208458292E-8,1200000.0,58.9,16.126557066592653,12.553191489361689,10.06564551422318,239600.0,9208.0,0.0,1.0,0.0,?,0.0,0.0
1300000.0,1.78125,5.165664737837183E-8,1300000.0,55.00000000000001,9.497894317674458,7.024793388429759,6.444906444906451,259600.0,9208.0,0.0,1.0,0.0,?,0.0,0.0
1400000.0,1.921875,5.6106623055206414E-8,1400000.0,59.599999999999994,18.554955245544715,20.315581854043387,15.481171548117146,279600.0,9208.0,0.0,1.0,0.0,?,0.0,0.0
1500000.0,2.0625,6.000362595336306E-8,1500000.0,57.9,14.697205472346484,16.302186878727625,10.042735042735028,299600.0,9208.0,0.0,1.0,0.0,?,0.0,0.0
1600000.0,2.203125,6.334765607284177E-8,1600000.0,56.49999999999999,10.89717328963538,12.99999999999999,1.360544217687051,319600.0,9208.0,0.0,1.0,0.0,?,0.0,0.0
1700000.0,2.34375,6.613871341364253E-8,1700000.0,59.599999999999994,18.33368371686854,17.718940936863536,14.767932489451468,339600.0,9208.0,0.0,1.0,0.0,?,0.0,0.0
1800000.0,2.484375,6.837679797576535E-8,1800000.0,59.3,17.619340630869875,19.405940594059402,13.034188034188023,359600.0,9208.0,0.0,1.0,0.0,?,0.0,0.0
1900000.0,2.625,7.006190975921024E-8,1900000.0,58.699999999999996,16.44073969166026,17.89264413518886,11.182795698924718,379600.0,9208.0,0.0,1.0,0.0,?,0.0,0.0
2000000.0,2.75,7.106825554122529E-8,2000000.0,57.9,15.18868000547948,13.195876288659782,12.836438923395436,399600.0,9208.0,0.0,1.0,0.0,?,0.0,0.0
2100000.0,2.890625,7.718267928188048E-8,2100000.0,60.0,18.18869776859672,20.159680638722552,12.087912087912075,419400.0,9208.0,0.0,1.0,0.0,?,0.0,0.0
2200000.0,3.03125,8.274413024385773E-8,2200000.0,58.4,15.37043742905154,17.623762376237618,9.368191721132883,439400.0,9208.0,0.0,1.0,0.0,?,0.0,0.0
2300000.0,3.171875,8.775260842715703E-8,2300000.0,59.599999999999994,17.87549599947959,14.225053078556252,11.790393013100424,459400.0,9208.0,0.0,1.0,0.0,?,0.0,0.0
2400000.0,3.3125,9.22081138317784E-8,2400000.0,56.89999999999999,11.982617077414444,11.680327868852448,2.4886877828054073,479400.0,9208.0,0.0,1.0,0.0,?,0.0,0.0
2500000.0,3.4375,9.567703172150589E-8,2500000.0,60.4,19.117647058823533,20.958083832335326,11.607142857142843,499400.0,9208.0,0.0,1.0,0.0,?,0.0,0.0
2600000.0,3.578125,9.902659156877138E-8,2600000.0,58.599999999999994,16.5053242981607,19.455252918287933,12.658227848101255,519400.0,9208.0,0.0,1.0,0.0,?,0.0,0.0
2700000.0,3.71875,1.0182317863735892E-7,2700000.0,57.49999999999999,13.901381629593596,15.841584158415834,9.766454352441599,539400.0,9208.0,0.0,1.0,0.0,?,0.0,0.0
2800000.0,3.859375,1.0406679292726853E-7,2800000.0,58.9,17.052142113293456,16.29327902240325,13.836477987421372,559400.0,9208.0,0.0,1.0,0.0,?,0.0,0.0
2900000.0,4.0,1.0575743443850019E-7,2900000.0,55.400000000000006,10.074843538292797,7.851239669421495,5.508474576271192,579400.0,9208.0,0.0,1.0,0.0,?,0.0,0.0
3000000.0,4.140625,1.0689510317105392E-7,3000000.0,57.199999999999996,12.75099378248904,11.934156378600811,5.934065934065916,599400.0,9208.0,0.0,1.0,0.0,?,0.0,0.0
3100000.0,4.28125,1.1301505663949589E-7,3100000.0,57.599999999999994,13.49057373704398,13.46938775510203,8.225108225108208,619200.0,9208.0,0.0,1.0,0.0,?,0.0,0.0
3200000.0,4.421875,1.1858203732925992E-7,3200000.0,55.900000000000006,10.504825839549973,15.355086372360857,6.765327695560259,639200.0,9208.0,0.0,1.0,0.0,?,0.0,0.0
3300000.0,4.5625,1.23596045240346E-7,3300000.0,58.199999999999996,16.322347138144185,17.063492063492056,15.895372233400396,659200.0,9208.0,0.0,1.0,0.0,?,0.0,0.0
3400000.0,4.671875,1.27065739232219E-7,3400000.0,58.599999999999994,15.51192832799329,15.510204081632645,9.010989010988995,679200.0,9208.0,0.0,1.0,0.0,?,0.0,0.0
3500000.0,4.8125,1.309738015859492E-7,3500000.0,59.599999999999994,17.854455989101474,18.87550200803212,12.742980561555065,699200.0,9208.0,0.0,1.0,0.0,?,0.0,0.0
3600000.0,4.953125,1.3432889116100144E-7,3600000.0,57.199999999999996,12.75099378248904,17.054263565891468,5.934065934065916,719200.0,9208.0,0.0,1.0,0.0,?,0.0,0.0
3700000.0,5.09375,1.3713100795737576E-7,3700000.0,56.89999999999999,12.134778318695908,16.310679611650478,5.066079295154165,739200.0,9208.0,0.0,1.0,0.0,?,0.0,0.0
3800000.0,5.234375,1.3938015197507213E-7,3800000.0,56.49999999999999,11.385803802058282,7.838983050847441,4.185022026431698,759200.0,9208.0,0.0,1.0,0.0,?,0.0,0.0
3900000.0,5.375,1.4107632321409056E-7,3900000.0,57.99999999999999,14.053835040660703,15.151515151515143,6.4587973273941905,779200.0,9208.0,0.0,1.0,0.0,?,0.0,0.0
4000000.0,5.515625,1.4221952167443105E-7,4000000.0,58.099999999999994,14.35206004758672,16.865079365079357,5.203619909502242,799200.0,9208.0,0.0,1.0,0.0,?,0.0,0.0
4100000.0,5.65625,1.483450048706598E-7,4100000.0,57.3,14.217064978062059,17.408123791102508,12.49999999999999,819000.0,9208.0,0.0,1.0,0.0,?,0.0,0.0
4200000.0,5.796875,1.539175152882106E-7,4200000.0,58.4,15.515840779853763,15.618661257606483,9.956709956709943,839000.0,9208.0,0.0,1.0,0.0,?,0.0,0.0
4300000.0,5.9375,1.5893705292708348E-7,4300000.0,60.699999999999996,20.00162846557831,21.868787276341944,14.935064935064926,859000.0,9208.0,0.0,1.0,0.0,?,0.0,0.0
4400000.0,6.078125,1.634036177872784E-7,4400000.0,59.8,17.91998627916187,17.622950819672127,12.035010940919024,879000.0,9208.0,0.0,1.0,0.0,?,0.0,0.0
4500000.0,6.203125,1.668823663041824E-7,4500000.0,58.3,14.162206669411272,17.261904761904756,2.7972027972027993,899000.0,9208.0,0.0,1.0,0.0,?,0.0,0.0
4600000.0,6.328125,1.6986958346226156E-7,4600000.0,56.599999999999994,12.426551301091232,15.891472868217047,8.82352941176469,919000.0,9208.0,0.0,1.0,0.0,?,0.0,0.0
4700000.0,6.46875,1.7267722998642266E-7,4700000.0,60.699999999999996,20.157004242040074,19.46721311475409,16.56050955414012,939000.0,9208.0,0.0,1.0,0.0,?,0.0,0.0
4800000.0,6.609375,1.7493190373190583E-7,4800000.0,56.49999999999999,12.322427721431213,12.474849094567393,8.805031446540866,959000.0,9208.0,0.0,1.0,0.0,?,0.0,0.0
4900000.0,6.75,1.7663360469871106E-7,4900000.0,55.7,10.216291588300152,11.57684630738524,5.341880341880347,979000.0,9208.0,0.0,1.0,0.0,?,0.0,0.0
5000000.0,6.890625,1.778664429568583E-7,5000000.0,58.599999999999994,15.302782324058914,18.50393700787401,7.999999999999983,999000.0,9208.0,0.0,1.0,0.0,?,0.0,0.0
5100000.0,7.03125,1.840972820193404E-7,5100000.0,56.39999999999999,12.738567951838082,9.917355371900813,11.919191919191906,12401.0,9208.0,0.0,1.0,0.0,?,1.0,6.0
5200000.0,7.171875,1.897751483031446E-7,5200000.0,57.49999999999999,13.553930143439437,9.381663113006383,11.45833333333332,32401.0,9208.0,0.0,1.0,0.0,?,0.0,0.0
5300000.0,7.3125,1.9490004180827083E-7,5300000.0,55.50000000000001,10.740075098687385,12.055335968379458,9.183673469387763,52401.0,9208.0,0.0,1.0,0.0,?,0.0,0.0
5400000.0,7.453125,1.9947196253471914E-7,5400000.0,57.699999999999996,14.654421022048602,15.399999999999991,11.691022964509381,72401.0,9208.0,0.0,1.0,0.0,?,0.0,0.0
5500000.0,7.59375,2.034909104824895E-7,5500000.0,56.89999999999999,12.65756089652656,12.753036437246953,8.297872340425517,92401.0,9208.0,0.0,1.0,0.0,?,0.0,0.0
5600000.0,7.734375,2.0695688565158192E-7,5600000.0,54.300000000000004,8.204176408674202,10.916179337231977,6.5439672801636055,112401.0,9208.0,0.0,1.0,0.0,?,0.0,0.0
5700000.0,7.875,2.098698880419964E-7,5700000.0,55.7,10.406588250521796,11.044176706827319,7.51565762004176,132401.0,9208.0,0.0,1.0,0.0,?,0.0,0.0
5800000.0,7.984375,2.1170546662890259E-7,5800000.0,54.6,9.522461945625789,13.193116634799246,9.200000000000008,152401.0,9208.0,0.0,1.0,0.0,?,0.0,0.0
5900000.0,8.125,2.1351252346196119E-7,5900000.0,59.8,18.539382763581827,19.11468812877263,15.010570824524303,172401.0,9208.0,0.0,1.0,0.0,?,0.0,0.0
6000000.0,8.265625,2.1476660751634185E-7,6000000.0,55.50000000000001,9.666680199748285,9.919028340080981,2.1978021978022,192401.0,9208.0,0.0,1.0,0.0,?,0.0,0.0
6100000.0,8.40625,2.2100297630661074E-7,6100000.0,54.2,7.53750989227515,1.505376344086023,4.184100418410046,212201.0,9208.0,0.0,1.0,0.0,?,0.0,0.0
6200000.0,8.53125,2.2605488387246937E-7,6200000.0,57.8,14.599447122487044,15.59999999999999,10.403397027600835,232201.0,9208.0,0.0,1.0,0.0,?,0.0,0.0
6300000.0,8.671875,2.3118530710538238E-7,6300000.0,57.3,13.58374483931028,18.199233716475092,9.533898305084731,252201.0,9208.0,0.0,1.0,0.0,?,0.0,0.0
6400000.0,8.8125,2.3576275755961745E-7,6400000.0,55.400000000000006,11.140155484804184,10.80000000000001,12.20472440944883,272201.0,9208.0,0.0,1.0,0.0,?,0.0,0.0
6500000.0,8.953125,2.397872352351746E-7,6500000.0,56.00000000000001,10.906285561553647,15.869980879541124,6.18336886993604,292201.0,9208.0,0.0,1.0,0.0,?,0.0,0.0
6600000.0,9.09375,2.432587401320538E-7,6600000.0,55.00000000000001,9.150741128065171,10.536779324055676,6.250000000000005,312201.0,9208.0,0.0,1.0,0.0,?,0.0,0.0
6700000.0,9.21875,2.4585299090378827E-7,6700000.0,55.00000000000001,9.749826519110986,7.024793388429759,9.274193548387105,332201.0,9208.0,0.0,1.0,0.0,?,0.0,0.0
6800000.0,9.359375,2.482185502433116E-7,6800000.0,54.7,10.442449883357732,11.350293542074375,8.299595141700413,352201.0,9208.0,0.0,1.0,0.0,?,0.0,0.0
6900000.0,9.5,2.50031136804157E-7,6900000.0,56.39999999999999,11.347517730496447,15.50387596899224,6.83760683760682,372201.0,9208.0,0.0,1.0,0.0,?,0.0,0.0
7000000.0,9.640625,2.5129075058632445E-7,7000000.0,56.2,12.662710566615623,11.515151515151526,12.224448897795602,392201.0,9208.0,0.0,1.0,0.0,?,0.0,0.0
7100000.0,9.765625,2.5683910482459615E-7,7100000.0,60.199999999999996,20.013826755575913,16.561844863731647,17.5983436853002,412001.0,9208.0,0.0,1.0,0.0,?,0.0,0.0
7200000.0,9.90625,2.6252803056397387E-7,7200000.0,55.800000000000004,10.688306229995808,12.475247524752486,7.531380753138082,432001.0,9208.0,0.0,1.0,0.0,?,0.0,0.0
7300000.0,10.046875,2.6766398352467365E-7,7300000.0,55.50000000000001,9.922675195336234,12.915851272015665,6.1181434599156175,452001.0,9208.0,0.0,1.0,0.0,?,0.0,0.0
7400000.0,10.1875,2.722469637066955E-7,7400000.0,54.6,8.265037259751397,8.651911468812886,4.821802935010487,472001.0,9208.0,0.0,1.0,0.0,?,0.0,0.0
7500000.0,10.328125,2.762769711100394E-7,7500000.0,55.300000000000004,9.604199865720798,6.680584551148232,4.077253218884124,492001.0,9208.0,0.0,1.0,0.0,?,0.0,0.0
7600000.0,10.46875,2.7975400573470534E-7,7600000.0,57.9,14.16641521435969,18.093385214007775,8.676789587852479,512001.0,9208.0,0.0,1.0,0.0,?,0.0,0.0
7700000.0,10.625,2.830029633413587E-7,7700000.0,57.9,14.999636578018608,12.108559498956147,11.924686192468608,532001.0,9208.0,0.0,1.0,0.0,?,0.0,0.0
7800000.0,10.765625,2.853740524086688E-7,7800000.0,55.7,11.267966734500954,13.30724070450099,11.40000000000001,552001.0,9208.0,0.0,1.0,0.0,?,0.0,0.0
7900000.0,10.890625,2.869901557763418E-7,7900000.0,56.3,11.703615100500272,10.082304526748958,7.610993657505269,572001.0,9208.0,0.0,1.0,0.0,?,0.0,0.0
8000000.0,11.03125,2.88255299286296E-7,8000000.0,55.50000000000001,10.478627526715597,12.055335968379458,8.057851239669429,592001.0,9208.0,0.0,1.0,0.0,?,0.0,0.0
8100000.0,11.171875,2.9450272753213843E-7,8100000.0,55.400000000000006,10.473047569724644,10.62124248496995,8.793456032719844,611801.0,9208.0,0.0,1.0,0.0,?,0.0,0.0
8200000.0,11.3125,3.0019718299930294E-7,8200000.0,57.4,13.298679941873463,12.883435582822075,12.525667351129352,631801.0,9208.0,0.0,1.0,0.0,?,0.0,0.0
8300000.0,11.453125,3.053386656877895E-7,8300000.0,58.3,16.144496907199894,18.554687499999993,14.197530864197521,651801.0,9208.0,0.0,1.0,0.0,?,0.0,0.0
8400000.0,11.59375,3.0992717559759815E-7,8400000.0,54.300000000000004,8.496784372772494,10.216110019646374,8.232931726907639,671801.0,9208.0,0.0,1.0,0.0,?,0.0,0.0
8500000.0,11.734375,3.1396271272872884E-7,8500000.0,56.89999999999999,13.476054347476946,13.453815261044166,11.860940695296511,691801.0,9208.0,0.0,1.0,0.0,?,0.0,0.0
8600000.0,11.875,3.174452770811816E-7,8600000.0,59.3,17.683321467866147,10.549450549450535,12.284482758620678,711801.0,9208.0,0.0,1.0,0.0,?,0.0,0.0
8700000.0,12.015625,3.203748686549564E-7,8700000.0,54.1,7.752785504124003,7.459677419354846,5.942622950819677,731801.0,9208.0,0.0,1.0,0.0,?,0.0,0.0
8800000.0,12.15625,3.2275148745005327E-7,8800000.0,56.8,13.218159903575726,13.59999999999999,11.836734693877538,751801.0,9208.0,0.0,1.0,0.0,?,0.0,0.0
8900000.0,12.296875,3.245751334664722E-7,8900000.0,55.900000000000006,11.196133709222734,12.845849802371553,6.369426751592362,771801.0,9208.0,0.0,1.0,0.0,?,0.0,0.0
9000000.0,12.421875,3.2570462078890864E-7,9000000.0,57.8,14.164836058904875,16.600790513833985,6.843267108167753,791801.0,9208.0,0.0,1.0,0.0,?,0.0,0.0
9100000.0,12.546875,3.3126280565435685E-7,9100000.0,55.60000000000001,10.39715854052309,9.939148073022322,7.500000000000007,811601.0,9208.0,0.0,1.0,0.0,?,0.0,0.0
9200000.0,12.6875,3.3696279084930816E-7,9200000.0,58.099999999999994,15.545988132094937,17.029702970297024,15.69416498993963,831601.0,9208.0,0.0,1.0,0.0,?,0.0,0.0
9300000.0,12.828125,3.4210980326558153E-7,9300000.0,55.300000000000004,8.760613977792305,10.600000000000009,1.1061946902654878,851601.0,9208.0,0.0,1.0,0.0,?,0.0,0.0
9400000.0,12.96875,3.4670384290317695E-7,9400000.0,54.7,8.322607280763544,7.361963190184055,4.430379746835447,871601.0,9208.0,0.0,1.0,0.0,?,0.0,0.0
9500000.0,13.125,3.51193917190863E-7,9500000.0,59.199999999999996,17.755200774068687,18.399999999999995,14.999999999999991,891601.0,9208.0,0.0,1.0,0.0,?,0.0,0.0
9600000.0,13.265625,3.5468201127110257E-7,9600000.0,56.39999999999999,13.438134075594698,13.492063492063483,15.830115830115824,911601.0,9208.0,0.0,1.0,0.0,?,0.0,0.0
9700000.0,13.40625,3.5761713257266417E-7,9700000.0,55.800000000000004,11.266361519312627,14.506769825918775,9.795918367346948,931601.0,9208.0,0.0,1.0,0.0,?,0.0,0.0
9800000.0,13.578125,3.605286474339664E-7,9800000.0,56.599999999999994,12.261194784190838,9.394572025052177,6.263498920086374,951601.0,9208.0,0.0,1.0,0.0,?,0.0,0.0
9900000.0,13.71875,3.623578231781721E-7,9900000.0,55.400000000000006,10.857051487048297,10.978043912175659,11.155378486055787,971601.0,9208.0,0.0,1.0,0.0,?,0.0,0.0
1.0E7,13.84375,3.634922258141968E-7,1.0E7,55.300000000000004,10.264028522789335,7.835051546391759,8.9613034623218,991601.0,9208.0,0.0,1.0,0.0,?,0.0,0.0
