learning evaluation instances,evaluation time (cpu seconds),model cost (RAM-Hours),classified instances,classifications correct (percent),Kappa Statistic (percent),Kappa Temporal Statistic (percent),Kappa M Statistic (percent),model training instances,model serialized size (bytes),labeling cost,newThreshold,maxPosterior,accuracyBaseLearner (percent),Change detected,Warning detected
100000.0,0.6875,1.4303950592875481E-8,100000.0,70.39999999999999,40.790763359084,40.20202020202019,40.44265593561367,14764.0,2904.0,0.0,1.0,0.0,?,2.0,48.0
200000.0,1.375,2.5904478712214364E-8,200000.0,68.30000000000001,36.59086908514828,34.63917525773197,34.9075975359343,34764.0,2904.0,0.0,1.0,0.0,?,0.0,0.0
300000.0,2.046875,3.4599377411521146E-8,300000.0,67.30000000000001,34.154356686051194,35.629921259842526,27.814569536423843,54764.0,2904.0,0.0,1.0,0.0,?,0.0,0.0
400000.0,2.734375,4.079306058378683E-8,400000.0,68.7,37.45503956518265,40.60721062618597,36.767676767676775,74764.0,2904.0,0.0,1.0,0.0,?,0.0,0.0
500000.0,3.40625,4.4203997175726626E-8,500000.0,70.19999999999999,40.28439058016319,39.91935483870967,37.656903765690366,94764.0,2904.0,0.0,1.0,0.0,?,0.0,0.0
600000.0,4.0625,5.785776819619868E-8,600000.0,66.4,32.25560605021956,31.288343558282218,28.20512820512821,114664.0,2904.0,0.0,1.0,0.0,?,0.0,0.0
700000.0,4.75,6.945829631553756E-8,700000.0,69.19999999999999,38.248090302143254,40.077821011673144,36.494845360824726,134664.0,2904.0,0.0,1.0,0.0,?,0.0,0.0
800000.0,5.421875,7.815319501484434E-8,800000.0,70.7,41.03488802666108,42.66144814090019,34.00900900900899,154664.0,2904.0,0.0,1.0,0.0,?,0.0,0.0
900000.0,6.109375,8.434687818711003E-8,900000.0,68.0,35.67890911429858,35.871743486973955,32.77310924369748,174664.0,2904.0,0.0,1.0,0.0,?,0.0,0.0
1000000.0,6.796875,8.783713888583912E-8,1000000.0,68.0,35.974645959800085,33.19415448851775,37.25490196078432,194664.0,2904.0,0.0,1.0,0.0,?,0.0,0.0
1100000.0,7.453125,1.0151671530264947E-7,1100000.0,67.7,35.40878440532088,35.912698412698425,36.914062500000014,214564.0,2904.0,0.0,1.0,0.0,?,0.0,0.0
1200000.0,8.140625,1.1314427764672372E-7,1200000.0,68.7,37.3298093865129,37.649402390438254,36.382113821138226,234564.0,2904.0,0.0,1.0,0.0,?,0.0,0.0
1300000.0,8.828125,1.2206841751726138E-7,1300000.0,68.4,37.01164088662097,35.64154786150714,32.18884120171674,254564.0,2904.0,0.0,1.0,0.0,?,0.0,0.0
1400000.0,9.53125,1.2843051485510338E-7,1400000.0,67.10000000000001,34.13940825559516,35.49019607843138,34.72222222222223,274564.0,2904.0,0.0,1.0,0.0,?,0.0,0.0
1500000.0,10.234375,1.3202774829955567E-7,1500000.0,67.9,35.65638505143481,35.02024291497977,31.55650319829425,294564.0,2904.0,0.0,1.0,0.0,?,0.0,0.0
1600000.0,10.875,1.4538162051596577E-7,1600000.0,67.2,34.333545548094676,35.81213307240706,31.950207468879675,314464.0,2904.0,0.0,1.0,0.0,?,0.0,0.0
1700000.0,11.546875,1.5674492007949287E-7,1700000.0,70.3,40.630871946587774,40.361445783132524,40.71856287425149,334464.0,2904.0,0.0,1.0,0.0,?,0.0,0.0
1800000.0,12.21875,1.6546623858933648E-7,1800000.0,67.4,34.64026079738882,34.14141414141415,33.05954825462013,354464.0,2904.0,0.0,1.0,0.0,?,0.0,0.0
1900000.0,12.90625,1.7168695598633754E-7,1900000.0,70.39999999999999,40.80118397632046,41.03585657370517,38.075313807531366,374464.0,2904.0,0.0,1.0,0.0,?,0.0,0.0
2000000.0,13.578125,1.7512431238881416E-7,2000000.0,68.8,36.93835724420619,37.47494989979959,31.728665207877444,394464.0,2904.0,0.0,1.0,0.0,?,0.0,0.0
2100000.0,14.265625,1.8948233143116038E-7,2100000.0,70.39999999999999,40.867883669547346,42.96724470134874,39.21971252566735,414364.0,2904.0,0.0,1.0,0.0,?,0.0,0.0
2200000.0,14.9375,2.0087205080522432E-7,2200000.0,67.0,33.916735086208625,33.86773547094189,31.106471816283932,434364.0,2904.0,0.0,1.0,0.0,?,0.0,0.0
2300000.0,15.625,2.0982322490049735E-7,2300000.0,69.39999999999999,38.347967296215835,39.52569169960473,33.6225596529284,454364.0,2904.0,0.0,1.0,0.0,?,0.0,0.0
2400000.0,16.296875,2.159289821671943E-7,2400000.0,66.2,32.095789135326264,35.49618320610688,28.389830508474578,474364.0,2904.0,0.0,1.0,0.0,?,0.0,0.0
2500000.0,16.96875,2.1939275838020777E-7,2500000.0,65.7,31.368704129082868,36.598890942698716,29.5687885010267,494364.0,2904.0,0.0,1.0,0.0,?,0.0,0.0
2600000.0,17.640625,2.334244588079552E-7,2600000.0,72.3,44.570733347207316,44.040404040404034,44.265593561368206,514264.0,2904.0,0.0,1.0,0.0,?,0.0,0.0
2700000.0,18.3125,2.448141781820191E-7,2700000.0,68.60000000000001,36.99864767797884,36.947791164658646,34.9896480331263,534264.0,2904.0,0.0,1.0,0.0,?,0.0,0.0
2800000.0,19.0,2.537653522772921E-7,2800000.0,69.3,38.017363214213596,37.72819472616632,31.77777777777776,554264.0,2904.0,0.0,1.0,0.0,?,0.0,0.0
2900000.0,19.6875,2.6001310389902853E-7,2900000.0,67.10000000000001,34.11461253784906,35.9922178988327,32.58196721311476,574264.0,2904.0,0.0,1.0,0.0,?,0.0,0.0
3000000.0,20.359375,2.63476880112042E-7,3000000.0,70.19999999999999,40.13924655800667,38.17427385892115,36.1884368308351,594264.0,2904.0,0.0,1.0,0.0,?,0.0,0.0
3100000.0,21.03125,2.7753500035032627E-7,3100000.0,70.3,40.48668665138423,41.99218749999999,38.509316770186324,614164.0,2904.0,0.0,1.0,0.0,?,0.0,0.0
3200000.0,21.71875,2.8921663114387125E-7,3200000.0,69.6,39.242773087746215,39.07815631262524,39.80198019801979,634164.0,2904.0,0.0,1.0,0.0,?,0.0,0.0
3300000.0,22.390625,2.9799078927478854E-7,3300000.0,70.89999999999999,42.03187250996015,40.12345679012345,39.626556016597505,654164.0,2904.0,0.0,1.0,0.0,?,0.0,0.0
3400000.0,23.0625,3.0412296635202235E-7,3400000.0,71.39999999999999,42.787413230910786,41.51329243353782,41.51329243353782,674164.0,2904.0,0.0,1.0,0.0,?,0.0,0.0
3500000.0,23.71875,3.0753199502618776E-7,3500000.0,69.1,37.93535635951697,36.157024793388416,32.67973856209149,694164.0,2904.0,0.0,1.0,0.0,?,0.0,0.0
3600000.0,24.390625,3.21590115264472E-7,3600000.0,69.5,38.92133067390799,37.881873727087566,36.590436590436575,714064.0,2904.0,0.0,1.0,0.0,?,0.0,0.0
3700000.0,25.078125,3.33271746058017E-7,3700000.0,70.39999999999999,40.12242536543525,40.918163672654686,35.51198257080609,734064.0,2904.0,0.0,1.0,0.0,?,0.0,0.0
3800000.0,25.75,3.420459041889343E-7,3800000.0,69.19999999999999,38.30128205128204,37.777777777777764,37.39837398373982,754064.0,2904.0,0.0,1.0,0.0,?,0.0,0.0
3900000.0,26.4375,3.483206900354061E-7,3900000.0,70.19999999999999,40.17025377449405,42.35976789168278,37.394957983193265,774064.0,2904.0,0.0,1.0,0.0,?,0.0,0.0
4000000.0,27.109375,3.5181088605895636E-7,4000000.0,70.5,40.370310478654574,45.26901669758812,34.73451327433627,794064.0,2904.0,0.0,1.0,0.0,?,0.0,0.0
4100000.0,27.78125,3.6589542610777747E-7,4100000.0,66.4,32.26461955294649,34.24657534246576,27.272727272727277,813964.0,2904.0,0.0,1.0,0.0,?,0.0,0.0
4200000.0,28.46875,3.7760409112605784E-7,4200000.0,68.2,36.388040951698926,37.27810650887575,36.40000000000001,833964.0,2904.0,0.0,1.0,0.0,?,0.0,0.0
4300000.0,29.15625,3.866093336708016E-7,4300000.0,70.3,40.50719121830054,40.48096192384769,39.014373716632434,853964.0,2904.0,0.0,1.0,0.0,?,0.0,0.0
4400000.0,29.84375,3.9291115374200874E-7,4400000.0,69.89999999999999,39.81300039191534,41.4396887159533,42.992424242424235,873964.0,2904.0,0.0,1.0,0.0,?,0.0,0.0
4500000.0,30.5,3.9634598781251246E-7,4500000.0,69.1,38.03641613860591,39.530332681017605,37.951807228915655,893964.0,2904.0,0.0,1.0,0.0,?,0.0,0.0
4600000.0,31.171875,4.1043052786133357E-7,4600000.0,67.9,35.787157431486314,35.92814371257486,35.282258064516135,913864.0,2904.0,0.0,1.0,0.0,?,0.0,0.0
4700000.0,31.84375,4.218730868564712E-7,4700000.0,68.2,36.28786664529573,41.00185528756958,33.47280334728035,933864.0,2904.0,0.0,1.0,0.0,?,0.0,0.0
4800000.0,32.5,4.3046900019463567E-7,4800000.0,70.1,40.10992532769285,41.14173228346456,39.227642276422756,953864.0,2904.0,0.0,1.0,0.0,?,0.0,0.0
4900000.0,33.171875,4.366275970824063E-7,4900000.0,71.1,41.91421795232543,42.65873015873015,37.037037037037024,973864.0,2904.0,0.0,1.0,0.0,?,0.0,0.0
5000000.0,33.859375,4.406371994668411E-7,5000000.0,69.6,38.753142930823266,40.50880626223091,36.26834381551362,993864.0,2904.0,0.0,1.0,0.0,?,0.0,0.0
5100000.0,34.53125,4.551500185496277E-7,5100000.0,48.6,-2.726037253177709,-3.838383838383842,-4.897959183673474,1013764.0,2904.0,0.0,1.0,0.0,?,0.0,0.0
5200000.0,35.21875,4.672969225794077E-7,5200000.0,49.6,-0.7415698894641091,-8.620689655172423,-7.006369426751599,1033764.0,2904.0,0.0,1.0,0.0,?,0.0,0.0
5300000.0,35.90625,4.7674040413565106E-7,5300000.0,45.7,-8.025305375402853,-14.556962025316459,-17.53246753246754,1053764.0,2904.0,0.0,1.0,0.0,?,0.0,0.0
5400000.0,36.59375,4.834804632183579E-7,5400000.0,46.9,-6.119349294536159,-8.146639511201636,-7.707910750507106,1073764.0,2904.0,0.0,1.0,0.0,?,0.0,0.0
5500000.0,37.28125,4.875170998275281E-7,5500000.0,51.300000000000004,2.8138096188385555,4.882812500000004,-2.5263157894736867,1093764.0,2904.0,0.0,1.0,0.0,?,0.0,0.0
5600000.0,37.953125,5.020299189103147E-7,5600000.0,50.3,0.7714669051878312,6.403013182674205,-3.974895397489543,1113664.0,2904.0,0.0,1.0,0.0,?,0.0,0.0
5700000.0,38.625,5.139007569394178E-7,5700000.0,47.9,-3.585942532666364,-7.86749482401657,-13.015184381778756,1133664.0,2904.0,0.0,1.0,0.0,?,0.0,0.0
5800000.0,39.296875,5.231296139148375E-7,5800000.0,50.3,1.681503461918883,-0.2016129032258066,-11.685393258426977,1153664.0,2904.0,0.0,1.0,0.0,?,0.0,0.0
5900000.0,39.984375,5.298696729975442E-7,5900000.0,48.6,-2.6226680296447813,4.1044776119402915,-11.496746203904566,1173664.0,2904.0,0.0,1.0,0.0,?,0.0,0.0
6000000.0,40.671875,5.339063096067145E-7,6000000.0,49.5,-0.9709203749320139,-0.5976095617529885,-2.6422764227642297,1193664.0,2904.0,0.0,1.0,0.0,?,0.0,0.0
6100000.0,41.375,5.491217921694948E-7,6100000.0,48.699999999999996,-2.5056947608200444,-2.3952095808383254,-7.547169811320761,1213564.0,2904.0,0.0,1.0,0.0,?,0.0,0.0
6200000.0,42.046875,5.608952940545149E-7,6200000.0,52.300000000000004,4.87623940078014,6.470588235294124,-2.1413276231263403,1225775.0,2904.0,0.0,1.0,0.0,?,1.0,10.0
6300000.0,42.734375,5.702391758354175E-7,6300000.0,49.2,-1.022956870356531,-6.722689075630258,-3.4623217922606955,1245775.0,2904.0,0.0,1.0,0.0,?,0.0,0.0
6400000.0,43.40625,5.767287156130706E-7,6400000.0,50.0,-0.03841475126447955,-1.8329938900203684,1.1857707509881432,1265775.0,2904.0,0.0,1.0,0.0,?,0.0,0.0
6500000.0,44.09375,5.806657524469E-7,6500000.0,51.300000000000004,2.5742796098169896,-0.828157349896481,2.208835341365464,1285775.0,2904.0,0.0,1.0,0.0,?,0.0,0.0
6600000.0,44.75,5.947459915963314E-7,6600000.0,49.3,-1.3659410438092923,1.1695906432748548,-7.415254237288142,1305675.0,2904.0,0.0,1.0,0.0,?,0.0,0.0
6700000.0,45.4375,6.067932958507706E-7,6700000.0,50.5,1.044332139201639,1.7857142857142874,-2.2727272727272747,1325675.0,2904.0,0.0,1.0,0.0,?,0.0,0.0
6800000.0,46.125,6.161371776316731E-7,6800000.0,48.699999999999996,-2.176580251438051,-1.1834319526627228,-8.686440677966111,1345675.0,2904.0,0.0,1.0,0.0,?,0.0,0.0
6900000.0,46.78125,6.224757978796134E-7,6900000.0,53.7,7.384440586018464,8.316831683168324,4.732510288065848,1365675.0,2904.0,0.0,1.0,0.0,?,0.0,0.0
7000000.0,47.453125,6.263233566035829E-7,7000000.0,54.800000000000004,9.485952299897876,10.67193675889329,4.237288135593224,1385675.0,2904.0,0.0,1.0,0.0,?,0.0,0.0
7100000.0,48.125,6.407652593528234E-7,7100000.0,51.800000000000004,3.6782132908078706,5.490196078431377,2.231237322515215,1405575.0,2904.0,0.0,1.0,0.0,?,0.0,0.0
7200000.0,48.78125,6.522907642647626E-7,7200000.0,53.400000000000006,6.790679067906797,7.539682539682547,4.50819672131148,1425575.0,2904.0,0.0,1.0,0.0,?,0.0,0.0
7300000.0,49.46875,6.616616802704005E-7,7300000.0,50.8,2.51711894496575,0.4048582995951421,-10.810810810810821,1445575.0,2904.0,0.0,1.0,0.0,?,0.0,0.0
7400000.0,50.15625,6.683291738025019E-7,7400000.0,53.5,7.120371997890737,5.295315682281064,5.295315682281064,1465575.0,2904.0,0.0,1.0,0.0,?,0.0,0.0
7500000.0,50.8125,6.7211305981295E-7,7500000.0,50.1,0.23671288965659895,0.7952286282306171,-0.40241448692152954,1485575.0,2904.0,0.0,1.0,0.0,?,0.0,0.0
7600000.0,51.484375,6.865549625621904E-7,7600000.0,51.7,3.518093853123769,0.4123711340206189,-6.387665198237892,1505475.0,2904.0,0.0,1.0,0.0,?,0.0,0.0
7700000.0,52.15625,6.983548842577473E-7,7700000.0,52.6,5.4409364938137665,1.4553014553014565,2.6694045174538013,1525475.0,2904.0,0.0,1.0,0.0,?,0.0,0.0
7800000.0,52.828125,7.075128248996207E-7,7800000.0,53.900000000000006,7.995784969584722,10.136452241715409,2.3305084745762734,1545475.0,2904.0,0.0,1.0,0.0,?,0.0,0.0
7900000.0,53.5,7.140287844878106E-7,7900000.0,55.1,10.184911065058945,11.960784313725501,8.92494929006086,1565475.0,2904.0,0.0,1.0,0.0,?,0.0,0.0
8000000.0,54.171875,7.17902763022317E-7,8000000.0,49.7,-0.675708132515661,0.788954635108482,-11.037527593818995,1585475.0,2904.0,0.0,1.0,0.0,?,0.0,0.0
8100000.0,54.8125,7.316981403467558E-7,8100000.0,52.800000000000004,5.7447760240270975,5.410821643286578,-0.8547008547008554,1605375.0,2904.0,0.0,1.0,0.0,?,0.0,0.0
8200000.0,55.484375,7.435244818528494E-7,8200000.0,52.1,4.57406964698382,1.440329218106997,-6.208425720620848,1625375.0,2904.0,0.0,1.0,0.0,?,0.0,0.0
8300000.0,56.15625,7.527088423052597E-7,8300000.0,52.2,4.302388436204931,3.434343434343438,2.0491803278688545,1645375.0,2904.0,0.0,1.0,0.0,?,0.0,0.0
8400000.0,56.828125,7.592512217039864E-7,8400000.0,50.0,0.01919631430764993,1.7681728880157188,-2.4590163934426252,1665375.0,2904.0,0.0,1.0,0.0,?,0.0,0.0
8500000.0,57.5,7.631516200490297E-7,8500000.0,51.7,3.4254956691433533,-2.3305084745762734,1.226993865030676,1685375.0,2904.0,0.0,1.0,0.0,?,0.0,0.0
8600000.0,58.171875,7.776199426088069E-7,8600000.0,53.7,7.6135973628969875,12.476370510396986,3.9419087136929494,1705275.0,2904.0,0.0,1.0,0.0,?,0.0,0.0
8700000.0,58.84375,7.894462841149006E-7,8700000.0,52.800000000000004,5.959985176743426,2.680412371134023,-1.0706638115631701,1725275.0,2904.0,0.0,1.0,0.0,?,0.0,0.0
8800000.0,59.5625,7.992714139011999E-7,8800000.0,55.1,10.266761529422126,8.179959100204506,4.264392324093821,1745275.0,2904.0,0.0,1.0,0.0,?,0.0,0.0
8900000.0,60.203125,8.055094965837068E-7,8900000.0,57.8,15.573996791011627,17.09233791748526,17.738791423001942,1765275.0,2904.0,0.0,1.0,0.0,?,0.0,0.0
9000000.0,60.890625,8.095006018670069E-7,9000000.0,55.300000000000004,10.567804409587469,9.514170040485839,8.775510204081641,1785275.0,2904.0,0.0,1.0,0.0,?,0.0,0.0
9100000.0,61.578125,8.243324312691888E-7,9100000.0,53.7,7.732899697890025,3.9419087136929494,-3.118040089086863,1805175.0,2904.0,0.0,1.0,0.0,?,0.0,0.0
9200000.0,62.25,8.361851925858193E-7,9200000.0,54.800000000000004,9.729988816104827,4.439746300211421,5.833333333333339,1825175.0,2904.0,0.0,1.0,0.0,?,0.0,0.0
9300000.0,62.921875,8.453959728487664E-7,9300000.0,55.00000000000001,10.090628646324506,4.05117270788913,7.407407407407414,1845175.0,2904.0,0.0,1.0,0.0,?,0.0,0.0
9400000.0,63.59375,8.5196477205803E-7,9400000.0,52.300000000000004,4.57098958083257,3.245436105476676,0.8316008316008323,1865175.0,2904.0,0.0,1.0,0.0,?,0.0,0.0
9500000.0,64.28125,8.559829115660654E-7,9500000.0,56.10000000000001,12.09240109894513,14.090019569471638,15.414258188824675,1885175.0,2904.0,0.0,1.0,0.0,?,0.0,0.0
9600000.0,64.9375,8.701405669045118E-7,9600000.0,53.300000000000004,6.341502547029799,7.157057654075554,0.6382978723404261,1905075.0,2904.0,0.0,1.0,0.0,?,0.0,0.0
9700000.0,65.625,8.822689738331571E-7,9700000.0,57.199999999999996,14.17651564674411,11.752577319587616,8.351177730192703,1925075.0,2904.0,0.0,1.0,0.0,?,0.0,0.0
9800000.0,66.3125,8.916939582882657E-7,9800000.0,56.3,12.86211077080141,12.774451097804379,3.532008830022054,1945075.0,2904.0,0.0,1.0,0.0,?,0.0,0.0
9900000.0,67.0,8.984155202698377E-7,9900000.0,56.99999999999999,14.065997314062798,15.851272015655567,9.663865546218473,1965075.0,2904.0,0.0,1.0,0.0,?,0.0,0.0
1.0E7,67.6875,9.024336597778732E-7,1.0E7,55.60000000000001,11.13174918337283,11.729622266401602,8.074534161490691,1985075.0,2904.0,0.0,1.0,0.0,?,0.0,0.0
