learning evaluation instances,evaluation time (cpu seconds),model cost (RAM-Hours),classified instances,classifications correct (percent),Kappa Statistic (percent),Kappa Temporal Statistic (percent),Kappa M Statistic (percent),model training instances,model serialized size (bytes),labeling cost,newThreshold,maxPosterior,accuracyBaseLearner (percent),Change detected,Warning detected
100000.0,0.390625,1.5756490433381664E-8,100000.0,67.60000000000001,34.62337819568596,30.769230769230777,28.159645232815965,9900.0,2904.0,0.0,1.0,0.0,?,0.0,5.0
200000.0,0.765625,2.9408127172953555E-8,200000.0,68.10000000000001,35.18789415512646,35.03054989816701,27.33485193621868,19900.0,2904.0,0.0,1.0,0.0,?,0.0,0.0
300000.0,1.15625,4.2092546613679995E-8,300000.0,67.10000000000001,33.28737123854329,31.02725366876311,27.692307692307693,29900.0,2904.0,0.0,1.0,0.0,?,0.0,0.0
400000.0,1.53125,5.279499520030287E-8,400000.0,69.69999999999999,38.134984156022334,36.74321503131523,29.37062937062937,39900.0,2904.0,0.0,1.0,0.0,?,0.0,0.0
500000.0,1.90625,6.202284971045123E-8,500000.0,66.0,31.20751052120428,27.50533049040512,27.350427350427353,49900.0,2904.0,0.0,1.0,0.0,?,0.0,0.0
600000.0,2.28125,6.97761101441251E-8,600000.0,68.5,35.8843883574191,36.363636363636374,30.000000000000004,59900.0,2904.0,0.0,1.0,0.0,?,0.0,0.0
700000.0,2.65625,7.605477650132445E-8,700000.0,66.5,31.971407684184882,31.06995884773663,23.863636363636363,69900.0,2904.0,0.0,1.0,0.0,?,0.0,0.0
800000.0,3.03125,8.08588487820493E-8,800000.0,67.30000000000001,33.49873911982431,30.720338983050855,25.681818181818183,79900.0,2904.0,0.0,1.0,0.0,?,0.0,0.0
900000.0,3.390625,8.40495987277892E-8,900000.0,64.9,28.859234517256194,28.947368421052634,20.588235294117645,89900.0,2904.0,0.0,1.0,0.0,?,0.0,0.0
1000000.0,3.765625,8.590525895771054E-8,1000000.0,67.9,35.33805506538712,35.54216867469881,29.139072847682122,99900.0,2904.0,0.0,1.0,0.0,?,0.0,14.0
1100000.0,4.125,1.0041610544754401E-7,1100000.0,65.8,30.607126769822628,31.325301204819283,24.16851441241685,109800.0,2904.0,0.0,1.0,0.0,?,0.0,0.0
1200000.0,4.484375,1.1357032538702093E-7,1200000.0,66.5,32.26904756128136,30.78512396694215,27.48917748917749,119800.0,2904.0,0.0,1.0,0.0,?,0.0,5.0
1300000.0,4.875,1.2633235504229867E-7,1300000.0,66.7,32.87968330498022,35.21400778210118,27.922077922077925,129800.0,2904.0,0.0,1.0,0.0,?,0.0,99.0
1400000.0,5.25,1.3710930943489077E-7,1400000.0,70.3,39.54075401025975,40.24144869215291,32.499999999999986,139800.0,2904.0,0.0,1.0,0.0,?,0.0,48.0
1500000.0,5.625,1.4639925211668017E-7,1500000.0,67.7,34.41571099054613,34.21588594704686,27.25225225225226,149800.0,2904.0,0.0,1.0,0.0,?,0.0,38.0
1600000.0,6.0,1.5422701835632326E-7,1600000.0,67.30000000000001,32.53725923847565,26.351351351351354,20.04889975550124,159800.0,2904.0,0.0,1.0,0.0,?,0.0,38.0
1700000.0,6.359375,1.6031547501269315E-7,1700000.0,68.8,36.49035956227201,32.32104121475052,29.72972972972971,169800.0,2904.0,0.0,1.0,0.0,?,0.0,61.0
1800000.0,6.75,1.6539732718633283E-7,1800000.0,68.30000000000001,35.49358598684641,35.04098360655738,26.78983833718247,179800.0,2904.0,0.0,1.0,0.0,?,0.0,10.0
1900000.0,7.125,1.688013111965524E-7,1900000.0,69.39999999999999,37.5415879132767,35.983263598326346,29.002320185614845,189800.0,2904.0,0.0,1.0,0.0,?,0.0,0.0
2000000.0,7.5,1.7073070113029746E-7,2000000.0,68.89999999999999,37.275624218466355,37.92415169660678,30.11235955056178,199800.0,2904.0,0.0,1.0,0.0,?,0.0,0.0
2100000.0,7.890625,1.8658016213319368E-7,2100000.0,68.2,35.344827586206904,39.080459770114956,26.38888888888891,209700.0,2904.0,0.0,1.0,0.0,?,0.0,0.0
2200000.0,8.28125,2.008935876397623E-7,2200000.0,66.3,31.82002104070567,32.32931726907631,24.269662921348313,219700.0,2904.0,0.0,1.0,0.0,?,0.0,0.0
2300000.0,8.65625,2.1315988204959365E-7,2300000.0,64.9,29.371141571622893,29.090909090909093,24.839400428265524,229700.0,2904.0,0.0,1.0,0.0,?,0.0,0.0
2400000.0,9.03125,2.2395158238295052E-7,2400000.0,67.2,33.236988336827544,33.737373737373744,24.597701149425305,239700.0,2904.0,0.0,1.0,0.0,?,0.0,0.0
2500000.0,9.40625,2.3326868863983286E-7,2500000.0,65.3,29.65284591743232,27.55741127348643,22.717149220489976,249700.0,2904.0,0.0,1.0,0.0,?,0.0,0.0
2600000.0,9.78125,2.411112008202407E-7,2600000.0,65.8,30.635275410407942,29.629629629629633,22.095671981776764,259700.0,2904.0,0.0,1.0,0.0,?,0.0,0.0
2700000.0,10.15625,2.47479118924174E-7,2700000.0,68.5,36.12568842313589,34.64730290456433,28.571428571428577,269700.0,2904.0,0.0,1.0,0.0,?,0.0,14.0
2800000.0,10.546875,2.5257633145277694E-7,2800000.0,69.5,37.5394218403139,36.7219917012448,28.403755868544593,279700.0,2904.0,0.0,1.0,0.0,?,0.0,80.0
2900000.0,10.921875,2.559950614037613E-7,2900000.0,68.10000000000001,35.71451602502097,38.29787234042554,31.837606837606845,289700.0,2904.0,0.0,1.0,0.0,?,0.0,0.0
3000000.0,11.296875,2.5793919727827107E-7,3000000.0,66.2,31.440162271805278,27.155172413793103,24.88888888888889,299700.0,2904.0,0.0,1.0,0.0,?,0.0,0.0
3100000.0,11.65625,2.725348329275018E-7,3100000.0,67.10000000000001,33.599205612380835,35.742187500000014,28.633405639913235,309600.0,2904.0,0.0,1.0,0.0,?,0.0,0.0
3200000.0,12.03125,2.862904673545724E-7,3200000.0,67.7,34.50401492416255,35.14056224899599,27.088036117381492,319600.0,2904.0,0.0,1.0,0.0,?,0.0,0.0
3300000.0,12.421875,2.9908321771977665E-7,3300000.0,68.60000000000001,36.542068162711,37.074148296593194,26.63551401869161,329600.0,2904.0,0.0,1.0,0.0,?,0.0,0.0
3400000.0,12.8125,3.103399325886533E-7,3400000.0,68.8,35.92244973403709,35.934291581108816,26.241134751773043,339600.0,2904.0,0.0,1.0,0.0,?,0.0,0.0
3500000.0,13.171875,3.1928295761139846E-7,3500000.0,68.7,36.65044810194218,38.74755381604698,30.289532293986642,349600.0,2904.0,0.0,1.0,0.0,?,0.0,0.0
3600000.0,13.546875,3.2714021573257104E-7,3600000.0,69.5,38.00359375889291,39.72332015810276,32.37250554323723,359600.0,2904.0,0.0,1.0,0.0,?,0.0,0.0
3700000.0,13.90625,3.332569354420734E-7,3700000.0,68.7,37.029734840864286,37.14859437751005,31.659388646288217,369600.0,2904.0,0.0,1.0,0.0,?,0.0,0.0
3800000.0,14.265625,3.379605024949543E-7,3800000.0,68.0,34.82051198487836,32.34672304439747,27.601809954751133,379600.0,2904.0,0.0,1.0,0.0,?,0.0,0.0
3900000.0,14.640625,3.4139397838670336E-7,3900000.0,67.60000000000001,33.98855801672291,36.09467455621303,26.027397260273972,389600.0,2904.0,0.0,1.0,0.0,?,0.0,0.0
4000000.0,15.0,3.4327124012634145E-7,4000000.0,65.9,30.961597641761564,31.250000000000007,25.219298245614034,399600.0,2904.0,0.0,1.0,0.0,?,0.0,0.0
4100000.0,15.375,3.585162145706513E-7,4100000.0,63.6,26.453651657015392,28.346456692913392,20.350109409190367,409500.0,2904.0,0.0,1.0,0.0,?,0.0,0.0
4200000.0,15.765625,3.728603607871465E-7,4200000.0,66.10000000000001,31.48082271521894,32.47011952191235,26.143790849673206,419500.0,2904.0,0.0,1.0,0.0,?,0.0,0.0
4300000.0,16.125,3.8464382264970066E-7,4300000.0,65.5,30.884992627732544,30.020283975659233,29.158110882956883,429500.0,2904.0,0.0,1.0,0.0,?,0.0,0.0
4400000.0,16.515625,3.959158978735406E-7,4400000.0,65.5,30.48223166141421,32.61718750000001,23.50332594235033,439500.0,2904.0,0.0,1.0,0.0,?,0.0,0.0
4500000.0,16.890625,4.0526249601195245E-7,4500000.0,65.9,30.282957147530265,28.059071729957807,21.78899082568809,449500.0,2904.0,0.0,1.0,0.0,?,0.0,0.0
4600000.0,17.265625,4.1313450007388977E-7,4600000.0,67.10000000000001,33.524072771945136,33.26572008113591,28.32244008714597,459500.0,2904.0,0.0,1.0,0.0,?,0.0,0.0
4700000.0,17.65625,4.197984688087469E-7,4700000.0,66.5,31.576797385620925,28.571428571428577,20.238095238095255,469500.0,2904.0,0.0,1.0,0.0,?,0.0,0.0
4800000.0,18.03125,4.2472128471773523E-7,4800000.0,68.7,36.41416521753264,37.52495009980041,29.345372460496616,479500.0,2904.0,0.0,1.0,0.0,?,0.0,0.0
4900000.0,18.390625,4.2802583064056095E-7,4900000.0,67.10000000000001,33.44338439378859,33.26572008113591,25.565610859728505,489500.0,2904.0,0.0,1.0,0.0,?,0.0,0.0
5000000.0,18.75,4.3013217186348295E-7,5000000.0,69.0,37.09441114281191,36.344969199178635,29.38496583143506,499500.0,2904.0,0.0,1.0,0.0,?,0.0,0.0
5100000.0,19.140625,4.4619182719745557E-7,5100000.0,56.89999999999999,11.045983653925514,8.297872340425517,-16.17250673854449,230321.0,2904.0,0.0,1.0,0.0,?,1.0,59.0
5200000.0,19.515625,4.601345022415948E-7,5200000.0,54.900000000000006,5.386467957270773,7.581967213114761,-18.372703412073477,240321.0,2904.0,0.0,1.0,0.0,?,0.0,0.0
5300000.0,19.890625,4.726025832092595E-7,5300000.0,57.599999999999994,9.253179349105585,5.777777777777759,-13.672922252010736,250321.0,2904.0,0.0,1.0,0.0,?,0.0,0.0
5400000.0,20.265625,4.835960701004497E-7,5400000.0,58.8,11.748199620431567,8.64745011086473,-13.498622589531692,260321.0,2904.0,0.0,1.0,0.0,?,0.0,0.0
5500000.0,20.640625,4.931149629151654E-7,5500000.0,60.9,13.882721922683858,18.371607515657615,-7.417582417582425,270321.0,2904.0,0.0,1.0,0.0,?,0.0,0.0
5600000.0,21.015625,5.011592616534066E-7,5600000.0,59.8,12.876505697703141,19.277108433734934,-2.813299232736575,280321.0,2904.0,0.0,1.0,0.0,?,0.0,0.0
5700000.0,21.390625,5.077289663151733E-7,5700000.0,61.4,14.814357091153044,13.646532438478737,-3.2085561497326234,290321.0,2904.0,0.0,1.0,0.0,?,0.0,0.0
5800000.0,21.765625,5.128240769004655E-7,5800000.0,60.5,13.710241174414525,17.190775681341712,-6.182795698924737,300321.0,2904.0,0.0,1.0,0.0,?,0.0,0.0
5900000.0,22.140625,5.164445934092832E-7,5900000.0,62.2,17.897480451781064,20.42105263157894,3.0769230769230793,310321.0,2904.0,0.0,1.0,0.0,?,0.0,0.0
6000000.0,22.515625,5.185905158416263E-7,6000000.0,63.800000000000004,21.047580828084385,23.628691983122362,6.217616580310886,320321.0,2904.0,0.0,1.0,0.0,?,0.0,0.0
6100000.0,22.890625,5.340225309030049E-7,6100000.0,63.2,19.895167153535713,24.123711340206185,7.76942355889725,330221.0,2904.0,0.0,1.0,0.0,?,0.0,0.0
6200000.0,23.265625,5.479799518879088E-7,6200000.0,65.3,22.864891299515417,23.736263736263734,9.87012987012988,340221.0,2904.0,0.0,1.0,0.0,?,0.0,0.0
6300000.0,23.625,5.59942661008487E-7,6300000.0,63.3,15.032921848809533,19.340659340659336,-6.069364161849717,350221.0,2904.0,0.0,1.0,0.0,?,0.0,0.0
6400000.0,23.984375,5.704922174724439E-7,6400000.0,63.800000000000004,17.33385703781177,22.1505376344086,1.8970189701897036,360221.0,2904.0,0.0,1.0,0.0,?,0.0,0.0
6500000.0,24.359375,5.800258562279243E-7,6500000.0,62.6,17.307496716621184,22.56728778467909,4.834605597964381,370221.0,2904.0,0.0,1.0,0.0,?,0.0,0.0
6600000.0,24.71875,5.877491073786384E-7,6600000.0,66.4,23.633586675879137,27.114967462039047,10.638297872340436,380221.0,2904.0,0.0,1.0,0.0,?,0.0,0.0
6700000.0,25.09375,5.943335579811699E-7,6700000.0,64.3,18.814186822883034,20.84257206208425,5.55555555555556,390221.0,2904.0,0.0,1.0,0.0,?,0.0,0.0
6800000.0,25.46875,5.994434145072268E-7,6800000.0,68.89999999999999,28.282846917315418,31.194690265486706,12.885154061624633,400221.0,2904.0,0.0,1.0,0.0,?,0.0,0.0
6900000.0,25.84375,6.030786769568092E-7,6900000.0,64.9,20.70520408808727,24.516129032258064,8.115183246073306,410221.0,2904.0,0.0,1.0,0.0,?,0.0,0.0
7000000.0,26.203125,6.051493174810376E-7,7000000.0,63.9,20.967134587934478,25.103734439834025,9.52380952380953,420221.0,2904.0,0.0,1.0,0.0,?,0.0,0.0
7100000.0,26.578125,6.205960784831808E-7,7100000.0,68.89999999999999,27.980584862491533,28.505747126436777,14.088397790055232,430121.0,2904.0,0.0,1.0,0.0,?,0.0,0.0
7200000.0,26.953125,6.345682454088496E-7,7200000.0,68.0,25.031861458879987,32.34672304439747,10.112359550561807,440121.0,2904.0,0.0,1.0,0.0,?,0.0,0.0
7300000.0,27.3125,6.46545086055994E-7,7300000.0,66.0,23.141261839636517,27.038626609442062,12.14470284237727,450121.0,2904.0,0.0,1.0,0.0,?,0.0,0.0
7400000.0,27.671875,6.57108774046517E-7,7400000.0,68.7,29.6350916317465,31.956521739130437,17.414248021108193,460121.0,2904.0,0.0,1.0,0.0,?,0.0,0.0
7500000.0,28.03125,6.662593093804187E-7,7500000.0,67.9,29.802309307207853,34.3558282208589,21.89781021897812,470121.0,2904.0,0.0,1.0,0.0,?,0.0,0.0
7600000.0,28.40625,6.743331000001894E-7,7600000.0,69.1,27.94381016342063,30.872483221476493,14.40443213296397,480121.0,2904.0,0.0,1.0,0.0,?,0.0,0.0
7700000.0,28.78125,6.809322965434855E-7,7700000.0,67.9,26.338978383588053,31.410256410256416,13.243243243243255,490121.0,2904.0,0.0,1.0,0.0,?,0.0,0.0
7800000.0,29.140625,6.858433739075229E-7,7800000.0,69.0,28.78245567282199,31.71806167400879,15.9891598915989,500121.0,2904.0,0.0,1.0,0.0,?,0.0,0.0
7900000.0,29.53125,6.896454659808013E-7,7900000.0,66.7,24.641538127308298,26.651982378854626,10.483870967741945,510121.0,2904.0,0.0,1.0,0.0,?,0.0,0.0
8000000.0,29.890625,6.917302380315959E-7,8000000.0,69.5,30.48654857736733,36.45833333333332,18.449197860962556,520121.0,2904.0,0.0,1.0,0.0,?,0.0,0.0
8100000.0,30.265625,7.071917449745039E-7,8100000.0,67.80000000000001,24.86746808034048,32.06751054852322,9.550561797752819,530021.0,2904.0,0.0,1.0,0.0,?,0.0,0.0
8200000.0,30.640625,7.211786578409373E-7,8200000.0,65.9,24.255886272767675,24.053452115812917,14.750000000000012,540021.0,2904.0,0.0,1.0,0.0,?,0.0,0.0
8300000.0,31.015625,7.336909766308962E-7,8300000.0,68.5,29.177833336331116,34.511434511434516,17.754569190600538,550021.0,2904.0,0.0,1.0,0.0,?,0.0,0.0
8400000.0,31.390625,7.447287013443807E-7,8400000.0,69.5,28.021900221834134,33.695652173913025,11.594202898550703,560021.0,2904.0,0.0,1.0,0.0,?,0.0,0.0
8500000.0,31.765625,7.542918319813906E-7,8500000.0,67.2,24.14711759046845,26.126126126126124,10.869565217391314,570021.0,2904.0,0.0,1.0,0.0,?,0.0,0.0
8600000.0,32.140625,7.62380368541926E-7,8600000.0,67.2,26.56277986745479,34.00402414486922,14.583333333333345,580021.0,2904.0,0.0,1.0,0.0,?,0.0,0.0
8700000.0,32.515625,7.689943110259869E-7,8700000.0,66.4,24.6552304069963,28.051391862955033,12.727272727272737,590021.0,2904.0,0.0,1.0,0.0,?,0.0,0.0
8800000.0,32.90625,7.743477989505562E-7,8800000.0,67.80000000000001,27.451333813987034,33.60824742268042,15.263157894736857,600021.0,2904.0,0.0,1.0,0.0,?,0.0,0.0
8900000.0,33.28125,7.78012553281668E-7,8900000.0,68.0,29.27864214992929,32.77310924369748,18.367346938775526,610021.0,2904.0,0.0,1.0,0.0,?,0.0,0.0
9000000.0,33.65625,7.802027135363054E-7,9000000.0,68.7,28.74055186230763,34.381551362683446,16.755319148936184,620021.0,2904.0,0.0,1.0,0.0,?,0.0,0.0
9100000.0,34.015625,7.950341225498251E-7,9100000.0,72.39999999999999,36.260132560448945,42.97520661157024,22.253521126760553,629921.0,2904.0,0.0,1.0,0.0,?,0.0,0.0
9200000.0,34.375,8.084523789067234E-7,9200000.0,68.89999999999999,30.11487227425529,33.829787234042534,19.010416666666654,639921.0,2904.0,0.0,1.0,0.0,?,0.0,0.0
9300000.0,34.75,8.209794436374471E-7,9300000.0,68.60000000000001,31.91644369663356,36.437246963562764,23.97094430992738,649921.0,2904.0,0.0,1.0,0.0,?,0.0,0.0
9400000.0,35.125,8.320319142916962E-7,9400000.0,69.0,32.69911293088848,38.24701195219122,23.076923076923066,659921.0,2904.0,0.0,1.0,0.0,?,0.0,0.0
9500000.0,35.484375,8.412107126787302E-7,9500000.0,69.5,31.995540691192854,37.881873727087566,23.173803526448356,669921.0,2904.0,0.0,1.0,0.0,?,0.0,0.0
9600000.0,35.84375,8.489763584091429E-7,9600000.0,69.19999999999999,30.91970986278141,36.494845360824726,21.62849872773536,679921.0,2904.0,0.0,1.0,0.0,?,0.0,0.0
9700000.0,36.21875,8.556050468339685E-7,9700000.0,72.1,36.67208396509927,41.1392405063291,25.201072386058975,689921.0,2904.0,0.0,1.0,0.0,?,0.0,0.0
9800000.0,36.578125,8.605443872511384E-7,9800000.0,68.60000000000001,29.73347953543537,34.03361344537816,20.506329113924068,699921.0,2904.0,0.0,1.0,0.0,?,0.0,0.0
9900000.0,36.953125,8.642238875230151E-7,9900000.0,71.6,33.61011370436864,37.444933920704834,19.318181818181802,709921.0,2904.0,0.0,1.0,0.0,?,0.0,0.0
1.0E7,37.3125,8.663369226269421E-7,1.0E7,68.10000000000001,28.590616045845284,34.0909090909091,17.994858611825208,719921.0,2904.0,0.0,1.0,0.0,?,0.0,0.0
