learning evaluation instances,evaluation time (cpu seconds),model cost (RAM-Hours),classified instances,classifications correct (percent),Kappa Statistic (percent),Kappa Temporal Statistic (percent),Kappa M Statistic (percent),model training instances,model serialized size (bytes),labeling cost,newThreshold,maxPosterior,accuracyBaseLearner (percent),Change detected,Warning detected
100000.0,0.125,1.9609514209959243E-9,100000.0,69.8,36.846507737348375,25.98039215686274,-7.0921985815602895,19733.0,3256.0,0.0,1.0,0.0,?,36.0,214.0
200000.0,0.265625,3.8177758041355345E-9,200000.0,66.8,32.1964668640866,21.51300236406621,-13.31058020477813,79733.0,3256.0,0.0,1.0,0.0,?,0.0,0.0
300000.0,0.390625,5.147756180829472E-9,300000.0,69.89999999999999,0.0,30.0,0.0,1089.0,3256.0,0.0,1.0,0.0,?,46.0,283.0
400000.0,0.5,6.048681421412362E-9,400000.0,68.30000000000001,33.18438580220893,24.703087885985767,-10.452961672473837,33834.0,3256.0,0.0,1.0,0.0,?,23.0,242.0
500000.0,0.625,6.759073585271836E-9,500000.0,66.60000000000001,32.17420264073854,20.853080568720394,-10.963455149501634,93834.0,3256.0,0.0,1.0,0.0,?,0.0,41.0
600000.0,0.75,8.715109692679512E-9,600000.0,66.60000000000001,30.067001675041887,22.6851851851852,-11.333333333333306,153534.0,3256.0,0.0,1.0,0.0,?,0.0,96.0
700000.0,0.890625,1.0566404348032343E-8,700000.0,70.7,37.34282243854036,24.67866323907454,-2.090592334494775,213534.0,3256.0,0.0,1.0,0.0,?,0.0,22.0
800000.0,1.03125,1.206845303790437E-8,800000.0,67.60000000000001,31.277017252862414,15.844155844155857,-12.891986062717741,273534.0,3256.0,0.0,1.0,0.0,?,0.0,0.0
900000.0,1.15625,1.3093166570696568E-8,900000.0,67.10000000000001,31.662207746888456,20.53140096618359,-13.840830449826964,333534.0,3256.0,0.0,1.0,0.0,?,0.0,0.0
1000000.0,1.28125,1.3807439245283606E-8,1000000.0,69.6,35.66818326103057,21.243523316062166,-10.545454545454554,393534.0,3256.0,0.0,1.0,0.0,?,0.0,0.0
1100000.0,1.390625,1.5521687196774616E-8,1100000.0,68.10000000000001,34.86499289436287,30.652173913043484,-0.6309148264984233,453234.0,3256.0,0.0,1.0,0.0,?,0.0,0.0
1200000.0,1.515625,1.7170386854559184E-8,1200000.0,71.1,39.260193358554005,29.51219512195122,-3.2142857142857166,513234.0,3256.0,0.0,1.0,0.0,?,0.0,0.0
1300000.0,1.609375,1.817408095424374E-8,1300000.0,68.7,35.03312687843516,25.29832935560861,-6.825938566552868,573234.0,3256.0,0.0,1.0,0.0,?,0.0,0.0
1400000.0,1.734375,1.920189889561799E-8,1400000.0,67.4,33.860018584117476,20.487804878048795,-4.153354632587864,633234.0,3256.0,0.0,1.0,0.0,?,0.0,0.0
1500000.0,1.859375,1.991927597878708E-8,1500000.0,69.0,35.01020968641377,22.110552763819086,-9.540636042402834,693234.0,3256.0,0.0,1.0,0.0,?,0.0,0.0
1600000.0,1.96875,2.1633523930278092E-8,1600000.0,69.19999999999999,35.888896289882084,26.491646778042956,-4.054054054054057,752934.0,3256.0,0.0,1.0,0.0,?,0.0,0.0
1700000.0,2.078125,2.307613613083959E-8,1700000.0,66.2,30.45725384336835,18.357487922705328,-10.457516339869253,812934.0,3256.0,0.0,1.0,0.0,?,0.0,0.0
1800000.0,2.203125,2.4414394930418996E-8,1800000.0,69.89999999999999,37.27650848955163,25.124378109452728,-5.244755244755249,872934.0,3256.0,0.0,1.0,0.0,?,0.0,0.0
1900000.0,2.3125,2.5313735629121465E-8,1900000.0,68.8,35.79322124585844,27.102803738317753,-4.347826086956525,932934.0,3256.0,0.0,1.0,0.0,?,0.0,0.0
2000000.0,2.46875,2.6210456983082828E-8,2000000.0,68.0,32.02134529757656,13.513513513513525,-21.212121212121186,992934.0,3256.0,0.0,1.0,0.0,?,0.0,0.0
2100000.0,2.609375,2.841798252322608E-8,2100000.0,70.7,39.47281441084117,30.73286052009456,2.6578073089701015,1052634.0,3256.0,0.0,1.0,0.0,?,0.0,0.0
2200000.0,2.734375,3.00697865895927E-8,2200000.0,68.4,32.73848040050405,21.588089330024832,-13.669064748201409,1112634.0,3256.0,0.0,1.0,0.0,?,0.0,0.0
2300000.0,2.859375,3.141114979775416E-8,2300000.0,67.30000000000001,32.812821039654835,21.95704057279238,-5.483870967741904,1172634.0,3256.0,0.0,1.0,0.0,?,0.0,0.0
2400000.0,2.984375,3.244207214771046E-8,2400000.0,68.2,34.249430368492675,14.054054054054067,-13.978494623655886,1232634.0,3256.0,0.0,1.0,0.0,?,0.0,0.0
2500000.0,3.09375,3.3072493452992706E-8,2500000.0,69.3,35.357533900446384,27.07838479809976,-5.498281786941585,1292634.0,3256.0,0.0,1.0,0.0,?,0.0,0.0
2600000.0,3.21875,3.5034738377564485E-8,2600000.0,68.10000000000001,33.90792690506774,24.586288416075668,3.3333333333333366,1352334.0,3256.0,0.0,1.0,0.0,?,0.0,0.0
2700000.0,3.34375,3.66865424439311E-8,2700000.0,70.19999999999999,38.01996672212978,32.579185520361975,0.6666666666666672,1412334.0,3256.0,0.0,1.0,0.0,?,0.0,0.0
2800000.0,3.453125,3.786023525107238E-8,2800000.0,67.30000000000001,29.986982289061707,17.42424242424244,-22.014925373134307,1472334.0,3256.0,0.0,1.0,0.0,?,0.0,0.0
2900000.0,3.578125,3.889115760102868E-8,2900000.0,68.2,34.1224824637363,21.867321867321884,-6.354515050167192,1532334.0,3256.0,0.0,1.0,0.0,?,0.0,0.0
3000000.0,3.71875,3.970169927924871E-8,3000000.0,66.7,30.49467752035066,23.094688221709024,-7.419354838709646,1592334.0,3256.0,0.0,1.0,0.0,?,0.0,0.0
3100000.0,3.84375,4.166704861240254E-8,3100000.0,69.0,36.09591384904618,24.019607843137248,-0.32362459546925587,1652034.0,3256.0,0.0,1.0,0.0,?,0.0,0.0
3200000.0,3.953125,4.311509352798263E-8,3200000.0,67.7,33.77401973247164,24.532710280373852,-2.866242038216564,1712034.0,3256.0,0.0,1.0,0.0,?,0.0,0.0
3300000.0,4.078125,4.445956114472614E-8,3300000.0,66.5,29.86349551963822,16.04010025062658,-17.54385964912278,1772034.0,3256.0,0.0,1.0,0.0,?,0.0,0.0
3400000.0,4.1875,4.5364334558447197E-8,3400000.0,69.39999999999999,34.997344662772164,26.442307692307686,-11.272727272727282,1832034.0,3256.0,0.0,1.0,0.0,?,0.0,0.0
3500000.0,4.3125,4.608792045878039E-8,3500000.0,66.4,30.20154304445913,12.041884816753937,-23.076923076923055,1892034.0,3256.0,0.0,1.0,0.0,?,0.0,0.0
3600000.0,4.4375,4.805326979193422E-8,3600000.0,69.8,36.3406408094435,31.207289293849637,-0.6666666666666672,1951734.0,3256.0,0.0,1.0,0.0,?,0.0,0.0
3700000.0,4.546875,4.950131470751431E-8,3700000.0,70.6,36.9639794168096,26.499999999999996,-1.3793103448275872,2011734.0,3256.0,0.0,1.0,0.0,?,0.0,0.0
3800000.0,4.65625,5.067772387216488E-8,3800000.0,69.1,35.75723302868261,27.97202797202797,-0.9803921568627458,2071734.0,3256.0,0.0,1.0,0.0,?,0.0,0.0
3900000.0,4.78125,5.171175063070323E-8,3900000.0,69.8,37.84575869336142,26.520681265206807,0.6578947368421058,2131734.0,3256.0,0.0,1.0,0.0,?,0.0,0.0
4000000.0,4.90625,5.243533653103642E-8,4000000.0,69.5,37.015223730185596,31.46067415730335,-2.3489932885906057,2191734.0,3256.0,0.0,1.0,0.0,?,0.0,0.0
4100000.0,5.0625,5.4895903708206275E-8,4100000.0,69.3,35.64480965956732,26.024096385542162,-4.067796610169495,2251434.0,3256.0,0.0,1.0,0.0,?,0.0,0.0
4200000.0,5.1875,5.6553916591736996E-8,4200000.0,66.60000000000001,32.644994756796,16.70822942643393,-13.605442176870723,2311434.0,3256.0,0.0,1.0,0.0,?,0.0,0.0
4300000.0,5.3125,5.790148861706256E-8,4300000.0,66.8,31.657712180160154,20.76372315035801,-11.784511784511755,2371434.0,3256.0,0.0,1.0,0.0,?,0.0,0.0
4400000.0,5.4375,5.893861978418297E-8,4400000.0,70.8,40.275550610334776,29.126213592233007,3.3112582781456976,2431434.0,3256.0,0.0,1.0,0.0,?,0.0,0.0
4500000.0,5.5625,5.966531009309821E-8,4500000.0,69.1,35.042001967659736,22.36180904522612,-5.102040816326534,2491434.0,3256.0,0.0,1.0,0.0,?,0.0,0.0
4600000.0,5.6875,6.163376383483409E-8,4600000.0,68.10000000000001,34.39993419429137,25.64102564102566,-4.9342105263157565,2551134.0,3256.0,0.0,1.0,0.0,?,0.0,0.0
4700000.0,5.8125,6.329177671836482E-8,4700000.0,67.10000000000001,32.110076597992624,23.488372093023273,-12.671232876712303,2611134.0,3256.0,0.0,1.0,0.0,?,0.0,0.0
4800000.0,5.953125,6.480779524685608E-8,4800000.0,69.6,36.3838398212051,24.37810945273631,-7.420494699646649,2671134.0,3256.0,0.0,1.0,0.0,?,0.0,0.0
4900000.0,6.078125,6.584492641397649E-8,4900000.0,68.7,35.12307960170132,28.211009174311947,-9.44055944055941,2731134.0,3256.0,0.0,1.0,0.0,?,0.0,0.0
5000000.0,6.203125,6.65959345901178E-8,5000000.0,69.69999999999999,37.06276275777263,24.81389578163771,-4.8442906574394495,2791134.0,3256.0,0.0,1.0,0.0,?,0.0,0.0
5100000.0,6.328125,6.859181060766182E-8,5100000.0,70.19999999999999,39.79822303748266,40.16064257028111,33.924611973392444,2850834.0,3256.0,0.0,1.0,0.0,?,0.0,0.0
5200000.0,6.4375,7.006656637208331E-8,5200000.0,71.3,42.53333867286051,43.28063241106719,41.18852459016393,2910834.0,3256.0,0.0,1.0,0.0,?,0.0,0.0
5300000.0,6.5625,7.1441560673217E-8,5300000.0,69.5,38.40673365859962,38.1338742393509,33.26039387308533,2970834.0,3256.0,0.0,1.0,0.0,?,0.0,0.0
5400000.0,6.6875,7.250611411614552E-8,5400000.0,69.1,38.09252862970116,40.80459770114942,34.11513859275052,3030834.0,3256.0,0.0,1.0,0.0,?,0.0,0.0
5500000.0,6.8125,7.326022670086888E-8,5500000.0,53.7,0.0,5.316973415132929,0.0,3090834.0,3256.0,0.0,1.0,0.0,?,0.0,0.0
5600000.0,6.921875,7.500661821621989E-8,5600000.0,66.8,33.58512306756714,33.33333333333334,29.661016949152547,3150534.0,3256.0,0.0,1.0,0.0,?,0.0,0.0
5700000.0,7.046875,7.669205337555873E-8,5700000.0,73.3,46.707437805384345,43.432203389830505,37.61682242990654,3210534.0,3256.0,0.0,1.0,0.0,?,0.0,0.0
5800000.0,7.171875,7.806704767669242E-8,5800000.0,70.19999999999999,40.90303337987052,37.91666666666666,35.49783549783548,3270534.0,3256.0,0.0,1.0,0.0,?,0.0,0.0
5900000.0,7.3125,7.926467029998701E-8,5900000.0,67.2,34.853420195439746,35.177865612648226,25.791855203619914,3330534.0,3256.0,0.0,1.0,0.0,?,0.0,0.0
6000000.0,7.421875,7.992451881161996E-8,6000000.0,70.39999999999999,41.23159516510743,40.681362725450896,33.632286995515685,3390534.0,3256.0,0.0,1.0,0.0,?,0.0,0.0
6100000.0,7.546875,8.192349923774602E-8,6100000.0,69.0,38.67918929932071,41.94756554307114,32.754880694143154,3450234.0,3256.0,0.0,1.0,0.0,?,0.0,0.0
6200000.0,7.671875,8.361203880566692E-8,6200000.0,70.7,41.73792006363094,38.3157894736842,37.791932059447966,3510234.0,3256.0,0.0,1.0,0.0,?,0.0,0.0
6300000.0,7.796875,8.499013751538265E-8,6300000.0,71.89999999999999,44.06357244663147,43.57429718875501,39.177489177489164,3570234.0,3256.0,0.0,1.0,0.0,?,0.0,0.0
6400000.0,7.90625,8.59243381354544E-8,6400000.0,69.39999999999999,39.313889979652295,36.382536382536365,35.03184713375795,3630234.0,3256.0,0.0,1.0,0.0,?,0.0,0.0
6500000.0,8.03125,8.668155512875982E-8,6500000.0,69.69999999999999,39.80738362760833,39.03420523138832,33.112582781456936,3690234.0,3256.0,0.0,1.0,0.0,?,0.0,0.0
6600000.0,8.1875,8.918028066141738E-8,6600000.0,68.60000000000001,37.46788756965162,38.55185909980432,30.066815144766153,3749934.0,3256.0,0.0,1.0,0.0,?,0.0,0.0
6700000.0,8.3125,9.086882022933827E-8,6700000.0,67.10000000000001,34.49712105887694,36.73076923076924,31.315240083507312,3809934.0,3256.0,0.0,1.0,0.0,?,0.0,0.0
6800000.0,8.4375,9.224691893905401E-8,6800000.0,69.19999999999999,38.98573692551505,34.88372093023254,31.555555555555536,3869934.0,3256.0,0.0,1.0,0.0,?,0.0,0.0
6900000.0,8.5625,9.331457679056459E-8,6900000.0,71.89999999999999,44.32380167385238,41.942148760330575,37.69401330376939,3929934.0,3256.0,0.0,1.0,0.0,?,0.0,0.0
7000000.0,8.671875,9.397714165970684E-8,7000000.0,65.9,32.744270442980564,25.70806100217865,16.216216216216228,3989934.0,3256.0,0.0,1.0,0.0,?,0.0,0.0
7100000.0,8.796875,9.597922649441495E-8,7100000.0,69.69999999999999,39.831767238297964,42.39543726235741,36.0759493670886,4049634.0,3256.0,0.0,1.0,0.0,?,0.0,0.0
7200000.0,8.921875,9.76708704709179E-8,7200000.0,69.1,38.60520564275778,36.80981595092023,30.561797752808967,4109634.0,3256.0,0.0,1.0,0.0,?,0.0,0.0
7300000.0,9.046875,9.905207358921569E-8,7300000.0,68.2,36.81525017584436,32.05128205128206,32.19616204690832,4169634.0,3256.0,0.0,1.0,0.0,?,0.0,0.0
7400000.0,9.15625,9.998899056679674E-8,7400000.0,68.8,38.485804416403774,36.969696969696955,27.102803738317753,4229634.0,3256.0,0.0,1.0,0.0,?,0.0,0.0
7500000.0,9.28125,1.0074931196868422E-7,7500000.0,68.7,37.79710329258018,38.01980198019803,26.179245283018886,4289634.0,3256.0,0.0,1.0,0.0,?,0.0,0.0
7600000.0,9.40625,1.0275139680339233E-7,7600000.0,71.3,42.49879788427632,43.50393700787401,43.28063241106719,4349334.0,3256.0,0.0,1.0,0.0,?,0.0,0.0
7700000.0,9.53125,1.0444304077989528E-7,7700000.0,71.5,43.446546072213785,46.529080675422136,37.08609271523178,4409334.0,3256.0,0.0,1.0,0.0,?,0.0,0.0
7800000.0,9.65625,1.0582424389819307E-7,7800000.0,67.0,35.03911432722177,32.098765432098766,18.918918918918934,4469334.0,3256.0,0.0,1.0,0.0,?,0.0,0.0
7900000.0,9.765625,1.0676116087577412E-7,7900000.0,68.60000000000001,37.439481664189486,34.854771784232376,32.762312633832984,4529334.0,3256.0,0.0,1.0,0.0,?,0.0,0.0
8000000.0,9.90625,1.0761652245289752E-7,8000000.0,71.2,42.593116755235386,44.82758620689655,38.85350318471337,4589334.0,3256.0,0.0,1.0,0.0,?,0.0,0.0
8100000.0,10.03125,1.0962171169618768E-7,8100000.0,71.2,42.82197383311163,39.74895397489539,37.2549019607843,4649034.0,3256.0,0.0,1.0,0.0,?,0.0,0.0
8200000.0,10.171875,1.1152830362940831E-7,8200000.0,70.7,41.81058451565751,42.32283464566928,36.85344827586206,4709034.0,3256.0,0.0,1.0,0.0,?,0.0,0.0
8300000.0,10.296875,1.1291261115628815E-7,8300000.0,68.7,37.68118250453952,39.45841392649905,30.905077262693165,4769034.0,3256.0,0.0,1.0,0.0,?,0.0,0.0
8400000.0,10.40625,1.138522444913785E-7,8400000.0,69.8,39.90288943723632,39.720558882235515,34.06113537117903,4829034.0,3256.0,0.0,1.0,0.0,?,0.0,0.0
8500000.0,10.53125,1.1461567030184802E-7,8500000.0,70.0,40.346467715508325,36.57505285412261,30.87557603686636,4889034.0,3256.0,0.0,1.0,0.0,?,0.0,0.0
8600000.0,10.65625,1.1662085954513818E-7,8600000.0,69.8,40.155358275206076,39.11290322580644,34.34782608695651,4948734.0,3256.0,0.0,1.0,0.0,?,0.0,0.0
8700000.0,10.765625,1.1810376438208755E-7,8700000.0,69.5,39.32280268969083,38.25910931174088,29.06976744186046,5008734.0,3256.0,0.0,1.0,0.0,?,0.0,0.0
8800000.0,10.890625,1.194880719089674E-7,8800000.0,69.3,39.0795656591313,38.59999999999999,33.11546840958604,5068734.0,3256.0,0.0,1.0,0.0,?,0.0,0.0
8900000.0,11.015625,1.205619385776421E-7,8900000.0,69.39999999999999,39.30498254522372,40.58252427184465,33.478260869565204,5128734.0,3256.0,0.0,1.0,0.0,?,0.0,0.0
9000000.0,11.125,1.2122993616180292E-7,9000000.0,71.0,42.60312634833172,44.01544401544401,37.36501079913606,5188734.0,3256.0,0.0,1.0,0.0,?,0.0,0.0
9100000.0,11.25,1.2323822981367514E-7,9100000.0,68.30000000000001,37.24760471929686,36.21730382293764,30.634573304157552,5248434.0,3256.0,0.0,1.0,0.0,?,0.0,0.0
9200000.0,11.375,1.249360826073422E-7,9200000.0,70.1,40.882452962995174,40.08016032064127,35.14099783080259,5308434.0,3256.0,0.0,1.0,0.0,?,0.0,0.0
9300000.0,11.484375,1.2615006805087135E-7,9300000.0,69.69999999999999,40.21782021939862,40.118577075098806,31.60270880361172,5368434.0,3256.0,0.0,1.0,0.0,?,0.0,0.0
9400000.0,11.609375,1.272270391281281E-7,9400000.0,71.0,42.74387161991407,41.53225806451612,34.68468468468467,5428434.0,3256.0,0.0,1.0,0.0,?,0.0,0.0
9500000.0,11.75,1.2808938562456112E-7,9500000.0,69.89999999999999,40.235088555317276,39.31451612903225,35.26881720430106,5488434.0,3256.0,0.0,1.0,0.0,?,0.0,0.0
9600000.0,11.890625,1.3034871598291736E-7,9600000.0,67.4,35.07631520249818,34.00809716599191,31.941544885177457,5548134.0,3256.0,0.0,1.0,0.0,?,0.0,0.0
9700000.0,12.0,1.3183433717737602E-7,9700000.0,68.5,37.56045733496139,39.1891891891892,27.083333333333353,5608134.0,3256.0,0.0,1.0,0.0,?,0.0,0.0
9800000.0,12.125,1.332217491128379E-7,9800000.0,69.69999999999999,39.829855512220675,40.35433070866141,34.4155844155844,5668134.0,3256.0,0.0,1.0,0.0,?,0.0,0.0
9900000.0,12.25,1.3429872019009465E-7,9900000.0,68.0,36.32626422212583,39.5085066162571,33.19415448851775,5728134.0,3256.0,0.0,1.0,0.0,?,0.0,0.0
1.0E7,12.359375,1.3496943413176477E-7,1.0E7,68.5,37.65832805573148,35.45081967213115,30.30973451327434,5788134.0,3256.0,0.0,1.0,0.0,?,0.0,0.0
