learning evaluation instances,evaluation time (cpu seconds),model cost (RAM-Hours),classified instances,classifications correct (percent),Kappa Statistic (percent),Kappa Temporal Statistic (percent),Kappa M Statistic (percent),model training instances,model serialized size (bytes),labeling cost,newThreshold,maxPosterior,accuracyBaseLearner (percent),Change detected,Warning detected
100000.0,0.46875,2.1032368143399556E-9,100000.0,91.2,80.01226520089946,79.53488372093024,72.41379310344828,18180.0,3024.0,0.0,1.0,0.0,?,0.0,16.0
200000.0,0.90625,4.049959696001477E-9,200000.0,89.9,77.39055686386878,76.78160919540231,69.1131498470948,36362.0,3024.0,0.0,1.0,0.0,?,0.0,0.0
300000.0,1.359375,6.052141543477773E-9,300000.0,90.0,77.87845538526884,77.11670480549199,70.41420118343196,54544.0,3024.0,0.0,1.0,0.0,?,0.0,4.0
400000.0,1.8125,7.948353110502164E-9,400000.0,91.5,80.9948842700247,80.23255813953489,74.3975903614458,23232.0,3024.0,0.0,1.0,0.0,?,1.0,28.0
500000.0,2.25,9.848897914505667E-9,500000.0,88.4,74.3530785149548,72.3809523809524,63.975155279503106,41414.0,3024.0,0.0,1.0,0.0,?,0.0,69.0
600000.0,2.703125,1.1800439096987249E-8,600000.0,90.8,79.59319477408336,78.40375586854461,72.53731343283583,59596.0,3024.0,0.0,1.0,0.0,?,0.0,0.0
700000.0,3.171875,1.3801812504728636E-8,700000.0,89.4,77.04673803831896,75.40603248259862,69.36416184971098,77778.0,3024.0,0.0,1.0,0.0,?,0.0,0.0
800000.0,3.625,1.5719593243880403E-8,800000.0,89.7,77.4684120261804,77.11111111111111,70.40229885057472,95960.0,3024.0,0.0,1.0,0.0,?,0.0,0.0
900000.0,4.078125,1.751639906110035E-8,900000.0,91.60000000000001,81.03323699421966,80.60046189376445,74.6987951807229,114142.0,3024.0,0.0,1.0,0.0,?,0.0,2.0
1000000.0,4.515625,1.9234947911981077E-8,1000000.0,91.4,80.62583072382799,79.76470588235294,73.04075235109718,132324.0,3024.0,0.0,1.0,0.0,?,0.0,0.0
1100000.0,4.953125,2.1037703845649955E-8,1100000.0,90.4,78.45649783442921,77.46478873239437,69.52380952380953,150506.0,3024.0,0.0,1.0,0.0,?,0.0,1.0
1200000.0,5.40625,2.2996747348871493E-8,1200000.0,88.6,75.43781025923883,75.43103448275862,67.24137931034483,6250.0,3024.0,0.0,1.0,0.0,?,2.0,9.0
1300000.0,5.859375,2.4938910630428127E-8,1300000.0,92.10000000000001,81.95687922528778,82.4053452115813,76.20481927710844,24432.0,3024.0,0.0,1.0,0.0,?,0.0,0.0
1400000.0,6.296875,2.6797804619289104E-8,1400000.0,90.8,79.42119884937661,79.86870897155362,71.86544342507646,42614.0,3024.0,0.0,1.0,0.0,?,0.0,0.0
1500000.0,6.734375,2.8640400463094312E-8,1500000.0,87.7,72.36576050325769,68.86075949367088,61.198738170347,60796.0,3024.0,0.0,1.0,0.0,?,0.0,0.0
1600000.0,7.171875,3.046850906684994E-8,1600000.0,92.9,84.12300866749555,84.2920353982301,78.9940828402367,5981.0,3024.0,0.0,1.0,0.0,?,3.0,31.0
1700000.0,7.625,3.2345027041931944E-8,1700000.0,92.5,81.77133968500877,82.311320754717,74.5762711864407,24163.0,3024.0,0.0,1.0,0.0,?,0.0,0.0
1800000.0,8.09375,3.426879023512204E-8,1800000.0,91.0,80.19915252372802,79.21478060046189,73.60703812316716,42345.0,3024.0,0.0,1.0,0.0,?,0.0,0.0
1900000.0,8.53125,3.604800440371036E-8,1900000.0,90.0,78.6065138886512,78.16593886462883,72.37569060773481,60527.0,3024.0,0.0,1.0,0.0,?,0.0,0.0
2000000.0,8.953125,3.774795914068818E-8,2000000.0,89.1,75.31076722357119,73.79807692307693,65.50632911392404,78709.0,3024.0,0.0,1.0,0.0,?,0.0,0.0
2100000.0,9.40625,3.955695622911056E-8,2100000.0,92.30000000000001,82.57366586701671,82.09302325581397,76.59574468085107,96891.0,3024.0,0.0,1.0,0.0,?,0.0,0.0
2200000.0,9.84375,4.128727596253157E-8,2200000.0,91.5,80.11342367298046,79.90543735224588,72.66881028938909,115073.0,3024.0,0.0,1.0,0.0,?,0.0,0.0
2300000.0,10.296875,4.32481950459381E-8,2300000.0,91.10000000000001,80.03947250381269,80.1781737193764,73.51190476190477,133253.0,3024.0,0.0,1.0,0.0,?,0.0,0.0
2400000.0,10.734375,4.512519808486105E-8,2400000.0,92.30000000000001,82.23399444408554,82.33944954128441,76.01246105919004,151435.0,3024.0,0.0,1.0,0.0,?,0.0,0.0
2500000.0,11.1875,4.7052356724937765E-8,2500000.0,92.10000000000001,82.12119566201366,82.2072072072072,76.13293051359517,169617.0,3024.0,0.0,1.0,0.0,?,0.0,0.0
2600000.0,11.625,4.889676347374917E-8,2600000.0,90.10000000000001,77.56567139827052,78.28947368421053,69.1588785046729,187799.0,3024.0,0.0,1.0,0.0,?,0.0,0.0
2700000.0,12.078125,5.0865184877895656E-8,2700000.0,90.10000000000001,77.59106177623657,74.74489795918367,68.16720257234728,205981.0,3024.0,0.0,1.0,0.0,?,0.0,14.0
2800000.0,12.53125,5.2806410369359796E-8,2800000.0,87.7,72.42968448799907,71.12676056338029,58.862876254180605,25643.0,3024.0,0.0,1.0,0.0,?,1.0,7.0
2900000.0,12.96875,5.466439890571767E-8,2900000.0,90.5,78.82130532097985,79.16666666666667,72.54335260115607,43825.0,3024.0,0.0,1.0,0.0,?,0.0,0.0
3000000.0,13.421875,5.6571863953852E-8,3000000.0,90.5,78.75727842723363,79.87288135593221,71.55688622754491,62007.0,3024.0,0.0,1.0,0.0,?,0.0,0.0
3100000.0,13.859375,5.839725620009834E-8,3100000.0,90.4,78.06366108356374,77.46478873239437,69.13183279742766,80189.0,3024.0,0.0,1.0,0.0,?,0.0,0.0
3200000.0,14.3125,6.02812764959203E-8,3200000.0,89.3,76.38073374243963,75.11627906976744,67.17791411042946,98371.0,3024.0,0.0,1.0,0.0,?,0.0,1.0
3300000.0,14.75,6.208403242958918E-8,3300000.0,89.60000000000001,76.42920602687072,76.7337807606264,66.87898089171973,116553.0,3024.0,0.0,1.0,0.0,?,0.0,19.0
3400000.0,15.203125,6.40299468715158E-8,3400000.0,91.8,80.5501923633414,81.69642857142858,74.45482866043615,27052.0,3024.0,0.0,1.0,0.0,?,1.0,21.0
3500000.0,15.640625,6.589246267038918E-8,3500000.0,87.3,72.4476070638261,71.90265486725663,63.188405797101446,45234.0,3024.0,0.0,1.0,0.0,?,0.0,0.0
3600000.0,16.09375,6.780461666898597E-8,3600000.0,91.4,78.86396256463696,79.1767554479419,70.7482993197279,63416.0,3024.0,0.0,1.0,0.0,?,0.0,0.0
3700000.0,16.53125,6.96345361777478E-8,3700000.0,89.0,74.89398414212745,75.16930022573364,63.6963696369637,81598.0,3024.0,0.0,1.0,0.0,?,0.0,0.0
3800000.0,16.984375,7.151292973301479E-8,3800000.0,90.5,79.24241364844077,77.80373831775702,73.08781869688386,99780.0,3024.0,0.0,1.0,0.0,?,0.0,0.0
3900000.0,17.421875,7.331025295166507E-8,3900000.0,88.1,73.54779624245333,73.31838565022422,64.37125748502994,117962.0,3024.0,0.0,1.0,0.0,?,0.0,0.0
4000000.0,17.890625,7.521849410194491E-8,4000000.0,92.2,82.30626494326664,82.43243243243245,76.29179331306992,136144.0,3024.0,0.0,1.0,0.0,?,0.0,0.0
4100000.0,18.34375,7.704624699221718E-8,4100000.0,91.2,80.22294138798995,79.72350230414747,73.17073170731709,154326.0,3024.0,0.0,1.0,0.0,?,0.0,0.0
4200000.0,18.796875,7.885711966082454E-8,4200000.0,90.10000000000001,77.93842368923039,76.42857142857143,69.81707317073172,172508.0,3024.0,0.0,1.0,0.0,?,0.0,0.0
4300000.0,19.25,8.0651112107767E-8,4300000.0,88.6,74.80818866456882,73.42657342657343,65.2439024390244,190690.0,3024.0,0.0,1.0,0.0,?,0.0,0.0
4400000.0,19.671875,8.230304552449122E-8,4400000.0,90.7,78.93487478708369,77.53623188405798,70.56962025316456,208872.0,3024.0,0.0,1.0,0.0,?,0.0,37.0
4500000.0,20.125,8.424614659614034E-8,4500000.0,90.60000000000001,79.51971554192141,79.82832618025752,72.43401759530792,227052.0,3024.0,0.0,1.0,0.0,?,0.0,0.0
4600000.0,20.578125,8.617236744612457E-8,4600000.0,92.2,81.86341758318414,82.62806236080179,75.23809523809526,245234.0,3024.0,0.0,1.0,0.0,?,0.0,0.0
4700000.0,21.03125,8.808170807444389E-8,4700000.0,91.5,79.96889286892586,78.53535353535355,72.22222222222224,263416.0,3024.0,0.0,1.0,0.0,?,0.0,0.0
4800000.0,21.46875,8.990891122569642E-8,4800000.0,90.7,78.31844377716024,77.53623188405798,70.19230769230771,281598.0,3024.0,0.0,1.0,0.0,?,0.0,0.0
4900000.0,21.921875,9.178449141068593E-8,4900000.0,89.2,75.80135602030894,75.94654788418708,67.17325227963525,299780.0,3024.0,0.0,1.0,0.0,?,0.0,0.0
5000000.0,22.375,9.403143647230336E-8,5000000.0,89.60000000000001,77.17536343844371,76.7337807606264,69.94219653179191,317962.0,3024.0,0.0,1.0,0.0,?,0.0,0.0
5100000.0,22.828125,9.602048925848473E-8,5100000.0,63.6,31.10157974235019,20.524017467248903,-1.960784313725492,17939.0,3024.0,0.0,1.0,0.0,?,1.0,2.0
5200000.0,23.25,9.807842111008037E-8,5200000.0,66.0,35.526201014134934,27.966101694915256,10.290237467018478,13924.0,3024.0,0.0,1.0,0.0,?,2.0,19.0
5300000.0,23.703125,1.0029066793827549E-7,5300000.0,67.9,33.378716056352076,35.282258064516135,15.96858638743457,17557.0,3024.0,0.0,1.0,0.0,?,1.0,2.0
5400000.0,24.15625,1.024860345448057E-7,5400000.0,69.6,37.11004087847342,38.46153846153845,16.9398907103825,35739.0,3024.0,0.0,1.0,0.0,?,0.0,0.0
5500000.0,24.609375,1.0427627583137818E-7,5500000.0,69.8,37.827332916103956,36.68763102725366,22.95918367346938,53921.0,3024.0,0.0,1.0,0.0,?,0.0,0.0
5600000.0,25.0625,1.0662356443289254E-7,5600000.0,69.6,38.130901986323664,36.53444676409185,22.448979591836725,72101.0,3024.0,0.0,1.0,0.0,?,0.0,0.0
5700000.0,25.5,1.0887361390309202E-7,5700000.0,69.0,35.802919103394565,32.46187363834421,14.364640883977883,90283.0,3024.0,0.0,1.0,0.0,?,0.0,0.0
5800000.0,25.9375,1.1110736522823573E-7,5800000.0,69.39999999999999,36.91424047631809,33.90928725701942,14.763231197771571,108465.0,3024.0,0.0,1.0,0.0,?,0.0,0.0
5900000.0,26.390625,1.1340401316475538E-7,5900000.0,70.6,40.433015507676835,39.50617283950616,24.42159383033418,126647.0,3024.0,0.0,1.0,0.0,?,0.0,0.0
6000000.0,26.84375,1.1568378087961013E-7,6000000.0,69.0,38.18864824555456,34.73684210526314,20.7161125319693,144829.0,3024.0,0.0,1.0,0.0,?,0.0,0.0
6100000.0,27.296875,1.1794666837279997E-7,6100000.0,69.19999999999999,38.37165095944134,33.905579399141615,19.999999999999986,163011.0,3024.0,0.0,1.0,0.0,?,0.0,0.0
6200000.0,27.765625,1.2027012417092921E-7,6200000.0,71.39999999999999,41.66908012547266,40.54054054054053,22.493224932249312,181193.0,3024.0,0.0,1.0,0.0,?,0.0,0.0
6300000.0,28.21875,1.2249925122078925E-7,6300000.0,71.8,41.85854720591146,45.13618677042801,28.787878787878785,199375.0,3024.0,0.0,1.0,0.0,?,0.0,0.0
6400000.0,28.671875,1.2471149804898438E-7,6400000.0,72.1,41.507471948744616,35.86206896551724,23.140495867768585,217557.0,3024.0,0.0,1.0,0.0,?,0.0,0.0
6500000.0,29.125,1.269068646555146E-7,6500000.0,71.7,42.037652996018416,37.1111111111111,26.873385012919893,235739.0,3024.0,0.0,1.0,0.0,?,0.0,0.0
6600000.0,29.578125,1.286971059420871E-7,6600000.0,68.10000000000001,36.02958280860213,30.652173913043484,17.994858611825208,253921.0,3024.0,0.0,1.0,0.0,?,0.0,0.0
6700000.0,30.046875,1.311253355298606E-7,6700000.0,71.7,42.219899221704075,39.52991452991452,27.249357326478147,272101.0,3024.0,0.0,1.0,0.0,?,0.0,0.0
6800000.0,30.484375,1.3337538500006007E-7,6800000.0,70.1,38.82578237527824,38.35051546391752,21.932114882506518,290283.0,3024.0,0.0,1.0,0.0,?,0.0,0.0
6900000.0,30.9375,1.3568891315824462E-7,6900000.0,68.60000000000001,36.44650982043103,32.4731182795699,18.65284974093266,308465.0,3024.0,0.0,1.0,0.0,?,0.0,0.0
7000000.0,31.40625,1.3804729355292195E-7,7000000.0,72.3,43.41164453524004,40.301724137931025,26.133333333333326,326647.0,3024.0,0.0,1.0,0.0,?,0.0,58.0
7100000.0,31.84375,1.403190738831958E-7,7100000.0,72.5,43.98637748700483,44.21906693711967,28.385416666666664,344829.0,3024.0,0.0,1.0,0.0,?,0.0,28.0
7200000.0,32.296875,1.426588601639702E-7,7200000.0,72.89999999999999,44.22720724428895,42.94736842105262,24.512534818941496,363011.0,3024.0,0.0,1.0,0.0,?,0.0,2.0
7300000.0,32.734375,1.4490166601414488E-7,7300000.0,72.3,43.417193002524776,36.467889908256886,24.316939890710373,381193.0,3024.0,0.0,1.0,0.0,?,0.0,0.0
7400000.0,33.1875,1.47204878481312E-7,7400000.0,73.1,45.58885400822033,45.87525150905432,32.07070707070707,399375.0,3024.0,0.0,1.0,0.0,?,0.0,10.0
7500000.0,33.640625,1.4949121072681422E-7,7500000.0,68.7,36.47610852234905,35.72895277207393,21.553884711779467,417557.0,3024.0,0.0,1.0,0.0,?,0.0,0.0
7600000.0,34.09375,1.5176066275065153E-7,7600000.0,69.89999999999999,38.623035325399854,35.12931034482757,25.86206896551724,435739.0,3024.0,0.0,1.0,0.0,?,0.0,0.0
7700000.0,34.53125,1.535607023268111E-7,7700000.0,72.2,41.61601821244208,37.38738738738738,24.66124661246612,453921.0,3024.0,0.0,1.0,0.0,?,0.0,0.0
7800000.0,35.0,1.5606557200145398E-7,7800000.0,71.5,41.79872569841528,38.04347826086955,23.180592991913738,472101.0,3024.0,0.0,1.0,0.0,?,0.0,0.0
7900000.0,35.453125,1.5847006579861052E-7,7900000.0,71.3,41.099207815129496,41.66666666666666,22.43243243243242,490283.0,3024.0,0.0,1.0,0.0,?,0.0,0.0
8000000.0,35.890625,1.6077534787149901E-7,8000000.0,70.89999999999999,40.673750479095126,37.284482758620676,24.806201550387588,508465.0,3024.0,0.0,1.0,0.0,?,0.0,0.0
8100000.0,36.34375,1.6314608122532575E-7,8100000.0,69.6,38.43162670123135,35.864978902953574,23.232323232323225,526647.0,3024.0,0.0,1.0,0.0,?,0.0,0.0
8200000.0,36.796875,1.6549993435748757E-7,8200000.0,69.39999999999999,37.39130434782608,35.983263598326346,18.399999999999984,544829.0,3024.0,0.0,1.0,0.0,?,0.0,0.0
8300000.0,37.25,1.678369072679845E-7,8300000.0,70.39999999999999,39.42197099622205,38.58921161825725,21.899736147757245,563011.0,3024.0,0.0,1.0,0.0,?,0.0,0.0
8400000.0,37.71875,1.7023700315298313E-7,8400000.0,70.3,38.63991339344004,38.3817427385892,21.63588390501318,581193.0,3024.0,0.0,1.0,0.0,?,0.0,0.0
8500000.0,38.1875,1.7261963673970773E-7,8500000.0,70.19999999999999,39.18565924377979,33.924611973392444,24.74747474747474,599375.0,3024.0,0.0,1.0,0.0,?,0.0,0.0
8600000.0,38.65625,1.7498480802815828E-7,8600000.0,70.5,39.38422592629121,35.02202643171805,22.57217847769028,617557.0,3024.0,0.0,1.0,0.0,?,0.0,0.0
8700000.0,39.09375,1.7717600308565637E-7,8700000.0,69.89999999999999,38.64005153420255,34.70715835140996,16.620498614958436,635739.0,3024.0,0.0,1.0,0.0,?,0.0,0.0
8800000.0,39.546875,1.7904032978953595E-7,8800000.0,69.39999999999999,37.52322461829955,31.543624161073808,17.0731707317073,653921.0,3024.0,0.0,1.0,0.0,?,0.0,0.0
8900000.0,40.0,1.814617038083574E-7,8900000.0,70.5,40.39296192423642,37.89473684210525,19.398907103825124,672101.0,3024.0,0.0,1.0,0.0,?,0.0,0.0
9000000.0,40.46875,1.8394911118472622E-7,9000000.0,71.1,41.43917779795097,39.41299790356393,25.515463917525764,690283.0,3024.0,0.0,1.0,0.0,?,0.0,0.0
9100000.0,40.9375,1.8641905626282102E-7,9100000.0,70.6,40.41925390314683,37.57961783439489,21.39037433155079,708465.0,3024.0,0.0,1.0,0.0,?,0.0,0.0
9200000.0,41.390625,1.8878978961664776E-7,9200000.0,70.6,40.28880719783901,37.17948717948717,24.8081841432225,726647.0,3024.0,0.0,1.0,0.0,?,0.0,0.0
9300000.0,41.84375,1.9114364274880958E-7,9300000.0,72.3,43.89714341267397,40.938166311300634,27.864583333333325,744829.0,3024.0,0.0,1.0,0.0,?,0.0,0.0
9400000.0,42.296875,1.934806156593065E-7,9400000.0,71.2,41.4253172795314,39.495798319327726,27.272727272727266,763011.0,3024.0,0.0,1.0,0.0,?,0.0,0.0
9500000.0,42.765625,1.9588071154430513E-7,9500000.0,70.3,37.83437570642754,35.434782608695635,11.077844311377223,781193.0,3024.0,0.0,1.0,0.0,?,0.0,0.0
9600000.0,43.203125,1.9810450289191477E-7,9600000.0,72.2,42.34494315377309,38.90109890109889,24.250681198910073,799375.0,3024.0,0.0,1.0,0.0,?,0.0,0.0
9700000.0,43.65625,2.0039083513741698E-7,9700000.0,69.0,36.55237908111471,34.32203389830507,17.553191489361687,817557.0,3024.0,0.0,1.0,0.0,?,0.0,0.0
9800000.0,44.109375,2.026602871612543E-7,9800000.0,71.39999999999999,41.68311501884083,40.16736401673639,23.529411764705873,835739.0,3024.0,0.0,1.0,0.0,?,0.0,0.0
9900000.0,44.5625,2.0452461386513387E-7,9900000.0,70.5,38.96888447533928,37.76371308016876,20.698924731182785,853921.0,3024.0,0.0,1.0,0.0,?,0.0,0.0
1.0E7,45.0,2.068624922281339E-7,1.0E7,71.39999999999999,41.74298471466284,38.09523809523808,23.529411764705873,872101.0,3024.0,0.0,1.0,0.0,?,0.0,0.0
