learning evaluation instances,evaluation time (cpu seconds),model cost (RAM-Hours),classified instances,classifications correct (percent),Kappa Statistic (percent),Kappa Temporal Statistic (percent),Kappa M Statistic (percent),model training instances,model serialized size (bytes),labeling cost,newThreshold,maxPosterior,accuracyBaseLearner (percent),Change detected,Warning detected
100000.0,0.140625,3.2057869248092176E-9,100000.0,61.4,19.217117599785695,17.69722814498933,6.310679611650491,13453.0,5144.0,0.0,1.0,0.0,?,2.0,71.0
200000.0,0.296875,6.152388070606523E-9,200000.0,62.0,10.613473842679701,18.103448275862064,-2.7027027027027053,53453.0,5144.0,0.0,1.0,0.0,?,0.0,49.0
300000.0,0.4375,8.23243883334928E-9,300000.0,63.0,22.752838311251782,16.099773242630377,4.392764857881141,93453.0,5144.0,0.0,1.0,0.0,?,0.0,16.0
400000.0,0.59375,9.946007695462968E-9,400000.0,60.8,8.182529383932884,19.17525773195876,-2.887139107611551,9393.0,5144.0,0.0,1.0,0.0,?,3.0,71.0
500000.0,0.71875,1.0825331426329082E-8,500000.0,60.099999999999994,15.959660637105802,16.52719665271966,-4.724409448818902,49393.0,5144.0,0.0,1.0,0.0,?,0.0,0.0
600000.0,0.859375,1.4026461738265222E-8,600000.0,60.3,12.170473350265027,17.97520661157024,-7.008086253369279,89193.0,5144.0,0.0,1.0,0.0,?,0.0,0.0
700000.0,1.015625,1.6991171934124496E-8,700000.0,65.10000000000001,19.016502998013706,25.267665952890795,3.8567493112947693,129193.0,5144.0,0.0,1.0,0.0,?,0.0,7.0
800000.0,1.171875,1.9341467931452725E-8,800000.0,60.4,17.521994134897355,14.470842332613381,-1.0204081632653068,169193.0,5144.0,0.0,1.0,0.0,?,0.0,0.0
900000.0,1.34375,2.125093791012963E-8,900000.0,62.0,8.530714423262065,20.33542976939203,-5.555555555555561,209193.0,5144.0,0.0,1.0,0.0,?,0.0,0.0
1000000.0,1.5,2.2372405510395766E-8,1000000.0,60.3,9.215641436085068,15.531914893617014,-1.7948717948717965,249193.0,5144.0,0.0,1.0,0.0,?,0.0,0.0
1100000.0,1.65625,2.5957674046771394E-8,1100000.0,60.6,7.473510182610648,14.90280777537796,-4.232804232804237,288993.0,5144.0,0.0,1.0,0.0,?,0.0,0.0
1200000.0,1.796875,2.863144295083152E-8,1200000.0,60.3,8.508480825958692,15.711252653927804,-2.3195876288659814,328993.0,5144.0,0.0,1.0,0.0,?,0.0,0.0
1300000.0,1.96875,3.1223527104076414E-8,1300000.0,60.0,8.330888823701953,14.163090128755353,-0.5025125628140708,368993.0,5144.0,0.0,1.0,0.0,?,0.0,0.0
1400000.0,2.125,3.296555304485891E-8,1400000.0,58.4,9.30456660227872,14.403292181069949,3.030303030303033,408993.0,5144.0,0.0,1.0,0.0,?,0.0,42.0
1500000.0,2.28125,3.409316478711036E-8,1500000.0,64.2,14.641590050738165,25.10460251046025,1.1049723756906087,448993.0,5144.0,0.0,1.0,0.0,?,0.0,0.0
1600000.0,2.421875,3.731990646984843E-8,1600000.0,60.5,9.179534815278064,18.55670103092783,0.7537688442211062,488793.0,5144.0,0.0,1.0,0.0,?,0.0,0.0
1700000.0,2.578125,4.0290760807693014E-8,1700000.0,61.0,7.291191236878144,13.716814159292024,-6.557377049180333,528793.0,5144.0,0.0,1.0,0.0,?,0.0,0.0
1800000.0,2.71875,4.24115569330752E-8,1800000.0,62.5,10.774619067107002,20.71881606765327,-5.932203389830514,568793.0,5144.0,0.0,1.0,0.0,?,0.0,0.0
1900000.0,2.859375,4.3979380279779444E-8,1900000.0,59.9,7.681965522322076,16.28392484342379,-3.3505154639175285,608793.0,5144.0,0.0,1.0,0.0,?,0.0,0.0
2000000.0,3.0,4.4994230847805745E-8,2000000.0,61.3,11.110498608086871,13.228699551569495,1.5267175572519098,648793.0,5144.0,0.0,1.0,0.0,?,0.0,0.0
2100000.0,3.1875,4.930392606183887E-8,2100000.0,62.2,13.180488118589032,19.230769230769226,0.2638522427440636,688593.0,5144.0,0.0,1.0,0.0,?,0.0,0.0
2200000.0,3.34375,5.228092454166876E-8,2200000.0,61.5,6.557026911576233,18.085106382978715,-7.242339832869088,728593.0,5144.0,0.0,1.0,0.0,?,0.0,0.0
2300000.0,3.484375,5.4407250394837724E-8,2300000.0,60.099999999999994,6.827946945637945,15.999999999999993,-5.000000000000004,768593.0,5144.0,0.0,1.0,0.0,?,0.0,0.0
2400000.0,3.625,5.5980603469328746E-8,2400000.0,65.2,18.58315981564233,26.42706131078224,7.6923076923077,808593.0,5144.0,0.0,1.0,0.0,?,0.0,0.0
2500000.0,3.75,5.688760817671815E-8,2500000.0,63.0,11.864891260332037,19.03719912472647,-1.3698630136986314,848593.0,5144.0,0.0,1.0,0.0,?,0.0,0.0
2600000.0,3.890625,6.0119879587243E-8,2600000.0,62.3,10.904192465850537,16.592920353982294,0.2645502645502648,888393.0,5144.0,0.0,1.0,0.0,?,0.0,0.0
2700000.0,4.03125,6.27991782190899E-8,2700000.0,61.7,10.41941489610524,18.510638297872333,-0.2617801047120421,928393.0,5144.0,0.0,1.0,0.0,?,0.0,0.0
2800000.0,4.171875,6.492550407225887E-8,2800000.0,64.3,15.971529176944642,24.364406779661017,5.053191489361707,968393.0,5144.0,0.0,1.0,0.0,?,0.0,0.0
2900000.0,4.328125,6.667367415502667E-8,2900000.0,60.4,11.641854985541395,20.48192771084337,5.263157894736846,1008393.0,5144.0,0.0,1.0,0.0,?,0.0,0.0
3000000.0,4.46875,6.769405445083975E-8,3000000.0,61.0,11.201781428877174,16.666666666666657,2.2556390977443628,1048393.0,5144.0,0.0,1.0,0.0,?,0.0,0.0
3100000.0,4.609375,7.093185558915138E-8,3100000.0,63.7,15.06785212915302,23.093220338983052,1.3586956521739142,1088193.0,5144.0,0.0,1.0,0.0,?,0.0,0.0
3200000.0,4.75,7.361668394878506E-8,3200000.0,62.6,14.474797506505855,21.097046413502106,4.834605597964381,1128193.0,5144.0,0.0,1.0,0.0,?,0.0,0.0
3300000.0,4.890625,7.57485395297408E-8,3300000.0,62.3,12.62225930561349,19.27194860813704,2.0779220779220795,1168193.0,5144.0,0.0,1.0,0.0,?,0.0,0.0
3400000.0,5.046875,7.750285375449392E-8,3400000.0,60.099999999999994,8.125483550086575,16.352201257861626,-2.5706940874036013,1208193.0,5144.0,0.0,1.0,0.0,?,0.0,0.0
3500000.0,5.203125,7.864275378071599E-8,3500000.0,62.1,12.011069425355672,18.843683083511774,2.5706940874036013,1248193.0,5144.0,0.0,1.0,0.0,?,0.0,0.0
3600000.0,5.34375,8.188055491902761E-8,3600000.0,63.3,12.592409115158912,20.21739130434782,1.3440860215053776,1287993.0,5144.0,0.0,1.0,0.0,?,0.0,0.0
3700000.0,5.484375,8.45653832786613E-8,3700000.0,59.599999999999994,6.984454431592113,15.657620041753646,-3.061224489795921,1327993.0,5144.0,0.0,1.0,0.0,?,0.0,0.0
3800000.0,5.625,8.669723885961704E-8,3800000.0,58.3,6.60526952330612,16.265060240963848,-1.9559902200489014,1367993.0,5144.0,0.0,1.0,0.0,?,0.0,0.0
3900000.0,5.765625,8.827612166189484E-8,3900000.0,62.3,11.606096131301287,16.035634743875267,-0.5333333333333339,1407993.0,5144.0,0.0,1.0,0.0,?,0.0,0.0
4000000.0,5.90625,8.93020316854947E-8,4000000.0,60.4,9.109688080975005,16.455696202531637,-1.278772378516625,1447993.0,5144.0,0.0,1.0,0.0,?,0.0,0.0
4100000.0,6.046875,9.254536255159311E-8,4100000.0,63.9,16.079299250525377,24.31865828092243,5.989583333333338,1487793.0,5144.0,0.0,1.0,0.0,?,0.0,0.0
4200000.0,6.203125,9.553464931539363E-8,4200000.0,63.1,14.431211041852174,24.539877300613497,4.896907216494849,1527793.0,5144.0,0.0,1.0,0.0,?,0.0,0.0
4300000.0,6.359375,9.79095218806631E-8,4300000.0,61.7,16.038968441174667,20.041753653444673,9.241706161137447,1567793.0,5144.0,0.0,1.0,0.0,?,0.0,0.0
4400000.0,6.5,9.949393441072768E-8,4400000.0,61.7,10.02208335291078,18.683651804670905,-0.2617801047120421,1607793.0,5144.0,0.0,1.0,0.0,?,0.0,0.0
4500000.0,6.640625,1.0052537416211433E-7,4500000.0,65.0,15.612221279222267,22.737306843267106,1.685393258426968,1647793.0,5144.0,0.0,1.0,0.0,?,0.0,0.0
4600000.0,6.78125,1.0376870502821273E-7,4600000.0,64.0,14.796932689576806,22.912205567451817,2.7027027027027053,1687593.0,5144.0,0.0,1.0,0.0,?,0.0,0.0
4700000.0,6.921875,1.064590631156332E-7,4700000.0,60.9,8.230611076166243,14.065934065934055,-3.4391534391534426,1727593.0,5144.0,0.0,1.0,0.0,?,0.0,0.0
4800000.0,7.0625,1.0859644842437572E-7,4800000.0,62.6,12.571065230400965,22.406639004149376,1.0582010582010593,1767593.0,5144.0,0.0,1.0,0.0,?,0.0,0.0
4900000.0,7.25,1.1070899846446183E-7,4900000.0,62.8,10.037145952638932,22.821576763485474,-2.1978021978021998,1807593.0,5144.0,0.0,1.0,0.0,?,0.0,0.0
5000000.0,7.390625,1.1182454828586843E-7,5000000.0,63.0,12.033360753565013,20.770877944325477,-0.2710027100271005,1847593.0,5144.0,0.0,1.0,0.0,?,0.0,0.0
5100000.0,7.53125,1.1515751894977357E-7,5100000.0,57.99999999999999,-1.3357010500309068,9.677419354838696,-14.130434782608708,1887393.0,5144.0,0.0,1.0,0.0,?,0.0,0.0
5200000.0,7.6875,1.1824640548891491E-7,5200000.0,57.599999999999994,-0.7618929927708195,13.46938775510203,-14.285714285714299,1927393.0,5144.0,0.0,1.0,0.0,?,0.0,0.0
5300000.0,7.828125,1.2047343059546418E-7,5300000.0,58.599999999999994,13.772993868301779,16.53225806451612,-5.612244897959188,1967393.0,5144.0,0.0,1.0,0.0,?,0.0,0.0
5400000.0,7.96875,1.2214748292333552E-7,5400000.0,58.099999999999994,12.439083515142398,7.912087912087895,-9.685863874345559,2007393.0,5144.0,0.0,1.0,0.0,?,0.0,0.0
5500000.0,8.109375,1.232685624725289E-7,5500000.0,59.8,14.90982981965963,14.285714285714276,-8.648648648648656,2047393.0,5144.0,0.0,1.0,0.0,?,0.0,0.0
5600000.0,8.25,1.2660153313643407E-7,5600000.0,57.199999999999996,10.60052219321148,10.647181628392472,-14.133333333333345,2087193.0,5144.0,0.0,1.0,0.0,?,0.0,0.0
5700000.0,8.40625,1.296904196755754E-7,5700000.0,61.5,17.994376757263357,12.100456621004554,-6.94444444444445,2127193.0,5144.0,0.0,1.0,0.0,?,0.0,0.0
5800000.0,8.546875,1.3191744478212468E-7,5800000.0,64.60000000000001,14.583534407875698,24.680851063829788,2.2099447513812174,2167193.0,5144.0,0.0,1.0,0.0,?,0.0,0.0
5900000.0,8.6875,1.3359149710999601E-7,5900000.0,65.7,16.468594139650854,23.2662192393736,2.8328611898017027,2207193.0,5144.0,0.0,1.0,0.0,?,0.0,0.0
6000000.0,8.84375,1.3483714105354422E-7,6000000.0,65.10000000000001,18.90887123007575,28.189300411522638,8.63874345549739,2247193.0,5144.0,0.0,1.0,0.0,?,0.0,0.0
6100000.0,8.984375,1.3817564144523615E-7,6100000.0,65.3,19.69079800037031,26.79324894514768,8.684210526315796,2286993.0,5144.0,0.0,1.0,0.0,?,0.0,0.0
6200000.0,9.140625,1.412706721263628E-7,6200000.0,65.0,20.005119672340978,27.685950413223143,9.32642487046633,2326993.0,5144.0,0.0,1.0,0.0,?,0.0,0.0
6300000.0,9.296875,1.4375128860895842E-7,6300000.0,64.5,16.442276912648033,23.326133909287254,5.585106382978728,2366993.0,5144.0,0.0,1.0,0.0,?,0.0,0.0
6400000.0,9.4375,1.4543087066461652E-7,6400000.0,64.60000000000001,19.486899563318776,26.70807453416149,10.606060606060614,2406993.0,5144.0,0.0,1.0,0.0,?,0.0,0.0
6500000.0,9.578125,1.4655747994159668E-7,6500000.0,65.3,20.506922999386056,27.708333333333336,9.162303664921474,2446993.0,5144.0,0.0,1.0,0.0,?,0.0,0.0
6600000.0,9.71875,1.498959803332886E-7,6600000.0,63.6,17.974049152473622,22.881355932203387,8.312342569269529,2486793.0,5144.0,0.0,1.0,0.0,?,0.0,0.0
6700000.0,9.859375,1.526815079463026E-7,6700000.0,64.7,14.063412924083677,27.066115702479344,1.1204481792717098,2526793.0,5144.0,0.0,1.0,0.0,?,0.0,0.0
6800000.0,10.015625,1.551621244288982E-7,6800000.0,64.5,17.821030408533662,22.48908296943231,9.2071611253197,2566793.0,5144.0,0.0,1.0,0.0,?,0.0,0.0
6900000.0,10.171875,1.5702832671296276E-7,6900000.0,66.0,18.317533381702177,24.444444444444443,5.292479108635102,2606793.0,5144.0,0.0,1.0,0.0,?,0.0,0.0
7000000.0,10.328125,1.5828011479849627E-7,7000000.0,64.2,19.597177366830028,27.08757637474542,10.275689223057654,2646793.0,5144.0,0.0,1.0,0.0,?,0.0,0.0
7100000.0,10.46875,1.6162414491797496E-7,7100000.0,62.8,15.379540956757138,18.599562363238505,7.231920199501253,2686593.0,5144.0,0.0,1.0,0.0,?,0.0,0.0
7200000.0,10.609375,1.644152022587757E-7,7200000.0,65.5,20.28945325496285,31.000000000000007,12.87878787878789,2726593.0,5144.0,0.0,1.0,0.0,?,0.0,0.0
7300000.0,10.75,1.6665328682089852E-7,7300000.0,68.0,21.07534837834506,25.925925925925945,7.24637681159421,2766593.0,5144.0,0.0,1.0,0.0,?,0.0,0.0
7400000.0,10.890625,1.683383986043434E-7,7400000.0,66.5,20.808275653390822,26.535087719298247,7.967032967032975,2806593.0,5144.0,0.0,1.0,0.0,?,0.0,0.0
7500000.0,11.03125,1.6947053760911032E-7,7500000.0,64.1,12.600181129429643,22.629310344827584,1.9125683060109306,2846593.0,5144.0,0.0,1.0,0.0,?,0.0,0.0
7600000.0,11.21875,1.7392924443508192E-7,7600000.0,65.9,19.01468660346169,30.122950819672134,7.336956521739137,2886393.0,5144.0,0.0,1.0,0.0,?,0.0,0.0
7700000.0,11.359375,1.7672030177588267E-7,7700000.0,65.4,17.002096536636618,24.618736383442265,4.155124653739616,2926393.0,5144.0,0.0,1.0,0.0,?,0.0,0.0
7800000.0,11.5,1.7895838633800548E-7,7800000.0,63.3,15.051015684313828,20.9051724137931,4.4270833333333375,2966393.0,5144.0,0.0,1.0,0.0,?,0.0,0.0
7900000.0,11.625,1.8045626347884537E-7,7900000.0,65.10000000000001,19.652641563297145,26.371308016877638,7.671957671957679,3006393.0,5144.0,0.0,1.0,0.0,?,0.0,0.0
8000000.0,11.765625,1.815884024836123E-7,8000000.0,61.8,10.422421596169265,17.67241379310344,-1.3262599469496033,3046393.0,5144.0,0.0,1.0,0.0,?,0.0,0.0
8100000.0,11.90625,1.8493796233087778E-7,8100000.0,65.5,15.67431219569425,23.50332594235033,1.9886363636363658,3086193.0,5144.0,0.0,1.0,0.0,?,0.0,0.0
8200000.0,12.046875,1.8773454939946533E-7,8200000.0,65.3,19.034196968565666,23.230088495575217,6.720430107526888,3126193.0,5144.0,0.0,1.0,0.0,?,0.0,0.0
8300000.0,12.203125,1.9022745416603154E-7,8300000.0,64.8,17.098445595854923,25.581395348837212,4.864864864864869,3166193.0,5144.0,0.0,1.0,0.0,?,0.0,0.0
8400000.0,12.34375,1.919180956772632E-7,8400000.0,65.3,17.427350345996075,26.94736842105263,4.143646408839783,3206193.0,5144.0,0.0,1.0,0.0,?,0.0,0.0
8500000.0,12.5,1.9318217204676734E-7,8500000.0,66.0,21.23795404002965,24.107142857142858,10.052910052910063,3246193.0,5144.0,0.0,1.0,0.0,?,0.0,0.0
8600000.0,12.640625,1.9653173189403283E-7,8600000.0,67.9,22.347476897769614,31.991525423728824,10.335195530726267,3285993.0,5144.0,0.0,1.0,0.0,?,0.0,0.0
8700000.0,12.78125,1.9932831896262037E-7,8700000.0,64.2,13.169600628671486,20.267260579064583,0.2785515320334264,3325993.0,5144.0,0.0,1.0,0.0,?,0.0,0.0
8800000.0,12.921875,2.0157193325252998E-7,8800000.0,64.2,17.469304575151348,24.152542372881356,6.52741514360314,3365993.0,5144.0,0.0,1.0,0.0,?,0.0,0.0
8900000.0,13.078125,2.0345042382056516E-7,8900000.0,64.5,17.791342849467846,24.307036247334754,8.031088082901562,3405993.0,5144.0,0.0,1.0,0.0,?,0.0,0.0
9000000.0,13.234375,2.047145001900693E-7,9000000.0,64.9,19.314054526228677,23.695652173913043,9.067357512953375,3445993.0,5144.0,0.0,1.0,0.0,?,0.0,0.0
9100000.0,13.375,2.0806958976512155E-7,9100000.0,64.0,17.370547190598597,22.077922077922075,5.263157894736847,3485793.0,5144.0,0.0,1.0,0.0,?,0.0,0.0
9200000.0,13.53125,2.1118305287220414E-7,9200000.0,67.60000000000001,22.097407093944756,31.501057082452437,8.988764044943828,3525793.0,5144.0,0.0,1.0,0.0,?,0.0,0.0
9300000.0,13.671875,2.1343219688990052E-7,9300000.0,63.7,18.299918074848986,25.0,8.793969849246238,3565793.0,5144.0,0.0,1.0,0.0,?,0.0,0.0
9400000.0,13.8125,2.1512836812891895E-7,9400000.0,65.4,16.217891596606083,28.512396694214882,1.7045454545454561,3605793.0,5144.0,0.0,1.0,0.0,?,0.0,0.0
9500000.0,13.953125,2.1627156658925944E-7,9500000.0,66.3,20.37765092806111,29.64509394572025,10.610079575596826,3645793.0,5144.0,0.0,1.0,0.0,?,0.0,0.0
9600000.0,14.109375,2.1999944389487305E-7,9600000.0,64.0,15.274979760134046,22.746781115879827,3.7433155080213933,3685593.0,5144.0,0.0,1.0,0.0,?,0.0,0.0
9700000.0,14.265625,2.2311290700195564E-7,9700000.0,65.60000000000001,17.967110534549217,22.171945701357462,3.9106145251396685,3725593.0,5144.0,0.0,1.0,0.0,?,0.0,0.0
9800000.0,14.40625,2.2536205101965201E-7,9800000.0,62.3,12.453440092144499,21.45833333333333,0.0,3765593.0,5144.0,0.0,1.0,0.0,?,0.0,0.0
9900000.0,14.546875,2.2705822225867045E-7,9900000.0,67.2,20.433154146208928,29.31034482758621,9.392265193370175,3805593.0,5144.0,0.0,1.0,0.0,?,0.0,0.0
1.0E7,14.703125,2.2832844277015988E-7,1.0E7,66.10000000000001,17.453978766923147,27.71855010660981,4.507042253521131,3845593.0,5144.0,0.0,1.0,0.0,?,0.0,0.0
