learning evaluation instances,evaluation time (cpu seconds),model cost (RAM-Hours),classified instances,classifications correct (percent),Kappa Statistic (percent),Kappa Temporal Statistic (percent),Kappa M Statistic (percent),model training instances,model serialized size (bytes),labeling cost,newThreshold,maxPosterior,accuracyBaseLearner (percent),Change detected,Warning detected
100000.0,0.1875,4.294949273268382E-9,100000.0,57.599999999999994,15.575183882824708,14.343434343434334,13.292433537832299,19584.0,5144.0,0.0,1.0,0.0,?,1.0,72.0
200000.0,0.375,7.852601508299511E-9,200000.0,60.199999999999996,21.26763070958042,14.224137931034472,15.498938428874725,39584.0,5144.0,0.0,1.0,0.0,?,0.0,0.0
300000.0,0.5625,1.0672956705093385E-8,300000.0,62.1,25.32372853303489,19.87315010570824,17.96536796536796,59584.0,5144.0,0.0,1.0,0.0,?,0.0,0.0
400000.0,0.734375,1.2582426683770286E-8,400000.0,64.5,29.130400063882465,27.698574338085542,28.137651821862352,79584.0,5144.0,0.0,1.0,0.0,?,0.0,0.0
500000.0,0.890625,1.3703894284036426E-8,500000.0,61.1,22.817460317460316,24.0234375,18.10526315789473,99584.0,5144.0,0.0,1.0,0.0,?,0.0,0.0
600000.0,1.0625,1.7640931117865776E-8,600000.0,63.9,28.090514322138567,32.14285714285714,24.31865828092243,119484.0,5144.0,0.0,1.0,0.0,?,0.0,0.0
700000.0,1.203125,2.030917029413912E-8,700000.0,60.699999999999996,22.674327089563974,18.6335403726708,14.565217391304339,139484.0,5144.0,0.0,1.0,0.0,?,0.0,0.0
800000.0,1.375,2.2894495891200172E-8,800000.0,60.5,22.767089003597675,20.2020202020202,11.235955056179762,159484.0,5144.0,0.0,1.0,0.0,?,0.0,0.0
900000.0,1.53125,2.4630377689997354E-8,900000.0,61.199999999999996,22.642592828888606,27.611940298507452,16.01731601731601,179484.0,5144.0,0.0,1.0,0.0,?,0.0,0.0
1000000.0,1.703125,2.5863992050290106E-8,1000000.0,61.199999999999996,22.62284620293554,22.709163346613543,21.138211382113816,199484.0,5144.0,0.0,1.0,0.0,?,0.0,0.0
1100000.0,1.90625,3.052484114757842E-8,1100000.0,61.199999999999996,23.19630075378475,22.554890219560875,18.487394957983184,219384.0,5144.0,0.0,1.0,0.0,?,0.0,0.0
1200000.0,2.078125,3.379278091920746E-8,1200000.0,61.9,24.733901747121713,25.440313111545986,18.415417558886503,239384.0,5144.0,0.0,1.0,0.0,?,0.0,0.0
1300000.0,2.265625,3.662050908638371E-8,1300000.0,60.6,22.79596187609731,17.226890756302513,19.918699186991866,259384.0,5144.0,0.0,1.0,0.0,?,0.0,0.0
1400000.0,2.4375,3.853673762124445E-8,1400000.0,62.4,24.635705838728423,23.57723577235772,25.691699604743086,279384.0,5144.0,0.0,1.0,0.0,?,0.0,0.0
1500000.0,2.609375,3.977711053772105E-8,1500000.0,59.5,18.822708796010485,15.975103734439825,18.674698795180717,299384.0,5144.0,0.0,1.0,0.0,?,0.0,0.0
1600000.0,2.78125,4.372090592773424E-8,1600000.0,61.5,23.838989689579584,25.09727626459144,18.60465116279069,319284.0,5144.0,0.0,1.0,0.0,?,0.0,0.0
1700000.0,2.9375,4.6691760265578825E-8,1700000.0,62.6,25.599974536889686,25.940594059405942,22.727272727272727,339284.0,5144.0,0.0,1.0,0.0,?,0.0,0.0
1800000.0,3.109375,4.9283844418823716E-8,1800000.0,61.8,24.472792410899636,24.65483234714004,19.238900634249468,359284.0,5144.0,0.0,1.0,0.0,?,0.0,0.0
1900000.0,3.265625,5.102587035960621E-8,1900000.0,62.3,25.013326544088976,25.494071146245062,22.587268993839835,379284.0,5144.0,0.0,1.0,0.0,?,0.0,0.0
2000000.0,3.421875,5.215348210185766E-8,2000000.0,61.5,22.749089041205842,23.913043478260867,18.60465116279069,399284.0,5144.0,0.0,1.0,0.0,?,0.0,0.0
2100000.0,3.59375,5.6104036048054696E-8,2100000.0,62.4,25.041366798907518,26.129666011787823,23.732251521298174,419184.0,5144.0,0.0,1.0,0.0,?,0.0,0.0
2200000.0,3.765625,5.937873437586758E-8,2200000.0,60.5,21.14509302882696,21.471172962226635,19.05737704918032,439184.0,5144.0,0.0,1.0,0.0,?,0.0,0.0
2300000.0,3.953125,6.22138355134262E-8,2300000.0,60.4,22.940407248271992,19.838056680161937,10.810810810810796,459184.0,5144.0,0.0,1.0,0.0,?,0.0,0.0
2400000.0,4.125,6.413682260447079E-8,2400000.0,62.7,25.654558790700648,24.032586558044805,24.186991869918696,479184.0,5144.0,0.0,1.0,0.0,?,0.0,0.0
2500000.0,4.296875,6.538395407713122E-8,2500000.0,63.6,27.29161256816412,27.634194831013918,26.907630522088354,499184.0,5144.0,0.0,1.0,0.0,?,0.0,0.0
2600000.0,4.46875,6.933450802332826E-8,2600000.0,59.199999999999996,19.157654462378588,15.876288659793806,10.329670329670314,519084.0,5144.0,0.0,1.0,0.0,?,0.0,0.0
2700000.0,4.640625,7.260920635114114E-8,2700000.0,59.4,19.241908277903303,15.592515592515586,16.803278688524586,539084.0,5144.0,0.0,1.0,0.0,?,0.0,0.0
2800000.0,4.8125,7.520804906056987E-8,2800000.0,61.0,22.86789049613746,23.976608187134502,17.197452229299355,559084.0,5144.0,0.0,1.0,0.0,?,0.0,0.0
2900000.0,4.984375,7.713103615161445E-8,2900000.0,63.7,27.305788301638927,28.82352941176471,26.21951219512195,579084.0,5144.0,0.0,1.0,0.0,?,0.0,0.0
3000000.0,5.15625,7.837816762427489E-8,3000000.0,60.6,22.59575337513948,22.134387351778653,13.215859030836993,599084.0,5144.0,0.0,1.0,0.0,?,0.0,0.0
3100000.0,5.328125,8.233548012665576E-8,3100000.0,62.2,25.35574504050141,24.096385542168676,19.057815845824404,618984.0,5144.0,0.0,1.0,0.0,?,0.0,0.0
3200000.0,5.5,8.561693701065249E-8,3200000.0,57.99999999999999,17.725461618927838,13.402061855670091,6.873614190687344,638984.0,5144.0,0.0,1.0,0.0,?,0.0,0.0
3300000.0,5.65625,8.798566543393664E-8,3300000.0,60.699999999999996,20.888624065962375,20.606060606060602,19.46721311475409,658984.0,5144.0,0.0,1.0,0.0,?,0.0,0.0
3400000.0,5.84375,9.009084250364038E-8,3400000.0,61.8,23.924689425531824,24.95088408644401,21.88139059304703,678984.0,5144.0,0.0,1.0,0.0,?,0.0,0.0
3500000.0,6.015625,9.134473253248466E-8,3500000.0,61.5,23.40442463791182,18.60465116279069,21.267893660531694,698984.0,5144.0,0.0,1.0,0.0,?,0.0,0.0
3600000.0,6.1875,9.530204503486554E-8,3600000.0,59.8,20.131604043486547,24.007561436672965,16.770186335403718,718884.0,5144.0,0.0,1.0,0.0,?,0.0,0.0
3700000.0,6.34375,9.828518765668074E-8,3700000.0,58.699999999999996,18.25602292789904,14.84536082474226,11.373390557939901,738884.0,5144.0,0.0,1.0,0.0,?,0.0,0.0
3800000.0,6.546875,1.0136453460695015E-7,3800000.0,60.8,22.335636847777845,19.836400817995905,16.23931623931623,758884.0,5144.0,0.0,1.0,0.0,?,0.0,0.0
3900000.0,6.703125,1.0311884883170327E-7,3900000.0,65.8,31.358381502890182,32.94117647058824,33.33333333333334,778884.0,5144.0,0.0,1.0,0.0,?,0.0,0.0
4000000.0,6.890625,1.0448672886316975E-7,4000000.0,62.0,24.41270662184473,23.076923076923077,22.448979591836732,798884.0,5144.0,0.0,1.0,0.0,?,0.0,0.0
4100000.0,7.0625,1.0845079992173447E-7,4100000.0,60.0,21.354279310277015,17.012448132780076,10.913140311803996,818784.0,5144.0,0.0,1.0,0.0,?,0.0,0.0
4200000.0,7.234375,1.1173901536191504E-7,4200000.0,59.699999999999996,20.104359962569973,14.799154334038045,16.21621621621621,838784.0,5144.0,0.0,1.0,0.0,?,0.0,0.0
4300000.0,7.390625,1.1411388792718451E-7,4300000.0,61.7,23.741030113333174,18.336886993603404,21.35523613963039,858784.0,5144.0,0.0,1.0,0.0,?,0.0,0.0
4400000.0,7.578125,1.1622643796727062E-7,4400000.0,62.3,25.03718314788156,23.52941176470588,21.784232365145225,878784.0,5144.0,0.0,1.0,0.0,?,0.0,0.0
4500000.0,7.75,1.1748708655229873E-7,4500000.0,62.8,24.978522076884918,27.34375,28.32369942196532,898784.0,5144.0,0.0,1.0,0.0,?,0.0,0.0
4600000.0,7.921875,1.2145115761086344E-7,4600000.0,61.199999999999996,23.140008002947614,23.015873015873016,17.622080679405514,918684.0,5144.0,0.0,1.0,0.0,?,0.0,0.0
4700000.0,8.078125,1.2444044437466394E-7,4700000.0,59.9,20.609780241536324,17.319587628865975,14.132762312633822,938684.0,5144.0,0.0,1.0,0.0,?,0.0,0.0
4800000.0,8.265625,1.272902914529873E-7,4800000.0,59.5,20.333928697882644,19.32270916334661,10.792951541850208,958684.0,5144.0,0.0,1.0,0.0,?,0.0,0.0
4900000.0,8.421875,1.2905074981972574E-7,4900000.0,60.9,22.653900933692032,23.483365949119374,18.029350104821795,978684.0,5144.0,0.0,1.0,0.0,?,0.0,0.0
5000000.0,8.59375,1.3041419960144493E-7,5000000.0,62.2,24.01338007783603,24.550898203592812,21.739130434782606,998684.0,5144.0,0.0,1.0,0.0,?,0.0,0.0
5100000.0,8.75,1.341175003391173E-7,5100000.0,54.2,5.063159945774079,2.3454157782516014,-10.89588377723969,1018584.0,5144.0,0.0,1.0,0.0,?,0.0,0.0
5200000.0,8.90625,1.3706313135723272E-7,5200000.0,59.099999999999994,2.862354293531429,12.04301075268816,-10.242587601078176,269.0,4736.0,0.0,1.0,0.0,?,3.0,5.0
5300000.0,9.0625,1.39537603697843E-7,5300000.0,62.7,13.60701149744759,15.227272727272718,3.6175710594315276,19846.0,5144.0,0.0,1.0,0.0,?,1.0,28.0
5400000.0,9.234375,1.4158366765413018E-7,5400000.0,58.5,13.27498725246801,14.432989690721639,-8.63874345549739,39846.0,5144.0,0.0,1.0,0.0,?,0.0,0.0
5500000.0,9.390625,1.428293115976784E-7,5500000.0,62.2,11.832210632382303,21.08559498956158,1.0471204188481684,59846.0,5144.0,0.0,1.0,0.0,?,0.0,0.0
5600000.0,9.53125,1.4616228226158355E-7,5600000.0,61.8,9.142802778042057,20.910973084886127,-3.243243243243246,79746.0,5144.0,0.0,1.0,0.0,?,0.0,0.0
5700000.0,9.6875,1.4925116880072488E-7,5700000.0,65.4,16.25155515537032,25.75107296137339,4.683195592286506,99746.0,5144.0,0.0,1.0,0.0,?,0.0,0.0
5800000.0,9.84375,1.5172564114133516E-7,5800000.0,60.4,17.527834355904876,14.470842332613381,-1.278772378516625,119746.0,5144.0,0.0,1.0,0.0,?,0.0,0.0
5900000.0,10.015625,1.5377170509762234E-7,5900000.0,62.7,9.46953516368295,21.802935010482177,-3.8997214484679703,139746.0,5144.0,0.0,1.0,0.0,?,0.0,0.0
6000000.0,10.171875,1.5501734904117055E-7,6000000.0,60.3,9.215641436085068,15.531914893617014,-1.7948717948717965,159746.0,5144.0,0.0,1.0,0.0,?,0.0,0.0
6100000.0,10.3125,1.5835584943286248E-7,6100000.0,58.099999999999994,12.497598382771843,9.50323974082072,-11.140583554376668,179646.0,5144.0,0.0,1.0,0.0,?,0.0,0.0
6200000.0,10.46875,1.6145088011398914E-7,6200000.0,60.3,8.508480825958692,15.531914893617014,-2.3195876288659814,199646.0,5144.0,0.0,1.0,0.0,?,0.0,0.0
6300000.0,10.625,1.6393149659658475E-7,6300000.0,60.099999999999994,8.429111739433772,14.193548387096763,-0.5037783375314866,219646.0,5144.0,0.0,1.0,0.0,?,0.0,0.0
6400000.0,10.765625,1.6561107865224285E-7,6400000.0,59.699999999999996,17.47485337964026,16.907216494845354,5.841121495327108,239646.0,5144.0,0.0,1.0,0.0,?,0.0,0.0
6500000.0,10.921875,1.6686286673777636E-7,6500000.0,64.2,14.641590050738165,25.10460251046025,1.1049723756906087,259646.0,5144.0,0.0,1.0,0.0,?,0.0,0.0
6600000.0,11.046875,1.6983042264150252E-7,6600000.0,63.0,23.1756288178598,23.711340206185564,7.268170426065169,279546.0,5144.0,0.0,1.0,0.0,?,0.0,0.0
6700000.0,11.203125,1.7292545332262918E-7,6700000.0,62.4,20.26093337122353,16.997792494481228,-2.45231607629428,299546.0,5144.0,0.0,1.0,0.0,?,0.0,0.0
6800000.0,11.359375,1.754060698052248E-7,6800000.0,59.8,13.85406621665059,15.010570824524303,-13.239436619718322,319546.0,5144.0,0.0,1.0,0.0,?,0.0,0.0
6900000.0,11.515625,1.7727227208928935E-7,6900000.0,59.8,7.576433369965543,16.07515657620041,-3.341902313624682,339546.0,5144.0,0.0,1.0,0.0,?,0.0,0.0
7000000.0,11.671875,1.7852406017482286E-7,7000000.0,61.6,12.44510718634144,13.90134529147981,2.2900763358778646,359546.0,5144.0,0.0,1.0,0.0,?,0.0,0.0
7100000.0,11.828125,1.8223964919646587E-7,7100000.0,63.0,13.259564891222794,20.770877944325477,2.6315789473684235,379446.0,5144.0,0.0,1.0,0.0,?,0.0,0.0
7200000.0,11.984375,1.8534082401957783E-7,7200000.0,61.4,16.43574644960166,18.04670912951167,-7.2222222222222285,399446.0,5144.0,0.0,1.0,0.0,?,0.0,0.0
7300000.0,12.140625,1.8782758464415874E-7,7300000.0,60.0,7.341774497676595,15.789473684210517,-4.986876640419951,419446.0,5144.0,0.0,1.0,0.0,?,0.0,0.0
7400000.0,12.296875,1.896999310702086E-7,7400000.0,61.8,20.57683671262954,19.238900634249468,-1.0582010582010593,439446.0,5144.0,0.0,1.0,0.0,?,0.0,0.0
7500000.0,12.4375,1.9083207007497553E-7,7500000.0,63.2,20.798898071625334,19.474835886214436,-1.0989010989010999,459446.0,5144.0,0.0,1.0,0.0,?,0.0,0.0
7600000.0,12.59375,1.9454765909661854E-7,7600000.0,59.8,14.863697202785358,11.061946902654855,-6.349206349206354,479346.0,5144.0,0.0,1.0,0.0,?,0.0,0.0
7700000.0,12.75,1.976488339197305E-7,7700000.0,60.5,8.096789204281048,16.13588110403396,-3.1331592689295062,499346.0,5144.0,0.0,1.0,0.0,?,0.0,0.0
7800000.0,12.90625,2.0013559454431141E-7,7800000.0,64.60000000000001,16.531482249971695,25.0,5.851063829787239,519346.0,5144.0,0.0,1.0,0.0,?,0.0,0.0
7900000.0,13.046875,2.0182070632775629E-7,7900000.0,60.5,11.74052160234525,20.523138832997983,5.275779376498805,539346.0,5144.0,0.0,1.0,0.0,?,0.0,0.0
8000000.0,13.203125,2.0307863855527512E-7,8000000.0,61.4,12.594934129187394,17.521367521367516,3.258145363408524,559346.0,5144.0,0.0,1.0,0.0,?,0.0,0.0
8100000.0,13.375,2.0717254503526626E-7,8100000.0,64.60000000000001,16.44203579302173,24.840764331210192,3.542234332425071,579246.0,5144.0,0.0,1.0,0.0,?,0.0,0.0
8200000.0,13.515625,2.099691321038538E-7,8200000.0,62.6,14.547880604653704,21.26315789473684,5.076142131979699,599246.0,5144.0,0.0,1.0,0.0,?,0.0,0.0
8300000.0,13.671875,2.1246203687042002E-7,8300000.0,62.2,21.181690798692202,19.057815845824404,1.5625000000000013,619246.0,5144.0,0.0,1.0,0.0,?,0.0,0.0
8400000.0,13.828125,2.143405274384552E-7,8400000.0,62.8,13.600891861761417,22.0125786163522,4.123711340206189,639246.0,5144.0,0.0,1.0,0.0,?,0.0,0.0
8500000.0,13.984375,2.1560460380795934E-7,8500000.0,61.3,19.29766025774702,17.1306209850107,0.7692307692307698,659246.0,5144.0,0.0,1.0,0.0,?,0.0,0.0
8600000.0,14.140625,2.1932633697158765E-7,8600000.0,59.199999999999996,13.53697353977087,11.111111111111098,-9.973045822102435,679146.0,5144.0,0.0,1.0,0.0,?,0.0,0.0
8700000.0,14.296875,2.224336559366849E-7,8700000.0,60.099999999999994,14.55224519864997,16.52719665271966,-1.7857142857142874,699146.0,5144.0,0.0,1.0,0.0,?,0.0,0.0
8800000.0,14.4375,2.2467727022659452E-7,8800000.0,59.8,17.223997627911583,19.11468812877263,1.4705882352941189,719146.0,5144.0,0.0,1.0,0.0,?,0.0,0.0
8900000.0,14.578125,2.2636791173782618E-7,8900000.0,61.1,13.67985656210613,13.363028953229387,-3.457446808510641,739146.0,5144.0,0.0,1.0,0.0,?,0.0,0.0
9000000.0,14.75,2.2775839574428073E-7,9000000.0,58.699999999999996,10.280584979275451,12.869198312236277,-5.62659846547315,759146.0,5144.0,0.0,1.0,0.0,?,0.0,0.0
9100000.0,14.90625,2.3148627304989434E-7,9100000.0,61.1,15.30294980883288,18.44863731656184,-1.5665796344647531,779046.0,5144.0,0.0,1.0,0.0,?,0.0,0.0
9200000.0,15.0625,2.3459973615697693E-7,9200000.0,61.0,15.405705559797317,20.081967213114748,-0.5154639175257736,799046.0,5144.0,0.0,1.0,0.0,?,0.0,0.0
9300000.0,15.21875,2.3709878506552847E-7,9300000.0,60.8,20.24901837120827,18.16283924843423,7.328605200945633,819046.0,5144.0,0.0,1.0,0.0,?,0.0,0.0
9400000.0,15.375,2.38983419775549E-7,9400000.0,63.0,22.02515426374887,21.276595744680847,3.141361256544505,839046.0,5144.0,0.0,1.0,0.0,?,0.0,0.0
9500000.0,15.53125,2.402536402870384E-7,9500000.0,63.2,12.005509220292302,18.942731277533035,-3.370786516853936,859046.0,5144.0,0.0,1.0,0.0,?,0.0,0.0
9600000.0,15.6875,2.4398151759265205E-7,9600000.0,61.3,18.566089825600965,17.1306209850107,-4.312668463611864,878946.0,5144.0,0.0,1.0,0.0,?,0.0,0.0
9700000.0,15.828125,2.467836343890264E-7,9700000.0,61.4,10.073618488491274,15.350877192982445,-2.1164021164021185,898946.0,5144.0,0.0,1.0,0.0,?,0.0,0.0
9800000.0,15.96875,2.490327784067228E-7,9800000.0,63.7,14.606720427578038,24.688796680497923,3.9682539682539715,918946.0,5144.0,0.0,1.0,0.0,?,0.0,0.0
9900000.0,16.140625,2.511058765877453E-7,9900000.0,60.9,16.861577716351274,18.711018711018706,-7.123287671232884,938946.0,5144.0,0.0,1.0,0.0,?,0.0,0.0
1.0E7,16.296875,2.5237609709923474E-7,1.0E7,64.7,15.67531412737091,24.248927038626608,4.594594594594599,958946.0,5144.0,0.0,1.0,0.0,?,0.0,0.0
