learning evaluation instances,evaluation time (cpu seconds),model cost (RAM-Hours),classified instances,classifications correct (percent),Kappa Statistic (percent),Kappa Temporal Statistic (percent),Kappa M Statistic (percent),model training instances,model serialized size (bytes),labeling cost,newThreshold,maxPosterior,accuracyBaseLearner (percent),Change detected,Warning detected,tree size (nodes),tree size (leaves),active learning leaves,tree depth,active leaf byte size estimate,inactive leaf byte size estimate,byte size estimate overhead
100000.0,0.359375,2.4833554764174754E-8,100000.0,77.4,54.67363008066489,54.800000000000004,53.209109730848866,19800.0,81936.0,0.0,1.0,0.0,?,0.0,8.0,36.0,29.0,29.0,3.0,0.0,0.0,1.0
200000.0,0.671875,5.146226612851024E-8,200000.0,79.9,59.80000000000001,60.66536203522506,57.50528541226216,39800.0,159184.0,0.0,1.0,0.0,?,0.0,0.0,64.0,49.0,49.0,3.0,0.0,0.0,1.0
300000.0,1.03125,8.596104129941927E-8,300000.0,80.0,60.12838659516358,60.62992125984253,57.5371549893843,59800.0,215872.0,0.0,1.0,0.0,?,0.0,0.0,91.0,67.0,67.0,4.0,0.0,0.0,1.0
400000.0,1.453125,1.461073083596097E-7,400000.0,81.39999999999999,62.94805955402213,63.60078277886496,60.67653276955601,79800.0,410640.0,0.0,1.0,0.0,?,0.0,0.0,171.0,128.0,128.0,5.0,0.0,0.0,1.0
500000.0,1.8125,2.1096357765297096E-7,500000.0,85.2,70.3853111143127,71.70172084130019,70.45908183632734,99800.0,571896.0,0.0,1.0,0.0,?,0.0,0.0,240.0,179.0,179.0,5.0,0.0,0.0,1.0
600000.0,2.171875,2.8684169390342305E-7,600000.0,84.3,68.64289651756397,69.98087954110899,67.42738589211618,119800.0,705280.0,0.0,1.0,0.0,?,0.0,0.0,292.0,217.0,217.0,5.0,0.0,0.0,1.0
700000.0,2.5625,3.8176787913673456E-7,700000.0,84.1,68.25155946742488,67.81376518218623,67.74847870182555,139800.0,843224.0,0.0,1.0,0.0,?,0.0,0.0,358.0,262.0,262.0,6.0,0.0,0.0,1.0
800000.0,2.921875,4.79732827645623E-7,800000.0,86.5,73.081187139587,72.16494845360825,71.3375796178344,159800.0,972360.0,0.0,1.0,0.0,?,0.0,0.0,415.0,301.0,301.0,7.0,0.0,0.0,1.0
900000.0,3.28125,5.852685555712217E-7,900000.0,85.7,71.38008053605309,72.17898832684824,67.6470588235294,179800.0,1068688.0,0.0,1.0,0.0,?,0.0,0.0,454.0,328.0,328.0,7.0,0.0,0.0,1.0
1000000.0,3.65625,7.063676538463268E-7,1000000.0,86.9,73.8395545934547,73.48178137651821,73.31975560081466,199800.0,1196480.0,0.0,1.0,0.0,?,0.0,0.0,526.0,373.0,373.0,7.0,0.0,0.0,1.0
1100000.0,4.015625,8.436777473737797E-7,1100000.0,88.5,77.01801787398679,76.48261758691207,74.50110864745011,219600.0,1287784.0,0.0,1.0,0.0,?,0.0,0.0,574.0,403.0,403.0,7.0,0.0,0.0,1.0
1200000.0,4.46875,1.017165163324939E-6,1200000.0,89.8,79.61369959387292,79.88165680473374,78.25159914712154,239600.0,1305904.0,0.0,1.0,0.0,?,0.0,0.0,590.0,411.0,411.0,7.0,0.0,0.0,1.0
1300000.0,4.9375,1.200128333746559E-6,1300000.0,86.9,73.8106852404219,74.6615087040619,73.1006160164271,259600.0,1349640.0,0.0,1.0,0.0,?,0.0,0.0,625.0,430.0,430.0,7.0,0.0,0.0,1.0
1400000.0,5.5,1.428334960817463E-6,1400000.0,90.10000000000001,80.20617567318997,79.79591836734694,79.11392405063292,279600.0,1423864.0,0.0,1.0,0.0,?,0.0,0.0,674.0,456.0,456.0,7.0,0.0,0.0,1.0
1500000.0,5.953125,1.615958624622888E-6,1500000.0,89.9,79.8319461972236,79.34560327198365,78.37259100642399,299600.0,1471200.0,0.0,1.0,0.0,?,0.0,0.0,702.0,473.0,473.0,7.0,0.0,0.0,1.0
1600000.0,6.625,1.8982390045291848E-6,1600000.0,90.60000000000001,81.22883251325965,81.74757281553399,80.21052631578948,319600.0,1509672.0,0.0,1.0,0.0,?,0.0,0.0,720.0,482.0,482.0,7.0,0.0,0.0,1.0
1700000.0,7.21875,2.15667513354371E-6,1700000.0,90.9,81.81018629567443,81.80000000000001,81.04166666666667,339600.0,1582960.0,0.0,1.0,0.0,?,0.0,0.0,766.0,508.0,508.0,8.0,0.0,0.0,1.0
1800000.0,7.9375,2.4776526778522466E-6,1800000.0,90.3,80.59767172060648,81.01761252446184,79.36170212765958,359600.0,1641648.0,0.0,1.0,0.0,?,0.0,0.0,803.0,531.0,531.0,8.0,0.0,0.0,1.0
1900000.0,8.5,2.729195920336578E-6,1900000.0,92.30000000000001,84.60172460684404,83.47639484978542,84.69184890656064,379600.0,1659112.0,0.0,1.0,0.0,?,0.0,0.0,811.0,535.0,535.0,8.0,0.0,0.0,1.0
2000000.0,9.15625,3.029369723258747E-6,2000000.0,91.7,83.40637195317,82.41525423728814,82.26495726495727,399600.0,1713504.0,0.0,1.0,0.0,?,0.0,0.0,848.0,555.0,555.0,8.0,0.0,0.0,1.0
2100000.0,9.890625,3.4127089828770197E-6,2100000.0,91.0,82.0373622864442,82.03592814371258,81.0126582278481,419400.0,1825768.0,0.0,1.0,0.0,?,0.0,0.0,897.0,587.0,587.0,8.0,0.0,0.0,1.0
2200000.0,10.484375,3.728501906152815E-6,2200000.0,92.2,84.42193391704481,83.85093167701864,84.04907975460122,439400.0,1878840.0,0.0,1.0,0.0,?,0.0,0.0,935.0,609.0,609.0,8.0,0.0,0.0,1.0
2300000.0,10.90625,3.96205228753388E-6,2300000.0,91.7,83.42863531817021,82.56302521008404,81.63716814159294,459400.0,1977736.0,0.0,1.0,0.0,?,0.0,0.0,985.0,643.0,643.0,8.0,0.0,0.0,1.0
2400000.0,11.328125,4.200704279355705E-6,2400000.0,93.10000000000001,86.16347156493143,86.30952380952382,85.22483940042828,479400.0,2039440.0,0.0,1.0,0.0,?,0.0,0.0,1018.0,664.0,664.0,8.0,0.0,0.0,1.0
2500000.0,11.734375,4.431375742165579E-6,2500000.0,92.30000000000001,84.61919524433507,85.19230769230771,84.18891170431212,499400.0,2062648.0,0.0,1.0,0.0,?,0.0,0.0,1034.0,672.0,672.0,8.0,0.0,0.0,1.0
2600000.0,12.15625,4.67503854047714E-6,2600000.0,93.4,86.80506685432795,86.47540983606558,86.1344537815126,519400.0,2115408.0,0.0,1.0,0.0,?,0.0,0.0,1061.0,690.0,690.0,8.0,0.0,0.0,1.0
2700000.0,12.5625,4.9098188820708955E-6,2700000.0,95.0,89.99999999999999,89.51781970649894,89.71193415637859,539400.0,2131888.0,0.0,1.0,0.0,?,0.0,0.0,1085.0,705.0,705.0,8.0,0.0,0.0,1.0
2800000.0,12.984375,5.1596904005337915E-6,2800000.0,92.4,84.80729249960021,85.97785977859779,84.48979591836736,559400.0,2202352.0,0.0,1.0,0.0,?,0.0,0.0,1114.0,724.0,724.0,8.0,0.0,0.0,1.0
2900000.0,13.46875,5.446199987394114E-6,2900000.0,93.2,86.36859323882226,86.71875000000001,85.3448275862069,579400.0,2214456.0,0.0,1.0,0.0,?,0.0,0.0,1129.0,733.0,733.0,8.0,0.0,0.0,1.0
3000000.0,14.09375,5.8214867668640275E-6,3000000.0,94.5,88.9955982392957,89.02195608782434,89.1089108910891,599400.0,2264032.0,0.0,1.0,0.0,?,0.0,0.0,1159.0,751.0,751.0,9.0,0.0,0.0,1.0
3100000.0,14.6875,6.209185812622308E-6,3100000.0,94.3,88.59881427668476,88.62275449101796,88.3673469387755,619200.0,2329744.0,0.0,1.0,0.0,?,0.0,0.0,1193.0,771.0,771.0,9.0,0.0,0.0,1.0
3200000.0,15.171875,6.5282785281952875E-6,3200000.0,92.9,85.78134512480375,85.62753036437249,84.53159041394336,639200.0,2367192.0,0.0,1.0,0.0,?,0.0,0.0,1216.0,784.0,784.0,9.0,0.0,0.0,1.0
3300000.0,15.625,6.830898702092882E-6,3300000.0,93.30000000000001,86.54542825701044,86.35437881873727,85.46637744034709,659200.0,2417296.0,0.0,1.0,0.0,?,0.0,0.0,1245.0,803.0,803.0,9.0,0.0,0.0,1.0
3400000.0,16.0625,7.125514837551033E-6,3400000.0,92.5,84.97078320254576,84.07643312101911,83.87096774193549,679200.0,2453808.0,0.0,1.0,0.0,?,0.0,0.0,1266.0,815.0,815.0,9.0,0.0,0.0,1.0
3500000.0,16.5,7.426414813380687E-6,3500000.0,93.7,87.34766996296685,86.98347107438018,86.09271523178809,699200.0,2524280.0,0.0,1.0,0.0,?,0.0,0.0,1300.0,838.0,838.0,9.0,0.0,0.0,1.0
3600000.0,16.953125,7.74332221933744E-6,3600000.0,94.39999999999999,88.7919301897366,88.35758835758834,88.3089770354906,719200.0,2584120.0,0.0,1.0,0.0,?,0.0,0.0,1333.0,859.0,859.0,9.0,0.0,0.0,1.0
3700000.0,17.40625,8.065129578527477E-6,3700000.0,94.8,89.60145579618852,89.53722334004023,89.4523326572008,739200.0,2640888.0,0.0,1.0,0.0,?,0.0,0.0,1357.0,874.0,874.0,9.0,0.0,0.0,1.0
3800000.0,17.875,8.39621960444169E-6,3800000.0,93.30000000000001,86.60192932217761,86.46464646464648,86.51911468812878,759200.0,2641072.0,0.0,1.0,0.0,?,0.0,0.0,1371.0,881.0,881.0,9.0,0.0,0.0,1.0
3900000.0,18.3125,8.708161573546628E-6,3900000.0,93.4,86.75592371412061,86.5030674846626,85.26785714285715,779200.0,2681920.0,0.0,1.0,0.0,?,0.0,0.0,1390.0,892.0,892.0,9.0,0.0,0.0,1.0
4000000.0,18.765625,9.033066453412175E-6,4000000.0,95.3,90.60293188525179,90.61876247504989,90.34907597535934,799200.0,2712512.0,0.0,1.0,0.0,?,0.0,0.0,1418.0,909.0,909.0,9.0,0.0,0.0,1.0
4100000.0,19.265625,9.416215665017565E-6,4100000.0,95.1,90.12813280683373,90.27777777777777,89.06249999999999,819000.0,2765720.0,0.0,1.0,0.0,?,0.0,0.0,1447.0,925.0,925.0,9.0,0.0,0.0,1.0
4200000.0,19.765625,9.805005587016542E-6,4200000.0,95.7,91.37578319922342,91.56862745098039,90.67245119305855,839000.0,2824256.0,0.0,1.0,0.0,?,0.0,0.0,1481.0,945.0,945.0,10.0,0.0,0.0,1.0
4300000.0,20.3125,1.0235307175510872E-5,4300000.0,93.89999999999999,87.8066331915438,87.07627118644066,87.37060041407865,859000.0,2875016.0,0.0,1.0,0.0,?,0.0,0.0,1511.0,963.0,963.0,10.0,0.0,0.0,1.0
4400000.0,20.75,1.0583586764470155E-5,4400000.0,95.39999999999999,90.78396409752969,91.18773946360153,90.23354564755837,879000.0,2925632.0,0.0,1.0,0.0,?,0.0,0.0,1544.0,981.0,981.0,10.0,0.0,0.0,1.0
4500000.0,21.234375,1.097015742238404E-5,4500000.0,94.8,89.59500560268928,88.54625550660792,88.93617021276594,899000.0,2948440.0,0.0,1.0,0.0,?,0.0,0.0,1564.0,991.0,991.0,10.0,0.0,0.0,1.0
4600000.0,21.859375,1.1475978115211344E-5,4600000.0,93.89999999999999,87.80341504378772,88.35877862595419,87.62677484787017,919000.0,3006856.0,0.0,1.0,0.0,?,0.0,0.0,1598.0,1014.0,1014.0,10.0,0.0,0.0,1.0
4700000.0,22.5625,1.2054409469581312E-5,4700000.0,95.1,90.2032916939908,90.18036072144288,89.85507246376811,939000.0,3073376.0,0.0,1.0,0.0,?,0.0,0.0,1629.0,1034.0,1034.0,10.0,0.0,0.0,1.0
4800000.0,23.1875,1.2569988353384865E-5,4800000.0,95.8,91.55985868791974,91.58316633266533,90.84967320261437,959000.0,3097296.0,0.0,1.0,0.0,?,0.0,0.0,1647.0,1046.0,1046.0,10.0,0.0,0.0,1.0
4900000.0,23.78125,1.3061543059949246E-5,4900000.0,96.1,92.19381750346274,92.3679060665362,91.90871369294605,979000.0,3123744.0,0.0,1.0,0.0,?,0.0,0.0,1667.0,1056.0,1056.0,10.0,0.0,0.0,1.0
5000000.0,24.25,1.3456123092004823E-5,5000000.0,95.5,90.993443226669,91.07142857142856,90.50632911392404,999000.0,3190144.0,0.0,1.0,0.0,?,0.0,0.0,1697.0,1074.0,1074.0,10.0,0.0,0.0,1.0
5100000.0,24.828125,1.3486875298743448E-5,5100000.0,73.9,43.919691278974824,44.70338983050847,35.872235872235876,9548.0,17528.0,0.0,1.0,0.0,?,2.0,24.0,6.0,5.0,5.0,1.0,0.0,0.0,1.0
5200000.0,25.1875,1.351062518854936E-5,5200000.0,77.60000000000001,52.23004644774949,55.73122529644269,44.13965087281797,29548.0,82360.0,0.0,1.0,0.0,?,0.0,0.0,31.0,22.0,22.0,4.0,0.0,0.0,1.0
5300000.0,25.53125,1.3540105299196311E-5,5300000.0,82.69999999999999,62.82927248506724,63.95833333333333,57.70171149144253,49548.0,173320.0,0.0,1.0,0.0,?,0.0,0.0,70.0,49.0,49.0,4.0,0.0,0.0,1.0
5400000.0,25.890625,1.3576917925901298E-5,5400000.0,80.7,58.2569124822646,61.47704590818365,51.26262626262628,69548.0,252624.0,0.0,1.0,0.0,?,0.0,0.0,104.0,69.0,69.0,6.0,0.0,0.0,1.0
5500000.0,26.234375,1.3620095851365478E-5,5500000.0,79.10000000000001,54.3692033605226,56.45833333333334,47.88029925187033,89548.0,357024.0,0.0,1.0,0.0,?,0.0,0.0,138.0,92.0,92.0,6.0,0.0,0.0,1.0
5600000.0,26.59375,1.3675425984224098E-5,5600000.0,82.3,61.99465778014446,64.38631790744466,57.655502392344495,109548.0,481440.0,0.0,1.0,0.0,?,0.0,0.0,187.0,127.0,127.0,6.0,0.0,0.0,1.0
5700000.0,27.015625,1.3741518163846599E-5,5700000.0,81.0,59.17841182536956,61.770623742454745,54.76190476190478,129548.0,506936.0,0.0,1.0,0.0,?,0.0,0.0,199.0,133.0,133.0,6.0,0.0,0.0,1.0
5800000.0,27.421875,1.3810725908519494E-5,5800000.0,82.39999999999999,60.81487253701435,63.711340206185554,54.5219638242894,149548.0,574824.0,0.0,1.0,0.0,?,0.0,0.0,226.0,151.0,151.0,6.0,0.0,0.0,1.0
5900000.0,27.78125,1.3877778514547067E-5,5900000.0,82.0,62.23311400563985,63.34012219959265,58.33333333333333,169548.0,652424.0,0.0,1.0,0.0,?,0.0,0.0,261.0,173.0,173.0,6.0,0.0,0.0,1.0
6000000.0,28.125,1.3945798758262147E-5,6000000.0,83.1,63.968036023435694,65.78947368421052,58.88077858880778,189548.0,711024.0,0.0,1.0,0.0,?,0.0,0.0,289.0,190.0,190.0,7.0,0.0,0.0,1.0
6100000.0,28.46875,1.403203010947133E-5,6100000.0,85.3,68.7287270251872,69.24686192468619,64.57831325301204,209348.0,777904.0,0.0,1.0,0.0,?,0.0,5.0,322.0,211.0,211.0,7.0,0.0,0.0,1.0
6200000.0,28.8125,1.4124336335549337E-5,6200000.0,85.2,68.97625845292147,70.22132796780683,65.01182033096926,229348.0,861192.0,0.0,1.0,0.0,?,0.0,7.0,355.0,232.0,232.0,8.0,0.0,0.0,1.0
6300000.0,29.15625,1.4219005922010788E-5,6300000.0,85.6,69.56683461265342,70.67209775967413,65.87677725118483,249348.0,902736.0,0.0,1.0,0.0,?,0.0,0.0,380.0,246.0,246.0,8.0,0.0,0.0,1.0
6400000.0,29.5,1.4316050963114118E-5,6400000.0,87.5,73.59526827207435,74.59349593495935,69.13580246913581,269348.0,944448.0,0.0,1.0,0.0,?,0.0,0.0,394.0,253.0,253.0,8.0,0.0,0.0,1.0
6500000.0,29.859375,1.4418836249711198E-5,6500000.0,87.3,72.64699547706223,73.92197125256673,67.84810126582279,289348.0,973760.0,0.0,1.0,0.0,?,0.0,0.0,412.0,262.0,262.0,8.0,0.0,0.0,1.0
6600000.0,30.203125,1.4520967282199611E-5,6600000.0,87.1,72.67319685466379,71.64835164835165,67.99007444168734,309348.0,1031536.0,0.0,1.0,0.0,?,0.0,0.0,447.0,281.0,281.0,8.0,0.0,0.0,1.0
6700000.0,30.59375,1.4644042530562728E-5,6700000.0,88.4,75.36192482838307,75.0,71.2871287128713,329348.0,1115896.0,0.0,1.0,0.0,?,0.0,0.0,488.0,309.0,309.0,8.0,0.0,0.0,1.0
6800000.0,30.96875,1.4767709750837335E-5,6800000.0,86.5,71.28881327094852,72.44897959183673,66.25,349348.0,1187688.0,0.0,1.0,0.0,?,0.0,0.0,528.0,335.0,335.0,9.0,0.0,0.0,1.0
6900000.0,31.34375,1.4894328487571328E-5,6900000.0,86.7,71.18592659993934,70.76923076923076,65.63307493540051,369348.0,1233072.0,0.0,1.0,0.0,?,0.0,0.0,555.0,350.0,350.0,9.0,0.0,0.0,1.0
7000000.0,31.703125,1.5022682912078583E-5,7000000.0,86.6,71.21201704936064,71.78947368421052,66.16161616161617,389348.0,1323296.0,0.0,1.0,0.0,?,0.0,0.0,594.0,374.0,374.0,9.0,0.0,0.0,1.0
7100000.0,32.140625,1.52016519374835E-5,7100000.0,89.2,77.46883188410635,78.57142857142857,74.16267942583733,409148.0,1386736.0,0.0,1.0,0.0,?,0.0,0.0,617.0,387.0,387.0,9.0,0.0,0.0,1.0
7200000.0,32.546875,1.537702547567379E-5,7200000.0,88.8,76.33576173492673,77.95275590551182,71.57360406091371,429148.0,1488952.0,0.0,1.0,0.0,?,0.0,0.0,663.0,416.0,416.0,9.0,0.0,0.0,1.0
7300000.0,32.9375,1.5549362999283606E-5,7300000.0,89.3,77.40423195506187,78.42741935483872,73.38308457711443,449148.0,1540608.0,0.0,1.0,0.0,?,0.0,0.0,688.0,430.0,430.0,9.0,0.0,0.0,1.0
7400000.0,33.40625,1.57626601220626E-5,7400000.0,90.8,80.63973063973064,80.83333333333333,77.00000000000001,469148.0,1609096.0,0.0,1.0,0.0,?,0.0,0.0,730.0,457.0,457.0,9.0,0.0,0.0,1.0
7500000.0,33.90625,1.5997418603445922E-5,7500000.0,90.2,79.84940514621519,80.74656188605108,77.26218097447797,489148.0,1680024.0,0.0,1.0,0.0,?,0.0,0.0,759.0,476.0,476.0,9.0,0.0,0.0,1.0
7600000.0,34.359375,1.6218026220384574E-5,7600000.0,91.0,81.28306658237115,81.32780082987553,78.36538461538463,509148.0,1762024.0,0.0,1.0,0.0,?,0.0,0.0,792.0,500.0,500.0,9.0,0.0,0.0,1.0
7700000.0,34.90625,1.6492735982562106E-5,7700000.0,91.7,82.98036385111305,82.95687885010268,80.83140877598154,529148.0,1836720.0,0.0,1.0,0.0,?,0.0,0.0,823.0,520.0,520.0,9.0,0.0,0.0,1.0
7800000.0,35.453125,1.6774072525246692E-5,7800000.0,90.3,79.99505032172908,81.0546875,77.33644859813084,549148.0,1898432.0,0.0,1.0,0.0,?,0.0,0.0,860.0,540.0,540.0,9.0,0.0,0.0,1.0
7900000.0,35.921875,1.7023351683747024E-5,7900000.0,91.9,83.12303102028571,83.26446280991736,80.14705882352942,569148.0,1980400.0,0.0,1.0,0.0,?,0.0,0.0,900.0,566.0,566.0,9.0,0.0,0.0,1.0
8000000.0,36.4375,1.7301084590144455E-5,8000000.0,91.7,82.53543413123255,82.15053763440861,79.04040404040406,589148.0,2021832.0,0.0,1.0,0.0,?,0.0,0.0,921.0,578.0,578.0,9.0,0.0,0.0,1.0
8100000.0,37.03125,1.7651913868677284E-5,8100000.0,92.2,83.82977311927824,83.64779874213836,81.60377358490567,608948.0,2086512.0,0.0,1.0,0.0,?,0.0,0.0,951.0,596.0,596.0,9.0,0.0,0.0,1.0
8200000.0,37.71875,1.8062632039396298E-5,8200000.0,92.9,85.23626140550793,85.08403361344538,82.85024154589374,628948.0,2126832.0,0.0,1.0,0.0,?,0.0,0.0,986.0,618.0,618.0,9.0,0.0,0.0,1.0
8300000.0,38.140625,1.8319342666978223E-5,8300000.0,91.8,82.68990441449658,82.55319148936171,79.18781725888326,648948.0,2184672.0,0.0,1.0,0.0,?,0.0,0.0,1003.0,628.0,628.0,9.0,0.0,0.0,1.0
8400000.0,38.5625,1.8577720070930405E-5,8400000.0,90.5,79.49669788923902,78.84187082405344,74.32432432432434,668948.0,2214984.0,0.0,1.0,0.0,?,0.0,0.0,1026.0,641.0,641.0,9.0,0.0,0.0,1.0
8500000.0,38.96875,1.8827849643356686E-5,8500000.0,92.10000000000001,83.52340510732729,83.54166666666667,80.87167070217919,688948.0,2242576.0,0.0,1.0,0.0,?,0.0,0.0,1044.0,650.0,650.0,9.0,0.0,0.0,1.0
8600000.0,39.40625,1.9099303398333076E-5,8600000.0,93.2,85.82104490558486,85.31317494600434,83.49514563106798,708948.0,2276000.0,0.0,1.0,0.0,?,0.0,0.0,1058.0,657.0,657.0,9.0,0.0,0.0,1.0
8700000.0,39.859375,1.938158759407492E-5,8700000.0,91.5,82.53343306400573,82.75862068965519,80.5491990846682,728948.0,2300720.0,0.0,1.0,0.0,?,0.0,0.0,1076.0,666.0,666.0,9.0,0.0,0.0,1.0
8800000.0,40.34375,1.968460778395335E-5,8800000.0,92.9,85.38252491147163,85.08403361344538,83.56481481481482,748948.0,2325880.0,0.0,1.0,0.0,?,0.0,0.0,1092.0,674.0,674.0,9.0,0.0,0.0,1.0
8900000.0,40.78125,1.9960159616958765E-5,8900000.0,90.8,80.99511243869891,81.74603174603176,78.45433255269322,768948.0,2357336.0,0.0,1.0,0.0,?,0.0,0.0,1107.0,683.0,683.0,9.0,0.0,0.0,1.0
9000000.0,41.28125,2.0277998280814955E-5,9000000.0,93.10000000000001,85.6299097808249,85.80246913580248,83.29297820823246,788948.0,2394984.0,0.0,1.0,0.0,?,0.0,0.0,1129.0,697.0,697.0,10.0,0.0,0.0,1.0
9100000.0,41.71875,2.0574600073612402E-5,9100000.0,91.8,82.58320766338863,83.19672131147541,79.24050632911394,808748.0,2421304.0,0.0,1.0,0.0,?,0.0,0.0,1146.0,707.0,707.0,10.0,0.0,0.0,1.0
9200000.0,42.140625,2.0862576946253997E-5,9200000.0,93.8,86.91292875989444,86.91983122362869,84.30379746835442,828748.0,2454344.0,0.0,1.0,0.0,?,0.0,0.0,1162.0,715.0,715.0,10.0,0.0,0.0,1.0
9300000.0,42.609375,2.1185037686437787E-5,9300000.0,92.0,82.92736018575033,83.19327731092437,79.32816537467701,848748.0,2489968.0,0.0,1.0,0.0,?,0.0,0.0,1183.0,730.0,730.0,10.0,0.0,0.0,1.0
9400000.0,43.03125,2.1476833563711913E-5,9400000.0,91.8,82.91097032344116,83.60000000000001,80.00000000000001,868748.0,2519496.0,0.0,1.0,0.0,?,0.0,0.0,1195.0,736.0,736.0,10.0,0.0,0.0,1.0
9500000.0,43.484375,2.1795538713275978E-5,9500000.0,92.4,84.0084166228301,83.9323467230444,81.04738154613467,888748.0,2579616.0,0.0,1.0,0.0,?,0.0,0.0,1230.0,758.0,758.0,10.0,0.0,0.0,1.0
9600000.0,43.953125,2.212938778231749E-5,9600000.0,91.9,83.15041479102355,83.08977035490607,80.7600950118765,908748.0,2628880.0,0.0,1.0,0.0,?,0.0,0.0,1252.0,772.0,772.0,10.0,0.0,0.0,1.0
9700000.0,44.390625,2.244203781527985E-5,9700000.0,91.0,81.30079949470606,81.63265306122449,78.46889952153111,928748.0,2653264.0,0.0,1.0,0.0,?,0.0,0.0,1268.0,780.0,780.0,10.0,0.0,0.0,1.0
9800000.0,44.828125,2.275549370096997E-5,9800000.0,93.4,85.51869404949974,85.4625550660793,81.66666666666667,948748.0,2675432.0,0.0,1.0,0.0,?,0.0,0.0,1286.0,789.0,789.0,10.0,0.0,0.0,1.0
9900000.0,45.28125,2.308277212755962E-5,9900000.0,93.60000000000001,86.72248754195903,86.17710583153348,84.7255369928401,968748.0,2712888.0,0.0,1.0,0.0,?,0.0,0.0,1301.0,798.0,798.0,10.0,0.0,0.0,1.0
1.0E7,45.765625,2.343078997607033E-5,1.0E7,92.9,85.13549726995613,84.98942917547569,82.76699029126215,988748.0,2713432.0,0.0,1.0,0.0,?,0.0,0.0,1311.0,803.0,803.0,10.0,0.0,0.0,1.0
