learning evaluation instances,evaluation time (cpu seconds),model cost (RAM-Hours),classified instances,classifications correct (percent),Kappa Statistic (percent),Kappa Temporal Statistic (percent),Kappa M Statistic (percent),model training instances,model serialized size (bytes),labeling cost,newThreshold,maxPosterior,accuracyBaseLearner (percent),Change detected,Warning detected,tree size (nodes),tree size (leaves),active learning leaves,tree depth,active leaf byte size estimate,inactive leaf byte size estimate,byte size estimate overhead
100000.0,0.328125,1.278589479625225E-8,100000.0,89.4,78.02334501275061,78.00829875518673,73.95577395577396,21479.0,18656.0,0.0,1.0,0.0,?,3.0,33.0,19.0,10.0,10.0,4.0,0.0,0.0,1.0
200000.0,0.625,2.5488908350881603E-8,200000.0,90.7,81.16890479970195,80.5439330543933,79.24107142857143,51479.0,42720.0,0.0,1.0,0.0,?,0.0,0.0,45.0,23.0,23.0,5.0,0.0,0.0,1.0
300000.0,0.921875,3.9337189971572824E-8,300000.0,89.2,77.71541762958071,78.57142857142857,74.28571428571429,81479.0,66904.0,0.0,1.0,0.0,?,0.0,0.0,75.0,38.0,38.0,7.0,0.0,0.0,1.0
400000.0,1.21875,5.383552181430989E-8,400000.0,88.1,75.6785480706344,76.66666666666667,72.51732101616629,111479.0,84728.0,0.0,1.0,0.0,?,0.0,0.0,95.0,48.0,48.0,9.0,0.0,0.0,1.0
500000.0,1.53125,7.046027652298411E-8,500000.0,87.8,74.75008796075915,74.68879668049793,70.60240963855422,141479.0,110848.0,0.0,1.0,0.0,?,0.0,0.0,125.0,63.0,63.0,10.0,0.0,0.0,1.0
600000.0,1.828125,8.716128326745498E-8,600000.0,87.6,74.5442601412383,74.43298969072166,71.16279069767442,171479.0,131976.0,0.0,1.0,0.0,?,0.0,0.0,153.0,77.0,77.0,11.0,0.0,0.0,1.0
700000.0,2.125,1.0486132749873732E-7,700000.0,89.60000000000001,78.31526271893244,77.24288840262582,73.86934673366835,201479.0,154296.0,0.0,1.0,0.0,?,0.0,0.0,177.0,89.0,89.0,11.0,0.0,0.0,1.0
800000.0,2.421875,1.2330665615283783E-7,800000.0,87.8,74.90166389624925,74.09766454352442,71.36150234741785,231479.0,173344.0,0.0,1.0,0.0,?,0.0,0.0,201.0,101.0,101.0,11.0,0.0,0.0,1.0
900000.0,2.71875,1.431528491795891E-7,900000.0,87.8,74.64302787188494,75.50200803212851,70.60240963855422,261479.0,200824.0,0.0,1.0,0.0,?,0.0,0.0,231.0,116.0,116.0,12.0,0.0,0.0,1.0
1000000.0,3.03125,1.6460431248156563E-7,1000000.0,89.2,77.51948311463399,77.77777777777779,73.26732673267328,291479.0,217168.0,0.0,1.0,0.0,?,0.0,0.0,243.0,122.0,122.0,12.0,0.0,0.0,1.0
1100000.0,3.34375,1.948567741136584E-7,1100000.0,88.2,76.03155709567471,77.48091603053436,72.99771167048056,321179.0,239248.0,0.0,1.0,0.0,?,0.0,0.0,267.0,134.0,134.0,12.0,0.0,0.0,1.0
1200000.0,3.640625,2.2430810430604553E-7,1200000.0,90.8,81.29472999349382,80.25751072961373,79.0909090909091,351179.0,257864.0,0.0,1.0,0.0,?,0.0,0.0,289.0,145.0,145.0,13.0,0.0,0.0,1.0
1300000.0,3.96875,2.5776412156927916E-7,1300000.0,90.3,80.10582878707085,80.16359918200409,77.49419953596288,381179.0,277864.0,0.0,1.0,0.0,?,0.0,0.0,309.0,155.0,155.0,13.0,0.0,0.0,1.0
1400000.0,4.28125,2.9067861356048123E-7,1400000.0,88.1,75.72815533980582,75.10460251046025,72.95454545454545,411179.0,300184.0,0.0,1.0,0.0,?,0.0,0.0,333.0,167.0,167.0,13.0,0.0,0.0,1.0
1500000.0,4.609375,3.2610874364359516E-7,1500000.0,88.0,75.14251624022272,75.20661157024794,70.87378640776699,441179.0,319760.0,0.0,1.0,0.0,?,0.0,0.0,361.0,181.0,181.0,13.0,0.0,0.0,1.0
1600000.0,4.9375,3.628101290410592E-7,1600000.0,88.5,76.03587533653966,76.28865979381445,71.67487684729065,471179.0,344016.0,0.0,1.0,0.0,?,0.0,0.0,389.0,195.0,195.0,14.0,0.0,0.0,1.0
1700000.0,5.25,3.9887171523231604E-7,1700000.0,87.8,75.23596874048513,75.98425196850394,72.9490022172949,501179.0,367024.0,0.0,1.0,0.0,?,0.0,0.0,411.0,206.0,206.0,14.0,0.0,0.0,1.0
1800000.0,5.546875,4.333206905155547E-7,1800000.0,87.3,73.85927645770555,72.74678111587983,68.87254901960785,531179.0,378952.0,0.0,1.0,0.0,?,0.0,0.0,425.0,213.0,213.0,14.0,0.0,0.0,1.0
1900000.0,5.875,4.728273941307433E-7,1900000.0,88.7,76.71927149861965,76.55601659751038,72.70531400966183,561179.0,405072.0,0.0,1.0,0.0,?,0.0,0.0,455.0,228.0,228.0,14.0,0.0,0.0,1.0
2000000.0,6.203125,5.125215264140732E-7,2000000.0,87.8,74.10865874363327,72.27272727272727,67.89473684210526,591179.0,416736.0,0.0,1.0,0.0,?,0.0,0.0,467.0,234.0,234.0,14.0,0.0,0.0,1.0
2100000.0,6.53125,5.613236054260699E-7,2100000.0,87.8,75.29364115026327,76.44787644787645,72.14611872146118,620879.0,437264.0,0.0,1.0,0.0,?,0.0,0.0,491.0,246.0,246.0,14.0,0.0,0.0,1.0
2200000.0,6.875,6.129312290189168E-7,2200000.0,88.0,74.95878633584441,74.08207343412528,70.07481296758104,650879.0,452080.0,0.0,1.0,0.0,?,0.0,0.0,509.0,255.0,255.0,14.0,0.0,0.0,1.0
2300000.0,7.203125,6.635308576126894E-7,2300000.0,86.8,72.98270893371759,71.67381974248926,69.44444444444444,680879.0,477104.0,0.0,1.0,0.0,?,0.0,0.0,541.0,271.0,271.0,15.0,0.0,0.0,1.0
2400000.0,7.546875,7.183904138704142E-7,2400000.0,87.8,74.47698744769873,74.68879668049793,68.71794871794872,710879.0,507136.0,0.0,1.0,0.0,?,0.0,0.0,567.0,284.0,284.0,15.0,0.0,0.0,1.0
2500000.0,7.890625,7.74093722510669E-7,2500000.0,87.0,72.82438279992473,73.8430583501006,67.2544080604534,740879.0,525992.0,0.0,1.0,0.0,?,0.0,0.0,585.0,293.0,293.0,15.0,0.0,0.0,1.0
2600000.0,8.234375,8.301534560612507E-7,2600000.0,87.2,74.18230519742468,74.34869739478958,72.53218884120172,770879.0,539424.0,0.0,1.0,0.0,?,0.0,0.0,601.0,301.0,301.0,15.0,0.0,0.0,1.0
2700000.0,8.59375,8.894575229432021E-7,2700000.0,88.5,76.41896325459318,78.17836812144213,72.61904761904762,800879.0,556296.0,0.0,1.0,0.0,?,0.0,0.0,619.0,310.0,310.0,15.0,0.0,0.0,1.0
2800000.0,8.9375,9.468433563597502E-7,2800000.0,88.2,74.93457499235292,74.56896551724138,68.44919786096257,830879.0,573096.0,0.0,1.0,0.0,?,0.0,0.0,639.0,320.0,320.0,15.0,0.0,0.0,1.0
2900000.0,9.296875,1.008040304037018E-6,2900000.0,86.7,72.63712298893141,72.23382045929019,67.95180722891565,860879.0,595344.0,0.0,1.0,0.0,?,0.0,0.0,663.0,332.0,332.0,16.0,0.0,0.0,1.0
3000000.0,9.640625,1.0678812719157175E-6,3000000.0,87.7,75.03511321474674,76.30057803468209,72.17194570135746,890879.0,619312.0,0.0,1.0,0.0,?,0.0,0.0,687.0,344.0,344.0,16.0,0.0,0.0,1.0
3100000.0,10.0,1.1409301077947022E-6,3100000.0,86.7,72.79629538723349,71.94092827004219,68.63207547169812,920579.0,645288.0,0.0,1.0,0.0,?,0.0,0.0,715.0,358.0,358.0,16.0,0.0,0.0,1.0
3200000.0,10.375,1.2195073456193011E-6,3200000.0,87.0,73.42045970337233,74.0,69.83758700696056,950579.0,678696.0,0.0,1.0,0.0,?,0.0,0.0,753.0,377.0,377.0,16.0,0.0,0.0,1.0
3300000.0,10.734375,1.295525289606303E-6,3300000.0,86.4,72.08951058135908,72.41379310344827,67.14975845410628,980579.0,695760.0,0.0,1.0,0.0,?,0.0,0.0,773.0,387.0,387.0,16.0,0.0,0.0,1.0
3400000.0,11.125,1.3787525434357425E-6,3400000.0,87.4,74.05528283859915,74.9003984063745,70.14218009478674,1010579.0,711080.0,0.0,1.0,0.0,?,0.0,0.0,793.0,397.0,397.0,16.0,1670.3265306122448,0.0,1.0766561591281187
3500000.0,11.515625,1.464511022075183E-6,3500000.0,86.5,71.99983407309081,70.71583514099783,66.66666666666666,1040579.0,745296.0,0.0,1.0,0.0,?,0.0,0.0,825.0,413.0,413.0,16.0,1670.3265306122448,0.0,1.0766561591281187
3600000.0,11.890625,1.5475298924785522E-6,3600000.0,86.6,72.6326194667854,72.81947261663286,68.76456876456876,1070579.0,761808.0,0.0,1.0,0.0,?,0.0,0.0,841.0,421.0,421.0,16.0,1670.3265306122448,0.0,1.0766561591281187
3700000.0,12.265625,1.6309375900568235E-6,3700000.0,88.0,74.78991596638656,75.10373443983403,70.0,1100579.0,775240.0,0.0,1.0,0.0,?,0.0,0.0,857.0,429.0,429.0,16.0,1670.3265306122448,0.0,1.0766561591281187
3800000.0,12.640625,1.7155769617400238E-6,3800000.0,87.4,74.36846751915245,74.74949899799599,71.29840546697038,1130579.0,797248.0,0.0,1.0,0.0,?,0.0,0.0,881.0,441.0,441.0,16.0,1670.3265306122448,0.0,1.0766561591281187
3900000.0,13.015625,1.801479827716119E-6,3900000.0,88.4,76.1748274728886,76.93836978131213,72.24880382775119,1160579.0,819592.0,0.0,1.0,0.0,?,0.0,0.0,903.0,452.0,452.0,16.0,1670.3265306122448,0.0,1.0766561591281187
4000000.0,13.390625,1.8891987727127143E-6,4000000.0,85.9,71.29455451591625,70.92783505154638,67.13286713286713,1190579.0,847552.0,0.0,1.0,0.0,?,0.0,0.0,933.0,467.0,467.0,16.0,1670.3265306122448,0.0,1.0766561591281187
4100000.0,13.78125,1.9907024236292475E-6,4100000.0,87.1,73.66357979322848,73.51129363449692,70.20785219399538,1220279.0,861104.0,0.0,1.0,0.0,?,0.0,0.0,953.0,477.0,477.0,17.0,1670.3265306122448,0.0,1.0766561591281187
4200000.0,14.171875,2.093435711382578E-6,4200000.0,84.89999999999999,69.13681181222101,69.12065439672801,64.13301662707839,1250279.0,882608.0,0.0,1.0,0.0,?,0.0,0.0,971.0,486.0,486.0,17.0,1670.3265306122448,0.0,1.0766561591281187
4300000.0,14.578125,2.201391519823422E-6,4300000.0,84.39999999999999,68.19117916930041,68.61167002012071,62.227602905569,1280279.0,902536.0,0.0,1.0,0.0,?,0.0,0.0,993.0,497.0,497.0,17.0,1670.3265306122448,0.0,1.0766561591281187
4400000.0,14.96875,2.3053512106546097E-6,4400000.0,88.1,75.6488855784106,75.91093117408907,71.5311004784689,1310279.0,913536.0,0.0,1.0,0.0,?,0.0,0.0,1009.0,505.0,505.0,17.0,1670.3265306122448,0.0,1.0766561591281187
4500000.0,15.359375,2.4104152301636834E-6,4500000.0,87.5,74.43365431028136,74.17355371900827,70.86247086247086,1340279.0,933800.0,0.0,1.0,0.0,?,0.0,0.0,1031.0,516.0,516.0,17.0,1670.3265306122448,0.0,1.0766561591281187
4600000.0,15.765625,2.521760211998804E-6,4600000.0,85.9,71.40933718327223,71.8562874251497,67.88154897494304,1370279.0,962808.0,0.0,1.0,0.0,?,0.0,0.0,1059.0,530.0,530.0,17.0,1670.3265306122448,0.0,1.0766561591281187
4700000.0,16.171875,2.634548808499757E-6,4700000.0,87.9,75.01734333190183,76.32093933463796,70.55961070559611,1400279.0,985848.0,0.0,1.0,0.0,?,0.0,0.0,1085.0,543.0,543.0,17.0,1670.3265306122448,0.0,1.0766561591281187
4800000.0,16.578125,2.7477838577599164E-6,4800000.0,87.5,74.49187821402334,74.79838709677419,70.02398081534771,1430279.0,999520.0,0.0,1.0,0.0,?,0.0,0.0,1101.0,551.0,551.0,17.0,1670.3265306122448,0.0,1.0766561591281187
4900000.0,16.984375,2.862138822416051E-6,4900000.0,87.5,74.6089782652854,75.91522157996147,70.93023255813954,1460279.0,1019520.0,0.0,1.0,0.0,?,0.0,0.0,1121.0,561.0,561.0,18.0,1670.3265306122448,0.0,1.0766561591281187
5000000.0,17.390625,2.9767418163828554E-6,5000000.0,86.9,73.29168739449197,72.65135699373695,68.95734597156398,1490279.0,1030584.0,0.0,1.0,0.0,?,0.0,0.0,1133.0,567.0,567.0,18.0,1670.3265306122448,0.0,1.0766561591281187
5100000.0,17.796875,3.102621315823247E-6,5100000.0,77.3,50.780145534653386,44.36274509803923,19.503546099290794,1519979.0,1051112.0,0.0,1.0,0.0,?,0.0,0.0,1157.0,579.0,579.0,18.0,1670.3265306122448,0.0,1.0766561591281187
5200000.0,18.21875,3.2334366308835646E-6,5200000.0,78.8,54.144910733984254,49.76303317535547,27.64505119453927,1549979.0,1061440.0,0.0,1.0,0.0,?,0.0,0.0,1171.0,586.0,586.0,18.0,1670.3265306122448,0.0,1.0766561591281187
5300000.0,18.625,3.3603191776718532E-6,5300000.0,81.5,58.37083708370836,56.87645687645687,38.33333333333332,1579979.0,1079480.0,0.0,1.0,0.0,?,0.0,0.0,1191.0,596.0,596.0,18.0,1670.3265306122448,0.0,1.0766561591281187
5400000.0,19.046875,3.4935320662851966E-6,5400000.0,76.1,47.65063038278561,43.0952380952381,16.7247386759582,1609979.0,1102040.0,0.0,1.0,0.0,?,0.0,0.0,1225.0,613.0,613.0,18.0,1670.3265306122448,0.0,1.0766561591281187
5500000.0,19.453125,3.623174044251856E-6,5500000.0,78.9,53.17853402211927,50.000000000000014,29.900332225913644,1639979.0,1124312.0,0.0,1.0,0.0,?,0.0,0.0,1251.0,626.0,626.0,18.0,1670.3265306122448,0.0,1.0766561591281187
5600000.0,19.875,3.7595187960606486E-6,5600000.0,77.60000000000001,50.19455252918288,48.0278422273782,25.083612040133797,1669979.0,1149312.0,0.0,1.0,0.0,?,0.0,0.0,1281.0,641.0,641.0,18.0,1670.3265306122448,0.0,1.0766561591281187
5700000.0,20.296875,3.897291963868258E-6,5700000.0,79.10000000000001,53.985433857914074,46.272493573264796,26.923076923076945,1699979.0,1171704.0,0.0,1.0,0.0,?,0.0,0.0,1307.0,654.0,654.0,18.0,1670.3265306122448,0.0,1.0766561591281187
5800000.0,20.734375,4.041262533670913E-6,5800000.0,77.0,48.906828269185496,40.41450777202073,19.860627177700362,1729979.0,1187000.0,0.0,1.0,0.0,?,0.0,20.0,1325.0,663.0,663.0,18.0,1670.3265306122448,0.0,1.0766561591281187
5900000.0,21.1875,4.049175606471384E-6,5900000.0,87.5,68.17816156329238,69.80676328502415,56.747404844290664,10574.0,11200.0,0.0,1.0,0.0,?,2.0,19.0,11.0,6.0,6.0,3.0,0.0,0.0,1.0
6000000.0,21.46875,4.054899747845614E-6,6000000.0,89.0,70.90331966671076,71.50259067357513,60.00000000000001,40574.0,31704.0,0.0,1.0,0.0,?,0.0,0.0,33.0,17.0,17.0,7.0,0.0,0.0,1.0
6100000.0,21.71875,4.066792219722023E-6,6100000.0,87.0,68.93400627055134,71.8004338394794,59.1194968553459,70274.0,50176.0,0.0,1.0,0.0,?,0.0,0.0,53.0,27.0,27.0,7.0,0.0,0.0,1.0
6200000.0,21.984375,4.080595067029613E-6,6200000.0,89.1,72.51638930912759,73.41463414634147,61.07142857142858,100274.0,76416.0,0.0,1.0,0.0,?,0.0,0.0,83.0,42.0,42.0,8.0,0.0,0.0,1.0
6300000.0,22.28125,4.096838949610376E-6,6300000.0,89.60000000000001,73.8523967798221,75.23809523809526,64.50511945392493,130274.0,96392.0,0.0,1.0,0.0,?,0.0,0.0,105.0,53.0,53.0,9.0,0.0,0.0,1.0
6400000.0,22.5625,4.112762237329864E-6,6400000.0,88.1,71.35815305817906,70.97560975609757,61.980830670926515,160274.0,113120.0,0.0,1.0,0.0,?,0.0,0.0,123.0,62.0,62.0,9.0,0.0,0.0,1.0
6500000.0,22.84375,4.129557475809836E-6,6500000.0,88.0,69.85288206447463,69.92481203007519,57.74647887323944,190274.0,134416.0,0.0,1.0,0.0,?,0.0,0.0,151.0,76.0,76.0,10.0,0.0,0.0,1.0
6600000.0,23.125,4.1471553979338044E-6,6600000.0,89.4,73.57860365412897,74.70167064439141,64.06779661016951,220274.0,154776.0,0.0,1.0,0.0,?,0.0,0.0,175.0,88.0,88.0,11.0,0.0,0.0,1.0
6700000.0,23.40625,4.166246346560203E-6,6700000.0,87.4,69.03263861580811,69.56521739130434,58.82352941176471,250274.0,184504.0,0.0,1.0,0.0,?,0.0,0.0,209.0,105.0,105.0,11.0,0.0,0.0,1.0
6800000.0,23.703125,4.186717398826861E-6,6800000.0,87.3,68.40701712488931,68.40796019900498,55.59440559440559,280274.0,198080.0,0.0,1.0,0.0,?,0.0,0.0,227.0,114.0,114.0,11.0,0.0,0.0,1.0
6900000.0,23.984375,4.2063456041634915E-6,6900000.0,89.0,73.193876506626,74.29906542056075,63.210702341137136,310274.0,210744.0,0.0,1.0,0.0,?,0.0,0.0,239.0,120.0,120.0,12.0,0.0,0.0,1.0
7000000.0,24.28125,4.228066989324159E-6,7000000.0,87.1,66.1885890419576,65.13513513513513,51.13636363636363,340274.0,233112.0,0.0,1.0,0.0,?,0.0,0.0,263.0,132.0,132.0,12.0,0.0,0.0,1.0
7100000.0,24.59375,4.2594629081173075E-6,7100000.0,88.4,72.11685920456131,72.51184834123224,61.461794019933556,369974.0,251896.0,0.0,1.0,0.0,?,0.0,0.0,285.0,143.0,143.0,12.0,0.0,0.0,1.0
7200000.0,24.90625,4.292275860077805E-6,7200000.0,89.1,71.82355860699809,72.95285359801488,60.93189964157707,399974.0,278664.0,0.0,1.0,0.0,?,0.0,0.0,319.0,160.0,160.0,13.0,0.0,0.0,1.0
7300000.0,25.21875,4.325829342835479E-6,7300000.0,86.8,68.29971181556196,68.57142857142857,57.41935483870968,429974.0,297184.0,0.0,1.0,0.0,?,0.0,0.0,339.0,170.0,170.0,13.0,0.0,0.0,1.0
7400000.0,25.53125,4.360288278096251E-6,7400000.0,87.9,69.07490518008117,67.29729729729729,56.63082437275986,459974.0,317712.0,0.0,1.0,0.0,?,0.0,0.0,363.0,182.0,182.0,13.0,0.0,0.0,1.0
7500000.0,25.84375,4.3956086867385435E-6,7500000.0,87.8,69.31512361980936,70.95238095238095,58.075601374570454,489974.0,337712.0,0.0,1.0,0.0,?,0.0,0.0,383.0,192.0,192.0,13.0,0.0,0.0,1.0
7600000.0,26.171875,4.433692019018861E-6,7600000.0,87.0,69.42615239887112,69.33962264150944,60.606060606060595,519974.0,358768.0,0.0,1.0,0.0,?,0.0,0.0,411.0,206.0,206.0,13.0,0.0,0.0,1.0
7700000.0,26.484375,4.471167404618528E-6,7700000.0,88.2,71.47001934235976,73.30316742081448,60.66666666666668,549974.0,382976.0,0.0,1.0,0.0,?,0.0,0.0,435.0,218.0,218.0,14.0,0.0,0.0,1.0
7800000.0,26.8125,4.5108798723150456E-6,7800000.0,87.8,68.07486183218892,69.1919191919192,54.47761194029851,579974.0,396672.0,0.0,1.0,0.0,?,0.0,0.0,453.0,227.0,227.0,14.0,0.0,0.0,1.0
7900000.0,27.140625,4.551396381834314E-6,7900000.0,86.7,67.42942225182689,67.40196078431373,55.51839464882944,609974.0,415504.0,0.0,1.0,0.0,?,0.0,0.0,473.0,237.0,237.0,14.0,0.0,0.0,1.0
8000000.0,27.46875,4.5926300097360375E-6,8000000.0,87.2,68.92645766472619,70.43879907621248,58.84244372990355,639974.0,433312.0,0.0,1.0,0.0,?,0.0,0.0,497.0,249.0,249.0,14.0,0.0,0.0,1.0
8100000.0,27.8125,4.646333497172842E-6,8100000.0,85.3,65.17412935323384,64.05867970660147,52.58064516129033,669674.0,464544.0,0.0,1.0,0.0,?,0.0,0.0,533.0,267.0,267.0,14.0,0.0,0.0,1.0
8200000.0,28.140625,4.698626095584283E-6,8200000.0,86.8,68.37687103513042,69.1588785046729,57.96178343949043,699674.0,485984.0,0.0,1.0,0.0,?,0.0,0.0,563.0,282.0,282.0,14.0,0.0,0.0,1.0
8300000.0,28.484375,4.753996456404113E-6,8300000.0,86.4,65.83326633973792,65.91478696741855,52.112676056338024,729674.0,501992.0,0.0,1.0,0.0,?,0.0,0.0,577.0,289.0,289.0,14.0,0.0,0.0,1.0
8400000.0,28.8125,4.807086305744532E-6,8400000.0,88.9,71.15864305313046,73.38129496402878,59.782608695652186,759674.0,514208.0,0.0,1.0,0.0,?,0.0,0.0,595.0,298.0,298.0,15.0,0.0,0.0,1.0
8500000.0,29.15625,4.863508155621174E-6,8500000.0,86.4,65.10243461838486,64.49086161879896,50.36496350364964,789674.0,532608.0,0.0,1.0,0.0,?,0.0,0.0,615.0,308.0,308.0,15.0,0.0,0.0,1.0
8600000.0,29.484375,4.918473649821762E-6,8600000.0,85.8,65.53398058252428,67.57990867579909,52.66666666666667,819674.0,554976.0,0.0,1.0,0.0,?,0.0,0.0,639.0,320.0,320.0,15.0,0.0,0.0,1.0
8700000.0,29.84375,4.979661672324356E-6,8700000.0,86.8,66.8641429862436,67.0,54.482758620689665,849674.0,574952.0,0.0,1.0,0.0,?,0.0,0.0,657.0,329.0,329.0,15.0,0.0,0.0,1.0
8800000.0,30.1875,5.038849550247606E-6,8800000.0,86.7,68.19186285670554,69.06976744186046,56.53594771241831,879674.0,591752.0,0.0,1.0,0.0,?,0.0,0.0,677.0,339.0,339.0,15.0,0.0,0.0,1.0
8900000.0,30.53125,5.098865529160118E-6,8900000.0,88.3,72.27435591196041,71.60194174757282,61.51315789473685,909674.0,610416.0,0.0,1.0,0.0,?,0.0,0.0,699.0,350.0,350.0,15.0,0.0,0.0,1.0
9000000.0,30.90625,5.165995260338402E-6,9000000.0,86.6,67.72328740726468,69.81981981981981,55.033557046979865,939674.0,636752.0,0.0,1.0,0.0,?,0.0,0.0,731.0,366.0,366.0,15.0,0.0,0.0,1.0
9100000.0,31.265625,5.240640214954813E-6,9100000.0,85.5,64.61446853372121,65.06024096385542,50.68027210884354,969374.0,660864.0,0.0,1.0,0.0,?,0.0,0.0,757.0,379.0,379.0,15.0,0.0,0.0,1.0
9200000.0,31.640625,5.318794477110107E-6,9200000.0,85.3,64.62434422678923,63.24999999999999,50.0,999374.0,673032.0,0.0,1.0,0.0,?,0.0,0.0,771.0,386.0,386.0,15.0,0.0,0.0,1.0
9300000.0,32.03125,5.401285242341044E-6,9300000.0,84.89999999999999,63.590594317239244,63.961813842482094,48.986486486486484,1029374.0,693056.0,0.0,1.0,0.0,?,0.0,0.0,793.0,397.0,397.0,15.0,1615.5647668393783,0.0,1.0792549165501404
9400000.0,32.40625,5.481013439647439E-6,9400000.0,87.5,70.21057548401858,69.66019417475728,58.60927152317882,1059374.0,707992.0,0.0,1.0,0.0,?,0.0,0.0,811.0,406.0,406.0,16.0,1615.5647668393783,0.0,1.0792549165501404
9500000.0,32.78125,5.562194500170233E-6,9500000.0,86.5,67.31867919047157,66.16541353383458,54.23728813559322,1089374.0,732248.0,0.0,1.0,0.0,?,0.0,0.0,839.0,420.0,420.0,16.0,1615.5647668393783,0.0,1.0792549165501404
9600000.0,33.15625,5.6437907753408776E-6,9600000.0,85.1,64.29324591169649,65.34883720930232,50.986842105263165,1119374.0,745944.0,0.0,1.0,0.0,?,0.0,0.0,857.0,429.0,429.0,16.0,1615.5647668393783,0.0,1.0792549165501404
9700000.0,33.53125,5.726067692093137E-6,9700000.0,86.2,66.35328079893891,67.90697674418604,52.73972602739726,1149374.0,762320.0,0.0,1.0,0.0,?,0.0,0.0,885.0,443.0,443.0,16.0,1615.5647668393783,0.0,1.0792549165501404
9800000.0,33.90625,5.80887313440649E-6,9800000.0,87.9,70.46821305841925,69.90049751243781,57.24381625441697,1179374.0,777160.0,0.0,1.0,0.0,?,0.0,0.0,905.0,453.0,453.0,16.0,1615.5647668393783,0.0,1.0792549165501404
9900000.0,34.28125,5.894123298478209E-6,9900000.0,88.0,70.61776156313509,72.41379310344827,57.89473684210527,1209374.0,811520.0,0.0,1.0,0.0,?,0.0,0.0,939.0,470.0,470.0,16.0,1615.5647668393783,0.0,1.0792549165501404
1.0E7,34.671875,5.983601408337967E-6,1.0E7,86.8,67.7474527817822,67.4074074074074,54.325259515570934,1239374.0,827600.0,0.0,1.0,0.0,?,0.0,0.0,955.0,478.0,478.0,16.0,1615.5647668393783,0.0,1.0792549165501404
