learning evaluation instances,evaluation time (cpu seconds),model cost (RAM-Hours),classified instances,classifications correct (percent),Kappa Statistic (percent),Kappa Temporal Statistic (percent),Kappa M Statistic (percent),model training instances,model serialized size (bytes),labeling cost,newThreshold,maxPosterior,accuracyBaseLearner (percent),Change detected,Warning detected
100000.0,0.234375,6.113259587436914E-9,100000.0,88.0,75.02445522092951,75.10373443983403,70.51597051597052,9900.0,1112.0,0.0,1.0,0.0,?,0.0,4.0
200000.0,0.4375,1.0906951501965523E-8,200000.0,88.4,76.37743964028543,75.73221757322176,74.10714285714286,19900.0,1112.0,0.0,1.0,0.0,?,0.0,0.0
300000.0,0.671875,1.5856057871133087E-8,300000.0,87.0,72.90763587862621,74.20634920634922,69.04761904761905,29900.0,1112.0,0.0,1.0,0.0,?,0.0,0.0
400000.0,0.875,1.9640816996494926E-8,400000.0,85.39999999999999,69.93794037828778,71.37254901960785,66.28175519630484,39900.0,1112.0,0.0,1.0,0.0,?,0.0,0.0
500000.0,1.078125,2.2921109727273383E-8,500000.0,87.5,73.99192709417002,74.06639004149378,69.87951807228916,49900.0,1112.0,0.0,1.0,0.0,?,0.0,0.0
600000.0,1.3125,2.6123986269036926E-8,600000.0,86.7,72.49906951738969,72.57731958762886,69.06976744186046,59900.0,1112.0,0.0,1.0,0.0,?,0.0,0.0
700000.0,1.53125,2.8570066206157203E-8,700000.0,88.6,75.92295345104334,75.054704595186,71.356783919598,69900.0,1112.0,0.0,1.0,0.0,?,0.0,10.0
800000.0,1.765625,3.05981181251506E-8,800000.0,86.2,71.33075171599992,70.70063694267516,67.6056338028169,79900.0,1112.0,0.0,1.0,0.0,?,0.0,4.0
900000.0,1.984375,3.1947695081018736E-8,900000.0,87.7,74.29896777968156,75.30120481927712,70.36144578313254,89900.0,1112.0,0.0,1.0,0.0,?,0.0,0.0
1000000.0,2.21875,3.281159378174278E-8,1000000.0,87.6,73.87581743409964,74.48559670781893,69.30693069306932,99900.0,1112.0,0.0,1.0,0.0,?,0.0,0.0
1100000.0,2.4375,3.851277546750174E-8,1100000.0,88.3,76.01987276185478,77.67175572519083,73.22654462242564,109800.0,1112.0,0.0,1.0,0.0,?,0.0,0.0
1200000.0,2.671875,4.4039107807394524E-8,1200000.0,88.4,76.19438515843046,75.10729613733905,73.63636363636363,119800.0,1112.0,0.0,1.0,0.0,?,0.0,0.0
1300000.0,2.890625,4.865374648943543E-8,1300000.0,89.0,77.23990382824817,77.50511247443764,74.47795823665894,129800.0,1112.0,0.0,1.0,0.0,?,0.0,0.0
1400000.0,3.109375,5.27251136696173E-8,1400000.0,87.0,73.29498767460969,72.80334728033473,70.45454545454545,139800.0,1112.0,0.0,1.0,0.0,?,0.0,0.0
1500000.0,3.3125,5.600120251377423E-8,1500000.0,87.7,74.21080881612936,74.58677685950413,70.14563106796116,149800.0,1112.0,0.0,1.0,0.0,?,0.0,0.0
1600000.0,3.546875,5.9199228417128316E-8,1600000.0,87.9,74.52610127243176,75.05154639175258,70.19704433497537,159800.0,1112.0,0.0,1.0,0.0,?,0.0,0.0
1700000.0,3.796875,6.198957433096235E-8,1700000.0,86.9,73.23340471092077,74.21259842519686,70.95343680709534,169800.0,1112.0,0.0,1.0,0.0,?,0.0,0.0
1800000.0,4.015625,6.388785550370811E-8,1800000.0,86.8,72.44396940445571,71.67381974248926,67.64705882352942,179800.0,1112.0,0.0,1.0,0.0,?,0.0,0.0
1900000.0,4.25,6.533965157965818E-8,1900000.0,87.4,73.80892990770766,73.85892116182573,69.56521739130434,189800.0,1112.0,0.0,1.0,0.0,?,0.0,0.0
2000000.0,4.46875,6.615138974868587E-8,2000000.0,86.3,70.48940203343098,68.86363636363636,63.94736842105263,199800.0,1112.0,0.0,1.0,0.0,?,0.0,0.0
2100000.0,4.6875,7.185800414946343E-8,2100000.0,88.3,76.01102262755165,77.41312741312741,73.2876712328767,209700.0,1112.0,0.0,1.0,0.0,?,0.0,0.0
2200000.0,4.921875,7.740082865994836E-8,2200000.0,87.6,73.62274570199659,73.2181425485961,69.07730673316709,219700.0,1112.0,0.0,1.0,0.0,?,0.0,4.0
2300000.0,5.140625,8.203086003454193E-8,2300000.0,85.3,69.68472109943411,68.45493562231759,65.97222222222221,229700.0,1112.0,0.0,1.0,0.0,?,0.0,6.0
2400000.0,5.34375,8.582570848779544E-8,2400000.0,87.2,72.74508133889788,73.44398340248962,67.17948717948718,239700.0,1112.0,0.0,1.0,0.0,?,0.0,86.0
2500000.0,5.578125,8.962230317087634E-8,2500000.0,86.4,71.19803468942585,72.63581488933602,65.74307304785894,249700.0,1112.0,0.0,1.0,0.0,?,0.0,2.0
2600000.0,5.8125,9.283682124482258E-8,2600000.0,87.5,74.658806166222,74.9498997995992,73.17596566523605,259700.0,1112.0,0.0,1.0,0.0,?,0.0,18.0
2700000.0,6.03125,9.529376661198004E-8,2700000.0,89.3,77.87061548643284,79.69639468690703,74.52380952380952,269700.0,1112.0,0.0,1.0,0.0,?,0.0,31.0
2800000.0,6.265625,9.734413146765692E-8,2800000.0,88.2,74.4699264387711,74.56896551724138,68.44919786096257,279700.0,1112.0,0.0,1.0,0.0,?,0.0,22.0
2900000.0,6.484375,9.870457385356224E-8,2900000.0,87.0,72.82665496122573,72.86012526096033,68.67469879518072,289700.0,1112.0,0.0,1.0,0.0,?,0.0,33.0
3000000.0,6.71875,9.959078549096978E-8,3000000.0,87.3,73.97818265266815,75.52986512524085,71.26696832579185,299700.0,1112.0,0.0,1.0,0.0,?,0.0,21.0
3100000.0,6.9375,1.053127925843E-7,3100000.0,87.1,73.38274376454665,72.78481012658227,69.5754716981132,309600.0,1112.0,0.0,1.0,0.0,?,0.0,4.0
3200000.0,7.171875,1.1086143786087628E-7,3200000.0,86.1,71.34587792931708,72.2,67.74941995359629,319600.0,1112.0,0.0,1.0,0.0,?,0.0,15.0
3300000.0,7.390625,1.1549690195048846E-7,3300000.0,86.8,72.40387349266612,73.22515212981745,68.11594202898551,329600.0,1112.0,0.0,1.0,0.0,?,0.0,16.0
3400000.0,7.609375,1.195890945382416E-7,3400000.0,88.2,75.30595503172557,76.49402390438247,72.03791469194313,339600.0,1112.0,0.0,1.0,0.0,?,0.0,34.0
3500000.0,7.84375,1.2339150998741385E-7,3500000.0,86.5,71.52859794162309,70.71583514099783,66.66666666666666,349600.0,1112.0,0.0,1.0,0.0,?,0.0,43.0
3600000.0,8.0625,1.2639715957144894E-7,3600000.0,86.5,72.17825699871402,72.61663286004057,68.53146853146853,359600.0,1112.0,0.0,1.0,0.0,?,0.0,0.0
3700000.0,8.28125,1.2885953765362498E-7,3700000.0,87.2,72.64957264957265,73.44398340248962,68.0,369600.0,1112.0,0.0,1.0,0.0,?,0.0,13.0
3800000.0,8.515625,1.309157232753932E-7,3800000.0,88.7,76.75337178970236,77.35470941883767,74.25968109339408,379600.0,1112.0,0.0,1.0,0.0,?,0.0,0.0
3900000.0,8.71875,1.3219328441967563E-7,3900000.0,88.3,75.6495533670216,76.73956262425448,72.00956937799043,389600.0,1112.0,0.0,1.0,0.0,?,0.0,0.0
4000000.0,8.9375,1.3302584799627458E-7,4000000.0,86.7,72.55830843636004,72.57731958762886,68.99766899766901,399600.0,1112.0,0.0,1.0,0.0,?,0.0,43.0
4100000.0,9.171875,1.391517192435761E-7,4100000.0,85.5,70.13560494966305,70.2258726899384,66.51270207852194,409500.0,1112.0,0.0,1.0,0.0,?,0.0,14.0
4200000.0,9.40625,1.4470618528624373E-7,4200000.0,86.3,71.6132775268327,71.98364008179959,67.45843230403801,419500.0,1112.0,0.0,1.0,0.0,?,0.0,22.0
4300000.0,9.625,1.4934708209087449E-7,4300000.0,85.6,70.15086251570189,71.0261569416499,65.13317191283294,429500.0,1112.0,0.0,1.0,0.0,?,0.0,0.0
4400000.0,9.859375,1.5373739491527278E-7,4400000.0,86.8,72.61183500705452,73.27935222672065,68.42105263157895,439500.0,1112.0,0.0,1.0,0.0,?,0.0,0.0
4500000.0,10.078125,1.5729174871618548E-7,4500000.0,87.3,73.73471650038881,73.7603305785124,70.3962703962704,449500.0,1112.0,0.0,1.0,0.0,?,0.0,0.0
4600000.0,10.3125,1.6051790832231443E-7,4600000.0,86.6,72.45394258086002,73.25349301397206,69.4760820045558,459500.0,1112.0,0.0,1.0,0.0,?,0.0,0.0
4700000.0,10.53125,1.6298571911950906E-7,4700000.0,87.6,74.02564757831058,75.73385518590999,69.82968369829685,469500.0,1112.0,0.0,1.0,0.0,?,0.0,0.0
4800000.0,10.78125,1.6518519259989262E-7,4800000.0,88.3,75.72976650790754,76.41129032258065,71.94244604316548,479500.0,1112.0,0.0,1.0,0.0,?,0.0,0.0
4900000.0,11.0,1.665664603933692E-7,4900000.0,88.9,77.16707121405358,78.61271676300578,74.18604651162791,489500.0,1112.0,0.0,1.0,0.0,?,0.0,0.0
5000000.0,11.234375,1.6750990956400833E-7,5000000.0,88.1,75.37801981345228,75.15657620041753,71.80094786729858,499500.0,1112.0,0.0,1.0,0.0,?,0.0,0.0
5100000.0,11.453125,1.7328533835502135E-7,5100000.0,82.5,59.85391412866934,57.107843137254896,37.943262411347504,95489.0,1112.0,0.0,1.0,0.0,?,1.0,21.0
5200000.0,11.6875,1.7889122116482921E-7,5200000.0,84.8,65.38705020244021,63.98104265402843,48.122866894197955,105489.0,1112.0,0.0,1.0,0.0,?,0.0,0.0
5300000.0,11.90625,1.835801069521242E-7,5300000.0,85.6,65.97353497164461,66.43356643356644,52.0,115489.0,1112.0,0.0,1.0,0.0,?,0.0,0.0
5400000.0,12.140625,1.880218365436627E-7,5400000.0,83.39999999999999,60.18516297699853,60.476190476190474,42.16027874564459,125489.0,1112.0,0.0,1.0,0.0,?,0.0,0.0
5500000.0,12.375,1.9188148952606654E-7,5500000.0,85.6,65.51839737173563,65.87677725118483,52.159468438538205,135489.0,1112.0,0.0,1.0,0.0,?,0.0,0.0
5600000.0,12.609375,1.951590658993357E-7,5600000.0,85.7,65.11786745765357,66.8213457076566,52.17391304347826,145489.0,1112.0,0.0,1.0,0.0,?,0.0,0.0
5700000.0,12.828125,1.9767486567919455E-7,5700000.0,89.0,72.66510277921357,71.72236503856043,61.53846153846154,155489.0,1112.0,0.0,1.0,0.0,?,0.0,0.0
5800000.0,13.0625,1.9978828883419436E-7,5800000.0,87.0,67.07010015755691,66.32124352331607,54.703832752613245,165489.0,1112.0,0.0,1.0,0.0,?,0.0,0.0
5900000.0,13.28125,2.0121754561033516E-7,5900000.0,87.5,68.51639162586392,69.80676328502415,56.747404844290664,175489.0,1112.0,0.0,1.0,0.0,?,0.0,0.0
6000000.0,13.515625,2.0216681554706563E-7,6000000.0,88.6,70.129699986899,70.46632124352332,58.545454545454554,185489.0,1112.0,0.0,1.0,0.0,?,0.0,0.0
6100000.0,13.734375,2.0794767705309724E-7,6100000.0,86.4,67.83592537934688,70.4989154013015,57.23270440251571,195389.0,1112.0,0.0,1.0,0.0,?,0.0,0.0
6200000.0,13.9375,2.1281115348554323E-7,6200000.0,88.3,70.62958128326137,71.46341463414635,58.214285714285715,205389.0,1112.0,0.0,1.0,0.0,?,0.0,0.0
6300000.0,14.171875,2.1784078045230775E-7,6300000.0,89.4,73.18207348111866,74.76190476190477,63.82252559726963,215389.0,1112.0,0.0,1.0,0.0,?,0.0,0.0
6400000.0,14.390625,2.2199182745276227E-7,6400000.0,87.6,70.01977727595829,69.75609756097562,60.383386581469644,225389.0,1112.0,0.0,1.0,0.0,?,0.0,0.0
6500000.0,14.625,2.2585730120125745E-7,6500000.0,87.9,69.0985984554407,69.67418546365916,57.3943661971831,235389.0,1112.0,0.0,1.0,0.0,?,0.0,0.0
6600000.0,14.84375,2.2892180519799392E-7,6600000.0,88.3,70.32114047993507,72.07637231503581,60.33898305084746,245389.0,1112.0,0.0,1.0,0.0,?,0.0,0.0
6700000.0,15.078125,2.3162312572821975E-7,6700000.0,87.6,68.81036703155183,70.04830917874396,59.477124183006545,255389.0,1112.0,0.0,1.0,0.0,?,0.0,0.0
6800000.0,15.296875,2.3360108672123817E-7,6800000.0,87.9,69.17762856240385,69.90049751243781,57.6923076923077,265389.0,1112.0,0.0,1.0,0.0,?,0.0,0.0
6900000.0,15.515625,2.3503577621239756E-7,6900000.0,88.5,71.32941751348764,73.13084112149532,61.53846153846154,275389.0,1112.0,0.0,1.0,0.0,?,0.0,0.0
7000000.0,15.734375,2.359271942016979E-7,7000000.0,87.1,65.06488723270576,65.13513513513513,51.13636363636363,285389.0,1112.0,0.0,1.0,0.0,?,0.0,0.0
7100000.0,15.96875,2.4212679515282315E-7,7100000.0,89.0,72.88463150214213,73.93364928909953,63.45514950166113,295289.0,1112.0,0.0,1.0,0.0,?,0.0,0.0
7200000.0,16.1875,2.4736981787201433E-7,7200000.0,89.0,70.79764894526419,72.70471464019852,60.57347670250897,305289.0,1112.0,0.0,1.0,0.0,?,0.0,0.0
7300000.0,16.40625,2.520695690893465E-7,7300000.0,87.0,67.90123456790124,69.04761904761905,58.06451612903226,315289.0,1112.0,0.0,1.0,0.0,?,0.0,0.0
7400000.0,16.625,2.562260488048196E-7,7400000.0,87.6,67.31112950592355,66.48648648648648,55.55555555555556,325289.0,1112.0,0.0,1.0,0.0,?,0.0,0.0
7500000.0,16.859375,2.600973433194061E-7,7500000.0,87.4,67.20577594777912,70.0,56.70103092783506,335289.0,1112.0,0.0,1.0,0.0,?,0.0,0.0
7600000.0,17.078125,2.631672800311612E-7,7600000.0,87.1,68.78780546818291,69.5754716981132,60.9090909090909,345289.0,1112.0,0.0,1.0,0.0,?,0.0,0.0
7700000.0,17.3125,2.658744213274784E-7,7700000.0,88.8,72.0558882235529,74.6606334841629,62.66666666666667,355289.0,1112.0,0.0,1.0,0.0,?,0.0,0.0
7800000.0,17.515625,2.677161440563699E-7,7800000.0,88.4,68.25744308231172,70.70707070707071,56.71641791044777,365289.0,1112.0,0.0,1.0,0.0,?,0.0,0.0
7900000.0,17.75,2.692591321344177E-7,7900000.0,86.9,66.32806234706257,67.8921568627451,56.18729096989967,375289.0,1112.0,0.0,1.0,0.0,?,0.0,0.0
8000000.0,17.96875,2.7015598283873664E-7,8000000.0,87.5,68.64779180127215,71.13163972286375,59.80707395498393,385289.0,1112.0,0.0,1.0,0.0,?,0.0,0.0
8100000.0,18.203125,2.7636140455595323E-7,8100000.0,87.4,68.94716088328077,69.19315403422983,59.35483870967742,395189.0,1112.0,0.0,1.0,0.0,?,0.0,0.0
8200000.0,18.421875,2.81609859990163E-7,8200000.0,85.8,64.98254059066069,66.82242990654206,54.777070063694254,405189.0,1112.0,0.0,1.0,0.0,?,0.0,0.0
8300000.0,18.65625,2.8665112848911023E-7,8300000.0,86.8,65.56761268781301,66.9172932330827,53.521126760563384,415189.0,1112.0,0.0,1.0,0.0,?,0.0,0.0
8400000.0,18.875,2.908130409196019E-7,8400000.0,88.0,67.49588281182282,71.22302158273382,56.52173913043479,425189.0,1112.0,0.0,1.0,0.0,?,0.0,0.0
8500000.0,19.078125,2.941732074961894E-7,8500000.0,86.7,64.59941442640404,65.27415143603133,51.45985401459854,435189.0,1112.0,0.0,1.0,0.0,?,0.0,0.0
8600000.0,19.296875,2.9724857692296306E-7,8600000.0,86.4,65.51724137931035,68.94977168949771,54.66666666666667,445189.0,1112.0,0.0,1.0,0.0,?,0.0,0.0
8700000.0,19.53125,2.999615389853716E-7,8700000.0,88.0,68.6192468619247,70.0,58.62068965517242,455189.0,1112.0,0.0,1.0,0.0,?,0.0,0.0
8800000.0,19.75,3.019503654084272E-7,8800000.0,86.6,66.49128773481105,68.83720930232559,56.209150326797385,465189.0,1112.0,0.0,1.0,0.0,?,0.0,0.0
8900000.0,19.96875,3.0339592032962377E-7,8900000.0,88.4,70.91740543142527,71.84466019417476,61.8421052631579,475189.0,1112.0,0.0,1.0,0.0,?,0.0,0.0
9000000.0,20.1875,3.042982037489613E-7,9000000.0,87.1,67.70187579493445,70.94594594594594,56.711409395973156,485189.0,1112.0,0.0,1.0,0.0,?,0.0,0.0
9100000.0,20.40625,3.100953634000487E-7,9100000.0,86.4,65.38383221339849,67.2289156626506,53.74149659863946,495089.0,1112.0,0.0,1.0,0.0,?,0.0,0.0
9200000.0,20.640625,3.1572452927422193E-7,9200000.0,87.0,67.52403221616004,67.5,55.782312925170075,505089.0,1112.0,0.0,1.0,0.0,?,0.0,0.0
9300000.0,20.84375,3.20098673303922E-7,9300000.0,85.9,64.68148207522594,66.34844868735084,52.36486486486487,515089.0,1112.0,0.0,1.0,0.0,?,0.0,0.0
9400000.0,21.078125,3.245636859598259E-7,9400000.0,88.6,71.84907151323587,72.33009708737865,62.25165562913908,525089.0,1112.0,0.0,1.0,0.0,?,0.0,0.0
9500000.0,21.296875,3.2818775960347715E-7,9500000.0,87.0,66.98915720779056,67.41854636591479,55.93220338983051,535089.0,1112.0,0.0,1.0,0.0,?,0.0,0.0
9600000.0,21.53125,3.314886190411117E-7,9600000.0,87.2,67.78220772421571,70.23255813953489,57.89473684210527,545089.0,1112.0,0.0,1.0,0.0,?,0.0,0.0
9700000.0,21.734375,3.3384489749247825E-7,9700000.0,88.6,70.78241614040844,73.48837209302326,60.95890410958905,555089.0,1112.0,0.0,1.0,0.0,?,0.0,0.0
9800000.0,21.96875,3.3598160371184343E-7,9800000.0,88.6,70.65350021366312,71.64179104477613,59.717314487632514,565089.0,1112.0,0.0,1.0,0.0,?,0.0,0.0
9900000.0,22.171875,3.373289493740432E-7,9900000.0,89.60000000000001,73.29841587717273,76.09195402298852,63.50877192982457,575089.0,1112.0,0.0,1.0,0.0,?,0.0,0.0
1.0E7,22.390625,3.3823666550839935E-7,1.0E7,88.7,70.85736096640088,72.09876543209876,60.899653979238764,585089.0,1112.0,0.0,1.0,0.0,?,0.0,0.0
