learning evaluation instances,evaluation time (cpu seconds),model cost (RAM-Hours),classified instances,classifications correct (percent),Kappa Statistic (percent),Kappa Temporal Statistic (percent),Kappa M Statistic (percent),model training instances,model serialized size (bytes),labeling cost,newThreshold,maxPosterior,accuracyBaseLearner (percent),Change detected,Warning detected,tree size (nodes),tree size (leaves),active learning leaves,tree depth,active leaf byte size estimate,inactive leaf byte size estimate,byte size estimate overhead
100000.0,0.21875,0.0,100000.0,91.8,82.27847007006488,80.93023255813955,74.294670846395,9900.0,0.0,0.0,1.0,0.0,?,0.0,0.0,5.0,3.0,3.0,2.0,0.0,0.0,1.0
200000.0,0.4375,0.0,200000.0,93.2,85.24632134379978,84.36781609195404,79.20489296636087,19900.0,0.0,0.0,1.0,0.0,?,0.0,0.0,7.0,4.0,4.0,3.0,0.0,0.0,1.0
300000.0,0.578125,0.0,300000.0,94.0,87.04282777326675,86.27002288329518,82.24852071005915,29900.0,0.0,0.0,1.0,0.0,?,0.0,0.0,9.0,5.0,5.0,4.0,0.0,0.0,1.0
400000.0,0.734375,0.0,400000.0,93.5,85.87005669368023,84.88372093023257,80.42168674698796,39900.0,0.0,0.0,1.0,0.0,?,0.0,0.0,9.0,5.0,5.0,4.0,0.0,0.0,1.0
500000.0,0.859375,0.0,500000.0,92.0,82.45059843459339,80.95238095238096,75.1552795031056,49900.0,0.0,0.0,1.0,0.0,?,0.0,0.0,9.0,5.0,5.0,4.0,0.0,0.0,1.0
600000.0,1.015625,0.0,600000.0,95.1,89.24919917504059,88.49765258215962,85.37313432835819,59900.0,0.0,0.0,1.0,0.0,?,0.0,0.0,9.0,5.0,5.0,4.0,0.0,0.0,1.0
700000.0,1.15625,0.0,700000.0,92.10000000000001,82.99539368892333,81.67053364269142,77.16763005780348,69900.0,0.0,0.0,1.0,0.0,?,0.0,0.0,9.0,5.0,5.0,4.0,0.0,0.0,1.0
800000.0,1.296875,0.0,800000.0,93.10000000000001,85.04525436071715,84.66666666666669,80.17241379310346,79900.0,0.0,0.0,1.0,0.0,?,0.0,0.0,11.0,6.0,6.0,5.0,0.0,0.0,1.0
900000.0,1.46875,0.0,900000.0,94.39999999999999,87.61850856091694,87.06697459584295,83.1325301204819,89900.0,0.0,0.0,1.0,0.0,?,0.0,0.0,13.0,7.0,7.0,6.0,0.0,0.0,1.0
1000000.0,1.625,0.0,1000000.0,92.7,83.67430917727465,82.82352941176472,77.11598746081506,99900.0,0.0,0.0,1.0,0.0,?,0.0,0.0,13.0,7.0,7.0,6.0,0.0,0.0,1.0
1100000.0,1.78125,0.0,1100000.0,93.4,84.96411892015037,84.50704225352113,79.04761904761905,109800.0,0.0,0.0,1.0,0.0,?,0.0,0.0,13.0,7.0,7.0,6.0,0.0,0.0,1.0
1200000.0,1.9375,0.0,1200000.0,93.5,85.78103671555074,85.99137931034484,81.32183908045978,119800.0,0.0,0.0,1.0,0.0,?,0.0,0.0,15.0,8.0,8.0,7.0,0.0,0.0,1.0
1300000.0,2.09375,0.0,1300000.0,93.8,85.97944858528112,86.19153674832961,81.32530120481925,129800.0,0.0,0.0,1.0,0.0,?,0.0,0.0,15.0,8.0,8.0,7.0,0.0,0.0,1.0
1400000.0,2.25,0.0,1400000.0,92.4,82.70565479576744,83.36980306345734,76.75840978593274,139800.0,0.0,0.0,1.0,0.0,?,0.0,0.0,15.0,8.0,8.0,7.0,0.0,0.0,1.0
1500000.0,2.421875,0.0,1500000.0,91.4,80.17309350461322,78.22784810126583,72.87066246056783,149800.0,0.0,0.0,1.0,0.0,?,0.0,0.0,17.0,9.0,9.0,7.0,0.0,0.0,1.0
1600000.0,2.578125,0.0,1600000.0,92.2,82.36602702067245,82.74336283185842,76.92307692307693,159800.0,0.0,0.0,1.0,0.0,?,0.0,0.0,17.0,9.0,9.0,7.0,0.0,0.0,1.0
1700000.0,2.75,0.0,1700000.0,92.80000000000001,82.892579656426,83.01886792452832,75.59322033898307,169800.0,0.0,0.0,1.0,0.0,?,0.0,0.0,17.0,9.0,9.0,7.0,0.0,0.0,1.0
1800000.0,2.921875,0.0,1800000.0,92.7,83.74599216245102,83.14087759815244,78.59237536656892,179800.0,0.0,0.0,1.0,0.0,?,0.0,0.0,17.0,9.0,9.0,7.0,0.0,0.0,1.0
1900000.0,3.0625,0.0,1900000.0,92.5,83.71448672404959,83.62445414847163,79.28176795580112,189800.0,0.0,0.0,1.0,0.0,?,0.0,0.0,17.0,9.0,9.0,7.0,0.0,0.0,1.0
2000000.0,3.234375,0.0,2000000.0,92.7,83.24150596877871,82.4519230769231,76.8987341772152,199800.0,0.0,0.0,1.0,0.0,?,0.0,0.0,17.0,9.0,9.0,7.0,0.0,0.0,1.0
2100000.0,3.40625,0.0,2100000.0,93.4,84.95836201120376,84.65116279069768,79.93920972644378,209700.0,0.0,0.0,1.0,0.0,?,0.0,0.0,17.0,9.0,9.0,7.0,0.0,0.0,1.0
2200000.0,3.5625,0.0,2200000.0,92.10000000000001,81.74322188225072,81.32387706855792,74.59807073954985,219700.0,0.0,0.0,1.0,0.0,?,0.0,0.0,19.0,10.0,10.0,7.0,0.0,0.0,1.0
2300000.0,3.703125,0.0,2300000.0,92.10000000000001,82.58960842045876,82.4053452115813,76.48809523809524,229700.0,0.0,0.0,1.0,0.0,?,0.0,0.0,19.0,10.0,10.0,7.0,0.0,0.0,1.0
2400000.0,3.875,0.0,2400000.0,92.5,82.86528918822596,82.79816513761469,76.6355140186916,239700.0,0.0,0.0,1.0,0.0,?,0.0,0.0,19.0,10.0,10.0,7.0,0.0,0.0,1.0
2500000.0,4.03125,0.0,2500000.0,92.30000000000001,82.96475252431395,82.65765765765767,76.73716012084593,249700.0,0.0,0.0,1.0,0.0,?,0.0,0.0,19.0,10.0,10.0,7.0,0.0,0.0,1.0
2600000.0,4.1875,0.0,2600000.0,92.2,82.36738237009509,82.89473684210526,75.70093457943926,259700.0,0.0,0.0,1.0,0.0,?,0.0,0.0,19.0,10.0,10.0,7.0,0.0,0.0,1.0
2700000.0,4.375,0.0,2700000.0,90.7,78.84055333090645,76.27551020408164,70.09646302250805,269700.0,0.0,0.0,1.0,0.0,?,0.0,0.0,19.0,10.0,10.0,7.0,0.0,0.0,1.0
2800000.0,4.515625,0.0,2800000.0,93.2,84.20272549447793,84.03755868544603,77.25752508361205,279700.0,0.0,0.0,1.0,0.0,?,0.0,0.0,19.0,10.0,10.0,7.0,0.0,0.0,1.0
2900000.0,4.671875,0.0,2900000.0,93.2,85.07619917129013,85.08771929824562,80.34682080924857,289700.0,0.0,0.0,1.0,0.0,?,0.0,0.0,19.0,10.0,10.0,7.0,0.0,0.0,1.0
3000000.0,4.828125,0.0,3000000.0,91.4,80.98152996957046,81.77966101694916,74.25149700598803,299700.0,0.0,0.0,1.0,0.0,?,0.0,0.0,19.0,10.0,10.0,7.0,0.0,0.0,1.0
3100000.0,5.0,0.0,3100000.0,92.2,82.17672463039555,81.69014084507043,74.91961414790998,309600.0,0.0,0.0,1.0,0.0,?,0.0,0.0,19.0,10.0,10.0,7.0,0.0,0.0,1.0
3200000.0,5.15625,0.0,3200000.0,93.30000000000001,85.04958183457252,84.41860465116281,79.4478527607362,319600.0,0.0,0.0,1.0,0.0,?,0.0,0.0,19.0,10.0,10.0,7.0,0.0,0.0,1.0
3300000.0,5.296875,0.0,3300000.0,90.9,79.14699762596588,79.64205816554811,71.01910828025478,329600.0,0.0,0.0,1.0,0.0,?,0.0,0.0,19.0,10.0,10.0,7.0,0.0,0.0,1.0
3400000.0,5.453125,0.0,3400000.0,92.9,83.75256297598126,84.15178571428572,77.88161993769471,339600.0,0.0,0.0,1.0,0.0,?,0.0,0.0,19.0,10.0,10.0,7.0,0.0,0.0,1.0
3500000.0,5.609375,0.0,3500000.0,92.60000000000001,83.69361627112669,83.6283185840708,78.55072463768117,349600.0,0.0,0.0,1.0,0.0,?,0.0,0.0,19.0,10.0,10.0,7.0,0.0,0.0,1.0
3600000.0,5.78125,0.0,3600000.0,93.5,84.29542006127204,84.26150121065376,77.89115646258506,359600.0,0.0,0.0,1.0,0.0,?,0.0,0.0,19.0,10.0,10.0,7.0,0.0,0.0,1.0
3700000.0,5.9375,0.0,3700000.0,90.5,78.29801621023968,78.55530474040633,68.64686468646866,369600.0,0.0,0.0,1.0,0.0,?,0.0,0.0,39.0,29.0,29.0,7.0,0.0,0.0,1.0
3800000.0,6.109375,0.0,3800000.0,93.0,84.65565088536894,83.64485981308412,80.16997167138811,379600.0,0.0,0.0,1.0,0.0,?,0.0,0.0,39.0,29.0,29.0,7.0,0.0,0.0,1.0
3900000.0,6.28125,0.0,3900000.0,91.2,80.4242596810934,80.26905829596413,73.65269461077844,389600.0,0.0,0.0,1.0,0.0,?,0.0,0.0,39.0,29.0,29.0,7.0,0.0,0.0,1.0
4000000.0,6.453125,0.0,4000000.0,91.5,80.88151940188396,80.85585585585586,74.16413373860183,399600.0,0.0,0.0,1.0,0.0,?,0.0,0.0,39.0,29.0,29.0,7.0,0.0,0.0,1.0
4100000.0,6.59375,0.0,4100000.0,91.8,81.31130802610947,81.10599078341015,75.00000000000001,409500.0,0.0,0.0,1.0,0.0,?,0.0,0.0,39.0,29.0,29.0,7.0,0.0,0.0,1.0
4200000.0,6.765625,0.0,4200000.0,93.0,84.26824883135563,83.33333333333334,78.65853658536587,419500.0,0.0,0.0,1.0,0.0,?,0.0,0.0,39.0,29.0,29.0,7.0,0.0,0.0,1.0
4300000.0,6.9375,0.0,4300000.0,91.7,81.38980071391416,80.65268065268066,74.69512195121952,429500.0,0.0,0.0,1.0,0.0,?,0.0,0.0,39.0,29.0,29.0,7.0,0.0,0.0,1.0
4400000.0,7.09375,0.0,4400000.0,90.7,78.82899289746858,77.53623188405798,70.56962025316456,439500.0,0.0,0.0,1.0,0.0,?,0.0,0.0,39.0,29.0,29.0,7.0,0.0,0.0,1.0
4500000.0,7.265625,0.0,4500000.0,91.2,80.55755626157158,81.11587982832619,74.19354838709678,449500.0,0.0,0.0,1.0,0.0,?,0.0,0.0,41.0,30.0,30.0,8.0,0.0,0.0,1.0
4600000.0,7.4375,0.0,4600000.0,92.4,82.53877082136704,83.07349665924278,75.87301587301589,459500.0,0.0,0.0,1.0,0.0,?,0.0,0.0,41.0,30.0,30.0,8.0,0.0,0.0,1.0
4700000.0,7.59375,0.0,4700000.0,92.30000000000001,82.33863938712787,80.55555555555557,74.83660130718957,469500.0,0.0,0.0,1.0,0.0,?,0.0,0.0,41.0,30.0,30.0,8.0,0.0,0.0,1.0
4800000.0,7.75,0.0,4800000.0,92.4,82.42042931162104,81.6425120772947,75.64102564102566,479500.0,0.0,0.0,1.0,0.0,?,0.0,0.0,41.0,30.0,30.0,8.0,0.0,0.0,1.0
4900000.0,7.921875,0.0,4900000.0,91.60000000000001,81.2649712952596,81.29175946547885,74.46808510638299,489500.0,0.0,0.0,1.0,0.0,?,0.0,0.0,43.0,31.0,31.0,8.0,0.0,0.0,1.0
5000000.0,8.078125,0.0,5000000.0,91.4,81.04892022917586,80.7606263982103,75.14450867052024,499500.0,0.0,0.0,1.0,0.0,?,0.0,0.0,43.0,31.0,31.0,8.0,0.0,0.0,1.0
5100000.0,8.359375,0.0,5100000.0,53.5,6.7867280337412,-1.528384279475984,-30.252100840336134,3657.0,0.0,0.0,1.0,0.0,?,3.0,31.0,23.0,21.0,21.0,2.0,0.0,0.0,1.0
5200000.0,8.59375,0.0,5200000.0,68.30000000000001,35.854890406967336,32.83898305084747,16.35883905013194,9969.0,0.0,0.0,1.0,0.0,?,1.0,2.0,31.0,25.0,25.0,4.0,0.0,0.0,1.0
5300000.0,8.8125,0.0,5300000.0,69.1,38.749296310685764,37.701612903225794,19.109947643979044,19969.0,0.0,0.0,1.0,0.0,?,0.0,0.0,39.0,29.0,29.0,5.0,0.0,0.0,1.0
5400000.0,9.015625,0.0,5400000.0,71.0,42.675965020478515,41.295546558704444,20.76502732240436,29969.0,0.0,0.0,1.0,0.0,?,0.0,0.0,59.0,48.0,48.0,5.0,0.0,0.0,1.0
5500000.0,9.234375,0.0,5500000.0,69.6,40.080103440663514,36.26834381551362,22.448979591836725,39969.0,0.0,0.0,1.0,0.0,?,0.0,0.0,63.0,50.0,50.0,5.0,0.0,0.0,1.0
5600000.0,9.453125,0.0,5600000.0,71.0,42.4968274111675,39.45720250521919,26.0204081632653,49969.0,0.0,0.0,1.0,0.0,?,0.0,0.0,78.0,61.0,61.0,6.0,0.0,0.0,1.0
5700000.0,9.671875,0.0,5700000.0,69.69999999999999,40.80505130228886,33.98692810457515,16.298342541436448,59969.0,0.0,0.0,1.0,0.0,?,0.0,0.0,92.0,68.0,68.0,6.0,0.0,0.0,1.0
5800000.0,9.890625,0.0,5800000.0,66.8,33.78672144552363,28.29373650107992,7.520891364902514,69969.0,0.0,0.0,1.0,0.0,?,0.0,0.0,105.0,76.0,76.0,7.0,0.0,0.0,1.0
5900000.0,10.109375,0.0,5900000.0,71.2,42.57846612727643,40.74074074074073,25.964010282776346,79969.0,0.0,0.0,1.0,0.0,?,0.0,0.0,109.0,78.0,78.0,7.0,0.0,0.0,1.0
6000000.0,10.328125,0.0,6000000.0,71.3,42.54990351586583,39.57894736842104,26.598465473145776,89969.0,0.0,0.0,1.0,0.0,?,0.0,0.0,118.0,84.0,84.0,7.0,0.0,0.0,1.0
6100000.0,10.5625,0.0,6100000.0,69.6,39.67176678375105,34.76394849785407,21.03896103896103,99869.0,0.0,0.0,1.0,0.0,?,0.0,0.0,137.0,97.0,97.0,8.0,0.0,0.0,1.0
6200000.0,10.78125,0.0,6200000.0,73.4,45.28032519121028,44.698544698544694,27.913279132791324,109869.0,0.0,0.0,1.0,0.0,?,0.0,0.0,139.0,98.0,98.0,8.0,0.0,0.0,1.0
6300000.0,11.0,0.0,6300000.0,73.8,47.20466855816353,49.0272373540856,33.83838383838384,119869.0,0.0,0.0,1.0,0.0,?,0.0,0.0,141.0,99.0,99.0,8.0,0.0,0.0,1.0
6400000.0,11.234375,0.0,6400000.0,73.8,46.03256996197561,39.77011494252874,27.823691460055088,129869.0,0.0,0.0,1.0,0.0,?,0.0,0.0,145.0,101.0,101.0,8.0,0.0,0.0,1.0
6500000.0,11.453125,0.0,6500000.0,73.6,47.508440404185,41.33333333333333,31.782945736434108,139869.0,0.0,0.0,1.0,0.0,?,0.0,0.0,151.0,104.0,104.0,8.0,0.0,0.0,1.0
6600000.0,11.6875,0.0,6600000.0,71.6,43.67515638077181,38.260869565217384,26.992287917737784,149869.0,0.0,0.0,1.0,0.0,?,0.0,0.0,157.0,107.0,107.0,8.0,0.0,0.0,1.0
6700000.0,11.90625,0.0,6700000.0,74.3,48.232241846074515,45.08547008547008,33.933161953727506,159869.0,0.0,0.0,1.0,0.0,?,0.0,0.0,165.0,111.0,111.0,8.0,0.0,0.0,1.0
6800000.0,12.125,0.0,6800000.0,73.2,46.27428181945753,44.74226804123711,30.026109660574406,169869.0,0.0,0.0,1.0,0.0,?,0.0,0.0,171.0,114.0,114.0,8.0,0.0,0.0,1.0
6900000.0,12.328125,0.0,6900000.0,75.5,50.707795813582926,47.31182795698924,36.52849740932643,179869.0,0.0,0.0,1.0,0.0,?,0.0,0.0,175.0,116.0,116.0,9.0,0.0,0.0,1.0
7000000.0,12.59375,0.0,7000000.0,76.0,51.34313228585909,48.275862068965516,36.00000000000001,189869.0,0.0,0.0,1.0,0.0,?,0.0,0.0,199.0,137.0,137.0,9.0,0.0,0.0,1.0
7100000.0,12.828125,0.0,7100000.0,77.9,55.32320928953796,55.172413793103445,42.44791666666667,199769.0,0.0,0.0,1.0,0.0,?,0.0,0.0,209.0,142.0,142.0,9.0,0.0,0.0,1.0
7200000.0,13.046875,0.0,7200000.0,75.7,50.620194105311064,48.84210526315789,32.31197771587744,209769.0,0.0,0.0,1.0,0.0,?,0.0,0.0,213.0,144.0,144.0,9.0,0.0,0.0,1.0
7300000.0,13.28125,0.0,7300000.0,76.0,51.584791169065916,44.95412844036698,34.42622950819672,219769.0,0.0,0.0,1.0,0.0,?,0.0,0.0,223.0,149.0,149.0,9.0,0.0,0.0,1.0
7400000.0,13.5,0.0,7400000.0,75.1,50.26207293297964,49.899396378269614,37.121212121212125,229769.0,0.0,0.0,1.0,0.0,?,0.0,0.0,233.0,154.0,154.0,9.0,0.0,0.0,1.0
7500000.0,13.734375,0.0,7500000.0,76.4,52.85713714977448,51.54004106776181,40.85213032581454,239769.0,0.0,0.0,1.0,0.0,?,0.0,0.0,243.0,159.0,159.0,10.0,0.0,0.0,1.0
7600000.0,14.0,0.0,7600000.0,75.3,49.97934369658726,46.76724137931034,39.16256157635468,249769.0,0.0,0.0,1.0,0.0,?,0.0,0.0,253.0,164.0,164.0,10.0,0.0,0.0,1.0
7700000.0,14.234375,0.0,7700000.0,76.0,51.05097632906798,45.945945945945944,34.959349593495936,259769.0,0.0,0.0,1.0,0.0,?,0.0,0.0,261.0,168.0,168.0,10.0,0.0,0.0,1.0
7800000.0,14.453125,0.0,7800000.0,77.4,54.39999677168119,50.86956521739131,39.08355795148248,269769.0,0.0,0.0,1.0,0.0,?,0.0,0.0,267.0,171.0,171.0,10.0,0.0,0.0,1.0
7900000.0,14.703125,0.0,7900000.0,77.10000000000001,53.69434221700975,53.45528455284553,38.10810810810811,279769.0,0.0,0.0,1.0,0.0,?,0.0,0.0,279.0,177.0,177.0,10.0,0.0,0.0,1.0
8000000.0,14.9375,0.0,8000000.0,76.1,52.71296970464402,48.491379310344826,38.24289405684755,289769.0,0.0,0.0,1.0,0.0,?,0.0,0.0,283.0,179.0,179.0,10.0,0.0,0.0,1.0
8100000.0,15.1875,0.0,8100000.0,77.0,54.19056724028043,51.47679324894515,41.91919191919193,299669.0,0.0,0.0,1.0,0.0,?,0.0,0.0,299.0,187.0,187.0,10.0,0.0,0.0,1.0
8200000.0,15.4375,0.0,8200000.0,77.9,56.10724925521352,53.76569037656904,41.06666666666668,309669.0,0.0,0.0,1.0,0.0,?,0.0,0.0,317.0,196.0,196.0,10.0,0.0,0.0,1.0
8300000.0,15.6875,0.0,8300000.0,76.9,53.71038330207282,52.074688796680505,39.05013192612138,319669.0,0.0,0.0,1.0,0.0,?,0.0,0.0,337.0,206.0,206.0,10.0,0.0,0.0,1.0
8400000.0,15.953125,0.0,8400000.0,78.2,55.99533308303156,54.77178423236515,42.48021108179421,329669.0,0.0,0.0,1.0,0.0,?,0.0,0.0,378.0,239.0,239.0,10.0,0.0,0.0,1.0
8500000.0,16.21875,0.0,8500000.0,79.7,59.61838378051498,54.988913525498894,48.73737373737375,339669.0,0.0,0.0,1.0,0.0,?,0.0,0.0,393.0,248.0,248.0,10.0,0.0,0.0,1.0
8600000.0,16.453125,0.0,8600000.0,80.4,60.44223961507878,56.828193832599126,48.556430446194234,349669.0,0.0,0.0,1.0,0.0,?,0.0,0.0,412.0,259.0,259.0,11.0,0.0,0.0,1.0
8700000.0,16.734375,0.0,8700000.0,78.3,56.21044814671316,52.92841648590022,39.88919667590029,359669.0,0.0,0.0,1.0,0.0,?,0.0,0.0,431.0,270.0,270.0,11.0,0.0,0.0,1.0
8800000.0,17.015625,0.0,8800000.0,79.10000000000001,56.98278488099257,53.24384787472036,43.36043360433605,369669.0,0.0,0.0,1.0,0.0,?,0.0,0.0,449.0,279.0,279.0,11.0,0.0,0.0,1.0
8900000.0,17.296875,0.0,8900000.0,78.3,54.425934793383576,54.31578947368422,40.71038251366121,379669.0,0.0,0.0,1.0,0.0,?,0.0,0.0,461.0,285.0,285.0,11.0,0.0,0.0,1.0
9000000.0,17.5625,0.0,9000000.0,81.10000000000001,61.173744412306085,60.377358490566046,51.28865979381445,389669.0,0.0,0.0,1.0,0.0,?,0.0,0.0,482.0,297.0,297.0,11.0,0.0,0.0,1.0
9100000.0,17.828125,0.0,9100000.0,78.4,54.842702078908204,54.14012738853503,42.245989304812845,399569.0,0.0,0.0,1.0,0.0,?,0.0,0.0,500.0,306.0,306.0,11.0,0.0,0.0,1.0
9200000.0,18.09375,0.0,9200000.0,82.39999999999999,63.87060750752352,62.393162393162385,54.98721227621483,409569.0,0.0,0.0,1.0,0.0,?,0.0,0.0,508.0,310.0,310.0,11.0,0.0,0.0,1.0
9300000.0,18.375,0.0,9300000.0,81.3,61.982597381475145,60.1279317697228,51.302083333333314,419569.0,0.0,0.0,1.0,0.0,?,0.0,0.0,522.0,317.0,317.0,11.0,0.0,0.0,1.0
9400000.0,18.625,0.0,9400000.0,80.7,60.763425820512,59.453781512605055,51.26262626262628,429569.0,0.0,0.0,1.0,0.0,?,0.0,0.0,557.0,345.0,345.0,12.0,0.0,0.0,1.0
9500000.0,18.90625,0.0,9500000.0,80.0,57.39749838110495,56.52173913043479,40.11976047904192,439569.0,0.0,0.0,1.0,0.0,?,0.0,0.0,578.0,359.0,359.0,12.0,0.0,0.0,1.0
9600000.0,19.171875,0.0,9600000.0,81.89999999999999,61.93704681953533,60.219780219780205,50.681198910081726,449569.0,0.0,0.0,1.0,0.0,?,0.0,0.0,590.0,365.0,365.0,12.0,0.0,0.0,1.0
9700000.0,19.46875,0.0,9700000.0,78.60000000000001,55.569212370860065,54.661016949152554,43.085106382978736,459569.0,0.0,0.0,1.0,0.0,?,0.0,0.0,606.0,376.0,376.0,12.0,0.0,0.0,1.0
9800000.0,19.734375,0.0,9800000.0,83.6,66.07139901689808,65.69037656903764,56.14973262032085,469569.0,0.0,0.0,1.0,0.0,?,0.0,0.0,616.0,381.0,381.0,12.0,0.0,0.0,1.0
9900000.0,19.984375,0.0,9900000.0,80.7,59.25106411728939,59.28270042194094,48.118279569892486,479569.0,0.0,0.0,1.0,0.0,?,0.0,0.0,620.0,383.0,383.0,12.0,0.0,0.0,1.0
1.0E7,20.265625,0.0,1.0E7,81.39999999999999,61.23707902634211,59.740259740259724,50.267379679144376,489569.0,0.0,0.0,1.0,0.0,?,0.0,0.0,626.0,386.0,386.0,12.0,0.0,0.0,1.0
