learning evaluation instances,evaluation time (cpu seconds),model cost (RAM-Hours),classified instances,classifications correct (percent),Kappa Statistic (percent),Kappa Temporal Statistic (percent),Kappa M Statistic (percent),model training instances,model serialized size (bytes),labeling cost,newThreshold,maxPosterior,accuracyBaseLearner (percent),Change detected,Warning detected,tree size (nodes),tree size (leaves),active learning leaves,tree depth,active leaf byte size estimate,inactive leaf byte size estimate,byte size estimate overhead
100000.0,0.28125,1.021544449031353E-8,100000.0,84.3,67.56225155164007,67.42738589211618,61.42506142506142,9679.0,9336.0,0.0,1.0,0.0,?,1.0,18.0,9.0,5.0,5.0,3.0,0.0,0.0,1.0
200000.0,0.546875,1.9622028857055638E-8,200000.0,89.3,78.37964534535992,77.61506276150628,76.11607142857143,19679.0,15336.0,0.0,1.0,0.0,?,0.0,0.0,19.0,10.0,10.0,5.0,0.0,0.0,1.0
300000.0,0.796875,2.8446310251537295E-8,300000.0,87.5,74.16501322751323,75.1984126984127,70.23809523809524,29679.0,24368.0,0.0,1.0,0.0,?,0.0,0.0,29.0,15.0,15.0,6.0,0.0,0.0,1.0
400000.0,1.03125,3.6679783887747255E-8,400000.0,85.7,70.59621822129738,71.96078431372548,66.97459584295612,39679.0,33208.0,0.0,1.0,0.0,?,0.0,0.0,37.0,19.0,19.0,6.0,0.0,0.0,1.0
500000.0,1.25,4.415701065833369E-8,500000.0,85.7,70.204608909447,70.33195020746888,65.5421686746988,49679.0,39064.0,0.0,1.0,0.0,?,0.0,0.0,45.0,23.0,23.0,7.0,0.0,0.0,1.0
600000.0,1.484375,5.205336492508649E-8,600000.0,84.8,68.68820039551747,68.65979381443297,64.65116279069767,59679.0,46664.0,0.0,1.0,0.0,?,0.0,0.0,55.0,28.0,28.0,8.0,0.0,0.0,1.0
700000.0,1.71875,6.00253891510268E-8,700000.0,88.4,75.6474421416815,74.61706783369803,70.85427135678393,69679.0,57368.0,0.0,1.0,0.0,?,0.0,0.0,67.0,34.0,34.0,8.0,0.0,0.0,1.0
800000.0,1.953125,6.79920776747167E-8,800000.0,85.7,70.48259918259505,69.63906581740976,66.43192488262912,79679.0,66760.0,0.0,1.0,0.0,?,0.0,0.0,77.0,39.0,39.0,8.0,0.0,0.0,1.0
900000.0,2.171875,7.519540506311587E-8,900000.0,85.3,69.39285416840177,70.48192771084338,64.57831325301204,89679.0,72184.0,0.0,1.0,0.0,?,0.0,0.0,83.0,42.0,42.0,9.0,0.0,0.0,1.0
1000000.0,2.390625,8.21710111469858E-8,1000000.0,77.2,54.400000000000006,53.086419753086425,43.564356435643575,99679.0,77680.0,0.0,1.0,0.0,?,0.0,0.0,91.0,46.0,46.0,9.0,0.0,0.0,1.0
1100000.0,2.625,9.521631808537575E-8,1100000.0,86.1,71.61341970477956,73.47328244274809,68.19221967963387,109579.0,83008.0,0.0,1.0,0.0,?,0.0,0.0,95.0,48.0,48.0,9.0,0.0,0.0,1.0
1200000.0,2.859375,1.0834651119593116E-7,1200000.0,88.1,75.63272995331313,74.46351931330472,72.95454545454545,119579.0,93856.0,0.0,1.0,0.0,?,0.0,0.0,109.0,55.0,55.0,9.0,0.0,0.0,1.0
1300000.0,3.09375,1.2136707987843288E-7,1300000.0,88.0,75.25558914380215,75.4601226993865,72.15777262180974,129579.0,101552.0,0.0,1.0,0.0,?,0.0,0.0,117.0,59.0,59.0,10.0,0.0,0.0,1.0
1400000.0,3.328125,1.3405101425531837E-7,1400000.0,85.8,70.82990961380443,70.29288702928869,67.72727272727272,139579.0,105544.0,0.0,1.0,0.0,?,0.0,0.0,123.0,62.0,62.0,10.0,0.0,0.0,1.0
1500000.0,3.578125,1.4764832384470435E-7,1500000.0,86.7,72.27780556945139,72.52066115702479,67.71844660194175,149579.0,116056.0,0.0,1.0,0.0,?,0.0,0.0,133.0,67.0,67.0,10.0,0.0,0.0,1.0
1600000.0,3.796875,1.5933681020720138E-7,1600000.0,87.0,72.92072855738306,73.19587628865979,67.98029556650246,159579.0,121888.0,0.0,1.0,0.0,?,0.0,0.0,139.0,70.0,70.0,11.0,0.0,0.0,1.0
1700000.0,4.03125,1.7150706197652553E-7,1700000.0,85.2,69.94643154487525,70.86614173228347,67.18403547671839,169579.0,125616.0,0.0,1.0,0.0,?,0.0,0.0,143.0,72.0,72.0,12.0,0.0,0.0,1.0
1800000.0,4.28125,1.844674504051606E-7,1800000.0,86.7,72.49929697450912,71.45922746781116,67.40196078431373,179579.0,134768.0,0.0,1.0,0.0,?,0.0,0.0,153.0,77.0,77.0,12.0,0.0,0.0,1.0
1900000.0,4.515625,1.9641214748844507E-7,1900000.0,86.4,71.87107022304586,71.78423236514523,67.14975845410628,189579.0,140888.0,0.0,1.0,0.0,?,0.0,0.0,163.0,82.0,82.0,12.0,0.0,0.0,1.0
2000000.0,4.75,2.0846889431898795E-7,2000000.0,86.3,70.85106382978724,68.86363636363636,63.94736842105263,199579.0,152192.0,0.0,1.0,0.0,?,0.0,0.0,175.0,88.0,88.0,12.0,0.0,0.0,1.0
2100000.0,5.0,2.2753410222422747E-7,2100000.0,87.8,75.18146014386616,76.44787644787645,72.14611872146118,209479.0,161512.0,0.0,1.0,0.0,?,0.0,0.0,185.0,93.0,93.0,12.0,0.0,0.0,1.0
2200000.0,5.25,2.4646685536329945E-7,2200000.0,86.0,70.4679978568204,69.76241900647948,65.08728179551122,219479.0,168968.0,0.0,1.0,0.0,?,0.0,0.0,193.0,97.0,97.0,13.0,0.0,0.0,1.0
2300000.0,5.46875,2.626966387550864E-7,2300000.0,86.9,73.16497599187166,71.88841201716738,69.67592592592592,229479.0,172576.0,0.0,1.0,0.0,?,0.0,0.0,197.0,99.0,99.0,13.0,0.0,0.0,1.0
2400000.0,5.71875,2.8135672134036816E-7,2400000.0,85.7,69.90360735783138,70.33195020746888,63.33333333333333,239479.0,183760.0,0.0,1.0,0.0,?,0.0,0.0,209.0,105.0,105.0,13.0,0.0,0.0,1.0
2500000.0,5.96875,2.9976224242192173E-7,2500000.0,86.4,71.42244766735729,72.63581488933602,65.74307304785894,249479.0,189352.0,0.0,1.0,0.0,?,0.0,0.0,215.0,108.0,108.0,13.0,0.0,0.0,1.0
2600000.0,6.203125,3.1655709285082084E-7,2600000.0,85.6,70.91520165460186,71.14228456913827,69.09871244635193,259479.0,191336.0,0.0,1.0,0.0,?,0.0,0.0,217.0,109.0,109.0,13.0,0.0,0.0,1.0
2700000.0,6.453125,3.3409182732510893E-7,2700000.0,87.1,73.42617007251154,75.52182163187857,69.28571428571428,269479.0,195016.0,0.0,1.0,0.0,?,0.0,0.0,221.0,111.0,111.0,13.0,0.0,0.0,1.0
2800000.0,6.703125,3.5159862212215854E-7,2800000.0,87.0,72.11688601383001,71.98275862068965,65.24064171122994,279479.0,204072.0,0.0,1.0,0.0,?,0.0,0.0,229.0,115.0,115.0,13.0,0.0,0.0,1.0
2900000.0,6.953125,3.688353333725697E-7,2900000.0,85.9,70.80745341614907,70.56367432150313,66.02409638554217,289479.0,209424.0,0.0,1.0,0.0,?,0.0,0.0,235.0,118.0,118.0,13.0,0.0,0.0,1.0
3000000.0,7.203125,3.8593182883535816E-7,3000000.0,86.2,71.82477459819678,73.41040462427746,68.77828054298641,299479.0,216760.0,0.0,1.0,0.0,?,0.0,0.0,243.0,122.0,122.0,13.0,0.0,0.0,1.0
3100000.0,7.453125,4.090063804243173E-7,3100000.0,85.39999999999999,69.99736963240612,69.19831223628692,65.56603773584906,309379.0,222616.0,0.0,1.0,0.0,?,0.0,0.0,251.0,126.0,126.0,14.0,0.0,0.0,1.0
3200000.0,7.703125,4.3182430090382687E-7,3200000.0,85.3,69.88519498824088,70.6,65.89327146171694,319379.0,228184.0,0.0,1.0,0.0,?,0.0,0.0,255.0,128.0,128.0,14.0,0.0,0.0,1.0
3300000.0,7.953125,4.541455160102082E-7,3300000.0,86.1,71.15823546499564,71.80527383367141,66.42512077294685,329379.0,230072.0,0.0,1.0,0.0,?,0.0,0.0,259.0,130.0,130.0,14.0,0.0,0.0,1.0
3400000.0,8.203125,4.767161186060143E-7,3400000.0,85.7,70.29719422727008,71.51394422310756,66.11374407582939,339379.0,243360.0,0.0,1.0,0.0,?,0.0,0.0,273.0,137.0,137.0,14.0,0.0,0.0,1.0
3500000.0,8.453125,4.992510205031269E-7,3500000.0,85.8,70.41974794292261,69.19739696312364,64.93827160493827,349379.0,252296.0,0.0,1.0,0.0,?,0.0,0.0,281.0,141.0,141.0,14.0,0.0,0.0,1.0
3600000.0,8.71875,5.228315260157817E-7,3600000.0,82.89999999999999,64.75912553170441,65.31440162271804,60.13986013986013,359379.0,256552.0,0.0,1.0,0.0,?,0.0,0.0,289.0,145.0,145.0,14.0,0.0,0.0,1.0
3700000.0,8.984375,5.461415599307252E-7,3700000.0,86.8,71.93877551020408,72.61410788381743,67.0,369379.0,262144.0,0.0,1.0,0.0,?,0.0,0.0,295.0,148.0,148.0,14.0,0.0,0.0,1.0
3800000.0,9.265625,5.706562984010412E-7,3800000.0,87.3,74.04264364433108,74.54909819639278,71.07061503416855,379379.0,269360.0,0.0,1.0,0.0,?,0.0,0.0,303.0,152.0,152.0,14.0,0.0,0.0,1.0
3900000.0,9.53125,5.936683737672866E-7,3900000.0,86.8,72.79696644959196,73.75745526838966,68.42105263157895,389379.0,276816.0,0.0,1.0,0.0,?,0.0,0.0,311.0,156.0,156.0,14.0,0.0,0.0,1.0
4000000.0,9.796875,6.164962865619196E-7,4000000.0,85.9,71.14440078585463,70.92783505154638,67.13286713286713,399379.0,283648.0,0.0,1.0,0.0,?,0.0,0.0,317.0,159.0,159.0,14.0,0.0,0.0,1.0
4100000.0,10.046875,6.439387410258253E-7,4100000.0,85.5,70.34837590897564,70.2258726899384,66.51270207852194,409279.0,289192.0,0.0,1.0,0.0,?,0.0,0.0,323.0,162.0,162.0,14.0,0.0,0.0,1.0
4200000.0,10.3125,6.731227363666726E-7,4200000.0,85.2,69.46401086090856,69.73415132924335,64.84560570071258,419279.0,299040.0,0.0,1.0,0.0,?,0.0,0.0,337.0,169.0,169.0,14.0,0.0,0.0,1.0
4300000.0,10.578125,7.023248730951713E-7,4300000.0,85.0,69.06336235877426,69.8189134808853,63.68038740920097,429279.0,308768.0,0.0,1.0,0.0,?,0.0,0.0,351.0,176.0,176.0,14.0,0.0,0.0,1.0
4400000.0,10.84375,7.316259628472229E-7,4400000.0,86.5,72.11273890087007,72.67206477732793,67.70334928229666,439279.0,319664.0,0.0,1.0,0.0,?,0.0,0.0,363.0,182.0,182.0,14.0,0.0,0.0,1.0
4500000.0,11.109375,7.606670260429382E-7,4500000.0,86.4,72.0457955643255,71.90082644628099,68.29836829836829,449279.0,325400.0,0.0,1.0,0.0,?,0.0,0.0,371.0,186.0,186.0,14.0,0.0,0.0,1.0
4600000.0,11.359375,7.875537913706567E-7,4600000.0,85.3,69.99975510004163,70.65868263473052,66.5148063781321,459279.0,328056.0,0.0,1.0,0.0,?,0.0,0.0,379.0,190.0,190.0,15.0,0.0,0.0,1.0
4700000.0,11.640625,8.180161886331108E-7,4700000.0,86.6,72.01441883972616,73.77690802348337,67.39659367396594,469279.0,340456.0,0.0,1.0,0.0,?,0.0,0.0,389.0,195.0,195.0,15.0,0.0,0.0,1.0
4800000.0,11.890625,8.444885154151254E-7,4800000.0,86.4,72.12440713123254,72.58064516129032,67.38609112709833,479279.0,340696.0,0.0,1.0,0.0,?,0.0,0.0,389.0,195.0,195.0,15.0,0.0,0.0,1.0
4900000.0,12.171875,8.743804776006275E-7,4900000.0,87.3,73.96580705998113,75.52986512524085,70.46511627906978,489279.0,351664.0,0.0,1.0,0.0,?,0.0,0.0,403.0,202.0,202.0,15.0,0.0,0.0,1.0
5000000.0,12.453125,9.043155134552056E-7,5000000.0,86.6,72.40799920930387,72.02505219206681,68.24644549763033,499279.0,360984.0,0.0,1.0,0.0,?,0.0,0.0,413.0,207.0,207.0,15.0,0.0,0.0,1.0
5100000.0,12.703125,9.368564416137007E-7,5100000.0,77.10000000000001,50.15801433011501,43.87254901960785,18.79432624113477,509179.0,366128.0,0.0,1.0,0.0,?,0.0,0.0,425.0,213.0,213.0,15.0,0.0,0.0,1.0
5200000.0,12.96875,9.711711512257656E-7,5200000.0,76.3,49.85994634802699,43.83886255924171,19.112627986348137,519179.0,371864.0,0.0,1.0,0.0,?,0.0,0.0,433.0,217.0,217.0,16.0,0.0,0.0,1.0
5300000.0,13.25,1.0070806213965018E-6,5300000.0,76.9,50.343938091143606,46.15384615384616,23.000000000000018,529179.0,375592.0,0.0,1.0,0.0,?,0.0,0.0,437.0,219.0,219.0,16.0,0.0,0.0,1.0
5400000.0,13.515625,1.04071640331919E-6,5400000.0,74.2,44.166237453634174,38.57142857142858,10.104529616724745,539179.0,381064.0,0.0,1.0,0.0,?,0.0,0.0,443.0,222.0,222.0,16.0,0.0,0.0,1.0
5500000.0,13.796875,1.0761730178880194E-6,5500000.0,77.60000000000001,51.02904589715226,46.919431279620866,25.581395348837226,549179.0,388400.0,0.0,1.0,0.0,?,0.0,0.0,451.0,226.0,226.0,16.0,0.0,0.0,1.0
5600000.0,14.0625,1.1095377784739765E-6,5600000.0,74.8,45.5269403865858,41.531322505800475,15.719063545150513,559179.0,396120.0,0.0,1.0,0.0,?,0.0,0.0,461.0,231.0,231.0,16.0,0.0,0.0,1.0
5700000.0,14.34375,1.144363421998504E-6,5700000.0,79.80000000000001,55.65196009554588,48.071979434447314,29.37062937062939,569179.0,398776.0,0.0,1.0,0.0,?,0.0,3.0,469.0,235.0,235.0,17.0,0.0,0.0,1.0
5800000.0,14.609375,1.1494666493187347E-6,5800000.0,75.0,46.48949695846301,35.23316062176166,12.89198606271778,8004.0,9168.0,0.0,1.0,0.0,?,3.0,16.0,9.0,5.0,5.0,4.0,0.0,0.0,1.0
5900000.0,14.828125,1.153339722400738E-6,5900000.0,73.2,43.790767423813406,35.26570048309179,7.266435986159175,18004.0,12896.0,0.0,1.0,0.0,?,0.0,0.0,13.0,7.0,7.0,4.0,0.0,0.0,1.0
6000000.0,15.03125,1.1570029892027376E-6,6000000.0,72.1,41.899208663057045,27.720207253886002,-1.4545454545454557,28004.0,23624.0,0.0,1.0,0.0,?,0.0,0.0,25.0,13.0,13.0,6.0,0.0,0.0,1.0
6100000.0,15.25,1.1661634521765839E-6,6100000.0,72.7,43.97241719000123,40.78091106290672,14.150943396226396,37904.0,29216.0,0.0,1.0,0.0,?,0.0,0.0,31.0,16.0,16.0,6.0,0.0,0.0,1.0
6200000.0,15.484375,1.1759612566998433E-6,6200000.0,73.1,44.4903012794057,34.390243902439025,3.928571428571432,47904.0,38416.0,0.0,1.0,0.0,?,0.0,0.0,41.0,21.0,21.0,7.0,0.0,0.0,1.0
6300000.0,15.703125,1.184991787239495E-6,6300000.0,72.7,44.198709825115074,35.0,6.825938566552907,57904.0,45896.0,0.0,1.0,0.0,?,0.0,0.0,51.0,26.0,26.0,8.0,0.0,0.0,1.0
6400000.0,15.9375,1.1944141523498626E-6,6400000.0,73.2,45.0434525835729,34.63414634146342,14.3769968051118,67904.0,51248.0,0.0,1.0,0.0,?,0.0,0.0,57.0,29.0,29.0,8.0,0.0,0.0,1.0
6500000.0,16.15625,1.2029788275766701E-6,6500000.0,71.5,41.327118811555046,28.57142857142857,-0.3521126760563383,77904.0,56720.0,0.0,1.0,0.0,?,0.0,0.0,63.0,32.0,32.0,8.0,0.0,0.0,1.0
6600000.0,16.390625,1.2122454871940942E-6,6600000.0,71.0,40.98374000284905,30.78758949880668,1.6949152542372896,87904.0,67664.0,0.0,1.0,0.0,?,0.0,0.0,75.0,38.0,38.0,9.0,0.0,0.0,1.0
6700000.0,16.625,1.2214044626388282E-6,6700000.0,70.5,40.11708632071259,28.743961352657,3.5947712418300677,97904.0,75384.0,0.0,1.0,0.0,?,0.0,0.0,85.0,43.0,43.0,9.0,0.0,0.0,1.0
6800000.0,16.84375,1.2296232550094523E-6,6800000.0,70.6,40.07142507705102,26.86567164179104,-2.7972027972027993,107904.0,79112.0,0.0,1.0,0.0,?,0.0,0.0,89.0,45.0,45.0,9.0,0.0,0.0,1.0
6900000.0,17.078125,1.2386410768764712E-6,6900000.0,73.1,44.96096115757943,37.149532710280376,10.03344481605352,117904.0,92040.0,0.0,1.0,0.0,?,0.0,0.0,103.0,52.0,52.0,10.0,0.0,0.0,1.0
7000000.0,17.3125,1.2470933143049475E-6,7000000.0,72.6,41.909769335142464,25.94594594594594,-3.7878787878787907,127904.0,92304.0,0.0,1.0,0.0,?,0.0,0.0,105.0,53.0,53.0,10.0,0.0,0.0,1.0
7100000.0,17.5625,1.2622805984897742E-6,7100000.0,72.6,44.35847761545616,35.07109004739337,8.970099667774093,137804.0,101120.0,0.0,1.0,0.0,?,0.0,0.0,113.0,57.0,57.0,10.0,0.0,0.0,1.0
7200000.0,17.796875,1.2764017770273814E-6,7200000.0,73.4,44.49382963361753,33.99503722084367,4.659498207885308,147804.0,108696.0,0.0,1.0,0.0,?,0.0,0.0,121.0,61.0,61.0,11.0,0.0,0.0,1.0
7300000.0,18.03125,1.2902843041552433E-6,7300000.0,71.7,42.214236125290974,32.61904761904762,8.709677419354843,157804.0,114288.0,0.0,1.0,0.0,?,0.0,0.0,127.0,64.0,64.0,11.0,0.0,0.0,1.0
7400000.0,18.28125,1.3048222495449909E-6,7400000.0,70.7,39.25194891358433,20.8108108108108,-5.01792114695341,167804.0,119640.0,0.0,1.0,0.0,?,0.0,0.0,133.0,67.0,67.0,11.0,0.0,0.0,1.0
7500000.0,18.515625,1.318114939042263E-6,7500000.0,72.0,41.608031398195685,33.33333333333333,3.78006872852234,177804.0,123632.0,0.0,1.0,0.0,?,0.0,0.0,139.0,70.0,70.0,12.0,0.0,0.0,1.0
7600000.0,18.75,1.3312853924516168E-6,7600000.0,71.5,42.25392065486079,32.78301886792453,13.636363636363615,187804.0,131112.0,0.0,1.0,0.0,?,0.0,0.0,149.0,75.0,75.0,12.0,0.0,0.0,1.0
7700000.0,18.953125,1.3426127649533246E-6,7700000.0,72.1,43.338748984565385,36.877828054298625,7.000000000000004,197804.0,138952.0,0.0,1.0,0.0,?,0.0,0.0,159.0,80.0,80.0,12.0,0.0,0.0,1.0
7800000.0,19.203125,1.3565660467267857E-6,7800000.0,72.0,41.616067258290514,29.292929292929287,-4.4776119402985115,207804.0,148608.0,0.0,1.0,0.0,?,0.0,0.0,171.0,86.0,86.0,12.0,0.0,0.0,1.0
7900000.0,19.453125,1.3706078041448354E-6,7900000.0,70.8,40.20583935029139,28.431372549019603,2.3411371237458214,217804.0,159432.0,0.0,1.0,0.0,?,0.0,0.0,183.0,92.0,92.0,12.0,0.0,0.0,1.0
8000000.0,19.6875,1.383344610480384E-6,8000000.0,71.7,42.881823906479575,34.64203233256351,9.003215434083607,227804.0,161944.0,0.0,1.0,0.0,?,0.0,0.0,189.0,95.0,95.0,13.0,0.0,0.0,1.0
8100000.0,19.9375,1.4028216699241757E-6,8100000.0,71.39999999999999,42.18484676962885,30.073349633251834,7.741935483870973,237704.0,166464.0,0.0,1.0,0.0,?,0.0,0.0,199.0,100.0,100.0,13.0,0.0,0.0,1.0
8200000.0,20.203125,1.4234968047175136E-6,8200000.0,70.8,40.80729124434425,31.775700934579437,7.006369426751564,247704.0,175664.0,0.0,1.0,0.0,?,0.0,0.0,209.0,105.0,105.0,13.0,0.0,0.0,1.0
8300000.0,20.453125,1.4429454070826366E-6,8300000.0,69.5,37.54300317813963,23.55889724310776,-7.394366197183104,257704.0,184984.0,0.0,1.0,0.0,?,0.0,0.0,219.0,110.0,110.0,13.0,0.0,0.0,1.0
8400000.0,20.6875,1.4611450023949141E-6,8400000.0,71.3,40.29987352725819,31.17505995203837,-3.9855072463768146,267704.0,193920.0,0.0,1.0,0.0,?,0.0,0.0,227.0,114.0,114.0,13.0,0.0,0.0,1.0
8500000.0,20.953125,1.4816106866217317E-6,8500000.0,69.89999999999999,38.06431434521016,21.409921671018267,-9.854014598540154,277704.0,201088.0,0.0,1.0,0.0,?,0.0,0.0,235.0,118.0,118.0,14.0,0.0,0.0,1.0
8600000.0,21.203125,1.5007431567129156E-6,8600000.0,72.3,42.5311203319502,36.75799086757989,7.666666666666673,287704.0,208592.0,0.0,1.0,0.0,?,0.0,0.0,243.0,122.0,122.0,14.0,0.0,0.0,1.0
8700000.0,21.4375,1.5184319798006774E-6,8700000.0,73.7,44.852170266303204,34.25,9.310344827586214,297704.0,214040.0,0.0,1.0,0.0,?,0.0,0.0,247.0,124.0,124.0,14.0,0.0,0.0,1.0
8800000.0,21.6875,1.5371520809518788E-6,8800000.0,71.8,42.71087274500243,34.418604651162795,7.843137254901967,307704.0,221256.0,0.0,1.0,0.0,?,0.0,0.0,255.0,128.0,128.0,14.0,0.0,0.0,1.0
8900000.0,21.9375,1.5554065208157725E-6,8900000.0,72.5,44.870335027985824,33.25242718446602,9.539473684210535,317704.0,223624.0,0.0,1.0,0.0,?,0.0,0.0,259.0,130.0,130.0,14.0,0.0,0.0,1.0
9000000.0,22.1875,1.5735207448920436E-6,9000000.0,71.89999999999999,42.6413553786487,36.7117117117117,5.704697986577186,327704.0,230960.0,0.0,1.0,0.0,?,0.0,0.0,267.0,134.0,134.0,14.0,0.0,0.0,1.0
9100000.0,22.4375,1.5975876724243986E-6,9100000.0,70.7,39.96541352151,29.39759036144578,0.340136054421769,337604.0,236432.0,0.0,1.0,0.0,?,0.0,0.0,273.0,137.0,137.0,14.0,0.0,0.0,1.0
9200000.0,22.703125,1.6230658770331899E-6,9200000.0,71.8,41.677696889477154,29.5,4.081632653061227,347604.0,244560.0,0.0,1.0,0.0,?,0.0,0.0,287.0,144.0,144.0,15.0,0.0,0.0,1.0
9300000.0,22.953125,1.6467799367900517E-6,9300000.0,71.1,41.483761237547576,31.026252983293556,2.3648648648648667,357604.0,249984.0,0.0,1.0,0.0,?,0.0,0.0,293.0,147.0,147.0,15.0,0.0,0.0,1.0
9400000.0,23.203125,1.67023167402173E-6,9400000.0,72.8,44.63532591880933,33.980582524271846,9.933774834437093,367604.0,255456.0,0.0,1.0,0.0,?,0.0,0.0,299.0,150.0,150.0,15.0,0.0,0.0,1.0
9500000.0,23.46875,1.694912757051901E-6,9500000.0,73.3,45.16102530397633,33.08270676691729,9.49152542372882,377604.0,261528.0,0.0,1.0,0.0,?,0.0,0.0,309.0,155.0,155.0,15.0,0.0,0.0,1.0
9600000.0,23.71875,1.7178874501648041E-6,9600000.0,70.6,40.168017974015825,31.627906976744185,3.2894736842105288,387604.0,267120.0,0.0,1.0,0.0,?,0.0,0.0,315.0,158.0,158.0,15.0,0.0,0.0,1.0
9700000.0,23.984375,1.7419247888028614E-6,9700000.0,70.39999999999999,40.403324528058754,31.16279069767442,-1.3698630136986312,397604.0,271232.0,0.0,1.0,0.0,?,0.0,0.0,321.0,161.0,161.0,16.0,0.0,0.0,1.0
9800000.0,24.234375,1.7641714981032734E-6,9800000.0,74.4,46.814920076952156,36.318407960199,9.540636042402834,407604.0,274960.0,0.0,1.0,0.0,?,0.0,0.0,325.0,163.0,163.0,16.0,0.0,0.0,1.0
9900000.0,24.484375,1.786160541491375E-6,9900000.0,71.89999999999999,42.41331256660381,35.40229885057472,1.4035087719298256,417604.0,280504.0,0.0,1.0,0.0,?,0.0,0.0,331.0,166.0,166.0,16.0,0.0,0.0,1.0
1.0E7,24.734375,1.8079105454186589E-6,1.0E7,70.39999999999999,40.24523677824926,26.913580246913575,-2.4221453287197248,427604.0,286336.0,0.0,1.0,0.0,?,0.0,0.0,337.0,169.0,169.0,16.0,0.0,0.0,1.0
