learning evaluation instances,evaluation time (cpu seconds),model cost (RAM-Hours),classified instances,classifications correct (percent),Kappa Statistic (percent),Kappa Temporal Statistic (percent),Kappa M Statistic (percent),model training instances,model serialized size (bytes),labeling cost,newThreshold,maxPosterior,accuracyBaseLearner (percent),Change detected,Warning detected
100000.0,0.140625,2.1944288164377214E-9,100000.0,68.60000000000001,38.84387659707074,26.63551401869161,7.647058823529419,59700.0,3256.0,0.0,1.0,0.0,?,0.0,7.0
200000.0,0.296875,4.2446319841676285E-9,200000.0,65.3,33.34357831649315,22.371364653243845,1.6997167138810214,119700.0,3256.0,0.0,1.0,0.0,?,0.0,0.0
300000.0,0.40625,5.408138450649049E-9,300000.0,67.10000000000001,35.64767001533503,28.78787878787879,5.4597701149425335,179700.0,3256.0,0.0,1.0,0.0,?,0.0,0.0
400000.0,0.53125,6.427419268422656E-9,400000.0,64.8,32.60294326010286,25.581395348837212,1.9498607242339852,239700.0,3256.0,0.0,1.0,0.0,?,0.0,0.0
500000.0,0.65625,7.136259227991104E-9,500000.0,67.9,37.165764933407466,31.410256410256416,10.084033613445389,299700.0,3256.0,0.0,1.0,0.0,?,0.0,0.0
600000.0,0.78125,9.08686262038019E-9,600000.0,65.4,32.417651103193954,26.382978723404253,4.94505494505495,359400.0,3256.0,0.0,1.0,0.0,?,0.0,0.0
700000.0,0.921875,1.0932045471337106E-8,700000.0,69.6,39.48635058901278,30.11494252873563,8.15709969788517,419400.0,3256.0,0.0,1.0,0.0,?,0.0,0.0
800000.0,1.046875,1.2261767147315872E-8,800000.0,67.2,35.483870967741936,25.623582766439913,6.285714285714292,479400.0,3256.0,0.0,1.0,0.0,?,0.0,0.0
900000.0,1.15625,1.3153637862867778E-8,900000.0,65.7,33.11910648686171,27.330508474576277,1.1527377521613844,539400.0,3256.0,0.0,1.0,0.0,?,0.0,0.0
1000000.0,1.28125,1.3862477822436226E-8,1000000.0,64.5,30.83211883626501,21.111111111111107,-2.601156069364164,599400.0,3256.0,0.0,1.0,0.0,?,0.0,0.0
1100000.0,1.40625,1.5816185623407362E-8,1100000.0,67.60000000000001,36.58796267301309,35.4581673306773,16.062176165803123,659100.0,3256.0,0.0,1.0,0.0,?,0.0,0.0
1200000.0,1.515625,1.7254044198327594E-8,1200000.0,66.5,35.051338524056206,25.88495575221239,6.685236768802234,719100.0,3256.0,0.0,1.0,0.0,?,0.0,0.0
1300000.0,1.640625,1.8586870282888412E-8,1300000.0,66.3,34.666118663388986,28.144989339019194,7.92349726775957,779100.0,3256.0,0.0,1.0,0.0,?,0.0,0.0
1400000.0,1.765625,1.9609255509244072E-8,1400000.0,67.5,36.99352487301773,29.347826086956523,16.020671834625336,839100.0,3256.0,0.0,1.0,0.0,?,0.0,0.0
1500000.0,1.90625,2.0410192923413383E-8,1500000.0,66.0,34.40446975660199,23.766816143497756,0.5847953216374274,899100.0,3256.0,0.0,1.0,0.0,?,0.0,0.0
1600000.0,2.046875,2.260811419950591E-8,1600000.0,68.0,37.46384628613417,32.34672304439747,7.51445086705203,958800.0,3256.0,0.0,1.0,0.0,?,0.0,0.0
1700000.0,2.203125,2.4662197877963384E-8,1700000.0,65.0,31.88329077660833,25.213675213675213,5.913978494623661,1018800.0,3256.0,0.0,1.0,0.0,?,0.0,0.0
1800000.0,2.328125,2.5995023962524202E-8,1800000.0,64.9,32.10306406685237,20.588235294117645,-3.235294117647062,1078800.0,3256.0,0.0,1.0,0.0,?,0.0,0.0
1900000.0,2.453125,2.701740918887986E-8,1900000.0,66.10000000000001,34.341517078952876,25.657894736842106,2.8653295128939855,1138800.0,3256.0,0.0,1.0,0.0,?,0.0,0.0
2000000.0,2.578125,2.772935355703036E-8,2000000.0,67.0,34.93690851735016,19.512195121951233,-3.1250000000000036,1198800.0,3256.0,0.0,1.0,0.0,?,0.0,0.0
2100000.0,2.703125,2.9686165766583546E-8,2100000.0,66.7,35.809456250192774,29.59830866807611,8.516483516483524,1258500.0,3256.0,0.0,1.0,0.0,?,0.0,0.0
2200000.0,2.828125,3.133253711793158E-8,2200000.0,65.9,33.66274998054626,22.323462414578586,-6.562500000000007,1318500.0,3256.0,0.0,1.0,0.0,?,0.0,0.0
2300000.0,2.953125,3.266846761107445E-8,2300000.0,66.60000000000001,34.899893968689575,26.914660831509853,8.24175824175825,1378500.0,3256.0,0.0,1.0,0.0,?,0.0,0.0
2400000.0,3.078125,3.3693957246012157E-8,2400000.0,67.30000000000001,36.64018601046308,25.000000000000018,3.539823008849561,1438500.0,3256.0,0.0,1.0,0.0,?,0.0,0.0
2500000.0,3.21875,3.449838711983628E-8,2500000.0,66.0,32.94414641842853,23.250564334085777,-4.938271604938277,1498500.0,3256.0,0.0,1.0,0.0,?,0.0,0.0
2600000.0,3.328125,3.621059780319532E-8,2600000.0,68.30000000000001,37.96477495107633,34.36853002070394,20.750000000000018,1558200.0,3256.0,0.0,1.0,0.0,?,0.0,0.0
2700000.0,3.453125,3.785696915454335E-8,2700000.0,68.7,38.561434639573505,37.649402390438254,13.29639889196677,1618200.0,3256.0,0.0,1.0,0.0,?,0.0,0.0
2800000.0,3.578125,3.919289964768622E-8,2800000.0,65.9,33.569703109171655,22.146118721461182,-6.562500000000007,1678200.0,3256.0,0.0,1.0,0.0,?,0.0,0.0
2900000.0,3.703125,4.021838928262393E-8,2900000.0,65.2,32.13305042436346,20.000000000000014,0.0,1738200.0,3256.0,0.0,1.0,0.0,?,0.0,0.0
3000000.0,3.828125,4.093343805935648E-8,3000000.0,68.10000000000001,37.20521885654445,32.27176220806795,11.878453038674044,1798200.0,3256.0,0.0,1.0,0.0,?,0.0,0.0
3100000.0,3.953125,4.2893354677491725E-8,3100000.0,65.60000000000001,33.63659864418028,23.89380530973451,5.23415977961433,1857900.0,3256.0,0.0,1.0,0.0,?,0.0,0.0
3200000.0,4.078125,4.4542830437421806E-8,3200000.0,66.4,34.81980391624345,28.8135593220339,9.919571045576417,1917900.0,3256.0,0.0,1.0,0.0,?,0.0,0.0
3300000.0,4.234375,4.621662406457796E-8,3300000.0,65.0,31.899990271427185,23.076923076923077,-1.449275362318842,1977900.0,3256.0,0.0,1.0,0.0,?,0.0,0.0
3400000.0,4.359375,4.724521810809772E-8,3400000.0,65.60000000000001,32.701036091025756,22.171945701357462,-2.380952380952383,2037900.0,3256.0,0.0,1.0,0.0,?,0.0,0.0
3500000.0,4.484375,4.7963371293412325E-8,3500000.0,68.5,37.85609444295388,26.744186046511647,6.250000000000005,2097900.0,3256.0,0.0,1.0,0.0,?,0.0,0.0
3600000.0,4.609375,4.992328791154757E-8,3600000.0,68.10000000000001,37.59536758089128,32.55813953488373,13.783783783783795,2157600.0,3256.0,0.0,1.0,0.0,?,0.0,0.0
3700000.0,4.734375,5.157276367147765E-8,3700000.0,68.60000000000001,37.324098285394925,26.97674418604653,6.268656716417917,2217600.0,3256.0,0.0,1.0,0.0,?,0.0,0.0
3800000.0,4.859375,5.291179857320257E-8,3800000.0,67.7,36.9140625,33.12629399585922,13.86666666666668,2277600.0,3256.0,0.0,1.0,0.0,?,0.0,0.0
3900000.0,4.984375,5.394039261672233E-8,3900000.0,67.80000000000001,37.44754918720667,28.28507795100223,10.055865921787719,2337600.0,3256.0,0.0,1.0,0.0,?,0.0,0.0
4000000.0,5.125,5.474831495020126E-8,4000000.0,65.8,34.03184988580952,27.695560253699792,8.064516129032265,2397600.0,3256.0,0.0,1.0,0.0,?,0.0,0.0
4100000.0,5.265625,5.695671360525821E-8,4100000.0,67.4,36.00113077756663,30.785562632696394,9.944751381215479,2457300.0,3256.0,0.0,1.0,0.0,?,0.0,0.0
4200000.0,5.390625,5.860929377377034E-8,4200000.0,65.9,34.478518176927224,25.054945054945055,5.277777777777783,2517300.0,3256.0,0.0,1.0,0.0,?,0.0,0.0
4300000.0,5.515625,5.995143308407731E-8,4300000.0,64.7,31.106357731701223,22.417582417582416,0.842696629213484,2577300.0,3256.0,0.0,1.0,0.0,?,0.0,0.0
4400000.0,5.640625,6.098313153617913E-8,4400000.0,68.30000000000001,38.69088602306925,29.867256637168143,10.198300283286128,2637300.0,3256.0,0.0,1.0,0.0,?,0.0,0.0
4500000.0,5.765625,6.170438913007578E-8,4500000.0,66.0,33.4635360608065,22.37442922374429,5.292479108635102,2697300.0,3256.0,0.0,1.0,0.0,?,0.0,0.0
4600000.0,5.890625,6.366741015679308E-8,4600000.0,68.60000000000001,38.34045494533117,34.719334719334725,13.736263736263748,2757000.0,3256.0,0.0,1.0,0.0,?,0.0,0.0
4700000.0,6.015625,6.531999032530521E-8,4700000.0,68.10000000000001,37.92711592646213,34.63114754098361,9.375000000000009,2817000.0,3256.0,0.0,1.0,0.0,?,0.0,0.0
4800000.0,6.15625,6.682989704940056E-8,4800000.0,67.30000000000001,36.53295240165519,29.220779220779225,3.2544378698224885,2877000.0,3256.0,0.0,1.0,0.0,?,0.0,0.0
4900000.0,6.296875,6.79905578080151E-8,4900000.0,67.60000000000001,37.56551766664612,32.359081419624225,7.954545454545463,2937000.0,3256.0,0.0,1.0,0.0,?,0.0,0.0
5000000.0,6.40625,6.864293633649749E-8,5000000.0,65.60000000000001,33.25183848497197,23.385300668151444,3.0985915492957776,2997000.0,3256.0,0.0,1.0,0.0,?,0.0,0.0
5100000.0,6.546875,7.088218505183858E-8,5100000.0,69.1,39.11857888183092,36.02484472049688,24.26470588235293,3056700.0,3256.0,0.0,1.0,0.0,?,0.0,0.0
5200000.0,6.671875,7.256218749615884E-8,5200000.0,70.7,41.91947224028289,38.70292887029287,34.59821428571427,3116700.0,3256.0,0.0,1.0,0.0,?,0.0,0.0
5300000.0,6.796875,7.393174908227393E-8,5300000.0,66.8,34.38657375383898,33.996023856858855,20.76372315035801,3176700.0,3256.0,0.0,1.0,0.0,?,0.0,0.0
5400000.0,6.9375,7.512325990117261E-8,5400000.0,65.3,32.02103233996537,31.960784313725497,19.86143187066976,3236700.0,3256.0,0.0,1.0,0.0,?,0.0,0.0
5500000.0,7.078125,7.596552475459049E-8,5500000.0,69.5,39.78900488005179,36.853002070393366,26.682692307692303,3296700.0,3256.0,0.0,1.0,0.0,?,0.0,0.0
5600000.0,7.21875,7.820477346993158E-8,5600000.0,68.10000000000001,36.95901347772816,34.36213991769549,25.813953488372114,3356400.0,3256.0,0.0,1.0,0.0,?,0.0,0.0
5700000.0,7.34375,7.988477591425184E-8,5700000.0,67.2,35.50518318101022,28.384279475982538,17.587939698492477,3416400.0,3256.0,0.0,1.0,0.0,?,0.0,0.0
5800000.0,7.46875,8.125433750036692E-8,5800000.0,69.19999999999999,39.404432132963976,34.745762711864394,27.69953051643192,3476400.0,3256.0,0.0,1.0,0.0,?,0.0,0.0
5900000.0,7.59375,8.231345822827686E-8,5900000.0,70.5,41.713427645617635,40.76305220883533,28.915662650602407,3536400.0,3256.0,0.0,1.0,0.0,?,0.0,0.0
6000000.0,7.71875,8.306213809798164E-8,6000000.0,69.69999999999999,40.17296528847292,37.782340862422984,25.185185185185176,3596400.0,3256.0,0.0,1.0,0.0,?,0.0,0.0
6100000.0,7.84375,8.50556858090891E-8,6100000.0,68.8,38.696836206591655,40.45801526717556,28.604118993135007,3656100.0,3256.0,0.0,1.0,0.0,?,0.0,0.0
6200000.0,7.96875,8.673879266199141E-8,6200000.0,71.1,42.74052940244095,38.11563169164881,34.46712018140588,3716100.0,3256.0,0.0,1.0,0.0,?,0.0,0.0
6300000.0,8.109375,8.82830419060257E-8,6300000.0,72.0,44.47507129004239,42.85714285714285,35.03480278422274,3776100.0,3256.0,0.0,1.0,0.0,?,0.0,0.0
6400000.0,8.265625,8.961082332664068E-8,6400000.0,68.60000000000001,38.26359478897554,34.171907756813425,28.798185941043087,3836100.0,3256.0,0.0,1.0,0.0,?,0.0,0.0
6500000.0,8.390625,9.036260760492751E-8,6500000.0,67.0,35.32784861229242,31.958762886597945,20.096852300242148,3896100.0,3256.0,0.0,1.0,0.0,?,0.0,0.0
6600000.0,8.515625,9.235615531603497E-8,6600000.0,69.6,39.68134288378737,37.31958762886597,24.938271604938265,3955800.0,3256.0,0.0,1.0,0.0,?,0.0,0.0
6700000.0,8.640625,9.403926216893728E-8,6700000.0,67.4,35.59526961084529,35.82677165354332,27.716186252771625,4015800.0,3256.0,0.0,1.0,0.0,?,0.0,0.0
6800000.0,8.75,9.524034491429728E-8,6800000.0,69.69999999999999,40.46309104627765,34.83870967741934,25.55282555282555,4075800.0,3256.0,0.0,1.0,0.0,?,0.0,0.0
6900000.0,8.875,9.630257005078926E-8,6900000.0,70.39999999999999,41.761631933513804,38.58921161825725,28.502415458937193,4135800.0,3256.0,0.0,1.0,0.0,?,0.0,0.0
7000000.0,9.0,9.705435432907609E-8,7000000.0,69.0,38.5649566585678,29.38496583143506,18.205804749340356,4195800.0,3256.0,0.0,1.0,0.0,?,0.0,0.0
7100000.0,9.125,9.905100644876561E-8,7100000.0,69.69999999999999,40.2154611104534,41.5057915057915,30.82191780821916,4255500.0,3256.0,0.0,1.0,0.0,?,0.0,0.0
7200000.0,9.28125,1.0115877052562107E-7,7200000.0,66.8,34.625078764965345,28.29373650107992,17.4129353233831,4315500.0,3256.0,0.0,1.0,0.0,?,0.0,0.0
7300000.0,9.40625,1.0253454092890027E-7,7300000.0,66.9,34.77575470954521,28.96995708154507,23.379629629629648,4375500.0,3256.0,0.0,1.0,0.0,?,0.0,0.0
7400000.0,9.53125,1.0359987047397431E-7,7400000.0,68.89999999999999,39.1508511054588,35.343035343035325,20.05141388174806,4435500.0,3256.0,0.0,1.0,0.0,?,0.0,0.0
7500000.0,9.65625,1.0435475916084319E-7,7500000.0,68.10000000000001,36.74199459034988,35.8148893360161,19.849246231155796,4495500.0,3256.0,0.0,1.0,0.0,?,0.0,0.0
7600000.0,9.78125,1.0635141128053271E-7,7600000.0,71.0,42.44318745658428,41.883767535070135,37.63440860215053,4555200.0,3256.0,0.0,1.0,0.0,?,0.0,0.0
7700000.0,9.890625,1.0782684613433152E-7,7700000.0,70.1,40.98327004002873,43.26375711574952,28.97862232779097,4615200.0,3256.0,0.0,1.0,0.0,?,0.0,0.0
7800000.0,10.03125,1.0937458783802062E-7,7800000.0,68.0,36.44841994884098,31.034482758620697,14.438502673796805,4675200.0,3256.0,0.0,1.0,0.0,?,0.0,0.0
7900000.0,10.1875,1.1070624976936316E-7,7900000.0,67.60000000000001,36.09089295224571,32.21757322175733,21.927710843373514,4735200.0,3256.0,0.0,1.0,0.0,?,0.0,0.0
8000000.0,10.3125,1.1146113845623204E-7,8000000.0,70.3,40.99697236989534,42.66409266409266,32.80542986425338,4795200.0,3256.0,0.0,1.0,0.0,?,0.0,0.0
8100000.0,10.4375,1.1346089498450361E-7,8100000.0,70.19999999999999,41.193882585101136,37.26315789473683,29.882352941176464,4854900.0,3256.0,0.0,1.0,0.0,?,0.0,0.0
8200000.0,10.5625,1.1515021065457002E-7,8200000.0,69.0,39.02654902068768,37.999999999999986,28.07424593967517,4914900.0,3256.0,0.0,1.0,0.0,?,0.0,0.0
8300000.0,10.671875,1.1635672611494862E-7,8300000.0,68.7,37.918504649170146,36.51115618661259,24.213075060532706,4974900.0,3256.0,0.0,1.0,0.0,?,0.0,0.0
8400000.0,10.796875,1.1742516006860471E-7,8400000.0,67.9,36.46533501175689,36.18290258449306,24.113475177304984,5034900.0,3256.0,0.0,1.0,0.0,?,0.0,0.0
8500000.0,10.921875,1.1818315316405564E-7,8500000.0,69.8,40.09552977767903,34.49023861171365,25.61576354679802,5094900.0,3256.0,0.0,1.0,0.0,?,0.0,0.0
8600000.0,11.046875,1.201829096923272E-7,8600000.0,68.60000000000001,37.95766104333877,36.178861788617894,26.806526806526826,5154600.0,3256.0,0.0,1.0,0.0,?,0.0,0.0
8700000.0,11.1875,1.220833898211519E-7,8700000.0,68.7,37.87217149662566,35.062240663900425,21.750000000000018,5214600.0,3256.0,0.0,1.0,0.0,?,0.0,0.0
8800000.0,11.3125,1.2346226463301316E-7,8800000.0,68.5,37.72931427125506,37.000000000000014,28.246013667425974,5274600.0,3256.0,0.0,1.0,0.0,?,0.0,0.0
8900000.0,11.4375,1.2453069858666924E-7,8900000.0,69.5,40.0352317589141,39.3638170974155,26.858513189448434,5334600.0,3256.0,0.0,1.0,0.0,?,0.0,0.0
9000000.0,11.5625,1.2528869168212018E-7,9000000.0,68.8,38.83336404734924,35.537190082644614,27.27272727272727,5394600.0,3256.0,0.0,1.0,0.0,?,0.0,0.0
9100000.0,11.6875,1.272915526189738E-7,9100000.0,70.1,40.63596944042948,38.603696098562615,30.787037037037035,5454300.0,3256.0,0.0,1.0,0.0,?,0.0,0.0
9200000.0,11.8125,1.2898397269762225E-7,9200000.0,68.2,37.83525952801716,34.96932515337424,24.644549763033194,5514300.0,3256.0,0.0,1.0,0.0,?,0.0,0.0
9300000.0,11.9375,1.3036595191806555E-7,9300000.0,66.60000000000001,34.218818932375385,32.79678068410464,18.932038834951474,5574300.0,3256.0,0.0,1.0,0.0,?,0.0,0.0
9400000.0,12.078125,1.3157143257558346E-7,9400000.0,68.4,37.97987093532637,36.03238866396762,24.401913875598105,5634300.0,3256.0,0.0,1.0,0.0,?,0.0,0.0
9500000.0,12.203125,1.3233253007961645E-7,9500000.0,69.0,38.448097847668954,36.08247422680411,27.90697674418604,5694300.0,3256.0,0.0,1.0,0.0,?,0.0,0.0
9600000.0,12.328125,1.3433539101647006E-7,9600000.0,70.5,41.68300860323886,41.23505976095617,32.801822323462396,5754000.0,3256.0,0.0,1.0,0.0,?,0.0,0.0
9700000.0,12.453125,1.3602781109511853E-7,9700000.0,70.19999999999999,41.380816183615735,41.79687499999999,27.493917274939168,5814000.0,3256.0,0.0,1.0,0.0,?,0.0,0.0
9800000.0,12.5625,1.372370429130064E-7,9800000.0,69.0,38.952583881119004,37.499999999999986,25.659472422062347,5874000.0,3256.0,0.0,1.0,0.0,?,0.0,0.0
9900000.0,12.6875,1.3830858127524453E-7,9900000.0,72.39999999999999,45.43535077556927,46.82080924855491,35.66433566433567,5934000.0,3256.0,0.0,1.0,0.0,?,0.0,0.0
1.0E7,12.8125,1.3906967877927752E-7,1.0E7,67.2,35.49275276810826,31.380753138075317,22.458628841607585,5994000.0,3256.0,0.0,1.0,0.0,?,0.0,0.0
