learning evaluation instances,evaluation time (cpu seconds),model cost (RAM-Hours),classified instances,classifications correct (percent),Kappa Statistic (percent),Kappa Temporal Statistic (percent),Kappa M Statistic (percent),model training instances,model serialized size (bytes),labeling cost,newThreshold,maxPosterior,accuracyBaseLearner (percent),Change detected,Warning detected
100000.0,0.125,1.9508620931042567E-9,100000.0,69.8,36.846507737348375,25.98039215686274,-7.0921985815602895,56206.0,3256.0,0.0,1.0,0.0,?,3.0,42.0
200000.0,0.265625,3.796335982365741E-9,200000.0,67.9,33.1428285790456,24.113475177304984,-9.55631399317403,116206.0,3256.0,0.0,1.0,0.0,?,0.0,0.0
300000.0,0.390625,5.126316359059679E-9,300000.0,68.89999999999999,35.43592170930801,27.67441860465116,-3.322259136212627,176206.0,3256.0,0.0,1.0,0.0,?,0.0,0.0
400000.0,0.515625,6.145855877548457E-9,400000.0,65.3,30.12372329799917,17.57719714964372,-20.905923344947713,236206.0,3256.0,0.0,1.0,0.0,?,0.0,0.0
500000.0,0.65625,6.943591870367527E-9,500000.0,68.89999999999999,35.75442075689967,26.303317535545016,-3.322259136212627,296206.0,3256.0,0.0,1.0,0.0,?,0.0,0.0
600000.0,0.78125,8.894453963471784E-9,600000.0,66.60000000000001,30.067001675041887,22.6851851851852,-11.333333333333306,355906.0,3256.0,0.0,1.0,0.0,?,0.0,0.0
700000.0,0.90625,1.0534875198370882E-8,700000.0,70.5,37.02985851996688,24.16452442159382,-2.7874564459930333,415906.0,3256.0,0.0,1.0,0.0,?,0.0,0.0
800000.0,1.03125,1.186485557506482E-8,800000.0,69.69999999999999,35.67316020992205,21.29870129870129,-5.574912891986067,475906.0,3256.0,0.0,1.0,0.0,?,0.0,0.0
900000.0,1.15625,1.2884395093553598E-8,900000.0,67.60000000000001,32.64173302010353,21.739130434782627,-12.110726643598586,535906.0,3256.0,0.0,1.0,0.0,?,0.0,0.0
1000000.0,1.296875,1.368213108637267E-8,1000000.0,68.60000000000001,34.178807252908506,18.65284974093266,-14.181818181818153,595906.0,3256.0,0.0,1.0,0.0,?,0.0,0.0
1100000.0,1.4375,1.5880343400769765E-8,1100000.0,66.9,33.0154772697837,28.04347826086957,-4.4164037854889635,655606.0,3256.0,0.0,1.0,0.0,?,0.0,0.0
1200000.0,1.59375,1.79347504551212E-8,1200000.0,71.1,39.484043889773005,29.51219512195122,-3.2142857142857166,715606.0,3256.0,0.0,1.0,0.0,?,0.0,0.0
1300000.0,1.71875,1.926783524039719E-8,1300000.0,70.3,38.24798942106968,29.11694510739856,-1.3651877133105812,775606.0,3256.0,0.0,1.0,0.0,?,0.0,0.0
1400000.0,1.84375,2.0290479167468018E-8,1400000.0,70.39999999999999,38.83261213676696,27.804878048780484,5.431309904153325,835606.0,3256.0,0.0,1.0,0.0,?,0.0,0.0
1500000.0,1.96875,2.1002682236333688E-8,1500000.0,67.0,31.441107911696147,17.085427135678405,-16.60777385159008,895606.0,3256.0,0.0,1.0,0.0,?,0.0,0.0
1600000.0,2.09375,2.2956648738019994E-8,1600000.0,69.3,35.494444537829246,26.730310262529827,-3.7162162162162193,955306.0,3256.0,0.0,1.0,0.0,?,0.0,0.0
1700000.0,2.21875,2.4600174381501142E-8,1700000.0,66.2,30.45725384336835,18.357487922705328,-10.457516339869253,1015306.0,3256.0,0.0,1.0,0.0,?,0.0,0.0
1800000.0,2.390625,2.6433165961255627E-8,1800000.0,70.39999999999999,38.042131350681515,26.368159203980095,-3.4965034965034993,1075306.0,3256.0,0.0,1.0,0.0,?,0.0,0.0
1900000.0,2.53125,2.758364037921031E-8,1900000.0,69.69999999999999,36.967447743309805,29.20560747663551,-1.3377926421404693,1135306.0,3256.0,0.0,1.0,0.0,?,0.0,0.0
2000000.0,2.65625,2.829584344807598E-8,2000000.0,69.0,33.07195412622197,16.2162162162162,-17.42424242424244,1195306.0,3256.0,0.0,1.0,0.0,?,0.0,0.0
2100000.0,2.78125,3.025291435834434E-8,2100000.0,70.7,39.47281441084117,30.73286052009456,2.6578073089701015,1255006.0,3256.0,0.0,1.0,0.0,?,0.0,0.0
2200000.0,2.90625,3.189954441040754E-8,2200000.0,69.5,35.98730659771484,24.317617866004955,-9.712230215827345,1315006.0,3256.0,0.0,1.0,0.0,?,0.0,0.0
2300000.0,3.03125,3.323573360426558E-8,2300000.0,67.30000000000001,32.812821039654835,21.95704057279238,-5.483870967741904,1375006.0,3256.0,0.0,1.0,0.0,?,0.0,0.0
2400000.0,3.15625,3.4261481939918464E-8,2400000.0,68.2,34.249430368492675,14.054054054054067,-13.978494623655886,1435006.0,3256.0,0.0,1.0,0.0,?,0.0,0.0
2500000.0,3.28125,3.4976789417366186E-8,2500000.0,69.3,35.357533900446384,27.07838479809976,-5.498281786941585,1495006.0,3256.0,0.0,1.0,0.0,?,0.0,0.0
2600000.0,3.421875,3.717849419141809E-8,2600000.0,69.5,37.16263546087599,27.895981087470446,7.5757575757575495,1554706.0,3256.0,0.0,1.0,0.0,?,0.0,0.0
2700000.0,3.5625,3.9030952999989196E-8,2700000.0,71.0,39.68386023294509,34.3891402714932,3.333333333333336,1614706.0,3256.0,0.0,1.0,0.0,?,0.0,0.0
2800000.0,3.671875,4.020011854461498E-8,2800000.0,68.10000000000001,31.15266411132982,19.44444444444446,-19.029850746268632,1674706.0,3256.0,0.0,1.0,0.0,?,0.0,0.0
2900000.0,3.796875,4.1225866880267865E-8,2900000.0,68.2,34.1224824637363,21.867321867321884,-6.354515050167192,1734706.0,3256.0,0.0,1.0,0.0,?,0.0,0.0
3000000.0,3.921875,4.194117435771559E-8,3000000.0,66.7,30.49467752035066,23.094688221709024,-7.419354838709646,1794706.0,3256.0,0.0,1.0,0.0,?,0.0,0.0
3100000.0,4.046875,4.3901349676566E-8,3100000.0,70.7,39.64785657199825,28.186274509803916,5.177993527508094,1854406.0,3256.0,0.0,1.0,0.0,?,0.0,0.0
3200000.0,4.1875,4.5757300944791905E-8,3200000.0,68.10000000000001,34.69377727916672,25.46728971962619,-1.5923566878980908,1914406.0,3256.0,0.0,1.0,0.0,?,0.0,0.0
3300000.0,4.328125,4.726400624753701E-8,3300000.0,66.5,29.86349551963822,16.04010025062658,-17.54385964912278,1974406.0,3256.0,0.0,1.0,0.0,?,0.0,0.0
3400000.0,4.453125,4.829285899177194E-8,3400000.0,69.1,35.04309438721883,25.72115384615384,-12.363636363636374,2034406.0,3256.0,0.0,1.0,0.0,?,0.0,0.0
3500000.0,4.59375,4.9101072363555435E-8,3500000.0,66.5,30.343582876581316,12.303664921465979,-22.710622710622687,2094406.0,3256.0,0.0,1.0,0.0,?,0.0,0.0
3600000.0,4.703125,5.0816225767549545E-8,3600000.0,69.8,36.3406408094435,31.207289293849637,-0.6666666666666672,2154106.0,3256.0,0.0,1.0,0.0,?,0.0,0.0
3700000.0,4.828125,5.2465960228194794E-8,3700000.0,70.6,36.9639794168096,26.499999999999996,-1.3793103448275872,2214106.0,3256.0,0.0,1.0,0.0,?,0.0,0.0
3800000.0,4.953125,5.380525383063489E-8,3800000.0,67.4,33.35186941873018,24.00932400932403,-6.535947712418269,2274106.0,3256.0,0.0,1.0,0.0,?,0.0,0.0
3900000.0,5.0625,5.4705499981840454E-8,3900000.0,69.8,37.84575869336142,26.520681265206807,0.6578947368421058,2334106.0,3256.0,0.0,1.0,0.0,?,0.0,0.0
4000000.0,5.1875,5.5423911867870224E-8,4000000.0,66.9,32.657329568111734,25.617977528089884,-11.073825503355677,2394106.0,3256.0,0.0,1.0,0.0,?,0.0,0.0
4100000.0,5.3125,5.7387191595302684E-8,4100000.0,68.5,34.08111162265099,24.096385542168694,-6.77966101694912,2453806.0,3256.0,0.0,1.0,0.0,?,0.0,0.0
4200000.0,5.4375,5.904003046452999E-8,4200000.0,66.60000000000001,32.644994756796,16.70822942643393,-13.605442176870723,2513806.0,3256.0,0.0,1.0,0.0,?,0.0,0.0
4300000.0,5.578125,6.05502282269299E-8,4300000.0,66.8,31.657712180160154,20.76372315035801,-11.784511784511755,2573806.0,3256.0,0.0,1.0,0.0,?,0.0,0.0
4400000.0,5.703125,6.158218537974688E-8,4400000.0,70.8,40.275550610334776,29.126213592233007,3.3112582781456976,2633806.0,3256.0,0.0,1.0,0.0,?,0.0,0.0
4500000.0,5.84375,6.239389121118518E-8,4500000.0,68.7,33.393484903941925,21.35678391959801,-6.462585034013572,2693806.0,3256.0,0.0,1.0,0.0,?,0.0,0.0
4600000.0,5.96875,6.435717093861764E-8,4600000.0,68.10000000000001,34.39993419429137,25.64102564102566,-4.9342105263157565,2753506.0,3256.0,0.0,1.0,0.0,?,0.0,0.0
4700000.0,6.09375,6.601000980784494E-8,4700000.0,69.0,35.75502354267523,27.90697674418604,-6.16438356164384,2813506.0,3256.0,0.0,1.0,0.0,?,0.0,0.0
4800000.0,6.21875,6.735240781886709E-8,4800000.0,69.6,36.3838398212051,24.37810945273631,-7.420494699646649,2873506.0,3256.0,0.0,1.0,0.0,?,0.0,0.0
4900000.0,6.34375,6.838436497168407E-8,4900000.0,68.60000000000001,34.625826546078386,27.98165137614681,-9.790209790209758,2933506.0,3256.0,0.0,1.0,0.0,?,0.0,0.0
5000000.0,6.5,6.931665767398144E-8,5000000.0,68.0,33.93698414074726,20.595533498759323,-10.726643598615887,2993506.0,3256.0,0.0,1.0,0.0,?,0.0,0.0
5100000.0,6.625,7.130735967722203E-8,5100000.0,70.19999999999999,39.79822303748266,40.16064257028111,33.924611973392444,3053206.0,3256.0,0.0,1.0,0.0,?,0.0,0.0
5200000.0,6.75,7.298762082225745E-8,5200000.0,71.3,42.53333867286051,43.28063241106719,41.18852459016393,3113206.0,3256.0,0.0,1.0,0.0,?,0.0,0.0
5300000.0,6.859375,7.418621357323393E-8,5300000.0,69.5,38.40673365859962,38.1338742393509,33.26039387308533,3173206.0,3256.0,0.0,1.0,0.0,?,0.0,0.0
5400000.0,6.984375,7.524559300185904E-8,5400000.0,69.1,38.09252862970116,40.80459770114942,34.11513859275052,3233206.0,3256.0,0.0,1.0,0.0,?,0.0,0.0
5500000.0,7.109375,7.599453157227898E-8,5500000.0,68.30000000000001,36.43065125494318,35.17382413087935,31.533477321814264,3293206.0,3256.0,0.0,1.0,0.0,?,0.0,0.0
5600000.0,7.265625,7.848290907632972E-8,5600000.0,52.800000000000004,0.0,5.220883534136551,0.0,3352906.0,3256.0,0.0,1.0,0.0,?,0.0,0.0
5700000.0,7.390625,8.016317022136513E-8,5700000.0,73.3,46.707437805384345,43.432203389830505,37.61682242990654,3412906.0,3256.0,0.0,1.0,0.0,?,0.0,0.0
5800000.0,7.53125,8.170421804404918E-8,5800000.0,70.19999999999999,40.90303337987052,37.91666666666666,35.49783549783548,3472906.0,3256.0,0.0,1.0,0.0,?,0.0,0.0
5900000.0,7.65625,8.276359747267429E-8,5900000.0,67.2,34.853420195439746,35.177865612648226,25.791855203619914,3532906.0,3256.0,0.0,1.0,0.0,?,0.0,0.0
6000000.0,7.78125,8.351253604309423E-8,6000000.0,70.39999999999999,41.23159516510743,40.681362725450896,33.632286995515685,3592906.0,3256.0,0.0,1.0,0.0,?,0.0,0.0
6100000.0,7.90625,8.550634245491687E-8,6100000.0,69.0,38.67918929932071,41.94756554307114,32.754880694143154,3652606.0,3256.0,0.0,1.0,0.0,?,0.0,0.0
6200000.0,8.03125,8.718970800853435E-8,6200000.0,70.7,41.73792006363094,38.3157894736842,37.791932059447966,3712606.0,3256.0,0.0,1.0,0.0,?,0.0,0.0
6300000.0,8.15625,8.856263270394666E-8,6300000.0,71.89999999999999,44.06357244663147,43.57429718875501,39.177489177489164,3772606.0,3256.0,0.0,1.0,0.0,?,0.0,0.0
6400000.0,8.296875,8.975792702080472E-8,6400000.0,69.39999999999999,39.313889979652295,36.382536382536365,35.03184713375795,3832606.0,3256.0,0.0,1.0,0.0,?,0.0,0.0
6500000.0,8.421875,9.050996999980672E-8,6500000.0,69.69999999999999,39.80738362760833,39.03420523138832,33.112582781456936,3892606.0,3256.0,0.0,1.0,0.0,?,0.0,0.0
6600000.0,8.5625,9.27530022131072E-8,6600000.0,68.60000000000001,37.46788756965162,38.55185909980432,30.066815144766153,3952306.0,3256.0,0.0,1.0,0.0,?,0.0,0.0
6700000.0,8.6875,9.443636776672468E-8,6700000.0,67.10000000000001,34.49712105887694,36.73076923076924,31.315240083507312,4012306.0,3256.0,0.0,1.0,0.0,?,0.0,0.0
6800000.0,8.8125,9.580929246213699E-8,6800000.0,69.19999999999999,38.98573692551505,34.88372093023254,31.555555555555536,4072306.0,3256.0,0.0,1.0,0.0,?,0.0,0.0
6900000.0,8.9375,9.687177629934415E-8,6900000.0,71.89999999999999,44.32380167385238,41.942148760330575,37.69401330376939,4132306.0,3256.0,0.0,1.0,0.0,?,0.0,0.0
7000000.0,9.0625,9.762381927834615E-8,7000000.0,65.9,32.744270442980564,25.70806100217865,16.216216216216228,4192306.0,3256.0,0.0,1.0,0.0,?,0.0,0.0
7100000.0,9.203125,9.987034395130143E-8,7100000.0,69.69999999999999,39.831767238297964,42.39543726235741,36.0759493670886,4252006.0,3256.0,0.0,1.0,0.0,?,0.0,0.0
7200000.0,9.3125,1.0134600516822602E-7,7200000.0,69.1,38.60520564275778,36.80981595092023,30.561797752808967,4312006.0,3256.0,0.0,1.0,0.0,?,0.0,0.0
7300000.0,9.421875,1.0255003063422109E-7,7300000.0,68.2,36.81525017584436,32.05128205128206,32.19616204690832,4372006.0,3256.0,0.0,1.0,0.0,?,0.0,0.0
7400000.0,9.546875,1.0361561888001029E-7,7400000.0,68.8,38.485804416403774,36.969696969696955,27.102803738317753,4432006.0,3256.0,0.0,1.0,0.0,?,0.0,0.0
7500000.0,9.671875,1.0437076626759434E-7,7500000.0,68.7,37.79710329258018,38.01980198019803,26.179245283018886,4492006.0,3256.0,0.0,1.0,0.0,?,0.0,0.0
7600000.0,9.796875,1.0636767708799903E-7,7600000.0,71.3,42.49879788427632,43.50393700787401,43.28063241106719,4551706.0,3256.0,0.0,1.0,0.0,?,0.0,0.0
7700000.0,9.921875,1.0805414705019856E-7,7700000.0,71.5,43.446546072213785,46.529080675422136,37.08609271523178,4611706.0,3256.0,0.0,1.0,0.0,?,0.0,0.0
7800000.0,10.046875,1.0943017615419294E-7,7800000.0,67.0,35.03911432722177,32.098765432098766,18.918918918918934,4671706.0,3256.0,0.0,1.0,0.0,?,0.0,0.0
7900000.0,10.171875,1.1049576439998214E-7,7900000.0,68.60000000000001,37.439481664189486,34.854771784232376,32.762312633832984,4731706.0,3256.0,0.0,1.0,0.0,?,0.0,0.0
8000000.0,10.3125,1.113453052110142E-7,8000000.0,71.2,42.593116755235386,44.82758620689655,38.85350318471337,4791706.0,3256.0,0.0,1.0,0.0,?,0.0,0.0
8100000.0,10.453125,1.1359532234362428E-7,8100000.0,71.2,42.82197383311163,39.74895397489539,37.2549019607843,4851406.0,3256.0,0.0,1.0,0.0,?,0.0,0.0
8200000.0,10.5625,1.1507369991805816E-7,8200000.0,70.7,41.81058451565751,42.32283464566928,36.85344827586206,4911406.0,3256.0,0.0,1.0,0.0,?,0.0,0.0
8300000.0,10.6875,1.1645283343063459E-7,8300000.0,68.7,37.68118250453952,39.45841392649905,30.905077262693165,4971406.0,3256.0,0.0,1.0,0.0,?,0.0,0.0
8400000.0,10.796875,1.1738793950320945E-7,8400000.0,69.8,39.90288943723632,39.720558882235515,34.06113537117903,5031406.0,3256.0,0.0,1.0,0.0,?,0.0,0.0
8500000.0,10.9375,1.1824097277389631E-7,8500000.0,70.0,40.346467715508325,36.57505285412261,30.87557603686636,5091406.0,3256.0,0.0,1.0,0.0,?,0.0,0.0
8600000.0,11.0625,1.2024098800288304E-7,8600000.0,69.8,40.155358275206076,39.11290322580644,34.34782608695651,5151106.0,3256.0,0.0,1.0,0.0,?,0.0,0.0
8700000.0,11.1875,1.2193056237366462E-7,8700000.0,69.5,39.32280268969083,38.25910931174088,29.06976744186046,5211106.0,3256.0,0.0,1.0,0.0,?,0.0,0.0
8800000.0,11.328125,1.234820875753131E-7,8800000.0,69.3,39.0795656591313,38.59999999999999,33.11546840958604,5271106.0,3256.0,0.0,1.0,0.0,?,0.0,0.0
8900000.0,11.453125,1.2455078022968438E-7,8900000.0,69.39999999999999,39.30498254522372,40.58252427184465,33.478260869565204,5331106.0,3256.0,0.0,1.0,0.0,?,0.0,0.0
9000000.0,11.578125,1.2530903202585048E-7,9000000.0,71.0,42.60312634833172,44.01544401544401,37.36501079913606,5391106.0,3256.0,0.0,1.0,0.0,?,0.0,0.0
9100000.0,11.703125,1.2731215166341927E-7,9100000.0,68.30000000000001,37.24760471929686,36.21730382293764,30.634573304157552,5450806.0,3256.0,0.0,1.0,0.0,?,0.0,0.0
9200000.0,11.828125,1.290048304427829E-7,9200000.0,70.1,40.882452962995174,40.08016032064127,35.14099783080259,5510806.0,3256.0,0.0,1.0,0.0,?,0.0,0.0
9300000.0,11.953125,1.3038706836394136E-7,9300000.0,69.69999999999999,40.21782021939862,40.118577075098806,31.60270880361172,5570806.0,3256.0,0.0,1.0,0.0,?,0.0,0.0
9400000.0,12.09375,1.3159284005976385E-7,9400000.0,71.0,42.74387161991407,41.53225806451612,34.68468468468467,5630806.0,3256.0,0.0,1.0,0.0,?,0.0,0.0
9500000.0,12.25,1.3254453531569903E-7,9500000.0,69.89999999999999,40.235088555317276,39.31451612903225,35.26881720430106,5690806.0,3256.0,0.0,1.0,0.0,?,0.0,0.0
9600000.0,12.375,1.3454765495326783E-7,9600000.0,67.4,35.07631520249818,34.00809716599191,31.941544885177457,5750506.0,3256.0,0.0,1.0,0.0,?,0.0,0.0
9700000.0,12.5,1.3624033373263146E-7,9700000.0,68.5,37.56045733496139,39.1891891891892,27.083333333333353,5810506.0,3256.0,0.0,1.0,0.0,?,0.0,0.0
9800000.0,12.625,1.3762257165378992E-7,9800000.0,69.69999999999999,39.829855512220675,40.35433070866141,34.4155844155844,5870506.0,3256.0,0.0,1.0,0.0,?,0.0,0.0
9900000.0,12.75,1.3869436871674324E-7,9900000.0,68.0,36.32626422212583,39.5085066162571,33.19415448851775,5930506.0,3256.0,0.0,1.0,0.0,?,0.0,0.0
1.0E7,12.875,1.3945572492149138E-7,1.0E7,68.5,37.65832805573148,35.45081967213115,30.30973451327434,5990506.0,3256.0,0.0,1.0,0.0,?,0.0,0.0
