learning evaluation instances,evaluation time (cpu seconds),model cost (RAM-Hours),classified instances,classifications correct (percent),Kappa Statistic (percent),Kappa Temporal Statistic (percent),Kappa M Statistic (percent),model training instances,model serialized size (bytes),labeling cost,newThreshold,maxPosterior,accuracyBaseLearner (percent),Change detected,Warning detected,tree size (nodes),tree size (leaves),active learning leaves,tree depth,active leaf byte size estimate,inactive leaf byte size estimate,byte size estimate overhead
100000.0,0.875,6.020896964603E-8,100000.0,74.6,49.19573244152509,48.686868686868685,48.89336016096579,39800.0,155120.0,0.0,1.0,0.0,?,0.0,26.0,47.0,36.0,36.0,3.0,0.0,0.0,1.0
200000.0,1.703125,1.2681082201500733E-7,200000.0,77.0,53.9955835760233,52.57731958762887,52.772073921971256,79800.0,215024.0,0.0,1.0,0.0,?,0.0,0.0,72.0,53.0,53.0,3.0,0.0,0.0,1.0
300000.0,2.546875,2.4043974311401447E-7,300000.0,81.6,62.74474073174188,63.779527559055104,59.38189845474612,119800.0,439080.0,0.0,1.0,0.0,?,0.0,0.0,149.0,102.0,102.0,5.0,0.0,0.0,1.0
400000.0,3.359375,3.539968100893829E-7,400000.0,83.1,66.2027037836973,67.93168880455407,65.85858585858585,159800.0,473816.0,0.0,1.0,0.0,?,0.0,0.0,164.0,111.0,111.0,5.0,0.0,0.0,1.0
500000.0,4.234375,5.016127316695121E-7,500000.0,82.39999999999999,64.71305296249959,64.51612903225805,63.179916317991626,199800.0,600424.0,0.0,1.0,0.0,?,0.0,0.0,208.0,139.0,139.0,5.0,0.0,0.0,1.0
600000.0,5.125,6.856623480820822E-7,600000.0,82.8,65.49247455069998,64.82617586912065,63.247863247863236,239600.0,685912.0,0.0,1.0,0.0,?,0.0,0.0,246.0,161.0,161.0,6.0,0.0,0.0,1.0
700000.0,5.96875,8.791550903374123E-7,700000.0,85.39999999999999,70.75964831467425,71.59533073929961,69.89690721649484,279600.0,788440.0,0.0,1.0,0.0,?,0.0,0.0,283.0,187.0,187.0,6.0,0.0,0.0,1.0
800000.0,6.921875,1.1282679366154804E-6,800000.0,84.39999999999999,68.70084427466212,69.4716242661448,64.86486486486486,319600.0,926936.0,0.0,1.0,0.0,?,0.0,0.0,333.0,218.0,218.0,6.0,0.0,0.0,1.0
900000.0,7.828125,1.3838363682023354E-6,900000.0,84.8,69.53565931246793,69.53907815631261,68.06722689075629,359600.0,1021456.0,0.0,1.0,0.0,?,0.0,0.0,381.0,245.0,245.0,7.0,0.0,0.0,1.0
1000000.0,8.765625,1.6780683330984581E-6,1000000.0,85.0,69.99339854768048,68.6847599164927,70.58823529411764,399600.0,1159144.0,0.0,1.0,0.0,?,0.0,0.0,434.0,276.0,276.0,7.0,0.0,0.0,1.0
1100000.0,9.6875,2.0087142992350794E-6,1100000.0,85.5,70.99976799814398,71.23015873015872,71.6796875,439400.0,1270896.0,0.0,1.0,0.0,?,0.0,0.0,477.0,299.0,299.0,7.0,0.0,0.0,1.0
1200000.0,10.59375,2.34725089588513E-6,1200000.0,87.1,74.19917437357995,74.30278884462152,73.78048780487805,479400.0,1343352.0,0.0,1.0,0.0,?,0.0,0.0,507.0,317.0,317.0,7.0,0.0,0.0,1.0
1300000.0,11.53125,2.7156918076798326E-6,1300000.0,88.5,77.0167318192356,76.57841140529533,75.32188841201717,519400.0,1433320.0,0.0,1.0,0.0,?,0.0,0.0,545.0,339.0,339.0,7.0,0.0,0.0,1.0
1400000.0,12.484375,3.116260340902955E-6,1400000.0,87.6,75.1960313650184,75.68627450980392,75.39682539682539,559400.0,1553504.0,0.0,1.0,0.0,?,0.0,0.0,586.0,367.0,367.0,7.0,0.0,0.0,1.0
1500000.0,13.4375,3.531443815316178E-6,1500000.0,86.5,72.93960118985575,72.67206477732793,71.21535181236673,599400.0,1627640.0,0.0,1.0,0.0,?,0.0,0.0,613.0,382.0,382.0,7.0,0.0,0.0,1.0
1600000.0,14.375,3.966210416466413E-6,1600000.0,87.3,74.58434395587682,75.14677103718199,73.65145228215766,639200.0,1675432.0,0.0,1.0,0.0,?,0.0,0.0,645.0,401.0,401.0,8.0,0.0,0.0,1.0
1700000.0,15.34375,4.439301847014577E-6,1700000.0,88.1,76.1933341335574,76.10441767068274,76.24750499001996,679200.0,1785232.0,0.0,1.0,0.0,?,0.0,0.0,683.0,423.0,423.0,8.0,0.0,0.0,1.0
1800000.0,16.328125,4.940498329233379E-6,1800000.0,87.5,74.97918267998975,74.74747474747475,74.33264887063655,719200.0,1880432.0,0.0,1.0,0.0,?,0.0,0.0,720.0,446.0,446.0,8.0,0.0,0.0,1.0
1900000.0,17.328125,5.466875639588884E-6,1900000.0,87.7,75.39921277480879,75.4980079681275,74.26778242677824,759200.0,1961840.0,0.0,1.0,0.0,?,0.0,0.0,753.0,464.0,464.0,8.0,0.0,0.0,1.0
2000000.0,18.34375,6.01417963884564E-6,2000000.0,88.5,76.87270738142738,76.95390781563127,74.83588621444201,799200.0,2025056.0,0.0,1.0,0.0,?,0.0,0.0,782.0,480.0,480.0,8.0,0.0,0.0,1.0
2100000.0,19.328125,6.579464501959998E-6,2100000.0,88.4,76.80324754534365,77.64932562620425,76.18069815195072,839000.0,2100496.0,0.0,1.0,0.0,?,0.0,0.0,818.0,501.0,501.0,8.0,0.0,0.0,1.0
2200000.0,20.375,7.2152305316800885E-6,2200000.0,88.7,77.36958472186619,77.35470941883767,76.40918580375782,879000.0,2242864.0,0.0,1.0,0.0,?,0.0,0.0,864.0,530.0,530.0,8.0,0.0,0.0,1.0
2300000.0,21.390625,7.84779986133799E-6,2300000.0,89.4,78.65683001574563,79.05138339920948,77.00650759219089,919000.0,2317824.0,0.0,1.0,0.0,?,0.0,0.0,901.0,553.0,553.0,8.0,0.0,0.0,1.0
2400000.0,22.421875,8.516352681908757E-6,2400000.0,87.0,73.96500897205844,75.19083969465649,72.45762711864407,959000.0,2431000.0,0.0,1.0,0.0,?,0.0,0.0,936.0,575.0,575.0,8.0,0.0,0.0,1.0
2500000.0,23.453125,9.193656054170182E-6,2500000.0,87.9,75.79825747453816,77.63401109057301,75.15400410677618,999000.0,2479680.0,0.0,1.0,0.0,?,0.0,0.0,960.0,587.0,587.0,8.0,0.0,0.0,1.0
2600000.0,24.5625,9.962144378934884E-6,2600000.0,89.1,78.19616252460433,77.97979797979798,78.06841046277665,1038800.0,2557488.0,0.0,1.0,0.0,?,0.0,0.0,999.0,611.0,611.0,8.0,4144.8313458262355,0.0,1.0192156566171366
2700000.0,25.625,1.0727842875187183E-5,2700000.0,90.4,80.7908564476691,80.72289156626506,80.12422360248448,1078800.0,2680208.0,0.0,1.0,0.0,?,0.0,0.0,1050.0,644.0,644.0,8.0,4144.8313458262355,0.0,1.0192156566171366
2800000.0,26.65625,1.1493787201794073E-5,2800000.0,89.3,78.44045939955672,78.29614604462475,76.22222222222223,1118800.0,2780384.0,0.0,1.0,0.0,?,0.0,0.0,1077.0,662.0,662.0,8.0,4144.8313458262355,0.0,1.0192156566171366
2900000.0,27.71875,1.2305191000147413E-5,2900000.0,89.3,78.57222960957401,79.18287937743192,78.07377049180329,1158800.0,2876112.0,0.0,1.0,0.0,?,0.0,0.0,1122.0,689.0,689.0,9.0,4144.8313458262355,0.0,1.0192156566171366
3000000.0,28.734375,1.3086468615155254E-5,3000000.0,91.3,82.51228160452831,81.95020746887968,81.37044967880087,1198800.0,2912752.0,0.0,1.0,0.0,?,0.0,0.0,1137.0,698.0,698.0,9.0,4144.8313458262355,0.0,1.0192156566171366
3100000.0,29.765625,1.392592397880637E-5,3100000.0,89.60000000000001,79.15890135346905,79.6875,78.46790890269152,1238600.0,3024456.0,0.0,1.0,0.0,?,0.0,0.0,1174.0,724.0,724.0,9.0,4144.8313458262355,0.0,1.0192156566171366
3200000.0,30.828125,1.480730295750416E-5,3200000.0,89.5,79.00201580648259,78.95791583166333,79.20792079207921,1278600.0,3099288.0,0.0,1.0,0.0,?,0.0,0.0,1199.0,738.0,738.0,9.0,4144.8313458262355,0.0,1.0192156566171366
3300000.0,31.90625,1.5715138255877214E-5,3300000.0,90.3,80.59611922384478,80.0411522633745,79.87551867219918,1318600.0,3162624.0,0.0,1.0,0.0,?,0.0,0.0,1227.0,755.0,755.0,9.0,4144.8313458262355,0.0,1.0192156566171366
3400000.0,32.953125,1.6609108877471752E-5,3400000.0,90.5,80.99832785285106,80.57259713701433,80.57259713701433,1358600.0,3223544.0,0.0,1.0,0.0,?,0.0,0.0,1251.0,770.0,770.0,9.0,4144.8313458262355,0.0,1.0192156566171366
3500000.0,34.046875,1.7565868846658203E-5,3500000.0,89.1,78.05604767273313,77.47933884297521,76.25272331154684,1398600.0,3318840.0,0.0,1.0,0.0,?,0.0,0.0,1278.0,788.0,788.0,9.0,4144.8313458262355,0.0,1.0192156566171366
3600000.0,35.109375,1.8518201541155575E-5,3600000.0,88.8,77.57739801720135,77.18940936863544,76.71517671517671,1438400.0,3341248.0,0.0,1.0,0.0,?,0.0,0.0,1292.0,795.0,795.0,9.0,4144.8313458262355,0.0,1.0192156566171366
3700000.0,36.203125,1.950535755087104E-5,3700000.0,89.5,78.84037176459208,79.04191616766467,77.12418300653596,1478400.0,3380320.0,0.0,1.0,0.0,?,0.0,0.0,1315.0,808.0,808.0,9.0,4144.8313458262355,0.0,1.0192156566171366
3800000.0,37.3125,2.053109311317611E-5,3800000.0,90.4,80.79631289207528,80.60606060606061,80.48780487804879,1518400.0,3480488.0,0.0,1.0,0.0,?,0.0,0.0,1343.0,828.0,828.0,9.0,4144.8313458262355,0.0,1.0192156566171366
3900000.0,38.421875,2.156542478284488E-5,3900000.0,91.7,83.3504509420034,83.94584139264991,82.56302521008404,1558400.0,3525480.0,0.0,1.0,0.0,?,0.0,0.0,1365.0,842.0,842.0,9.0,4144.8313458262355,0.0,1.0192156566171366
4000000.0,39.546875,2.2626420056136945E-5,4000000.0,90.8,81.48625152939661,82.9313543599258,79.64601769911505,1598400.0,3582008.0,0.0,1.0,0.0,?,0.0,0.0,1378.0,850.0,850.0,9.0,4144.8313458262355,0.0,1.0192156566171366
4100000.0,40.671875,2.3719646075430013E-5,4100000.0,91.4,82.72648391554456,83.17025440313112,81.38528138528139,1638200.0,3631600.0,0.0,1.0,0.0,?,0.0,0.0,1402.0,865.0,865.0,9.0,4144.8313458262355,0.0,1.0192156566171366
4200000.0,41.8125,2.4847384742719842E-5,4200000.0,92.4,84.7994527803001,85.00986193293886,84.80000000000001,1678200.0,3712032.0,0.0,1.0,0.0,?,0.0,0.0,1427.0,882.0,882.0,9.0,4144.8313458262355,0.0,1.0192156566171366
4300000.0,42.90625,2.5930831098877304E-5,4300000.0,91.10000000000001,82.18517806815271,82.16432865731463,81.72484599589322,1718200.0,3734368.0,0.0,1.0,0.0,?,0.0,0.0,1437.0,887.0,887.0,9.0,4144.8313458262355,0.0,1.0192156566171366
4400000.0,44.03125,2.704310964974057E-5,4400000.0,91.0,82.00604596855457,82.49027237354086,82.95454545454545,1758200.0,3742256.0,0.0,1.0,0.0,?,0.0,0.0,1448.0,894.0,894.0,9.0,4144.8313458262355,0.0,1.0192156566171366
4500000.0,45.203125,2.821955438573948E-5,4500000.0,91.2,82.38414573115806,82.7788649706458,82.32931726907631,1798200.0,3815888.0,0.0,1.0,0.0,?,0.0,0.0,1475.0,909.0,909.0,9.0,4144.8313458262355,0.0,1.0192156566171366
4600000.0,46.34375,2.9411105982338387E-5,4600000.0,90.7,81.4007439702412,81.43712574850301,81.25000000000001,1838000.0,3912264.0,0.0,1.0,0.0,?,0.0,0.0,1522.0,940.0,940.0,9.0,4144.8313458262355,0.0,1.0192156566171366
4700000.0,47.53125,3.067383038190504E-5,4700000.0,91.4,82.78898495036825,84.04452690166977,82.00836820083683,1878000.0,3999368.0,0.0,1.0,0.0,?,0.0,0.0,1554.0,959.0,959.0,9.0,4144.8313458262355,0.0,1.0192156566171366
4800000.0,48.71875,3.196176788252261E-5,4800000.0,92.30000000000001,84.59161784010503,84.84251968503938,84.34959349593497,1918000.0,4096240.0,0.0,1.0,0.0,?,0.0,0.0,1580.0,975.0,975.0,9.0,4144.8313458262355,0.0,1.0192156566171366
4900000.0,49.890625,3.323882941104886E-5,4900000.0,92.4,84.69204832478641,84.92063492063492,83.44226579520698,1958000.0,4131296.0,0.0,1.0,0.0,?,0.0,0.0,1601.0,987.0,987.0,9.0,4144.8313458262355,0.0,1.0192156566171366
5000000.0,51.078125,3.4560321299876605E-5,5000000.0,91.9,83.74316610871607,84.14872798434443,83.01886792452831,1998000.0,4232960.0,0.0,1.0,0.0,?,0.0,0.0,1644.0,1013.0,1013.0,9.0,4144.8313458262355,0.0,1.0192156566171366
5100000.0,52.5,3.471765680135124E-5,5100000.0,91.9,83.78378378378379,83.63636363636364,83.46938775510205,37202.0,314288.0,0.0,1.0,0.0,?,2.0,5.0,100.0,76.0,76.0,4.0,0.0,0.0,1.0
5200000.0,53.3125,3.4840178236158355E-5,5200000.0,91.7,83.34590750758466,82.11206896551725,82.37791932059449,77202.0,484056.0,0.0,1.0,0.0,?,0.0,0.0,170.0,123.0,123.0,4.0,0.0,0.0,1.0
5300000.0,54.09375,3.499315281967736E-5,5300000.0,93.7,87.32873681585235,86.70886075949367,86.36363636363637,117202.0,672584.0,0.0,1.0,0.0,?,0.0,0.0,232.0,166.0,166.0,5.0,0.0,0.0,1.0
5400000.0,54.828125,3.5143610503938465E-5,5400000.0,94.8,89.59771149652923,89.40936863543787,89.4523326572008,157202.0,722672.0,0.0,1.0,0.0,?,0.0,0.0,250.0,178.0,178.0,5.0,0.0,0.0,1.0
5500000.0,55.546875,3.529559135333532E-5,5500000.0,95.1,90.16656632550671,90.42968749999999,89.68421052631578,197202.0,763064.0,0.0,1.0,0.0,?,0.0,0.0,271.0,190.0,190.0,6.0,0.0,0.0,1.0
5600000.0,56.265625,3.546935557905171E-5,5600000.0,96.0,91.99855974075332,92.46704331450094,91.6317991631799,237002.0,819176.0,0.0,1.0,0.0,?,0.0,0.0,297.0,206.0,206.0,6.0,0.0,0.0,1.0
5700000.0,56.96875,3.5644423850398104E-5,5700000.0,96.39999999999999,92.76047217809239,92.54658385093167,92.19088937093275,277002.0,862056.0,0.0,1.0,0.0,?,0.0,0.0,317.0,216.0,216.0,6.0,0.0,0.0,1.0
5800000.0,57.671875,3.582226135121245E-5,5800000.0,95.39999999999999,90.68731653001315,90.7258064516129,89.6629213483146,317002.0,892360.0,0.0,1.0,0.0,?,0.0,0.0,341.0,231.0,231.0,7.0,0.0,0.0,1.0
5900000.0,58.375,3.601316647190187E-5,5900000.0,96.8,93.59713151491867,94.02985074626865,93.058568329718,357002.0,979056.0,0.0,1.0,0.0,?,0.0,0.0,361.0,244.0,244.0,7.0,0.0,0.0,1.0
6000000.0,59.078125,3.6208729660655894E-5,6000000.0,96.5,92.99977599283177,93.02788844621513,92.88617886178862,397002.0,1019632.0,0.0,1.0,0.0,?,0.0,0.0,379.0,253.0,253.0,7.0,0.0,0.0,1.0
6100000.0,59.765625,3.641572360518492E-5,6100000.0,97.2,94.38709030770772,94.41117764471058,94.12997903563941,436802.0,1047264.0,0.0,1.0,0.0,?,0.0,0.0,392.0,261.0,261.0,7.0,0.0,0.0,1.0
6200000.0,60.46875,3.663219498573906E-5,6200000.0,96.2,92.3707954048096,92.54901960784314,91.86295503211991,476802.0,1088576.0,0.0,1.0,0.0,?,0.0,0.0,406.0,271.0,271.0,7.0,0.0,0.0,1.0
6300000.0,61.140625,3.6839088522053014E-5,6300000.0,96.7,93.3684337446244,93.06722689075629,93.27902240325865,516802.0,1103928.0,0.0,1.0,0.0,?,0.0,0.0,414.0,275.0,275.0,7.0,0.0,0.0,1.0
6400000.0,61.8125,3.7046949857742425E-5,6400000.0,96.39999999999999,92.7996543834104,92.66802443991853,92.88537549407114,556802.0,1124560.0,0.0,1.0,0.0,?,0.0,0.0,428.0,282.0,282.0,7.0,0.0,0.0,1.0
6500000.0,62.5,3.726036371921914E-5,6500000.0,97.0,94.00028798617666,93.7888198757764,93.97590361445782,596802.0,1143704.0,0.0,1.0,0.0,?,0.0,0.0,432.0,284.0,284.0,7.0,0.0,0.0,1.0
6600000.0,63.1875,3.7487062767872384E-5,6600000.0,97.2,94.3861675167613,94.54191033138402,94.06779661016948,636602.0,1157568.0,0.0,1.0,0.0,?,0.0,0.0,450.0,296.0,296.0,7.0,0.0,0.0,1.0
6700000.0,63.90625,3.773374567067044E-5,6700000.0,96.89999999999999,93.79245162117134,93.84920634920636,93.59504132231405,676602.0,1224536.0,0.0,1.0,0.0,?,0.0,0.0,465.0,305.0,305.0,7.0,0.0,0.0,1.0
6800000.0,64.65625,3.799361105646111E-5,6800000.0,96.6,93.18473380372033,93.29388560157791,92.79661016949152,716602.0,1252288.0,0.0,1.0,0.0,?,0.0,0.0,476.0,312.0,312.0,7.0,0.0,0.0,1.0
6900000.0,65.375,3.8247435586526993E-5,6900000.0,97.3,94.59727702762191,94.65346534653465,94.44444444444444,756602.0,1293032.0,0.0,1.0,0.0,?,0.0,0.0,493.0,322.0,322.0,7.0,0.0,0.0,1.0
7000000.0,66.078125,3.849579312372953E-5,7000000.0,97.3,94.59818499015668,94.66403162055336,94.27966101694915,796602.0,1308432.0,0.0,1.0,0.0,?,0.0,0.0,501.0,326.0,326.0,7.0,0.0,0.0,1.0
7100000.0,66.796875,3.876361530274153E-5,7100000.0,97.39999999999999,94.79898060019764,94.90196078431372,94.7261663286004,836402.0,1322384.0,0.0,1.0,0.0,?,0.0,0.0,509.0,330.0,330.0,7.0,0.0,0.0,1.0
7200000.0,67.515625,3.9033395070065235E-5,7200000.0,97.6,95.1995199519952,95.23809523809523,95.08196721311475,876402.0,1348008.0,0.0,1.0,0.0,?,0.0,0.0,522.0,338.0,338.0,7.0,0.0,0.0,1.0
7300000.0,68.25,3.930958220735193E-5,7300000.0,97.6,95.13902391600233,95.1417004048583,94.5945945945946,916402.0,1365928.0,0.0,1.0,0.0,?,0.0,0.0,536.0,345.0,345.0,8.0,0.0,0.0,1.0
7400000.0,68.96875,3.9582426284646825E-5,7400000.0,97.6,95.19775254819255,95.11201629327903,95.11201629327903,956402.0,1394584.0,0.0,1.0,0.0,?,0.0,0.0,550.0,352.0,352.0,8.0,0.0,0.0,1.0
7500000.0,69.6875,3.985738711586843E-5,7500000.0,97.89999999999999,95.79899175802193,95.82504970178925,95.77464788732394,996402.0,1420976.0,0.0,1.0,0.0,?,0.0,0.0,570.0,362.0,362.0,8.0,0.0,0.0,1.0
7600000.0,70.46875,4.0171862088350785E-5,7600000.0,98.3,96.58093529520606,96.49484536082474,96.2555066079295,1036202.0,1437296.0,0.0,1.0,0.0,?,0.0,0.0,576.0,365.0,365.0,8.0,3842.0495867768595,0.0,1.0186998445503719
7700000.0,71.171875,4.0458291801365295E-5,7700000.0,97.7,95.39473157291941,95.21829521829521,95.27720739219711,1076202.0,1471000.0,0.0,1.0,0.0,?,0.0,0.0,590.0,372.0,372.0,8.0,3842.0495867768595,0.0,1.0186998445503719
7800000.0,71.875,4.074519008605016E-5,7800000.0,98.5,96.98819371937996,97.07602339181285,96.82203389830508,1116202.0,1488696.0,0.0,1.0,0.0,?,0.0,0.0,601.0,379.0,379.0,8.0,3842.0495867768595,0.0,1.0186998445503719
7900000.0,72.578125,4.1034626224750854E-5,7900000.0,99.2,98.39990399423965,98.4313725490196,98.37728194726166,1156202.0,1517704.0,0.0,1.0,0.0,?,0.0,0.0,609.0,383.0,383.0,8.0,3842.0495867768595,0.0,1.0186998445503719
8000000.0,73.3125,4.1346569746060084E-5,8000000.0,98.4,96.7726970167618,96.84418145956607,96.46799116997792,1196202.0,1583416.0,0.0,1.0,0.0,?,0.0,0.0,636.0,401.0,401.0,8.0,3842.0495867768595,0.0,1.0186998445503719
8100000.0,74.046875,4.167909226250938E-5,8100000.0,98.3,96.583820976143,96.59318637274549,96.36752136752136,1236002.0,1630616.0,0.0,1.0,0.0,?,0.0,0.0,652.0,412.0,412.0,8.0,3842.0495867768595,0.0,1.0186998445503719
8200000.0,74.796875,4.203102198920937E-5,8200000.0,98.2,96.36796545531588,96.29629629629629,96.0088691796009,1276002.0,1709120.0,0.0,1.0,0.0,?,0.0,0.0,676.0,430.0,430.0,8.0,3842.0495867768595,0.0,1.0186998445503719
8300000.0,75.515625,4.236744008570288E-5,8300000.0,98.5,96.99632349996395,96.96969696969697,96.92622950819671,1316002.0,1719696.0,0.0,1.0,0.0,?,0.0,0.0,684.0,434.0,434.0,8.0,3842.0495867768595,0.0,1.0186998445503719
8400000.0,76.265625,4.272094529975826E-5,8400000.0,98.2,96.39827117016168,96.46365422396856,96.31147540983606,1356002.0,1747448.0,0.0,1.0,0.0,?,0.0,0.0,699.0,443.0,443.0,8.0,3842.0495867768595,0.0,1.0186998445503719
8500000.0,77.0,4.3066444438106066E-5,8500000.0,98.6,97.19765724145385,97.03389830508475,97.13701431492842,1396002.0,1759208.0,0.0,1.0,0.0,?,0.0,0.0,703.0,445.0,445.0,8.0,3842.0495867768595,0.0,1.0186998445503719
8600000.0,77.734375,4.342606465797871E-5,8600000.0,98.8,97.59722238908178,97.73156899810964,97.5103734439834,1435802.0,1772624.0,0.0,1.0,0.0,?,0.0,0.0,715.0,451.0,451.0,8.0,3842.0495867768595,0.0,1.0186998445503719
8700000.0,78.453125,4.3778173211548064E-5,8700000.0,97.6,95.1751617325994,95.05154639175257,94.86081370449678,1475802.0,1788496.0,0.0,1.0,0.0,?,0.0,0.0,719.0,453.0,453.0,8.0,3842.0495867768595,0.0,1.0186998445503719
8800000.0,79.171875,4.4132304804710053E-5,8800000.0,98.1,96.18865744455499,96.11451942740285,95.94882729211088,1515802.0,1814416.0,0.0,1.0,0.0,?,0.0,0.0,731.0,459.0,459.0,8.0,3842.0495867768595,0.0,1.0186998445503719
8900000.0,79.890625,4.44863218581304E-5,8900000.0,98.8,97.5996639529534,97.64243614931237,97.6608187134503,1555802.0,1828896.0,0.0,1.0,0.0,?,0.0,0.0,741.0,464.0,464.0,8.0,3842.0495867768595,0.0,1.0186998445503719
9000000.0,80.578125,4.482322805819826E-5,9000000.0,98.7,97.39781416389766,97.36842105263158,97.34693877551021,1595802.0,1834408.0,0.0,1.0,0.0,?,0.0,0.0,743.0,465.0,465.0,8.0,3842.0495867768595,0.0,1.0186998445503719
9100000.0,81.296875,4.5193194398759974E-5,9100000.0,98.6,97.18011416509222,97.0954356846473,96.88195991091314,1635602.0,1868808.0,0.0,1.0,0.0,?,0.0,0.0,762.0,479.0,479.0,8.0,3842.0495867768595,0.0,1.0186998445503719
9200000.0,82.03125,4.557347112697446E-5,9200000.0,99.0,97.99647379387723,97.88583509513742,97.91666666666666,1675602.0,1895808.0,0.0,1.0,0.0,?,0.0,0.0,768.0,482.0,482.0,9.0,3842.0495867768595,0.0,1.0186998445503719
9300000.0,82.765625,4.59511823201966E-5,9300000.0,98.9,97.79839723318575,97.6545842217484,97.73662551440329,1715602.0,1897504.0,0.0,1.0,0.0,?,0.0,0.0,768.0,482.0,482.0,9.0,3842.0495867768595,0.0,1.0186998445503719
9400000.0,83.5,4.6328173096602164E-5,9400000.0,99.2,98.39793012572244,98.37728194726166,98.33679833679834,1755602.0,1908848.0,0.0,1.0,0.0,?,0.0,0.0,772.0,484.0,484.0,9.0,3842.0495867768595,0.0,1.0186998445503719
9500000.0,84.234375,4.6704600002461424E-5,9500000.0,99.0,97.99740463640877,98.04305283757338,98.0732177263969,1795602.0,1921008.0,0.0,1.0,0.0,?,0.0,0.0,778.0,487.0,487.0,9.0,3842.0495867768595,0.0,1.0186998445503719
9600000.0,84.953125,4.7087957080091454E-5,9600000.0,98.5,96.9895235419259,97.01789264413519,96.80851063829788,1835402.0,1940432.0,0.0,1.0,0.0,?,0.0,0.0,788.0,492.0,492.0,9.0,3842.0495867768595,0.0,1.0186998445503719
9700000.0,85.6875,4.7478999024153586E-5,9700000.0,98.8,97.59073879994699,97.52577319587628,97.4304068522484,1875402.0,1952136.0,0.0,1.0,0.0,?,0.0,0.0,796.0,496.0,496.0,9.0,3842.0495867768595,0.0,1.0186998445503719
9800000.0,86.40625,4.786087154772961E-5,9800000.0,98.1,96.17120748025148,96.20758483033931,95.80573951434879,1915402.0,1962688.0,0.0,1.0,0.0,?,0.0,0.0,804.0,500.0,500.0,9.0,3842.0495867768595,0.0,1.0186998445503719
9900000.0,87.140625,4.825018388348528E-5,9900000.0,99.2,98.39661364802463,98.43444227005871,98.31932773109243,1955402.0,1973272.0,0.0,1.0,0.0,?,0.0,0.0,812.0,504.0,504.0,9.0,3842.0495867768595,0.0,1.0186998445503719
1.0E7,87.84375,4.8622237065703503E-5,1.0E7,98.2,96.39896290131557,96.42147117296223,96.27329192546583,1995402.0,1984584.0,0.0,1.0,0.0,?,0.0,0.0,820.0,508.0,508.0,9.0,3842.0495867768595,0.0,1.0186998445503719
