learning evaluation instances,evaluation time (cpu seconds),model cost (RAM-Hours),classified instances,classifications correct (percent),Kappa Statistic (percent),Kappa Temporal Statistic (percent),Kappa M Statistic (percent),model training instances,model serialized size (bytes),labeling cost,newThreshold,maxPosterior,accuracyBaseLearner (percent),Change detected,Warning detected
100000.0,0.21875,5.695748970740371E-9,100000.0,87.9,68.66940787770194,70.34313725490196,57.0921985815603,9900.0,1112.0,0.0,1.0,0.0,?,0.0,3.0
200000.0,0.46875,1.1584294649461904E-8,200000.0,89.4,73.18207348111866,74.94089834515367,63.82252559726963,19900.0,1112.0,0.0,1.0,0.0,?,0.0,0.0
300000.0,0.6875,1.62034605940183E-8,300000.0,87.5,68.41232778401108,70.93023255813954,58.4717607973422,29900.0,1112.0,0.0,1.0,0.0,?,0.0,1.0
400000.0,0.90625,2.0279355036715665E-8,400000.0,84.6,60.21802588411562,63.42042755344418,46.34146341463414,39900.0,1112.0,0.0,1.0,0.0,?,0.0,0.0
500000.0,1.109375,2.3559647767494122E-8,500000.0,87.6,68.57019745013055,70.61611374407583,58.803986710963464,49900.0,1112.0,0.0,1.0,0.0,?,0.0,0.0
600000.0,1.34375,2.6762524309257665E-8,600000.0,86.0,63.69294605809128,67.5925925925926,53.333333333333336,59900.0,1112.0,0.0,1.0,0.0,?,0.0,0.0
700000.0,1.5625,2.9208604246377942E-8,700000.0,87.8,68.13373383831787,68.63753213367609,57.491289198606275,69900.0,1112.0,0.0,1.0,0.0,?,0.0,0.0
800000.0,1.765625,3.0975497793406247E-8,800000.0,87.2,66.26625413106615,66.75324675324676,55.400696864111495,79900.0,1112.0,0.0,1.0,0.0,?,0.0,0.0
900000.0,2.0,3.243214450776577E-8,900000.0,86.8,65.46870994239555,68.11594202898551,54.325259515570934,89900.0,1112.0,0.0,1.0,0.0,?,0.0,0.0
1000000.0,2.21875,3.324840993930896E-8,1000000.0,87.2,65.06073427050634,66.83937823834198,53.45454545454545,99900.0,1112.0,0.0,1.0,0.0,?,0.0,0.0
1100000.0,2.4375,3.8959551602602E-8,1100000.0,86.6,67.34335778519728,70.8695652173913,57.728706624605664,109800.0,1112.0,0.0,1.0,0.0,?,0.0,0.0
1200000.0,2.671875,4.449655534699559E-8,1200000.0,88.8,70.75412575725925,72.6829268292683,60.00000000000001,119800.0,1112.0,0.0,1.0,0.0,?,0.0,0.0
1300000.0,2.890625,4.9121154006570577E-8,1300000.0,90.10000000000001,74.38975176167466,76.37231503579953,66.21160409556315,129800.0,1112.0,0.0,1.0,0.0,?,0.0,0.0
1400000.0,3.125,5.3494004532694816E-8,1400000.0,87.6,69.52373462054592,69.75609756097562,60.383386581469644,139800.0,1112.0,0.0,1.0,0.0,?,0.0,0.0
1500000.0,3.34375,5.703206018855174E-8,1500000.0,87.8,68.2392573192892,69.34673366834171,56.8904593639576,149800.0,1112.0,0.0,1.0,0.0,?,0.0,0.0
1600000.0,3.578125,6.024075749640663E-8,1600000.0,87.8,68.30707843218754,70.88305489260144,58.7837837837838,159800.0,1112.0,0.0,1.0,0.0,?,0.0,0.0
1700000.0,3.796875,6.26922701485455E-8,1700000.0,86.6,65.82818205928555,67.6328502415459,56.209150326797385,169800.0,1112.0,0.0,1.0,0.0,?,0.0,43.0
1800000.0,4.015625,6.460051129882533E-8,1800000.0,87.1,66.48201461280232,67.91044776119402,54.89510489510489,179800.0,1112.0,0.0,1.0,0.0,?,0.0,0.0
1900000.0,4.265625,6.616047661130626E-8,1900000.0,86.8,66.38364411484568,69.1588785046729,55.85284280936455,189800.0,1112.0,0.0,1.0,0.0,?,0.0,0.0
2000000.0,4.484375,6.698217475786803E-8,2000000.0,87.1,64.14834248615959,65.13513513513513,51.13636363636363,199800.0,1112.0,0.0,1.0,0.0,?,0.0,0.0
2100000.0,4.703125,7.269874913617967E-8,2100000.0,88.4,70.89157110235628,72.57683215130024,61.461794019933556,209700.0,1112.0,0.0,1.0,0.0,?,0.0,0.0
2200000.0,4.9375,7.82415736466646E-8,2200000.0,88.3,68.29440138745868,70.96774193548387,57.913669064748206,219700.0,1112.0,0.0,1.0,0.0,?,0.0,0.0
2300000.0,5.15625,8.287160502125817E-8,2300000.0,86.3,65.88475521689328,67.30310262529832,55.80645161290323,229700.0,1112.0,0.0,1.0,0.0,?,0.0,0.0
2400000.0,5.390625,8.725027631347375E-8,2400000.0,87.3,66.32407377944654,65.67567567567568,54.48028673835126,239700.0,1112.0,0.0,1.0,0.0,?,0.0,0.0
2500000.0,5.609375,9.079376468434926E-8,2500000.0,87.4,66.91784598419409,70.07125890736341,56.70103092783506,249700.0,1112.0,0.0,1.0,0.0,?,0.0,0.0
2600000.0,5.84375,9.40082827582955E-8,2600000.0,86.3,66.57721395462308,67.61229314420804,58.48484848484847,259700.0,1112.0,0.0,1.0,0.0,?,0.0,0.0
2700000.0,6.0625,9.646522812545296E-8,2700000.0,88.8,71.7741935483871,74.6606334841629,62.66666666666667,269700.0,1112.0,0.0,1.0,0.0,?,0.0,0.0
2800000.0,6.296875,9.851559298112984E-8,2800000.0,88.2,67.29490022172949,70.20202020202021,55.97014925373135,279700.0,1112.0,0.0,1.0,0.0,?,0.0,0.0
2900000.0,6.5,9.978810946146643E-8,2900000.0,86.9,66.11800246226426,67.81326781326781,56.18729096989967,289700.0,1112.0,0.0,1.0,0.0,?,0.0,0.0
3000000.0,6.71875,1.006152403230468E-7,3000000.0,86.9,66.68531610803112,69.7459584295612,57.741935483870975,299700.0,1112.0,0.0,1.0,0.0,?,0.0,0.0
3100000.0,6.953125,1.0674596220875776E-7,3100000.0,87.3,68.48416267135185,68.87254901960785,58.89967637540454,309600.0,1112.0,0.0,1.0,0.0,?,0.0,0.0
3200000.0,7.171875,1.1192469780022895E-7,3200000.0,85.7,64.57344445215185,66.58878504672897,54.45859872611464,319600.0,1112.0,0.0,1.0,0.0,?,0.0,0.0
3300000.0,7.40625,1.1689126646767056E-7,3300000.0,86.7,65.27777777777777,66.66666666666666,53.333333333333336,329600.0,1112.0,0.0,1.0,0.0,?,0.0,0.0
3400000.0,7.625,1.209834590554237E-7,3400000.0,87.9,67.09273864563502,70.91346153846155,56.00000000000001,339600.0,1112.0,0.0,1.0,0.0,?,0.0,0.0
3500000.0,7.859375,1.2478587450459596E-7,3500000.0,86.8,64.4700929699234,65.44502617801047,51.64835164835166,349600.0,1112.0,0.0,1.0,0.0,?,0.0,0.0
3600000.0,8.078125,1.2779152408863104E-7,3600000.0,86.2,64.86761710794298,68.56492027334852,54.0,359600.0,1112.0,0.0,1.0,0.0,?,0.0,0.0
3700000.0,8.296875,1.302539021708071E-7,3700000.0,87.8,67.95545282622399,69.5,57.931034482758626,369600.0,1112.0,0.0,1.0,0.0,?,0.0,0.0
3800000.0,8.515625,1.321730087511241E-7,3800000.0,86.8,66.86281204185327,69.23076923076923,56.86274509803923,379600.0,1112.0,0.0,1.0,0.0,?,0.0,0.0
3900000.0,8.734375,1.335488438295821E-7,3900000.0,87.6,68.60314373683357,69.82968369829685,59.21052631578948,389600.0,1112.0,0.0,1.0,0.0,?,0.0,0.0
4000000.0,8.96875,1.3444087623308097E-7,4000000.0,86.7,66.42872287794191,70.11235955056179,55.369127516778526,399600.0,1112.0,0.0,1.0,0.0,?,0.0,0.0
4100000.0,9.1875,1.4016831604142978E-7,4100000.0,86.3,64.95625927252263,66.98795180722892,53.559322033898304,409500.0,1112.0,0.0,1.0,0.0,?,0.0,0.0
4200000.0,9.40625,1.4535248434791958E-7,4200000.0,86.9,67.17285621209844,67.33167082294264,55.442176870748305,419500.0,1112.0,0.0,1.0,0.0,?,0.0,0.0
4300000.0,9.640625,1.5032487378145254E-7,4300000.0,85.39999999999999,63.25028569127219,65.15513126491646,50.841750841750844,429500.0,1112.0,0.0,1.0,0.0,?,0.0,0.0
4400000.0,9.859375,1.5442249908422426E-7,4400000.0,88.4,71.29906375566597,71.84466019417476,61.58940397350994,439500.0,1112.0,0.0,1.0,0.0,?,0.0,0.0
4500000.0,10.09375,1.5823073529948788E-7,4500000.0,86.6,65.67693284973669,66.33165829145729,54.421768707483,449500.0,1112.0,0.0,1.0,0.0,?,0.0,18.0
4600000.0,10.296875,1.6102674029146627E-7,4600000.0,86.8,66.6437553066753,69.23076923076923,56.57894736842106,459500.0,1112.0,0.0,1.0,0.0,?,0.0,14.0
4700000.0,10.53125,1.6367082328846054E-7,4700000.0,87.9,68.75516443563046,71.86046511627907,58.56164383561645,469500.0,1112.0,0.0,1.0,0.0,?,0.0,111.0
4800000.0,10.75,1.6559536258379616E-7,4800000.0,88.3,69.77993594379586,70.8955223880597,58.65724381625442,479500.0,1112.0,0.0,1.0,0.0,?,0.0,0.0
4900000.0,10.984375,1.6707529236252108E-7,4900000.0,89.3,72.4434188703347,75.45871559633028,62.587412587412594,489500.0,1112.0,0.0,1.0,0.0,?,0.0,0.0
5000000.0,11.203125,1.6795584492178426E-7,5000000.0,88.2,69.33424117839677,70.71960297766749,59.169550173010386,499500.0,1112.0,0.0,1.0,0.0,?,0.0,0.0
5100000.0,11.4375,1.741438043407268E-7,5100000.0,76.7,51.32000100284976,53.212851405622494,48.3370288248337,41875.0,1112.0,0.0,1.0,0.0,?,1.0,9.0
5200000.0,11.65625,1.793759616298808E-7,5200000.0,79.0,57.869395124887156,58.49802371541502,56.9672131147541,51875.0,1112.0,0.0,1.0,0.0,?,0.0,0.0
5300000.0,11.890625,1.8439976783055399E-7,5300000.0,81.10000000000001,61.11655159360419,61.66328600405681,58.643326039387325,61875.0,1112.0,0.0,1.0,0.0,?,0.0,0.0
5400000.0,12.09375,1.8824926680988737E-7,5400000.0,82.3,64.02906938934771,66.0919540229885,62.260127931769716,71875.0,1112.0,0.0,1.0,0.0,?,0.0,0.0
5500000.0,12.3125,1.918516095934643E-7,5500000.0,83.39999999999999,66.20479891855356,66.05316973415131,64.14686825053994,81875.0,1112.0,0.0,1.0,0.0,?,0.0,0.0
5600000.0,12.5,1.9447367069207962E-7,5600000.0,84.7,69.01479189281142,69.27710843373494,67.58474576271186,91875.0,1112.0,0.0,1.0,0.0,?,0.0,0.0
5700000.0,12.734375,1.971691704562141E-7,5700000.0,87.1,73.2684592685919,72.66949152542372,69.85981308411215,101875.0,1112.0,0.0,1.0,0.0,?,0.0,0.0
5800000.0,12.953125,1.9914169873421394E-7,5800000.0,85.39999999999999,70.32182524840225,69.58333333333333,68.39826839826839,111875.0,1112.0,0.0,1.0,0.0,?,0.0,0.0
5900000.0,13.1875,2.0067304528007908E-7,5900000.0,86.8,72.90862819144569,73.91304347826086,70.13574660633483,121875.0,1112.0,0.0,1.0,0.0,?,0.0,0.0
6000000.0,13.40625,2.0155903055436084E-7,6000000.0,86.9,73.21567312489266,73.74749498997996,70.62780269058295,131875.0,1112.0,0.0,1.0,0.0,?,0.0,0.0
6100000.0,13.640625,2.0775281073939472E-7,6100000.0,87.4,74.54185440365305,76.40449438202246,72.66811279826464,141775.0,1112.0,0.0,1.0,0.0,?,0.0,0.0
6200000.0,13.859375,2.1299040074356732E-7,6200000.0,87.2,74.16323185673512,73.05263157894737,72.82377919320594,151775.0,1112.0,0.0,1.0,0.0,?,0.0,0.0
6300000.0,14.09375,2.1802002771033184E-7,6300000.0,88.4,76.49995137920975,76.70682730923694,74.89177489177489,161775.0,1112.0,0.0,1.0,0.0,?,0.0,0.0
6400000.0,14.3125,2.2217107471078636E-7,6400000.0,86.9,73.5545865633075,72.76507276507276,72.1868365180467,171775.0,1112.0,0.0,1.0,0.0,?,0.0,0.0
6500000.0,14.546875,2.2603654845928154E-7,6500000.0,86.7,72.97319265846244,73.23943661971832,70.64017660044149,181775.0,1112.0,0.0,1.0,0.0,?,0.0,0.0
6600000.0,14.765625,2.29101052456018E-7,6600000.0,87.3,74.1034069313149,75.14677103718199,71.71492204899776,191775.0,1112.0,0.0,1.0,0.0,?,0.0,0.0
6700000.0,15.0,2.3180237298624384E-7,6700000.0,86.5,72.82652453261622,74.03846153846155,71.81628392484342,201775.0,1112.0,0.0,1.0,0.0,?,0.0,0.0
6800000.0,15.203125,2.3363905105118953E-7,6800000.0,86.8,73.257698541329,72.09302325581395,70.66666666666667,211775.0,1112.0,0.0,1.0,0.0,?,0.0,0.0
6900000.0,15.4375,2.35176218363146E-7,6900000.0,88.0,75.66130268820912,75.20661157024794,73.39246119733924,221775.0,1112.0,0.0,1.0,0.0,?,0.0,0.0
7000000.0,15.65625,2.3606763635244636E-7,7000000.0,86.7,72.35501974641446,71.0239651416122,67.32186732186733,231775.0,1112.0,0.0,1.0,0.0,?,0.0,0.0
7100000.0,15.890625,2.4226723730357157E-7,7100000.0,87.9,75.6760451259619,76.99619771863118,74.47257383966245,241675.0,1112.0,0.0,1.0,0.0,?,0.0,0.0
7200000.0,16.109375,2.4751026002276275E-7,7200000.0,88.1,75.71924097123036,75.66462167689161,73.25842696629213,251675.0,1112.0,0.0,1.0,0.0,?,0.0,0.0
7300000.0,16.34375,2.525457077556186E-7,7300000.0,86.4,72.59953822162943,70.94017094017093,71.00213219616204,261675.0,1112.0,0.0,1.0,0.0,?,0.0,0.0
7400000.0,16.5625,2.5670218747109173E-7,7400000.0,86.7,72.65175193288368,73.13131313131312,68.92523364485982,271675.0,1112.0,0.0,1.0,0.0,?,0.0,0.0
7500000.0,16.796875,2.6057348198567825E-7,7500000.0,86.7,72.59178660335988,73.66336633663366,68.63207547169812,281675.0,1112.0,0.0,1.0,0.0,?,0.0,0.0
7600000.0,17.015625,2.6364341869743333E-7,7600000.0,86.2,72.44937072765603,72.83464566929133,72.72727272727273,291675.0,1112.0,0.0,1.0,0.0,?,0.0,0.0
7700000.0,17.25,2.663505599937505E-7,7700000.0,88.7,77.13346769950543,78.79924953095686,75.05518763796908,301675.0,1112.0,0.0,1.0,0.0,?,0.0,0.0
7800000.0,17.46875,2.683339537017875E-7,7800000.0,88.5,76.05583363176788,76.33744855967079,71.74447174447175,311675.0,1112.0,0.0,1.0,0.0,?,0.0,0.0
7900000.0,17.703125,2.6987694177983533E-7,7900000.0,86.4,72.52802747197252,71.78423236514523,70.87794432548179,321675.0,1112.0,0.0,1.0,0.0,?,0.0,0.0
8000000.0,17.921875,2.7077379248415427E-7,8000000.0,87.9,75.65313973890507,76.81992337164752,74.3099787685775,331675.0,1112.0,0.0,1.0,0.0,?,0.0,0.0
8100000.0,18.15625,2.7697921420137085E-7,8100000.0,87.3,74.3560749852598,73.43096234309623,72.33115468409585,341575.0,1112.0,0.0,1.0,0.0,?,0.0,0.0
8200000.0,18.375,2.822276696355806E-7,8200000.0,86.7,73.14867156585642,73.81889763779527,71.33620689655173,351575.0,1112.0,0.0,1.0,0.0,?,0.0,0.0
8300000.0,18.609375,2.8726893813452785E-7,8300000.0,87.9,75.49595379468444,76.59574468085107,73.28918322295806,361575.0,1112.0,0.0,1.0,0.0,?,0.0,0.0
8400000.0,18.828125,2.9143085056501954E-7,8400000.0,88.5,76.65088401783467,77.04590818363273,74.89082969432314,371575.0,1112.0,0.0,1.0,0.0,?,0.0,0.0
8500000.0,19.046875,2.950494914936522E-7,8500000.0,87.3,73.98884182758084,73.15010570824523,70.73732718894009,381575.0,1112.0,0.0,1.0,0.0,?,0.0,0.0
8600000.0,19.265625,2.981248609204259E-7,8600000.0,86.7,73.11175804625586,73.18548387096774,71.08695652173913,391575.0,1112.0,0.0,1.0,0.0,?,0.0,0.0
8700000.0,19.5,3.0083782298283443E-7,8700000.0,87.2,73.57119259993392,74.08906882591093,70.23255813953489,401575.0,1112.0,0.0,1.0,0.0,?,0.0,0.0
8800000.0,19.71875,3.0282664940589E-7,8800000.0,88.5,76.70970982323682,77.0,74.94553376906318,411575.0,1112.0,0.0,1.0,0.0,?,0.0,0.0
8900000.0,19.9375,3.042722043270866E-7,8900000.0,88.6,76.96411251212415,77.86407766990293,75.21739130434783,421575.0,1112.0,0.0,1.0,0.0,?,0.0,0.0
9000000.0,20.15625,3.051744877464241E-7,9000000.0,87.8,75.3850623645674,76.44787644787645,73.6501079913607,431575.0,1112.0,0.0,1.0,0.0,?,0.0,0.0
9100000.0,20.375,3.1097164739751153E-7,9100000.0,87.1,73.94002569634675,74.04426559356136,71.77242888402625,441475.0,1112.0,0.0,1.0,0.0,?,0.0,0.0
9200000.0,20.59375,3.162255355467399E-7,9200000.0,87.0,73.75020696952197,73.94789579158316,71.8004338394794,451475.0,1112.0,0.0,1.0,0.0,?,0.0,0.0
9300000.0,20.8125,3.209361521941092E-7,9300000.0,86.3,72.25844598699183,72.92490118577075,69.0744920993228,461475.0,1112.0,0.0,1.0,0.0,?,0.0,0.0
9400000.0,21.046875,3.254011648500131E-7,9400000.0,88.0,75.63985968559179,75.80645161290323,72.97297297297297,471475.0,1112.0,0.0,1.0,0.0,?,0.0,0.0
9500000.0,21.25,3.2876637609054643E-7,9500000.0,89.2,78.189308722257,78.22580645161291,76.77419354838709,481475.0,1112.0,0.0,1.0,0.0,?,0.0,0.0
9600000.0,21.484375,3.3206723552818096E-7,9600000.0,87.0,73.8299996779077,73.68421052631578,72.86012526096033,491475.0,1112.0,0.0,1.0,0.0,?,0.0,0.0
9700000.0,21.703125,3.346047661681142E-7,9700000.0,88.6,76.62784976217813,77.99227799227799,73.61111111111111,501475.0,1112.0,0.0,1.0,0.0,?,0.0,0.0
9800000.0,21.9375,3.367414723874794E-7,9800000.0,88.5,76.77049246555973,77.36220472440945,75.10822510822511,511475.0,1112.0,0.0,1.0,0.0,?,0.0,0.0
9900000.0,22.15625,3.3819246002369455E-7,9900000.0,89.2,78.30340676692636,79.58412098298678,77.45302713987473,521475.0,1112.0,0.0,1.0,0.0,?,0.0,0.0
1.0E7,22.390625,3.391650130247904E-7,1.0E7,88.3,76.30427738172392,76.02459016393442,74.11504424778761,531475.0,1112.0,0.0,1.0,0.0,?,0.0,0.0
