learning evaluation instances,evaluation time (cpu seconds),model cost (RAM-Hours),classified instances,classifications correct (percent),Kappa Statistic (percent),Kappa Temporal Statistic (percent),Kappa M Statistic (percent),model training instances,model serialized size (bytes),labeling cost,newThreshold,maxPosterior,accuracyBaseLearner (percent),Change detected,Warning detected
100000.0,0.171875,4.475231334153149E-9,100000.0,89.4,78.00638229887252,78.00829875518673,73.95577395577396,19800.0,1112.0,0.0,1.0,0.0,?,0.0,7.0
200000.0,0.390625,9.62770880303449E-9,200000.0,90.4,80.49985374890312,79.9163179916318,78.57142857142857,39800.0,1112.0,0.0,1.0,0.0,?,0.0,0.0
300000.0,0.59375,1.3907685772412352E-8,300000.0,89.4,78.05564756541902,78.96825396825398,74.76190476190477,59800.0,1112.0,0.0,1.0,0.0,?,0.0,0.0
400000.0,0.765625,1.710234856646922E-8,400000.0,88.0,75.40005657986987,76.47058823529413,72.2863741339492,79800.0,1112.0,0.0,1.0,0.0,?,0.0,0.0
500000.0,0.96875,2.0373392746680314E-8,500000.0,88.2,75.52628849942964,75.51867219917013,71.56626506024097,99800.0,1112.0,0.0,1.0,0.0,?,0.0,0.0
600000.0,1.171875,2.3139970532308023E-8,600000.0,87.9,75.03816478937163,75.05154639175258,71.86046511627907,119800.0,1112.0,0.0,1.0,0.0,?,0.0,0.0
700000.0,1.390625,2.557609049189422E-8,700000.0,89.9,78.80555672136651,77.89934354485777,74.62311557788945,139800.0,1112.0,0.0,1.0,0.0,?,0.0,0.0
800000.0,1.59375,2.733373548835516E-8,800000.0,88.5,76.26223011187714,75.58386411889597,73.00469483568077,159800.0,1112.0,0.0,1.0,0.0,?,0.0,0.0
900000.0,1.796875,2.8586914090232718E-8,900000.0,88.5,76.02168473728106,76.90763052208835,72.28915662650603,179800.0,1112.0,0.0,1.0,0.0,?,0.0,0.0
1000000.0,2.0,2.933562629752689E-8,1000000.0,89.8,78.66608660732214,79.01234567901236,74.75247524752476,199800.0,1112.0,0.0,1.0,0.0,?,0.0,0.0
1100000.0,2.1875,3.4222353456748855E-8,1100000.0,88.9,77.35488767208246,78.81679389312978,74.59954233409611,219600.0,1112.0,0.0,1.0,0.0,?,0.0,0.0
1200000.0,2.375,3.8643419328663086E-8,1200000.0,90.5,80.61382744265775,79.6137339055794,78.40909090909092,239600.0,1112.0,0.0,1.0,0.0,?,0.0,0.0
1300000.0,2.5625,4.259882391326958E-8,1300000.0,90.8,81.0723734832182,81.18609406952966,78.65429234338748,259600.0,1112.0,0.0,1.0,0.0,?,0.0,0.0
1400000.0,2.765625,4.637937915200989E-8,1400000.0,88.8,77.07173272191288,76.56903765690377,74.54545454545455,279600.0,1112.0,0.0,1.0,0.0,?,0.0,0.0
1500000.0,2.953125,4.94034611620009E-8,1500000.0,89.5,78.14612541210164,78.30578512396694,74.51456310679613,299600.0,1112.0,0.0,1.0,0.0,?,0.0,0.0
1600000.0,3.15625,5.217508361157444E-8,1600000.0,90.10000000000001,79.30515489778001,79.58762886597938,75.61576354679804,319600.0,1112.0,0.0,1.0,0.0,?,0.0,0.0
1700000.0,3.359375,5.44422396665646E-8,1700000.0,88.5,76.57764815146726,77.36220472440945,74.50110864745011,339600.0,1112.0,0.0,1.0,0.0,?,0.0,0.0
1800000.0,3.546875,5.60693378146324E-8,1800000.0,88.9,76.97821433904662,76.1802575107296,72.79411764705883,359600.0,1112.0,0.0,1.0,0.0,?,0.0,0.0
1900000.0,3.75,5.7327561080455786E-8,1900000.0,89.8,78.90330266728441,78.83817427385893,75.36231884057972,379600.0,1112.0,0.0,1.0,0.0,?,0.0,0.0
2000000.0,3.9375,5.80233366539081E-8,2000000.0,88.1,74.55089820359282,72.95454545454545,68.6842105263158,399600.0,1112.0,0.0,1.0,0.0,?,0.0,0.0
2100000.0,4.140625,6.33223357403444E-8,2100000.0,90.60000000000001,80.82915925666086,81.85328185328186,78.53881278538813,419400.0,1112.0,0.0,1.0,0.0,?,0.0,0.0
2200000.0,4.34375,6.811686843219732E-8,2200000.0,90.0,78.88807725274772,78.40172786177106,75.06234413965089,439400.0,1112.0,0.0,1.0,0.0,?,0.0,0.0
2300000.0,4.53125,7.207692962967688E-8,2300000.0,87.5,74.3511876426074,73.17596566523605,71.06481481481481,459400.0,1112.0,0.0,1.0,0.0,?,0.0,0.0
2400000.0,4.734375,7.586252953236302E-8,2400000.0,89.0,76.81672567863767,77.17842323651453,71.7948717948718,479400.0,1112.0,0.0,1.0,0.0,?,0.0,0.0
2500000.0,4.921875,7.88912681552271E-8,2500000.0,87.9,74.56337293879233,75.65392354124748,69.52141057934509,499400.0,1112.0,0.0,1.0,0.0,?,0.0,0.0
2600000.0,5.125,8.166793526874648E-8,2600000.0,88.9,77.5465454045263,77.75551102204409,76.1802575107296,519400.0,1112.0,0.0,1.0,0.0,?,0.0,0.0
2700000.0,5.3125,8.376535131699509E-8,2700000.0,90.4,80.23064250411862,81.78368121442125,77.14285714285715,539400.0,1112.0,0.0,1.0,0.0,?,0.0,0.0
2800000.0,5.53125,8.566906520475944E-8,2800000.0,90.3,79.11589172989312,79.09482758620689,74.06417112299467,559400.0,1112.0,0.0,1.0,0.0,?,0.0,0.0
2900000.0,5.734375,8.693233313452866E-8,2900000.0,89.0,77.15330134795522,77.03549060542798,73.49397590361446,579400.0,1112.0,0.0,1.0,0.0,?,0.0,0.0
3000000.0,5.921875,8.763276532085405E-8,3000000.0,89.3,78.1591645778391,79.38342967244701,75.7918552036199,599400.0,1112.0,0.0,1.0,0.0,?,0.0,0.0
3100000.0,6.125,9.293680907123619E-8,3100000.0,87.9,75.0959116131263,74.47257383966245,71.4622641509434,619200.0,1112.0,0.0,1.0,0.0,?,0.0,0.0
3200000.0,6.328125,9.773638642703494E-8,3200000.0,88.1,75.55223193741372,76.2,72.38979118329468,639200.0,1112.0,0.0,1.0,0.0,?,0.0,0.0
3300000.0,6.515625,1.0170110423738757E-7,3300000.0,88.6,76.32024992522184,76.8762677484787,72.46376811594203,659200.0,1112.0,0.0,1.0,0.0,?,0.0,0.0
3400000.0,6.703125,1.0520016076043247E-7,3400000.0,90.2,79.58469435370976,80.4780876494024,76.77725118483413,679200.0,1112.0,0.0,1.0,0.0,?,0.0,0.0
3500000.0,6.90625,1.0848633893248107E-7,3500000.0,87.8,74.5052556788498,73.53579175704989,69.87654320987654,699200.0,1112.0,0.0,1.0,0.0,?,0.0,0.0
3600000.0,7.09375,1.1105407288091049E-7,3600000.0,87.8,74.96727278696329,75.25354969574036,71.56177156177156,719200.0,1112.0,0.0,1.0,0.0,?,0.0,0.0
3700000.0,7.296875,1.1333131826379232E-7,3700000.0,89.2,77.11864406779661,77.59336099585063,73.00000000000001,739200.0,1112.0,0.0,1.0,0.0,?,0.0,0.0
3800000.0,7.5,1.1510409725209076E-7,3800000.0,89.4,78.27521612060944,78.75751503006012,75.85421412300684,759200.0,1112.0,0.0,1.0,0.0,?,0.0,0.0
3900000.0,7.6875,1.1627484733859696E-7,3900000.0,90.4,80.13541028654672,80.9145129224652,77.03349282296652,779200.0,1112.0,0.0,1.0,0.0,?,0.0,0.0
4000000.0,7.875,1.1697993613779542E-7,4000000.0,88.9,77.23095605369392,77.11340206185568,74.12587412587413,799200.0,1112.0,0.0,1.0,0.0,?,0.0,0.0
4100000.0,8.078125,1.222890245521234E-7,4100000.0,87.6,74.52407269679127,74.53798767967146,71.36258660508084,819000.0,1112.0,0.0,1.0,0.0,?,0.0,0.0
4200000.0,8.28125,1.2709364657186797E-7,4200000.0,88.0,75.2249369268186,75.4601226993865,71.49643705463184,839000.0,1112.0,0.0,1.0,0.0,?,0.0,0.0
4300000.0,8.46875,1.3106302099509368E-7,4300000.0,87.1,73.38494041527746,74.04426559356136,68.76513317191284,859000.0,1112.0,0.0,1.0,0.0,?,0.0,0.0
4400000.0,8.65625,1.3456673413101165E-7,4400000.0,88.7,76.68891877841683,77.1255060728745,72.9665071770335,879000.0,1112.0,0.0,1.0,0.0,?,0.0,0.0
4500000.0,8.859375,1.3785795696700607E-7,4500000.0,89.7,78.77304052494478,78.71900826446281,75.990675990676,899000.0,1112.0,0.0,1.0,0.0,?,0.0,0.0
4600000.0,9.046875,1.4043034752830857E-7,4600000.0,88.5,76.46008859194485,77.04590818363273,73.80410022779044,919000.0,1112.0,0.0,1.0,0.0,?,0.0,0.0
4700000.0,9.25,1.4271263757513624E-7,4700000.0,88.8,76.57423249237617,78.08219178082192,72.74939172749392,939000.0,1112.0,0.0,1.0,0.0,?,0.0,0.0
4800000.0,9.4375,1.4435370556182325E-7,4800000.0,90.5,80.3744959344219,80.84677419354838,77.21822541966428,959000.0,1112.0,0.0,1.0,0.0,?,0.0,0.0
4900000.0,9.640625,1.4562706281948415E-7,4900000.0,91.0,81.57700810611644,82.65895953757226,79.06976744186048,979000.0,1112.0,0.0,1.0,0.0,?,0.0,0.0
5000000.0,9.828125,1.463686284195217E-7,5000000.0,89.8,78.97011281915947,78.70563674321504,75.82938388625593,999000.0,1112.0,0.0,1.0,0.0,?,0.0,0.0
5100000.0,10.015625,1.5131433934180266E-7,5100000.0,89.9,73.90693300540464,75.24509803921569,64.18439716312058,15476.0,1112.0,0.0,1.0,0.0,?,5.0,46.0
5200000.0,10.21875,1.5616772644635697E-7,5200000.0,91.3,78.19461432037377,79.38388625592418,70.30716723549489,35476.0,1112.0,0.0,1.0,0.0,?,0.0,0.0
5300000.0,10.421875,1.605166471563279E-7,5300000.0,89.3,73.16950852557673,75.05827505827507,64.33333333333334,55476.0,1112.0,0.0,1.0,0.0,?,0.0,0.0
5400000.0,10.625,1.6436110147171545E-7,5400000.0,87.8,68.82745228300585,70.95238095238095,57.491289198606275,75476.0,1112.0,0.0,1.0,0.0,?,0.0,0.0
5500000.0,10.8125,1.6744416724476544E-7,5500000.0,88.3,70.55240664861219,72.27488151658768,61.129568106312306,95476.0,1112.0,0.0,1.0,0.0,?,0.0,0.0
5600000.0,11.015625,1.7027968877098622E-7,5600000.0,88.0,69.25079563566293,72.15777262180974,59.86622073578596,115476.0,1112.0,0.0,1.0,0.0,?,0.0,0.0
5700000.0,11.21875,1.7261074390262362E-7,5700000.0,89.4,72.67083307551101,72.75064267352185,62.93706293706295,135476.0,1112.0,0.0,1.0,0.0,?,0.0,0.0
5800000.0,11.421875,1.7443733263967762E-7,5800000.0,88.4,69.70092725610552,69.94818652849742,59.581881533101054,155476.0,1112.0,0.0,1.0,0.0,?,0.0,0.0
5900000.0,11.609375,1.7565775326349665E-7,5900000.0,88.6,70.43859785602041,72.46376811594203,60.55363321799309,175476.0,1112.0,0.0,1.0,0.0,?,0.0,0.0
6000000.0,11.796875,1.7641251260000795E-7,6000000.0,89.60000000000001,72.0917751241111,73.05699481865285,62.181818181818194,195476.0,1112.0,0.0,1.0,0.0,?,0.0,0.0
6100000.0,12.0,1.8177541076309148E-7,6100000.0,88.2,71.40364482357504,74.40347071583514,62.893081761006286,215276.0,1112.0,0.0,1.0,0.0,?,0.0,0.0
6200000.0,12.203125,1.8663384253159162E-7,6200000.0,90.4,75.16042227282136,76.58536585365854,65.71428571428572,235276.0,1112.0,0.0,1.0,0.0,?,0.0,0.0
6300000.0,12.390625,1.9065288749213016E-7,6300000.0,90.8,76.42778446795974,78.0952380952381,68.60068259385666,255276.0,1112.0,0.0,1.0,0.0,?,0.0,0.0
6400000.0,12.578125,1.9420627116536096E-7,6400000.0,88.8,72.62403511945209,72.6829268292683,64.21725239616613,275276.0,1112.0,0.0,1.0,0.0,?,0.0,0.0
6500000.0,12.78125,1.9755130375011094E-7,6500000.0,88.5,70.36937791153069,71.1779448621554,59.507042253521135,295276.0,1112.0,0.0,1.0,0.0,?,0.0,0.0
6600000.0,12.984375,2.0039186994027755E-7,6600000.0,89.7,73.65324602240754,75.41766109785203,65.08474576271188,315276.0,1112.0,0.0,1.0,0.0,?,0.0,0.0
6700000.0,13.1875,2.0272796973586078E-7,6700000.0,88.2,70.1447221941099,71.4975845410628,61.43790849673203,335276.0,1112.0,0.0,1.0,0.0,?,0.0,48.0
6800000.0,13.375,2.0441870825986063E-7,6800000.0,88.5,70.44826132987964,71.39303482587064,59.7902097902098,355276.0,1112.0,0.0,1.0,0.0,?,0.0,91.0
6900000.0,13.578125,2.0574587526627708E-7,6900000.0,88.8,71.88006849211888,73.83177570093459,62.5418060200669,375276.0,1112.0,0.0,1.0,0.0,?,0.0,0.0
7000000.0,13.765625,2.0650529121566145E-7,7000000.0,88.0,67.12400824091527,67.56756756756756,54.545454545454554,395276.0,1112.0,0.0,1.0,0.0,?,0.0,12.0
7100000.0,13.953125,2.1146031536368854E-7,7100000.0,90.0,75.00637337478943,76.30331753554503,66.77740863787378,415076.0,1112.0,0.0,1.0,0.0,?,0.0,0.0
7200000.0,14.15625,2.1632379179613453E-7,7200000.0,89.4,71.6600272705398,73.69727047146402,62.00716845878137,435076.0,1112.0,0.0,1.0,0.0,?,0.0,0.0
7300000.0,14.34375,2.2034749336954615E-7,7300000.0,87.6,69.20937624155741,70.47619047619048,60.00000000000001,455076.0,1112.0,0.0,1.0,0.0,?,0.0,0.0
7400000.0,14.546875,2.2420203701282536E-7,7400000.0,88.9,70.7040528699471,70.0,60.21505376344087,475076.0,1112.0,0.0,1.0,0.0,?,0.0,0.0
7500000.0,14.734375,2.272944160116215E-7,7500000.0,87.9,68.54135901329063,71.19047619047619,58.4192439862543,495076.0,1112.0,0.0,1.0,0.0,?,0.0,0.0
7600000.0,14.921875,2.299211337231099E-7,7600000.0,88.7,72.74875801861766,73.34905660377359,65.75757575757576,515076.0,1112.0,0.0,1.0,0.0,?,0.0,8.0
7700000.0,15.140625,2.3244236621798733E-7,7700000.0,89.9,74.72472472472474,77.14932126696833,66.33333333333334,535076.0,1112.0,0.0,1.0,0.0,?,0.0,72.0
7800000.0,15.390625,2.3470289306715123E-7,7800000.0,89.8,71.87417276978736,74.24242424242425,61.9402985074627,555076.0,1112.0,0.0,1.0,0.0,?,0.0,23.0
7900000.0,15.59375,2.360351047375135E-7,7900000.0,88.3,70.05037680209699,71.32352941176471,60.86956521739131,575076.0,1112.0,0.0,1.0,0.0,?,0.0,0.0
8000000.0,15.78125,2.3679917729977095E-7,8000000.0,88.7,71.76468236517012,73.90300230946882,63.66559485530547,595076.0,1112.0,0.0,1.0,0.0,?,0.0,0.0
8100000.0,16.0,2.4258547152082117E-7,8100000.0,87.9,70.26296387318752,70.4156479217604,60.96774193548388,614876.0,1112.0,0.0,1.0,0.0,?,0.0,0.0
8200000.0,16.203125,2.47453992617213E-7,8200000.0,87.2,68.31871373977782,70.09345794392524,59.235668789808905,634876.0,1112.0,0.0,1.0,0.0,?,0.0,0.0
8300000.0,16.390625,2.514823508034977E-7,8300000.0,87.8,68.10424161298418,69.42355889724311,57.04225352112676,654876.0,1112.0,0.0,1.0,0.0,?,0.0,14.0
8400000.0,16.59375,2.5534193911072277E-7,8400000.0,89.5,71.7304212974929,74.82014388489209,61.956521739130444,674876.0,1112.0,0.0,1.0,0.0,?,0.0,0.0
8500000.0,16.78125,2.58438974722392E-7,8500000.0,87.8,67.4096552903212,68.1462140992167,55.47445255474454,694876.0,1112.0,0.0,1.0,0.0,?,0.0,0.0
8600000.0,16.984375,2.612896302404503E-7,8600000.0,87.4,68.30985915492957,71.23287671232876,58.00000000000001,714876.0,1112.0,0.0,1.0,0.0,?,0.0,0.0
8700000.0,17.171875,2.6345534327750403E-7,8700000.0,88.8,70.58205505358268,72.00000000000001,61.3793103448276,734876.0,1112.0,0.0,1.0,0.0,?,0.0,0.0
8800000.0,17.375,2.6529706600639555E-7,8800000.0,88.8,72.15481920521898,73.95348837209302,63.398692810457526,754876.0,1112.0,0.0,1.0,0.0,?,0.0,0.0
8900000.0,17.5625,2.6653145646883383E-7,8900000.0,90.2,75.62189054726369,76.21359223300972,67.76315789473686,774876.0,1112.0,0.0,1.0,0.0,?,0.0,0.0
9000000.0,17.75,2.6730018564396437E-7,9000000.0,88.7,71.76496456877855,74.54954954954955,62.08053691275168,794876.0,1112.0,0.0,1.0,0.0,?,0.0,7.0
9100000.0,17.9375,2.7226452301773764E-7,9100000.0,87.7,68.65986526290042,70.36144578313254,58.163265306122454,814676.0,1112.0,0.0,1.0,0.0,?,0.0,10.0
9200000.0,18.15625,2.775129784519474E-7,9200000.0,87.9,69.55300796151097,69.75,58.84353741496599,834676.0,1112.0,0.0,1.0,0.0,?,0.0,0.0
9300000.0,18.359375,2.818820778177017E-7,9300000.0,86.6,66.46915161948994,68.01909307875896,54.72972972972974,854676.0,1112.0,0.0,1.0,0.0,?,0.0,0.0
9400000.0,18.546875,2.854494313295517E-7,9400000.0,89.3,73.55177425574199,74.02912621359224,64.56953642384107,874676.0,1112.0,0.0,1.0,0.0,?,0.0,0.0
9500000.0,18.75,2.888095979061392E-7,9500000.0,88.8,71.50054708771215,71.9298245614035,62.033898305084755,894676.0,1112.0,0.0,1.0,0.0,?,0.0,0.0
9600000.0,18.9375,2.9144562884337377E-7,9600000.0,88.4,70.86012861736334,73.0232558139535,61.8421052631579,914676.0,1112.0,0.0,1.0,0.0,?,0.0,0.0
9700000.0,19.15625,2.9397772676828837E-7,9700000.0,89.4,72.89058024388248,75.34883720930233,63.69863013698631,934676.0,1112.0,0.0,1.0,0.0,?,0.0,0.0
9800000.0,19.34375,2.9568243513090746E-7,9800000.0,90.3,75.27831015781105,75.87064676616916,65.72438162544171,954676.0,1112.0,0.0,1.0,0.0,?,0.0,0.0
9900000.0,19.53125,2.969214822062188E-7,9900000.0,90.8,76.43140771102857,78.85057471264368,67.71929824561404,974676.0,1112.0,0.0,1.0,0.0,?,0.0,0.0
1.0E7,19.71875,2.9769486799422243E-7,1.0E7,89.60000000000001,73.38124708857391,74.32098765432099,64.01384083044984,994676.0,1112.0,0.0,1.0,0.0,?,0.0,0.0
