learning evaluation instances,evaluation time (cpu seconds),model cost (RAM-Hours),classified instances,classifications correct (percent),Kappa Statistic (percent),Kappa Temporal Statistic (percent),Kappa M Statistic (percent),model training instances,model serialized size (bytes),labeling cost,newThreshold,maxPosterior,accuracyBaseLearner (percent),Change detected,Warning detected,tree size (nodes),tree size (leaves),active learning leaves,tree depth,active leaf byte size estimate,inactive leaf byte size estimate,byte size estimate overhead
100000.0,0.3125,1.0141714786489805E-8,100000.0,97.89999999999999,95.70517015706807,95.60669456066945,95.1276102088167,19800.0,73480.0,0.0,1.0,0.0,?,0.0,23.0,30.0,17.0,17.0,4.0,0.0,0.0,1.0
200000.0,0.546875,1.865410013124347E-8,200000.0,97.8,95.56079292309678,95.72815533980582,95.13274336283185,39600.0,86912.0,0.0,1.0,0.0,?,0.0,0.0,36.0,20.0,20.0,5.0,0.0,0.0,1.0
300000.0,0.78125,2.7748562085131806E-8,300000.0,97.89999999999999,95.77226606538895,95.63409563409563,95.42483660130718,59400.0,95016.0,0.0,1.0,0.0,?,0.0,0.0,42.0,23.0,23.0,5.0,0.0,0.0,1.0
400000.0,0.984375,3.6127328510499665E-8,400000.0,97.8,95.5688043828553,95.65217391304347,95.21739130434781,79200.0,102984.0,0.0,1.0,0.0,?,0.0,0.0,46.0,25.0,25.0,5.0,0.0,0.0,1.0
500000.0,1.1875,4.505974680392279E-8,500000.0,97.6,95.1706957820052,95.01039501039502,94.81641468682504,99000.0,112032.0,0.0,1.0,0.0,?,0.0,0.0,50.0,27.0,27.0,5.0,0.0,0.0,1.0
600000.0,1.40625,5.476167037462195E-8,600000.0,97.0,93.94184168012923,94.09448818897637,93.36283185840706,118800.0,112048.0,0.0,1.0,0.0,?,0.0,0.0,50.0,27.0,27.0,5.0,0.0,0.0,1.0
700000.0,1.625,6.473070243373514E-8,700000.0,97.2,94.29137630839615,94.27402862985684,93.53348729792147,138600.0,115304.0,0.0,1.0,0.0,?,0.0,0.0,52.0,28.0,28.0,5.0,0.0,0.0,1.0
800000.0,1.84375,7.478122521812718E-8,800000.0,97.39999999999999,94.72162671344117,94.77911646586344,94.11764705882352,158400.0,115304.0,0.0,1.0,0.0,?,0.0,0.0,52.0,28.0,28.0,5.0,0.0,0.0,1.0
900000.0,2.0625,8.491323872779807E-8,900000.0,96.5,92.99411505664757,92.6470588235294,92.98597194388776,178200.0,115304.0,0.0,1.0,0.0,?,0.0,0.0,52.0,28.0,28.0,5.0,0.0,0.0,1.0
1000000.0,2.296875,9.585676404337089E-8,1000000.0,97.2,94.35436065150678,94.55252918287937,93.87308533916848,198000.0,115312.0,0.0,1.0,0.0,?,0.0,0.0,52.0,28.0,28.0,5.0,0.0,0.0,1.0
1100000.0,2.53125,1.0600720997899771E-7,1100000.0,96.8,93.57409073383883,93.81044487427465,93.22033898305084,217820.0,115336.0,0.0,1.0,0.0,?,0.0,0.0,52.0,28.0,28.0,5.0,0.0,0.0,1.0
1200000.0,2.75,1.1556561932795578E-7,1200000.0,96.89999999999999,93.76678945421205,93.72469635627529,93.30453563714902,237620.0,115392.0,0.0,1.0,0.0,?,0.0,0.0,52.0,28.0,28.0,5.0,0.0,0.0,1.0
1300000.0,2.953125,1.2451695511117577E-7,1300000.0,97.2,94.39428216781116,94.5631067961165,94.20289855072464,257420.0,115392.0,0.0,1.0,0.0,?,0.0,0.0,52.0,28.0,28.0,5.0,0.0,0.0,1.0
1400000.0,3.171875,1.3424015681569776E-7,1400000.0,96.89999999999999,93.79811462684656,94.12878787878788,93.77510040160641,277220.0,115424.0,0.0,1.0,0.0,?,0.0,0.0,52.0,28.0,28.0,5.0,0.0,0.0,1.0
1500000.0,3.375,1.4334493446060354E-7,1500000.0,96.7,93.38793960183374,93.00847457627118,93.09623430962343,297020.0,115432.0,0.0,1.0,0.0,?,0.0,0.0,52.0,28.0,28.0,5.0,0.0,0.0,1.0
1600000.0,3.578125,1.525283247853319E-7,1600000.0,97.1,94.19289209993032,94.3798449612403,93.98340248962656,316820.0,115488.0,0.0,1.0,0.0,?,0.0,0.0,52.0,28.0,28.0,5.0,0.0,0.0,1.0
1700000.0,3.796875,1.6253900765958762E-7,1700000.0,97.6,95.16915991690954,94.9260042283298,94.7136563876652,336620.0,116184.0,0.0,1.0,0.0,?,0.0,0.0,52.0,28.0,28.0,5.0,0.0,0.0,1.0
1800000.0,4.0,1.7191031171629828E-7,1800000.0,97.6,95.16915991690954,95.3125,94.75982532751091,356420.0,116184.0,0.0,1.0,0.0,?,0.0,0.0,52.0,28.0,28.0,5.0,0.0,0.0,1.0
1900000.0,4.234375,1.8281260660539074E-7,1900000.0,97.2,94.34569606500833,94.39999999999999,93.79157427937915,376220.0,116216.0,0.0,1.0,0.0,?,0.0,0.0,52.0,28.0,28.0,5.0,0.0,0.0,1.0
2000000.0,4.484375,1.9453485341121757E-7,2000000.0,97.7,95.35814907203346,95.33468559837728,94.90022172949001,396020.0,116216.0,0.0,1.0,0.0,?,0.0,0.0,52.0,28.0,28.0,5.0,0.0,0.0,1.0
2100000.0,4.703125,2.0405025376627846E-7,2100000.0,97.2,94.3824056946356,94.43339960238568,94.08033826638477,415840.0,116216.0,0.0,1.0,0.0,?,0.0,0.0,52.0,28.0,28.0,5.0,0.0,0.0,1.0
2200000.0,4.90625,2.1296165262659395E-7,2200000.0,97.8,95.59670633633958,95.66074950690336,95.48254620123203,435640.0,116216.0,0.0,1.0,0.0,?,0.0,0.0,52.0,28.0,28.0,5.0,0.0,0.0,1.0
2300000.0,5.125,2.226690089123117E-7,2300000.0,97.0,93.98636106689973,94.05940594059405,93.73695198329854,455440.0,116728.0,0.0,1.0,0.0,?,0.0,0.0,52.0,28.0,28.0,5.0,0.0,0.0,1.0
2400000.0,5.328125,2.3175865256537997E-7,2400000.0,97.3,94.57308248914616,94.75728155339806,94.24307036247335,475240.0,116728.0,0.0,1.0,0.0,?,0.0,0.0,52.0,28.0,28.0,5.0,0.0,0.0,1.0
2500000.0,5.546875,2.4162899030165545E-7,2500000.0,97.0,93.96698735480548,94.12915851272015,93.53448275862068,495040.0,116728.0,0.0,1.0,0.0,?,0.0,0.0,52.0,28.0,28.0,5.0,0.0,0.0,1.0
2600000.0,5.765625,2.5158081876320976E-7,2600000.0,97.8,95.58729139922978,95.77735124760076,95.3781512605042,514840.0,116728.0,0.0,1.0,0.0,?,0.0,0.0,52.0,28.0,28.0,5.0,0.0,0.0,1.0
2700000.0,5.984375,2.6161413795004295E-7,2700000.0,97.8,95.58082076210755,95.80952380952381,95.26881720430107,534640.0,116728.0,0.0,1.0,0.0,?,0.0,0.0,52.0,28.0,28.0,5.0,0.0,0.0,1.0
2800000.0,6.1875,2.7100646143986126E-7,2800000.0,97.5,94.98193496587716,94.96981891348088,94.73684210526315,554440.0,116728.0,0.0,1.0,0.0,?,0.0,0.0,52.0,28.0,28.0,5.0,0.0,0.0,1.0
2900000.0,6.4375,2.826593764540223E-7,2900000.0,97.3,94.59273263265828,94.53441295546558,94.42148760330578,574240.0,116728.0,0.0,1.0,0.0,?,0.0,0.0,52.0,28.0,28.0,5.0,0.0,0.0,1.0
3000000.0,6.65625,2.9293716781669204E-7,3000000.0,97.1,94.13041014265127,93.95833333333333,93.45372460496614,594040.0,116728.0,0.0,1.0,0.0,?,0.0,0.0,52.0,28.0,28.0,5.0,0.0,0.0,1.0
3100000.0,6.859375,3.017926549849412E-7,3100000.0,96.0,91.9682585578205,92.26305609284331,91.56118143459915,613860.0,116736.0,0.0,1.0,0.0,?,0.0,0.0,52.0,28.0,28.0,5.0,0.0,0.0,1.0
3200000.0,7.078125,3.1141082419910376E-7,3200000.0,98.0,95.98656301296741,95.76271186440678,95.73560767590618,633660.0,116736.0,0.0,1.0,0.0,?,0.0,0.0,52.0,28.0,28.0,5.0,0.0,0.0,1.0
3300000.0,7.328125,3.2249614984417965E-7,3300000.0,96.89999999999999,93.76729074181303,94.06130268199233,93.37606837606836,653460.0,116736.0,0.0,1.0,0.0,?,0.0,0.0,52.0,28.0,28.0,5.0,0.0,0.0,1.0
3400000.0,7.5625,3.3297595412780853E-7,3400000.0,97.5,94.97757991674835,95.09803921568627,94.66950959488273,673260.0,116736.0,0.0,1.0,0.0,?,0.0,0.0,52.0,28.0,28.0,5.0,0.0,0.0,1.0
3500000.0,7.78125,3.4283859551780766E-7,3500000.0,97.7,95.37669856074615,95.35353535353535,95.04310344827586,693060.0,116736.0,0.0,1.0,0.0,?,0.0,0.0,52.0,28.0,28.0,5.0,0.0,0.0,1.0
3600000.0,7.96875,3.5136213733090307E-7,3600000.0,97.8,95.59429020009932,95.52845528455283,95.43568464730289,712860.0,116736.0,0.0,1.0,0.0,?,0.0,0.0,52.0,28.0,28.0,5.0,0.0,0.0,1.0
3700000.0,8.1875,3.61388665623963E-7,3700000.0,96.8,93.55475437571754,93.37474120082815,92.96703296703296,732660.0,116752.0,0.0,1.0,0.0,?,0.0,0.0,52.0,28.0,28.0,5.0,0.0,0.0,1.0
3800000.0,8.421875,3.7222062625611833E-7,3800000.0,97.3,94.57709364355034,94.50101832993889,94.23076923076923,752460.0,116784.0,0.0,1.0,0.0,?,0.0,0.0,52.0,28.0,28.0,5.0,0.0,0.0,1.0
3900000.0,8.640625,3.8241194690474216E-7,3900000.0,97.5,94.99519538757207,95.0592885375494,94.83471074380165,772260.0,116784.0,0.0,1.0,0.0,?,0.0,0.0,52.0,28.0,28.0,5.0,0.0,0.0,1.0
4000000.0,8.859375,3.926847582786449E-7,4000000.0,97.8,95.58631758451199,95.703125,95.31914893617021,792060.0,116784.0,0.0,1.0,0.0,?,0.0,0.0,52.0,28.0,28.0,5.0,0.0,0.0,1.0
4100000.0,9.078125,4.0221600405251E-7,4100000.0,97.3,94.55082665977783,94.87666034155598,94.02654867256636,811880.0,116784.0,0.0,1.0,0.0,?,0.0,0.0,52.0,28.0,28.0,5.0,0.0,0.0,1.0
4200000.0,9.28125,4.111421165160008E-7,4200000.0,97.39999999999999,94.7848133765525,94.83101391650099,94.51476793248945,831680.0,116784.0,0.0,1.0,0.0,?,0.0,0.0,52.0,28.0,28.0,5.0,0.0,0.0,1.0
4300000.0,9.5,4.208363437404236E-7,4300000.0,97.0,93.97047946747274,94.09448818897637,93.56223175965664,851480.0,116784.0,0.0,1.0,0.0,?,0.0,0.0,52.0,28.0,28.0,5.0,0.0,0.0,1.0
4400000.0,9.71875,4.306125144163768E-7,4400000.0,96.0,91.98007851503132,91.37931034482759,91.61425576519915,871280.0,116792.0,0.0,1.0,0.0,?,0.0,0.0,52.0,28.0,28.0,5.0,0.0,0.0,1.0
4500000.0,9.9375,4.4050956300149366E-7,4500000.0,97.2,94.38247331674825,94.16666666666667,94.0928270042194,891080.0,117488.0,0.0,1.0,0.0,?,0.0,0.0,52.0,28.0,28.0,5.0,0.0,0.0,1.0
4600000.0,10.140625,4.49775349504004E-7,4600000.0,98.3,96.58730477375838,96.71179883945841,96.38297872340425,910880.0,117488.0,0.0,1.0,0.0,?,0.0,0.0,52.0,28.0,28.0,5.0,0.0,0.0,1.0
4700000.0,10.359375,4.5983628499218166E-7,4700000.0,98.1,96.16688185926404,95.97457627118644,95.82417582417581,930680.0,117504.0,0.0,1.0,0.0,?,0.0,0.0,52.0,28.0,28.0,5.0,0.0,0.0,1.0
4800000.0,10.5625,4.6925467257905343E-7,4800000.0,97.5,94.98523653636305,95.09803921568627,94.65811965811966,950480.0,117512.0,0.0,1.0,0.0,?,0.0,0.0,52.0,28.0,28.0,5.0,0.0,0.0,1.0
4900000.0,10.78125,4.794790422440404E-7,4900000.0,97.2,94.36056909914119,94.34343434343434,93.93939393939394,970280.0,117512.0,0.0,1.0,0.0,?,0.0,0.0,52.0,28.0,28.0,5.0,0.0,0.0,1.0
5000000.0,10.96875,4.884682453444435E-7,5000000.0,97.6,95.18999518999519,95.15151515151514,95.0,990080.0,117512.0,0.0,1.0,0.0,?,0.0,0.0,52.0,28.0,28.0,5.0,0.0,0.0,1.0
5100000.0,11.375,4.969970905221999E-7,5100000.0,79.4,58.49786445321945,54.824561403508774,44.32432432432433,8145.0,26760.0,0.0,1.0,0.0,?,4.0,50.0,12.0,8.0,8.0,3.0,0.0,0.0,1.0
5200000.0,11.6875,5.108763838911223E-7,5200000.0,86.4,71.28123693401864,70.6896551724138,64.85788113695091,27945.0,115480.0,0.0,1.0,0.0,?,0.0,0.0,46.0,28.0,28.0,6.0,0.0,0.0,1.0
5300000.0,11.96875,5.27350898159461E-7,5300000.0,91.2,81.76271636050136,81.89300411522635,77.77777777777779,47745.0,168496.0,0.0,1.0,0.0,?,0.0,0.0,70.0,40.0,40.0,7.0,0.0,0.0,1.0
5400000.0,12.28125,5.511041510746713E-7,5400000.0,92.80000000000001,84.70948012232417,84.64818763326227,80.54054054054055,67545.0,234328.0,0.0,1.0,0.0,?,0.0,0.0,112.0,70.0,70.0,8.0,0.0,0.0,1.0
5500000.0,12.578125,5.788148458426199E-7,5500000.0,91.7,82.81174930832823,83.16430020283977,79.60687960687962,87345.0,299544.0,0.0,1.0,0.0,?,0.0,0.0,132.0,80.0,80.0,9.0,0.0,0.0,1.0
5600000.0,12.8125,6.026998744346204E-7,5600000.0,92.0,82.97401408900335,82.49452954048141,79.22077922077924,107145.0,331072.0,0.0,1.0,0.0,?,0.0,0.0,142.0,85.0,85.0,9.0,0.0,0.0,1.0
5700000.0,13.09375,6.481035961769524E-7,5700000.0,94.39999999999999,87.96423658872075,87.44394618834079,84.44444444444443,126945.0,559168.0,0.0,1.0,0.0,?,0.0,0.0,209.0,138.0,138.0,9.0,0.0,0.0,1.0
5800000.0,13.34375,6.898004600467784E-7,5800000.0,94.1,87.67186259350578,87.78467908902691,85.17587939698491,146745.0,578328.0,0.0,1.0,0.0,?,0.0,0.0,215.0,141.0,141.0,9.0,0.0,0.0,1.0
5900000.0,13.625,7.447048362034065E-7,5900000.0,94.3,88.07960315534996,88.19875776397514,85.67839195979899,166545.0,686496.0,0.0,1.0,0.0,?,0.0,0.0,253.0,169.0,169.0,10.0,0.0,0.0,1.0
6000000.0,13.921875,8.101424060037569E-7,6000000.0,94.69999999999999,88.96624086071647,88.67521367521366,87.04156479217603,186345.0,782256.0,0.0,1.0,0.0,?,0.0,0.0,291.0,197.0,197.0,10.0,0.0,0.0,1.0
6100000.0,14.21875,8.842837673404981E-7,6100000.0,93.2,85.65449267535274,84.8552338530067,82.29166666666669,206165.0,908384.0,0.0,1.0,0.0,?,0.0,0.0,323.0,222.0,222.0,11.0,0.0,0.0,1.0
6200000.0,14.53125,9.657738458675646E-7,6200000.0,93.2,85.26090368000555,85.3448275862069,81.1634349030471,225965.0,949424.0,0.0,1.0,0.0,?,0.0,0.0,329.0,225.0,225.0,11.0,0.0,0.0,1.0
6300000.0,14.8125,1.040954860703399E-6,6300000.0,93.2,85.59938331476783,85.86278586278587,82.42894056847547,245765.0,973152.0,0.0,1.0,0.0,?,0.0,0.0,339.0,230.0,230.0,11.0,0.0,0.0,1.0
6400000.0,15.09375,1.1181708153647684E-6,6400000.0,94.19999999999999,87.50285495123957,86.66666666666666,84.0220385674931,265565.0,999544.0,0.0,1.0,0.0,?,0.0,0.0,349.0,235.0,235.0,11.0,0.0,0.0,1.0
6500000.0,15.40625,1.2071606276246411E-6,6500000.0,93.0,84.91723873425468,84.23423423423424,81.02981029810299,285365.0,1037424.0,0.0,1.0,0.0,?,0.0,0.0,365.0,243.0,243.0,11.0,0.0,0.0,1.0
6600000.0,15.703125,1.3043480511340833E-6,6600000.0,95.0,89.44149744906578,89.45147679324894,86.97916666666666,305165.0,1200448.0,0.0,1.0,0.0,?,0.0,0.0,409.0,283.0,283.0,11.0,0.0,0.0,1.0
6700000.0,16.0,1.40453258710396E-6,6700000.0,94.5,88.60235910443554,88.09523809523809,86.318407960199,324965.0,1237872.0,0.0,1.0,0.0,?,0.0,0.0,421.0,289.0,289.0,11.0,0.0,0.0,1.0
6800000.0,16.328125,1.522042212956068E-6,6800000.0,93.7,86.71558704453443,85.84269662921349,83.76288659793816,344765.0,1316168.0,0.0,1.0,0.0,?,0.0,0.0,453.0,314.0,314.0,11.0,0.0,0.0,1.0
6900000.0,16.65625,1.6485063113375673E-6,6900000.0,94.3,88.0597265048934,87.99999999999999,85.30927835051546,364565.0,1419984.0,0.0,1.0,0.0,?,0.0,0.0,487.0,340.0,340.0,12.0,0.0,0.0,1.0
7000000.0,16.9375,1.7593901591478954E-6,7000000.0,94.6,88.29547425004334,88.67924528301886,85.08287292817678,384365.0,1452592.0,0.0,1.0,0.0,?,0.0,0.0,493.0,343.0,343.0,12.0,0.0,0.0,1.0
7100000.0,17.28125,1.899788848176185E-6,7100000.0,95.0,89.38883960594394,89.81670061099796,86.87664041994749,404185.0,1520416.0,0.0,1.0,0.0,?,0.0,0.0,523.0,367.0,367.0,12.0,0.0,0.0,1.0
7200000.0,17.625,2.0508824187951785E-6,7200000.0,93.7,86.63702773559133,87.2210953346856,83.33333333333334,423985.0,1639032.0,0.0,1.0,0.0,?,0.0,0.0,558.0,397.0,397.0,12.0,0.0,0.0,1.0
7300000.0,17.9375,2.197990640221785E-6,7300000.0,93.60000000000001,86.33255457368249,86.58280922431867,82.74932614555257,443785.0,1757936.0,0.0,1.0,0.0,?,0.0,0.0,588.0,421.0,421.0,12.0,0.0,0.0,1.0
7400000.0,18.28125,2.365175265974055E-6,7400000.0,93.60000000000001,86.56139761464809,86.58280922431867,83.5897435897436,463585.0,1816776.0,0.0,1.0,0.0,?,0.0,0.0,622.0,447.0,447.0,12.0,0.0,0.0,1.0
7500000.0,18.609375,2.5327731661188108E-6,7500000.0,94.19999999999999,88.00383877159308,87.6595744680851,85.64356435643563,483385.0,1909352.0,0.0,1.0,0.0,?,0.0,0.0,632.0,452.0,452.0,12.0,0.0,0.0,1.0
7600000.0,18.921875,2.6939456519256866E-6,7600000.0,95.1,89.75238413920026,89.93839835728951,87.62626262626262,503185.0,1927056.0,0.0,1.0,0.0,?,0.0,0.0,640.0,456.0,456.0,12.0,0.0,0.0,1.0
7700000.0,19.296875,2.8988606775076026E-6,7700000.0,93.0,84.73375671714706,84.84848484848486,80.3370786516854,522985.0,2044160.0,0.0,1.0,0.0,?,0.0,0.0,688.0,498.0,498.0,12.0,0.0,0.0,1.0
7800000.0,19.671875,3.1279737918844653E-6,7800000.0,95.1,89.5410885805763,89.46236559139784,86.93333333333332,542785.0,2291832.0,0.0,1.0,0.0,?,0.0,0.0,752.0,557.0,557.0,13.0,0.0,0.0,1.0
7900000.0,20.015625,3.3420820060806967E-6,7900000.0,95.7,90.81235844622024,91.29554655870444,88.59416445623341,562585.0,2336432.0,0.0,1.0,0.0,?,0.0,0.0,774.0,577.0,577.0,13.0,0.0,0.0,1.0
8000000.0,20.375,3.582088134458495E-6,8000000.0,92.2,83.80311229426839,83.43949044585987,79.94858611825194,582385.0,2508376.0,0.0,1.0,0.0,?,0.0,0.0,806.0,602.0,602.0,13.0,0.0,0.0,1.0
8100000.0,20.734375,3.828857313945061E-6,8100000.0,94.19999999999999,87.68028207905859,86.93693693693693,84.45040214477211,602205.0,2594112.0,0.0,1.0,0.0,?,0.0,0.0,830.0,623.0,623.0,13.0,0.0,0.0,1.0
8200000.0,21.09375,4.0845025796443225E-6,8200000.0,94.89999999999999,89.40721970672537,89.8203592814371,87.1536523929471,622005.0,2687960.0,0.0,1.0,0.0,?,0.0,0.0,860.0,647.0,647.0,13.0,0.0,0.0,1.0
8300000.0,21.484375,4.3804198180118366E-6,8300000.0,94.1,87.77242619933845,87.70833333333331,85.50368550368549,641805.0,2864992.0,0.0,1.0,0.0,?,0.0,0.0,924.0,706.0,706.0,13.0,0.0,0.0,1.0
8400000.0,21.859375,4.67789821818264E-6,8400000.0,93.5,86.19840326142348,85.45861297539152,82.8496042216359,661605.0,3001352.0,0.0,1.0,0.0,?,0.0,0.0,944.0,725.0,725.0,13.0,0.0,0.0,1.0
8500000.0,22.234375,4.978498101182695E-6,8500000.0,94.69999999999999,88.87676292813968,88.50325379609544,86.58227848101264,681405.0,3031984.0,0.0,1.0,0.0,?,0.0,0.0,950.0,728.0,728.0,13.0,0.0,0.0,1.0
8600000.0,22.609375,5.282454625962095E-6,8600000.0,94.0,87.46950913890466,87.80487804878048,85.07462686567163,701205.0,3065000.0,0.0,1.0,0.0,?,0.0,0.0,954.0,730.0,730.0,13.0,0.0,0.0,1.0
8700000.0,23.046875,5.646600459133171E-6,8700000.0,94.6,88.64033187060075,88.38709677419354,86.04651162790697,721005.0,3147640.0,0.0,1.0,0.0,?,0.0,0.0,976.0,750.0,750.0,13.0,0.0,0.0,1.0
8800000.0,23.453125,5.9988626162521534E-6,8800000.0,94.1,87.59419997308571,86.94690265486724,84.91048593350382,740805.0,3280504.0,0.0,1.0,0.0,?,0.0,0.0,1020.0,790.0,790.0,13.0,0.0,0.0,1.0
8900000.0,23.859375,6.366355454600933E-6,8900000.0,94.39999999999999,88.18665091553454,88.00856531049249,85.34031413612564,760605.0,3423664.0,0.0,1.0,0.0,?,0.0,0.0,1044.0,811.0,811.0,13.0,0.0,0.0,1.0
9000000.0,24.3125,6.7825054348860345E-6,9000000.0,92.9,84.81322404558601,84.8936170212766,80.7588075880759,780405.0,3475440.0,0.0,1.0,0.0,?,0.0,0.0,1061.0,823.0,823.0,13.0,0.0,0.0,1.0
9100000.0,24.703125,7.142219078054444E-6,9100000.0,94.8,88.85879812142196,88.72017353579174,85.8695652173913,800225.0,3498008.0,0.0,1.0,0.0,?,0.0,0.0,1063.0,824.0,824.0,13.0,0.0,0.0,1.0
9200000.0,25.171875,7.586780088281051E-6,9200000.0,93.7,86.70302580035121,86.42241379310346,83.76288659793816,820025.0,3603008.0,0.0,1.0,0.0,?,0.0,0.0,1105.0,863.0,863.0,13.0,0.0,0.0,1.0
9300000.0,25.59375,8.009256820918784E-6,9300000.0,93.7,86.82559598494355,86.62420382165607,83.88746803069054,839825.0,3806152.0,0.0,1.0,0.0,?,0.0,0.0,1149.0,903.0,903.0,13.0,0.0,0.0,1.0
9400000.0,26.078125,8.507764755955172E-6,9400000.0,93.89999999999999,87.38710424454956,87.2117400419287,85.012285012285,859625.0,3911856.0,0.0,1.0,0.0,?,0.0,0.0,1180.0,931.0,931.0,13.0,0.0,0.0,1.0
9500000.0,26.515625,8.978473294215896E-6,9500000.0,94.3,87.84710377294125,87.97468354430379,84.6774193548387,879425.0,4090784.0,0.0,1.0,0.0,?,0.0,0.0,1220.0,969.0,969.0,13.0,0.0,0.0,1.0
9600000.0,26.96875,9.47828540423264E-6,9600000.0,94.5,88.14409877905773,87.77777777777777,84.67966573816155,899225.0,4194000.0,0.0,1.0,0.0,?,0.0,0.0,1252.0,994.0,994.0,14.0,0.0,0.0,1.0
9700000.0,27.40625,9.9656615121704E-6,9700000.0,94.5,88.27352118441699,88.19742489270385,85.4881266490765,919025.0,4234816.0,0.0,1.0,0.0,?,0.0,0.0,1256.0,996.0,996.0,14.0,0.0,0.0,1.0
9800000.0,27.859375,1.0485988718250557E-5,9800000.0,95.3,89.84302064243974,89.91416309012874,87.08791208791207,938825.0,4365728.0,0.0,1.0,0.0,?,0.0,0.0,1295.0,1028.0,1028.0,14.0,0.0,0.0,1.0
9900000.0,28.328125,1.1031081149768496E-5,9900000.0,94.39999999999999,87.50446269189574,88.03418803418802,83.43195266272187,958625.0,4420408.0,0.0,1.0,0.0,?,0.0,0.0,1310.0,1039.0,1039.0,14.0,0.0,0.0,1.0
1.0E7,28.765625,1.1542168342404894E-5,1.0E7,94.6,88.49242204681453,88.65546218487394,85.5614973262032,978425.0,4441456.0,0.0,1.0,0.0,?,0.0,0.0,1312.0,1040.0,1040.0,14.0,0.0,0.0,1.0
