learning evaluation instances,evaluation time (cpu seconds),model cost (RAM-Hours),classified instances,classifications correct (percent),Kappa Statistic (percent),Kappa Temporal Statistic (percent),Kappa M Statistic (percent),model training instances,model serialized size (bytes),labeling cost,newThreshold,maxPosterior,accuracyBaseLearner (percent),Change detected,Warning detected
100000.0,0.265625,1.0032737110224035E-9,100000.0,72.1,44.20133916785996,43.636363636363626,43.86317907444667,10000.0,2904.0,10000.0,1.0,0.5243166053711332,0.0,0.0,14.0
200000.0,0.546875,2.065563522693184E-9,200000.0,69.5,38.99902398438374,37.11340206185566,37.37166324435317,20000.0,2904.0,20000.0,1.0,0.5453671775805584,0.0,0.0,0.0
300000.0,0.8125,3.0688372337155876E-9,300000.0,68.10000000000001,35.643444508106114,37.20472440944883,29.580573951434886,30000.0,2904.0,30000.0,1.0,0.540383490093397,0.0,0.0,0.0
400000.0,1.078125,4.072110944737991E-9,400000.0,70.5,41.030664054691556,44.02277039848197,40.4040404040404,40000.0,2904.0,40000.0,1.0,0.625455538696878,0.0,0.0,0.0
500000.0,1.34375,5.075384655760395E-9,500000.0,71.39999999999999,42.66882627451608,42.33870967741935,40.16736401673639,50000.0,2904.0,50000.0,1.0,0.5173427061102682,0.0,0.0,0.0
600000.0,1.609375,6.078658366782799E-9,600000.0,67.10000000000001,33.743626096553065,32.719836400818004,29.700854700854705,60000.0,2904.0,60000.0,1.0,0.6362249514352892,0.0,0.0,0.0
700000.0,1.859375,7.022915977156826E-9,700000.0,70.7,41.2236710130391,42.99610894941633,39.587628865979376,70000.0,2904.0,70000.0,1.0,0.5924823669628105,0.0,0.0,0.0
800000.0,2.140625,8.085205788827606E-9,800000.0,71.3,42.30923856235425,43.835616438356155,35.360360360360346,80000.0,2904.0,80000.0,1.0,0.5321660505195162,0.0,0.0,0.0
900000.0,2.40625,9.08847949985001E-9,900000.0,68.4,36.446132063328626,36.67334669338678,33.61344537815127,90000.0,2904.0,90000.0,1.0,0.5103791970082887,0.0,0.0,0.0
1000000.0,2.671875,1.0091753210872413E-8,1000000.0,69.3,38.59459632447654,35.908141962421695,39.803921568627445,100000.0,2904.0,100000.0,1.0,0.6167879501526711,0.0,0.0,0.0
1100000.0,2.9375,1.1095026921894817E-8,1100000.0,68.89999999999999,37.81343229862348,38.293650793650784,39.257812499999986,110000.0,2904.0,110000.0,1.0,0.5616577880744711,0.0,0.0,0.0
1200000.0,3.203125,1.209830063291722E-8,1200000.0,70.8,41.56634221311475,41.83266932270915,40.65040650406503,120000.0,2904.0,120000.0,1.0,0.5171827961522898,0.0,0.0,0.0
1300000.0,3.4375,1.2983542142642871E-8,1300000.0,68.10000000000001,36.4030016188327,35.03054989816701,31.545064377682408,130000.0,2904.0,130000.0,1.0,0.6922264082596526,0.0,0.0,0.0
1400000.0,3.6875,1.3927799753016899E-8,1400000.0,67.80000000000001,35.532954272443355,36.86274509803923,36.11111111111112,140000.0,2904.0,140000.0,1.0,0.6032096631457139,0.0,0.0,0.0
1500000.0,3.953125,1.49310734640393E-8,1500000.0,68.89999999999999,37.722776242540746,37.04453441295546,33.68869936034113,150000.0,2904.0,150000.0,1.0,0.6217767136145962,0.0,0.0,0.0
1600000.0,4.21875,1.5934347175061703E-8,1600000.0,67.9,35.74345423973097,37.181996086105684,33.402489626556026,160000.0,2904.0,160000.0,1.0,0.6373786646500967,0.0,0.0,0.0
1700000.0,4.484375,1.6938170625103844E-8,1700000.0,70.3,40.619001919385795,40.361445783132524,40.71856287425149,170000.0,2904.0,170000.0,1.0,0.5873668262119986,0.0,0.0,3.0
1800000.0,4.75,1.7941994075145985E-8,1800000.0,68.60000000000001,37.085495601995646,36.565656565656575,35.523613963039026,180000.0,2904.0,180000.0,1.0,0.5301925509752683,0.0,0.0,0.0
1900000.0,5.015625,1.8945817525188126E-8,1900000.0,70.89999999999999,41.79813754040128,42.03187250996015,39.12133891213388,190000.0,2904.0,190000.0,1.0,0.7028582730268835,0.0,0.0,1.0
2000000.0,5.296875,2.000868941346804E-8,2000000.0,68.4,36.262823072858055,36.67334669338678,30.85339168490154,200000.0,2904.0,200000.0,1.0,0.5474027828536573,0.0,0.0,0.0
2100000.0,5.5625,2.101251286351018E-8,2100000.0,71.2,42.44673325259888,44.508670520231206,40.8624229979466,210000.0,2904.0,210000.0,1.0,0.5907130323336242,0.0,0.0,0.0
2200000.0,5.828125,2.2016336313552322E-8,2200000.0,68.2,36.34117924962667,36.27254509018037,33.61169102296452,220000.0,2904.0,220000.0,1.0,0.559397013789093,0.0,0.0,0.0
2300000.0,6.09375,2.3020159763594463E-8,2300000.0,69.69999999999999,38.88516866079855,40.118577075098806,34.27331887201734,230000.0,2904.0,230000.0,1.0,0.5819302995175891,0.0,0.0,0.0
2400000.0,6.359375,2.4023983213636604E-8,2400000.0,67.7,35.20405706857538,38.35877862595421,31.567796610169495,240000.0,2904.0,240000.0,1.0,0.5023993144087585,0.0,0.0,0.0
2500000.0,6.625,2.5027806663678745E-8,2500000.0,68.0,35.97310870565638,40.850277264325335,34.291581108829575,250000.0,2904.0,250000.0,1.0,0.5123889276670535,0.0,0.0,0.0
2600000.0,6.890625,2.6031630113720886E-8,2600000.0,73.3,46.5752108978566,46.060606060606055,46.27766599597585,260000.0,2904.0,260000.0,1.0,0.5232673621087128,0.0,0.0,0.0
2700000.0,7.15625,2.7035453563763026E-8,2700000.0,70.19999999999999,40.217064216502486,40.16064257028111,38.30227743271221,270000.0,2904.0,270000.0,1.0,0.5108223233092195,0.0,0.0,0.0
2800000.0,7.40625,2.7980228575567394E-8,2800000.0,70.1,39.778449144008036,39.35091277890466,33.555555555555536,280000.0,2904.0,280000.0,1.0,0.5386881532347472,0.0,0.0,0.0
2900000.0,7.671875,2.8984052025609535E-8,2900000.0,69.0,37.92252731408798,39.68871595330739,36.47540983606556,290000.0,2904.0,290000.0,1.0,0.554365140790437,0.0,0.0,0.0
3000000.0,7.921875,2.992210081881946E-8,3000000.0,69.89999999999999,39.59268208491542,37.551867219917,35.546038543897204,300000.0,2904.0,300000.0,1.0,0.5604550657027628,0.0,0.0,23.0
3100000.0,8.1875,3.092317557376291E-8,3100000.0,70.39999999999999,40.69110887589614,42.18749999999999,38.716356107660445,310000.0,2904.0,310000.0,1.0,0.5684181734559574,0.0,0.0,92.0
3200000.0,8.4375,3.186795058556728E-8,3200000.0,69.19999999999999,38.4275844421699,38.27655310621241,39.009900990099,320000.0,2904.0,320000.0,1.0,0.5525976072437329,0.0,0.0,45.0
3300000.0,8.6875,3.2812725597371646E-8,3300000.0,72.3,44.7987245914707,43.00411522633744,42.5311203319502,330000.0,2904.0,330000.0,1.0,0.6012625447694028,0.0,0.0,0.0
3400000.0,8.953125,3.381654904741379E-8,3400000.0,71.8,43.60248149081439,42.33128834355828,42.33128834355828,340000.0,2904.0,340000.0,1.0,0.5184334268807661,0.0,0.0,0.0
3500000.0,9.21875,3.4820372497455935E-8,3500000.0,71.2,42.200940037489104,40.49586776859503,37.2549019607843,350000.0,2904.0,350000.0,1.0,0.5372779577633512,0.0,0.0,0.0
3600000.0,9.484375,3.582419594749808E-8,3600000.0,69.8,39.53905536781075,38.49287169042769,37.2141372141372,360000.0,2904.0,360000.0,1.0,0.6135304922513741,0.0,0.0,0.0
3700000.0,9.75,3.682801939754022E-8,3700000.0,70.8,41.009862666111765,41.716566866267456,36.383442265795196,370000.0,2904.0,370000.0,1.0,0.6511020140709511,0.0,0.0,0.0
3800000.0,10.015625,3.783184284758237E-8,3800000.0,70.0,39.92310157000961,39.393939393939384,39.02439024390243,380000.0,2904.0,380000.0,1.0,0.5460756451148776,0.0,0.0,0.0
3900000.0,10.28125,3.883566629762451E-8,3900000.0,71.39999999999999,42.678937916880436,44.680851063829785,39.915966386554615,390000.0,2904.0,390000.0,1.0,0.7730933902950297,0.0,0.0,0.0
4000000.0,10.546875,3.9836741052567965E-8,4000000.0,70.7,40.889283408650726,45.64007421150278,35.17699115044247,400000.0,2904.0,400000.0,1.0,0.5096544893132425,0.0,0.0,9.0
4100000.0,10.8125,4.079438642495209E-8,4100000.0,67.80000000000001,35.20605280103027,36.98630136986302,30.303030303030308,410000.0,2904.0,410000.0,1.0,0.5600040177204296,0.0,0.0,34.0
4200000.0,11.0625,4.169569971660773E-8,4200000.0,69.5,38.98926211013138,39.8422090729783,38.99999999999999,420000.0,2904.0,420000.0,1.0,0.5882675377138195,0.0,0.0,0.0
4300000.0,11.328125,4.2696774471551185E-8,4300000.0,73.1,46.155201127337946,46.09218436873747,44.76386036960985,430000.0,2904.0,430000.0,1.0,0.5515206424143257,0.0,0.0,50.0
4400000.0,11.59375,4.369784922649464E-8,4400000.0,70.8,41.602803065452854,43.19066147859922,44.69696969696969,440000.0,2904.0,440000.0,1.0,0.5201189509322197,0.0,0.0,0.0
4500000.0,11.859375,4.469892398143809E-8,4500000.0,69.19999999999999,38.285210491514206,39.72602739726027,38.15261044176706,450000.0,2904.0,450000.0,1.0,0.5926293287593243,0.0,0.0,0.0
4600000.0,12.125,4.5699998736381544E-8,4600000.0,69.39999999999999,38.79387938793879,38.922155688622745,38.30645161290322,460000.0,2904.0,460000.0,1.0,0.5706130621571736,0.0,0.0,0.0
4700000.0,12.375,4.66421867410342E-8,4700000.0,68.8,37.52002563280999,42.11502782931353,34.72803347280333,470000.0,2904.0,470000.0,1.0,0.5591690522712673,0.0,0.0,0.0
4800000.0,12.640625,4.764271175695791E-8,4800000.0,70.5,40.92249030728315,41.92913385826771,40.04065040650406,480000.0,2904.0,480000.0,1.0,0.613278805234113,0.0,0.0,38.0
4900000.0,12.90625,4.8646535207000055E-8,4900000.0,72.2,44.115885160154214,44.841269841269835,39.43355119825707,490000.0,2904.0,490000.0,1.0,0.5525288543256437,0.0,0.0,23.0
5000000.0,13.171875,4.960198162330523E-8,5000000.0,68.5,36.50780853173804,38.356164383561655,33.962264150943405,500000.0,2904.0,500000.0,1.0,0.6024771836491768,0.0,0.0,39.0
5100000.0,13.453125,5.066485351158514E-8,5100000.0,61.1,22.090927298217498,21.41414141414141,20.61224489795918,9976.0,2904.0,510000.0,1.0,0.7456026530273399,0.0,1.0,22.0
5200000.0,13.703125,5.160962852338951E-8,5200000.0,63.5,26.72801438941349,21.336206896551722,22.505307855626324,19976.0,2904.0,520000.0,1.0,0.546950065777572,0.0,0.0,0.0
5300000.0,13.96875,5.2613451973431655E-8,5300000.0,66.0,31.416214820552547,28.27004219409283,26.406926406926406,29976.0,2904.0,530000.0,1.0,0.5454243596674825,0.0,0.0,0.0
5400000.0,14.234375,5.36172754234738E-8,5400000.0,66.7,33.36534998199064,32.17922606924644,32.45436105476674,39976.0,2904.0,540000.0,1.0,0.5241081080028819,0.0,0.0,0.0
5500000.0,14.5,5.462109887351594E-8,5500000.0,66.0,31.678890786697472,33.59375000000001,28.421052631578952,49976.0,2904.0,550000.0,1.0,0.5106587823636826,0.0,0.0,0.0
5600000.0,14.75,5.556587388532031E-8,5600000.0,68.10000000000001,36.15863079275371,39.92467043314502,33.26359832635984,59976.0,2904.0,560000.0,1.0,0.6587441125740525,0.0,0.0,0.0
5700000.0,15.015625,5.6569697335362455E-8,5700000.0,65.3,30.208048399813354,28.157349896480333,24.728850325379607,69976.0,2904.0,570000.0,1.0,0.5927611971453799,0.0,0.0,0.0
5800000.0,15.28125,5.75735207854046E-8,5800000.0,67.5,34.510135815902956,34.47580645161291,26.96629213483146,79976.0,2904.0,580000.0,1.0,0.5380396257849355,0.0,0.0,0.0
5900000.0,15.5625,5.8636392673684514E-8,5900000.0,64.60000000000001,29.172802356104754,33.95522388059701,23.210412147505423,89976.0,2904.0,590000.0,1.0,0.5443693516591145,0.0,0.0,0.0
6000000.0,15.828125,5.964021612372666E-8,6000000.0,63.7,27.365135264927165,27.68924302788845,26.21951219512195,99976.0,2904.0,600000.0,1.0,0.7388606181371311,0.0,0.0,0.0
6100000.0,16.09375,6.06440395737688E-8,6100000.0,65.4,30.62767915502108,30.938123752495017,27.463312368972748,109976.0,2904.0,610000.0,1.0,0.5383761385936432,0.0,0.0,0.0
6200000.0,16.375,6.170691146204871E-8,6200000.0,65.2,30.16955954650346,31.764705882352946,25.481798715203425,119976.0,2904.0,620000.0,1.0,0.5519993147445472,0.0,0.0,0.0
6300000.0,16.625,6.265168647385308E-8,6300000.0,62.5,24.908087499098887,21.21848739495798,23.62525458248472,129976.0,2904.0,630000.0,1.0,0.6246809576777198,0.0,0.0,0.0
6400000.0,16.90625,6.3714558362133E-8,6400000.0,65.5,31.02152128535898,29.735234215885953,31.818181818181824,139976.0,2904.0,640000.0,1.0,0.5878870584055904,0.0,0.0,0.0
6500000.0,17.171875,6.471838181217514E-8,6500000.0,64.2,28.475529840488445,25.87991718426501,28.112449799196792,149976.0,2904.0,650000.0,1.0,0.5541031032316358,0.0,0.0,0.0
6600000.0,17.4375,6.572220526221727E-8,6600000.0,64.7,29.058344989469294,31.189083820662773,25.21186440677966,159976.0,2904.0,660000.0,1.0,0.7253471421640668,0.0,0.0,0.0
6700000.0,17.703125,6.672602871225941E-8,6700000.0,65.4,30.737941195311002,31.349206349206355,28.512396694214882,169976.0,2904.0,670000.0,1.0,0.6040780673542236,0.0,0.0,0.0
6800000.0,17.96875,6.772985216230155E-8,6800000.0,65.9,31.685231188396518,32.74161735700198,27.7542372881356,179976.0,2904.0,680000.0,1.0,0.5643028123995837,0.0,0.0,0.0
6900000.0,18.234375,6.873367561234369E-8,6900000.0,67.7,35.27313534527675,36.03960396039605,33.53909465020577,189976.0,2904.0,690000.0,1.0,0.6300101107116396,0.0,0.0,0.0
7000000.0,18.5,6.973749906238582E-8,7000000.0,66.9,33.818530811372824,34.584980237154156,29.872881355932208,199976.0,2904.0,700000.0,1.0,0.5830277230873367,0.0,0.0,0.0
7100000.0,18.765625,7.074132251242796E-8,7100000.0,65.10000000000001,30.254680330620793,31.568627450980397,29.208924949290065,209976.0,2904.0,710000.0,1.0,0.752399782952935,0.0,0.0,0.0
7200000.0,19.03125,7.17451459624701E-8,7200000.0,62.3,24.560771601232634,25.198412698412696,22.74590163934426,219976.0,2904.0,720000.0,1.0,0.551264405914633,0.0,0.0,0.0
7300000.0,19.3125,7.280801785075001E-8,7300000.0,67.5,34.51594184209679,34.21052631578948,26.801801801801805,229976.0,2904.0,730000.0,1.0,0.5761671330943613,0.0,0.0,0.0
7400000.0,19.578125,7.381184130079215E-8,7400000.0,63.5,26.905269228920687,25.661914460285136,25.661914460285136,239976.0,2904.0,740000.0,1.0,0.609406031005668,0.0,0.0,0.0
7500000.0,19.84375,7.481566475083429E-8,7500000.0,67.9,35.80513558915288,36.18290258449306,35.41247484909458,249976.0,2904.0,750000.0,1.0,0.5559323356564146,0.0,0.0,0.0
7600000.0,20.109375,7.581948820087643E-8,7600000.0,64.0,27.367809413131898,25.773195876288664,20.704845814977972,259976.0,2904.0,760000.0,1.0,0.5277026549811574,0.0,0.0,0.0
7700000.0,20.375,7.682331165091856E-8,7700000.0,64.2,28.37392810983198,25.571725571725572,26.488706365503084,269976.0,2904.0,770000.0,1.0,0.5045958623886158,0.0,0.0,0.0
7800000.0,20.640625,7.78271351009607E-8,7800000.0,63.9,27.71093987792962,29.629629629629633,23.51694915254237,279976.0,2904.0,780000.0,1.0,0.6700523617333897,0.0,0.0,0.0
7900000.0,20.921875,7.889000698924062E-8,7900000.0,66.0,32.008974815324386,33.33333333333334,31.034482758620697,289976.0,2904.0,790000.0,1.0,0.657914007647598,0.0,0.0,0.0
8000000.0,21.1875,7.989383043928275E-8,8000000.0,65.3,30.31176947856335,31.558185404339255,23.399558498896244,299976.0,2904.0,800000.0,1.0,0.5169710653367946,0.0,0.0,0.0
8100000.0,21.453125,8.089765388932489E-8,8100000.0,66.9,33.68965959356369,33.667334669338686,29.273504273504276,309976.0,2904.0,810000.0,1.0,0.5276448580096312,0.0,0.0,0.0
8200000.0,21.71875,8.190147733936703E-8,8200000.0,62.3,24.183921360426005,22.427983539094647,16.40798226164079,319976.0,2904.0,820000.0,1.0,0.5089035439123771,0.0,0.0,0.0
8300000.0,21.96875,8.28462523511714E-8,8300000.0,64.4,28.882212162739883,28.080808080808083,27.049180327868854,329976.0,2904.0,830000.0,1.0,0.7255377969870073,0.0,0.0,0.0
8400000.0,22.234375,8.385007580121354E-8,8400000.0,66.2,32.26995831997434,33.59528487229863,30.737704918032794,339976.0,2904.0,840000.0,1.0,0.5489168463072605,0.0,0.0,0.0
8500000.0,22.5,8.485389925125568E-8,8500000.0,68.2,36.3467859130233,32.62711864406781,34.96932515337424,349976.0,2904.0,850000.0,1.0,0.5628432329371911,0.0,0.0,0.0
8600000.0,22.78125,8.591677113953559E-8,8600000.0,63.6,27.145504837618546,31.190926275992442,24.481327800829874,359976.0,2904.0,860000.0,1.0,0.5283705204699056,0.0,0.0,0.0
8700000.0,23.046875,8.692059458957773E-8,8700000.0,65.5,30.356494004602542,28.865979381443303,26.12419700214133,369976.0,2904.0,870000.0,1.0,0.5831476539617955,0.0,0.0,0.0
8800000.0,23.328125,8.798346647785764E-8,8800000.0,64.2,28.1058089703065,26.789366053169733,23.66737739872068,379976.0,2904.0,880000.0,1.0,0.6339014541625714,0.0,0.0,0.0
8900000.0,23.578125,8.892824148966202E-8,8900000.0,68.60000000000001,37.21933644437514,38.31041257367388,38.79142300194933,389976.0,2904.0,890000.0,1.0,0.6530831702240987,0.0,0.0,0.0
9000000.0,23.84375,8.993206493970416E-8,9000000.0,67.2,34.26195009519993,33.603238866396765,33.061224489795926,399976.0,2904.0,900000.0,1.0,0.5178961325276463,0.0,0.0,0.0
9100000.0,24.125,9.099493682798407E-8,9100000.0,65.60000000000001,31.053005006674233,28.630705394190876,23.385300668151444,409976.0,2904.0,910000.0,1.0,0.5190758773323135,0.0,0.0,0.0
9200000.0,24.390625,9.199876027802621E-8,9200000.0,63.3,26.523584527909033,22.41014799154334,23.541666666666668,419976.0,2904.0,920000.0,1.0,0.7649020208932703,0.0,0.0,0.0
9300000.0,24.6875,9.31206806045439E-8,9300000.0,66.9,33.66999318664583,29.42430703624734,31.893004115226343,429976.0,2904.0,930000.0,1.0,0.506190807580221,0.0,0.0,0.0
9400000.0,24.953125,9.412450405458604E-8,9400000.0,65.2,30.17180144712922,29.41176470588236,27.650727650727653,439976.0,2904.0,940000.0,1.0,0.7619843655136175,0.0,0.0,0.0
9500000.0,25.21875,9.512832750462817E-8,9500000.0,64.60000000000001,29.220384529255583,30.72407045009785,31.791907514450873,449976.0,2904.0,950000.0,1.0,0.5176438620116303,0.0,0.0,0.0
9600000.0,25.5,9.619119939290809E-8,9600000.0,63.7,27.128919580840734,27.833001988071572,22.765957446808507,459976.0,2904.0,960000.0,1.0,0.6739729838254005,0.0,0.0,0.0
9700000.0,25.765625,9.719502284295023E-8,9700000.0,64.1,27.697934456868495,25.979381443298973,23.12633832976445,469976.0,2904.0,970000.0,1.0,0.5639845609105532,0.0,0.0,0.0
9800000.0,26.046875,9.820900029606283E-8,9800000.0,65.8,31.04254795768996,31.73652694610779,24.503311258278146,479976.0,2904.0,980000.0,1.0,0.5356201508763763,0.0,0.0,9.0
9900000.0,26.3125,9.921282374610497E-8,9900000.0,66.10000000000001,32.10222720717834,33.65949119373778,28.78151260504202,489976.0,2904.0,990000.0,1.0,0.5282698833778522,0.0,0.0,76.0
1.0E7,26.578125,1.0021664719614711E-7,1.0E7,64.3,28.644525815890887,29.0258449304175,26.08695652173913,499976.0,2904.0,1000000.0,1.0,0.7652484640688715,0.0,0.0,0.0
