learning evaluation instances,evaluation time (cpu seconds),model cost (RAM-Hours),classified instances,classifications correct (percent),Kappa Statistic (percent),Kappa Temporal Statistic (percent),Kappa M Statistic (percent),model training instances,model serialized size (bytes),labeling cost,newThreshold,maxPosterior,accuracyBaseLearner (percent),Change detected,Warning detected
100000.0,0.421875,1.7072889022529125E-8,100000.0,66.0,31.623381585774464,32.00000000000001,29.606625258799173,29416.0,2904.0,0.0,1.0,0.0,?,1.0,3.0
200000.0,0.859375,3.3057747512227954E-8,200000.0,67.60000000000001,34.72768956166824,36.5949119373777,31.501057082452437,59416.0,2904.0,0.0,1.0,0.0,?,0.0,0.0
300000.0,1.296875,4.732224624603986E-8,300000.0,67.80000000000001,34.76895650588499,36.614173228346466,31.634819532908708,89416.0,2904.0,0.0,1.0,0.0,?,0.0,0.0
400000.0,1.71875,5.9418380260467527E-8,400000.0,68.5,36.381629438138724,38.356164383561655,33.40380549682876,119416.0,2904.0,0.0,1.0,0.0,?,0.0,0.0
500000.0,2.15625,7.024215948250559E-8,500000.0,67.2,34.42937563971341,37.28489483747611,34.530938123752506,149416.0,2904.0,0.0,1.0,0.0,?,0.0,0.0
600000.0,2.59375,7.934557894865672E-8,600000.0,69.1,37.75632709956569,40.917782026768634,35.8921161825726,179416.0,2904.0,0.0,1.0,0.0,?,0.0,0.0
700000.0,3.015625,8.646495795498292E-8,700000.0,65.60000000000001,31.078422337002472,30.36437246963563,30.223123732251526,209416.0,2904.0,0.0,1.0,0.0,?,0.0,0.0
800000.0,3.4375,9.192541862527529E-8,800000.0,68.4,36.17064253539905,34.84536082474228,32.90870488322719,239416.0,2904.0,0.0,1.0,0.0,?,0.0,0.0
900000.0,3.859375,9.572696095953385E-8,900000.0,69.6,38.05021193348549,40.856031128404666,31.22171945701356,269416.0,2904.0,0.0,1.0,0.0,?,0.0,0.0
1000000.0,4.296875,9.794894140213728E-8,1000000.0,67.9,35.64245272426902,35.02024291497977,34.62321792260693,299416.0,2904.0,0.0,1.0,0.0,?,0.0,0.0
1100000.0,4.71875,1.1503841960802674E-7,1100000.0,70.1,39.00448796409627,38.85480572597136,33.702882483370274,329116.0,2904.0,0.0,1.0,0.0,?,0.0,0.0
1200000.0,5.15625,1.3104048169528444E-7,1200000.0,69.5,38.89000200360648,39.8422090729783,34.968017057569284,359116.0,2904.0,0.0,1.0,0.0,?,0.0,0.0
1300000.0,5.578125,1.4481212322910625E-7,1300000.0,67.30000000000001,34.522999046879136,36.750483558994205,32.85420944558523,389116.0,2904.0,0.0,1.0,0.0,?,0.0,0.0
1400000.0,6.015625,1.573734658045901E-7,1400000.0,68.30000000000001,35.90002830913577,35.3061224489796,33.12236286919832,419116.0,2904.0,0.0,1.0,0.0,?,0.0,0.0
1500000.0,6.4375,1.6782727066634426E-7,1500000.0,68.4,36.20208594951891,35.37832310838447,32.33404710920772,449116.0,2904.0,0.0,1.0,0.0,?,0.0,0.0
1600000.0,6.875,1.7695604280258215E-7,1600000.0,67.9,35.27181803516697,37.669902912621374,32.42105263157896,479116.0,2904.0,0.0,1.0,0.0,?,0.0,6.0
1700000.0,7.28125,1.838352828700509E-7,1700000.0,68.5,36.65030970959699,37.000000000000014,34.375000000000014,509116.0,2904.0,0.0,1.0,0.0,?,0.0,0.0
1800000.0,7.71875,1.8952333549451493E-7,1800000.0,67.9,35.154135186457125,37.181996086105684,31.702127659574476,539116.0,2904.0,0.0,1.0,0.0,?,0.0,0.0
1900000.0,8.140625,1.9334932504635714E-7,1900000.0,67.2,34.38136430746333,29.613733905579405,34.79125248508947,569116.0,2904.0,0.0,1.0,0.0,?,0.0,0.0
2000000.0,8.5625,1.9551639626216553E-7,2000000.0,67.4,33.81731956083935,30.932203389830516,30.341880341880344,599116.0,2904.0,0.0,1.0,0.0,?,0.0,0.0
2100000.0,8.96875,2.1199647259588038E-7,2100000.0,68.0,35.27298618078257,36.127744510978054,32.489451476793256,628816.0,2904.0,0.0,1.0,0.0,?,0.0,0.0
2200000.0,9.40625,2.2802388735322483E-7,2200000.0,69.5,38.72942915916687,36.853002070393366,37.62781186094068,658816.0,2904.0,0.0,1.0,0.0,?,0.0,0.0
2300000.0,9.828125,2.418199761046303E-7,2300000.0,68.4,35.638401877077506,33.61344537815127,30.08849557522124,688816.0,2904.0,0.0,1.0,0.0,?,0.0,0.0
2400000.0,10.265625,2.544066713502009E-7,2400000.0,69.3,37.89498385674172,39.087301587301575,34.2612419700214,718816.0,2904.0,0.0,1.0,0.0,?,0.0,0.0
2500000.0,10.703125,2.6527300683988456E-7,2500000.0,66.5,32.677931222970706,35.57692307692308,31.21149897330596,748816.0,2904.0,0.0,1.0,0.0,?,0.0,0.0
2600000.0,11.125,2.740923405831886E-7,2600000.0,67.9,35.23420602382415,34.22131147540984,32.56302521008404,778816.0,2904.0,0.0,1.0,0.0,?,0.0,0.0
2700000.0,11.5625,2.8151795656109844E-7,2700000.0,67.5,34.67441729580229,31.86582809224319,33.12757201646092,808816.0,2904.0,0.0,1.0,0.0,?,0.0,0.0
2800000.0,12.0,2.8722321278312135E-7,2800000.0,69.8,39.37203886613666,44.28044280442803,38.3673469387755,838816.0,2904.0,0.0,1.0,0.0,?,0.0,0.0
2900000.0,12.421875,2.910657915183239E-7,2900000.0,70.6,40.44532313476372,42.57812499999999,36.63793103448275,868816.0,2904.0,0.0,1.0,0.0,?,0.0,0.0
3000000.0,12.859375,2.9333032822857297E-7,3000000.0,66.4,32.88805087724905,32.93413173652696,33.46534653465347,898816.0,2904.0,0.0,1.0,0.0,?,0.0,0.0
3100000.0,13.28125,3.1046084283540644E-7,3100000.0,70.6,41.23478900490908,41.31736526946107,39.99999999999999,928516.0,2904.0,0.0,1.0,0.0,?,0.0,0.0
3200000.0,13.71875,3.2650546119030975E-7,3200000.0,70.0,39.23262964718464,39.27125506072874,34.64052287581698,958516.0,2904.0,0.0,1.0,0.0,?,0.0,0.0
3300000.0,14.15625,3.4082971978932613E-7,3300000.0,67.5,34.09525972551184,33.80855397148677,29.501084598698483,988516.0,2904.0,0.0,1.0,0.0,?,0.0,0.0
3400000.0,14.578125,3.5298347938805813E-7,3400000.0,66.60000000000001,32.7448169209208,29.087048832271766,28.172043010752688,1018516.0,2904.0,0.0,1.0,0.0,?,0.0,0.0
3500000.0,15.015625,3.638670184753007E-7,3500000.0,67.10000000000001,32.75888849829547,32.02479338842976,27.373068432671083,1048516.0,2904.0,0.0,1.0,0.0,?,0.0,0.0
3600000.0,15.453125,3.7303019780665634E-7,3600000.0,68.0,35.51715243745165,33.47193347193348,33.19415448851775,1078516.0,2904.0,0.0,1.0,0.0,?,0.0,0.0
3700000.0,15.875,3.802072023972869E-7,3700000.0,66.7,33.285250631085475,32.9979879275654,32.45436105476674,1108516.0,2904.0,0.0,1.0,0.0,?,0.0,0.0
3800000.0,16.3125,3.8592966221686866E-7,3800000.0,68.4,36.74610768374656,36.16161616161617,36.4185110663984,1138516.0,2904.0,0.0,1.0,0.0,?,0.0,0.0
3900000.0,16.71875,3.896458979902996E-7,3900000.0,66.2,30.81709513672835,30.87934560327199,24.553571428571427,1168516.0,2904.0,0.0,1.0,0.0,?,0.0,0.0
4000000.0,17.15625,3.919276382981075E-7,4000000.0,67.80000000000001,35.28028460595342,35.72854291417167,33.88090349075976,1198516.0,2904.0,0.0,1.0,0.0,?,0.0,0.0
4100000.0,17.578125,4.090747420883013E-7,4100000.0,69.1,36.7394401952274,38.69047619047618,31.026785714285694,1228216.0,2904.0,0.0,1.0,0.0,?,0.0,0.0
4200000.0,17.96875,4.2341565454585686E-7,4200000.0,66.4,31.659256306264172,34.117647058823536,27.114967462039047,1258216.0,2904.0,0.0,1.0,0.0,?,0.0,0.0
4300000.0,18.390625,4.37244921663983E-7,4300000.0,67.4,34.45681588798952,30.932203389830516,32.505175983436864,1288216.0,2904.0,0.0,1.0,0.0,?,0.0,0.0
4400000.0,18.828125,4.498660241046714E-7,4400000.0,69.5,38.50062507561398,41.570881226053636,35.24416135881103,1318216.0,2904.0,0.0,1.0,0.0,?,0.0,0.0
4500000.0,19.25,4.603774545507299E-7,4500000.0,67.4,33.94391311395689,28.193832599118945,30.63829787234043,1348216.0,2904.0,0.0,1.0,0.0,?,0.0,0.0
4600000.0,19.6875,4.695578374796444E-7,4600000.0,68.4,36.67766124151862,39.694656488549626,35.90263691683571,1378216.0,2904.0,0.0,1.0,0.0,?,0.0,0.0
4700000.0,20.125,4.77017860652672E-7,4700000.0,69.5,38.960446369247265,38.87775551102203,36.853002070393366,1408216.0,2904.0,0.0,1.0,0.0,?,0.0,0.0
4800000.0,20.53125,4.823475481114454E-7,4800000.0,68.8,36.73888976751541,37.47494989979959,32.02614379084965,1438216.0,2904.0,0.0,1.0,0.0,?,0.0,0.0
4900000.0,20.96875,4.863668517726992E-7,4900000.0,69.69999999999999,39.06216061846878,40.704500978473575,37.1369294605809,1468216.0,2904.0,0.0,1.0,0.0,?,0.0,0.0
5000000.0,21.390625,4.888360207486485E-7,5000000.0,66.60000000000001,32.469591097308495,33.730158730158735,29.53586497890296,1498216.0,2904.0,0.0,1.0,0.0,?,0.0,0.0
5100000.0,21.828125,5.065919443344077E-7,5100000.0,69.69999999999999,36.863424961242885,35.8050847457627,25.55282555282555,8731.0,2904.0,0.0,1.0,0.0,?,3.0,11.0
5200000.0,22.234375,5.214821107478605E-7,5200000.0,72.0,40.73798145098818,44.66403162055336,30.17456359102244,38731.0,2904.0,0.0,1.0,0.0,?,0.0,0.0
5300000.0,22.671875,5.357973148218459E-7,5300000.0,71.0,40.103187749656115,39.58333333333333,29.09535452322738,68731.0,2904.0,0.0,1.0,0.0,?,0.0,0.0
5400000.0,23.109375,5.483921591399444E-7,5400000.0,72.6,43.06848404255319,45.309381237524946,30.808080808080806,98731.0,2904.0,0.0,1.0,0.0,?,0.0,0.0
5500000.0,23.53125,5.588782692535055E-7,5500000.0,70.5,38.516560929046015,38.54166666666666,26.43391521197007,128731.0,2904.0,0.0,1.0,0.0,?,0.0,0.0
5600000.0,23.96875,5.680323940598302E-7,5600000.0,71.6,41.03381835094014,42.85714285714285,32.057416267942585,158731.0,2904.0,0.0,1.0,0.0,?,0.0,0.0
5700000.0,24.375,5.749351758923795E-7,5700000.0,74.9,47.46316141995981,49.49698189134809,40.23809523809525,188731.0,2904.0,0.0,1.0,0.0,?,0.0,0.0
5800000.0,24.8125,5.806485811869303E-7,5800000.0,71.7,41.22143112314836,41.64948453608247,26.873385012919893,218731.0,2904.0,0.0,1.0,0.0,?,0.0,0.0
5900000.0,25.234375,5.844990179563561E-7,5900000.0,71.1,40.199308050124976,41.14052953156822,33.10185185185185,248731.0,2904.0,0.0,1.0,0.0,?,0.0,0.0
6000000.0,25.671875,5.86771703739133E-7,6000000.0,69.19999999999999,36.33759265153926,37.651821862348164,25.060827250608263,278731.0,2904.0,0.0,1.0,0.0,?,0.0,0.0
6100000.0,26.09375,6.039100763801898E-7,6100000.0,68.0,33.72408508170579,33.05439330543934,22.89156626506026,308431.0,2904.0,0.0,1.0,0.0,?,0.0,0.0
6200000.0,26.515625,6.193895306852127E-7,6200000.0,70.3,38.47772769455124,40.24144869215291,29.78723404255319,338431.0,2904.0,0.0,1.0,0.0,?,0.0,0.0
6300000.0,26.9375,6.332100666542018E-7,6300000.0,70.0,38.02779659896548,38.90020366598777,28.90995260663507,368431.0,2904.0,0.0,1.0,0.0,?,0.0,0.0
6400000.0,27.375,6.458221145698592E-7,6400000.0,73.1,43.986340163251704,45.325203252032516,33.58024691358025,398431.0,2904.0,0.0,1.0,0.0,?,0.0,0.0
6500000.0,27.796875,6.563248138667807E-7,6500000.0,70.39999999999999,37.40880928717938,39.21971252566735,25.0632911392405,428431.0,2904.0,0.0,1.0,0.0,?,0.0,0.0
6600000.0,28.203125,6.65126070897612E-7,6600000.0,71.5,40.16778213514943,37.36263736263735,29.280397022332505,458431.0,2904.0,0.0,1.0,0.0,?,0.0,6.0
6700000.0,28.625,6.726069194782109E-7,6700000.0,72.7,43.15152928633304,41.16379310344826,32.42574257425743,488431.0,2904.0,0.0,1.0,0.0,?,0.0,0.0
6800000.0,29.0625,6.786444767688709E-7,6800000.0,69.6,36.5079365079365,37.959183673469376,23.999999999999993,518431.0,2904.0,0.0,1.0,0.0,?,0.0,70.0
6900000.0,29.5,6.82961674303644E-7,6900000.0,73.8,44.19476453172591,42.41758241758241,32.299741602067186,548431.0,2904.0,0.0,1.0,0.0,?,0.0,86.0
7000000.0,29.921875,6.854657678761414E-7,7000000.0,69.69999999999999,36.29957280769617,36.21052631578946,23.484848484848477,578431.0,2904.0,0.0,1.0,0.0,?,0.0,117.0
7100000.0,30.359375,7.035630470555688E-7,7100000.0,71.1,40.381394043915606,42.65873015873015,30.861244019138756,608131.0,2904.0,0.0,1.0,0.0,?,0.0,37.0
7200000.0,30.796875,7.199399664791092E-7,7200000.0,73.3,44.30956373739143,47.44094488188976,32.233502538071065,638131.0,2904.0,0.0,1.0,0.0,?,0.0,8.0
7300000.0,31.234375,7.345965261467627E-7,7300000.0,68.0,33.22538103266949,35.48387096774194,20.398009950248774,668131.0,2904.0,0.0,1.0,0.0,?,0.0,0.0
7400000.0,31.671875,7.475327260585293E-7,7400000.0,70.6,38.59649122807017,38.74999999999999,26.499999999999996,698131.0,2904.0,0.0,1.0,0.0,?,0.0,0.0
7500000.0,32.09375,7.583480004945561E-7,7500000.0,71.1,41.094460841065114,43.22200392927308,32.94663573085847,728131.0,2904.0,0.0,1.0,0.0,?,0.0,0.0
7600000.0,32.515625,7.675043565945491E-7,7600000.0,70.19999999999999,38.026153794962234,38.17427385892115,28.36538461538461,758131.0,2904.0,0.0,1.0,0.0,?,0.0,0.0
7700000.0,32.96875,7.755571601188016E-7,7700000.0,70.1,38.65458633905343,38.603696098562615,30.946882217090067,788131.0,2904.0,0.0,1.0,0.0,?,0.0,0.0
7800000.0,33.40625,7.816119210070205E-7,7800000.0,72.2,42.54678923351631,45.70312499999999,35.04672897196262,818131.0,2904.0,0.0,1.0,0.0,?,0.0,0.0
7900000.0,33.84375,7.859463221393524E-7,7900000.0,71.8,41.03970829291138,41.73553719008264,30.882352941176467,848131.0,2904.0,0.0,1.0,0.0,?,0.0,0.0
8000000.0,34.28125,7.885603635157975E-7,8000000.0,70.5,38.57238047642844,36.559139784946225,25.505050505050498,878131.0,2904.0,0.0,1.0,0.0,?,0.0,0.0
8100000.0,34.71875,8.066748462927837E-7,8100000.0,70.1,38.53705865908007,37.31656184486372,29.481132075471695,907831.0,2904.0,0.0,1.0,0.0,?,0.0,0.0
8200000.0,35.171875,8.236544737074937E-7,8200000.0,71.3,40.27850608867913,39.70588235294117,30.676328502415455,937831.0,2904.0,0.0,1.0,0.0,?,0.0,0.0
8300000.0,35.609375,8.383282369727061E-7,8300000.0,73.9,45.07529524659298,44.46808510638297,33.756345177664976,967831.0,2904.0,0.0,1.0,0.0,?,0.0,65.0
8400000.0,36.03125,8.508111608939037E-7,8400000.0,71.3,39.35167575334938,36.08017817371936,22.43243243243242,997831.0,2904.0,0.0,1.0,0.0,?,0.0,8.0
8500000.0,36.46875,8.620360555748143E-7,8500000.0,72.3,42.18567373518116,42.29166666666666,32.92978208232446,1027831.0,2904.0,0.0,1.0,0.0,?,0.0,0.0
8600000.0,36.90625,8.715360632373225E-7,8600000.0,69.39999999999999,36.751769296911164,33.90928725701942,25.72815533980582,1057831.0,2904.0,0.0,1.0,0.0,?,0.0,56.0
8700000.0,37.34375,8.793283874789872E-7,8700000.0,72.89999999999999,44.42758360470171,45.03042596348884,37.9862700228833,1087831.0,2904.0,0.0,1.0,0.0,?,0.0,17.0
8800000.0,37.78125,8.854003519647649E-7,8800000.0,71.89999999999999,42.18011819124594,40.96638655462184,34.9537037037037,1117831.0,2904.0,0.0,1.0,0.0,?,0.0,0.0
8900000.0,38.234375,8.899073711492947E-7,8900000.0,69.6,37.76434797918381,39.68253968253968,28.805620608899297,1147831.0,2904.0,0.0,1.0,0.0,?,0.0,0.0
9000000.0,38.671875,8.925386161232986E-7,9000000.0,72.6,43.52960573772181,43.621399176954725,33.65617433414044,1177831.0,2904.0,0.0,1.0,0.0,?,0.0,0.0
9100000.0,39.09375,9.100227422701814E-7,9100000.0,72.39999999999999,42.04967770382345,43.44262295081967,30.126582278481013,1207531.0,2904.0,0.0,1.0,0.0,?,0.0,0.0
9200000.0,39.515625,9.258479500810303E-7,9200000.0,70.3,37.61290593622652,37.341772151898724,24.810126582278475,1237531.0,2904.0,0.0,1.0,0.0,?,0.0,0.0
9300000.0,39.9375,9.400142395558454E-7,9300000.0,69.39999999999999,36.29485903676161,35.7142857142857,20.930232558139526,1267531.0,2904.0,0.0,1.0,0.0,?,0.0,0.0
9400000.0,40.375,9.529848466627298E-7,9400000.0,74.5,47.036098533626884,49.0,37.804878048780495,1297531.0,2904.0,0.0,1.0,0.0,?,0.0,0.0
9500000.0,40.796875,9.638332994654774E-7,9500000.0,71.8,41.49159097227697,40.380549682875255,29.675810473815456,1327531.0,2904.0,0.0,1.0,0.0,?,0.0,0.0
9600000.0,41.21875,9.73022833932191E-7,9600000.0,71.89999999999999,42.30500735046525,41.336116910229634,33.2541567695962,1357531.0,2904.0,0.0,1.0,0.0,?,0.0,0.0
9700000.0,41.640625,9.80553450062871E-7,9700000.0,70.39999999999999,38.75084838351901,39.59183673469387,29.186602870813395,1387531.0,2904.0,0.0,1.0,0.0,?,0.0,0.0
9800000.0,42.0625,9.86425147857517E-7,9800000.0,73.2,42.81324684192556,40.96916299559471,25.555555555555546,1417531.0,2904.0,0.0,1.0,0.0,?,0.0,0.0
9900000.0,42.484375,9.906379273161291E-7,9900000.0,68.0,33.567783696703735,30.885529157667392,23.627684964200498,1447531.0,2904.0,0.0,1.0,0.0,?,0.0,0.0
1.0E7,42.9375,9.933809633366763E-7,1.0E7,71.6,40.82544339245233,39.95771670190274,31.06796116504854,1477531.0,2904.0,0.0,1.0,0.0,?,0.0,0.0
