learning evaluation instances,evaluation time (cpu seconds),model cost (RAM-Hours),classified instances,classifications correct (percent),Kappa Statistic (percent),Kappa Temporal Statistic (percent),Kappa M Statistic (percent),model training instances,model serialized size (bytes),labeling cost,newThreshold,maxPosterior,accuracyBaseLearner (percent),Change detected,Warning detected
100000.0,0.15625,6.7744016026457155E-9,100000.0,61.6,23.620697199823375,23.2,20.496894409937884,29700.0,9208.0,0.0,1.0,0.0,?,0.0,5.0
200000.0,0.3125,1.2934389006760385E-8,200000.0,63.2,27.147466988695978,27.98434442270059,22.19873150105708,59700.0,9208.0,0.0,1.0,0.0,?,0.0,0.0
300000.0,0.46875,1.847996221234401E-8,300000.0,60.4,21.968905791247103,22.047244094488185,15.923566878980882,89700.0,9208.0,0.0,1.0,0.0,?,0.0,0.0
400000.0,0.625,2.3411121219396594E-8,400000.0,61.8,24.37590323283115,25.244618395303327,19.238900634249468,119700.0,9208.0,0.0,1.0,0.0,?,0.0,0.0
500000.0,0.78125,2.7747591957449916E-8,500000.0,60.4,20.72135558474005,24.282982791586996,20.958083832335326,149700.0,9208.0,0.0,1.0,0.0,?,0.0,8.0
600000.0,0.9375,3.1469648496972193E-8,600000.0,62.2,24.940428911834797,27.72466539196941,21.576763485477173,179700.0,9208.0,0.0,1.0,0.0,?,0.0,0.0
700000.0,1.09375,3.457729083796343E-8,700000.0,59.0,18.26319252008532,17.004048582995946,16.835699797160235,209700.0,9208.0,0.0,1.0,0.0,?,0.0,0.0
800000.0,1.21875,3.6571873351931576E-8,800000.0,62.5,25.82600164567378,22.680412371134018,20.382165605095537,239700.0,9208.0,0.0,1.0,0.0,?,0.0,0.0
900000.0,1.375,3.8462005452149445E-8,900000.0,64.60000000000001,30.80531665363565,31.128404669260707,19.909502262443436,269700.0,9208.0,0.0,1.0,0.0,?,0.0,83.0
1000000.0,1.515625,3.961917375110918E-8,1000000.0,60.8,21.912039490197177,20.647773279352222,20.162932790224026,299700.0,9208.0,0.0,1.0,0.0,?,0.0,234.0
1100000.0,1.6875,4.710623114887211E-8,1100000.0,61.5,24.130157178666582,21.267893660531694,14.634146341463406,329400.0,9208.0,0.0,1.0,0.0,?,0.0,100.0
1200000.0,1.828125,5.267815948981378E-8,1200000.0,63.7,27.603289961787297,28.402366863905325,22.601279317697227,359400.0,9208.0,0.0,1.0,0.0,?,0.0,19.0
1300000.0,1.984375,5.825477678121792E-8,1300000.0,61.9,23.86212850314144,26.305609284332686,21.765913757700204,389400.0,9208.0,0.0,1.0,0.0,?,0.0,0.0
1400000.0,2.140625,6.321697987409102E-8,1400000.0,63.0,26.761678543151223,24.489795918367346,21.940928270042193,419400.0,9208.0,0.0,1.0,0.0,?,0.0,0.0
1500000.0,2.296875,6.756476876843307E-8,1500000.0,62.3,25.833536618953563,22.903885480572594,19.27194860813704,449400.0,9208.0,0.0,1.0,0.0,?,0.0,0.0
1600000.0,2.453125,7.129814346424408E-8,1600000.0,61.9,24.431151026625628,26.019417475728158,19.78947368421052,479400.0,9208.0,0.0,1.0,0.0,?,0.0,0.0
1700000.0,2.609375,7.441710396152404E-8,1700000.0,63.5,27.64253429545635,27.0,23.958333333333332,509400.0,9208.0,0.0,1.0,0.0,?,0.0,0.0
1800000.0,2.765625,7.692165026027296E-8,1800000.0,62.0,24.829878145276158,25.63600782778865,19.14893617021276,539400.0,9208.0,0.0,1.0,0.0,?,0.0,0.0
1900000.0,2.921875,7.881178236049082E-8,1900000.0,63.3,26.62524091712451,21.244635193133043,27.037773359840955,569400.0,9208.0,0.0,1.0,0.0,?,0.0,0.0
2000000.0,3.0625,7.995992847200896E-8,2000000.0,60.6,21.91958906715708,16.52542372881355,15.811965811965804,599400.0,9208.0,0.0,1.0,0.0,?,0.0,0.0
2100000.0,3.21875,8.67715183024605E-8,2100000.0,62.3,25.245282719564717,24.75049900199601,20.464135021097043,629100.0,9208.0,0.0,1.0,0.0,?,0.0,0.0
2200000.0,3.375,9.2968693934381E-8,2200000.0,62.9,26.351480116884762,23.188405797101446,24.13087934560327,659100.0,9208.0,0.0,1.0,0.0,?,0.0,0.0
2300000.0,3.515625,9.79931792244315E-8,2300000.0,61.5,24.265076167694826,19.117647058823522,14.823008849557512,689100.0,9208.0,0.0,1.0,0.0,?,0.0,0.0
2400000.0,3.65625,1.0246469173580406E-7,2400000.0,62.4,25.73132913267623,25.396825396825395,19.486081370449675,719100.0,9208.0,0.0,1.0,0.0,?,0.0,0.0
2500000.0,3.8125,1.0681862477213142E-7,2500000.0,61.6,23.609149395835896,26.153846153846157,21.14989733059548,749100.0,9208.0,0.0,1.0,0.0,?,0.0,0.0
2600000.0,3.96875,1.1055814360992774E-7,2600000.0,61.7,24.236429814844115,21.516393442622945,19.537815126050415,779100.0,9208.0,0.0,1.0,0.0,?,0.0,0.0
2700000.0,4.125,1.1368324824919302E-7,2700000.0,63.5,27.38630485815462,23.480083857442345,24.897119341563787,809100.0,9208.0,0.0,1.0,0.0,?,0.0,0.0
2800000.0,4.28125,1.1619393868992725E-7,2800000.0,64.1,28.505994344206805,33.76383763837638,26.734693877551024,839100.0,9208.0,0.0,1.0,0.0,?,0.0,0.0
2900000.0,4.4375,1.1809021493213043E-7,2900000.0,63.9,28.81481598334148,29.492187500000007,22.198275862068964,869100.0,9208.0,0.0,1.0,0.0,?,0.0,0.0
3000000.0,4.578125,1.1924389077143537E-7,3000000.0,62.1,24.060270898453147,24.35129740518962,24.95049504950495,899100.0,9208.0,0.0,1.0,0.0,?,0.0,0.0
3100000.0,4.71875,1.2537985134662853E-7,3100000.0,64.5,28.935757925164353,29.141716566866272,27.551020408163268,928800.0,9208.0,0.0,1.0,0.0,?,0.0,0.0
3200000.0,4.875,1.3158317112053433E-7,3200000.0,63.9,28.91909772541113,26.923076923076927,21.350762527233112,958800.0,9208.0,0.0,1.0,0.0,?,0.0,0.0
3300000.0,5.03125,1.371720766959091E-7,3300000.0,60.9,22.953843243584075,20.366598778004068,15.184381778741857,988800.0,9208.0,0.0,1.0,0.0,?,0.0,0.0
3400000.0,5.1875,1.4214656807275283E-7,3400000.0,59.699999999999996,19.947558698502235,14.437367303609333,13.333333333333321,1018800.0,9208.0,0.0,1.0,0.0,?,0.0,0.0
3500000.0,5.34375,1.465066452510655E-7,3500000.0,57.699999999999996,16.746049865770228,12.603305785123956,6.622516556291373,1048800.0,9208.0,0.0,1.0,0.0,?,0.0,0.0
3600000.0,5.5,1.5025230823084712E-7,3600000.0,61.7,23.86594044447978,20.37422037422037,20.041753653444673,1078800.0,9208.0,0.0,1.0,0.0,?,0.0,0.0
3700000.0,5.65625,1.533835570120977E-7,3700000.0,63.4,26.92714676462955,26.358148893360163,25.760649087221093,1108800.0,9208.0,0.0,1.0,0.0,?,0.0,0.0
3800000.0,5.796875,1.5564870813654528E-7,3800000.0,64.1,28.287775762466737,27.47474747474748,27.766599597585518,1138800.0,9208.0,0.0,1.0,0.0,?,0.0,0.0
3900000.0,5.9375,1.5736088648231492E-7,3900000.0,59.599999999999994,20.587495282425458,17.38241308793455,9.821428571428555,1168800.0,9208.0,0.0,1.0,0.0,?,0.0,0.0
4000000.0,6.09375,1.5864889266797236E-7,4000000.0,64.4,29.17198871526742,28.94211576846308,26.899383983572893,1198800.0,9208.0,0.0,1.0,0.0,?,0.0,0.0
4100000.0,6.25,1.6547277078239451E-7,4100000.0,60.099999999999994,21.841944431385443,20.83333333333333,10.937499999999986,1228500.0,9208.0,0.0,1.0,0.0,?,0.0,0.0
4200000.0,6.40625,1.7168223469828564E-7,4200000.0,59.4,19.71429362420752,20.392156862745097,11.930585683297167,1258500.0,9208.0,0.0,1.0,0.0,?,0.0,0.0
4300000.0,6.578125,1.778367893873817E-7,4300000.0,61.5,23.5097311516057,18.4322033898305,20.289855072463762,1288500.0,9208.0,0.0,1.0,0.0,?,0.0,0.0
4400000.0,6.734375,1.8281742490621074E-7,4400000.0,62.0,24.94894553268474,27.203065134099617,19.320594479830145,1318500.0,9208.0,0.0,1.0,0.0,?,0.0,0.0
4500000.0,6.890625,1.871836462265087E-7,4500000.0,59.699999999999996,20.402923168082154,11.23348017621144,14.25531914893616,1348500.0,9208.0,0.0,1.0,0.0,?,0.0,0.0
4600000.0,7.046875,1.9093545334827566E-7,4600000.0,63.7,27.635041385579633,30.725190839694662,26.369168356997974,1378500.0,9208.0,0.0,1.0,0.0,?,0.0,0.0
4700000.0,7.203125,1.9407284627151156E-7,4700000.0,65.9,31.875209768415676,31.663326653306616,29.399585921325055,1408500.0,9208.0,0.0,1.0,0.0,?,0.0,0.0
4800000.0,7.359375,1.965958249962164E-7,4800000.0,62.3,25.9122423632619,24.448897795591183,17.86492374727668,1438500.0,9208.0,0.0,1.0,0.0,?,0.0,0.0
4900000.0,7.515625,1.985043895223902E-7,4900000.0,64.2,28.830433537962406,29.941291585127207,25.72614107883818,1468500.0,9208.0,0.0,1.0,0.0,?,0.0,0.0
5000000.0,7.65625,1.9975323488728864E-7,5000000.0,62.1,25.049637311437543,24.801587301587304,20.042194092827,1498500.0,9208.0,0.0,1.0,0.0,?,0.0,0.0
5100000.0,7.828125,2.0736870485254456E-7,5100000.0,63.1,22.751632892312845,21.822033898305083,9.336609336609344,25147.0,9208.0,0.0,1.0,0.0,?,1.0,9.0
5200000.0,7.96875,2.1304278763838936E-7,5200000.0,66.60000000000001,23.95506518462527,33.992094861660085,16.70822942643393,55147.0,9208.0,0.0,1.0,0.0,?,0.0,1.0
5300000.0,8.125,2.1873290986857476E-7,5300000.0,63.9,19.147487524972455,24.791666666666668,11.735941320293408,85147.0,9208.0,0.0,1.0,0.0,?,0.0,0.0
5400000.0,8.296875,2.2431618870339456E-7,5400000.0,64.3,18.457405986185723,28.742514970059887,9.848484848484857,115147.0,9208.0,0.0,1.0,0.0,?,0.0,0.0
5500000.0,8.453125,2.2877748253651788E-7,5500000.0,65.9,23.0894147578106,28.958333333333336,14.962593516209488,145147.0,9208.0,0.0,1.0,0.0,?,0.0,0.0
5600000.0,8.578125,2.318549862441917E-7,5600000.0,66.4,25.89717350647519,32.3943661971831,19.617224880382793,175147.0,9208.0,0.0,1.0,0.0,?,0.0,0.0
5700000.0,8.734375,2.3508745168025292E-7,5700000.0,65.60000000000001,23.241699393073908,30.78470824949699,18.09523809523811,205147.0,9208.0,0.0,1.0,0.0,?,0.0,0.0
5800000.0,8.875,2.3744369779403008E-7,5800000.0,66.0,22.106603985392713,29.89690721649485,12.14470284237727,235147.0,9208.0,0.0,1.0,0.0,?,0.0,0.0
5900000.0,9.015625,2.3924697112912927E-7,5900000.0,63.6,20.684726144406095,25.865580448065174,15.740740740740753,265147.0,9208.0,0.0,1.0,0.0,?,0.0,0.0
6000000.0,9.171875,2.4063619396959737E-7,6000000.0,63.5,18.33648054842088,26.113360323886642,11.19221411192215,295147.0,9208.0,0.0,1.0,0.0,?,0.0,0.0
6100000.0,9.3125,2.468687792619069E-7,6100000.0,63.0,17.500947624250273,22.594142259414223,10.843373493975912,324847.0,9208.0,0.0,1.0,0.0,?,0.0,0.0
6200000.0,9.46875,2.5317945983260866E-7,6200000.0,62.6,17.332354878496243,24.748490945674046,11.583924349881807,354847.0,9208.0,0.0,1.0,0.0,?,0.0,0.0
6300000.0,9.609375,2.583060995675623E-7,6300000.0,63.5,19.155496097314632,25.661914460285136,13.507109004739348,384847.0,9208.0,0.0,1.0,0.0,?,0.0,0.0
6400000.0,9.765625,2.6338795174120196E-7,6400000.0,68.60000000000001,29.3921881675699,36.178861788617894,22.469135802469154,414847.0,9208.0,0.0,1.0,0.0,?,0.0,0.0
6500000.0,9.90625,2.674086459187997E-7,6500000.0,65.3,20.0571349583007,28.747433264887068,12.151898734177227,444847.0,9208.0,0.0,1.0,0.0,?,0.0,0.0
6600000.0,10.046875,2.708763673177195E-7,6600000.0,63.7,17.181525320094554,20.219780219780215,9.925558312655095,474847.0,9208.0,0.0,1.0,0.0,?,0.0,0.0
6700000.0,10.1875,2.737911159379614E-7,6700000.0,64.7,20.38072897870805,23.92241379310345,12.623762376237636,504847.0,9208.0,0.0,1.0,0.0,?,0.0,0.0
6800000.0,10.34375,2.7641531131747686E-7,6800000.0,64.1,18.297678652708242,26.734693877551024,10.250000000000009,534847.0,9208.0,0.0,1.0,0.0,?,0.0,0.0
6900000.0,10.5,2.784250924984613E-7,6900000.0,66.3,20.61547739072262,25.934065934065938,12.919896640826883,564847.0,9208.0,0.0,1.0,0.0,?,0.0,0.0
7000000.0,10.640625,2.7968092278266933E-7,7000000.0,66.0,22.229541794759196,28.421052631578952,14.141414141414153,594847.0,9208.0,0.0,1.0,0.0,?,0.0,0.0
7100000.0,10.796875,2.8661216169388743E-7,7100000.0,63.800000000000004,20.679439760197734,28.17460317460318,13.397129186602882,624547.0,9208.0,0.0,1.0,0.0,?,0.0,0.0
7200000.0,10.9375,2.922973039353058E-7,7200000.0,67.30000000000001,24.592522898967832,35.629921259842526,17.005076142131994,654547.0,9208.0,0.0,1.0,0.0,?,0.0,0.0
7300000.0,11.09375,2.979997144494618E-7,7300000.0,63.800000000000004,18.023877244152974,27.016129032258068,9.950248756218913,684547.0,9208.0,0.0,1.0,0.0,?,0.0,0.0
7400000.0,11.25,3.030877107650868E-7,7400000.0,66.7,24.489795918367367,30.625000000000007,16.750000000000014,714547.0,9208.0,0.0,1.0,0.0,?,0.0,0.0
7500000.0,11.390625,3.0711393467047134E-7,7500000.0,63.800000000000004,21.13530306265169,28.880157170923383,16.00928074245941,744547.0,9208.0,0.0,1.0,0.0,?,0.0,0.0
7600000.0,11.546875,3.1097310258903424E-7,7600000.0,65.7,23.27994989711015,28.838174273858925,17.548076923076938,774547.0,9208.0,0.0,1.0,0.0,?,0.0,0.0
7700000.0,11.703125,3.142178563090661E-7,7700000.0,64.0,21.545039685134093,26.07802874743327,16.859122401847586,804547.0,9208.0,0.0,1.0,0.0,?,0.0,0.0
7800000.0,11.84375,3.165851618784168E-7,7800000.0,65.9,25.279598920169693,33.39843750000001,20.327102803738335,834547.0,9208.0,0.0,1.0,0.0,?,0.0,0.0
7900000.0,12.0,3.1860108720138656E-7,7900000.0,65.4,22.01867945620425,28.512396694214882,15.196078431372563,864547.0,9208.0,0.0,1.0,0.0,?,0.0,0.0
8000000.0,12.140625,3.198624472133814E-7,8000000.0,66.3,22.952408823206653,27.526881720430108,14.898989898989912,894547.0,9208.0,0.0,1.0,0.0,?,0.0,0.0
8100000.0,12.296875,3.2679983026658483E-7,8100000.0,62.7,18.269146493242417,21.802935010482177,12.028301886792462,924247.0,9208.0,0.0,1.0,0.0,?,0.0,0.0
8200000.0,12.4375,3.3249050223579E-7,8200000.0,64.7,21.305832731423273,25.840336134453786,14.734299516908225,954247.0,9208.0,0.0,1.0,0.0,?,0.0,0.0
8300000.0,12.59375,3.381990568919313E-7,8300000.0,68.8,28.57535300258226,33.61702127659573,20.812182741116743,984247.0,9208.0,0.0,1.0,0.0,?,0.0,0.0
8400000.0,12.75,3.432931973495416E-7,8400000.0,68.30000000000001,25.0201050191589,29.39866369710468,14.324324324324337,1014247.0,9208.0,0.0,1.0,0.0,?,0.0,0.0
8500000.0,12.890625,3.4732495098271293E-7,8500000.0,65.8,23.23887075849872,28.750000000000004,17.19128329297822,1044247.0,9208.0,0.0,1.0,0.0,?,0.0,0.0
8600000.0,13.03125,3.5080373183720633E-7,8600000.0,64.4,20.268042714828358,23.110151187904965,13.592233009708748,1074247.0,9208.0,0.0,1.0,0.0,?,0.0,0.0
8700000.0,13.1875,3.540546296992235E-7,8700000.0,64.9,23.975949542556144,28.803245436105477,19.679633867276902,1104247.0,9208.0,0.0,1.0,0.0,?,0.0,0.0
8800000.0,13.328125,3.56427464996361E-7,8800000.0,63.1,19.76167695920676,22.478991596638654,14.583333333333345,1134247.0,9208.0,0.0,1.0,0.0,?,0.0,0.0
8900000.0,13.484375,3.584495344613161E-7,8900000.0,64.7,23.015859169181933,29.960317460317466,17.330210772833738,1164247.0,9208.0,0.0,1.0,0.0,?,0.0,0.0
9000000.0,13.625,3.5971642420109774E-7,9000000.0,65.2,22.014010586373974,28.395061728395067,15.73849878934626,1194247.0,9208.0,0.0,1.0,0.0,?,0.0,0.0
9100000.0,13.78125,3.666599513962865E-7,9100000.0,68.10000000000001,27.212157166978514,34.63114754098361,19.24050632911394,1223947.0,9208.0,0.0,1.0,0.0,?,0.0,0.0
9200000.0,13.9375,3.729890643929442E-7,9200000.0,66.60000000000001,23.311826969439537,29.53586497890296,15.443037974683557,1253947.0,9208.0,0.0,1.0,0.0,?,0.0,0.0
9300000.0,14.078125,3.7813229331125816E-7,9300000.0,66.10000000000001,22.295469757121776,28.78151260504202,12.40310077519381,1283947.0,9208.0,0.0,1.0,0.0,?,0.0,0.0
9400000.0,14.234375,3.8323257791085376E-7,9400000.0,67.60000000000001,26.94146297465503,35.20000000000001,20.975609756097576,1313947.0,9208.0,0.0,1.0,0.0,?,0.0,0.0
9500000.0,14.390625,3.877184483119183E-7,9500000.0,66.10000000000001,23.197520571283583,28.329809725158565,15.461346633416472,1343947.0,9208.0,0.0,1.0,0.0,?,0.0,0.0
9600000.0,14.53125,3.9120275889419845E-7,9600000.0,63.7,19.852687915639986,24.217118997912316,13.776722090261293,1373947.0,9208.0,0.0,1.0,0.0,?,0.0,0.0
9700000.0,14.6875,3.944598008982009E-7,9700000.0,64.60000000000001,21.415759470066952,27.755102040816325,15.311004784689008,1403947.0,9208.0,0.0,1.0,0.0,?,0.0,0.0
9800000.0,14.828125,3.9683816592312516E-7,9800000.0,69.1,25.97029228557737,31.93832599118941,14.16666666666665,1433947.0,9208.0,0.0,1.0,0.0,?,0.0,0.0
9900000.0,14.96875,3.986635581693715E-7,9900000.0,64.3,21.13913089578879,22.894168466522675,14.79713603818617,1463947.0,9208.0,0.0,1.0,0.0,?,0.0,0.0
1.0E7,15.140625,4.0021873751862175E-7,1.0E7,66.4,24.74736615781553,28.96405919661734,18.446601941747588,1493947.0,9208.0,0.0,1.0,0.0,?,0.0,0.0
