learning evaluation instances,evaluation time (cpu seconds),model cost (RAM-Hours),classified instances,classifications correct (percent),Kappa Statistic (percent),Kappa Temporal Statistic (percent),Kappa M Statistic (percent),model training instances,model serialized size (bytes),labeling cost,newThreshold,maxPosterior,accuracyBaseLearner (percent),Change detected,Warning detected
100000.0,0.109375,3.1801755540072917E-9,100000.0,69.8,36.846507737348375,25.98039215686274,-7.0921985815602895,3600.0,7320.0,0.0,1.0,0.0,?,10.0,92.0
200000.0,0.234375,6.5143103711307044E-9,200000.0,63.1,30.24310938031684,12.765957446808521,-25.938566552901005,23600.0,7320.0,0.0,1.0,0.0,?,0.0,2.0
300000.0,0.375,9.91596607491374E-9,300000.0,64.60000000000001,32.3758983116898,17.674418604651176,-17.607973421926886,43600.0,7320.0,0.0,1.0,0.0,?,0.0,0.0
400000.0,0.484375,1.2290062538037697E-8,400000.0,64.3,30.263630823084508,15.201900237529703,-24.390243902439003,63600.0,7320.0,0.0,1.0,0.0,?,0.0,0.0
500000.0,0.609375,1.4692874780545631E-8,500000.0,63.2,30.126493831004865,12.796208530805696,-22.259136212624565,83600.0,7320.0,0.0,1.0,0.0,?,0.0,0.0
600000.0,0.71875,1.652369974181056E-8,600000.0,66.60000000000001,30.067001675041887,22.6851851851852,-11.333333333333306,103600.0,7320.0,0.0,1.0,0.0,?,0.0,0.0
700000.0,0.84375,1.8305630267908176E-8,700000.0,69.3,35.75362876898091,21.079691516709502,-6.968641114982583,123600.0,7320.0,0.0,1.0,0.0,?,0.0,0.0
800000.0,0.96875,1.977711993580063E-8,800000.0,69.69999999999999,35.67316020992205,21.29870129870129,-5.574912891986067,143600.0,7320.0,0.0,1.0,0.0,?,0.0,0.0
900000.0,1.09375,2.0938168745487927E-8,900000.0,63.7,29.540831379369248,12.318840579710155,-25.605536332179913,163600.0,7320.0,0.0,1.0,0.0,?,0.0,0.0
1000000.0,1.21875,2.1788776696970065E-8,1000000.0,64.9,31.884339219871922,9.067357512953375,-27.63636363636362,183600.0,7320.0,0.0,1.0,0.0,?,0.0,0.0
1100000.0,1.328125,2.498049677039186E-8,1100000.0,63.9,31.41471866735569,21.52173913043478,-13.880126182965313,203400.0,7320.0,0.0,1.0,0.0,?,0.0,0.0
1200000.0,1.453125,2.8317735996097323E-8,1200000.0,71.1,39.484043889773005,29.51219512195122,-3.2142857142857166,223400.0,7320.0,0.0,1.0,0.0,?,0.0,0.0
1300000.0,1.59375,3.172288415953516E-8,1300000.0,68.4,33.66946402408051,24.582338902147992,-7.849829351535805,243400.0,7320.0,0.0,1.0,0.0,?,0.0,0.0
1400000.0,1.71875,3.443924166883031E-8,1400000.0,62.8,29.45219248172774,9.268292682926836,-18.849840255591076,263400.0,7320.0,0.0,1.0,0.0,?,0.0,0.0
1500000.0,1.84375,3.6845158319920295E-8,1500000.0,67.0,31.441107911696147,17.085427135678405,-16.60777385159008,283400.0,7320.0,0.0,1.0,0.0,?,0.0,0.0
1600000.0,1.96875,3.894063411280512E-8,1600000.0,65.4,32.88121915639841,17.42243436754178,-16.891891891891866,303400.0,7320.0,0.0,1.0,0.0,?,0.0,0.0
1700000.0,2.078125,4.050253968064983E-8,1700000.0,66.2,30.45725384336835,18.357487922705328,-10.457516339869253,323400.0,7320.0,0.0,1.0,0.0,?,0.0,0.0
1800000.0,2.203125,4.197713375712434E-8,1800000.0,69.89999999999999,37.27650848955163,25.124378109452728,-5.244755244755249,343400.0,7320.0,0.0,1.0,0.0,?,0.0,0.0
1900000.0,2.328125,4.314128697539369E-8,1900000.0,63.7,30.420848443957155,15.18691588785048,-21.40468227424747,363400.0,7320.0,0.0,1.0,0.0,?,0.0,0.0
2000000.0,2.453125,4.399499933545788E-8,2000000.0,68.0,32.02134529757656,13.513513513513525,-21.212121212121186,383400.0,7320.0,0.0,1.0,0.0,?,0.0,0.0
2100000.0,2.578125,4.7645783827950555E-8,2100000.0,65.60000000000001,34.08572687731132,18.676122931442094,-14.28571428571426,403200.0,7320.0,0.0,1.0,0.0,?,0.0,0.0
2200000.0,2.703125,5.098612746223807E-8,2200000.0,64.5,31.376566740638218,11.910669975186114,-27.697841726618687,423200.0,7320.0,0.0,1.0,0.0,?,0.0,0.0
2300000.0,2.8125,5.363729239131013E-8,2300000.0,70.0,37.531234382808584,28.400954653937944,3.2258064516129052,443200.0,7320.0,0.0,1.0,0.0,?,0.0,0.0
2400000.0,2.921875,5.601682156945268E-8,2400000.0,64.0,29.31224743855075,2.7027027027027053,-29.032258064516114,463200.0,7320.0,0.0,1.0,0.0,?,0.0,0.0
2500000.0,3.046875,5.8425842629124714E-8,2500000.0,68.7,33.62681731046535,25.653206650831372,-7.560137457044641,483200.0,7320.0,0.0,1.0,0.0,?,0.0,0.0
2600000.0,3.171875,6.052442283059159E-8,2600000.0,68.0,34.21052631578947,24.349881796690326,3.0303030303030334,503200.0,7320.0,0.0,1.0,0.0,?,0.0,0.0
2700000.0,3.28125,6.20890447559456E-8,2700000.0,66.8,35.3582554517134,24.8868778280543,-10.666666666666638,523200.0,7320.0,0.0,1.0,0.0,?,0.0,0.0
2800000.0,3.40625,6.356674324100217E-8,2800000.0,65.2,31.2926459438969,12.121212121212132,-29.850746268656696,543200.0,7320.0,0.0,1.0,0.0,?,0.0,0.0
2900000.0,3.53125,6.473400086785356E-8,2900000.0,69.1,34.402703712509755,24.078624078624074,-3.3444816053511732,563200.0,7320.0,0.0,1.0,0.0,?,0.0,0.0
3000000.0,3.65625,6.55908176364998E-8,3000000.0,66.7,30.49467752035066,23.094688221709024,-7.419354838709646,583200.0,7320.0,0.0,1.0,0.0,?,0.0,0.0
3100000.0,3.78125,6.924470653757453E-8,3100000.0,62.0,28.11879315236925,6.8627450980392215,-22.977346278317132,603000.0,7320.0,0.0,1.0,0.0,?,0.0,0.0
3200000.0,3.890625,7.21702235750854E-8,3200000.0,63.9,30.638281520193665,15.654205607476648,-14.968152866242054,623000.0,7320.0,0.0,1.0,0.0,?,0.0,0.0
3300000.0,4.015625,7.52032307597498E-8,3300000.0,68.8,35.43447219750428,21.80451127819548,-9.473684210526322,643000.0,7320.0,0.0,1.0,0.0,?,0.0,0.0
3400000.0,4.140625,7.792579708620905E-8,3400000.0,66.5,32.757928542753916,19.471153846153864,-21.818181818181795,663000.0,7320.0,0.0,1.0,0.0,?,0.0,0.0
3500000.0,4.265625,8.033792255446314E-8,3500000.0,63.6,27.13383752447223,4.712041884816758,-33.33333333333332,683000.0,7320.0,0.0,1.0,0.0,?,0.0,0.0
3600000.0,4.390625,8.243960716451207E-8,3600000.0,66.9,33.104284559417955,24.601366742596813,-10.333333333333304,703000.0,7320.0,0.0,1.0,0.0,?,0.0,0.0
3700000.0,4.515625,8.423085091635584E-8,3700000.0,69.39999999999999,36.116910229645086,23.499999999999993,-5.517241379310349,723000.0,7320.0,0.0,1.0,0.0,?,0.0,0.0
3800000.0,4.609375,8.534145308658479E-8,3800000.0,61.9,26.919093106226267,11.188811188811197,-24.50980392156861,743000.0,7320.0,0.0,1.0,0.0,?,0.0,0.0
3900000.0,4.734375,8.651181512201824E-8,3900000.0,66.2,34.554973821989535,17.761557177615586,-11.184210526315761,763000.0,7320.0,0.0,1.0,0.0,?,0.0,0.0
4000000.0,4.84375,8.7264246152093E-8,4000000.0,69.39999999999999,36.86139218566876,31.235955056179755,-2.6845637583892636,783000.0,7320.0,0.0,1.0,0.0,?,0.0,0.0
4100000.0,4.953125,9.046411529804268E-8,4100000.0,69.3,35.64480965956732,26.024096385542162,-4.067796610169495,802800.0,7320.0,0.0,1.0,0.0,?,0.0,0.0
4200000.0,5.078125,9.38106677494943E-8,4200000.0,70.3,38.206875889446465,25.935162094763086,-1.0204081632653068,822800.0,7320.0,0.0,1.0,0.0,?,0.0,0.0
4300000.0,5.1875,9.646726539358496E-8,4300000.0,62.2,27.8562621909557,9.785202863961821,-27.272727272727256,842800.0,7320.0,0.0,1.0,0.0,?,0.0,0.0
4400000.0,5.3125,9.919293612862625E-8,4400000.0,69.89999999999999,37.77957847214756,26.941747572815526,0.3311258278145698,862800.0,7320.0,0.0,1.0,0.0,?,0.0,0.0
4500000.0,5.4375,1.016081660054624E-7,4500000.0,66.2,30.451530066338545,15.075376884422123,-14.965986394557795,882800.0,7320.0,0.0,1.0,0.0,?,0.0,0.0
4600000.0,5.5625,1.0371295502409338E-7,4600000.0,68.10000000000001,34.39993419429137,25.64102564102566,-4.9342105263157565,902800.0,7320.0,0.0,1.0,0.0,?,0.0,0.0
4700000.0,5.6875,1.055073031845192E-7,4700000.0,67.60000000000001,33.427575777500174,24.651162790697693,-10.958904109589012,922800.0,7320.0,0.0,1.0,0.0,?,0.0,0.0
4800000.0,5.8125,1.0699121048673986E-7,4800000.0,70.1,37.02982974887748,25.621890547263675,-5.653710247349827,942800.0,7320.0,0.0,1.0,0.0,?,0.0,0.0
4900000.0,5.921875,1.0801799362525343E-7,4900000.0,68.7,35.12307960170132,28.211009174311947,-9.44055944055941,962800.0,7320.0,0.0,1.0,0.0,?,0.0,0.0
5000000.0,6.046875,1.0890533707828985E-7,5000000.0,67.9,33.32391698100667,20.347394540942947,-11.072664359861562,982800.0,7320.0,0.0,1.0,0.0,?,0.0,0.0
5100000.0,6.171875,1.1258975266375476E-7,5100000.0,69.19999999999999,38.938561884181496,38.15261044176706,31.707317073170714,1002600.0,7320.0,0.0,1.0,0.0,?,0.0,0.0
5200000.0,6.296875,1.159637273910145E-7,5200000.0,70.3,40.683043738765726,41.30434782608695,39.139344262295076,1022600.0,7320.0,0.0,1.0,0.0,?,0.0,0.0
5300000.0,6.421875,1.1902726126006908E-7,5300000.0,70.89999999999999,42.37486831370249,40.97363083164299,36.32385120350108,1042600.0,7320.0,0.0,1.0,0.0,?,0.0,0.0
5400000.0,6.53125,1.2143621764456232E-7,5400000.0,69.19999999999999,38.62071989127098,40.99616858237547,34.32835820895521,1062600.0,7320.0,0.0,1.0,0.0,?,0.0,0.0
5500000.0,6.640625,1.2356923737873633E-7,5500000.0,70.19999999999999,40.74203696265156,39.05930470347647,35.637149028077744,1082600.0,7320.0,0.0,1.0,0.0,?,0.0,2.0
5600000.0,6.765625,1.2569653335958718E-7,5600000.0,68.7,37.70003662362065,37.14859437751005,33.68644067796611,1102600.0,7320.0,0.0,1.0,0.0,?,0.0,0.0
5700000.0,6.890625,1.2751338848223287E-7,5700000.0,67.80000000000001,36.36967244213988,31.779661016949156,24.766355140186935,1122600.0,7320.0,0.0,1.0,0.0,?,0.0,0.0
5800000.0,7.0,1.2883150096361834E-7,5800000.0,68.4,37.067839276041184,34.16666666666667,31.601731601731608,1142600.0,7320.0,0.0,1.0,0.0,?,0.0,0.0
5900000.0,7.125,1.300274743698537E-7,5900000.0,71.8,44.06715115356541,44.268774703557305,36.19909502262442,1162600.0,7320.0,0.0,1.0,0.0,?,0.0,0.0
6000000.0,7.234375,1.3080231534938014E-7,6000000.0,69.0,38.45200844994359,37.875751503006,30.49327354260088,1182600.0,7320.0,0.0,1.0,0.0,?,0.0,0.0
6100000.0,7.359375,1.3448492002983886E-7,6100000.0,70.3,41.041481387371356,44.3820224719101,35.574837310195214,1202400.0,7320.0,0.0,1.0,0.0,?,0.0,0.0
6200000.0,7.484375,1.378570838520924E-7,6200000.0,71.5,43.26325848064978,39.99999999999999,39.4904458598726,1222400.0,7320.0,0.0,1.0,0.0,?,0.0,0.0
6300000.0,7.59375,1.4053609144563475E-7,6300000.0,69.3,39.14574099475898,38.353413654618464,33.549783549783534,1242400.0,7320.0,0.0,1.0,0.0,?,0.0,0.0
6400000.0,7.703125,1.4294346328824756E-7,6400000.0,70.7,41.61671874003697,39.085239085239074,37.791932059447966,1262400.0,7320.0,0.0,1.0,0.0,?,0.0,0.0
6500000.0,7.828125,1.4538430453588563E-7,6500000.0,67.0,34.72404093791663,33.6016096579477,27.1523178807947,1282400.0,7320.0,0.0,1.0,0.0,?,0.0,0.0
6600000.0,7.9375,1.4724840487663943E-7,6600000.0,71.39999999999999,43.25149113651785,44.031311154598825,36.302895322939854,1302400.0,7320.0,0.0,1.0,0.0,?,0.0,0.0
6700000.0,8.0625,1.490683644078672E-7,6700000.0,68.2,36.73479944135636,38.84615384615386,33.61169102296452,1322400.0,7320.0,0.0,1.0,0.0,?,0.0,0.0
6800000.0,8.1875,1.5057788308088978E-7,6800000.0,68.0,36.65874901029296,32.34672304439747,28.888888888888893,1342400.0,7320.0,0.0,1.0,0.0,?,0.0,0.0
6900000.0,8.296875,1.5162707616885503E-7,6900000.0,67.30000000000001,35.28494415110471,32.43801652892563,27.494456762749447,1362400.0,7320.0,0.0,1.0,0.0,?,0.0,0.0
7000000.0,8.421875,1.5251571312546732E-7,7000000.0,69.5,39.414405466608386,33.55119825708059,25.06142506142505,1382400.0,7320.0,0.0,1.0,0.0,?,0.0,0.0
7100000.0,8.546875,1.5620142221450808E-7,7100000.0,70.7,41.73328560633177,44.29657794676805,38.18565400843881,1402200.0,7320.0,0.0,1.0,0.0,?,0.0,0.0
7200000.0,8.65625,1.5915478191648922E-7,7200000.0,67.10000000000001,34.77398889770024,32.719836400818004,26.06741573033708,1422200.0,7320.0,0.0,1.0,0.0,?,0.0,0.0
7300000.0,8.78125,1.6221960928911965E-7,7300000.0,68.89999999999999,38.16802392161851,33.54700854700853,33.68869936034113,1442200.0,7320.0,0.0,1.0,0.0,?,0.0,0.0
7400000.0,8.890625,1.6462969748924178E-7,7400000.0,68.30000000000001,36.98113807691086,35.95959595959597,25.93457943925236,1462200.0,7320.0,0.0,1.0,0.0,?,0.0,0.0
7500000.0,9.0,1.6676814993843438E-7,7500000.0,68.4,37.37117488504837,37.425742574257434,25.47169811320757,1482200.0,7320.0,0.0,1.0,0.0,?,0.0,0.0
7600000.0,9.125,1.6890165473644933E-7,7600000.0,68.7,37.32177757841788,38.385826771653555,38.14229249011859,1502200.0,7320.0,0.0,1.0,0.0,?,0.0,0.0
7700000.0,9.25,1.7072471867625914E-7,7700000.0,70.8,41.98176001907447,45.215759849906185,35.54083885209712,1522200.0,7320.0,0.0,1.0,0.0,?,0.0,0.0
7800000.0,9.359375,1.720482638726632E-7,7800000.0,69.5,39.31604205298804,37.24279835390945,25.06142506142505,1542200.0,7320.0,0.0,1.0,0.0,?,0.0,0.0
7900000.0,9.46875,1.7310017331813774E-7,7900000.0,68.8,37.93589095813456,35.26970954356845,33.19057815845823,1562200.0,7320.0,0.0,1.0,0.0,?,0.0,0.0
8000000.0,9.59375,1.7399191468333207E-7,8000000.0,69.3,38.841210266708096,41.187739463601524,34.81953290870487,1582200.0,7320.0,0.0,1.0,0.0,?,0.0,0.0
8100000.0,9.703125,1.7721962649375204E-7,8100000.0,68.5,37.67461002113129,34.10041841004185,31.37254901960785,1602000.0,7320.0,0.0,1.0,0.0,?,0.0,0.0
8200000.0,9.8125,1.8017570255324247E-7,8200000.0,69.3,39.134641310726565,39.56692913385826,33.83620689655171,1622000.0,7320.0,0.0,1.0,0.0,?,0.0,0.0
8300000.0,9.9375,1.8324363433445495E-7,8300000.0,69.3,39.10373391307107,40.618955512572526,32.22958057395142,1642000.0,7320.0,0.0,1.0,0.0,?,0.0,0.0
8400000.0,10.046875,1.8565643889208637E-7,8400000.0,68.0,36.3634917352085,36.127744510978054,30.13100436681223,1662000.0,7320.0,0.0,1.0,0.0,?,0.0,0.0
8500000.0,10.171875,1.8810348895688854E-7,8500000.0,67.4,35.61587562409152,31.078224101479922,24.88479262672813,1682000.0,7320.0,0.0,1.0,0.0,?,0.0,0.0
8600000.0,10.296875,1.9024009816348554E-7,8600000.0,67.9,36.23867789607501,35.282258064516135,30.217391304347828,1702000.0,7320.0,0.0,1.0,0.0,?,0.0,0.0
8700000.0,10.421875,1.920662665118774E-7,8700000.0,70.5,41.04951840454017,40.28340080971659,31.3953488372093,1722000.0,7320.0,0.0,1.0,0.0,?,0.0,0.0
8800000.0,10.53125,1.9339252806579074E-7,8800000.0,69.6,39.5864053513726,39.19999999999999,33.76906318082787,1742000.0,7320.0,0.0,1.0,0.0,?,0.0,0.0
8900000.0,10.65625,1.9459781469777226E-7,8900000.0,70.3,41.09947643979056,42.33009708737863,35.434782608695635,1762000.0,7320.0,0.0,1.0,0.0,?,0.0,0.0
9000000.0,10.765625,1.953808047498266E-7,9000000.0,68.8,37.86667622563954,39.768339768339764,32.613390928725686,1782000.0,7320.0,0.0,1.0,0.0,?,0.0,0.0
9100000.0,10.890625,1.9907272265603146E-7,9100000.0,71.39999999999999,43.06440888513742,42.454728370221325,37.417943107221,1801800.0,7320.0,0.0,1.0,0.0,?,0.0,0.0
9200000.0,10.984375,2.0160883044203125E-7,9200000.0,69.69999999999999,39.71972657027127,39.27855711422845,34.27331887201734,1821800.0,7320.0,0.0,1.0,0.0,?,0.0,0.0
9300000.0,11.109375,2.046798666318258E-7,9300000.0,67.10000000000001,34.85354919448096,34.98023715415021,25.733634311512414,1841800.0,7320.0,0.0,1.0,0.0,?,0.0,0.0
9400000.0,11.234375,2.0744046196341518E-7,9400000.0,67.30000000000001,35.25265325518771,34.072580645161295,26.351351351351354,1861800.0,7320.0,0.0,1.0,0.0,?,0.0,0.0
9500000.0,11.34375,2.0958434712762637E-7,9500000.0,69.1,38.42413614443425,37.701612903225794,33.54838709677418,1881800.0,7320.0,0.0,1.0,0.0,?,0.0,0.0
9600000.0,11.46875,2.1172406074280544E-7,9600000.0,71.6,43.50372397988414,42.51012145748987,40.70981210855949,1901800.0,7320.0,0.0,1.0,0.0,?,0.0,0.0
9700000.0,11.59375,2.1355333349977935E-7,9700000.0,69.89999999999999,40.55988246259814,41.89189189189189,30.32407407407407,1921800.0,7320.0,0.0,1.0,0.0,?,0.0,0.0
9800000.0,11.703125,2.1488231141120199E-7,9800000.0,71.8,43.90694121765697,44.48818897637795,38.96103896103895,1941800.0,7320.0,0.0,1.0,0.0,?,0.0,0.0
9900000.0,11.828125,2.1609070245176558E-7,9900000.0,73.8,47.77984620965395,50.4725897920605,45.302713987473894,1961800.0,7320.0,0.0,1.0,0.0,?,0.0,0.0
1.0E7,11.9375,2.168764088613292E-7,1.0E7,68.2,37.004754358161655,34.836065573770504,29.646017699115053,1981800.0,7320.0,0.0,1.0,0.0,?,0.0,0.0
