learning evaluation instances,evaluation time (cpu seconds),model cost (RAM-Hours),classified instances,classifications correct (percent),Kappa Statistic (percent),Kappa Temporal Statistic (percent),Kappa M Statistic (percent),model training instances,model serialized size (bytes),labeling cost,newThreshold,maxPosterior,accuracyBaseLearner (percent),Change detected,Warning detected
100000.0,0.203125,4.834049226095279E-9,100000.0,63.0,27.631192911768732,20.940170940170937,17.960088691796003,39800.0,9208.0,0.0,1.0,0.0,?,0.0,23.0
200000.0,0.390625,8.588831406086684E-9,200000.0,62.9,27.46369274324102,24.43991853360489,15.489749430523908,79800.0,9208.0,0.0,1.0,0.0,?,0.0,41.0
300000.0,0.59375,1.1841378485163053E-8,300000.0,63.3,27.846807172066683,23.060796645702304,19.340659340659336,119800.0,9208.0,0.0,1.0,0.0,?,0.0,17.0
400000.0,0.78125,1.4106432596842448E-8,400000.0,62.9,28.28478864309408,22.54697286012526,13.519813519813532,159800.0,9208.0,0.0,1.0,0.0,?,0.0,0.0
500000.0,0.984375,1.57615027597381E-8,500000.0,62.9,26.691432184634838,20.8955223880597,20.726495726495724,199800.0,9208.0,0.0,1.0,0.0,?,0.0,0.0
600000.0,1.1875,2.0611526754995188E-8,600000.0,64.2,29.63836477987422,27.67676767676768,20.44444444444444,239600.0,9208.0,0.0,1.0,0.0,?,0.0,0.0
700000.0,1.390625,2.4662812292161916E-8,700000.0,62.4,26.768463695855406,22.633744855967073,14.545454545454534,279600.0,9208.0,0.0,1.0,0.0,?,0.0,0.0
800000.0,1.578125,2.7665163442078564E-8,800000.0,63.0,27.970721071484196,21.610169491525422,15.909090909090901,319600.0,9208.0,0.0,1.0,0.0,?,0.0,0.0
900000.0,1.78125,3.011897206306458E-8,900000.0,62.6,27.061393244402836,24.291497975708502,15.384615384615374,359600.0,9208.0,0.0,1.0,0.0,?,0.0,0.0
1000000.0,2.0,3.190135531541374E-8,1000000.0,64.0,29.419791474695035,27.710843373493976,20.529801324503307,399600.0,9208.0,0.0,1.0,0.0,?,0.0,0.0
1100000.0,2.203125,3.675936669525173E-8,1100000.0,62.7,26.693133131559293,25.100401606425706,17.29490022172948,439400.0,9208.0,0.0,1.0,0.0,?,0.0,0.0
1200000.0,2.40625,4.081863961699936E-8,1200000.0,61.6,24.008549038233195,20.661157024793383,16.883116883116873,479400.0,9208.0,0.0,1.0,0.0,?,0.0,0.0
1300000.0,2.609375,4.407917408065664E-8,1300000.0,61.4,24.13760573566868,24.90272373540856,16.45021645021644,519400.0,9208.0,0.0,1.0,0.0,?,0.0,0.0
1400000.0,2.8125,4.654097008622355E-8,1400000.0,64.5,30.419443355546843,28.571428571428577,19.318181818181813,559400.0,9208.0,0.0,1.0,0.0,?,0.0,0.0
1500000.0,3.0,4.8076100130048064E-8,1500000.0,64.1,29.819211160113856,26.883910386965375,19.144144144144136,599400.0,9208.0,0.0,1.0,0.0,?,0.0,0.0
1600000.0,3.203125,5.2934111509886056E-8,1600000.0,61.9,26.21712692203417,14.189189189189177,6.845965770171154,639200.0,9208.0,0.0,1.0,0.0,?,0.0,0.0
1700000.0,3.40625,5.6993384431633686E-8,1700000.0,65.8,32.892753987190765,25.813449023861175,22.972972972972972,679200.0,9208.0,0.0,1.0,0.0,?,0.0,0.0
1800000.0,3.609375,6.025391889529095E-8,1800000.0,61.8,25.92276575692583,21.721311475409834,11.778290993071602,719200.0,9208.0,0.0,1.0,0.0,?,0.0,0.0
1900000.0,3.8125,6.271571490085787E-8,1900000.0,63.2,28.08707716960116,23.01255230125523,14.617169373549896,759200.0,9208.0,0.0,1.0,0.0,?,0.0,0.0
2000000.0,4.015625,6.437877244833442E-8,2000000.0,62.9,27.428504362114147,25.94810379241517,16.62921348314606,799200.0,9208.0,0.0,1.0,0.0,?,0.0,0.0
2100000.0,4.21875,6.926116637057728E-8,2100000.0,63.9,29.092223322176668,30.84291187739464,16.435185185185198,839000.0,9208.0,0.0,1.0,0.0,?,0.0,28.0
2200000.0,4.4375,7.365894917812612E-8,2200000.0,63.3,28.272681077277873,26.305220883534137,17.52808988764044,879000.0,9208.0,0.0,1.0,0.0,?,0.0,0.0
2300000.0,4.65625,7.719655210773149E-8,2300000.0,62.8,26.521421375945632,24.848484848484848,20.34261241970021,919000.0,9208.0,0.0,1.0,0.0,?,0.0,0.0
2400000.0,4.875,7.987397515939341E-8,2400000.0,61.9,25.768616295834473,23.030303030303028,12.413793103448285,959000.0,9208.0,0.0,1.0,0.0,?,0.0,0.0
2500000.0,5.078125,8.15412365934915E-8,2500000.0,61.3,23.873445011841902,19.20668058455114,13.808463251670366,999000.0,9208.0,0.0,1.0,0.0,?,0.0,4.0
2600000.0,5.28125,8.640765574657254E-8,2600000.0,62.9,27.601845274800755,23.662551440329217,15.489749430523908,1038800.0,9208.0,0.0,1.0,0.0,?,0.0,42.0
2700000.0,5.484375,9.049131121072504E-8,2700000.0,64.0,29.70864232242645,25.311203319502074,18.3673469387755,1078800.0,9208.0,0.0,1.0,0.0,?,0.0,21.0
2800000.0,5.703125,9.40148796265324E-8,2800000.0,64.2,30.21768962075849,25.72614107883818,15.962441314554003,1118800.0,9208.0,0.0,1.0,0.0,?,0.0,61.0
2900000.0,5.90625,9.644892998039723E-8,2900000.0,65.10000000000001,31.09085739558981,32.49516441005804,25.427350427350426,1158800.0,9208.0,0.0,1.0,0.0,?,0.0,80.0
3000000.0,6.109375,9.81216564671033E-8,3000000.0,64.2,29.666011787819258,22.844827586206897,20.44444444444444,1198800.0,9208.0,0.0,1.0,0.0,?,0.0,5.0
3100000.0,6.3125,1.0299732417075171E-7,3100000.0,62.6,26.563279283383263,26.953125,18.87201735357917,1238600.0,9208.0,0.0,1.0,0.0,?,0.0,0.0
3200000.0,6.515625,1.0704146310066184E-7,3200000.0,64.5,30.551751660889092,28.714859437751006,19.86455981941309,1278600.0,9208.0,0.0,1.0,0.0,?,0.0,23.0
3300000.0,6.734375,1.1058766782904666E-7,3300000.0,64.3,30.850404437970695,28.45691382765531,16.588785046728987,1318600.0,9208.0,0.0,1.0,0.0,?,0.0,21.0
3400000.0,6.953125,1.1327369267948801E-7,3400000.0,63.0,27.714327020384566,24.024640657084188,12.529550827423177,1358600.0,9208.0,0.0,1.0,0.0,?,0.0,0.0
3500000.0,7.1875,1.1522995515002146E-7,3500000.0,63.9,29.356419368473784,29.35420743639922,19.599109131403115,1398600.0,9208.0,0.0,1.0,0.0,?,0.0,0.0
3600000.0,7.40625,1.204965196342932E-7,3600000.0,65.10000000000001,31.224480143778283,31.027667984189726,22.616407982261638,1438400.0,9208.0,0.0,1.0,0.0,?,0.0,0.0
3700000.0,7.625,1.2490290424062148E-7,3700000.0,66.7,34.42455081801928,33.13253012048193,27.292576419213976,1478400.0,9208.0,0.0,1.0,0.0,?,0.0,0.0
3800000.0,7.84375,1.2844910896900628E-7,3800000.0,63.2,27.54308036417478,22.19873150105708,16.74208144796379,1518400.0,9208.0,0.0,1.0,0.0,?,0.0,0.0
3900000.0,8.046875,1.3094327490155897E-7,3900000.0,62.9,27.578102429159273,26.824457593688365,15.296803652968027,1558400.0,9208.0,0.0,1.0,0.0,?,0.0,0.0
4000000.0,8.265625,1.3276911987405687E-7,4000000.0,63.5,28.10091873236995,26.411290322580644,19.956140350877188,1598400.0,9208.0,0.0,1.0,0.0,?,0.0,0.0
4100000.0,8.484375,1.3804428615710804E-7,4100000.0,59.5,20.530892879567993,20.275590551181097,11.378555798687076,1638200.0,9208.0,0.0,1.0,0.0,?,0.0,0.0
4200000.0,8.703125,1.4245927256221574E-7,4200000.0,63.9,28.964974419519873,28.08764940239044,21.350762527233112,1678200.0,9208.0,0.0,1.0,0.0,?,0.0,0.0
4300000.0,8.9375,1.462679938413203E-7,4300000.0,60.9,22.292973376896956,20.68965517241379,19.712525667351123,1718200.0,9208.0,0.0,1.0,0.0,?,0.0,0.0
4400000.0,9.15625,1.4896262049054109E-7,4400000.0,61.7,25.27470812261971,25.1953125,15.07760532150775,1758200.0,9208.0,0.0,1.0,0.0,?,0.0,0.0
4500000.0,9.375,1.507418346591294E-7,4500000.0,62.0,25.637172020790285,19.83122362869198,12.844036697247715,1798200.0,9208.0,0.0,1.0,0.0,?,0.0,11.0
4600000.0,9.578125,1.5562506935869657E-7,4600000.0,63.3,27.690998218873634,25.557809330628807,20.04357298474945,1838000.0,9208.0,0.0,1.0,0.0,?,0.0,41.0
4700000.0,9.765625,1.5939731383696202E-7,4700000.0,64.5,30.83697007481298,24.307036247334754,15.476190476190489,1878000.0,9208.0,0.0,1.0,0.0,?,0.0,7.0
4800000.0,9.96875,1.6268517356365924E-7,4800000.0,64.9,31.242262305872025,29.940119760479046,20.76749435665914,1918000.0,9208.0,0.0,1.0,0.0,?,0.0,0.0
4900000.0,10.171875,1.651742948322661E-7,4900000.0,64.4,30.256249510226475,27.789046653144016,19.45701357466063,1958000.0,9208.0,0.0,1.0,0.0,?,0.0,0.0
5000000.0,10.359375,1.6684679495584638E-7,5000000.0,64.3,30.367006834566045,26.69404517453799,18.67881548974942,1998000.0,9208.0,0.0,1.0,0.0,?,0.0,0.0
5100000.0,10.5625,1.7185278314476217E-7,5100000.0,62.2,10.059532024041214,19.57446808510638,-1.8867924528301903,29987.0,9208.0,0.0,1.0,0.0,?,2.0,20.0
5200000.0,10.75,1.757363982809087E-7,5200000.0,63.4,14.653085780644428,25.0,3.9370078740157513,69987.0,9208.0,0.0,1.0,0.0,?,0.0,0.0
5300000.0,10.953125,1.7914490955364376E-7,5300000.0,64.9,16.97888283378748,21.999999999999996,5.8981233243967885,109987.0,9208.0,0.0,1.0,0.0,?,0.0,0.0
5400000.0,11.140625,1.815539306133158E-7,5400000.0,62.4,8.626530384108799,16.629711751662963,-3.5812672176308578,149987.0,9208.0,0.0,1.0,0.0,?,0.0,0.0
5500000.0,11.34375,1.8336496496987014E-7,5500000.0,63.9,14.442000682567993,24.63465553235908,0.8241758241758249,189987.0,9208.0,0.0,1.0,0.0,?,0.0,0.0
5600000.0,11.53125,1.8798587714425395E-7,5600000.0,62.8,14.873752282619144,25.301204819277107,4.8593350383631755,229787.0,9208.0,0.0,1.0,0.0,?,0.0,0.0
5700000.0,11.71875,1.9186949228040048E-7,5700000.0,61.6,8.978856546885352,14.093959731543611,-2.6737967914438525,269787.0,9208.0,0.0,1.0,0.0,?,0.0,0.0
5800000.0,11.921875,1.9527800355313554E-7,5800000.0,64.5,15.75859974181791,25.57651991614256,4.5698924731182835,309787.0,9208.0,0.0,1.0,0.0,?,0.0,0.0
5900000.0,12.125,1.9788777636778024E-7,5900000.0,61.199999999999996,10.779985283296547,18.315789473684205,0.5128205128205132,349787.0,9208.0,0.0,1.0,0.0,?,0.0,0.0
6000000.0,12.328125,1.9969881072433458E-7,6000000.0,63.6,15.840485350695477,23.20675105485232,5.699481865284979,389787.0,9208.0,0.0,1.0,0.0,?,0.0,0.0
6100000.0,12.53125,2.0471278629783127E-7,6100000.0,59.9,8.062948221786096,17.319587628865975,-0.5012531328320806,429587.0,9208.0,0.0,1.0,0.0,?,0.0,0.0
6200000.0,12.71875,2.086037744043602E-7,6200000.0,61.1,10.508880095702573,14.505494505494495,-1.0389610389610398,469587.0,9208.0,0.0,1.0,0.0,?,0.0,0.0
6300000.0,12.90625,2.1175746547265185E-7,6300000.0,67.30000000000001,17.84992915498478,28.13186813186814,5.491329479768792,509587.0,9208.0,0.0,1.0,0.0,?,0.0,0.0
6400000.0,13.109375,2.1437522567187747E-7,6400000.0,63.800000000000004,14.255801945114232,22.1505376344086,1.8970189701897036,549587.0,9208.0,0.0,1.0,0.0,?,0.0,0.0
6500000.0,13.296875,2.1605432266369464E-7,6500000.0,63.3,16.52488786585755,24.016563146997928,6.615776081424942,589587.0,9208.0,0.0,1.0,0.0,?,0.0,0.0
6600000.0,13.5,2.2106829823719133E-7,6600000.0,63.800000000000004,14.744894114100534,21.47505422993492,3.7234042553191524,629387.0,9208.0,0.0,1.0,0.0,?,0.0,0.0
6700000.0,13.703125,2.2528353535259766E-7,6700000.0,65.8,20.23360823972834,24.16851441241685,9.52380952380953,669387.0,9208.0,0.0,1.0,0.0,?,0.0,0.0
6800000.0,13.890625,2.2843722642088932E-7,6800000.0,64.1,11.866370760256899,20.57522123893805,-0.5602240896358549,709387.0,9208.0,0.0,1.0,0.0,?,0.0,0.0
6900000.0,14.09375,2.3105498662011494E-7,6900000.0,63.5,15.004796989539779,21.50537634408602,4.450261780104716,749387.0,9208.0,0.0,1.0,0.0,?,0.0,0.0
7000000.0,14.296875,2.3287400836125018E-7,7000000.0,61.1,11.143394916214376,19.294605809128626,2.506265664160403,789387.0,9208.0,0.0,1.0,0.0,?,0.0,0.0
7100000.0,14.484375,2.3750966647639872E-7,7100000.0,61.9,9.574215597854472,12.413793103448285,-5.248618784530391,829187.0,9208.0,0.0,1.0,0.0,?,0.0,0.0
7200000.0,14.6875,2.417328909763859E-7,7200000.0,67.30000000000001,21.212413261372422,30.866807610993664,8.146067415730345,869187.0,9208.0,0.0,1.0,0.0,?,0.0,0.0
7300000.0,14.890625,2.451573770182828E-7,7300000.0,63.2,14.18110585107624,21.03004291845493,4.9095607235142165,909187.0,9208.0,0.0,1.0,0.0,?,0.0,0.0
7400000.0,15.078125,2.475811440187196E-7,7400000.0,62.7,12.430625334547878,18.913043478260864,1.5831134564643814,949187.0,9208.0,0.0,1.0,0.0,?,0.0,0.0
7500000.0,15.28125,2.4940815314443577E-7,7500000.0,59.3,9.587702150346539,16.768916155419216,0.9732360097323608,989187.0,9208.0,0.0,1.0,0.0,?,0.0,0.0
7600000.0,15.46875,2.5404381125958434E-7,7600000.0,66.9,20.864134956535068,25.950782997762868,8.310249307479232,1028987.0,9208.0,0.0,1.0,0.0,?,0.0,0.0
7700000.0,15.65625,2.5794217233649563E-7,7700000.0,64.3,14.186817941445137,23.717948717948715,3.5135135135135167,1068987.0,9208.0,0.0,1.0,0.0,?,0.0,0.0
7800000.0,15.859375,2.613666583783925E-7,7800000.0,64.0,15.35983824324642,20.704845814977972,2.4390243902439046,1108987.0,9208.0,0.0,1.0,0.0,?,0.0,0.0
7900000.0,16.046875,2.637904253788293E-7,7900000.0,65.8,19.08925732455144,24.669603524229075,8.064516129032265,1148987.0,9208.0,0.0,1.0,0.0,?,0.0,0.0
8000000.0,16.234375,2.6547689534102884E-7,8000000.0,63.2,13.801180549048997,23.333333333333332,1.6042780748663117,1188987.0,9208.0,0.0,1.0,0.0,?,0.0,0.0
8100000.0,16.40625,2.697330071694322E-7,8100000.0,64.0,12.959381044487426,24.050632911392405,-1.1235955056179785,1228787.0,9208.0,0.0,1.0,0.0,?,0.0,0.0
8200000.0,16.609375,2.739642190540003E-7,8200000.0,60.6,10.291438979963573,12.249443207126937,1.5000000000000013,1268787.0,9208.0,0.0,1.0,0.0,?,0.0,0.0
8300000.0,16.8125,2.773966924804781E-7,8300000.0,63.7,15.450047981515484,24.532224532224532,5.221932114882511,1308787.0,9208.0,0.0,1.0,0.0,?,0.0,0.0
8400000.0,16.984375,2.7962523745372903E-7,8400000.0,64.60000000000001,14.004615571480622,23.043478260869563,-2.6086956521739157,1348787.0,9208.0,0.0,1.0,0.0,?,0.0,0.0
8500000.0,17.1875,2.8146023396402607E-7,8500000.0,62.9,11.333957899164465,16.44144144144143,-0.8152173913043484,1388787.0,9208.0,0.0,1.0,0.0,?,0.0,0.0
8600000.0,17.390625,2.864901843066846E-7,8600000.0,61.4,10.508939832331782,22.334004024144864,-0.5208333333333338,1428587.0,9208.0,0.0,1.0,0.0,?,0.0,0.0
8700000.0,17.578125,2.9039591835397827E-7,8700000.0,63.3,15.120958416207964,21.41327623126338,4.6753246753246795,1468587.0,9208.0,0.0,1.0,0.0,?,0.0,0.0
8800000.0,17.765625,2.935643553630347E-7,8800000.0,62.5,13.68992819002025,22.680412371134018,1.3157894736842117,1508587.0,9208.0,0.0,1.0,0.0,?,0.0,0.0
8900000.0,17.96875,2.961980903314221E-7,8900000.0,63.9,16.760436073859545,24.159663865546218,7.90816326530613,1548587.0,9208.0,0.0,1.0,0.0,?,0.0,0.0
9000000.0,18.171875,2.9803308684171914E-7,9000000.0,62.7,12.410061806090438,21.802935010482177,0.7978723404255326,1588587.0,9208.0,0.0,1.0,0.0,?,0.0,0.0
9100000.0,18.359375,3.0268349089763243E-7,9100000.0,64.3,13.071004188175698,26.239669421487605,-0.5633802816901414,1628387.0,9208.0,0.0,1.0,0.0,?,0.0,0.0
9200000.0,18.5625,3.069226901667815E-7,9200000.0,62.3,11.884594528898115,19.787234042553187,1.822916666666668,1668387.0,9208.0,0.0,1.0,0.0,?,0.0,0.0
9300000.0,18.765625,3.1036315097784017E-7,9300000.0,61.8,14.260960905691542,22.672064777327932,7.50605326876514,1708387.0,9208.0,0.0,1.0,0.0,?,0.0,0.0
9400000.0,18.96875,3.130048733308085E-7,9400000.0,60.9,11.108079843586598,22.111553784860554,2.9776674937965284,1748387.0,9208.0,0.0,1.0,0.0,?,0.0,0.0
9500000.0,19.15625,3.1470608923377277E-7,9500000.0,62.2,13.859504395899902,23.014256619144604,4.785894206549123,1788387.0,9208.0,0.0,1.0,0.0,?,0.0,0.0
9600000.0,19.359375,3.1974402696101216E-7,9600000.0,63.2,15.599040397785396,24.123711340206185,6.36132315521629,1828187.0,9208.0,0.0,1.0,0.0,?,0.0,0.0
9700000.0,19.5625,3.239832262301612E-7,9700000.0,64.2,16.179273335175203,24.47257383966245,4.021447721179628,1868187.0,9208.0,0.0,1.0,0.0,?,0.0,0.0
9800000.0,19.734375,3.268943853779801E-7,9800000.0,64.3,18.852570805109792,25.0,9.62025316455697,1908187.0,9208.0,0.0,1.0,0.0,?,0.0,0.0
9900000.0,19.9375,3.2953610773094844E-7,9900000.0,65.0,15.005633912266378,22.907488986784138,0.5681818181818187,1948187.0,9208.0,0.0,1.0,0.0,?,0.0,0.0
1.0E7,20.140625,3.313790916258264E-7,1.0E7,63.3,15.493865821758837,24.173553719008265,5.655526992287922,1988187.0,9208.0,0.0,1.0,0.0,?,0.0,0.0
