learning evaluation instances,evaluation time (cpu seconds),model cost (RAM-Hours),classified instances,classifications correct (percent),Kappa Statistic (percent),Kappa Temporal Statistic (percent),Kappa M Statistic (percent),model training instances,model serialized size (bytes),labeling cost,newThreshold,maxPosterior,accuracyBaseLearner (percent),Change detected,Warning detected,tree size (nodes),tree size (leaves),active learning leaves,tree depth,active leaf byte size estimate,inactive leaf byte size estimate,byte size estimate overhead
100000.0,0.453125,1.3473230258872112E-8,100000.0,90.0,74.19434752988295,75.49019607843138,64.5390070921986,38786.0,31584.0,0.0,1.0,0.0,?,3.0,20.0,33.0,17.0,17.0,6.0,0.0,0.0,1.0
200000.0,0.875,2.807345784579714E-8,200000.0,91.7,79.3258740422649,80.37825059101657,71.67235494880548,78786.0,59664.0,0.0,1.0,0.0,?,0.0,0.0,63.0,32.0,32.0,7.0,0.0,0.0,1.0
300000.0,1.296875,4.45107192111512E-8,300000.0,89.4,73.45394259039433,75.34883720930233,64.7840531561462,118786.0,85760.0,0.0,1.0,0.0,?,0.0,0.0,91.0,46.0,46.0,8.0,0.0,0.0,1.0
400000.0,1.71875,6.23545687024792E-8,400000.0,88.8,71.32014401384828,73.39667458432304,60.97560975609757,158786.0,107960.0,0.0,1.0,0.0,?,0.0,0.0,115.0,58.0,58.0,8.0,0.0,0.0,1.0
500000.0,2.171875,8.373430723117458E-8,500000.0,88.9,72.17403511586632,73.69668246445498,63.12292358803988,198786.0,136088.0,0.0,1.0,0.0,?,0.0,0.0,145.0,73.0,73.0,9.0,0.0,0.0,1.0
600000.0,2.625,1.1294740640247861E-7,600000.0,88.6,70.9775967413442,73.61111111111111,62.000000000000014,238586.0,164144.0,0.0,1.0,0.0,?,0.0,0.0,177.0,89.0,89.0,9.0,0.0,0.0,1.0
700000.0,3.078125,1.4372849060843388E-7,700000.0,90.9,76.82402559035066,76.60668380462727,68.29268292682929,278586.0,186824.0,0.0,1.0,0.0,?,0.0,0.0,203.0,102.0,102.0,9.0,0.0,0.0,1.0
800000.0,3.53125,1.76054115096728E-7,800000.0,89.3,72.32882663880585,72.20779220779221,62.71777003484321,318586.0,209312.0,0.0,1.0,0.0,?,0.0,0.0,227.0,114.0,114.0,10.0,0.0,0.0,1.0
900000.0,3.984375,2.1223874581563804E-7,900000.0,89.60000000000001,73.32362039511823,74.87922705314011,64.01384083044984,358586.0,251296.0,0.0,1.0,0.0,?,0.0,0.0,269.0,135.0,135.0,10.0,0.0,0.0,1.0
1000000.0,4.453125,2.521789024790956E-7,1000000.0,90.3,74.06417112299467,74.87046632124354,64.72727272727275,398586.0,281192.0,0.0,1.0,0.0,?,0.0,0.0,301.0,151.0,151.0,10.0,0.0,0.0,1.0
1100000.0,4.921875,2.9955508782424864E-7,1100000.0,88.9,73.25868249624176,75.86956521739131,64.98422712933754,438386.0,303728.0,0.0,1.0,0.0,?,0.0,0.0,325.0,163.0,163.0,11.0,0.0,0.0,1.0
1200000.0,5.40625,3.5083419384641783E-7,1200000.0,91.5,78.13111042502831,79.26829268292684,69.64285714285717,478386.0,331512.0,0.0,1.0,0.0,?,0.0,0.0,355.0,178.0,178.0,11.0,0.0,0.0,1.0
1300000.0,5.875,4.0116247772756553E-7,1300000.0,91.3,77.77959400508773,79.23627684964202,70.30716723549489,518386.0,346720.0,0.0,1.0,0.0,?,0.0,0.0,371.0,186.0,186.0,11.0,0.0,0.0,1.0
1400000.0,6.375,4.572301663251387E-7,1400000.0,89.60000000000001,74.57946118234837,74.63414634146342,66.77316293929712,558386.0,374392.0,0.0,1.0,0.0,?,0.0,0.0,401.0,201.0,201.0,11.0,0.0,0.0,1.0
1500000.0,6.859375,5.134393965514998E-7,1500000.0,89.9,74.08688334479328,74.62311557788945,64.31095406360426,598386.0,398792.0,0.0,1.0,0.0,?,0.0,0.0,427.0,214.0,214.0,11.0,0.0,0.0,1.0
1600000.0,7.359375,5.810099537484347E-7,1600000.0,90.4,75.7301189224173,77.08830548926015,67.56756756756758,638186.0,433752.0,0.0,1.0,0.0,?,0.0,0.0,465.0,233.0,233.0,12.0,0.0,0.0,1.0
1700000.0,7.84375,6.479535820997423E-7,1700000.0,89.0,72.33177720540888,73.42995169082126,64.05228758169935,678186.0,454928.0,0.0,1.0,0.0,?,0.0,0.0,489.0,245.0,245.0,12.0,0.0,0.0,1.0
1800000.0,8.359375,7.239051693533029E-7,1800000.0,89.3,72.74385335683647,73.38308457711443,62.587412587412594,718186.0,499112.0,0.0,1.0,0.0,?,0.0,0.0,535.0,268.0,268.0,12.0,0.0,0.0,1.0
1900000.0,8.859375,7.989997781502704E-7,1900000.0,90.10000000000001,75.41691911918078,76.86915887850468,66.88963210702342,758186.0,519616.0,0.0,1.0,0.0,?,0.0,0.0,557.0,279.0,279.0,12.0,0.0,0.0,1.0
2000000.0,9.359375,8.753320111686157E-7,2000000.0,89.0,70.17224174584581,70.27027027027027,58.333333333333336,798186.0,538544.0,0.0,1.0,0.0,?,0.0,0.0,577.0,289.0,289.0,12.0,0.0,0.0,1.0
2100000.0,9.890625,9.661104154980017E-7,2100000.0,91.0,77.63919600486969,78.72340425531917,70.0996677740864,837986.0,570040.0,0.0,1.0,0.0,?,0.0,0.0,611.0,306.0,306.0,12.0,0.0,0.0,1.0
2200000.0,10.421875,1.060480814582358E-6,2200000.0,90.4,74.62626604360054,76.1786600496278,65.46762589928059,877986.0,605312.0,0.0,1.0,0.0,?,0.0,0.0,651.0,326.0,326.0,12.0,0.0,0.0,1.0
2300000.0,10.96875,1.1600930398950976E-6,2300000.0,88.4,71.51836574346888,72.31503579952268,62.58064516129033,917986.0,632008.0,0.0,1.0,0.0,?,0.0,0.0,679.0,340.0,340.0,13.0,0.0,0.0,1.0
2400000.0,11.5,1.2578586271653574E-6,2400000.0,89.4,72.31436257737614,71.35135135135135,62.00716845878137,957986.0,648664.0,0.0,1.0,0.0,?,0.0,0.0,697.0,349.0,349.0,13.0,0.0,0.0,1.0
2500000.0,12.046875,1.3595692386540275E-6,2500000.0,89.3,72.53931753788035,74.58432304038006,63.23024054982819,997986.0,665608.0,0.0,1.0,0.0,?,0.0,0.0,715.0,358.0,358.0,13.0,0.0,0.0,1.0
2600000.0,12.609375,1.4721230642559628E-6,2600000.0,89.3,74.2379737082872,74.70449172576834,67.57575757575758,1037786.0,681544.0,0.0,1.0,0.0,?,0.0,0.0,731.0,366.0,366.0,13.0,1735.195530726257,0.0,1.0737926593689633
2700000.0,13.171875,1.5874568877431253E-6,2700000.0,90.9,77.363184079602,79.41176470588236,69.66666666666667,1077786.0,709880.0,0.0,1.0,0.0,?,0.0,0.0,763.0,382.0,382.0,13.0,1735.195530726257,0.0,1.0737926593689633
2800000.0,13.734375,1.7065485978188614E-6,2800000.0,90.60000000000001,74.47206048492222,76.26262626262627,64.92537313432837,1117786.0,744848.0,0.0,1.0,0.0,?,0.0,0.0,801.0,401.0,401.0,13.0,1735.195530726257,0.0,1.0737926593689633
2900000.0,14.3125,1.8309214242940976E-6,2900000.0,89.60000000000001,73.56850585813403,74.44717444717446,65.21739130434784,1157786.0,767360.0,0.0,1.0,0.0,?,0.0,0.0,823.0,412.0,412.0,13.0,1735.195530726257,0.0,1.0737926593689633
3000000.0,14.859375,1.950867849195169E-6,3000000.0,89.5,74.14684591520167,75.75057736720555,66.12903225806453,1197786.0,792856.0,0.0,1.0,0.0,?,0.0,0.0,851.0,426.0,426.0,13.0,1735.195530726257,0.0,1.0737926593689633
3100000.0,15.4375,2.086383594562196E-6,3100000.0,88.8,72.5961703148015,72.54901960784315,63.75404530744338,1237586.0,812384.0,0.0,1.0,0.0,?,0.0,0.0,873.0,437.0,437.0,13.0,1735.195530726257,0.0,1.0737926593689633
3200000.0,16.015625,2.2238137252214884E-6,3200000.0,88.3,71.33168020856814,72.66355140186917,62.738853503184714,1277586.0,834488.0,0.0,1.0,0.0,?,0.0,0.0,899.0,450.0,450.0,13.0,1735.195530726257,0.0,1.0737926593689633
3300000.0,16.59375,2.3651946685276926E-6,3300000.0,89.3,72.37569060773481,73.18295739348372,62.4561403508772,1317586.0,870048.0,0.0,1.0,0.0,?,0.0,0.0,937.0,469.0,469.0,13.0,1735.195530726257,0.0,1.0737926593689633
3400000.0,17.171875,2.5104869402841563E-6,3400000.0,90.60000000000001,74.89651488850313,77.40384615384616,65.81818181818183,1357586.0,905344.0,0.0,1.0,0.0,?,0.0,0.0,975.0,488.0,488.0,14.0,1735.195530726257,0.0,1.0737926593689633
3500000.0,17.734375,2.653141111497664E-6,3500000.0,88.8,70.21736008807153,70.68062827225131,58.974358974358985,1397586.0,923576.0,0.0,1.0,0.0,?,0.0,0.0,991.0,496.0,496.0,14.0,1735.195530726257,0.0,1.0737926593689633
3600000.0,18.3125,2.8090606146078143E-6,3600000.0,88.4,71.00000000000001,73.5763097949886,61.33333333333334,1437386.0,947064.0,0.0,1.0,0.0,?,0.0,0.0,1017.0,509.0,509.0,14.0,1735.195530726257,0.0,1.0737926593689633
3700000.0,18.890625,2.9679569868474372E-6,3700000.0,89.60000000000001,73.09881013967926,74.00000000000001,64.13793103448276,1477386.0,976200.0,0.0,1.0,0.0,?,0.0,0.0,1049.0,525.0,525.0,14.0,1735.195530726257,0.0,1.0737926593689633
3800000.0,19.484375,3.1350579875935283E-6,3800000.0,90.3,76.13729175481929,77.3892773892774,68.30065359477125,1517386.0,1010800.0,0.0,1.0,0.0,?,0.0,0.0,1087.0,544.0,544.0,14.0,1735.195530726257,0.0,1.0737926593689633
3900000.0,20.078125,3.3054375025029813E-6,3900000.0,91.2,78.40427202764253,78.5888077858881,71.05263157894738,1557386.0,1041368.0,0.0,1.0,0.0,?,0.0,0.0,1117.0,559.0,559.0,14.0,1735.195530726257,0.0,1.0737926593689633
4000000.0,20.671875,3.478644551554074E-6,4000000.0,89.60000000000001,74.14427494580242,76.62921348314606,65.1006711409396,1597386.0,1069016.0,0.0,1.0,0.0,?,0.0,0.0,1147.0,574.0,574.0,14.0,1735.195530726257,0.0,1.0737926593689633
4100000.0,21.28125,3.6682469847922524E-6,4100000.0,88.4,70.54417104695158,72.04819277108435,60.67796610169493,1637186.0,1105120.0,0.0,1.0,0.0,?,0.0,0.0,1189.0,595.0,595.0,14.0,1735.195530726257,0.0,1.0737926593689633
4200000.0,21.890625,3.8612255593761805E-6,4200000.0,88.3,70.681100586378,70.82294264339153,60.20408163265307,1677186.0,1135760.0,0.0,1.0,0.0,?,0.0,0.0,1219.0,610.0,610.0,15.0,1735.195530726257,0.0,1.0737926593689633
4300000.0,22.5,4.055716271977872E-6,4300000.0,87.7,69.50705552194997,70.64439140811456,58.585858585858595,1717186.0,1154712.0,0.0,1.0,0.0,?,0.0,0.0,1239.0,620.0,620.0,15.0,1735.195530726257,0.0,1.0737926593689633
4400000.0,23.09375,4.247790752237456E-6,4400000.0,89.9,75.27685031968745,75.4854368932039,66.55629139072849,1757186.0,1180712.0,0.0,1.0,0.0,?,0.0,0.0,1267.0,634.0,634.0,15.0,1735.195530726257,0.0,1.0737926593689633
4500000.0,23.703125,4.446431962100583E-6,4500000.0,90.4,75.7683453818505,75.87939698492463,67.34693877551021,1797186.0,1199664.0,0.0,1.0,0.0,?,0.0,0.0,1287.0,644.0,644.0,15.0,1735.195530726257,0.0,1.0737926593689633
4600000.0,24.328125,4.661625684497672E-6,4600000.0,89.2,73.02912854117555,74.82517482517483,64.47368421052633,1836986.0,1231712.0,0.0,1.0,0.0,?,0.0,0.0,1325.0,663.0,663.0,15.0,1735.195530726257,0.0,1.0737926593689633
4700000.0,24.921875,4.868906916170899E-6,4700000.0,90.10000000000001,74.76138032305434,76.97674418604652,66.09589041095892,1876986.0,1259504.0,0.0,1.0,0.0,?,0.0,0.0,1351.0,676.0,676.0,15.0,1735.195530726257,0.0,1.0737926593689633
4800000.0,25.515625,5.07775121756519E-6,4800000.0,91.4,78.15429166560826,78.60696517412936,69.61130742049471,1916986.0,1279008.0,0.0,1.0,0.0,?,0.0,0.0,1379.0,690.0,690.0,15.0,1735.195530726257,0.0,1.0737926593689633
4900000.0,26.15625,5.305384887227168E-6,4900000.0,91.2,77.6568085797855,79.8165137614679,69.23076923076924,1956986.0,1302208.0,0.0,1.0,0.0,?,0.0,0.0,1399.0,700.0,700.0,15.0,1735.195530726257,0.0,1.0737926593689633
5000000.0,26.78125,5.5326728680585E-6,5000000.0,90.10000000000001,74.7428361498898,75.43424317617867,65.74394463667821,1996986.0,1342832.0,0.0,1.0,0.0,?,0.0,0.0,1441.0,721.0,721.0,15.0,1735.195530726257,0.0,1.0737926593689633
5100000.0,27.390625,5.549204231808998E-6,5100000.0,90.0,79.86185230682482,79.91967871485944,77.8270509977827,29337.0,20520.0,0.0,1.0,0.0,?,4.0,40.0,21.0,11.0,11.0,5.0,0.0,0.0,1.0
5200000.0,27.84375,5.564119783230127E-6,5200000.0,90.7,81.3933015885719,81.6205533596838,80.94262295081968,69337.0,52088.0,0.0,1.0,0.0,?,0.0,0.0,55.0,28.0,28.0,8.0,0.0,0.0,1.0
5300000.0,28.328125,5.582188217279813E-6,5300000.0,89.2,78.23151190212243,78.09330628803247,76.36761487964989,109337.0,78304.0,0.0,1.0,0.0,?,0.0,0.0,83.0,42.0,42.0,9.0,0.0,0.0,1.0
5400000.0,28.796875,5.602857757670185E-6,5400000.0,89.0,77.87103237669135,78.9272030651341,76.54584221748401,149337.0,113696.0,0.0,1.0,0.0,?,0.0,0.0,123.0,62.0,62.0,10.0,0.0,0.0,1.0
5500000.0,29.28125,5.627515395948044E-6,5500000.0,88.8,77.42290526892948,77.0961145194274,75.80993520518359,189337.0,149160.0,0.0,1.0,0.0,?,0.0,0.0,163.0,82.0,82.0,10.0,0.0,0.0,1.0
5600000.0,29.734375,5.658201763354658E-6,5600000.0,88.8,77.47892670999292,77.51004016064257,76.27118644067797,229137.0,175424.0,0.0,1.0,0.0,?,0.0,0.0,191.0,96.0,96.0,10.0,0.0,0.0,1.0
5700000.0,30.203125,5.691962206684469E-6,5700000.0,91.10000000000001,81.86042719713029,81.14406779661017,79.20560747663552,269137.0,201328.0,0.0,1.0,0.0,?,0.0,0.0,215.0,108.0,108.0,10.0,0.0,0.0,1.0
5800000.0,30.6875,5.728010857839967E-6,5800000.0,89.3,78.41958775362026,77.70833333333333,76.83982683982684,309137.0,219968.0,0.0,1.0,0.0,?,0.0,0.0,235.0,118.0,118.0,10.0,0.0,0.0,1.0
5900000.0,31.1875,5.766895644935885E-6,5900000.0,89.4,78.45002846222656,79.05138339920948,76.01809954751131,349137.0,242216.0,0.0,1.0,0.0,?,0.0,0.0,259.0,130.0,130.0,10.0,0.0,0.0,1.0
6000000.0,31.6875,5.807973179293591E-6,6000000.0,90.8,81.35840492786514,81.56312625250501,79.37219730941705,389137.0,268432.0,0.0,1.0,0.0,?,0.0,0.0,287.0,144.0,144.0,10.0,0.0,0.0,1.0
6100000.0,32.15625,5.8550088498224005E-6,6100000.0,89.2,78.2677811807034,79.7752808988764,76.57266811279827,428937.0,299832.0,0.0,1.0,0.0,?,0.0,0.0,321.0,161.0,161.0,11.0,0.0,0.0,1.0
6200000.0,32.65625,5.9068410903111945E-6,6200000.0,91.5,82.9366608852059,82.10526315789475,81.95329087048833,468937.0,321984.0,0.0,1.0,0.0,?,0.0,0.0,345.0,173.0,173.0,11.0,0.0,0.0,1.0
6300000.0,33.171875,5.961346355939492E-6,6300000.0,91.10000000000001,82.04443296722806,82.12851405622492,80.73593073593074,508937.0,339264.0,0.0,1.0,0.0,?,0.0,0.0,363.0,182.0,182.0,11.0,0.0,0.0,1.0
6400000.0,33.6875,6.01904130437308E-6,6400000.0,89.3,78.49021405252408,77.75467775467776,77.2823779193206,548937.0,372336.0,0.0,1.0,0.0,?,0.0,0.0,401.0,201.0,201.0,12.0,0.0,0.0,1.0
6500000.0,34.21875,6.082690088078381E-6,6500000.0,89.7,79.18081562692022,79.27565392354126,77.2626931567329,588937.0,412024.0,0.0,1.0,0.0,?,0.0,0.0,445.0,223.0,223.0,12.0,0.0,0.0,1.0
6600000.0,34.734375,6.152760664311549E-6,6600000.0,89.60000000000001,78.96397580857217,79.6477495107632,76.83741648106904,628737.0,435496.0,0.0,1.0,0.0,?,0.0,0.0,469.0,235.0,235.0,12.0,0.0,0.0,1.0
6700000.0,35.265625,6.227023809009957E-6,6700000.0,89.3,78.51698964799986,79.42307692307693,77.66179540709813,668737.0,459848.0,0.0,1.0,0.0,?,0.0,0.0,493.0,247.0,247.0,12.0,0.0,0.0,1.0
6800000.0,35.78125,6.300770684093652E-6,6800000.0,89.4,78.62903225806453,77.58985200845666,76.44444444444444,708737.0,481664.0,0.0,1.0,0.0,?,0.0,0.0,517.0,259.0,259.0,12.0,0.0,0.0,1.0
6900000.0,36.328125,6.381480456588584E-6,6900000.0,90.0,79.79806142197405,79.33884297520662,77.8270509977827,748737.0,508552.0,0.0,1.0,0.0,?,0.0,0.0,545.0,273.0,273.0,12.0,0.0,0.0,1.0
7000000.0,36.875,6.4642806925500445E-6,7000000.0,89.2,77.72644778089425,76.47058823529413,73.46437346437347,788737.0,532616.0,0.0,1.0,0.0,?,0.0,0.0,571.0,286.0,286.0,13.0,0.0,0.0,1.0
7100000.0,37.40625,6.552557784339621E-6,7100000.0,90.60000000000001,81.14509451522835,82.12927756653993,80.16877637130803,828537.0,550944.0,0.0,1.0,0.0,?,0.0,0.0,591.0,296.0,296.0,13.0,0.0,0.0,1.0
7200000.0,37.96875,6.6485689927099495E-6,7200000.0,90.4,80.48661503750229,80.3680981595092,78.42696629213484,868537.0,577664.0,0.0,1.0,0.0,?,0.0,0.0,621.0,311.0,311.0,13.0,0.0,0.0,1.0
7300000.0,38.53125,6.746996983161404E-6,7300000.0,88.5,76.88535134265959,75.42735042735043,75.47974413646055,908537.0,603544.0,0.0,1.0,0.0,?,0.0,0.0,647.0,324.0,324.0,13.0,0.0,0.0,1.0
7400000.0,39.109375,6.852924707345666E-6,7400000.0,89.2,77.95558458523841,78.18181818181819,74.76635514018693,948537.0,644472.0,0.0,1.0,0.0,?,0.0,0.0,693.0,347.0,347.0,13.0,0.0,0.0,1.0
7500000.0,39.671875,6.959809106774629E-6,7500000.0,88.7,76.90144069598207,77.62376237623762,73.34905660377359,988537.0,679872.0,0.0,1.0,0.0,?,0.0,0.0,729.0,365.0,365.0,14.0,0.0,0.0,1.0
7600000.0,40.25,7.078779777253254E-6,7600000.0,89.2,78.41795626039135,78.74015748031496,78.65612648221344,1028337.0,702144.0,0.0,1.0,0.0,?,0.0,0.0,753.0,377.0,377.0,14.0,1735.6739130434783,0.0,1.0737716210969301
7700000.0,40.828125,7.199699531257567E-6,7700000.0,90.8,81.45707110407018,82.7392120075047,79.69094922737308,1068337.0,724488.0,0.0,1.0,0.0,?,0.0,0.0,777.0,389.0,389.0,14.0,1735.6739130434783,0.0,1.0737716210969301
7800000.0,41.390625,7.318198687345204E-6,7800000.0,90.60000000000001,80.57120652807461,80.65843621399178,76.90417690417691,1108337.0,739712.0,0.0,1.0,0.0,?,0.0,0.0,795.0,398.0,398.0,14.0,1735.6739130434783,0.0,1.0737716210969301
7900000.0,41.96875,7.44412455888879E-6,7900000.0,89.8,79.47264831011596,78.83817427385893,78.15845824411134,1148337.0,776488.0,0.0,1.0,0.0,?,0.0,0.0,833.0,417.0,417.0,14.0,1735.6739130434783,0.0,1.0737716210969301
8000000.0,42.515625,7.565966774968224E-6,8000000.0,89.60000000000001,79.12007163421578,80.07662835249043,77.91932059447984,1188337.0,804976.0,0.0,1.0,0.0,?,0.0,0.0,863.0,432.0,432.0,14.0,1735.6739130434783,0.0,1.0737716210969301
8100000.0,43.078125,7.699889797044712E-6,8100000.0,88.5,76.83282567003498,75.94142259414227,74.94553376906318,1228137.0,825312.0,0.0,1.0,0.0,?,0.0,0.0,885.0,443.0,443.0,14.0,1735.6739130434783,0.0,1.0737716210969301
8200000.0,43.65625,7.839971351333791E-6,8200000.0,88.4,76.6317485898469,77.16535433070867,75.0,1268137.0,850880.0,0.0,1.0,0.0,?,0.0,0.0,913.0,457.0,457.0,14.0,1735.6739130434783,0.0,1.0737716210969301
8300000.0,44.234375,7.982925680052077E-6,8300000.0,89.1,78.00148540428829,78.91682785299807,75.93818984547461,1308137.0,879320.0,0.0,1.0,0.0,?,0.0,0.0,945.0,473.0,473.0,14.0,1735.6739130434783,0.0,1.0737716210969301
8400000.0,44.796875,8.123946544300352E-6,8400000.0,90.9,81.57402382822941,81.83632734530939,80.13100436681223,1348137.0,901904.0,0.0,1.0,0.0,?,0.0,0.0,967.0,484.0,484.0,14.0,1735.6739130434783,0.0,1.0737716210969301
8500000.0,45.40625,8.281655350906982E-6,8500000.0,89.1,77.83129001553843,76.95560253699789,74.88479262672811,1388137.0,942288.0,0.0,1.0,0.0,?,0.0,0.0,1011.0,506.0,506.0,14.0,1735.6739130434783,0.0,1.0737716210969301
8600000.0,45.984375,8.441335424625627E-6,8600000.0,87.4,74.62951030927834,74.59677419354838,72.60869565217392,1427937.0,970776.0,0.0,1.0,0.0,?,0.0,0.0,1043.0,522.0,522.0,14.0,1735.6739130434783,0.0,1.0737716210969301
8700000.0,46.578125,8.60817222726635E-6,8700000.0,89.7,78.81268770313079,79.14979757085021,76.046511627907,1467937.0,998520.0,0.0,1.0,0.0,?,0.0,0.0,1071.0,536.0,536.0,14.0,1735.6739130434783,0.0,1.0737716210969301
8800000.0,47.171875,8.776427097877283E-6,8800000.0,90.2,80.20194020985943,80.4,78.64923747276688,1507937.0,1017112.0,0.0,1.0,0.0,?,0.0,0.0,1091.0,546.0,546.0,14.0,1735.6739130434783,0.0,1.0737716210969301
8900000.0,47.78125,8.952252553879389E-6,8900000.0,91.3,82.49074223152472,83.10679611650487,81.08695652173914,1547937.0,1046264.0,0.0,1.0,0.0,?,0.0,0.0,1123.0,562.0,562.0,14.0,1735.6739130434783,0.0,1.0737716210969301
9000000.0,48.390625,9.131127509236752E-6,9000000.0,89.60000000000001,79.0667809942474,79.92277992277992,77.5377969762419,1587937.0,1074848.0,0.0,1.0,0.0,?,0.0,0.0,1153.0,577.0,577.0,14.0,1735.6739130434783,0.0,1.0737716210969301
9100000.0,49.0,9.319082859696616E-6,9100000.0,88.6,77.03011472853223,77.06237424547284,75.054704595186,1627737.0,1093704.0,0.0,1.0,0.0,?,0.0,0.0,1175.0,588.0,588.0,14.0,1735.6739130434783,0.0,1.0737716210969301
9200000.0,49.625,9.514267375278807E-6,9200000.0,88.7,77.23665020184846,77.35470941883767,75.48806941431671,1667737.0,1117888.0,0.0,1.0,0.0,?,0.0,0.0,1203.0,602.0,602.0,14.0,1735.6739130434783,0.0,1.0737716210969301
9300000.0,50.21875,9.703180080072751E-6,9300000.0,87.9,75.54350023041661,76.08695652173914,72.686230248307,1707737.0,1149792.0,0.0,1.0,0.0,?,0.0,0.0,1235.0,618.0,618.0,14.0,1735.6739130434783,0.0,1.0737716210969301
9400000.0,50.84375,9.905304242339403E-6,9400000.0,89.8,79.35022026431719,79.43548387096774,77.02702702702703,1747737.0,1179232.0,0.0,1.0,0.0,?,0.0,0.0,1265.0,633.0,633.0,14.0,1735.6739130434783,0.0,1.0737716210969301
9500000.0,51.46875,1.010865335249239E-5,9500000.0,90.3,80.45221877393092,80.44354838709677,79.13978494623656,1787737.0,1196176.0,0.0,1.0,0.0,?,0.0,0.0,1287.0,644.0,644.0,14.0,1735.6739130434783,0.0,1.0737716210969301
9600000.0,52.078125,1.0316126507758685E-5,9600000.0,89.0,77.90596779895235,77.7327935222672,77.03549060542798,1827537.0,1215936.0,0.0,1.0,0.0,?,0.0,0.0,1305.0,653.0,653.0,14.0,1735.6739130434783,0.0,1.0737716210969301
9700000.0,52.703125,1.0533375607337807E-5,9700000.0,90.10000000000001,79.76519449940318,80.8880308880309,77.08333333333334,1867537.0,1252616.0,0.0,1.0,0.0,?,0.0,0.0,1345.0,673.0,673.0,15.0,1735.6739130434783,0.0,1.0737716210969301
9800000.0,53.34375,1.0758612156173011E-5,9800000.0,91.5,82.90385125948335,83.26771653543308,81.60173160173161,1907537.0,1277328.0,0.0,1.0,0.0,?,0.0,0.0,1371.0,686.0,686.0,15.0,1735.6739130434783,0.0,1.0737716210969301
9900000.0,53.96875,1.09804273233749E-5,9900000.0,91.4,82.75218906809677,83.74291115311911,82.04592901878915,1947537.0,1299456.0,0.0,1.0,0.0,?,0.0,0.0,1395.0,698.0,698.0,15.0,1735.6739130434783,0.0,1.0737716210969301
1.0E7,54.609375,1.1210114721001852E-5,1.0E7,90.2,80.21768619598217,79.91803278688525,78.31858407079646,1987537.0,1322808.0,0.0,1.0,0.0,?,0.0,0.0,1419.0,710.0,710.0,15.0,1735.6739130434783,0.0,1.0737716210969301
