learning evaluation instances,evaluation time (cpu seconds),model cost (RAM-Hours),classified instances,classifications correct (percent),Kappa Statistic (percent),Kappa Temporal Statistic (percent),Kappa M Statistic (percent),model training instances,model serialized size (bytes),labeling cost,newThreshold,maxPosterior,accuracyBaseLearner (percent),Change detected,Warning detected,tree size (nodes),tree size (leaves),active learning leaves,tree depth,active leaf byte size estimate,inactive leaf byte size estimate,byte size estimate overhead
100000.0,0.875,5.0935325109296374E-8,100000.0,80.30000000000001,58.09152640446571,58.17409766454353,46.90026954177899,38277.0,114216.0,0.0,1.0,0.0,?,3.0,49.0,45.0,26.0,26.0,5.0,0.0,0.0,1.0
200000.0,1.71875,1.3102964860283665E-7,200000.0,84.7,67.8062821937178,68.58316221765914,59.84251968503936,78277.0,270776.0,0.0,1.0,0.0,?,0.0,0.0,103.0,64.0,64.0,7.0,0.0,0.0,1.0
300000.0,2.515625,2.0759619979394805E-7,300000.0,86.6,71.78079999326108,70.22222222222221,64.07506702412869,118277.0,290336.0,0.0,1.0,0.0,?,0.0,0.0,111.0,68.0,68.0,7.0,0.0,0.0,1.0
400000.0,3.3125,3.001651041106217E-7,400000.0,86.3,70.74274975440994,69.55555555555554,62.154696132596676,158277.0,382800.0,0.0,1.0,0.0,?,0.0,0.0,146.0,90.0,90.0,8.0,0.0,0.0,1.0
500000.0,4.078125,3.9893276860109626E-7,500000.0,85.9,70.01913672124176,70.56367432150313,61.36986301369862,198277.0,447352.0,0.0,1.0,0.0,?,0.0,0.0,172.0,106.0,106.0,9.0,0.0,0.0,1.0
600000.0,4.78125,5.114336252316004E-7,600000.0,85.8,70.18297573902124,71.54308617234469,63.68286445012787,238077.0,506144.0,0.0,1.0,0.0,?,0.0,0.0,196.0,121.0,121.0,9.0,0.0,0.0,1.0
700000.0,5.5,6.344046818816827E-7,700000.0,87.1,72.64352605863192,71.14093959731544,65.41554959785523,278077.0,564016.0,0.0,1.0,0.0,?,0.0,0.0,221.0,138.0,138.0,9.0,0.0,0.0,1.0
800000.0,6.234375,7.780974394538336E-7,800000.0,85.3,68.96665287406793,69.11764705882352,60.37735849056604,318077.0,673808.0,0.0,1.0,0.0,?,0.0,0.0,259.0,163.0,163.0,10.0,0.0,0.0,1.0
900000.0,6.984375,9.312270493764016E-7,900000.0,84.7,68.03416374865242,67.85714285714285,60.8695652173913,358077.0,721712.0,0.0,1.0,0.0,?,0.0,0.0,274.0,172.0,172.0,10.0,0.0,0.0,1.0
1000000.0,7.71875,1.0880240976500013E-6,1000000.0,87.2,73.30441311420705,73.05263157894737,66.83937823834198,398077.0,772840.0,0.0,1.0,0.0,?,0.0,0.0,290.0,183.0,183.0,10.0,0.0,0.0,1.0
1100000.0,8.5,1.285917209720032E-6,1100000.0,87.0,72.61451346523306,73.19587628865979,67.33668341708542,437877.0,865424.0,0.0,1.0,0.0,?,0.0,0.0,327.0,209.0,209.0,11.0,0.0,0.0,1.0
1200000.0,9.296875,1.504205930460658E-6,1200000.0,87.5,73.79630716597629,72.52747252747253,67.44791666666666,477877.0,960056.0,0.0,1.0,0.0,?,0.0,0.0,355.0,229.0,229.0,11.0,0.0,0.0,1.0
1300000.0,10.09375,1.727885941767858E-6,1300000.0,86.8,70.99015863108711,71.05263157894737,61.95965417867435,517877.0,1001224.0,0.0,1.0,0.0,?,0.0,0.0,372.0,239.0,239.0,11.0,0.0,0.0,1.0
1400000.0,10.90625,1.9607627634993857E-6,1400000.0,89.9,78.46996026535241,78.23275862068965,72.55434782608697,557877.0,1039144.0,0.0,1.0,0.0,?,0.0,0.0,389.0,249.0,249.0,12.0,0.0,0.0,1.0
1500000.0,11.6875,2.1860538981854913E-6,1500000.0,89.3,77.7642931954581,77.84679089026916,72.70408163265306,597877.0,1061016.0,0.0,1.0,0.0,?,0.0,0.0,397.0,253.0,253.0,13.0,0.0,0.0,1.0
1600000.0,12.453125,2.4242216346061062E-6,1600000.0,89.0,76.63303239511418,76.08695652173914,70.66666666666667,637677.0,1087800.0,0.0,1.0,0.0,?,0.0,0.0,413.0,261.0,261.0,13.0,0.0,0.0,1.0
1700000.0,13.265625,2.6848239293839367E-6,1700000.0,88.3,75.15712587056225,74.05764966740577,69.12928759894459,677677.0,1140200.0,0.0,1.0,0.0,?,0.0,0.0,427.0,271.0,271.0,13.0,0.0,0.0,1.0
1800000.0,14.078125,2.951045979797426E-6,1800000.0,88.9,75.95716476490007,75.3880266075388,68.90756302521008,717677.0,1182008.0,0.0,1.0,0.0,?,0.0,0.0,441.0,281.0,281.0,13.0,0.0,0.0,1.0
1900000.0,14.90625,3.2262388008853623E-6,1900000.0,88.4,75.53042032831426,75.0,69.55380577427822,757677.0,1215048.0,0.0,1.0,0.0,?,0.0,0.0,454.0,289.0,289.0,13.0,0.0,0.0,1.0
2000000.0,15.734375,3.502375976596441E-6,2000000.0,88.8,76.84218361667197,76.71517671517671,71.9298245614035,797677.0,1234576.0,0.0,1.0,0.0,?,0.0,0.0,465.0,296.0,296.0,13.0,0.0,0.0,1.0
2100000.0,16.578125,3.804746148590412E-6,2100000.0,89.9,78.2248745235344,76.78160919540231,72.17630853994491,837477.0,1269792.0,0.0,1.0,0.0,?,0.0,0.0,487.0,310.0,310.0,13.0,0.0,0.0,1.0
2200000.0,17.40625,4.114563020670579E-6,2200000.0,88.4,74.70176433384947,75.47568710359408,67.50700280112045,877477.0,1345656.0,0.0,1.0,0.0,?,0.0,0.0,506.0,324.0,324.0,13.0,0.0,0.0,1.0
2300000.0,18.265625,4.443284964913294E-6,2300000.0,89.5,77.79563525630181,77.46781115879828,72.86821705426357,917477.0,1393160.0,0.0,1.0,0.0,?,0.0,0.0,520.0,334.0,334.0,13.0,0.0,0.0,1.0
2400000.0,19.109375,4.772618671672211E-6,2400000.0,90.9,80.73715316291712,80.17429193899783,75.98944591029024,957477.0,1438408.0,0.0,1.0,0.0,?,0.0,0.0,543.0,350.0,350.0,13.0,0.0,0.0,1.0
2500000.0,19.96875,5.115343277187396E-6,2500000.0,90.0,79.25311203319502,79.55010224948876,75.60975609756099,997477.0,1486248.0,0.0,1.0,0.0,?,0.0,0.0,550.0,355.0,355.0,13.0,0.0,0.0,1.0
2600000.0,20.90625,5.5148981239957105E-6,2600000.0,90.2,78.83552176917762,78.125,72.77777777777779,1037277.0,1531144.0,0.0,1.0,0.0,?,0.0,0.0,568.0,367.0,367.0,13.0,4096.921348314607,0.0,1.0167185006006154
2700000.0,21.78125,5.889188647011501E-6,2700000.0,91.0,80.8868501529052,80.76923076923077,75.67567567567568,1077277.0,1552304.0,0.0,1.0,0.0,?,0.0,0.0,574.0,370.0,370.0,13.0,4096.921348314607,0.0,1.0167185006006154
2800000.0,22.640625,6.254694922568483E-6,2800000.0,90.60000000000001,79.97213143395278,79.29515418502203,74.52574525745258,1117277.0,1558040.0,0.0,1.0,0.0,?,0.0,0.0,585.0,377.0,377.0,13.0,4096.921348314607,0.0,1.0167185006006154
2900000.0,23.5,6.623573361947719E-6,2900000.0,89.9,78.39516736258471,77.70419426048565,72.84946236559139,1157277.0,1588280.0,0.0,1.0,0.0,?,0.0,0.0,600.0,386.0,386.0,13.0,4096.921348314607,0.0,1.0167185006006154
3000000.0,24.390625,7.014786856921597E-6,3000000.0,91.5,81.85699039487727,82.32848232848234,77.27272727272728,1197277.0,1642008.0,0.0,1.0,0.0,?,0.0,0.0,629.0,405.0,405.0,13.0,4096.921348314607,0.0,1.0167185006006154
3100000.0,25.28125,7.43370428810724E-6,3100000.0,89.3,76.85345424338918,77.47368421052632,69.9438202247191,1237077.0,1701048.0,0.0,1.0,0.0,?,0.0,0.0,642.0,413.0,413.0,13.0,4096.921348314607,0.0,1.0167185006006154
3200000.0,26.171875,7.866858925101244E-6,3200000.0,89.7,78.53272196748645,77.06013363028953,74.18546365914787,1277077.0,1777808.0,0.0,1.0,0.0,?,0.0,0.0,665.0,429.0,429.0,13.0,4096.921348314607,0.0,1.0167185006006154
3300000.0,27.0625,8.311790039038493E-6,3300000.0,90.2,79.18153699738284,79.58333333333334,74.3455497382199,1317077.0,1843880.0,0.0,1.0,0.0,?,0.0,0.0,694.0,448.0,448.0,13.0,4096.921348314607,0.0,1.0167185006006154
3400000.0,27.953125,8.763998274743143E-6,3400000.0,91.0,80.24886430969782,80.43478260869566,73.91304347826087,1357077.0,1890488.0,0.0,1.0,0.0,?,0.0,0.0,705.0,455.0,455.0,13.0,4096.921348314607,0.0,1.0167185006006154
3500000.0,28.859375,9.226516348361555E-6,3500000.0,90.10000000000001,78.77686120495979,77.75280898876404,73.09782608695653,1397077.0,1915736.0,0.0,1.0,0.0,?,0.0,0.0,714.0,461.0,461.0,13.0,4096.921348314607,0.0,1.0167185006006154
3600000.0,29.765625,9.70735696480713E-6,3600000.0,91.0,80.88157195963888,81.85483870967742,76.50130548302873,1436877.0,1933008.0,0.0,1.0,0.0,?,0.0,0.0,718.0,463.0,463.0,13.0,4096.921348314607,0.0,1.0167185006006154
3700000.0,30.671875,1.0188186327771595E-5,3700000.0,91.8,82.6159221193311,82.47863247863249,78.64583333333334,1476877.0,1948136.0,0.0,1.0,0.0,?,0.0,0.0,730.0,472.0,472.0,13.0,4096.921348314607,0.0,1.0167185006006154
3800000.0,31.609375,1.0692619738013795E-5,3800000.0,90.10000000000001,79.19293820933166,79.54545454545455,73.87862796833774,1516877.0,1992096.0,0.0,1.0,0.0,?,0.0,0.0,747.0,482.0,482.0,13.0,4096.921348314607,0.0,1.0167185006006154
3900000.0,32.515625,1.118145595278798E-5,3900000.0,90.60000000000001,80.36889765095066,80.29350104821803,76.02040816326532,1556877.0,2012384.0,0.0,1.0,0.0,?,0.0,0.0,753.0,485.0,485.0,13.0,4096.921348314607,0.0,1.0167185006006154
4000000.0,33.4375,1.1681502122276774E-5,4000000.0,91.8,82.43170862346011,82.84518828451883,78.13333333333334,1596877.0,2039112.0,0.0,1.0,0.0,?,0.0,0.0,763.0,490.0,490.0,13.0,4096.921348314607,0.0,1.0167185006006154
4100000.0,34.34375,1.2188118837204658E-5,4100000.0,91.60000000000001,82.02170237356336,82.64462809917356,76.3380281690141,1636677.0,2042304.0,0.0,1.0,0.0,?,0.0,0.0,767.0,492.0,492.0,13.0,4096.921348314607,0.0,1.0167185006006154
4200000.0,35.25,1.2693058783447164E-5,4200000.0,90.60000000000001,80.03262753628114,80.0,75.52083333333334,1676677.0,2050296.0,0.0,1.0,0.0,?,0.0,0.0,773.0,495.0,495.0,13.0,4096.921348314607,0.0,1.0167185006006154
4300000.0,36.1875,1.3224287120263196E-5,4300000.0,90.60000000000001,80.50108073797186,80.97165991902835,77.23970944309929,1716677.0,2101896.0,0.0,1.0,0.0,?,0.0,0.0,793.0,508.0,508.0,13.0,4096.921348314607,0.0,1.0167185006006154
4400000.0,37.125,1.3755463070184406E-5,4400000.0,91.2,81.63766948639729,82.50497017892646,78.16377171215882,1756677.0,2116784.0,0.0,1.0,0.0,?,0.0,0.0,805.0,514.0,514.0,13.0,4096.921348314607,0.0,1.0167185006006154
4500000.0,38.078125,1.4299516042228788E-5,4500000.0,91.2,81.52378392905135,82.07739307535643,77.77777777777779,1796677.0,2148192.0,0.0,1.0,0.0,?,0.0,0.0,812.0,519.0,519.0,13.0,4096.921348314607,0.0,1.0167185006006154
4600000.0,39.046875,1.4873004369696396E-5,4600000.0,91.9,83.01502226919303,83.29896907216495,79.44162436548224,1836477.0,2169120.0,0.0,1.0,0.0,?,0.0,0.0,826.0,526.0,526.0,13.0,4096.921348314607,0.0,1.0167185006006154
4700000.0,40.0,1.5447879106634195E-5,4700000.0,91.8,82.56365329738328,82.70042194092828,78.01608579088473,1876477.0,2227208.0,0.0,1.0,0.0,?,0.0,0.0,843.0,536.0,536.0,13.0,4096.921348314607,0.0,1.0167185006006154
4800000.0,40.953125,1.602942909812555E-5,4800000.0,90.2,79.49576315514176,79.45492662473795,75.18987341772153,1916477.0,2269288.0,0.0,1.0,0.0,?,0.0,0.0,862.0,547.0,547.0,13.0,4096.921348314607,0.0,1.0167185006006154
4900000.0,41.921875,1.662420778302476E-5,4900000.0,89.5,77.26367211183675,76.82119205298014,70.17045454545455,1956477.0,2299080.0,0.0,1.0,0.0,?,0.0,0.0,872.0,552.0,552.0,13.0,4096.921348314607,0.0,1.0167185006006154
5000000.0,42.859375,1.720477487348641E-5,5000000.0,91.4,81.87451261407466,82.19461697722568,77.89203084832906,1996477.0,2332352.0,0.0,1.0,0.0,?,0.0,0.0,883.0,559.0,559.0,13.0,4096.921348314607,0.0,1.0167185006006154
5100000.0,43.9375,1.7287631732566902E-5,5100000.0,83.5,66.90999518690838,67.0,65.83850931677017,38366.0,183088.0,0.0,1.0,0.0,?,2.0,15.0,58.0,43.0,43.0,3.0,0.0,0.0,1.0
5200000.0,44.8125,1.7375764857408486E-5,5200000.0,85.3,70.48026796687364,71.23287671232876,68.9873417721519,78366.0,290152.0,0.0,1.0,0.0,?,0.0,0.0,100.0,70.0,70.0,4.0,0.0,0.0,1.0
5300000.0,45.6875,1.7507274589863502E-5,5300000.0,87.4,74.69676279219215,75.24557956777997,73.24840764331209,118366.0,496368.0,0.0,1.0,0.0,?,0.0,0.0,166.0,118.0,118.0,4.0,0.0,0.0,1.0
5400000.0,46.53125,1.7663693126653217E-5,5400000.0,89.4,78.75640814952283,79.2156862745098,77.58985200845666,158366.0,646704.0,0.0,1.0,0.0,?,0.0,0.0,223.0,157.0,157.0,5.0,0.0,0.0,1.0
5500000.0,47.34375,1.7825421689647352E-5,5500000.0,91.8,83.60019679763843,84.32122370936904,83.63273453093814,198366.0,714528.0,0.0,1.0,0.0,?,0.0,0.0,242.0,171.0,171.0,5.0,0.0,0.0,1.0
5600000.0,48.171875,1.8025725989395544E-5,5600000.0,91.4,82.76463302697135,83.5564053537285,82.12058212058213,238166.0,818920.0,0.0,1.0,0.0,?,0.0,0.0,281.0,198.0,198.0,5.0,0.0,0.0,1.0
5700000.0,49.0,1.825289383608227E-5,5700000.0,90.9,81.79242564907003,81.61616161616162,81.5040650406504,278166.0,959032.0,0.0,1.0,0.0,?,0.0,0.0,334.0,235.0,235.0,6.0,0.0,0.0,1.0
5800000.0,49.78125,1.847750426451158E-5,5800000.0,92.30000000000001,84.56715891416935,84.1237113402062,83.68644067796612,318166.0,1024960.0,0.0,1.0,0.0,?,0.0,0.0,370.0,259.0,259.0,6.0,0.0,0.0,1.0
5900000.0,50.59375,1.873038990500693E-5,5900000.0,92.2,84.17997509360183,84.85436893203885,82.39277652370204,358166.0,1131496.0,0.0,1.0,0.0,?,0.0,0.0,405.0,281.0,281.0,6.0,0.0,0.0,1.0
6000000.0,51.40625,1.89874962476703E-5,6000000.0,92.5,84.99135502049181,84.8178137651822,84.72505091649695,398166.0,1166576.0,0.0,1.0,0.0,?,0.0,0.0,419.0,288.0,288.0,6.0,0.0,0.0,1.0
6100000.0,52.171875,1.9250309948499E-5,6100000.0,93.4,86.68280871670703,86.5030674846626,85.33333333333334,437966.0,1209104.0,0.0,1.0,0.0,?,0.0,0.0,435.0,296.0,296.0,6.0,0.0,0.0,1.0
6200000.0,52.953125,1.9519808184769413E-5,6200000.0,93.4,86.79920795247716,86.98224852071007,85.95744680851065,477966.0,1230696.0,0.0,1.0,0.0,?,0.0,0.0,451.0,304.0,304.0,6.0,0.0,0.0,1.0
6300000.0,53.75,1.9808953867242148E-5,6300000.0,93.0,85.99747954631835,86.48648648648648,85.62628336755648,517966.0,1314744.0,0.0,1.0,0.0,?,0.0,0.0,478.0,322.0,322.0,7.0,0.0,0.0,1.0
6400000.0,54.5625,2.011035908556853E-5,6400000.0,92.4,84.74606207549897,84.48979591836736,83.9662447257384,557966.0,1361064.0,0.0,1.0,0.0,?,0.0,0.0,503.0,336.0,336.0,7.0,0.0,0.0,1.0
6500000.0,55.375,2.0428183003483954E-5,6500000.0,94.5,88.94196744515214,88.75255623721881,88.24786324786324,597966.0,1454080.0,0.0,1.0,0.0,?,0.0,0.0,533.0,357.0,357.0,7.0,0.0,0.0,1.0
6600000.0,56.171875,2.0759187464136624E-5,6600000.0,94.69999999999999,89.38879456706282,89.72868217054263,88.8655462184874,637766.0,1486744.0,0.0,1.0,0.0,?,0.0,0.0,553.0,370.0,370.0,7.0,0.0,0.0,1.0
6700000.0,56.96875,2.1104046997303757E-5,6700000.0,94.69999999999999,89.39032397546562,89.37875751503005,88.98128898128897,677766.0,1568856.0,0.0,1.0,0.0,?,0.0,0.0,580.0,388.0,388.0,7.0,0.0,0.0,1.0
6800000.0,57.796875,2.146930142771452E-5,6800000.0,94.69999999999999,89.35554877167048,89.62818003913894,88.74734607218683,717766.0,1615960.0,0.0,1.0,0.0,?,0.0,0.0,596.0,399.0,399.0,7.0,0.0,0.0,1.0
6900000.0,58.65625,2.1856588039857637E-5,6900000.0,93.89999999999999,87.79999999999998,86.93790149892932,87.87276341948309,757766.0,1668032.0,0.0,1.0,0.0,?,0.0,0.0,613.0,409.0,409.0,7.0,0.0,0.0,1.0
7000000.0,59.546875,2.2261201908501477E-5,7000000.0,96.2,92.36306779586077,91.9661733615222,91.89765458422174,797766.0,1697128.0,0.0,1.0,0.0,?,0.0,0.0,631.0,418.0,418.0,7.0,0.0,0.0,1.0
7100000.0,60.40625,2.2683732612575913E-5,7100000.0,94.8,89.56556636901774,89.62075848303392,89.05263157894736,837566.0,1780312.0,0.0,1.0,0.0,?,0.0,0.0,658.0,436.0,436.0,7.0,0.0,0.0,1.0
7200000.0,61.28125,2.31336229868854E-5,7200000.0,94.1,88.1844034125045,87.78467908902691,87.93456032719835,877566.0,1882160.0,0.0,1.0,0.0,?,0.0,0.0,694.0,463.0,463.0,7.0,0.0,0.0,1.0
7300000.0,62.15625,2.359063021786924E-5,7300000.0,94.8,89.5116037967994,89.0985324947589,88.47006651884699,917566.0,1928632.0,0.0,1.0,0.0,?,0.0,0.0,714.0,476.0,476.0,7.0,0.0,0.0,1.0
7400000.0,63.015625,2.4056792737812624E-5,7400000.0,95.1,90.14536590859726,90.27777777777777,89.50749464668093,957566.0,2021480.0,0.0,1.0,0.0,?,0.0,0.0,748.0,502.0,502.0,7.0,0.0,0.0,1.0
7500000.0,63.90625,2.4550575310260877E-5,7500000.0,95.0,89.9911521785258,90.38461538461537,89.73305954825462,997566.0,2082664.0,0.0,1.0,0.0,?,0.0,0.0,768.0,512.0,512.0,7.0,0.0,0.0,1.0
7600000.0,64.859375,2.5105428228723912E-5,7600000.0,95.7,91.37066024483242,91.17043121149896,90.94736842105262,1037366.0,2128808.0,0.0,1.0,0.0,?,0.0,0.0,792.0,527.0,527.0,7.0,4013.140625,0.0,1.0153558037852213
7700000.0,65.734375,2.5621076185618416E-5,7700000.0,97.39999999999999,94.795920001281,94.53781512605042,94.65020576131687,1077366.0,2171488.0,0.0,1.0,0.0,?,0.0,0.0,808.0,535.0,535.0,7.0,4013.140625,0.0,1.0153558037852213
7800000.0,66.609375,2.613970851396313E-5,7800000.0,95.89999999999999,91.79639041178118,92.43542435424351,91.63265306122447,1117366.0,2199776.0,0.0,1.0,0.0,?,0.0,0.0,819.0,542.0,542.0,7.0,4013.140625,0.0,1.0153558037852213
7900000.0,67.484375,2.6662895268398434E-5,7900000.0,96.1,92.14887346399755,92.39766081871345,91.5766738660907,1157366.0,2234936.0,0.0,1.0,0.0,?,0.0,0.0,834.0,551.0,551.0,7.0,4013.140625,0.0,1.0153558037852213
8000000.0,68.375,2.7210342005774787E-5,8000000.0,95.6,91.20028159098908,91.19999999999999,91.26984126984127,1197366.0,2314536.0,0.0,1.0,0.0,?,0.0,0.0,862.0,568.0,568.0,7.0,4013.140625,0.0,1.0153558037852213
8100000.0,69.265625,2.7780095665043007E-5,8100000.0,95.5,90.99978399481586,91.01796407185628,90.81632653061223,1237166.0,2350272.0,0.0,1.0,0.0,?,0.0,0.0,873.0,575.0,575.0,7.0,4013.140625,0.0,1.0153558037852213
8200000.0,70.15625,2.8358888586000016E-5,8200000.0,95.39999999999999,90.73775773195875,90.66937119675455,89.95633187772924,1277166.0,2404512.0,0.0,1.0,0.0,?,0.0,0.0,898.0,592.0,592.0,7.0,4013.140625,0.0,1.0153558037852213
8300000.0,71.0625,2.895577885081163E-5,8300000.0,95.89999999999999,91.73846811048689,91.64969450101832,91.12554112554112,1317166.0,2453464.0,0.0,1.0,0.0,?,0.0,0.0,915.0,605.0,605.0,7.0,4013.140625,0.0,1.0153558037852213
8400000.0,71.953125,2.9545682838134874E-5,8400000.0,95.6,91.18501452469197,90.65817409766453,90.55793991416307,1357166.0,2482824.0,0.0,1.0,0.0,?,0.0,0.0,933.0,614.0,614.0,8.0,4013.140625,0.0,1.0153558037852213
8500000.0,72.859375,3.0149319564871898E-5,8500000.0,96.1,92.10756378707421,91.92546583850931,91.3716814159292,1397166.0,2512336.0,0.0,1.0,0.0,?,0.0,0.0,946.0,622.0,622.0,8.0,4013.140625,0.0,1.0153558037852213
8600000.0,73.765625,3.0783316308063346E-5,8600000.0,97.0,93.98701194580293,93.7759336099585,93.74999999999999,1436966.0,2580808.0,0.0,1.0,0.0,?,0.0,0.0,978.0,644.0,644.0,8.0,4013.140625,0.0,1.0153558037852213
8700000.0,74.671875,3.1428362094124566E-5,8700000.0,95.3,90.59661478132128,90.56224899598394,90.46653144016227,1476966.0,2642824.0,0.0,1.0,0.0,?,0.0,0.0,1003.0,658.0,658.0,8.0,4013.140625,0.0,1.0153558037852213
8800000.0,75.609375,3.210975067405443E-5,8800000.0,97.2,94.39966397983879,94.331983805668,94.36619718309859,1516966.0,2715848.0,0.0,1.0,0.0,?,0.0,0.0,1027.0,673.0,673.0,8.0,4013.140625,0.0,1.0153558037852213
8900000.0,76.546875,3.279448425423146E-5,8900000.0,95.7,91.31137603556273,91.20654396728015,90.42316258351892,1556966.0,2744712.0,0.0,1.0,0.0,?,0.0,0.0,1035.0,677.0,677.0,8.0,4013.140625,0.0,1.0153558037852213
9000000.0,77.4375,3.344639676571305E-5,9000000.0,97.39999999999999,94.7948573190312,94.8207171314741,94.6611909650924,1596966.0,2765968.0,0.0,1.0,0.0,?,0.0,0.0,1048.0,685.0,685.0,8.0,4013.140625,0.0,1.0153558037852213
9100000.0,78.34375,3.413603822183276E-5,9100000.0,95.8,91.49415324295532,91.68316831683168,90.64587973273942,1636766.0,2816976.0,0.0,1.0,0.0,?,0.0,0.0,1075.0,703.0,703.0,8.0,4013.140625,0.0,1.0153558037852213
9200000.0,79.234375,3.48309296209158E-5,9200000.0,96.8,93.55887988921273,93.73776908023483,93.07359307359306,1676766.0,2906192.0,0.0,1.0,0.0,?,0.0,0.0,1106.0,723.0,723.0,8.0,4013.140625,0.0,1.0153558037852213
9300000.0,80.15625,3.555407815535241E-5,9300000.0,96.6,93.18934814049172,92.79661016949152,92.96066252587991,1716766.0,2937496.0,0.0,1.0,0.0,?,0.0,0.0,1125.0,734.0,734.0,8.0,4013.140625,0.0,1.0153558037852213
9400000.0,81.078125,3.628581995144485E-5,9400000.0,96.1,92.17276120900733,92.51439539347408,91.70212765957446,1756766.0,2988528.0,0.0,1.0,0.0,?,0.0,0.0,1138.0,742.0,742.0,8.0,4013.140625,0.0,1.0153558037852213
9500000.0,81.984375,3.700949756118157E-5,9500000.0,96.89999999999999,93.77834865331353,93.15673289183223,93.41825902335455,1796766.0,3022112.0,0.0,1.0,0.0,?,0.0,0.0,1147.0,748.0,748.0,8.0,4013.140625,0.0,1.0153558037852213
9600000.0,82.890625,3.775382530875503E-5,9600000.0,96.5,92.99708678810384,93.33333333333333,92.88617886178862,1836566.0,3049224.0,0.0,1.0,0.0,?,0.0,0.0,1161.0,755.0,755.0,8.0,4013.140625,0.0,1.0153558037852213
9700000.0,83.828125,3.8525253379096575E-5,9700000.0,96.6,93.19956477214542,93.18637274549097,92.9460580912863,1876566.0,3070216.0,0.0,1.0,0.0,?,0.0,0.0,1171.0,760.0,760.0,8.0,4013.140625,0.0,1.0153558037852213
9800000.0,84.734375,3.9267737431348186E-5,9800000.0,97.2,94.3675571290634,94.38877755511021,93.91304347826086,1916566.0,3071624.0,0.0,1.0,0.0,?,0.0,0.0,1175.0,762.0,762.0,8.0,4013.140625,0.0,1.0153558037852213
9900000.0,85.640625,4.0012691622703426E-5,9900000.0,97.0,93.98787956520344,94.140625,93.7759336099585,1956566.0,3097176.0,0.0,1.0,0.0,?,0.0,0.0,1193.0,771.0,771.0,8.0,4013.140625,0.0,1.0153558037852213
1.0E7,86.5625,4.077263625933684E-5,1.0E7,97.0,93.98134216069816,94.05940594059405,93.68421052631578,1996566.0,3121240.0,0.0,1.0,0.0,?,0.0,0.0,1203.0,776.0,776.0,8.0,4013.140625,0.0,1.0153558037852213
