learning evaluation instances,evaluation time (cpu seconds),model cost (RAM-Hours),classified instances,classifications correct (percent),Kappa Statistic (percent),Kappa Temporal Statistic (percent),Kappa M Statistic (percent),model training instances,model serialized size (bytes),labeling cost,newThreshold,maxPosterior,accuracyBaseLearner (percent),Change detected,Warning detected
100000.0,0.328125,1.3056172368427118E-8,100000.0,65.4,30.607644390249778,30.101010101010107,29.243353783231086,29298.0,2904.0,0.0,1.0,0.0,?,1.0,5.0
200000.0,0.65625,2.4822074919939044E-8,200000.0,65.3,30.17883875537241,25.21551724137931,26.326963906581742,59298.0,2904.0,0.0,1.0,0.0,?,0.0,0.0
300000.0,0.984375,3.5297707654535775E-8,300000.0,70.1,39.971893194137714,36.78646934460887,35.28138528138527,89298.0,2904.0,0.0,1.0,0.0,?,0.0,0.0
400000.0,1.328125,4.51630654020442E-8,400000.0,69.6,39.18443121439088,38.08553971486761,38.46153846153845,119298.0,2904.0,0.0,1.0,0.0,?,0.0,24.0
500000.0,1.71875,5.483766370970343E-8,500000.0,67.7,35.06232408524327,36.914062500000014,32.00000000000001,149298.0,2904.0,0.0,1.0,0.0,?,0.0,22.0
600000.0,2.046875,6.167405647122198E-8,600000.0,69.0,37.96526054590571,41.72932330827066,35.01048218029349,179298.0,2904.0,0.0,1.0,0.0,?,0.0,0.0
700000.0,2.390625,6.747930051965847E-8,700000.0,67.30000000000001,34.37951517097448,32.298136645962735,28.913043478260875,21371.0,2904.0,0.0,1.0,0.0,?,2.0,5.0
800000.0,2.71875,7.173040002170537E-8,800000.0,68.60000000000001,36.684612747766835,36.565656565656575,29.438202247191015,51371.0,2904.0,0.0,1.0,0.0,?,0.0,0.0
900000.0,3.046875,7.469122970683707E-8,900000.0,66.9,33.6960353834813,38.24626865671642,28.35497835497836,81371.0,2904.0,0.0,1.0,0.0,?,0.0,0.0
1000000.0,3.390625,7.644134004496865E-8,1000000.0,64.60000000000001,29.14104534973098,29.482071713147413,28.04878048780488,111371.0,2904.0,0.0,1.0,0.0,?,0.0,0.0
1100000.0,3.703125,8.910409330079953E-8,1100000.0,67.0,33.834851790068015,34.13173652694611,30.672268907563033,141071.0,2904.0,0.0,1.0,0.0,?,0.0,0.0
1200000.0,4.03125,1.0110971440250675E-7,1200000.0,67.30000000000001,34.37477422514068,36.00782778864971,29.978586723768743,171071.0,2904.0,0.0,1.0,0.0,?,0.0,0.0
1300000.0,4.375,1.1233532051038411E-7,1300000.0,66.7,33.336536382636275,30.042016806722692,32.31707317073172,201071.0,2904.0,0.0,1.0,0.0,?,0.0,0.0
1400000.0,4.6875,1.213115885750287E-7,1400000.0,66.5,33.02678928428629,31.91056910569106,33.79446640316207,231071.0,2904.0,0.0,1.0,0.0,?,0.0,0.0
1500000.0,5.015625,1.2944640022599035E-7,1500000.0,65.9,31.857239918468487,29.253112033195023,31.526104417670687,261071.0,2904.0,0.0,1.0,0.0,?,0.0,0.0
1600000.0,5.34375,1.3629094206003678E-7,1600000.0,68.2,36.18635190618191,38.132295719844365,32.76955602536999,291071.0,2904.0,0.0,1.0,0.0,?,0.0,0.0
1700000.0,5.671875,1.4184521407716803E-7,1700000.0,66.8,33.4978527017499,34.25742574257426,31.404958677685958,321071.0,2904.0,0.0,1.0,0.0,?,0.0,0.0
1800000.0,6.0,1.461092162773841E-7,1800000.0,67.60000000000001,35.06675698533392,36.09467455621303,31.501057082452437,351071.0,2904.0,0.0,1.0,0.0,?,0.0,0.0
1900000.0,6.34375,1.4922455496465166E-7,1900000.0,69.3,38.52327704975809,39.32806324110671,36.96098562628335,381071.0,2904.0,0.0,1.0,0.0,?,0.0,0.0
2000000.0,6.671875,1.5090801753103733E-7,2000000.0,68.10000000000001,36.22499980007838,36.956521739130444,32.55813953488373,411071.0,2904.0,0.0,1.0,0.0,?,0.0,0.0
2100000.0,7.0,1.642168111478289E-7,2100000.0,66.2,32.41703090821113,33.59528487229863,31.440162271805278,440771.0,2904.0,0.0,1.0,0.0,?,0.0,0.0
2200000.0,7.328125,1.7623533494770526E-7,2200000.0,65.0,29.956573075306693,30.41749502982108,28.278688524590166,470771.0,2904.0,0.0,1.0,0.0,?,0.0,0.0
2300000.0,7.65625,1.8696358893066643E-7,2300000.0,68.7,37.414019259685844,36.63967611336034,29.50450450450451,500771.0,2904.0,0.0,1.0,0.0,?,0.0,0.0
2400000.0,7.984375,1.9640157309671242E-7,2400000.0,67.9,35.73625036035748,34.62321792260693,34.75609756097562,530771.0,2904.0,0.0,1.0,0.0,?,0.0,0.0
2500000.0,8.328125,2.0493727384342087E-7,2500000.0,69.0,37.997767919645106,38.36978131212723,37.75100401606424,560771.0,2904.0,0.0,1.0,0.0,?,0.0,0.0
2600000.0,8.640625,2.114681733979119E-7,2600000.0,66.7,32.778876821833755,31.340206185567016,26.813186813186814,590771.0,2904.0,0.0,1.0,0.0,?,0.0,0.0
2700000.0,8.96875,2.170353481132123E-7,2700000.0,65.3,30.529974214007733,27.85862785862786,28.893442622950822,620771.0,2904.0,0.0,1.0,0.0,?,0.0,0.0
2800000.0,9.296875,2.213122530115975E-7,2800000.0,65.3,30.30897025980495,32.358674463937625,26.326963906581742,650771.0,2904.0,0.0,1.0,0.0,?,0.0,0.0
2900000.0,9.625,2.242988880930675E-7,2900000.0,68.7,37.413518679965144,38.62745098039217,36.382113821138226,680771.0,2904.0,0.0,1.0,0.0,?,0.0,0.0
3000000.0,9.953125,2.2599525335762234E-7,3000000.0,67.10000000000001,33.8959212376934,34.98023715415021,27.533039647577095,710771.0,2904.0,0.0,1.0,0.0,?,0.0,0.0
3100000.0,10.296875,2.399513161637717E-7,3100000.0,67.9,35.49346494542064,35.54216867469881,31.26338329764455,740471.0,2904.0,0.0,1.0,0.0,?,0.0,0.0
3200000.0,10.640625,2.525556677331527E-7,3200000.0,65.9,31.342466194721613,29.69072164948454,24.390243902439025,770471.0,2904.0,0.0,1.0,0.0,?,0.0,0.0
3300000.0,10.953125,2.627853407628006E-7,3300000.0,65.4,30.914957510702205,30.101010101010107,29.09836065573771,800471.0,2904.0,0.0,1.0,0.0,?,0.0,0.0
3400000.0,11.296875,2.7268626985864503E-7,3400000.0,68.0,35.90693687233865,37.13163064833007,34.560327198364014,830471.0,2904.0,0.0,1.0,0.0,?,0.0,0.0
3500000.0,11.640625,2.812354877177212E-7,3500000.0,69.6,39.106223584319835,35.72938689217758,37.8323108384458,860471.0,2904.0,0.0,1.0,0.0,?,0.0,0.0
3600000.0,11.953125,2.8777867555618286E-7,3600000.0,66.8,33.5574767851425,37.24007561436674,31.26293995859214,890471.0,2904.0,0.0,1.0,0.0,?,0.0,0.0
3700000.0,12.328125,2.941559068858624E-7,3700000.0,66.8,32.99859539224075,31.546391752577325,28.755364806866957,920471.0,2904.0,0.0,1.0,0.0,?,0.0,0.0
3800000.0,12.640625,2.9824143793019986E-7,3800000.0,66.9,33.347831690186226,32.310838445807775,29.273504273504276,950471.0,2904.0,0.0,1.0,0.0,?,0.0,0.0
3900000.0,12.96875,3.0124097570983903E-7,3900000.0,70.5,41.0433920634413,42.15686274509803,42.495126705653014,980471.0,2904.0,0.0,1.0,0.0,?,0.0,0.0
4000000.0,13.296875,3.02950243672563E-7,4000000.0,68.30000000000001,36.48567421358446,35.82995951417005,35.3061224489796,1010471.0,2904.0,0.0,1.0,0.0,?,0.0,0.0
4100000.0,13.609375,3.156498617803057E-7,4100000.0,68.30000000000001,36.160271953213744,34.23236514522822,29.39866369710468,1040171.0,2904.0,0.0,1.0,0.0,?,0.0,0.0
4200000.0,13.9375,3.276941909765204E-7,4200000.0,65.4,30.62601003316318,26.84989429175476,28.06652806652807,1070171.0,2904.0,0.0,1.0,0.0,?,0.0,0.0
4300000.0,14.296875,3.3947244648718173E-7,4300000.0,68.10000000000001,36.03368758772809,31.98294243070363,34.49691991786448,1100171.0,2904.0,0.0,1.0,0.0,?,0.0,0.0
4400000.0,14.625,3.4893623604956604E-7,4400000.0,66.60000000000001,32.97802321288107,32.25152129817445,30.705394190871377,1130171.0,2904.0,0.0,1.0,0.0,?,0.0,0.0
4500000.0,14.953125,3.5710975579503514E-7,4500000.0,67.4,34.87424336256667,36.328125000000014,37.18689788053951,1160171.0,2904.0,0.0,1.0,0.0,?,0.0,0.0
4600000.0,15.3125,3.646485533358323E-7,4600000.0,66.2,32.0452763425079,32.936507936507944,28.23779193205945,1190171.0,2904.0,0.0,1.0,0.0,?,0.0,0.0
4700000.0,15.640625,3.70241533447471E-7,4700000.0,66.9,33.3440734624834,31.752577319587633,29.122055674518204,1220171.0,2904.0,0.0,1.0,0.0,?,0.0,0.0
4800000.0,15.953125,3.743393527757791E-7,4800000.0,66.4,32.35189897883582,33.06772908366535,25.991189427312776,1250171.0,2904.0,0.0,1.0,0.0,?,0.0,0.0
4900000.0,16.34375,3.779255914398366E-7,4900000.0,67.5,34.808074972719695,36.39921722113504,31.86582809224319,1280171.0,2904.0,0.0,1.0,0.0,?,0.0,0.0
5000000.0,16.671875,3.798440189307763E-7,5000000.0,67.4,34.86253196930947,34.93013972055889,32.505175983436864,1310171.0,2904.0,0.0,1.0,0.0,?,0.0,0.0
5100000.0,17.03125,3.9467765923796434E-7,5100000.0,52.1,5.12446719168423,-2.1321961620469105,-15.98062953995156,1339871.0,2904.0,0.0,1.0,0.0,?,0.0,0.0
5200000.0,17.375,4.0751464742546285E-7,5200000.0,54.1,8.389084928707161,1.2903225806451626,-23.71967654986522,1369871.0,2904.0,0.0,1.0,0.0,?,0.0,0.0
5300000.0,17.6875,4.1795580828976304E-7,5300000.0,53.800000000000004,7.13829158576443,-5.000000000000005,-19.3798449612403,1399871.0,2904.0,0.0,1.0,0.0,?,0.0,0.0
5400000.0,18.046875,4.285499906270869E-7,5400000.0,57.49999999999999,13.322619329259824,12.371134020618545,-11.256544502617812,1429871.0,2904.0,0.0,1.0,0.0,?,0.0,0.0
5500000.0,18.375,4.369326699007717E-7,5500000.0,54.400000000000006,8.018525391728124,4.801670146137791,-19.371727748691086,1459871.0,2904.0,0.0,1.0,0.0,?,0.0,0.0
5600000.0,18.703125,4.440250793575413E-7,5600000.0,58.3,14.327977975921419,13.664596273291915,-12.702702702702714,1489871.0,2904.0,0.0,1.0,0.0,?,0.0,0.0
5700000.0,19.03125,4.4982721899739577E-7,5700000.0,57.3,11.39534690692983,8.369098712446336,-17.630853994490376,1519871.0,2904.0,0.0,1.0,0.0,?,0.0,0.0
5800000.0,19.375,4.545539397642845E-7,5800000.0,61.199999999999996,19.993071564960264,16.198704103671698,0.7672634271099751,1549871.0,2904.0,0.0,1.0,0.0,?,0.0,0.0
5900000.0,19.703125,4.577755397703085E-7,5900000.0,58.5,12.561628249968395,12.997903563941287,-15.598885793871881,1579871.0,2904.0,0.0,1.0,0.0,?,0.0,0.0
6000000.0,20.046875,4.5979883806366066E-7,6000000.0,59.699999999999996,16.649431230610137,14.25531914893616,-3.333333333333336,1609871.0,2904.0,0.0,1.0,0.0,?,0.0,0.0
6100000.0,20.40625,4.746466098974149E-7,6100000.0,57.099999999999994,8.337250544848498,7.343412526997824,-13.793103448275874,1639571.0,2904.0,0.0,1.0,0.0,?,0.0,0.0
6200000.0,20.71875,4.863288874427478E-7,6200000.0,61.3,18.931827322697416,17.659574468085097,0.2577319587628868,1669571.0,2904.0,0.0,1.0,0.0,?,0.0,0.0
6300000.0,21.0625,4.978276815058457E-7,6300000.0,62.9,20.493412311305804,20.215053763440853,6.549118387909325,1699571.0,2904.0,0.0,1.0,0.0,?,0.0,0.0
6400000.0,21.40625,5.079747643321753E-7,6400000.0,61.1,19.149679092813674,19.793814432989688,9.112149532710287,1729571.0,2904.0,0.0,1.0,0.0,?,0.0,0.0
6500000.0,21.71875,5.159705566863219E-7,6500000.0,60.099999999999994,16.271456750744942,16.52719665271966,-10.22099447513813,1759571.0,2904.0,0.0,1.0,0.0,?,0.0,0.0
6600000.0,22.078125,5.237525652369692E-7,6600000.0,61.1,18.51287035795683,19.793814432989688,2.506265664160403,1789571.0,2904.0,0.0,1.0,0.0,?,0.0,0.0
6700000.0,22.40625,5.295676075749928E-7,6700000.0,64.7,24.841805840622047,22.075055187637965,3.814713896457769,1819571.0,2904.0,0.0,1.0,0.0,?,0.0,0.0
6800000.0,22.734375,5.340923800961012E-7,6800000.0,64.3,21.9944937289691,24.52431289640592,-0.5633802816901414,1849571.0,2904.0,0.0,1.0,0.0,?,0.0,0.0
6900000.0,23.09375,5.376349306768842E-7,6900000.0,61.4,18.10964821092917,19.415448851774524,0.7712082262210804,1879571.0,2904.0,0.0,1.0,0.0,?,0.0,0.0
7000000.0,23.4375,5.39671746082604E-7,7000000.0,64.7,25.845321322936275,20.852017937219728,10.178117048346065,1909571.0,2904.0,0.0,1.0,0.0,?,0.0,0.0
7100000.0,23.734375,5.519489705976513E-7,7100000.0,61.0,17.484766418415695,16.488222698072796,-2.6315789473684235,1939271.0,2904.0,0.0,1.0,0.0,?,0.0,0.0
7200000.0,24.046875,5.636435364269548E-7,7200000.0,63.9,21.895283427087833,23.354564755838638,-0.27777777777777807,1969271.0,2904.0,0.0,1.0,0.0,?,0.0,0.0
7300000.0,24.375,5.746325607308084E-7,7300000.0,64.8,24.612030377925027,25.894736842105264,7.611548556430453,1999271.0,2904.0,0.0,1.0,0.0,?,0.0,0.0
7400000.0,24.703125,5.843313152177467E-7,7400000.0,63.5,22.257720979765715,22.832980972515855,3.4391534391534426,2029271.0,2904.0,0.0,1.0,0.0,?,0.0,0.0
7500000.0,25.03125,5.927397998877698E-7,7500000.0,65.10000000000001,24.579025621520707,23.632385120350108,4.120879120879125,2059271.0,2904.0,0.0,1.0,0.0,?,0.0,0.0
7600000.0,25.34375,5.99519052128825E-7,7600000.0,65.2,26.223669482039284,23.008849557522122,7.936507936507943,2089271.0,2904.0,0.0,1.0,0.0,?,0.0,0.0
7700000.0,25.671875,6.053469971650178E-7,7700000.0,62.7,19.686843283839178,20.806794055201692,2.6109660574412556,2119271.0,2904.0,0.0,1.0,0.0,?,0.0,0.0
7800000.0,26.015625,6.101007521566419E-7,7800000.0,63.2,21.576650300054556,22.033898305084744,2.1276595744680873,2149271.0,2904.0,0.0,1.0,0.0,?,0.0,0.0
7900000.0,26.375,6.136574342639911E-7,7900000.0,62.5,21.888018663556082,24.547283702213278,10.071942446043174,2179271.0,2904.0,0.0,1.0,0.0,?,0.0,0.0
8000000.0,26.703125,6.156145698494382E-7,8000000.0,61.199999999999996,18.272775144813057,17.094017094017087,2.7568922305764434,2209271.0,2904.0,0.0,1.0,0.0,?,0.0,0.0
8100000.0,27.03125,6.291970364852912E-7,8100000.0,62.8,19.658939238833252,21.019108280254773,-1.362397820163489,2238971.0,2904.0,0.0,1.0,0.0,?,0.0,0.0
8200000.0,27.359375,6.414892333042291E-7,8200000.0,63.6,22.88397003491407,23.36842105263158,7.6142131979695495,2268971.0,2904.0,0.0,1.0,0.0,?,0.0,0.0
8300000.0,27.671875,6.519672590204411E-7,8300000.0,65.0,25.06251926963791,25.053533190578158,8.854166666666675,2298971.0,2904.0,0.0,1.0,0.0,?,0.0,0.0
8400000.0,28.0,6.616789162055486E-7,8400000.0,62.8,21.14901987383843,22.0125786163522,4.123711340206189,2328971.0,2904.0,0.0,1.0,0.0,?,0.0,0.0
8500000.0,28.328125,6.701003035737408E-7,8500000.0,64.3,23.44641248874212,23.55460385438972,8.461538461538469,2358971.0,2904.0,0.0,1.0,0.0,?,0.0,0.0
8600000.0,28.640625,6.768918440987666E-7,8600000.0,59.9,13.362486172566374,12.636165577342037,-8.086253369272246,2388971.0,2904.0,0.0,1.0,0.0,?,0.0,0.0
8700000.0,28.984375,6.830108274395266E-7,8700000.0,62.9,20.84151233250832,22.38493723849372,5.357142857142862,2418971.0,2904.0,0.0,1.0,0.0,?,0.0,0.0
8800000.0,29.3125,6.875614053569733E-7,8800000.0,62.4,21.747527554859982,24.346076458752513,7.843137254901968,2448971.0,2904.0,0.0,1.0,0.0,?,0.0,0.0
8900000.0,29.625,6.906664606908129E-7,8900000.0,63.3,20.315783988466414,18.26280623608017,2.3936170212765977,2478971.0,2904.0,0.0,1.0,0.0,?,0.0,0.0
9000000.0,29.96875,6.92730310321268E-7,9000000.0,62.2,19.147498064245653,20.253164556962023,3.3248081841432255,2508971.0,2904.0,0.0,1.0,0.0,?,0.0,0.0
9100000.0,30.296875,7.063256796552903E-7,9100000.0,62.8,20.023047121904664,22.0125786163522,2.872062663185381,2538671.0,2904.0,0.0,1.0,0.0,?,0.0,0.0
9200000.0,30.609375,7.180448220525351E-7,9200000.0,61.8,18.096054888507723,21.721311475409834,1.5463917525773208,2568671.0,2904.0,0.0,1.0,0.0,?,0.0,0.0
9300000.0,30.953125,7.295841674527361E-7,9300000.0,63.3,23.831740787168872,23.382045929018787,13.238770685579206,2598671.0,2904.0,0.0,1.0,0.0,?,0.0,0.0
9400000.0,31.3125,7.402348758963248E-7,9400000.0,63.7,21.82856552187508,22.765957446808507,4.9738219895288,2628671.0,2904.0,0.0,1.0,0.0,?,0.0,0.0
9500000.0,31.640625,7.486691659626862E-7,9500000.0,64.2,22.31442260954101,21.1453744493392,-0.5617977528089892,2658671.0,2904.0,0.0,1.0,0.0,?,0.0,0.0
9600000.0,31.984375,7.561533776525823E-7,9600000.0,64.0,22.865627638102662,22.912205567451817,2.9649595687331565,2688671.0,2904.0,0.0,1.0,0.0,?,0.0,0.0
9700000.0,32.296875,7.617283780645166E-7,9700000.0,63.3,21.912899903827327,19.517543859649116,2.9100529100529124,2718671.0,2904.0,0.0,1.0,0.0,?,0.0,0.0
9800000.0,32.625,7.662918586801324E-7,9800000.0,60.4,15.081230378617615,17.842323651452276,-4.761904761904765,2748671.0,2904.0,0.0,1.0,0.0,?,0.0,0.0
9900000.0,32.953125,7.695650694788331E-7,9900000.0,63.3,20.224328319276587,23.700623700623698,-0.5479452054794526,2778671.0,2904.0,0.0,1.0,0.0,?,0.0,0.0
1.0E7,33.28125,7.715480104606186E-7,1.0E7,62.0,16.819893179231244,18.45493562231759,-2.7027027027027053,2808671.0,2904.0,0.0,1.0,0.0,?,0.0,0.0
