learning evaluation instances,evaluation time (cpu seconds),model cost (RAM-Hours),classified instances,classifications correct (percent),Kappa Statistic (percent),Kappa Temporal Statistic (percent),Kappa M Statistic (percent),model training instances,model serialized size (bytes),labeling cost,newThreshold,maxPosterior,accuracyBaseLearner (percent),Change detected,Warning detected,tree size (nodes),tree size (leaves),active learning leaves,tree depth,active leaf byte size estimate,inactive leaf byte size estimate,byte size estimate overhead
100000.0,0.40625,2.0807557221915986E-8,100000.0,79.9,59.801929507383655,59.3939393939394,59.55734406438633,29700.0,151376.0,0.0,1.0,0.0,?,0.0,0.0,52.0,37.0,37.0,4.0,0.0,0.0,1.0
200000.0,0.828125,6.298948493268754E-8,200000.0,85.0,69.99231803341655,69.0721649484536,69.19917864476386,59400.0,337856.0,0.0,1.0,0.0,?,0.0,0.0,121.0,88.0,88.0,6.0,0.0,0.0,1.0
300000.0,1.28125,1.3578637865268522E-7,300000.0,87.5,74.77234564711961,75.39370078740157,72.40618101545253,89100.0,570160.0,0.0,1.0,0.0,?,0.0,0.0,205.0,148.0,148.0,6.0,0.0,0.0,1.0
400000.0,1.734375,2.3302583334346613E-7,400000.0,91.0,82.0046787835163,82.92220113851994,81.81818181818183,118800.0,776280.0,0.0,1.0,0.0,?,0.0,0.0,278.0,192.0,192.0,7.0,0.0,0.0,1.0
500000.0,2.21875,3.5313821475331985E-7,500000.0,91.7,83.35459132513498,83.26612903225808,82.63598326359833,148500.0,903224.0,0.0,1.0,0.0,?,0.0,0.0,322.0,217.0,217.0,7.0,0.0,0.0,1.0
600000.0,2.65625,4.816137758704523E-7,600000.0,91.5,82.92157587642454,82.61758691206545,81.83760683760684,178200.0,1077512.0,0.0,1.0,0.0,?,0.0,0.0,401.0,264.0,264.0,7.0,0.0,0.0,1.0
700000.0,3.109375,6.297583523620333E-7,700000.0,92.60000000000001,85.18132847387709,85.60311284046693,84.74226804123712,207900.0,1204128.0,0.0,1.0,0.0,?,0.0,0.0,446.0,291.0,291.0,7.0,0.0,0.0,1.0
800000.0,3.546875,7.827300254979894E-7,800000.0,92.80000000000001,85.5291507219346,85.90998043052839,83.78378378378379,237600.0,1289896.0,0.0,1.0,0.0,?,0.0,0.0,486.0,311.0,311.0,7.0,0.0,0.0,1.0
900000.0,3.984375,9.479678636934194E-7,900000.0,93.30000000000001,86.56000256764132,86.57314629258518,85.92436974789916,267300.0,1396248.0,0.0,1.0,0.0,?,0.0,0.0,541.0,343.0,343.0,7.0,0.0,0.0,1.0
1000000.0,4.46875,1.1562300238033964E-6,1000000.0,94.69999999999999,89.38972925792166,88.93528183716074,89.60784313725489,297000.0,1596064.0,0.0,1.0,0.0,?,0.0,0.0,608.0,387.0,387.0,8.0,0.0,0.0,1.0
1100000.0,4.921875,1.3651283936471576E-6,1100000.0,94.19999999999999,88.40167015949703,88.49206349206348,88.67187499999999,326730.0,1729392.0,0.0,1.0,0.0,?,0.0,0.0,662.0,420.0,420.0,8.0,0.0,0.0,1.0
1200000.0,5.40625,1.6034153910974662E-6,1200000.0,93.10000000000001,86.19072016395019,86.25498007968129,85.97560975609757,356430.0,1846992.0,0.0,1.0,0.0,?,0.0,0.0,711.0,452.0,452.0,8.0,0.0,0.0,1.0
1300000.0,5.890625,1.8592946515935991E-6,1300000.0,94.3,88.59552944754343,88.39103869653768,87.76824034334763,386130.0,1985248.0,0.0,1.0,0.0,?,0.0,0.0,766.0,484.0,484.0,8.0,0.0,0.0,1.0
1400000.0,6.375,2.1297647941133215E-6,1400000.0,95.0,89.9919935948759,90.19607843137254,90.07936507936508,415830.0,2099656.0,0.0,1.0,0.0,?,0.0,0.0,812.0,510.0,510.0,8.0,0.0,0.0,1.0
1500000.0,6.859375,2.411975809890363E-6,1500000.0,95.19999999999999,90.34131382278726,90.28340080971658,89.76545842217483,445530.0,2191448.0,0.0,1.0,0.0,?,0.0,0.0,857.0,537.0,537.0,8.0,0.0,0.0,1.0
1600000.0,7.34375,2.7076258750942846E-6,1600000.0,95.5,90.9888983227336,91.19373776908023,90.66390041493774,475230.0,2296680.0,0.0,1.0,0.0,?,0.0,0.0,888.0,554.0,554.0,8.0,0.0,0.0,1.0
1700000.0,7.859375,3.03554212829719E-6,1700000.0,95.7,91.40103187617486,91.36546184738955,91.41716566866268,504930.0,2393568.0,0.0,1.0,0.0,?,0.0,0.0,936.0,581.0,581.0,8.0,0.0,0.0,1.0
1800000.0,8.328125,3.3426826121285557E-6,1800000.0,95.89999999999999,91.79060845607374,91.71717171717171,91.58110882956878,534630.0,2466128.0,0.0,1.0,0.0,?,0.0,0.0,974.0,600.0,600.0,8.0,0.0,0.0,1.0
1900000.0,8.8125,3.6771391104492876E-6,1900000.0,95.39999999999999,90.80025759278739,90.83665338645417,90.37656903765689,564330.0,2600240.0,0.0,1.0,0.0,?,0.0,0.0,1028.0,630.0,630.0,8.0,0.0,0.0,1.0
2000000.0,9.3125,4.032473855962356E-6,2000000.0,97.0,93.95529334961374,93.9879759519038,93.43544857768052,594030.0,2676384.0,0.0,1.0,0.0,?,0.0,0.0,1066.0,652.0,652.0,8.0,0.0,0.0,1.0
2100000.0,9.8125,4.4045868950585526E-6,2100000.0,95.7,91.39951837302888,91.71483622350674,91.17043121149896,623760.0,2819328.0,0.0,1.0,0.0,?,0.0,0.0,1113.0,680.0,680.0,8.0,0.0,0.0,1.0
2200000.0,10.328125,4.8016090295277536E-6,2200000.0,96.39999999999999,92.77876958257275,92.78557114228457,92.48434237995824,653460.0,2916888.0,0.0,1.0,0.0,?,0.0,0.0,1159.0,706.0,706.0,8.0,0.0,0.0,1.0
2300000.0,10.84375,5.207094654906541E-6,2300000.0,96.6,93.14977414402398,93.28063241106719,92.62472885032538,683160.0,2978512.0,0.0,1.0,0.0,?,0.0,0.0,1190.0,723.0,723.0,8.0,0.0,0.0,1.0
2400000.0,11.328125,5.594705871772021E-6,2400000.0,94.89999999999999,89.74833159121974,90.26717557251908,89.19491525423727,712860.0,3030160.0,0.0,1.0,0.0,?,0.0,0.0,1218.0,737.0,737.0,8.0,0.0,0.0,1.0
2500000.0,11.90625,6.068139337003231E-6,2500000.0,96.5,93.00016799596808,93.5304990757856,92.81314168377823,742560.0,3100496.0,0.0,1.0,0.0,?,0.0,0.0,1240.0,748.0,748.0,8.0,0.0,0.0,1.0
2600000.0,12.453125,6.531608782501684E-6,2600000.0,96.7,93.39904946312268,93.33333333333333,93.36016096579476,772260.0,3208904.0,0.0,1.0,0.0,?,0.0,0.0,1297.0,781.0,781.0,9.0,0.0,0.0,1.0
2700000.0,13.015625,7.0219862067865E-6,2700000.0,96.8,93.59172050288973,93.57429718875501,93.37474120082815,801960.0,3300848.0,0.0,1.0,0.0,?,0.0,0.0,1350.0,812.0,812.0,9.0,0.0,0.0,1.0
2800000.0,13.59375,7.542949072861423E-6,2800000.0,96.39999999999999,92.73021001615508,92.69776876267748,92.0,831660.0,3412256.0,0.0,1.0,0.0,?,0.0,0.0,1410.0,848.0,848.0,9.0,0.0,0.0,1.0
2900000.0,14.125,8.037702096367462E-6,2900000.0,95.8,91.59435140414358,91.82879377431907,91.39344262295081,861360.0,3526752.0,0.0,1.0,0.0,?,0.0,0.0,1446.0,866.0,866.0,9.0,0.0,0.0,1.0
3000000.0,14.671875,8.561705568960557E-6,3000000.0,97.0,93.97215133918704,93.7759336099585,93.57601713062098,891060.0,3628576.0,0.0,1.0,0.0,?,0.0,0.0,1495.0,892.0,892.0,9.0,0.0,0.0,1.0
3100000.0,15.1875,9.06381862781321E-6,3100000.0,96.7,93.39011160696401,93.55468749999999,93.16770186335404,920790.0,3702400.0,0.0,1.0,0.0,?,0.0,0.0,1528.0,910.0,910.0,9.0,0.0,0.0,1.0
3200000.0,15.765625,9.64107877937042E-6,3200000.0,97.7,95.39896936913868,95.39078156312625,95.44554455445544,950490.0,3795912.0,0.0,1.0,0.0,?,0.0,0.0,1563.0,929.0,929.0,9.0,0.0,0.0,1.0
3300000.0,16.3125,1.0201575383285267E-5,3300000.0,96.5,92.99018626076506,92.79835390946502,92.73858921161825,980190.0,3895896.0,0.0,1.0,0.0,?,0.0,0.0,1614.0,956.0,956.0,9.0,0.0,0.0,1.0
3400000.0,16.96875,1.0889923465179487E-5,3400000.0,96.7,93.39651335905359,93.25153374233128,93.25153374233128,1009890.0,3986680.0,0.0,1.0,0.0,?,0.0,0.0,1646.0,972.0,972.0,9.0,3998.3983488132094,0.0,1.021796137152957
3500000.0,17.484375,1.1439505065532608E-5,3500000.0,97.2,94.36395183594269,94.21487603305785,93.89978213507625,1039590.0,4050272.0,0.0,1.0,0.0,?,0.0,0.0,1682.0,990.0,990.0,9.0,3998.3983488132094,0.0,1.021796137152957
3600000.0,18.078125,1.2090233600853631E-5,3600000.0,96.3,92.59460887526119,92.46435845213848,92.3076923076923,1069290.0,4164608.0,0.0,1.0,0.0,?,0.0,0.0,1724.0,1014.0,1014.0,9.0,3998.3983488132094,0.0,1.021796137152957
3700000.0,18.625,1.2701504585695349E-5,3700000.0,97.7,95.36962473828314,95.40918163672654,94.98910675381264,1098990.0,4246960.0,0.0,1.0,0.0,?,0.0,0.0,1754.0,1032.0,1032.0,9.0,3998.3983488132094,0.0,1.021796137152957
3800000.0,19.1875,1.3338494302135788E-5,3800000.0,96.8,93.59795134443021,93.53535353535352,93.4959349593496,1128690.0,4301848.0,0.0,1.0,0.0,?,0.0,0.0,1780.0,1045.0,1045.0,9.0,3998.3983488132094,0.0,1.021796137152957
3900000.0,19.75,1.3988059201639973E-5,3900000.0,97.7,95.38626953814551,95.55125725338492,95.16806722689076,1158390.0,4386368.0,0.0,1.0,0.0,?,0.0,0.0,1816.0,1066.0,1066.0,9.0,3998.3983488132094,0.0,1.021796137152957
4000000.0,20.3125,1.465386753099867E-5,4000000.0,97.2,94.35665914221218,94.8051948051948,93.80530973451326,1188090.0,4495936.0,0.0,1.0,0.0,?,0.0,0.0,1857.0,1088.0,1088.0,9.0,3998.3983488132094,0.0,1.021796137152957
4100000.0,20.859375,1.5303573842781285E-5,4100000.0,97.1,94.16897896811034,94.32485322896281,93.72294372294373,1217820.0,4526488.0,0.0,1.0,0.0,?,0.0,0.0,1881.0,1100.0,1100.0,9.0,3998.3983488132094,0.0,1.021796137152957
4200000.0,21.5,1.6084717030430006E-5,4200000.0,96.0,91.99958397836687,92.11045364891518,92.0,1247520.0,4645560.0,0.0,1.0,0.0,?,0.0,0.0,1926.0,1130.0,1130.0,9.0,3998.3983488132094,0.0,1.021796137152957
4300000.0,22.109375,1.6854204845407772E-5,4300000.0,97.39999999999999,94.7948573190312,94.78957915831663,94.6611909650924,1277220.0,4811184.0,0.0,1.0,0.0,?,0.0,0.0,1982.0,1167.0,1167.0,9.0,3998.3983488132094,0.0,1.021796137152957
4400000.0,22.6875,1.7598489131261078E-5,4400000.0,96.89999999999999,93.80014879642889,93.96887159533074,94.12878787878788,1306920.0,4904640.0,0.0,1.0,0.0,?,0.0,0.0,2030.0,1197.0,1197.0,10.0,3998.3983488132094,0.0,1.021796137152957
4500000.0,23.34375,1.8469517688370415E-5,4500000.0,96.3,92.5937787741703,92.75929549902152,92.570281124498,1336620.0,5056584.0,0.0,1.0,0.0,?,0.0,0.0,2079.0,1226.0,1226.0,10.0,3998.3983488132094,0.0,1.021796137152957
4600000.0,23.921875,1.92482932147363E-5,4600000.0,98.2,96.39949592943012,96.40718562874251,96.37096774193547,1366320.0,5131208.0,0.0,1.0,0.0,?,0.0,0.0,2110.0,1243.0,1243.0,10.0,3998.3983488132094,0.0,1.021796137152957
4700000.0,24.5625,2.0122465373586036E-5,4700000.0,97.8,95.59365486300273,95.91836734693877,95.39748953974895,1396020.0,5196992.0,0.0,1.0,0.0,?,0.0,0.0,2137.0,1258.0,1258.0,10.0,3998.3983488132094,0.0,1.021796137152957
4800000.0,25.15625,2.094791241688654E-5,4800000.0,98.6,97.19892438696459,97.24409448818896,97.15447154471545,1425720.0,5294232.0,0.0,1.0,0.0,?,0.0,0.0,2193.0,1292.0,1292.0,10.0,3998.3983488132094,0.0,1.021796137152957
4900000.0,25.78125,2.1826412185974833E-5,4900000.0,97.89999999999999,95.77366145820754,95.83333333333333,95.42483660130718,1455420.0,5351880.0,0.0,1.0,0.0,?,0.0,0.0,2205.0,1298.0,1298.0,10.0,3998.3983488132094,0.0,1.021796137152957
5000000.0,26.453125,2.278255903446633E-5,5000000.0,97.2,94.37090885697283,94.52054794520548,94.12997903563941,1485120.0,5415464.0,0.0,1.0,0.0,?,0.0,0.0,2233.0,1312.0,1312.0,10.0,3998.3983488132094,0.0,1.021796137152957
5100000.0,27.15625,2.284436974959034E-5,5100000.0,90.8,81.57198942392438,81.41414141414141,81.22448979591837,29069.0,287008.0,0.0,1.0,0.0,?,1.0,3.0,98.0,75.0,75.0,4.0,0.0,0.0,1.0
5200000.0,27.65625,2.2940804062980332E-5,5200000.0,92.4,84.73092269426888,83.62068965517241,83.86411889596603,58769.0,689896.0,0.0,1.0,0.0,?,0.0,0.0,238.0,175.0,175.0,4.0,0.0,0.0,1.0
5300000.0,28.0625,2.303145751486429E-5,5300000.0,95.8,91.54602985459171,91.13924050632912,90.90909090909089,88469.0,804920.0,0.0,1.0,0.0,?,0.0,0.0,283.0,202.0,202.0,5.0,0.0,0.0,1.0
5400000.0,28.484375,2.3137298250933078E-5,5400000.0,95.3,90.5958621793589,90.42769857433808,90.46653144016227,118169.0,910040.0,0.0,1.0,0.0,?,0.0,0.0,332.0,228.0,228.0,6.0,0.0,0.0,1.0
5500000.0,28.890625,2.3256498615309186E-5,5500000.0,95.89999999999999,91.7753259779338,91.99218749999999,91.36842105263156,147869.0,1072136.0,0.0,1.0,0.0,?,0.0,0.0,408.0,272.0,272.0,6.0,0.0,0.0,1.0
5600000.0,29.3125,2.33935584482323E-5,5600000.0,97.5,94.99783906647671,95.29190207156309,94.76987447698745,177569.0,1191640.0,0.0,1.0,0.0,?,0.0,0.0,458.0,300.0,300.0,6.0,0.0,0.0,1.0
5700000.0,29.71875,2.3536548606999635E-5,5700000.0,97.39999999999999,94.76652670480392,94.61697722567287,94.36008676789587,207269.0,1294336.0,0.0,1.0,0.0,?,0.0,0.0,504.0,326.0,326.0,7.0,0.0,0.0,1.0
5800000.0,30.09375,2.3674991259920518E-5,5800000.0,97.39999999999999,94.74333313115383,94.75806451612902,94.15730337078652,236969.0,1359000.0,0.0,1.0,0.0,?,0.0,0.0,531.0,341.0,341.0,7.0,0.0,0.0,1.0
5900000.0,30.515625,2.3843892720631432E-5,5900000.0,98.0,95.99923185251568,96.26865671641791,95.66160520607376,266669.0,1477592.0,0.0,1.0,0.0,?,0.0,0.0,572.0,369.0,369.0,7.0,0.0,0.0,1.0
6000000.0,30.9375,2.4021864099065883E-5,6000000.0,97.8,95.5980279165066,95.61752988047807,95.52845528455283,296369.0,1558808.0,0.0,1.0,0.0,?,0.0,0.0,617.0,396.0,396.0,7.0,0.0,0.0,1.0
6100000.0,31.328125,2.419501087085034E-5,6100000.0,98.5,96.9916970839517,97.0059880239521,96.85534591194968,326099.0,1654872.0,0.0,1.0,0.0,?,0.0,0.0,659.0,420.0,420.0,7.0,0.0,0.0,1.0
6200000.0,31.765625,2.4404376842236773E-5,6200000.0,98.0,95.97930144383284,96.078431372549,95.71734475374733,355799.0,1789232.0,0.0,1.0,0.0,?,0.0,0.0,712.0,454.0,454.0,7.0,0.0,0.0,1.0
6300000.0,32.171875,2.461105588332026E-5,6300000.0,98.7,97.38542110809875,97.26890756302521,97.35234215885947,385499.0,1903928.0,0.0,1.0,0.0,?,0.0,0.0,757.0,481.0,481.0,8.0,0.0,0.0,1.0
6400000.0,32.5625,2.4815864388882705E-5,6400000.0,99.2,98.39992319631342,98.37067209775967,98.41897233201581,415199.0,1962200.0,0.0,1.0,0.0,?,0.0,0.0,787.0,496.0,496.0,8.0,0.0,0.0,1.0
6500000.0,32.984375,2.504377619415108E-5,6500000.0,98.9,97.79994719873277,97.72256728778468,97.79116465863453,444899.0,2021992.0,0.0,1.0,0.0,?,0.0,0.0,811.0,511.0,511.0,8.0,0.0,0.0,1.0
6600000.0,33.390625,2.526763147519281E-5,6600000.0,98.8,97.58974194170389,97.6608187134503,97.45762711864407,474599.0,2061992.0,0.0,1.0,0.0,?,0.0,0.0,832.0,523.0,523.0,8.0,0.0,0.0,1.0
6700000.0,33.796875,2.550206962041557E-5,6700000.0,98.7,97.39683455081378,97.42063492063492,97.31404958677685,504299.0,2160768.0,0.0,1.0,0.0,?,0.0,0.0,869.0,546.0,546.0,8.0,0.0,0.0,1.0
6800000.0,34.21875,2.575596095994115E-5,6800000.0,98.6,97.19056028254937,97.2386587771203,97.03389830508475,533999.0,2254424.0,0.0,1.0,0.0,?,0.0,0.0,907.0,568.0,568.0,8.0,0.0,0.0,1.0
6900000.0,34.640625,2.601786138257012E-5,6900000.0,98.4,96.79677114531448,96.83168316831683,96.70781893004114,563699.0,2325968.0,0.0,1.0,0.0,?,0.0,0.0,937.0,586.0,586.0,8.0,0.0,0.0,1.0
7000000.0,35.03125,2.6267562546612074E-5,7000000.0,99.0,97.99994399843196,98.02371541501977,97.88135593220339,593399.0,2395448.0,0.0,1.0,0.0,?,0.0,0.0,966.0,605.0,605.0,8.0,0.0,0.0,1.0
7100000.0,35.46875,2.65518266436023E-5,7100000.0,99.1,98.19969754918826,98.23529411764706,98.17444219066937,623129.0,2449632.0,0.0,1.0,0.0,?,0.0,0.0,984.0,614.0,614.0,8.0,0.0,0.0,1.0
7200000.0,35.859375,2.680941252037883E-5,7200000.0,99.0,97.99995999919999,98.01587301587301,97.95081967213115,652829.0,2485312.0,0.0,1.0,0.0,?,0.0,0.0,1007.0,627.0,627.0,9.0,0.0,0.0,1.0
7300000.0,36.265625,2.7081050858315494E-5,7300000.0,98.8,97.56840876669692,97.57085020242914,97.29729729729729,682529.0,2519272.0,0.0,1.0,0.0,?,0.0,0.0,1030.0,640.0,640.0,9.0,0.0,0.0,1.0
7400000.0,36.6875,2.7367843787134108E-5,7400000.0,99.0,97.99949587295998,97.9633401221996,97.9633401221996,712229.0,2560672.0,0.0,1.0,0.0,?,0.0,0.0,1042.0,646.0,646.0,9.0,0.0,0.0,1.0
7500000.0,37.109375,2.7661060222372826E-5,7500000.0,99.5,98.9998879874546,99.00596421471172,98.99396378269618,741929.0,2617744.0,0.0,1.0,0.0,?,0.0,0.0,1063.0,658.0,658.0,9.0,0.0,0.0,1.0
7600000.0,37.53125,2.7958744386624957E-5,7600000.0,99.0,97.99070903859446,97.9381443298969,97.79735682819383,771629.0,2656944.0,0.0,1.0,0.0,?,0.0,0.0,1088.0,672.0,672.0,9.0,0.0,0.0,1.0
7700000.0,37.953125,2.8262960323546495E-5,7700000.0,99.2,98.39858434856413,98.33679833679834,98.35728952772074,801329.0,2714960.0,0.0,1.0,0.0,?,0.0,0.0,1117.0,688.0,688.0,9.0,0.0,0.0,1.0
7800000.0,38.40625,2.8596103689374607E-5,7800000.0,99.4,98.79595440680687,98.83040935672514,98.72881355932203,831029.0,2767720.0,0.0,1.0,0.0,?,0.0,0.0,1136.0,699.0,699.0,9.0,0.0,0.0,1.0
7900000.0,38.8125,2.8895274121572985E-5,7900000.0,99.1,98.20008639585299,98.23529411764706,98.17444219066937,860729.0,2770784.0,0.0,1.0,0.0,?,0.0,0.0,1156.0,709.0,709.0,9.0,0.0,0.0,1.0
8000000.0,39.265625,2.923514613131475E-5,8000000.0,99.3,98.58778718356346,98.61932938856016,98.45474613686534,890429.0,2821760.0,0.0,1.0,0.0,?,0.0,0.0,1164.0,713.0,713.0,9.0,0.0,0.0,1.0
8100000.0,39.71875,2.957781744448261E-5,8100000.0,98.7,97.38829958212793,97.39478957915831,97.22222222222221,920159.0,2859232.0,0.0,1.0,0.0,?,0.0,0.0,1184.0,723.0,723.0,9.0,0.0,0.0,1.0
8200000.0,40.125,2.9888791549536914E-5,8200000.0,99.4,98.78836344250178,98.76543209876543,98.66962305986696,949859.0,2893208.0,0.0,1.0,0.0,?,0.0,0.0,1202.0,732.0,732.0,9.0,0.0,0.0,1.0
8300000.0,40.5625,3.022952419188287E-5,8300000.0,99.4,98.7989382614231,98.7878787878788,98.77049180327869,979559.0,2942976.0,0.0,1.0,0.0,?,0.0,0.0,1222.0,742.0,742.0,9.0,0.0,0.0,1.0
8400000.0,41.046875,3.060958083046393E-5,8400000.0,99.2,98.39877025555627,98.42829076620825,98.36065573770492,1009259.0,2963808.0,0.0,1.0,0.0,?,0.0,0.0,1234.0,748.0,748.0,9.0,3883.5020080321283,0.0,1.0209694944046417
8500000.0,41.5,3.096833336813789E-5,8500000.0,99.4,98.79920747693478,98.72881355932203,98.77300613496932,1038959.0,2989536.0,0.0,1.0,0.0,?,0.0,0.0,1252.0,757.0,757.0,9.0,3883.5020080321283,0.0,1.0209694944046417
8600000.0,41.9375,3.131948233607949E-5,8600000.0,99.8,99.59953706484697,99.62192816635161,99.5850622406639,1068659.0,3029864.0,0.0,1.0,0.0,?,0.0,0.0,1276.0,769.0,769.0,9.0,3883.5020080321283,0.0,1.0209694944046417
8700000.0,42.40625,3.170125862298947E-5,8700000.0,99.0,97.99071711306235,97.9381443298969,97.85867237687366,1098359.0,3073792.0,0.0,1.0,0.0,?,0.0,0.0,1302.0,782.0,782.0,9.0,3883.5020080321283,0.0,1.0209694944046417
8800000.0,42.828125,3.2049280481361265E-5,8800000.0,99.1,98.1923790701598,98.15950920245399,98.08102345415777,1128059.0,3112624.0,0.0,1.0,0.0,?,0.0,0.0,1310.0,786.0,786.0,9.0,3883.5020080321283,0.0,1.0209694944046417
8900000.0,43.265625,3.241425933083519E-5,8900000.0,99.5,98.9998879874546,99.01768172888016,99.02534113060429,1157759.0,3146872.0,0.0,1.0,0.0,?,0.0,0.0,1327.0,796.0,796.0,10.0,3883.5020080321283,0.0,1.0209694944046417
9000000.0,43.734375,3.28085056389682E-5,9000000.0,99.7,99.39942344650865,99.39271255060729,99.38775510204081,1187459.0,3171576.0,0.0,1.0,0.0,?,0.0,0.0,1339.0,802.0,802.0,10.0,3883.5020080321283,0.0,1.0209694944046417
9100000.0,44.171875,3.3178199179625755E-5,9100000.0,99.7,99.39583853583484,99.37759336099586,99.33184855233853,1217189.0,3200520.0,0.0,1.0,0.0,?,0.0,0.0,1351.0,808.0,808.0,10.0,3883.5020080321283,0.0,1.0209694944046417
9200000.0,44.625,3.3564727184259225E-5,9200000.0,99.9,99.79966343457008,99.78858350951374,99.79166666666667,1246889.0,3229816.0,0.0,1.0,0.0,?,0.0,0.0,1363.0,814.0,814.0,10.0,3883.5020080321283,0.0,1.0209694944046417
9300000.0,45.046875,3.392569122499682E-5,9300000.0,99.3,98.59882301132951,98.50746268656717,98.559670781893,1276589.0,3239312.0,0.0,1.0,0.0,?,0.0,0.0,1371.0,818.0,818.0,10.0,3883.5020080321283,0.0,1.0209694944046417
9400000.0,45.53125,3.434333329399426E-5,9400000.0,99.7,99.39917807560744,99.39148073022312,99.37629937629937,1306289.0,3263208.0,0.0,1.0,0.0,?,0.0,0.0,1381.0,823.0,823.0,10.0,3883.5020080321283,0.0,1.0209694944046417
9500000.0,45.96875,3.472389498104651E-5,9500000.0,99.3,98.59828429998318,98.63013698630137,98.65125240847784,1335989.0,3291016.0,0.0,1.0,0.0,?,0.0,0.0,1391.0,828.0,828.0,10.0,3883.5020080321283,0.0,1.0209694944046417
9600000.0,46.4375,3.513247201529641E-5,9600000.0,99.2,98.39537869062902,98.40954274353876,98.29787234042553,1365689.0,3296328.0,0.0,1.0,0.0,?,0.0,0.0,1395.0,830.0,830.0,10.0,3883.5020080321283,0.0,1.0209694944046417
9700000.0,46.875,3.5515644121915095E-5,9700000.0,99.7,99.39745969005327,99.38144329896907,99.3576017130621,1395389.0,3310888.0,0.0,1.0,0.0,?,0.0,0.0,1409.0,837.0,837.0,10.0,3883.5020080321283,0.0,1.0209694944046417
9800000.0,47.3125,3.5903246607631436E-5,9800000.0,99.6,99.19286818326735,99.20159680638723,99.11699779249447,1425089.0,3348376.0,0.0,1.0,0.0,?,0.0,0.0,1418.0,843.0,843.0,10.0,3883.5020080321283,0.0,1.0209694944046417
9900000.0,47.765625,3.630842350604426E-5,9900000.0,99.4,98.79699730527396,98.82583170254404,98.73949579831933,1454789.0,3378568.0,0.0,1.0,0.0,?,0.0,0.0,1427.0,849.0,849.0,10.0,3883.5020080321283,0.0,1.0209694944046417
1.0E7,48.203125,3.670210972712892E-5,1.0E7,99.2,98.39938536397976,98.40954274353876,98.34368530020704,1484489.0,3398816.0,0.0,1.0,0.0,?,0.0,0.0,1445.0,858.0,858.0,10.0,3883.5020080321283,0.0,1.0209694944046417
