learning evaluation instances,evaluation time (cpu seconds),model cost (RAM-Hours),classified instances,classifications correct (percent),Kappa Statistic (percent),Kappa Temporal Statistic (percent),Kappa M Statistic (percent),model training instances,model serialized size (bytes),labeling cost,newThreshold,maxPosterior,accuracyBaseLearner (percent),Change detected,Warning detected
100000.0,0.09375,2.8576080997784933E-9,100000.0,71.8,0.0,30.882352941176467,0.0,457.0,7112.0,0.0,1.0,0.0,?,9.0,77.0
200000.0,0.171875,5.044922646549013E-9,200000.0,70.7,0.0,30.73286052009456,0.0,438.0,7112.0,0.0,1.0,0.0,?,9.0,50.0
300000.0,0.265625,7.459570446776019E-9,300000.0,69.89999999999999,0.0,30.0,0.0,148.0,7112.0,0.0,1.0,0.0,?,10.0,33.0
400000.0,0.359375,9.644686037467585E-9,400000.0,68.7,24.07409204257675,25.653206650831372,-9.05923344947732,1032.0,7424.0,0.0,1.0,0.0,?,9.0,40.0
500000.0,0.46875,1.1892019150157768E-8,500000.0,49.6,-0.8803007193726233,-19.43127962085307,-67.44186046511625,238.0,7112.0,0.0,1.0,0.0,?,11.0,41.0
600000.0,0.5625,1.3585474031666913E-8,600000.0,69.3,24.384236453201964,28.93518518518518,-2.3333333333333353,155.0,7112.0,0.0,1.0,0.0,?,9.0,31.0
700000.0,0.671875,1.5324848290118904E-8,700000.0,69.19999999999999,35.48684392424311,20.822622107969142,-7.317073170731712,1152.0,7424.0,0.0,1.0,0.0,?,9.0,32.0
800000.0,0.765625,1.6552641884320308E-8,800000.0,71.3,0.0,25.454545454545446,0.0,931.0,7112.0,0.0,1.0,0.0,?,10.0,24.0
900000.0,0.859375,1.7570305822624097E-8,900000.0,71.1,0.0,30.19323671497584,0.0,685.0,7112.0,0.0,1.0,0.0,?,8.0,42.0
1000000.0,0.953125,1.8362706113192767E-8,1000000.0,72.5,0.0,28.75647668393782,0.0,1706.0,7424.0,0.0,1.0,0.0,?,8.0,36.0
1100000.0,1.046875,2.12226425194078E-8,1100000.0,68.30000000000001,0.0,31.086956521739133,0.0,943.0,7112.0,0.0,1.0,0.0,?,10.0,33.0
1200000.0,1.140625,2.3880016265643963E-8,1200000.0,72.0,0.0,31.70731707317073,0.0,1225.0,7424.0,0.0,1.0,0.0,?,9.0,46.0
1300000.0,1.21875,2.587524553140004E-8,1300000.0,70.7,0.0,30.07159904534606,0.0,385.0,7112.0,0.0,1.0,0.0,?,10.0,59.0
1400000.0,1.296875,2.769811544567346E-8,1400000.0,68.7,0.0,23.658536585365873,0.0,1384.0,7424.0,0.0,1.0,0.0,?,8.0,44.0
1500000.0,1.40625,2.9992305725398986E-8,1500000.0,63.1,29.73730511146825,7.286432160804027,-30.388692579505282,9986.0,7424.0,0.0,1.0,0.0,?,1.0,3.0
1600000.0,1.5,3.172592389293842E-8,1600000.0,69.19999999999999,35.888896289882084,26.491646778042956,-4.054054054054057,19986.0,7424.0,0.0,1.0,0.0,?,0.0,0.0
1700000.0,1.609375,3.3476842670804915E-8,1700000.0,67.30000000000001,32.4508564487742,21.014492753623205,-6.862745098039184,29986.0,7424.0,0.0,1.0,0.0,?,0.0,0.0
1800000.0,1.734375,3.516745184444718E-8,1800000.0,67.10000000000001,31.563839081416152,18.159203980099516,-15.034965034965008,39986.0,7424.0,0.0,1.0,0.0,?,0.0,0.0
1900000.0,1.84375,3.637509912045465E-8,1900000.0,69.69999999999999,36.967447743309805,29.20560747663551,-1.3377926421404693,49986.0,7424.0,0.0,1.0,0.0,?,0.0,0.0
2000000.0,1.9375,3.717739471337861E-8,2000000.0,68.0,32.02134529757656,13.513513513513525,-21.212121212121186,59986.0,7424.0,0.0,1.0,0.0,?,0.0,0.0
2100000.0,2.03125,4.0077494405623936E-8,2100000.0,70.7,39.47281441084117,30.73286052009456,2.6578073089701015,69886.0,7424.0,0.0,1.0,0.0,?,0.0,0.0
2200000.0,2.125,4.274476345421539E-8,2200000.0,69.5,35.98730659771484,24.317617866004955,-9.712230215827345,79886.0,7424.0,0.0,1.0,0.0,?,0.0,0.0
2300000.0,2.234375,4.558494159330924E-8,2300000.0,67.30000000000001,32.812821039654835,21.95704057279238,-5.483870967741904,89886.0,7424.0,0.0,1.0,0.0,?,0.0,0.0
2400000.0,2.3125,4.741961472771234E-8,2400000.0,63.5,30.090021068760763,1.3513513513513526,-30.824372759856615,99886.0,7424.0,0.0,1.0,0.0,?,0.0,0.0
2500000.0,2.421875,4.971652136494716E-8,2500000.0,64.60000000000001,30.421519798418966,15.914489311163907,-21.649484536082454,109886.0,7424.0,0.0,1.0,0.0,?,0.0,0.0
2600000.0,2.515625,5.145246783892314E-8,2600000.0,69.5,37.16263546087599,27.895981087470446,7.5757575757575495,119886.0,7424.0,0.0,1.0,0.0,?,0.0,0.0
2700000.0,2.640625,5.3456622279352616E-8,2700000.0,65.60000000000001,33.43653250773995,22.171945701357462,-14.666666666666641,129886.0,7424.0,0.0,1.0,0.0,?,0.0,0.0
2800000.0,2.75,5.493862166379889E-8,2800000.0,62.5,27.877957965350642,5.303030303030307,-39.92537313432835,139886.0,7424.0,0.0,1.0,0.0,?,0.0,0.0
2900000.0,2.859375,5.614898529731565E-8,2900000.0,68.2,34.1224824637363,21.867321867321884,-6.354515050167192,149886.0,7424.0,0.0,1.0,0.0,?,0.0,0.0
3000000.0,2.953125,5.695360919667615E-8,3000000.0,69.0,36.05610561056105,28.40646651270207,0.0,159886.0,7424.0,0.0,1.0,0.0,?,0.0,0.0
3100000.0,3.046875,5.985603719535802E-8,3100000.0,68.2,34.755044173707525,22.058823529411782,-2.9126213592232673,169786.0,7424.0,0.0,1.0,0.0,?,0.0,0.0
3200000.0,3.140625,6.2525634550386E-8,3200000.0,64.7,31.88326373719675,17.523364485981322,-12.420382165605108,179786.0,7424.0,0.0,1.0,0.0,?,0.0,0.0
3300000.0,3.25,6.536852904698915E-8,3300000.0,64.5,30.435804985107385,11.027568922305774,-24.56140350877191,189786.0,7424.0,0.0,1.0,0.0,?,0.0,0.0
3400000.0,3.34375,6.75724651147094E-8,3400000.0,62.2,26.322970470714356,9.134615384615392,-37.454545454545446,199786.0,7424.0,0.0,1.0,0.0,?,0.0,0.0
3500000.0,3.4375,6.954357053877577E-8,3500000.0,66.5,30.343582876581316,12.303664921465979,-22.710622710622687,209786.0,7424.0,0.0,1.0,0.0,?,0.0,0.0
3600000.0,3.53125,7.128184531918828E-8,3600000.0,62.5,28.380443086325435,14.578587699316618,-24.999999999999982,219786.0,7424.0,0.0,1.0,0.0,?,0.0,0.0
3700000.0,3.65625,7.328910416819981E-8,3700000.0,68.89999999999999,34.440743707576196,22.249999999999993,-7.241379310344834,229786.0,7424.0,0.0,1.0,0.0,?,0.0,0.0
3800000.0,3.765625,7.477381991015539E-8,3800000.0,63.4,29.428641944838656,14.685314685314696,-19.60784313725488,239786.0,7424.0,0.0,1.0,0.0,?,0.0,0.0
3900000.0,3.859375,7.581360275960629E-8,3900000.0,65.4,33.510638297872354,15.815085158150865,-13.815789473684184,249786.0,7424.0,0.0,1.0,0.0,?,0.0,0.0
4000000.0,3.96875,7.675504699970284E-8,4000000.0,61.8,27.80029031087456,14.157303370786506,-28.18791946308723,259786.0,7424.0,0.0,1.0,0.0,?,0.0,0.0
4100000.0,4.046875,7.917567725396818E-8,4100000.0,69.3,35.64480965956732,26.024096385542162,-4.067796610169495,269686.0,7424.0,0.0,1.0,0.0,?,0.0,0.0
4200000.0,4.15625,8.229292385901013E-8,4200000.0,70.3,38.206875889446465,25.935162094763086,-1.0204081632653068,279686.0,7424.0,0.0,1.0,0.0,?,0.0,0.0
4300000.0,4.234375,8.432550304051902E-8,4300000.0,68.30000000000001,35.12500204652991,24.343675417661117,-6.734006734006702,289686.0,7424.0,0.0,1.0,0.0,?,0.0,0.0
4400000.0,4.328125,8.653176741467582E-8,4400000.0,69.89999999999999,37.77957847214756,26.941747572815526,0.3311258278145698,299686.0,7424.0,0.0,1.0,0.0,?,0.0,0.0
4500000.0,4.421875,8.850520114517875E-8,4500000.0,62.8,28.65690877289883,6.532663316582921,-26.530612244897945,309686.0,7424.0,0.0,1.0,0.0,?,0.0,0.0
4600000.0,4.515625,9.02458042320278E-8,4600000.0,68.10000000000001,34.39993419429137,25.64102564102566,-4.9342105263157565,319686.0,7424.0,0.0,1.0,0.0,?,0.0,0.0
4700000.0,4.609375,9.1753576675223E-8,4700000.0,67.60000000000001,33.427575777500174,24.651162790697693,-10.958904109589012,329686.0,7424.0,0.0,1.0,0.0,?,0.0,0.0
4800000.0,4.734375,9.345349907461141E-8,4800000.0,64.4,31.590820871717423,11.442786069651751,-25.795053003533553,339686.0,7424.0,0.0,1.0,0.0,?,0.0,0.0
4900000.0,4.84375,9.466929542314675E-8,4900000.0,68.7,35.12307960170132,28.211009174311947,-9.44055944055941,349686.0,7424.0,0.0,1.0,0.0,?,0.0,0.0
5000000.0,4.9375,9.549681433579988E-8,5000000.0,63.6,30.3170573888806,9.677419354838717,-25.95155709342559,359686.0,7424.0,0.0,1.0,0.0,?,0.0,0.0
5100000.0,5.03125,9.842213734777438E-8,5100000.0,69.5,38.371886264810946,38.75502008032127,32.37250554323723,369586.0,7424.0,0.0,1.0,0.0,?,0.0,0.0
5200000.0,5.125,1.01114629716095E-7,5200000.0,68.2,36.368184092046036,37.154150197628475,34.836065573770504,379586.0,7424.0,0.0,1.0,0.0,?,0.0,0.0
5300000.0,5.21875,1.0357429144076176E-7,5300000.0,71.8,43.317266525428835,42.799188640973625,38.29321663019692,389586.0,7424.0,0.0,1.0,0.0,?,0.0,0.0
5400000.0,5.328125,1.0617226103527679E-7,5400000.0,69.6,38.751908965995206,41.762452107279685,35.181236673773974,399586.0,7424.0,0.0,1.0,0.0,?,0.0,0.0
5500000.0,5.421875,1.081662614726358E-7,5500000.0,70.5,40.648639948495074,39.67280163599181,36.285097192224605,409586.0,7424.0,0.0,1.0,0.0,?,0.0,0.0
5600000.0,5.53125,1.102209595652918E-7,5600000.0,69.3,38.20550393713465,38.353413654618464,34.957627118644055,419586.0,7424.0,0.0,1.0,0.0,?,0.0,0.0
5700000.0,5.625,1.1174929871534308E-7,5700000.0,68.5,36.023462125889594,33.26271186440678,26.401869158878526,429586.0,7424.0,0.0,1.0,0.0,?,0.0,0.0
5800000.0,5.71875,1.1304480722174049E-7,5800000.0,69.3,37.96826884996807,36.04166666666666,33.549783549783534,439586.0,7424.0,0.0,1.0,0.0,?,0.0,0.0
5900000.0,5.828125,1.1428459806160794E-7,5900000.0,70.89999999999999,41.18598164840939,42.490118577075094,34.162895927601795,449586.0,7424.0,0.0,1.0,0.0,?,0.0,0.0
6000000.0,5.9375,1.1525275315054589E-7,6000000.0,69.39999999999999,38.1047930353733,38.67735470941883,31.39013452914796,459586.0,7424.0,0.0,1.0,0.0,?,0.0,0.0
6100000.0,6.03125,1.1818040446895692E-7,6100000.0,71.5,42.55190485789155,46.62921348314605,38.177874186550966,469486.0,7424.0,0.0,1.0,0.0,?,0.0,0.0
6200000.0,6.109375,1.2042608836458789E-7,6200000.0,73.5,46.69080667873667,44.210526315789465,43.73673036093418,479486.0,7424.0,0.0,1.0,0.0,?,0.0,0.0
6300000.0,6.203125,1.2288807839569118E-7,6300000.0,69.6,38.7718930763901,38.95582329317268,34.199134199134186,489486.0,7424.0,0.0,1.0,0.0,?,0.0,0.0
6400000.0,6.296875,1.251172377831406E-7,6400000.0,70.6,40.90523531374495,38.87733887733887,37.57961783439489,499486.0,7424.0,0.0,1.0,0.0,?,0.0,0.0
6500000.0,6.40625,1.2744628798423542E-7,6500000.0,67.9,35.28904227782571,35.41247484909458,29.139072847682122,509486.0,7424.0,0.0,1.0,0.0,?,0.0,0.0
6600000.0,6.5,1.292097860843771E-7,6600000.0,73.2,45.881108064118756,47.55381604696673,40.31180400890867,519486.0,7424.0,0.0,1.0,0.0,?,0.0,0.0
6700000.0,6.59375,1.3074045354086491E-7,6700000.0,68.60000000000001,36.982969346429115,39.61538461538463,34.44676409185804,529486.0,7424.0,0.0,1.0,0.0,?,0.0,0.0
6800000.0,6.6875,1.3203829035369886E-7,6800000.0,69.39999999999999,38.231731933790854,35.30655391120506,31.999999999999986,539486.0,7424.0,0.0,1.0,0.0,?,0.0,0.0
6900000.0,6.796875,1.332807975510756E-7,6900000.0,68.10000000000001,35.59406900116295,34.0909090909091,29.268292682926834,549486.0,7424.0,0.0,1.0,0.0,?,0.0,0.0
7000000.0,6.90625,1.3425166899752285E-7,7000000.0,71.1,40.858674743175214,37.037037037037024,28.992628992628987,559486.0,7424.0,0.0,1.0,0.0,?,0.0,0.0
7100000.0,6.984375,1.3669331868489581E-7,7100000.0,71.2,42.159383033419005,45.247148288973385,39.24050632911392,569386.0,7424.0,0.0,1.0,0.0,?,0.0,0.0
7200000.0,7.078125,1.393904676660895E-7,7200000.0,68.7,36.67556850368213,35.99182004089981,29.662921348314615,579386.0,7424.0,0.0,1.0,0.0,?,0.0,0.0
7300000.0,7.171875,1.4185478600362934E-7,7300000.0,68.60000000000001,36.92625996826227,32.90598290598291,33.049040511727085,589386.0,7424.0,0.0,1.0,0.0,?,0.0,0.0
7400000.0,7.265625,1.440862736975153E-7,7400000.0,69.1,37.168559065621224,37.575757575757564,27.803738317757006,599386.0,7424.0,0.0,1.0,0.0,?,0.0,0.0
7500000.0,7.359375,1.4608493074774738E-7,7500000.0,70.19999999999999,39.292698826597125,40.99009900990098,29.71698113207547,609386.0,7424.0,0.0,1.0,0.0,?,0.0,0.0
7600000.0,7.453125,1.478507571543256E-7,7600000.0,69.69999999999999,39.48327101907774,40.35433070866141,40.118577075098806,619386.0,7424.0,0.0,1.0,0.0,?,0.0,0.0
7700000.0,7.546875,1.4938375291724995E-7,7700000.0,71.2,41.88650919524921,45.96622889305816,36.42384105960264,629386.0,7424.0,0.0,1.0,0.0,?,0.0,0.0
7800000.0,7.640625,1.5068391803652043E-7,7800000.0,69.6,37.35910951028835,37.44855967078188,25.3071253071253,639386.0,7424.0,0.0,1.0,0.0,?,0.0,0.0
7900000.0,7.734375,1.5175125251213704E-7,7900000.0,69.89999999999999,39.44831581827252,37.551867219917,35.546038543897204,649386.0,7424.0,0.0,1.0,0.0,?,0.0,0.0
8000000.0,7.84375,1.5272484031609357E-7,8000000.0,68.60000000000001,36.914601657900356,39.846743295019174,33.33333333333334,659386.0,7424.0,0.0,1.0,0.0,?,0.0,0.0
8100000.0,7.9375,1.5565714824737768E-7,8100000.0,70.89999999999999,41.47365711205682,39.12133891213388,36.60130718954247,669286.0,7424.0,0.0,1.0,0.0,?,0.0,0.0
8200000.0,8.03125,1.583566255350079E-7,8200000.0,69.69999999999999,39.11065382698582,40.35433070866141,34.698275862068954,679286.0,7424.0,0.0,1.0,0.0,?,0.0,0.0
8300000.0,8.125,1.6082327217898427E-7,8300000.0,68.8,36.971988897373414,39.65183752417794,31.12582781456952,689286.0,7424.0,0.0,1.0,0.0,?,0.0,0.0
8400000.0,8.21875,1.6305708817930677E-7,8400000.0,70.6,40.66168278623672,41.31736526946107,35.80786026200872,699286.0,7424.0,0.0,1.0,0.0,?,0.0,0.0
8500000.0,8.328125,1.6539157109542018E-7,8500000.0,69.19999999999999,37.70932095070137,34.88372093023254,29.032258064516125,709286.0,7424.0,0.0,1.0,0.0,?,0.0,0.0
8600000.0,8.421875,1.6715972580843493E-7,8600000.0,68.4,36.14613643711608,36.290322580645174,31.304347826086964,719286.0,7424.0,0.0,1.0,0.0,?,0.0,0.0
8700000.0,8.515625,1.6869504987779582E-7,8700000.0,72.2,43.12602291325697,43.7246963562753,35.348837209302324,729286.0,7424.0,0.0,1.0,0.0,?,0.0,0.0
8800000.0,8.625,1.699051871481868E-7,8800000.0,70.19999999999999,40.09544524361854,40.39999999999999,35.07625272331153,739286.0,3256.0,0.0,1.0,0.0,?,0.0,0.0
8900000.0,8.71875,1.7070961702201093E-7,8900000.0,70.3,40.207762924786586,42.33009708737863,35.434782608695635,749286.0,3256.0,0.0,1.0,0.0,?,0.0,0.0
9000000.0,8.8125,1.712812162521812E-7,9000000.0,69.89999999999999,39.459520342405675,41.89189189189189,34.98920086393087,759286.0,3256.0,0.0,1.0,0.0,?,0.0,0.0
9100000.0,8.90625,1.739506195816728E-7,9100000.0,71.7,42.84952664060227,43.05835010060362,38.07439824945294,769186.0,3256.0,0.0,1.0,0.0,?,0.0,0.0
9200000.0,9.0,1.7638719226751057E-7,9200000.0,71.6,42.78046637949444,43.08617234468937,38.39479392624728,779186.0,3256.0,0.0,1.0,0.0,?,0.0,0.0
9300000.0,9.109375,1.7895822465005843E-7,9300000.0,67.7,34.98494388174103,36.16600790513835,27.088036117381492,789186.0,3256.0,0.0,1.0,0.0,?,0.0,0.0
9400000.0,9.203125,1.8092913604858844E-7,9400000.0,68.60000000000001,36.63222473361318,36.69354838709678,29.279279279279287,799186.0,3256.0,0.0,1.0,0.0,?,0.0,0.0
9500000.0,9.296875,1.8266721680346458E-7,9500000.0,69.1,37.57071278487149,37.701612903225794,33.54838709677418,809186.0,3256.0,0.0,1.0,0.0,?,0.0,0.0
9600000.0,9.390625,1.8417246691468686E-7,9600000.0,72.7,45.185125692715445,44.73684210526315,43.0062630480167,819186.0,3256.0,0.0,1.0,0.0,?,0.0,0.0
9700000.0,9.484375,1.8544488638225526E-7,9700000.0,70.39999999999999,40.280198850797326,42.85714285714285,31.48148148148148,829186.0,3256.0,0.0,1.0,0.0,?,0.0,0.0
9800000.0,9.578125,1.864844752061698E-7,9800000.0,71.8,43.098355098548794,44.48818897637795,38.96103896103895,839186.0,3256.0,0.0,1.0,0.0,?,0.0,0.0
9900000.0,9.671875,1.8729123338643046E-7,9900000.0,72.89999999999999,45.6081053958365,48.77126654064272,43.42379958246346,849186.0,3256.0,0.0,1.0,0.0,?,0.0,0.0
1.0E7,9.765625,1.8786516092303726E-7,1.0E7,69.6,38.68198541276705,37.70491803278687,32.74336283185839,859186.0,3256.0,0.0,1.0,0.0,?,0.0,0.0
