learning evaluation instances,evaluation time (cpu seconds),model cost (RAM-Hours),classified instances,classifications correct (percent),Kappa Statistic (percent),Kappa Temporal Statistic (percent),Kappa M Statistic (percent),model training instances,model serialized size (bytes),labeling cost,newThreshold,maxPosterior,accuracyBaseLearner (percent),Change detected,Warning detected
100000.0,0.109375,6.881439023547702E-10,100000.0,59.099999999999994,16.77586866458843,17.373737373737367,9.91189427312774,9900.0,5144.0,0.0,1.0,0.0,?,0.0,32.0
200000.0,0.21875,1.4020932010478441E-9,200000.0,58.099999999999994,15.490116982654293,14.837398373983731,12.526096033402911,19800.0,5144.0,0.0,1.0,0.0,?,0.0,7.0
300000.0,0.3125,2.0509145946966276E-9,300000.0,59.8,18.480905875863858,18.787878787878782,11.842105263157881,29700.0,5144.0,0.0,1.0,0.0,?,0.0,0.0
400000.0,0.421875,2.850881881184048E-9,400000.0,57.49999999999999,13.839940965154844,13.265306122448969,5.34521158129174,39600.0,5144.0,0.0,1.0,0.0,?,0.0,0.0
500000.0,0.53125,3.6938581615686413E-9,500000.0,53.900000000000006,2.7869156671221567,5.725971370143154,-1.0964912280701766,49500.0,5144.0,0.0,1.0,0.0,?,0.0,0.0
600000.0,0.640625,4.579843435850408E-9,600000.0,55.900000000000006,8.013850068833177,7.547169811320761,5.16129032258065,59400.0,5144.0,0.0,1.0,0.0,?,0.0,0.0
700000.0,0.734375,5.376124237146643E-9,700000.0,58.8,11.568246990744704,14.345114345114334,6.787330316742063,69300.0,5144.0,0.0,1.0,0.0,?,0.0,0.0
800000.0,0.84375,6.3481274992227556E-9,800000.0,53.6,1.343346416679788,4.52674897119342,-3.340757238307353,79200.0,5144.0,0.0,1.0,0.0,?,0.0,0.0
900000.0,0.953125,7.363139755196042E-9,900000.0,59.3,17.71860166099254,20.352250489236788,14.135021097046405,89100.0,5144.0,0.0,1.0,0.0,?,0.0,0.0
1000000.0,1.0625,8.421161005066501E-9,1000000.0,56.89999999999999,10.039657691504889,11.316872427983526,6.709956709956693,99000.0,5144.0,0.0,1.0,0.0,?,0.0,0.0
1100000.0,1.15625,8.992566209700372E-9,1100000.0,57.599999999999994,13.947069329436596,15.199999999999992,5.357142857142837,108910.0,5144.0,0.0,1.0,0.0,?,0.0,0.0
1200000.0,1.28125,9.803592951761352E-9,1200000.0,58.699999999999996,12.811072360476597,12.127659574468073,9.628008752735214,118810.0,5144.0,0.0,1.0,0.0,?,0.0,0.0
1300000.0,1.390625,1.0556250344961881E-8,1300000.0,55.00000000000001,9.497894317674458,7.024793388429759,6.444906444906451,128710.0,5144.0,0.0,1.0,0.0,?,0.0,0.0
1400000.0,1.46875,1.1124583478603097E-8,1400000.0,54.2,5.984169212073452,9.664694280078905,4.184100418410046,138610.0,5144.0,0.0,1.0,0.0,?,0.0,0.0
1500000.0,1.578125,1.1963258859597973E-8,1500000.0,54.900000000000006,6.335149863760215,10.33797216699802,3.6324786324786364,148510.0,5144.0,0.0,1.0,0.0,?,0.0,0.0
1600000.0,1.6875,1.2844943234490022E-8,1600000.0,55.7,4.455027002777923,11.40000000000001,-0.4535147392290254,158410.0,5144.0,0.0,1.0,0.0,?,0.0,0.0
1700000.0,1.78125,1.363753755059507E-8,1700000.0,53.7,4.530570837079253,5.702647657841146,2.3206751054852344,168310.0,5144.0,0.0,1.0,0.0,?,0.0,0.0
1800000.0,1.890625,1.4605239913281466E-8,1800000.0,54.1,4.035926941861241,9.108910891089117,1.923076923076925,178210.0,5144.0,0.0,1.0,0.0,?,0.0,0.0
1900000.0,2.0,1.5615951269865034E-8,1900000.0,54.400000000000006,4.871179722540938,9.34393638170975,1.9354838709677438,188110.0,5144.0,0.0,1.0,0.0,?,0.0,0.0
2000000.0,2.09375,1.651914014170567E-8,2000000.0,54.800000000000004,7.94109859671278,6.804123711340212,6.418219461697729,198010.0,5144.0,0.0,1.0,0.0,?,0.0,0.0
2100000.0,2.203125,1.7181478647722135E-8,2100000.0,54.400000000000006,3.612420469678084,8.982035928143722,-0.21978021978022,207920.0,5144.0,0.0,1.0,0.0,?,0.0,0.0
2200000.0,2.3125,1.7886826147635775E-8,2200000.0,54.1,3.4164078478903175,9.108910891089117,0.0,217820.0,5144.0,0.0,1.0,0.0,?,0.0,0.0
2300000.0,2.421875,1.863518264144659E-8,2300000.0,54.0,3.3564717548783958,2.3354564755838663,-0.436681222707424,227720.0,5144.0,0.0,1.0,0.0,?,0.0,0.0
2400000.0,2.515625,1.931349591662486E-8,2400000.0,56.89999999999999,11.982617077414444,11.680327868852448,2.4886877828054073,237620.0,5144.0,0.0,1.0,0.0,?,0.0,0.0
2500000.0,2.625,2.014787039823002E-8,2500000.0,56.3,6.513665691157075,12.774451097804379,2.4553571428571206,247520.0,5144.0,0.0,1.0,0.0,?,0.0,0.0
2600000.0,2.734375,2.102525387373235E-8,2600000.0,58.599999999999994,16.5053242981607,19.455252918287933,12.658227848101255,257420.0,5144.0,0.0,1.0,0.0,?,0.0,0.0
2700000.0,2.828125,2.1814161704646214E-8,2700000.0,57.49999999999999,13.901381629593596,15.841584158415834,9.766454352441599,267320.0,5144.0,0.0,1.0,0.0,?,0.0,0.0
2800000.0,2.9375,2.2777563167942894E-8,2800000.0,58.9,17.052142113293456,16.29327902240325,13.836477987421372,277220.0,5144.0,0.0,1.0,0.0,?,0.0,0.0
2900000.0,3.046875,2.3783973625136746E-8,2900000.0,55.7,8.393852669192228,8.471074380165296,6.144067796610175,287120.0,5144.0,0.0,1.0,0.0,?,0.0,0.0
3000000.0,3.15625,2.483339307622777E-8,3000000.0,56.99999999999999,10.33634297391411,11.522633744855955,5.494505494505476,297020.0,5144.0,0.0,1.0,0.0,?,0.0,0.0
3100000.0,3.25,2.539742531047927E-8,3100000.0,57.3,10.505445125376202,12.857142857142845,7.575757575757559,306930.0,5144.0,0.0,1.0,0.0,?,0.0,0.0
3200000.0,3.359375,2.6098471911003193E-8,3200000.0,55.900000000000006,10.504825839549973,15.355086372360857,6.765327695560259,316830.0,5144.0,0.0,1.0,0.0,?,0.0,0.0
3300000.0,3.46875,2.6842527505424287E-8,3300000.0,58.199999999999996,16.322347138144185,17.063492063492056,15.895372233400396,326730.0,5144.0,0.0,1.0,0.0,?,0.0,0.0
3400000.0,3.578125,2.7629592093742555E-8,3400000.0,58.599999999999994,15.51192832799329,15.510204081632645,9.010989010988995,336630.0,5144.0,0.0,1.0,0.0,?,0.0,0.0
3500000.0,3.671875,2.8341083735641506E-8,3500000.0,58.099999999999994,11.985884132252215,15.863453815261035,9.50323974082072,346530.0,5144.0,0.0,1.0,0.0,?,0.0,0.0
3600000.0,3.78125,2.9214166311754122E-8,3600000.0,57.199999999999996,12.75099378248904,17.054263565891468,5.934065934065916,356430.0,5144.0,0.0,1.0,0.0,?,0.0,0.0
3700000.0,3.890625,3.013025788176391E-8,3700000.0,56.89999999999999,12.134778318695908,16.310679611650478,5.066079295154165,366330.0,5144.0,0.0,1.0,0.0,?,0.0,0.0
3800000.0,4.0,3.108935844567087E-8,3800000.0,56.49999999999999,11.385803802058282,7.838983050847441,4.185022026431698,376230.0,5144.0,0.0,1.0,0.0,?,0.0,0.0
3900000.0,4.09375,3.194830949521727E-8,3900000.0,55.1,4.137665997694193,9.292929292929301,0.0,386130.0,5144.0,0.0,1.0,0.0,?,0.0,0.0
4000000.0,4.203125,3.299342804691858E-8,4000000.0,56.99999999999999,9.15237048930954,14.682539682539675,2.71493212669681,396030.0,5144.0,0.0,1.0,0.0,?,0.0,0.0
4100000.0,4.3125,3.364716475415561E-8,4100000.0,52.0,2.5879144072474562,7.156673114119928,1.6393442622950833,405940.0,5144.0,0.0,1.0,0.0,?,0.0,0.0
4200000.0,4.421875,3.4343910455289815E-8,4200000.0,58.4,15.515840779853763,15.618661257606483,9.956709956709943,415840.0,5144.0,0.0,1.0,0.0,?,0.0,0.0
4300000.0,4.53125,3.508366515032119E-8,4300000.0,60.699999999999996,20.00162846557831,21.868787276341944,14.935064935064926,425740.0,5144.0,0.0,1.0,0.0,?,0.0,0.0
4400000.0,4.609375,3.5642782070984445E-8,4400000.0,55.60000000000001,6.215543717497551,9.01639344262296,2.844638949671775,435640.0,5144.0,0.0,1.0,0.0,?,0.0,0.0
4500000.0,4.71875,3.6468554753810166E-8,4500000.0,56.89999999999999,5.713210651125759,14.484126984126974,-0.46620046620046657,445540.0,5144.0,0.0,1.0,0.0,?,0.0,0.0
4600000.0,4.828125,3.733733643053306E-8,4600000.0,56.599999999999994,12.426551301091232,15.891472868217047,8.82352941176469,455440.0,5144.0,0.0,1.0,0.0,?,0.0,0.0
4700000.0,4.921875,3.811887129106455E-8,4700000.0,57.9,12.983448253054878,13.729508196721302,10.615711252653915,465340.0,5144.0,0.0,1.0,0.0,?,0.0,0.0
4800000.0,5.03125,3.907367095558179E-8,4800000.0,56.49999999999999,12.322427721431213,12.474849094567393,8.805031446540866,475240.0,5144.0,0.0,1.0,0.0,?,0.0,0.0
4900000.0,5.140625,4.007147961399621E-8,4900000.0,53.6,4.005296259516725,7.38522954091817,0.8547008547008554,485140.0,5144.0,0.0,1.0,0.0,?,0.0,0.0
5000000.0,5.234375,4.101968241027659E-8,5000000.0,57.099999999999994,10.494471103692867,15.551181102362197,4.6666666666666465,495040.0,5144.0,0.0,1.0,0.0,?,0.0,0.0
5100000.0,5.34375,4.173453716147277E-8,5100000.0,47.699999999999996,-4.363720536704899,-8.057851239669429,-5.656565656565662,504950.0,5144.0,0.0,1.0,0.0,?,0.0,0.0
5200000.0,5.453125,4.249240090656611E-8,5200000.0,48.699999999999996,1.4091003436267413,-9.381663113006406,-6.875000000000006,514850.0,5144.0,0.0,1.0,0.0,?,0.0,0.0
5300000.0,5.546875,4.317886325427227E-8,5300000.0,48.699999999999996,-1.7849064689962786,-1.3833992094861671,-4.693877551020412,524750.0,5144.0,0.0,1.0,0.0,?,0.0,0.0
5400000.0,5.65625,4.402274498715996E-8,5400000.0,47.9,-1.6387046429964924,-4.200000000000004,-8.768267223382054,534650.0,5144.0,0.0,1.0,0.0,?,0.0,0.0
5500000.0,5.75,4.4804085822155066E-8,5500000.0,48.9,1.2713010549093917,-3.441295546558708,-8.723404255319158,544550.0,5144.0,0.0,1.0,0.0,?,0.0,2.0
5600000.0,5.859375,4.575865912354654E-8,5600000.0,48.0,-2.6673774408181843,-1.3645224171539971,-6.339468302658492,554450.0,5144.0,0.0,1.0,0.0,?,0.0,0.0
5700000.0,5.953125,4.661372966236538E-8,5700000.0,47.699999999999996,-2.0790556418684165,-5.020080321285144,-9.185803757828818,564350.0,5144.0,0.0,1.0,0.0,?,0.0,0.0
5800000.0,6.0625,4.7654320951551195E-8,5800000.0,51.1,1.1681959658838286,6.500956022944557,2.200000000000002,574250.0,5144.0,0.0,1.0,0.0,?,0.0,0.0
5900000.0,6.171875,4.873792123463418E-8,5900000.0,50.4,4.78567177931774,0.20120724346076477,-4.862579281183937,584150.0,5144.0,0.0,1.0,0.0,?,0.0,0.0
6000000.0,6.3125,5.018641887646582E-8,6000000.0,48.4,2.0036083942645426,-4.453441295546563,-13.40659340659342,594050.0,5144.0,0.0,1.0,0.0,?,0.0,0.0
6100000.0,6.4375,5.1026678799341115E-8,6100000.0,49.8,2.2159197157638837,-7.956989247311835,-5.020920502092055,603960.0,5144.0,0.0,1.0,0.0,?,0.0,0.0
6200000.0,6.5625,5.1916091858098896E-8,6200000.0,47.199999999999996,-1.9915393382139972,-5.600000000000005,-12.101910828025488,613860.0,5144.0,0.0,1.0,0.0,?,0.0,0.0
6300000.0,6.671875,5.273733727840913E-8,6300000.0,47.599999999999994,-1.569284207914649,-0.3831417624521076,-11.016949152542384,623760.0,5144.0,0.0,1.0,0.0,?,0.0,0.0
6400000.0,6.78125,5.3601591692616536E-8,6400000.0,51.1,0.9271115289236154,2.200000000000002,3.7401574803149638,633660.0,5144.0,0.0,1.0,0.0,?,0.0,0.0
6500000.0,6.875,5.437924604242046E-8,6500000.0,48.4,0.3703288937631006,1.3384321223709381,-10.02132196162048,643560.0,5144.0,0.0,1.0,0.0,?,0.0,0.0
6600000.0,6.984375,5.532951844442221E-8,6600000.0,48.3,-1.0349733439644841,-2.7833001988071597,-7.708333333333341,653460.0,5144.0,0.0,1.0,0.0,?,0.0,0.0
6700000.0,7.09375,5.632279984032114E-8,6700000.0,49.6,-0.4156090485620997,-4.132231404958682,-1.6129032258064528,663360.0,5144.0,0.0,1.0,0.0,?,0.0,0.0
6800000.0,7.203125,5.735909023011723E-8,6800000.0,51.6,1.8574093600454329,5.2837573385518635,2.0242914979757103,673260.0,5144.0,0.0,1.0,0.0,?,0.0,0.0
6900000.0,7.3125,5.8438389613810504E-8,6900000.0,49.3,0.0457384392151825,1.7441860465116292,-8.333333333333341,683160.0,5144.0,0.0,1.0,0.0,?,0.0,0.0
7000000.0,7.421875,5.956069799140095E-8,7000000.0,49.7,-0.8938027536185402,-1.6161616161616175,-0.8016032064128262,693060.0,5144.0,0.0,1.0,0.0,?,0.0,0.0
7100000.0,7.53125,6.029162452452712E-8,7100000.0,51.0,2.6816179478929603,-2.7253668763102747,-1.449275362318842,702970.0,5144.0,0.0,1.0,0.0,?,0.0,0.0
7200000.0,7.640625,6.106556005155046E-8,7200000.0,47.699999999999996,-3.6062092409607045,-3.5643564356435675,-9.414225941422604,712870.0,5144.0,0.0,1.0,0.0,?,0.0,0.0
7300000.0,7.75,6.188250457247098E-8,7300000.0,50.8,2.4923896499239024,3.7181996086105706,-3.797468354430383,722770.0,5144.0,0.0,1.0,0.0,?,0.0,0.0
7400000.0,7.84375,6.261960758517186E-8,7400000.0,49.9,1.045246616576988,-0.8048289738430591,-5.031446540880507,732670.0,5144.0,0.0,1.0,0.0,?,0.0,0.0
7500000.0,7.953125,6.352257009388671E-8,7500000.0,51.1,3.499285618433407,-2.0876826722338224,-4.935622317596571,742570.0,5144.0,0.0,1.0,0.0,?,0.0,0.0
7600000.0,8.078125,6.460368038258618E-8,7600000.0,49.1,-0.2363135092556192,0.9727626459143978,-10.412147505423004,752470.0,5144.0,0.0,1.0,0.0,?,0.0,0.0
7700000.0,8.171875,6.545137795102264E-8,7700000.0,49.2,-0.6084035743709921,-6.054279749478085,-6.276150627615068,762370.0,5144.0,0.0,1.0,0.0,?,0.0,0.0
7800000.0,8.28125,6.648336744142902E-8,7800000.0,48.6,-2.6903267310512327,-0.5870841487279849,-2.8000000000000025,772270.0,5144.0,0.0,1.0,0.0,?,0.0,0.0
7900000.0,8.390625,6.755836592573257E-8,7900000.0,49.5,-0.006337035218068568,-3.9094650205761354,-6.765327695560259,782170.0,5144.0,0.0,1.0,0.0,?,0.0,0.0
8000000.0,8.484375,6.851665804990462E-8,8000000.0,50.2,0.9325864154306499,1.581027667984191,-2.8925619834710767,792070.0,5144.0,0.0,1.0,0.0,?,0.0,0.0
8100000.0,8.578125,6.913948002167873E-8,8100000.0,48.6,-2.3003650172557144,-3.0060120240480988,-5.112474437627816,801980.0,5144.0,0.0,1.0,0.0,?,0.0,0.0
8200000.0,8.6875,6.990911464931235E-8,8200000.0,49.1,-0.2860813164469301,-4.089979550102253,-4.517453798767971,811880.0,5144.0,0.0,1.0,0.0,?,0.0,0.0
8300000.0,8.796875,7.072175827084315E-8,8300000.0,51.5,3.5562873346537196,5.273437500000004,0.20576131687242818,821780.0,5144.0,0.0,1.0,0.0,?,0.0,0.0
8400000.0,8.90625,7.157741088627112E-8,8400000.0,50.4,0.8963287684370772,2.5540275049115935,0.40160642570281163,831680.0,5144.0,0.0,1.0,0.0,?,0.0,0.0
8500000.0,9.015625,7.247607249559627E-8,8500000.0,48.1,-3.5911602209944764,-4.216867469879522,-6.13496932515338,841580.0,5144.0,0.0,1.0,0.0,?,0.0,0.0
8600000.0,9.125,7.341774309881858E-8,8600000.0,48.699999999999996,-1.376988016568117,-12.74725274725276,-10.560344827586217,851480.0,5144.0,0.0,1.0,0.0,?,0.0,0.0
8700000.0,9.234375,7.440242269593807E-8,8700000.0,51.0,2.486785964465401,1.2096774193548396,-0.40983606557377084,861380.0,5144.0,0.0,1.0,0.0,?,0.0,0.0
8800000.0,9.34375,7.543011128695474E-8,8800000.0,49.9,0.22702831879556096,-0.20000000000000018,-2.2448979591836755,871280.0,5144.0,0.0,1.0,0.0,?,0.0,0.0
8900000.0,9.453125,7.650080887186857E-8,8900000.0,48.199999999999996,-2.8933286190443965,-2.3715415019762864,-9.978768577494701,881180.0,5144.0,0.0,1.0,0.0,?,0.0,0.0
9000000.0,9.5625,7.761451545067959E-8,9000000.0,51.5,4.666430789794391,4.150197628458502,-7.064017660044157,891080.0,5144.0,0.0,1.0,0.0,?,0.0,0.0
9100000.0,9.671875,7.833684018502632E-8,9100000.0,49.3,-0.5712925493930004,-2.8397565922920918,-5.625000000000005,900990.0,5144.0,0.0,1.0,0.0,?,0.0,0.0
9200000.0,9.78125,7.910217391327023E-8,9200000.0,50.7,1.9334818586887454,2.3762376237623783,0.8048289738430591,910890.0,5144.0,0.0,1.0,0.0,?,0.0,0.0
9300000.0,9.890625,7.99105166354113E-8,9300000.0,49.2,0.5761883885513769,-1.6000000000000014,-12.389380530973463,920790.0,5144.0,0.0,1.0,0.0,?,0.0,0.0
9400000.0,10.0,8.076186835144956E-8,9400000.0,51.4,3.7806674374772324,0.613496932515338,-2.5316455696202556,930690.0,5144.0,0.0,1.0,0.0,?,0.0,0.0
9500000.0,10.109375,8.165622906138499E-8,9500000.0,51.5,3.716350353370934,3.0000000000000027,-1.0416666666666676,940590.0,5144.0,0.0,1.0,0.0,?,0.0,0.0
9600000.0,10.21875,8.259359876521759E-8,9600000.0,49.8,-1.0528010950741704,0.39682539682539714,3.0888030888030915,950490.0,5144.0,0.0,1.0,0.0,?,0.0,0.0
9700000.0,10.328125,8.357397746294737E-8,9700000.0,51.300000000000004,2.922297970737154,5.80270793036751,0.6122448979591842,960390.0,5144.0,0.0,1.0,0.0,?,0.0,0.0
9800000.0,10.4375,8.459736515457431E-8,9800000.0,50.0,0.8624962823436145,-4.384133611691027,-7.991360691144717,970290.0,5144.0,0.0,1.0,0.0,?,0.0,0.0
9900000.0,10.53125,8.548891249423225E-8,9900000.0,51.9,3.739163151111509,3.9920159680638756,4.183266932270921,980190.0,5144.0,0.0,1.0,0.0,?,0.0,2.0
1.0E7,10.640625,8.65720600510637E-8,1.0E7,51.6,3.5506896922788744,0.20618556701030946,1.4256619144602865,990090.0,5144.0,0.0,1.0,0.0,?,0.0,0.0
