learning evaluation instances,evaluation time (cpu seconds),model cost (RAM-Hours),classified instances,classifications correct (percent),Kappa Statistic (percent),Kappa Temporal Statistic (percent),Kappa M Statistic (percent),model training instances,model serialized size (bytes),labeling cost,newThreshold,maxPosterior,accuracyBaseLearner (percent),Change detected,Warning detected
100000.0,0.140625,5.986075848340988E-9,100000.0,57.599999999999994,15.575183882824708,14.343434343434334,13.292433537832299,19800.0,5144.0,0.0,1.0,0.0,?,0.0,15.0
200000.0,0.28125,1.1419178918004036E-8,200000.0,55.400000000000006,11.549003042238336,3.87931034482759,5.307855626326969,39800.0,5144.0,0.0,1.0,0.0,?,0.0,0.0
300000.0,0.421875,1.6299309208989142E-8,300000.0,62.1,25.32372853303489,19.87315010570824,17.96536796536796,59800.0,5144.0,0.0,1.0,0.0,?,0.0,0.0
400000.0,0.546875,2.0145671442151068E-8,400000.0,64.5,29.130400063882465,27.698574338085542,28.137651821862352,79800.0,5144.0,0.0,1.0,0.0,?,0.0,0.0
500000.0,0.671875,2.3500502316488156E-8,500000.0,57.699999999999996,16.204437400950866,17.382812499999993,10.947368421052618,99800.0,5144.0,0.0,1.0,0.0,?,0.0,0.0
600000.0,0.8125,2.6721714271439445E-8,600000.0,63.9,28.090514322138567,32.14285714285714,24.31865828092243,119800.0,5144.0,0.0,1.0,0.0,?,0.0,0.0
700000.0,0.9375,2.9093482428126863E-8,700000.0,60.699999999999996,22.674327089563974,18.6335403726708,14.565217391304339,139800.0,5144.0,0.0,1.0,0.0,?,0.0,0.0
800000.0,1.046875,3.073868962625662E-8,800000.0,60.5,22.767089003597675,20.2020202020202,11.235955056179762,159800.0,5144.0,0.0,1.0,0.0,?,0.0,0.0
900000.0,1.15625,3.195380688541465E-8,900000.0,55.400000000000006,11.078856705371965,16.791044776119406,3.4632034632034667,179800.0,5144.0,0.0,1.0,0.0,?,0.0,0.0
1000000.0,1.265625,3.273883420560095E-8,1000000.0,61.199999999999996,22.62284620293554,22.709163346613543,21.138211382113816,199800.0,5144.0,0.0,1.0,0.0,?,0.0,0.0
1100000.0,1.375,3.7398971875922545E-8,1100000.0,56.699999999999996,14.100936359308038,13.572854291417155,9.033613445378135,219600.0,5144.0,0.0,1.0,0.0,?,0.0,0.0
1200000.0,1.484375,4.162901960727241E-8,1200000.0,54.50000000000001,10.044918229842157,10.95890410958905,2.5695931477516085,239600.0,5144.0,0.0,1.0,0.0,?,0.0,0.0
1300000.0,1.59375,4.5428977399650545E-8,1300000.0,60.6,22.79596187609731,17.226890756302513,19.918699186991866,259600.0,5144.0,0.0,1.0,0.0,?,0.0,0.0
1400000.0,1.703125,4.879884525305695E-8,1400000.0,62.4,24.635705838728423,23.57723577235772,25.691699604743086,279600.0,5144.0,0.0,1.0,0.0,?,0.0,0.0
1500000.0,1.8125,5.173862316749162E-8,1500000.0,59.5,18.822708796010485,15.975103734439825,18.674698795180717,299600.0,5144.0,0.0,1.0,0.0,?,0.0,0.0
1600000.0,1.90625,5.3889784289317E-8,1600000.0,53.900000000000006,8.570204596479265,10.311284046692617,2.5369978858350977,319600.0,5144.0,0.0,1.0,0.0,?,0.0,0.0
1700000.0,2.015625,5.5969382325808205E-8,1700000.0,55.50000000000001,11.751174006853677,11.881188118811892,8.057851239669429,339600.0,5144.0,0.0,1.0,0.0,?,0.0,0.0
1800000.0,2.140625,5.7854534437259035E-8,1800000.0,61.8,24.472792410899636,24.65483234714004,19.238900634249468,359600.0,5144.0,0.0,1.0,0.0,?,0.0,0.0
1900000.0,2.28125,5.942235778396328E-8,1900000.0,62.3,25.013326544088976,25.494071146245062,22.587268993839835,379600.0,5144.0,0.0,1.0,0.0,?,0.0,0.0
2000000.0,2.40625,6.032444717776445E-8,2000000.0,57.3,14.326530284668646,15.612648221343866,9.72515856236785,399600.0,5144.0,0.0,1.0,0.0,?,0.0,0.0
2100000.0,2.53125,6.565523411457738E-8,2100000.0,62.4,25.041366798907518,26.129666011787823,23.732251521298174,419400.0,5144.0,0.0,1.0,0.0,?,0.0,0.0
2200000.0,2.65625,7.049448969256547E-8,2200000.0,60.5,21.14509302882696,21.471172962226635,19.05737704918032,439400.0,5144.0,0.0,1.0,0.0,?,0.0,0.0
2300000.0,2.78125,7.484221391172874E-8,2300000.0,60.4,22.940407248271992,19.838056680161937,10.810810810810796,459400.0,5144.0,0.0,1.0,0.0,?,0.0,0.0
2400000.0,2.921875,7.918043087960946E-8,2400000.0,53.900000000000006,8.0618398800217,6.1099796334012275,6.300813008130087,479400.0,5144.0,0.0,1.0,0.0,?,0.0,0.0
2500000.0,3.046875,8.254509238112305E-8,2500000.0,55.800000000000004,11.764118739145198,12.12723658051691,11.244979919678725,499400.0,5144.0,0.0,1.0,0.0,?,0.0,0.0
2600000.0,3.15625,8.505908125597571E-8,2600000.0,59.199999999999996,19.157654462378588,15.876288659793806,10.329670329670314,519400.0,5144.0,0.0,1.0,0.0,?,0.0,0.0
2700000.0,3.28125,8.744068003983962E-8,2700000.0,59.4,19.241908277903303,15.592515592515586,16.803278688524586,539400.0,5144.0,0.0,1.0,0.0,?,0.0,0.0
2800000.0,3.390625,8.909448903674882E-8,2800000.0,55.7,12.496247017366452,13.645224171539974,5.944798301486205,559400.0,5144.0,0.0,1.0,0.0,?,0.0,0.0
2900000.0,3.5,9.031820809468628E-8,2900000.0,54.50000000000001,8.901613742842281,10.784313725490206,7.520325203252039,579400.0,5144.0,0.0,1.0,0.0,?,0.0,0.0
3000000.0,3.640625,9.133858839049936E-8,3000000.0,60.6,22.59575337513948,22.134387351778653,13.215859030836993,599400.0,5144.0,0.0,1.0,0.0,?,0.0,0.0
3100000.0,3.765625,9.667429064090055E-8,3100000.0,56.00000000000001,13.428430890309894,11.646586345381536,5.781584582441119,619200.0,5144.0,0.0,1.0,0.0,?,0.0,0.0
3200000.0,3.875,1.0091294017102984E-7,3200000.0,55.7,12.327921281160204,8.659793814432998,1.7738359201773852,639200.0,5144.0,0.0,1.0,0.0,?,0.0,0.0
3300000.0,4.03125,1.0635373958696922E-7,3300000.0,60.699999999999996,20.888624065962375,20.606060606060602,19.46721311475409,659200.0,5144.0,0.0,1.0,0.0,?,0.0,0.0
3400000.0,4.171875,1.1069748628263673E-7,3400000.0,57.199999999999996,14.711473698054695,15.913555992141445,12.474437627811849,679200.0,5144.0,0.0,1.0,0.0,?,0.0,0.0
3500000.0,4.3125,1.1448826019962629E-7,3500000.0,61.5,23.40442463791182,18.60465116279069,21.267893660531694,699200.0,5144.0,0.0,1.0,0.0,?,0.0,0.0
3600000.0,4.453125,1.1772606133793792E-7,3600000.0,59.8,20.131604043486547,24.007561436672965,16.770186335403718,719200.0,5144.0,0.0,1.0,0.0,?,0.0,0.0
3700000.0,4.59375,1.204108896975716E-7,3700000.0,57.99999999999999,17.060301110602047,13.402061855670091,9.871244635193118,739200.0,5144.0,0.0,1.0,0.0,?,0.0,0.0
3800000.0,4.71875,1.2230587243619893E-7,3800000.0,54.1,9.16503071369768,6.13496932515338,1.923076923076925,759200.0,5144.0,0.0,1.0,0.0,?,0.0,0.0
3900000.0,4.859375,1.2388475523847674E-7,3900000.0,56.89999999999999,13.487169605292722,15.490196078431365,15.984405458089663,779200.0,5144.0,0.0,1.0,0.0,?,0.0,0.0
4000000.0,5.0,1.249106652620766E-7,4000000.0,62.0,24.41270662184473,23.076923076923077,22.448979591836732,799200.0,5144.0,0.0,1.0,0.0,?,0.0,0.0
4100000.0,5.140625,1.309188600215647E-7,4100000.0,54.800000000000004,10.81399983425612,6.224066390041499,-0.6681514476614705,819000.0,5144.0,0.0,1.0,0.0,?,0.0,0.0
4200000.0,5.28125,1.3637408200237485E-7,4200000.0,59.699999999999996,20.104359962569973,14.799154334038045,16.21621621621621,839000.0,5144.0,0.0,1.0,0.0,?,0.0,0.0
4300000.0,5.4375,1.4182102556029953E-7,4300000.0,58.599999999999994,17.589964288984515,11.727078891257984,14.989733059548247,859000.0,5144.0,0.0,1.0,0.0,?,0.0,0.0
4400000.0,5.578125,1.461703019837538E-7,4400000.0,59.4,19.27659100669646,17.647058823529406,15.767634854771776,879000.0,5144.0,0.0,1.0,0.0,?,0.0,0.0
4500000.0,5.703125,1.495447941124439E-7,4500000.0,62.8,24.978522076884918,27.34375,28.32369942196532,899000.0,5144.0,0.0,1.0,0.0,?,0.0,0.0
4600000.0,5.84375,1.5278812497854228E-7,4600000.0,56.99999999999999,15.093259194610198,14.682539682539675,8.704883227176206,919000.0,5144.0,0.0,1.0,0.0,?,0.0,0.0
4700000.0,5.984375,1.5547848306596273E-7,4700000.0,56.89999999999999,14.65008515188719,11.134020618556688,7.708779443254802,939000.0,5144.0,0.0,1.0,0.0,?,0.0,0.0
4800000.0,6.09375,1.5714089386165136E-7,4800000.0,59.5,20.333928697882644,19.32270916334661,10.792951541850208,959000.0,5144.0,0.0,1.0,0.0,?,0.0,0.0
4900000.0,6.21875,1.585492605550421E-7,4900000.0,60.9,22.653900933692032,23.483365949119374,18.029350104821795,979000.0,5144.0,0.0,1.0,0.0,?,0.0,0.0
5000000.0,6.34375,1.5954086039629242E-7,5000000.0,54.800000000000004,9.15522397658939,9.780439121756496,6.418219461697729,999000.0,5144.0,0.0,1.0,0.0,?,0.0,0.0
5100000.0,6.46875,1.649611577805545E-7,5100000.0,52.7,1.4205445420744711,-0.8528784648187642,-14.527845036319597,1018800.0,5144.0,0.0,1.0,0.0,?,0.0,0.0
5200000.0,6.59375,1.6988992380599175E-7,5200000.0,53.2,2.7362698112501738,-0.6451612903225813,-26.145552560646895,1038800.0,5144.0,0.0,1.0,0.0,?,0.0,0.0
5300000.0,6.703125,1.737725041392776E-7,5300000.0,56.2,7.860469617095041,0.45454545454545503,-13.178294573643393,1058800.0,5144.0,0.0,1.0,0.0,?,0.0,0.0
5400000.0,6.84375,1.7821142036053864E-7,5400000.0,53.800000000000004,2.7335657622151475,4.742268041237118,-20.94240837696334,1078800.0,5144.0,0.0,1.0,0.0,?,0.0,0.0
5500000.0,6.953125,1.8123382081588104E-7,5500000.0,54.50000000000001,4.728003685246461,5.0104384133611735,-19.109947643979044,1098800.0,5144.0,0.0,1.0,0.0,?,0.0,0.0
5600000.0,7.078125,1.8419646140601894E-7,5600000.0,52.300000000000004,-0.5777421667439726,1.2422360248447217,-28.918918918918912,1118800.0,5144.0,0.0,1.0,0.0,?,0.0,0.0
5700000.0,7.203125,1.86667570637332E-7,5700000.0,53.0,2.859245112993302,-0.8583690987124473,-29.476584022038566,1138800.0,5144.0,0.0,1.0,0.0,?,0.0,0.0
5800000.0,7.328125,1.8864714850982025E-7,5800000.0,52.1,0.10594192380524703,-3.4557235421166337,-22.506393861892573,1158800.0,5144.0,0.0,1.0,0.0,?,0.0,0.0
5900000.0,7.453125,1.9013519502348364E-7,5900000.0,52.900000000000006,0.2887603627710901,1.2578616352201268,-31.197771587743734,1178800.0,5144.0,0.0,1.0,0.0,?,0.0,0.0
6000000.0,7.5625,1.9100714578396738E-7,6000000.0,55.60000000000001,5.724477662646529,5.531914893617026,-13.84615384615383,1198800.0,5144.0,0.0,1.0,0.0,?,0.0,0.0
6100000.0,7.671875,1.9575420689458644E-7,6100000.0,54.6,5.237011834937079,1.9438444924406064,-20.424403183023863,1218600.0,5144.0,0.0,1.0,0.0,?,0.0,0.0
6200000.0,7.8125,2.0130459840099012E-7,6200000.0,52.2,0.4763808381637824,-1.7021276595744699,-23.195876288659786,1238600.0,5144.0,0.0,1.0,0.0,?,0.0,0.0
6300000.0,7.9375,2.0574674838119077E-7,6300000.0,53.900000000000006,3.67256193373676,0.8602150537634418,-16.120906801007543,1258600.0,5144.0,0.0,1.0,0.0,?,0.0,0.0
6400000.0,8.046875,2.0920353967489462E-7,6400000.0,54.800000000000004,6.9744467860906285,6.804123711340212,-5.607476635513997,1278600.0,5144.0,0.0,1.0,0.0,?,0.0,0.0
6500000.0,8.1875,2.1309501284526448E-7,6500000.0,52.6,0.9346419435202126,0.8368200836820092,-30.939226519337016,1298600.0,5144.0,0.0,1.0,0.0,?,0.0,0.0
6600000.0,8.3125,2.1606256874899065E-7,6600000.0,54.7,6.452119179587161,6.597938144329903,-13.533834586466147,1318600.0,5144.0,0.0,1.0,0.0,?,0.0,0.0
6700000.0,8.421875,2.182290902257793E-7,6700000.0,55.800000000000004,4.86890418447685,2.428256070640179,-20.435967302452305,1338600.0,5144.0,0.0,1.0,0.0,?,0.0,0.0
6800000.0,8.5625,2.2046164506011535E-7,6800000.0,53.7,1.5773138897155696,2.1141649048625815,-30.422535211267604,1358600.0,5144.0,0.0,1.0,0.0,?,0.0,0.0
6900000.0,8.671875,2.2176798665896054E-7,6900000.0,50.6,-2.0159508340939656,-3.131524008350733,-26.992287917737784,1378600.0,5144.0,0.0,1.0,0.0,?,0.0,0.0
7000000.0,8.796875,2.2276941712738735E-7,7000000.0,53.2,1.6430652056038215,-4.932735426008974,-19.083969465648842,1398600.0,5144.0,0.0,1.0,0.0,?,0.0,0.0
7100000.0,8.921875,2.2819954513882593E-7,7100000.0,53.5,1.1647678966162303,0.428265524625268,-22.368421052631568,1418400.0,5144.0,0.0,1.0,0.0,?,0.0,0.0
7200000.0,9.046875,2.3313814179143968E-7,7200000.0,55.900000000000006,6.844106463878346,6.369426751592362,-22.49999999999999,1438400.0,5144.0,0.0,1.0,0.0,?,0.0,0.0
7300000.0,9.15625,2.3702932392350497E-7,7300000.0,56.599999999999994,9.360132660008587,8.631578947368405,-13.910761154855656,1458400.0,5144.0,0.0,1.0,0.0,?,0.0,0.0
7400000.0,9.28125,2.40984857858469E-7,7400000.0,52.6,0.9462351210378676,-0.2114164904862581,-25.39682539682539,1478400.0,5144.0,0.0,1.0,0.0,?,0.0,0.0
7500000.0,9.421875,2.4488186075662566E-7,7500000.0,56.2,4.276522833764606,4.157549234135671,-20.329670329670318,1498400.0,5144.0,0.0,1.0,0.0,?,0.0,0.0
7600000.0,9.546875,2.4785433197394006E-7,7600000.0,52.300000000000004,0.16659829718122773,-5.530973451327439,-26.190476190476186,1518400.0,5144.0,0.0,1.0,0.0,?,0.0,0.0
7700000.0,9.671875,2.503352718324296E-7,7700000.0,54.2,3.2853420277980883,2.7600849256900237,-19.582245430809387,1538400.0,5144.0,0.0,1.0,0.0,?,0.0,0.0
7800000.0,9.765625,2.518139404451681E-7,7800000.0,59.8,4.8799878852123815,14.830508474576263,-6.914893617021282,1688.0,5144.0,0.0,1.0,0.0,?,5.0,30.0
7900000.0,9.875,2.5302385135243333E-7,7900000.0,57.8,11.578223937576725,15.090543259557334,-1.199040767386092,530.0,4720.0,0.0,1.0,0.0,?,10.0,75.0
8000000.0,10.0,2.540301971344484E-7,8000000.0,61.4,12.594934129187394,17.521367521367516,3.258145363408524,10045.0,5144.0,0.0,1.0,0.0,?,8.0,64.0
8100000.0,10.109375,2.587858600438469E-7,8100000.0,60.099999999999994,3.9507765784329734,15.286624203821647,-8.71934604904633,29845.0,5144.0,0.0,1.0,0.0,?,0.0,0.0
8200000.0,10.234375,2.636998801285194E-7,8200000.0,62.6,14.547880604653704,21.26315789473684,5.076142131979699,49845.0,5144.0,0.0,1.0,0.0,?,0.0,15.0
8300000.0,10.375,2.6867517994509806E-7,8300000.0,57.099999999999994,-0.2692545015987084,8.137044967880069,-11.718750000000009,69845.0,5144.0,0.0,1.0,0.0,?,0.0,0.0
8400000.0,10.484375,2.72114767641243E-7,8400000.0,62.8,13.600891861761417,22.0125786163522,4.123711340206189,89845.0,5144.0,0.0,1.0,0.0,?,0.0,0.0
8500000.0,10.609375,2.75554193649441E-7,8500000.0,57.199999999999996,1.3824884792626486,8.351177730192703,-9.743589743589752,109845.0,5144.0,0.0,1.0,0.0,?,0.0,0.0
8600000.0,10.734375,2.7850208829881413E-7,8600000.0,59.5,5.320740602206845,11.764705882352928,-9.16442048517521,129845.0,5144.0,0.0,1.0,0.0,?,0.0,0.0
8700000.0,10.859375,2.8095845158936244E-7,8700000.0,55.1,-3.1197751116173795,6.066945606694566,-14.540816326530596,149845.0,5144.0,0.0,1.0,0.0,?,0.0,0.0
8800000.0,10.96875,2.826776795296205E-7,8800000.0,56.99999999999999,3.487035839977015,13.480885311871216,-5.392156862745103,169845.0,5144.0,0.0,1.0,0.0,?,0.0,0.0
8900000.0,11.078125,2.839668175309068E-7,8900000.0,62.3,11.676506419267172,16.035634743875267,-0.2659574468085109,189845.0,5144.0,0.0,1.0,0.0,?,0.0,0.0
9000000.0,11.203125,2.8494858674498064E-7,9000000.0,57.3,2.336602503110591,9.915611814345977,-9.2071611253197,209845.0,5144.0,0.0,1.0,0.0,?,0.0,0.0
9100000.0,11.3125,2.8968274515743054E-7,9100000.0,57.099999999999994,-0.031711684823166546,10.062893081760993,-12.010443864229774,229645.0,5144.0,0.0,1.0,0.0,?,0.0,0.0
9200000.0,11.4375,2.9460168055569126E-7,9200000.0,57.8,2.997425524089725,13.524590163934416,-8.762886597938152,249645.0,5144.0,0.0,1.0,0.0,?,0.0,0.0
9300000.0,11.5625,2.9902908459512716E-7,9300000.0,61.7,16.170548065137464,20.041753653444673,9.45626477541372,269645.0,5144.0,0.0,1.0,0.0,?,0.0,0.0
9400000.0,11.6875,3.029649572757382E-7,9400000.0,57.699999999999996,0.5145958964034657,9.999999999999986,-10.732984293193727,289645.0,5144.0,0.0,1.0,0.0,?,0.0,0.0
9500000.0,11.8125,3.0640929859752446E-7,9500000.0,58.699999999999996,0.9041001228501213,9.03083700440527,-16.011235955056193,309645.0,5144.0,0.0,1.0,0.0,?,0.0,0.0
9600000.0,11.953125,3.0973120980585603E-7,9600000.0,62.3,11.007667031763418,19.27194860813704,-1.617250673854449,329645.0,5144.0,0.0,1.0,0.0,?,0.0,0.0
9700000.0,12.09375,3.1250014823550966E-7,9700000.0,61.4,10.073618488491274,15.350877192982445,-2.1164021164021185,349645.0,5144.0,0.0,1.0,0.0,?,0.0,0.0
9800000.0,12.21875,3.144698954808214E-7,9800000.0,63.7,14.606720427578038,24.688796680497923,3.9682539682539715,369645.0,5144.0,0.0,1.0,0.0,?,0.0,0.0
9900000.0,12.34375,3.159481113673083E-7,9900000.0,62.8,10.233826403802986,22.66112266112266,-1.917808219178084,389645.0,5144.0,0.0,1.0,0.0,?,0.0,0.0
1.0E7,12.4375,3.1668812476305485E-7,1.0E7,58.8,2.0074207972600138,11.587982832618012,-11.351351351351362,409645.0,5144.0,0.0,1.0,0.0,?,0.0,0.0
