learning evaluation instances,evaluation time (cpu seconds),model cost (RAM-Hours),classified instances,classifications correct (percent),Kappa Statistic (percent),Kappa Temporal Statistic (percent),Kappa M Statistic (percent),model training instances,model serialized size (bytes),labeling cost,newThreshold,maxPosterior,accuracyBaseLearner (percent),Change detected,Warning detected
100000.0,0.25,8.997610873646207E-10,100000.0,67.30000000000001,34.21317345994447,30.12820512820513,27.494456762749447,9987.0,2904.0,9987.0,1.0,0.0,0.0,0.0,16.0
200000.0,0.5,1.7995221747292413E-9,200000.0,66.5,32.27288165747465,31.77189409368636,23.69020501138952,19915.0,2904.0,19915.0,1.0,0.0,0.0,0.0,0.0
300000.0,0.734375,2.643048194133573E-9,300000.0,68.60000000000001,36.54899266474024,34.171907756813425,30.989010989010996,29890.0,2904.0,29890.0,1.0,0.0,0.0,0.0,0.0
400000.0,0.984375,3.542809281498194E-9,400000.0,68.4,36.275162236177174,34.02922755741128,26.34032634032636,39895.0,2904.0,39895.0,1.0,0.0,0.0,0.0,0.0
500000.0,1.21875,4.386335300902526E-9,500000.0,66.10000000000001,31.59585458771874,27.71855010660981,27.564102564102566,49881.0,2904.0,49881.0,1.0,0.0,0.0,0.0,0.0
600000.0,1.46875,5.286096388267146E-9,600000.0,68.60000000000001,36.28246753246754,36.565656565656575,30.22222222222223,59758.0,2904.0,59758.0,1.0,0.0,0.0,0.0,0.0
700000.0,1.703125,6.129622407671478E-9,700000.0,65.9,30.92131917996921,29.83539094650206,22.499999999999996,69609.0,2904.0,69609.0,1.0,0.0,0.0,0.0,0.0
800000.0,1.9375,6.97314842707581E-9,800000.0,66.7,32.509120389136605,29.449152542372886,24.318181818181817,79615.0,2904.0,79615.0,1.0,0.0,0.0,0.0,0.0
900000.0,2.203125,7.929144582400719E-9,900000.0,64.0,27.393591274323136,27.125506072874494,18.552036199095014,89617.0,2904.0,89617.0,1.0,0.0,0.0,0.0,0.0
1000000.0,2.4375,8.772670601805051E-9,1000000.0,67.60000000000001,34.844773706246464,34.939759036144586,28.47682119205298,99704.0,2904.0,99704.0,1.0,0.0,0.0,0.0,0.0
1100000.0,2.6875,9.672431689169672E-9,1100000.0,65.5,30.317107655019175,30.722891566265066,23.50332594235033,109593.0,2904.0,109593.0,1.0,0.0,0.0,0.0,0.0
1200000.0,2.921875,1.0515957708574004E-8,1200000.0,66.10000000000001,31.502420651919156,29.95867768595042,26.623376623376625,119597.0,2904.0,119597.0,1.0,0.0,0.0,0.0,0.0
1300000.0,3.171875,1.1415718795938625E-8,1300000.0,66.9,33.3440734624834,35.603112840466935,28.35497835497836,129466.0,2904.0,129466.0,1.0,0.0,0.0,0.0,0.0
1400000.0,3.421875,1.2315479883303246E-8,1400000.0,70.6,40.19528071602929,40.8450704225352,33.181818181818166,139708.0,2904.0,139708.0,1.0,0.0,0.0,0.0,0.0
1500000.0,3.65625,1.3159005902707578E-8,1500000.0,68.10000000000001,35.34552647793235,35.03054989816701,28.153153153153156,149600.0,2904.0,149600.0,1.0,0.0,0.0,0.0,0.0
1600000.0,3.890625,1.400253192211191E-8,1600000.0,66.8,32.14269655113212,25.225225225225223,18.826405867970674,159502.0,2904.0,159502.0,1.0,0.0,0.0,0.0,0.0
1700000.0,4.140625,1.4902293009476533E-8,1700000.0,68.4,35.76400182137515,31.4533622559653,28.828828828828833,169516.0,2904.0,169516.0,1.0,0.0,0.0,0.0,0.0
1800000.0,4.375,1.5745819028880865E-8,1800000.0,68.10000000000001,35.227900328124505,34.63114754098361,26.32794457274829,179689.0,2904.0,179689.0,1.0,0.0,0.0,0.0,0.0
1900000.0,4.625,1.6645580116245486E-8,1900000.0,69.5,38.077101115018216,36.192468619246846,29.234338747099763,189839.0,2904.0,189839.0,1.0,0.0,0.0,0.0,0.0
2000000.0,4.84375,1.743287106768953E-8,2000000.0,68.30000000000001,36.2634711275535,36.726546906187636,28.764044943820227,199843.0,2904.0,199843.0,1.0,0.0,0.0,0.0,0.0
2100000.0,5.09375,1.833263215505415E-8,2100000.0,68.7,36.48435851231353,40.03831417624522,27.54629629629632,209734.0,2904.0,209734.0,1.0,0.0,0.0,0.0,0.0
2200000.0,5.34375,1.923239324241877E-8,2200000.0,65.8,30.762222897054347,31.325301204819283,23.146067415730336,219737.0,2904.0,219737.0,1.0,0.0,0.0,0.0,0.0
2300000.0,5.5625,2.0019684193862815E-8,2300000.0,64.7,29.100520599010203,28.68686868686869,24.411134903640257,229897.0,2904.0,229897.0,1.0,0.0,0.0,0.0,0.0
2400000.0,5.796875,2.0863210213267147E-8,2400000.0,66.5,32.224649995953726,32.32323232323233,22.988505747126453,239938.0,2904.0,239938.0,1.0,0.0,0.0,0.0,0.0
2500000.0,6.046875,2.1762971300631768E-8,2500000.0,65.10000000000001,29.276635756436036,27.139874739039666,22.271714922048996,249937.0,2904.0,249937.0,1.0,0.0,0.0,0.0,0.0
2600000.0,6.28125,2.26064973200361E-8,2600000.0,66.5,32.00454656166275,31.06995884773663,23.69020501138952,259975.0,2904.0,259975.0,1.0,0.0,0.0,0.0,0.0
2700000.0,6.515625,2.3450023339440432E-8,2700000.0,68.30000000000001,35.75088367869767,34.23236514522822,28.117913832199548,269905.0,2904.0,269905.0,1.0,0.0,0.0,0.0,0.0
2800000.0,6.75,2.4293549358844764E-8,2800000.0,68.7,36.09480019926992,35.062240663900425,26.525821596244153,279788.0,2904.0,279788.0,1.0,0.0,0.0,0.0,0.0
2900000.0,7.0,2.5193310446209385E-8,2900000.0,67.5,34.52227451486042,37.13733075435204,30.555555555555564,289861.0,2904.0,289861.0,1.0,0.0,0.0,0.0,0.0
3000000.0,7.21875,2.598060139765343E-8,3000000.0,66.7,32.686476652516674,28.23275862068966,26.0,299719.0,2904.0,299719.0,1.0,0.0,0.0,0.0,0.0
3100000.0,7.453125,2.682412741705776E-8,3100000.0,66.0,31.497741440239835,33.59375000000001,26.247288503253795,309746.0,2904.0,309746.0,1.0,0.0,0.0,0.0,0.0
3200000.0,7.6875,2.7667653436462094E-8,3200000.0,67.9,34.999716509667024,35.54216867469881,27.539503386004515,319838.0,2904.0,319838.0,1.0,0.0,0.0,0.0,0.0
3300000.0,7.9375,2.8567414523826714E-8,3300000.0,68.4,36.21213099928946,36.67334669338678,26.16822429906544,329832.0,2904.0,329832.0,1.0,0.0,0.0,0.0,0.0
3400000.0,8.171875,2.9410940543231047E-8,3400000.0,68.89999999999999,36.30912397398299,36.13963039014372,26.477541371158388,339781.0,2904.0,339781.0,1.0,0.0,0.0,0.0,0.0
3500000.0,8.421875,3.031070163059567E-8,3500000.0,68.0,35.273771718683626,37.37769080234835,28.730512249443212,349799.0,2904.0,349799.0,1.0,0.0,0.0,0.0,0.0
3600000.0,8.65625,3.115422765E-8,3600000.0,69.0,36.999808967162664,38.73517786561264,31.263858093126366,359815.0,2904.0,359815.0,1.0,0.0,0.0,0.0,0.0
3700000.0,8.90625,3.205398873736462E-8,3700000.0,68.2,36.03462980544874,36.14457831325302,30.567685589519655,369853.0,2904.0,369853.0,1.0,0.0,0.0,0.0,0.0
3800000.0,9.140625,3.289751475676895E-8,3800000.0,67.0,32.91046596730911,30.232558139534888,25.339366515837103,379877.0,2904.0,379877.0,1.0,0.0,0.0,0.0,0.0
3900000.0,9.375,3.3741040776173285E-8,3900000.0,67.80000000000001,34.59432229967989,36.48915187376727,26.484018264840188,389894.0,2904.0,389894.0,1.0,0.0,0.0,0.0,0.0
4000000.0,9.625,3.4640801863537905E-8,4000000.0,65.7,30.531926959283208,30.84677419354839,24.780701754385966,399673.0,2904.0,399673.0,1.0,0.0,0.0,0.0,0.0
4100000.0,9.859375,3.548432788294224E-8,4100000.0,64.0,27.33760964956543,29.13385826771654,21.225382932166298,409664.0,2904.0,409664.0,1.0,0.0,0.0,0.0,0.0
4200000.0,10.109375,3.638408897030686E-8,4200000.0,66.3,32.02026885277648,32.868525896414354,26.57952069716776,419746.0,2904.0,419746.0,1.0,0.0,0.0,0.0,0.0
4300000.0,10.34375,3.722761498971119E-8,4300000.0,65.5,30.906585703871635,30.020283975659233,29.158110882956883,429744.0,2904.0,429744.0,1.0,0.0,0.0,0.0,0.0
4400000.0,10.59375,3.812737607707581E-8,4400000.0,64.9,29.245283018867923,31.445312500000007,22.172949002217294,439634.0,2904.0,439634.0,1.0,0.0,0.0,0.0,0.0
4500000.0,10.828125,3.8970902096480144E-8,4500000.0,65.9,30.42860873539207,28.059071729957807,21.78899082568809,449755.0,2904.0,449755.0,1.0,0.0,0.0,0.0,0.0
4600000.0,11.078125,3.9870663183844764E-8,4600000.0,66.10000000000001,31.6168283118434,31.23732251521299,26.143790849673206,459694.0,2904.0,459694.0,1.0,0.0,0.0,0.0,0.0
4700000.0,11.3125,4.0714189203249097E-8,4700000.0,66.9,32.26096922069419,29.42430703624734,21.190476190476208,469746.0,2904.0,469746.0,1.0,0.0,0.0,0.0,0.0
4800000.0,11.546875,4.155771522265343E-8,4800000.0,69.69999999999999,38.36001009024256,39.520958083832326,31.60270880361172,479765.0,2904.0,479765.0,1.0,0.0,0.0,0.0,0.0
4900000.0,11.796875,4.245747631001805E-8,4900000.0,67.2,33.72344896705572,33.4685598377282,25.791855203619914,489564.0,2904.0,489564.0,1.0,0.0,0.0,0.0,0.0
5000000.0,12.015625,4.3244767261462093E-8,5000000.0,69.39999999999999,38.059438648481226,37.166324435318266,30.29612756264235,499551.0,2904.0,499551.0,1.0,0.0,0.0,0.0,0.0
5100000.0,12.265625,4.418592046325407E-8,5100000.0,71.0,35.06406266094036,38.29787234042552,21.83288409703503,8325.0,2904.0,509539.0,1.0,0.0,0.0,1.0,10.0
5200000.0,12.484375,4.501259859858289E-8,5200000.0,70.3,33.22601532429223,39.139344262295076,22.047244094488182,18111.0,2904.0,519325.0,1.0,0.0,0.0,0.0,5.0
5300000.0,12.734375,4.595737361038726E-8,5300000.0,71.7,35.54118075801748,37.1111111111111,24.128686327077737,27946.0,2904.0,529160.0,1.0,0.0,0.0,0.0,0.0
5400000.0,12.96875,4.6843100183953854E-8,5400000.0,70.0,30.607278833832176,33.481152993348104,17.355371900826434,37828.0,2904.0,539042.0,1.0,0.0,0.0,0.0,0.0
5500000.0,13.21875,4.778787519575822E-8,5500000.0,70.5,31.323797817260772,38.41336116910228,18.956043956043946,47810.0,2904.0,549024.0,1.0,0.0,0.0,0.0,0.0
5600000.0,13.46875,4.873265020756259E-8,5600000.0,70.8,35.55933175909783,41.365461847389554,25.319693094629148,57632.0,2904.0,558846.0,1.0,0.0,0.0,0.0,0.0
5700000.0,13.703125,4.961837678112919E-8,5700000.0,67.5,25.757728049415675,27.293064876957494,13.101604278074877,67637.0,2904.0,568851.0,1.0,0.0,0.0,0.0,0.0
5800000.0,13.9375,5.0504103354695784E-8,5800000.0,69.39999999999999,30.062897681562195,35.84905660377357,17.741935483870954,77644.0,2904.0,578858.0,1.0,0.0,0.0,0.0,0.0
5900000.0,14.1875,5.144887836650015E-8,5900000.0,70.0,33.374789020165224,36.84210526315788,23.076923076923066,87689.0,2904.0,588903.0,1.0,0.0,0.0,0.0,0.0
6000000.0,14.421875,5.233460494006675E-8,6000000.0,69.8,33.068562614138045,36.28691983122362,21.761658031088075,97947.0,2904.0,599161.0,1.0,0.0,0.0,0.0,0.0
6100000.0,14.671875,5.327937995187112E-8,6100000.0,69.69999999999999,33.54738531989367,37.525773195876276,24.06015037593984,107922.0,2904.0,609136.0,1.0,0.0,0.0,0.0,0.0
6200000.0,14.90625,5.4165106525437714E-8,6200000.0,69.19999999999999,30.933961206413258,32.30769230769229,19.999999999999986,117815.0,2904.0,619029.0,1.0,0.0,0.0,0.0,0.0
6300000.0,15.15625,5.510988153724208E-8,6300000.0,70.3,29.530679068001692,34.725274725274716,14.16184971098264,127938.0,2904.0,629152.0,1.0,0.0,0.0,0.0,0.0
6400000.0,15.390625,5.599560811080868E-8,6400000.0,69.5,30.22510980966323,34.40860215053762,17.344173441734405,138069.0,2904.0,639283.0,1.0,0.0,0.0,0.0,0.0
6500000.0,15.640625,5.694038312261305E-8,6500000.0,70.39999999999999,34.677159515728235,38.716356107660445,24.68193384223918,147912.0,2904.0,649126.0,1.0,0.0,0.0,0.0,0.0
6600000.0,15.890625,5.7885158134417415E-8,6600000.0,71.5,34.74677168238849,38.177874186550966,24.20212765957446,157940.0,2904.0,659154.0,1.0,0.0,0.0,0.0,0.0
6700000.0,16.125,5.877088470798401E-8,6700000.0,71.0,34.595121247113156,35.69844789356983,23.28042328042327,167861.0,2904.0,669075.0,1.0,0.0,0.0,0.0,0.0
6800000.0,16.359375,5.965661128155061E-8,6800000.0,70.39999999999999,30.78322522109613,34.513274336283175,17.08683473389354,177885.0,2904.0,679099.0,1.0,0.0,0.0,0.0,0.0
6900000.0,16.609375,6.060138629335498E-8,6900000.0,71.1,35.12673855851163,37.849462365591386,24.345549738219887,187830.0,2904.0,689044.0,1.0,0.0,0.0,0.0,0.0
7000000.0,16.859375,6.154616130515936E-8,7000000.0,67.5,27.891868865262083,32.57261410788382,18.546365914786982,198021.0,2904.0,699235.0,1.0,0.0,0.0,0.0,0.0
7100000.0,17.09375,6.243188787872596E-8,7100000.0,69.69999999999999,30.36723813025691,30.344827586206897,16.298342541436448,208062.0,2904.0,709276.0,1.0,0.0,0.0,0.0,0.0
7200000.0,17.34375,6.337666289053033E-8,7200000.0,72.1,34.59302325581394,41.01479915433403,21.629213483146057,217946.0,2904.0,719160.0,1.0,0.0,0.0,0.0,0.0
7300000.0,17.59375,6.43214379023347E-8,7300000.0,69.39999999999999,30.968204767254566,34.33476394849784,20.930232558139526,227924.0,2904.0,729138.0,1.0,0.0,0.0,0.0,0.0
7400000.0,17.828125,6.52071644759013E-8,7400000.0,68.89999999999999,29.70226308984547,32.39130434782607,17.941952506596294,237798.0,2904.0,739012.0,1.0,0.0,0.0,0.0,0.0
7500000.0,18.078125,6.615193948770568E-8,7500000.0,68.5,31.59371443958966,35.58282208588958,23.35766423357666,247890.0,2904.0,749104.0,1.0,0.0,0.0,0.0,0.0
7600000.0,18.328125,6.709671449951005E-8,7600000.0,70.6,31.927111069948356,34.22818791946307,18.559556786703588,257945.0,2904.0,759159.0,1.0,0.0,0.0,0.0,0.0
7700000.0,18.5625,6.798244107307665E-8,7700000.0,70.19999999999999,31.982105359262285,36.32478632478631,19.459459459459445,267998.0,2904.0,769212.0,1.0,0.0,0.0,0.0,0.0
7800000.0,18.8125,6.892721608488102E-8,7800000.0,69.8,31.117852336747013,33.480176211453724,18.157181571815702,277913.0,2904.0,779127.0,1.0,0.0,0.0,0.0,0.0
7900000.0,19.0625,6.98719910966854E-8,7900000.0,71.0,34.41050879351523,36.12334801762113,22.04301075268816,287898.0,2904.0,789112.0,1.0,0.0,0.0,0.0,0.0
8000000.0,19.3125,7.081676610848977E-8,8000000.0,71.5,34.895238443333724,40.624999999999986,23.79679144385026,297925.0,2904.0,799139.0,1.0,0.0,0.0,0.0,0.0
8100000.0,19.5625,7.176154112029414E-8,8100000.0,68.0,25.031861458879987,32.489451476793256,10.112359550561807,308104.0,2904.0,809318.0,1.0,0.0,0.0,0.0,0.0
8200000.0,19.796875,7.264726769386074E-8,8200000.0,68.60000000000001,29.84807864164434,30.066815144766153,21.500000000000018,318063.0,2904.0,819277.0,1.0,0.0,0.0,0.0,0.0
8300000.0,20.046875,7.359204270566512E-8,8300000.0,70.1,32.845810387113566,37.83783783783783,21.932114882506518,328155.0,2904.0,829369.0,1.0,0.0,0.0,0.0,0.0
8400000.0,20.296875,7.453681771746949E-8,8400000.0,70.19999999999999,29.930165298972444,35.217391304347814,13.623188405797082,338074.0,2904.0,839288.0,1.0,0.0,0.0,0.0,0.0
8500000.0,20.546875,7.548159272927386E-8,8500000.0,68.30000000000001,27.180005513185723,28.603603603603606,13.858695652173925,348032.0,2904.0,849246.0,1.0,0.0,0.0,0.0,0.0
8600000.0,20.78125,7.636731930284046E-8,8600000.0,68.5,29.583132142282313,36.61971830985917,17.968750000000018,358186.0,2904.0,859400.0,1.0,0.0,0.0,0.0,0.0
8700000.0,21.015625,7.725304587640706E-8,8700000.0,68.89999999999999,29.717514124293775,33.40471092077087,19.220779220779207,368351.0,2904.0,869565.0,1.0,0.0,0.0,0.0,0.0
8800000.0,21.265625,7.819782088821143E-8,8800000.0,68.7,29.593305740507475,35.463917525773205,17.631578947368435,378314.0,2904.0,879528.0,1.0,0.0,0.0,0.0,0.0
8900000.0,21.5,7.908354746177803E-8,8900000.0,68.10000000000001,29.059403298404174,32.98319327731093,18.62244897959185,388293.0,2904.0,889507.0,1.0,0.0,0.0,0.0,0.0
9000000.0,21.734375,7.996927403534463E-8,9000000.0,69.5,30.56187961023584,36.05870020964359,18.882978723404243,398237.0,2904.0,899451.0,1.0,0.0,0.0,0.0,0.0
9100000.0,21.96875,8.085500060891123E-8,9100000.0,72.3,35.90040264729022,42.76859504132231,21.97183098591548,408260.0,2904.0,909474.0,1.0,0.0,0.0,0.0,0.0
9200000.0,22.21875,8.17997756207156E-8,9200000.0,69.5,31.534524557780358,35.10638297872339,20.572916666666654,418144.0,2904.0,919358.0,1.0,0.0,0.0,0.0,0.0
9300000.0,22.46875,8.274455063251997E-8,9300000.0,69.39999999999999,33.70108288231291,38.056680161943305,25.907990314769968,428034.0,2904.0,929248.0,1.0,0.0,0.0,0.0,0.0
9400000.0,22.6875,8.35712287678488E-8,9400000.0,68.7,31.615789979637686,37.649402390438254,22.332506203473965,438161.0,2904.0,939375.0,1.0,0.0,0.0,0.0,0.0
9500000.0,22.9375,8.451600377965317E-8,9500000.0,69.3,31.73773057971787,37.47454175152748,22.670025188916867,448121.0,2904.0,949335.0,1.0,0.0,0.0,0.0,0.0
9600000.0,23.1875,8.546077879145754E-8,9600000.0,69.0,31.197649179032588,36.08247422680411,21.119592875318055,458062.0,2904.0,959276.0,1.0,0.0,0.0,0.0,0.0
9700000.0,23.4375,8.640555380326192E-8,9700000.0,71.7,36.132375243735105,40.29535864978902,24.128686327077737,468070.0,2904.0,969284.0,1.0,0.0,0.0,0.0,0.0
9800000.0,23.671875,8.729128037682851E-8,9800000.0,70.19999999999999,33.62585473416931,37.394957983193265,24.556962025316448,477858.0,2904.0,979072.0,1.0,0.0,0.0,0.0,0.0
9900000.0,23.921875,8.823605538863289E-8,9900000.0,71.3,32.955203797492004,36.78414096916298,18.465909090909076,487668.0,2904.0,988882.0,1.0,0.0,0.0,0.0,0.0
1.0E7,24.171875,8.918083040043726E-8,1.0E7,68.2,28.779076278057257,34.29752066115703,18.25192802056557,497627.0,2904.0,998841.0,1.0,0.0,0.0,0.0,0.0
