learning evaluation instances,evaluation time (cpu seconds),model cost (RAM-Hours),classified instances,classifications correct (percent),Kappa Statistic (percent),Kappa Temporal Statistic (percent),Kappa M Statistic (percent),model training instances,model serialized size (bytes),labeling cost,newThreshold,maxPosterior,accuracyBaseLearner (percent),Change detected,Warning detected
100000.0,0.375,1.5183662374814353E-8,100000.0,76.5,51.8738480442351,49.24406047516199,48.35164835164835,9900.0,2904.0,0.0,1.0,0.0,?,0.0,29.0
200000.0,0.78125,3.003515303134918E-8,200000.0,77.4,53.18138690818994,50.65502183406113,47.806004618937656,19900.0,2904.0,0.0,1.0,0.0,?,0.0,0.0
300000.0,1.171875,4.277939701245891E-8,300000.0,77.0,51.924684793150746,51.68067226890757,45.754716981132084,29900.0,2904.0,0.0,1.0,0.0,?,0.0,0.0
400000.0,1.578125,5.44359338366323E-8,400000.0,76.7,51.556431559425505,53.3066132264529,45.6876456876457,39900.0,2904.0,0.0,1.0,0.0,?,0.0,0.0
500000.0,1.96875,6.410810682508681E-8,500000.0,76.7,50.772429179906695,50.530785562632694,42.32673267326734,49900.0,2904.0,0.0,1.0,0.0,?,0.0,0.0
600000.0,2.375,7.256968981689877E-8,600000.0,77.0,52.02476356551957,56.10687022900764,46.135831381733034,59900.0,2904.0,0.0,1.0,0.0,?,0.0,16.0
700000.0,2.78125,7.943379589253002E-8,700000.0,78.3,54.87702429570729,54.507337526205454,49.06103286384978,69900.0,2904.0,0.0,1.0,0.0,?,0.0,30.0
800000.0,3.1875,8.470042505198055E-8,800000.0,78.10000000000001,54.84461599366588,54.75206611570248,49.422632794457286,79900.0,2904.0,0.0,1.0,0.0,?,0.0,0.0
900000.0,3.609375,8.851069853537613E-8,900000.0,76.4,51.304060746120825,53.8160469667319,46.36363636363636,89900.0,2904.0,0.0,1.0,0.0,?,0.0,0.0
1000000.0,4.015625,9.057564764387078E-8,1000000.0,76.5,51.069394010060975,51.94274028629857,45.093457943925245,99900.0,2904.0,0.0,1.0,0.0,?,0.0,12.0
1100000.0,4.390625,1.0577405595944988E-7,1100000.0,76.1,50.364272244697915,50.5175983436853,44.80369515011548,109800.0,2904.0,0.0,1.0,0.0,?,0.0,46.0
1200000.0,4.796875,1.2056837375793194E-7,1200000.0,76.7,50.797378112646555,54.043392504930964,43.58353510895885,119800.0,2904.0,0.0,1.0,0.0,?,0.0,20.0
1300000.0,5.171875,1.327500730339024E-7,1300000.0,77.60000000000001,52.89268364492861,54.19222903885481,46.793349168646095,129800.0,2904.0,0.0,1.0,0.0,?,0.0,0.0
1400000.0,5.578125,1.4434943700002302E-7,1400000.0,76.1,49.639681402503264,51.32382892057027,42.82296650717704,139800.0,2904.0,0.0,1.0,0.0,?,0.0,0.0
1500000.0,5.953125,1.5358194812304445E-7,1500000.0,75.9,49.62795752863473,50.715746421267895,43.02600472813239,149800.0,2904.0,0.0,1.0,0.0,?,0.0,0.0
1600000.0,6.359375,1.6198635825680364E-7,1600000.0,77.0,51.69508255940456,51.37420718816068,45.36817102137768,159800.0,2904.0,0.0,1.0,0.0,?,0.0,0.0
1700000.0,6.765625,1.6879329147438212E-7,1700000.0,76.0,49.51109914337165,50.20746887966805,43.12796208530806,169800.0,2904.0,0.0,1.0,0.0,?,0.0,0.0
1800000.0,7.15625,1.7380238407187996E-7,1800000.0,77.10000000000001,52.90817711460792,53.360488798370675,48.65470852017937,179800.0,2904.0,0.0,1.0,0.0,?,0.0,0.0
1900000.0,7.546875,1.7727544117305017E-7,1900000.0,77.0,51.96825728307404,52.18295218295218,45.88235294117648,189800.0,2904.0,0.0,1.0,0.0,?,0.0,0.0
2000000.0,7.9375,1.7921246277789278E-7,2000000.0,75.8,49.699234680091294,51.503006012024045,44.11085450346421,199800.0,2904.0,0.0,1.0,0.0,?,0.0,0.0
2100000.0,8.34375,1.9562023226171735E-7,2100000.0,73.5,44.02575237837746,46.8937875751503,36.754176610978526,209700.0,2904.0,0.0,1.0,0.0,?,0.0,0.0
2200000.0,8.75,2.104305248293612E-7,2200000.0,76.6,50.91355331333515,49.35064935064935,43.61445783132531,219700.0,2904.0,0.0,1.0,0.0,?,0.0,0.0
2300000.0,9.140625,2.2313515526346036E-7,2300000.0,74.8,47.54546060081263,46.61016949152542,41.66666666666667,229700.0,2904.0,0.0,1.0,0.0,?,0.0,0.0
2400000.0,9.546875,2.3482364162595738E-7,2400000.0,73.4,44.316050375133976,45.379876796714576,36.36363636363637,239700.0,2904.0,0.0,1.0,0.0,?,0.0,35.0
2500000.0,9.9375,2.4452653532433846E-7,2500000.0,75.6,48.82120983303968,49.166666666666664,43.25581395348838,249700.0,2904.0,0.0,1.0,0.0,?,0.0,0.0
2600000.0,10.34375,2.5302006785447403E-7,2600000.0,77.9,54.045264374890834,54.52674897119342,48.12206572769954,259700.0,2904.0,0.0,1.0,0.0,?,0.0,0.0
2700000.0,10.71875,2.593794488348067E-7,2700000.0,76.9,51.87700512478647,53.800000000000004,45.77464788732396,269700.0,2904.0,0.0,1.0,0.0,?,0.0,40.0
2800000.0,11.125,2.646713013139864E-7,2800000.0,76.0,49.5830094741928,51.02040816326531,42.168674698795186,279700.0,2904.0,0.0,1.0,0.0,?,0.0,0.0
2900000.0,11.53125,2.6829168847244645E-7,2900000.0,73.8,45.13134968502882,47.38955823293172,38.20754716981132,289700.0,2904.0,0.0,1.0,0.0,?,0.0,38.0
3000000.0,11.921875,2.7031440468918945E-7,3000000.0,76.8,50.83850023521236,51.867219917012456,42.997542997543,299700.0,2904.0,0.0,1.0,0.0,?,0.0,57.0
3100000.0,12.3125,2.861768007278442E-7,3100000.0,75.0,48.0214899951764,48.6652977412731,40.75829383886256,309600.0,2904.0,0.0,1.0,0.0,?,0.0,44.0
3200000.0,12.71875,3.010762156918645E-7,3200000.0,77.7,53.31720020431576,52.95358649789029,47.15639810426541,319600.0,2904.0,0.0,1.0,0.0,?,0.0,40.0
3300000.0,13.109375,3.1378973896304767E-7,3300000.0,78.2,54.072001618013886,54.95867768595042,46.03960396039605,329600.0,2904.0,0.0,1.0,0.0,?,0.0,49.0
3400000.0,13.5,3.249672267379032E-7,3400000.0,77.60000000000001,53.629332759220304,53.235908141962426,49.32126696832579,339600.0,2904.0,0.0,1.0,0.0,?,0.0,0.0
3500000.0,13.890625,3.3460867901643114E-7,3500000.0,77.5,52.90995546328233,55.533596837944664,47.30679156908666,349600.0,2904.0,0.0,1.0,0.0,?,0.0,0.0
3600000.0,14.296875,3.430383124699195E-7,3600000.0,75.8,48.878063619348595,50.91277890466531,41.4043583535109,359600.0,2904.0,0.0,1.0,0.0,?,0.0,0.0
3700000.0,14.671875,3.493449185043573E-7,3700000.0,77.5,53.172218013503056,50.98039215686274,46.172248803827756,369600.0,2904.0,0.0,1.0,0.0,?,0.0,0.0
3800000.0,15.0625,3.543782642939024E-7,3800000.0,76.0,48.717948717948715,53.75722543352601,40.00000000000001,379600.0,2904.0,0.0,1.0,0.0,?,0.0,0.0
3900000.0,15.4375,3.5773568217539123E-7,3900000.0,75.0,48.12266292596482,48.34710743801653,40.04796163069545,389600.0,2904.0,0.0,1.0,0.0,?,0.0,0.0
4000000.0,15.84375,3.597754079641567E-7,4000000.0,76.9,50.83432657926104,54.8828125,41.66666666666667,399600.0,2904.0,0.0,1.0,0.0,?,0.0,0.0
4100000.0,16.25,3.7620840076771045E-7,4100000.0,75.5,49.202162951167736,52.70270270270271,41.805225653206655,409500.0,2904.0,0.0,1.0,0.0,?,0.0,0.0
4200000.0,16.65625,3.911212681689196E-7,4200000.0,76.0,48.969394394287974,49.15254237288135,39.849624060150376,419500.0,2904.0,0.0,1.0,0.0,?,0.0,24.0
4300000.0,17.046875,4.039245282506777E-7,4300000.0,78.2,54.762962071441336,56.916996047430835,47.72182254196644,429500.0,2904.0,0.0,1.0,0.0,?,0.0,0.0
4400000.0,17.421875,4.14741063852691E-7,4400000.0,76.9,51.98503429640407,50.955414012738856,45.64705882352943,439500.0,2904.0,0.0,1.0,0.0,?,0.0,0.0
4500000.0,17.828125,4.248640228373309E-7,4500000.0,75.3,48.147152921813465,49.385245901639344,41.05011933174225,449500.0,2904.0,0.0,1.0,0.0,?,0.0,11.0
4600000.0,18.21875,4.330616017493109E-7,4600000.0,77.9,53.775360803179254,54.989816700611,48.00000000000001,459500.0,2904.0,0.0,1.0,0.0,?,0.0,11.0
4700000.0,18.578125,4.391902216917111E-7,4700000.0,77.9,53.39990890841923,56.324110671936765,46.48910411622278,469500.0,2904.0,0.0,1.0,0.0,?,0.0,0.0
4800000.0,18.984375,4.4452074992780884E-7,4800000.0,76.9,51.71323935182863,51.47058823529412,45.90163934426231,479500.0,2904.0,0.0,1.0,0.0,?,0.0,0.0
4900000.0,19.390625,4.482538012477259E-7,4900000.0,76.6,51.37480466801876,52.244897959183675,45.83333333333334,489500.0,2904.0,0.0,1.0,0.0,?,0.0,0.0
5000000.0,19.796875,4.5063236029818656E-7,5000000.0,76.7,51.414201232786446,53.3066132264529,44.786729857819914,499500.0,2904.0,0.0,1.0,0.0,?,0.0,0.0
5100000.0,20.1875,4.6675911613015667E-7,5100000.0,49.3,-1.6194981159304047,-2.4242424242424265,-2.2177419354838728,509400.0,2904.0,0.0,1.0,0.0,?,0.0,2.0
5200000.0,20.578125,4.812875866062111E-7,5200000.0,68.8,37.58726780263172,35.67010309278349,36.065573770491795,18224.0,2904.0,0.0,1.0,0.0,?,1.0,42.0
5300000.0,20.96875,4.94280021585938E-7,5300000.0,70.0,39.394918869998044,40.8284023668639,33.62831858407078,28224.0,2904.0,0.0,1.0,0.0,?,0.0,0.0
5400000.0,21.375,5.061946770486732E-7,5400000.0,73.1,46.21462962074316,48.95635673624288,45.766129032258064,38224.0,2904.0,0.0,1.0,0.0,?,0.0,0.0
5500000.0,21.765625,5.161150410357448E-7,5500000.0,73.5,46.92059320743833,46.57258064516129,44.56066945606694,48224.0,2904.0,0.0,1.0,0.0,?,0.0,0.0
5600000.0,22.171875,5.248347426661186E-7,5600000.0,67.9,35.81078378832357,34.3558282208589,31.410256410256416,58224.0,2904.0,0.0,1.0,0.0,?,0.0,0.0
5700000.0,22.59375,5.322308991000884E-7,5700000.0,72.6,45.10162210681541,46.588693957115005,43.621399176954725,68224.0,2904.0,0.0,1.0,0.0,?,0.0,0.0
5800000.0,23.0,5.377556468981008E-7,5800000.0,73.4,46.58312749764042,47.94520547945205,40.22471910112358,78224.0,2904.0,0.0,1.0,0.0,?,0.0,0.0
5900000.0,23.390625,5.41531868899862E-7,5900000.0,70.89999999999999,41.592536690324025,41.56626506024096,38.86554621848738,88224.0,2904.0,0.0,1.0,0.0,?,0.0,0.0
6000000.0,23.78125,5.437720554052956E-7,6000000.0,70.0,39.94450872606288,37.23849372384936,41.17647058823529,98224.0,2904.0,0.0,1.0,0.0,?,0.0,0.0
6100000.0,24.171875,5.598519217326409E-7,6100000.0,71.3,42.606887173539164,43.05555555555555,44.054580896686154,108124.0,2904.0,0.0,1.0,0.0,?,0.0,0.0
6200000.0,24.578125,5.749775057968994E-7,6200000.0,72.3,44.584040203578624,44.930417495029815,43.584521384928706,118124.0,2904.0,0.0,1.0,0.0,?,0.0,0.0
6300000.0,25.0,5.890259247583648E-7,6300000.0,70.7,41.52630318512013,40.32586558044805,37.124463519313295,128124.0,2904.0,0.0,1.0,0.0,?,0.0,0.0
6400000.0,25.40625,6.009565549902619E-7,6400000.0,71.39999999999999,42.777339826571314,44.031311154598825,43.36633663366336,138124.0,2904.0,0.0,1.0,0.0,?,0.0,0.0
6500000.0,25.828125,6.116871372796596E-7,6500000.0,71.1,42.177796273769125,41.37931034482758,38.247863247863236,148124.0,2904.0,0.0,1.0,0.0,?,0.0,0.0
6600000.0,26.25,6.207588012330235E-7,6600000.0,70.19999999999999,40.30257380044231,41.68297455968688,38.045738045738034,158124.0,2904.0,0.0,1.0,0.0,?,0.0,0.0
6700000.0,26.65625,6.278970007163784E-7,6700000.0,70.1,40.21195760847829,39.95983935742971,40.19999999999999,168124.0,2904.0,0.0,1.0,0.0,?,0.0,0.0
6800000.0,27.0625,6.334377232835526E-7,6800000.0,70.1,40.069110938289214,39.595959595959584,38.47736625514403,178124.0,2904.0,0.0,1.0,0.0,?,0.0,0.0
6900000.0,27.46875,6.373809689345461E-7,6900000.0,73.0,45.9971918539764,46.21513944223107,43.39622641509433,188124.0,2904.0,0.0,1.0,0.0,?,0.0,0.0
7000000.0,27.875,6.397267376693588E-7,7000000.0,71.8,43.14149299954835,43.486973947895784,38.42794759825326,198124.0,2904.0,0.0,1.0,0.0,?,0.0,0.0
7100000.0,28.28125,6.564657734189598E-7,7100000.0,72.0,44.03604078973141,45.945945945945944,42.62295081967212,208024.0,2904.0,0.0,1.0,0.0,?,0.0,0.0
7200000.0,28.703125,6.721896998998193E-7,7200000.0,71.3,42.50340572161231,42.369477911646584,40.083507306889345,218024.0,2904.0,0.0,1.0,0.0,?,0.0,0.0
7300000.0,29.140625,6.866434382067788E-7,7300000.0,72.7,44.90146848686919,46.047430830039524,40.78091106290672,228024.0,2904.0,0.0,1.0,0.0,?,0.0,0.0
7400000.0,29.5625,6.989220532381702E-7,7400000.0,68.10000000000001,35.87269423135685,39.00573613766732,32.27176220806795,238024.0,2904.0,0.0,1.0,0.0,?,0.0,0.0
7500000.0,29.96875,7.091484278336996E-7,7500000.0,69.3,38.5764133427236,43.14814814814813,36.96098562628335,248024.0,2904.0,0.0,1.0,0.0,?,0.0,0.0
7600000.0,30.390625,7.181092061930233E-7,7600000.0,72.6,45.17017257388018,44.53441295546558,44.8692152917505,258024.0,2904.0,0.0,1.0,0.0,?,0.0,0.0
7700000.0,30.8125,7.254110662163132E-7,7700000.0,72.0,43.85447078828323,43.8877755511022,41.90871369294605,268024.0,2904.0,0.0,1.0,0.0,?,0.0,0.0
7800000.0,31.21875,7.308450100633006E-7,7800000.0,71.8,43.277589820539944,42.799188640973625,37.47228381374722,278024.0,2904.0,0.0,1.0,0.0,?,0.0,0.0
7900000.0,31.625,7.346814769941073E-7,7900000.0,69.3,38.51687481474953,40.155945419103304,36.96098562628335,288024.0,2904.0,0.0,1.0,0.0,?,0.0,0.0
8000000.0,32.0,7.367482370076081E-7,8000000.0,71.7,43.38505365416469,41.286307053941904,39.40042826552462,298024.0,2904.0,0.0,1.0,0.0,?,0.0,0.0
8100000.0,32.40625,7.533804940370223E-7,8100000.0,70.39999999999999,40.68896975137456,42.30019493177387,38.58921161825725,307924.0,2904.0,0.0,1.0,0.0,?,0.0,0.0
8200000.0,32.8125,7.684152741502558E-7,8200000.0,70.6,41.21880998080614,41.19999999999999,41.66666666666666,317924.0,2904.0,0.0,1.0,0.0,?,0.0,0.0
8300000.0,33.21875,7.818525773473085E-7,8300000.0,73.2,46.430855827043615,44.96919917864476,44.51345755693581,327924.0,2904.0,0.0,1.0,0.0,?,0.0,0.0
8400000.0,33.625,7.936924036281805E-7,8400000.0,73.4,46.76955218384916,45.49180327868852,45.60327198364008,337924.0,2904.0,0.0,1.0,0.0,?,0.0,0.0
8500000.0,34.03125,8.039347529928718E-7,8500000.0,72.8,45.41199892429527,43.801652892561975,40.74074074074073,347924.0,2904.0,0.0,1.0,0.0,?,0.0,0.0
8600000.0,34.4375,8.125796254413824E-7,8600000.0,71.5,42.89904551246603,41.95519348268839,40.871369294605806,357924.0,2904.0,0.0,1.0,0.0,?,0.0,0.0
8700000.0,34.84375,8.196270209737123E-7,8700000.0,69.89999999999999,39.38295472853228,39.92015968063871,34.56521739130433,367924.0,2904.0,0.0,1.0,0.0,?,0.0,0.0
8800000.0,35.25,8.250769395898614E-7,8800000.0,71.0,41.972378852333705,41.41414141414141,41.17647058823529,377924.0,2904.0,0.0,1.0,0.0,?,0.0,0.0
8900000.0,35.640625,8.287812104552157E-7,8900000.0,73.3,46.567940764458676,48.355899419729205,43.78947368421052,387924.0,2904.0,0.0,1.0,0.0,?,0.0,0.0
9000000.0,36.0625,8.311229046537644E-7,9000000.0,75.3,50.15015499870834,54.08921933085501,45.35398230088495,397924.0,2904.0,0.0,1.0,0.0,?,0.0,0.0
9100000.0,36.4375,8.464905032370654E-7,9100000.0,69.39999999999999,38.54113526172236,40.117416829745586,33.6225596529284,407824.0,2904.0,0.0,1.0,0.0,?,0.0,0.0
9200000.0,36.84375,8.615412581194606E-7,9200000.0,70.8,41.599999999999994,42.40631163708086,41.599999999999994,417824.0,2904.0,0.0,1.0,0.0,?,0.0,0.0
9300000.0,37.25,8.749945360856752E-7,9300000.0,74.8,49.57640175602182,49.6,48.25462012320328,427824.0,2904.0,0.0,1.0,0.0,?,0.0,0.0
9400000.0,37.671875,8.873063294837873E-7,9400000.0,71.7,43.377804099206884,45.04854368932038,46.40151515151515,437824.0,2904.0,0.0,1.0,0.0,?,0.0,0.0
9500000.0,38.078125,8.975646536176403E-7,9500000.0,70.5,40.9433055733504,42.15686274509803,40.8817635270541,447824.0,2904.0,0.0,1.0,0.0,?,0.0,0.0
9600000.0,38.484375,9.062255008353127E-7,9600000.0,70.8,41.62241699187511,41.716566866267456,41.010101010101,457824.0,2904.0,0.0,1.0,0.0,?,0.0,0.0
9700000.0,38.890625,9.132888711368044E-7,9700000.0,70.0,40.02878618263233,44.44444444444443,37.23849372384936,467824.0,2904.0,0.0,1.0,0.0,?,0.0,0.0
9800000.0,39.28125,9.185445378534495E-7,9800000.0,72.2,44.37352179637507,45.16765285996055,43.61054766734279,477824.0,2904.0,0.0,1.0,0.0,?,0.0,0.0
9900000.0,39.6875,9.224129543225797E-7,9900000.0,72.1,43.85007365904314,44.64285714285714,39.21568627450979,487824.0,2904.0,0.0,1.0,0.0,?,0.0,0.0
1.0E7,40.078125,9.245965500465696E-7,1.0E7,70.0,39.74136995986775,41.06090373280942,37.1069182389937,497824.0,2904.0,0.0,1.0,0.0,?,0.0,0.0
