learning evaluation instances,evaluation time (cpu seconds),model cost (RAM-Hours),classified instances,classifications correct (percent),Kappa Statistic (percent),Kappa Temporal Statistic (percent),Kappa M Statistic (percent),model training instances,model serialized size (bytes),labeling cost,newThreshold,maxPosterior,accuracyBaseLearner (percent),Change detected,Warning detected
100000.0,0.25,8.143898513582018E-10,100000.0,89.8,73.79616499167643,75.00000000000001,63.82978723404257,9800.0,1112.0,0.0,1.0,0.0,?,0.0,0.0
200000.0,0.5,1.5604827139112684E-9,200000.0,91.60000000000001,79.01185830006048,80.14184397163122,71.33105802047783,19605.0,1112.0,0.0,1.0,0.0,?,0.0,0.0
300000.0,0.71875,2.1535541034407086E-9,300000.0,89.0,72.34193415368834,74.4186046511628,63.45514950166113,29410.0,1112.0,0.0,1.0,0.0,?,0.0,0.0
400000.0,0.96875,2.7630529883835052E-9,400000.0,88.1,69.42760250745043,71.73396674584323,58.53658536585367,39215.0,1112.0,0.0,1.0,0.0,?,0.0,0.0
500000.0,1.1875,3.5136731134520637E-9,500000.0,88.3,70.55240664861219,72.27488151658768,61.129568106312306,49015.0,1112.0,0.0,1.0,0.0,?,0.0,0.0
600000.0,1.4375,4.303227696153853E-9,600000.0,88.0,69.26229508196722,72.22222222222221,60.00000000000001,58820.0,1112.0,0.0,1.0,0.0,?,0.0,0.0
700000.0,1.671875,4.9794066904319655E-9,700000.0,89.5,73.02435515363273,73.00771208226222,63.41463414634148,68625.0,1112.0,0.0,1.0,0.0,?,0.0,0.0
800000.0,1.875,5.5099371820688246E-9,800000.0,88.5,69.99551237228525,70.12987012987013,59.93031358885018,78430.0,1112.0,0.0,1.0,0.0,?,0.0,0.0
900000.0,2.125,6.094600798355209E-9,900000.0,88.8,71.02064261724996,72.94685990338165,61.24567474048443,88235.0,1112.0,0.0,1.0,0.0,?,0.0,0.0
1000000.0,2.375,6.92761710120572E-9,1000000.0,89.7,72.3267060720043,73.31606217616581,62.54545454545456,98035.0,1112.0,0.0,1.0,0.0,?,0.0,0.0
1100000.0,2.609375,7.644541458123261E-9,1100000.0,88.4,71.9303679541594,74.78260869565217,63.406940063091476,107840.0,1112.0,0.0,1.0,0.0,?,0.0,0.0
1200000.0,2.859375,8.340963783363502E-9,1200000.0,90.8,76.19540467812047,77.56097560975611,67.14285714285715,117645.0,1112.0,0.0,1.0,0.0,?,0.0,0.0
1300000.0,3.09375,8.929831286271414E-9,1300000.0,91.0,76.94022393604757,78.52028639618139,69.28327645051195,127450.0,1112.0,0.0,1.0,0.0,?,0.0,0.0
1400000.0,3.328125,9.751529432833196E-9,1400000.0,89.0,73.06364326468643,73.17073170731709,64.85623003194888,137250.0,1112.0,0.0,1.0,0.0,?,0.0,0.0
1500000.0,3.578125,1.0559710467027296E-8,1500000.0,89.1,71.78300353100762,72.61306532663318,61.48409893992933,147055.0,1112.0,0.0,1.0,0.0,?,0.0,0.0
1600000.0,3.796875,1.120710900674264E-8,1600000.0,89.9,74.2803593619492,75.89498806682579,65.87837837837839,156860.0,1112.0,0.0,1.0,0.0,?,0.0,0.0
1700000.0,4.03125,1.1836721872289978E-8,1700000.0,88.3,70.36864445412459,71.73913043478262,61.764705882352956,166665.0,1112.0,0.0,1.0,0.0,?,0.0,0.0
1800000.0,4.28125,1.2440011940068672E-8,1800000.0,89.2,72.21650545379707,73.13432835820896,62.237762237762254,176470.0,1112.0,0.0,1.0,0.0,?,0.0,0.0
1900000.0,4.515625,1.3238427022265066E-8,1900000.0,89.2,72.93897739402352,74.76635514018693,63.87959866220737,186270.0,1112.0,0.0,1.0,0.0,?,0.0,0.0
2000000.0,4.765625,1.4021772787802752E-8,2000000.0,88.2,67.67194143690001,68.10810810810811,55.30303030303031,196075.0,1112.0,0.0,1.0,0.0,?,0.0,0.0
2100000.0,5.015625,1.4736821564535302E-8,2100000.0,90.2,75.50624590729365,76.83215130023642,67.44186046511629,205880.0,1112.0,0.0,1.0,0.0,?,0.0,0.0
2200000.0,5.234375,1.530272937897179E-8,2200000.0,89.8,72.7849046938035,74.68982630272953,63.309352517985616,215685.0,1112.0,0.0,1.0,0.0,?,0.0,0.0
2300000.0,5.46875,1.5845030753148927E-8,2300000.0,87.7,69.4864797816919,70.64439140811456,60.322580645161295,225490.0,1112.0,0.0,1.0,0.0,?,0.0,0.0
2400000.0,5.71875,1.6671838238835336E-8,2400000.0,89.3,71.7597626764355,71.0810810810811,61.648745519713266,235290.0,1112.0,0.0,1.0,0.0,?,0.0,0.0
2500000.0,5.96875,1.7430348735716608E-8,2500000.0,88.1,69.12843608289145,71.73396674584323,59.106529209622,245095.0,1112.0,0.0,1.0,0.0,?,0.0,0.0
2600000.0,6.21875,1.8120562243792745E-8,2600000.0,88.7,72.79337410314442,73.28605200945627,65.75757575757576,254900.0,1112.0,0.0,1.0,0.0,?,0.0,0.0
2700000.0,6.453125,1.870360898060931E-8,2700000.0,90.3,75.72572572572574,78.05429864253394,67.66666666666667,264705.0,1112.0,0.0,1.0,0.0,?,0.0,0.0
2800000.0,6.703125,1.957387818644444E-8,2800000.0,90.10000000000001,72.73628552544615,75.00000000000001,63.05970149253732,274505.0,1112.0,0.0,1.0,0.0,?,0.0,0.0
2900000.0,6.953125,2.0375850403474435E-8,2900000.0,88.6,70.84831406082984,71.99017199017199,61.87290969899667,284310.0,1112.0,0.0,1.0,0.0,?,0.0,0.0
3000000.0,7.1875,2.1120423399325873E-8,3000000.0,88.9,72.30677111920564,74.36489607390301,64.19354838709678,294115.0,1112.0,0.0,1.0,0.0,?,0.0,5.0
3100000.0,7.4375,2.1846337606095604E-8,3100000.0,88.3,71.23837243603612,71.32352941176471,62.135922330097095,303920.0,1112.0,0.0,1.0,0.0,?,0.0,55.0
3200000.0,7.6875,2.25039548240602E-8,3200000.0,87.6,69.36516720689382,71.02803738317758,60.509554140127385,313725.0,1112.0,0.0,1.0,0.0,?,0.0,0.0
3300000.0,7.9375,2.3409924728588924E-8,3300000.0,87.8,68.18525569144913,69.42355889724311,57.19298245614035,323525.0,1112.0,0.0,1.0,0.0,?,0.0,0.0
3400000.0,8.171875,2.419524308707979E-8,3400000.0,89.60000000000001,71.95631657004179,75.00000000000001,62.181818181818194,333330.0,1112.0,0.0,1.0,0.0,?,0.0,0.0
3500000.0,8.421875,2.4964619013998242E-8,3500000.0,87.9,67.62870932186158,68.32460732984293,55.67765567765568,343135.0,1112.0,0.0,1.0,0.0,?,0.0,0.0
3600000.0,8.671875,2.566569795211156E-8,3600000.0,87.5,68.5929648241206,71.5261958997722,58.333333333333336,352940.0,1112.0,0.0,1.0,0.0,?,0.0,0.0
3700000.0,8.90625,2.625893102958798E-8,3700000.0,88.7,70.35210158996694,71.75,61.0344827586207,362745.0,1112.0,0.0,1.0,0.0,?,0.0,0.0
3800000.0,9.15625,2.7140065665460292E-8,3800000.0,89.1,72.87450601738023,74.5920745920746,64.37908496732028,372545.0,1112.0,0.0,1.0,0.0,?,0.0,0.0
3900000.0,9.40625,2.7952903312527468E-8,3900000.0,90.10000000000001,75.3971251913557,75.91240875912409,67.43421052631581,382350.0,1112.0,0.0,1.0,0.0,?,0.0,0.0
4000000.0,9.640625,2.8650910179648132E-8,4000000.0,89.2,73.09577902666507,75.73033707865169,63.75838926174497,392155.0,1112.0,0.0,1.0,0.0,?,0.0,0.0
4100000.0,9.890625,2.932715384910504E-8,4100000.0,87.9,69.24250127097102,70.8433734939759,58.98305084745763,401960.0,1112.0,0.0,1.0,0.0,?,0.0,0.0
4200000.0,10.125,3.019396293287476E-8,4200000.0,88.0,69.77329974811083,70.07481296758104,59.18367346938776,411760.0,1112.0,0.0,1.0,0.0,?,0.0,0.0
4300000.0,10.375,3.105026230009066E-8,4300000.0,86.5,66.26045925763013,67.78042959427208,54.545454545454554,421565.0,1112.0,0.0,1.0,0.0,?,0.0,0.0
4400000.0,10.625,3.1838264678501424E-8,4400000.0,89.4,73.77328239741891,74.27184466019419,64.90066225165563,431370.0,1112.0,0.0,1.0,0.0,?,0.0,30.0
4500000.0,10.875,3.255797006810705E-8,4500000.0,89.2,72.51069028711058,72.8643216080402,63.265306122449,441175.0,1112.0,0.0,1.0,0.0,?,0.0,10.0
4600000.0,11.125,3.3209378468907544E-8,4600000.0,88.6,71.41882947571104,73.42657342657343,62.500000000000014,450980.0,1112.0,0.0,1.0,0.0,?,0.0,0.0
4700000.0,11.375,3.4109139556272165E-8,4700000.0,89.4,72.94814209881585,75.34883720930233,63.69863013698631,460780.0,1112.0,0.0,1.0,0.0,?,0.0,25.0
4800000.0,11.609375,3.488863714867168E-8,4800000.0,90.5,75.78803572156751,76.36815920398011,66.43109540636044,470585.0,1112.0,0.0,1.0,0.0,?,0.0,0.0
4900000.0,11.875,3.569950220278568E-8,4900000.0,91.0,77.04924721530867,79.35779816513762,68.53146853146855,480390.0,1112.0,0.0,1.0,0.0,?,0.0,0.0
5000000.0,12.125,3.6443008058187034E-8,5000000.0,89.60000000000001,73.38124708857391,74.19354838709677,64.01384083044984,490195.0,1112.0,0.0,1.0,0.0,?,0.0,0.0
5100000.0,12.375,3.706958119033111E-8,5100000.0,89.9,79.62427978889947,79.71887550200803,77.60532150776054,41534.0,1112.0,0.0,1.0,0.0,?,1.0,4.0
5200000.0,12.625,3.799314274349146E-8,5200000.0,91.4,82.79552683697761,83.00395256916997,82.37704918032787,51334.0,1112.0,0.0,1.0,0.0,?,0.0,0.0
5300000.0,12.875,3.884840730784668E-8,5300000.0,88.9,77.60742384506759,77.48478701825559,75.71115973741794,61139.0,1112.0,0.0,1.0,0.0,?,0.0,0.0
5400000.0,13.109375,3.9586189409924876E-8,5400000.0,88.8,77.46868751081301,78.544061302682,76.11940298507463,70944.0,1112.0,0.0,1.0,0.0,?,0.0,0.0
5500000.0,13.359375,4.030485999666982E-8,5500000.0,88.6,77.03344655441259,76.68711656441718,75.377969762419,80749.0,1112.0,0.0,1.0,0.0,?,0.0,0.0
5600000.0,13.609375,4.1271883269978894E-8,5600000.0,88.8,77.4687781640273,77.51004016064257,76.27118644067797,90549.0,1112.0,0.0,1.0,0.0,?,0.0,0.0
5700000.0,13.84375,4.2114439161701336E-8,5700000.0,90.4,80.40496407576748,79.66101694915255,77.57009345794394,100354.0,1112.0,0.0,1.0,0.0,?,0.0,0.0
5800000.0,14.09375,4.294486845740014E-8,5800000.0,88.8,77.39383174551912,76.66666666666667,75.75757575757575,110159.0,1112.0,0.0,1.0,0.0,?,0.0,0.0
5900000.0,14.328125,4.365936749511295E-8,5900000.0,89.1,77.82443462480572,78.45849802371542,75.3393665158371,119964.0,1112.0,0.0,1.0,0.0,?,0.0,0.0
6000000.0,14.578125,4.435320281320148E-8,6000000.0,90.3,80.35816978641029,80.56112224448898,78.25112107623319,129769.0,1112.0,0.0,1.0,0.0,?,0.0,0.0
6100000.0,14.84375,4.535427756814493E-8,6100000.0,89.2,78.25412869528799,79.7752808988764,76.57266811279827,139569.0,1112.0,0.0,1.0,0.0,?,0.0,0.0
6200000.0,15.09375,4.622816858399245E-8,6200000.0,90.9,81.71515833467289,80.8421052631579,80.67940552016985,149374.0,1112.0,0.0,1.0,0.0,?,0.0,0.0
6300000.0,15.328125,4.6983412984344694E-8,6300000.0,90.8,81.43634279810811,81.52610441767068,80.0865800865801,159179.0,1112.0,0.0,1.0,0.0,?,0.0,0.0
6400000.0,15.5625,4.767462895769212E-8,6400000.0,89.0,77.86907343846194,77.13097713097713,76.64543524416136,168984.0,1112.0,0.0,1.0,0.0,?,0.0,0.0
6500000.0,15.8125,4.86602786824935E-8,6500000.0,89.60000000000001,78.99863895025506,79.07444668008048,77.04194260485652,178784.0,1112.0,0.0,1.0,0.0,?,0.0,0.0
6600000.0,16.0625,4.9577631418489744E-8,6600000.0,90.5,80.75660959819801,81.40900195694717,78.84187082405344,188589.0,1112.0,0.0,1.0,0.0,?,0.0,0.0
6700000.0,16.3125,5.042668716568086E-8,6700000.0,89.4,78.7195599365602,79.61538461538463,77.8705636743215,198394.0,1112.0,0.0,1.0,0.0,?,0.0,0.0
6800000.0,16.546875,5.115864850166771E-8,6800000.0,89.0,77.82258064516128,76.74418604651163,75.55555555555556,208199.0,1112.0,0.0,1.0,0.0,?,0.0,0.0
6900000.0,16.78125,5.182658141064975E-8,6900000.0,90.2,80.19425795160123,79.75206611570248,78.27050997782705,218004.0,1112.0,0.0,1.0,0.0,?,0.0,0.0
7000000.0,17.015625,5.272734496328566E-8,7000000.0,89.0,77.33080537465997,76.03485838779956,72.97297297297298,227804.0,1112.0,0.0,1.0,0.0,?,0.0,0.0
7100000.0,17.28125,5.367564477233423E-8,7100000.0,90.10000000000001,80.13181238008846,81.1787072243346,79.11392405063292,237609.0,1112.0,0.0,1.0,0.0,?,0.0,0.0
7200000.0,17.515625,5.444835147096051E-8,7200000.0,90.4,80.48661503750229,80.3680981595092,78.42696629213484,247414.0,1112.0,0.0,1.0,0.0,?,0.0,0.0
7300000.0,17.765625,5.5204274960690075E-8,7300000.0,88.3,76.4892171914059,75.0,75.05330490405117,257219.0,1112.0,0.0,1.0,0.0,?,0.0,0.0
7400000.0,18.015625,5.58919014616145E-8,7400000.0,89.1,77.74492829375062,77.97979797979798,74.53271028037383,267024.0,1112.0,0.0,1.0,0.0,?,0.0,0.0
7500000.0,18.265625,5.682788064910306E-8,7500000.0,88.5,76.4487114373249,77.22772277227723,72.87735849056605,276824.0,1112.0,0.0,1.0,0.0,?,0.0,0.0
7600000.0,18.5,5.764133271036877E-8,7600000.0,88.6,77.22186700767264,77.55905511811024,77.4703557312253,286629.0,1112.0,0.0,1.0,0.0,?,0.0,0.0
7700000.0,18.734375,5.839075634462966E-8,7700000.0,90.4,80.64352223373753,81.98874296435274,78.80794701986756,296434.0,1112.0,0.0,1.0,0.0,?,0.0,0.0
7800000.0,18.96875,5.907615155188574E-8,7800000.0,90.10000000000001,79.5298904952526,79.62962962962963,75.67567567567568,306239.0,1112.0,0.0,1.0,0.0,?,0.0,0.0
7900000.0,19.21875,6.005559245952302E-8,7900000.0,89.7,79.26864614195543,78.63070539419087,77.94432548179871,316039.0,1112.0,0.0,1.0,0.0,?,0.0,0.0
8000000.0,19.46875,6.096673637835517E-8,8000000.0,89.60000000000001,79.12493326000298,80.07662835249043,77.91932059447984,325844.0,1112.0,0.0,1.0,0.0,?,0.0,0.0
8100000.0,19.71875,6.180958330838218E-8,8100000.0,88.5,76.81750741839762,75.94142259414227,74.94553376906318,335649.0,1112.0,0.0,1.0,0.0,?,0.0,0.0
8200000.0,19.96875,6.258413324960405E-8,8200000.0,87.8,75.41591436677844,75.98425196850394,73.70689655172413,345454.0,1112.0,0.0,1.0,0.0,?,0.0,0.0
8300000.0,20.21875,6.329038620202079E-8,8300000.0,88.8,77.3831496387362,78.33655705996132,75.27593818984548,355259.0,1112.0,0.0,1.0,0.0,?,0.0,0.0
8400000.0,20.46875,6.424499184100166E-8,8400000.0,90.5,80.76409080969005,81.03792415169661,79.25764192139738,365059.0,1112.0,0.0,1.0,0.0,?,0.0,0.0
8500000.0,20.703125,6.507590620054141E-8,8500000.0,89.0,77.60987445245966,76.74418604651163,74.65437788018434,374864.0,1112.0,0.0,1.0,0.0,?,0.0,0.0
8600000.0,20.953125,6.5893917861912E-8,8600000.0,88.2,76.20200064536947,76.20967741935483,74.34782608695653,384669.0,1112.0,0.0,1.0,0.0,?,0.0,0.0
8700000.0,21.203125,6.664363253447747E-8,8700000.0,89.60000000000001,78.57613711272248,78.94736842105263,75.81395348837209,394474.0,1112.0,0.0,1.0,0.0,?,0.0,0.0
8800000.0,21.4375,6.728246161300277E-8,8800000.0,89.9,79.58573184140741,79.80000000000001,77.99564270152506,404279.0,1112.0,0.0,1.0,0.0,?,0.0,0.0
8900000.0,21.6875,6.821223198332723E-8,8900000.0,90.60000000000001,81.05449854885521,81.74757281553399,79.56521739130436,414079.0,1112.0,0.0,1.0,0.0,?,0.0,0.0
9000000.0,21.921875,6.901986327850159E-8,9000000.0,89.5,78.85605200202981,79.72972972972974,77.32181425485962,423884.0,1112.0,0.0,1.0,0.0,?,0.0,0.0
9100000.0,22.1875,6.98626131957604E-8,9100000.0,88.8,77.41744260602712,77.46478873239437,75.49234135667396,433689.0,1112.0,0.0,1.0,0.0,?,0.0,0.0
9200000.0,22.421875,7.054218763692513E-8,9200000.0,88.4,76.61394051070315,76.75350701402806,74.83731019522777,443494.0,1112.0,0.0,1.0,0.0,?,0.0,0.0
9300000.0,22.65625,7.145459272174373E-8,9300000.0,87.6,74.91980405085616,75.49407114624506,72.00902934537245,453294.0,1112.0,0.0,1.0,0.0,?,0.0,0.0
9400000.0,22.890625,7.230296937955752E-8,9400000.0,89.60000000000001,78.94532262244105,79.03225806451614,76.57657657657658,463099.0,1112.0,0.0,1.0,0.0,?,0.0,0.0
9500000.0,23.125,7.308731761036649E-8,9500000.0,90.60000000000001,81.05411669857907,81.0483870967742,79.78494623655914,472904.0,1112.0,0.0,1.0,0.0,?,0.0,0.0
9600000.0,23.375,7.385565873442426E-8,9600000.0,88.7,77.29574204748204,77.1255060728745,76.40918580375782,482709.0,1112.0,0.0,1.0,0.0,?,0.0,0.0
9700000.0,23.609375,7.451195011122361E-8,9700000.0,89.9,79.34492744138868,80.5019305019305,76.62037037037038,492514.0,1112.0,0.0,1.0,0.0,?,0.0,0.0
9800000.0,23.859375,7.546034693304037E-8,9800000.0,90.8,81.4761122386521,81.88976377952757,80.0865800865801,502314.0,1112.0,0.0,1.0,0.0,?,0.0,0.0
9900000.0,24.109375,7.634044676605199E-8,9900000.0,90.9,81.74171956886381,82.79773156899812,81.00208768267224,512119.0,1112.0,0.0,1.0,0.0,?,0.0,0.0
1.0E7,24.375,7.720298728802139E-8,1.0E7,89.9,79.60815350820519,79.30327868852459,77.65486725663717,521924.0,1112.0,0.0,1.0,0.0,?,0.0,0.0
