learning evaluation instances,evaluation time (cpu seconds),model cost (RAM-Hours),classified instances,classifications correct (percent),Kappa Statistic (percent),Kappa Temporal Statistic (percent),Kappa M Statistic (percent),model training instances,model serialized size (bytes),labeling cost,newThreshold,maxPosterior,accuracyBaseLearner (percent),Change detected,Warning detected
100000.0,0.15625,6.540277455415991E-9,100000.0,68.10000000000001,0.0,25.813953488372114,0.0,560.0,8920.0,0.0,1.0,0.0,?,5.0,46.0
200000.0,0.34375,1.356671822981702E-8,200000.0,67.30000000000001,0.0,24.82758620689657,0.0,2362.0,9224.0,0.0,1.0,0.0,?,6.0,8.0
300000.0,0.515625,1.949290486259593E-8,300000.0,66.2,0.0,22.654462242562946,0.0,4434.0,9224.0,0.0,1.0,0.0,?,5.0,31.0
400000.0,0.6875,2.477133724217614E-8,400000.0,66.8,0.0,22.790697674418624,0.0,2052.0,9224.0,0.0,1.0,0.0,?,6.0,16.0
500000.0,0.84375,2.8880474726772973E-8,500000.0,67.80000000000001,0.0,23.333333333333353,0.0,3582.0,9224.0,0.0,1.0,0.0,?,6.0,16.0
600000.0,1.015625,3.276024168978135E-8,600000.0,66.5,0.0,21.361502347417858,0.0,1470.0,9224.0,0.0,1.0,0.0,?,5.0,18.0
700000.0,1.1875,3.6117821259217134E-8,700000.0,65.4,0.0,19.72157772621811,0.0,2058.0,9224.0,0.0,1.0,0.0,?,8.0,33.0
800000.0,1.328125,3.832272745461928E-8,800000.0,65.2,0.0,22.666666666666664,0.0,5969.0,9224.0,0.0,1.0,0.0,?,5.0,28.0
900000.0,1.5,4.028164160748323E-8,900000.0,66.8,0.0,23.325635103926114,0.0,2969.0,9224.0,0.0,1.0,0.0,?,6.0,37.0
1000000.0,1.65625,4.156641403420104E-8,1000000.0,68.10000000000001,0.0,24.941176470588257,0.0,2655.0,9224.0,0.0,1.0,0.0,?,6.0,16.0
1100000.0,1.828125,4.877957204977672E-8,1100000.0,68.5,0.0,26.056338028169034,0.0,7158.0,9224.0,0.0,1.0,0.0,?,6.0,26.0
1200000.0,1.984375,5.464076012786892E-8,1200000.0,65.2,0.0,25.0,0.0,1813.0,9224.0,0.0,1.0,0.0,?,7.0,18.0
1300000.0,2.140625,5.990758331285583E-8,1300000.0,66.8,0.0,26.05790645879733,0.0,549.0,8920.0,0.0,1.0,0.0,?,6.0,22.0
1400000.0,2.296875,6.471941661503581E-8,1400000.0,67.30000000000001,0.0,28.446389496717728,0.0,2038.0,9224.0,0.0,1.0,0.0,?,6.0,38.0
1500000.0,2.46875,6.924587069079281E-8,1500000.0,68.30000000000001,0.0,19.74683544303799,0.0,1788.0,9224.0,0.0,1.0,0.0,?,7.0,38.0
1600000.0,2.609375,7.252441719174387E-8,1600000.0,66.2,0.0,25.221238938053098,0.0,2983.0,9224.0,0.0,1.0,0.0,?,5.0,9.0
1700000.0,2.765625,7.558355314864055E-8,1700000.0,70.5,0.0,30.424528301886788,0.0,5047.0,9224.0,0.0,1.0,0.0,?,5.0,7.0
1800000.0,2.921875,7.80370060561432E-8,1800000.0,65.9,0.0,21.247113163972305,0.0,3440.0,9224.0,0.0,1.0,0.0,?,7.0,26.0
1900000.0,3.078125,7.993392905013432E-8,1900000.0,63.800000000000004,0.0,20.960698689956327,0.0,2366.0,9224.0,0.0,1.0,0.0,?,6.0,41.0
2000000.0,3.234375,8.113850425514912E-8,2000000.0,68.4,0.0,24.038461538461558,0.0,2946.0,9224.0,0.0,1.0,0.0,?,7.0,21.0
2100000.0,3.390625,8.758758970846735E-8,2100000.0,67.10000000000001,0.0,23.488372093023273,0.0,1160.0,9224.0,0.0,1.0,0.0,?,6.0,40.0
2200000.0,3.5625,9.404129943706925E-8,2200000.0,68.89999999999999,0.0,26.477541371158388,0.0,2677.0,9224.0,0.0,1.0,0.0,?,6.0,6.0
2300000.0,3.703125,9.889901977860267E-8,2300000.0,66.4,0.0,25.16703786191537,0.0,6543.0,9224.0,0.0,1.0,0.0,?,6.0,26.0
2400000.0,3.875,1.0415966648401487E-7,2400000.0,67.9,0.0,26.376146788990845,0.0,4450.0,9224.0,0.0,1.0,0.0,?,6.0,26.0
2500000.0,4.046875,1.0869252340247235E-7,2500000.0,66.9,0.0,25.45045045045045,0.0,3256.0,9224.0,0.0,1.0,0.0,?,6.0,16.0
2600000.0,4.203125,1.122312258101172E-7,2600000.0,67.9,0.0,29.60526315789474,0.0,4771.0,9224.0,0.0,1.0,0.0,?,6.0,17.0
2700000.0,4.375,1.1561014818855458E-7,2700000.0,68.89999999999999,0.0,20.66326530612244,0.0,4430.0,9224.0,0.0,1.0,0.0,?,6.0,41.0
2800000.0,4.53125,1.1809981919618117E-7,2800000.0,70.1,0.0,29.812206572769952,0.0,2346.0,9224.0,0.0,1.0,0.0,?,5.0,20.0
2900000.0,4.703125,1.2016544739405315E-7,2900000.0,65.4,0.0,24.12280701754386,0.0,3261.0,9224.0,0.0,1.0,0.0,?,5.0,19.0
3000000.0,4.875,1.2149688296226992E-7,3000000.0,66.60000000000001,0.0,29.237288135593225,0.0,4786.0,9224.0,0.0,1.0,0.0,?,7.0,32.0
3100000.0,5.03125,1.279517891816795E-7,3100000.0,68.89999999999999,0.0,26.995305164319245,0.0,2072.0,9224.0,0.0,1.0,0.0,?,6.0,20.0
3200000.0,5.203125,1.3452146150585678E-7,3200000.0,67.4,0.0,24.186046511627925,0.0,577.0,8920.0,0.0,1.0,0.0,?,6.0,23.0
3300000.0,5.359375,1.3991634154485332E-7,3300000.0,68.60000000000001,0.0,29.753914988814323,0.0,3102.0,9232.0,0.0,1.0,0.0,?,7.0,23.0
3400000.0,5.515625,1.447103891728653E-7,3400000.0,67.9,0.0,28.348214285714292,0.0,1500.0,9224.0,0.0,1.0,0.0,?,7.0,13.0
3500000.0,5.6875,1.4924964893402327E-7,3500000.0,65.5,0.0,23.672566371681413,0.0,3559.0,9224.0,0.0,1.0,0.0,?,5.0,12.0
3600000.0,5.84375,1.5279417210775948E-7,3600000.0,70.6,0.0,28.813559322033893,0.0,2052.0,9224.0,0.0,1.0,0.0,?,6.0,22.0
3700000.0,6.0,1.5575694204825498E-7,3700000.0,69.69999999999999,0.0,31.60270880361172,0.0,9257.0,9232.0,0.0,1.0,0.0,?,4.0,23.0
3800000.0,6.171875,1.5845467310605782E-7,3800000.0,64.7,0.0,17.523364485981322,0.0,867.0,8920.0,0.0,1.0,0.0,?,6.0,16.0
3900000.0,6.328125,1.6025296645239E-7,3900000.0,66.60000000000001,0.0,25.112107623318387,0.0,3551.0,9224.0,0.0,1.0,0.0,?,6.0,26.0
4000000.0,6.5,1.6171637172293337E-7,4000000.0,67.10000000000001,0.0,25.900900900900904,0.0,5973.0,9224.0,0.0,1.0,0.0,?,6.0,24.0
4100000.0,6.65625,1.682857530088061E-7,4100000.0,67.2,0.0,24.423963133640573,0.0,6581.0,9224.0,0.0,1.0,0.0,?,6.0,26.0
4200000.0,6.828125,1.7487890242288517E-7,4200000.0,67.2,0.0,21.904761904761923,0.0,5667.0,9224.0,0.0,1.0,0.0,?,6.0,24.0
4300000.0,7.0,1.8083034471298264E-7,4300000.0,67.2,0.0,23.543123543123563,0.0,3238.0,9224.0,0.0,1.0,0.0,?,7.0,30.0
4400000.0,7.15625,1.8565996368933061E-7,4400000.0,68.4,0.0,23.671497584541083,0.0,1165.0,9224.0,0.0,1.0,0.0,?,6.0,20.0
4500000.0,7.328125,1.9030309178762973E-7,4500000.0,65.9,0.0,26.82403433476395,0.0,5062.0,9232.0,0.0,1.0,0.0,?,5.0,22.0
4600000.0,7.5,1.9420847012144004E-7,4600000.0,68.5,0.0,29.84409799554566,0.0,2954.0,9224.0,0.0,1.0,0.0,?,6.0,22.0
4700000.0,7.65625,1.971644491681623E-7,4700000.0,69.39999999999999,0.0,22.72727272727272,0.0,845.0,8920.0,0.0,1.0,0.0,?,6.0,24.0
4800000.0,7.828125,1.9978925896187632E-7,4800000.0,68.8,0.0,24.637681159420282,0.0,3565.0,9224.0,0.0,1.0,0.0,?,5.0,20.0
4900000.0,7.984375,2.015936964501938E-7,4900000.0,67.10000000000001,0.0,26.7260579064588,0.0,3269.0,9232.0,0.0,1.0,0.0,?,7.0,25.0
5000000.0,8.15625,2.0308520308592262E-7,5000000.0,65.4,0.0,22.595078299776283,0.0,2975.0,9224.0,0.0,1.0,0.0,?,7.0,14.0
5100000.0,8.328125,2.1048653353419578E-7,5100000.0,64.3,0.0,22.052401746724886,0.0,28347.0,9232.0,0.0,1.0,0.0,?,2.0,16.0
5200000.0,8.484375,2.1663293915076397E-7,5200000.0,62.1,0.0,19.70338983050847,0.0,58347.0,9232.0,0.0,1.0,0.0,?,0.0,0.0
5300000.0,8.65625,2.2275370105894085E-7,5300000.0,61.8,0.0,22.983870967741936,0.0,88347.0,9232.0,0.0,1.0,0.0,?,0.0,0.0
5400000.0,8.8125,2.277359534572397E-7,5400000.0,63.4,0.0,25.910931174089068,0.0,118347.0,9232.0,0.0,1.0,0.0,?,0.0,0.0
5500000.0,8.984375,2.325761468253203E-7,5500000.0,60.8,0.0,17.819706498951778,0.0,148347.0,9232.0,0.0,1.0,0.0,?,0.0,0.0
5600000.0,9.140625,2.363942460053498E-7,5600000.0,60.8,0.0,18.16283924843423,0.0,178347.0,9232.0,0.0,1.0,0.0,?,0.0,0.0
5700000.0,9.3125,2.399538708333341E-7,5700000.0,63.800000000000004,0.0,21.132897603485834,0.0,208347.0,9232.0,0.0,1.0,0.0,?,0.0,0.0
5800000.0,9.46875,2.4260781679509426E-7,5800000.0,64.1,0.0,22.4622030237581,0.0,238347.0,9232.0,0.0,1.0,0.0,?,0.0,0.0
5900000.0,9.625,2.4467968614771976E-7,5900000.0,61.1,0.0,19.95884773662551,0.0,268347.0,9232.0,0.0,1.0,0.0,?,0.0,0.0
6000000.0,9.78125,2.461694788912106E-7,6000000.0,60.9,0.0,17.684210526315784,0.0,298347.0,9232.0,0.0,1.0,0.0,?,0.0,0.0
6100000.0,9.953125,2.535772121821842E-7,6100000.0,61.5,0.0,17.381974248927033,0.0,328047.0,9232.0,0.0,1.0,0.0,?,0.0,0.0
6200000.0,10.125,2.603446612031097E-7,6200000.0,63.1,0.0,23.284823284823283,0.0,358047.0,9232.0,0.0,1.0,0.0,?,0.0,0.0
6300000.0,10.296875,2.6647182595398704E-7,6300000.0,60.4,0.0,22.957198443579767,0.0,388047.0,9232.0,0.0,1.0,0.0,?,0.0,0.0
6400000.0,10.453125,2.714598991183772E-7,6400000.0,63.7,0.0,16.55172413793105,0.0,418047.0,9232.0,0.0,1.0,0.0,?,0.0,0.0
6500000.0,10.625,2.763064953291583E-7,6500000.0,61.3,0.0,13.99999999999999,0.0,448047.0,9232.0,0.0,1.0,0.0,?,0.0,0.0
6600000.0,10.796875,2.805128072698912E-7,6600000.0,61.1,0.0,15.434782608695643,0.0,478047.0,9232.0,0.0,1.0,0.0,?,0.0,0.0
6700000.0,10.96875,2.84078834940576E-7,6700000.0,61.1,0.0,16.880341880341874,0.0,508047.0,9232.0,0.0,1.0,0.0,?,0.0,0.0
6800000.0,11.125,2.8673860166842747E-7,6800000.0,61.7,0.0,21.030927835051543,0.0,538047.0,9232.0,0.0,1.0,0.0,?,0.0,0.0
6900000.0,11.296875,2.8902406079901596E-7,6900000.0,61.4,0.0,16.98924731182795,0.0,568047.0,9232.0,0.0,1.0,0.0,?,0.0,0.0
7000000.0,11.46875,2.906692356595563E-7,7000000.0,62.5,0.0,19.181034482758616,0.0,598047.0,9232.0,0.0,1.0,0.0,?,0.0,0.0
7100000.0,11.609375,2.967353470416533E-7,7100000.0,61.6,0.0,22.109533468559835,0.0,627747.0,9232.0,0.0,1.0,0.0,?,0.0,0.0
7200000.0,11.78125,3.035091989052793E-7,7200000.0,64.1,0.0,24.421052631578945,0.0,657747.0,9232.0,0.0,1.0,0.0,?,0.0,0.0
7300000.0,11.953125,3.096427664988572E-7,7300000.0,63.4,0.0,16.055045871559646,0.0,687747.0,9232.0,0.0,1.0,0.0,?,0.0,0.0
7400000.0,12.109375,3.1463666042933874E-7,7400000.0,60.4,0.0,20.321931589537222,0.0,717747.0,9232.0,0.0,1.0,0.0,?,0.0,0.0
7500000.0,12.28125,3.194896594828203E-7,7500000.0,60.099999999999994,0.0,18.06981519507186,0.0,747747.0,9232.0,0.0,1.0,0.0,?,0.0,0.0
7600000.0,12.453125,3.2370237426625375E-7,7600000.0,59.4,0.0,12.499999999999988,0.0,777747.0,9232.0,0.0,1.0,0.0,?,0.0,0.0
7700000.0,12.625,3.2727480477963904E-7,7700000.0,63.1,0.0,16.891891891891884,0.0,807747.0,9232.0,0.0,1.0,0.0,?,0.0,0.0
7800000.0,12.78125,3.299403922735819E-7,7800000.0,62.9,0.0,19.347826086956516,0.0,837747.0,9232.0,0.0,1.0,0.0,?,0.0,0.0
7900000.0,12.953125,3.322322542468709E-7,7900000.0,63.0,0.0,24.796747967479675,0.0,867747.0,9232.0,0.0,1.0,0.0,?,0.0,0.0
8000000.0,13.109375,3.337336885225444E-7,8000000.0,61.3,0.0,16.59482758620689,0.0,897747.0,9232.0,0.0,1.0,0.0,?,0.0,0.0
8100000.0,13.28125,3.41154227498919E-7,8100000.0,60.4,0.0,16.455696202531637,0.0,927447.0,9232.0,0.0,1.0,0.0,?,0.0,0.0
8200000.0,13.453125,3.479344822052455E-7,8200000.0,62.5,0.0,21.548117154811713,0.0,957447.0,9232.0,0.0,1.0,0.0,?,0.0,0.0
8300000.0,13.609375,3.53516273510953E-7,8300000.0,62.1,0.0,21.369294605809124,0.0,987447.0,9232.0,0.0,1.0,0.0,?,0.0,0.0
8400000.0,13.765625,3.585159882075259E-7,8400000.0,62.1,0.0,21.369294605809124,0.0,1017447.0,9232.0,0.0,1.0,0.0,?,0.0,0.0
8500000.0,13.921875,3.629336262949641E-7,8500000.0,60.4,0.0,12.1951219512195,0.0,1047447.0,9232.0,0.0,1.0,0.0,?,0.0,0.0
8600000.0,14.09375,3.67152743921098E-7,8600000.0,61.9,0.0,16.079295154185015,0.0,1077447.0,9232.0,0.0,1.0,0.0,?,0.0,0.0
8700000.0,14.25,3.7040622879026683E-7,8700000.0,63.9,0.0,21.691973969631235,0.0,1107447.0,9232.0,0.0,1.0,0.0,?,0.0,0.0
8800000.0,14.421875,3.7334477787630444E-7,8800000.0,63.1,0.0,17.44966442953019,0.0,1137447.0,9232.0,0.0,1.0,0.0,?,0.0,0.0
8900000.0,14.59375,3.756430426922939E-7,8900000.0,63.4,0.0,22.94736842105263,0.0,1167447.0,9232.0,0.0,1.0,0.0,?,0.0,0.0
9000000.0,14.734375,3.769995722298823E-7,9000000.0,61.199999999999996,0.0,18.65828092243186,0.0,1197447.0,9232.0,0.0,1.0,0.0,?,0.0,0.0
9100000.0,14.90625,3.8442651404895736E-7,9100000.0,62.6,0.0,20.594479830148614,0.0,1227147.0,9232.0,0.0,1.0,0.0,?,0.0,0.0
9200000.0,15.09375,3.9183014046607767E-7,9200000.0,60.9,0.0,16.452991452991444,0.0,1257147.0,9232.0,0.0,1.0,0.0,?,0.0,0.0
9300000.0,15.25,3.974177525378766E-7,9300000.0,61.6,0.0,18.123667377398714,0.0,1287147.0,9232.0,0.0,1.0,0.0,?,0.0,0.0
9400000.0,15.421875,4.029238415468072E-7,9400000.0,60.4,0.0,16.806722689075624,0.0,1317147.0,9232.0,0.0,1.0,0.0,?,0.0,0.0
9500000.0,15.59375,4.077896462856897E-7,9500000.0,66.60000000000001,0.0,27.39130434782609,0.0,1347147.0,9232.0,0.0,1.0,0.0,?,0.0,0.0
9600000.0,15.75,4.116310285300846E-7,9600000.0,63.3,0.0,19.340659340659336,0.0,1377147.0,9232.0,0.0,1.0,0.0,?,0.0,0.0
9700000.0,15.921875,4.1521626472887083E-7,9700000.0,62.4,0.0,20.338983050847453,0.0,1407147.0,9232.0,0.0,1.0,0.0,?,0.0,0.0
9800000.0,16.09375,4.181612166576089E-7,9800000.0,62.6,0.0,21.757322175732213,0.0,1437147.0,9232.0,0.0,1.0,0.0,?,0.0,0.0
9900000.0,16.25,4.2025636907459977E-7,9900000.0,62.8,0.0,21.51898734177215,0.0,1467147.0,9232.0,0.0,1.0,0.0,?,0.0,0.0
1.0E7,16.421875,4.2192075246324156E-7,1.0E7,62.6,0.0,19.04761904761904,0.0,1497147.0,9232.0,0.0,1.0,0.0,?,0.0,0.0
