learning evaluation instances,evaluation time (cpu seconds),model cost (RAM-Hours),classified instances,classifications correct (percent),Kappa Statistic (percent),Kappa Temporal Statistic (percent),Kappa M Statistic (percent),model training instances,model serialized size (bytes),labeling cost,newThreshold,maxPosterior,accuracyBaseLearner (percent),Change detected,Warning detected
100000.0,0.34375,1.5075137424800132E-9,100000.0,56.89999999999999,21.927644497257496,5.8951965065501994,-20.72829131652663,21471.0,3024.0,0.0,1.0,0.0,?,1.0,17.0
200000.0,0.6875,3.2071127659744687E-9,200000.0,70.0,38.785254592126144,36.30573248407642,20.84432717678099,51171.0,3024.0,0.0,1.0,0.0,?,0.0,11.0
300000.0,1.0625,5.200919177797106E-9,300000.0,64.5,30.732788561349285,28.282828282828287,7.068062827225137,80871.0,3024.0,0.0,1.0,0.0,?,0.0,0.0
400000.0,1.421875,7.245527942561442E-9,400000.0,69.1,36.252382799283694,37.322515212981735,15.573770491803263,110571.0,3024.0,0.0,1.0,0.0,?,0.0,0.0
500000.0,1.78125,9.424014327426753E-9,500000.0,69.1,37.013844723839334,35.35564853556484,21.37404580152671,140271.0,3024.0,0.0,1.0,0.0,?,0.0,0.0
600000.0,2.140625,1.173637833239304E-8,600000.0,68.7,35.52347522288691,34.79166666666668,20.35623409669213,169971.0,3024.0,0.0,1.0,0.0,?,0.0,0.0
700000.0,2.5,1.41826199574603E-8,700000.0,67.5,32.01974564926374,29.347826086956523,10.46831955922866,199671.0,3024.0,0.0,1.0,0.0,?,0.0,0.0
800000.0,2.84375,1.6650560105012524E-8,800000.0,68.0,34.23216047352845,31.034482758620697,11.111111111111121,229371.0,3024.0,0.0,1.0,0.0,?,0.0,0.0
900000.0,3.234375,1.9600556697696448E-8,900000.0,68.8,36.89958539791686,35.67010309278349,19.7943444730077,259071.0,3024.0,0.0,1.0,0.0,?,0.0,0.0
1000000.0,3.625,2.269607244266404E-8,1000000.0,68.89999999999999,37.557222481006136,34.388185654008424,20.66326530612244,288771.0,3024.0,0.0,1.0,0.0,?,0.0,0.0
1100000.0,4.03125,2.45382155602177E-8,1100000.0,67.30000000000001,34.60000000000001,29.67741935483871,15.064935064935078,318501.0,3024.0,0.0,1.0,0.0,?,0.0,0.0
1200000.0,4.453125,2.6608371020605167E-8,1200000.0,69.6,38.287644536832524,36.798336798336784,17.391304347826072,348201.0,3024.0,0.0,1.0,0.0,?,0.0,0.0
1300000.0,4.796875,2.8423221212708287E-8,1300000.0,69.39999999999999,37.44685026493097,40.4669260700389,22.72727272727272,377901.0,3024.0,0.0,1.0,0.0,?,0.0,0.0
1400000.0,5.15625,3.045444221546253E-8,1400000.0,69.89999999999999,37.559639878853254,30.64516129032258,16.85082872928175,407601.0,3024.0,0.0,1.0,0.0,?,0.0,0.0
1500000.0,5.515625,3.261954083831774E-8,1500000.0,70.3,39.22651933701657,33.85300668151446,23.255813953488364,437301.0,3024.0,0.0,1.0,0.0,?,0.0,0.0
1600000.0,5.859375,3.481856159244975E-8,1600000.0,65.60000000000001,31.291519695765253,25.217391304347824,11.568123393316206,467001.0,3024.0,0.0,1.0,0.0,?,0.0,0.0
1700000.0,6.25,3.746296796533797E-8,1700000.0,70.1,39.00846945935801,36.24733475479743,23.13624678663238,496701.0,3024.0,0.0,1.0,0.0,?,0.0,0.0
1800000.0,6.609375,4.0029699448496106E-8,1800000.0,69.6,38.22544461423415,37.44855967078188,20.83333333333332,526401.0,3024.0,0.0,1.0,0.0,?,0.0,0.0
1900000.0,6.953125,4.2612890764657E-8,1900000.0,66.8,32.902453910857275,28.60215053763441,14.211886304909575,556101.0,3024.0,0.0,1.0,0.0,?,0.0,0.0
2000000.0,7.328125,4.557061604120666E-8,2000000.0,68.30000000000001,35.50356052899289,31.681034482758623,15.466666666666681,585801.0,3024.0,0.0,1.0,0.0,?,0.0,0.0
2100000.0,7.6875,4.718681642164787E-8,2100000.0,70.7,40.62190950211571,40.56795131845841,23.498694516971273,615531.0,3024.0,0.0,1.0,0.0,?,0.0,0.0
2200000.0,8.046875,4.893689442219006E-8,2200000.0,69.19999999999999,37.5608173856633,35.29411764705881,14.444444444444427,645231.0,3024.0,0.0,1.0,0.0,?,0.0,0.0
2300000.0,8.4375,5.098467227071524E-8,2300000.0,68.89999999999999,38.03250205229976,28.832951945080087,15.027322404371567,674931.0,3024.0,0.0,1.0,0.0,?,0.0,0.0
2400000.0,8.78125,5.291477363142703E-8,2400000.0,69.39999999999999,38.97599323550879,38.55421686746987,22.92191435768261,704631.0,3024.0,0.0,1.0,0.0,?,0.0,0.0
2500000.0,9.140625,5.5066484492272143E-8,2500000.0,65.8,31.872509960159366,29.774127310061605,14.500000000000012,734331.0,3024.0,0.0,1.0,0.0,?,0.0,0.0
2600000.0,9.515625,5.745144638543328E-8,2600000.0,66.7,33.12339837568183,28.23275862068966,17.980295566502477,764031.0,3024.0,0.0,1.0,0.0,?,0.0,0.0
2700000.0,9.875,5.987091248648034E-8,2700000.0,68.60000000000001,35.26654104802234,29.119638826185106,14.905149051490529,793731.0,3024.0,0.0,1.0,0.0,?,0.0,0.0
2800000.0,10.234375,6.242425620762839E-8,2800000.0,70.19999999999999,40.05977930734851,35.07625272331153,19.6765498652291,823431.0,3024.0,0.0,1.0,0.0,?,0.0,0.0
2900000.0,10.59375,6.51114775488774E-8,2900000.0,68.8,36.47691180063523,36.45621181262728,15.67567567567566,853131.0,3024.0,0.0,1.0,0.0,?,0.0,0.0
3000000.0,10.953125,6.79325765102274E-8,3000000.0,67.0,33.42828208655938,28.87931034482759,14.728682170542648,882831.0,3024.0,0.0,1.0,0.0,?,0.0,0.0
3100000.0,11.328125,6.96050766338077E-8,3100000.0,66.8,33.32262210796916,29.957805907173,16.161616161616173,912561.0,3024.0,0.0,1.0,0.0,?,0.0,0.0
3200000.0,11.6875,7.134176687233979E-8,3200000.0,66.3,32.05645161290323,29.64509394572025,10.133333333333344,942261.0,3024.0,0.0,1.0,0.0,?,0.0,0.0
3300000.0,12.046875,7.321233473097286E-8,3300000.0,68.30000000000001,36.04280491643196,34.23236514522822,16.35883905013194,971961.0,3024.0,0.0,1.0,0.0,?,0.0,0.0
3400000.0,12.390625,7.512963040628369E-8,3400000.0,67.5,34.23608637938292,32.43243243243244,14.248021108179431,1001661.0,3024.0,0.0,1.0,0.0,?,0.0,0.0
3500000.0,12.75,7.72679535051187E-8,3500000.0,67.5,34.50485671677886,27.937915742793795,17.721518987341785,1031361.0,3024.0,0.0,1.0,0.0,?,0.0,0.0
3600000.0,13.109375,7.954015422405469E-8,3600000.0,68.30000000000001,35.61935400012998,30.1762114537445,16.797900262467206,1061061.0,3024.0,0.0,1.0,0.0,?,0.0,0.0
3700000.0,13.5,8.215545676648619E-8,3700000.0,67.60000000000001,34.61414271876009,29.565217391304355,10.000000000000009,1090761.0,3024.0,0.0,1.0,0.0,?,0.0,0.0
3800000.0,13.859375,8.469541272562413E-8,3800000.0,66.5,32.75144935682283,25.05592841163311,8.967391304347833,1120461.0,3024.0,0.0,1.0,0.0,?,0.0,0.0
3900000.0,14.21875,8.736924630486305E-8,3900000.0,68.7,37.06012467323548,34.10526315789475,14.246575342465768,1150161.0,3024.0,0.0,1.0,0.0,?,0.0,0.0
4000000.0,14.59375,9.029903190417424E-8,4000000.0,68.5,36.944006277574495,33.962264150943405,19.02313624678665,1179861.0,3024.0,0.0,1.0,0.0,?,0.0,0.0
4100000.0,14.953125,9.188845676059526E-8,4100000.0,68.10000000000001,36.13613613613615,32.12765957446809,14.933333333333346,1209591.0,3024.0,0.0,1.0,0.0,?,0.0,0.0
4200000.0,15.3125,9.361175923711726E-8,4200000.0,67.60000000000001,35.340956714362704,30.91684434968018,17.135549872122777,1239291.0,3024.0,0.0,1.0,0.0,?,0.0,0.0
4300000.0,15.6875,9.554968629446296E-8,4300000.0,70.7,41.237816373189986,37.52665245202558,23.896103896103888,1268991.0,3024.0,0.0,1.0,0.0,?,0.0,0.0
4400000.0,16.03125,9.745417628437282E-8,4400000.0,68.2,36.18763244076287,33.19327731092438,19.696969696969713,1298691.0,3024.0,0.0,1.0,0.0,?,0.0,0.0
4500000.0,16.390625,9.957911162119774E-8,4500000.0,66.7,32.27577791336182,27.608695652173914,0.29940119760479067,1328391.0,3024.0,0.0,1.0,0.0,?,0.0,0.0
4600000.0,16.75,1.0183792457812363E-7,4600000.0,68.7,36.34226304271782,31.05726872246697,14.480874316939904,1358091.0,3024.0,0.0,1.0,0.0,?,0.0,0.0
4700000.0,17.125,1.0433464518023863E-7,4700000.0,66.9,33.30378012412348,29.872881355932208,11.96808510638299,1387791.0,3024.0,0.0,1.0,0.0,?,0.0,0.0
4800000.0,17.484375,1.0686121337736648E-7,4800000.0,68.4,36.608303509813695,33.89121338912135,15.508021390374346,1417491.0,3024.0,0.0,1.0,0.0,?,0.0,0.0
4900000.0,17.84375,1.095216591945953E-7,4900000.0,67.60000000000001,33.77591732618224,31.789473684210535,12.903225806451623,1447191.0,3024.0,0.0,1.0,0.0,?,0.0,0.0
5000000.0,18.21875,1.1275878124352959E-7,5000000.0,67.9,35.41247484909458,30.6695464362851,14.400000000000013,1476891.0,3024.0,0.0,1.0,0.0,?,0.0,0.0
5100000.0,18.578125,1.146397618059483E-7,5100000.0,73.1,43.671999329927125,43.84133611691022,37.73148148148148,24629.0,3024.0,0.0,1.0,0.0,?,1.0,6.0
5200000.0,18.9375,1.1665461998846797E-7,5200000.0,80.80000000000001,60.75609915625615,62.64591439688717,57.52212389380532,54329.0,3024.0,0.0,1.0,0.0,?,0.0,0.0
5300000.0,19.28125,1.187099324953225E-7,5300000.0,83.5,66.54501216545012,65.6964656964657,64.13043478260867,84029.0,3024.0,0.0,1.0,0.0,?,0.0,0.0
5400000.0,19.640625,1.2099254591804413E-7,5400000.0,82.6,64.82858990944372,65.61264822134386,62.173913043478244,113729.0,3024.0,0.0,1.0,0.0,?,0.0,0.0
5500000.0,20.03125,1.2361916661676435E-7,5500000.0,81.8,63.169376348263896,62.24066390041493,60.691144708423316,143429.0,3024.0,0.0,1.0,0.0,?,0.0,0.0
5600000.0,20.390625,1.2616953527968793E-7,5600000.0,83.6,66.68833279168021,67.71653543307086,63.71681415929202,173129.0,3024.0,0.0,1.0,0.0,?,0.0,0.0
5700000.0,20.734375,1.2873707520258098E-7,5700000.0,85.6,70.65739657751135,70.61224489795917,66.74364896073904,202829.0,3024.0,0.0,1.0,0.0,?,0.0,0.0
5800000.0,21.109375,1.3167772623192936E-7,5800000.0,83.1,65.64873083239831,66.1322645290581,61.67800453514738,232529.0,3024.0,0.0,1.0,0.0,?,0.0,0.0
5900000.0,21.46875,1.3462972775515586E-7,5900000.0,83.39999999999999,66.74612872854023,65.1991614255765,66.8,262229.0,3024.0,0.0,1.0,0.0,?,0.0,0.0
6000000.0,21.8125,1.375814382400778E-7,6000000.0,83.8,67.26783397922112,68.48249027237352,64.55142231947482,291929.0,3024.0,0.0,1.0,0.0,?,0.0,0.0
6100000.0,22.171875,1.394490310404864E-7,6100000.0,83.6,66.95573680647345,68.33976833976834,65.25423728813558,321659.0,3024.0,0.0,1.0,0.0,?,0.0,0.0
6200000.0,22.53125,1.41450501460996E-7,6200000.0,83.3,66.33906039619126,66.12576064908721,63.85281385281384,351359.0,3024.0,0.0,1.0,0.0,?,0.0,0.0
6300000.0,22.890625,1.4358584950160654E-7,6300000.0,81.39999999999999,62.6709909447049,63.88349514563105,61.57024793388428,381059.0,3024.0,0.0,1.0,0.0,?,0.0,0.0
6400000.0,23.28125,1.4605239913281472E-7,6400000.0,82.5,64.96356210458876,66.91871455576559,64.78873239436619,410759.0,3024.0,0.0,1.0,0.0,?,0.0,0.0
6500000.0,23.640625,1.4845550241362721E-7,6500000.0,83.3,66.47394202200272,64.69344608879491,64.98951781970649,440459.0,3024.0,0.0,1.0,0.0,?,0.0,0.0
6600000.0,23.984375,1.5088217979710967E-7,6600000.0,84.2,68.34073385377425,69.3798449612403,67.21991701244812,470159.0,3024.0,0.0,1.0,0.0,?,0.0,0.0
6700000.0,24.359375,1.536691626016465E-7,6700000.0,82.39999999999999,64.47616471756531,62.790697674418595,61.14790286975717,499859.0,3024.0,0.0,1.0,0.0,?,0.0,0.0
6800000.0,24.71875,1.5647389874276192E-7,6800000.0,84.7,69.05164531971874,70.1171875,66.5938864628821,529559.0,3024.0,0.0,1.0,0.0,?,0.0,0.0
6900000.0,25.0625,1.5928474668827326E-7,6900000.0,83.7,66.93041184824507,67.46506986027944,63.777777777777764,559259.0,3024.0,0.0,1.0,0.0,?,0.0,0.0
7000000.0,25.421875,1.6235723806959063E-7,7000000.0,83.7,67.12861383582859,66.93711967545639,63.938053097345126,588959.0,3024.0,0.0,1.0,0.0,?,0.0,0.0
7100000.0,25.78125,1.6421144310798914E-7,7100000.0,83.2,66.22124281698748,66.53386454183267,64.48202959830866,618689.0,3024.0,0.0,1.0,0.0,?,0.0,0.0
7200000.0,26.140625,1.6619952576648863E-7,7200000.0,84.0,67.96155386463755,68.44181459566074,67.21311475409836,648389.0,3024.0,0.0,1.0,0.0,?,0.0,0.0
7300000.0,26.5,1.6832148604508908E-7,7300000.0,82.19999999999999,64.2971758664955,64.75247524752474,62.91666666666666,678089.0,3024.0,0.0,1.0,0.0,?,0.0,0.0
7400000.0,26.859375,1.705773239437905E-7,7400000.0,85.5,70.8844695752747,71.78988326848248,69.08315565031982,707789.0,3024.0,0.0,1.0,0.0,?,0.0,0.0
7500000.0,27.203125,1.7286313878786238E-7,7500000.0,83.7,67.13736179546937,68.10176125244618,64.79481641468682,737489.0,3024.0,0.0,1.0,0.0,?,0.0,0.0
7600000.0,27.5625,1.7538673192676576E-7,7600000.0,83.5,66.86081542478408,68.33013435700576,65.26315789473684,767189.0,3024.0,0.0,1.0,0.0,?,0.0,0.0
7700000.0,27.9375,1.7815974489268334E-7,7700000.0,84.3,68.34932666720425,70.09523809523809,66.16379310344827,796889.0,3024.0,0.0,1.0,0.0,?,0.0,0.0
7800000.0,28.34375,1.813151821908024E-7,7800000.0,83.39999999999999,66.59153115440347,66.59959758551307,64.9789029535865,826589.0,3024.0,0.0,1.0,0.0,?,0.0,0.0
7900000.0,28.6875,1.841132244509128E-7,7900000.0,83.39999999999999,66.70717961677155,66.32860040567951,65.63146997929606,856289.0,3024.0,0.0,1.0,0.0,?,0.0,0.0
8000000.0,29.015625,1.8690631905984554E-7,8000000.0,85.0,69.70296789726478,68.74999999999999,66.13995485327312,885989.0,3024.0,0.0,1.0,0.0,?,0.0,0.0
8100000.0,29.390625,1.8882717186998996E-7,8100000.0,83.8,67.47144715917305,68.6046511627907,65.82278481012658,915719.0,3024.0,0.0,1.0,0.0,?,0.0,0.0
8200000.0,29.75,1.9080186676647935E-7,8200000.0,84.3,68.36922184256333,66.80761099365749,66.45299145299145,945419.0,3024.0,0.0,1.0,0.0,?,0.0,0.0
8300000.0,30.09375,1.92818762217131E-7,8300000.0,83.1,66.01293519531501,67.62452107279692,63.88888888888887,975119.0,3024.0,0.0,1.0,0.0,?,0.0,0.0
8400000.0,30.453125,1.9506121235382234E-7,8400000.0,84.1,68.08126229574015,68.88454011741683,66.17021276595743,1004819.0,3024.0,0.0,1.0,0.0,?,0.0,0.0
8500000.0,30.828125,1.9754085870873605E-7,8500000.0,84.2,68.13385394817514,68.0161943319838,65.94827586206897,1034519.0,3024.0,0.0,1.0,0.0,?,0.0,0.0
8600000.0,31.1875,2.0005106408562933E-7,8600000.0,83.6,67.09100540991764,66.66666666666666,65.97510373443983,1064219.0,3024.0,0.0,1.0,0.0,?,0.0,0.0
8700000.0,31.5625,2.028101072129277E-7,8700000.0,83.89999999999999,67.46212672390098,66.66666666666666,64.69298245614034,1093919.0,3024.0,0.0,1.0,0.0,?,0.0,0.0
8800000.0,31.90625,2.0546728693362748E-7,8800000.0,85.1,69.96209983065881,69.65376782077392,68.09421841541756,1123619.0,3024.0,0.0,1.0,0.0,?,0.0,0.0
8900000.0,32.265625,2.083791251708237E-7,8900000.0,84.8,69.54701180053291,69.9009900990099,68.65979381443297,1153319.0,3024.0,0.0,1.0,0.0,?,0.0,0.0
9000000.0,32.625,2.1142484102812087E-7,9000000.0,83.6,67.02271411106105,67.90606653620351,65.0319829424307,1183019.0,3024.0,0.0,1.0,0.0,?,0.0,0.0
9100000.0,32.984375,2.1325227054249917E-7,9100000.0,83.3,66.29585378455178,68.3111954459203,63.13465783664458,1212749.0,3024.0,0.0,1.0,0.0,?,0.0,0.0
9200000.0,33.359375,2.1529885190021668E-7,9200000.0,85.0,69.8431845597105,70.11952191235059,68.35443037974683,1242449.0,3024.0,0.0,1.0,0.0,?,0.0,0.0
9300000.0,33.71875,2.1739403665479693E-7,9300000.0,83.8,67.37817156665324,68.11023622047243,65.23605150214591,1272149.0,3024.0,0.0,1.0,0.0,?,0.0,0.0
9400000.0,34.0625,2.1952618327405725E-7,9400000.0,83.0,65.9027546562797,63.362068965517224,64.36058700209642,1301849.0,3024.0,0.0,1.0,0.0,?,0.0,0.0
9500000.0,34.421875,2.2188912326883945E-7,9500000.0,82.3,64.40780213151014,63.048016701461364,62.57928118393233,1331549.0,3024.0,0.0,1.0,0.0,?,0.0,0.0
9600000.0,34.78125,2.2438594088372263E-7,9600000.0,83.39999999999999,66.633568238373,67.8916827852998,64.75583864118894,1361249.0,3024.0,0.0,1.0,0.0,?,0.0,0.0
9700000.0,35.125,2.2690225806501183E-7,9700000.0,85.1,69.885605723756,68.4322033898305,67.25274725274724,1390949.0,3024.0,0.0,1.0,0.0,?,0.0,0.0
9800000.0,35.484375,2.2966683092009696E-7,9800000.0,82.39999999999999,64.63662118989731,65.55772994129157,62.31263383297644,1420649.0,3024.0,0.0,1.0,0.0,?,0.0,0.0
9900000.0,35.828125,2.3243926180940542E-7,9900000.0,84.89999999999999,69.47990524622237,69.55645161290323,67.31601731601731,1450349.0,3024.0,0.0,1.0,0.0,?,0.0,0.0
1.0E7,36.203125,2.356034302566615E-7,1.0E7,83.6,67.04921721798951,66.80161943319838,65.69037656903764,1480049.0,3024.0,0.0,1.0,0.0,?,0.0,0.0
