learning evaluation instances,evaluation time (cpu seconds),model cost (RAM-Hours),classified instances,classifications correct (percent),Kappa Statistic (percent),Kappa Temporal Statistic (percent),Kappa M Statistic (percent),model training instances,model serialized size (bytes),labeling cost,newThreshold,maxPosterior,accuracyBaseLearner (percent),Change detected,Warning detected,tree size (nodes),tree size (leaves),active learning leaves,tree depth,active leaf byte size estimate,inactive leaf byte size estimate,byte size estimate overhead
100000.0,0.515625,5.654243674750129E-8,100000.0,89.7,79.28065658191181,77.7537796976242,77.36263736263737,29700.0,226488.0,0.0,1.0,0.0,?,0.0,1.0,77.0,54.0,54.0,4.0,0.0,0.0,1.0
200000.0,1.09375,1.3746230656074154E-7,200000.0,91.2,81.99959908197955,80.78602620087338,79.67667436489609,59700.0,358240.0,0.0,1.0,0.0,?,0.0,0.0,136.0,88.0,88.0,5.0,0.0,0.0,1.0
300000.0,1.578125,2.1683850920655663E-7,300000.0,91.60000000000001,82.7166183829339,82.3529411764706,80.18867924528304,89700.0,465376.0,0.0,1.0,0.0,?,0.0,0.0,174.0,110.0,110.0,5.0,0.0,0.0,1.0
400000.0,2.046875,3.032943479613298E-7,400000.0,94.1,87.9606578786271,88.1763527054108,86.24708624708623,119700.0,559600.0,0.0,1.0,0.0,?,0.0,0.0,215.0,132.0,132.0,6.0,0.0,0.0,1.0
500000.0,2.5625,4.0871822016520634E-7,500000.0,92.7,84.7254770672916,84.50106157112526,81.93069306930695,149700.0,651760.0,0.0,1.0,0.0,?,0.0,0.0,255.0,155.0,155.0,6.0,0.0,0.0,1.0
600000.0,3.046875,5.1399010569892E-7,600000.0,93.30000000000001,86.36104551746601,87.21374045801528,84.30913348946137,179700.0,716440.0,0.0,1.0,0.0,?,0.0,0.0,280.0,169.0,169.0,6.0,0.0,0.0,1.0
700000.0,3.5625,6.398262404319313E-7,700000.0,94.89999999999999,89.51126613414063,89.30817610062893,88.0281690140845,209700.0,834496.0,0.0,1.0,0.0,?,0.0,0.0,321.0,197.0,197.0,7.0,0.0,0.0,1.0
800000.0,4.078125,7.722178189497855E-7,800000.0,94.0,87.76054734832258,87.60330578512395,86.14318706697458,239700.0,898584.0,0.0,1.0,0.0,?,0.0,0.0,354.0,218.0,218.0,7.0,0.0,0.0,1.0
900000.0,4.640625,9.341550240707066E-7,900000.0,95.8,91.45646867371846,91.78082191780821,90.45454545454544,269700.0,1033640.0,0.0,1.0,0.0,?,0.0,0.0,402.0,251.0,251.0,7.0,0.0,0.0,1.0
1000000.0,5.171875,1.096996517541508E-6,1000000.0,94.6,88.9518135393479,88.95705521472391,87.38317757009345,299700.0,1120544.0,0.0,1.0,0.0,?,0.0,0.0,435.0,272.0,272.0,7.0,0.0,0.0,1.0
1100000.0,5.703125,1.2873788364231586E-6,1100000.0,95.6,90.9899209979891,90.8902691511387,89.83833718244803,329400.0,1183792.0,0.0,1.0,0.0,?,0.0,0.0,456.0,287.0,287.0,7.0,0.0,0.0,1.0
1200000.0,6.25,1.4916998528254528E-6,1200000.0,93.0,85.5732569402939,86.19329388560159,83.05084745762713,359400.0,1257584.0,0.0,1.0,0.0,?,0.0,0.0,490.0,307.0,307.0,7.0,0.0,0.0,1.0
1300000.0,6.765625,1.6907300838890175E-6,1300000.0,95.7,91.15975757177043,91.20654396728015,89.78622327790973,389400.0,1320400.0,0.0,1.0,0.0,?,0.0,0.0,514.0,322.0,322.0,8.0,0.0,0.0,1.0
1400000.0,7.3125,1.913955816740377E-6,1400000.0,95.39999999999999,90.53933989272434,90.63136456211812,88.99521531100477,419400.0,1421072.0,0.0,1.0,0.0,?,0.0,0.0,538.0,340.0,340.0,8.0,0.0,0.0,1.0
1500000.0,7.84375,2.1308135668126246E-6,1500000.0,95.3,90.35644230690313,90.38854805725971,88.88888888888889,449400.0,1436264.0,0.0,1.0,0.0,?,0.0,0.0,546.0,344.0,344.0,8.0,0.0,0.0,1.0
1600000.0,8.40625,2.3659352640000484E-6,1600000.0,95.19999999999999,90.16695687800879,89.8520084566596,88.59857482185272,479400.0,1489128.0,0.0,1.0,0.0,?,0.0,0.0,573.0,362.0,362.0,8.0,0.0,0.0,1.0
1700000.0,8.96875,2.6117427235779666E-6,1700000.0,96.0,91.77942554625716,91.70124481327801,90.521327014218,509400.0,1577352.0,0.0,1.0,0.0,?,0.0,0.0,605.0,381.0,381.0,8.0,0.0,0.0,1.0
1800000.0,9.5,2.8471167833130395E-6,1800000.0,96.0,91.88785774547343,91.85336048879836,91.03139013452915,539400.0,1615872.0,0.0,1.0,0.0,?,0.0,0.0,627.0,395.0,395.0,8.0,0.0,0.0,1.0
1900000.0,10.078125,3.1114048518550894E-6,1900000.0,96.6,93.04774562928125,92.93139293139292,92.0,569400.0,1685248.0,0.0,1.0,0.0,?,0.0,0.0,653.0,411.0,411.0,8.0,0.0,0.0,1.0
2000000.0,10.625,3.365710241875301E-6,2000000.0,95.5,90.83794150941858,90.9819639278557,89.60739030023093,599400.0,1730632.0,0.0,1.0,0.0,?,0.0,0.0,667.0,418.0,418.0,8.0,0.0,0.0,1.0
2100000.0,11.1875,3.650346867895375E-6,2100000.0,96.7,93.21082646872453,93.38677354709418,92.12410501193317,629100.0,1752096.0,0.0,1.0,0.0,?,0.0,0.0,680.0,426.0,426.0,8.0,0.0,0.0,1.0
2200000.0,11.765625,3.9555477431147464E-6,2200000.0,96.3,92.39309210526315,91.99134199134198,91.08433734939759,659100.0,1851592.0,0.0,1.0,0.0,?,0.0,0.0,726.0,458.0,458.0,8.0,0.0,0.0,1.0
2300000.0,12.328125,4.2589598322390685E-6,2300000.0,96.89999999999999,93.69887962014407,93.4322033898305,92.82407407407408,689100.0,1910984.0,0.0,1.0,0.0,?,0.0,0.0,753.0,476.0,476.0,8.0,0.0,0.0,1.0
2400000.0,12.890625,4.569496539059199E-6,2400000.0,95.0,89.7166737964395,89.73305954825462,88.03827751196171,719100.0,1974944.0,0.0,1.0,0.0,?,0.0,0.0,783.0,497.0,497.0,8.0,0.0,0.0,1.0
2500000.0,13.46875,4.8949372527810435E-6,2500000.0,94.89999999999999,89.59905371782844,89.375,88.13953488372091,749100.0,2031824.0,0.0,1.0,0.0,?,0.0,0.0,797.0,504.0,504.0,8.0,0.0,0.0,1.0
2600000.0,14.046875,5.223986582778808E-6,2600000.0,96.5,92.84972992408456,92.79835390946502,91.78403755868544,779100.0,2071008.0,0.0,1.0,0.0,?,0.0,0.0,804.0,509.0,509.0,8.0,0.0,0.0,1.0
2700000.0,14.59375,5.5347061910045645E-6,2700000.0,94.89999999999999,89.55577217657708,89.8,88.0281690140845,809100.0,2082336.0,0.0,1.0,0.0,?,0.0,0.0,815.0,516.0,516.0,8.0,0.0,0.0,1.0
2800000.0,15.171875,5.865916383400973E-6,2800000.0,96.7,93.2012031810128,93.26530612244898,92.04819277108433,839100.0,2115672.0,0.0,1.0,0.0,?,0.0,0.0,821.0,519.0,519.0,8.0,0.0,0.0,1.0
2900000.0,15.734375,6.190904888272699E-6,2900000.0,96.3,92.43205210020781,92.570281124498,91.27358490566037,869100.0,2149528.0,0.0,1.0,0.0,?,0.0,0.0,837.0,530.0,530.0,8.0,0.0,0.0,1.0
3000000.0,16.296875,6.516981876403507E-6,3000000.0,95.89999999999999,91.46338416436942,91.49377593360995,89.92628992628991,899100.0,2172120.0,0.0,1.0,0.0,?,0.0,0.0,846.0,536.0,536.0,8.0,0.0,0.0,1.0
3100000.0,16.84375,6.857292804246148E-6,3100000.0,96.3,92.42752940983847,92.40246406570841,91.23222748815165,928800.0,2199704.0,0.0,1.0,0.0,?,0.0,0.0,864.0,548.0,548.0,8.0,0.0,0.0,1.0
3200000.0,17.421875,7.219062568361147E-6,3200000.0,96.3,92.4081384755542,92.19409282700421,91.23222748815165,958800.0,2228240.0,0.0,1.0,0.0,?,0.0,0.0,866.0,549.0,549.0,8.0,0.0,0.0,1.0
3300000.0,18.0,7.5819558373445436E-6,3300000.0,96.1,91.89822508808084,91.94214876033057,90.34653465346534,988800.0,2250864.0,0.0,1.0,0.0,?,0.0,0.0,875.0,555.0,555.0,8.0,0.0,0.0,1.0
3400000.0,18.65625,7.99904845836055E-6,3400000.0,96.3,92.50787685379424,92.27557411273486,91.6289592760181,1018800.0,2296360.0,0.0,1.0,0.0,?,0.0,0.0,899.0,573.0,573.0,8.0,3905.5575221238937,0.0,1.0182793749773411
3500000.0,19.234375,8.368977093293021E-6,3500000.0,96.8,93.45279258856121,93.67588932806323,92.50585480093676,1048800.0,2328080.0,0.0,1.0,0.0,?,0.0,0.0,910.0,580.0,580.0,8.0,3905.5575221238937,0.0,1.0182793749773411
3600000.0,19.828125,8.75070403304158E-6,3600000.0,96.6,92.99774692209787,93.10344827586206,91.76755447941888,1078800.0,2354920.0,0.0,1.0,0.0,?,0.0,0.0,928.0,592.0,592.0,8.0,3905.5575221238937,0.0,1.0182793749773411
3700000.0,20.40625,9.126351894034694E-6,3700000.0,95.7,91.17717062120926,90.6318082788671,89.71291866028707,1108800.0,2396472.0,0.0,1.0,0.0,?,0.0,0.0,937.0,598.0,598.0,8.0,3905.5575221238937,0.0,1.0182793749773411
3800000.0,21.0,9.514011617284268E-6,3800000.0,96.7,93.13358302122346,93.64161849710982,91.75,1138800.0,2423688.0,0.0,1.0,0.0,?,0.0,0.0,953.0,609.0,609.0,8.0,3905.5575221238937,0.0,1.0182793749773411
3900000.0,21.59375,9.902771141949214E-6,3900000.0,95.89999999999999,91.57626561472715,91.5289256198347,90.16786570743405,1168800.0,2445976.0,0.0,1.0,0.0,?,0.0,0.0,962.0,615.0,615.0,8.0,3905.5575221238937,0.0,1.0182793749773411
4000000.0,22.1875,1.0297261922258056E-5,4000000.0,96.7,93.12247824202207,93.55468749999999,91.66666666666666,1198800.0,2498264.0,0.0,1.0,0.0,?,0.0,0.0,973.0,622.0,622.0,8.0,3905.5575221238937,0.0,1.0182793749773411
4100000.0,22.796875,1.07266574114975E-5,4100000.0,97.6,95.07710484535956,95.36679536679536,94.29928741092635,1228500.0,2516768.0,0.0,1.0,0.0,?,0.0,0.0,979.0,625.0,625.0,9.0,3905.5575221238937,0.0,1.0182793749773411
4200000.0,23.40625,1.1156230725141036E-5,4200000.0,96.7,93.1163380587239,93.00847457627118,91.72932330827066,1258500.0,2532992.0,0.0,1.0,0.0,?,0.0,0.0,989.0,630.0,630.0,9.0,3905.5575221238937,0.0,1.0182793749773411
4300000.0,24.015625,1.1588765256520775E-5,4300000.0,96.1,91.99809595719186,92.29249011857706,90.64748201438849,1288500.0,2566792.0,0.0,1.0,0.0,?,0.0,0.0,999.0,635.0,635.0,9.0,3905.5575221238937,0.0,1.0182793749773411
4400000.0,24.640625,1.203142028922836E-5,4400000.0,96.7,93.24185951259471,92.9936305732484,92.23529411764704,1318500.0,2575952.0,0.0,1.0,0.0,?,0.0,0.0,1001.0,636.0,636.0,9.0,3905.5575221238937,0.0,1.0182793749773411
4500000.0,25.25,1.24620920784461E-5,4500000.0,97.89999999999999,95.68249477787464,95.69672131147541,94.98806682577565,1348500.0,2585280.0,0.0,1.0,0.0,?,0.0,0.0,1007.0,639.0,639.0,9.0,3905.5575221238937,0.0,1.0182793749773411
4600000.0,25.859375,1.2893954408355058E-5,4600000.0,96.7,93.24600900532131,93.27902240325865,92.23529411764704,1378500.0,2607928.0,0.0,1.0,0.0,?,0.0,0.0,1020.0,647.0,647.0,9.0,3905.5575221238937,0.0,1.0182793749773411
4700000.0,26.484375,1.334133460962524E-5,4700000.0,96.6,92.99272479957132,93.28063241106719,91.76755447941888,1408500.0,2650456.0,0.0,1.0,0.0,?,0.0,0.0,1031.0,654.0,654.0,9.0,3905.5575221238937,0.0,1.0182793749773411
4800000.0,27.09375,1.377719861920923E-5,4800000.0,97.2,94.28144287365666,94.11764705882352,93.44262295081967,1438500.0,2663536.0,0.0,1.0,0.0,?,0.0,0.0,1045.0,664.0,664.0,9.0,3905.5575221238937,0.0,1.0182793749773411
4900000.0,27.703125,1.4215272191601495E-5,4900000.0,97.7,95.31720824171349,95.3061224489796,94.67592592592592,1468500.0,2692656.0,0.0,1.0,0.0,?,0.0,0.0,1052.0,669.0,669.0,9.0,3905.5575221238937,0.0,1.0182793749773411
5000000.0,28.3125,1.4657228894066065E-5,5000000.0,96.39999999999999,92.62041030518702,92.78557114228457,91.4691943127962,1498500.0,2730016.0,0.0,1.0,0.0,?,0.0,0.0,1063.0,676.0,676.0,9.0,3905.5575221238937,0.0,1.0182793749773411
5100000.0,29.109375,1.4713825075887143E-5,5100000.0,77.3,54.58910138433224,54.141414141414145,54.233870967741936,28179.0,78400.0,0.0,1.0,0.0,?,2.0,5.0,26.0,18.0,18.0,3.0,0.0,0.0,1.0
5200000.0,29.71875,1.4770466562670965E-5,5200000.0,81.2,62.402255864648126,61.23711340206187,61.47540983606559,58179.0,178008.0,0.0,1.0,0.0,?,0.0,0.0,62.0,42.0,42.0,4.0,0.0,0.0,1.0
5300000.0,30.28125,1.4838418186021347E-5,5300000.0,82.39999999999999,64.48634338477432,65.28599605522682,61.06194690265485,88179.0,300280.0,0.0,1.0,0.0,?,0.0,0.0,116.0,72.0,72.0,5.0,0.0,0.0,1.0
5400000.0,30.84375,1.4920362931055325E-5,5400000.0,84.5,69.00347161117953,70.58823529411764,68.74999999999999,118179.0,411296.0,0.0,1.0,0.0,?,0.0,0.0,153.0,98.0,98.0,5.0,0.0,0.0,1.0
5500000.0,31.375,1.5013454637179771E-5,5500000.0,84.5,68.98089222961343,68.74999999999999,67.57322175732216,148179.0,540352.0,0.0,1.0,0.0,?,0.0,0.0,193.0,127.0,127.0,5.0,0.0,0.0,1.0
5600000.0,31.953125,1.5125793159111505E-5,5600000.0,86.8,73.55557336325026,73.00613496932516,71.7948717948718,178179.0,628984.0,0.0,1.0,0.0,?,0.0,0.0,226.0,148.0,148.0,5.0,0.0,0.0,1.0
5700000.0,32.53125,1.5259448361272613E-5,5700000.0,88.9,77.7763540406993,78.36257309941521,77.1604938271605,208179.0,786184.0,0.0,1.0,0.0,?,0.0,0.0,283.0,187.0,187.0,6.0,0.0,0.0,1.0
5800000.0,33.140625,1.5417139511555433E-5,5800000.0,88.1,76.09289617486338,76.7123287671233,73.25842696629213,238179.0,907616.0,0.0,1.0,0.0,?,0.0,0.0,324.0,215.0,215.0,6.0,0.0,0.0,1.0
5900000.0,33.703125,1.5564080094918608E-5,5900000.0,90.0,79.96152613016993,79.91967871485944,78.99159663865547,268179.0,932192.0,0.0,1.0,0.0,?,0.0,0.0,341.0,225.0,225.0,6.0,0.0,0.0,1.0
6000000.0,34.3125,1.574614201672375E-5,6000000.0,86.8,73.58023801803749,72.38493723849372,74.11764705882354,298179.0,1092000.0,0.0,1.0,0.0,?,0.0,0.0,388.0,259.0,259.0,6.0,0.0,0.0,1.0
6100000.0,34.90625,1.595246107576208E-5,6100000.0,90.5,80.99832785285106,81.15079365079364,81.4814814814815,327879.0,1143120.0,0.0,1.0,0.0,?,0.0,0.0,411.0,272.0,272.0,7.0,0.0,0.0,1.0
6200000.0,35.515625,1.6180584562890644E-5,6200000.0,88.6,77.19096762317878,77.33598409542743,76.78207739307535,357879.0,1261696.0,0.0,1.0,0.0,?,0.0,0.0,459.0,302.0,302.0,7.0,0.0,0.0,1.0
6300000.0,36.171875,1.6450889298640604E-5,6300000.0,90.7,81.38436286480645,81.05906313645622,80.04291845493563,387879.0,1421440.0,0.0,1.0,0.0,?,0.0,0.0,525.0,347.0,347.0,7.0,0.0,0.0,1.0
6400000.0,36.796875,1.672333219580145E-5,6400000.0,89.7,79.4029659728999,79.84344422700588,79.60396039603961,417879.0,1529000.0,0.0,1.0,0.0,?,0.0,0.0,561.0,368.0,368.0,7.0,0.0,0.0,1.0
6500000.0,37.421875,1.7013472808887146E-5,6500000.0,89.7,79.32324789619067,79.10750507099392,77.99145299145299,447879.0,1653216.0,0.0,1.0,0.0,?,0.0,0.0,610.0,400.0,400.0,7.0,0.0,0.0,1.0
6600000.0,38.046875,1.731214795856633E-5,6600000.0,88.9,77.78827220772568,78.27788649706459,76.92307692307693,477879.0,1720944.0,0.0,1.0,0.0,?,0.0,0.0,632.0,414.0,414.0,7.0,0.0,0.0,1.0
6700000.0,38.671875,1.7613160469207084E-5,6700000.0,90.9,81.79781573788856,81.72690763052209,81.80000000000001,507879.0,1750448.0,0.0,1.0,0.0,?,0.0,0.0,642.0,419.0,419.0,7.0,0.0,0.0,1.0
6800000.0,39.296875,1.792093800354956E-5,6800000.0,91.10000000000001,82.19501460408914,82.02020202020202,81.68724279835392,537879.0,1807304.0,0.0,1.0,0.0,?,0.0,0.0,669.0,437.0,437.0,7.0,0.0,0.0,1.0
6900000.0,39.9375,1.8251466228523187E-5,6900000.0,90.8,81.59977919735037,81.67330677290838,80.71278825995807,567879.0,1913008.0,0.0,1.0,0.0,?,0.0,0.0,706.0,463.0,463.0,7.0,0.0,0.0,1.0
7000000.0,40.59375,1.860486841501875E-5,7000000.0,92.10000000000001,84.0796420942324,84.1683366733467,82.75109170305677,597879.0,2015104.0,0.0,1.0,0.0,?,0.0,0.0,745.0,490.0,490.0,7.0,0.0,0.0,1.0
7100000.0,41.265625,1.9007286626017753E-5,7100000.0,91.5,82.99428608012292,83.5907335907336,82.58196721311477,627579.0,2111360.0,0.0,1.0,0.0,?,0.0,0.0,778.0,511.0,511.0,7.0,0.0,0.0,1.0
7200000.0,41.9375,1.9429051090911442E-5,7200000.0,92.10000000000001,84.20795918856896,84.13654618473898,83.50730688935283,657579.0,2237400.0,0.0,1.0,0.0,?,0.0,0.0,825.0,542.0,542.0,8.0,0.0,0.0,1.0
7300000.0,42.625,1.986769561578209E-5,7300000.0,92.30000000000001,84.50330059571728,84.78260869565219,83.29718004338396,687579.0,2292096.0,0.0,1.0,0.0,?,0.0,0.0,847.0,553.0,553.0,8.0,0.0,0.0,1.0
7400000.0,43.328125,2.0330359208552785E-5,7400000.0,89.9,79.73889249977934,80.68833652007649,78.55626326963908,717579.0,2384152.0,0.0,1.0,0.0,?,0.0,0.0,881.0,573.0,573.0,8.0,0.0,0.0,1.0
7500000.0,44.0,2.0779473739417475E-5,7500000.0,93.0,86.0011759012243,87.03703703703704,85.62628336755648,747579.0,2439448.0,0.0,1.0,0.0,?,0.0,0.0,904.0,586.0,586.0,8.0,0.0,0.0,1.0
7600000.0,44.671875,2.124053836774288E-5,7600000.0,92.60000000000001,85.2,85.02024291497978,85.11066398390344,777579.0,2523072.0,0.0,1.0,0.0,?,0.0,0.0,939.0,608.0,608.0,8.0,0.0,0.0,1.0
7700000.0,45.390625,2.1744922301473303E-5,7700000.0,94.5,88.98969435391525,88.97795591182364,88.58921161825725,807579.0,2597944.0,0.0,1.0,0.0,?,0.0,0.0,965.0,624.0,624.0,8.0,0.0,0.0,1.0
7800000.0,46.09375,2.2243073649911416E-5,7800000.0,92.80000000000001,85.4776052571069,85.39553752535498,84.03547671840356,837579.0,2638976.0,0.0,1.0,0.0,?,0.0,0.0,979.0,631.0,631.0,8.0,0.0,0.0,1.0
7900000.0,46.796875,2.2743319018950893E-5,7900000.0,92.9,85.79852304639684,86.1598440545809,85.42094455852157,867579.0,2665552.0,0.0,1.0,0.0,?,0.0,0.0,989.0,636.0,636.0,8.0,0.0,0.0,1.0
8000000.0,47.53125,2.3272608038193237E-5,8000000.0,93.0,85.93501979143645,85.47717842323652,85.01070663811564,897579.0,2716344.0,0.0,1.0,0.0,?,0.0,0.0,1016.0,651.0,651.0,8.0,0.0,0.0,1.0
8100000.0,48.234375,2.381361914255346E-5,8100000.0,92.10000000000001,84.16922497334821,84.60038986354776,83.60995850622407,927279.0,2767480.0,0.0,1.0,0.0,?,0.0,0.0,1034.0,663.0,663.0,8.0,0.0,0.0,1.0
8200000.0,48.96875,2.4385785121315472E-5,8200000.0,92.60000000000001,85.19431461681286,85.2,85.31746031746033,957279.0,2819800.0,0.0,1.0,0.0,?,0.0,0.0,1058.0,675.0,675.0,8.0,0.0,0.0,1.0
8300000.0,49.703125,2.4966112784265232E-5,8300000.0,92.80000000000001,85.59446827581793,85.21560574948667,85.09316770186336,987279.0,2877744.0,0.0,1.0,0.0,?,0.0,0.0,1089.0,695.0,695.0,8.0,0.0,0.0,1.0
8400000.0,50.5625,2.5659176042406926E-5,8400000.0,93.89999999999999,87.80429288890309,87.49999999999999,87.52556237218812,1017279.0,2955328.0,0.0,1.0,0.0,?,0.0,0.0,1118.0,711.0,711.0,8.0,4077.724039829303,0.0,1.0174420227164904
8500000.0,51.296875,2.625901879380561E-5,8500000.0,93.30000000000001,86.52930579682173,86.15702479338843,85.40305010893248,1047279.0,3010240.0,0.0,1.0,0.0,?,0.0,0.0,1135.0,721.0,721.0,8.0,4077.724039829303,0.0,1.0174420227164904
8600000.0,52.046875,2.6878742565814823E-5,8600000.0,93.4,86.78281766296186,86.55804480651732,86.30705394190873,1077279.0,3061928.0,0.0,1.0,0.0,?,0.0,0.0,1159.0,736.0,736.0,8.0,4077.724039829303,0.0,1.0174420227164904
8700000.0,52.796875,2.7504942134126197E-5,8700000.0,93.5,86.9099403898824,87.02594810379243,85.86956521739133,1107279.0,3110264.0,0.0,1.0,0.0,?,0.0,0.0,1175.0,744.0,744.0,8.0,4077.724039829303,0.0,1.0174420227164904
8800000.0,53.53125,2.8123733063694093E-5,8800000.0,94.5,89.00369475856111,88.88888888888889,88.84381338742392,1137279.0,3154944.0,0.0,1.0,0.0,?,0.0,0.0,1194.0,755.0,755.0,8.0,4077.724039829303,0.0,1.0174420227164904
8900000.0,54.3125,2.878604893339798E-5,8900000.0,95.1,90.17642341619887,90.52224371373306,89.68421052631578,1167279.0,3189912.0,0.0,1.0,0.0,?,0.0,0.0,1220.0,771.0,771.0,8.0,4077.724039829303,0.0,1.0174420227164904
9000000.0,55.09375,2.9463857742181673E-5,9000000.0,94.69999999999999,89.29932807856311,90.14869888475835,88.27433628318583,1197279.0,3281344.0,0.0,1.0,0.0,?,0.0,0.0,1249.0,787.0,787.0,8.0,4077.724039829303,0.0,1.0174420227164904
9100000.0,55.875,3.0176629952620718E-5,9100000.0,94.5,88.96557258646978,89.23679060665361,88.0694143167028,1226979.0,3317200.0,0.0,1.0,0.0,?,0.0,0.0,1263.0,794.0,794.0,8.0,4077.724039829303,0.0,1.0174420227164904
9200000.0,56.65625,3.0893837263445475E-5,9200000.0,95.6,91.19999999999999,91.3214990138067,91.19999999999999,1256979.0,3354120.0,0.0,1.0,0.0,?,0.0,0.0,1294.0,811.0,811.0,8.0,4077.724039829303,0.0,1.0174420227164904
9300000.0,57.46875,3.1654660027318945E-5,9300000.0,94.3,88.59050730207531,88.6,88.29568788501025,1286979.0,3439960.0,0.0,1.0,0.0,?,0.0,0.0,1322.0,828.0,828.0,8.0,4077.724039829303,0.0,1.0174420227164904
9400000.0,58.265625,3.240753256250173E-5,9400000.0,94.1,88.19801726690083,88.54368932038834,88.82575757575756,1316979.0,3487360.0,0.0,1.0,0.0,?,0.0,0.0,1348.0,844.0,844.0,8.0,4077.724039829303,0.0,1.0174420227164904
9500000.0,59.0625,3.3169884797340884E-5,9500000.0,92.4,84.79178756528526,85.09803921568628,84.76953907815631,1346979.0,3548248.0,0.0,1.0,0.0,?,0.0,0.0,1366.0,853.0,853.0,8.0,4077.724039829303,0.0,1.0174420227164904
9600000.0,59.890625,3.3977275436174957E-5,9600000.0,93.0,86.0013438709884,86.02794411177645,85.85858585858587,1376979.0,3633704.0,0.0,1.0,0.0,?,0.0,0.0,1406.0,876.0,876.0,8.0,4077.724039829303,0.0,1.0174420227164904
9700000.0,60.65625,3.4727384886031766E-5,9700000.0,93.60000000000001,87.19180275376242,88.14814814814815,86.61087866108788,1406979.0,3667192.0,0.0,1.0,0.0,?,0.0,0.0,1425.0,887.0,887.0,8.0,4077.724039829303,0.0,1.0174420227164904
9800000.0,61.453125,3.551506579646634E-5,9800000.0,95.8,91.59741200289689,91.71597633136093,91.48073022312373,1436979.0,3715880.0,0.0,1.0,0.0,?,0.0,0.0,1439.0,894.0,894.0,9.0,4077.724039829303,0.0,1.0174420227164904
9900000.0,62.25,3.6312107662929015E-5,9900000.0,94.8,89.54340892912441,89.68253968253967,88.6710239651416,1466979.0,3776224.0,0.0,1.0,0.0,?,0.0,0.0,1460.0,906.0,906.0,9.0,4077.724039829303,0.0,1.0174420227164904
1.0E7,63.046875,3.7114915192230706E-5,1.0E7,95.7,91.35136004891508,91.55206286836935,90.98532494758909,1496979.0,3819168.0,0.0,1.0,0.0,?,0.0,0.0,1487.0,921.0,921.0,9.0,4077.724039829303,0.0,1.0174420227164904
