learning evaluation instances,evaluation time (cpu seconds),model cost (RAM-Hours),classified instances,classifications correct (percent),Kappa Statistic (percent),Kappa Temporal Statistic (percent),Kappa M Statistic (percent),model training instances,model serialized size (bytes),labeling cost,newThreshold,maxPosterior,accuracyBaseLearner (percent),Change detected,Warning detected
100000.0,0.15625,6.781192496418953E-9,100000.0,65.7,18.503312139442507,26.236559139784948,7.046070460704613,29700.0,9208.0,0.0,1.0,0.0,?,0.0,7.0
200000.0,0.328125,1.3590259994897578E-8,200000.0,63.7,14.207924068104266,25.918367346938776,2.156334231805932,59700.0,9208.0,0.0,1.0,0.0,?,0.0,117.0
300000.0,0.484375,1.9176901939014596E-8,300000.0,64.7,18.928105535855373,28.68686868686869,9.948979591836743,89700.0,9208.0,0.0,1.0,0.0,?,0.0,19.0
400000.0,0.640625,2.4149129684600567E-8,400000.0,65.2,19.11980030957595,23.516483516483515,8.661417322834653,119700.0,9208.0,0.0,1.0,0.0,?,0.0,0.0
500000.0,0.796875,2.8506943231655494E-8,500000.0,64.4,14.665541658077283,24.093816631130064,4.043126684636123,149700.0,9208.0,0.0,1.0,0.0,?,0.0,0.0
600000.0,0.96875,3.2624682515031767E-8,600000.0,64.5,16.302799966049587,25.73221757322176,5.08021390374332,179700.0,9208.0,0.0,1.0,0.0,?,0.0,31.0
700000.0,1.125,3.5753667665024605E-8,700000.0,64.3,24.409248750741096,18.4931506849315,0.8333333333333341,209700.0,9208.0,0.0,1.0,0.0,?,0.0,32.0
800000.0,1.28125,3.82682386164864E-8,800000.0,64.60000000000001,14.583534407875698,24.680851063829788,2.2099447513812174,239700.0,9208.0,0.0,1.0,0.0,?,0.0,0.0
900000.0,1.4375,4.016839536941715E-8,900000.0,65.60000000000001,16.348922262858913,22.86995515695067,2.8248587570621497,269700.0,9208.0,0.0,1.0,0.0,?,0.0,0.0
1000000.0,1.609375,4.1582712179256825E-8,1000000.0,65.10000000000001,18.90887123007575,28.336755646817252,8.63874345549739,299700.0,9208.0,0.0,1.0,0.0,?,0.0,0.0
1100000.0,1.75,4.77221652141048E-8,1100000.0,65.3,19.69079800037031,26.79324894514768,8.684210526315796,329400.0,9208.0,0.0,1.0,0.0,?,0.0,0.0
1200000.0,1.921875,5.455008552720151E-8,1200000.0,63.1,23.22416878198994,23.760330578512395,4.404145077720211,359400.0,9208.0,0.0,1.0,0.0,?,0.0,0.0
1300000.0,2.078125,6.010730026496783E-8,1300000.0,61.7,18.508557665302085,17.27861771058315,-1.591511936339524,389400.0,9208.0,0.0,1.0,0.0,?,0.0,28.0
1400000.0,2.25,6.558350934129624E-8,1400000.0,64.5,19.365829282696588,26.501035196687372,10.579345088161219,419400.0,9208.0,0.0,1.0,0.0,?,0.0,23.0
1500000.0,2.40625,6.994746703033647E-8,1500000.0,65.3,20.506922999386056,27.55741127348643,9.162303664921474,449400.0,9208.0,0.0,1.0,0.0,?,0.0,0.0
1600000.0,2.546875,7.332205617179474E-8,1600000.0,63.800000000000004,24.130328167768393,23.14225053078556,8.816120906801014,479400.0,9208.0,0.0,1.0,0.0,?,0.0,0.0
1700000.0,2.671875,7.583015960537726E-8,1700000.0,64.7,14.063412924083677,27.066115702479344,1.1204481792717098,509400.0,9208.0,0.0,1.0,0.0,?,0.0,0.0
1800000.0,2.828125,7.835087469882437E-8,1800000.0,64.5,17.821030408533662,22.31947483588621,9.2071611253197,539400.0,9208.0,0.0,1.0,0.0,?,0.0,0.0
1900000.0,3.0,8.044780568323204E-8,1900000.0,66.10000000000001,18.50256272177401,24.666666666666668,5.571030640668529,569400.0,9208.0,0.0,1.0,0.0,?,0.0,0.0
2000000.0,3.140625,8.161050370997854E-8,2000000.0,64.2,19.658886894075405,27.08757637474542,10.500000000000009,599400.0,9208.0,0.0,1.0,0.0,?,0.0,0.0
2100000.0,3.3125,8.912103819764324E-8,2100000.0,62.9,15.489749430523931,18.99563318777292,7.250000000000006,629100.0,9208.0,0.0,1.0,0.0,?,0.0,0.0
2200000.0,3.453125,9.471304818160005E-8,2200000.0,65.5,20.28945325496285,31.000000000000007,12.87878787878789,659100.0,9208.0,0.0,1.0,0.0,?,0.0,0.0
2300000.0,3.625,1.0087187143249645E-7,2300000.0,68.0,21.07534837834506,25.925925925925945,7.24637681159421,689100.0,9208.0,0.0,1.0,0.0,?,0.0,0.0
2400000.0,3.78125,1.0585638746205305E-7,2400000.0,66.60000000000001,20.993868745742198,26.914660831509853,8.24175824175825,719100.0,9208.0,0.0,1.0,0.0,?,0.0,0.0
2500000.0,3.9375,1.102264892930786E-7,2500000.0,64.0,12.413873642415057,22.413793103448274,1.6393442622950833,749100.0,9208.0,0.0,1.0,0.0,?,0.0,0.0
2600000.0,4.109375,1.1435774568882256E-7,2600000.0,65.9,19.01468660346169,30.122950819672134,7.336956521739137,779100.0,9208.0,0.0,1.0,0.0,?,0.0,0.0
2700000.0,4.265625,1.1749901912278602E-7,2700000.0,61.9,12.21926291828327,16.993464052287575,-5.248618784530391,809100.0,9208.0,0.0,1.0,0.0,?,0.0,0.0
2800000.0,4.421875,1.2002587835821844E-7,2800000.0,63.3,15.051015684313828,20.73434125269978,4.4270833333333375,839100.0,9208.0,0.0,1.0,0.0,?,0.0,0.0
2900000.0,4.578125,1.219383233951198E-7,2900000.0,65.0,19.377130747258818,26.160337552742618,7.407407407407414,869100.0,9208.0,0.0,1.0,0.0,?,0.0,0.0
3000000.0,4.75,1.2336615731732716E-7,3000000.0,61.8,10.422421596169265,17.67241379310344,-1.3262599469496033,899100.0,9208.0,0.0,1.0,0.0,?,0.0,0.0
3100000.0,4.90625,1.302000600844622E-7,3100000.0,65.4,15.55661855509076,23.451327433628315,1.9830028328611915,928800.0,9208.0,0.0,1.0,0.0,?,0.0,0.0
3200000.0,5.09375,1.3766344636678698E-7,3200000.0,65.3,19.034196968565666,23.230088495575217,6.720430107526888,958800.0,9208.0,0.0,1.0,0.0,?,0.0,0.0
3300000.0,5.265625,1.4382902817386723E-7,3300000.0,64.7,16.97633943271086,25.52742616033755,4.851752021563346,988800.0,9208.0,0.0,1.0,0.0,?,0.0,0.0
3400000.0,5.421875,1.4881968834540914E-7,3400000.0,65.4,17.551911318263922,27.15789473684211,4.155124653739616,1018800.0,9208.0,0.0,1.0,0.0,?,0.0,0.0
3500000.0,5.59375,1.536335589157211E-7,3500000.0,65.9,20.96162582631029,23.88392857142857,9.788359788359797,1048800.0,9208.0,0.0,1.0,0.0,?,0.0,0.0
3600000.0,5.75,1.573953906902009E-7,3600000.0,68.0,22.642531136381212,32.05944798301486,10.614525139664813,1078800.0,9208.0,0.0,1.0,0.0,?,0.0,0.0
3700000.0,5.90625,1.605292264786032E-7,3700000.0,60.5,15.663165086685451,12.222222222222209,-9.72222222222223,1108800.0,9208.0,0.0,1.0,0.0,?,0.0,19.0
3800000.0,6.0625,1.6304800131668653E-7,3800000.0,64.2,17.469304575151348,24.312896405919663,6.52741514360314,1138800.0,9208.0,0.0,1.0,0.0,?,0.0,92.0
3900000.0,6.21875,1.649523619562388E-7,3900000.0,58.599999999999994,14.566953507088472,11.538461538461526,-7.532467532467539,1168800.0,9208.0,0.0,1.0,0.0,?,0.0,0.0
4000000.0,6.375,1.6624230839726003E-7,4000000.0,63.800000000000004,24.068263051029497,21.304347826086953,6.217616580310886,1198800.0,9208.0,0.0,1.0,0.0,?,0.0,0.0
4100000.0,6.515625,1.7236546328705225E-7,4100000.0,63.9,17.09535182803602,22.030237580993518,5.000000000000004,1228500.0,9208.0,0.0,1.0,0.0,?,0.0,35.0
4200000.0,6.671875,1.7855455452162366E-7,4200000.0,67.60000000000001,21.933354215357916,31.501057082452437,8.732394366197191,1258500.0,9208.0,0.0,1.0,0.0,?,0.0,0.0
4300000.0,6.828125,1.8412923155766403E-7,4300000.0,63.800000000000004,18.487561472087634,25.051759834368532,9.045226130653274,1288500.0,9208.0,0.0,1.0,0.0,?,0.0,0.0
4400000.0,6.984375,1.8908949439517335E-7,4400000.0,65.4,16.217891596606083,28.659793814432994,1.7045454545454561,1318500.0,9208.0,0.0,1.0,0.0,?,0.0,0.0
4500000.0,7.140625,1.934353430341516E-7,4500000.0,60.5,17.693243761356246,17.364016736401666,-5.053191489361707,1348500.0,9208.0,0.0,1.0,0.0,?,0.0,0.0
4600000.0,7.296875,1.9720331895061672E-7,4600000.0,59.4,14.671464119981165,12.875536480686684,-8.556149732620328,1378500.0,9208.0,0.0,1.0,0.0,?,0.0,84.0
4700000.0,7.453125,2.0034329888100432E-7,4700000.0,65.60000000000001,17.967110534549217,21.995464852607707,3.9106145251396685,1408500.0,9208.0,0.0,1.0,0.0,?,0.0,2.0
4800000.0,7.609375,2.0288244640040736E-7,4800000.0,62.3,12.453440092144499,21.621621621621617,0.0,1438500.0,9208.0,0.0,1.0,0.0,?,0.0,57.0
4900000.0,7.78125,2.0499965305336655E-7,4900000.0,62.3,19.77289558133794,18.57451403887688,-4.143646408839783,1468500.0,9208.0,0.0,1.0,0.0,?,0.0,51.0
5000000.0,7.9375,2.0640342780906301E-7,5000000.0,65.9,16.966981591506762,27.4468085106383,3.9436619718309895,1498500.0,9208.0,0.0,1.0,0.0,?,0.0,51.0
5100000.0,8.109375,2.140370391619703E-7,5100000.0,46.9,-0.5918056513272297,-7.489878542510128,-16.960352422907505,1528200.0,9208.0,0.0,1.0,0.0,?,0.0,0.0
5200000.0,8.28125,2.2099479489649345E-7,5200000.0,48.8,0.21671681816055788,-4.27698574338086,-7.112970711297077,1558200.0,9208.0,0.0,1.0,0.0,?,0.0,0.0
5300000.0,8.46875,2.2784777684137233E-7,5300000.0,47.199999999999996,-0.3374988598011704,-6.882591093117416,-15.789473684210542,1588200.0,9208.0,0.0,1.0,0.0,?,0.0,0.0
5400000.0,8.625,2.329002018086613E-7,5400000.0,57.599999999999994,14.065666801783525,13.292433537832299,5.777777777777759,135062.0,9208.0,0.0,1.0,0.0,?,1.0,5.0
5500000.0,8.78125,2.3733821257741924E-7,5500000.0,63.0,24.539076521455375,24.489795918367346,18.859649122807014,165062.0,9208.0,0.0,1.0,0.0,?,0.0,0.0
5600000.0,8.9375,2.411618091476461E-7,5600000.0,60.0,18.831168831168828,16.142557651991606,13.79310344827585,195062.0,9208.0,0.0,1.0,0.0,?,0.0,0.0
5700000.0,9.09375,2.4437099151934195E-7,5700000.0,61.1,20.235888518889126,19.12681912681912,12.189616252821658,225062.0,9208.0,0.0,1.0,0.0,?,0.0,0.0
5800000.0,9.25,2.4696575969250673E-7,5800000.0,61.5,21.316165951359075,20.944558521560573,14.444444444444434,255062.0,9208.0,0.0,1.0,0.0,?,0.0,0.0
5900000.0,9.40625,2.4894611366714046E-7,5900000.0,59.3,17.71860166099254,20.196078431372545,14.135021097046405,285062.0,9208.0,0.0,1.0,0.0,?,0.0,0.0
6000000.0,9.546875,2.501754594656329E-7,6000000.0,61.5,21.754965003129787,20.944558521560573,16.48590021691973,315062.0,9208.0,0.0,1.0,0.0,?,0.0,0.0
6100000.0,9.6875,2.5638709000001357E-7,6100000.0,57.599999999999994,13.947069329436596,15.199999999999992,5.357142857142837,344762.0,9208.0,0.0,1.0,0.0,?,0.0,0.0
6200000.0,9.84375,2.626744875063499E-7,6200000.0,59.0,16.29099699464262,12.579957356076749,10.087719298245599,374762.0,9208.0,0.0,1.0,0.0,?,0.0,0.0
6300000.0,10.0,2.6834747081415523E-7,6300000.0,55.00000000000001,9.497894317674458,7.024793388429759,6.444906444906451,404762.0,9208.0,0.0,1.0,0.0,?,0.0,0.0
6400000.0,10.15625,2.734060399234295E-7,6400000.0,59.599999999999994,18.591389225852463,20.315581854043387,15.657620041753646,434762.0,9208.0,0.0,1.0,0.0,?,0.0,0.0
6500000.0,10.3125,2.7785019483417274E-7,6500000.0,57.99999999999999,14.864979912189288,16.50099403578528,10.064239828693776,464762.0,9208.0,0.0,1.0,0.0,?,0.0,0.0
6600000.0,10.453125,2.812969614751637E-7,6600000.0,56.599999999999994,11.123489201708717,13.199999999999989,1.5873015873015637,494762.0,9208.0,0.0,1.0,0.0,?,0.0,0.0
6700000.0,10.609375,2.845122879888449E-7,6700000.0,59.699999999999996,18.56940796120428,17.922606924643578,15.157894736842096,524762.0,9208.0,0.0,1.0,0.0,?,0.0,0.0
6800000.0,10.765625,2.87113200303995E-7,6800000.0,59.3,17.619340630869875,19.24603174603174,13.034188034188023,554762.0,9208.0,0.0,1.0,0.0,?,0.0,0.0
6900000.0,10.921875,2.8909969842061404E-7,6900000.0,58.599999999999994,16.226552540520846,17.52988047808764,10.967741935483858,584762.0,9208.0,0.0,1.0,0.0,?,0.0,0.0
7000000.0,11.0625,2.9033457394689326E-7,7000000.0,57.8,14.993050379711137,13.16872427983538,12.629399585921314,614762.0,9208.0,0.0,1.0,0.0,?,0.0,0.0
7100000.0,11.21875,2.97242529793746E-7,7100000.0,60.099999999999994,18.352145762906087,20.359281437125745,12.114537444933909,644462.0,9208.0,0.0,1.0,0.0,?,0.0,0.0
7200000.0,11.375,3.035360714420677E-7,7200000.0,58.3,15.131434339816172,17.42574257425742,8.951965065502169,674462.0,9208.0,0.0,1.0,0.0,?,0.0,0.0
7300000.0,11.53125,3.092151988918583E-7,7300000.0,59.5,17.658157331880307,13.829787234042543,11.572052401746712,704462.0,9208.0,0.0,1.0,0.0,?,0.0,0.0
7400000.0,11.671875,3.1377344081799197E-7,7400000.0,56.8,11.810457809878038,11.293634496919905,2.483069977426614,734462.0,9208.0,0.0,1.0,0.0,?,0.0,0.0
7500000.0,11.828125,3.182237398707205E-7,7500000.0,60.3,18.946508779093506,20.758483033932134,11.581291759465467,764462.0,9208.0,0.0,1.0,0.0,?,0.0,0.0
7600000.0,11.96875,3.216760362394983E-7,7600000.0,58.599999999999994,16.48747110345467,19.298245614035086,12.473572938689207,794462.0,9208.0,0.0,1.0,0.0,?,0.0,0.0
7700000.0,12.125,3.2489750689516476E-7,7700000.0,57.49999999999999,13.8525155065472,15.841584158415834,9.57446808510637,824462.0,9208.0,0.0,1.0,0.0,?,0.0,0.0
7800000.0,12.28125,3.275045633523002E-7,7800000.0,58.9,17.052142113293456,16.122448979591827,13.836477987421372,854462.0,9208.0,0.0,1.0,0.0,?,0.0,0.0
7900000.0,12.421875,3.2929794138504414E-7,7900000.0,55.300000000000004,9.899377559905837,7.45341614906833,5.4968287526427115,884462.0,9208.0,0.0,1.0,0.0,?,0.0,0.0
8000000.0,12.578125,3.306761694451175E-7,8000000.0,57.199999999999996,12.75099378248904,11.934156378600811,5.934065934065916,914462.0,9208.0,0.0,1.0,0.0,?,0.0,0.0
8100000.0,12.734375,3.3759026943395554E-7,8100000.0,57.599999999999994,13.54948680202423,13.292433537832299,8.423326133909272,944162.0,9208.0,0.0,1.0,0.0,?,0.0,0.0
8200000.0,12.890625,3.4388995522426255E-7,8200000.0,56.00000000000001,10.697976497331094,15.384615384615397,6.976744186046519,974162.0,9208.0,0.0,1.0,0.0,?,0.0,0.0
8300000.0,13.03125,3.490066996568609E-7,8300000.0,58.199999999999996,16.2824605746468,16.89860834990059,15.725806451612895,1004162.0,9208.0,0.0,1.0,0.0,?,0.0,0.0
8400000.0,13.1875,3.540775570501058E-7,8400000.0,58.599999999999994,15.51192832799329,15.510204081632645,9.010989010988995,1034162.0,9208.0,0.0,1.0,0.0,?,0.0,0.0
8500000.0,13.34375,3.5853400024481965E-7,8500000.0,59.5,17.666192315511278,18.674698795180717,12.526997840172774,1064162.0,9208.0,0.0,1.0,0.0,?,0.0,0.0
8600000.0,13.484375,3.6199182634138417E-7,8600000.0,57.3,12.9175674022107,17.08737864077669,5.947136563876634,1094162.0,9208.0,0.0,1.0,0.0,?,0.0,0.0
8700000.0,13.640625,3.6521944113903593E-7,8700000.0,56.89999999999999,12.134778318695908,16.472868217054256,5.066079295154165,1124162.0,9208.0,0.0,1.0,0.0,?,0.0,0.0
8800000.0,13.78125,3.6757132167824456E-7,8800000.0,56.49999999999999,11.385803802058282,7.838983050847441,4.185022026431698,1154162.0,9208.0,0.0,1.0,0.0,?,0.0,0.0
8900000.0,13.9375,3.695701080788342E-7,8900000.0,57.99999999999999,14.053835040660703,15.322580645161283,6.4587973273941905,1184162.0,9208.0,0.0,1.0,0.0,?,0.0,0.0
9000000.0,14.09375,3.709544802808929E-7,9000000.0,58.199999999999996,14.576725631886985,17.063492063492056,5.429864253393645,1214162.0,9208.0,0.0,1.0,0.0,?,0.0,0.0
9100000.0,14.234375,3.771826999986339E-7,9100000.0,57.199999999999996,14.048285584612225,17.21470019342359,12.474437627811849,1243862.0,9208.0,0.0,1.0,0.0,?,0.0,0.0
9200000.0,14.390625,3.8348852993092617E-7,9200000.0,58.5,15.753146569224501,15.821501014198775,10.367170626349878,1273862.0,9208.0,0.0,1.0,0.0,?,0.0,0.0
9300000.0,14.546875,3.891799456646874E-7,9300000.0,60.699999999999996,19.97686863174698,21.868787276341944,14.750542299349231,1303862.0,9208.0,0.0,1.0,0.0,?,0.0,0.0
9400000.0,14.703125,3.9425694719991764E-7,9400000.0,59.9,18.138539803859114,17.827868852459012,12.253829321663007,1333862.0,9208.0,0.0,1.0,0.0,?,0.0,0.0
9500000.0,14.859375,3.9871953453661683E-7,9500000.0,58.199999999999996,13.981503965493813,17.063492063492056,2.564102564102566,1363862.0,9208.0,0.0,1.0,0.0,?,0.0,0.0
9600000.0,15.015625,4.0256770767478496E-7,9600000.0,56.599999999999994,12.450930158435563,15.728155339805816,9.014675052410887,1393862.0,9208.0,0.0,1.0,0.0,?,0.0,0.0
9700000.0,15.15625,4.0547809072045833E-7,9700000.0,60.6,19.962947313680246,19.262295081967206,16.34819532908704,1423862.0,9208.0,0.0,1.0,0.0,?,0.0,0.0
9800000.0,15.3125,4.0809743546156437E-7,9800000.0,56.49999999999999,12.322427721431213,12.650602409638543,8.805031446540866,1453862.0,9208.0,0.0,1.0,0.0,?,0.0,0.0
9900000.0,15.46875,4.1010236600413935E-7,9900000.0,55.60000000000001,10.00194590387236,11.20000000000001,5.128205128205133,1483862.0,9208.0,0.0,1.0,0.0,?,0.0,0.0
1.0E7,15.625,4.114928823481833E-7,1.0E7,58.8,15.65569508305456,18.897637795275585,8.240534521158112,1513862.0,9208.0,0.0,1.0,0.0,?,0.0,0.0
