learning evaluation instances,evaluation time (cpu seconds),model cost (RAM-Hours),classified instances,classifications correct (percent),Kappa Statistic (percent),Kappa Temporal Statistic (percent),Kappa M Statistic (percent),model training instances,model serialized size (bytes),labeling cost,newThreshold,maxPosterior,accuracyBaseLearner (percent),Change detected,Warning detected
100000.0,0.421875,1.7079000826925037E-8,100000.0,66.9,25.54435846679865,29.42430703624734,19.660194174757297,29700.0,2904.0,0.0,1.0,0.0,?,0.0,31.0
200000.0,0.84375,3.249908331781625E-8,200000.0,69.8,25.973134621041282,34.913793103448256,18.378378378378365,59700.0,2904.0,0.0,1.0,0.0,?,0.0,0.0
300000.0,1.265625,4.626024747267365E-8,300000.0,69.0,26.780762708261484,29.705215419501112,19.896640826873373,89700.0,2904.0,0.0,1.0,0.0,?,0.0,0.0
400000.0,1.65625,5.7466030638251035E-8,400000.0,67.4,22.606131683530307,32.78350515463918,14.435695538057756,119700.0,2904.0,0.0,1.0,0.0,?,0.0,0.0
500000.0,2.078125,6.790935812104079E-8,500000.0,68.4,23.861659526689394,33.89121338912135,17.060367454068256,149700.0,2904.0,0.0,1.0,0.0,?,0.0,0.0
600000.0,2.5,7.669376726779672E-8,600000.0,69.19999999999999,24.009533349452504,36.36363636363635,16.981132075471685,179700.0,2904.0,0.0,1.0,0.0,?,0.0,0.0
700000.0,2.9375,8.408316514558261E-8,700000.0,70.5,26.700061621643105,36.830835117773006,18.73278236914599,209700.0,2904.0,0.0,1.0,0.0,?,0.0,0.0
800000.0,3.375,8.975220326748159E-8,800000.0,66.4,21.070435240171413,27.429805615550755,14.285714285714299,239700.0,2904.0,0.0,1.0,0.0,?,0.0,0.0
900000.0,3.796875,9.355985740613606E-8,900000.0,69.5,23.970485591783827,36.05870020964359,15.277777777777763,269700.0,2904.0,0.0,1.0,0.0,?,0.0,0.0
1000000.0,4.234375,9.579360873127977E-8,1000000.0,68.2,25.443121072868813,32.3404255319149,18.461538461538478,299700.0,2904.0,0.0,1.0,0.0,?,0.0,29.0
1100000.0,4.671875,1.1352780145696467E-7,1100000.0,66.0,17.213705514541168,26.565874730021598,10.052910052910063,329400.0,2904.0,0.0,1.0,0.0,?,0.0,38.0
1200000.0,5.09375,1.2896971182069843E-7,1200000.0,68.5,25.324305871643176,33.121019108280265,18.814432989690737,359400.0,2904.0,0.0,1.0,0.0,?,0.0,0.0
1300000.0,5.546875,1.437717906406356E-7,1300000.0,67.2,22.3631887900019,29.613733905579405,17.587939698492477,81863.0,2904.0,0.0,1.0,0.0,?,1.0,49.0
1400000.0,5.984375,1.5634490409865973E-7,1400000.0,64.1,19.921840147040466,26.131687242798357,16.317016317016332,111863.0,2904.0,0.0,1.0,0.0,?,0.0,58.0
1500000.0,6.4375,1.6758525614730184E-7,1500000.0,70.6,26.819068859771406,38.49372384937237,18.784530386740318,141863.0,2904.0,0.0,1.0,0.0,?,0.0,0.0
1600000.0,6.859375,1.7639149316690032E-7,1600000.0,70.1,30.07156555498385,38.35051546391752,24.874371859296478,171863.0,2904.0,0.0,1.0,0.0,?,0.0,103.0
1700000.0,7.296875,1.8380352735726367E-7,1700000.0,69.3,23.256906878380924,32.0796460176991,16.120218579234958,201863.0,2904.0,0.0,1.0,0.0,?,0.0,0.0
1800000.0,7.71875,1.8929192770479451E-7,1800000.0,70.19999999999999,24.534035656401915,36.997885835095126,15.819209039548007,231863.0,2904.0,0.0,1.0,0.0,?,0.0,0.0
1900000.0,8.140625,1.9312140971629153E-7,1900000.0,66.7,19.95192307692309,30.480167014613784,14.175257731958776,261863.0,2904.0,0.0,1.0,0.0,?,0.0,0.0
2000000.0,8.59375,1.9545275588623348E-7,2000000.0,68.10000000000001,25.034310315654917,28.47533632286996,18.82951653944022,291863.0,2904.0,0.0,1.0,0.0,?,0.0,0.0
2100000.0,9.03125,2.1320415220947726E-7,2100000.0,69.8,27.154138947449656,35.47008547008546,20.316622691292867,321563.0,2904.0,0.0,1.0,0.0,?,0.0,0.0
2200000.0,9.46875,2.292351887768341E-7,2200000.0,68.7,19.747705245884823,33.404255319148945,12.813370473537617,351563.0,2904.0,0.0,1.0,0.0,?,0.0,0.0
2300000.0,9.921875,2.4405696118871366E-7,2300000.0,68.30000000000001,22.95352906863698,33.26315789473685,16.57894736842107,381563.0,2904.0,0.0,1.0,0.0,?,0.0,0.0
2400000.0,10.328125,2.557479698831836E-7,2400000.0,70.0,27.38925651439386,36.57505285412261,20.424403183023863,411563.0,2904.0,0.0,1.0,0.0,?,0.0,0.0
2500000.0,10.765625,2.666179271828797E-7,2500000.0,70.6,25.968826328909916,35.66739606126914,19.452054794520535,441563.0,2904.0,0.0,1.0,0.0,?,0.0,0.0
2600000.0,11.203125,2.7576752472668884E-7,2600000.0,69.5,25.77991920961696,32.52212389380529,19.3121693121693,471563.0,2904.0,0.0,1.0,0.0,?,0.0,0.0
2700000.0,11.65625,2.834620924356083E-7,2700000.0,68.30000000000001,23.141080970992423,32.55319148936171,17.015706806282736,501563.0,2904.0,0.0,1.0,0.0,?,0.0,0.0
2800000.0,12.09375,2.8917097046764357E-7,2800000.0,69.6,25.89414563750534,35.59322033898304,19.148936170212753,531563.0,2904.0,0.0,1.0,0.0,?,0.0,0.0
2900000.0,12.546875,2.93301935825083E-7,2900000.0,66.5,24.394933783503213,32.73092369477912,19.856459330143554,561563.0,2904.0,0.0,1.0,0.0,?,0.0,0.0
3000000.0,12.984375,2.955700943453444E-7,3000000.0,67.60000000000001,23.991836160180167,30.769230769230777,18.796992481203024,591563.0,2904.0,0.0,1.0,0.0,?,0.0,0.0
3100000.0,13.40625,3.1270410141183265E-7,3100000.0,71.1,28.213739244480635,38.77118644067796,21.467391304347817,621263.0,2904.0,0.0,1.0,0.0,?,0.0,0.0
3200000.0,13.859375,3.2932549301120964E-7,3200000.0,69.0,26.744081630723983,34.59915611814345,21.119592875318055,651263.0,2904.0,0.0,1.0,0.0,?,0.0,0.0
3300000.0,14.296875,3.4365337342023845E-7,3300000.0,68.89999999999999,24.87559785496881,33.40471092077087,19.220779220779207,681263.0,2904.0,0.0,1.0,0.0,?,0.0,0.0
3400000.0,14.734375,3.562608940733803E-7,3400000.0,68.30000000000001,24.137270856267666,33.54297693920336,18.50899742930593,711263.0,2904.0,0.0,1.0,0.0,?,0.0,0.0
3500000.0,15.15625,3.667592277957333E-7,3500000.0,68.89999999999999,25.175632759118454,33.40471092077087,20.05141388174806,741263.0,2904.0,0.0,1.0,0.0,?,0.0,0.0
3600000.0,15.59375,3.759260289371013E-7,3600000.0,67.2,18.863294546030236,28.695652173913043,11.827956989247323,771263.0,2904.0,0.0,1.0,0.0,?,0.0,0.0
3700000.0,16.015625,3.831065259873866E-7,3700000.0,65.9,18.78322504430007,28.810020876826727,13.010204081632665,801263.0,2904.0,0.0,1.0,0.0,?,0.0,0.0
3800000.0,16.453125,3.8883260761698076E-7,3800000.0,65.8,21.384009231632163,31.325301204819283,16.38141809290955,831263.0,2904.0,0.0,1.0,0.0,?,0.0,0.0
3900000.0,16.90625,3.9298139098617757E-7,3900000.0,69.0,24.344112263575347,30.95768374164809,17.33333333333332,861263.0,2904.0,0.0,1.0,0.0,?,0.0,0.0
4000000.0,17.328125,3.951851330283614E-7,4000000.0,67.30000000000001,21.85782425418431,31.012658227848107,16.368286445012803,891263.0,2904.0,0.0,1.0,0.0,?,0.0,0.0
4100000.0,17.765625,4.1297093654672295E-7,4100000.0,68.2,22.785547785547795,33.33333333333334,17.187500000000014,920963.0,2904.0,0.0,1.0,0.0,?,0.0,0.0
4200000.0,18.21875,4.2961014615785734E-7,4200000.0,67.60000000000001,22.40784734462411,33.74233128834357,16.494845360824755,950963.0,2904.0,0.0,1.0,0.0,?,0.0,0.0
4300000.0,18.65625,4.43955230164445E-7,4300000.0,67.80000000000001,28.008013021159396,32.776617954070986,23.696682464454994,980963.0,2904.0,0.0,1.0,0.0,?,0.0,0.0
4400000.0,19.109375,4.5703083742409937E-7,4400000.0,69.1,24.908869987849336,34.39490445859871,19.109947643979044,1010963.0,2904.0,0.0,1.0,0.0,?,0.0,0.0
4500000.0,19.546875,4.6793520191891317E-7,4500000.0,69.39999999999999,22.33817916023712,32.450331125827795,14.0449438202247,1040963.0,2904.0,0.0,1.0,0.0,?,0.0,0.0
4600000.0,19.984375,4.7711920665784E-7,4600000.0,69.8,25.114064669708398,35.33190578158457,18.378378378378365,1070963.0,2904.0,0.0,1.0,0.0,?,0.0,0.0
4700000.0,20.421875,4.8458285164088E-7,4700000.0,67.60000000000001,21.01567985022232,28.791208791208796,14.285714285714299,1100963.0,2904.0,0.0,1.0,0.0,?,0.0,0.0
4800000.0,20.84375,4.901210195384919E-7,4800000.0,69.0,24.96417644552881,35.68464730290455,17.989417989417973,1130963.0,2904.0,0.0,1.0,0.0,?,0.0,0.0
4900000.0,21.296875,4.942876209194461E-7,4900000.0,70.89999999999999,26.684000483734426,39.626556016597505,20.05494505494504,1160963.0,2904.0,0.0,1.0,0.0,?,0.0,0.0
5000000.0,21.734375,4.968518624082207E-7,5000000.0,69.5,24.230379394637964,34.68950749464666,17.344173441734405,1190963.0,2904.0,0.0,1.0,0.0,?,0.0,0.0
5100000.0,22.171875,5.149165452975365E-7,5100000.0,61.4,4.18222257526414,16.98924731182795,-4.891304347826091,1220663.0,2904.0,0.0,1.0,0.0,?,0.0,0.0
5200000.0,22.625,5.318445942571593E-7,5200000.0,60.199999999999996,0.5382927572884136,18.775510204081627,-7.27762803234502,1250663.0,2904.0,0.0,1.0,0.0,?,0.0,0.0
5300000.0,23.046875,5.459462732283605E-7,5300000.0,58.9,2.2117745588823303,17.13709677419354,-4.846938775510208,1280663.0,2904.0,0.0,1.0,0.0,?,0.0,0.0
5400000.0,23.5,5.593107198365032E-7,5400000.0,61.0,5.279110886587542,14.285714285714276,-2.094240837696337,1140563.0,2904.0,0.0,1.0,0.0,?,1.0,25.0
5500000.0,23.921875,5.700945621356367E-7,5500000.0,61.8,4.413972575317783,18.550106609808097,-3.243243243243246,1170563.0,2904.0,0.0,1.0,0.0,?,0.0,12.0
5600000.0,24.359375,5.795574462455178E-7,5600000.0,61.7,5.665024630541877,20.041753653444673,-2.1333333333333355,1200563.0,2904.0,0.0,1.0,0.0,?,0.0,0.0
5700000.0,24.765625,5.867469331456554E-7,5700000.0,65.3,12.64726613634074,20.77625570776255,3.6111111111111143,1230563.0,2904.0,0.0,1.0,0.0,?,0.0,0.0
5800000.0,25.203125,5.927690977437627E-7,5800000.0,63.6,7.358390682900991,22.553191489361698,-0.5524861878453043,1260563.0,2904.0,0.0,1.0,0.0,?,0.0,0.0
5900000.0,25.640625,5.970709025859831E-7,5900000.0,66.60000000000001,13.914419592459518,25.279642058165546,5.382436260623234,1290563.0,2904.0,0.0,1.0,0.0,?,0.0,0.0
6000000.0,26.0625,5.995601532049475E-7,6000000.0,66.2,17.814347961406806,30.452674897119348,11.518324607329852,1320563.0,2904.0,0.0,1.0,0.0,?,0.0,0.0
6100000.0,26.484375,6.169962580315766E-7,6100000.0,66.9,19.55084580983861,30.16877637130802,12.894736842105276,1350263.0,2904.0,0.0,1.0,0.0,?,0.0,0.0
6200000.0,26.90625,6.327734445221719E-7,6200000.0,65.60000000000001,17.326770745212656,28.925619834710748,10.880829015544052,1380263.0,2904.0,0.0,1.0,0.0,?,0.0,0.0
6300000.0,27.328125,6.468917126767334E-7,6300000.0,67.80000000000001,20.545619645465695,30.453563714902813,14.361702127659587,1410263.0,2904.0,0.0,1.0,0.0,?,0.0,0.0
6400000.0,27.765625,6.598125198959473E-7,6400000.0,65.8,19.943820224719115,29.192546583850937,13.636363636363647,1440263.0,2904.0,0.0,1.0,0.0,?,0.0,0.0
6500000.0,28.1875,6.706129513784411E-7,6500000.0,68.7,24.45671587036485,34.79166666666668,18.062827225130906,1470263.0,2904.0,0.0,1.0,0.0,?,0.0,0.0
6600000.0,28.625,6.800930390858812E-7,6600000.0,68.2,25.432281725281282,32.62711864406781,19.89924433249372,1500263.0,2904.0,0.0,1.0,0.0,?,0.0,0.0
6700000.0,29.0625,6.878527670374343E-7,6700000.0,69.3,21.547582541142788,36.57024793388429,14.005602240896339,1530263.0,2904.0,0.0,1.0,0.0,?,0.0,0.0
6800000.0,29.5,6.938921352331005E-7,6800000.0,67.4,22.93982214700058,28.820960698689962,16.624040920716126,1560263.0,2904.0,0.0,1.0,0.0,?,0.0,0.0
6900000.0,29.90625,6.979026430700384E-7,6900000.0,70.5,25.44103523227012,34.44444444444443,17.827298050139262,1590263.0,2904.0,0.0,1.0,0.0,?,0.0,0.0
7000000.0,30.328125,7.004084828723631E-7,7000000.0,67.7,24.262319683355553,34.21588594704686,19.04761904761906,1620263.0,2904.0,0.0,1.0,0.0,?,0.0,0.0
7100000.0,30.75,7.178611768823526E-7,7100000.0,64.8,17.78121394169007,22.97592997811816,12.219451371571083,1649963.0,2904.0,0.0,1.0,0.0,?,0.0,0.0
7200000.0,31.203125,7.348248618654901E-7,7200000.0,66.5,20.064521055243777,33.00000000000001,15.404040404040417,1679963.0,2904.0,0.0,1.0,0.0,?,0.0,0.0
7300000.0,31.625,7.489597192034119E-7,7300000.0,70.6,22.129519268971,31.944444444444443,14.782608695652154,1709963.0,2904.0,0.0,1.0,0.0,?,0.0,0.0
7400000.0,32.0625,7.618977300201847E-7,7400000.0,70.0,25.488793514544593,34.21052631578946,17.582417582417566,1739963.0,2904.0,0.0,1.0,0.0,?,0.0,0.0
7500000.0,32.5,7.731153810810705E-7,7500000.0,68.8,20.570264765784106,32.75862068965515,14.754098360655721,1769963.0,2904.0,0.0,1.0,0.0,?,0.0,0.0
7600000.0,32.9375,7.826126723860695E-7,7600000.0,70.5,27.295490841696395,39.54918032786885,19.83695652173912,1799963.0,2904.0,0.0,1.0,0.0,?,0.0,0.0
7700000.0,33.359375,7.90111856379856E-7,7700000.0,68.8,20.038955380711954,32.02614379084965,13.573407202216048,1829963.0,2904.0,0.0,1.0,0.0,?,0.0,0.0
7800000.0,33.796875,7.961684281730812E-7,7800000.0,67.5,21.041379176303696,29.956896551724142,15.364583333333345,1859963.0,2904.0,0.0,1.0,0.0,?,0.0,0.0
7900000.0,34.21875,8.003497754948E-7,7900000.0,71.6,32.45428772570731,40.084388185654,24.86772486772486,1889963.0,2904.0,0.0,1.0,0.0,?,0.0,0.0
8000000.0,34.640625,8.028722044804851E-7,8000000.0,68.60000000000001,24.361043528533244,32.327586206896555,16.710875331565,1919963.0,2904.0,0.0,1.0,0.0,?,0.0,0.0
8100000.0,35.078125,8.209884981624775E-7,8100000.0,71.0,26.622403951257027,35.69844789356983,17.61363636363635,1949663.0,2904.0,0.0,1.0,0.0,?,0.0,0.0
8200000.0,35.515625,8.37384432088583E-7,8200000.0,71.39999999999999,31.33978643312591,36.72566371681415,23.118279569892465,1979663.0,2904.0,0.0,1.0,0.0,?,0.0,0.0
8300000.0,35.921875,8.510117509609289E-7,8300000.0,70.0,27.93312193715767,36.57505285412261,18.918918918918905,2009663.0,2904.0,0.0,1.0,0.0,?,0.0,0.0
8400000.0,36.375,8.644296516043437E-7,8400000.0,72.5,33.33462623755175,42.105263157894726,24.03314917127071,2039663.0,2904.0,0.0,1.0,0.0,?,0.0,0.0
8500000.0,36.78125,8.748620166443282E-7,8500000.0,70.3,29.403375326836212,33.70535714285713,21.42857142857142,2069663.0,2904.0,0.0,1.0,0.0,?,0.0,0.0
8600000.0,37.21875,8.84376511546886E-7,8600000.0,73.2,33.66467990732855,43.220338983050844,25.139664804469263,2099663.0,2904.0,0.0,1.0,0.0,?,0.0,0.0
8700000.0,37.65625,8.921706466935569E-7,8700000.0,71.3,28.58280413274142,36.08017817371936,20.055710306406674,2129663.0,2904.0,0.0,1.0,0.0,?,0.0,0.0
8800000.0,38.078125,8.9802750153467E-7,8800000.0,70.1,29.433866080110267,36.65254237288134,21.932114882506518,2159663.0,2904.0,0.0,1.0,0.0,?,0.0,0.0
8900000.0,38.5,9.022254380397493E-7,8900000.0,70.39999999999999,30.238696783438286,36.8869936034115,23.316062176165794,2189663.0,2904.0,0.0,1.0,0.0,?,0.0,0.0
9000000.0,38.9375,9.048584939187594E-7,9000000.0,70.89999999999999,31.820098778853456,36.739130434782595,24.61139896373056,2219663.0,2904.0,0.0,1.0,0.0,?,0.0,0.0
9100000.0,39.34375,9.216967413926284E-7,9100000.0,69.69999999999999,28.926627885156687,34.4155844155844,20.263157894736832,2249363.0,2904.0,0.0,1.0,0.0,?,0.0,0.0
9200000.0,39.78125,9.381098789162927E-7,9200000.0,72.39999999999999,31.55305134513134,41.64904862579281,22.47191011235954,2279363.0,2904.0,0.0,1.0,0.0,?,0.0,0.0
9300000.0,40.203125,9.522779146209353E-7,9300000.0,70.1,31.44528921375312,38.22314049586776,24.874371859296478,2309363.0,2904.0,0.0,1.0,0.0,?,0.0,0.0
9400000.0,40.640625,9.652503326328259E-7,9400000.0,72.0,29.46961147831694,42.148760330578504,20.454545454545443,2339363.0,2904.0,0.0,1.0,0.0,?,0.0,0.0
9500000.0,41.046875,9.756986724419721E-7,9500000.0,69.1,26.652107861754637,35.490605427974934,18.037135278514576,2369363.0,2904.0,0.0,1.0,0.0,?,0.0,0.0
9600000.0,41.484375,9.852303709420888E-7,9600000.0,70.89999999999999,29.721688225122435,37.55364806866952,22.192513368983946,2399363.0,2904.0,0.0,1.0,0.0,?,0.0,0.0
9700000.0,41.921875,9.930417096863187E-7,9700000.0,70.19999999999999,26.03109672551082,32.579185520361975,16.759776536312835,2429363.0,2904.0,0.0,1.0,0.0,?,0.0,0.0
9800000.0,42.359375,9.991326886746614E-7,9800000.0,69.89999999999999,28.299873274194624,37.29166666666666,20.15915119363394,2459363.0,2904.0,0.0,1.0,0.0,?,0.0,0.0
9900000.0,42.78125,1.003347214363101E-6,9900000.0,71.3,29.38617642137999,38.146551724137915,20.718232044198885,2489363.0,2904.0,0.0,1.0,0.0,?,0.0,0.0
1.0E7,43.21875,1.00599747383967E-6,1.0E7,71.1,27.89780949054439,38.37953091684434,18.591549295774634,2519363.0,2904.0,0.0,1.0,0.0,?,0.0,0.0
