learning evaluation instances,evaluation time (cpu seconds),model cost (RAM-Hours),classified instances,classifications correct (percent),Kappa Statistic (percent),Kappa Temporal Statistic (percent),Kappa M Statistic (percent),model training instances,model serialized size (bytes),labeling cost,newThreshold,maxPosterior,accuracyBaseLearner (percent),Change detected,Warning detected
100000.0,0.421875,1.702224835753441E-8,100000.0,65.60000000000001,31.172468987595046,28.925619834710748,30.505050505050512,29700.0,2904.0,0.0,1.0,0.0,?,0.0,12.0
200000.0,0.84375,3.2385578379034996E-8,200000.0,63.0,25.214754926730677,21.276595744680847,22.916666666666664,59700.0,2904.0,0.0,1.0,0.0,?,0.0,0.0
300000.0,1.25,4.558241926133633E-8,300000.0,64.60000000000001,29.08284485970824,30.03952569169961,27.755102040816325,89700.0,2904.0,0.0,1.0,0.0,?,0.0,0.0
400000.0,1.671875,5.762791261076927E-8,400000.0,64.1,27.94579275684616,28.200000000000003,25.052192066805844,119700.0,2904.0,0.0,1.0,0.0,?,0.0,0.0
500000.0,2.109375,6.839917558762763E-8,500000.0,63.9,27.25001007617589,26.923076923076927,23.191489361702125,149700.0,2904.0,0.0,1.0,0.0,?,0.0,0.0
600000.0,2.546875,7.745007880859905E-8,600000.0,66.4,32.63292966557062,34.63035019455254,31.428571428571434,179700.0,2904.0,0.0,1.0,0.0,?,0.0,0.0
700000.0,2.953125,8.425701202617752E-8,700000.0,65.10000000000001,29.73965421441283,29.919678714859444,27.139874739039666,209700.0,2904.0,0.0,1.0,0.0,?,0.0,0.0
800000.0,3.375,8.966683203147518E-8,800000.0,62.9,25.930362561891073,29.063097514340345,25.8,239700.0,2904.0,0.0,1.0,0.0,?,0.0,0.0
900000.0,3.796875,9.341773370073902E-8,900000.0,66.9,33.33762980029485,33.400402414486926,30.021141649048634,269700.0,2904.0,0.0,1.0,0.0,?,0.0,0.0
1000000.0,4.234375,9.558719789816275E-8,1000000.0,65.2,29.67850142461656,29.6969696969697,23.516483516483515,299700.0,2904.0,0.0,1.0,0.0,?,0.0,0.0
1100000.0,4.671875,1.1325710349612767E-7,1100000.0,64.5,28.685073283620472,23.819742489270386,25.57651991614256,329400.0,2904.0,0.0,1.0,0.0,?,0.0,0.0
1200000.0,5.109375,1.2920664933820567E-7,1200000.0,66.8,33.111176477699026,33.60000000000001,29.511677282377924,359400.0,2904.0,0.0,1.0,0.0,?,0.0,0.0
1300000.0,5.53125,1.4292765020703277E-7,1300000.0,67.30000000000001,34.12039648642116,37.47609942638624,30.720338983050855,389400.0,2904.0,0.0,1.0,0.0,?,0.0,0.0
1400000.0,5.96875,1.5543647653733692E-7,1400000.0,65.10000000000001,30.310388344861742,30.200000000000003,31.434184675834974,419400.0,2904.0,0.0,1.0,0.0,?,0.0,0.0
1500000.0,6.390625,1.6583964073409638E-7,1500000.0,65.8,31.08728943338438,34.73282442748092,27.23404255319149,449400.0,2904.0,0.0,1.0,0.0,?,0.0,0.0
1600000.0,6.8125,1.74583886594822E-7,1600000.0,65.10000000000001,29.846425986974364,30.61630218687873,27.139874739039666,479400.0,2904.0,0.0,1.0,0.0,?,0.0,0.0
1700000.0,7.25,1.8193163365746537E-7,1700000.0,64.7,29.306684823967643,27.066115702479344,28.830645161290324,509400.0,2904.0,0.0,1.0,0.0,?,0.0,0.0
1800000.0,7.671875,1.8735804284612336E-7,1800000.0,65.2,30.729450732317105,32.03125000000001,29.554655870445345,539400.0,2904.0,0.0,1.0,0.0,?,0.0,0.0
1900000.0,8.109375,1.9126507039699288E-7,1900000.0,66.60000000000001,32.43899281506894,35.271317829457374,28.632478632478637,569400.0,2904.0,0.0,1.0,0.0,?,0.0,0.0
2000000.0,8.53125,1.9337364291358323E-7,2000000.0,65.2,30.497581395720413,29.6969696969697,30.26052104208417,599400.0,2904.0,0.0,1.0,0.0,?,0.0,0.0
2100000.0,8.96875,2.1106075210910702E-7,2100000.0,64.7,29.190971748601875,26.15062761506276,26.763485477178424,629100.0,2904.0,0.0,1.0,0.0,?,0.0,0.0
2200000.0,9.40625,2.270275015487439E-7,2200000.0,63.800000000000004,27.15330406049898,28.31683168316832,24.4258872651357,659100.0,2904.0,0.0,1.0,0.0,?,0.0,0.0
2300000.0,9.828125,2.407650916009313E-7,2300000.0,67.0,33.66327478279748,35.29411764705883,30.232558139534888,689100.0,2904.0,0.0,1.0,0.0,?,0.0,0.0
2400000.0,10.265625,2.5329112152879436E-7,2400000.0,63.800000000000004,27.096969086698223,27.16297786720322,24.10901467505241,719100.0,2904.0,0.0,1.0,0.0,?,0.0,0.0
2500000.0,10.703125,2.6409679170077047E-7,2500000.0,66.10000000000001,31.6063430577412,29.079497907949797,27.09677419354839,749100.0,2904.0,0.0,1.0,0.0,?,0.0,0.0
2600000.0,11.125,2.7285762674485646E-7,2600000.0,66.5,32.345647098739,34.82490272373542,27.331887201735363,779100.0,2904.0,0.0,1.0,0.0,?,0.0,0.0
2700000.0,11.546875,2.7995954345290863E-7,2700000.0,64.0,27.64139073247013,24.84342379958246,24.84342379958246,809100.0,2904.0,0.0,1.0,0.0,?,0.0,0.0
2800000.0,11.984375,2.8560413435722395E-7,2800000.0,64.3,28.57542994790207,30.000000000000004,28.6,839100.0,2904.0,0.0,1.0,0.0,?,0.0,0.0
2900000.0,12.421875,2.8952836550565233E-7,2900000.0,64.60000000000001,28.776934993863552,27.01030927835052,25.158562367864697,869100.0,2904.0,0.0,1.0,0.0,?,0.0,0.0
3000000.0,12.859375,2.917322368981938E-7,3000000.0,63.4,26.489491612571502,27.66798418972332,24.380165289256198,899100.0,2904.0,0.0,1.0,0.0,?,0.0,0.0
3100000.0,13.28125,3.088042528058092E-7,3100000.0,67.2,34.24218123496392,34.268537074148306,32.78688524590165,928800.0,2904.0,0.0,1.0,0.0,?,0.0,0.0
3200000.0,13.71875,3.247882058430049E-7,3200000.0,65.3,30.03637302105764,29.18367346938776,28.747433264887068,958800.0,2904.0,0.0,1.0,0.0,?,0.0,0.0
3300000.0,14.140625,3.385423850785527E-7,3300000.0,67.4,34.631611030013325,36.328125000000014,32.921810699588484,988800.0,2904.0,0.0,1.0,0.0,?,0.0,0.0
3400000.0,14.578125,3.510856186039746E-7,3400000.0,64.2,28.36561549543781,29.666011787819258,28.256513026052104,1018800.0,2904.0,0.0,1.0,0.0,?,0.0,0.0
3500000.0,15.0,3.6152196116745475E-7,3500000.0,65.7,31.309878560671606,30.98591549295775,29.856850715746425,1048800.0,2904.0,0.0,1.0,0.0,?,0.0,0.0
3600000.0,15.421875,3.7029938539490107E-7,3600000.0,66.2,31.991951710261574,25.877192982456144,26.99784017278618,1078800.0,2904.0,0.0,1.0,0.0,?,0.0,0.0
3700000.0,15.84375,3.774178912863136E-7,3700000.0,64.60000000000001,28.947621953177695,28.48484848484849,27.459016393442624,1108800.0,2904.0,0.0,1.0,0.0,?,0.0,0.0
3800000.0,16.265625,3.8287747884169225E-7,3800000.0,66.7,33.2156752637279,33.400000000000006,32.04081632653062,1138800.0,2904.0,0.0,1.0,0.0,?,0.0,0.0
3900000.0,16.703125,3.868189135876795E-7,3900000.0,62.9,25.607770478917512,26.534653465346537,21.23142250530785,1168800.0,2904.0,0.0,1.0,0.0,?,0.0,0.0
4000000.0,17.109375,3.8888134036420126E-7,4000000.0,66.5,32.4765582797849,33.66336633663367,26.048565121412803,1198800.0,2904.0,0.0,1.0,0.0,?,0.0,0.0
4100000.0,17.53125,4.05969945455177E-7,4100000.0,64.5,28.76063573607321,27.84552845528456,25.887265135699373,1228500.0,2904.0,0.0,1.0,0.0,?,0.0,0.0
4200000.0,17.96875,4.2197110208993165E-7,4200000.0,65.60000000000001,30.903992704747147,31.74603174603175,30.645161290322587,1258500.0,2904.0,0.0,1.0,0.0,?,0.0,0.0
4300000.0,18.40625,4.3625189896879934E-7,4300000.0,64.4,28.3321522901501,28.800000000000004,21.238938053097343,1288500.0,2904.0,0.0,1.0,0.0,?,0.0,0.0
4400000.0,18.84375,4.488123360917801E-7,4400000.0,66.5,32.60696381295717,31.352459016393446,29.175475687103596,1318500.0,2904.0,0.0,1.0,0.0,?,0.0,0.0
4500000.0,19.28125,4.5965241345887394E-7,4500000.0,66.0,31.65004824702477,32.00000000000001,29.166666666666668,1348500.0,2904.0,0.0,1.0,0.0,?,0.0,0.0
4600000.0,19.703125,4.684464268696806E-7,4600000.0,65.60000000000001,31.330472103004297,31.610337972167002,33.46228239845262,1378500.0,2904.0,0.0,1.0,0.0,?,0.0,0.0
4700000.0,20.140625,4.7584578472500056E-7,4700000.0,63.1,26.0402469333761,28.62669245647969,24.84725050916497,1408500.0,2904.0,0.0,1.0,0.0,?,0.0,0.0
4800000.0,20.578125,4.815247828244337E-7,4800000.0,64.60000000000001,28.665849883930882,25.94142259414226,23.542116630669547,1438500.0,2904.0,0.0,1.0,0.0,?,0.0,0.0
4900000.0,21.015625,4.854834211679798E-7,4900000.0,64.4,28.850373935253838,29.08366533864542,29.08366533864542,1468500.0,2904.0,0.0,1.0,0.0,?,0.0,0.0
5000000.0,21.4375,4.878940914447111E-7,5000000.0,65.3,30.422438061934052,28.893442622950822,29.03885480572598,1498500.0,2904.0,0.0,1.0,0.0,?,0.0,0.0
5100000.0,21.875,5.058790945137543E-7,5100000.0,69.39999999999999,38.25665859564163,34.754797441364595,31.999999999999986,24024.0,2904.0,0.0,1.0,0.0,?,2.0,16.0
5200000.0,22.28125,5.209819775902565E-7,5200000.0,68.10000000000001,35.12357027805348,35.16260162601627,27.33485193621868,54024.0,2904.0,0.0,1.0,0.0,?,0.0,0.0
5300000.0,22.71875,5.355262611475258E-7,5300000.0,67.9,35.03391998445672,32.70440251572328,29.60526315789474,84024.0,2904.0,0.0,1.0,0.0,?,0.0,0.0
5400000.0,23.109375,5.469761931130458E-7,5400000.0,69.89999999999999,38.650056662073915,37.29166666666666,29.836829836829835,114024.0,2904.0,0.0,1.0,0.0,?,0.0,0.0
5500000.0,23.546875,5.580797571585412E-7,5500000.0,66.10000000000001,31.436476603456093,27.872340425531917,27.564102564102566,144024.0,2904.0,0.0,1.0,0.0,?,0.0,0.0
5600000.0,23.984375,5.674629614481497E-7,5600000.0,68.7,36.369180727790216,36.63967611336034,30.44444444444445,174024.0,2904.0,0.0,1.0,0.0,?,0.0,0.0
5700000.0,24.421875,5.751258059818714E-7,5700000.0,66.9,32.51563761509041,31.752577319587633,24.601366742596813,204024.0,2904.0,0.0,1.0,0.0,?,0.0,0.0
5800000.0,24.859375,5.810682907597061E-7,5800000.0,68.60000000000001,36.31348369300665,33.47457627118645,28.636363636363637,234024.0,2904.0,0.0,1.0,0.0,?,0.0,0.0
5900000.0,25.28125,5.851396256022985E-7,5900000.0,66.3,31.920842323014398,31.78137651821863,23.755656108597282,264024.0,2904.0,0.0,1.0,0.0,?,0.0,0.0
6000000.0,25.71875,5.876413908683593E-7,6000000.0,68.60000000000001,36.68818730618318,36.947791164658646,30.684326710816784,294024.0,2904.0,0.0,1.0,0.0,?,0.0,0.0
6100000.0,26.15625,6.056435975349614E-7,6100000.0,65.9,30.77660127322335,31.663326653306616,24.557522123893804,323724.0,2904.0,0.0,1.0,0.0,?,0.0,0.0
6200000.0,26.578125,6.213439499131509E-7,6200000.0,66.2,31.497687540280584,30.309278350515466,26.99784017278618,353724.0,2904.0,0.0,1.0,0.0,?,0.0,0.0
6300000.0,27.0,6.353853839553066E-7,6300000.0,66.2,31.71496452410583,34.24124513618678,26.83982683982684,383724.0,2904.0,0.0,1.0,0.0,?,0.0,0.0
6400000.0,27.421875,6.477678996614285E-7,6400000.0,71.2,41.186080705767026,42.16867469879517,34.54545454545453,413724.0,2904.0,0.0,1.0,0.0,?,0.0,0.0
6500000.0,27.859375,6.588886673044829E-7,6500000.0,67.80000000000001,34.66333354976951,34.28571428571429,27.47747747747748,443724.0,2904.0,0.0,1.0,0.0,?,0.0,0.0
6600000.0,28.296875,6.682890751916503E-7,6600000.0,67.9,33.87442320369152,27.7027027027027,21.515892420537917,473724.0,2904.0,0.0,1.0,0.0,?,0.0,0.0
6700000.0,28.734375,6.759691233229308E-7,6700000.0,68.8,36.69473470630008,32.32104121475052,29.88764044943818,503724.0,2904.0,0.0,1.0,0.0,?,0.0,0.0
6800000.0,29.15625,6.817159656849174E-7,6800000.0,68.7,36.204211744947315,35.99182004089981,27.88018433179726,533724.0,2904.0,0.0,1.0,0.0,?,0.0,0.0
6900000.0,29.59375,6.85955294304424E-7,6900000.0,70.3,39.19018525495078,37.866108786610866,31.090487238979115,563724.0,2904.0,0.0,1.0,0.0,?,0.0,0.0
7000000.0,30.03125,6.884742631680437E-7,7000000.0,68.8,37.11579159528366,37.59999999999999,29.88764044943818,593724.0,2904.0,0.0,1.0,0.0,?,0.0,0.0
7100000.0,30.46875,7.064936734322045E-7,7100000.0,67.7,34.1643974106022,38.12260536398468,25.2314814814815,623424.0,2904.0,0.0,1.0,0.0,?,0.0,0.0
7200000.0,30.890625,7.222106149937544E-7,7200000.0,67.30000000000001,33.63640053577952,34.33734939759037,26.516853932584272,653424.0,2904.0,0.0,1.0,0.0,?,0.0,0.0
7300000.0,31.3125,7.362686382192705E-7,7300000.0,66.4,32.18231653903757,31.983805668016203,28.051391862955033,683424.0,2904.0,0.0,1.0,0.0,?,0.0,0.0
7400000.0,31.75,7.491269692157706E-7,7400000.0,67.2,33.1308230209374,33.870967741935495,24.597701149425305,713424.0,2904.0,0.0,1.0,0.0,?,0.0,0.0
7500000.0,32.171875,7.59867155769219E-7,7500000.0,66.3,31.601380150192824,29.64509394572025,25.11111111111111,743424.0,2904.0,0.0,1.0,0.0,?,0.0,0.0
7600000.0,32.59375,7.689484239866336E-7,7600000.0,66.8,32.328589540282834,31.687242798353914,24.373576309794988,773424.0,2904.0,0.0,1.0,0.0,?,0.0,0.0
7700000.0,33.03125,7.766456757154729E-7,7700000.0,68.4,35.50625548502971,34.43983402489628,28.344671201814066,803424.0,2904.0,0.0,1.0,0.0,?,0.0,0.0
7800000.0,33.453125,7.824091072608199E-7,7800000.0,68.7,35.71047118268088,35.19668737060042,26.69789227166278,833424.0,2904.0,0.0,1.0,0.0,?,0.0,0.0
7900000.0,33.890625,7.866656394778854E-7,7900000.0,69.8,38.990884995798034,41.472868217054256,35.47008547008546,863424.0,2904.0,0.0,1.0,0.0,?,0.0,0.0
8000000.0,34.328125,7.892018119390639E-7,8000000.0,67.2,33.29781306305391,29.157667386609077,26.94877505567929,893424.0,2904.0,0.0,1.0,0.0,?,0.0,0.0
8100000.0,34.765625,8.072384258007837E-7,8100000.0,65.60000000000001,30.36352668251033,32.81250000000001,25.379609544468547,923124.0,2904.0,0.0,1.0,0.0,?,0.0,0.0
8200000.0,35.203125,8.235546799066165E-7,8200000.0,68.4,35.78984585499072,36.54618473895583,28.66817155756208,953124.0,2904.0,0.0,1.0,0.0,?,0.0,0.0
8300000.0,35.625,8.376292923154929E-7,8300000.0,68.8,36.65128971476835,37.59999999999999,27.102803738317753,983124.0,2904.0,0.0,1.0,0.0,?,0.0,0.0
8400000.0,36.0625,8.505048269095519E-7,8400000.0,70.39999999999999,39.20847795280442,39.344262295081954,30.023640661938533,1013124.0,2904.0,0.0,1.0,0.0,?,0.0,0.0
8500000.0,36.484375,8.612616026463606E-7,8500000.0,69.1,37.38601823708206,39.530332681017605,31.333333333333314,1043124.0,2904.0,0.0,1.0,0.0,?,0.0,0.0
8600000.0,36.921875,8.706964177286458E-7,8600000.0,69.69999999999999,38.287194694735454,40.118577075098806,32.81596452328158,1073124.0,2904.0,0.0,1.0,0.0,?,0.0,0.0
8700000.0,37.359375,8.78410873055044E-7,8700000.0,68.2,35.77418364544119,36.14457831325302,30.567685589519655,1103124.0,2904.0,0.0,1.0,0.0,?,0.0,0.0
8800000.0,37.765625,8.839768189419473E-7,8800000.0,68.2,35.074480595844776,32.62711864406781,28.054298642533944,1133124.0,2904.0,0.0,1.0,0.0,?,0.0,0.0
8900000.0,38.1875,8.880979213346208E-7,8900000.0,68.60000000000001,36.05591238438138,38.06706114398423,28.146453089244872,1163124.0,2904.0,0.0,1.0,0.0,?,0.0,0.0
9000000.0,38.59375,8.904689133891627E-7,9000000.0,66.7,32.4126844951045,32.86290322580646,26.973684210526315,1193124.0,2904.0,0.0,1.0,0.0,?,0.0,0.0
9100000.0,39.03125,9.085227308484413E-7,9100000.0,65.4,30.066255149023547,31.889763779527563,24.288840262582056,1222824.0,2904.0,0.0,1.0,0.0,?,0.0,0.0
9200000.0,39.46875,9.24856188551833E-7,9200000.0,66.5,32.2081916788085,33.399602385685895,27.173913043478265,1252824.0,2904.0,0.0,1.0,0.0,?,0.0,0.0
9300000.0,39.90625,9.394692864993378E-7,9300000.0,66.60000000000001,33.039294306335215,32.25152129817445,31.557377049180335,1282824.0,2904.0,0.0,1.0,0.0,?,0.0,0.0
9400000.0,40.34375,9.523620246909557E-7,9400000.0,66.5,32.25480283114256,34.442270058708424,25.555555555555554,1312824.0,2904.0,0.0,1.0,0.0,?,0.0,0.0
9500000.0,40.796875,9.639334166422484E-7,9500000.0,64.0,26.224670470194777,24.050632911392405,17.431192660550472,1342824.0,2904.0,0.0,1.0,0.0,?,0.0,0.0
9600000.0,41.21875,9.730478632263837E-7,9600000.0,68.60000000000001,36.447538860103634,36.30831643002029,31.739130434782613,1372824.0,2904.0,0.0,1.0,0.0,?,0.0,0.0
9700000.0,41.65625,9.807795221503408E-7,9700000.0,67.2,32.676795251251036,30.06396588486141,21.71837708830551,1402824.0,2904.0,0.0,1.0,0.0,?,0.0,0.0
9800000.0,42.078125,9.865761320624084E-7,9800000.0,68.60000000000001,36.22345352030289,37.32534930139722,28.95927601809955,1432824.0,2904.0,0.0,1.0,0.0,?,0.0,0.0
9900000.0,42.515625,9.908670714745915E-7,9900000.0,68.10000000000001,35.37538997609497,35.42510121457491,27.828054298642535,1462824.0,2904.0,0.0,1.0,0.0,?,0.0,0.0
1.0E7,42.9375,9.933458447145915E-7,1.0E7,70.0,39.09346716528813,38.52459016393441,31.662870159453284,1492824.0,2904.0,0.0,1.0,0.0,?,0.0,0.0
