learning evaluation instances,evaluation time (cpu seconds),model cost (RAM-Hours),classified instances,classifications correct (percent),Kappa Statistic (percent),Kappa Temporal Statistic (percent),Kappa M Statistic (percent),model training instances,model serialized size (bytes),labeling cost,newThreshold,maxPosterior,accuracyBaseLearner (percent),Change detected,Warning detected
100000.0,0.453125,6.1922279807428515E-9,100000.0,88.7,71.3235816592734,72.30392156862746,59.9290780141844,58467.0,1112.0,0.0,1.0,0.0,?,2.0,53.0
200000.0,0.90625,1.1259107850492001E-8,200000.0,90.3,76.03636543307476,77.06855791962177,66.89419795221845,118467.0,1112.0,0.0,1.0,0.0,?,0.0,13.0
300000.0,1.34375,1.50647247210145E-8,300000.0,88.8,72.22814578239762,73.95348837209302,62.79069767441862,178467.0,1112.0,0.0,1.0,0.0,?,0.0,16.0
400000.0,1.796875,1.786684151738882E-8,400000.0,86.5,66.05993563958165,67.93349168646081,52.961672473867594,238467.0,1112.0,0.0,1.0,0.0,?,0.0,66.0
500000.0,2.21875,1.9441067706793547E-8,500000.0,88.0,70.00764804974732,71.56398104265404,60.13289036544851,298467.0,1112.0,0.0,1.0,0.0,?,0.0,2.0
600000.0,2.640625,2.5206245481967927E-8,600000.0,87.2,67.54563894523328,70.37037037037037,57.333333333333336,358167.0,1112.0,0.0,1.0,0.0,?,0.0,0.0
700000.0,3.078125,3.0098405356208485E-8,700000.0,88.7,71.4071719921863,70.95115681233933,60.62717770034845,418167.0,1112.0,0.0,1.0,0.0,?,0.0,0.0
800000.0,3.546875,3.4175852003196875E-8,800000.0,87.7,68.19108108946841,68.05194805194805,57.14285714285715,478167.0,1112.0,0.0,1.0,0.0,?,0.0,0.0
900000.0,3.984375,3.689492587000132E-8,900000.0,87.8,68.84146434901646,70.53140096618358,57.78546712802769,538167.0,1112.0,0.0,1.0,0.0,?,0.0,0.0
1000000.0,4.4375,3.8585761406769354E-8,1000000.0,89.1,70.99521021820118,71.76165803108809,60.363636363636374,598167.0,1112.0,0.0,1.0,0.0,?,0.0,0.0
1100000.0,4.859375,4.436141656090816E-8,1100000.0,87.4,69.83119837184245,72.60869565217392,60.25236593059936,657867.0,1112.0,0.0,1.0,0.0,?,0.0,0.0
1200000.0,5.296875,4.92644418651859E-8,1200000.0,89.5,73.28788032970388,74.39024390243904,62.500000000000014,717867.0,1112.0,0.0,1.0,0.0,?,0.0,0.0
1300000.0,5.71875,5.2944621226439876E-8,1300000.0,89.9,74.36652318687567,75.89498806682579,65.52901023890786,777867.0,1112.0,0.0,1.0,0.0,?,0.0,0.0
1400000.0,6.140625,5.557706269125144E-8,1400000.0,88.2,71.36686806920483,71.21951219512196,62.30031948881789,837867.0,1112.0,0.0,1.0,0.0,?,0.0,0.0
1500000.0,6.609375,5.733784443388383E-8,1500000.0,88.3,69.98183516179022,70.60301507537689,58.65724381625442,897867.0,1112.0,0.0,1.0,0.0,?,0.0,0.0
1600000.0,7.0625,6.354132589573661E-8,1600000.0,89.3,72.97706839074655,74.46300715990454,63.85135135135136,957567.0,1112.0,0.0,1.0,0.0,?,0.0,0.0
1700000.0,7.5,6.844435120001435E-8,1700000.0,88.1,70.21336243579603,71.256038647343,61.111111111111114,1017567.0,1112.0,0.0,1.0,0.0,?,0.0,0.0
1800000.0,7.984375,7.266974231849114E-8,1800000.0,88.4,70.61148381604816,71.14427860696519,59.44055944055945,1077567.0,1112.0,0.0,1.0,0.0,?,0.0,0.0
1900000.0,8.421875,7.539968161533277E-8,1900000.0,88.8,72.27187427275564,73.83177570093459,62.5418060200669,1137567.0,1112.0,0.0,1.0,0.0,?,0.0,0.0
2000000.0,8.875,7.710177063321074E-8,2000000.0,87.7,66.60440061686832,66.75675675675676,53.40909090909092,1197567.0,1112.0,0.0,1.0,0.0,?,0.0,0.0
2100000.0,9.3125,8.310220437124371E-8,2100000.0,89.5,74.19310439749502,75.17730496453902,65.11627906976746,1257267.0,1112.0,0.0,1.0,0.0,?,0.0,0.0
2200000.0,9.75,8.801609510555863E-8,2200000.0,89.3,71.61894051117737,73.44913151364764,61.51079136690648,1317267.0,1112.0,0.0,1.0,0.0,?,0.0,0.0
2300000.0,10.203125,9.198013382653396E-8,2300000.0,87.3,68.84658784281018,69.68973747016707,59.03225806451614,1377267.0,1112.0,0.0,1.0,0.0,?,0.0,0.0
2400000.0,10.625,9.462305267030994E-8,2400000.0,88.0,68.87337168825644,67.56756756756756,56.98924731182796,1437267.0,1112.0,0.0,1.0,0.0,?,0.0,0.0
2500000.0,11.046875,9.621823361764351E-8,2500000.0,88.2,69.61848020309273,71.97149643705464,59.45017182130585,1497267.0,1112.0,0.0,1.0,0.0,?,0.0,0.0
2600000.0,11.484375,1.0221866735567649E-7,2600000.0,88.3,72.01358656652155,72.3404255319149,64.54545454545453,1556967.0,1112.0,0.0,1.0,0.0,?,0.0,0.0
2700000.0,11.90625,1.069570619923373E-7,2700000.0,89.3,73.59328726554789,75.7918552036199,64.33333333333334,1616967.0,1112.0,0.0,1.0,0.0,?,0.0,0.0
2800000.0,12.359375,1.1092110071331262E-7,2800000.0,89.1,70.5837903190984,72.47474747474747,59.32835820895524,1676967.0,1112.0,0.0,1.0,0.0,?,0.0,0.0
2900000.0,12.796875,1.1366190544019142E-7,2900000.0,88.1,69.78713896900517,70.76167076167077,60.200668896321076,1736967.0,1112.0,0.0,1.0,0.0,?,0.0,0.0
3000000.0,13.234375,1.1531616716335217E-7,3000000.0,88.1,70.53434358441044,72.51732101616629,61.61290322580646,1796967.0,1112.0,0.0,1.0,0.0,?,0.0,0.0
3100000.0,13.6875,1.2154215558742484E-7,3100000.0,88.3,71.45283129355275,71.32352941176471,62.135922330097095,1856667.0,1112.0,0.0,1.0,0.0,?,0.0,0.0
3200000.0,14.125,1.2646691175177693E-7,3200000.0,86.2,66.52175600667624,67.7570093457944,56.050955414012726,1916667.0,1112.0,0.0,1.0,0.0,?,0.0,0.0
3300000.0,14.578125,1.304422039538622E-7,3300000.0,87.4,67.50651159192304,68.42105263157895,55.789473684210535,1976667.0,1112.0,0.0,1.0,0.0,?,0.0,0.0
3400000.0,15.015625,1.3319387411077819E-7,3400000.0,89.2,71.1576979570036,74.03846153846155,60.72727272727274,2036667.0,1112.0,0.0,1.0,0.0,?,0.0,0.0
3500000.0,15.4375,1.3479953243707619E-7,3500000.0,87.1,66.14635272876144,66.2303664921466,52.74725274725275,2096667.0,1112.0,0.0,1.0,0.0,?,0.0,0.0
3600000.0,15.875,1.4081083160514636E-7,3600000.0,86.8,67.19681908548708,69.93166287015946,56.00000000000001,2156367.0,1112.0,0.0,1.0,0.0,?,0.0,0.0
3700000.0,16.328125,1.4591147191822533E-7,3700000.0,88.1,69.11818134634349,70.25,58.96551724137932,2216367.0,1112.0,0.0,1.0,0.0,?,0.0,0.0
3800000.0,16.765625,1.4974968507885937E-7,3800000.0,88.1,70.94698190412016,72.26107226107227,61.111111111111114,2276367.0,1112.0,0.0,1.0,0.0,?,0.0,0.0
3900000.0,17.1875,1.5240308130159979E-7,3900000.0,89.7,74.65002264269823,74.93917274939173,66.11842105263159,2336367.0,1112.0,0.0,1.0,0.0,?,0.0,0.0
4000000.0,17.625,1.540682084547977E-7,4000000.0,88.1,70.68012260143692,73.25842696629213,60.06711409395974,2396367.0,1112.0,0.0,1.0,0.0,?,0.0,0.0
4100000.0,18.078125,1.6030545035998032E-7,4100000.0,86.7,66.67835847071203,67.95180722891565,54.91525423728814,2456067.0,1112.0,0.0,1.0,0.0,?,0.0,0.0
4200000.0,18.515625,1.652410719543696E-7,4200000.0,86.6,66.86580155087832,66.58354114713218,54.421768707483,2516067.0,1112.0,0.0,1.0,0.0,?,0.0,0.0
4300000.0,18.953125,1.6909015054504082E-7,4300000.0,86.1,65.74734849978316,66.82577565632458,53.198653198653204,2576067.0,1112.0,0.0,1.0,0.0,?,0.0,0.0
4400000.0,19.40625,1.7195134811724232E-7,4400000.0,88.7,72.28571708867591,72.57281553398059,62.582781456953654,2636067.0,1112.0,0.0,1.0,0.0,?,0.0,0.0
4500000.0,19.859375,1.7368719757845011E-7,4500000.0,87.8,69.58516154766654,69.34673366834171,58.503401360544224,2696067.0,1112.0,0.0,1.0,0.0,?,0.0,0.0
4600000.0,20.28125,1.7949428486948218E-7,4600000.0,87.9,69.92981967832362,71.7948717948718,60.197368421052644,2755767.0,1112.0,0.0,1.0,0.0,?,0.0,0.0
4700000.0,20.71875,1.8442990646387147E-7,4700000.0,89.2,72.66985180986315,74.88372093023257,63.01369863013699,2815767.0,1112.0,0.0,1.0,0.0,?,0.0,0.0
4800000.0,21.15625,1.882789850545427E-7,4800000.0,89.4,73.30929491214731,73.63184079601992,62.54416961130743,2875767.0,1112.0,0.0,1.0,0.0,?,0.0,0.0
4900000.0,21.59375,1.9104152064149585E-7,4900000.0,90.0,74.77448388594033,77.06422018348624,65.03496503496504,2935767.0,1112.0,0.0,1.0,0.0,?,0.0,0.0
5000000.0,22.046875,1.9286552237139815E-7,5000000.0,88.9,71.86311787072243,72.45657568238214,61.591695501730115,2995767.0,1112.0,0.0,1.0,0.0,?,0.0,0.0
5100000.0,22.46875,1.987459513151812E-7,5100000.0,90.2,80.23340715550661,80.32128514056225,78.27050997782705,53996.0,1112.0,0.0,1.0,0.0,?,3.0,19.0
5200000.0,22.921875,2.0393661947713967E-7,5200000.0,91.8,83.59507852355708,83.79446640316206,83.19672131147541,113996.0,1112.0,0.0,1.0,0.0,?,0.0,0.0
5300000.0,23.34375,2.077215726280379E-7,5300000.0,89.3,78.41436352632641,78.29614604462475,76.58643326039387,173996.0,1112.0,0.0,1.0,0.0,?,0.0,0.0
5400000.0,23.765625,2.104587878824937E-7,5400000.0,88.9,77.66707442698944,78.73563218390804,76.33262260127933,233996.0,1112.0,0.0,1.0,0.0,?,0.0,0.0
5500000.0,24.21875,2.1227341171147106E-7,5500000.0,88.5,76.80778290471427,76.48261758691207,75.16198704103671,293996.0,1112.0,0.0,1.0,0.0,?,0.0,0.0
5600000.0,24.640625,2.181538406552541E-7,5600000.0,88.9,77.66743388755654,77.71084337349397,76.48305084745762,353696.0,1112.0,0.0,1.0,0.0,?,0.0,0.0
5700000.0,25.0625,2.2298653170259475E-7,5700000.0,90.4,80.39343833736358,79.66101694915255,77.57009345794394,413696.0,1112.0,0.0,1.0,0.0,?,0.0,0.0
5800000.0,25.484375,2.2677148485349297E-7,5800000.0,88.8,77.39383174551912,76.66666666666667,75.75757575757575,473696.0,1112.0,0.0,1.0,0.0,?,0.0,0.0
5900000.0,25.9375,2.297320881754989E-7,5900000.0,89.0,77.6157064483045,78.26086956521739,75.1131221719457,533696.0,1112.0,0.0,1.0,0.0,?,0.0,63.0
6000000.0,26.375,2.3150405872406246E-7,6000000.0,90.4,80.5564107134177,80.7615230460922,78.47533632286996,593696.0,1112.0,0.0,1.0,0.0,?,0.0,0.0
6100000.0,26.828125,2.3783132847812456E-7,6100000.0,89.0,77.858382212632,79.4007490636704,76.13882863340564,653396.0,1112.0,0.0,1.0,0.0,?,0.0,1.0
6200000.0,27.265625,2.4287379346787945E-7,6200000.0,91.3,82.52703288934592,81.6842105263158,81.52866242038218,713396.0,1112.0,0.0,1.0,0.0,?,0.0,93.0
6300000.0,27.703125,2.468297154539163E-7,6300000.0,90.9,81.62403172782567,81.72690763052209,80.30303030303031,773396.0,1112.0,0.0,1.0,0.0,?,0.0,0.0
6400000.0,28.140625,2.4969909443623506E-7,6400000.0,88.8,77.46143288940405,76.71517671517671,76.2208067940552,833396.0,1112.0,0.0,1.0,0.0,?,0.0,0.0
6500000.0,28.59375,2.5154560312835724E-7,6500000.0,89.8,79.38686013378332,79.47686116700201,77.48344370860927,893396.0,1112.0,0.0,1.0,0.0,?,0.0,0.0
6600000.0,29.0625,2.5811239740707825E-7,6600000.0,90.4,80.55002897235268,81.2133072407045,78.61915367483296,953096.0,1112.0,0.0,1.0,0.0,?,0.0,0.0
6700000.0,29.5,2.631548623968331E-7,6700000.0,89.1,78.1080538260695,79.03846153846155,77.24425887265136,1013096.0,1112.0,0.0,1.0,0.0,?,0.0,0.0
6800000.0,29.9375,2.6711078438286996E-7,6800000.0,89.2,78.21702299314241,77.16701902748414,76.0,1073096.0,1112.0,0.0,1.0,0.0,?,0.0,0.0
6900000.0,30.375,2.699801633651887E-7,6900000.0,90.10000000000001,79.98819505647776,79.54545454545455,78.04878048780488,1133096.0,1112.0,0.0,1.0,0.0,?,0.0,0.0
7000000.0,30.828125,2.718266720573109E-7,7000000.0,89.1,77.54521857360636,76.25272331154684,73.21867321867323,1193096.0,1112.0,0.0,1.0,0.0,?,0.0,0.0
7100000.0,31.265625,2.77966545480821E-7,7100000.0,90.5,80.93456743543842,81.93916349809886,79.957805907173,1252796.0,1112.0,0.0,1.0,0.0,?,0.0,0.0
7200000.0,31.703125,2.830198759006131E-7,7200000.0,90.5,80.68556093197252,80.57259713701433,78.65168539325843,1312796.0,1112.0,0.0,1.0,0.0,?,0.0,0.0
7300000.0,32.15625,2.871283342958326E-7,7300000.0,88.3,76.48335745296671,75.0,75.05330490405117,1372796.0,1112.0,0.0,1.0,0.0,?,0.0,0.0
7400000.0,32.578125,2.899057128363187E-7,7400000.0,89.4,78.33834684802513,78.58585858585859,75.23364485981308,1432796.0,1112.0,0.0,1.0,0.0,?,0.0,0.0
7500000.0,33.0,2.916353534803624E-7,7500000.0,88.5,76.4487114373249,77.22772277227723,72.87735849056605,1492796.0,1112.0,0.0,1.0,0.0,?,0.0,0.0
7600000.0,33.40625,2.9733666451647893E-7,7600000.0,88.8,77.62434471295231,77.95275590551182,77.86561264822134,1552496.0,1112.0,0.0,1.0,0.0,?,0.0,0.0
7700000.0,33.859375,3.025704710226921E-7,7700000.0,90.7,81.23774401020022,82.5515947467167,79.47019867549669,1612496.0,1112.0,0.0,1.0,0.0,?,0.0,0.0
7800000.0,34.3125,3.0667892941791163E-7,7800000.0,90.5,80.3418449695816,80.45267489711935,76.65847665847667,1672496.0,1112.0,0.0,1.0,0.0,?,0.0,0.0
7900000.0,34.75,3.0955917383026756E-7,7900000.0,89.7,79.26864614195543,78.63070539419087,77.94432548179871,1732496.0,1112.0,0.0,1.0,0.0,?,0.0,0.0
8000000.0,35.203125,3.1141693600349964E-7,8000000.0,89.8,79.52160871817317,80.45977011494253,78.343949044586,1792496.0,1112.0,0.0,1.0,0.0,?,0.0,0.0
8100000.0,35.640625,3.17567674857047E-7,8100000.0,88.6,77.01529490989593,76.15062761506276,75.16339869281046,1852196.0,1112.0,0.0,1.0,0.0,?,0.0,0.0
8200000.0,36.09375,3.228127348443701E-7,8200000.0,87.9,75.61388517162987,76.18110236220473,73.92241379310344,1912196.0,1112.0,0.0,1.0,0.0,?,0.0,0.0
8300000.0,36.53125,3.267903876904813E-7,8300000.0,88.8,77.3831496387362,78.33655705996132,75.27593818984548,1972196.0,1112.0,0.0,1.0,0.0,?,0.0,0.0
8400000.0,36.96875,3.2968149753287446E-7,8400000.0,90.5,80.76409080969005,81.03792415169661,79.25764192139738,2032196.0,1112.0,0.0,1.0,0.0,?,0.0,0.0
8500000.0,37.40625,3.3148606437154955E-7,8500000.0,89.0,77.59783635830428,76.74418604651163,74.65437788018434,2092196.0,1112.0,0.0,1.0,0.0,?,0.0,0.0
8600000.0,37.828125,3.3741713398032734E-7,8600000.0,88.2,76.20200064536947,76.20967741935483,74.34782608695653,2151896.0,1112.0,0.0,1.0,0.0,?,0.0,0.0
8700000.0,38.28125,3.426621939676505E-7,8700000.0,89.7,78.7760148361838,79.14979757085021,76.046511627907,2211896.0,1112.0,0.0,1.0,0.0,?,0.0,0.0
8800000.0,38.734375,3.4678190584397994E-7,8800000.0,89.9,79.58573184140741,79.80000000000001,77.99564270152506,2271896.0,1112.0,0.0,1.0,0.0,?,0.0,0.0
8900000.0,39.1875,3.4977626960931566E-7,8900000.0,90.60000000000001,81.05449854885521,81.74757281553399,79.56521739130436,2331896.0,1112.0,0.0,1.0,0.0,?,0.0,0.0
9000000.0,39.625,3.5158083644799074E-7,9000000.0,89.5,78.85605200202981,79.72972972972974,77.32181425485962,2391896.0,1112.0,0.0,1.0,0.0,?,0.0,0.0
9100000.0,40.078125,3.579624980274175E-7,9100000.0,88.7,77.21186112545173,77.26358148893361,75.27352297592998,2451596.0,1112.0,0.0,1.0,0.0,?,0.0,0.0
9200000.0,40.515625,3.6303755930728395E-7,9200000.0,88.4,76.61394051070315,76.75350701402806,74.83731019522777,2511596.0,1112.0,0.0,1.0,0.0,?,0.0,0.0
9300000.0,40.953125,3.670260775834323E-7,9300000.0,87.6,74.91980405085616,75.49407114624506,72.00902934537245,2571596.0,1112.0,0.0,1.0,0.0,?,0.0,0.0
9400000.0,41.390625,3.6992805285586264E-7,9400000.0,89.60000000000001,78.94532262244105,79.03225806451614,76.57657657657658,2631596.0,1112.0,0.0,1.0,0.0,?,0.0,0.0
9500000.0,41.84375,3.718083219913146E-7,9500000.0,90.2,80.23675560126647,80.24193548387098,78.92473118279571,2691596.0,1112.0,0.0,1.0,0.0,?,0.0,0.0
9600000.0,42.28125,3.7796992627489913E-7,9600000.0,88.7,77.29574204748204,77.1255060728745,76.40918580375782,2751296.0,1112.0,0.0,1.0,0.0,?,0.0,0.0
9700000.0,42.734375,3.832262397433322E-7,9700000.0,89.9,79.34492744138868,80.5019305019305,76.62037037037038,2811296.0,1112.0,0.0,1.0,0.0,?,0.0,0.0
9800000.0,43.171875,3.872147580194806E-7,9800000.0,90.8,81.4761122386521,81.88976377952757,80.0865800865801,2871296.0,1112.0,0.0,1.0,0.0,?,0.0,0.0
9900000.0,43.625,3.9022037526592625E-7,9900000.0,90.8,81.53952347891695,82.60869565217392,80.79331941544886,2931296.0,1112.0,0.0,1.0,0.0,?,0.0,0.0
1.0E7,44.078125,3.9210064440137824E-7,1.0E7,89.8,79.40226171243943,79.09836065573771,77.43362831858407,2991296.0,1112.0,0.0,1.0,0.0,?,0.0,0.0
