learning evaluation instances,evaluation time (cpu seconds),model cost (RAM-Hours),classified instances,classifications correct (percent),Kappa Statistic (percent),Kappa Temporal Statistic (percent),Kappa M Statistic (percent),model training instances,model serialized size (bytes),labeling cost,newThreshold,maxPosterior,accuracyBaseLearner (percent),Change detected,Warning detected
100000.0,0.140625,5.9010926634073255E-9,100000.0,65.10000000000001,27.60237314857073,26.98744769874477,19.025522041763356,19800.0,9328.0,0.0,1.0,0.0,?,0.0,9.0
200000.0,0.3125,1.2473254981968138E-8,200000.0,68.10000000000001,34.81068532566049,38.05825242718448,29.424778761061955,39800.0,9328.0,0.0,1.0,0.0,?,0.0,0.0
300000.0,0.46875,1.786587138970693E-8,300000.0,66.10000000000001,30.838909743757135,29.521829521829524,26.143790849673206,59800.0,9328.0,0.0,1.0,0.0,?,0.0,0.0
400000.0,0.625,2.2676411188311047E-8,400000.0,66.5,32.032137639993515,33.79446640316207,27.173913043478265,79800.0,9328.0,0.0,1.0,0.0,?,0.0,0.0
500000.0,0.78125,2.690487437778049E-8,500000.0,64.9,28.80959914328134,27.027027027027028,24.19006479481641,99800.0,9328.0,0.0,1.0,0.0,?,0.0,0.0
600000.0,0.921875,3.0186622300081786E-8,600000.0,66.3,31.13229139419305,33.66141732283465,25.442477876106196,119800.0,9328.0,0.0,1.0,0.0,?,0.0,0.0
700000.0,1.0625,3.294450127416187E-8,700000.0,68.2,34.738440700227805,34.96932515337424,26.558891454965377,139800.0,9328.0,0.0,1.0,0.0,?,0.0,0.0
800000.0,1.203125,3.517851130002075E-8,800000.0,65.7,29.620236541665644,31.124497991967875,22.398190045248867,159800.0,9328.0,0.0,1.0,0.0,?,0.0,0.0
900000.0,1.34375,3.688865237765842E-8,900000.0,66.10000000000001,31.97415419191717,28.78151260504202,32.06412825651303,179800.0,9328.0,0.0,1.0,0.0,?,0.0,0.0
1000000.0,1.5,3.82067325214545E-8,1000000.0,67.80000000000001,34.64450262842762,37.35408560311285,29.540481400437642,199800.0,9328.0,0.0,1.0,0.0,?,0.0,0.0
1100000.0,1.640625,4.411306387434404E-8,1100000.0,65.9,30.97277776878108,34.042553191489375,27.7542372881356,219600.0,9328.0,0.0,1.0,0.0,?,0.0,0.0
1200000.0,1.796875,5.009357765730885E-8,1200000.0,67.0,32.978321533456004,33.198380566801625,28.725701943844495,239600.0,9328.0,0.0,1.0,0.0,?,0.0,0.0
1300000.0,1.9375,5.4952171113755975E-8,1300000.0,64.4,28.238827632082895,30.873786407766996,26.293995859213254,259600.0,9328.0,0.0,1.0,0.0,?,0.0,0.0
1400000.0,2.09375,5.976853167845144E-8,1400000.0,66.2,32.28732611064812,35.98484848484849,32.12851405622491,279600.0,9328.0,0.0,1.0,0.0,?,0.0,0.0
1500000.0,2.234375,6.357938723845615E-8,1500000.0,63.5,26.38457504739624,22.669491525423727,23.640167364016733,299600.0,9328.0,0.0,1.0,0.0,?,0.0,0.0
1600000.0,2.375,6.686637385023966E-8,1600000.0,67.0,33.66567500201014,36.04651162790699,31.535269709543574,319600.0,9328.0,0.0,1.0,0.0,?,0.0,0.0
1700000.0,2.515625,6.962949151380196E-8,1700000.0,65.2,28.894846102293343,26.42706131078224,23.348017621145374,339600.0,9328.0,0.0,1.0,0.0,?,0.0,0.0
1800000.0,2.65625,7.186874022914305E-8,1800000.0,69.1,36.93929029150782,39.648437499999986,32.53275109170304,359600.0,9328.0,0.0,1.0,0.0,?,0.0,0.0
1900000.0,2.8125,7.377471774816515E-8,1900000.0,68.2,35.219175124163264,36.40000000000001,29.490022172949004,379600.0,9328.0,0.0,1.0,0.0,?,0.0,0.0
2000000.0,2.953125,7.496622856706383E-8,2000000.0,65.2,29.07945953657095,29.41176470588236,22.83813747228381,399600.0,9328.0,0.0,1.0,0.0,?,0.0,0.0
2100000.0,3.09375,8.087779860943557E-8,2100000.0,66.10000000000001,31.384852042262075,32.60437375745527,28.329809725158565,419400.0,9328.0,0.0,1.0,0.0,?,0.0,0.0
2200000.0,3.25,8.686413315849173E-8,2200000.0,64.3,28.322464582864864,29.585798816568055,26.69404517453799,439400.0,9328.0,0.0,1.0,0.0,?,0.0,0.0
2300000.0,3.375,9.118753951042891E-8,2300000.0,66.5,32.52388855766288,33.66336633663367,30.06263048016702,459400.0,9328.0,0.0,1.0,0.0,?,0.0,0.0
2400000.0,3.53125,9.600972084121572E-8,2400000.0,66.8,32.875864829783715,35.53398058252428,29.21108742004265,479400.0,9328.0,0.0,1.0,0.0,?,0.0,0.0
2500000.0,3.6875,1.0024982556286786E-7,2500000.0,66.60000000000001,32.224025974025984,34.63796477495109,28.01724137931035,499400.0,9328.0,0.0,1.0,0.0,?,0.0,0.0
2600000.0,3.8125,1.0317624805288183E-7,2600000.0,65.3,30.042579271636406,33.39731285988484,27.100840336134457,519400.0,9328.0,0.0,1.0,0.0,?,0.0,0.0
2700000.0,3.96875,1.0625219955626461E-7,2700000.0,66.8,32.68587417124551,36.76190476190477,28.60215053763441,539400.0,9328.0,0.0,1.0,0.0,?,0.0,0.0
2800000.0,4.109375,1.0849668696108791E-7,2800000.0,64.9,29.04790782292299,29.376257545271635,26.105263157894736,559400.0,9328.0,0.0,1.0,0.0,?,0.0,0.0
2900000.0,4.25,1.1021730541769001E-7,2900000.0,66.2,31.964573268921104,31.578947368421055,30.165289256198353,579400.0,9328.0,0.0,1.0,0.0,?,0.0,0.0
3000000.0,4.390625,1.114140549260709E-7,3000000.0,66.7,31.65473532116118,30.625000000000007,24.830699774266364,599400.0,9328.0,0.0,1.0,0.0,?,0.0,0.0
3100000.0,4.53125,1.1733086365792486E-7,3100000.0,66.9,33.195553366863386,35.976789168278536,30.16877637130802,619200.0,9328.0,0.0,1.0,0.0,?,0.0,0.0
3200000.0,4.6875,1.2332301897307236E-7,3200000.0,67.30000000000001,33.62885744209271,30.720338983050855,30.2771855010661,639200.0,9328.0,0.0,1.0,0.0,?,0.0,0.0
3300000.0,4.828125,1.2819208980848391E-7,3300000.0,67.4,34.005959707197,37.54789272030653,30.341880341880344,659200.0,9328.0,0.0,1.0,0.0,?,0.0,0.0
3400000.0,4.984375,1.3302009190536207E-7,3400000.0,66.8,32.84219128647662,34.90196078431374,29.21108742004265,679200.0,9328.0,0.0,1.0,0.0,?,0.0,0.0
3500000.0,5.125,1.368414248443312E-7,3500000.0,68.30000000000001,35.87046238003529,35.95959595959597,31.681034482758623,699200.0,9328.0,0.0,1.0,0.0,?,0.0,0.0
3600000.0,5.28125,1.4050527372294E-7,3600000.0,65.0,29.45141419679428,28.86178861788618,27.385892116182575,719200.0,9328.0,0.0,1.0,0.0,?,0.0,0.0
3700000.0,5.421875,1.4327886876546674E-7,3700000.0,65.4,29.466924880236476,28.364389233954455,23.956043956043953,739200.0,9328.0,0.0,1.0,0.0,?,0.0,0.0
3800000.0,5.578125,1.457785644258062E-7,3800000.0,69.6,38.44359489405817,38.08553971486761,35.04273504273503,759200.0,9328.0,0.0,1.0,0.0,?,0.0,0.0
3900000.0,5.71875,1.475044215718905E-7,3900000.0,68.30000000000001,36.310595345248814,37.35177865612649,34.50413223140497,779200.0,9328.0,0.0,1.0,0.0,?,0.0,0.0
4000000.0,5.859375,1.4870640976975361E-7,4000000.0,66.5,32.27781057193916,34.57031250000001,28.723404255319153,799200.0,9328.0,0.0,1.0,0.0,?,0.0,0.0
4100000.0,6.015625,1.5528646246012713E-7,4100000.0,67.10000000000001,32.977509778357245,37.57115749525618,27.212389380530976,819000.0,9328.0,0.0,1.0,0.0,?,0.0,0.0
4200000.0,6.15625,1.6068464093324208E-7,4200000.0,69.1,37.58332323354743,38.56858846918488,34.810126582278464,839000.0,9328.0,0.0,1.0,0.0,?,0.0,0.0
4300000.0,6.296875,1.6555895045813583E-7,4300000.0,66.2,31.411224208185207,33.464566929133866,27.467811158798284,859000.0,9328.0,0.0,1.0,0.0,?,0.0,0.0
4400000.0,6.4375,1.6990939103480837E-7,4400000.0,64.7,28.664963786859797,23.92241379310345,25.995807127882603,879000.0,9328.0,0.0,1.0,0.0,?,0.0,0.0
4500000.0,6.578125,1.737359626632597E-7,4500000.0,66.60000000000001,32.653686706563654,30.41666666666667,29.53586497890296,899000.0,9328.0,0.0,1.0,0.0,?,0.0,0.0
4600000.0,6.71875,1.7703866534348984E-7,4600000.0,67.10000000000001,33.27925370107484,36.363636363636374,30.000000000000004,919000.0,9328.0,0.0,1.0,0.0,?,0.0,0.0
4700000.0,6.875,1.801262583790553E-7,4700000.0,67.2,33.11173195750148,30.508474576271194,27.912087912087912,939000.0,9328.0,0.0,1.0,0.0,?,0.0,0.0
4800000.0,7.015625,1.8238122316284302E-7,4800000.0,64.7,28.567959593343257,30.784313725490204,24.57264957264957,959000.0,9328.0,0.0,1.0,0.0,?,0.0,0.0
4900000.0,7.1875,1.8449700696186876E-7,4900000.0,67.5,33.63825703434476,34.34343434343435,29.65367965367966,979000.0,9328.0,0.0,1.0,0.0,?,0.0,0.0
5000000.0,7.3125,1.856771996244787E-7,5000000.0,69.69999999999999,38.965433889291745,38.787878787878775,36.874999999999986,999000.0,9328.0,0.0,1.0,0.0,?,0.0,0.0
5100000.0,7.46875,1.9240600522607553E-7,5100000.0,62.6,33.12830782434559,17.98245614035087,-1.081081081081082,17974.0,9232.0,0.0,1.0,0.0,?,1.0,11.0
5200000.0,7.625,1.9855273421853768E-7,5200000.0,63.3,33.72915267214168,20.9051724137931,5.167958656330754,37974.0,9232.0,0.0,1.0,0.0,?,0.0,0.0
5300000.0,7.796875,2.046738518401979E-7,5300000.0,64.4,35.066830093970694,26.74897119341564,10.10101010101011,57974.0,9232.0,0.0,1.0,0.0,?,0.0,0.0
5400000.0,7.9375,2.091514761559664E-7,5400000.0,61.8,31.570650616222405,18.550106609808097,-3.243243243243246,77974.0,9232.0,0.0,1.0,0.0,?,0.0,16.0
5500000.0,8.09375,2.1354453767546337E-7,5500000.0,64.1,34.17481994337935,27.180527383367142,11.793611793611804,97974.0,9232.0,0.0,1.0,0.0,?,0.0,0.0
5600000.0,8.25,2.1735552258582566E-7,5600000.0,62.5,32.400764322024735,17.943107221006557,2.5974025974025996,117974.0,9232.0,0.0,1.0,0.0,?,0.0,0.0
5700000.0,8.390625,2.2026154005693053E-7,5700000.0,61.1,30.76813554495622,12.780269058295952,-8.055555555555562,137974.0,9232.0,0.0,1.0,0.0,?,0.0,0.0
5800000.0,8.546875,2.2290837174902348E-7,5800000.0,64.60000000000001,35.41843019352579,26.70807453416149,11.055276381909557,157974.0,9232.0,0.0,1.0,0.0,?,0.0,0.0
5900000.0,8.6875,2.2476665132368593E-7,5900000.0,62.9,32.19087446355853,23.188405797101446,6.783919597989955,177974.0,9232.0,0.0,1.0,0.0,?,0.0,0.0
6000000.0,8.84375,2.2624932979750953E-7,6000000.0,65.5,36.458471467091016,26.282051282051285,15.647921760391212,197974.0,9232.0,0.0,1.0,0.0,?,0.0,0.0
6100000.0,8.984375,2.3230379964742384E-7,6100000.0,62.7,32.73461732669696,16.92650334075723,2.8645833333333357,217774.0,9232.0,0.0,1.0,0.0,?,0.0,0.0
6200000.0,9.140625,2.384489117604162E-7,6200000.0,61.7,31.88350122360708,17.456896551724128,-6.09418282548477,237774.0,9232.0,0.0,1.0,0.0,?,0.0,0.0
6300000.0,9.296875,2.4401194726427385E-7,6300000.0,64.1,34.80124367989772,25.363825363825367,7.235142118863055,257774.0,9232.0,0.0,1.0,0.0,?,0.0,0.0
6400000.0,9.4375,2.4849481026952456E-7,6400000.0,63.7,34.7643248916333,16.55172413793105,0.0,277774.0,9232.0,0.0,1.0,0.0,?,0.0,0.0
6500000.0,9.59375,2.5289369255511287E-7,6500000.0,62.6,32.90011446451063,15.765765765765757,-1.3550135501355027,297774.0,9232.0,0.0,1.0,0.0,?,0.0,0.0
6600000.0,9.75,2.567104982315665E-7,6600000.0,61.4,30.361111912940565,18.565400843881854,-0.5208333333333338,317774.0,9232.0,0.0,1.0,0.0,?,0.0,0.0
6700000.0,9.890625,2.596217543921536E-7,6700000.0,65.2,36.339289634280206,24.675324675324674,13.432835820895534,337774.0,9232.0,0.0,1.0,0.0,?,0.0,0.0
6800000.0,10.046875,2.622744068503379E-7,6800000.0,63.7,34.42160943461673,18.426966292134825,6.44329896907217,357774.0,9232.0,0.0,1.0,0.0,?,0.0,0.0
6900000.0,10.1875,2.6413792511448256E-7,6900000.0,64.2,34.92991333682313,24.63157894736842,7.731958762886605,377774.0,9232.0,0.0,1.0,0.0,?,0.0,0.0
7000000.0,10.34375,2.656264243543975E-7,7000000.0,63.2,34.0454512868306,22.851153039832283,-1.6574585635359134,397774.0,9232.0,0.0,1.0,0.0,?,0.0,0.0
7100000.0,10.484375,2.71686132893794E-7,7100000.0,64.4,35.24235004784063,27.4949083503055,6.561679790026252,417574.0,9232.0,0.0,1.0,0.0,?,0.0,0.0
7200000.0,10.640625,2.778370657728777E-7,7200000.0,64.7,35.934199159340544,28.397565922920897,6.613756613756619,437574.0,9232.0,0.0,1.0,0.0,?,0.0,0.0
7300000.0,10.796875,2.834059220428267E-7,7300000.0,62.1,31.927581004382503,20.54507337526205,-2.156334231805932,457574.0,9232.0,0.0,1.0,0.0,?,0.0,0.0
7400000.0,10.9375,2.878940237375596E-7,7400000.0,61.5,30.492868748871626,19.287211740041922,1.2820512820512833,477574.0,9232.0,0.0,1.0,0.0,?,0.0,0.0
7500000.0,11.09375,2.922987267892393E-7,7500000.0,64.0,34.07559331966012,23.404255319148934,10.891089108910899,497574.0,9232.0,0.0,1.0,0.0,?,0.0,0.0
7600000.0,11.25,2.961213532317843E-7,7600000.0,63.0,32.71748617980797,24.024640657084188,6.565656565656572,517574.0,9232.0,0.0,1.0,0.0,?,0.0,0.0
7700000.0,11.390625,2.9903784808185354E-7,7700000.0,61.4,31.201163520219016,16.45021645021644,-8.42696629213484,537574.0,9232.0,0.0,1.0,0.0,?,0.0,0.0
7800000.0,11.546875,3.016963213061292E-7,7800000.0,63.3,34.111310592459596,21.0752688172043,2.1333333333333355,557574.0,9232.0,0.0,1.0,0.0,?,0.0,0.0
7900000.0,11.6875,3.0356507825975604E-7,7900000.0,62.6,32.892890593879976,24.291497975708502,0.795755968169762,577574.0,9232.0,0.0,1.0,0.0,?,0.0,0.0
8000000.0,11.84375,3.0505939826576235E-7,8000000.0,64.1,34.85282909302072,23.779193205944797,7.712082262210804,597574.0,9232.0,0.0,1.0,0.0,?,0.0,0.0
8100000.0,11.984375,3.1112434549464107E-7,8100000.0,62.0,31.733501963560055,14.414414414414404,-1.8766756032171599,617374.0,9232.0,0.0,1.0,0.0,?,0.0,0.0
8200000.0,12.125,3.166654237752986E-7,8200000.0,64.9,35.876356461690236,29.940119760479046,11.586901763224192,637374.0,9232.0,0.0,1.0,0.0,?,0.0,0.0
8300000.0,12.28125,3.222401008113389E-7,8300000.0,65.3,36.37510451351709,27.708333333333336,14.742014742014753,657374.0,9232.0,0.0,1.0,0.0,?,0.0,0.0
8400000.0,12.421875,3.26733441195554E-7,8400000.0,65.10000000000001,36.58419583672521,21.923937360178968,7.915567282321907,677374.0,9232.0,0.0,1.0,0.0,?,0.0,0.0
8500000.0,12.578125,3.31143965013325E-7,8500000.0,65.0,35.89626183629737,24.07809110629067,11.392405063291148,697374.0,9232.0,0.0,1.0,0.0,?,0.0,0.0
8600000.0,12.71875,3.345895675010977E-7,8600000.0,63.9,34.079338529074484,26.626016260162604,10.199004975124387,717374.0,9232.0,0.0,1.0,0.0,?,0.0,0.0
8700000.0,12.875,3.3783593810059935E-7,8700000.0,64.0,34.53902746815141,22.58064516129032,6.976744186046517,737374.0,9232.0,0.0,1.0,0.0,?,0.0,0.0
8800000.0,13.03125,3.405002320909663E-7,8800000.0,65.5,36.686559933052926,23.672566371681413,11.764705882352951,757374.0,9232.0,0.0,1.0,0.0,?,0.0,0.0
8900000.0,13.15625,3.4216600599595215E-7,8900000.0,61.8,31.140401476695896,18.20128479657387,0.0,777374.0,9232.0,0.0,1.0,0.0,?,0.0,0.0
9000000.0,13.3125,3.436661467680498E-7,9000000.0,61.9,31.932196606971857,18.93617021276595,-3.2520325203252063,797374.0,9232.0,0.0,1.0,0.0,?,0.0,0.0
9100000.0,13.4375,3.490618675843706E-7,9100000.0,61.8,31.87330574975032,17.13665943600867,-3.80434782608696,817174.0,9232.0,0.0,1.0,0.0,?,0.0,0.0
9200000.0,13.59375,3.55224441995637E-7,9200000.0,64.7,35.65533131124592,23.92241379310345,9.02061855670104,837174.0,9232.0,0.0,1.0,0.0,?,0.0,0.0
9300000.0,13.75,3.608049397977687E-7,9300000.0,65.9,37.66999093381687,27.60084925690022,12.787723785166252,857174.0,9232.0,0.0,1.0,0.0,?,0.0,0.0
9400000.0,13.875,3.648036767521663E-7,9400000.0,65.5,36.5687557915484,27.672955974842772,15.233415233415245,877174.0,9232.0,0.0,1.0,0.0,?,0.0,0.0
9500000.0,14.03125,3.6922002133602865E-7,9500000.0,62.1,31.96766040553737,20.042194092827,-1.8817204301075288,897174.0,9232.0,0.0,1.0,0.0,?,0.0,0.0
9600000.0,14.171875,3.7267086251328356E-7,9600000.0,63.1,34.015235506598486,17.999999999999993,-2.7855153203342646,917174.0,9232.0,0.0,1.0,0.0,?,0.0,0.0
9700000.0,14.3125,3.7559783474231726E-7,9700000.0,62.7,33.16370412844037,19.957081545064373,1.5831134564643814,937174.0,9232.0,0.0,1.0,0.0,?,0.0,0.0
9800000.0,14.46875,3.782679494987756E-7,9800000.0,63.4,34.6876427592508,21.459227467811157,-0.5494505494505499,957174.0,9232.0,0.0,1.0,0.0,?,0.0,0.0
9900000.0,14.609375,3.801471838313669E-7,9900000.0,59.199999999999996,29.1440321213721,12.820512820512809,-20.710059171597653,977174.0,9232.0,0.0,1.0,0.0,?,0.0,0.0
1.0E7,14.765625,3.816531453695559E-7,1.0E7,62.8,33.26827588186332,21.848739495798316,0.5347593582887705,997174.0,9232.0,0.0,1.0,0.0,?,0.0,0.0
