learning evaluation instances,evaluation time (cpu seconds),model cost (RAM-Hours),classified instances,classifications correct (percent),Kappa Statistic (percent),Kappa Temporal Statistic (percent),Kappa M Statistic (percent),model training instances,model serialized size (bytes),labeling cost,newThreshold,maxPosterior,accuracyBaseLearner (percent),Change detected,Warning detected
100000.0,0.140625,3.1801755540072917E-9,100000.0,65.7,18.503312139442507,26.236559139784948,7.046070460704613,13388.0,5144.0,0.0,1.0,0.0,?,1.0,25.0
200000.0,0.265625,5.518053917007314E-9,200000.0,63.7,14.207924068104266,25.918367346938776,2.156334231805932,33388.0,5144.0,0.0,1.0,0.0,?,0.0,11.0
300000.0,0.40625,7.595194296704399E-9,300000.0,64.7,18.928105535855373,28.68686868686869,9.948979591836743,53388.0,5144.0,0.0,1.0,0.0,?,0.0,0.0
400000.0,0.546875,9.119361897723543E-9,400000.0,65.2,19.11980030957595,23.516483516483515,8.661417322834653,73388.0,5144.0,0.0,1.0,0.0,?,0.0,0.0
500000.0,0.671875,1.0001013935026196E-8,500000.0,64.4,14.665541658077283,24.093816631130064,4.043126684636123,93388.0,5144.0,0.0,1.0,0.0,?,0.0,1.0
600000.0,0.8125,1.3204763591703442E-8,600000.0,64.5,16.302799966049587,25.73221757322176,5.08021390374332,113288.0,5144.0,0.0,1.0,0.0,?,0.0,0.0
700000.0,0.96875,1.6155568624122275E-8,700000.0,66.2,19.615677321156774,22.831050228310502,6.111111111111116,133288.0,5144.0,0.0,1.0,0.0,?,0.0,22.0
800000.0,1.125,1.8491959458010065E-8,800000.0,64.60000000000001,14.583534407875698,24.680851063829788,2.2099447513812174,153288.0,5144.0,0.0,1.0,0.0,?,0.0,0.0
900000.0,1.28125,2.0213936093366808E-8,900000.0,65.60000000000001,16.348922262858913,22.86995515695067,2.8248587570621497,173288.0,5144.0,0.0,1.0,0.0,?,0.0,0.0
1000000.0,1.421875,2.1210742286509938E-8,1000000.0,65.10000000000001,18.90887123007575,28.336755646817252,8.63874345549739,193288.0,5144.0,0.0,1.0,0.0,?,0.0,0.0
1100000.0,1.5625,2.442264101571507E-8,1100000.0,65.3,19.69079800037031,26.79324894514768,8.684210526315796,213188.0,5144.0,0.0,1.0,0.0,?,0.0,4.0
1200000.0,1.703125,2.708156696624226E-8,1200000.0,65.0,20.005119672340978,27.685950413223143,9.32642487046633,233188.0,5144.0,0.0,1.0,0.0,?,0.0,0.0
1300000.0,1.84375,2.9187520138091512E-8,1300000.0,64.5,16.60950698600919,23.326133909287254,5.835543766578255,253188.0,5144.0,0.0,1.0,0.0,?,0.0,0.0
1400000.0,1.984375,3.074050053126282E-8,1400000.0,64.5,19.365829282696588,26.501035196687372,10.579345088161219,273188.0,5144.0,0.0,1.0,0.0,?,0.0,0.0
1500000.0,2.140625,3.185162010292212E-8,1500000.0,65.3,20.506922999386056,27.55741127348643,9.162303664921474,293188.0,5144.0,0.0,1.0,0.0,?,0.0,0.0
1600000.0,2.296875,3.54203964687056E-8,1600000.0,63.6,17.974049152473622,22.717622080679405,8.312342569269529,313088.0,5144.0,0.0,1.0,0.0,?,0.0,0.0
1700000.0,2.4375,3.8079322419232786E-8,1700000.0,64.7,14.063412924083677,27.066115702479344,1.1204481792717098,333088.0,5144.0,0.0,1.0,0.0,?,0.0,0.0
1800000.0,2.578125,4.0185275591082034E-8,1800000.0,64.5,17.821030408533662,22.31947483588621,9.2071611253197,353088.0,5144.0,0.0,1.0,0.0,?,0.0,0.0
1900000.0,2.71875,4.173825598425334E-8,1900000.0,66.10000000000001,18.50256272177401,24.666666666666668,5.571030640668529,373088.0,5144.0,0.0,1.0,0.0,?,0.0,0.0
2000000.0,2.875,4.284937555591264E-8,2000000.0,64.2,19.658886894075405,27.08757637474542,10.500000000000009,393088.0,5144.0,0.0,1.0,0.0,?,0.0,0.0
2100000.0,3.03125,4.642429606368143E-8,2100000.0,62.9,15.489749430523931,18.99563318777292,7.250000000000006,412988.0,5144.0,0.0,1.0,0.0,?,0.0,0.0
2200000.0,3.171875,4.9088751741995396E-8,2200000.0,65.5,20.28945325496285,31.000000000000007,12.87878787878789,432988.0,5144.0,0.0,1.0,0.0,?,0.0,0.0
2300000.0,3.3125,5.1200234641631425E-8,2300000.0,68.0,21.07534837834506,25.925925925925945,7.24637681159421,452988.0,5144.0,0.0,1.0,0.0,?,0.0,0.0
2400000.0,3.453125,5.2758744762589514E-8,2400000.0,66.60000000000001,20.993868745742198,26.914660831509853,8.24175824175825,472988.0,5144.0,0.0,1.0,0.0,?,0.0,0.0
2500000.0,3.59375,5.376428210486966E-8,2500000.0,64.0,12.413873642415057,22.413793103448274,1.6393442622950833,492988.0,5144.0,0.0,1.0,0.0,?,0.0,0.0
2600000.0,3.734375,5.698171056186157E-8,2600000.0,65.9,19.01468660346169,30.122950819672134,7.336956521739137,512888.0,5144.0,0.0,1.0,0.0,?,0.0,0.0
2700000.0,3.875,5.964616624017554E-8,2700000.0,65.3,16.881449472544528,24.40087145969499,4.143646408839783,532888.0,5144.0,0.0,1.0,0.0,?,0.0,0.0
2800000.0,4.015625,6.175764913981158E-8,2800000.0,63.3,15.051015684313828,20.73434125269978,4.4270833333333375,552888.0,5144.0,0.0,1.0,0.0,?,0.0,0.0
2900000.0,4.15625,6.331615926076967E-8,2900000.0,65.0,19.377130747258818,26.160337552742618,7.407407407407414,572888.0,5144.0,0.0,1.0,0.0,?,0.0,0.0
3000000.0,4.296875,6.432169660304983E-8,3000000.0,61.8,10.422421596169265,17.67241379310344,-1.3262599469496033,592888.0,5144.0,0.0,1.0,0.0,?,0.0,0.0
3100000.0,4.4375,6.754465478782852E-8,3100000.0,65.4,15.55661855509076,23.451327433628315,1.9830028328611915,612788.0,5144.0,0.0,1.0,0.0,?,0.0,0.0
3200000.0,4.578125,7.021464019392927E-8,3200000.0,65.3,19.034196968565666,23.230088495575217,6.720430107526888,632788.0,5144.0,0.0,1.0,0.0,?,0.0,0.0
3300000.0,4.71875,7.233165282135207E-8,3300000.0,64.7,16.97633943271086,25.52742616033755,4.851752021563346,652788.0,5144.0,0.0,1.0,0.0,?,0.0,0.0
3400000.0,4.859375,7.389569267009693E-8,3400000.0,65.4,17.551911318263922,27.15789473684211,4.155124653739616,672788.0,5144.0,0.0,1.0,0.0,?,0.0,0.0
3500000.0,5.0,7.490675974016386E-8,3500000.0,65.9,20.96162582631029,23.88392857142857,9.788359788359797,692788.0,5144.0,0.0,1.0,0.0,?,0.0,0.0
3600000.0,5.140625,7.812971792494254E-8,3600000.0,68.0,22.642531136381212,32.05944798301486,10.614525139664813,712688.0,5144.0,0.0,1.0,0.0,?,0.0,0.0
3700000.0,5.28125,8.079970333104328E-8,3700000.0,64.1,13.058219509832405,20.222222222222218,0.27777777777777807,732688.0,5144.0,0.0,1.0,0.0,?,0.0,0.0
3800000.0,5.453125,8.338716320900449E-8,3800000.0,64.2,17.469304575151348,24.312896405919663,6.52741514360314,752688.0,5144.0,0.0,1.0,0.0,?,0.0,0.0
3900000.0,5.59375,8.495120305774936E-8,3900000.0,64.60000000000001,17.909236370382402,24.358974358974358,8.05194805194806,772688.0,5144.0,0.0,1.0,0.0,?,0.0,0.0
4000000.0,5.75,8.607461091337927E-8,4000000.0,64.9,19.314054526228677,23.695652173913043,9.067357512953375,792688.0,5144.0,0.0,1.0,0.0,?,0.0,0.0
4100000.0,5.890625,8.930309882594474E-8,4100000.0,63.9,17.09535182803602,22.030237580993518,5.000000000000004,812588.0,5144.0,0.0,1.0,0.0,?,0.0,0.0
4200000.0,6.03125,9.197861395983226E-8,4200000.0,67.60000000000001,21.933354215357916,31.501057082452437,8.732394366197191,832588.0,5144.0,0.0,1.0,0.0,?,0.0,0.0
4300000.0,6.171875,9.410115631504185E-8,4300000.0,63.800000000000004,18.487561472087634,25.051759834368532,9.045226130653274,852588.0,5144.0,0.0,1.0,0.0,?,0.0,0.0
4400000.0,6.3125,9.567072589157349E-8,4400000.0,65.4,16.217891596606083,28.659793814432994,1.7045454545454561,872588.0,5144.0,0.0,1.0,0.0,?,0.0,0.0
4500000.0,6.453125,9.66873226894272E-8,4500000.0,66.3,20.21326969335379,29.497907949790797,10.372340425531924,892588.0,5144.0,0.0,1.0,0.0,?,0.0,0.0
4600000.0,6.59375,9.991581060199266E-8,4600000.0,64.1,15.460188577941478,22.961373390557938,4.010695187165779,912488.0,5144.0,0.0,1.0,0.0,?,0.0,0.0
4700000.0,6.734375,1.0259132573588018E-7,4700000.0,65.60000000000001,17.967110534549217,21.995464852607707,3.9106145251396685,932488.0,5144.0,0.0,1.0,0.0,?,0.0,0.0
4800000.0,6.875,1.0471386809108977E-7,4800000.0,62.3,12.453440092144499,21.621621621621617,0.0,952488.0,5144.0,0.0,1.0,0.0,?,0.0,0.0
4900000.0,7.015625,1.0628343766762141E-7,4900000.0,67.30000000000001,20.622590762120254,29.373650107991367,9.668508287292827,972488.0,5144.0,0.0,1.0,0.0,?,0.0,0.0
5000000.0,7.15625,1.0738414453549509E-7,5000000.0,65.9,16.966981591506762,27.4468085106383,3.9436619718309895,992488.0,5144.0,0.0,1.0,0.0,?,0.0,0.0
5100000.0,7.296875,1.107022722458673E-7,5100000.0,59.199999999999996,16.994889489274428,17.408906882591086,10.132158590308356,14619.0,5144.0,0.0,1.0,0.0,?,2.0,18.0
5200000.0,7.4375,1.134822701310945E-7,5200000.0,58.199999999999996,15.657788539144471,14.867617107942966,12.552301255230114,34619.0,5144.0,0.0,1.0,0.0,?,0.0,6.0
5300000.0,7.59375,1.1594477756362815E-7,5300000.0,59.699999999999996,18.263536207428082,18.42105263157894,11.622807017543847,54619.0,5144.0,0.0,1.0,0.0,?,0.0,3.0
5400000.0,7.734375,1.1760980770405788E-7,5400000.0,57.599999999999994,14.065666801783525,13.292433537832299,5.777777777777759,74619.0,5144.0,0.0,1.0,0.0,?,0.0,137.0
5500000.0,7.890625,1.1883992960469583E-7,5500000.0,63.0,24.539076521455375,24.489795918367346,18.859649122807014,94619.0,5144.0,0.0,1.0,0.0,?,0.0,4.0
5600000.0,8.03125,1.2215893042998176E-7,5600000.0,60.0,18.831168831168828,16.142557651991606,13.79310344827585,114519.0,5144.0,0.0,1.0,0.0,?,0.0,0.0
5700000.0,8.171875,1.2492495847658973E-7,5700000.0,61.1,20.235888518889126,19.12681912681912,12.189616252821658,134519.0,5144.0,0.0,1.0,0.0,?,0.0,0.0
5800000.0,8.3125,1.2713801374451976E-7,5800000.0,61.5,21.316165951359075,20.944558521560573,14.444444444444434,154519.0,5144.0,0.0,1.0,0.0,?,0.0,0.0
5900000.0,8.46875,1.2898254984368874E-7,5900000.0,59.3,17.71860166099254,20.196078431372545,14.135021097046405,174519.0,5144.0,0.0,1.0,0.0,?,0.0,0.0
6000000.0,8.609375,1.300896595542629E-7,6000000.0,61.5,21.754965003129787,20.944558521560573,16.48590021691973,194519.0,5144.0,0.0,1.0,0.0,?,0.0,0.0
6100000.0,8.765625,1.3378358239101033E-7,6100000.0,57.599999999999994,13.947069329436596,15.199999999999992,5.357142857142837,214419.0,5144.0,0.0,1.0,0.0,?,0.0,0.0
6200000.0,8.90625,1.3655514016540507E-7,6200000.0,59.0,16.29099699464262,12.579957356076749,10.087719298245599,234419.0,5144.0,0.0,1.0,0.0,?,0.0,0.0
6300000.0,9.046875,1.3877372516112187E-7,6300000.0,55.00000000000001,9.497894317674458,7.024793388429759,6.444906444906451,254419.0,5144.0,0.0,1.0,0.0,?,0.0,0.0
6400000.0,9.203125,1.4063992744518643E-7,6400000.0,59.599999999999994,18.591389225852463,20.315581854043387,15.657620041753646,274419.0,5144.0,0.0,1.0,0.0,?,0.0,22.0
6500000.0,9.34375,1.41757514534725E-7,6500000.0,57.99999999999999,14.864979912189288,16.50099403578528,10.064239828693776,294419.0,5144.0,0.0,1.0,0.0,?,0.0,119.0
6600000.0,9.484375,1.450808809345794E-7,6600000.0,56.599999999999994,11.123489201708717,13.199999999999989,1.5873015873015637,314319.0,5144.0,0.0,1.0,0.0,?,0.0,62.0
6700000.0,9.640625,1.4815909606921993E-7,6700000.0,59.699999999999996,18.56940796120428,17.922606924643578,15.157894736842096,334319.0,5144.0,0.0,1.0,0.0,?,0.0,0.0
6800000.0,9.796875,1.506228970053294E-7,6800000.0,59.3,17.619340630869875,19.24603174603174,13.034188034188023,354319.0,5144.0,0.0,1.0,0.0,?,0.0,0.0
6900000.0,9.9375,1.5228734506915E-7,6900000.0,58.599999999999994,16.226552540520846,17.52988047808764,10.967741935483858,374319.0,5144.0,0.0,1.0,0.0,?,0.0,0.0
7000000.0,10.09375,1.535223176081974E-7,7000000.0,57.8,14.993050379711137,13.16872427983538,12.629399585921314,394319.0,5144.0,0.0,1.0,0.0,?,0.0,0.0
7100000.0,10.234375,1.568512137358386E-7,7100000.0,60.099999999999994,18.352145762906087,20.359281437125745,12.114537444933909,414219.0,5144.0,0.0,1.0,0.0,?,0.0,0.0
7200000.0,10.359375,1.5931870115713928E-7,7200000.0,58.3,15.131434339816172,17.42574257425742,8.951965065502169,434219.0,5144.0,0.0,1.0,0.0,?,0.0,0.0
7300000.0,10.5,1.615416517274246E-7,7300000.0,59.5,17.658157331880307,13.829787234042543,11.572052401746712,454219.0,5144.0,0.0,1.0,0.0,?,0.0,0.0
7400000.0,10.640625,1.6321162951903198E-7,7400000.0,56.8,11.810457809878038,11.293634496919905,2.483069977426614,474219.0,5144.0,0.0,1.0,0.0,?,0.0,0.0
7500000.0,10.796875,1.6445274620006468E-7,7500000.0,60.3,18.946508779093506,20.758483033932134,11.581291759465467,494219.0,5144.0,0.0,1.0,0.0,?,0.0,0.0
7600000.0,10.9375,1.677816423277059E-7,7600000.0,58.599999999999994,16.48747110345467,19.298245614035086,12.473572938689207,514119.0,5144.0,0.0,1.0,0.0,?,0.0,0.0
7700000.0,11.078125,1.7055756567666915E-7,7700000.0,57.49999999999999,13.8525155065472,15.841584158415834,9.57446808510637,534119.0,5144.0,0.0,1.0,0.0,?,0.0,0.0
7800000.0,11.21875,1.7278051624695448E-7,7800000.0,58.9,17.052142113293456,16.122448979591827,13.836477987421372,554119.0,5144.0,0.0,1.0,0.0,?,0.0,0.0
7900000.0,11.359375,1.7445049403856186E-7,7900000.0,55.300000000000004,9.899377559905837,7.45341614906833,5.4968287526427115,574119.0,5144.0,0.0,1.0,0.0,?,0.0,0.0
8000000.0,11.5,1.755674990514913E-7,8000000.0,57.199999999999996,12.75099378248904,11.934156378600811,5.934065934065916,594119.0,5144.0,0.0,1.0,0.0,?,0.0,0.0
8100000.0,11.65625,1.792785608106188E-7,8100000.0,57.599999999999994,13.54948680202423,13.292433537832299,8.423326133909272,614019.0,5144.0,0.0,1.0,0.0,?,0.0,23.0
8200000.0,11.8125,1.8238587977571607E-7,8200000.0,56.00000000000001,10.697976497331094,15.384615384615397,6.976744186046519,634019.0,5144.0,0.0,1.0,0.0,?,0.0,14.0
8300000.0,11.96875,1.8487878454228228E-7,8300000.0,58.199999999999996,16.2824605746468,16.89860834990059,15.725806451612895,654019.0,5144.0,0.0,1.0,0.0,?,0.0,0.0
8400000.0,12.125,1.8675727511031747E-7,8400000.0,58.599999999999994,15.51192832799329,15.510204081632645,9.010989010988995,674019.0,5144.0,0.0,1.0,0.0,?,0.0,20.0
8500000.0,12.265625,1.878949438428712E-7,8500000.0,59.5,17.666192315511278,18.674698795180717,12.526997840172774,694019.0,5144.0,0.0,1.0,0.0,?,0.0,0.0
8600000.0,12.40625,1.9124450369013668E-7,8600000.0,57.3,12.9175674022107,17.08737864077669,5.947136563876634,713919.0,5144.0,0.0,1.0,0.0,?,0.0,0.0
8700000.0,12.546875,1.9404109075872422E-7,8700000.0,56.89999999999999,12.134778318695908,16.472868217054256,5.066079295154165,733919.0,5144.0,0.0,1.0,0.0,?,0.0,0.0
8800000.0,12.703125,1.9653399552529046E-7,8800000.0,56.49999999999999,11.385803802058282,7.838983050847441,4.185022026431698,753919.0,5144.0,0.0,1.0,0.0,?,0.0,0.0
8900000.0,12.875,1.9860033515012917E-7,8900000.0,57.99999999999999,14.053835040660703,15.322580645161283,6.4587973273941905,773919.0,5144.0,0.0,1.0,0.0,?,0.0,0.0
9000000.0,13.015625,1.997380038826829E-7,9000000.0,58.199999999999996,14.576725631886985,17.063492063492056,5.429864253393645,793919.0,5144.0,0.0,1.0,0.0,?,0.0,0.0
9100000.0,13.171875,2.034658811882965E-7,9100000.0,57.199999999999996,14.048285584612225,17.21470019342359,12.474437627811849,813819.0,5144.0,0.0,1.0,0.0,?,0.0,0.0
9200000.0,13.328125,2.065793442953791E-7,9200000.0,58.5,15.753146569224501,15.821501014198775,10.367170626349878,833819.0,5144.0,0.0,1.0,0.0,?,0.0,0.0
9300000.0,13.46875,2.0882848831307547E-7,9300000.0,60.699999999999996,19.97686863174698,21.868787276341944,14.750542299349231,853819.0,5144.0,0.0,1.0,0.0,?,0.0,0.0
9400000.0,13.625,2.1071312302309595E-7,9400000.0,59.9,18.138539803859114,17.827868852459012,12.253829321663007,873819.0,5144.0,0.0,1.0,0.0,?,0.0,0.0
9500000.0,13.765625,2.1185632148343645E-7,9500000.0,58.199999999999996,13.981503965493813,17.063492063492056,2.564102564102566,893819.0,5144.0,0.0,1.0,0.0,?,0.0,0.0
9600000.0,13.921875,2.1558419878905006E-7,9600000.0,56.599999999999994,12.450930158435563,15.728155339805816,9.014675052410887,913719.0,5144.0,0.0,1.0,0.0,?,0.0,0.0
9700000.0,14.09375,2.190090082068409E-7,9700000.0,60.6,19.962947313680246,19.262295081967206,16.34819532908704,933719.0,5144.0,0.0,1.0,0.0,?,0.0,0.0
9800000.0,14.265625,2.2175796200624757E-7,9800000.0,56.49999999999999,12.322427721431213,12.650602409638543,8.805031446540866,953719.0,5144.0,0.0,1.0,0.0,?,0.0,0.0
9900000.0,14.421875,2.2364259671626806E-7,9900000.0,55.60000000000001,10.00194590387236,11.20000000000001,5.128205128205133,973719.0,5144.0,0.0,1.0,0.0,?,0.0,0.0
1.0E7,14.578125,2.249128172277575E-7,1.0E7,58.8,15.65569508305456,18.897637795275585,8.240534521158112,993719.0,5144.0,0.0,1.0,0.0,?,0.0,0.0
