learning evaluation instances,evaluation time (cpu seconds),model cost (RAM-Hours),classified instances,classifications correct (percent),Kappa Statistic (percent),Kappa Temporal Statistic (percent),Kappa M Statistic (percent),model training instances,model serialized size (bytes),labeling cost,newThreshold,maxPosterior,accuracyBaseLearner (percent),Change detected,Warning detected
100000.0,0.4375,5.977797425455517E-9,100000.0,89.4,75.93534326189612,75.23364485981308,68.82352941176471,58394.0,1112.0,0.0,1.0,0.0,?,3.0,68.0
200000.0,0.90625,1.1218427163031365E-8,200000.0,91.3,80.76804046227441,80.53691275167786,75.35410764872522,118394.0,1112.0,0.0,1.0,0.0,?,0.0,0.0
300000.0,1.34375,1.5023138581050764E-8,300000.0,89.2,75.67918137926065,76.62337662337663,68.96551724137932,178394.0,1112.0,0.0,1.0,0.0,?,0.0,0.0
400000.0,1.78125,1.7741306995352107E-8,400000.0,87.9,73.13308227938042,74.4186046511628,66.29526462395543,238394.0,1112.0,0.0,1.0,0.0,?,0.0,0.0
500000.0,2.203125,1.931466006984313E-8,500000.0,87.7,72.50634812774936,73.71794871794872,65.54621848739495,298394.0,1112.0,0.0,1.0,0.0,?,0.0,0.0
600000.0,2.625,2.5078964730103805E-8,600000.0,87.3,71.65482269756812,72.97872340425532,65.10989010989012,358094.0,1112.0,0.0,1.0,0.0,?,0.0,0.0
700000.0,3.0625,2.997021915184127E-8,700000.0,89.4,75.58110069340461,75.63218390804597,67.97583081570997,418094.0,1112.0,0.0,1.0,0.0,?,0.0,0.0
800000.0,3.5,3.3774930569860666E-8,800000.0,88.5,73.98778556887584,73.92290249433107,67.14285714285715,478094.0,1112.0,0.0,1.0,0.0,?,0.0,0.0
900000.0,3.9375,3.649309898416201E-8,900000.0,88.2,73.35007611037587,75.0,65.99423631123919,538094.0,1112.0,0.0,1.0,0.0,?,0.0,0.0
1000000.0,4.375,3.8124724394745296E-8,1000000.0,88.3,73.40546438150656,74.0,66.1849710982659,598094.0,1112.0,0.0,1.0,0.0,?,0.0,0.0
1100000.0,4.828125,4.432726806650559E-8,1100000.0,88.4,75.0966079862602,76.89243027888446,69.94818652849742,657794.0,1112.0,0.0,1.0,0.0,?,0.0,76.0
1200000.0,5.25,4.905431220928828E-8,1200000.0,90.9,79.86992877051719,79.86725663716815,74.65181058495823,717794.0,1112.0,0.0,1.0,0.0,?,0.0,0.0
1300000.0,5.703125,5.300615965906117E-8,1300000.0,89.5,76.71613195078899,77.61194029850746,71.31147540983606,777794.0,1112.0,0.0,1.0,0.0,?,0.0,0.0
1400000.0,6.140625,5.573519350339969E-8,1400000.0,88.5,75.15855323414036,75.0,70.2842377260982,837794.0,1112.0,0.0,1.0,0.0,?,0.0,0.0
1500000.0,6.578125,5.737768434402015E-8,1500000.0,88.8,74.61606802893769,74.88789237668162,67.2514619883041,897794.0,1112.0,0.0,1.0,0.0,?,0.0,0.0
1600000.0,7.015625,6.336634719951285E-8,1600000.0,89.9,77.13835595353427,78.64693446088795,70.8092485549133,957494.0,1112.0,0.0,1.0,0.0,?,0.0,0.0
1700000.0,7.46875,6.844354276027944E-8,1700000.0,87.6,72.68241099753261,73.5042735042735,66.66666666666666,1017494.0,1112.0,0.0,1.0,0.0,?,0.0,0.0
1800000.0,7.90625,7.225911960833603E-8,1800000.0,88.7,74.36479128856625,74.43438914027149,66.76470588235294,1077494.0,1112.0,0.0,1.0,0.0,?,0.0,0.0
1900000.0,8.34375,7.498815345267455E-8,1900000.0,89.4,76.26224397934368,76.75438596491229,69.62750716332378,1137494.0,1112.0,0.0,1.0,0.0,?,0.0,0.0
2000000.0,8.78125,7.663064429329502E-8,2000000.0,88.2,72.10138074522415,71.21951219512196,63.125,1197494.0,1112.0,0.0,1.0,0.0,?,0.0,0.0
2100000.0,9.21875,8.26301725788249E-8,2100000.0,89.4,76.72335043215516,77.58985200845666,70.87912087912088,1257194.0,1112.0,0.0,1.0,0.0,?,0.0,0.0
2200000.0,9.671875,8.771862162070142E-8,2200000.0,89.7,75.50185519931502,76.5375854214123,67.8125,1317194.0,1112.0,0.0,1.0,0.0,?,0.0,0.0
2300000.0,10.109375,9.154506389879519E-8,2300000.0,87.3,71.92749778956676,72.21006564551422,65.10989010989012,1377194.0,1112.0,0.0,1.0,0.0,?,0.0,0.0
2400000.0,10.546875,9.42849631731709E-8,2400000.0,89.2,75.37046919256188,75.22935779816514,68.14159292035399,1437194.0,1112.0,0.0,1.0,0.0,?,0.0,0.0
2500000.0,10.984375,9.593831944382854E-8,2500000.0,87.7,71.29816308243728,72.23476297968398,62.03703703703704,1497194.0,1112.0,0.0,1.0,0.0,?,0.0,0.0
2600000.0,11.4375,1.0215211659669876E-7,2600000.0,89.0,76.43530419880035,77.22567287784679,72.50000000000001,1556894.0,1112.0,0.0,1.0,0.0,?,0.0,0.0
2700000.0,11.859375,1.0688963811844588E-7,2700000.0,90.4,78.83476566117106,80.87649402390439,73.4072022160665,1616894.0,1112.0,0.0,1.0,0.0,?,0.0,0.0
2800000.0,12.28125,1.1057942174375059E-7,2800000.0,90.10000000000001,76.69272059515963,77.3972602739726,69.0625,1676894.0,1112.0,0.0,1.0,0.0,?,0.0,0.0
2900000.0,12.734375,1.134171745636397E-7,2900000.0,88.8,74.60455666811784,74.25287356321839,67.816091954023,1736894.0,1112.0,0.0,1.0,0.0,?,0.0,0.0
3000000.0,13.15625,1.1501148239605958E-7,3000000.0,88.2,73.73201310728024,74.94692144373673,67.40331491712708,1796894.0,1112.0,0.0,1.0,0.0,?,0.0,0.0
3100000.0,13.59375,1.2102187611162664E-7,3100000.0,87.6,72.70177570546097,72.56637168141593,65.84022038567493,1856594.0,1112.0,0.0,1.0,0.0,?,0.0,0.0
3200000.0,14.015625,1.257698750123382E-7,3200000.0,87.7,73.1642609044735,73.9406779661017,67.02412868632707,1916594.0,1112.0,0.0,1.0,0.0,?,0.0,0.0
3300000.0,14.453125,1.2960718272046913E-7,3300000.0,88.1,73.02199047834958,73.84615384615385,65.5072463768116,1976594.0,1112.0,0.0,1.0,0.0,?,0.0,0.0
3400000.0,14.90625,1.3245618902146818E-7,3400000.0,89.4,75.22438294689604,76.01809954751131,68.45238095238095,2036594.0,1112.0,0.0,1.0,0.0,?,0.0,0.0
3500000.0,15.328125,1.340609742328525E-7,3500000.0,87.4,70.90660558593173,70.69767441860465,62.5,2096594.0,1112.0,0.0,1.0,0.0,?,0.0,0.0
3600000.0,15.765625,1.4007136794841955E-7,3600000.0,87.8,73.17266250329844,74.20718816067652,67.02702702702703,2156294.0,1112.0,0.0,1.0,0.0,?,0.0,0.0
3700000.0,16.21875,1.45171070471406E-7,3700000.0,89.1,74.61456052913503,74.65116279069768,67.46268656716417,2216294.0,1112.0,0.0,1.0,0.0,?,0.0,0.0
3800000.0,16.65625,1.4900837817953695E-7,3800000.0,89.60000000000001,77.3049645390071,78.46790890269152,72.26666666666667,2276294.0,1112.0,0.0,1.0,0.0,?,0.0,0.0
3900000.0,17.109375,1.51857384480536E-7,3900000.0,90.10000000000001,78.15244736725957,77.9510022271715,72.34636871508381,2336294.0,1112.0,0.0,1.0,0.0,?,0.0,0.0
4000000.0,17.546875,1.5352160618123084E-7,4000000.0,88.2,74.15001752541185,75.05285412262155,68.27956989247312,2396294.0,1112.0,0.0,1.0,0.0,?,0.0,0.0
4100000.0,17.984375,1.5954286532683508E-7,4100000.0,87.7,72.70282026471607,73.88535031847134,66.02209944751381,2455994.0,1112.0,0.0,1.0,0.0,?,0.0,0.0
4200000.0,18.4375,1.6465382133093148E-7,4200000.0,87.3,71.84035476718404,72.08791208791209,64.72222222222223,2515994.0,1112.0,0.0,1.0,0.0,?,0.0,0.0
4300000.0,18.875,1.6850199446909962E-7,4300000.0,86.2,69.36492150316118,69.67032967032966,61.23595505617977,2575994.0,1112.0,0.0,1.0,0.0,?,0.0,0.0
4400000.0,19.328125,1.713622542512086E-7,4400000.0,88.9,75.20483930055309,75.4424778761062,68.55524079320114,2635994.0,1112.0,0.0,1.0,0.0,?,0.0,0.0
4500000.0,19.75,1.7297751684155732E-7,4500000.0,89.4,76.44894531267357,75.79908675799086,70.47353760445682,2695994.0,1112.0,0.0,1.0,0.0,?,0.0,0.0
4600000.0,20.1875,1.7899877598716156E-7,4600000.0,88.1,73.60061051361232,75.25987525987526,67.3076923076923,2755694.0,1112.0,0.0,1.0,0.0,?,0.0,0.0
4700000.0,20.609375,1.8375725226683752E-7,4700000.0,89.0,75.34339920381595,77.45901639344262,68.75,2815694.0,1112.0,0.0,1.0,0.0,?,0.0,0.0
4800000.0,21.046875,1.8760542540500565E-7,4800000.0,90.0,77.22552199103598,78.35497835497836,70.41420118343196,2875694.0,1112.0,0.0,1.0,0.0,?,0.0,0.0
4900000.0,21.484375,1.903670555394557E-7,4900000.0,90.4,78.70754817417226,79.95824634655533,72.72727272727273,2935694.0,1112.0,0.0,1.0,0.0,?,0.0,0.0
5000000.0,21.921875,1.9212725520547895E-7,5000000.0,88.8,75.06956037840847,75.05567928730513,68.45070422535211,2995694.0,1112.0,0.0,1.0,0.0,?,0.0,0.0
5100000.0,22.375,1.984629650703735E-7,5100000.0,89.60000000000001,78.45470516092678,78.46790890269152,74.50980392156863,51154.0,1112.0,0.0,1.0,0.0,?,2.0,22.0
5200000.0,22.796875,2.033139915309019E-7,5200000.0,91.0,81.74175538821086,81.17154811715481,79.91071428571429,111154.0,1112.0,0.0,1.0,0.0,?,0.0,13.0
5300000.0,23.25,2.0739900517380902E-7,5300000.0,89.60000000000001,78.45300891299574,79.32405566600397,75.17899761336515,171154.0,1112.0,0.0,1.0,0.0,?,0.0,0.0
5400000.0,23.703125,2.1035867070572247E-7,5400000.0,88.0,75.42705726724304,76.47058823529413,72.2863741339492,231154.0,1112.0,0.0,1.0,0.0,?,0.0,0.0
5500000.0,24.140625,2.121297358017829E-7,5500000.0,88.2,75.54546057430865,75.56935817805383,71.63461538461539,291154.0,1112.0,0.0,1.0,0.0,?,0.0,0.0
5600000.0,24.59375,2.1846544566667747E-7,5600000.0,88.3,75.86334942443372,75.92592592592592,72.79069767441861,350854.0,1112.0,0.0,1.0,0.0,?,0.0,0.0
5700000.0,25.015625,2.2331647212720585E-7,5700000.0,90.3,79.66235312864296,78.82096069868996,75.6281407035176,410854.0,1112.0,0.0,1.0,0.0,?,0.0,0.0
5800000.0,25.46875,2.2740148577011298E-7,5800000.0,88.8,76.9026446471879,76.27118644067797,73.70892018779344,470854.0,1112.0,0.0,1.0,0.0,?,0.0,0.0
5900000.0,25.90625,2.3025909386989147E-7,5900000.0,88.9,76.87210901362671,77.71084337349397,73.25301204819277,530854.0,1112.0,0.0,1.0,0.0,?,0.0,0.0
6000000.0,26.328125,2.3196690664109261E-7,6000000.0,90.2,79.52061521743674,79.87679671457906,75.80246913580247,590854.0,1112.0,0.0,1.0,0.0,?,0.0,0.0
6100000.0,26.765625,2.3809500918206247E-7,6100000.0,88.9,77.36652366115851,78.81679389312978,74.59954233409611,650554.0,1112.0,0.0,1.0,0.0,?,0.0,0.0
6200000.0,27.203125,2.431365687193143E-7,6200000.0,90.7,81.04207436399219,80.08565310492506,78.91156462585033,710554.0,1112.0,0.0,1.0,0.0,?,0.0,0.0
6300000.0,27.640625,2.47091585252848E-7,6300000.0,90.8,81.0723734832182,81.22448979591837,78.65429234338748,770554.0,1112.0,0.0,1.0,0.0,?,0.0,0.0
6400000.0,28.078125,2.499600587826637E-7,6400000.0,88.9,77.29634205208342,76.72955974842768,74.82993197278913,830554.0,1112.0,0.0,1.0,0.0,?,0.0,0.0
6500000.0,28.53125,2.5180562968469337E-7,6500000.0,89.9,79.0111552592642,79.17525773195877,75.544794188862,890554.0,1112.0,0.0,1.0,0.0,?,0.0,0.0
6600000.0,28.96875,2.579337322256632E-7,6600000.0,90.4,79.93856184565232,80.20618556701031,76.2962962962963,950254.0,1112.0,0.0,1.0,0.0,?,0.0,0.0
6700000.0,29.421875,2.63155347460674E-7,6700000.0,88.6,76.79521574342837,77.55905511811024,74.72283813747228,1010254.0,1112.0,0.0,1.0,0.0,?,0.0,0.0
6800000.0,29.875,2.6725161458469106E-7,6800000.0,89.0,77.17643446109412,76.34408602150538,72.97297297297298,1070254.0,1112.0,0.0,1.0,0.0,?,0.0,0.0
6900000.0,30.296875,2.7001764263129906E-7,6900000.0,89.9,79.11756192366539,79.04564315352698,75.60386473429952,1130254.0,1112.0,0.0,1.0,0.0,?,0.0,0.0
7000000.0,30.75,2.7186321353332875E-7,7000000.0,88.4,75.2038203217518,73.5763097949886,69.39313984168865,1190254.0,1112.0,0.0,1.0,0.0,?,0.0,0.0
7100000.0,31.1875,2.7800218150433575E-7,7100000.0,90.3,80.23232117383331,81.27413127413128,77.85388127853882,1249954.0,1112.0,0.0,1.0,0.0,?,0.0,0.0
7200000.0,31.640625,2.8323505022045645E-7,7200000.0,90.3,79.56673042408514,79.04967602591793,75.87064676616916,1309954.0,1112.0,0.0,1.0,0.0,?,0.0,0.0
7300000.0,32.078125,2.8720093218402735E-7,7300000.0,87.7,74.76156864032568,73.60515021459227,71.52777777777779,1369954.0,1112.0,0.0,1.0,0.0,?,0.0,0.0
7400000.0,32.546875,2.9028593821244113E-7,7400000.0,89.3,77.43796494661022,77.75467775467776,72.4935732647815,1429954.0,1112.0,0.0,1.0,0.0,?,0.0,0.0
7500000.0,33.0,2.921427625955807E-7,7500000.0,88.5,75.88835680199938,76.86116700201208,71.10552763819096,1489954.0,1112.0,0.0,1.0,0.0,?,0.0,0.0
7600000.0,33.421875,2.9806248171048034E-7,7600000.0,88.9,77.535821257994,77.75551102204409,76.12903225806453,1549654.0,1112.0,0.0,1.0,0.0,?,0.0,0.0
7700000.0,33.875,3.0329535042660104E-7,7700000.0,90.4,80.25723181711616,81.78368121442125,77.19714964370547,1609654.0,1112.0,0.0,1.0,0.0,?,0.0,0.0
7800000.0,34.3125,3.0726123239017195E-7,7800000.0,90.4,79.34239972456534,79.3103448275862,74.33155080213905,1669654.0,1112.0,0.0,1.0,0.0,?,0.0,0.0
7900000.0,34.765625,3.1024340488430527E-7,7900000.0,89.60000000000001,78.429949185938,78.24267782426779,74.93975903614458,1729654.0,1112.0,0.0,1.0,0.0,?,0.0,0.0
8000000.0,35.1875,3.1197217241343524E-7,8000000.0,89.1,77.77197719282505,78.95752895752896,75.3393665158371,1789654.0,1112.0,0.0,1.0,0.0,?,0.0,0.0
8100000.0,35.640625,3.183416427216596E-7,8100000.0,88.1,75.52447552447553,74.94736842105263,72.00000000000001,1849354.0,1112.0,0.0,1.0,0.0,?,0.0,0.0
8200000.0,36.078125,3.2340493311898573E-7,8200000.0,88.5,76.37400565380318,77.0,73.31786542923435,1909354.0,1112.0,0.0,1.0,0.0,?,0.0,0.0
8300000.0,36.53125,3.275237072052227E-7,8300000.0,88.9,76.96636674524386,77.48478701825559,73.12348668280873,1969354.0,1112.0,0.0,1.0,0.0,?,0.0,0.0
8400000.0,36.96875,3.3041391159511275E-7,8400000.0,90.4,80.01839972358788,80.9145129224652,77.3049645390071,2029354.0,1112.0,0.0,1.0,0.0,?,0.0,0.0
8500000.0,37.421875,3.322819894593623E-7,8500000.0,88.2,75.36246408765952,74.40347071583514,70.93596059113301,2089354.0,1112.0,0.0,1.0,0.0,?,0.0,0.0
8600000.0,37.84375,3.3821218595322636E-7,8600000.0,87.9,75.19414171730342,75.40650406504065,71.7948717948718,2149054.0,1112.0,0.0,1.0,0.0,?,0.0,0.0
8700000.0,38.28125,3.432754763505525E-7,8700000.0,89.2,77.11864406779661,77.59336099585063,73.00000000000001,2209054.0,1112.0,0.0,1.0,0.0,?,0.0,0.0
8800000.0,38.734375,3.473942504367895E-7,8800000.0,89.7,78.90589160495446,79.4,76.5375854214123,2269054.0,1112.0,0.0,1.0,0.0,?,0.0,0.0
8900000.0,39.1875,3.503876764120327E-7,8900000.0,90.7,80.74805203408216,81.51093439363818,77.6978417266187,2329054.0,1112.0,0.0,1.0,0.0,?,0.0,0.0
9000000.0,39.625,3.521913377982047E-7,9000000.0,89.2,77.85278665261276,77.68595041322315,74.82517482517483,2389054.0,1112.0,0.0,1.0,0.0,?,0.0,0.0
9100000.0,40.078125,3.58572061587539E-7,9100000.0,88.0,75.34273597001678,75.35934291581108,72.22222222222221,2448754.0,1112.0,0.0,1.0,0.0,?,0.0,0.0
9200000.0,40.53125,3.638274372658796E-7,9200000.0,88.2,75.6556470646487,75.86912065439672,72.03791469194313,2508754.0,1112.0,0.0,1.0,0.0,?,0.0,0.0
9300000.0,40.984375,3.6795746483322645E-7,9300000.0,87.4,74.01333157338965,74.64788732394366,69.41747572815534,2568754.0,1112.0,0.0,1.0,0.0,?,0.0,0.0
9400000.0,41.421875,3.7085853465315367E-7,9400000.0,89.2,77.7279176427888,78.13765182186235,74.16267942583733,2628754.0,1112.0,0.0,1.0,0.0,?,0.0,0.0
9500000.0,41.859375,3.726730614693628E-7,9500000.0,90.0,79.42386831275721,79.38144329896907,76.74418604651163,2688754.0,1112.0,0.0,1.0,0.0,?,0.0,0.0
9600000.0,42.3125,3.790537852586971E-7,9600000.0,88.7,76.88102525492249,77.49003984063745,74.25968109339408,2748454.0,1112.0,0.0,1.0,0.0,?,0.0,0.0
9700000.0,42.71875,3.837655013841059E-7,9700000.0,89.3,77.6283547013908,79.1015625,73.96593673965938,2808454.0,1112.0,0.0,1.0,0.0,?,0.0,0.0
9800000.0,43.15625,3.877531142077512E-7,9800000.0,90.9,81.22658480632438,81.65322580645163,78.17745803357316,2868454.0,1112.0,0.0,1.0,0.0,?,0.0,0.0
9900000.0,43.609375,3.907577936641044E-7,9900000.0,91.10000000000001,81.76498549394353,82.85163776493258,79.25407925407927,2928454.0,1112.0,0.0,1.0,0.0,?,0.0,0.0
1.0E7,44.046875,3.9257232048031355E-7,1.0E7,90.2,79.80921771020047,79.4979079497908,76.83215130023642,2988454.0,1112.0,0.0,1.0,0.0,?,0.0,0.0
