learning evaluation instances,evaluation time (cpu seconds),model cost (RAM-Hours),classified instances,classifications correct (percent),Kappa Statistic (percent),Kappa Temporal Statistic (percent),Kappa M Statistic (percent),model training instances,model serialized size (bytes),labeling cost,newThreshold,maxPosterior,accuracyBaseLearner (percent),Change detected,Warning detected
100000.0,0.765625,1.5926230440123213E-8,100000.0,65.2,30.38217783752641,28.09917355371901,29.6969696969697,59491.0,2904.0,0.0,1.0,0.0,?,1.0,86.0
200000.0,1.515625,2.857824761627449E-8,200000.0,61.4,22.00286932449636,17.872340425531906,19.58333333333333,119491.0,2904.0,0.0,1.0,0.0,?,0.0,0.0
300000.0,2.265625,3.828107663947675E-8,300000.0,61.5,22.892048868415777,23.913043478260867,21.428571428571423,179491.0,2904.0,0.0,1.0,0.0,?,0.0,0.0
400000.0,3.0,4.4894016658266384E-8,400000.0,62.5,24.75983338817505,25.0,21.71189979123173,239491.0,2904.0,0.0,1.0,0.0,?,0.0,0.0
500000.0,3.734375,4.861920994396011E-8,500000.0,61.9,23.219539720285358,22.874493927125506,18.93617021276595,299491.0,2904.0,0.0,1.0,0.0,?,0.0,0.0
600000.0,4.484375,6.42204152730604E-8,600000.0,62.2,24.19988770353734,26.459143968871597,22.857142857142858,359191.0,2904.0,0.0,1.0,0.0,?,0.0,0.0
700000.0,5.21875,7.660884875804187E-8,700000.0,61.4,22.244828072437205,22.489959839357425,19.415448851774524,419191.0,2904.0,0.0,1.0,0.0,?,0.0,0.0
800000.0,5.953125,8.610953550992742E-8,800000.0,61.5,23.125459250503177,26.38623326959847,23.0,479191.0,2904.0,0.0,1.0,0.0,?,0.0,0.0
900000.0,6.703125,9.286317638018066E-8,900000.0,63.3,26.16823181968149,26.156941649899395,22.41014799154334,539191.0,2904.0,0.0,1.0,0.0,?,0.0,0.0
1000000.0,7.46875,9.674688852909539E-8,1000000.0,62.8,24.856075143924855,24.848484848484848,18.241758241758234,599191.0,2904.0,0.0,1.0,0.0,?,0.0,0.0
1100000.0,8.21875,1.1237758573972517E-7,1100000.0,61.7,23.301211961005777,17.811158798283255,19.706498951781963,658891.0,2904.0,0.0,1.0,0.0,?,0.0,0.0
1200000.0,8.953125,1.2479489669203758E-7,1200000.0,64.9,29.241859790023717,29.800000000000004,25.477707006369428,718891.0,2904.0,0.0,1.0,0.0,?,0.0,0.0
1300000.0,9.703125,1.3452721759676932E-7,1300000.0,63.800000000000004,27.274188363870138,30.783938814531552,23.30508474576271,778891.0,2904.0,0.0,1.0,0.0,?,0.0,0.0
1400000.0,10.453125,1.4131035034855206E-7,1400000.0,63.1,26.323187630282163,26.200000000000003,27.5049115913556,838891.0,2904.0,0.0,1.0,0.0,?,0.0,0.0
1500000.0,11.21875,1.4522416879319482E-7,1500000.0,62.8,25.2231245477205,29.007633587786263,20.85106382978723,898891.0,2904.0,0.0,1.0,0.0,?,0.0,0.0
1600000.0,11.96875,1.608548660038246E-7,1600000.0,61.9,23.438630335182054,24.254473161033797,20.459290187891437,958591.0,2904.0,0.0,1.0,0.0,?,0.0,0.0
1700000.0,12.71875,1.7353637506150538E-7,1700000.0,61.6,23.088324246806362,20.661157024793383,22.58064516129032,1018591.0,2904.0,0.0,1.0,0.0,?,0.0,0.0
1800000.0,13.5,1.836742093372676E-7,1800000.0,62.2,24.79258271821094,26.171875,23.481781376518217,1078591.0,2904.0,0.0,1.0,0.0,?,0.0,0.0
1900000.0,14.25,1.9045734208905034E-7,1900000.0,64.7,28.715670436187402,31.58914728682171,24.57264957264957,1138591.0,2904.0,0.0,1.0,0.0,?,0.0,0.0
2000000.0,15.0,1.9429128668788407E-7,2000000.0,61.8,23.624745582431288,22.828282828282827,23.44689378757515,1198591.0,2904.0,0.0,1.0,0.0,?,0.0,0.0
2100000.0,15.75,2.0995147578004334E-7,2100000.0,64.9,29.592156044643787,26.569037656903767,27.178423236514526,1258291.0,2904.0,0.0,1.0,0.0,?,0.0,0.0
2200000.0,16.515625,2.2292728923882047E-7,2200000.0,61.7,23.02497769131207,24.15841584158416,20.041753653444673,1318291.0,2904.0,0.0,1.0,0.0,?,0.0,0.0
2300000.0,17.25,2.3248573092536794E-7,2300000.0,65.4,30.446948711660387,32.156862745098046,26.84989429175476,1378291.0,2904.0,0.0,1.0,0.0,?,0.0,0.0
2400000.0,18.015625,2.3944028523854084E-7,2400000.0,62.7,24.9194847020934,24.949698189134807,21.802935010482177,1438291.0,2904.0,0.0,1.0,0.0,?,0.0,0.0
2500000.0,18.78125,2.433842099789116E-7,2500000.0,65.60000000000001,30.90010646204528,28.03347280334728,26.021505376344088,1498291.0,2904.0,0.0,1.0,0.0,?,0.0,0.0
2600000.0,19.515625,2.587181451316509E-7,2600000.0,65.5,30.391903670465183,32.87937743190662,25.16268980477224,1557991.0,2904.0,0.0,1.0,0.0,?,0.0,0.0
2700000.0,20.265625,2.7142914607086115E-7,2700000.0,62.9,25.574938614369863,22.54697286012526,22.54697286012526,1617991.0,2904.0,0.0,1.0,0.0,?,0.0,0.0
2800000.0,21.0,2.809875877574086E-7,2800000.0,63.4,26.774224527033525,28.235294117647065,26.8,1677991.0,2904.0,0.0,1.0,0.0,?,0.0,0.0
2900000.0,21.734375,2.8765828271086016E-7,2900000.0,61.199999999999996,22.004092774925514,19.999999999999996,17.970401691331915,1737991.0,2904.0,0.0,1.0,0.0,?,0.0,0.0
3000000.0,22.46875,2.914412309312158E-7,3000000.0,62.4,24.519817562793076,25.691699604743086,22.314049586776857,1797991.0,2904.0,0.0,1.0,0.0,?,0.0,0.0
3100000.0,23.203125,3.06804043551286E-7,3100000.0,64.9,29.695386735462375,29.659318637274552,28.07377049180328,1857691.0,2904.0,0.0,1.0,0.0,?,0.0,0.0
3200000.0,23.953125,3.1954453637202577E-7,3200000.0,63.2,25.790891638569363,24.897959183673468,24.435318275154003,1917691.0,2904.0,0.0,1.0,0.0,?,0.0,0.0
3300000.0,24.671875,3.289278700119919E-7,3300000.0,64.60000000000001,28.99322828075356,30.859375000000007,27.160493827160497,1977691.0,2904.0,0.0,1.0,0.0,?,0.0,0.0
3400000.0,25.375,3.35342354244656E-7,3400000.0,61.5,22.97103710995333,24.361493123772103,22.84569138276553,2037691.0,2904.0,0.0,1.0,0.0,?,0.0,0.0
3500000.0,26.109375,3.391541799323426E-7,3500000.0,62.9,25.72632050994586,25.352112676056336,24.13087934560327,2097691.0,2904.0,0.0,1.0,0.0,?,0.0,0.0
3600000.0,26.84375,3.5451699255241283E-7,3600000.0,64.0,27.687610477261764,21.052631578947363,22.246220302375807,2157391.0,2904.0,0.0,1.0,0.0,?,0.0,0.0
3700000.0,27.578125,3.6699205843938715E-7,3700000.0,63.0,25.821972734562955,25.252525252525253,24.18032786885246,2217391.0,2904.0,0.0,1.0,0.0,?,0.0,0.0
3800000.0,28.3125,3.765793775932656E-7,3800000.0,63.9,27.64661081492764,27.800000000000004,26.3265306122449,2277391.0,2904.0,0.0,1.0,0.0,?,0.0,0.0
3900000.0,29.0625,3.8342149410810734E-7,3900000.0,61.3,22.388897802021493,23.366336633663366,17.83439490445859,2337391.0,2904.0,0.0,1.0,0.0,?,0.0,0.0
4000000.0,29.8125,3.8731442247000005E-7,4000000.0,65.0,29.65785581066307,30.6930693069307,22.737306843267106,2397391.0,2904.0,0.0,1.0,0.0,?,0.0,0.0
4100000.0,30.5625,4.030335953252183E-7,4100000.0,61.199999999999996,22.197402034898868,21.138211382113816,18.99791231732776,2457091.0,2904.0,0.0,1.0,0.0,?,0.0,0.0
4200000.0,31.296875,4.155375386795236E-7,4200000.0,63.800000000000004,27.328207496035166,28.17460317460318,27.016129032258068,2517091.0,2904.0,0.0,1.0,0.0,?,0.0,0.0
4300000.0,32.046875,4.2535833522884383E-7,4300000.0,62.9,25.47087940344562,25.8,17.920353982300878,2577091.0,2904.0,0.0,1.0,0.0,?,0.0,0.0
4400000.0,32.796875,4.3222994362521503E-7,4400000.0,65.4,30.446948711660387,29.09836065573771,26.84989429175476,2637091.0,2904.0,0.0,1.0,0.0,?,0.0,0.0
4500000.0,33.515625,4.35988929691828E-7,4500000.0,63.9,27.527503412832253,27.800000000000004,24.791666666666668,2697091.0,2904.0,0.0,1.0,0.0,?,0.0,0.0
4600000.0,34.25,4.513806197792292E-7,4600000.0,63.4,26.927730327387735,27.236580516898613,29.206963249516445,2756791.0,2904.0,0.0,1.0,0.0,?,0.0,0.0
4700000.0,34.953125,4.6335248043760663E-7,4700000.0,61.6,23.042082352988334,25.72533849129594,21.792260692464353,2816791.0,2904.0,0.0,1.0,0.0,?,0.0,0.0
4800000.0,35.703125,4.7317327698692686E-7,4800000.0,63.3,26.13137745859735,23.221757322175733,20.73434125269978,2876791.0,2904.0,0.0,1.0,0.0,?,0.0,0.0
4900000.0,36.453125,4.800448853832981E-7,4900000.0,62.0,24.041017850360802,24.302788844621514,24.302788844621514,2936791.0,2904.0,0.0,1.0,0.0,?,0.0,0.0
5000000.0,37.1875,4.843248300150865E-7,5000000.0,63.5,26.780928538186267,25.204918032786882,25.357873210633947,2996791.0,2904.0,0.0,1.0,0.0,?,0.0,0.0
5100000.0,37.9375,5.005251862005228E-7,5100000.0,68.4,36.39291465378422,32.622601279317706,29.777777777777782,48325.0,2904.0,0.0,1.0,0.0,?,4.0,133.0
5200000.0,38.6875,5.13771697620137E-7,5200000.0,66.60000000000001,32.08980411771643,32.11382113821139,23.91799544419134,108325.0,2904.0,0.0,1.0,0.0,?,0.0,98.0
5300000.0,39.4375,5.239510533606841E-7,5300000.0,67.2,33.62903486903876,31.23689727463313,28.070175438596497,168325.0,2904.0,0.0,1.0,0.0,?,0.0,29.0
5400000.0,40.171875,5.31030592456874E-7,5400000.0,68.10000000000001,35.24367864624781,33.54166666666668,25.64102564102566,228325.0,2904.0,0.0,1.0,0.0,?,0.0,0.0
5500000.0,40.90625,5.35222384819968E-7,5500000.0,65.8,30.89233753637246,27.23404255319149,26.923076923076927,288325.0,2904.0,0.0,1.0,0.0,?,0.0,0.0
5600000.0,41.625,5.506302113644779E-7,5600000.0,67.5,33.90278625177955,34.21052631578948,27.77777777777778,348025.0,2904.0,0.0,1.0,0.0,?,0.0,0.0
5700000.0,42.328125,5.629382212646307E-7,5700000.0,66.5,32.10542102745779,30.9278350515464,23.69020501138952,408025.0,2904.0,0.0,1.0,0.0,?,0.0,0.0
5800000.0,43.078125,5.731175770051778E-7,5800000.0,68.0,35.159669314313504,32.203389830508485,27.272727272727277,468025.0,2904.0,0.0,1.0,0.0,?,0.0,0.0
5900000.0,43.84375,5.804983730841843E-7,5900000.0,64.7,28.55465872199869,28.542510121457493,20.135746606334838,528025.0,2904.0,0.0,1.0,0.0,?,0.0,0.0
6000000.0,44.578125,5.846901654472783E-7,6000000.0,67.60000000000001,34.746093828672244,34.939759036144586,28.47682119205298,588025.0,2904.0,0.0,1.0,0.0,?,0.0,0.0
6100000.0,45.328125,6.007973893752529E-7,6100000.0,65.0,29.294072014997724,29.859719438877757,22.566371681415927,647725.0,2904.0,0.0,1.0,0.0,?,0.0,0.0
6200000.0,46.078125,6.139554251502786E-7,6200000.0,66.10000000000001,31.44923198874069,30.103092783505158,26.78185745140389,707725.0,2904.0,0.0,1.0,0.0,?,0.0,0.0
6300000.0,46.828125,6.242868969113464E-7,6300000.0,67.2,33.91786474115144,36.18677042801558,29.00432900432901,767725.0,2904.0,0.0,1.0,0.0,?,0.0,48.0
6400000.0,47.5625,6.31515382944296E-7,6400000.0,70.39999999999999,39.72959765434109,40.56224899598393,32.72727272727271,827725.0,2904.0,0.0,1.0,0.0,?,0.0,0.0
6500000.0,48.3125,6.359484783994656E-7,6500000.0,68.89999999999999,36.93832527657916,36.530612244897945,29.95495495495494,887725.0,2904.0,0.0,1.0,0.0,?,0.0,0.0
6600000.0,49.046875,6.518402046317029E-7,6600000.0,67.60000000000001,33.580152765648656,27.027027027027028,20.782396088019578,947425.0,2904.0,0.0,1.0,0.0,?,0.0,0.0
6700000.0,49.796875,6.651208645457196E-7,6700000.0,68.2,35.33299440772752,31.01952277657267,28.539325842696634,1007425.0,2904.0,0.0,1.0,0.0,?,0.0,0.0
6800000.0,50.53125,6.752370973117651E-7,6800000.0,67.2,33.69987063389394,32.924335378323114,24.423963133640573,1067425.0,2904.0,0.0,1.0,0.0,?,0.0,0.0
6900000.0,51.28125,6.826193809198837E-7,6900000.0,68.89999999999999,36.68154277151606,34.93723849372384,27.84222737819025,1127425.0,2904.0,0.0,1.0,0.0,?,0.0,0.0
7000000.0,52.03125,6.870524763750534E-7,7000000.0,68.30000000000001,36.17877994765452,36.60000000000001,28.764044943820227,1187425.0,2904.0,0.0,1.0,0.0,?,0.0,0.0
7100000.0,52.75,7.026343438256947E-7,7100000.0,68.5,36.04320636725413,39.65517241379312,27.083333333333353,1247125.0,2904.0,0.0,1.0,0.0,?,0.0,0.0
7200000.0,53.5,7.159444956212409E-7,7200000.0,67.4,33.94257461854876,34.53815261044178,26.741573033707866,1307125.0,2904.0,0.0,1.0,0.0,?,0.0,0.0
7300000.0,54.25,7.263054592638381E-7,7300000.0,64.60000000000001,28.795845217454257,28.34008097165992,24.197002141327623,1367125.0,2904.0,0.0,1.0,0.0,?,0.0,0.0
7400000.0,54.984375,7.335628227641186E-7,7400000.0,67.0,33.07781225284421,33.46774193548388,24.137931034482776,1427125.0,2904.0,0.0,1.0,0.0,?,0.0,0.0
7500000.0,55.734375,7.380254101008177E-7,7500000.0,65.9,30.87370768295155,28.810020876826727,24.22222222222222,1487125.0,2904.0,0.0,1.0,0.0,?,0.0,0.0
7600000.0,56.46875,7.539460138003859E-7,7600000.0,67.5,33.93610706822674,33.12757201646092,25.968109339407746,1546825.0,2904.0,0.0,1.0,0.0,?,0.0,0.0
7700000.0,57.21875,7.672561655959321E-7,7700000.0,67.60000000000001,34.22201288761303,32.78008298755187,26.53061224489796,1606825.0,2904.0,0.0,1.0,0.0,?,0.0,0.0
7800000.0,57.953125,7.774012758293085E-7,7800000.0,69.39999999999999,37.429710663531324,36.64596273291924,28.337236533957842,1666825.0,2904.0,0.0,1.0,0.0,?,0.0,0.0
7900000.0,58.703125,7.848130513189567E-7,7900000.0,68.10000000000001,35.68133427963095,38.17829457364342,31.837606837606845,1726825.0,2904.0,0.0,1.0,0.0,?,0.0,0.0
8000000.0,59.453125,7.892756386556558E-7,8000000.0,66.0,31.285090077162803,26.565874730021598,24.276169265033406,1786825.0,2904.0,0.0,1.0,0.0,?,0.0,0.0
8100000.0,60.203125,8.055644704856806E-7,8100000.0,66.0,31.2383964794059,33.59375000000001,26.247288503253795,1846525.0,2904.0,0.0,1.0,0.0,?,0.0,0.0
8200000.0,60.953125,8.189041141627563E-7,8200000.0,67.4,33.97200899276934,34.53815261044178,26.410835214446955,1906525.0,2904.0,0.0,1.0,0.0,?,0.0,0.0
8300000.0,61.703125,8.29294569686883E-7,8300000.0,67.5,34.56656895274298,35.00000000000001,24.065420560747683,1966525.0,2904.0,0.0,1.0,0.0,?,0.0,0.0
8400000.0,62.46875,8.368908634616269E-7,8400000.0,68.89999999999999,36.26892464568801,36.270491803278674,26.477541371158388,2026525.0,2904.0,0.0,1.0,0.0,?,0.0,0.0
8500000.0,63.21875,8.413829426798556E-7,8500000.0,68.10000000000001,35.59458913789623,37.57338551859101,29.111111111111114,2086525.0,2904.0,0.0,1.0,0.0,?,0.0,0.0
8600000.0,63.96875,8.576717745098803E-7,8600000.0,69.69999999999999,38.48365248745309,40.118577075098806,32.81596452328158,2146225.0,2904.0,0.0,1.0,0.0,?,0.0,0.0
8700000.0,64.71875,8.710114181869561E-7,8700000.0,69.1,37.771369190987514,37.951807228915655,32.53275109170304,2206225.0,2904.0,0.0,1.0,0.0,?,0.0,0.0
8800000.0,65.4375,8.809689380642442E-7,8800000.0,66.7,32.25263055101194,29.449152542372886,24.660633484162894,2266225.0,2904.0,0.0,1.0,0.0,?,0.0,0.0
8900000.0,66.171875,8.882551790318556E-7,8900000.0,68.8,36.625811981783976,38.46153846153845,28.604118993135007,2326225.0,2904.0,0.0,1.0,0.0,?,0.0,0.0
9000000.0,66.921875,8.927472582500843E-7,9000000.0,66.3,31.722774202959634,32.05645161290323,26.096491228070178,2386225.0,2904.0,0.0,1.0,0.0,?,0.0,0.0
9100000.0,67.65625,9.087256168843145E-7,9100000.0,65.7,30.780904409034406,32.48031496062993,24.945295404814004,2445925.0,2904.0,0.0,1.0,0.0,?,0.0,0.0
9200000.0,68.40625,9.220947524429197E-7,9200000.0,65.5,30.38740920096852,31.41153081510935,25.0,2505925.0,2904.0,0.0,1.0,0.0,?,0.0,0.0
9300000.0,69.140625,9.322976176109581E-7,9300000.0,65.7,31.317581097316783,30.425963488843816,29.713114754098363,2565925.0,2904.0,0.0,1.0,0.0,?,0.0,0.0
9400000.0,69.890625,9.397683768636652E-7,9400000.0,66.4,32.25806451612904,34.24657534246576,25.333333333333336,2625925.0,2904.0,0.0,1.0,0.0,?,0.0,0.0
9500000.0,70.625,9.441957485655117E-7,9500000.0,65.3,29.315233687504083,26.79324894514768,20.412844036697265,2685925.0,2904.0,0.0,1.0,0.0,?,0.0,0.0
9600000.0,71.375,9.60514072277066E-7,9600000.0,67.30000000000001,34.08321238509918,33.6713995943205,28.913043478260875,2745625.0,2904.0,0.0,1.0,0.0,?,0.0,0.0
9700000.0,72.109375,9.736046841782002E-7,9700000.0,67.30000000000001,32.99345098071361,30.2771855010661,21.95704057279238,2805625.0,2904.0,0.0,1.0,0.0,?,0.0,0.0
9800000.0,72.859375,9.840246315838563E-7,9800000.0,69.5,38.066035820168125,39.12175648702594,30.99547511312215,2865625.0,2904.0,0.0,1.0,0.0,?,0.0,0.0
9900000.0,73.59375,9.913397500187988E-7,9900000.0,67.4,34.18927648578813,34.00809716599191,26.244343891402718,2925625.0,2904.0,0.0,1.0,0.0,?,0.0,0.0
1.0E7,74.3125,9.956729223227336E-7,1.0E7,68.60000000000001,36.282726125299824,35.655737704918046,28.473804100227795,2985625.0,2904.0,0.0,1.0,0.0,?,0.0,0.0
