learning evaluation instances,evaluation time (cpu seconds),model cost (RAM-Hours),classified instances,classifications correct (percent),Kappa Statistic (percent),Kappa Temporal Statistic (percent),Kappa M Statistic (percent),model training instances,model serialized size (bytes),labeling cost,newThreshold,maxPosterior,accuracyBaseLearner (percent),Change detected,Warning detected
100000.0,0.09375,4.226652284463247E-9,100000.0,55.800000000000004,12.045052036694342,10.707070707070717,9.611451942740295,29700.0,9312.0,0.0,1.0,0.0,?,0.0,9.0
200000.0,0.203125,8.727656677365303E-9,200000.0,55.400000000000006,11.549003042238336,3.87931034482759,5.307855626326969,59700.0,9312.0,0.0,1.0,0.0,?,0.0,0.0
300000.0,0.328125,1.338013033899996E-8,300000.0,57.099999999999994,15.598366267677108,9.302325581395333,7.1428571428571255,89700.0,9312.0,0.0,1.0,0.0,?,0.0,0.0
400000.0,0.4375,1.7020954853958553E-8,400000.0,56.3,12.749373073298495,10.997963340122187,11.538461538461526,119700.0,9312.0,0.0,1.0,0.0,?,0.0,0.0
500000.0,0.546875,2.0231689429945416E-8,500000.0,61.1,22.817460317460316,24.0234375,18.10526315789473,149700.0,9312.0,0.0,1.0,0.0,?,0.0,0.0
600000.0,0.65625,2.3012334066960547E-8,600000.0,58.4,17.13147410358565,21.804511278195477,12.788259958071269,179700.0,9312.0,0.0,1.0,0.0,?,0.0,0.0
700000.0,0.78125,2.569868229329586E-8,700000.0,54.6,10.03487634749525,6.004140786749488,1.3043478260869579,209700.0,9312.0,0.0,1.0,0.0,?,0.0,0.0
800000.0,0.90625,2.7893499160806337E-8,800000.0,54.300000000000004,10.451855625661324,7.676767676767684,-2.696629213483149,239700.0,9312.0,0.0,1.0,0.0,?,0.0,0.0
900000.0,1.03125,2.9596784669491977E-8,900000.0,55.400000000000006,11.078856705371965,16.791044776119406,3.4632034632034667,269700.0,9312.0,0.0,1.0,0.0,?,0.0,0.0
1000000.0,1.140625,3.065706955062018E-8,1000000.0,56.599999999999994,13.565101013319728,13.54581673306772,11.78861788617885,299700.0,9312.0,0.0,1.0,0.0,?,0.0,0.0
1100000.0,1.265625,3.629752124349276E-8,1100000.0,56.699999999999996,14.100936359308038,13.572854291417155,9.033613445378135,329400.0,9312.0,0.0,1.0,0.0,?,0.0,0.0
1200000.0,1.375,4.080282653578453E-8,1200000.0,54.50000000000001,10.044918229842157,10.95890410958905,2.5695931477516085,359400.0,9312.0,0.0,1.0,0.0,?,0.0,0.0
1300000.0,1.46875,4.429586826720171E-8,1300000.0,53.5,8.28474726037664,2.310924369747901,5.487804878048785,389400.0,9312.0,0.0,1.0,0.0,?,0.0,0.0
1400000.0,1.59375,4.846172588359978E-8,1400000.0,56.39999999999999,12.630503176161739,11.3821138211382,13.83399209486165,419400.0,9312.0,0.0,1.0,0.0,?,0.0,0.0
1500000.0,1.703125,5.167676135897636E-8,1500000.0,55.60000000000001,11.008133535903413,7.883817427385899,10.843373493975914,449400.0,9312.0,0.0,1.0,0.0,?,0.0,0.0
1600000.0,1.8125,5.446170689538121E-8,1600000.0,53.900000000000006,8.570204596479265,10.311284046692617,2.5369978858350977,479400.0,9312.0,0.0,1.0,0.0,?,0.0,0.0
1700000.0,1.921875,5.681656249281433E-8,1700000.0,62.6,25.599974536889686,25.940594059405942,22.727272727272727,509400.0,9312.0,0.0,1.0,0.0,?,0.0,0.0
1800000.0,2.03125,5.874132815127571E-8,1800000.0,54.400000000000006,9.784075306556087,10.059171597633144,3.594080338266388,539400.0,9312.0,0.0,1.0,0.0,?,0.0,0.0
1900000.0,2.140625,6.023600387076536E-8,1900000.0,54.900000000000006,10.13644913444066,10.869565217391314,7.39219712525668,569400.0,9312.0,0.0,1.0,0.0,?,0.0,0.0
2000000.0,2.28125,6.160475701714555E-8,2000000.0,57.3,14.326530284668646,15.612648221343866,9.72515856236785,599400.0,9312.0,0.0,1.0,0.0,?,0.0,0.0
2100000.0,2.40625,6.725012402360638E-8,2100000.0,55.00000000000001,10.308896161619392,11.591355599214156,8.722109533468569,629100.0,9312.0,0.0,1.0,0.0,?,0.0,0.0
2200000.0,2.515625,7.175973021528788E-8,2200000.0,55.400000000000006,10.969158598662553,11.332007952286292,8.606557377049189,659100.0,9312.0,0.0,1.0,0.0,?,0.0,0.0
2300000.0,2.625,7.583924646799764E-8,2300000.0,56.699999999999996,15.092711699557615,12.34817813765181,2.477477477477455,689100.0,9312.0,0.0,1.0,0.0,?,0.0,0.0
2400000.0,2.75,8.001001939798396E-8,2400000.0,53.900000000000006,8.0618398800217,6.1099796334012275,6.300813008130087,719100.0,9312.0,0.0,1.0,0.0,?,0.0,0.0
2500000.0,2.84375,8.276945057635508E-8,2500000.0,55.800000000000004,11.764118739145198,12.12723658051691,11.244979919678725,749100.0,9312.0,0.0,1.0,0.0,?,0.0,0.0
2600000.0,2.953125,8.555869701214965E-8,2600000.0,54.300000000000004,9.673083764873311,5.773195876288665,-0.43956043956044,779100.0,9312.0,0.0,1.0,0.0,?,0.0,0.0
2700000.0,3.0625,8.791785350897248E-8,2700000.0,54.900000000000006,10.286605452028216,6.237006237006243,7.581967213114761,809100.0,9312.0,0.0,1.0,0.0,?,0.0,0.0
2800000.0,3.171875,8.984692006682358E-8,2800000.0,55.7,12.496247017366452,13.645224171539974,5.944798301486205,839100.0,9312.0,0.0,1.0,0.0,?,0.0,0.0
2900000.0,3.296875,9.156003620268571E-8,2900000.0,54.50000000000001,8.901613742842281,10.784313725490206,7.520325203252039,869100.0,9312.0,0.0,1.0,0.0,?,0.0,0.0
3000000.0,3.40625,9.262892288259335E-8,3000000.0,54.0,9.792601424492481,9.090909090909099,-1.3215859030837016,899100.0,9312.0,0.0,1.0,0.0,?,0.0,0.0
3100000.0,3.5,9.686663462263015E-8,3100000.0,56.00000000000001,13.428430890309894,11.646586345381536,5.781584582441119,928800.0,9312.0,0.0,1.0,0.0,?,0.0,0.0
3200000.0,3.609375,1.0138054171370136E-7,3200000.0,55.7,12.327921281160204,8.659793814432998,1.7738359201773852,958800.0,9312.0,0.0,1.0,0.0,?,0.0,0.0
3300000.0,3.71875,1.0546435886580084E-7,3300000.0,57.8,15.07824071092794,14.747474747474737,13.524590163934416,988800.0,9312.0,0.0,1.0,0.0,?,0.0,0.0
3400000.0,3.84375,1.0964004710937541E-7,3400000.0,57.199999999999996,14.711473698054695,15.913555992141445,12.474437627811849,1018800.0,9312.0,0.0,1.0,0.0,?,0.0,0.0
3500000.0,3.984375,1.1378472360471885E-7,3500000.0,61.5,23.40442463791182,18.60465116279069,21.267893660531694,1048800.0,9312.0,0.0,1.0,0.0,?,0.0,0.0
3600000.0,4.109375,1.1697734913064375E-7,3600000.0,55.7,12.002606153063827,16.257088846880922,8.28157349896481,1078800.0,9312.0,0.0,1.0,0.0,?,0.0,0.0
3700000.0,4.265625,1.2035371683951883E-7,3700000.0,57.99999999999999,17.060301110602047,13.402061855670091,9.871244635193118,1108800.0,9312.0,0.0,1.0,0.0,?,0.0,0.0
3800000.0,4.390625,1.2256327964779406E-7,3800000.0,60.8,22.335636847777845,19.836400817995905,16.23931623931623,1138800.0,9312.0,0.0,1.0,0.0,?,0.0,0.0
3900000.0,4.53125,1.2449606502842574E-7,3900000.0,65.8,31.358381502890182,32.94117647058824,33.33333333333334,1168800.0,9312.0,0.0,1.0,0.0,?,0.0,0.0
4000000.0,4.671875,1.2587587763037948E-7,4000000.0,54.1,8.747514910536786,7.085020242914986,6.326530612244903,1198800.0,9312.0,0.0,1.0,0.0,?,0.0,0.0
4100000.0,4.8125,1.3223797496822148E-7,4100000.0,54.800000000000004,10.81399983425612,6.224066390041499,-0.6681514476614705,1228500.0,9312.0,0.0,1.0,0.0,?,0.0,0.0
4200000.0,4.96875,1.3869255781173708E-7,4200000.0,54.300000000000004,9.207222098604543,3.3826638477801296,4.989604989604994,1258500.0,9312.0,0.0,1.0,0.0,?,0.0,0.0
4300000.0,5.125,1.4453272645672165E-7,4300000.0,58.5,17.386630568937367,11.513859275053292,14.784394250513339,1288500.0,9312.0,0.0,1.0,0.0,?,0.0,0.0
4400000.0,5.28125,1.4975848090317517E-7,4400000.0,55.300000000000004,11.258109857298294,9.330628803245444,7.261410788381749,1318500.0,9312.0,0.0,1.0,0.0,?,0.0,0.0
4500000.0,5.421875,1.539086871263054E-7,4500000.0,62.8,24.978522076884918,27.34375,28.32369942196532,1348500.0,9312.0,0.0,1.0,0.0,?,0.0,0.0
4600000.0,5.578125,1.5790561317569683E-7,4600000.0,56.99999999999999,15.093259194610198,14.682539682539675,8.704883227176206,1378500.0,9312.0,0.0,1.0,0.0,?,0.0,0.0
4700000.0,5.703125,1.6061162265638514E-7,4700000.0,55.60000000000001,12.190491258602965,8.453608247422688,4.9250535331905825,1408500.0,9312.0,0.0,1.0,0.0,?,0.0,0.0
4800000.0,5.828125,1.628261007782486E-7,4800000.0,57.49999999999999,16.33924142329587,15.338645418326685,6.387665198237867,1438500.0,9312.0,0.0,1.0,0.0,?,0.0,0.0
4900000.0,5.96875,1.6476441588666708E-7,4900000.0,60.9,22.653900933692032,23.483365949119374,18.029350104821795,1468500.0,9312.0,0.0,1.0,0.0,?,0.0,0.0
5000000.0,6.078125,1.6590732330870302E-7,5000000.0,62.2,24.01338007783603,24.550898203592812,21.739130434782606,1498500.0,9312.0,0.0,1.0,0.0,?,0.0,0.0
5100000.0,6.21875,1.7235906044435176E-7,5100000.0,54.2,5.063159945774079,2.3454157782516014,-10.89588377723969,1528200.0,9312.0,0.0,1.0,0.0,?,0.0,0.0
5200000.0,6.359375,1.7825782480132255E-7,5200000.0,57.199999999999996,9.987591747460499,7.956989247311812,-15.363881401617263,1558200.0,9312.0,0.0,1.0,0.0,?,0.0,0.0
5300000.0,6.5,1.836036163796154E-7,5300000.0,56.00000000000001,7.87771184985743,0.0,-13.69509043927647,1588200.0,9312.0,0.0,1.0,0.0,?,0.0,0.0
5400000.0,6.609375,1.8733136433487145E-7,5400000.0,59.8,15.027816764462168,17.113402061855663,-5.235602094240843,1618200.0,9312.0,0.0,1.0,0.0,?,0.0,0.0
5500000.0,6.71875,1.9062902235115575E-7,5500000.0,60.4,8.13940541142412,17.327766179540703,-3.6649214659685896,1648200.0,9312.0,0.0,1.0,0.0,?,0.0,0.0
5600000.0,6.84375,1.9390624301094155E-7,5600000.0,61.0,6.894576012223075,19.254658385093162,-5.405405405405411,1678200.0,9312.0,0.0,1.0,0.0,?,0.0,0.0
5700000.0,6.96875,1.966919323119025E-7,5700000.0,60.9,6.781358178922554,16.09442060085836,-7.7134986225895386,1708200.0,9312.0,0.0,1.0,0.0,?,0.0,0.0
5800000.0,7.125,1.9955962973957268E-7,5800000.0,60.4,9.018641988356226,14.470842332613381,-1.278772378516625,1738200.0,9312.0,0.0,1.0,0.0,?,0.0,0.0
5900000.0,7.265625,2.015875846457979E-7,5900000.0,63.1,11.04918570230163,22.641509433962263,-2.7855153203342646,1768200.0,9312.0,0.0,1.0,0.0,?,0.0,0.0
6000000.0,7.40625,2.0306256677334517E-7,6000000.0,60.6,9.491868051088858,16.17021276595744,-1.0256410256410264,1798200.0,9312.0,0.0,1.0,0.0,?,0.0,0.0
6100000.0,7.53125,2.088023595408434E-7,6100000.0,59.599999999999994,5.5902711241768355,12.742980561555065,-7.161803713527857,1827900.0,9312.0,0.0,1.0,0.0,?,0.0,0.0
6200000.0,7.65625,2.140506209495168E-7,6200000.0,61.8,11.278335191378657,18.723404255319142,1.5463917525773208,1857900.0,9312.0,0.0,1.0,0.0,?,0.0,0.0
6300000.0,7.78125,2.1880735099936535E-7,6300000.0,59.9,7.620715075562108,13.763440860215043,-1.0075566750629732,1887900.0,9312.0,0.0,1.0,0.0,?,0.0,0.0
6400000.0,7.90625,2.2307254969038906E-7,6400000.0,58.599999999999994,9.025384994022922,14.639175257731948,3.27102803738318,1917900.0,9312.0,0.0,1.0,0.0,?,0.0,0.0
6500000.0,8.03125,2.2684621702258794E-7,6500000.0,62.7,10.889196808256477,21.966527196652716,-3.038674033149174,1947900.0,9312.0,0.0,1.0,0.0,?,0.0,0.0
6600000.0,8.1875,2.309488869893055E-7,6600000.0,57.99999999999999,4.54675618059753,13.402061855670091,-5.263157894736847,1977900.0,9312.0,0.0,1.0,0.0,?,0.0,0.0
6700000.0,8.328125,2.3408831718067336E-7,6700000.0,63.2,12.809018580208607,18.763796909492267,-0.2724795640326978,2007900.0,9312.0,0.0,1.0,0.0,?,0.0,0.0
6800000.0,8.484375,2.3696215875032883E-7,6800000.0,62.6,10.511329648505736,20.93023255813953,-5.352112676056343,2037900.0,9312.0,0.0,1.0,0.0,?,0.0,0.0
6900000.0,8.59375,2.385437579101159E-7,6900000.0,61.6,11.079412568369268,19.83298538622129,1.2853470437018006,2067900.0,9312.0,0.0,1.0,0.0,?,0.0,0.0
7000000.0,8.734375,2.4002426976545E-7,7000000.0,63.9,16.837139013287636,19.058295964125556,8.142493638676852,2097900.0,9312.0,0.0,1.0,0.0,?,0.0,0.0
7100000.0,8.84375,2.4505088933640065E-7,7100000.0,60.6,6.368821292775675,15.63169164882226,-3.6842105263157925,2127600.0,9312.0,0.0,1.0,0.0,?,0.0,0.0
7200000.0,8.96875,2.503040660586623E-7,7200000.0,62.2,9.378596087456856,19.7452229299363,-5.000000000000004,2157600.0,9312.0,0.0,1.0,0.0,?,0.0,0.0
7300000.0,9.140625,2.5685132843338793E-7,7300000.0,59.3,4.6159326546299795,14.315789473684202,-6.824146981627302,2187600.0,9312.0,0.0,1.0,0.0,?,0.0,0.0
7400000.0,9.296875,2.621889709391529E-7,7400000.0,60.5,7.397856318982718,16.49048625792811,-4.497354497354501,2217600.0,9312.0,0.0,1.0,0.0,?,0.0,0.0
7500000.0,9.4375,2.664398764156634E-7,7500000.0,62.3,8.406219630709444,17.505470459518595,-3.5714285714285747,2247600.0,9312.0,0.0,1.0,0.0,?,0.0,0.0
7600000.0,9.5625,2.697269277026257E-7,7600000.0,61.8,11.70814688805888,15.486725663716804,-1.0582010582010593,2277600.0,9312.0,0.0,1.0,0.0,?,0.0,0.0
7700000.0,9.6875,2.7252244763076314E-7,7700000.0,59.4,5.998064393641205,13.800424628450095,-6.005221932114887,2307600.0,9312.0,0.0,1.0,0.0,?,0.0,0.0
7800000.0,9.8125,2.7482643620007577E-7,7800000.0,59.8,4.8799878852123815,14.830508474576263,-6.914893617021282,2337600.0,9312.0,0.0,1.0,0.0,?,0.0,0.0
7900000.0,9.921875,2.7641233625925257E-7,7900000.0,60.8,12.70226573252153,21.12676056338028,5.995203836930461,2367600.0,9312.0,0.0,1.0,0.0,?,0.0,0.0
8000000.0,10.046875,2.7773326211091554E-7,8000000.0,58.5,5.204393034007619,11.324786324786313,-4.010025062656645,2397600.0,9312.0,0.0,1.0,0.0,?,0.0,0.0
8100000.0,10.1875,2.842015884299246E-7,8100000.0,60.3,5.640645351435087,15.711252653927804,-8.174386920980933,2427300.0,9312.0,0.0,1.0,0.0,?,0.0,0.0
8200000.0,10.34375,2.90774203474737E-7,8200000.0,57.99999999999999,3.570641392990965,11.57894736842104,-6.59898477157361,2457300.0,9312.0,0.0,1.0,0.0,?,0.0,0.0
8300000.0,10.484375,2.9613658423639017E-7,8300000.0,61.199999999999996,9.948382784358872,16.916488222698064,-1.0416666666666676,2487300.0,9312.0,0.0,1.0,0.0,?,0.0,0.0
8400000.0,10.609375,3.004116135545904E-7,8400000.0,61.5,10.53502379535989,19.287211740041922,0.7731958762886604,2517300.0,9312.0,0.0,1.0,0.0,?,0.0,0.0
8500000.0,10.75,3.046680487588877E-7,8500000.0,62.1,12.18314101672922,18.843683083511774,2.820512820512823,2547300.0,9312.0,0.0,1.0,0.0,?,0.0,0.0
8600000.0,10.859375,3.075485195343694E-7,8600000.0,60.4,5.776652596614602,13.725490196078422,-6.738544474393537,2577300.0,9312.0,0.0,1.0,0.0,?,0.0,0.0
8700000.0,10.984375,3.1034895477609514E-7,8700000.0,59.599999999999994,7.991108843785303,15.481171548117146,-3.061224489795921,2607300.0,9312.0,0.0,1.0,0.0,?,0.0,0.0
8800000.0,11.109375,3.1265785865899603E-7,8800000.0,57.99999999999999,5.497353925909927,15.492957746478863,-2.9411764705882377,2637300.0,9312.0,0.0,1.0,0.0,?,0.0,0.0
8900000.0,11.25,3.147024027485816E-7,8900000.0,59.199999999999996,4.0234860175392395,9.131403118040074,-8.51063829787235,2667300.0,9312.0,0.0,1.0,0.0,?,0.0,0.0
9000000.0,11.375,3.1602824391383276E-7,9000000.0,58.3,4.43319949397721,12.02531645569619,-6.649616368286451,2697300.0,9312.0,0.0,1.0,0.0,?,0.0,0.0
9100000.0,11.515625,3.225020999606286E-7,9100000.0,62.3,12.380190950756269,20.964360587002094,1.5665796344647531,2727000.0,9312.0,0.0,1.0,0.0,?,0.0,0.0
9200000.0,11.625,3.2710723139138696E-7,9200000.0,58.699999999999996,4.3272794662712935,15.368852459016386,-6.44329896907217,2757000.0,9312.0,0.0,1.0,0.0,?,0.0,0.0
9300000.0,11.75,3.3187870738200026E-7,9300000.0,55.900000000000006,3.670566443281413,7.933194154488525,-4.255319148936147,2787000.0,9312.0,0.0,1.0,0.0,?,0.0,0.0
9400000.0,11.859375,3.3562365893481517E-7,9400000.0,59.5,7.119465008118437,13.829787234042543,-6.0209424083769685,2817000.0,9312.0,0.0,1.0,0.0,?,0.0,0.0
9500000.0,12.0,3.3988562386689927E-7,9500000.0,61.6,6.37434657096043,15.418502202643161,-7.8651685393258495,2847000.0,9312.0,0.0,1.0,0.0,?,0.0,0.0
9600000.0,12.140625,3.4359461602030543E-7,9600000.0,61.199999999999996,9.020564166295403,16.916488222698064,-4.582210242587605,2877000.0,9312.0,0.0,1.0,0.0,?,0.0,0.0
9700000.0,12.28125,3.4675063539503365E-7,9700000.0,62.6,12.471213794911161,17.98245614035087,1.0582010582010593,2907000.0,9312.0,0.0,1.0,0.0,?,0.0,0.0
9800000.0,12.453125,3.4993213679020617E-7,9800000.0,59.3,4.365806663846994,15.560165975103727,-7.671957671957679,2937000.0,9312.0,0.0,1.0,0.0,?,0.0,0.0
9900000.0,12.5625,3.5152663864816243E-7,9900000.0,62.9,10.182540066818401,22.869022869022867,-1.6438356164383578,2967000.0,9312.0,0.0,1.0,0.0,?,0.0,0.0
1.0E7,12.671875,3.5269105056714696E-7,1.0E7,61.0,7.010014306151616,16.30901287553647,-5.405405405405411,2997000.0,9312.0,0.0,1.0,0.0,?,0.0,0.0
