learning evaluation instances,evaluation time (cpu seconds),model cost (RAM-Hours),classified instances,classifications correct (percent),Kappa Statistic (percent),Kappa Temporal Statistic (percent),Kappa M Statistic (percent),model training instances,model serialized size (bytes),labeling cost,newThreshold,maxPosterior,accuracyBaseLearner (percent),Change detected,Warning detected
100000.0,0.34375,1.3135076086554263E-8,100000.0,82.69999999999999,64.51864309446655,63.807531380753126,59.86078886310905,9862.0,3024.0,0.0,1.0,0.0,?,1.0,2.0
200000.0,0.6875,2.4989583633012243E-8,200000.0,83.89999999999999,67.38038122406638,68.7378640776699,64.38053097345133,19862.0,3024.0,0.0,1.0,0.0,?,0.0,0.0
300000.0,1.015625,3.508288904817568E-8,300000.0,85.1,69.94367970048575,69.02286902286902,67.53812636165577,29862.0,3024.0,0.0,1.0,0.0,?,0.0,0.0
400000.0,1.34375,4.39538335841563E-8,400000.0,83.0,65.78099838969402,66.40316205533597,63.043478260869556,39862.0,3024.0,0.0,1.0,0.0,?,0.0,0.0
500000.0,1.671875,5.1602417240954104E-8,500000.0,83.1,65.91752444258009,64.86486486486486,63.49892008639307,49862.0,3024.0,0.0,1.0,0.0,?,0.0,0.0
600000.0,2.015625,5.833465062702695E-8,600000.0,84.0,67.65219641586336,68.503937007874,64.60176991150442,59862.0,3024.0,0.0,1.0,0.0,?,0.0,0.0
700000.0,2.34375,6.353851252545913E-8,700000.0,85.6,70.75322628472546,70.5521472392638,66.74364896073904,69862.0,3024.0,0.0,1.0,0.0,?,0.0,0.0
800000.0,2.6875,6.770960883133941E-8,800000.0,82.6,64.70874574071068,65.0602409638554,60.63348416289591,79862.0,3024.0,0.0,1.0,0.0,?,0.0,0.0
900000.0,3.015625,7.046874897140595E-8,900000.0,83.39999999999999,66.76809737347853,65.12605042016806,66.73346693386773,89862.0,3024.0,0.0,1.0,0.0,?,0.0,0.0
1000000.0,3.375,7.215188816189766E-8,1000000.0,84.1,67.93527361899844,69.06614785992218,65.20787746170677,99862.0,3024.0,0.0,1.0,0.0,?,0.0,0.0
1100000.0,3.703125,8.470213894421855E-8,1100000.0,83.8,67.40285245162744,68.66537717601547,65.6779661016949,109762.0,3024.0,0.0,1.0,0.0,?,0.0,0.0
1200000.0,4.046875,9.65694521760775E-8,1200000.0,84.3,68.43180465520291,68.21862348178136,66.09071274298056,119762.0,3024.0,0.0,1.0,0.0,?,0.0,0.0
1300000.0,4.375,1.0667498120003276E-7,1300000.0,81.69999999999999,63.28014639784254,64.46601941747572,62.11180124223601,129762.0,3024.0,0.0,1.0,0.0,?,0.0,0.0
1400000.0,4.71875,1.1598115735169914E-7,1400000.0,83.0,65.97713663581926,67.8030303030303,65.86345381526102,139762.0,3024.0,0.0,1.0,0.0,?,0.0,0.0
1500000.0,5.046875,1.2364196461728878E-7,1500000.0,83.6,67.12754911825662,65.25423728813558,65.69037656903764,149762.0,3024.0,0.0,1.0,0.0,?,0.0,0.0
1600000.0,5.390625,1.303870036887626E-7,1600000.0,83.8,67.57198219261441,68.6046511627907,66.39004149377593,159762.0,3024.0,0.0,1.0,0.0,?,0.0,0.0
1700000.0,5.734375,1.3585147422014012E-7,1700000.0,82.3,64.3424095667099,62.57928118393233,61.01321585903082,169762.0,3024.0,0.0,1.0,0.0,?,0.0,0.0
1800000.0,6.0625,1.398451988481813E-7,1800000.0,84.7,69.1041412566739,70.1171875,66.5938864628821,179762.0,3024.0,0.0,1.0,0.0,?,0.0,0.0
1900000.0,6.40625,1.4274853229936627E-7,1900000.0,83.6,66.84256282727804,67.19999999999999,63.636363636363626,189762.0,3024.0,0.0,1.0,0.0,?,0.0,0.0
2000000.0,6.75,1.4437129721045495E-7,2000000.0,83.7,67.1683398056688,66.93711967545639,63.858093126385796,199762.0,3024.0,0.0,1.0,0.0,?,0.0,0.0
2100000.0,7.078125,1.5693377160156768E-7,2100000.0,83.5,66.85682146874497,67.19681908548706,65.11627906976743,209662.0,3024.0,0.0,1.0,0.0,?,0.0,0.0
2200000.0,7.421875,1.6881389051882758E-7,2200000.0,83.89999999999999,67.76880019859223,68.24457593688362,66.94045174537987,219662.0,3024.0,0.0,1.0,0.0,?,0.0,0.0
2300000.0,7.765625,1.794134408959912E-7,2300000.0,82.19999999999999,64.31306663031143,64.75247524752474,62.83924843423798,229662.0,3024.0,0.0,1.0,0.0,?,0.0,0.0
2400000.0,8.09375,1.8830883264955547E-7,2400000.0,85.7,71.30035483197662,72.23300970873787,69.5095948827292,239662.0,3024.0,0.0,1.0,0.0,?,0.0,0.0
2500000.0,8.453125,1.9671262836911612E-7,2500000.0,84.0,67.7959551719696,68.68884540117416,65.51724137931033,249662.0,3024.0,0.0,1.0,0.0,?,0.0,0.0
2600000.0,8.78125,2.0316329836431477E-7,2600000.0,83.7,67.3026928138139,68.71401151631477,65.7563025210084,259662.0,3024.0,0.0,1.0,0.0,?,0.0,0.0
2700000.0,9.125,2.0864057458109325E-7,2700000.0,84.5,68.7726650012088,70.47619047619047,66.66666666666666,269662.0,3024.0,0.0,1.0,0.0,?,0.0,0.0
2800000.0,9.5,2.1321880113747384E-7,2800000.0,83.3,66.42541214314434,66.39839034205231,64.84210526315789,279662.0,3024.0,0.0,1.0,0.0,?,0.0,0.0
2900000.0,9.828125,2.1600238849512404E-7,2900000.0,83.6,67.12847155410172,66.80161943319838,66.11570247933884,289662.0,3024.0,0.0,1.0,0.0,?,0.0,0.0
3000000.0,10.15625,2.1756361497359143E-7,3000000.0,85.2,70.134435399573,69.16666666666667,66.59142212189614,299662.0,3024.0,0.0,1.0,0.0,?,0.0,0.0
3100000.0,10.515625,2.3133590325920118E-7,3100000.0,83.8,67.51215286133704,68.66537717601547,65.82278481012658,309562.0,3024.0,0.0,1.0,0.0,?,0.0,0.0
3200000.0,10.859375,2.4322882786186203E-7,3200000.0,84.2,68.20682466667472,66.52542372881355,66.31130063965884,319562.0,3024.0,0.0,1.0,0.0,?,0.0,0.0
3300000.0,11.1875,2.5360055992172824E-7,3300000.0,83.2,66.25313363759078,67.81609195402298,64.1025641025641,329562.0,3024.0,0.0,1.0,0.0,?,0.0,15.0
3400000.0,11.546875,2.6361832472806175E-7,3400000.0,84.0,67.89250410373931,68.62745098039214,65.88486140724946,339562.0,3024.0,0.0,1.0,0.0,?,0.0,2.0
3500000.0,11.875,2.715303950632612E-7,3500000.0,84.3,68.35851216484207,68.28282828282828,66.16379310344827,349562.0,3024.0,0.0,1.0,0.0,?,0.0,34.0
3600000.0,12.203125,2.7823504448557895E-7,3600000.0,83.39999999999999,66.70410783055199,66.260162601626,65.56016597510373,359562.0,3024.0,0.0,1.0,0.0,?,0.0,19.0
3700000.0,12.578125,2.845005171063046E-7,3700000.0,84.2,68.08403191596808,67.28778467908903,65.27472527472527,369562.0,3024.0,0.0,1.0,0.0,?,0.0,0.0
3800000.0,12.90625,2.887597656808794E-7,3800000.0,85.3,70.39918809201623,70.061099796334,68.58974358974358,379562.0,3024.0,0.0,1.0,0.0,?,0.0,1.0
3900000.0,13.25,2.919412670760519E-7,3900000.0,85.0,69.9615507850048,70.35573122529644,69.0082644628099,389562.0,3024.0,0.0,1.0,0.0,?,0.0,0.0
4000000.0,13.59375,2.9384219993112815E-7,4000000.0,83.89999999999999,67.65561466385947,68.55468749999999,65.74468085106382,399562.0,3024.0,0.0,1.0,0.0,?,0.0,0.0
4100000.0,13.921875,3.0667019826877447E-7,4100000.0,83.39999999999999,66.49118274013306,68.50094876660341,63.274336283185825,409462.0,3024.0,0.0,1.0,0.0,?,0.0,0.0
4200000.0,14.265625,3.1882848513002195E-7,4200000.0,85.5,70.88189697412706,71.17296222664015,69.40928270042194,419462.0,3024.0,0.0,1.0,0.0,?,0.0,0.0
4300000.0,14.625,3.3020064519304367E-7,4300000.0,83.8,67.38710300843907,68.11023622047243,65.23605150214591,429462.0,3024.0,0.0,1.0,0.0,?,0.0,0.0
4400000.0,14.953125,3.3936156089314154E-7,4400000.0,82.8,65.52705524890668,62.931034482758605,63.94129979035639,439462.0,3024.0,0.0,1.0,0.0,?,0.0,0.0
4500000.0,15.28125,3.473001157140566E-7,4500000.0,82.6,65.0400231459157,63.749999999999986,63.291139240506325,449462.0,3024.0,0.0,1.0,0.0,?,0.0,0.0
4600000.0,15.640625,3.5465594717404906E-7,4600000.0,83.6,67.04180064308682,68.27852998065764,65.1063829787234,459462.0,3024.0,0.0,1.0,0.0,?,0.0,0.0
4700000.0,15.96875,3.601497802365985E-7,4700000.0,85.5,70.71535323342893,69.27966101694915,68.13186813186812,469462.0,3024.0,0.0,1.0,0.0,?,0.0,0.0
4800000.0,16.3125,3.6462465585726827E-7,4800000.0,82.3,64.46810560801694,65.29411764705881,62.17948717948717,479462.0,3024.0,0.0,1.0,0.0,?,0.0,0.0
4900000.0,16.65625,3.678189629378418E-7,4900000.0,85.3,70.31574356033376,70.3030303030303,68.18181818181817,489462.0,3024.0,0.0,1.0,0.0,?,0.0,0.0
5000000.0,16.984375,3.699268563650548E-7,5000000.0,83.3,66.47394202200272,66.26262626262626,65.20833333333333,499462.0,3024.0,0.0,1.0,0.0,?,0.0,0.0
5100000.0,17.3125,3.8304890040308235E-7,5100000.0,66.4,17.004248592036387,26.31578947368421,9.189189189189198,8536.0,3024.0,0.0,1.0,0.0,?,4.0,48.0
5200000.0,17.640625,3.9492888996998465E-7,5200000.0,81.8,60.89570325425097,60.7758620689655,52.97157622739017,10393.0,3024.0,0.0,1.0,0.0,?,1.0,20.0
5300000.0,17.96875,4.0558651865770413E-7,5300000.0,78.3,55.125235747609445,55.34979423868314,45.20202020202021,20393.0,3024.0,0.0,1.0,0.0,?,0.0,0.0
5400000.0,18.328125,4.159203834003872E-7,5400000.0,83.0,62.872368306106395,63.75266524520254,54.05405405405405,30393.0,3024.0,0.0,1.0,0.0,?,0.0,0.0
5500000.0,18.65625,4.2413329032974103E-7,5500000.0,80.9,60.01507285211858,61.25760649087222,53.07125307125309,40393.0,3024.0,0.0,1.0,0.0,?,0.0,0.0
5600000.0,18.96875,4.3079095323466584E-7,5600000.0,82.0,61.120590967017286,60.612691466083135,53.24675324675323,50393.0,3024.0,0.0,1.0,0.0,?,0.0,0.0
5700000.0,19.3125,4.368338138899869E-7,5700000.0,82.8,62.67361111111111,61.434977578475326,52.222222222222214,60393.0,3024.0,0.0,1.0,0.0,?,0.0,0.0
5800000.0,19.640625,4.413796381817923E-7,5800000.0,82.69999999999999,63.2562209554232,64.18219461697721,56.53266331658291,70393.0,3024.0,0.0,1.0,0.0,?,0.0,0.0
5900000.0,19.96875,4.447031015944149E-7,5900000.0,81.10000000000001,59.82313677139578,60.86956521739132,52.512562814070364,80393.0,3024.0,0.0,1.0,0.0,?,0.0,0.0
6000000.0,20.328125,4.470043091310394E-7,6000000.0,81.5,61.04311789826566,60.47008547008546,54.76772616136918,90393.0,3024.0,0.0,1.0,0.0,?,0.0,0.0
6100000.0,20.65625,4.6011888318591636E-7,6100000.0,82.1,61.425739160417194,60.13363028953228,53.38541666666665,100293.0,3024.0,0.0,1.0,0.0,?,0.0,0.0
6200000.0,20.984375,4.720110963616105E-7,6200000.0,82.69999999999999,61.50457049781488,62.7155172413793,52.077562326869796,110293.0,3024.0,0.0,1.0,0.0,?,0.0,0.0
6300000.0,21.328125,4.831890368627176E-7,6300000.0,82.8,62.97237136128201,64.24116424116423,55.55555555555555,120293.0,3024.0,0.0,1.0,0.0,?,0.0,0.0
6400000.0,21.65625,4.926365282800461E-7,6400000.0,82.6,61.36818781277336,60.0,52.06611570247932,130293.0,3024.0,0.0,1.0,0.0,?,0.0,0.0
6500000.0,22.0,5.012533317009607E-7,6500000.0,83.1,62.85191763237026,61.936936936936924,54.20054200542004,140293.0,3024.0,0.0,1.0,0.0,?,0.0,0.0
6600000.0,22.375,5.092564970254898E-7,6600000.0,82.39999999999999,61.97718631178706,62.86919831223627,54.16666666666665,150293.0,3024.0,0.0,1.0,0.0,?,0.0,0.0
6700000.0,22.703125,5.150369058052699E-7,6700000.0,83.5,64.77700642979735,64.28571428571428,58.95522388059701,160293.0,3024.0,0.0,1.0,0.0,?,0.0,0.0
6800000.0,23.03125,5.195949537058672E-7,6800000.0,83.89999999999999,65.56297056810403,63.82022471910111,58.50515463917525,170293.0,3024.0,0.0,1.0,0.0,?,0.0,0.0
6900000.0,23.390625,5.232483252055116E-7,6900000.0,82.19999999999999,61.835334476843904,62.52631578947367,54.12371134020617,180293.0,3024.0,0.0,1.0,0.0,?,0.0,0.0
7000000.0,23.71875,5.253616513477432E-7,7000000.0,84.2,65.2966913250514,66.87631027253667,56.35359116022099,190293.0,3024.0,0.0,1.0,0.0,?,0.0,0.0
7100000.0,24.046875,5.38488449011412E-7,7100000.0,83.39999999999999,63.970221170750754,66.19144602851324,56.430446194225716,200193.0,3024.0,0.0,1.0,0.0,?,0.0,0.0
7200000.0,24.390625,5.509597637380164E-7,7200000.0,83.3,63.44229135837062,66.12576064908721,55.820105820105816,210193.0,3024.0,0.0,1.0,0.0,?,0.0,0.0
7300000.0,24.71875,5.616418396433195E-7,7300000.0,82.89999999999999,62.51150962423816,64.1509433962264,53.90835579514823,220193.0,3024.0,0.0,1.0,0.0,?,0.0,0.0
7400000.0,25.046875,5.711015546694398E-7,7400000.0,82.89999999999999,63.57206765796087,64.1509433962264,56.153846153846146,230193.0,3024.0,0.0,1.0,0.0,?,0.0,0.0
7500000.0,25.421875,5.805156736945113E-7,7500000.0,83.1,64.2941653708336,64.04255319148935,58.168316831683164,240193.0,3024.0,0.0,1.0,0.0,?,0.0,0.0
7600000.0,25.75,5.87530666962266E-7,7600000.0,83.5,64.974696871922,66.11909650924024,58.33333333333333,250193.0,3024.0,0.0,1.0,0.0,?,0.0,0.0
7700000.0,26.078125,5.933232993508379E-7,7700000.0,81.6,58.57050219756466,60.173160173160156,48.314606741573016,260193.0,3024.0,0.0,1.0,0.0,?,0.0,0.0
7800000.0,26.40625,5.97893570860227E-7,7800000.0,84.1,65.0933040614709,65.80645161290322,57.599999999999994,270193.0,3024.0,0.0,1.0,0.0,?,0.0,0.0
7900000.0,26.734375,6.012414814904332E-7,7900000.0,82.5,61.72319967803741,64.57489878542509,53.580901856763916,280193.0,3024.0,0.0,1.0,0.0,?,0.0,0.0
8000000.0,27.0625,6.033670312414567E-7,8000000.0,82.6,62.55664920744907,63.057324840764316,55.26992287917737,290193.0,3024.0,0.0,1.0,0.0,?,0.0,0.0
8100000.0,27.390625,6.165060525139173E-7,8100000.0,82.69999999999999,61.917759971823536,61.03603603603602,53.619302949061655,300093.0,3024.0,0.0,1.0,0.0,?,0.0,0.0
8200000.0,27.75,6.295576329446501E-7,8200000.0,82.6,62.66174545610609,65.2694610778443,56.171284634760696,310093.0,3024.0,0.0,1.0,0.0,?,0.0,0.0
8300000.0,28.09375,6.407611848165591E-7,8300000.0,80.4,58.40142623681474,59.16666666666668,51.84275184275185,320093.0,3024.0,0.0,1.0,0.0,?,0.0,0.0
8400000.0,28.421875,6.502331234514713E-7,8400000.0,81.69999999999999,60.28611359473606,59.06040268456374,51.7150395778364,330093.0,3024.0,0.0,1.0,0.0,?,0.0,0.0
8500000.0,28.765625,6.588755382431878E-7,8500000.0,82.69999999999999,63.007313005174694,62.47288503253795,56.20253164556961,340093.0,3024.0,0.0,1.0,0.0,?,0.0,0.0
8600000.0,29.09375,6.659027551197343E-7,8600000.0,83.5,64.95297326230468,66.46341463414633,58.95522388059701,350093.0,3024.0,0.0,1.0,0.0,?,0.0,0.0
8700000.0,29.40625,6.714311894029379E-7,8700000.0,84.3,65.9530542495793,66.23655913978493,59.43152454780362,360093.0,3024.0,0.0,1.0,0.0,?,0.0,0.0
8800000.0,29.75,6.762318985743655E-7,8800000.0,83.1,63.69931866413492,62.61061946902654,56.777493606138094,370093.0,3024.0,0.0,1.0,0.0,?,0.0,0.0
8900000.0,30.0625,6.794320264210304E-7,8900000.0,82.19999999999999,61.373539572591696,61.88436830835117,53.40314136125654,380093.0,3024.0,0.0,1.0,0.0,?,0.0,0.0
9000000.0,30.390625,6.815697997808457E-7,9000000.0,83.6,63.76315242897357,65.1063829787234,55.55555555555555,390093.0,3024.0,0.0,1.0,0.0,?,0.0,0.0
9100000.0,30.734375,6.953472944183483E-7,9100000.0,83.39999999999999,63.98569841710635,63.99132321041213,54.89130434782608,399993.0,3024.0,0.0,1.0,0.0,?,0.0,0.0
9200000.0,31.09375,7.084122626110912E-7,9200000.0,82.89999999999999,63.105840927920454,63.14655172413792,55.92783505154638,409993.0,3024.0,0.0,1.0,0.0,?,0.0,0.0
9300000.0,31.421875,7.19118785733978E-7,9300000.0,84.2,66.01434280773152,66.45435244161358,59.59079283887468,419993.0,3024.0,0.0,1.0,0.0,?,0.0,0.0
9400000.0,31.734375,7.281513212041722E-7,9400000.0,81.2,60.3186329346904,60.58700209643607,53.80835380835383,429993.0,3024.0,0.0,1.0,0.0,?,0.0,0.0
9500000.0,32.09375,7.371999607938858E-7,9500000.0,79.80000000000001,55.6986455189838,57.38396624472575,45.69892473118281,439993.0,3024.0,0.0,1.0,0.0,?,0.0,0.0
9600000.0,32.421875,7.442394012792242E-7,9600000.0,85.2,67.24054734847647,67.1111111111111,58.774373259052915,449993.0,3024.0,0.0,1.0,0.0,?,0.0,0.0
9700000.0,32.75,7.500564808853797E-7,9700000.0,81.6,60.048115964686,60.515021459227455,51.45118733509233,459993.0,3024.0,0.0,1.0,0.0,?,0.0,0.0
9800000.0,33.078125,7.546511996123525E-7,9800000.0,81.39999999999999,58.81164965986393,60.085836909871226,48.901098901098884,469993.0,3024.0,0.0,1.0,0.0,?,0.0,0.0
9900000.0,33.40625,7.580235574601424E-7,9900000.0,82.39999999999999,59.678897401121645,62.393162393162385,47.92899408284022,479993.0,3024.0,0.0,1.0,0.0,?,0.0,0.0
1.0E7,33.75,7.602759352367784E-7,1.0E7,83.5,63.403273743512386,65.3361344537815,55.882352941176464,489993.0,3024.0,0.0,1.0,0.0,?,0.0,0.0
