learning evaluation instances,evaluation time (cpu seconds),model cost (RAM-Hours),classified instances,classifications correct (percent),Kappa Statistic (percent),Kappa Temporal Statistic (percent),Kappa M Statistic (percent),model training instances,model serialized size (bytes),labeling cost,newThreshold,maxPosterior,accuracyBaseLearner (percent),Change detected,Warning detected
100000.0,0.15625,6.810296326875687E-9,100000.0,68.10000000000001,0.0,25.813953488372114,0.0,560.0,9024.0,0.0,1.0,0.0,?,5.0,46.0
200000.0,0.328125,1.3548221128682295E-8,200000.0,67.30000000000001,0.0,24.82758620689657,0.0,2362.0,9328.0,0.0,1.0,0.0,?,6.0,8.0
300000.0,0.5,1.977142852006687E-8,300000.0,66.2,0.0,22.654462242562946,0.0,4434.0,9328.0,0.0,1.0,0.0,?,5.0,31.0
400000.0,0.65625,2.4840022282054027E-8,400000.0,66.8,0.0,22.790697674418624,0.0,2052.0,9328.0,0.0,1.0,0.0,?,6.0,16.0
500000.0,0.8125,2.921917863811056E-8,500000.0,67.80000000000001,0.0,23.333333333333353,0.0,3582.0,9328.0,0.0,1.0,0.0,?,6.0,16.0
600000.0,0.96875,3.301625838503242E-8,600000.0,66.5,0.0,21.361502347417858,0.0,1470.0,9328.0,0.0,1.0,0.0,?,5.0,18.0
700000.0,1.140625,3.6670858713073865E-8,700000.0,65.4,0.0,19.72157772621811,0.0,2058.0,9328.0,0.0,1.0,0.0,?,8.0,33.0
800000.0,1.28125,3.9118781892789734E-8,800000.0,65.2,0.0,22.666666666666664,0.0,5969.0,9328.0,0.0,1.0,0.0,?,5.0,28.0
900000.0,1.453125,4.137471680425935E-8,900000.0,66.8,0.0,23.325635103926114,0.0,2969.0,9328.0,0.0,1.0,0.0,?,6.0,37.0
1000000.0,1.609375,4.292950810243686E-8,1000000.0,68.10000000000001,0.0,24.941176470588257,0.0,2655.0,9328.0,0.0,1.0,0.0,?,6.0,16.0
1100000.0,1.78125,5.04396868766182E-8,1100000.0,68.5,0.0,26.056338028169034,0.0,7158.0,9328.0,0.0,1.0,0.0,?,6.0,26.0
1200000.0,1.9375,5.65708938261701E-8,1200000.0,65.2,0.0,25.0,0.0,1813.0,9328.0,0.0,1.0,0.0,?,7.0,18.0
1300000.0,2.109375,6.266142008826137E-8,1300000.0,66.8,0.0,26.05790645879733,0.0,549.0,9024.0,0.0,1.0,0.0,?,6.0,22.0
1400000.0,2.25,6.723508704453708E-8,1400000.0,67.30000000000001,0.0,28.446389496717728,0.0,2038.0,9328.0,0.0,1.0,0.0,?,6.0,38.0
1500000.0,2.40625,7.162006416668495E-8,1500000.0,68.30000000000001,0.0,19.74683544303799,0.0,1788.0,9328.0,0.0,1.0,0.0,?,7.0,38.0
1600000.0,2.578125,7.59241973153419E-8,1600000.0,66.2,0.0,25.221238938053098,0.0,2983.0,9328.0,0.0,1.0,0.0,?,5.0,9.0
1700000.0,2.734375,7.925335214369826E-8,1700000.0,70.5,0.0,30.424528301886788,0.0,5047.0,9328.0,0.0,1.0,0.0,?,5.0,7.0
1800000.0,2.84375,8.11597823889719E-8,1800000.0,65.9,0.0,21.247113163972305,0.0,3440.0,9328.0,0.0,1.0,0.0,?,7.0,26.0
1900000.0,3.0,8.332672425442271E-8,1900000.0,63.800000000000004,0.0,20.960698689956327,0.0,2366.0,9328.0,0.0,1.0,0.0,?,6.0,41.0
2000000.0,3.109375,8.435894010795487E-8,2000000.0,68.4,0.0,24.038461538461558,0.0,2946.0,9328.0,0.0,1.0,0.0,?,7.0,21.0
2100000.0,3.265625,9.107804443273279E-8,2100000.0,67.10000000000001,0.0,23.488372093023273,0.0,1160.0,9328.0,0.0,1.0,0.0,?,6.0,40.0
2200000.0,3.40625,9.660136937681172E-8,2200000.0,68.89999999999999,0.0,26.477541371158388,0.0,2677.0,9328.0,0.0,1.0,0.0,?,6.0,6.0
2300000.0,3.578125,1.0283560388618045E-7,2300000.0,66.4,0.0,25.16703786191537,0.0,6543.0,9328.0,0.0,1.0,0.0,?,6.0,26.0
2400000.0,3.734375,1.0788802885346942E-7,2400000.0,67.9,0.0,26.376146788990845,0.0,4450.0,9328.0,0.0,1.0,0.0,?,6.0,26.0
2500000.0,3.90625,1.1271790653053257E-7,2500000.0,66.9,0.0,25.45045045045045,0.0,3256.0,9328.0,0.0,1.0,0.0,?,6.0,16.0
2600000.0,4.078125,1.1690749993754758E-7,2600000.0,67.9,0.0,29.60526315789474,0.0,4771.0,9328.0,0.0,1.0,0.0,?,6.0,17.0
2700000.0,4.234375,1.2024926642576854E-7,2700000.0,68.89999999999999,0.0,20.66326530612244,0.0,4430.0,9328.0,0.0,1.0,0.0,?,6.0,41.0
2800000.0,4.40625,1.2328492529276344E-7,2800000.0,70.1,0.0,29.812206572769952,0.0,2346.0,9328.0,0.0,1.0,0.0,?,5.0,20.0
2900000.0,4.578125,1.256475742492411E-7,2900000.0,65.4,0.0,24.12280701754386,0.0,3261.0,9328.0,0.0,1.0,0.0,?,5.0,19.0
3000000.0,4.734375,1.2712798909180695E-7,3000000.0,66.60000000000001,0.0,29.237288135593225,0.0,4786.0,9328.0,0.0,1.0,0.0,?,7.0,32.0
3100000.0,4.90625,1.3452540669176314E-7,3100000.0,68.89999999999999,0.0,26.995305164319245,0.0,2072.0,9328.0,0.0,1.0,0.0,?,6.0,20.0
3200000.0,5.0625,1.4076785494883856E-7,3200000.0,67.4,0.0,24.186046511627925,0.0,577.0,9024.0,0.0,1.0,0.0,?,6.0,23.0
3300000.0,5.21875,1.4643275385929478E-7,3300000.0,68.60000000000001,0.0,29.753914988814323,0.0,3102.0,9336.0,0.0,1.0,0.0,?,7.0,23.0
3400000.0,5.375,1.5149682035876645E-7,3400000.0,67.9,0.0,28.348214285714292,0.0,1500.0,9328.0,0.0,1.0,0.0,?,7.0,13.0
3500000.0,5.546875,1.5633310087853007E-7,3500000.0,65.5,0.0,23.672566371681413,0.0,3559.0,9328.0,0.0,1.0,0.0,?,5.0,12.0
3600000.0,5.703125,1.6014764292372597E-7,3600000.0,70.6,0.0,28.813559322033893,0.0,2052.0,9328.0,0.0,1.0,0.0,?,6.0,22.0
3700000.0,5.859375,1.6338043173568115E-7,3700000.0,69.69999999999999,0.0,31.60270880361172,0.0,9257.0,9336.0,0.0,1.0,0.0,?,4.0,23.0
3800000.0,5.96875,1.6528618289157747E-7,3800000.0,64.7,0.0,17.523364485981322,0.0,867.0,9024.0,0.0,1.0,0.0,?,6.0,16.0
3900000.0,6.140625,1.6756132633114853E-7,3900000.0,66.60000000000001,0.0,25.112107623318387,0.0,3551.0,9328.0,0.0,1.0,0.0,?,6.0,26.0
4000000.0,6.296875,1.6916171363037492E-7,4000000.0,67.10000000000001,0.0,25.900900900900904,0.0,5973.0,9328.0,0.0,1.0,0.0,?,6.0,24.0
4100000.0,6.46875,1.7668505380344059E-7,4100000.0,67.2,0.0,24.423963133640573,0.0,6581.0,9328.0,0.0,1.0,0.0,?,6.0,26.0
4200000.0,6.640625,1.835752239761253E-7,4200000.0,67.2,0.0,21.904761904761923,0.0,5667.0,9328.0,0.0,1.0,0.0,?,6.0,24.0
4300000.0,6.8125,1.8982368702482846E-7,4300000.0,67.2,0.0,23.543123543123563,0.0,3238.0,9328.0,0.0,1.0,0.0,?,7.0,30.0
4400000.0,6.96875,1.9492332487263615E-7,4400000.0,68.4,0.0,23.671497584541083,0.0,1165.0,9328.0,0.0,1.0,0.0,?,6.0,20.0
4500000.0,7.109375,1.9896526484646733E-7,4500000.0,65.9,0.0,26.82403433476395,0.0,5062.0,9336.0,0.0,1.0,0.0,?,5.0,22.0
4600000.0,7.28125,2.031676639388833E-7,4600000.0,68.5,0.0,29.84409799554566,0.0,2954.0,9328.0,0.0,1.0,0.0,?,6.0,22.0
4700000.0,7.453125,2.0671626164888344E-7,4700000.0,69.39999999999999,0.0,22.72727272727272,0.0,845.0,9024.0,0.0,1.0,0.0,?,6.0,24.0
4800000.0,7.609375,2.0937247124190133E-7,4800000.0,68.8,0.0,24.637681159420282,0.0,3565.0,9328.0,0.0,1.0,0.0,?,5.0,20.0
4900000.0,7.765625,2.114469276016785E-7,4900000.0,67.10000000000001,0.0,26.7260579064588,0.0,3269.0,9336.0,0.0,1.0,0.0,?,7.0,25.0
5000000.0,7.9375,2.1323545499601296E-7,5000000.0,65.4,0.0,22.595078299776283,0.0,2975.0,9328.0,0.0,1.0,0.0,?,7.0,14.0
5100000.0,8.109375,2.2093380620289178E-7,5100000.0,64.3,0.0,22.052401746724886,0.0,28347.0,9336.0,0.0,1.0,0.0,?,2.0,16.0
5200000.0,8.265625,2.2735023069091966E-7,5200000.0,62.1,0.0,19.70338983050847,0.0,58347.0,9336.0,0.0,1.0,0.0,?,0.0,0.0
5300000.0,8.40625,2.3260114378192356E-7,5300000.0,61.8,0.0,22.983870967741936,0.0,88347.0,9336.0,0.0,1.0,0.0,?,0.0,0.0
5400000.0,8.5625,2.378534150516821E-7,5400000.0,63.4,0.0,25.910931174089068,0.0,118347.0,9336.0,0.0,1.0,0.0,?,0.0,0.0
5500000.0,8.703125,2.4205659024624355E-7,5500000.0,60.8,0.0,17.819706498951778,0.0,148347.0,9336.0,0.0,1.0,0.0,?,0.0,0.0
5600000.0,8.859375,2.4614470829773275E-7,5600000.0,60.8,0.0,18.16283924843423,0.0,178347.0,9336.0,0.0,1.0,0.0,?,0.0,0.0
5700000.0,9.03125,2.5000135388432275E-7,5700000.0,63.800000000000004,0.0,21.132897603485834,0.0,208347.0,9336.0,0.0,1.0,0.0,?,0.0,0.0
5800000.0,9.1875,2.529253187175426E-7,5800000.0,64.1,0.0,22.4622030237581,0.0,238347.0,9336.0,0.0,1.0,0.0,?,0.0,0.0
5900000.0,9.359375,2.5550139576403633E-7,5900000.0,61.1,0.0,19.95884773662551,0.0,268347.0,9336.0,0.0,1.0,0.0,?,0.0,0.0
6000000.0,9.515625,2.5726120737898684E-7,6000000.0,60.9,0.0,17.684210526315784,0.0,298347.0,9336.0,0.0,1.0,0.0,?,0.0,0.0
6100000.0,9.671875,2.6426552924224073E-7,6100000.0,61.5,0.0,17.381974248927033,0.0,328047.0,9336.0,0.0,1.0,0.0,?,0.0,0.0
6200000.0,9.84375,2.713299990217719E-7,6200000.0,63.1,0.0,23.284823284823283,0.0,358047.0,9336.0,0.0,1.0,0.0,?,0.0,0.0
6300000.0,10.0,2.7717016766675645E-7,6300000.0,60.4,0.0,22.957198443579767,0.0,388047.0,9336.0,0.0,1.0,0.0,?,0.0,0.0
6400000.0,10.171875,2.8295406890619133E-7,6400000.0,63.7,0.0,16.55172413793105,0.0,418047.0,9336.0,0.0,1.0,0.0,?,0.0,0.0
6500000.0,10.34375,2.880976858755781E-7,6500000.0,61.3,0.0,13.99999999999999,0.0,448047.0,9336.0,0.0,1.0,0.0,?,0.0,0.0
6600000.0,10.515625,2.926010185749167E-7,6600000.0,61.1,0.0,15.434782608695643,0.0,478047.0,9336.0,0.0,1.0,0.0,?,0.0,0.0
6700000.0,10.6875,2.9646406700420714E-7,6700000.0,61.1,0.0,16.880341880341874,0.0,508047.0,9336.0,0.0,1.0,0.0,?,0.0,0.0
6800000.0,10.84375,2.993938526035183E-7,6800000.0,61.7,0.0,21.030927835051543,0.0,538047.0,9336.0,0.0,1.0,0.0,?,0.0,0.0
6900000.0,10.984375,3.015067906946772E-7,6900000.0,61.4,0.0,16.98924731182795,0.0,568047.0,9336.0,0.0,1.0,0.0,?,0.0,0.0
7000000.0,11.15625,3.0344898631382323E-7,7000000.0,62.5,0.0,19.181034482758616,0.0,598047.0,9336.0,0.0,1.0,0.0,?,0.0,0.0
7100000.0,11.3125,3.104591289431685E-7,7100000.0,61.6,0.0,22.109533468559835,0.0,627747.0,9336.0,0.0,1.0,0.0,?,0.0,0.0
7200000.0,11.46875,3.168871949633791E-7,7200000.0,64.1,0.0,24.421052631578945,0.0,657747.0,9336.0,0.0,1.0,0.0,?,0.0,0.0
7300000.0,11.640625,3.2331778331556257E-7,7300000.0,63.4,0.0,16.055045871559646,0.0,687747.0,9336.0,0.0,1.0,0.0,?,0.0,0.0
7400000.0,11.796875,3.285816961175038E-7,7400000.0,60.4,0.0,20.321931589537222,0.0,717747.0,9336.0,0.0,1.0,0.0,?,0.0,0.0
7500000.0,11.96875,3.33731715929591E-7,7500000.0,60.099999999999994,0.0,18.06981519507186,0.0,747747.0,9336.0,0.0,1.0,0.0,?,0.0,0.0
7600000.0,12.140625,3.382414514716301E-7,7600000.0,59.4,0.0,12.499999999999988,0.0,777747.0,9336.0,0.0,1.0,0.0,?,0.0,0.0
7700000.0,12.296875,3.417591344461673E-7,7700000.0,63.1,0.0,16.891891891891884,0.0,807747.0,9336.0,0.0,1.0,0.0,?,0.0,0.0
7800000.0,12.484375,3.4528186208465037E-7,7800000.0,62.9,0.0,19.347826086956516,0.0,837747.0,9336.0,0.0,1.0,0.0,?,0.0,0.0
7900000.0,12.625,3.4740003886529146E-7,7900000.0,63.0,0.0,24.796747967479675,0.0,867747.0,9336.0,0.0,1.0,0.0,?,0.0,0.0
8000000.0,12.796875,3.4934863732713796E-7,8000000.0,61.3,0.0,16.59482758620689,0.0,897747.0,9336.0,0.0,1.0,0.0,?,0.0,0.0
8100000.0,12.953125,3.563646007225746E-7,8100000.0,60.4,0.0,16.455696202531637,0.0,927447.0,9336.0,0.0,1.0,0.0,?,0.0,0.0
8200000.0,13.109375,3.6279848750887655E-7,8200000.0,62.5,0.0,21.548117154811713,0.0,957447.0,9336.0,0.0,1.0,0.0,?,0.0,0.0
8300000.0,13.28125,3.6923547870376055E-7,8300000.0,62.1,0.0,21.369294605809124,0.0,987447.0,9336.0,0.0,1.0,0.0,?,0.0,0.0
8400000.0,13.4375,3.7450521227179316E-7,8400000.0,62.1,0.0,21.369294605809124,0.0,1017447.0,9336.0,0.0,1.0,0.0,?,0.0,0.0
8500000.0,13.609375,3.796616349265809E-7,8500000.0,60.4,0.0,12.1951219512195,0.0,1047447.0,9336.0,0.0,1.0,0.0,?,0.0,0.0
8600000.0,13.765625,3.8376721527634414E-7,8600000.0,61.9,0.0,16.079295154185015,0.0,1077447.0,9336.0,0.0,1.0,0.0,?,0.0,0.0
8700000.0,13.921875,3.872907190169727E-7,8700000.0,63.9,0.0,21.691973969631235,0.0,1107447.0,9336.0,0.0,1.0,0.0,?,0.0,0.0
8800000.0,14.09375,3.90526288861616E-7,8800000.0,63.1,0.0,17.44966442953019,0.0,1137447.0,9336.0,0.0,1.0,0.0,?,0.0,0.0
8900000.0,14.25,3.9288563938397526E-7,8900000.0,63.4,0.0,22.94736842105263,0.0,1167447.0,9336.0,0.0,1.0,0.0,?,0.0,0.0
9000000.0,14.421875,3.9484064068852227E-7,9000000.0,61.199999999999996,0.0,18.65828092243186,0.0,1197447.0,9336.0,0.0,1.0,0.0,?,0.0,0.0
9100000.0,14.578125,4.018624248500502E-7,9100000.0,62.6,0.0,20.594479830148614,0.0,1227147.0,9336.0,0.0,1.0,0.0,?,0.0,0.0
9200000.0,14.734375,4.083021324024435E-7,9200000.0,60.9,0.0,16.452991452991444,0.0,1257147.0,9336.0,0.0,1.0,0.0,?,0.0,0.0
9300000.0,14.90625,4.1474552644002795E-7,9300000.0,61.6,0.0,18.123667377398714,0.0,1287147.0,9336.0,0.0,1.0,0.0,?,0.0,0.0
9400000.0,15.0625,4.200210807741519E-7,9400000.0,60.4,0.0,16.806722689075624,0.0,1317147.0,9336.0,0.0,1.0,0.0,?,0.0,0.0
9500000.0,15.234375,4.2518390627164006E-7,9500000.0,66.60000000000001,0.0,27.39130434782609,0.0,1347147.0,9336.0,0.0,1.0,0.0,?,0.0,0.0
9600000.0,15.390625,4.2929530738749463E-7,9600000.0,63.3,0.0,19.340659340659336,0.0,1377147.0,9336.0,0.0,1.0,0.0,?,0.0,0.0
9700000.0,15.5625,4.3317756434488653E-7,9700000.0,62.4,0.0,20.338983050847453,0.0,1407147.0,9336.0,0.0,1.0,0.0,?,0.0,0.0
9800000.0,15.703125,4.358300874527132E-7,9800000.0,62.6,0.0,21.757322175732213,0.0,1437147.0,9336.0,0.0,1.0,0.0,?,0.0,0.0
9900000.0,15.859375,4.381952587411638E-7,9900000.0,62.8,0.0,21.51898734177215,0.0,1467147.0,9336.0,0.0,1.0,0.0,?,0.0,0.0
1.0E7,16.03125,4.4015666288841125E-7,1.0E7,62.6,0.0,19.04761904761904,0.0,1497147.0,9336.0,0.0,1.0,0.0,?,0.0,0.0
