learning evaluation instances,evaluation time (cpu seconds),model cost (RAM-Hours),classified instances,classifications correct (percent),Kappa Statistic (percent),Kappa Temporal Statistic (percent),Kappa M Statistic (percent),model training instances,model serialized size (bytes),labeling cost,newThreshold,maxPosterior,accuracyBaseLearner (percent),Change detected,Warning detected
100000.0,0.15625,3.561985472010242E-9,100000.0,65.7,18.503312139442507,26.236559139784948,7.046070460704613,33896.0,5144.0,0.0,1.0,0.0,?,3.0,156.0
200000.0,0.375,7.712579746213224E-9,200000.0,63.7,14.207924068104266,25.918367346938776,2.156334231805932,93896.0,5144.0,0.0,1.0,0.0,?,0.0,51.0
300000.0,0.546875,1.0253441157854265E-8,300000.0,64.7,18.928105535855373,28.68686868686869,9.948979591836743,153896.0,5144.0,0.0,1.0,0.0,?,0.0,10.0
400000.0,0.71875,1.2118446951111157E-8,400000.0,65.2,19.11980030957595,23.516483516483515,8.661417322834653,213896.0,5144.0,0.0,1.0,0.0,?,0.0,0.0
500000.0,0.890625,1.33075971259839E-8,500000.0,64.4,14.665541658077283,24.093816631130064,4.043126684636123,273896.0,5144.0,0.0,1.0,0.0,?,0.0,0.0
600000.0,1.078125,1.7554040015157726E-8,600000.0,64.5,16.302799966049587,25.73221757322176,5.08021390374332,333596.0,5144.0,0.0,1.0,0.0,?,0.0,0.0
700000.0,1.25,2.0770757045182918E-8,700000.0,66.2,19.615677321156774,22.831050228310502,6.111111111111116,393596.0,5144.0,0.0,1.0,0.0,?,0.0,0.0
800000.0,1.4375,2.3542605857882236E-8,800000.0,64.60000000000001,14.583534407875698,24.680851063829788,2.2099447513812174,453596.0,5144.0,0.0,1.0,0.0,?,0.0,0.0
900000.0,1.609375,2.5407611651139128E-8,900000.0,65.60000000000001,16.348922262858913,22.86995515695067,2.8248587570621497,513596.0,5144.0,0.0,1.0,0.0,?,0.0,0.0
1000000.0,1.78125,2.6596761826011872E-8,1000000.0,65.10000000000001,18.90887123007575,28.336755646817252,8.63874345549739,573596.0,5144.0,0.0,1.0,0.0,?,0.0,0.0
1100000.0,1.953125,3.049609303060505E-8,1100000.0,65.3,19.69079800037031,26.79324894514768,8.684210526315796,633296.0,5144.0,0.0,1.0,0.0,?,0.0,0.0
1200000.0,2.140625,3.4012611851923993E-8,1200000.0,65.0,20.005119672340978,27.685950413223143,9.32642487046633,693296.0,5144.0,0.0,1.0,0.0,?,0.0,0.0
1300000.0,2.28125,3.6097028189235265E-8,1300000.0,64.5,16.60950698600919,23.326133909287254,5.835543766578255,753296.0,5144.0,0.0,1.0,0.0,?,0.0,0.0
1400000.0,2.453125,3.7968792538675997E-8,1400000.0,64.5,19.365829282696588,26.501035196687372,10.579345088161219,813296.0,5144.0,0.0,1.0,0.0,?,0.0,0.0
1500000.0,2.640625,3.927342024528318E-8,1500000.0,65.3,20.506922999386056,27.55741127348643,9.162303664921474,873296.0,5144.0,0.0,1.0,0.0,?,0.0,0.0
1600000.0,2.796875,4.281826679491334E-8,1600000.0,63.6,17.974049152473622,22.717622080679405,8.312342569269529,932996.0,5144.0,0.0,1.0,0.0,?,0.0,0.0
1700000.0,2.96875,4.6041742381122375E-8,1700000.0,64.7,14.063412924083677,27.066115702479344,1.1204481792717098,992996.0,5144.0,0.0,1.0,0.0,?,0.0,0.0
1800000.0,3.140625,4.8589362348947255E-8,1800000.0,64.5,17.821030408533662,22.31947483588621,9.2071611253197,1052996.0,5144.0,0.0,1.0,0.0,?,0.0,0.0
1900000.0,3.3125,5.046112669838799E-8,1900000.0,66.10000000000001,18.50256272177401,24.666666666666668,5.571030640668529,1112996.0,5144.0,0.0,1.0,0.0,?,0.0,0.0
2000000.0,3.484375,5.165703542944457E-8,2000000.0,64.2,19.658886894075405,27.08757637474542,10.500000000000009,1172996.0,5144.0,0.0,1.0,0.0,?,0.0,0.0
2100000.0,3.65625,5.556312519022159E-8,2100000.0,62.9,15.489749430523931,18.99563318777292,7.250000000000006,1232696.0,5144.0,0.0,1.0,0.0,?,0.0,0.0
2200000.0,3.84375,5.908701698192291E-8,2200000.0,65.5,20.28945325496285,31.000000000000007,12.87878787878789,1292696.0,5144.0,0.0,1.0,0.0,?,0.0,0.0
2300000.0,4.015625,6.164139550593163E-8,2300000.0,68.0,21.07534837834506,25.925925925925945,7.24637681159421,1352696.0,5144.0,0.0,1.0,0.0,?,0.0,0.0
2400000.0,4.1875,6.356438259697622E-8,2400000.0,66.60000000000001,20.993868745742198,26.914660831509853,8.24175824175825,1412696.0,5144.0,0.0,1.0,0.0,?,0.0,8.0
2500000.0,4.375,6.491208397265937E-8,2500000.0,64.0,12.413873642415057,22.413793103448274,1.6393442622950833,1472696.0,5144.0,0.0,1.0,0.0,?,0.0,61.0
2600000.0,4.5625,6.920897350129153E-8,2600000.0,65.9,19.01468660346169,30.122950819672134,7.336956521739137,1532396.0,5144.0,0.0,1.0,0.0,?,0.0,0.0
2700000.0,4.71875,7.217530057662063E-8,2700000.0,65.3,16.881449472544528,24.40087145969499,4.143646408839783,1592396.0,5144.0,0.0,1.0,0.0,?,0.0,0.0
2800000.0,4.90625,7.499759602877829E-8,2800000.0,63.3,15.051015684313828,20.73434125269978,4.4270833333333375,1652396.0,5144.0,0.0,1.0,0.0,?,0.0,0.0
2900000.0,5.0625,7.673509470704528E-8,2900000.0,65.0,19.377130747258818,26.160337552742618,7.407407407407414,1712396.0,5144.0,0.0,1.0,0.0,?,0.0,0.0
3000000.0,5.25,7.808279608272844E-8,3000000.0,61.8,10.422421596169265,17.67241379310344,-1.3262599469496033,1772396.0,5144.0,0.0,1.0,0.0,?,0.0,0.0
3100000.0,5.421875,8.202837004015843E-8,3100000.0,65.4,15.55661855509076,23.451327433628315,1.9830028328611915,1832096.0,5144.0,0.0,1.0,0.0,?,0.0,0.0
3200000.0,5.59375,8.529808837920428E-8,3200000.0,65.3,19.034196968565666,23.230088495575217,6.720430107526888,1892096.0,5144.0,0.0,1.0,0.0,?,0.0,0.0
3300000.0,5.765625,8.789195109986598E-8,3300000.0,64.7,16.97633943271086,25.52742616033755,4.851752021563346,1952096.0,5144.0,0.0,1.0,0.0,?,0.0,0.0
3400000.0,5.9375,8.980995820214351E-8,3400000.0,65.4,17.551911318263922,27.15789473684211,4.155124653739616,2012096.0,5144.0,0.0,1.0,0.0,?,0.0,0.0
3500000.0,6.125,9.116503254820903E-8,3500000.0,65.9,20.96162582631029,23.88392857142857,9.788359788359797,2072096.0,5144.0,0.0,1.0,0.0,?,0.0,0.0
3600000.0,6.28125,9.475191796405448E-8,3600000.0,68.0,22.642531136381212,32.05944798301486,10.614525139664813,2131796.0,5144.0,0.0,1.0,0.0,?,0.0,0.0
3700000.0,6.453125,9.802163630310033E-8,3700000.0,64.1,13.058219509832405,20.222222222222218,0.27777777777777807,2191796.0,5144.0,0.0,1.0,0.0,?,0.0,0.0
3800000.0,6.640625,1.0085130472564035E-7,3800000.0,64.2,17.469304575151348,24.312896405919663,6.52741514360314,2251796.0,5144.0,0.0,1.0,0.0,?,0.0,0.0
3900000.0,6.828125,1.0294367610994313E-7,3900000.0,64.60000000000001,17.909236370382402,24.358974358974358,8.05194805194806,2311796.0,5144.0,0.0,1.0,0.0,?,0.0,0.0
4000000.0,7.015625,1.0429875045600865E-7,4000000.0,64.9,19.314054526228677,23.695652173913043,9.067357512953375,2371796.0,5144.0,0.0,1.0,0.0,?,0.0,0.0
4100000.0,7.171875,1.0789178001383941E-7,4100000.0,63.9,17.09535182803602,22.030237580993518,5.000000000000004,2431496.0,5144.0,0.0,1.0,0.0,?,0.0,0.0
4200000.0,7.34375,1.1116825690906909E-7,4200000.0,67.60000000000001,21.933354215357916,31.501057082452437,8.732394366197191,2491496.0,5144.0,0.0,1.0,0.0,?,0.0,0.0
4300000.0,7.515625,1.1376887818591463E-7,4300000.0,63.800000000000004,18.487561472087634,25.051759834368532,9.045226130653274,2551496.0,5144.0,0.0,1.0,0.0,?,0.0,0.0
4400000.0,7.6875,1.1569364384437601E-7,4400000.0,65.4,16.217891596606083,28.659793814432994,1.7045454545454561,2611496.0,5144.0,0.0,1.0,0.0,?,0.0,0.0
4500000.0,7.859375,1.1694255388445325E-7,4500000.0,66.3,20.21326969335379,29.497907949790797,10.372340425531924,2671496.0,5144.0,0.0,1.0,0.0,?,0.0,0.0
4600000.0,8.03125,1.2089488639806709E-7,4600000.0,64.1,15.460188577941478,22.961373390557938,4.010695187165779,2731196.0,5144.0,0.0,1.0,0.0,?,0.0,0.0
4700000.0,8.21875,1.2446922482922675E-7,4700000.0,65.60000000000001,17.967110534549217,21.995464852607707,3.9106145251396685,2791196.0,5144.0,0.0,1.0,0.0,?,0.0,0.0
4800000.0,8.359375,1.2659700587391854E-7,4800000.0,62.3,12.453440092144499,21.621621621621617,0.0,2851196.0,5144.0,0.0,1.0,0.0,?,0.0,0.0
4900000.0,8.53125,1.2852177153237993E-7,4900000.0,67.30000000000001,20.622590762120254,29.373650107991367,9.668508287292827,2911196.0,5144.0,0.0,1.0,0.0,?,0.0,0.0
5000000.0,8.703125,1.298685027803812E-7,5000000.0,65.9,16.966981591506762,27.4468085106383,3.9436619718309895,2971196.0,5144.0,0.0,1.0,0.0,?,0.0,0.0
5100000.0,8.875,1.3391616650753554E-7,5100000.0,59.199999999999996,16.994889489274428,17.408906882591086,10.132158590308356,50262.0,5144.0,0.0,1.0,0.0,?,2.0,71.0
5200000.0,9.03125,1.3698144660641752E-7,5200000.0,58.199999999999996,15.657788539144471,14.867617107942966,12.552301255230114,110262.0,5144.0,0.0,1.0,0.0,?,0.0,0.0
5300000.0,9.21875,1.3992364984005692E-7,5300000.0,59.699999999999996,18.263536207428082,18.42105263157894,11.622807017543847,170262.0,5144.0,0.0,1.0,0.0,?,0.0,6.0
5400000.0,9.390625,1.4195299526262617E-7,5400000.0,57.599999999999994,14.065666801783525,13.292433537832299,5.777777777777759,230262.0,5144.0,0.0,1.0,0.0,?,0.0,68.0
5500000.0,9.5625,1.4330648506681127E-7,5500000.0,63.0,24.539076521455375,24.489795918367346,18.859649122807014,290262.0,5144.0,0.0,1.0,0.0,?,0.0,0.0
5600000.0,9.765625,1.481010177586642E-7,5600000.0,60.0,18.831168831168828,16.142557651991606,13.79310344827585,349962.0,5144.0,0.0,1.0,0.0,?,0.0,0.0
5700000.0,9.9375,1.5148207441800174E-7,5700000.0,61.1,20.235888518889126,19.12681912681912,12.189616252821658,409962.0,5144.0,0.0,1.0,0.0,?,0.0,0.0
5800000.0,10.109375,1.5418727545895514E-7,5800000.0,61.5,21.316165951359075,20.944558521560573,14.444444444444434,469962.0,5144.0,0.0,1.0,0.0,?,0.0,0.0
5900000.0,10.28125,1.562166208815244E-7,5900000.0,59.3,17.71860166099254,20.196078431372545,14.135021097046405,529962.0,5144.0,0.0,1.0,0.0,?,0.0,0.0
6000000.0,10.453125,1.575701106857095E-7,6000000.0,61.5,21.754965003129787,20.944558521560573,16.48590021691973,589962.0,5144.0,0.0,1.0,0.0,?,0.0,0.0
6100000.0,10.625,1.6163378151961504E-7,6100000.0,57.599999999999994,13.947069329436596,15.199999999999992,5.357142857142837,649662.0,5144.0,0.0,1.0,0.0,?,0.0,0.0
6200000.0,10.8125,1.6532957993654746E-7,6200000.0,59.0,16.29099699464262,12.579957356076749,10.087719298245599,709662.0,5144.0,0.0,1.0,0.0,?,0.0,0.0
6300000.0,10.96875,1.6779499775212676E-7,6300000.0,55.00000000000001,9.497894317674458,7.024793388429759,6.444906444906451,769662.0,5144.0,0.0,1.0,0.0,?,0.0,0.0
6400000.0,11.140625,1.6983110173087985E-7,6400000.0,59.599999999999994,18.591389225852463,20.315581854043387,15.657620041753646,829662.0,5144.0,0.0,1.0,0.0,?,0.0,0.0
6500000.0,11.328125,1.7132781471850147E-7,6500000.0,57.99999999999999,14.864979912189288,16.50099403578528,10.064239828693776,889662.0,5144.0,0.0,1.0,0.0,?,0.0,47.0
6600000.0,11.515625,1.757737158590721E-7,6600000.0,56.599999999999994,11.123489201708717,13.199999999999989,1.5873015873015637,949362.0,5144.0,0.0,1.0,0.0,?,0.0,0.0
6700000.0,11.703125,1.794823199614055E-7,6700000.0,59.699999999999996,18.56940796120428,17.922606924643578,15.157894736842096,1009362.0,5144.0,0.0,1.0,0.0,?,0.0,0.0
6800000.0,11.90625,1.8270123594750963E-7,6800000.0,59.3,17.619340630869875,19.24603174603174,13.034188034188023,1069362.0,5144.0,0.0,1.0,0.0,?,0.0,0.0
6900000.0,12.09375,1.8493524597336852E-7,6900000.0,58.599999999999994,16.226552540520846,17.52988047808764,10.967741935483858,1129362.0,5144.0,0.0,1.0,0.0,?,0.0,0.0
7000000.0,12.28125,1.8643195896099013E-7,7000000.0,57.8,14.993050379711137,13.16872427983538,12.629399585921314,1189362.0,5144.0,0.0,1.0,0.0,?,0.0,0.0
7100000.0,12.46875,1.9088523307194314E-7,7100000.0,60.099999999999994,18.352145762906087,20.359281437125745,12.114537444933909,1249062.0,5144.0,0.0,1.0,0.0,?,0.0,0.0
7200000.0,12.671875,1.9491087490071854E-7,7200000.0,58.3,15.131434339816172,17.42574257425742,8.951965065502169,1309062.0,5144.0,0.0,1.0,0.0,?,0.0,0.0
7300000.0,12.84375,1.976413315989905E-7,7300000.0,59.5,17.658157331880307,13.829787234042543,11.572052401746712,1369062.0,5144.0,0.0,1.0,0.0,?,0.0,0.0
7400000.0,13.03125,1.9988271459523174E-7,7400000.0,56.8,11.810457809878038,11.293634496919905,2.483069977426614,1429062.0,5144.0,0.0,1.0,0.0,?,0.0,0.0
7500000.0,13.234375,2.0151214104973607E-7,7500000.0,60.3,18.946508779093506,20.758483033932134,11.581291759465467,1489062.0,5144.0,0.0,1.0,0.0,?,0.0,0.0
7600000.0,13.421875,2.059654151606891E-7,7600000.0,58.599999999999994,16.48747110345467,19.298245614035086,12.473572938689207,1548762.0,5144.0,0.0,1.0,0.0,?,0.0,0.0
7700000.0,13.609375,2.0968139223340485E-7,7700000.0,57.49999999999999,13.8525155065472,15.841584158415834,9.57446808510637,1608762.0,5144.0,0.0,1.0,0.0,?,0.0,0.0
7800000.0,13.8125,2.129082956040899E-7,7800000.0,58.9,17.052142113293456,16.122448979591827,13.836477987421372,1668762.0,5144.0,0.0,1.0,0.0,?,0.0,0.0
7900000.0,13.984375,2.149628966839777E-7,7900000.0,55.300000000000004,9.899377559905837,7.45341614906833,5.4968287526427115,1728762.0,5144.0,0.0,1.0,0.0,?,0.0,0.0
8000000.0,14.171875,2.1646698264198172E-7,8000000.0,57.199999999999996,12.75099378248904,11.934156378600811,5.934065934065916,1788762.0,5144.0,0.0,1.0,0.0,?,0.0,0.0
8100000.0,14.375,2.212993503134284E-7,8100000.0,57.599999999999994,13.54948680202423,13.292433537832299,8.423326133909272,1848462.0,5144.0,0.0,1.0,0.0,?,0.0,0.0
8200000.0,14.5625,2.2502270035652653E-7,8200000.0,56.00000000000001,10.697976497331094,15.384615384615397,6.976744186046519,1908462.0,5144.0,0.0,1.0,0.0,?,0.0,0.0
8300000.0,14.765625,2.2825759111179247E-7,8300000.0,58.199999999999996,16.2824605746468,16.89860834990059,15.725806451612895,1968462.0,5144.0,0.0,1.0,0.0,?,0.0,0.0
8400000.0,14.9375,2.3031895074786412E-7,8400000.0,58.599999999999994,15.51192832799329,15.510204081632645,9.010989010988995,2028462.0,5144.0,0.0,1.0,0.0,?,0.0,0.0
8500000.0,15.125,2.318304096762505E-7,8500000.0,59.5,17.666192315511278,18.674698795180717,12.526997840172774,2088462.0,5144.0,0.0,1.0,0.0,?,0.0,0.0
8600000.0,15.328125,2.3666277734769717E-7,8600000.0,57.3,12.9175674022107,17.08737864077669,5.947136563876634,2148162.0,5144.0,0.0,1.0,0.0,?,0.0,0.0
8700000.0,15.5,2.4007584822053714E-7,8700000.0,56.89999999999999,12.134778318695908,16.472868217054256,5.066079295154165,2208162.0,5144.0,0.0,1.0,0.0,?,0.0,0.0
8800000.0,15.703125,2.433107389758031E-7,8800000.0,56.49999999999999,11.385803802058282,7.838983050847441,4.185022026431698,2268162.0,5144.0,0.0,1.0,0.0,?,0.0,0.0
8900000.0,15.90625,2.457468912729787E-7,8900000.0,57.99999999999999,14.053835040660703,15.322580645161283,6.4587973273941905,2328162.0,5144.0,0.0,1.0,0.0,?,0.0,0.0
9000000.0,16.09375,2.4725835020136504E-7,9000000.0,58.199999999999996,14.576725631886985,17.063492063492056,5.429864253393645,2388162.0,5144.0,0.0,1.0,0.0,?,0.0,0.0
9100000.0,16.265625,2.51354035248773E-7,9100000.0,57.199999999999996,14.048285584612225,17.21470019342359,12.474437627811849,2447862.0,5144.0,0.0,1.0,0.0,?,0.0,0.0
9200000.0,16.46875,2.553956518467102E-7,9200000.0,58.5,15.753146569224501,15.821501014198775,10.367170626349878,2507862.0,5144.0,0.0,1.0,0.0,?,0.0,0.0
9300000.0,16.65625,2.5838907782195343E-7,9300000.0,60.699999999999996,19.97686863174698,21.868787276341944,14.750542299349231,2567862.0,5144.0,0.0,1.0,0.0,?,0.0,0.0
9400000.0,16.859375,2.608332175037099E-7,9400000.0,59.9,18.138539803859114,17.827868852459012,12.253829321663007,2627862.0,5144.0,0.0,1.0,0.0,?,0.0,0.0
9500000.0,17.046875,2.6235204940247865E-7,9500000.0,58.199999999999996,13.981503965493813,17.063492063492056,2.564102564102566,2687862.0,5144.0,0.0,1.0,0.0,?,0.0,0.0
9600000.0,17.234375,2.668200694541964E-7,9600000.0,56.599999999999994,12.450930158435563,15.728155339805816,9.014675052410887,2747562.0,5144.0,0.0,1.0,0.0,?,0.0,0.0
9700000.0,17.40625,2.702398988832202E-7,9700000.0,60.6,19.962947313680246,19.262295081967206,16.34819532908704,2807562.0,5144.0,0.0,1.0,0.0,?,0.0,0.0
9800000.0,17.609375,2.734827770230671E-7,9800000.0,56.49999999999999,12.322427721431213,12.650602409638543,8.805031446540866,2867562.0,5144.0,0.0,1.0,0.0,?,0.0,0.0
9900000.0,17.796875,2.757389059600731E-7,9900000.0,55.60000000000001,10.00194590387236,11.20000000000001,5.128205128205133,2927562.0,5144.0,0.0,1.0,0.0,?,0.0,0.0
1.0E7,17.984375,2.7725773785884184E-7,1.0E7,58.8,15.65569508305456,18.897637795275585,8.240534521158112,2987562.0,5144.0,0.0,1.0,0.0,?,0.0,0.0
