learning evaluation instances,evaluation time (cpu seconds),model cost (RAM-Hours),classified instances,classifications correct (percent),Kappa Statistic (percent),Kappa Temporal Statistic (percent),Kappa M Statistic (percent),model training instances,model serialized size (bytes),labeling cost,newThreshold,maxPosterior,accuracyBaseLearner (percent),Change detected,Warning detected
100000.0,0.109375,4.719671172400315E-10,100000.0,68.10000000000001,37.22746091966691,33.817427385892124,21.62162162162164,20000.0,3256.0,20000.0,1.0,0.6241427816998002,0.0,0.0,10.0
200000.0,0.21875,9.43934234480063E-10,200000.0,68.60000000000001,38.10124586027442,34.30962343096235,29.910714285714292,40000.0,3256.0,40000.0,1.0,0.7830158914707258,0.0,0.0,0.0
300000.0,0.328125,1.4159013517200944E-9,300000.0,69.69999999999999,40.52292713567838,39.88095238095237,27.857142857142854,60000.0,3256.0,60000.0,1.0,0.6216847744487038,0.0,0.0,0.0
400000.0,0.4375,1.887868468960126E-9,400000.0,65.2,31.843019589256283,31.764705882352946,19.63048498845267,80000.0,3256.0,80000.0,1.0,0.7801351314772511,0.0,0.0,0.0
500000.0,0.546875,2.3598355862001577E-9,500000.0,69.5,39.73761163360467,36.7219917012448,26.506024096385538,100000.0,3256.0,100000.0,1.0,0.6226013321286071,0.0,0.0,0.0
600000.0,0.65625,2.829086345930894E-9,600000.0,68.0,36.77888414730521,34.02061855670104,25.581395348837226,120000.0,3256.0,120000.0,1.0,0.6220481299755793,0.0,0.0,0.0
700000.0,0.765625,3.2983371056616306E-9,700000.0,72.8,45.77698392447052,40.48140043763675,31.65829145728643,140000.0,3256.0,140000.0,1.0,0.7831890305537562,0.0,0.0,0.0
800000.0,0.875,3.767587865392367E-9,800000.0,69.1,39.18998701145353,34.39490445859871,27.464788732394364,160000.0,3256.0,160000.0,1.0,0.6225188196528127,0.0,0.0,0.0
900000.0,0.984375,4.236838625123103E-9,900000.0,70.5,41.713427645617635,40.76305220883533,28.915662650602407,180000.0,3256.0,180000.0,1.0,0.6237297208199667,0.0,0.0,0.0
1000000.0,1.09375,4.7060893848538395E-9,1000000.0,67.9,36.65140511525103,33.95061728395062,20.544554455445564,200000.0,3256.0,200000.0,1.0,0.6230640659907606,0.0,0.0,0.0
1100000.0,1.1875,5.108304321765899E-9,1100000.0,69.19999999999999,39.121050280478,41.22137404580152,29.51945080091533,220000.0,3256.0,220000.0,1.0,0.6233684417648726,0.0,0.0,0.0
1200000.0,1.296875,5.58366688589255E-9,1200000.0,71.1,42.73599112308788,37.98283261802574,34.318181818181806,240000.0,3256.0,240000.0,1.0,0.6237215136032627,0.0,0.0,40.0
1300000.0,1.40625,6.059029450019201E-9,1300000.0,72.0,44.47507129004239,42.740286298568506,35.03480278422274,260000.0,3256.0,260000.0,1.0,0.623721978076569,0.0,0.0,0.0
1400000.0,1.515625,6.5343920141458514E-9,1400000.0,68.5,38.08475509080903,34.10041841004185,28.40909090909091,280000.0,3256.0,280000.0,1.0,0.7825632045910631,0.0,0.0,0.0
1500000.0,1.625,7.0131500251591205E-9,1500000.0,67.0,35.32049673858506,31.818181818181824,19.90291262135924,300000.0,3256.0,300000.0,1.0,0.6235143477082995,0.0,0.0,5.0
1600000.0,1.734375,7.496208935562108E-9,1600000.0,69.0,38.87337718675561,36.08247422680411,23.645320197044327,320000.0,3256.0,320000.0,1.0,0.782210527985058,0.0,0.0,29.0
1700000.0,1.859375,8.04827626173695E-9,1700000.0,66.9,34.493322672830764,34.84251968503938,26.607538802660756,340000.0,3256.0,340000.0,1.0,0.6234028185388432,0.0,0.0,0.0
1800000.0,1.96875,8.531335172139936E-9,1800000.0,65.9,33.10472543511356,26.82403433476395,16.421568627450995,360000.0,3256.0,360000.0,1.0,0.7818788993882647,0.0,0.0,0.0
1900000.0,2.078125,9.014394082542923E-9,1900000.0,66.8,34.81095176010432,31.120331950207476,19.80676328502417,380000.0,3256.0,380000.0,1.0,0.6230463211860546,0.0,0.0,37.0
2000000.0,2.1875,9.497452992945909E-9,2000000.0,65.0,31.318681318681314,20.45454545454545,7.89473684210527,400000.0,3256.0,400000.0,1.0,0.7810502386450606,0.0,0.0,0.0
2100000.0,2.28125,9.911503487577041E-9,2100000.0,69.69999999999999,40.2154611104534,41.5057915057915,30.82191780821916,420000.0,3256.0,420000.0,1.0,0.6232209079707146,0.0,0.0,0.0
2200000.0,2.40625,1.0463570813751883E-8,2200000.0,66.8,34.60988493703247,28.29373650107992,17.206982543640912,440000.0,3256.0,440000.0,1.0,0.6231212109759401,0.0,0.0,0.0
2300000.0,2.515625,1.094662972415487E-8,2300000.0,67.5,35.92372360057413,30.25751072961374,24.768518518518537,460000.0,3256.0,460000.0,1.0,0.6237253371665491,0.0,0.0,0.0
2400000.0,2.625,1.1429688634557856E-8,2400000.0,68.8,38.943248532289616,35.26970954356845,19.999999999999986,480000.0,3256.0,480000.0,1.0,0.7815499148602977,0.0,0.0,0.0
2500000.0,2.734375,1.1908446645571125E-8,2500000.0,68.2,36.945547126263584,36.01609657947687,19.89924433249372,500000.0,3256.0,500000.0,1.0,0.6231187136502626,0.0,0.0,1.0
2600000.0,2.84375,1.2387204656584394E-8,2600000.0,67.9,36.13872022791117,35.671342685370746,31.115879828326186,520000.0,3256.0,520000.0,1.0,0.781270806167371,0.0,0.0,0.0
2700000.0,2.953125,1.2865962667597663E-8,2700000.0,70.8,42.228553339664444,44.592030360531304,30.476190476190474,540000.0,3256.0,540000.0,1.0,0.7811187042477988,0.0,0.0,0.0
2800000.0,3.046875,1.327632667703761E-8,2800000.0,67.9,36.281710270356115,30.818965517241388,14.171122994652418,560000.0,3256.0,560000.0,1.0,0.6235582911864396,0.0,0.0,0.0
2900000.0,3.15625,1.3755084688050878E-8,2900000.0,67.7,36.309500335213166,32.56784968684761,22.1686746987952,580000.0,3256.0,580000.0,1.0,0.7815622783991102,0.0,0.0,0.0
3000000.0,3.265625,1.4233842699064147E-8,3000000.0,69.19999999999999,38.88209801089008,40.655105973025044,30.316742081447945,600000.0,3256.0,600000.0,1.0,0.7818997137980096,0.0,0.0,0.0
3100000.0,3.375,1.4712600710077417E-8,3100000.0,70.19999999999999,41.22195222015337,37.13080168776371,29.71698113207547,620000.0,3256.0,620000.0,1.0,0.6229571594922448,0.0,0.0,0.0
3200000.0,3.46875,1.5122964719517362E-8,3200000.0,69.0,39.02654902068768,37.999999999999986,28.07424593967517,640000.0,3256.0,640000.0,1.0,0.6231277571272589,0.0,0.0,0.0
3300000.0,3.578125,1.5601722730530633E-8,3300000.0,68.8,38.110955947695814,36.71399594320486,24.637681159420282,660000.0,3256.0,660000.0,1.0,0.6229917421003488,0.0,0.0,0.0
3400000.0,3.6875,1.6080480741543904E-8,3400000.0,68.30000000000001,37.168499417272535,36.85258964143428,24.881516587677748,680000.0,3256.0,680000.0,1.0,0.6230100747095704,0.0,0.0,0.0
3500000.0,3.796875,1.6559238752557175E-8,3500000.0,69.89999999999999,40.25406907502977,34.70715835140996,25.67901234567901,700000.0,3256.0,700000.0,1.0,0.782005701610182,0.0,0.0,0.0
3600000.0,3.90625,1.7037996763570445E-8,3600000.0,68.60000000000001,37.95766104333877,36.30831643002029,26.806526806526826,720000.0,3256.0,720000.0,1.0,0.7820596380894257,0.0,0.0,37.0
3700000.0,4.0,1.744836077301039E-8,3700000.0,70.7,41.47023571713943,39.2116182572614,26.749999999999996,740000.0,3256.0,740000.0,1.0,0.7822340625628853,0.0,0.0,0.0
3800000.0,4.09375,1.7858724782450337E-8,3800000.0,68.5,37.72931427125506,36.87374749498999,28.246013667425974,760000.0,3256.0,760000.0,1.0,0.7818024853900495,0.0,0.0,0.0
3900000.0,4.203125,1.8337482793463608E-8,3900000.0,69.6,40.219614259195154,39.56262425447315,27.272727272727266,780000.0,3256.0,780000.0,1.0,0.7819312830482809,0.0,0.0,0.0
4000000.0,4.3125,1.881624080447688E-8,4000000.0,68.7,38.65439493242186,35.463917525773205,27.039627039627064,800000.0,3256.0,800000.0,1.0,0.623066591780049,0.0,0.0,0.0
4100000.0,4.40625,1.9226604813916825E-8,4100000.0,67.60000000000001,36.27591741044211,33.470225872689944,25.173210161662833,820000.0,3256.0,820000.0,1.0,0.6230015046927699,0.0,0.0,0.0
4200000.0,4.515625,1.9705362824930095E-8,4200000.0,70.3,41.19463980231895,39.26380368098158,29.453681710213775,840000.0,3256.0,840000.0,1.0,0.781599715512302,0.0,0.0,0.0
4300000.0,4.625,2.0184120835943366E-8,4300000.0,66.60000000000001,34.18485778805949,32.79678068410464,19.12832929782084,860000.0,3256.0,860000.0,1.0,0.6232964586882929,0.0,0.0,0.0
4400000.0,4.734375,2.0662878846956637E-8,4400000.0,70.19999999999999,41.51266309723814,39.676113360323875,28.70813397129186,880000.0,3256.0,880000.0,1.0,0.6229538201716666,0.0,0.0,0.0
4500000.0,4.84375,2.1141636857969908E-8,4500000.0,69.0,38.437096614040314,35.95041322314048,27.738927738927732,900000.0,3256.0,900000.0,1.0,0.6230858634766288,0.0,0.0,0.0
4600000.0,4.953125,2.1620394868983178E-8,4600000.0,68.10000000000001,36.78611910367077,36.32734530938125,27.33485193621868,920000.0,3256.0,920000.0,1.0,0.7820976295434732,0.0,0.0,26.0
4700000.0,5.0625,2.2103453779386165E-8,4700000.0,70.19999999999999,41.380816183615735,41.68297455968688,27.493917274939168,940000.0,3256.0,940000.0,1.0,0.6228605627199942,0.0,0.0,37.0
4800000.0,5.171875,2.258651268978915E-8,4800000.0,70.8,42.27081315118324,41.129032258064505,29.976019184652277,960000.0,3256.0,960000.0,1.0,0.6228640425359427,0.0,0.0,19.0
4900000.0,5.28125,2.3069571600192137E-8,4900000.0,67.2,35.48387096774195,36.80154142581889,23.720930232558157,980000.0,3256.0,980000.0,1.0,0.622777386493268,0.0,0.0,0.0
5000000.0,5.390625,2.3552630510595124E-8,5000000.0,67.30000000000001,35.663862371819604,31.732776617954077,22.511848341232245,1000000.0,3256.0,1000000.0,1.0,0.7820899115229344,0.0,0.0,0.0
5100000.0,5.5,2.4023465812206283E-8,5100000.0,64.4,31.199752628324063,12.745098039215696,-26.241134751773032,70123.0,3256.0,1020000.0,1.0,0.8065695936208326,0.0,1.0,8.0
5200000.0,5.59375,2.442703892787299E-8,5200000.0,63.3,30.184070554037913,13.033175355450247,-25.255972696245717,90123.0,3256.0,1040000.0,1.0,0.8207288580730788,0.0,0.0,0.0
5300000.0,5.703125,2.489787422948415E-8,5300000.0,65.5,32.56450351837374,19.580419580419594,-14.999999999999975,110123.0,3256.0,1060000.0,1.0,0.8306453197241099,0.0,0.0,0.0
5400000.0,5.8125,2.536870953109531E-8,5400000.0,61.6,26.87580693689611,8.571428571428578,-33.79790940766549,130123.0,3256.0,1080000.0,1.0,0.834685664582939,0.0,0.0,0.0
5500000.0,5.90625,2.5772282646762017E-8,5500000.0,65.2,32.49560639507141,17.5355450236967,-15.61461794019931,150123.0,3256.0,1100000.0,1.0,0.5270637131410911,0.0,0.0,0.0
5600000.0,6.015625,2.6243117948373176E-8,5600000.0,61.6,26.565362564398736,10.90487238979119,-28.428093645484935,170123.0,3256.0,1120000.0,1.0,0.5226561236333508,0.0,0.0,0.0
5700000.0,6.125,2.6713953249984336E-8,5700000.0,66.10000000000001,33.39725101574105,12.853470437018006,-18.531468531468505,190123.0,3256.0,1140000.0,1.0,0.5186780530289705,0.0,0.0,0.0
5800000.0,6.234375,2.7184788551595495E-8,5800000.0,63.2,29.46489153310359,4.663212435233165,-28.222996515679426,210123.0,3256.0,1160000.0,1.0,0.850105229811663,0.0,0.0,0.0
5900000.0,6.328125,2.7588361667262203E-8,5900000.0,65.2,30.458692863223447,15.942028985507259,-20.415224913494786,230123.0,3256.0,1180000.0,1.0,0.5140296297406498,0.0,0.0,0.0
6000000.0,6.4375,2.8059196968873362E-8,6000000.0,64.4,28.34859615578143,7.772020725388608,-29.45454545454544,250123.0,3256.0,1200000.0,1.0,0.5546579695347255,0.0,0.0,0.0
6100000.0,6.53125,2.846277008454007E-8,6100000.0,66.10000000000001,32.83564347019804,26.46420824295011,-6.603773584905667,270123.0,3256.0,1220000.0,1.0,0.5104756132375452,0.0,0.0,0.0
6200000.0,6.640625,2.893360538615123E-8,6200000.0,71.89999999999999,41.050599983217246,31.463414634146343,-0.35714285714285743,290123.0,3256.0,1240000.0,1.0,0.8101714102915534,0.0,0.0,0.0
6300000.0,6.75,2.940444068776239E-8,6300000.0,68.4,33.66946402408051,24.76190476190478,-7.849829351535805,310123.0,3256.0,1260000.0,1.0,0.8115678896673987,0.0,0.0,0.0
6400000.0,6.84375,2.980801380342909E-8,6400000.0,69.19999999999999,36.64663219256131,24.8780487804878,1.5974440894568354,330123.0,3256.0,1280000.0,1.0,0.5497511789063887,0.0,0.0,0.0
6500000.0,6.953125,3.027884910504025E-8,6500000.0,67.4,31.73289553038934,18.295739348370944,-14.78873239436617,350123.0,3256.0,1300000.0,1.0,0.5464428528058866,0.0,0.0,0.0
6600000.0,7.046875,3.068242222070695E-8,6600000.0,68.30000000000001,34.67150276152008,24.343675417661117,-7.457627118644036,370123.0,3256.0,1320000.0,1.0,0.5455278776844481,0.0,0.0,0.0
6700000.0,7.15625,3.115325752231811E-8,6700000.0,66.4,30.8687493827567,18.84057971014494,-9.803921568627421,390123.0,3256.0,1340000.0,1.0,0.5466772876929219,0.0,0.0,0.0
6800000.0,7.265625,3.1624092823929265E-8,6800000.0,69.6,36.7078065923816,24.37810945273631,-6.293706293706299,410123.0,3256.0,1360000.0,1.0,0.8154951449983076,0.0,0.0,0.0
6900000.0,7.359375,3.202766593959597E-8,6900000.0,68.8,35.79322124585844,27.102803738317753,-4.347826086956525,430122.0,3256.0,1379999.0,1.0,0.8159939550701878,0.0,0.0,0.0
7000000.0,7.46875,3.2498501241207126E-8,7000000.0,65.4,30.800000000000004,6.486486486486492,-31.060606060606045,450123.0,3256.0,1400000.0,1.0,0.5021028389340959,0.0,0.0,0.0
7100000.0,7.578125,3.296933654281828E-8,7100000.0,67.2,32.95915822865015,22.274881516587694,-8.970099667774056,470123.0,3256.0,1420000.0,1.0,0.5426902499942432,0.0,0.0,0.0
7200000.0,7.6875,3.344017184442944E-8,7200000.0,69.5,34.976335650023444,24.317617866004955,-9.318996415770616,490123.0,3256.0,1440000.0,1.0,0.5420937183561713,0.0,0.0,0.0
7300000.0,7.78125,3.384374496009614E-8,7300000.0,70.0,37.531234382808584,28.57142857142857,3.2258064516129052,510123.0,3256.0,1460000.0,1.0,0.5418289240767012,0.0,0.0,0.0
7400000.0,7.875,3.4247318075762846E-8,7400000.0,67.7,32.7856298589955,12.702702702702714,-15.77060931899639,530123.0,3256.0,1480000.0,1.0,0.8182525358402852,0.0,0.0,0.0
7500000.0,7.984375,3.4718153377374E-8,7500000.0,68.5,33.08408038407615,25.00000000000002,-8.247422680412338,550123.0,3256.0,1500000.0,1.0,0.5415193545715971,0.0,0.0,0.0
7600000.0,8.0625,3.505446430709626E-8,7600000.0,68.30000000000001,35.23474849834513,25.235849056603794,3.9393939393939434,570123.0,3256.0,1520000.0,1.0,0.5413555607914766,0.0,0.0,0.0
7700000.0,8.171875,3.552529960870742E-8,7700000.0,69.6,36.877076411960125,31.22171945701356,-1.3333333333333344,590123.0,3256.0,1540000.0,1.0,0.5410315303060687,0.0,0.0,0.0
7800000.0,8.28125,3.5996134910318574E-8,7800000.0,68.5,32.42199567500773,20.45454545454547,-17.537313432835795,610123.0,3256.0,1560000.0,1.0,0.5408238936859056,0.0,0.0,0.0
7900000.0,8.390625,3.646697021192973E-8,7900000.0,67.7,32.354320946285576,20.83333333333335,-8.026755852842777,630123.0,3256.0,1580000.0,1.0,0.5406665964717182,0.0,0.0,0.0
8000000.0,8.5,3.6937805513540886E-8,8000000.0,67.60000000000001,32.495218411304144,25.173210161662833,-4.180064308681639,650123.0,3256.0,1600000.0,1.0,0.5420742979336608,0.0,0.0,0.0
8100000.0,8.59375,3.734137862920759E-8,8100000.0,70.0,38.31222240500081,26.650366748166256,3.2258064516129052,670123.0,3256.0,1620000.0,1.0,0.5417748962403847,0.0,0.0,0.0
8200000.0,8.703125,3.7812213930818746E-8,8200000.0,68.10000000000001,34.69377727916672,25.46728971962619,-1.5923566878980908,690123.0,3256.0,1640000.0,1.0,0.5399822701389122,0.0,0.0,0.0
8300000.0,8.8125,3.82830492324299E-8,8300000.0,67.2,30.68704354882337,17.794486215538864,-15.492957746478847,710123.0,3256.0,1660000.0,1.0,0.5413191078191709,0.0,0.0,0.0
8400000.0,8.90625,3.8686622348096607E-8,8400000.0,66.4,29.779977262087886,19.42446043165469,-21.739130434782584,730123.0,3256.0,1680000.0,1.0,0.820919144220614,0.0,0.0,0.0
8500000.0,9.015625,3.915745764970776E-8,8500000.0,70.6,25.25322377252574,23.237597911227144,-7.299270072992707,750123.0,3256.0,1700000.0,1.0,0.8211494203652487,0.0,0.0,0.0
8600000.0,9.125,3.962829295131892E-8,8600000.0,68.30000000000001,34.01332223147377,27.62557077625571,-5.666666666666634,770123.0,3256.0,1720000.0,1.0,0.5392520838974758,0.0,0.0,0.0
8700000.0,9.234375,4.0099128252930075E-8,8700000.0,67.4,31.33951137320978,18.500000000000018,-12.413793103448247,790123.0,3256.0,1740000.0,1.0,0.5410477649352662,0.0,0.0,0.0
8800000.0,9.328125,4.050270136859678E-8,8800000.0,66.5,32.31721607577239,22.09302325581397,-9.477124183006506,810123.0,3256.0,1760000.0,1.0,0.8199430097650482,0.0,0.0,0.0
8900000.0,9.4375,4.0973536670207935E-8,8900000.0,70.39999999999999,38.68487339254937,28.155339805825236,2.631578947368423,830123.0,3256.0,1780000.0,1.0,0.538976095347417,0.0,0.0,0.0
9000000.0,9.53125,4.137710978587464E-8,9000000.0,67.0,32.80555148316474,25.675675675675674,-10.738255033557017,850123.0,3256.0,1800000.0,1.0,0.538612699836651,0.0,0.0,0.0
9100000.0,9.640625,4.1847945087485796E-8,9100000.0,68.5,34.009301546067796,24.096385542168694,-7.14285714285711,870123.0,3256.0,1820000.0,1.0,0.5385392625885822,0.0,0.0,0.0
9200000.0,9.75,4.231878038909695E-8,9200000.0,67.7,33.4816096214836,19.250000000000018,-9.863945578231261,890123.0,3256.0,1840000.0,1.0,0.5400817797959717,0.0,0.0,0.0
9300000.0,9.859375,4.278961569070811E-8,9300000.0,66.8,31.7052298982984,20.76372315035801,-12.162162162162133,910123.0,3256.0,1860000.0,1.0,0.5384247057519269,0.0,0.0,0.0
9400000.0,9.96875,4.3260450992319264E-8,9400000.0,70.39999999999999,29.124205041759243,28.155339805825236,1.9867549668874187,930123.0,3256.0,1880000.0,1.0,0.8225736307042759,0.0,0.0,0.0
9500000.0,10.078125,4.373128629393042E-8,9500000.0,69.1,16.58568189180435,22.5563909774436,-4.74576271186441,950123.0,3256.0,1900000.0,1.0,0.5024144923694461,0.0,0.0,0.0
9600000.0,10.1875,4.4202121595541576E-8,9600000.0,67.9,34.41162528401199,25.348837209302346,-5.592105263157862,970123.0,3256.0,1920000.0,1.0,0.5380476892388238,0.0,0.0,0.0
9700000.0,10.296875,4.467295689715273E-8,9700000.0,66.5,30.871962493396737,22.09302325581397,-14.726027397260246,990123.0,3256.0,1940000.0,1.0,0.538068544369495,0.0,0.0,0.0
9800000.0,10.390625,4.5076530012819436E-8,9800000.0,70.0,36.99199798374392,25.373134328358205,-6.007067137809192,1010123.0,3256.0,1960000.0,1.0,0.539663197557048,0.0,0.0,0.0
9900000.0,10.484375,4.548010312848614E-8,9900000.0,68.7,34.70460614152204,28.045977011494273,-9.82456140350874,1030123.0,3256.0,1980000.0,1.0,0.5395534403428119,0.0,0.0,0.0
1.0E7,10.59375,4.5950938430097297E-8,1.0E7,68.10000000000001,33.73934428953622,21.234567901234584,-10.380622837370211,1050123.0,3256.0,2000000.0,1.0,0.5392096942806607,0.0,0.0,0.0
