learning evaluation instances,evaluation time (cpu seconds),model cost (RAM-Hours),classified instances,classifications correct (percent),Kappa Statistic (percent),Kappa Temporal Statistic (percent),Kappa M Statistic (percent),model training instances,model serialized size (bytes),labeling cost,newThreshold,maxPosterior,accuracyBaseLearner (percent),Change detected,Warning detected
100000.0,0.1875,4.88207054634889E-9,100000.0,89.4,78.00638229887252,78.00829875518673,73.95577395577396,19800.0,1112.0,0.0,1.0,0.0,?,0.0,7.0
200000.0,0.390625,9.666513910310137E-9,200000.0,90.4,80.49985374890312,79.9163179916318,78.57142857142857,39800.0,1112.0,0.0,1.0,0.0,?,0.0,0.0
300000.0,0.59375,1.3946490879687998E-8,300000.0,89.4,78.05564756541902,78.96825396825398,74.76190476190477,59800.0,1112.0,0.0,1.0,0.0,?,0.0,0.0
400000.0,0.78125,1.743157756411367E-8,400000.0,88.0,75.40005657986987,76.47058823529413,72.2863741339492,79800.0,1112.0,0.0,1.0,0.0,?,0.0,0.0
500000.0,0.984375,2.0702621744324765E-8,500000.0,88.2,75.52628849942964,75.51867219917013,71.56626506024097,99800.0,1112.0,0.0,1.0,0.0,?,0.0,0.0
600000.0,1.171875,2.3256385854134958E-8,600000.0,87.9,75.03816478937163,75.05154639175258,71.86046511627907,119800.0,1112.0,0.0,1.0,0.0,?,0.0,0.0
700000.0,1.359375,2.5344488676637412E-8,700000.0,89.9,78.80555672136651,77.89934354485777,74.62311557788945,139800.0,1112.0,0.0,1.0,0.0,?,0.0,0.0
800000.0,1.578125,2.723733713436458E-8,800000.0,88.5,76.26223011187714,75.58386411889597,73.00469483568077,159800.0,1112.0,0.0,1.0,0.0,?,0.0,0.0
900000.0,1.75,2.8297719028260976E-8,900000.0,88.5,76.02168473728106,76.90763052208835,72.28915662650603,179800.0,1112.0,0.0,1.0,0.0,?,0.0,0.0
1000000.0,1.953125,2.9046431235555147E-8,1000000.0,89.8,78.66608660732214,79.01234567901236,74.75247524752476,199800.0,1112.0,0.0,1.0,0.0,?,0.0,0.0
1100000.0,2.15625,3.434038565804561E-8,1100000.0,88.9,77.35488767208246,78.81679389312978,74.59954233409611,219600.0,1112.0,0.0,1.0,0.0,?,0.0,0.0
1200000.0,2.359375,3.912987368595269E-8,1200000.0,90.5,80.61382744265775,79.6137339055794,78.40909090909092,239600.0,1112.0,0.0,1.0,0.0,?,0.0,0.0
1300000.0,2.546875,4.308527827055918E-8,1300000.0,90.8,81.0723734832182,81.18609406952966,78.65429234338748,259600.0,1112.0,0.0,1.0,0.0,?,0.0,0.0
1400000.0,2.75,4.686583350929949E-8,1400000.0,88.8,77.07173272191288,76.56903765690377,74.54545454545455,279600.0,1112.0,0.0,1.0,0.0,?,0.0,0.0
1500000.0,2.9375,4.9889915519290504E-8,1500000.0,89.5,78.14612541210164,78.30578512396694,74.51456310679613,299600.0,1112.0,0.0,1.0,0.0,?,0.0,0.0
1600000.0,3.140625,5.2661537968864045E-8,1600000.0,90.10000000000001,79.30515489778001,79.58762886597938,75.61576354679804,319600.0,1112.0,0.0,1.0,0.0,?,0.0,0.0
1700000.0,3.328125,5.475429740423958E-8,1700000.0,88.5,76.57764815146726,77.36220472440945,74.50110864745011,339600.0,1112.0,0.0,1.0,0.0,?,0.0,0.0
1800000.0,3.53125,5.651698706464636E-8,1800000.0,88.9,76.97821433904662,76.1802575107296,72.79411764705883,359600.0,1112.0,0.0,1.0,0.0,?,0.0,0.0
1900000.0,3.734375,5.7775210330469746E-8,1900000.0,89.8,78.90330266728441,78.83817427385893,75.36231884057972,379600.0,1112.0,0.0,1.0,0.0,?,0.0,0.0
2000000.0,3.921875,5.847098590392206E-8,2000000.0,88.1,74.55089820359282,72.95454545454545,68.6842105263158,399600.0,1112.0,0.0,1.0,0.0,?,0.0,0.0
2100000.0,4.125,6.376998499035836E-8,2100000.0,90.60000000000001,80.82915925666086,81.85328185328186,78.53881278538813,419400.0,1112.0,0.0,1.0,0.0,?,0.0,0.0
2200000.0,4.375,6.96709483034081E-8,2200000.0,90.0,78.88807725274772,78.40172786177106,75.06234413965089,439400.0,1112.0,0.0,1.0,0.0,?,0.0,0.0
2300000.0,4.578125,7.396101460067763E-8,2300000.0,87.5,74.3511876426074,73.17596566523605,71.06481481481481,459400.0,1112.0,0.0,1.0,0.0,?,0.0,0.0
2400000.0,4.78125,7.774661450336377E-8,2400000.0,89.0,76.81672567863767,77.17842323651453,71.7948717948718,479400.0,1112.0,0.0,1.0,0.0,?,0.0,0.0
2500000.0,4.96875,8.077535312622786E-8,2500000.0,87.9,74.56337293879233,75.65392354124748,69.52141057934509,499400.0,1112.0,0.0,1.0,0.0,?,0.0,0.0
2600000.0,5.171875,8.355202023974724E-8,2600000.0,88.9,77.5465454045263,77.75551102204409,76.1802575107296,519400.0,1112.0,0.0,1.0,0.0,?,0.0,0.0
2700000.0,5.359375,8.564943628799584E-8,2700000.0,90.4,80.23064250411862,81.78368121442125,77.14285714285715,539400.0,1112.0,0.0,1.0,0.0,?,0.0,0.0
2800000.0,5.5625,8.741717061234846E-8,2800000.0,90.3,79.11589172989312,79.09482758620689,74.06417112299467,559400.0,1112.0,0.0,1.0,0.0,?,0.0,0.0
2900000.0,5.75,8.858326408598158E-8,2900000.0,89.0,77.15330134795522,77.03549060542798,73.49397590361446,579400.0,1112.0,0.0,1.0,0.0,?,0.0,0.0
3000000.0,5.953125,8.934206562116742E-8,3000000.0,89.3,78.1591645778391,79.38342967244701,75.7918552036199,599400.0,1112.0,0.0,1.0,0.0,?,0.0,0.0
3100000.0,6.140625,9.423810600613555E-8,3100000.0,87.9,75.0959116131263,74.47257383966245,71.4622641509434,619200.0,1112.0,0.0,1.0,0.0,?,0.0,0.0
3200000.0,6.34375,9.90376833619343E-8,3200000.0,88.1,75.55223193741372,76.2,72.38979118329468,639200.0,1112.0,0.0,1.0,0.0,?,0.0,0.0
3300000.0,6.53125,1.0300240117228694E-7,3300000.0,88.6,76.32024992522184,76.8762677484787,72.46376811594203,659200.0,1112.0,0.0,1.0,0.0,?,0.0,0.0
3400000.0,6.734375,1.0679304573891892E-7,3400000.0,90.2,79.58469435370976,80.4780876494024,76.77725118483413,679200.0,1112.0,0.0,1.0,0.0,?,0.0,0.0
3500000.0,6.9375,1.1007922391096751E-7,3500000.0,87.8,74.5052556788498,73.53579175704989,69.87654320987654,699200.0,1112.0,0.0,1.0,0.0,?,0.0,0.0
3600000.0,7.171875,1.132888913465043E-7,3600000.0,87.8,74.96727278696329,75.25354969574036,71.56177156177156,719200.0,1112.0,0.0,1.0,0.0,?,0.0,0.0
3700000.0,7.390625,1.1574130945114626E-7,3700000.0,89.2,77.11864406779661,77.59336099585063,73.00000000000001,739200.0,1112.0,0.0,1.0,0.0,?,0.0,0.0
3800000.0,7.578125,1.173777208249602E-7,3800000.0,89.4,78.27521612060944,78.75751503006012,75.85421412300684,759200.0,1112.0,0.0,1.0,0.0,?,0.0,0.0
3900000.0,7.796875,1.1874359592588411E-7,3900000.0,90.4,80.13541028654672,80.9145129224652,77.03349282296652,779200.0,1112.0,0.0,1.0,0.0,?,0.0,0.0
4000000.0,8.046875,1.196837143248154E-7,4000000.0,88.9,77.23095605369392,77.11340206185568,74.12587412587413,799200.0,1112.0,0.0,1.0,0.0,?,0.0,0.0
4100000.0,8.296875,1.2621797698860367E-7,4100000.0,87.6,74.52407269679127,74.53798767967146,71.36258660508084,819000.0,1112.0,0.0,1.0,0.0,?,0.0,0.0
4200000.0,8.515625,1.3139218531755937E-7,4200000.0,88.0,75.2249369268186,75.4601226993865,71.49643705463184,839000.0,1112.0,0.0,1.0,0.0,?,0.0,0.0
4300000.0,8.734375,1.3602312214465604E-7,4300000.0,87.1,73.38494041527746,74.04426559356136,68.76513317191284,859000.0,1112.0,0.0,1.0,0.0,?,0.0,0.0
4400000.0,8.953125,1.401107874698937E-7,4400000.0,88.7,76.68891877841683,77.1255060728745,72.9665071770335,879000.0,1112.0,0.0,1.0,0.0,?,0.0,0.0
4500000.0,9.15625,1.4340201030588812E-7,4500000.0,89.7,78.77304052494478,78.71900826446281,75.990675990676,899000.0,1112.0,0.0,1.0,0.0,?,0.0,0.0
4600000.0,9.359375,1.4618876674729917E-7,4600000.0,88.5,76.46008859194485,77.04590818363273,73.80410022779044,919000.0,1112.0,0.0,1.0,0.0,?,0.0,0.0
4700000.0,9.5625,1.4847105679412682E-7,4700000.0,88.8,76.57423249237617,78.08219178082192,72.74939172749392,939000.0,1112.0,0.0,1.0,0.0,?,0.0,0.0
4800000.0,9.765625,1.502488804463711E-7,4800000.0,90.5,80.3744959344219,80.84677419354838,77.21822541966428,959000.0,1112.0,0.0,1.0,0.0,?,0.0,0.0
4900000.0,9.953125,1.5142428714575036E-7,4900000.0,91.0,81.57700810611644,82.65895953757226,79.06976744186048,979000.0,1112.0,0.0,1.0,0.0,?,0.0,0.0
5000000.0,10.15625,1.5223269454307024E-7,5000000.0,89.8,78.97011281915947,78.70563674321504,75.82938388625593,999000.0,1112.0,0.0,1.0,0.0,?,0.0,0.0
5100000.0,10.359375,1.5759559270615377E-7,5100000.0,89.9,73.90693300540464,75.24509803921569,64.18439716312058,15476.0,1112.0,0.0,1.0,0.0,?,5.0,46.0
5200000.0,10.546875,1.6208029895400005E-7,5200000.0,91.3,78.19461432037377,79.38388625592418,70.30716723549489,35476.0,1112.0,0.0,1.0,0.0,?,0.0,0.0
5300000.0,10.75,1.664342643279168E-7,5300000.0,89.3,73.16950852557673,75.05827505827507,64.33333333333334,55476.0,1112.0,0.0,1.0,0.0,?,0.0,0.0
5400000.0,10.9375,1.6998764800114762E-7,5400000.0,87.8,68.82745228300585,70.95238095238095,57.491289198606275,75476.0,1112.0,0.0,1.0,0.0,?,0.0,0.0
5500000.0,11.140625,1.733326805858976E-7,5500000.0,88.3,70.55240664861219,72.27488151658768,61.129568106312306,95476.0,1112.0,0.0,1.0,0.0,?,0.0,0.0
5600000.0,11.40625,1.7704726714226932E-7,5600000.0,88.0,69.25079563566293,72.15777262180974,59.86622073578596,115476.0,1112.0,0.0,1.0,0.0,?,0.0,0.0
5700000.0,11.609375,1.7938336693785255E-7,5700000.0,89.4,72.67083307551101,72.75064267352185,62.93706293706295,135476.0,1112.0,0.0,1.0,0.0,?,0.0,0.0
5800000.0,11.828125,1.8135589521585239E-7,5800000.0,88.4,69.70092725610552,69.94818652849742,59.581881533101054,155476.0,1112.0,0.0,1.0,0.0,?,0.0,0.0
5900000.0,12.0625,1.8288724176171753E-7,5900000.0,88.6,70.43859785602041,72.46376811594203,60.55363321799309,175476.0,1112.0,0.0,1.0,0.0,?,0.0,0.0
6000000.0,12.328125,1.8396308102334539E-7,6000000.0,89.60000000000001,72.0917751241111,73.05699481865285,62.181818181818194,195476.0,1112.0,0.0,1.0,0.0,?,0.0,0.0
6100000.0,12.578125,1.9056977988738153E-7,6100000.0,88.2,71.40364482357504,74.40347071583514,62.893081761006286,215276.0,1112.0,0.0,1.0,0.0,?,0.0,0.0
6200000.0,12.8125,1.9618148346328073E-7,6200000.0,90.4,75.16042227282136,76.58536585365854,65.71428571428572,235276.0,1112.0,0.0,1.0,0.0,?,0.0,0.0
6300000.0,13.03125,2.008758019655943E-7,6300000.0,90.8,76.42778446795974,78.0952380952381,68.60068259385666,255276.0,1112.0,0.0,1.0,0.0,?,0.0,0.0
6400000.0,13.234375,2.047303456088735E-7,6400000.0,88.8,72.62403511945209,72.6829268292683,64.21725239616613,275276.0,1112.0,0.0,1.0,0.0,?,0.0,0.0
6500000.0,13.46875,2.0859581935736868E-7,6500000.0,88.5,70.36937791153069,71.1779448621554,59.507042253521135,295276.0,1112.0,0.0,1.0,0.0,?,0.0,0.0
6600000.0,13.734375,2.1231700278197726E-7,6600000.0,89.7,73.65324602240754,75.41766109785203,65.08474576271188,315276.0,1112.0,0.0,1.0,0.0,?,0.0,0.0
6700000.0,13.9375,2.1465814724150632E-7,6700000.0,88.2,70.1447221941099,71.4975845410628,61.43790849673203,335276.0,1112.0,0.0,1.0,0.0,?,0.0,48.0
6800000.0,14.203125,2.1705995701874298E-7,6800000.0,88.5,70.44826132987964,71.39303482587064,59.7902097902098,355276.0,1112.0,0.0,1.0,0.0,?,0.0,91.0
6900000.0,14.453125,2.1869960215149656E-7,6900000.0,88.8,71.88006849211888,73.83177570093459,62.5418060200669,375276.0,1112.0,0.0,1.0,0.0,?,0.0,0.0
7000000.0,14.640625,2.19463674713754E-7,7000000.0,88.0,67.12400824091527,67.56756756756756,54.545454545454554,395276.0,1112.0,0.0,1.0,0.0,?,0.0,12.0
7100000.0,14.875,2.2566327566487922E-7,7100000.0,90.0,75.00637337478943,76.30331753554503,66.77740863787378,415076.0,1112.0,0.0,1.0,0.0,?,0.0,0.0
7200000.0,15.140625,2.3202980325246851E-7,7200000.0,89.4,71.6600272705398,73.69727047146402,62.00716845878137,435076.0,1112.0,0.0,1.0,0.0,?,0.0,0.0
7300000.0,15.40625,2.3773664401637184E-7,7300000.0,87.6,69.20937624155741,70.47619047619048,60.00000000000001,455076.0,1112.0,0.0,1.0,0.0,?,0.0,0.0
7400000.0,15.640625,2.4219001514009303E-7,7400000.0,88.9,70.7040528699471,70.0,60.21505376344087,475076.0,1112.0,0.0,1.0,0.0,?,0.0,0.0
7500000.0,15.875,2.4606130965467955E-7,7500000.0,87.9,68.54135901329063,71.19047619047619,58.4192439862543,495076.0,1112.0,0.0,1.0,0.0,?,0.0,0.0
7600000.0,16.125,2.495698087538282E-7,7600000.0,88.7,72.74875801861766,73.34905660377359,65.75757575757576,515076.0,1112.0,0.0,1.0,0.0,?,0.0,8.0
7700000.0,16.390625,2.526379022229877E-7,7700000.0,89.9,74.72472472472474,77.14932126696833,66.33333333333334,535076.0,1112.0,0.0,1.0,0.0,?,0.0,72.0
7800000.0,16.59375,2.544796249518792E-7,7800000.0,89.8,71.87417276978736,74.24242424242425,61.9402985074627,555076.0,1112.0,0.0,1.0,0.0,?,0.0,23.0
7900000.0,16.796875,2.558168812861873E-7,7900000.0,88.3,70.05037680209699,71.32352941176471,60.86956521739131,575076.0,1112.0,0.0,1.0,0.0,?,0.0,0.0
8000000.0,17.0,2.566496712259121E-7,8000000.0,88.7,71.76468236517012,73.90300230946882,63.66559485530547,595076.0,1112.0,0.0,1.0,0.0,?,0.0,0.0
8100000.0,17.1875,2.6161400859968536E-7,8100000.0,87.9,70.26296387318752,70.4156479217604,60.96774193548388,614876.0,1112.0,0.0,1.0,0.0,?,0.0,0.0
8200000.0,17.390625,2.66487574360023E-7,8200000.0,87.2,68.31871373977782,70.09345794392524,59.235668789808905,634876.0,1112.0,0.0,1.0,0.0,?,0.0,0.0
8300000.0,17.609375,2.7119275829237373E-7,8300000.0,87.8,68.10424161298418,69.42355889724311,57.04225352112676,654876.0,1112.0,0.0,1.0,0.0,?,0.0,14.0
8400000.0,17.796875,2.747601118042238E-7,8400000.0,89.5,71.7304212974929,74.82014388489209,61.956521739130444,674876.0,1112.0,0.0,1.0,0.0,?,0.0,0.0
8500000.0,18.0,2.7812027838081125E-7,8500000.0,87.8,67.4096552903212,68.1462140992167,55.47445255474454,694876.0,1112.0,0.0,1.0,0.0,?,0.0,0.0
8600000.0,18.25,2.81634986297124E-7,8600000.0,87.4,68.30985915492957,71.23287671232876,58.00000000000001,714876.0,1112.0,0.0,1.0,0.0,?,0.0,0.0
8700000.0,18.4375,2.8380535594705085E-7,8700000.0,88.8,70.58205505358268,72.00000000000001,61.3793103448276,734876.0,1112.0,0.0,1.0,0.0,?,0.0,0.0
8800000.0,18.65625,2.8579418237010644E-7,8800000.0,88.8,72.15481920521898,73.95348837209302,63.398692810457526,754876.0,1112.0,0.0,1.0,0.0,?,0.0,0.0
8900000.0,18.875,2.87239737291303E-7,8900000.0,90.2,75.62189054726369,76.21359223300972,67.76315789473686,774876.0,1112.0,0.0,1.0,0.0,?,0.0,0.0
9000000.0,19.0625,2.8801312307930663E-7,9000000.0,88.7,71.76496456877855,74.54954954954955,62.08053691275168,794876.0,1112.0,0.0,1.0,0.0,?,0.0,7.0
9100000.0,19.265625,2.933961998981735E-7,9100000.0,87.7,68.65986526290042,70.36144578313254,58.163265306122454,814676.0,1112.0,0.0,1.0,0.0,?,0.0,10.0
9200000.0,19.46875,2.98274810322457E-7,9200000.0,87.9,69.55300796151097,69.75,58.84353741496599,834676.0,1112.0,0.0,1.0,0.0,?,0.0,0.0
9300000.0,19.671875,3.0264895435215706E-7,9300000.0,86.6,66.46915161948994,68.01909307875896,54.72972972972974,854676.0,1112.0,0.0,1.0,0.0,?,0.0,0.0
9400000.0,19.859375,3.062209644768802E-7,9400000.0,89.3,73.55177425574199,74.02912621359224,64.56953642384107,874676.0,1112.0,0.0,1.0,0.0,?,0.0,0.0
9500000.0,20.046875,3.0932731331429557E-7,9500000.0,88.8,71.50054708771215,71.9298245614035,62.033898305084755,894676.0,1112.0,0.0,1.0,0.0,?,0.0,0.0
9600000.0,20.234375,3.119680008644032E-7,9600000.0,88.4,70.86012861736334,73.0232558139535,61.8421052631579,914676.0,1112.0,0.0,1.0,0.0,?,0.0,0.0
9700000.0,20.421875,3.141430271272031E-7,9700000.0,89.4,72.89058024388248,75.34883720930233,63.69863013698631,934676.0,1112.0,0.0,1.0,0.0,?,0.0,0.0
9800000.0,20.640625,3.161372862652773E-7,9800000.0,90.3,75.27831015781105,75.87064676616916,65.72438162544171,954676.0,1112.0,0.0,1.0,0.0,?,0.0,0.0
9900000.0,20.875,3.176919158755078E-7,9900000.0,90.8,76.43140771102857,78.85057471264368,67.71929824561404,974676.0,1112.0,0.0,1.0,0.0,?,0.0,0.0
1.0E7,21.078125,3.1853479514312423E-7,1.0E7,89.60000000000001,73.38124708857391,74.32098765432099,64.01384083044984,994676.0,1112.0,0.0,1.0,0.0,?,0.0,0.0
