learning evaluation instances,evaluation time (cpu seconds),model cost (RAM-Hours),classified instances,classifications correct (percent),Kappa Statistic (percent),Kappa Temporal Statistic (percent),Kappa M Statistic (percent),model training instances,model serialized size (bytes),labeling cost,newThreshold,maxPosterior,accuracyBaseLearner (percent),Change detected,Warning detected,tree size (nodes),tree size (leaves),active learning leaves,tree depth,active leaf byte size estimate,inactive leaf byte size estimate,byte size estimate overhead
100000.0,0.96875,1.012028789975577E-7,100000.0,90.8,81.37734756751725,80.34188034188034,79.6008869179601,39567.0,292640.0,0.0,1.0,0.0,?,1.0,35.0,95.0,69.0,69.0,4.0,0.0,0.0,1.0
200000.0,1.8125,2.0385849186115794E-7,200000.0,88.7,77.09824649582904,76.9857433808554,74.25968109339408,79567.0,374008.0,0.0,1.0,0.0,?,0.0,0.0,126.0,89.0,89.0,5.0,0.0,0.0,1.0
300000.0,2.65625,3.190572735750013E-7,300000.0,92.4,84.63684327558674,84.06708595387842,83.2967032967033,119567.0,446376.0,0.0,1.0,0.0,?,0.0,0.0,154.0,106.0,106.0,5.0,0.0,0.0,1.0
400000.0,3.515625,4.7444181594376763E-7,400000.0,93.0,85.74494862072197,85.38622129436327,83.68298368298369,159567.0,632080.0,0.0,1.0,0.0,?,0.0,0.0,225.0,155.0,155.0,6.0,0.0,0.0,1.0
500000.0,4.328125,6.482321704323921E-7,500000.0,93.10000000000001,86.14502345306177,85.28784648187634,85.25641025641026,199567.0,774672.0,0.0,1.0,0.0,?,0.0,0.0,275.0,189.0,189.0,6.0,0.0,0.0,1.0
600000.0,5.109375,8.375348018792769E-7,600000.0,92.80000000000001,85.44278204609786,85.45454545454547,84.00000000000001,239367.0,823504.0,0.0,1.0,0.0,?,0.0,0.0,297.0,203.0,203.0,6.0,0.0,0.0,1.0
700000.0,5.875,1.0321292211301625E-6,700000.0,94.8,89.45831981835873,89.30041152263374,88.18181818181817,279367.0,884208.0,0.0,1.0,0.0,?,0.0,0.0,330.0,221.0,221.0,6.0,0.0,0.0,1.0
800000.0,6.640625,1.233692455571145E-6,800000.0,95.1,90.09780939293508,89.61864406779661,88.86363636363636,319367.0,934384.0,0.0,1.0,0.0,?,0.0,0.0,345.0,230.0,230.0,6.0,0.0,0.0,1.0
900000.0,7.40625,1.4390760204858252E-6,900000.0,94.39999999999999,88.6472372240873,88.66396761133602,87.33031674208144,359367.0,968688.0,0.0,1.0,0.0,?,0.0,0.0,359.0,237.0,237.0,6.0,0.0,0.0,1.0
1000000.0,8.171875,1.6511400139683653E-6,1000000.0,95.7,91.32497841331838,91.36546184738955,90.50772626931567,399367.0,1017392.0,0.0,1.0,0.0,?,0.0,0.0,378.0,248.0,248.0,6.0,0.0,0.0,1.0
1100000.0,8.953125,1.8898803520844216E-6,1100000.0,96.39999999999999,92.72730211191065,92.7710843373494,92.01773835920176,439167.0,1066824.0,0.0,1.0,0.0,?,0.0,0.0,400.0,262.0,262.0,6.0,0.0,0.0,1.0
1200000.0,9.703125,2.121133956178609E-6,1200000.0,96.2,92.34648663454875,92.14876033057851,91.77489177489177,479167.0,1092528.0,0.0,1.0,0.0,?,0.0,0.0,408.0,266.0,266.0,6.0,0.0,0.0,1.0
1300000.0,10.46875,2.3569359715717536E-6,1300000.0,96.1,92.17024693836578,92.4124513618677,91.55844155844154,519167.0,1106296.0,0.0,1.0,0.0,?,0.0,0.0,414.0,269.0,269.0,6.0,0.0,0.0,1.0
1400000.0,11.234375,2.5952130413821177E-6,1400000.0,95.6,91.08878807517821,91.14688128772636,89.99999999999999,559167.0,1133856.0,0.0,1.0,0.0,?,0.0,0.0,431.0,279.0,279.0,6.0,0.0,0.0,1.0
1500000.0,11.984375,2.830446497278495E-6,1500000.0,97.39999999999999,94.7411003236246,94.70468431771893,94.14414414414414,599167.0,1158296.0,0.0,1.0,0.0,?,0.0,0.0,441.0,284.0,284.0,6.0,0.0,0.0,1.0
1600000.0,12.734375,3.081940845327659E-6,1600000.0,96.2,92.15145218788597,91.44144144144143,90.70904645476772,638967.0,1181160.0,0.0,1.0,0.0,?,0.0,0.0,453.0,290.0,290.0,6.0,0.0,0.0,1.0
1700000.0,13.484375,3.3375283560922577E-6,1700000.0,95.89999999999999,91.68640301073873,91.10629067245118,90.76576576576576,678967.0,1217296.0,0.0,1.0,0.0,?,0.0,0.0,468.0,299.0,299.0,6.0,0.0,0.0,1.0
1800000.0,14.203125,3.583238414850914E-6,1800000.0,95.7,91.26421089413847,91.18852459016392,90.06928406466513,718967.0,1236536.0,0.0,1.0,0.0,?,0.0,0.0,476.0,303.0,303.0,6.0,0.0,0.0,1.0
1900000.0,14.953125,3.841730099844023E-6,1900000.0,97.3,94.50907020255428,94.35146443514644,93.73549883990718,758967.0,1262384.0,0.0,1.0,0.0,?,0.0,0.0,494.0,312.0,312.0,6.0,0.0,0.0,1.0
2000000.0,15.6875,4.097718208666064E-6,2000000.0,95.7,91.31593828257532,91.41716566866268,90.33707865168539,798967.0,1292600.0,0.0,1.0,0.0,?,0.0,0.0,504.0,317.0,317.0,7.0,0.0,0.0,1.0
2100000.0,16.421875,4.368406468226265E-6,2100000.0,95.19999999999999,90.24612283382643,90.80459770114942,88.88888888888889,838767.0,1308936.0,0.0,1.0,0.0,?,0.0,0.0,510.0,320.0,320.0,7.0,0.0,0.0,1.0
2200000.0,17.1875,4.654761707772398E-6,2200000.0,96.7,93.31767374048275,93.37349397590361,92.58426966292134,878767.0,1344912.0,0.0,1.0,0.0,?,0.0,0.0,527.0,330.0,330.0,7.0,0.0,0.0,1.0
2300000.0,17.921875,4.929105246750018E-6,2300000.0,95.6,91.16384244327789,91.1111111111111,90.5781584582441,918767.0,1358344.0,0.0,1.0,0.0,?,0.0,0.0,531.0,332.0,332.0,7.0,0.0,0.0,1.0
2400000.0,18.6875,5.214739519740559E-6,2400000.0,97.3,94.49989814626196,94.54545454545455,93.79310344827586,958767.0,1371488.0,0.0,1.0,0.0,?,0.0,0.0,545.0,339.0,339.0,7.0,0.0,0.0,1.0
2500000.0,19.4375,5.499783211335955E-6,2500000.0,95.89999999999999,91.71208176334557,91.44050104384132,90.8685968819599,998767.0,1413552.0,0.0,1.0,0.0,?,0.0,0.0,557.0,348.0,348.0,7.0,0.0,0.0,1.0
2600000.0,20.234375,5.824048971084672E-6,2600000.0,97.2,94.32101670026731,94.238683127572,93.62186788154897,1038567.0,1456400.0,0.0,1.0,0.0,?,0.0,0.0,583.0,364.0,364.0,7.0,3986.896551724138,0.0,1.018854869399758
2700000.0,20.96875,6.122526473417465E-6,2700000.0,96.89999999999999,93.70793449756842,93.56846473029044,92.9705215419501,1078567.0,1469648.0,0.0,1.0,0.0,?,0.0,0.0,591.0,368.0,368.0,7.0,3986.896551724138,0.0,1.018854869399758
2800000.0,21.703125,6.42189157790401E-6,2800000.0,96.3,92.47300453247186,92.32365145228215,91.31455399061032,1118567.0,1489424.0,0.0,1.0,0.0,?,0.0,0.0,595.0,370.0,370.0,7.0,3986.896551724138,0.0,1.018854869399758
2900000.0,22.453125,6.72779379076221E-6,2900000.0,96.6,93.18079712470315,93.42359767891682,92.73504273504273,1158567.0,1505392.0,0.0,1.0,0.0,?,0.0,0.0,603.0,374.0,374.0,7.0,3986.896551724138,0.0,1.018854869399758
3000000.0,23.203125,7.033815523350819E-6,3000000.0,97.6,95.15933844292053,94.82758620689654,94.66666666666667,1198567.0,1521120.0,0.0,1.0,0.0,?,0.0,0.0,609.0,377.0,377.0,7.0,3986.896551724138,0.0,1.018854869399758
3100000.0,23.9375,7.348133076447994E-6,3100000.0,96.89999999999999,93.76498415099196,93.9453125,93.27548806941431,1238367.0,1537304.0,0.0,1.0,0.0,?,0.0,0.0,615.0,380.0,380.0,7.0,3986.896551724138,0.0,1.018854869399758
3200000.0,24.703125,7.67477370876198E-6,3200000.0,97.2,94.32888420796792,94.37751004016064,93.67945823927765,1278367.0,1547080.0,0.0,1.0,0.0,?,0.0,0.0,631.0,388.0,388.0,7.0,3986.896551724138,0.0,1.018854869399758
3300000.0,25.453125,7.99762444027389E-6,3300000.0,98.1,96.12750692972443,96.19238476953907,95.5607476635514,1318367.0,1576984.0,0.0,1.0,0.0,?,0.0,0.0,640.0,394.0,394.0,7.0,3986.896551724138,0.0,1.018854869399758
3400000.0,26.21875,8.328500553034245E-6,3400000.0,97.0,93.87742606991979,93.83983572895276,92.9078014184397,1358367.0,1598624.0,0.0,1.0,0.0,?,0.0,0.0,657.0,404.0,404.0,7.0,3986.896551724138,0.0,1.018854869399758
3500000.0,26.953125,8.644559873371487E-6,3500000.0,97.8,95.5500718056595,95.69471624266144,95.10022271714922,1398367.0,1606880.0,0.0,1.0,0.0,?,0.0,0.0,659.0,405.0,405.0,7.0,3986.896551724138,0.0,1.018854869399758
3600000.0,27.6875,8.975802662058008E-6,3600000.0,96.0,91.9351911964547,92.09486166007905,91.13082039911308,1438167.0,1625936.0,0.0,1.0,0.0,?,0.0,0.0,666.0,410.0,410.0,7.0,3986.896551724138,0.0,1.018854869399758
3700000.0,28.46875,9.332405429126486E-6,3700000.0,97.6,95.16097812762114,95.18072289156626,94.75982532751091,1478167.0,1661840.0,0.0,1.0,0.0,?,0.0,0.0,681.0,419.0,419.0,7.0,3986.896551724138,0.0,1.018854869399758
3800000.0,29.234375,9.68174145479376E-6,3800000.0,97.1,94.12227293732316,93.86892177589851,93.43891402714931,1518167.0,1676304.0,0.0,1.0,0.0,?,0.0,0.0,683.0,420.0,420.0,7.0,3986.896551724138,0.0,1.018854869399758
3900000.0,29.984375,1.0023827101880062E-5,3900000.0,96.8,93.49021905412881,93.68836291913215,92.69406392694063,1558167.0,1690792.0,0.0,1.0,0.0,?,0.0,0.0,689.0,423.0,423.0,7.0,3986.896551724138,0.0,1.018854869399758
4000000.0,30.75,1.03709320925797E-5,4000000.0,97.3,94.55882115852773,94.55645161290323,94.07894736842105,1598167.0,1695312.0,0.0,1.0,0.0,?,0.0,0.0,695.0,426.0,426.0,7.0,3986.896551724138,0.0,1.018854869399758
4100000.0,31.5,1.072486105840653E-5,4100000.0,97.8,95.5718190564754,95.66929133858267,95.18599562363238,1637967.0,1705976.0,0.0,1.0,0.0,?,0.0,0.0,699.0,428.0,428.0,8.0,3986.896551724138,0.0,1.018854869399758
4200000.0,32.25,1.107761034897218E-5,4200000.0,96.7,93.35641810275406,93.42629482071713,92.81045751633987,1677967.0,1715048.0,0.0,1.0,0.0,?,0.0,0.0,703.0,430.0,430.0,8.0,3986.896551724138,0.0,1.018854869399758
4300000.0,32.984375,1.1422165650098273E-5,4300000.0,96.3,92.59229598782733,92.49492900608519,92.40246406570841,1717967.0,1725712.0,0.0,1.0,0.0,?,0.0,0.0,713.0,435.0,435.0,8.0,3986.896551724138,0.0,1.018854869399758
4400000.0,33.734375,1.1777746161290753E-5,4400000.0,96.89999999999999,93.73863865885679,93.9453125,93.12638580931262,1757967.0,1759800.0,0.0,1.0,0.0,?,0.0,0.0,719.0,438.0,438.0,8.0,3986.896551724138,0.0,1.018854869399758
4500000.0,34.5,1.2140023140495434E-5,4500000.0,96.2,92.29346485819974,91.9831223628692,91.28440366972477,1797967.0,1771304.0,0.0,1.0,0.0,?,0.0,0.0,733.0,445.0,445.0,8.0,3986.896551724138,0.0,1.018854869399758
4600000.0,35.25,1.2510034494981582E-5,4600000.0,97.89999999999999,95.77366145820754,95.74036511156187,95.42483660130718,1837767.0,1788376.0,0.0,1.0,0.0,?,0.0,0.0,741.0,449.0,449.0,8.0,3986.896551724138,0.0,1.018854869399758
4700000.0,36.0,1.2885725364968593E-5,4700000.0,97.89999999999999,95.68823915900131,95.52238805970148,95.0,1877767.0,1832584.0,0.0,1.0,0.0,?,0.0,0.0,763.0,460.0,460.0,8.0,3986.896551724138,0.0,1.018854869399758
4800000.0,36.78125,1.3280200299858632E-5,4800000.0,97.89999999999999,95.7496073446785,95.80838323353294,95.25959367945823,1917767.0,1863144.0,0.0,1.0,0.0,?,0.0,0.0,774.0,467.0,467.0,8.0,3986.896551724138,0.0,1.018854869399758
4900000.0,37.546875,1.3670037215989496E-5,4900000.0,98.1,96.14726374615739,96.14604462474645,95.70135746606334,1957767.0,1894624.0,0.0,1.0,0.0,?,0.0,0.0,787.0,475.0,475.0,8.0,3986.896551724138,0.0,1.018854869399758
5000000.0,38.3125,1.4061393707783685E-5,5000000.0,98.2,96.34922502160042,96.30390143737166,95.89977220956719,1997767.0,1915096.0,0.0,1.0,0.0,?,0.0,0.0,789.0,476.0,476.0,8.0,3986.896551724138,0.0,1.018854869399758
5100000.0,39.296875,1.4113547771962152E-5,5100000.0,77.5,52.082392728449854,52.12765957446809,39.353099730458226,39209.0,91584.0,0.0,1.0,0.0,?,1.0,34.0,35.0,21.0,21.0,5.0,0.0,0.0,1.0
5200000.0,40.078125,1.4180806724147663E-5,5200000.0,84.1,66.61066778664426,67.41803278688523,58.26771653543307,79209.0,234200.0,0.0,1.0,0.0,?,0.0,0.0,89.0,54.0,54.0,7.0,0.0,0.0,1.0
5300000.0,40.828125,1.4268642860568231E-5,5300000.0,84.3,66.88406469630365,65.1111111111111,57.90884718498659,119209.0,368856.0,0.0,1.0,0.0,?,0.0,0.0,139.0,88.0,88.0,9.0,0.0,0.0,1.0
5400000.0,41.5625,1.4360076521471556E-5,5400000.0,87.5,73.30292001981991,72.28381374722838,65.56473829201101,159209.0,412496.0,0.0,1.0,0.0,?,0.0,0.0,153.0,98.0,98.0,10.0,0.0,0.0,1.0
5500000.0,42.28125,1.4458412608493946E-5,5500000.0,86.1,70.58375376697255,70.9812108559499,61.8131868131868,199209.0,475040.0,0.0,1.0,0.0,?,0.0,0.0,175.0,112.0,112.0,10.0,0.0,0.0,1.0
5600000.0,43.0,1.4579348725318493E-5,5600000.0,85.6,69.8182808995829,71.08433734939759,63.171355498721226,239009.0,535480.0,0.0,1.0,0.0,?,0.0,0.0,202.0,127.0,127.0,11.0,0.0,0.0,1.0
5700000.0,43.765625,1.4719021338452065E-5,5700000.0,87.5,73.34777528549863,72.03579418344519,66.57754010695187,279009.0,605216.0,0.0,1.0,0.0,?,0.0,0.0,227.0,144.0,144.0,12.0,0.0,0.0,1.0
5800000.0,44.546875,1.4864595464637707E-5,5800000.0,87.3,73.18593338287954,73.37526205450735,65.86021505376344,319009.0,635352.0,0.0,1.0,0.0,?,0.0,0.0,250.0,157.0,157.0,12.0,0.0,0.0,1.0
5900000.0,45.328125,1.5033633745689356E-5,5900000.0,85.3,69.31747025673135,69.05263157894737,62.30769230769231,359009.0,766152.0,0.0,1.0,0.0,?,0.0,0.0,290.0,183.0,183.0,13.0,0.0,0.0,1.0
6000000.0,46.109375,1.5215597361222735E-5,6000000.0,88.2,75.27242246437552,75.10548523206751,69.43005181347151,399009.0,845032.0,0.0,1.0,0.0,?,0.0,0.0,326.0,207.0,207.0,13.0,0.0,0.0,1.0
6100000.0,46.921875,1.5429198522017233E-5,6100000.0,88.2,75.47868515878591,75.6701030927835,70.42606516290726,438809.0,899680.0,0.0,1.0,0.0,?,0.0,0.0,346.0,217.0,217.0,13.0,0.0,0.0,1.0
6200000.0,47.703125,1.5640253032971586E-5,6200000.0,87.5,74.09433805852608,72.52747252747253,67.53246753246754,478809.0,942744.0,0.0,1.0,0.0,?,0.0,0.0,363.0,227.0,227.0,13.0,0.0,0.0,1.0
6300000.0,48.515625,1.5866383457452884E-5,6300000.0,85.7,69.09658290327879,68.57142857142856,58.670520231213864,518809.0,989296.0,0.0,1.0,0.0,?,0.0,0.0,382.0,238.0,238.0,13.0,0.0,0.0,1.0
6400000.0,49.3125,1.6097348060510635E-5,6400000.0,90.2,79.18958289978299,78.92473118279571,73.44173441734418,558809.0,1048864.0,0.0,1.0,0.0,?,0.0,0.0,403.0,253.0,253.0,13.0,0.0,0.0,1.0
6500000.0,50.125,1.633783391702713E-5,6500000.0,87.3,73.6761377297638,73.70600414078675,67.68447837150127,598809.0,1087656.0,0.0,1.0,0.0,?,0.0,0.0,418.0,262.0,262.0,13.0,0.0,0.0,1.0
6600000.0,50.953125,1.6614361860168475E-5,6600000.0,89.5,77.77646082730828,77.22342733188721,72.07446808510639,638609.0,1173208.0,0.0,1.0,0.0,?,0.0,0.0,452.0,285.0,285.0,13.0,0.0,0.0,1.0
6700000.0,51.765625,1.6904949637440342E-5,6700000.0,89.60000000000001,78.15529902034918,76.94013303769401,72.4867724867725,678609.0,1279696.0,0.0,1.0,0.0,?,0.0,0.0,487.0,307.0,307.0,14.0,0.0,0.0,1.0
6800000.0,52.59375,1.7206291312403563E-5,6800000.0,89.0,76.30586968228326,75.66371681415929,69.187675070028,718609.0,1318904.0,0.0,1.0,0.0,?,0.0,0.0,510.0,323.0,323.0,14.0,0.0,0.0,1.0
6900000.0,53.421875,1.7518788711943975E-5,6900000.0,90.4,79.80885718131647,79.35483870967742,74.86910994764399,758609.0,1386016.0,0.0,1.0,0.0,?,0.0,0.0,541.0,346.0,346.0,14.0,0.0,0.0,1.0
7000000.0,54.3125,1.787616580259055E-5,7000000.0,90.3,79.98547399349631,79.87551867219918,75.68922305764411,798609.0,1493200.0,0.0,1.0,0.0,?,0.0,0.0,569.0,363.0,363.0,14.0,0.0,0.0,1.0
7100000.0,55.15625,1.8233440932817757E-5,7100000.0,90.5,79.54332078657009,78.16091954022988,73.75690607734808,838409.0,1517856.0,0.0,1.0,0.0,?,0.0,0.0,573.0,365.0,365.0,14.0,0.0,0.0,1.0
7200000.0,56.03125,1.8606052746892802E-5,7200000.0,90.4,79.14204268928596,79.70401691331924,73.03370786516854,878409.0,1542200.0,0.0,1.0,0.0,?,0.0,0.0,587.0,372.0,372.0,14.0,0.0,0.0,1.0
7300000.0,56.875,1.896713640437358E-5,7300000.0,91.7,82.51483079412162,82.18884120171674,78.5529715762274,918409.0,1565480.0,0.0,1.0,0.0,?,0.0,0.0,596.0,378.0,378.0,14.0,0.0,0.0,1.0
7400000.0,57.71875,1.9338283584349685E-5,7400000.0,91.2,81.41978202026088,80.86956521739131,76.78100263852244,958409.0,1626600.0,0.0,1.0,0.0,?,0.0,0.0,615.0,392.0,392.0,14.0,0.0,0.0,1.0
7500000.0,58.59375,1.9728988150341644E-5,7500000.0,90.8,81.05366343892484,81.18609406952966,77.61557177615572,998409.0,1667328.0,0.0,1.0,0.0,?,0.0,0.0,626.0,399.0,399.0,14.0,0.0,0.0,1.0
7600000.0,59.546875,2.018645415470625E-5,7600000.0,90.9,80.40549851856956,79.64205816554811,74.79224376731302,1038209.0,1735608.0,0.0,1.0,0.0,?,0.0,0.0,652.0,418.0,418.0,14.0,4055.7227722772277,0.0,1.017410919175447
7700000.0,60.40625,2.0602370366557603E-5,7700000.0,91.7,82.44129469007828,82.26495726495727,77.56756756756758,1078209.0,1766224.0,0.0,1.0,0.0,?,0.0,0.0,657.0,422.0,422.0,14.0,4055.7227722772277,0.0,1.017410919175447
7800000.0,61.296875,2.1034935165921018E-5,7800000.0,91.0,80.9941335225473,80.1762114537445,75.60975609756099,1118209.0,1787912.0,0.0,1.0,0.0,?,0.0,0.0,669.0,428.0,428.0,14.0,4055.7227722772277,0.0,1.017410919175447
7900000.0,62.1875,2.1466913814139034E-5,7900000.0,91.10000000000001,81.16832554675334,80.39647577092511,76.07526881720432,1158209.0,1800504.0,0.0,1.0,0.0,?,0.0,0.0,673.0,430.0,430.0,14.0,4055.7227722772277,0.0,1.017410919175447
8000000.0,63.0625,2.1889600773445433E-5,8000000.0,92.10000000000001,83.11951384199865,83.54166666666667,78.8770053475936,1198209.0,1808096.0,0.0,1.0,0.0,?,0.0,0.0,686.0,438.0,438.0,14.0,4055.7227722772277,0.0,1.017410919175447
8100000.0,63.953125,2.234337392211374E-5,8100000.0,90.5,79.52586206896552,79.957805907173,73.31460674157304,1238009.0,1849144.0,0.0,1.0,0.0,?,0.0,0.0,697.0,445.0,445.0,14.0,4055.7227722772277,0.0,1.017410919175447
8200000.0,64.859375,2.2810233963860404E-5,8200000.0,91.4,82.21670802315964,80.84632516703788,78.50000000000001,1278009.0,1886064.0,0.0,1.0,0.0,?,0.0,0.0,719.0,459.0,459.0,14.0,4055.7227722772277,0.0,1.017410919175447
8300000.0,65.71875,2.3255441402499045E-5,8300000.0,91.8,82.75245567170772,82.95218295218297,78.59007832898173,1318009.0,1912384.0,0.0,1.0,0.0,?,0.0,0.0,721.0,460.0,460.0,14.0,4055.7227722772277,0.0,1.017410919175447
8400000.0,66.59375,2.3706583112167814E-5,8400000.0,90.9,80.17774679794373,80.21739130434783,73.62318840579711,1358009.0,1918024.0,0.0,1.0,0.0,?,0.0,0.0,721.0,460.0,460.0,14.0,4055.7227722772277,0.0,1.017410919175447
8500000.0,67.484375,2.416595787508413E-5,8500000.0,91.8,82.58875488364194,81.53153153153154,77.71739130434784,1398009.0,1933880.0,0.0,1.0,0.0,?,0.0,0.0,733.0,466.0,466.0,14.0,4055.7227722772277,0.0,1.017410919175447
8600000.0,68.375,2.46412471945708E-5,8600000.0,90.8,80.62929524322868,81.48893360160966,76.04166666666667,1437809.0,1942088.0,0.0,1.0,0.0,?,0.0,0.0,741.0,470.0,470.0,14.0,4055.7227722772277,0.0,1.017410919175447
8700000.0,69.296875,2.5140663751194046E-5,8700000.0,92.10000000000001,83.37402138227125,83.08351177730194,79.48051948051949,1477809.0,1988320.0,0.0,1.0,0.0,?,0.0,0.0,760.0,481.0,481.0,14.0,4055.7227722772277,0.0,1.017410919175447
8800000.0,70.1875,2.5629333168682125E-5,8800000.0,91.5,82.24135049306368,82.47422680412372,77.63157894736842,1517809.0,2030200.0,0.0,1.0,0.0,?,0.0,0.0,780.0,494.0,494.0,14.0,4055.7227722772277,0.0,1.017410919175447
8900000.0,71.078125,2.6118968445290293E-5,8900000.0,90.4,80.14822657490737,79.83193277310924,75.51020408163266,1557809.0,2049480.0,0.0,1.0,0.0,?,0.0,0.0,788.0,498.0,498.0,14.0,4055.7227722772277,0.0,1.017410919175447
9000000.0,72.0,2.663264859519485E-5,9000000.0,92.5,84.12604344807735,84.27672955974843,80.05319148936172,1597809.0,2093280.0,0.0,1.0,0.0,?,0.0,0.0,805.0,508.0,508.0,14.0,4055.7227722772277,0.0,1.017410919175447
9100000.0,72.90625,2.716050062897719E-5,9100000.0,92.2,83.18059299191376,83.88429752066116,78.02816901408451,1637609.0,2129736.0,0.0,1.0,0.0,?,0.0,0.0,813.0,512.0,512.0,14.0,4055.7227722772277,0.0,1.017410919175447
9200000.0,73.84375,2.770990915855186E-5,9200000.0,91.4,81.92791338847421,81.70212765957447,77.60416666666667,1677609.0,2158600.0,0.0,1.0,0.0,?,0.0,0.0,827.0,519.0,519.0,14.0,4055.7227722772277,0.0,1.017410919175447
9300000.0,74.765625,2.8255947593910002E-5,9300000.0,91.8,83.0879714227966,83.4008097165992,80.14527845036321,1717609.0,2197912.0,0.0,1.0,0.0,?,0.0,0.0,840.0,527.0,527.0,14.0,4055.7227722772277,0.0,1.017410919175447
9400000.0,75.671875,2.8795816469937566E-5,9400000.0,91.9,83.28104359313079,83.86454183266933,79.90074441687347,1757609.0,2226152.0,0.0,1.0,0.0,?,0.0,0.0,853.0,535.0,535.0,14.0,4055.7227722772277,0.0,1.017410919175447
9500000.0,76.625,2.9373433111080283E-5,9500000.0,92.5,84.31500489371848,84.72505091649695,81.10831234256928,1797609.0,2280992.0,0.0,1.0,0.0,?,0.0,0.0,873.0,548.0,548.0,14.0,4055.7227722772277,0.0,1.017410919175447
9600000.0,77.546875,2.9950023033759663E-5,9600000.0,93.89999999999999,87.27724754722017,87.42268041237112,84.47837150127225,1837409.0,2295232.0,0.0,1.0,0.0,?,0.0,0.0,877.0,550.0,550.0,14.0,4055.7227722772277,0.0,1.017410919175447
9700000.0,78.515625,3.055512310109205E-5,9700000.0,92.0,83.04387820417715,83.12236286919831,78.55227882037535,1877409.0,2307128.0,0.0,1.0,0.0,?,0.0,0.0,885.0,554.0,554.0,15.0,4055.7227722772277,0.0,1.017410919175447
9800000.0,79.46875,3.1153221174867624E-5,9800000.0,91.5,82.30125348769417,82.14285714285715,78.48101265822785,1917409.0,2333384.0,0.0,1.0,0.0,?,0.0,0.0,893.0,558.0,558.0,15.0,4055.7227722772277,0.0,1.017410919175447
9900000.0,80.421875,3.1752995952653394E-5,9900000.0,91.0,80.64815770461348,80.1762114537445,74.43181818181819,1957409.0,2355248.0,0.0,1.0,0.0,?,0.0,0.0,907.0,565.0,565.0,15.0,4055.7227722772277,0.0,1.017410919175447
1.0E7,81.375,3.235187122805251E-5,1.0E7,91.9,82.98405122430803,83.26446280991736,79.17737789203085,1997409.0,2366712.0,0.0,1.0,0.0,?,0.0,0.0,917.0,570.0,570.0,15.0,4055.7227722772277,0.0,1.017410919175447
