learning evaluation instances,evaluation time (cpu seconds),model cost (RAM-Hours),classified instances,classifications correct (percent),Kappa Statistic (percent),Kappa Temporal Statistic (percent),Kappa M Statistic (percent),model training instances,model serialized size (bytes),labeling cost,newThreshold,maxPosterior,accuracyBaseLearner (percent),Change detected,Warning detected,tree size (nodes),tree size (leaves),active learning leaves,tree depth,active leaf byte size estimate,inactive leaf byte size estimate,byte size estimate overhead
100000.0,0.453125,1.1808652844693925E-8,100000.0,89.0,71.99193367689894,73.03921568627452,60.99290780141845,19784.0,16792.0,0.0,1.0,0.0,?,1.0,61.0,17.0,9.0,9.0,4.0,0.0,0.0,1.0
200000.0,0.828125,2.193212923076418E-8,200000.0,91.7,79.66144888897603,80.37825059101657,71.67235494880548,39784.0,29840.0,0.0,1.0,0.0,?,0.0,0.0,31.0,16.0,16.0,6.0,0.0,0.0,1.0
300000.0,1.234375,3.32792599995931E-8,300000.0,89.4,73.5067557772768,75.34883720930233,64.7840531561462,59784.0,42888.0,0.0,1.0,0.0,?,0.0,0.0,45.0,23.0,23.0,6.0,0.0,0.0,1.0
400000.0,1.640625,4.4993810459143584E-8,400000.0,88.3,70.1375205464068,72.20902612826605,59.23344947735192,79784.0,55816.0,0.0,1.0,0.0,?,0.0,0.0,59.0,30.0,30.0,8.0,0.0,0.0,1.0
500000.0,2.03125,5.720771797415283E-8,500000.0,88.7,71.55916197686477,73.22274881516589,62.45847176079735,99784.0,74576.0,0.0,1.0,0.0,?,0.0,0.0,79.0,40.0,40.0,9.0,0.0,0.0,1.0
600000.0,2.421875,7.504674916466077E-8,600000.0,88.7,71.20285423037717,73.8425925925926,62.33333333333334,119684.0,91616.0,0.0,1.0,0.0,?,0.0,0.0,99.0,50.0,50.0,9.0,0.0,0.0,1.0
700000.0,2.828125,9.433502176155647E-8,700000.0,90.8,76.54389605886463,76.3496143958869,67.94425087108016,139684.0,108008.0,0.0,1.0,0.0,?,0.0,0.0,115.0,58.0,58.0,9.0,0.0,0.0,1.0
800000.0,3.234375,1.1327941643281116E-7,800000.0,89.2,72.10095321743175,71.94805194805195,62.369337979094084,159684.0,114248.0,0.0,1.0,0.0,?,0.0,0.0,125.0,63.0,63.0,9.0,0.0,0.0,1.0
900000.0,3.640625,1.3213721103966236E-7,900000.0,89.60000000000001,73.26574364932881,74.87922705314011,64.01384083044984,179684.0,122920.0,0.0,1.0,0.0,?,0.0,0.0,131.0,66.0,66.0,9.0,0.0,0.0,1.0
1000000.0,4.0625,1.5298195648938418E-7,1000000.0,90.60000000000001,74.8360326596172,75.64766839378238,65.81818181818183,199684.0,143808.0,0.0,1.0,0.0,?,0.0,0.0,155.0,78.0,78.0,10.0,0.0,0.0,1.0
1100000.0,4.453125,1.7708720406517387E-7,1100000.0,89.0,73.56950978648969,76.08695652173914,65.29968454258675,219584.0,152744.0,0.0,1.0,0.0,?,0.0,0.0,163.0,82.0,82.0,10.0,0.0,0.0,1.0
1200000.0,4.875,2.0433973986655475E-7,1200000.0,91.10000000000001,77.05002578648788,78.29268292682929,68.21428571428572,239584.0,173248.0,0.0,1.0,0.0,?,0.0,0.0,185.0,93.0,93.0,10.0,0.0,0.0,1.0
1300000.0,5.3125,2.330172315446867E-7,1300000.0,91.10000000000001,77.2687800741702,78.75894988066827,69.6245733788396,259584.0,186344.0,0.0,1.0,0.0,?,0.0,0.0,201.0,101.0,101.0,10.0,0.0,0.0,1.0
1400000.0,5.75,2.6275229174643756E-7,1400000.0,89.5,74.45180881193612,74.39024390243904,66.45367412140575,279584.0,205056.0,0.0,1.0,0.0,?,0.0,0.0,219.0,110.0,110.0,10.0,0.0,0.0,1.0
1500000.0,6.171875,2.9263115720823406E-7,1500000.0,89.7,73.6324725060927,74.12060301507537,63.604240282685524,299584.0,225440.0,0.0,1.0,0.0,?,0.0,0.0,241.0,121.0,121.0,10.0,0.0,0.0,1.0
1600000.0,6.578125,3.262311414194604E-7,1600000.0,89.5,73.69897601346614,74.94033412887828,64.52702702702705,319484.0,232872.0,0.0,1.0,0.0,?,0.0,0.0,251.0,126.0,126.0,10.0,0.0,0.0,1.0
1700000.0,7.015625,3.6218575486499406E-7,1700000.0,89.4,73.38983391239734,74.3961352657005,65.35947712418302,339484.0,240352.0,0.0,1.0,0.0,?,0.0,0.0,257.0,129.0,129.0,11.0,0.0,0.0,1.0
1800000.0,7.4375,3.97237826190475E-7,1800000.0,89.3,72.74385335683647,73.38308457711443,62.587412587412594,359484.0,253280.0,0.0,1.0,0.0,?,0.0,0.0,271.0,136.0,136.0,11.0,0.0,0.0,1.0
1900000.0,7.859375,4.330783202830288E-7,1900000.0,89.9,74.97026169706582,76.40186915887851,66.2207357859532,379484.0,269888.0,0.0,1.0,0.0,?,0.0,0.0,289.0,145.0,145.0,11.0,0.0,0.0,1.0
2000000.0,8.28125,4.6891968749049637E-7,2000000.0,89.1,70.4055257499077,70.54054054054055,58.71212121212122,399484.0,279376.0,0.0,1.0,0.0,?,0.0,0.0,299.0,150.0,150.0,11.0,0.0,0.0,1.0
2100000.0,8.71875,5.119549395102594E-7,2100000.0,91.0,77.59488565923316,78.72340425531917,70.0996677740864,419384.0,292544.0,0.0,1.0,0.0,?,0.0,0.0,313.0,157.0,157.0,11.0,0.0,0.0,1.0
2200000.0,9.15625,5.553668597713113E-7,2200000.0,90.60000000000001,75.15488550102553,76.67493796526055,66.18705035971225,439384.0,305304.0,0.0,1.0,0.0,?,0.0,0.0,327.0,164.0,164.0,11.0,0.0,0.0,1.0
2300000.0,9.59375,5.983224319708017E-7,2300000.0,88.6,71.95709928170815,72.79236276849642,63.22580645161291,459384.0,310800.0,0.0,1.0,0.0,?,0.0,0.0,333.0,167.0,167.0,11.0,0.0,0.0,1.0
2400000.0,10.0,6.383030752961835E-7,2400000.0,89.7,73.12893934966816,72.16216216216218,63.08243727598567,479384.0,321152.0,0.0,1.0,0.0,?,0.0,0.0,347.0,174.0,174.0,11.0,0.0,0.0,1.0
2500000.0,10.453125,6.843101194438836E-7,2500000.0,89.1,72.02603375354167,74.10926365795724,62.54295532646049,499384.0,342536.0,0.0,1.0,0.0,?,0.0,0.0,367.0,184.0,184.0,11.0,0.0,0.0,1.0
2600000.0,10.890625,7.348090164466866E-7,2600000.0,89.1,73.8420926325894,74.23167848699764,66.96969696969697,519284.0,357640.0,0.0,1.0,0.0,?,0.0,0.0,385.0,193.0,193.0,11.0,0.0,0.0,1.0
2700000.0,11.328125,7.861599442549051E-7,2700000.0,90.7,76.77322677322678,78.95927601809956,69.00000000000001,539284.0,374560.0,0.0,1.0,0.0,?,0.0,0.0,401.0,201.0,201.0,11.0,0.0,0.0,1.0
2800000.0,11.75,8.358288323506714E-7,2800000.0,90.60000000000001,74.40756229308244,76.26262626262627,64.92537313432837,559284.0,385408.0,0.0,1.0,0.0,?,0.0,0.0,413.0,207.0,207.0,11.0,0.0,0.0,1.0
2900000.0,12.203125,8.896345389075578E-7,2900000.0,89.7,73.84937238493725,74.6928746928747,65.55183946488296,579284.0,398744.0,0.0,1.0,0.0,?,0.0,0.0,427.0,214.0,214.0,11.0,0.0,0.0,1.0
3000000.0,12.640625,9.41966977229135E-7,3000000.0,90.0,75.26222046309124,76.905311778291,67.74193548387099,599284.0,411552.0,0.0,1.0,0.0,?,0.0,0.0,441.0,221.0,221.0,11.0,0.0,0.0,1.0
3100000.0,13.078125,9.999467228125367E-7,3100000.0,88.9,72.81543887147338,72.79411764705883,64.07766990291263,619184.0,422808.0,0.0,1.0,0.0,?,0.0,0.0,453.0,227.0,227.0,12.0,0.0,0.0,1.0
3200000.0,13.515625,1.058152831521713E-6,3200000.0,88.5,71.77027385289122,73.13084112149532,63.37579617834395,639184.0,434256.0,0.0,1.0,0.0,?,0.0,0.0,467.0,234.0,234.0,12.0,0.0,0.0,1.0
3300000.0,13.96875,1.1199138114332325E-6,3300000.0,89.2,72.08653175157013,72.93233082706767,62.10526315789474,659184.0,456168.0,0.0,1.0,0.0,?,0.0,0.0,489.0,245.0,245.0,12.0,0.0,0.0,1.0
3400000.0,14.40625,1.1793386592115793E-6,3400000.0,90.7,75.1933849026407,77.64423076923079,66.1818181818182,679184.0,463840.0,0.0,1.0,0.0,?,0.0,0.0,499.0,250.0,250.0,12.0,0.0,0.0,1.0
3500000.0,14.859375,1.2412975128326151E-6,3500000.0,88.7,69.8422187586737,70.41884816753927,58.60805860805861,699184.0,476792.0,0.0,1.0,0.0,?,0.0,0.0,511.0,256.0,256.0,12.0,0.0,0.0,1.0
3600000.0,15.296875,1.3071791424105565E-6,3600000.0,88.4,71.00000000000001,73.5763097949886,61.33333333333334,719084.0,491728.0,0.0,1.0,0.0,?,0.0,0.0,529.0,265.0,265.0,12.0,0.0,0.0,1.0
3700000.0,15.734375,1.3735705417477423E-6,3700000.0,89.5,72.69180754226268,73.75,63.793103448275865,739084.0,505640.0,0.0,1.0,0.0,?,0.0,0.0,549.0,275.0,275.0,13.0,0.0,0.0,1.0
3800000.0,16.1875,1.4432033316956626E-6,3800000.0,90.10000000000001,75.73791061748243,76.92307692307693,67.64705882352942,759084.0,522464.0,0.0,1.0,0.0,?,0.0,0.0,563.0,282.0,282.0,13.0,0.0,0.0,1.0
3900000.0,16.625,1.5105364016360707E-6,3900000.0,91.3,78.67019711679907,78.83211678832119,71.38157894736844,779084.0,532832.0,0.0,1.0,0.0,?,0.0,0.0,571.0,286.0,286.0,13.0,0.0,0.0,1.0
4000000.0,17.09375,1.5831232950505283E-6,4000000.0,89.7,74.3671421603273,76.85393258426967,65.43624161073826,799084.0,545928.0,0.0,1.0,0.0,?,0.0,0.0,585.0,293.0,293.0,13.0,0.0,0.0,1.0
4100000.0,17.546875,1.658890169993457E-6,4100000.0,88.7,71.27605490594814,72.77108433734941,61.694915254237294,818984.0,555080.0,0.0,1.0,0.0,?,0.0,0.0,595.0,298.0,298.0,13.0,0.0,0.0,1.0
4200000.0,18.046875,1.7432307423506346E-6,4200000.0,88.4,70.84137709137708,71.07231920199501,60.54421768707484,838984.0,570160.0,0.0,1.0,0.0,?,0.0,0.0,615.0,308.0,308.0,13.0,0.0,0.0,1.0
4300000.0,18.515625,1.8234506003662117E-6,4300000.0,87.7,69.50705552194997,70.64439140811456,58.585858585858595,858984.0,589016.0,0.0,1.0,0.0,?,0.0,0.0,633.0,317.0,317.0,13.0,0.0,0.0,1.0
4400000.0,18.96875,1.9011727676519919E-6,4400000.0,89.8,74.95924740263567,75.24271844660196,66.22516556291393,878984.0,599984.0,0.0,1.0,0.0,?,0.0,0.0,643.0,322.0,322.0,14.0,0.0,0.0,1.0
4500000.0,19.4375,1.9817991091662813E-6,4500000.0,90.10000000000001,74.98509212561022,75.12562814070353,66.32653061224491,898984.0,611288.0,0.0,1.0,0.0,?,0.0,0.0,655.0,328.0,328.0,14.0,0.0,0.0,1.0
4600000.0,19.921875,2.0720029392072728E-6,4600000.0,89.1,72.80601959962478,74.5920745920746,64.14473684210527,918884.0,627656.0,0.0,1.0,0.0,?,0.0,0.0,673.0,337.0,337.0,14.0,0.0,0.0,1.0
4700000.0,20.375,2.1561949203411743E-6,4700000.0,90.10000000000001,74.81479973949854,76.97674418604652,66.09589041095892,938884.0,635520.0,0.0,1.0,0.0,?,0.0,0.0,681.0,341.0,341.0,14.0,0.0,0.0,1.0
4800000.0,20.828125,2.2404037816967407E-6,4800000.0,91.60000000000001,78.70927515220335,79.10447761194031,70.31802120141344,958884.0,645128.0,0.0,1.0,0.0,?,0.0,0.0,695.0,348.0,348.0,14.0,0.0,0.0,1.0
4900000.0,21.296875,2.3281450396300195E-6,4900000.0,91.60000000000001,78.67240818979526,80.73394495412846,70.62937062937064,978884.0,659728.0,0.0,1.0,0.0,?,0.0,0.0,709.0,355.0,355.0,14.0,0.0,0.0,1.0
5000000.0,21.765625,2.4168418733299613E-6,5000000.0,90.2,75.07845201584809,75.68238213399503,66.08996539792389,998884.0,676336.0,0.0,1.0,0.0,?,0.0,0.0,727.0,364.0,364.0,14.0,0.0,0.0,1.0
5100000.0,22.3125,2.4293846541291315E-6,5100000.0,84.7,69.13380997724374,69.27710843373494,66.07538802660753,3782.0,3744.0,0.0,1.0,0.0,?,8.0,58.0,3.0,2.0,2.0,1.0,0.0,0.0,1.0
5200000.0,22.78125,2.4387425057486534E-6,5200000.0,88.4,76.78839419709855,77.07509881422925,76.22950819672131,890.0,1880.0,0.0,1.0,0.0,?,9.0,45.0,1.0,1.0,1.0,0.0,0.0,0.0,1.0
5300000.0,23.234375,2.446649014018477E-6,5300000.0,88.3,76.40520134228187,76.26774847870182,74.39824945295405,1353.0,1880.0,0.0,1.0,0.0,?,8.0,84.0,1.0,1.0,1.0,0.0,0.0,0.0,1.0
5400000.0,23.65625,2.454624045640231E-6,5400000.0,87.9,75.67936967358096,76.81992337164752,74.2004264392324,16675.0,16792.0,0.0,1.0,0.0,?,2.0,47.0,17.0,9.0,9.0,4.0,0.0,0.0,1.0
5500000.0,24.03125,2.4624184394876174E-6,5500000.0,88.2,76.22051242780508,75.86912065439672,74.51403887688984,36675.0,33568.0,0.0,1.0,0.0,?,0.0,5.0,35.0,18.0,18.0,6.0,0.0,0.0,1.0
5600000.0,24.40625,2.475403404484194E-6,5600000.0,88.2,76.26174842281446,76.30522088353415,75.0,56575.0,48480.0,0.0,1.0,0.0,?,0.0,0.0,51.0,26.0,26.0,8.0,0.0,0.0,1.0
5700000.0,24.796875,2.489104032671701E-6,5700000.0,90.4,80.43946012909957,79.66101694915255,77.57009345794394,76575.0,59664.0,0.0,1.0,0.0,?,0.0,0.0,63.0,32.0,32.0,8.0,0.0,0.0,1.0
5800000.0,25.1875,2.502597700287072E-6,5800000.0,89.0,77.81792956587671,77.08333333333334,76.19047619047619,96575.0,67120.0,0.0,1.0,0.0,?,0.0,0.0,71.0,36.0,36.0,8.0,0.0,0.0,1.0
5900000.0,25.59375,2.5174079928547155E-6,5900000.0,89.5,78.65836307612257,79.24901185770752,76.24434389140272,116575.0,83896.0,0.0,1.0,0.0,?,0.0,0.0,89.0,45.0,45.0,9.0,0.0,0.0,1.0
6000000.0,26.015625,2.5342128355987383E-6,6000000.0,89.5,78.72892137399013,78.95791583166333,76.45739910313901,136575.0,106264.0,0.0,1.0,0.0,?,0.0,0.0,113.0,57.0,57.0,9.0,0.0,0.0,1.0
6100000.0,26.421875,2.5556316379354243E-6,6100000.0,88.9,77.66761361350083,79.2134831460674,75.92190889370933,156475.0,117448.0,0.0,1.0,0.0,?,0.0,0.0,125.0,63.0,63.0,9.0,0.0,0.0,1.0
6200000.0,26.8125,2.5765750777079837E-6,6200000.0,91.4,82.73390538983229,81.89473684210526,81.74097664543525,176475.0,130328.0,0.0,1.0,0.0,?,0.0,0.0,139.0,70.0,70.0,10.0,0.0,0.0,1.0
6300000.0,27.203125,2.5977101176977166E-6,6300000.0,89.60000000000001,79.08555616332572,79.11646586345383,77.4891774891775,196475.0,141680.0,0.0,1.0,0.0,?,0.0,0.0,151.0,76.0,76.0,10.0,0.0,0.0,1.0
6400000.0,27.625,2.62196088442579E-6,6400000.0,89.1,78.07282236974451,77.33887733887734,76.85774946921444,216475.0,164048.0,0.0,1.0,0.0,?,0.0,0.0,175.0,88.0,88.0,10.0,0.0,0.0,1.0
6500000.0,28.0625,2.6470917186492853E-6,6500000.0,89.7,79.18872392528954,79.27565392354126,77.2626931567329,236475.0,173368.0,0.0,1.0,0.0,?,0.0,0.0,185.0,93.0,93.0,10.0,0.0,0.0,1.0
6600000.0,28.5,2.6787227963925244E-6,6600000.0,90.2,80.14482124261004,80.82191780821918,78.17371937639199,256375.0,192152.0,0.0,1.0,0.0,?,0.0,0.0,207.0,104.0,104.0,10.0,0.0,0.0,1.0
6700000.0,28.9375,2.7109460400727897E-6,6700000.0,89.4,78.73032053005646,79.61538461538463,77.8705636743215,276375.0,206800.0,0.0,1.0,0.0,?,0.0,0.0,221.0,111.0,111.0,11.0,0.0,0.0,1.0
6800000.0,29.359375,2.7434433771607787E-6,6800000.0,89.3,78.4230691671708,77.3784355179704,76.22222222222223,296375.0,229168.0,0.0,1.0,0.0,?,0.0,0.0,245.0,123.0,123.0,11.0,0.0,0.0,1.0
6900000.0,29.796875,2.777534569354936E-6,6900000.0,90.0,79.79005913428698,79.33884297520662,77.8270509977827,316375.0,242048.0,0.0,1.0,0.0,?,0.0,0.0,259.0,130.0,130.0,11.0,0.0,0.0,1.0
7000000.0,30.234375,2.8124379524443725E-6,7000000.0,89.1,77.54521857360636,76.25272331154684,73.21867321867323,336375.0,258608.0,0.0,1.0,0.0,?,0.0,0.0,277.0,139.0,139.0,11.0,0.0,0.0,1.0
7100000.0,30.671875,2.853251224021532E-6,7100000.0,90.60000000000001,81.14116042051201,82.12927756653993,80.16877637130803,356275.0,272160.0,0.0,1.0,0.0,?,0.0,0.0,291.0,146.0,146.0,11.0,0.0,0.0,1.0
7200000.0,31.109375,2.894668432418258E-6,7200000.0,90.7,81.09218070182573,80.98159509202455,79.10112359550561,376275.0,286904.0,0.0,1.0,0.0,?,0.0,0.0,307.0,154.0,154.0,11.0,0.0,0.0,1.0
7300000.0,31.5625,2.9379887079509604E-6,7300000.0,88.3,76.48335745296671,75.0,75.05330490405117,396275.0,299952.0,0.0,1.0,0.0,?,0.0,0.0,321.0,161.0,161.0,11.0,0.0,0.0,1.0
7400000.0,32.015625,2.9824165135828994E-6,7400000.0,89.60000000000001,78.77204441541477,78.989898989899,75.70093457943926,416275.0,318760.0,0.0,1.0,0.0,?,0.0,0.0,341.0,171.0,171.0,12.0,0.0,0.0,1.0
7500000.0,32.453125,3.0257215904485855E-6,7500000.0,88.8,77.09873715893477,77.82178217821783,73.58490566037736,436275.0,331808.0,0.0,1.0,0.0,?,0.0,0.0,355.0,178.0,178.0,12.0,0.0,0.0,1.0
7600000.0,32.890625,3.0746549600735314E-6,7600000.0,89.2,78.41795626039135,78.74015748031496,78.65612648221344,456175.0,342992.0,0.0,1.0,0.0,?,0.0,0.0,367.0,184.0,184.0,12.0,0.0,0.0,1.0
7700000.0,33.328125,3.123356533857684E-6,7700000.0,90.5,80.83425463407549,82.17636022514073,79.02869757174393,476175.0,350448.0,0.0,1.0,0.0,?,0.0,0.0,375.0,188.0,188.0,12.0,0.0,0.0,1.0
7800000.0,33.765625,3.1722862816726176E-6,7800000.0,90.7,80.78528276625813,80.8641975308642,77.14987714987716,496175.0,361896.0,0.0,1.0,0.0,?,0.0,0.0,393.0,197.0,197.0,12.0,0.0,0.0,1.0
7900000.0,34.234375,3.225537560259303E-6,7900000.0,89.8,79.4780999134861,78.83817427385893,78.15845824411134,516175.0,378120.0,0.0,1.0,0.0,?,0.0,0.0,405.0,203.0,203.0,12.0,0.0,0.0,1.0
8000000.0,34.671875,3.275039554056195E-6,8000000.0,89.8,79.52160871817317,80.45977011494253,78.343949044586,536175.0,385864.0,0.0,1.0,0.0,?,0.0,0.0,413.0,207.0,207.0,12.0,0.0,0.0,1.0
8100000.0,35.125,3.332544842527973E-6,8100000.0,88.1,76.01908799987103,75.10460251046025,74.07407407407408,556075.0,400368.0,0.0,1.0,0.0,?,0.0,0.0,429.0,215.0,215.0,12.0,0.0,0.0,1.0
8200000.0,35.59375,3.3923250804137862E-6,8200000.0,88.5,76.82311400609451,77.36220472440945,75.21551724137932,576075.0,412224.0,0.0,1.0,0.0,?,0.0,0.0,443.0,222.0,222.0,12.0,0.0,0.0,1.0
8300000.0,36.046875,3.450269254648852E-6,8300000.0,89.2,78.20744094821846,79.11025145067698,76.15894039735099,596075.0,423024.0,0.0,1.0,0.0,?,0.0,0.0,453.0,227.0,227.0,12.0,0.0,0.0,1.0
8400000.0,36.5,3.5084103648033418E-6,8400000.0,90.5,80.77063209968505,81.03792415169661,79.25764192139738,616075.0,434160.0,0.0,1.0,0.0,?,0.0,0.0,465.0,233.0,233.0,12.0,0.0,0.0,1.0
8500000.0,36.96875,3.569242221096325E-6,8500000.0,89.0,77.63391186947965,76.74418604651163,74.65437788018434,636075.0,449216.0,0.0,1.0,0.0,?,0.0,0.0,483.0,242.0,242.0,12.0,0.0,0.0,1.0
8600000.0,37.421875,3.6342864041216686E-6,8600000.0,88.5,76.82572948573271,76.81451612903226,75.0,655975.0,463864.0,0.0,1.0,0.0,?,0.0,0.0,497.0,249.0,249.0,13.0,0.0,0.0,1.0
8700000.0,37.875,3.6989029548648344E-6,8700000.0,89.8,79.000247055917,79.35222672064778,76.27906976744187,675975.0,469744.0,0.0,1.0,0.0,?,0.0,0.0,503.0,252.0,252.0,13.0,0.0,0.0,1.0
8800000.0,38.359375,3.7690514646884482E-6,8800000.0,90.3,80.40071446467684,80.60000000000001,78.86710239651417,695975.0,487688.0,0.0,1.0,0.0,?,0.0,0.0,523.0,262.0,262.0,13.0,0.0,0.0,1.0
8900000.0,38.828125,3.836744063947765E-6,8900000.0,90.9,81.67981961668545,82.33009708737865,80.21739130434783,715975.0,495600.0,0.0,1.0,0.0,?,0.0,0.0,531.0,266.0,266.0,13.0,0.0,0.0,1.0
9000000.0,39.296875,3.9042358467769304E-6,9000000.0,89.4,78.66421909029062,79.53667953667954,77.10583153347731,735975.0,503440.0,0.0,1.0,0.0,?,0.0,0.0,541.0,271.0,271.0,13.0,0.0,0.0,1.0
9100000.0,39.765625,3.978665012659299E-6,9100000.0,88.6,77.02215145224034,77.06237424547284,75.054704595186,755875.0,521912.0,0.0,1.0,0.0,?,0.0,0.0,561.0,281.0,281.0,13.0,0.0,0.0,1.0
9200000.0,40.234375,4.053256189864544E-6,9200000.0,88.8,77.43455012149077,77.55511022044088,75.70498915401302,775875.0,532712.0,0.0,1.0,0.0,?,0.0,0.0,571.0,286.0,286.0,13.0,0.0,0.0,1.0
9300000.0,40.703125,4.129618820216921E-6,9300000.0,87.7,75.15071194220418,75.69169960474308,72.23476297968398,795875.0,556608.0,0.0,1.0,0.0,?,0.0,0.0,597.0,299.0,299.0,13.0,0.0,0.0,1.0
9400000.0,41.1875,4.209489238241481E-6,9400000.0,89.60000000000001,78.94532262244105,79.03225806451614,76.57657657657658,815875.0,573672.0,0.0,1.0,0.0,?,0.0,0.0,615.0,308.0,308.0,13.0,0.0,0.0,1.0
9500000.0,41.65625,4.2868229664034315E-6,9500000.0,90.3,80.45221877393092,80.44354838709677,79.13978494623656,835875.0,583472.0,0.0,1.0,0.0,?,0.0,0.0,627.0,314.0,314.0,13.0,0.0,0.0,1.0
9600000.0,42.140625,4.372953780047181E-6,9600000.0,88.9,77.70762037884995,77.53036437246963,76.82672233820459,855775.0,594560.0,0.0,1.0,0.0,?,0.0,0.0,639.0,320.0,320.0,13.0,0.0,0.0,1.0
9700000.0,42.625,4.460584281736777E-6,9700000.0,89.9,79.35641054989618,80.5019305019305,76.62037037037038,875775.0,615848.0,0.0,1.0,0.0,?,0.0,0.0,661.0,331.0,331.0,13.0,0.0,0.0,1.0
9800000.0,43.109375,4.54808747033692E-6,9800000.0,91.4,82.70536375044243,83.0708661417323,81.38528138528139,895775.0,624312.0,0.0,1.0,0.0,?,0.0,0.0,675.0,338.0,338.0,13.0,0.0,0.0,1.0
9900000.0,43.578125,4.6333859467671976E-6,9900000.0,91.5,82.95130893832787,83.93194706994329,82.25469728601253,915775.0,638840.0,0.0,1.0,0.0,?,0.0,0.0,685.0,343.0,343.0,13.0,0.0,0.0,1.0
1.0E7,44.046875,4.719120980654326E-6,1.0E7,90.2,80.21768619598217,79.91803278688525,78.31858407079646,935775.0,651864.0,0.0,1.0,0.0,?,0.0,0.0,701.0,351.0,351.0,14.0,0.0,0.0,1.0
