learning evaluation instances,evaluation time (cpu seconds),model cost (RAM-Hours),classified instances,classifications correct (percent),Kappa Statistic (percent),Kappa Temporal Statistic (percent),Kappa M Statistic (percent),model training instances,model serialized size (bytes),labeling cost,newThreshold,maxPosterior,accuracyBaseLearner (percent),Change detected,Warning detected,tree size (nodes),tree size (leaves),active learning leaves,tree depth,active leaf byte size estimate,inactive leaf byte size estimate,byte size estimate overhead
100000.0,1.0,1.2221021784676446E-7,100000.0,89.60000000000001,78.3780187612268,77.82515991471216,74.75728155339807,55160.0,356680.0,0.0,1.0,0.0,?,5.0,62.0,126.0,86.0,86.0,4.0,0.0,0.0,1.0
200000.0,1.84375,2.826869927553667E-7,200000.0,91.4,81.57353445320535,81.46551724137932,76.75675675675676,115160.0,633744.0,0.0,1.0,0.0,?,0.0,0.0,222.0,152.0,152.0,5.0,0.0,0.0,1.0
300000.0,2.609375,4.4579498030038344E-7,300000.0,94.39999999999999,88.21960342136373,87.30158730158729,85.5297157622739,175160.0,736896.0,0.0,1.0,0.0,?,0.0,0.0,258.0,176.0,176.0,5.0,0.0,0.0,1.0
400000.0,3.375,6.346660342791842E-7,400000.0,94.69999999999999,88.75784829458678,89.0721649484536,86.08923884514435,235160.0,881616.0,0.0,1.0,0.0,?,0.0,0.0,318.0,215.0,215.0,6.0,0.0,0.0,1.0
500000.0,4.21875,8.810485855469273E-7,500000.0,95.1,89.6063125742406,89.74895397489539,87.13910761154855,295160.0,1071368.0,0.0,1.0,0.0,?,0.0,0.0,380.0,258.0,258.0,6.0,0.0,0.0,1.0
600000.0,5.015625,1.1507499988915193E-6,600000.0,94.5,88.1170492256637,88.63636363636363,85.17520215633422,354860.0,1189576.0,0.0,1.0,0.0,?,0.0,0.0,427.0,286.0,286.0,6.0,0.0,0.0,1.0
700000.0,5.828125,1.4492864849873716E-6,700000.0,94.89999999999999,88.97859686732824,89.07922912205566,85.95041322314049,414860.0,1316280.0,0.0,1.0,0.0,?,0.0,0.0,484.0,322.0,322.0,7.0,0.0,0.0,1.0
800000.0,6.640625,1.773964419650535E-6,800000.0,95.8,91.1968878902713,90.92872570194383,89.28571428571428,474860.0,1455320.0,0.0,1.0,0.0,?,0.0,0.0,532.0,352.0,352.0,7.0,0.0,0.0,1.0
900000.0,7.453125,2.1107529108929966E-6,900000.0,96.7,92.8341874402849,93.0817610062893,90.83333333333331,534860.0,1527856.0,0.0,1.0,0.0,?,0.0,0.0,556.0,367.0,367.0,7.0,0.0,0.0,1.0
1000000.0,8.296875,2.473228313546214E-6,1000000.0,96.8,93.30543933054393,93.19148936170211,91.7948717948718,594860.0,1601040.0,0.0,1.0,0.0,?,0.0,0.0,590.0,387.0,387.0,7.0,0.0,0.0,1.0
1100000.0,9.09375,2.839232458629542E-6,1100000.0,96.2,91.88519689074911,91.792656587473,89.94708994708994,654560.0,1654608.0,0.0,1.0,0.0,?,0.0,0.0,619.0,403.0,403.0,7.0,0.0,0.0,1.0
1200000.0,9.890625,3.2162731642731364E-6,1200000.0,97.0,93.66511250760186,93.63057324840763,92.2680412371134,714560.0,1723008.0,0.0,1.0,0.0,?,0.0,0.0,646.0,418.0,418.0,7.0,0.0,0.0,1.0
1300000.0,10.71875,3.6212676140065823E-6,1300000.0,97.2,94.15683066495266,93.99141630901286,92.96482412060301,774560.0,1799400.0,0.0,1.0,0.0,?,0.0,0.0,671.0,435.0,435.0,7.0,0.0,0.0,1.0
1400000.0,11.546875,4.037997083893667E-6,1400000.0,96.89999999999999,93.66690364704631,93.62139917695472,92.77389277389277,834560.0,1869080.0,0.0,1.0,0.0,?,0.0,0.0,706.0,457.0,457.0,7.0,0.0,0.0,1.0
1500000.0,12.390625,4.476175042024503E-6,1500000.0,97.3,94.15123603878381,94.35146443514644,92.54143646408839,894560.0,1946216.0,0.0,1.0,0.0,?,0.0,0.0,739.0,478.0,478.0,7.0,0.0,0.0,1.0
1600000.0,13.203125,4.922368841814912E-6,1600000.0,97.6,94.97015626047883,95.05154639175257,93.96984924623115,954260.0,2000544.0,0.0,1.0,0.0,?,0.0,0.0,752.0,486.0,486.0,7.0,0.0,0.0,1.0
1700000.0,14.125,5.445227984132039E-6,1700000.0,97.6,94.81058640373638,94.69026548672565,93.44262295081967,1014260.0,2085064.0,0.0,1.0,0.0,?,0.0,0.0,784.0,508.0,508.0,7.0,4034.8976377952754,0.0,1.0167046554469665
1800000.0,14.9375,5.919021140370105E-6,1800000.0,97.7,94.96157654460538,95.13742071881607,93.50282485875707,1074260.0,2161760.0,0.0,1.0,0.0,?,0.0,0.0,824.0,537.0,537.0,7.0,4034.8976377952754,0.0,1.0167046554469665
1900000.0,15.78125,6.428265413786803E-6,1900000.0,96.89999999999999,93.4322033898305,93.52818371607515,92.0103092783505,1134260.0,2255496.0,0.0,1.0,0.0,?,0.0,0.0,848.0,552.0,552.0,7.0,4034.8976377952754,0.0,1.0167046554469665
2000000.0,16.609375,6.9380369515986086E-6,2000000.0,97.7,95.19431675720853,94.84304932735425,94.14758269720102,1194260.0,2316904.0,0.0,1.0,0.0,?,0.0,0.0,874.0,568.0,568.0,7.0,4034.8976377952754,0.0,1.0167046554469665
2100000.0,17.4375,7.469328120350839E-6,2100000.0,98.1,95.96153682653312,95.94017094017093,94.9868073878628,1253960.0,2356256.0,0.0,1.0,0.0,?,0.0,0.0,885.0,575.0,575.0,7.0,4034.8976377952754,0.0,1.0167046554469665
2200000.0,18.28125,8.01758491434157E-6,2200000.0,97.2,93.89374239443806,94.04255319148935,92.20055710306406,1313960.0,2403048.0,0.0,1.0,0.0,?,0.0,0.0,904.0,586.0,586.0,7.0,4034.8976377952754,0.0,1.0167046554469665
2300000.0,19.109375,8.57211132016447E-6,2300000.0,97.8,95.35472972972973,95.36842105263158,94.21052631578947,1373960.0,2494544.0,0.0,1.0,0.0,?,0.0,0.0,942.0,611.0,611.0,7.0,4034.8976377952754,0.0,1.0167046554469665
2400000.0,19.921875,9.120548687254391E-6,2400000.0,97.6,94.91212821436899,94.9260042283298,93.63395225464191,1433960.0,2530376.0,0.0,1.0,0.0,?,0.0,0.0,961.0,622.0,622.0,8.0,4034.8976377952754,0.0,1.0167046554469665
2500000.0,20.78125,9.709097988282644E-6,2500000.0,98.1,95.91784118253695,95.84245076586433,94.79452054794521,1493960.0,2583432.0,0.0,1.0,0.0,?,0.0,0.0,978.0,632.0,632.0,8.0,4034.8976377952754,0.0,1.0167046554469665
2600000.0,21.625,1.0312319112320744E-5,2600000.0,98.5,96.82162986820359,96.68141592920354,96.03174603174602,1553660.0,2638624.0,0.0,1.0,0.0,?,0.0,0.0,1006.0,649.0,649.0,8.0,4034.8976377952754,0.0,1.0167046554469665
2700000.0,22.46875,1.0924353458297754E-5,2700000.0,97.5,94.69714324500895,94.68085106382979,93.45549738219894,1613660.0,2694016.0,0.0,1.0,0.0,?,0.0,0.0,1029.0,665.0,665.0,8.0,4034.8976377952754,0.0,1.0167046554469665
2800000.0,23.328125,1.1553237111204204E-5,2800000.0,98.0,95.7288320918472,95.76271186440678,94.68085106382979,1673660.0,2733848.0,0.0,1.0,0.0,?,0.0,0.0,1051.0,679.0,679.0,8.0,4034.8976377952754,0.0,1.0167046554469665
2900000.0,24.1875,1.2189857532373737E-5,2900000.0,97.8,95.46002344278803,95.58232931726907,94.73684210526315,1733660.0,2783632.0,0.0,1.0,0.0,?,0.0,0.0,1064.0,687.0,687.0,8.0,4034.8976377952754,0.0,1.0167046554469665
3000000.0,25.078125,1.2859280848513465E-5,3000000.0,97.3,94.36316264154725,94.23076923076923,93.23308270676691,1793660.0,2840512.0,0.0,1.0,0.0,?,0.0,0.0,1091.0,705.0,705.0,8.0,4034.8976377952754,0.0,1.0167046554469665
3100000.0,25.953125,1.3546658738050614E-5,3100000.0,99.4,98.71156158735613,98.72881355932203,98.36956521739131,1853360.0,2910544.0,0.0,1.0,0.0,?,0.0,0.0,1117.0,724.0,724.0,8.0,4034.8976377952754,0.0,1.0167046554469665
3200000.0,26.84375,1.425347591672714E-5,3200000.0,97.6,94.9876152326373,94.9367088607595,93.89312977099236,1913360.0,2956680.0,0.0,1.0,0.0,?,0.0,0.0,1131.0,734.0,734.0,8.0,4034.8976377952754,0.0,1.0167046554469665
3300000.0,27.71875,1.4953854293303776E-5,3300000.0,98.0,95.78067973249509,95.71734475374733,94.8051948051948,1973360.0,2998032.0,0.0,1.0,0.0,?,0.0,0.0,1148.0,744.0,744.0,8.0,4034.8976377952754,0.0,1.0167046554469665
3400000.0,28.703125,1.574978846797927E-5,3400000.0,97.5,94.74326086042306,94.75890985324948,93.57326478149099,2033360.0,3044520.0,0.0,1.0,0.0,?,0.0,0.0,1162.0,754.0,754.0,8.0,3955.7653333333333,0.0,1.0169932560879917
3500000.0,29.609375,1.6491816754245927E-5,3500000.0,98.2,96.22396106484298,96.14561027837259,95.37275064267352,2093360.0,3099000.0,0.0,1.0,0.0,?,0.0,0.0,1186.0,769.0,769.0,8.0,3955.7653333333333,0.0,1.0169932560879917
3600000.0,30.46875,1.7218028951901945E-5,3600000.0,97.89999999999999,95.49309800151087,95.43478260869564,94.35483870967741,2153060.0,3139536.0,0.0,1.0,0.0,?,0.0,0.0,1197.0,776.0,776.0,8.0,3955.7653333333333,0.0,1.0169932560879917
3700000.0,31.359375,1.797511319940289E-5,3700000.0,97.8,95.38884603776116,95.40709812108558,94.38775510204081,2213060.0,3173928.0,0.0,1.0,0.0,?,0.0,0.0,1218.0,788.0,788.0,9.0,3955.7653333333333,0.0,1.0169932560879917
3800000.0,32.234375,1.871982977415125E-5,3800000.0,98.4,96.6953482896362,96.7871485943775,96.0880195599022,2273060.0,3193048.0,0.0,1.0,0.0,?,0.0,0.0,1228.0,793.0,793.0,9.0,3955.7653333333333,0.0,1.0169932560879917
3900000.0,33.125,1.9484270402851208E-5,3900000.0,98.4,96.57936932121859,96.43652561247215,95.73333333333332,2333060.0,3235896.0,0.0,1.0,0.0,?,0.0,0.0,1244.0,801.0,801.0,9.0,3955.7653333333333,0.0,1.0169932560879917
4000000.0,34.015625,2.0249356166459622E-5,4000000.0,97.3,94.30187405031234,94.30379746835442,93.09462915601023,2393060.0,3253808.0,0.0,1.0,0.0,?,0.0,0.0,1250.0,804.0,804.0,9.0,3955.7653333333333,0.0,1.0169932560879917
4100000.0,34.921875,2.1047884430218905E-5,4100000.0,97.89999999999999,95.56760042551036,95.59748427672956,94.53125,2452760.0,3278136.0,0.0,1.0,0.0,?,0.0,0.0,1265.0,813.0,813.0,9.0,3955.7653333333333,0.0,1.0169932560879917
4200000.0,35.8125,2.1834998786087254E-5,4200000.0,98.3,96.42544744987217,96.52351738241308,95.61855670103093,2512760.0,3303416.0,0.0,1.0,0.0,?,0.0,0.0,1282.0,823.0,823.0,9.0,3955.7653333333333,0.0,1.0169932560879917
4300000.0,36.71875,2.2641149407718333E-5,4300000.0,98.7,97.33770223223428,97.28601252609603,96.91943127962085,2572760.0,3340712.0,0.0,1.0,0.0,?,0.0,0.0,1292.0,828.0,828.0,9.0,3955.7653333333333,0.0,1.0169932560879917
4400000.0,37.625,2.3454671059476422E-5,4400000.0,97.6,94.9270338366843,94.90445859872611,93.71727748691099,2632760.0,3387200.0,0.0,1.0,0.0,?,0.0,0.0,1315.0,844.0,844.0,9.0,3955.7653333333333,0.0,1.0169932560879917
4500000.0,38.515625,2.4254540654106278E-5,4500000.0,98.3,96.30409071935439,96.24724061810154,95.22471910112358,2692760.0,3403944.0,0.0,1.0,0.0,?,0.0,0.0,1319.0,846.0,846.0,9.0,3955.7653333333333,0.0,1.0169932560879917
4600000.0,39.375,2.5043602088569774E-5,4600000.0,98.2,96.13899613899613,96.14561027837259,95.13513513513513,2752460.0,3420688.0,0.0,1.0,0.0,?,0.0,0.0,1323.0,848.0,848.0,9.0,3955.7653333333333,0.0,1.0169932560879917
4700000.0,40.265625,2.5861681076801492E-5,4700000.0,98.5,96.81173959989458,96.7032967032967,96.03174603174602,2812460.0,3437208.0,0.0,1.0,0.0,?,0.0,0.0,1329.0,851.0,851.0,9.0,3955.7653333333333,0.0,1.0169932560879917
4800000.0,41.171875,2.6694217360475002E-5,4800000.0,98.4,96.61149043593176,96.6804979253112,95.76719576719577,2872460.0,3452808.0,0.0,1.0,0.0,?,0.0,0.0,1340.0,858.0,858.0,9.0,3955.7653333333333,0.0,1.0169932560879917
4900000.0,42.0625,2.7516133979790745E-5,4900000.0,98.3,96.32187489181985,96.47302904564316,95.32967032967032,2932460.0,3484056.0,0.0,1.0,0.0,?,0.0,0.0,1359.0,869.0,869.0,9.0,3955.7653333333333,0.0,1.0169932560879917
5000000.0,42.9375,2.832446402559678E-5,5000000.0,98.0,95.71483054297381,95.71734475374733,94.57994579945799,2992460.0,3500560.0,0.0,1.0,0.0,?,0.0,0.0,1359.0,869.0,869.0,9.0,3955.7653333333333,0.0,1.0169932560879917
5100000.0,44.203125,2.8519049907724067E-5,5100000.0,85.8,68.87166356844726,69.46236559139784,61.41304347826087,57408.0,475296.0,0.0,1.0,0.0,?,4.0,15.0,158.0,114.0,114.0,5.0,0.0,0.0,1.0
5200000.0,45.015625,2.8664174800117816E-5,5200000.0,90.2,78.3808586769968,80.0,73.58490566037736,117408.0,586144.0,0.0,1.0,0.0,?,0.0,0.0,200.0,138.0,138.0,5.0,0.0,0.0,1.0
5300000.0,45.796875,2.8821532743879495E-5,5300000.0,89.5,77.55527814354362,78.83064516129032,73.21428571428572,177408.0,688944.0,0.0,1.0,0.0,?,0.0,0.0,247.0,163.0,163.0,5.0,0.0,0.0,1.0
5400000.0,46.609375,2.900033749433028E-5,5400000.0,90.4,79.33706414119673,78.9010989010989,74.86910994764399,237408.0,775728.0,0.0,1.0,0.0,?,0.0,0.0,289.0,184.0,184.0,6.0,0.0,0.0,1.0
5500000.0,47.4375,2.9200833750009128E-5,5500000.0,91.8,82.21258134490239,82.51599147121536,77.83783783783785,297408.0,875656.0,0.0,1.0,0.0,?,0.0,0.0,333.0,209.0,209.0,6.0,0.0,0.0,1.0
5600000.0,48.234375,2.941577620933661E-5,5600000.0,92.60000000000001,83.99134667387779,84.55114822546975,80.26666666666668,357108.0,921496.0,0.0,1.0,0.0,?,0.0,0.0,349.0,220.0,220.0,6.0,0.0,0.0,1.0
5700000.0,49.0625,2.9665147529966723E-5,5700000.0,92.10000000000001,82.59144997796388,81.96347031963471,78.05555555555557,417108.0,1057560.0,0.0,1.0,0.0,?,0.0,0.0,396.0,251.0,251.0,7.0,0.0,0.0,1.0
5800000.0,49.875,2.991584883097353E-5,5800000.0,91.4,81.22467514321644,81.70212765957447,76.24309392265194,477108.0,1101296.0,0.0,1.0,0.0,?,0.0,0.0,422.0,267.0,267.0,7.0,0.0,0.0,1.0
5900000.0,50.765625,3.0216594136113104E-5,5900000.0,92.10000000000001,82.58177745244164,82.32662192393737,77.6203966005666,537108.0,1228552.0,0.0,1.0,0.0,?,0.0,0.0,472.0,298.0,298.0,7.0,0.0,0.0,1.0
6000000.0,51.640625,3.055068437889633E-5,6000000.0,93.8,86.82913565140545,87.24279835390945,83.76963350785338,597108.0,1413728.0,0.0,1.0,0.0,?,0.0,0.0,536.0,342.0,342.0,7.0,0.0,0.0,1.0
6100000.0,52.5,3.091529247790783E-5,6100000.0,94.1,87.33035560900187,87.55274261603374,84.4736842105263,656808.0,1516448.0,0.0,1.0,0.0,?,0.0,0.0,570.0,362.0,362.0,7.0,0.0,0.0,1.0
6200000.0,53.40625,3.133629833529187E-5,6200000.0,93.89999999999999,87.05004203428977,87.39669421487602,84.19689119170984,716808.0,1686808.0,0.0,1.0,0.0,?,0.0,0.0,647.0,414.0,414.0,7.0,0.0,0.0,1.0
6300000.0,54.296875,3.178814345220519E-5,6300000.0,94.6,88.4064442994057,88.33693304535636,85.6382978723404,776808.0,1866656.0,0.0,1.0,0.0,?,0.0,0.0,702.0,449.0,449.0,7.0,0.0,0.0,1.0
6400000.0,55.203125,3.227163989019271E-5,6400000.0,94.3,87.96412040947328,88.19875776397514,85.6060606060606,836808.0,1982560.0,0.0,1.0,0.0,?,0.0,0.0,745.0,475.0,475.0,7.0,0.0,0.0,1.0
6500000.0,56.09375,3.275622283884636E-5,6500000.0,94.39999999999999,88.11565168672857,88.33333333333331,85.34031413612564,896808.0,2038400.0,0.0,1.0,0.0,?,0.0,0.0,768.0,488.0,488.0,7.0,0.0,0.0,1.0
6600000.0,57.0,3.328658439891621E-5,6600000.0,94.0,87.37038861314235,87.28813559322033,84.8866498740554,956508.0,2136264.0,0.0,1.0,0.0,?,0.0,0.0,811.0,517.0,517.0,7.0,0.0,0.0,1.0
6700000.0,58.0,3.390690939138748E-5,6700000.0,95.5,90.1676309671555,90.70247933884296,87.39495798319327,1016508.0,2286584.0,0.0,1.0,0.0,?,0.0,0.0,863.0,552.0,552.0,8.0,4036.0073664825045,0.0,1.0173028064129894
6800000.0,58.90625,3.4483106380018105E-5,6800000.0,95.39999999999999,90.31436211652243,89.95633187772924,88.23529411764704,1076508.0,2361352.0,0.0,1.0,0.0,?,0.0,0.0,887.0,567.0,567.0,8.0,4036.0073664825045,0.0,1.0173028064129894
6900000.0,59.828125,3.508580043368663E-5,6900000.0,96.0,91.19008708598915,91.1111111111111,88.85793871866295,1136508.0,2445656.0,0.0,1.0,0.0,?,0.0,0.0,922.0,589.0,589.0,8.0,4036.0073664825045,0.0,1.0173028064129894
7000000.0,60.75,3.569329099263996E-5,7000000.0,96.2,92.05662373062756,92.26069246435844,90.47619047619047,1196508.0,2480848.0,0.0,1.0,0.0,?,0.0,0.0,942.0,602.0,602.0,8.0,4036.0073664825045,0.0,1.0173028064129894
7100000.0,61.703125,3.6362925149862557E-5,7100000.0,95.89999999999999,91.40518875044022,91.02844638949671,89.77556109725685,1256208.0,2587944.0,0.0,1.0,0.0,?,0.0,0.0,979.0,625.0,625.0,8.0,4036.0073664825045,0.0,1.0173028064129894
7200000.0,62.640625,3.7038933401668654E-5,7200000.0,95.39999999999999,90.29109820343103,90.8,88.38383838383838,1316208.0,2674408.0,0.0,1.0,0.0,?,0.0,0.0,1020.0,653.0,653.0,8.0,4036.0073664825045,0.0,1.0173028064129894
7300000.0,63.609375,3.775522691689225E-5,7300000.0,95.1,89.06054652616537,88.65740740740739,85.79710144927535,1376208.0,2760112.0,0.0,1.0,0.0,?,0.0,0.0,1040.0,666.0,666.0,8.0,4036.0073664825045,0.0,1.0173028064129894
7400000.0,64.5625,3.8470745558798735E-5,7400000.0,97.0,93.48234149054504,93.42105263157893,91.75824175824175,1436208.0,2818712.0,0.0,1.0,0.0,?,0.0,0.0,1073.0,684.0,684.0,8.0,4036.0073664825045,0.0,1.0173028064129894
7500000.0,65.546875,3.921912582073775E-5,7500000.0,96.0,91.32080056935547,91.37931034482759,89.0710382513661,1496208.0,2870568.0,0.0,1.0,0.0,?,0.0,0.0,1091.0,693.0,693.0,8.0,4036.0073664825045,0.0,1.0173028064129894
7600000.0,66.484375,3.9960654555923416E-5,7600000.0,95.7,90.70824761871833,91.18852459016392,88.31521739130433,1555908.0,2928192.0,0.0,1.0,0.0,?,0.0,0.0,1123.0,712.0,712.0,8.0,4036.0073664825045,0.0,1.0173028064129894
7700000.0,67.453125,4.073610354680569E-5,7700000.0,96.8,93.03878700863625,93.02832244008714,91.13573407202216,1615908.0,2979864.0,0.0,1.0,0.0,?,0.0,0.0,1137.0,719.0,719.0,8.0,4036.0073664825045,0.0,1.0173028064129894
7800000.0,68.390625,4.149173599823068E-5,7800000.0,96.2,91.89613402941276,91.81034482758619,90.10416666666666,1675908.0,3016336.0,0.0,1.0,0.0,?,0.0,0.0,1156.0,730.0,730.0,8.0,4036.0073664825045,0.0,1.0173028064129894
7900000.0,69.375,4.229732682385172E-5,7900000.0,96.8,93.18777887530229,93.24894514767932,91.53439153439152,1735908.0,3079072.0,0.0,1.0,0.0,?,0.0,0.0,1184.0,747.0,747.0,8.0,4036.0073664825045,0.0,1.0173028064129894
8000000.0,70.359375,4.312632586030911E-5,8000000.0,95.8,91.04954714970697,90.94827586206897,88.85941644562332,1795908.0,3185816.0,0.0,1.0,0.0,?,0.0,0.0,1229.0,777.0,777.0,8.0,4036.0073664825045,0.0,1.0173028064129894
8100000.0,71.3125,4.396824628606232E-5,8100000.0,96.5,92.30282024666162,92.23946784922394,90.05681818181817,1855608.0,3283592.0,0.0,1.0,0.0,?,0.0,0.0,1257.0,794.0,794.0,8.0,4036.0073664825045,0.0,1.0173028064129894
8200000.0,72.265625,4.4816502680381145E-5,8200000.0,96.2,91.79506667587921,91.5929203539823,89.78494623655912,1915608.0,3324280.0,0.0,1.0,0.0,?,0.0,0.0,1273.0,802.0,802.0,8.0,4036.0073664825045,0.0,1.0173028064129894
8300000.0,73.25,4.569961970749622E-5,8300000.0,96.0,91.35247319266689,91.54334038054968,89.18918918918918,1975608.0,3366984.0,0.0,1.0,0.0,?,0.0,0.0,1299.0,818.0,818.0,8.0,4036.0073664825045,0.0,1.0173028064129894
8400000.0,74.359375,4.672136028400726E-5,8400000.0,97.1,93.68780309428246,93.89473684210526,91.98895027624309,2035608.0,3474008.0,0.0,1.0,0.0,?,0.0,0.0,1347.0,848.0,848.0,8.0,3988.962874251497,0.0,1.0182827826721876
8500000.0,75.390625,4.7694903979491856E-5,8500000.0,96.39999999999999,92.3042719841297,91.96428571428571,90.47619047619047,2095608.0,3577856.0,0.0,1.0,0.0,?,0.0,0.0,1387.0,874.0,874.0,8.0,3988.962874251497,0.0,1.0182827826721876
8600000.0,76.375,4.865555739444163E-5,8600000.0,97.39999999999999,94.35077350947331,94.4915254237288,92.73743016759775,2155308.0,3639960.0,0.0,1.0,0.0,?,0.0,0.0,1404.0,884.0,884.0,8.0,3988.962874251497,0.0,1.0182827826721876
8700000.0,77.375,4.9651093625773986E-5,8700000.0,96.7,92.77222431511349,92.65033407572383,90.80779944289694,2215308.0,3730760.0,0.0,1.0,0.0,?,0.0,0.0,1430.0,903.0,903.0,8.0,3988.962874251497,0.0,1.0182827826721876
8800000.0,78.40625,5.0691937600883346E-5,8800000.0,95.8,91.05137787474486,91.10169491525423,89.03394255874673,2275308.0,3798912.0,0.0,1.0,0.0,?,0.0,0.0,1461.0,923.0,923.0,8.0,3988.962874251497,0.0,1.0182827826721876
8900000.0,79.453125,5.1774274033959955E-5,8900000.0,96.7,93.0145720261128,92.9637526652452,91.45077720207253,2335308.0,3908576.0,0.0,1.0,0.0,?,0.0,0.0,1506.0,950.0,950.0,8.0,3988.962874251497,0.0,1.0182827826721876
9000000.0,80.484375,5.2848517370875924E-5,9000000.0,97.2,94.04711284973212,93.91304347826086,92.74611398963731,2395308.0,3953840.0,0.0,1.0,0.0,?,0.0,0.0,1526.0,963.0,963.0,8.0,3988.962874251497,0.0,1.0182827826721876
9100000.0,81.484375,5.39214920394847E-5,9100000.0,96.8,93.22263639444256,93.07359307359306,91.57894736842105,2455008.0,4013560.0,0.0,1.0,0.0,?,0.0,0.0,1545.0,974.0,974.0,8.0,3988.962874251497,0.0,1.0182827826721876
9200000.0,82.53125,5.5061774684064504E-5,9200000.0,97.3,94.13736798221234,94.29175475687103,92.41573033707866,2515008.0,4091344.0,0.0,1.0,0.0,?,0.0,0.0,1582.0,1000.0,1000.0,9.0,3988.962874251497,0.0,1.0182827826721876
9300000.0,83.5625,5.620237494844736E-5,9300000.0,97.3,94.32444022164111,94.42148760330578,93.21608040201005,2575008.0,4171184.0,0.0,1.0,0.0,?,0.0,0.0,1610.0,1017.0,1017.0,9.0,3988.962874251497,0.0,1.0182827826721876
9400000.0,84.609375,5.7376114515742904E-5,9400000.0,96.5,92.34269712085411,92.76859504132231,90.05681818181817,2635008.0,4244624.0,0.0,1.0,0.0,?,0.0,0.0,1638.0,1034.0,1034.0,9.0,3988.962874251497,0.0,1.0182827826721876
9500000.0,85.65625,5.8560329683435454E-5,9500000.0,97.6,94.8639151518783,94.98956158663883,93.63395225464191,2695008.0,4298256.0,0.0,1.0,0.0,?,0.0,0.0,1659.0,1046.0,1046.0,9.0,3988.962874251497,0.0,1.0182827826721876
9600000.0,86.671875,5.973861184126386E-5,9600000.0,96.6,92.70749326515553,92.7038626609442,90.9090909090909,2754708.0,4349176.0,0.0,1.0,0.0,?,0.0,0.0,1682.0,1059.0,1059.0,9.0,3988.962874251497,0.0,1.0182827826721876
9700000.0,87.734375,6.097752568570689E-5,9700000.0,96.1,91.5209280887737,91.17647058823528,89.10614525139664,2814708.0,4386992.0,0.0,1.0,0.0,?,0.0,0.0,1698.0,1070.0,1070.0,9.0,3988.962874251497,0.0,1.0182827826721876
9800000.0,88.828125,6.226765968474661E-5,9800000.0,97.39999999999999,94.4476002955585,94.58333333333333,93.10344827586206,2874708.0,4454136.0,0.0,1.0,0.0,?,0.0,0.0,1722.0,1085.0,1085.0,9.0,3988.962874251497,0.0,1.0182827826721876
9900000.0,89.921875,6.356558283894424E-5,9900000.0,97.2,93.93823931831172,93.9655172413793,92.26519337016575,2934708.0,4497712.0,0.0,1.0,0.0,?,0.0,0.0,1736.0,1092.0,1092.0,9.0,3988.962874251497,0.0,1.0182827826721876
1.0E7,90.984375,6.484168982650668E-5,1.0E7,97.89999999999999,95.40561827251247,95.52238805970148,94.08450704225352,2994708.0,4568264.0,0.0,1.0,0.0,?,0.0,0.0,1760.0,1110.0,1110.0,9.0,3988.962874251497,0.0,1.0182827826721876
