learning evaluation instances,evaluation time (cpu seconds),model cost (RAM-Hours),classified instances,classifications correct (percent),Kappa Statistic (percent),Kappa Temporal Statistic (percent),Kappa M Statistic (percent),model training instances,model serialized size (bytes),labeling cost,newThreshold,maxPosterior,accuracyBaseLearner (percent),Change detected,Warning detected
100000.0,0.171875,3.804355704536041E-9,100000.0,65.10000000000001,27.60237314857073,26.98744769874477,19.025522041763356,39800.0,5264.0,0.0,1.0,0.0,?,0.0,39.0
200000.0,0.375,7.543712854385376E-9,200000.0,68.10000000000001,34.81068532566049,38.05825242718448,29.424778761061955,79800.0,5264.0,0.0,1.0,0.0,?,0.0,0.0
300000.0,0.578125,1.0526370412359635E-8,300000.0,66.10000000000001,30.838909743757135,29.521829521829524,26.143790849673206,119800.0,5264.0,0.0,1.0,0.0,?,0.0,0.0
400000.0,0.78125,1.2790163358052572E-8,400000.0,66.5,32.032137639993515,33.79446640316207,27.173913043478265,159800.0,5264.0,0.0,1.0,0.0,?,0.0,3.0
500000.0,0.96875,1.4181326453884444E-8,500000.0,64.9,28.80959914328134,27.027027027027028,24.19006479481641,199800.0,5264.0,0.0,1.0,0.0,?,0.0,0.0
600000.0,1.15625,1.836645727356275E-8,600000.0,66.3,31.13229139419305,33.66141732283465,25.442477876106196,239600.0,5264.0,0.0,1.0,0.0,?,0.0,49.0
700000.0,1.359375,2.21449105689923E-8,700000.0,68.2,34.738440700227805,34.96932515337424,26.558891454965377,279600.0,5264.0,0.0,1.0,0.0,?,0.0,66.0
800000.0,1.5625,2.5166664272546772E-8,800000.0,65.7,29.620236541665644,31.124497991967875,22.398190045248867,319600.0,5264.0,0.0,1.0,0.0,?,0.0,0.0
900000.0,1.765625,2.743171838422617E-8,900000.0,66.10000000000001,31.97415419191717,28.78151260504202,32.06412825651303,359600.0,5264.0,0.0,1.0,0.0,?,0.0,0.0
1000000.0,1.9375,2.870801836252213E-8,1000000.0,67.80000000000001,34.64450262842762,37.35408560311285,29.540481400437642,399600.0,5264.0,0.0,1.0,0.0,?,0.0,0.0
1100000.0,2.078125,3.185297828167678E-8,1100000.0,65.9,30.97277776878108,34.042553191489375,27.7542372881356,439400.0,5264.0,0.0,1.0,0.0,?,0.0,0.0
1200000.0,2.265625,3.534776624292136E-8,1200000.0,67.0,32.978321533456004,33.198380566801625,28.725701943844495,479400.0,5264.0,0.0,1.0,0.0,?,0.0,0.0
1300000.0,2.421875,3.7678012934823835E-8,1300000.0,64.4,28.238827632082895,30.873786407766996,26.293995859213254,519400.0,5264.0,0.0,1.0,0.0,?,0.0,0.0
1400000.0,2.59375,3.960100002586842E-8,1400000.0,66.2,32.28732611064812,35.98484848484849,32.12851405622491,559400.0,5264.0,0.0,1.0,0.0,?,0.0,0.0
1500000.0,2.765625,4.088370284686486E-8,1500000.0,63.5,26.38457504739624,22.669491525423727,23.640167364016733,599400.0,5264.0,0.0,1.0,0.0,?,0.0,0.0
1600000.0,2.9375,4.4727542748053867E-8,1600000.0,67.0,33.66567500201014,36.04651162790699,31.535269709543574,639200.0,5264.0,0.0,1.0,0.0,?,0.0,0.0
1700000.0,3.109375,4.793109837919473E-8,1700000.0,65.2,28.894846102293343,26.42706131078224,23.348017621145374,679200.0,5264.0,0.0,1.0,0.0,?,0.0,0.0
1800000.0,3.296875,5.0727394409477705E-8,1800000.0,69.1,36.93929029150782,39.648437499999986,32.53275109170304,719200.0,5264.0,0.0,1.0,0.0,?,0.0,0.0
1900000.0,3.5,5.300001551707585E-8,1900000.0,68.2,35.219175124163264,36.40000000000001,29.490022172949004,759200.0,5264.0,0.0,1.0,0.0,?,0.0,0.0
2000000.0,3.703125,5.4515937032798915E-8,2000000.0,65.2,29.07945953657095,29.41176470588236,22.83813747228381,799200.0,5264.0,0.0,1.0,0.0,?,0.0,0.0
2100000.0,3.890625,5.872861947864293E-8,2100000.0,66.10000000000001,31.384852042262075,32.60437375745527,28.329809725158565,839000.0,5264.0,0.0,1.0,0.0,?,0.0,20.0
2200000.0,4.078125,6.221875082701444E-8,2200000.0,64.3,28.322464582864864,29.585798816568055,26.69404517453799,879000.0,5264.0,0.0,1.0,0.0,?,0.0,88.0
2300000.0,4.25,6.477775362630685E-8,2300000.0,66.5,32.52388855766288,33.66336633663367,30.06263048016702,919000.0,5264.0,0.0,1.0,0.0,?,0.0,0.0
2400000.0,4.421875,6.669647215555111E-8,2400000.0,66.8,32.875864829783715,35.53398058252428,29.21108742004265,959000.0,5264.0,0.0,1.0,0.0,?,0.0,0.0
2500000.0,4.609375,6.809112771103779E-8,2500000.0,66.60000000000001,32.224025974025984,34.63796477495109,28.01724137931035,999000.0,5264.0,0.0,1.0,0.0,?,0.0,0.0
2600000.0,4.78125,7.193069905042648E-8,2600000.0,65.3,30.042579271636406,33.39731285988484,27.100840336134457,1038800.0,5264.0,0.0,1.0,0.0,?,0.0,0.0
2700000.0,4.953125,7.512998611976703E-8,2700000.0,66.8,32.68587417124551,36.76190476190477,28.60215053763441,1078800.0,5264.0,0.0,1.0,0.0,?,0.0,0.0
2800000.0,5.171875,7.838689877341191E-8,2800000.0,64.9,29.04790782292299,29.376257545271635,26.105263157894736,1118800.0,5264.0,0.0,1.0,0.0,?,0.0,0.0
2900000.0,5.375,8.065447521706423E-8,2900000.0,66.2,31.964573268921104,31.578947368421055,30.165289256198353,1158800.0,5264.0,0.0,1.0,0.0,?,0.0,0.0
3000000.0,5.5625,8.204913077255091E-8,3000000.0,66.7,31.65473532116118,30.625000000000007,24.830699774266364,1198800.0,5264.0,0.0,1.0,0.0,?,0.0,0.0
3100000.0,5.734375,8.589510495464008E-8,3100000.0,66.9,33.195553366863386,35.976789168278536,30.16877637130802,1238600.0,5264.0,0.0,1.0,0.0,?,0.0,0.0
3200000.0,5.921875,8.939222122232119E-8,3200000.0,67.30000000000001,33.62885744209271,30.720338983050855,30.2771855010661,1278600.0,5264.0,0.0,1.0,0.0,?,0.0,0.0
3300000.0,6.09375,9.195762686431408E-8,3300000.0,67.4,34.005959707197,37.54789272030653,30.341880341880344,1318600.0,5264.0,0.0,1.0,0.0,?,0.0,0.0
3400000.0,6.265625,9.388274823625882E-8,3400000.0,66.8,32.84219128647662,34.90196078431374,29.21108742004265,1358600.0,5264.0,0.0,1.0,0.0,?,0.0,0.0
3500000.0,6.4375,9.516758533815542E-8,3500000.0,68.30000000000001,35.87046238003529,35.95959595959597,31.681034482758623,1398600.0,5264.0,0.0,1.0,0.0,?,0.0,0.0
3600000.0,6.609375,9.901355952024458E-8,3600000.0,65.0,29.45141419679428,28.86178861788618,27.385892116182575,1438400.0,5264.0,0.0,1.0,0.0,?,0.0,0.0
3700000.0,6.765625,1.0192782307664551E-7,3700000.0,65.4,29.466924880236476,28.364389233954455,23.956043956043953,1478400.0,5264.0,0.0,1.0,0.0,?,0.0,0.0
3800000.0,6.9375,1.044932287186384E-7,3800000.0,69.6,38.44359489405817,38.08553971486761,35.04273504273503,1518400.0,5264.0,0.0,1.0,0.0,?,0.0,0.0
3900000.0,7.109375,1.0641835009058314E-7,3900000.0,68.30000000000001,36.310595345248814,37.35177865612649,34.50413223140497,1558400.0,5264.0,0.0,1.0,0.0,?,0.0,0.0
4000000.0,7.28125,1.0770318719247974E-7,4000000.0,66.5,32.27781057193916,34.57031250000001,28.723404255319153,1598400.0,5264.0,0.0,1.0,0.0,?,0.0,0.0
4100000.0,7.453125,1.115555642172694E-7,4100000.0,67.10000000000001,32.977509778357245,37.57115749525618,27.212389380530976,1638200.0,5264.0,0.0,1.0,0.0,?,0.0,0.0
4200000.0,7.625,1.1476765697201091E-7,4200000.0,69.1,37.58332323354743,38.56858846918488,34.810126582278464,1678200.0,5264.0,0.0,1.0,0.0,?,0.0,0.0
4300000.0,7.796875,1.1733946545670428E-7,4300000.0,66.2,31.411224208185207,33.464566929133866,27.467811158798284,1718200.0,5264.0,0.0,1.0,0.0,?,0.0,0.0
4400000.0,7.96875,1.192709896713495E-7,4400000.0,64.7,28.664963786859797,23.92241379310345,25.995807127882603,1758200.0,5264.0,0.0,1.0,0.0,?,0.0,0.0
4500000.0,8.140625,1.2056222961594658E-7,4500000.0,66.60000000000001,32.653686706563654,30.41666666666667,29.53586497890296,1798200.0,5264.0,0.0,1.0,0.0,?,0.0,0.0
4600000.0,8.3125,1.2441460664073624E-7,4600000.0,67.10000000000001,33.27925370107484,36.363636363636374,30.000000000000004,1838000.0,5264.0,0.0,1.0,0.0,?,0.0,0.0
4700000.0,8.5,1.2791870782772697E-7,4700000.0,67.2,33.11173195750148,30.508474576271194,27.912087912087912,1878000.0,5264.0,0.0,1.0,0.0,?,0.0,0.0
4800000.0,8.671875,1.3049051631242034E-7,4800000.0,64.7,28.567959593343257,30.784313725490204,24.57264957264957,1918000.0,5264.0,0.0,1.0,0.0,?,0.0,0.0
4900000.0,8.84375,1.3242204052706557E-7,4900000.0,67.5,33.63825703434476,34.34343434343435,29.65367965367966,1958000.0,5264.0,0.0,1.0,0.0,?,0.0,0.0
5000000.0,9.015625,1.3386054585377372E-7,5000000.0,69.69999999999999,38.965433889291745,38.787878787878775,36.874999999999986,1998000.0,5264.0,0.0,1.0,0.0,?,0.0,0.0
5100000.0,9.171875,1.3749593765371373E-7,5100000.0,67.30000000000001,39.36134703111672,28.28947368421053,11.621621621621632,29016.0,5168.0,0.0,1.0,0.0,?,4.0,61.0
5200000.0,9.34375,1.4087521574563448E-7,5200000.0,61.3,0.0,16.59482758620689,0.0,30721.0,5168.0,0.0,1.0,0.0,?,2.0,109.0
5300000.0,9.515625,1.436142095675071E-7,5300000.0,60.4,0.0,18.518518518518512,0.0,70721.0,5168.0,0.0,1.0,0.0,?,0.0,0.0
5400000.0,9.6875,1.4571291911933156E-7,5400000.0,63.0,0.0,21.10874200426439,0.0,110721.0,5168.0,0.0,1.0,0.0,?,0.0,0.0
5500000.0,9.875,1.4730392851763301E-7,5500000.0,59.3,0.0,17.444219066937112,0.0,150721.0,5168.0,0.0,1.0,0.0,?,0.0,0.0
5600000.0,10.046875,1.513234908796019E-7,5600000.0,61.5,0.0,15.754923413566729,0.0,190521.0,5168.0,0.0,1.0,0.0,?,0.0,0.0
5700000.0,10.25,1.553171831700537E-7,5700000.0,68.60000000000001,41.15442278860571,29.596412556053814,12.777777777777791,230521.0,5168.0,0.0,1.0,0.0,?,0.0,0.0
5800000.0,10.453125,1.5855417586863044E-7,5800000.0,60.199999999999996,0.0,17.5983436853002,0.0,270521.0,5168.0,0.0,1.0,0.0,?,0.0,0.0
5900000.0,10.625,1.6061340122380194E-7,5900000.0,68.0,39.59802485541278,33.74741200828158,19.597989949748758,310521.0,5168.0,0.0,1.0,0.0,?,0.0,5.0
6000000.0,10.796875,1.620323423089253E-7,6000000.0,71.3,45.38326863058537,38.67521367521366,29.82885085574572,350521.0,5168.0,0.0,1.0,0.0,?,0.0,0.0
6100000.0,10.953125,1.6565641595257657E-7,6100000.0,70.5,44.47790408793193,34.298440979955444,23.17708333333332,390321.0,5168.0,0.0,1.0,0.0,?,0.0,0.0
6200000.0,11.125,1.6900261269054482E-7,6200000.0,69.1,42.246013292762235,33.40517241379309,14.40443213296397,430321.0,5168.0,0.0,1.0,0.0,?,0.0,0.0
6300000.0,11.3125,1.718443106963403E-7,6300000.0,61.3,0.0,19.542619542619537,0.0,18754.0,5168.0,0.0,1.0,0.0,?,1.0,7.0
6400000.0,11.46875,1.7373638305192196E-7,6400000.0,69.39999999999999,42.546647991197986,29.655172413793103,15.70247933884296,2302.0,5168.0,0.0,1.0,0.0,?,4.0,95.0
6500000.0,11.640625,1.7520121117639877E-7,6500000.0,63.1,0.0,16.891891891891884,0.0,31477.0,5168.0,0.0,1.0,0.0,?,3.0,103.0
6600000.0,11.8125,1.7921188070128366E-7,6600000.0,61.6,0.0,18.987341772151893,0.0,9605.0,5168.0,0.0,1.0,0.0,?,4.0,66.0
6700000.0,12.015625,1.8317908850601982E-7,6700000.0,59.8,0.0,12.987012987012974,0.0,28699.0,5168.0,0.0,1.0,0.0,?,9.0,79.0
6800000.0,12.171875,1.8564871020822066E-7,6800000.0,61.199999999999996,0.0,12.808988764044932,0.0,68699.0,5168.0,0.0,1.0,0.0,?,0.0,0.0
6900000.0,12.34375,1.8772500981059343E-7,6900000.0,61.199999999999996,0.0,18.315789473684205,0.0,108699.0,5168.0,0.0,1.0,0.0,?,0.0,0.0
7000000.0,12.484375,1.8889993144613177E-7,7000000.0,63.800000000000004,0.0,24.10901467505241,0.0,148699.0,5168.0,0.0,1.0,0.0,?,0.0,0.0
7100000.0,12.640625,1.925395271326933E-7,7100000.0,70.7,44.315633433425816,40.32586558044805,23.09711286089238,188499.0,5168.0,0.0,1.0,0.0,?,0.0,0.0
7200000.0,12.796875,1.9559704621012016E-7,7200000.0,69.0,41.75209692451071,37.11967545638944,17.989417989417973,228499.0,5168.0,0.0,1.0,0.0,?,0.0,0.0
7300000.0,12.953125,1.9807248867841235E-7,7300000.0,67.10000000000001,38.809823162248826,31.02725366876311,11.320754716981142,268499.0,5168.0,0.0,1.0,0.0,?,0.0,0.0
7400000.0,13.125,2.0016764109540322E-7,7400000.0,68.5,41.11929417922167,33.962264150943405,19.230769230769248,2847.0,5168.0,0.0,1.0,0.0,?,4.0,56.0
7500000.0,13.296875,2.0162499923672946E-7,7500000.0,71.2,45.29872971494559,38.72340425531914,28.71287128712871,42847.0,5168.0,0.0,1.0,0.0,?,0.0,20.0
7600000.0,13.4375,2.0491867972951802E-7,7600000.0,69.0,41.55001810063954,36.344969199178635,21.717171717171706,82647.0,5168.0,0.0,1.0,0.0,?,0.0,24.0
7700000.0,13.609375,2.082993806753722E-7,7700000.0,67.80000000000001,39.76354384914697,30.303030303030308,9.550561797752819,122647.0,5168.0,0.0,1.0,0.0,?,0.0,19.0
7800000.0,13.765625,2.1080101659107543E-7,7800000.0,62.5,0.0,19.354838709677413,0.0,162647.0,5168.0,0.0,1.0,0.0,?,0.0,55.0
7900000.0,13.921875,2.1271410837976474E-7,7900000.0,62.3,0.0,23.684210526315788,0.0,37259.0,5168.0,0.0,1.0,0.0,?,3.0,58.0
8000000.0,14.09375,2.141366065997217E-7,8000000.0,71.39999999999999,45.989432058104796,39.27813163481952,26.478149100257063,19570.0,5168.0,0.0,1.0,0.0,?,3.0,58.0
8100000.0,14.25,2.1778881394614782E-7,8100000.0,68.0,40.10743229332386,27.927927927927932,14.209115281501353,59370.0,5168.0,0.0,1.0,0.0,?,0.0,4.0
8200000.0,14.390625,2.2056939390798416E-7,8200000.0,60.3,0.0,20.758483033932134,0.0,21748.0,5168.0,0.0,1.0,0.0,?,4.0,50.0
8300000.0,14.5625,2.233275962579582E-7,8300000.0,59.3,0.0,15.208333333333323,0.0,61748.0,5168.0,0.0,1.0,0.0,?,0.0,0.0
8400000.0,14.734375,2.2544551433788412E-7,8400000.0,62.1,0.0,15.212527964205808,0.0,101748.0,5168.0,0.0,1.0,0.0,?,0.0,0.0
8500000.0,14.90625,2.269231481477619E-7,8500000.0,71.0,45.24272577934706,37.0932754880694,26.58227848101265,141748.0,5168.0,0.0,1.0,0.0,?,0.0,0.0
8600000.0,15.078125,2.3096191903783222E-7,8600000.0,71.8,46.69267761546139,42.68292682926828,29.850746268656714,181548.0,5168.0,0.0,1.0,0.0,?,0.0,0.0
8700000.0,15.265625,2.3466935898694733E-7,8700000.0,61.3,0.0,16.77419354838709,0.0,221548.0,5168.0,0.0,1.0,0.0,?,0.0,0.0
8800000.0,15.453125,2.3767830700510083E-7,8800000.0,60.9,0.0,13.495575221238926,0.0,261548.0,5168.0,0.0,1.0,0.0,?,0.0,0.0
8900000.0,15.625,2.3979622508502674E-7,8900000.0,61.8,0.0,18.20128479657387,0.0,301548.0,5168.0,0.0,1.0,0.0,?,0.0,13.0
9000000.0,15.78125,2.411240065056417E-7,9000000.0,69.89999999999999,43.63929146537841,35.957446808510625,18.428184281842803,341548.0,5168.0,0.0,1.0,0.0,?,0.0,8.0
9100000.0,15.9375,2.4478591512888677E-7,9100000.0,68.7,41.62277495113473,32.104121475054235,14.945652173913057,381348.0,5168.0,0.0,1.0,0.0,?,0.0,0.0
9200000.0,16.109375,2.4817373034440816E-7,9200000.0,69.19999999999999,42.084361273241456,33.6206896551724,20.618556701030915,421348.0,5168.0,0.0,1.0,0.0,?,0.0,0.0
9300000.0,16.265625,2.5067148574938386E-7,9300000.0,70.7,44.95212901868245,37.791932059447966,25.063938618925825,461348.0,5168.0,0.0,1.0,0.0,?,0.0,0.0
9400000.0,16.421875,2.525871645452249E-7,9400000.0,70.89999999999999,44.87592347035423,38.99371069182389,28.5012285012285,501348.0,5168.0,0.0,1.0,0.0,?,0.0,0.0
9500000.0,16.59375,2.5405412695060185E-7,9500000.0,62.8,0.0,21.51898734177215,0.0,541348.0,5168.0,0.0,1.0,0.0,?,0.0,0.0
9600000.0,16.75,2.577160355738469E-7,9600000.0,64.1,0.0,20.222222222222218,0.0,581148.0,5168.0,0.0,1.0,0.0,?,0.0,0.0
9700000.0,16.921875,2.611038507893683E-7,9700000.0,62.1,0.0,18.669527896995703,0.0,621148.0,5168.0,0.0,1.0,0.0,?,0.0,0.0
9800000.0,17.078125,2.63601606194344E-7,9800000.0,63.6,0.0,21.88841201716738,0.0,661148.0,5168.0,0.0,1.0,0.0,?,0.0,0.0
9900000.0,17.234375,2.65517284990185E-7,9900000.0,66.2,0.0,27.77777777777778,0.0,701148.0,5168.0,0.0,1.0,0.0,?,0.0,0.0
1.0E7,17.390625,2.6685088717689137E-7,1.0E7,69.0,41.86744276755978,34.87394957983192,17.11229946524063,741148.0,5168.0,0.0,1.0,0.0,?,0.0,0.0
