learning evaluation instances,evaluation time (cpu seconds),model cost (RAM-Hours),classified instances,classifications correct (percent),Kappa Statistic (percent),Kappa Temporal Statistic (percent),Kappa M Statistic (percent),model training instances,model serialized size (bytes),labeling cost,newThreshold,maxPosterior,accuracyBaseLearner (percent),Change detected,Warning detected
100000.0,0.34375,1.5672736076845065E-9,100000.0,82.6,64.28322173550698,63.598326359832626,59.62877030162412,9900.0,3024.0,0.0,1.0,0.0,?,0.0,11.0
200000.0,0.671875,3.1855435938470894E-9,200000.0,83.89999999999999,67.39306545690214,68.7378640776699,64.38053097345133,19800.0,3024.0,0.0,1.0,0.0,?,0.0,0.0
300000.0,1.0,4.926049667927954E-9,300000.0,85.1,69.93373314069397,69.02286902286902,67.53812636165577,29700.0,3024.0,0.0,1.0,0.0,?,0.0,0.0
400000.0,1.34375,6.8774938376413455E-9,400000.0,83.3,66.39027531798422,66.99604743083003,63.69565217391303,39600.0,3024.0,0.0,1.0,0.0,?,0.0,0.0
500000.0,1.671875,8.862472087558774E-9,500000.0,83.1,65.92769413149892,64.86486486486486,63.49892008639307,49500.0,3024.0,0.0,1.0,0.0,?,0.0,0.0
600000.0,2.0,1.0969686425394482E-8,600000.0,84.0,67.65219641586336,68.503937007874,64.60176991150442,59400.0,3024.0,0.0,1.0,0.0,?,0.0,0.0
700000.0,2.34375,1.3305301157136759E-8,700000.0,85.7,70.9484222758559,70.75664621676891,66.97459584295612,69300.0,3024.0,0.0,1.0,0.0,?,0.0,0.0
800000.0,2.671875,1.565698767080903E-8,800000.0,82.69999999999999,64.9198225308016,65.26104417670682,60.85972850678731,79200.0,3024.0,0.0,1.0,0.0,?,0.0,0.0
900000.0,3.0,1.8130910272399585E-8,900000.0,83.8,67.56107328794553,65.96638655462183,67.53507014028055,89100.0,3024.0,0.0,1.0,0.0,?,0.0,0.0
1000000.0,3.328125,2.0727068961908422E-8,1000000.0,84.3,68.32761751059108,69.45525291828794,65.64551422319474,99000.0,3024.0,0.0,1.0,0.0,?,0.0,0.0
1100000.0,3.65625,2.2210879251360896E-8,1100000.0,83.89999999999999,67.60041857844321,68.85880077369438,65.88983050847457,108910.0,3024.0,0.0,1.0,0.0,?,0.0,0.0
1200000.0,3.96875,2.3740447229809233E-8,1200000.0,84.5,68.84321907840251,68.62348178137651,66.52267818574514,118810.0,3024.0,0.0,1.0,0.0,?,0.0,0.0
1300000.0,4.3125,2.5551028860112033E-8,1300000.0,81.8,63.488274118803524,64.66019417475727,62.318840579710134,128710.0,3024.0,0.0,1.0,0.0,?,0.0,0.0
1400000.0,4.640625,2.7401547413319352E-8,1400000.0,83.0,65.97713663581926,67.8030303030303,65.86345381526102,138610.0,3024.0,0.0,1.0,0.0,?,0.0,0.0
1500000.0,4.96875,2.937430205444495E-8,1500000.0,83.8,67.5185364895157,65.6779661016949,66.10878661087865,148510.0,3024.0,0.0,1.0,0.0,?,0.0,0.0
1600000.0,5.296875,3.146929278348883E-8,1600000.0,83.89999999999999,67.76983256327922,68.7984496124031,66.59751037344398,158410.0,3024.0,0.0,1.0,0.0,?,0.0,0.0
1700000.0,5.625,3.3686519600450994E-8,1700000.0,82.5,64.73338438595782,63.00211416490485,61.45374449339206,168310.0,3024.0,0.0,1.0,0.0,?,0.0,0.0
1800000.0,5.953125,3.602598250533144E-8,1800000.0,84.7,69.1041412566739,70.1171875,66.5938864628821,178210.0,3024.0,0.0,1.0,0.0,?,0.0,0.0
1900000.0,6.3125,3.8722129021253856E-8,1900000.0,83.7,67.02514181212017,67.39999999999999,63.858093126385796,188110.0,3024.0,0.0,1.0,0.0,?,0.0,0.0
2000000.0,6.640625,4.130606410197086E-8,2000000.0,83.7,67.1683398056688,66.93711967545639,63.858093126385796,198010.0,3024.0,0.0,1.0,0.0,?,0.0,0.0
2100000.0,6.96875,4.2777650782631506E-8,2100000.0,83.5,66.85682146874497,67.19681908548706,65.11627906976743,207920.0,3024.0,0.0,1.0,0.0,?,0.0,0.0
2200000.0,7.296875,4.437147355121043E-8,2200000.0,84.0,67.96758319419251,68.44181459566074,67.14579055441477,217820.0,3024.0,0.0,1.0,0.0,?,0.0,0.0
2300000.0,7.625,4.608753240770764E-8,2300000.0,82.3,64.51056662790229,64.95049504950494,63.048016701461364,227720.0,3024.0,0.0,1.0,0.0,?,0.0,0.0
2400000.0,7.9375,4.7838289497627156E-8,2400000.0,85.7,71.30035483197662,72.23300970873787,69.5095948827292,237620.0,3024.0,0.0,1.0,0.0,?,0.0,0.0
2500000.0,8.265625,4.9798820529960924E-8,2500000.0,84.1,67.98331104918086,68.88454011741683,65.73275862068965,247520.0,3024.0,0.0,1.0,0.0,?,0.0,0.0
2600000.0,8.609375,5.198076703689165E-8,2600000.0,83.8,67.4876372744204,68.90595009596929,65.96638655462183,257420.0,3024.0,0.0,1.0,0.0,?,0.0,0.0
2700000.0,8.9375,5.418577024506198E-8,2700000.0,84.6,68.96975558645146,70.66666666666667,66.88172043010752,267320.0,3024.0,0.0,1.0,0.0,?,0.0,0.0
2800000.0,9.265625,5.65130095411506E-8,2800000.0,83.6,67.01860231271995,67.0020120724346,65.4736842105263,277220.0,3024.0,0.0,1.0,0.0,?,0.0,0.0
2900000.0,9.609375,5.9079126610110205E-8,2900000.0,83.8,67.52517801013535,67.20647773279352,66.5289256198347,287120.0,3024.0,0.0,1.0,0.0,?,0.0,0.0
3000000.0,9.9375,6.165083808203539E-8,3000000.0,85.2,70.134435399573,69.16666666666667,66.59142212189614,297020.0,3024.0,0.0,1.0,0.0,?,0.0,0.0
3100000.0,10.265625,6.311020115390421E-8,3100000.0,84.3,68.49186407751402,69.63249516441006,66.87763713080169,306930.0,3024.0,0.0,1.0,0.0,?,0.0,0.0
3200000.0,10.609375,6.476711455939545E-8,3200000.0,84.5,68.79881475755673,67.16101694915253,66.95095948827291,316830.0,3024.0,0.0,1.0,0.0,?,0.0,0.0
3300000.0,10.921875,6.638981479530533E-8,3300000.0,83.6,67.03968100842498,68.58237547892719,64.95726495726495,326730.0,3024.0,0.0,1.0,0.0,?,0.0,0.0
3400000.0,11.25,6.8215886130929E-8,3400000.0,84.3,68.48275585176857,69.2156862745098,66.52452025586354,336630.0,3024.0,0.0,1.0,0.0,?,0.0,0.0
3500000.0,11.609375,7.034974664242732E-8,3500000.0,84.3,68.34932666720425,68.28282828282828,66.16379310344827,346530.0,3024.0,0.0,1.0,0.0,?,0.0,0.0
3600000.0,11.9375,7.242029015388755E-8,3600000.0,83.6,67.10051194813114,66.66666666666666,65.97510373443983,356430.0,3024.0,0.0,1.0,0.0,?,0.0,0.0
3700000.0,12.25,7.450865167710517E-8,3700000.0,84.2,68.07242306060176,67.28778467908903,65.27472527472527,366330.0,3024.0,0.0,1.0,0.0,?,0.0,0.0
3800000.0,12.59375,7.693390620665418E-8,3800000.0,85.3,70.38392108825994,70.061099796334,68.58974358974358,376230.0,3024.0,0.0,1.0,0.0,?,0.0,0.0
3900000.0,12.921875,7.937115798186925E-8,3900000.0,85.3,70.55288461538461,70.94861660079052,69.62809917355372,386130.0,3024.0,0.0,1.0,0.0,?,0.0,0.0
4000000.0,13.25,8.19306458450026E-8,4000000.0,83.89999999999999,67.64755528048163,68.55468749999999,65.74468085106382,396030.0,3024.0,0.0,1.0,0.0,?,0.0,0.0
4100000.0,13.609375,8.351560811408692E-8,4100000.0,83.39999999999999,66.49118274013306,68.50094876660341,63.274336283185825,405940.0,3024.0,0.0,1.0,0.0,?,0.0,0.0
4200000.0,13.921875,8.501025149598717E-8,4200000.0,85.7,71.27152626545913,71.57057654075545,69.83122362869197,415840.0,3024.0,0.0,1.0,0.0,?,0.0,0.0
4300000.0,14.265625,8.678241607008708E-8,4300000.0,83.89999999999999,67.5839796403231,68.30708661417322,65.45064377682402,425740.0,3024.0,0.0,1.0,0.0,?,0.0,0.0
4400000.0,14.609375,8.868263749819662E-8,4400000.0,83.3,66.51373939267553,64.00862068965516,64.98951781970649,435640.0,3024.0,0.0,1.0,0.0,?,0.0,0.0
4500000.0,14.9375,9.061872131294674E-8,4500000.0,82.69999999999999,65.23731061367198,63.95833333333333,63.50210970464134,445540.0,3024.0,0.0,1.0,0.0,?,0.0,0.0
4600000.0,15.265625,9.267704121561514E-8,4600000.0,83.7,67.23881496965068,68.47195357833655,65.31914893617021,455440.0,3024.0,0.0,1.0,0.0,?,0.0,0.0
4700000.0,15.609375,9.496143320575356E-8,4700000.0,85.2,70.0931557782852,68.64406779661016,67.47252747252746,465340.0,3024.0,0.0,1.0,0.0,?,0.0,0.0
4800000.0,15.9375,9.726422528425853E-8,4800000.0,82.5,64.85153287486341,65.68627450980391,62.606837606837594,475240.0,3024.0,0.0,1.0,0.0,?,0.0,0.0
4900000.0,16.28125,9.980473098241621E-8,4900000.0,85.6,70.91708136754346,70.9090909090909,68.83116883116882,485140.0,3024.0,0.0,1.0,0.0,?,0.0,0.0
5000000.0,16.625,1.027585757482383E-7,5000000.0,83.5,66.87013091317966,66.66666666666666,65.62499999999999,495040.0,3024.0,0.0,1.0,0.0,?,0.0,0.0
5100000.0,16.953125,1.0446037372781171E-7,5100000.0,77.4,52.83806343906512,50.43859649122807,38.918918918918926,9351.0,3024.0,0.0,1.0,0.0,?,1.0,28.0
5200000.0,17.28125,1.062844077953034E-7,5200000.0,80.30000000000001,58.929241546095156,57.543103448275865,49.09560723514213,19251.0,3024.0,0.0,1.0,0.0,?,0.0,0.0
5300000.0,17.609375,1.0823067795071337E-7,5300000.0,77.9,54.29805115309533,54.52674897119342,44.1919191919192,29151.0,3024.0,0.0,1.0,0.0,?,0.0,0.0
5400000.0,17.9375,1.1029918419404162E-7,5400000.0,76.6,52.40807028961927,50.10660980810234,36.75675675675676,39051.0,3024.0,0.0,1.0,0.0,?,0.0,0.0
5500000.0,18.265625,1.1226446885201666E-7,5500000.0,64.4,24.443406838296156,27.789046653144016,12.53071253071254,399.0,3024.0,0.0,1.0,0.0,?,2.0,14.0
5600000.0,18.609375,1.1445139534771442E-7,5600000.0,79.80000000000001,56.71273974070503,55.798687089715536,47.53246753246754,10299.0,3024.0,0.0,1.0,0.0,?,0.0,0.0
5700000.0,18.9375,1.1666115218152603E-7,5700000.0,76.5,50.24138223087999,47.309417040358746,34.72222222222222,20199.0,3024.0,0.0,1.0,0.0,?,0.0,0.0
5800000.0,19.28125,1.192799148460229E-7,5800000.0,79.0,56.76521452688793,56.52173913043479,47.23618090452263,30099.0,3024.0,0.0,1.0,0.0,?,0.0,37.0
5900000.0,19.625,1.2202673436452944E-7,5900000.0,76.4,52.05668687328339,51.13871635610766,40.7035175879397,39999.0,3024.0,0.0,1.0,0.0,?,0.0,0.0
6000000.0,19.953125,1.2477093453829486E-7,6000000.0,79.0,57.33216301551891,55.12820512820513,48.65525672371639,49899.0,3024.0,0.0,1.0,0.0,?,0.0,0.0
6100000.0,20.28125,1.264027863120039E-7,6100000.0,78.4,55.30689267033041,51.89309576837417,43.750000000000014,59809.0,3024.0,0.0,1.0,0.0,?,0.0,0.0
6200000.0,20.609375,1.2815687417363127E-7,6200000.0,79.80000000000001,56.789040673919835,56.46551724137932,44.0443213296399,69709.0,3024.0,0.0,1.0,0.0,?,0.0,0.0
6300000.0,20.921875,1.299438493636747E-7,6300000.0,79.60000000000001,57.68916469285238,57.588357588357596,47.28682170542637,79609.0,3024.0,0.0,1.0,0.0,?,0.0,0.0
6400000.0,21.28125,1.3213274845232565E-7,6400000.0,80.30000000000001,58.072617375388425,54.71264367816093,45.73002754820938,89509.0,3024.0,0.0,1.0,0.0,?,0.0,0.0
6500000.0,21.578125,1.340515639943381E-7,6500000.0,79.5,56.3952251708031,53.82882882882883,44.44444444444445,99409.0,3024.0,0.0,1.0,0.0,?,0.0,0.0
6600000.0,21.90625,1.3629459620763857E-7,6600000.0,78.5,56.083013318081555,54.641350210970465,44.01041666666667,109309.0,3024.0,0.0,1.0,0.0,?,0.0,0.0
6700000.0,22.234375,1.3865986450885733E-7,6700000.0,79.9,58.24504549420417,56.493506493506494,50.000000000000014,119209.0,3024.0,0.0,1.0,0.0,?,0.0,0.0
6800000.0,22.5625,1.4114736889799436E-7,6800000.0,81.10000000000001,60.59347477982387,57.528089887640455,51.28865979381445,129109.0,3024.0,0.0,1.0,0.0,?,0.0,0.0
6900000.0,22.890625,1.4375710937504968E-7,6900000.0,79.7,58.10493990225862,57.26315789473685,47.68041237113403,139009.0,3024.0,0.0,1.0,0.0,?,0.0,0.0
7000000.0,23.234375,1.4661918006216487E-7,7000000.0,79.2,56.123327201849584,56.39412997903565,42.541436464088406,148909.0,3024.0,0.0,1.0,0.0,?,0.0,0.0
7100000.0,23.578125,1.4831593337779246E-7,7100000.0,79.60000000000001,57.01045657423916,58.4521384928717,46.45669291338584,158819.0,3024.0,0.0,1.0,0.0,?,0.0,0.0
7200000.0,23.890625,1.4997485171382628E-7,7200000.0,80.0,57.37934091412791,59.432048681541595,47.0899470899471,168719.0,3024.0,0.0,1.0,0.0,?,0.0,0.0
7300000.0,24.234375,1.5192771873747312E-7,7300000.0,77.8,52.4338037101633,53.459119496855344,40.161725067385454,178619.0,3024.0,0.0,1.0,0.0,?,0.0,0.0
7400000.0,24.5625,1.539140551661452E-7,7400000.0,80.0,58.46486127263667,58.07127882599582,48.71794871794874,188519.0,3024.0,0.0,1.0,0.0,?,0.0,0.0
7500000.0,24.890625,1.5602262768273555E-7,7500000.0,77.8,54.48133324585002,52.76595744680851,45.04950495049506,198419.0,3024.0,0.0,1.0,0.0,?,0.0,0.0
7600000.0,25.21875,1.5825343628724417E-7,7600000.0,76.3,50.989312775038876,51.33470225872691,40.151515151515156,208319.0,3024.0,0.0,1.0,0.0,?,0.0,0.0
7700000.0,25.546875,1.606064809796711E-7,7700000.0,77.8,52.77078085642318,51.948051948051955,37.64044943820225,218219.0,3024.0,0.0,1.0,0.0,?,0.0,0.0
7800000.0,25.875,1.630817617600163E-7,7800000.0,80.7,59.538784067085956,58.49462365591399,48.533333333333346,228119.0,3024.0,0.0,1.0,0.0,?,0.0,0.0
7900000.0,26.203125,1.656792786282798E-7,7900000.0,80.10000000000001,57.835052420140876,59.71659919028342,47.21485411140585,238019.0,3024.0,0.0,1.0,0.0,?,0.0,0.0
8000000.0,26.546875,1.68528543629994E-7,8000000.0,78.4,54.560562775844744,54.14012738853503,44.47300771208227,247919.0,3024.0,0.0,1.0,0.0,?,0.0,0.0
8100000.0,26.875,1.701359481861194E-7,8100000.0,77.5,52.7937696168113,49.32432432432432,39.67828418230563,257829.0,3024.0,0.0,1.0,0.0,?,0.0,0.0
8200000.0,27.1875,1.7178322498997054E-7,8200000.0,79.60000000000001,57.28160219120253,59.28143712574852,48.61460957178843,267729.0,3024.0,0.0,1.0,0.0,?,0.0,0.0
8300000.0,27.53125,1.737232863282164E-7,8300000.0,78.10000000000001,54.50768591607812,54.37500000000001,46.1916461916462,277629.0,3024.0,0.0,1.0,0.0,?,0.0,0.0
8400000.0,27.859375,1.7569739914809665E-7,8400000.0,78.7,55.18770670459232,52.348993288590606,43.79947229551452,287529.0,3024.0,0.0,1.0,0.0,?,0.0,0.0
8500000.0,28.1875,1.7779374805589517E-7,8500000.0,77.5,53.109369789929985,51.19305856832972,43.03797468354431,297429.0,3024.0,0.0,1.0,0.0,?,0.0,0.0
8600000.0,28.53125,1.8011797995616992E-7,8600000.0,77.7,53.523463356481294,54.67479674796748,44.52736318407961,307329.0,3024.0,0.0,1.0,0.0,?,0.0,0.0
8700000.0,28.859375,1.8245880103980502E-7,8700000.0,78.60000000000001,55.11010609957167,53.97849462365591,44.70284237726099,317229.0,3024.0,0.0,1.0,0.0,?,0.0,0.0
8800000.0,29.171875,1.8480456977461776E-7,8800000.0,78.3,54.786391745703675,51.991150442477874,44.50127877237853,327129.0,3024.0,0.0,1.0,0.0,?,0.0,0.0
8900000.0,29.515625,1.875129722369214E-7,8900000.0,79.5,57.07525440763852,56.102783725910065,46.335078534031425,337029.0,3024.0,0.0,1.0,0.0,?,0.0,0.0
9000000.0,29.84375,1.9022050158431134E-7,9000000.0,79.0,55.15675915763041,55.319148936170215,43.08943089430895,346929.0,3024.0,0.0,1.0,0.0,?,0.0,0.0
9100000.0,30.15625,1.9173972153415284E-7,9100000.0,80.30000000000001,58.19397993311037,57.26681127982647,46.467391304347835,356839.0,3024.0,0.0,1.0,0.0,?,0.0,0.0
9200000.0,30.515625,1.9362070209657154E-7,9200000.0,77.8,53.69134236699821,52.1551724137931,42.78350515463919,366739.0,3024.0,0.0,1.0,0.0,?,0.0,0.0
9300000.0,30.84375,1.9546035521974168E-7,9300000.0,81.10000000000001,60.58459921419457,59.87261146496816,51.662404092071625,376639.0,3024.0,0.0,1.0,0.0,?,0.0,0.0
9400000.0,31.1875,1.975156677265962E-7,9400000.0,79.9,58.1497613911769,57.8616352201258,50.614250614250636,386539.0,3024.0,0.0,1.0,0.0,?,0.0,0.0
9500000.0,31.515625,1.995997930256029E-7,9500000.0,78.60000000000001,54.49751649996599,54.852320675105496,42.4731182795699,396439.0,3024.0,0.0,1.0,0.0,?,0.0,0.0
9600000.0,31.84375,2.018061544125279E-7,9600000.0,80.80000000000001,58.58695230165956,57.333333333333336,46.518105849582184,406339.0,3024.0,0.0,1.0,0.0,?,0.0,0.0
9700000.0,32.15625,2.04023866293331E-7,9700000.0,78.10000000000001,54.11229287671922,53.00429184549357,42.21635883905014,416239.0,3024.0,0.0,1.0,0.0,?,0.0,0.0
9800000.0,32.5,2.0659140621622405E-7,9800000.0,78.2,54.15545087483178,53.21888412017167,40.10989010989012,426139.0,3024.0,0.0,1.0,0.0,?,0.0,0.0
9900000.0,32.8125,2.0904194874068102E-7,9900000.0,78.0,52.622964940994066,52.991452991452995,34.9112426035503,436039.0,3024.0,0.0,1.0,0.0,?,0.0,0.0
1.0E7,33.15625,2.1187342806822726E-7,1.0E7,79.4,56.42830552641376,56.722689075630264,44.9197860962567,445939.0,3024.0,0.0,1.0,0.0,?,0.0,13.0
