learning evaluation instances,evaluation time (cpu seconds),model cost (RAM-Hours),classified instances,classifications correct (percent),Kappa Statistic (percent),Kappa Temporal Statistic (percent),Kappa M Statistic (percent),model training instances,model serialized size (bytes),labeling cost,newThreshold,maxPosterior,accuracyBaseLearner (percent),Change detected,Warning detected,tree size (nodes),tree size (leaves),active learning leaves,tree depth,active leaf byte size estimate,inactive leaf byte size estimate,byte size estimate overhead
100000.0,0.46875,3.3483956940472126E-8,100000.0,78.2,56.21839389788844,56.400000000000006,54.86542443064183,29416.0,90208.0,0.0,1.0,0.0,?,1.0,29.0,36.0,29.0,29.0,3.0,0.0,0.0,1.0
200000.0,0.921875,8.456256990838382E-8,200000.0,81.6,63.23573486571051,63.99217221135029,61.099365750528534,59416.0,264584.0,0.0,1.0,0.0,?,0.0,0.0,103.0,79.0,79.0,4.0,0.0,0.0,1.0
300000.0,1.453125,1.777169462810788E-7,300000.0,82.5,65.126937945877,65.5511811023622,62.84501061571124,89416.0,521112.0,0.0,1.0,0.0,?,0.0,0.0,209.0,156.0,156.0,5.0,0.0,0.0,1.0
400000.0,1.96875,2.855621601661874E-7,400000.0,83.6,67.35863702406306,67.90606653620351,65.3276955602537,119416.0,666544.0,0.0,1.0,0.0,?,0.0,0.0,274.0,202.0,202.0,5.0,0.0,0.0,1.0
500000.0,2.484375,4.087336451953484E-7,500000.0,85.7,71.38603638575624,72.65774378585085,71.45708582834331,149416.0,796160.0,0.0,1.0,0.0,?,0.0,0.0,332.0,240.0,240.0,6.0,0.0,0.0,1.0
600000.0,3.03125,5.669377019835843E-7,600000.0,86.7,73.43251859723698,74.5697896749522,72.40663900414937,179416.0,1005568.0,0.0,1.0,0.0,?,0.0,0.0,433.0,310.0,310.0,6.0,0.0,0.0,1.0
700000.0,3.59375,7.546958254857196E-7,700000.0,87.5,75.0181867600387,74.69635627530364,74.64503042596348,209416.0,1192120.0,0.0,1.0,0.0,?,0.0,0.0,522.0,368.0,368.0,6.0,0.0,0.0,1.0
800000.0,4.125,9.5419611574875E-7,800000.0,89.60000000000001,79.16374491615412,78.55670103092784,77.91932059447984,239416.0,1367992.0,0.0,1.0,0.0,?,0.0,0.0,604.0,421.0,421.0,7.0,0.0,0.0,1.0
900000.0,4.6875,1.1840348856316672E-6,900000.0,89.5,78.76849163276366,79.57198443579767,76.24434389140272,269416.0,1510456.0,0.0,1.0,0.0,?,0.0,0.0,670.0,463.0,463.0,7.0,0.0,0.0,1.0
1000000.0,5.21875,1.407880918122828E-6,1000000.0,90.4,80.80621878511363,80.5668016194332,80.44806517311609,299416.0,1574632.0,0.0,1.0,0.0,?,0.0,0.0,718.0,490.0,490.0,7.0,0.0,0.0,1.0
1100000.0,5.765625,1.6785682075553469E-6,1100000.0,92.2,84.32935674018476,84.04907975460122,82.70509977827052,329116.0,1721696.0,0.0,1.0,0.0,?,0.0,0.0,799.0,544.0,544.0,7.0,0.0,0.0,1.0
1200000.0,6.296875,1.953016617335379E-6,1200000.0,92.2,84.40523983941397,84.61538461538463,83.36886993603412,359116.0,1820112.0,0.0,1.0,0.0,?,0.0,0.0,857.0,579.0,579.0,7.0,0.0,0.0,1.0
1300000.0,6.890625,2.278203933706714E-6,1300000.0,92.5,85.00215968900478,85.49323017408125,84.59958932238195,389116.0,1954824.0,0.0,1.0,0.0,?,0.0,0.0,921.0,617.0,617.0,7.0,0.0,0.0,1.0
1400000.0,7.421875,2.579444424352712E-6,1400000.0,92.60000000000001,85.20307775982596,84.89795918367348,84.38818565400845,419116.0,2044408.0,0.0,1.0,0.0,?,0.0,0.0,976.0,649.0,649.0,8.0,0.0,0.0,1.0
1500000.0,7.984375,2.9016564237988657E-6,1500000.0,92.80000000000001,85.55997224305777,85.27607361963192,84.58244111349038,449116.0,2081680.0,0.0,1.0,0.0,?,0.0,0.0,1019.0,672.0,672.0,8.0,0.0,0.0,1.0
1600000.0,8.53125,3.228628904455238E-6,1600000.0,94.5,88.99471746438289,89.32038834951456,88.42105263157893,479116.0,2193320.0,0.0,1.0,0.0,?,0.0,0.0,1077.0,707.0,707.0,8.0,0.0,0.0,1.0
1700000.0,9.125,3.606181514138977E-6,1700000.0,92.7,85.38948042590665,85.4,84.79166666666667,509116.0,2354712.0,0.0,1.0,0.0,?,0.0,0.0,1147.0,751.0,751.0,8.0,0.0,0.0,1.0
1800000.0,9.703125,3.988716376221014E-6,1800000.0,93.89999999999999,87.77506112469436,88.06262230919765,87.02127659574467,539116.0,2469200.0,0.0,1.0,0.0,?,0.0,0.0,1212.0,791.0,791.0,8.0,0.0,0.0,1.0
1900000.0,10.34375,4.433559952303767E-6,1900000.0,93.5,87.00051997920085,86.05150214592275,87.0775347912525,569116.0,2610256.0,0.0,1.0,0.0,?,0.0,0.0,1282.0,835.0,835.0,8.0,0.0,0.0,1.0
2000000.0,10.953125,4.865757752365122E-6,2000000.0,96.1,92.17093852380034,91.7372881355932,91.66666666666666,599116.0,2682512.0,0.0,1.0,0.0,?,0.0,0.0,1330.0,862.0,862.0,8.0,0.0,0.0,1.0
2100000.0,11.578125,5.340777538044171E-6,2100000.0,94.5,88.98281318857416,89.02195608782434,88.39662447257382,628816.0,2741584.0,0.0,1.0,0.0,?,0.0,0.0,1377.0,890.0,890.0,8.0,0.0,0.0,1.0
2200000.0,12.328125,5.92251266223482E-6,2200000.0,94.6,89.19585120686342,88.81987577639751,88.95705521472391,658816.0,2816720.0,0.0,1.0,0.0,?,0.0,0.0,1433.0,921.0,921.0,8.0,0.0,0.0,1.0
2300000.0,13.0,6.453534167829073E-6,2300000.0,94.6,89.11641405998064,88.65546218487394,88.05309734513274,688816.0,2888504.0,0.0,1.0,0.0,?,0.0,0.0,1468.0,943.0,943.0,9.0,0.0,0.0,1.0
2400000.0,13.796875,7.097122983800041E-6,2400000.0,95.39999999999999,90.76464706898005,90.87301587301586,90.14989293361883,718816.0,2970176.0,0.0,1.0,0.0,?,0.0,0.0,1509.0,968.0,968.0,9.0,0.0,0.0,1.0
2500000.0,14.53125,7.70099186209134E-6,2500000.0,95.39999999999999,90.7928183983507,91.15384615384615,90.55441478439424,748816.0,3041728.0,0.0,1.0,0.0,?,0.0,0.0,1553.0,996.0,996.0,9.0,0.0,0.0,1.0
2600000.0,15.25,8.298191662308656E-6,2600000.0,95.5,90.97834803528467,90.77868852459015,90.54621848739495,778816.0,3089928.0,0.0,1.0,0.0,?,0.0,0.0,1593.0,1019.0,1019.0,9.0,0.0,0.0,1.0
2700000.0,15.90625,8.851618266716185E-6,2700000.0,96.0,91.99372307889385,91.61425576519915,91.76954732510288,808816.0,3152776.0,0.0,1.0,0.0,?,0.0,0.0,1640.0,1044.0,1044.0,9.0,0.0,0.0,1.0
2800000.0,16.546875,9.402738618923144E-6,2800000.0,94.69999999999999,89.39957598303931,90.22140221402212,89.18367346938774,838816.0,3233136.0,0.0,1.0,0.0,?,0.0,0.0,1693.0,1075.0,1075.0,9.0,0.0,0.0,1.0
2900000.0,17.203125,9.978428489476856E-6,2900000.0,97.39999999999999,94.77592747379926,94.921875,94.39655172413792,868816.0,3313512.0,0.0,1.0,0.0,?,0.0,0.0,1749.0,1109.0,1109.0,9.0,0.0,0.0,1.0
3000000.0,17.890625,1.0590033715642574E-5,3000000.0,97.1,94.20027838663744,94.21157684630738,94.25742574257426,898816.0,3376128.0,0.0,1.0,0.0,?,0.0,0.0,1792.0,1132.0,1132.0,9.0,0.0,0.0,1.0
3100000.0,18.53125,1.1192448210850771E-5,3100000.0,95.8,91.60026879139866,91.61676646706586,91.42857142857143,928516.0,3435048.0,0.0,1.0,0.0,?,0.0,0.0,1830.0,1154.0,1154.0,9.0,0.0,0.0,1.0
3200000.0,19.1875,1.1820353263626908E-5,3200000.0,96.6,93.16299814596596,93.11740890688259,92.59259259259258,958516.0,3513496.0,0.0,1.0,0.0,?,0.0,0.0,1871.0,1179.0,1179.0,9.0,0.0,0.0,1.0
3300000.0,19.828125,1.2439356683494729E-5,3300000.0,94.89999999999999,89.73272883935545,89.61303462321791,88.93709327548805,988516.0,3564976.0,0.0,1.0,0.0,?,0.0,0.0,1906.0,1201.0,1201.0,9.0,0.0,0.0,1.0
3400000.0,20.640625,1.323247202284013E-5,3400000.0,96.39999999999999,92.79065669107163,92.35668789808916,92.25806451612902,1018516.0,3618136.0,0.0,1.0,0.0,?,0.0,0.0,1932.0,1214.0,1214.0,9.0,2912.2323651452284,0.0,1.0251496050426872
3500000.0,21.296875,1.3879797673628974E-5,3500000.0,96.3,92.54393035627922,92.35537190082644,91.83222958057394,1048516.0,3672736.0,0.0,1.0,0.0,?,0.0,0.0,1962.0,1232.0,1232.0,9.0,2912.2323651452284,0.0,1.0251496050426872
3600000.0,21.984375,1.4563136080849086E-5,3600000.0,96.0,91.98036794071888,91.68399168399168,91.64926931106471,1078516.0,3716872.0,0.0,1.0,0.0,?,0.0,0.0,1987.0,1246.0,1246.0,9.0,2912.2323651452284,0.0,1.0251496050426872
3700000.0,22.671875,1.5253110678814764E-5,3700000.0,96.5,92.99943995519641,92.95774647887323,92.90060851926977,1108516.0,3769048.0,0.0,1.0,0.0,?,0.0,0.0,2030.0,1269.0,1269.0,9.0,2912.2323651452284,0.0,1.0251496050426872
3800000.0,23.296875,1.5883216369224505E-5,3800000.0,96.0,91.99932794354724,91.91919191919192,91.9517102615694,1138516.0,3801760.0,0.0,1.0,0.0,?,0.0,0.0,2062.0,1288.0,1288.0,9.0,2912.2323651452284,0.0,1.0251496050426872
3900000.0,23.96875,1.6566153175921905E-5,3900000.0,96.3,92.54885534307485,92.43353783231083,91.74107142857142,1168516.0,3848768.0,0.0,1.0,0.0,?,0.0,0.0,2100.0,1310.0,1310.0,9.0,2912.2323651452284,0.0,1.0251496050426872
4000000.0,24.65625,1.7277150440754164E-5,4000000.0,96.7,93.39587902851379,93.41317365269461,93.22381930184804,1198516.0,3931968.0,0.0,1.0,0.0,?,0.0,0.0,2130.0,1325.0,1325.0,9.0,2912.2323651452284,0.0,1.0251496050426872
4100000.0,25.328125,1.8008721947100844E-5,4100000.0,97.7,95.35263404619886,95.43650793650794,94.86607142857142,1228216.0,4006080.0,0.0,1.0,0.0,?,0.0,0.0,2163.0,1346.0,1346.0,9.0,2912.2323651452284,0.0,1.0251496050426872
4200000.0,26.015625,1.876569162252256E-5,4200000.0,96.89999999999999,93.76693984895887,93.92156862745098,93.27548806941431,1258216.0,4068112.0,0.0,1.0,0.0,?,0.0,0.0,2192.0,1362.0,1362.0,9.0,2912.2323651452284,0.0,1.0251496050426872
4300000.0,26.71875,1.9544008084469375E-5,4300000.0,95.89999999999999,91.79218616122547,91.31355932203388,91.51138716356107,1288216.0,4105880.0,0.0,1.0,0.0,?,0.0,0.0,2219.0,1377.0,1377.0,9.0,2912.2323651452284,0.0,1.0251496050426872
4400000.0,27.390625,2.0294095706453344E-5,4400000.0,96.89999999999999,93.78124423260553,94.06130268199233,93.41825902335455,1318216.0,4157440.0,0.0,1.0,0.0,?,0.0,0.0,2233.0,1384.0,1384.0,9.0,2912.2323651452284,0.0,1.0251496050426872
4500000.0,28.078125,2.106860205660471E-5,4500000.0,98.3,96.59141035409232,96.2555066079295,96.38297872340425,1348216.0,4211576.0,0.0,1.0,0.0,?,0.0,0.0,2269.0,1405.0,1405.0,9.0,2912.2323651452284,0.0,1.0251496050426872
4600000.0,28.8125,2.190987867329063E-5,4600000.0,97.39999999999999,94.80101900027596,95.0381679389313,94.7261663286004,1378216.0,4299920.0,0.0,1.0,0.0,?,0.0,0.0,2302.0,1426.0,1426.0,9.0,2912.2323651452284,0.0,1.0251496050426872
4700000.0,29.515625,2.2722640973774515E-5,4700000.0,97.1,94.19986079665912,94.18837675350701,93.99585921325051,1408216.0,4354944.0,0.0,1.0,0.0,?,0.0,0.0,2328.0,1442.0,1442.0,9.0,2912.2323651452284,0.0,1.0251496050426872
4800000.0,30.203125,2.352111245272682E-5,4800000.0,96.6,93.15848569117404,93.18637274549097,92.59259259259258,1438216.0,4391192.0,0.0,1.0,0.0,?,0.0,0.0,2345.0,1452.0,1452.0,9.0,2912.2323651452284,0.0,1.0251496050426872
4900000.0,30.90625,2.4343802069779493E-5,4900000.0,97.6,95.19377112738108,95.30332681017613,95.0207468879668,1468216.0,4439528.0,0.0,1.0,0.0,?,0.0,0.0,2375.0,1470.0,1470.0,9.0,2912.2323651452284,0.0,1.0251496050426872
5000000.0,31.640625,2.5211012171995318E-5,5000000.0,97.5,94.98905609851917,95.03968253968253,94.72573839662446,1498216.0,4495168.0,0.0,1.0,0.0,?,0.0,0.0,2410.0,1489.0,1489.0,9.0,2912.2323651452284,0.0,1.0251496050426872
5100000.0,32.328125,2.526731450214155E-5,5100000.0,76.7,49.93596960919975,50.63559322033898,42.75184275184276,28632.0,128552.0,0.0,1.0,0.0,?,1.0,26.0,40.0,31.0,31.0,4.0,0.0,0.0,1.0
5200000.0,32.828125,2.5325179643308132E-5,5200000.0,82.39999999999999,62.81192553933271,65.21739130434781,56.10972568578553,58632.0,274016.0,0.0,1.0,0.0,?,0.0,0.0,98.0,69.0,69.0,4.0,0.0,0.0,1.0
5300000.0,33.375,2.5405666448124177E-5,5300000.0,83.89999999999999,66.12295054371612,66.45833333333333,60.635696821515886,88632.0,410360.0,0.0,1.0,0.0,?,0.0,0.0,145.0,103.0,103.0,5.0,0.0,0.0,1.0
5400000.0,33.90625,2.5510193825337217E-5,5400000.0,85.5,69.24734466727747,71.05788423153693,63.38383838383837,118632.0,616376.0,0.0,1.0,0.0,?,0.0,0.0,228.0,155.0,155.0,6.0,0.0,0.0,1.0
5500000.0,34.421875,2.5625307332827823E-5,5500000.0,84.5,67.01453913990943,67.70833333333333,61.34663341645885,148632.0,733424.0,0.0,1.0,0.0,?,0.0,0.0,278.0,183.0,183.0,6.0,0.0,0.0,1.0
5600000.0,34.921875,2.5747681049526574E-5,5600000.0,86.5,71.78777721121133,72.83702213279678,67.70334928229666,178632.0,831304.0,0.0,1.0,0.0,?,0.0,0.0,319.0,208.0,208.0,7.0,0.0,0.0,1.0
5700000.0,35.453125,2.58914367037101E-5,5700000.0,86.7,72.16175485599464,73.23943661971832,68.33333333333333,208632.0,946008.0,0.0,1.0,0.0,?,0.0,0.0,368.0,240.0,240.0,7.0,0.0,0.0,1.0
5800000.0,35.984375,2.605467730770923E-5,5800000.0,89.5,77.47264535507402,78.35051546391753,72.86821705426357,238632.0,1102424.0,0.0,1.0,0.0,?,0.0,0.0,419.0,273.0,273.0,7.0,0.0,0.0,1.0
5900000.0,36.546875,2.6243754416807666E-5,5900000.0,88.6,76.40415949132336,76.78207739307535,73.61111111111111,268632.0,1228576.0,0.0,1.0,0.0,?,0.0,0.0,480.0,308.0,308.0,7.0,0.0,0.0,1.0
6000000.0,37.140625,2.6471820051988803E-5,6000000.0,88.7,76.40898880157663,77.1255060728745,72.50608272506082,298632.0,1428504.0,0.0,1.0,0.0,?,0.0,0.0,572.0,369.0,369.0,7.0,0.0,0.0,1.0
6100000.0,37.75,2.6754176198867056E-5,6100000.0,89.0,76.99081724433661,76.98744769874477,73.49397590361446,328332.0,1597128.0,0.0,1.0,0.0,?,0.0,0.0,654.0,419.0,419.0,7.0,0.0,0.0,1.0
6200000.0,38.3125,2.7032847703796716E-5,6200000.0,89.2,77.59252420214862,78.26961770623743,74.46808510638299,358332.0,1735672.0,0.0,1.0,0.0,?,0.0,0.0,711.0,452.0,452.0,7.0,0.0,0.0,1.0
6300000.0,38.90625,2.7340955534277285E-5,6300000.0,92.0,83.35608002396725,83.70672097759675,81.04265402843603,388332.0,1841208.0,0.0,1.0,0.0,?,0.0,0.0,761.0,480.0,480.0,7.0,0.0,0.0,1.0
6400000.0,39.46875,2.7643622565341916E-5,6400000.0,93.10000000000001,85.54065381391452,85.97560975609757,82.96296296296298,418332.0,1929936.0,0.0,1.0,0.0,?,0.0,0.0,807.0,503.0,503.0,8.0,0.0,0.0,1.0
6500000.0,40.0625,2.7975935857587815E-5,6500000.0,92.10000000000001,83.27263487761498,83.7782340862423,80.00000000000001,448332.0,2028208.0,0.0,1.0,0.0,?,0.0,0.0,853.0,529.0,529.0,8.0,0.0,0.0,1.0
6600000.0,40.671875,2.8332019768034427E-5,6600000.0,93.0,85.27438036696246,84.61538461538463,82.63027295285362,478332.0,2138192.0,0.0,1.0,0.0,?,0.0,0.0,910.0,562.0,562.0,8.0,0.0,0.0,1.0
6700000.0,41.296875,2.8710694233369506E-5,6700000.0,93.7,86.74331694835365,86.42241379310346,84.40594059405943,508332.0,2236280.0,0.0,1.0,0.0,?,0.0,0.0,981.0,608.0,608.0,8.0,0.0,0.0,1.0
6800000.0,41.9375,2.911704731458385E-5,6800000.0,92.2,83.57203032855939,84.08163265306123,80.50000000000001,538332.0,2360784.0,0.0,1.0,0.0,?,0.0,0.0,1047.0,647.0,647.0,8.0,0.0,0.0,1.0
6900000.0,42.609375,2.9569646479406714E-5,6900000.0,91.7,82.17537710888912,81.75824175824177,78.5529715762274,568332.0,2527272.0,0.0,1.0,0.0,?,0.0,0.0,1115.0,687.0,687.0,8.0,0.0,0.0,1.0
7000000.0,43.28125,3.0041908935850704E-5,7000000.0,92.80000000000001,84.70948012232417,84.8421052631579,81.81818181818184,598332.0,2654992.0,0.0,1.0,0.0,?,0.0,0.0,1180.0,724.0,724.0,9.0,0.0,0.0,1.0
7100000.0,44.015625,3.060299508635784E-5,7100000.0,95.0,89.66788447868277,90.07936507936508,88.03827751196171,628032.0,2753888.0,0.0,1.0,0.0,?,0.0,0.0,1229.0,753.0,753.0,9.0,0.0,0.0,1.0
7200000.0,44.71875,3.114205477888594E-5,7200000.0,93.5,86.24781022824405,87.20472440944883,83.502538071066,658032.0,2779160.0,0.0,1.0,0.0,?,0.0,0.0,1244.0,762.0,762.0,9.0,0.0,0.0,1.0
7300000.0,45.40625,3.16860047233705E-5,7300000.0,93.30000000000001,85.96741088258703,86.49193548387098,83.33333333333334,688032.0,2888744.0,0.0,1.0,0.0,?,0.0,0.0,1285.0,787.0,787.0,9.0,0.0,0.0,1.0
7400000.0,46.09375,3.2237669381882175E-5,7400000.0,94.1,87.57894736842104,87.70833333333331,85.24999999999999,718032.0,2947008.0,0.0,1.0,0.0,?,0.0,0.0,1318.0,805.0,805.0,9.0,0.0,0.0,1.0
7500000.0,46.75,3.277398157580239E-5,7500000.0,93.60000000000001,86.892498003154,87.42632612966602,85.15081206496521,748032.0,3019152.0,0.0,1.0,0.0,?,0.0,0.0,1354.0,826.0,826.0,9.0,0.0,0.0,1.0
7600000.0,47.40625,3.331968693398975E-5,7600000.0,94.19999999999999,87.97159637654708,87.9668049792531,86.0576923076923,778032.0,3089360.0,0.0,1.0,0.0,?,0.0,0.0,1388.0,846.0,846.0,9.0,0.0,0.0,1.0
7700000.0,48.0625,3.387422452861858E-5,7700000.0,94.39999999999999,88.54519941580517,88.50102669404517,87.06697459584295,808032.0,3156224.0,0.0,1.0,0.0,?,0.0,0.0,1436.0,873.0,873.0,9.0,0.0,0.0,1.0
7800000.0,48.65625,3.439112382087236E-5,7800000.0,93.30000000000001,86.25562083565826,86.91406250000001,84.34579439252337,838032.0,3269752.0,0.0,1.0,0.0,?,0.0,0.0,1473.0,896.0,896.0,9.0,0.0,0.0,1.0
7900000.0,49.296875,3.4966119920783167E-5,7900000.0,95.39999999999999,90.4485049833887,90.49586776859503,88.72549019607843,868032.0,3388792.0,0.0,1.0,0.0,?,0.0,0.0,1532.0,933.0,933.0,9.0,0.0,0.0,1.0
8000000.0,49.890625,3.550635712195395E-5,8000000.0,95.3,90.14493239842989,89.89247311827955,88.13131313131312,898032.0,3451256.0,0.0,1.0,0.0,?,0.0,0.0,1568.0,951.0,951.0,9.0,0.0,0.0,1.0
8100000.0,50.46875,3.605961447141858E-5,8100000.0,95.89999999999999,91.57197125425512,91.40461215932913,90.33018867924527,927732.0,3496168.0,0.0,1.0,0.0,?,0.0,0.0,1597.0,967.0,967.0,9.0,0.0,0.0,1.0
8200000.0,51.15625,3.671807996902822E-5,8200000.0,95.5,90.67604863373032,90.54621848739495,89.13043478260869,957732.0,3514264.0,0.0,1.0,0.0,?,0.0,0.0,1613.0,975.0,975.0,9.0,0.0,0.0,1.0
8300000.0,51.796875,3.7336218940456296E-5,8300000.0,95.39999999999999,90.31546325770972,90.21276595744679,88.3248730964467,987732.0,3556832.0,0.0,1.0,0.0,?,0.0,0.0,1641.0,992.0,992.0,9.0,0.0,0.0,1.0
8400000.0,52.5625,3.808265859131805E-5,8400000.0,94.0,86.99947997919915,86.63697104677058,83.78378378378378,1017732.0,3610576.0,0.0,1.0,0.0,?,0.0,0.0,1664.0,1005.0,1005.0,9.0,3508.232,0.0,1.0233781574308654
8500000.0,53.265625,3.87706454946763E-5,8500000.0,93.7,86.8699668206146,86.87500000000001,84.74576271186443,1047732.0,3639192.0,0.0,1.0,0.0,?,0.0,0.0,1703.0,1026.0,1026.0,9.0,3508.232,0.0,1.0233781574308654
8600000.0,53.953125,3.944761236198247E-5,8600000.0,95.19999999999999,90.05700649608909,89.6328293736501,88.3495145631068,1077732.0,3678200.0,0.0,1.0,0.0,?,0.0,0.0,1711.0,1030.0,1030.0,9.0,3508.232,0.0,1.0233781574308654
8700000.0,54.671875,4.01551169084592E-5,8700000.0,94.1,87.93238865071832,88.03245436105476,86.49885583524026,1107732.0,3692056.0,0.0,1.0,0.0,?,0.0,0.0,1732.0,1042.0,1042.0,9.0,3508.232,0.0,1.0233781574308654
8800000.0,55.40625,4.087895798471032E-5,8800000.0,94.39999999999999,88.48040022380935,88.23529411764704,87.03703703703702,1137732.0,3712144.0,0.0,1.0,0.0,?,0.0,0.0,1755.0,1055.0,1055.0,9.0,3508.232,0.0,1.0233781574308654
8900000.0,56.140625,4.161155957262963E-5,8900000.0,94.1,87.81575773596127,88.29365079365078,86.18266978922715,1167732.0,3773168.0,0.0,1.0,0.0,?,0.0,0.0,1778.0,1068.0,1068.0,9.0,3508.232,0.0,1.0233781574308654
9000000.0,56.84375,4.231328930472955E-5,9000000.0,94.5,88.59517430720867,88.68312757201645,86.68280871670702,1197732.0,3789952.0,0.0,1.0,0.0,?,0.0,0.0,1782.0,1070.0,1070.0,9.0,3508.232,0.0,1.0233781574308654
9100000.0,57.578125,4.3081037810124047E-5,9100000.0,94.39999999999999,88.17941952506595,88.52459016393442,85.82278481012658,1227432.0,3836104.0,0.0,1.0,0.0,?,0.0,0.0,1814.0,1089.0,1089.0,9.0,3508.232,0.0,1.0233781574308654
9200000.0,58.296875,4.3840378283574767E-5,9200000.0,93.89999999999999,87.12971558781331,87.13080168776371,84.55696202531644,1257432.0,3893680.0,0.0,1.0,0.0,?,0.0,0.0,1833.0,1100.0,1100.0,9.0,3508.232,0.0,1.0233781574308654
9300000.0,59.015625,4.459885450261128E-5,9300000.0,94.89999999999999,89.19436581521093,89.28571428571428,86.82170542635657,1287432.0,3904168.0,0.0,1.0,0.0,?,0.0,0.0,1841.0,1104.0,1104.0,9.0,3508.232,0.0,1.0233781574308654
9400000.0,59.75,4.53784731669455E-5,9400000.0,94.19999999999999,87.98475306595955,88.39999999999999,85.85365853658536,1317432.0,3943704.0,0.0,1.0,0.0,?,0.0,0.0,1863.0,1118.0,1118.0,9.0,3508.232,0.0,1.0233781574308654
9500000.0,60.53125,4.620915954648E-5,9500000.0,93.30000000000001,85.9548206409633,85.83509513742072,83.2917705735661,1347432.0,3965256.0,0.0,1.0,0.0,?,0.0,0.0,1880.0,1128.0,1128.0,9.0,3508.232,0.0,1.0233781574308654
9600000.0,61.34375,4.7077018308401524E-5,9600000.0,94.3,88.22800495662948,88.10020876826721,86.4608076009501,1377432.0,3999088.0,0.0,1.0,0.0,?,0.0,0.0,1904.0,1143.0,1143.0,9.0,3508.232,0.0,1.0233781574308654
9700000.0,62.109375,4.789900574703805E-5,9700000.0,93.8,87.19685455626774,87.3469387755102,85.16746411483253,1407432.0,4035288.0,0.0,1.0,0.0,?,0.0,0.0,1916.0,1149.0,1149.0,9.0,3508.232,0.0,1.0233781574308654
9800000.0,62.828125,4.867152870348138E-5,9800000.0,94.89999999999999,88.85781700602988,88.76651982378854,85.83333333333331,1437432.0,4055008.0,0.0,1.0,0.0,?,0.0,0.0,1946.0,1167.0,1167.0,9.0,3508.232,0.0,1.0233781574308654
9900000.0,63.515625,4.9413601098219976E-5,9900000.0,94.3,88.17868845659297,87.68898488120949,86.3961813842482,1467432.0,4087680.0,0.0,1.0,0.0,?,0.0,0.0,1967.0,1179.0,1179.0,10.0,3508.232,0.0,1.0233781574308654
1.0E7,64.25,5.0209780230135145E-5,1.0E7,94.89999999999999,89.39303184586203,89.21775898520083,87.62135922330097,1497432.0,4121144.0,0.0,1.0,0.0,?,0.0,0.0,1989.0,1190.0,1190.0,10.0,3508.232,0.0,1.0233781574308654
