learning evaluation instances,evaluation time (cpu seconds),model cost (RAM-Hours),classified instances,classifications correct (percent),Kappa Statistic (percent),Kappa Temporal Statistic (percent),Kappa M Statistic (percent),model training instances,model serialized size (bytes),labeling cost,newThreshold,maxPosterior,accuracyBaseLearner (percent),Change detected,Warning detected,tree size (nodes),tree size (leaves),active learning leaves,tree depth,active leaf byte size estimate,inactive leaf byte size estimate,byte size estimate overhead
100000.0,0.203125,4.1071972292330525E-9,100000.0,88.2,73.36583604189238,72.42990654205607,65.29411764705883,9950.0,7448.0,0.0,1.0,0.0,?,0.0,40.0,9.0,5.0,5.0,3.0,0.0,0.0,1.0
200000.0,0.375,7.146413231061564E-9,200000.0,87.8,73.7973634133874,72.7069351230425,65.43909348441926,19950.0,16720.0,0.0,1.0,0.0,?,0.0,0.0,19.0,10.0,10.0,5.0,0.0,0.0,1.0
300000.0,0.53125,1.1382637441986136E-8,300000.0,84.8,66.9473244728968,67.0995670995671,56.32183908045975,29900.0,24176.0,0.0,1.0,0.0,?,0.0,0.0,27.0,14.0,14.0,6.0,0.0,0.0,1.0
400000.0,0.671875,1.4702802420490317E-8,400000.0,85.3,68.27383778650666,68.92177589852008,59.05292479108635,39900.0,29768.0,0.0,1.0,0.0,?,0.0,0.0,33.0,17.0,17.0,7.0,0.0,0.0,1.0
500000.0,0.8125,1.7536060315453342E-8,500000.0,86.0,69.54363309649882,70.08547008547008,60.78431372549019,49900.0,35504.0,0.0,1.0,0.0,?,0.0,0.0,41.0,21.0,21.0,8.0,0.0,0.0,1.0
600000.0,0.96875,2.2081108505113254E-8,600000.0,83.39999999999999,64.14748773239339,64.68085106382978,54.39560439560438,59850.0,41096.0,0.0,1.0,0.0,?,0.0,0.0,47.0,24.0,24.0,8.0,0.0,0.0,1.0
700000.0,1.09375,2.534384192484948E-8,700000.0,86.8,70.73105833832236,69.65517241379311,60.12084592145014,69850.0,48648.0,0.0,1.0,0.0,?,0.0,0.0,57.0,29.0,29.0,8.0,0.0,0.0,1.0
800000.0,1.234375,3.0464660893711774E-8,800000.0,83.89999999999999,65.32414387249624,63.49206349206348,53.99999999999999,79800.0,59472.0,0.0,1.0,0.0,?,0.0,0.0,69.0,35.0,35.0,9.0,0.0,0.0,1.0
900000.0,1.390625,3.56787738079826E-8,900000.0,84.8,66.63959791936439,67.79661016949152,56.19596541786742,89800.0,66808.0,0.0,1.0,0.0,?,0.0,0.0,77.0,39.0,39.0,10.0,0.0,0.0,1.0
1000000.0,1.53125,3.9879038619498406E-8,1000000.0,84.6,66.60826727263265,65.77777777777777,55.49132947976878,99800.0,72400.0,0.0,1.0,0.0,?,0.0,0.0,83.0,42.0,42.0,10.0,0.0,0.0,1.0
1100000.0,1.671875,4.5405273946623004E-8,1100000.0,84.1,66.82329964194203,68.32669322709162,58.80829015544041,109750.0,79856.0,0.0,1.0,0.0,?,0.0,0.0,91.0,46.0,46.0,10.0,0.0,0.0,1.0
1200000.0,1.8125,5.032585856194297E-8,1200000.0,86.9,72.0334062030332,71.01769911504424,63.50974930362116,119750.0,82368.0,0.0,1.0,0.0,?,0.0,0.0,97.0,49.0,49.0,10.0,0.0,0.0,1.0
1300000.0,1.96875,5.7398412738823225E-8,1300000.0,85.6,69.1495560963905,69.2963752665245,60.655737704918025,129700.0,93048.0,0.0,1.0,0.0,?,0.0,0.0,107.0,54.0,54.0,11.0,0.0,0.0,1.0
1400000.0,2.15625,6.514468825318746E-8,1400000.0,84.39999999999999,67.12065455189246,66.08695652173913,59.68992248062015,139700.0,96920.0,0.0,1.0,0.0,?,0.0,0.0,113.0,57.0,57.0,11.0,0.0,0.0,1.0
1500000.0,2.328125,7.16435735941761E-8,1500000.0,84.39999999999999,66.0071472152009,65.02242152466367,54.38596491228069,149700.0,102512.0,0.0,1.0,0.0,?,0.0,0.0,119.0,60.0,60.0,11.0,0.0,0.0,1.0
1600000.0,2.46875,7.816923445918493E-8,1600000.0,85.1,67.71397616468039,68.49894291754757,56.93641618497109,159650.0,106768.0,0.0,1.0,0.0,?,0.0,0.0,127.0,64.0,64.0,12.0,0.0,0.0,1.0
1700000.0,2.625,8.490580108223689E-8,1700000.0,83.1,64.3568198690693,63.88888888888887,54.569892473118266,169650.0,113152.0,0.0,1.0,0.0,?,0.0,0.0,139.0,70.0,70.0,12.0,0.0,0.0,1.0
1800000.0,2.78125,9.323661086252994E-8,1800000.0,83.8,65.14629948364887,63.34841628959275,52.352941176470566,179600.0,123568.0,0.0,1.0,0.0,?,0.0,0.0,147.0,74.0,74.0,12.0,0.0,0.0,1.0
1900000.0,2.9375,1.012589200399816E-7,1900000.0,85.2,68.10770974568052,67.5438596491228,57.59312320916905,189600.0,134992.0,0.0,1.0,0.0,?,0.0,0.0,159.0,80.0,80.0,12.0,0.0,0.0,1.0
2000000.0,3.09375,1.0878969785860843E-7,2000000.0,84.39999999999999,65.07879656160458,61.951219512195124,51.249999999999986,199600.0,141944.0,0.0,1.0,0.0,?,0.0,0.0,165.0,83.0,83.0,12.0,0.0,0.0,1.0
2100000.0,3.25,1.1764114282818304E-7,2100000.0,85.8,69.86212985601739,69.97885835095137,60.989010989010985,209550.0,145672.0,0.0,1.0,0.0,?,0.0,0.0,169.0,85.0,85.0,13.0,0.0,0.0,1.0
2200000.0,3.421875,1.2693095615961485E-7,2200000.0,83.39999999999999,62.9596572652624,62.18678815489748,48.12499999999998,219550.0,154704.0,0.0,1.0,0.0,?,0.0,0.0,179.0,90.0,90.0,13.0,0.0,0.0,1.0
2300000.0,3.578125,1.368459844444361E-7,2300000.0,83.0,63.835942818243694,62.80087527352296,53.296703296703285,229500.0,162064.0,0.0,1.0,0.0,?,0.0,0.0,189.0,95.0,95.0,13.0,0.0,0.0,1.0
2400000.0,3.734375,1.4621386071667075E-7,2400000.0,85.0,67.09703741724906,65.59633027522935,55.75221238938052,239500.0,167656.0,0.0,1.0,0.0,?,0.0,0.0,195.0,98.0,98.0,13.0,0.0,0.0,1.0
2500000.0,3.875,1.540838275104761E-7,2500000.0,83.0,62.22356538434188,61.62528216704287,47.53086419753084,249500.0,171384.0,0.0,1.0,0.0,?,0.0,0.0,199.0,100.0,100.0,13.0,0.0,0.0,1.0
2600000.0,4.03125,1.640787296411064E-7,2600000.0,84.89999999999999,68.34381551362682,68.73706004140786,62.24999999999999,259450.0,173392.0,0.0,1.0,0.0,?,0.0,0.0,203.0,102.0,102.0,13.0,0.0,0.0,1.0
2700000.0,4.1875,1.7391905809442203E-7,2700000.0,84.1,66.44635214869963,68.32669322709162,55.9556786703601,269450.0,188568.0,0.0,1.0,0.0,?,0.0,0.0,221.0,111.0,111.0,14.0,0.0,0.0,1.0
2800000.0,4.375,1.8741120584309103E-7,2800000.0,84.5,65.49728430237735,64.61187214611871,51.562499999999986,279400.0,194304.0,0.0,1.0,0.0,?,0.0,0.0,229.0,115.0,115.0,14.0,0.0,0.0,1.0
2900000.0,4.53125,1.9810751028772858E-7,2900000.0,84.6,66.81949806949807,64.59770114942529,55.7471264367816,289400.0,199896.0,0.0,1.0,0.0,?,0.0,0.0,235.0,118.0,118.0,14.0,0.0,0.0,1.0
3000000.0,4.6875,2.0818034600880413E-7,3000000.0,82.5,63.10601013636018,62.84501061571124,51.6574585635359,299400.0,203624.0,0.0,1.0,0.0,?,0.0,0.0,239.0,120.0,120.0,14.0,0.0,0.0,1.0
3100000.0,4.859375,2.2072387057253058E-7,3100000.0,82.1,62.1682856104221,60.398230088495566,50.68870523415977,309350.0,207592.0,0.0,1.0,0.0,?,0.0,0.0,243.0,122.0,122.0,14.0,0.0,0.0,1.0
3200000.0,5.015625,2.3136067385267883E-7,3200000.0,82.89999999999999,64.00818340251058,63.77118644067795,54.15549597855227,319350.0,207832.0,0.0,1.0,0.0,?,0.0,0.0,243.0,122.0,122.0,14.0,0.0,0.0,1.0
3300000.0,5.1875,2.446938823494647E-7,3300000.0,82.89999999999999,63.050993949870346,62.41758241758241,50.43478260869564,329300.0,215552.0,0.0,1.0,0.0,?,0.0,0.0,253.0,127.0,127.0,14.0,0.0,0.0,1.0
3400000.0,5.390625,2.601145792545544E-7,3400000.0,83.5,63.68901955951479,62.66968325791854,50.89285714285713,339300.0,228168.0,0.0,1.0,0.0,?,0.0,0.0,269.0,135.0,135.0,15.0,0.0,0.0,1.0
3500000.0,5.59375,2.7466675318363646E-7,3500000.0,82.1,60.89038821205711,58.372093023255815,46.72619047619045,349300.0,230800.0,0.0,1.0,0.0,?,0.0,0.0,275.0,138.0,138.0,15.0,0.0,0.0,1.0
3600000.0,5.796875,2.910350061332187E-7,3600000.0,82.8,63.71308016877636,63.636363636363626,53.5135135135135,359250.0,236392.0,0.0,1.0,0.0,?,0.0,0.0,281.0,141.0,141.0,15.0,0.0,0.0,1.0
3700000.0,6.0,3.072031540796161E-7,3700000.0,83.39999999999999,63.6052706583938,61.3953488372093,50.44776119402984,369250.0,251608.0,0.0,1.0,0.0,?,0.0,0.0,289.0,145.0,145.0,15.0,0.0,0.0,1.0
3800000.0,6.171875,3.2233662851568733E-7,3800000.0,84.8,68.01683324566017,68.53002070393373,59.466666666666654,379200.0,255336.0,0.0,1.0,0.0,?,0.0,0.0,293.0,147.0,147.0,15.0,0.0,0.0,1.0
3900000.0,6.40625,3.4225965565484436E-7,3900000.0,84.3,66.76911093613742,65.03340757238306,56.145251396648035,389200.0,262672.0,0.0,1.0,0.0,?,0.0,0.0,301.0,151.0,151.0,15.0,0.0,0.0,1.0
4000000.0,6.59375,3.5727994852802827E-7,4000000.0,84.5,67.4150689539186,67.23044397463002,58.33333333333333,399200.0,262936.0,0.0,1.0,0.0,?,0.0,0.0,303.0,152.0,152.0,15.0,0.0,0.0,1.0
4100000.0,6.78125,3.7406975429298157E-7,4100000.0,80.60000000000001,59.17164744507115,58.81104033970277,46.40883977900554,409150.0,270416.0,0.0,1.0,0.0,?,0.0,0.0,313.0,157.0,157.0,15.0,0.0,0.0,1.0
4200000.0,6.984375,3.9157431779636285E-7,4200000.0,82.39999999999999,62.57866984180982,61.3186813186813,51.11111111111109,419150.0,276512.0,0.0,1.0,0.0,?,0.0,0.0,321.0,161.0,161.0,15.0,0.0,0.0,1.0
4300000.0,7.1875,4.1109338376878044E-7,4300000.0,80.30000000000001,58.77143048486473,56.703296703296715,44.66292134831462,429100.0,285832.0,0.0,1.0,0.0,?,0.0,0.0,331.0,166.0,166.0,15.0,0.0,0.0,1.0
4400000.0,7.390625,4.300789765289261E-7,4400000.0,84.5,66.93939885162402,65.7079646017699,56.090651558073645,439100.0,294768.0,0.0,1.0,0.0,?,0.0,0.0,339.0,170.0,170.0,15.0,0.0,0.0,1.0
4500000.0,7.609375,4.4976577757754266E-7,4500000.0,84.6,67.14302173254418,64.84018264840181,57.10306406685236,449100.0,300480.0,0.0,1.0,0.0,?,0.0,0.0,345.0,173.0,173.0,15.0,0.0,0.0,1.0
4600000.0,7.84375,4.7307600551802255E-7,4600000.0,81.6,61.261200565923325,61.746361746361735,49.45054945054944,459050.0,308056.0,0.0,1.0,0.0,?,0.0,0.0,353.0,177.0,177.0,15.0,0.0,0.0,1.0
4700000.0,8.03125,4.909876669343147E-7,4700000.0,84.39999999999999,66.58441291383919,68.0327868852459,55.68181818181818,469050.0,312024.0,0.0,1.0,0.0,?,0.0,0.0,357.0,179.0,179.0,15.0,0.0,0.0,1.0
4800000.0,8.1875,5.073110353098147E-7,4800000.0,83.39999999999999,64.64655069599439,64.06926406926405,50.88757396449702,479000.0,317616.0,0.0,1.0,0.0,?,0.0,0.0,363.0,182.0,182.0,15.0,0.0,0.0,1.0
4900000.0,8.359375,5.250821252250009E-7,4900000.0,83.5,64.98956052350154,65.55323590814194,53.124999999999986,489000.0,332456.0,0.0,1.0,0.0,?,0.0,0.0,383.0,192.0,192.0,15.0,0.0,0.0,1.0
5000000.0,8.53125,5.422072394544051E-7,5000000.0,82.89999999999999,63.91643806710275,61.9153674832962,51.830985915492946,499000.0,336424.0,0.0,1.0,0.0,?,0.0,0.0,387.0,194.0,194.0,15.0,0.0,0.0,1.0
5100000.0,8.734375,5.461530074373715E-7,5100000.0,85.39999999999999,69.6843853820598,69.77225672877846,64.21568627450979,149.0,1880.0,0.0,1.0,0.0,?,4.0,12.0,1.0,1.0,1.0,0.0,0.0,0.0,1.0
5200000.0,8.9375,5.493694010915027E-7,5200000.0,85.7,71.0324598505842,70.0836820083682,68.08035714285714,10149.0,7304.0,0.0,1.0,0.0,?,0.0,13.0,7.0,4.0,4.0,2.0,0.0,0.0,1.0
5300000.0,9.09375,5.533210545157392E-7,5300000.0,86.7,72.56442203757642,73.558648111332,68.25775656324582,20099.0,14856.0,0.0,1.0,0.0,?,0.0,0.0,17.0,9.0,9.0,4.0,0.0,0.0,1.0
5400000.0,9.25,5.570815927866432E-7,5400000.0,85.0,69.38463108480457,70.58823529411764,65.35796766743648,30099.0,29144.0,0.0,1.0,0.0,?,0.0,0.0,31.0,16.0,16.0,6.0,0.0,0.0,1.0
5500000.0,9.421875,5.605377049909697E-7,5500000.0,86.0,71.10685510500595,71.01449275362319,66.34615384615384,40099.0,32992.0,0.0,1.0,0.0,?,0.0,0.0,35.0,18.0,18.0,8.0,0.0,0.0,1.0
5600000.0,9.609375,5.659785690820879E-7,5600000.0,84.3,67.77900915322415,67.6954732510288,63.48837209302325,50049.0,38464.0,0.0,1.0,0.0,?,0.0,0.0,41.0,21.0,21.0,9.0,0.0,0.0,1.0
5700000.0,9.78125,5.705320573825802E-7,5700000.0,86.7,72.35088186134695,70.96069868995633,66.58291457286433,60049.0,47784.0,0.0,1.0,0.0,?,0.0,0.0,51.0,26.0,26.0,10.0,0.0,0.0,1.0
5800000.0,9.9375,5.75996463238779E-7,5800000.0,84.6,68.37626494940203,67.37288135593221,63.84976525821596,69999.0,51608.0,0.0,1.0,0.0,?,0.0,0.0,57.0,29.0,29.0,10.0,0.0,0.0,1.0
5900000.0,10.09375,5.812031385074887E-7,5900000.0,85.6,70.1968251340108,71.08433734939759,65.3012048192771,79999.0,64272.0,0.0,1.0,0.0,?,0.0,0.0,69.0,35.0,35.0,11.0,0.0,0.0,1.0
6000000.0,10.25,5.860152951855626E-7,6000000.0,85.5,70.09075907590758,70.2258726899384,64.19753086419753,89999.0,73592.0,0.0,1.0,0.0,?,0.0,0.0,79.0,40.0,40.0,11.0,0.0,0.0,1.0
6100000.0,10.40625,5.921384177377654E-7,6100000.0,85.8,71.17137601864522,72.90076335877862,67.50572082379863,99949.0,77080.0,0.0,1.0,0.0,?,0.0,0.0,83.0,42.0,42.0,12.0,0.0,0.0,1.0
6200000.0,10.5625,5.976477728432251E-7,6200000.0,86.8,73.1887148863567,71.73447537473233,70.06802721088435,109949.0,81048.0,0.0,1.0,0.0,?,0.0,0.0,87.0,44.0,44.0,12.0,0.0,0.0,1.0
6300000.0,10.734375,6.050715132409499E-7,6300000.0,87.5,74.44995871113328,74.48979591836735,70.99767981438515,119899.0,82792.0,0.0,1.0,0.0,?,0.0,0.0,89.0,45.0,45.0,12.0,0.0,0.0,1.0
6400000.0,10.90625,6.118094380427565E-7,6400000.0,86.3,72.15311315999155,71.27882599580713,68.93424036281178,129899.0,86520.0,0.0,1.0,0.0,?,0.0,0.0,93.0,47.0,47.0,12.0,0.0,0.0,1.0
6500000.0,11.078125,6.181920050746864E-7,6500000.0,84.8,68.82984788145498,68.65979381443297,63.19612590799031,139899.0,97584.0,0.0,1.0,0.0,?,0.0,0.0,105.0,53.0,53.0,13.0,0.0,0.0,1.0
6600000.0,11.234375,6.255488066623607E-7,6600000.0,84.8,68.73264353156563,68.65979381443297,62.46913580246913,149849.0,107024.0,0.0,1.0,0.0,?,0.0,0.0,115.0,58.0,58.0,13.0,0.0,0.0,1.0
6700000.0,11.390625,6.323487549606296E-7,6700000.0,83.89999999999999,67.33908922717387,68.30708661417322,64.30155210643015,159849.0,112376.0,0.0,1.0,0.0,?,0.0,0.0,121.0,61.0,61.0,13.0,0.0,0.0,1.0
6800000.0,11.5625,6.413774745952751E-7,6800000.0,85.0,69.2331674659206,67.74193548387096,63.14496314496314,169799.0,118232.0,0.0,1.0,0.0,?,0.0,0.0,129.0,65.0,65.0,13.0,0.0,0.0,1.0
6900000.0,11.703125,6.484107062634494E-7,6900000.0,85.0,69.28143123955569,68.87966804979253,63.76811594202898,179799.0,127576.0,0.0,1.0,0.0,?,0.0,0.0,141.0,71.0,71.0,14.0,0.0,0.0,1.0
7000000.0,11.875,6.565768207009467E-7,7000000.0,83.7,65.56677510667961,62.87015945330295,56.99208443271767,189799.0,136992.0,0.0,1.0,0.0,?,0.0,0.0,149.0,75.0,75.0,14.0,0.0,0.0,1.0
7100000.0,12.046875,6.662689459820588E-7,7100000.0,85.3,70.22338537826428,71.62162162162163,66.43835616438355,199749.0,142344.0,0.0,1.0,0.0,?,0.0,0.0,155.0,78.0,78.0,14.0,0.0,0.0,1.0
7200000.0,12.203125,6.745389610942867E-7,7200000.0,84.6,67.99561082662765,66.73866090712743,61.69154228855721,209749.0,148080.0,0.0,1.0,0.0,?,0.0,0.0,163.0,82.0,82.0,14.0,0.0,0.0,1.0
7300000.0,12.375,6.855063192132447E-7,7300000.0,82.39999999999999,64.37362352636352,62.23175965665235,59.25925925925925,219699.0,161080.0,0.0,1.0,0.0,?,0.0,0.0,177.0,89.0,89.0,14.0,0.0,0.0,1.0
7400000.0,12.53125,6.94779769724442E-7,7400000.0,83.6,66.19434950919967,65.90436590436589,57.840616966580974,229699.0,163016.0,0.0,1.0,0.0,?,0.0,0.0,179.0,90.0,90.0,14.0,0.0,0.0,1.0
7500000.0,12.703125,7.046810545337698E-7,7500000.0,84.1,67.029685724476,68.00804828973843,60.050251256281406,239699.0,175320.0,0.0,1.0,0.0,?,0.0,0.0,191.0,96.0,96.0,14.0,0.0,0.0,1.0
7600000.0,12.859375,7.150077403316068E-7,7600000.0,83.3,66.34557252831404,66.53306613226452,64.08602150537634,249649.0,179168.0,0.0,1.0,0.0,?,0.0,0.0,195.0,98.0,98.0,14.0,0.0,0.0,1.0
7700000.0,13.03125,7.255973307312363E-7,7700000.0,84.8,69.08218849287873,71.15749525616698,63.895486935866984,259649.0,181032.0,0.0,1.0,0.0,?,0.0,0.0,197.0,99.0,99.0,14.0,0.0,0.0,1.0
7800000.0,13.1875,7.366212149564591E-7,7800000.0,85.39999999999999,69.41255342327997,68.53448275862068,60.962566844919785,269599.0,186624.0,0.0,1.0,0.0,?,0.0,0.0,203.0,102.0,102.0,14.0,0.0,0.0,1.0
7900000.0,13.359375,7.484056469466951E-7,7900000.0,81.69999999999999,62.611857965921615,61.715481171548106,55.90361445783132,279599.0,197976.0,0.0,1.0,0.0,?,0.0,0.0,219.0,110.0,110.0,14.0,0.0,0.0,1.0
8000000.0,13.515625,7.585751720600658E-7,8000000.0,84.8,69.1418177093484,70.65637065637065,65.61085972850678,289599.0,203664.0,0.0,1.0,0.0,?,0.0,0.0,223.0,112.0,112.0,14.0,0.0,0.0,1.0
8100000.0,13.6875,7.713143390396404E-7,8100000.0,83.1,65.60146549969468,64.42105263157893,60.23529411764705,299549.0,209616.0,0.0,1.0,0.0,?,0.0,0.0,229.0,115.0,115.0,14.0,0.0,0.0,1.0
8200000.0,13.875,7.846466097463337E-7,8200000.0,83.5,66.34987967532732,67.0,61.7169373549884,309549.0,217072.0,0.0,1.0,0.0,?,0.0,0.0,237.0,119.0,119.0,14.0,0.0,0.0,1.0
8300000.0,14.03125,7.971586698355775E-7,8300000.0,82.8,64.70332322316118,65.11156186612575,58.35351089588377,319499.0,222784.0,0.0,1.0,0.0,?,0.0,0.0,243.0,122.0,122.0,14.0,0.0,0.0,1.0
8400000.0,14.203125,8.106451908436916E-7,8400000.0,83.39999999999999,66.0149452349268,66.9980119284294,60.7565011820331,329499.0,235592.0,0.0,1.0,0.0,?,0.0,0.0,257.0,129.0,129.0,15.0,0.0,0.0,1.0
8500000.0,14.375,8.236031216155325E-7,8500000.0,82.1,63.18962893500809,61.17136659436008,55.911330049261075,339499.0,242808.0,0.0,1.0,0.0,?,0.0,0.0,265.0,133.0,133.0,15.0,0.0,0.0,1.0
8600000.0,14.53125,8.36643254539619E-7,8600000.0,82.6,64.74949859200582,64.6341463414634,59.44055944055944,349449.0,245056.0,0.0,1.0,0.0,?,0.0,0.0,269.0,135.0,135.0,15.0,0.0,0.0,1.0
8700000.0,14.703125,8.50469481924342E-7,8700000.0,84.3,67.30528946272386,67.42738589211618,60.74999999999999,359449.0,252512.0,0.0,1.0,0.0,?,0.0,0.0,277.0,139.0,139.0,15.0,0.0,0.0,1.0
8800000.0,14.859375,8.648888130361837E-7,8800000.0,85.1,69.6972162113792,70.19999999999999,66.05922551252846,369399.0,269168.0,0.0,1.0,0.0,?,0.0,0.0,295.0,148.0,148.0,15.0,0.0,0.0,1.0
8900000.0,15.015625,8.78536892640922E-7,8900000.0,84.89999999999999,69.26946809723059,69.98011928429423,63.78896882494005,379399.0,269288.0,0.0,1.0,0.0,?,0.0,0.0,295.0,148.0,148.0,15.0,0.0,0.0,1.0
9000000.0,15.1875,8.930386199305457E-7,9000000.0,82.69999999999999,64.80019532839586,64.25619834710743,59.67365967365967,389399.0,276888.0,0.0,1.0,0.0,?,0.0,0.0,305.0,153.0,153.0,15.0,0.0,0.0,1.0
9100000.0,15.359375,9.091624007042914E-7,9100000.0,83.1,65.49612086565945,65.29774127310061,60.879629629629626,399349.0,284368.0,0.0,1.0,0.0,?,0.0,0.0,315.0,158.0,158.0,15.0,0.0,0.0,1.0
9200000.0,15.53125,9.246231315450538E-7,9200000.0,83.7,66.80974449611897,66.66666666666666,61.37440758293838,409349.0,288600.0,0.0,1.0,0.0,?,0.0,0.0,321.0,161.0,161.0,15.0,0.0,0.0,1.0
9300000.0,15.734375,9.446180774830283E-7,9300000.0,81.10000000000001,61.59161112014308,61.9718309859155,54.12621359223303,419299.0,292448.0,0.0,1.0,0.0,?,0.0,0.0,325.0,163.0,163.0,15.0,0.0,0.0,1.0
9400000.0,15.953125,9.657382098440496E-7,9400000.0,84.2,67.80871039248923,68.0161943319838,62.200956937799035,429299.0,304184.0,0.0,1.0,0.0,?,0.0,0.0,343.0,172.0,172.0,16.0,0.0,0.0,1.0
9500000.0,16.140625,9.832761780772773E-7,9500000.0,85.39999999999999,70.3179637309913,69.89690721649484,66.04651162790698,439299.0,311640.0,0.0,1.0,0.0,?,0.0,0.0,351.0,176.0,176.0,16.0,0.0,0.0,1.0
9600000.0,16.3125,1.0009679438856743E-6,9600000.0,82.0,63.510308337894536,64.1434262948207,58.99772209567197,449249.0,318976.0,0.0,1.0,0.0,?,0.0,0.0,359.0,180.0,180.0,16.0,0.0,0.0,1.0
9700000.0,16.5,1.0197756152289612E-6,9700000.0,83.39999999999999,65.9639381773894,67.57812499999999,59.61070559610705,459249.0,327912.0,0.0,1.0,0.0,?,0.0,0.0,367.0,184.0,184.0,16.0,0.0,0.0,1.0
9800000.0,16.6875,1.0403776347326738E-6,9800000.0,84.7,68.9254291540405,69.15322580645162,63.30935251798561,469199.0,335896.0,0.0,1.0,0.0,?,0.0,0.0,379.0,190.0,190.0,16.0,0.0,0.0,1.0
9900000.0,16.890625,1.0618056856199272E-6,9900000.0,84.3,67.9631065583806,69.74951830443159,63.4032634032634,479199.0,338120.0,0.0,1.0,0.0,?,0.0,0.0,381.0,191.0,191.0,16.0,0.0,0.0,1.0
1.0E7,17.078125,1.0809172009531823E-6,1.0E7,85.39999999999999,70.27820415209416,69.4560669456067,65.48463356973994,489199.0,343472.0,0.0,1.0,0.0,?,0.0,0.0,387.0,194.0,194.0,16.0,0.0,0.0,1.0
