learning evaluation instances,evaluation time (cpu seconds),model cost (RAM-Hours),classified instances,classifications correct (percent),Kappa Statistic (percent),Kappa Temporal Statistic (percent),Kappa M Statistic (percent),model training instances,model serialized size (bytes),labeling cost,newThreshold,maxPosterior,accuracyBaseLearner (percent),Change detected,Warning detected
100000.0,0.140625,6.116752047091723E-9,100000.0,65.7,18.503312139442507,26.236559139784948,7.046070460704613,19800.0,9208.0,0.0,1.0,0.0,?,0.0,41.0
200000.0,0.296875,1.2276739451206393E-8,200000.0,63.7,14.207924068104266,25.918367346938776,2.156334231805932,39800.0,9208.0,0.0,1.0,0.0,?,0.0,9.0
300000.0,0.453125,1.7823606160365874E-8,300000.0,62.2,20.12104408980254,23.636363636363637,3.5714285714285747,59800.0,9208.0,0.0,1.0,0.0,?,0.0,43.0
400000.0,0.59375,2.2298611131393248E-8,400000.0,60.6,17.05437780257258,13.406593406593394,-3.412073490813651,79800.0,9208.0,0.0,1.0,0.0,?,0.0,75.0
500000.0,0.75,2.66464000257353E-8,500000.0,64.4,14.665541658077283,24.093816631130064,4.043126684636123,99800.0,9208.0,0.0,1.0,0.0,?,0.0,59.0
600000.0,0.90625,3.037460070724289E-8,600000.0,64.5,16.302799966049587,25.73221757322176,5.08021390374332,119800.0,9208.0,0.0,1.0,0.0,?,0.0,29.0
700000.0,1.046875,3.3177008541921776E-8,700000.0,66.2,19.615677321156774,22.831050228310502,6.111111111111116,139800.0,9208.0,0.0,1.0,0.0,?,0.0,0.0
800000.0,1.1875,3.542644359792272E-8,800000.0,64.60000000000001,14.583534407875698,24.680851063829788,2.2099447513812174,159800.0,9208.0,0.0,1.0,0.0,?,0.0,0.0
900000.0,1.359375,3.749989749242862E-8,900000.0,65.60000000000001,16.348922262858913,22.86995515695067,2.8248587570621497,179800.0,9208.0,0.0,1.0,0.0,?,0.0,0.0
1000000.0,1.5,3.864338699107369E-8,1000000.0,65.10000000000001,18.90887123007575,28.336755646817252,8.63874345549739,199800.0,9208.0,0.0,1.0,0.0,?,0.0,0.0
1100000.0,1.640625,4.4769161225607E-8,1100000.0,65.3,19.69079800037031,26.79324894514768,8.684210526315796,219600.0,9208.0,0.0,1.0,0.0,?,0.0,0.0
1200000.0,1.765625,4.972276251970066E-8,1200000.0,63.1,23.22416878198994,23.760330578512395,4.404145077720211,239600.0,9208.0,0.0,1.0,0.0,?,0.0,0.0
1300000.0,1.921875,5.531554860580299E-8,1300000.0,64.5,16.60950698600919,23.326133909287254,5.835543766578255,259600.0,9208.0,0.0,1.0,0.0,?,0.0,9.0
1400000.0,2.078125,6.029392049337427E-8,1400000.0,64.5,19.365829282696588,26.501035196687372,10.579345088161219,279600.0,9208.0,0.0,1.0,0.0,?,0.0,5.0
1500000.0,2.21875,6.422148241351048E-8,1500000.0,65.3,20.506922999386056,27.55741127348643,9.162303664921474,30615.0,9208.0,0.0,1.0,0.0,?,1.0,1.0
1600000.0,2.375,6.79306039172742E-8,1600000.0,63.6,17.974049152473622,22.717622080679405,8.312342569269529,50615.0,9208.0,0.0,1.0,0.0,?,0.0,27.0
1700000.0,2.515625,7.071584049198361E-8,1700000.0,64.7,14.063412924083677,27.066115702479344,1.1204481792717098,70615.0,9208.0,0.0,1.0,0.0,?,0.0,0.0
1800000.0,2.65625,7.294810428801508E-8,1800000.0,64.5,17.821030408533662,22.31947483588621,9.2071611253197,90615.0,9208.0,0.0,1.0,0.0,?,0.0,0.0
1900000.0,2.8125,7.485440518293114E-8,1900000.0,66.10000000000001,18.50256272177401,24.666666666666668,5.571030640668529,110615.0,9208.0,0.0,1.0,0.0,?,0.0,1.0
2000000.0,2.96875,7.614629187931615E-8,2000000.0,64.2,19.658886894075405,27.08757637474542,10.500000000000009,130615.0,9208.0,0.0,1.0,0.0,?,0.0,0.0
2100000.0,3.109375,8.22912746419509E-8,2100000.0,62.9,15.489749430523931,18.99563318777292,7.250000000000006,150415.0,9208.0,0.0,1.0,0.0,?,0.0,0.0
2200000.0,3.265625,8.850461906856959E-8,2200000.0,65.5,20.28945325496285,31.000000000000007,12.87878787878789,170415.0,9208.0,0.0,1.0,0.0,?,0.0,0.0
2300000.0,3.421875,9.410354929665722E-8,2300000.0,68.0,21.07534837834506,25.925925925925945,7.24637681159421,190415.0,9208.0,0.0,1.0,0.0,?,0.0,0.0
2400000.0,3.5625,9.855206978196897E-8,2400000.0,66.60000000000001,20.993868745742198,26.914660831509853,8.24175824175825,116906.0,9208.0,0.0,1.0,0.0,?,1.0,1.0
2500000.0,3.71875,1.0288045612267319E-7,2500000.0,64.0,12.413873642415057,22.413793103448274,1.6393442622950833,136906.0,9208.0,0.0,1.0,0.0,?,0.0,0.0
2600000.0,3.859375,1.0622303105062906E-7,2600000.0,65.9,19.01468660346169,30.122950819672134,7.336956521739137,156906.0,9208.0,0.0,1.0,0.0,?,0.0,0.0
2700000.0,4.0,1.0901263319990698E-7,2700000.0,60.4,15.181631254283745,13.725490196078422,-9.392265193370175,176906.0,9208.0,0.0,1.0,0.0,?,0.0,0.0
2800000.0,4.140625,1.1124926257050696E-7,2800000.0,63.3,15.051015684313828,20.73434125269978,4.4270833333333375,196906.0,9208.0,0.0,1.0,0.0,?,0.0,0.0
2900000.0,4.28125,1.12932919162429E-7,2900000.0,65.0,19.377130747258818,26.160337552742618,7.407407407407414,216906.0,9208.0,0.0,1.0,0.0,?,0.0,0.0
3000000.0,4.421875,1.140636029756731E-7,3000000.0,61.8,10.422421596169265,17.67241379310344,-1.3262599469496033,236906.0,9208.0,0.0,1.0,0.0,?,0.0,0.0
3100000.0,4.5625,1.2017657152480545E-7,3100000.0,62.4,19.549132799561793,16.81415929203539,-6.5155807365439165,256706.0,9208.0,0.0,1.0,0.0,?,0.0,0.0
3200000.0,4.71875,1.2635434460308812E-7,3200000.0,62.0,20.499430943295167,15.929203539823,-2.1505376344086042,276706.0,9208.0,0.0,1.0,0.0,?,0.0,0.0
3300000.0,4.859375,1.3136136759486458E-7,3300000.0,62.2,20.330145134026623,20.253164556962023,-1.8867924528301903,296706.0,9208.0,0.0,1.0,0.0,?,0.0,0.0
3400000.0,5.0,1.358154178079631E-7,3400000.0,65.4,17.551911318263922,27.15789473684211,4.155124653739616,316706.0,9208.0,0.0,1.0,0.0,?,0.0,0.0
3500000.0,5.140625,1.397164952423837E-7,3500000.0,65.9,20.96162582631029,23.88392857142857,9.788359788359797,336706.0,9208.0,0.0,1.0,0.0,?,0.0,0.0
3600000.0,5.28125,1.4306459989812634E-7,3600000.0,68.0,22.642531136381212,32.05944798301486,10.614525139664813,356706.0,9208.0,0.0,1.0,0.0,?,0.0,0.0
3700000.0,5.421875,1.4585973177519104E-7,3700000.0,64.1,13.058219509832405,20.222222222222218,0.27777777777777807,376706.0,9208.0,0.0,1.0,0.0,?,0.0,0.0
3800000.0,5.5625,1.481018908735778E-7,3800000.0,61.9,20.37151599257637,19.450317124735726,0.522193211488251,396706.0,9208.0,0.0,1.0,0.0,?,0.0,0.0
3900000.0,5.703125,1.4979107719328663E-7,3900000.0,64.60000000000001,17.909236370382402,24.358974358974358,8.05194805194806,416706.0,9208.0,0.0,1.0,0.0,?,0.0,0.0
4000000.0,5.84375,1.509272907343175E-7,4000000.0,64.9,19.314054526228677,23.695652173913043,9.067357512953375,436706.0,9208.0,0.0,1.0,0.0,?,0.0,0.0
4100000.0,5.984375,1.5704578901123665E-7,4100000.0,63.9,17.09535182803602,22.030237580993518,5.000000000000004,456506.0,9208.0,0.0,1.0,0.0,?,0.0,0.0
4200000.0,6.125,1.6261131450947782E-7,4200000.0,67.60000000000001,21.933354215357916,31.501057082452437,8.732394366197191,476506.0,9208.0,0.0,1.0,0.0,?,0.0,0.0
4300000.0,6.265625,1.6762386722904106E-7,4300000.0,63.800000000000004,18.487561472087634,25.051759834368532,9.045226130653274,496506.0,9208.0,0.0,1.0,0.0,?,0.0,0.0
4400000.0,6.421875,1.7257895605224695E-7,4400000.0,65.4,16.217891596606083,28.659793814432994,1.7045454545454561,516506.0,9208.0,0.0,1.0,0.0,?,0.0,0.0
4500000.0,6.546875,1.7605149575198684E-7,4500000.0,66.3,20.21326969335379,29.497907949790797,10.372340425531924,536506.0,9208.0,0.0,1.0,0.0,?,0.0,0.0
4600000.0,6.6875,1.7940513013551625E-7,4600000.0,64.1,15.460188577941478,22.961373390557938,4.010695187165779,556506.0,9208.0,0.0,1.0,0.0,?,0.0,0.0
4700000.0,6.8125,1.8189460711760645E-7,4700000.0,65.60000000000001,17.967110534549217,21.995464852607707,3.9106145251396685,576506.0,9208.0,0.0,1.0,0.0,?,0.0,0.0
4800000.0,6.953125,1.8414229594377999E-7,4800000.0,61.8,20.101400107925862,20.582120582120577,-1.3262599469496033,596506.0,9208.0,0.0,1.0,0.0,?,0.0,0.0
4900000.0,7.09375,1.8583701199127558E-7,4900000.0,67.30000000000001,20.622590762120254,29.373650107991367,9.668508287292827,616506.0,9208.0,0.0,1.0,0.0,?,0.0,0.0
5000000.0,7.234375,1.870628653301132E-7,5000000.0,65.9,16.966981591506762,27.4468085106383,3.9436619718309895,636506.0,9208.0,0.0,1.0,0.0,?,0.0,0.0
5100000.0,7.390625,1.9396079652425304E-7,5100000.0,46.9,-0.5918056513272297,-7.489878542510128,-16.960352422907505,656306.0,9208.0,0.0,1.0,0.0,?,0.0,0.0
5200000.0,7.53125,1.9961596182030098E-7,5200000.0,48.8,0.21671681816055788,-4.27698574338086,-7.112970711297077,676306.0,9208.0,0.0,1.0,0.0,?,0.0,0.0
5300000.0,7.6875,2.0528506461737875E-7,5300000.0,47.199999999999996,-0.3374988598011704,-6.882591093117416,-15.789473684210542,696306.0,9208.0,0.0,1.0,0.0,?,0.0,0.0
5400000.0,7.828125,2.098342843560708E-7,5400000.0,47.0,-0.15117157974302317,-8.384458077709619,-17.777777777777796,716306.0,9208.0,0.0,1.0,0.0,?,0.0,0.0
5500000.0,7.984375,2.143162742464078E-7,5500000.0,46.0,-2.2417449257800595,-10.20408163265306,-18.421052631578952,736306.0,9208.0,0.0,1.0,0.0,?,0.0,1.0
5600000.0,8.125,2.1779709236903316E-7,5600000.0,46.9,-1.7880967351132735,-11.320754716981142,-14.439655172413806,756306.0,9208.0,0.0,1.0,0.0,?,0.0,0.0
5700000.0,8.265625,2.2072493771298058E-7,5700000.0,46.6,-0.283573400439447,-11.018711018711018,-20.54176072234764,776306.0,9208.0,0.0,1.0,0.0,?,0.0,0.0
5800000.0,8.4375,2.2362755973719883E-7,5800000.0,48.6,3.2015065913370826,-5.54414784394251,-14.222222222222236,796306.0,9208.0,0.0,1.0,0.0,?,0.0,0.0
5900000.0,8.59375,2.2565189283341164E-7,5900000.0,49.8,2.6769650722749523,1.5686274509803935,-5.907172995780597,816306.0,9208.0,0.0,1.0,0.0,?,0.0,0.0
6000000.0,8.75,2.270618117310934E-7,6000000.0,46.800000000000004,-1.7188963882143742,-9.240246406570838,-15.401301518438181,836306.0,9208.0,0.0,1.0,0.0,?,0.0,0.0
6100000.0,8.890625,2.3331302347489524E-7,6100000.0,47.3,0.45936022000935617,-5.400000000000005,-17.63392857142859,856106.0,9208.0,0.0,1.0,0.0,?,0.0,0.0
6200000.0,9.03125,2.3901126244001916E-7,6200000.0,48.8,2.310956436792128,-9.168443496801714,-12.280701754385976,876106.0,9208.0,0.0,1.0,0.0,?,0.0,0.0
6300000.0,9.1875,2.447282248694035E-7,6300000.0,49.0,0.295984078637136,-5.371900826446286,-6.029106029106035,896106.0,9208.0,0.0,1.0,0.0,?,0.0,0.0
6400000.0,9.359375,2.503410279233422E-7,6400000.0,46.7,-4.06497715646843,-5.1282051282051215,-11.27348643006263,916106.0,9208.0,0.0,1.0,0.0,?,0.0,0.0
6500000.0,9.515625,2.5482916195566454E-7,6500000.0,49.0,1.497622423003961,-1.3916500994035799,-9.207708779443264,936106.0,9208.0,0.0,1.0,0.0,?,0.0,0.0
6600000.0,9.671875,2.587028817894558E-7,6600000.0,45.6,-2.214522729578707,-8.799999999999997,-23.356009070294796,956106.0,9208.0,0.0,1.0,0.0,?,0.0,0.0
6700000.0,9.828125,2.61962187424716E-7,6700000.0,47.699999999999996,-1.4352211016291732,-6.51731160896131,-10.105263157894747,976106.0,9208.0,0.0,1.0,0.0,?,0.0,0.0
6800000.0,9.984375,2.646070788614452E-7,6800000.0,47.4,-1.1600713890085617,-4.365079365079369,-12.393162393162404,996106.0,9208.0,0.0,1.0,0.0,?,0.0,0.0
6900000.0,10.140625,2.6659422372985216E-7,6900000.0,58.599999999999994,16.226552540520846,17.52988047808764,10.967741935483858,294136.0,9208.0,0.0,1.0,0.0,?,1.0,2.0
7000000.0,10.28125,2.678503450523648E-7,7000000.0,57.8,14.993050379711137,13.16872427983538,12.629399585921314,314136.0,9208.0,0.0,1.0,0.0,?,0.0,62.0
7100000.0,10.4375,2.7478190733947684E-7,7100000.0,60.099999999999994,18.352145762906087,20.359281437125745,12.114537444933909,333936.0,9208.0,0.0,1.0,0.0,?,0.0,0.0
7200000.0,10.578125,2.804673406191998E-7,7200000.0,58.3,15.131434339816172,17.42574257425742,8.951965065502169,353936.0,9208.0,0.0,1.0,0.0,?,0.0,0.0
7300000.0,10.734375,2.861700745092498E-7,7300000.0,59.5,17.658157331880307,13.829787234042543,11.572052401746712,373936.0,9208.0,0.0,1.0,0.0,?,0.0,0.0
7400000.0,10.875,2.9074956223161685E-7,7400000.0,56.8,11.810457809878038,11.293634496919905,2.483069977426614,393936.0,9208.0,0.0,1.0,0.0,?,0.0,0.0
7500000.0,11.03125,2.9522346772460476E-7,7500000.0,60.3,18.946508779093506,20.758483033932134,11.581291759465467,413936.0,9208.0,0.0,1.0,0.0,?,0.0,0.0
7600000.0,11.171875,2.9869700988961594E-7,7600000.0,58.599999999999994,16.48747110345467,19.298245614035086,12.473572938689207,433936.0,9208.0,0.0,1.0,0.0,?,0.0,0.0
7700000.0,11.328125,3.0194208698554175E-7,7700000.0,57.49999999999999,13.8525155065472,15.841584158415834,9.57446808510637,453936.0,9208.0,0.0,1.0,0.0,?,0.0,0.0
7800000.0,11.46875,3.0430968359319704E-7,7800000.0,58.9,17.052142113293456,16.122448979591827,13.836477987421372,473936.0,9208.0,0.0,1.0,0.0,?,0.0,0.0
7900000.0,11.609375,3.061243074221744E-7,7900000.0,55.300000000000004,9.899377559905837,7.45341614906833,5.4968287526427115,493936.0,9208.0,0.0,1.0,0.0,?,0.0,0.0
8000000.0,11.734375,3.072457750224405E-7,8000000.0,57.199999999999996,12.75099378248904,11.934156378600811,5.934065934065916,513936.0,9208.0,0.0,1.0,0.0,?,0.0,0.0
8100000.0,11.890625,3.141834814515379E-7,8100000.0,57.599999999999994,13.54948680202423,13.292433537832299,8.423326133909272,533736.0,9208.0,0.0,1.0,0.0,?,0.0,0.0
8200000.0,12.03125,3.1987444445904765E-7,8200000.0,56.00000000000001,10.697976497331094,15.384615384615397,6.976744186046519,553736.0,9208.0,0.0,1.0,0.0,?,0.0,0.0
8300000.0,12.15625,3.244415468846759E-7,8300000.0,58.199999999999996,16.2824605746468,16.89860834990059,15.725806451612895,573736.0,9208.0,0.0,1.0,0.0,?,0.0,0.0
8400000.0,12.3125,3.2953601071818013E-7,8400000.0,58.599999999999994,15.51192832799329,15.510204081632645,9.010989010988995,593736.0,9208.0,0.0,1.0,0.0,?,0.0,0.0
8500000.0,12.453125,3.3356805538965604E-7,8500000.0,59.5,17.666192315511278,18.674698795180717,12.526997840172774,613736.0,9208.0,0.0,1.0,0.0,?,0.0,0.0
8600000.0,12.59375,3.37047127282454E-7,8600000.0,57.3,12.9175674022107,17.08737864077669,5.947136563876634,633736.0,9208.0,0.0,1.0,0.0,?,0.0,0.0
8700000.0,12.75,3.4029834852036515E-7,8700000.0,56.89999999999999,12.134778318695908,16.472868217054256,5.066079295154165,653736.0,9208.0,0.0,1.0,0.0,?,0.0,0.0
8800000.0,12.890625,3.4267147485580724E-7,8800000.0,56.49999999999999,11.385803802058282,7.838983050847441,4.185022026431698,673736.0,9208.0,0.0,1.0,0.0,?,0.0,0.0
8900000.0,13.046875,3.4469386769665627E-7,8900000.0,57.99999999999999,14.053835040660703,15.322580645161283,6.4587973273941905,693736.0,9208.0,0.0,1.0,0.0,?,0.0,0.0
9000000.0,13.1875,3.459610484747425E-7,9000000.0,58.199999999999996,14.576725631886985,17.063492063492056,5.429864253393645,713736.0,9208.0,0.0,1.0,0.0,?,0.0,0.0
9100000.0,13.328125,3.522105139887169E-7,9100000.0,57.199999999999996,14.048285584612225,17.21470019342359,12.474437627811849,733536.0,9208.0,0.0,1.0,0.0,?,0.0,0.0
9200000.0,13.484375,3.5853995036126856E-7,9200000.0,58.5,15.753146569224501,15.821501014198775,10.367170626349878,753536.0,9208.0,0.0,1.0,0.0,?,0.0,0.0
9300000.0,13.625,3.636834703178871E-7,9300000.0,60.699999999999996,19.97686863174698,21.868787276341944,14.750542299349231,773536.0,9208.0,0.0,1.0,0.0,?,0.0,0.0
9400000.0,13.78125,3.6878407829337666E-7,9400000.0,59.9,18.138539803859114,17.827868852459012,12.253829321663007,793536.0,9208.0,0.0,1.0,0.0,?,0.0,0.0
9500000.0,13.921875,3.728216526926393E-7,9500000.0,58.199999999999996,13.981503965493813,17.063492063492056,2.564102564102566,813536.0,9208.0,0.0,1.0,0.0,?,0.0,0.0
9600000.0,14.0625,3.76306254313224E-7,9600000.0,56.599999999999994,12.450930158435563,15.728155339805816,9.014675052410887,833536.0,9208.0,0.0,1.0,0.0,?,0.0,0.0
9700000.0,14.203125,3.792378831551308E-7,9700000.0,60.6,19.962947313680246,19.262295081967206,16.34819532908704,853536.0,9208.0,0.0,1.0,0.0,?,0.0,0.0
9800000.0,14.359375,3.8188083433649616E-7,9800000.0,56.49999999999999,12.322427721431213,12.650602409638543,8.805031446540866,873536.0,9208.0,0.0,1.0,0.0,?,0.0,0.0
9900000.0,14.5,3.8370651762104705E-7,9900000.0,55.60000000000001,10.00194590387236,11.20000000000001,5.128205128205133,893536.0,9208.0,0.0,1.0,0.0,?,0.0,0.0
1.0E7,14.640625,3.8497922812692E-7,1.0E7,58.8,15.65569508305456,18.897637795275585,8.240534521158112,913536.0,9208.0,0.0,1.0,0.0,?,0.0,0.0
