learning evaluation instances,evaluation time (cpu seconds),model cost (RAM-Hours),classified instances,classifications correct (percent),Kappa Statistic (percent),Kappa Temporal Statistic (percent),Kappa M Statistic (percent),model training instances,model serialized size (bytes),labeling cost,newThreshold,maxPosterior,accuracyBaseLearner (percent),Change detected,Warning detected,tree size (nodes),tree size (leaves),active learning leaves,tree depth,active leaf byte size estimate,inactive leaf byte size estimate,byte size estimate overhead
100000.0,0.28125,1.4752731658518315E-8,100000.0,68.2,23.774275975473536,32.484076433121025,14.285714285714299,9900.0,17640.0,0.0,1.0,0.0,?,0.0,39.0,6.0,5.0,5.0,1.0,0.0,0.0,1.0
200000.0,0.46875,2.722934974978368E-8,200000.0,78.10000000000001,50.867778236444906,55.03080082135524,42.51968503937009,19900.0,87136.0,0.0,1.0,0.0,?,0.0,0.0,37.0,28.0,28.0,3.0,0.0,0.0,1.0
300000.0,0.703125,4.192193349202474E-8,300000.0,78.8,52.34691446271147,52.8888888888889,43.163538873994646,29900.0,87432.0,0.0,1.0,0.0,?,0.0,0.0,39.0,29.0,29.0,3.0,0.0,0.0,1.0
400000.0,0.921875,5.521125987999969E-8,400000.0,79.0,52.1945000910581,53.333333333333336,41.9889502762431,39900.0,95096.0,0.0,1.0,0.0,?,0.0,0.0,43.0,31.0,31.0,4.0,0.0,0.0,1.0
500000.0,1.15625,6.98766800471478E-8,500000.0,79.60000000000001,52.8617972595143,57.41127348643007,44.1095890410959,49900.0,117208.0,0.0,1.0,0.0,?,0.0,0.0,55.0,37.0,37.0,5.0,0.0,0.0,1.0
600000.0,1.40625,8.53842357173562E-8,600000.0,78.7,52.97099657328577,57.31462925851704,45.52429667519183,59900.0,130232.0,0.0,1.0,0.0,?,0.0,0.0,63.0,41.0,41.0,5.0,0.0,0.0,1.0
700000.0,1.640625,1.0087329428642987E-7,700000.0,77.0,47.33877651950526,48.54586129753915,38.33780160857909,69900.0,160936.0,0.0,1.0,0.0,?,0.0,0.0,79.0,49.0,49.0,5.0,0.0,0.0,1.0
800000.0,1.875,1.1816290983309347E-7,800000.0,78.5,51.77425866941816,54.83193277310925,42.04851752021564,79900.0,205728.0,0.0,1.0,0.0,?,0.0,0.0,116.0,75.0,75.0,7.0,0.0,0.0,1.0
900000.0,2.109375,1.359235223693152E-7,900000.0,76.6,47.95859817365816,50.84033613445378,40.153452685422,89900.0,228608.0,0.0,1.0,0.0,?,0.0,0.0,125.0,81.0,81.0,7.0,0.0,0.0,1.0
1000000.0,2.390625,1.6000868830208977E-7,1000000.0,80.9,58.029726380184776,59.789473684210535,50.51813471502592,99900.0,281632.0,0.0,1.0,0.0,?,0.0,0.0,139.0,88.0,88.0,7.0,0.0,0.0,1.0
1100000.0,2.640625,1.9173574401065707E-7,1100000.0,79.3,54.6191958609199,57.31958762886599,47.98994974874373,109800.0,304096.0,0.0,1.0,0.0,?,0.0,0.0,145.0,91.0,91.0,9.0,0.0,0.0,1.0
1200000.0,2.890625,2.2386637283489107E-7,1200000.0,78.7,52.53249184361128,53.18681318681319,44.531250000000014,119800.0,325432.0,0.0,1.0,0.0,?,0.0,0.0,151.0,94.0,94.0,9.0,0.0,0.0,1.0
1300000.0,3.15625,2.600199594679806E-7,1300000.0,78.9,50.74650556961316,53.7280701754386,39.19308357348704,129800.0,369800.0,0.0,1.0,0.0,?,0.0,0.0,167.0,105.0,105.0,9.0,0.0,0.0,1.0
1400000.0,3.421875,2.967370285963019E-7,1400000.0,78.7,51.54068762171706,54.0948275862069,42.11956521739131,139800.0,393056.0,0.0,1.0,0.0,?,0.0,0.0,179.0,111.0,111.0,11.0,0.0,0.0,1.0
1500000.0,3.71875,3.412660832206408E-7,1500000.0,79.5,54.758920216804086,57.55693581780539,47.70408163265307,149800.0,453456.0,0.0,1.0,0.0,?,0.0,0.0,198.0,122.0,122.0,11.0,0.0,0.0,1.0
1600000.0,4.015625,3.88382436034994E-7,1600000.0,79.0,52.40793201133146,54.34782608695653,44.000000000000014,159800.0,502200.0,0.0,1.0,0.0,?,0.0,0.0,219.0,137.0,137.0,11.0,0.0,0.0,1.0
1700000.0,4.296875,4.3428150497169957E-7,1700000.0,79.0,52.60984361248393,53.43680709534369,44.591029023746714,169800.0,534616.0,0.0,1.0,0.0,?,0.0,0.0,232.0,145.0,145.0,11.0,0.0,0.0,1.0
1800000.0,4.59375,4.850794276636508E-7,1800000.0,80.30000000000001,54.39096894881603,56.31929046563193,44.81792717086836,179800.0,580224.0,0.0,1.0,0.0,?,0.0,0.0,254.0,159.0,159.0,11.0,0.0,0.0,1.0
1900000.0,4.890625,5.402274028812017E-7,1900000.0,79.3,53.21018797298398,55.38793103448276,45.66929133858269,189800.0,651824.0,0.0,1.0,0.0,?,0.0,0.0,275.0,174.0,174.0,11.0,0.0,0.0,1.0
2000000.0,5.203125,5.991122129166291E-7,2000000.0,78.2,52.210379554811205,54.677754677754685,45.36340852130326,199800.0,677200.0,0.0,1.0,0.0,?,0.0,0.0,287.0,180.0,180.0,12.0,0.0,0.0,1.0
2100000.0,5.484375,6.64854855535345E-7,2100000.0,81.3,56.71777209939635,57.011494252873554,48.48484848484847,209700.0,715304.0,0.0,1.0,0.0,?,0.0,0.0,305.0,192.0,192.0,13.0,0.0,0.0,1.0
2200000.0,5.78125,7.37033777921978E-7,2200000.0,79.9,52.776994643360595,57.50528541226216,43.69747899159665,219700.0,766552.0,0.0,1.0,0.0,?,0.0,0.0,325.0,205.0,205.0,13.0,0.0,0.0,1.0
2300000.0,6.09375,8.148994594294992E-7,2300000.0,81.3,57.87832918874112,59.87124463519312,51.67958656330748,229700.0,804944.0,0.0,1.0,0.0,?,0.0,0.0,340.0,214.0,214.0,13.0,0.0,0.0,1.0
2400000.0,6.40625,8.935386560753816E-7,2400000.0,81.8,59.06267010360292,60.34858387799563,51.978891820580465,239700.0,829568.0,0.0,1.0,0.0,?,0.0,0.0,352.0,220.0,220.0,13.0,0.0,0.0,1.0
2500000.0,6.71875,9.720788996977112E-7,2500000.0,80.10000000000001,56.82735280079838,59.30470347648262,51.46341463414635,249700.0,843472.0,0.0,1.0,0.0,?,0.0,0.0,358.0,223.0,223.0,13.0,0.0,0.0,1.0
2600000.0,7.03125,1.0527437229433822E-6,2600000.0,80.7,55.493035697813866,56.91964285714286,46.3888888888889,259700.0,884792.0,0.0,1.0,0.0,?,0.0,0.0,380.0,237.0,237.0,14.0,0.0,0.0,1.0
2700000.0,7.359375,1.1386179701528617E-6,2700000.0,79.5,53.18138217695155,56.19658119658121,44.594594594594604,269700.0,913688.0,0.0,1.0,0.0,?,0.0,0.0,392.0,243.0,243.0,14.0,0.0,0.0,1.0
2800000.0,7.6875,1.14755546544782E-6,2800000.0,71.39999999999999,29.998384578105657,37.0044052863436,22.493224932249312,7349.0,26208.0,0.0,1.0,0.0,?,1.0,17.0,11.0,9.0,9.0,2.0,0.0,0.0,1.0
2900000.0,7.921875,1.154941532553898E-6,2900000.0,71.6,32.401553812171514,37.30684326710815,23.655913978494613,17349.0,57112.0,0.0,1.0,0.0,?,0.0,10.0,25.0,16.0,16.0,5.0,0.0,0.0,1.0
3000000.0,8.140625,1.161477088721262E-6,3000000.0,71.39999999999999,30.633707167526865,40.54054054054053,23.529411764705873,27349.0,65936.0,0.0,1.0,0.0,?,0.0,0.0,29.0,18.0,18.0,7.0,0.0,0.0,1.0
3100000.0,8.390625,1.1835251158724229E-6,3100000.0,73.8,35.48577732251202,44.84210526315789,26.404494382022463,37249.0,154112.0,0.0,1.0,0.0,?,0.0,0.0,61.0,40.0,40.0,9.0,0.0,0.0,1.0
3200000.0,8.640625,1.2108051062872014E-6,3200000.0,74.4,42.71315851895612,42.984409799554555,35.83959899749374,47249.0,249936.0,0.0,1.0,0.0,?,0.0,0.0,92.0,63.0,63.0,11.0,0.0,0.0,1.0
3300000.0,8.921875,1.2422547054787478E-6,3300000.0,74.3,40.74026249527305,46.45833333333333,32.72251308900523,57249.0,275488.0,0.0,1.0,0.0,?,0.0,0.0,101.0,69.0,69.0,11.0,0.0,0.0,1.0
3400000.0,9.21875,1.2766711168094643E-6,3400000.0,78.0,46.79693356871659,52.17391304347826,36.23188405797102,67249.0,306432.0,0.0,1.0,0.0,?,0.0,0.0,114.0,77.0,77.0,12.0,0.0,0.0,1.0
3500000.0,9.515625,1.3111950506249236E-6,3500000.0,76.1,44.14948309061337,46.29213483146067,35.05434782608695,77249.0,322944.0,0.0,1.0,0.0,?,0.0,0.0,120.0,80.0,80.0,12.0,0.0,0.0,1.0
3600000.0,9.8125,1.3479677404070067E-6,3600000.0,74.5,41.18244053660067,48.58870967741936,33.420365535248045,87249.0,367272.0,0.0,1.0,0.0,?,0.0,0.0,136.0,91.0,91.0,12.0,0.0,0.0,1.0
3700000.0,10.09375,1.3829086351001428E-6,3700000.0,78.4,51.28464203233257,53.846153846153854,43.750000000000014,97249.0,383800.0,0.0,1.0,0.0,?,0.0,0.0,144.0,95.0,95.0,12.0,0.0,0.0,1.0
3800000.0,10.40625,1.42112325799341E-6,3800000.0,78.4,51.09559452814042,55.371900826446286,43.00791556728233,107249.0,391424.0,0.0,1.0,0.0,?,0.0,0.0,148.0,97.0,97.0,12.0,0.0,0.0,1.0
3900000.0,10.6875,1.4561718368592362E-6,3900000.0,80.2,57.061068702290086,58.49056603773586,49.48979591836736,117249.0,415544.0,0.0,1.0,0.0,?,0.0,0.0,157.0,103.0,103.0,12.0,0.0,0.0,1.0
4000000.0,11.0,1.5004381162321402E-6,4000000.0,78.2,50.92853123241419,54.393305439330554,41.866666666666674,127249.0,465568.0,0.0,1.0,0.0,?,0.0,6.0,179.0,117.0,117.0,12.0,0.0,0.0,1.0
4100000.0,11.296875,1.5177762705004878E-6,4100000.0,72.6,37.96835027506735,43.38842975206611,22.816901408450693,17830.0,39408.0,0.0,1.0,0.0,?,1.0,2.0,13.0,10.0,10.0,2.0,0.0,0.0,1.0
4200000.0,11.53125,1.5318717406545249E-6,4200000.0,75.1,46.44792759931867,47.02127659574467,35.15625,27830.0,61240.0,0.0,1.0,0.0,?,0.0,0.0,26.0,18.0,18.0,3.0,0.0,0.0,1.0
4300000.0,11.75,1.5462548536662426E-6,4300000.0,74.3,44.919758589945836,47.97570850202429,37.772397094431,37830.0,98008.0,0.0,1.0,0.0,?,0.0,0.0,42.0,29.0,29.0,4.0,0.0,0.0,1.0
4400000.0,11.984375,1.5636201391720936E-6,4400000.0,73.1,41.4275138265906,46.52087475149105,33.25062034739454,47830.0,145352.0,0.0,1.0,0.0,?,0.0,0.0,66.0,47.0,47.0,6.0,0.0,0.0,1.0
4500000.0,12.234375,1.5823226486746635E-6,4500000.0,76.4,48.51657940663177,51.93482688391039,40.40404040404041,57830.0,163216.0,0.0,1.0,0.0,?,0.0,0.0,78.0,53.0,53.0,6.0,0.0,0.0,1.0
4600000.0,12.5,1.6040840677710043E-6,4600000.0,75.8,46.91864954025409,50.103092783505154,38.57868020304569,67830.0,205744.0,0.0,1.0,0.0,?,0.0,0.0,104.0,69.0,69.0,7.0,0.0,0.0,1.0
4700000.0,12.71875,1.622299508502086E-6,4700000.0,78.2,50.432239962528605,54.00843881856541,41.5549597855228,77830.0,226016.0,0.0,1.0,0.0,?,0.0,0.0,116.0,75.0,75.0,9.0,0.0,0.0,1.0
4800000.0,12.953125,1.64383682810391E-6,4800000.0,76.6,48.83792115792466,50.943396226415096,40.75949367088608,87830.0,274320.0,0.0,1.0,0.0,?,0.0,0.0,135.0,86.0,86.0,10.0,0.0,0.0,1.0
4900000.0,13.171875,1.665171099981914E-6,4900000.0,75.8,43.81709446157275,46.57836644591612,31.25,97830.0,311080.0,0.0,1.0,0.0,?,0.0,0.0,155.0,96.0,96.0,10.0,0.0,0.0,1.0
5000000.0,13.421875,1.6915363246678479E-6,5000000.0,74.3,42.697370768078194,46.790890269151134,33.933161953727506,107830.0,354544.0,0.0,1.0,0.0,?,0.0,0.0,161.0,99.0,99.0,10.0,0.0,0.0,1.0
5100000.0,13.734375,1.7113120540873045E-6,5100000.0,70.0,39.35252758449202,39.99999999999999,37.888198757763966,9141.0,56496.0,0.0,1.0,0.0,?,1.0,10.0,21.0,17.0,17.0,2.0,0.0,0.0,1.0
5200000.0,13.96875,1.726008033276432E-6,5200000.0,74.3,47.64717865145651,49.706457925636,45.780590717299575,19141.0,69432.0,0.0,1.0,0.0,?,0.0,0.0,26.0,21.0,21.0,3.0,0.0,0.0,1.0
5300000.0,14.203125,1.742144652073168E-6,5300000.0,74.3,47.39083085640357,49.50884086444008,45.43524416135881,29141.0,108304.0,0.0,1.0,0.0,?,0.0,0.0,45.0,35.0,35.0,4.0,0.0,0.0,1.0
5400000.0,14.453125,1.7620759899727998E-6,5400000.0,75.4,50.4306088975042,51.76470588235295,47.99154334038055,39141.0,165376.0,0.0,1.0,0.0,?,0.0,0.0,64.0,49.0,49.0,4.0,0.0,0.0,1.0
5500000.0,14.75,1.7869738965398734E-6,5500000.0,77.10000000000001,54.21501747426844,56.21414913957935,54.29141716566866,49141.0,196520.0,0.0,1.0,0.0,?,0.0,0.0,85.0,64.0,64.0,4.0,0.0,0.0,1.0
5600000.0,14.984375,1.80807659894021E-6,5600000.0,79.80000000000001,59.368399879312086,61.37667304015297,58.004158004158015,59141.0,235432.0,0.0,1.0,0.0,?,0.0,0.0,118.0,85.0,85.0,5.0,0.0,0.0,1.0
5700000.0,15.234375,1.8312080646865068E-6,5700000.0,79.4,58.77361511367276,58.383838383838395,58.13008130081302,69141.0,260152.0,0.0,1.0,0.0,?,0.0,0.0,129.0,92.0,92.0,5.0,0.0,0.0,1.0
5800000.0,15.46875,1.8540477807012696E-6,5800000.0,81.3,62.6125621791078,61.44329896907216,60.38135593220338,79141.0,294360.0,0.0,1.0,0.0,?,0.0,0.0,158.0,114.0,114.0,5.0,0.0,0.0,1.0
5900000.0,15.703125,1.8778920639306306E-6,5900000.0,81.10000000000001,62.04422951794164,63.30097087378642,57.33634311512416,89141.0,326048.0,0.0,1.0,0.0,?,0.0,0.0,168.0,122.0,122.0,5.0,0.0,0.0,1.0
6000000.0,15.96875,1.9070089911110698E-6,6000000.0,82.0,63.97795450815899,63.562753036437236,63.34012219959265,99141.0,371656.0,0.0,1.0,0.0,?,0.0,0.0,193.0,142.0,142.0,5.0,0.0,0.0,1.0
6100000.0,16.21875,1.9453179104150167E-6,6100000.0,81.0,62.01519392243103,61.14519427402863,57.777777777777786,109041.0,403192.0,0.0,1.0,0.0,?,0.0,0.0,202.0,148.0,148.0,5.0,0.0,0.0,1.0
6200000.0,16.5,1.9908578380838864E-6,6200000.0,81.3,62.62242654407354,63.11637080867849,60.21276595744679,119041.0,451840.0,0.0,1.0,0.0,?,0.0,0.0,228.0,167.0,167.0,5.0,0.0,0.0,1.0
6300000.0,16.765625,2.0347259123809634E-6,6300000.0,80.7,61.41389099924028,62.74131274131275,60.36960985626284,129041.0,479416.0,0.0,1.0,0.0,?,0.0,0.0,239.0,174.0,174.0,5.0,0.0,0.0,1.0
6400000.0,17.03125,2.080416371528473E-6,6400000.0,84.1,68.2231335587692,67.55102040816325,66.45569620253163,139041.0,521008.0,0.0,1.0,0.0,?,0.0,0.0,253.0,184.0,184.0,5.0,0.0,0.0,1.0
6500000.0,17.328125,2.131650528301381E-6,6500000.0,81.6,63.2845922993423,62.37218813905929,60.68376068376067,149041.0,538320.0,0.0,1.0,0.0,?,0.0,0.0,268.0,193.0,193.0,5.0,0.0,0.0,1.0
6600000.0,17.8125,2.218694587807274E-6,6600000.0,83.0,66.1365374808771,67.05426356589147,64.28571428571428,159041.0,580944.0,0.0,1.0,0.0,?,0.0,0.0,291.0,209.0,209.0,6.0,0.0,0.0,1.0
6700000.0,18.15625,2.2853083404091492E-6,6700000.0,82.1,64.31390999928229,64.12825651302605,62.785862785862776,169041.0,650320.0,0.0,1.0,0.0,?,0.0,0.0,305.0,219.0,219.0,6.0,0.0,0.0,1.0
6800000.0,18.484375,2.3517993395216756E-6,6800000.0,83.5,67.15241280458672,67.71037181996086,64.96815286624202,179041.0,699584.0,0.0,1.0,0.0,?,0.0,0.0,330.0,236.0,236.0,6.0,0.0,0.0,1.0
6900000.0,18.796875,2.4212831178576574E-6,6900000.0,84.39999999999999,68.8,66.59528907922912,68.98608349900596,189041.0,790736.0,0.0,1.0,0.0,?,0.0,0.0,362.0,261.0,261.0,6.0,0.0,0.0,1.0
7000000.0,19.09375,2.4875704224945764E-6,7000000.0,84.3,68.80117005548225,66.80761099365749,66.52452025586354,199041.0,809424.0,0.0,1.0,0.0,?,0.0,0.0,374.0,267.0,267.0,6.0,0.0,0.0,1.0
7100000.0,19.40625,2.5771261425688856E-6,7100000.0,82.5,65.15332536837913,65.0698602794411,63.15789473684209,208941.0,916832.0,0.0,1.0,0.0,?,0.0,0.0,419.0,300.0,300.0,7.0,0.0,0.0,1.0
7200000.0,19.71875,2.66987875673092E-6,7200000.0,82.39999999999999,64.94093743152526,63.561076604554856,64.0081799591002,218941.0,971312.0,0.0,1.0,0.0,?,0.0,0.0,451.0,319.0,319.0,7.0,0.0,0.0,1.0
7300000.0,20.03125,2.7628098743864224E-6,7300000.0,81.0,62.463500693437446,60.167714884696025,57.87139689578715,228941.0,988616.0,0.0,1.0,0.0,?,0.0,0.0,461.0,324.0,324.0,7.0,0.0,0.0,1.0
7400000.0,20.359375,2.860062264112962E-6,7400000.0,82.19999999999999,64.60092514885508,64.68253968253967,61.88436830835117,238941.0,999944.0,0.0,1.0,0.0,?,0.0,0.0,470.0,330.0,330.0,7.0,0.0,0.0,1.0
7500000.0,20.65625,2.9475523883269886E-6,7500000.0,81.8,63.70380711166064,64.99999999999999,62.62833675564681,248941.0,1008552.0,0.0,1.0,0.0,?,0.0,0.0,482.0,336.0,336.0,7.0,0.0,0.0,1.0
7600000.0,20.9375,3.0311839913742403E-6,7600000.0,81.0,62.21537237744855,60.985626283367566,60.00000000000001,258941.0,1033920.0,0.0,1.0,0.0,?,0.0,0.0,491.0,342.0,342.0,7.0,0.0,0.0,1.0
7700000.0,21.25,3.122908916945258E-6,7700000.0,83.0,66.10250602179009,64.28571428571428,65.02057613168724,268941.0,1034272.0,0.0,1.0,0.0,?,0.0,0.0,495.0,344.0,344.0,7.0,0.0,0.0,1.0
7800000.0,21.578125,3.2206685864366587E-6,7800000.0,81.3,62.70591520082963,65.49815498154979,61.83673469387754,278941.0,1066424.0,0.0,1.0,0.0,?,0.0,0.0,513.0,356.0,356.0,7.0,0.0,0.0,1.0
7900000.0,21.875,3.3107693565802438E-6,7900000.0,84.2,68.65514710258495,69.20077972709551,65.87473002159825,288941.0,1102984.0,0.0,1.0,0.0,?,0.0,0.0,535.0,370.0,370.0,7.0,0.0,0.0,1.0
8000000.0,22.1875,3.4087516056994595E-6,8000000.0,86.8,73.5797092166784,73.6,73.80952380952381,298941.0,1156872.0,0.0,1.0,0.0,?,0.0,0.0,570.0,395.0,395.0,7.0,0.0,0.0,1.0
8100000.0,22.46875,3.5071667904655137E-6,8100000.0,84.5,68.99404685699653,69.06187624750498,68.36734693877551,308841.0,1160480.0,0.0,1.0,0.0,?,0.0,0.0,580.0,400.0,400.0,7.0,0.0,0.0,1.0
8200000.0,22.78125,3.6160966070989767E-6,8200000.0,84.8,69.81299947569944,69.16835699797159,66.81222707423579,318841.0,1170424.0,0.0,1.0,0.0,?,0.0,0.0,586.0,403.0,403.0,7.0,0.0,0.0,1.0
8300000.0,23.109375,3.729281791796287E-6,8300000.0,85.39999999999999,70.73772988920423,70.26476578411405,68.39826839826839,328841.0,1171576.0,0.0,1.0,0.0,?,0.0,0.0,590.0,405.0,405.0,7.0,0.0,0.0,1.0
8400000.0,23.46875,3.85501816506601E-6,8400000.0,86.0,72.05889983913909,70.27600849256899,69.95708154506437,338841.0,1205592.0,0.0,1.0,0.0,?,0.0,0.0,618.0,419.0,419.0,8.0,0.0,0.0,1.0
8500000.0,23.765625,3.962903154186076E-6,8500000.0,85.2,70.456723091664,69.35817805383022,67.25663716814158,348841.0,1272840.0,0.0,1.0,0.0,?,0.0,0.0,658.0,445.0,445.0,8.0,0.0,0.0,1.0
8600000.0,24.09375,4.082914545304245E-6,8600000.0,85.0,70.02589762445247,68.87966804979253,68.74999999999999,358841.0,1297040.0,0.0,1.0,0.0,?,0.0,0.0,674.0,456.0,456.0,8.0,0.0,0.0,1.0
8700000.0,24.421875,4.203105216018027E-6,8700000.0,87.3,74.61726026302115,74.49799196787149,74.2393509127789,368841.0,1314248.0,0.0,1.0,0.0,?,0.0,0.0,684.0,461.0,461.0,8.0,0.0,0.0,1.0
8800000.0,24.734375,4.3174160075270464E-6,8800000.0,87.1,74.21547071756946,73.88663967611336,74.04426559356136,378841.0,1327432.0,0.0,1.0,0.0,?,0.0,0.0,692.0,465.0,465.0,8.0,0.0,0.0,1.0
8900000.0,25.0625,4.43775607790384E-6,8900000.0,86.5,73.0659345921185,72.39263803680981,69.93318485523385,388841.0,1346240.0,0.0,1.0,0.0,?,0.0,0.0,705.0,473.0,473.0,8.0,0.0,0.0,1.0
9000000.0,25.375,4.554523879455196E-6,9000000.0,87.5,75.0181867600387,75.0996015936255,74.33264887063655,398841.0,1387992.0,0.0,1.0,0.0,?,0.0,0.0,723.0,485.0,485.0,8.0,0.0,0.0,1.0
9100000.0,25.671875,4.6800898659663895E-6,9100000.0,87.0,73.8774329152383,74.25742574257426,71.04677060133629,408741.0,1441464.0,0.0,1.0,0.0,?,0.0,0.0,742.0,499.0,499.0,8.0,0.0,0.0,1.0
9200000.0,26.015625,4.830940839989732E-6,9200000.0,87.3,74.62699687532466,75.14677103718199,72.5108225108225,418741.0,1517832.0,0.0,1.0,0.0,?,0.0,0.0,771.0,521.0,521.0,8.0,0.0,0.0,1.0
9300000.0,26.359375,4.984113911632449E-6,9300000.0,88.1,76.22263605047993,74.78813559322035,75.36231884057972,428741.0,1559072.0,0.0,1.0,0.0,?,0.0,0.0,793.0,538.0,538.0,8.0,0.0,0.0,1.0
9400000.0,26.6875,5.131471552886069E-6,9400000.0,90.8,81.63526030022358,82.34165067178503,80.42553191489363,438741.0,1587680.0,0.0,1.0,0.0,?,0.0,0.0,813.0,551.0,551.0,8.0,0.0,0.0,1.0
9500000.0,27.03125,5.288619366991852E-6,9500000.0,88.4,76.85102035114608,74.39293598233996,75.3715498938429,448741.0,1633872.0,0.0,1.0,0.0,?,0.0,0.0,835.0,565.0,565.0,8.0,0.0,0.0,1.0
9600000.0,27.359375,5.4379355020096734E-6,9600000.0,87.2,74.42782252908835,75.61904761904762,73.98373983739837,458741.0,1640912.0,0.0,1.0,0.0,?,0.0,0.0,843.0,569.0,569.0,9.0,0.0,0.0,1.0
9700000.0,27.71875,5.602319369144324E-6,9700000.0,88.9,77.81739116532638,77.75551102204409,76.97095435684648,468741.0,1665096.0,0.0,1.0,0.0,?,0.0,0.0,862.0,580.0,580.0,9.0,0.0,0.0,1.0
9800000.0,28.0625,5.761049396824092E-6,9800000.0,89.3,78.62394118587183,78.55711422845691,76.73913043478261,478741.0,1696920.0,0.0,1.0,0.0,?,0.0,0.0,883.0,592.0,592.0,9.0,0.0,0.0,1.0
9900000.0,28.390625,5.913212274511656E-6,9900000.0,89.5,79.01057866835116,79.4921875,78.21576763485477,488741.0,1719688.0,0.0,1.0,0.0,?,0.0,0.0,890.0,597.0,597.0,9.0,0.0,0.0,1.0
1.0E7,28.6875,6.049721592312887E-6,1.0E7,89.7,79.40823670531788,79.60396039603961,78.31578947368422,498741.0,1719760.0,0.0,1.0,0.0,?,0.0,0.0,890.0,597.0,597.0,9.0,0.0,0.0,1.0
