learning evaluation instances,evaluation time (cpu seconds),model cost (RAM-Hours),classified instances,classifications correct (percent),Kappa Statistic (percent),Kappa Temporal Statistic (percent),Kappa M Statistic (percent),model training instances,model serialized size (bytes),labeling cost,newThreshold,maxPosterior,accuracyBaseLearner (percent),Change detected,Warning detected,tree size (nodes),tree size (leaves),active learning leaves,tree depth,active leaf byte size estimate,inactive leaf byte size estimate,byte size estimate overhead
100000.0,0.5,3.328753842247857E-8,100000.0,64.5,17.811136938221757,22.48908296943231,0.5602240896358549,13436.0,91712.0,0.0,1.0,0.0,?,3.0,53.0,23.0,21.0,21.0,2.0,0.0,0.0,1.0
200000.0,0.9375,5.9157221888502436E-8,200000.0,66.60000000000001,26.080355522505656,29.087048832271766,11.87335092348286,43436.0,91720.0,0.0,1.0,0.0,?,0.0,0.0,23.0,21.0,21.0,2.0,0.0,0.0,1.0
300000.0,1.46875,1.5917893809576828E-7,300000.0,61.3,16.997675076996988,21.818181818181813,-1.3089005235602107,73286.0,321752.0,0.0,1.0,0.0,?,0.0,0.0,105.0,74.0,74.0,4.0,0.0,0.0,1.0
400000.0,1.921875,2.519516985759967E-7,400000.0,62.2,20.118343195266263,23.326572008113587,-3.2786885245901667,103286.0,374120.0,0.0,1.0,0.0,?,0.0,0.0,122.0,86.0,86.0,5.0,0.0,0.0,1.0
500000.0,2.421875,3.7509220419451594E-7,500000.0,66.9,32.997036485239114,30.753138075313814,15.7760814249364,133286.0,451488.0,0.0,1.0,0.0,?,0.0,0.0,158.0,104.0,104.0,6.0,0.0,0.0,1.0
600000.0,2.890625,4.4992106268182397E-7,600000.0,65.9,29.63152507676562,28.958333333333336,13.231552162849884,163136.0,524368.0,0.0,1.0,0.0,?,0.0,24.0,191.0,124.0,124.0,7.0,0.0,0.0,1.0
700000.0,3.28125,5.113899694859154E-7,700000.0,69.39999999999999,37.32308108263111,33.478260869565204,15.70247933884296,193136.0,544264.0,0.0,1.0,0.0,?,0.0,0.0,203.0,130.0,130.0,7.0,0.0,0.0,1.0
800000.0,3.65625,5.86000549244798E-7,800000.0,68.30000000000001,32.87880071144238,31.681034482758623,11.944444444444455,222986.0,661328.0,0.0,1.0,0.0,?,0.0,0.0,249.0,160.0,160.0,8.0,0.0,0.0,1.0
900000.0,4.03125,6.615362427611318E-7,900000.0,70.8,40.13817421431352,39.793814432989684,24.935732647814906,252986.0,699480.0,0.0,1.0,0.0,?,0.0,0.0,263.0,167.0,167.0,9.0,0.0,0.0,1.0
1000000.0,4.46875,7.483392578756645E-7,1000000.0,72.1,42.228369804694616,41.1392405063291,28.826530612244895,282986.0,716504.0,0.0,1.0,0.0,?,0.0,0.0,271.0,171.0,171.0,9.0,0.0,0.0,1.0
1100000.0,4.890625,8.430233315771653E-7,1100000.0,69.1,36.265005569077175,33.54838709677418,19.740259740259727,312836.0,773456.0,0.0,1.0,0.0,?,0.0,0.0,299.0,185.0,185.0,9.0,0.0,0.0,1.0
1200000.0,5.296875,9.387676901597945E-7,1200000.0,68.4,31.910639178101086,34.30353430353431,14.130434782608708,342836.0,845272.0,0.0,1.0,0.0,?,0.0,0.0,345.0,208.0,208.0,10.0,0.0,0.0,1.0
1300000.0,5.703125,1.0420832485477958E-6,1300000.0,72.8,43.28796370429677,47.081712062256805,31.313131313131308,372686.0,873776.0,0.0,1.0,0.0,?,0.0,0.0,369.0,220.0,220.0,10.0,0.0,0.0,1.0
1400000.0,6.09375,1.1472030503985784E-6,1400000.0,70.89999999999999,39.70311554623589,32.94930875576037,19.613259668508274,402686.0,959400.0,0.0,1.0,0.0,?,0.0,0.0,408.0,243.0,243.0,10.0,0.0,0.0,1.0
1500000.0,6.5625,1.2822991508680087E-6,1500000.0,74.0,46.5752692811908,42.0935412026726,32.81653746770026,432686.0,1061704.0,0.0,1.0,0.0,?,0.0,0.0,450.0,271.0,271.0,11.0,0.0,0.0,1.0
1600000.0,6.984375,1.4203211564260227E-6,1600000.0,74.7,48.4850952923929,44.99999999999999,34.96143958868895,462536.0,1168456.0,0.0,1.0,0.0,?,0.0,0.0,508.0,305.0,305.0,11.0,0.0,0.0,1.0
1700000.0,7.421875,1.565224342306869E-6,1700000.0,75.3,49.01539858811873,47.33475479744136,36.50385604113111,492536.0,1212608.0,0.0,1.0,0.0,?,0.0,0.0,542.0,322.0,322.0,11.0,0.0,0.0,1.0
1800000.0,7.828125,1.7069197039947743E-6,1800000.0,74.7,47.72640870097026,47.94238683127572,34.11458333333333,522386.0,1237072.0,0.0,1.0,0.0,?,0.0,0.0,560.0,331.0,331.0,11.0,0.0,0.0,1.0
1900000.0,8.265625,1.8651239871461359E-6,1900000.0,77.5,54.38141194598759,51.61290322580645,41.86046511627908,552386.0,1314960.0,0.0,1.0,0.0,?,0.0,0.0,606.0,354.0,354.0,12.0,0.0,0.0,1.0
2000000.0,8.71875,2.0379943372164338E-6,2000000.0,77.60000000000001,54.54084221207509,51.724137931034484,40.26666666666667,582386.0,1420064.0,0.0,1.0,0.0,?,0.0,0.0,662.0,382.0,382.0,12.0,0.0,0.0,1.0
2100000.0,9.15625,2.218743482242442E-6,2100000.0,77.60000000000001,54.54047318496752,54.563894523326574,41.51436031331593,612236.0,1498576.0,0.0,1.0,0.0,?,0.0,0.0,711.0,408.0,408.0,12.0,0.0,0.0,1.0
2200000.0,9.640625,2.4246318045900103E-6,2200000.0,80.2,58.05084745762713,58.40336134453782,45.000000000000014,642236.0,1573048.0,0.0,1.0,0.0,?,0.0,0.0,743.0,424.0,424.0,13.0,0.0,0.0,1.0
2300000.0,10.0625,2.6184292639502225E-6,2300000.0,78.5,56.36856588549488,50.80091533180779,41.2568306010929,672086.0,1661856.0,0.0,1.0,0.0,?,0.0,0.0,779.0,442.0,442.0,13.0,0.0,0.0,1.0
2400000.0,10.53125,2.8443031219972507E-6,2400000.0,76.2,51.94462728818282,52.208835341365464,40.05037783375315,702086.0,1777136.0,0.0,1.0,0.0,?,0.0,0.0,814.0,463.0,463.0,13.0,0.0,0.0,1.0
2500000.0,11.046875,3.102223498798493E-6,2500000.0,74.3,48.37284049819204,47.227926078028744,35.75000000000001,732086.0,1876360.0,0.0,1.0,0.0,?,0.0,0.0,863.0,489.0,489.0,13.0,0.0,0.0,1.0
2600000.0,11.5,3.3416216158204607E-6,2600000.0,78.2,56.036332542794,53.01724137931034,46.30541871921183,761936.0,1941320.0,0.0,1.0,0.0,?,0.0,0.0,899.0,507.0,507.0,13.0,0.0,0.0,1.0
2700000.0,11.96875,3.5952226931436195E-6,2700000.0,77.4,53.3580164361397,48.98419864559819,38.75338753387535,791936.0,2018752.0,0.0,1.0,0.0,?,0.0,0.0,931.0,523.0,523.0,13.0,0.0,0.0,1.0
2800000.0,12.421875,3.856527586726265E-6,2800000.0,77.5,53.61169067863004,50.98039215686274,39.353099730458226,821786.0,2112800.0,0.0,1.0,0.0,?,0.0,0.0,971.0,546.0,546.0,13.0,0.0,0.0,1.0
2900000.0,12.890625,4.135335491608E-6,2900000.0,81.10000000000001,60.79326224951252,61.50712830957231,48.91891891891893,851786.0,2211088.0,0.0,1.0,0.0,?,0.0,0.0,1015.0,568.0,568.0,13.0,0.0,0.0,1.0
3000000.0,13.359375,4.417614513335542E-6,3000000.0,77.4,53.90407969291143,51.293103448275865,41.60206718346254,881786.0,2268208.0,0.0,1.0,0.0,?,0.0,0.0,1043.0,582.0,582.0,13.0,0.0,0.0,1.0
3100000.0,13.8125,4.70491025933168E-6,3100000.0,78.5,56.25386593742879,54.641350210970465,45.70707070707072,911636.0,2347544.0,0.0,1.0,0.0,?,0.0,0.0,1074.0,599.0,599.0,14.0,0.0,0.0,1.0
3200000.0,14.296875,5.0146640084373455E-6,3200000.0,78.4,55.57840616966582,54.90605427974948,42.40000000000001,941636.0,2397120.0,0.0,1.0,0.0,?,0.0,0.0,1108.0,616.0,616.0,14.0,0.0,0.0,1.0
3300000.0,14.765625,5.328869932175924E-6,3300000.0,80.2,59.39777466995313,58.92116182572615,47.75725593667548,971486.0,2472488.0,0.0,1.0,0.0,?,0.0,0.0,1140.0,632.0,632.0,14.0,0.0,0.0,1.0
3400000.0,15.359375,5.7384519540290865E-6,3400000.0,80.0,58.987651181770836,58.41995841995843,47.22955145118735,1001486.0,2576416.0,0.0,1.0,0.0,?,0.0,0.0,1176.0,657.0,657.0,14.0,3819.8599695586,0.0,1.0263877643398596
3500000.0,15.859375,6.093076824779726E-6,3500000.0,81.89999999999999,62.991739592704654,59.86696230598668,54.17721518987341,1031486.0,2679704.0,0.0,1.0,0.0,?,0.0,0.0,1232.0,685.0,685.0,14.0,3819.8599695586,0.0,1.0263877643398596
3600000.0,16.375,6.478256901674387E-6,3600000.0,79.7,58.4101618520795,55.28634361233481,46.71916010498689,1061336.0,2781816.0,0.0,1.0,0.0,?,0.0,0.0,1272.0,705.0,705.0,14.0,3819.8599695586,0.0,1.0263877643398596
3700000.0,16.875,6.867374856180201E-6,3700000.0,78.60000000000001,55.349691203471885,53.47826086956522,40.555555555555564,1091336.0,2930824.0,0.0,1.0,0.0,?,0.0,0.0,1321.0,739.0,739.0,14.0,3819.8599695586,0.0,1.0263877643398596
3800000.0,17.375,7.276403452528434E-6,3800000.0,79.4,57.682826622843066,53.914988814317674,44.021739130434796,1121186.0,3041016.0,0.0,1.0,0.0,?,0.0,0.0,1346.0,755.0,755.0,14.0,3819.8599695586,0.0,1.0263877643398596
3900000.0,17.890625,7.705249849499928E-6,3900000.0,81.10000000000001,60.40392189725971,60.21052631578948,48.219178082191796,1151186.0,3122168.0,0.0,1.0,0.0,?,0.0,0.0,1368.0,766.0,766.0,14.0,3819.8599695586,0.0,1.0263877643398596
4000000.0,18.390625,8.122035328091848E-6,4000000.0,79.80000000000001,58.66398732907968,57.65199161425577,48.071979434447314,1181186.0,3158008.0,0.0,1.0,0.0,?,0.0,0.0,1382.0,773.0,773.0,14.0,3819.8599695586,0.0,1.0263877643398596
4100000.0,18.921875,8.583386208758586E-6,4100000.0,81.3,61.48300720906281,60.21276595744679,50.13333333333332,1211036.0,3248984.0,0.0,1.0,0.0,?,0.0,0.0,1411.0,789.0,789.0,14.0,3819.8599695586,0.0,1.0263877643398596
4200000.0,19.4375,9.046344817357345E-6,4200000.0,81.3,61.07248428327573,60.1279317697228,52.17391304347825,1241036.0,3391040.0,0.0,1.0,0.0,?,0.0,0.0,1465.0,824.0,824.0,14.0,3819.8599695586,0.0,1.0263877643398596
4300000.0,19.953125,9.52401929276271E-6,4300000.0,83.39999999999999,65.44905817462795,64.60554371002131,56.88311688311688,1270886.0,3457752.0,0.0,1.0,0.0,?,0.0,0.0,1494.0,842.0,842.0,14.0,3819.8599695586,0.0,1.0263877643398596
4400000.0,20.5,1.0045257739774469E-5,4400000.0,80.7,60.63024250138713,59.453781512605055,51.26262626262628,1300886.0,3589352.0,0.0,1.0,0.0,?,0.0,0.0,1550.0,878.0,878.0,14.0,3819.8599695586,0.0,1.0263877643398596
4500000.0,21.0625,1.0589823003910068E-5,4500000.0,81.5,59.88342339685485,59.782608695652165,44.61077844311375,1330886.0,3675704.0,0.0,1.0,0.0,?,0.0,0.0,1576.0,891.0,891.0,14.0,3819.8599695586,0.0,1.0263877643398596
4600000.0,21.625,1.1148813290573243E-5,4600000.0,82.6,63.55929363669871,61.67400881057268,52.45901639344262,1360736.0,3731176.0,0.0,1.0,0.0,?,0.0,0.0,1602.0,904.0,904.0,14.0,3819.8599695586,0.0,1.0263877643398596
4700000.0,22.171875,1.1700053906275167E-5,4700000.0,81.0,60.673599152205604,59.745762711864415,49.46808510638299,1390736.0,3814504.0,0.0,1.0,0.0,?,0.0,0.0,1638.0,922.0,922.0,14.0,3819.8599695586,0.0,1.0263877643398596
4800000.0,22.765625,1.2314006065328916E-5,4800000.0,82.5,63.548653174808145,63.389121338912126,53.20855614973261,1420586.0,3871560.0,0.0,1.0,0.0,?,0.0,0.0,1656.0,931.0,931.0,14.0,3819.8599695586,0.0,1.0263877643398596
4900000.0,23.484375,1.3062596165885528E-5,4900000.0,81.8,62.36683649837887,61.68421052631577,51.07526881720429,1450586.0,3929080.0,0.0,1.0,0.0,?,0.0,0.0,1675.0,942.0,942.0,14.0,3819.8599695586,0.0,1.0263877643398596
5000000.0,24.140625,1.3752200563127795E-5,5000000.0,81.39999999999999,61.350649350649334,59.82721382289415,50.39999999999999,1480586.0,3990384.0,0.0,1.0,0.0,?,0.0,0.0,1702.0,957.0,957.0,15.0,3819.8599695586,0.0,1.0263877643398596
5100000.0,24.734375,1.3779000081639322E-5,5100000.0,97.5,94.89870876116161,94.78079331941545,94.21296296296295,24214.0,82136.0,0.0,1.0,0.0,?,3.0,8.0,34.0,19.0,19.0,4.0,0.0,0.0,1.0
5200000.0,24.984375,1.3790144391047457E-5,5200000.0,98.2,96.36228416219362,96.49805447470817,96.01769911504424,54214.0,108632.0,0.0,1.0,0.0,?,0.0,0.0,46.0,25.0,25.0,5.0,0.0,0.0,1.0
5300000.0,25.28125,1.3808457620648873E-5,5300000.0,97.5,94.97022372444873,94.80249480249479,94.56521739130434,84064.0,131304.0,0.0,1.0,0.0,?,0.0,0.0,56.0,30.0,30.0,5.0,0.0,0.0,1.0
5400000.0,25.5625,1.3823725490106475E-5,5400000.0,98.0,95.97293814432989,96.04743083003953,95.65217391304347,114064.0,131496.0,0.0,1.0,0.0,?,0.0,0.0,56.0,30.0,30.0,5.0,0.0,0.0,1.0
5500000.0,25.828125,1.3836499775708134E-5,5500000.0,97.3,94.56784162240463,94.39834024896265,94.16846652267819,144064.0,136320.0,0.0,1.0,0.0,?,0.0,0.0,60.0,32.0,32.0,6.0,0.0,0.0,1.0
5600000.0,26.125,1.3854709783724196E-5,5600000.0,97.5,94.96227753417591,95.07874015748031,94.46902654867256,173914.0,144144.0,0.0,1.0,0.0,?,0.0,0.0,62.0,33.0,33.0,6.0,0.0,0.0,1.0
5700000.0,26.40625,1.3870410718178995E-5,5700000.0,97.5,94.91551621746946,94.89795918367346,94.22632794457274,203914.0,151584.0,0.0,1.0,0.0,?,0.0,0.0,66.0,35.0,35.0,6.0,0.0,0.0,1.0
5800000.0,26.671875,1.3888537812615846E-5,5800000.0,97.5,94.93061019231237,94.98997995991984,94.33106575963718,233764.0,156216.0,0.0,1.0,0.0,?,0.0,0.0,68.0,36.0,36.0,6.0,0.0,0.0,1.0
5900000.0,26.9375,1.390495466896229E-5,5900000.0,97.2,94.3973779728913,94.12997903563941,94.39999999999999,263764.0,160104.0,0.0,1.0,0.0,?,0.0,0.0,70.0,37.0,37.0,6.0,0.0,0.0,1.0
6000000.0,27.203125,1.3919672281998725E-5,6000000.0,97.3,94.56070654407439,94.74708171206225,94.09190371991247,293764.0,164152.0,0.0,1.0,0.0,?,0.0,0.0,72.0,38.0,38.0,6.0,0.0,0.0,1.0
6100000.0,27.5,1.394265874599417E-5,6100000.0,96.8,93.58130877114156,93.8223938223938,93.22033898305084,323614.0,205712.0,0.0,1.0,0.0,?,0.0,0.0,90.0,47.0,47.0,6.0,0.0,0.0,1.0
6200000.0,27.796875,1.3971120254912723E-5,6200000.0,97.7,95.37115302565589,95.33468559837728,95.02164502164501,353614.0,305816.0,0.0,1.0,0.0,?,0.0,0.0,134.0,87.0,87.0,7.0,0.0,0.0,1.0
6300000.0,28.09375,1.4008080955439557E-5,6300000.0,97.39999999999999,94.79266807665192,94.9514563106796,94.62809917355372,383464.0,372896.0,0.0,1.0,0.0,?,0.0,0.0,134.0,87.0,87.0,7.0,0.0,0.0,1.0
6400000.0,28.375,1.4041272127845634E-5,6400000.0,97.6,95.19855956787036,95.46313799621929,95.17102615694164,413464.0,376624.0,0.0,1.0,0.0,?,0.0,0.0,134.0,87.0,87.0,7.0,0.0,0.0,1.0
6500000.0,28.671875,1.4074465240507075E-5,6500000.0,96.39999999999999,92.78499278499278,92.38900634249471,92.45283018867923,443464.0,381424.0,0.0,1.0,0.0,?,0.0,0.0,134.0,87.0,87.0,7.0,0.0,0.0,1.0
6600000.0,28.953125,1.4109405553123602E-5,6600000.0,97.7,95.39436269994472,95.54263565891472,95.22821576763485,473314.0,386080.0,0.0,1.0,0.0,?,0.0,0.0,136.0,88.0,88.0,7.0,0.0,0.0,1.0
6700000.0,29.234375,1.4142263195632644E-5,6700000.0,97.5,94.96710499826868,94.71458773784354,94.4812362030905,503314.0,386256.0,0.0,1.0,0.0,?,0.0,0.0,136.0,88.0,88.0,7.0,0.0,0.0,1.0
6800000.0,29.515625,1.4178279185822852E-5,6800000.0,97.39999999999999,94.76658990998534,94.921875,94.32314410480349,533164.0,386320.0,0.0,1.0,0.0,?,0.0,0.0,136.0,88.0,88.0,7.0,0.0,0.0,1.0
6900000.0,29.78125,1.421031962511026E-5,6900000.0,97.39999999999999,94.74959612277867,94.81037924151696,94.22222222222221,563164.0,386384.0,0.0,1.0,0.0,?,0.0,0.0,136.0,88.0,88.0,7.0,0.0,0.0,1.0
7000000.0,30.078125,1.4246378980007848E-5,7000000.0,97.6,95.15910411153423,95.131845841785,94.69026548672565,593164.0,418376.0,0.0,1.0,0.0,?,0.0,0.0,145.0,96.0,96.0,7.0,0.0,0.0,1.0
7100000.0,30.390625,1.4300002464248486E-5,7100000.0,97.3,94.58362086950939,94.6215139442231,94.29175475687103,623014.0,568608.0,0.0,1.0,0.0,?,0.0,0.0,183.0,131.0,131.0,7.0,0.0,0.0,1.0
7200000.0,30.734375,1.4370841381605712E-5,7200000.0,97.3,94.5963255013409,94.67455621301775,94.46721311475409,653014.0,730504.0,0.0,1.0,0.0,?,0.0,0.0,223.0,169.0,169.0,7.0,0.0,0.0,1.0
7300000.0,31.09375,1.4473584273623093E-5,7300000.0,97.0,93.98845783905098,94.05940594059405,93.74999999999999,682864.0,995696.0,0.0,1.0,0.0,?,0.0,0.0,325.0,265.0,265.0,7.0,0.0,0.0,1.0
7400000.0,31.453125,1.4599660547294963E-5,7400000.0,97.8,95.58412049730832,95.71984435797664,95.30916844349679,712864.0,1274848.0,0.0,1.0,0.0,?,0.0,0.0,365.0,303.0,303.0,7.0,0.0,0.0,1.0
7500000.0,31.828125,1.4739441200314709E-5,7500000.0,97.39999999999999,94.77292374499909,94.9119373776908,94.38444924406046,742864.0,1388232.0,0.0,1.0,0.0,?,0.0,0.0,385.0,322.0,322.0,7.0,0.0,0.0,1.0
7600000.0,32.25,1.4946165125972278E-5,7600000.0,97.6,95.18893454946377,95.39347408829174,94.94736842105263,772714.0,1797808.0,0.0,1.0,0.0,?,0.0,0.0,507.0,437.0,437.0,7.0,0.0,0.0,1.0
7700000.0,32.640625,1.5157880132190054E-5,7700000.0,97.3,94.57735503462459,94.85714285714285,94.18103448275862,802714.0,2027304.0,0.0,1.0,0.0,?,0.0,0.0,567.0,494.0,494.0,7.0,0.0,0.0,1.0
7800000.0,33.078125,1.5410508624174526E-5,7800000.0,97.3,94.58027219077442,94.56740442655935,94.30379746835442,832564.0,2120672.0,0.0,1.0,0.0,?,0.0,0.0,567.0,494.0,494.0,7.0,0.0,0.0,1.0
7900000.0,33.46875,1.5642040105174397E-5,7900000.0,97.39999999999999,94.7932729085979,94.7261663286004,94.61697722567287,862564.0,2208456.0,0.0,1.0,0.0,?,0.0,0.0,587.0,513.0,513.0,7.0,0.0,0.0,1.0
8000000.0,33.890625,1.589784007390133E-5,8000000.0,96.5,92.91927978960145,92.70833333333333,92.09932279909707,892564.0,2289808.0,0.0,1.0,0.0,?,0.0,0.0,607.0,532.0,532.0,7.0,0.0,0.0,1.0
8100000.0,34.25,1.6120612433749352E-5,8100000.0,96.1,92.17150427556304,92.44186046511628,91.77215189873417,922414.0,2298808.0,0.0,1.0,0.0,?,0.0,0.0,609.0,533.0,533.0,7.0,0.0,0.0,1.0
8200000.0,34.65625,1.6370068543538864E-5,8200000.0,97.2,94.38130096962692,94.08033826638477,94.01709401709401,952414.0,2305024.0,0.0,1.0,0.0,?,0.0,0.0,609.0,533.0,533.0,7.0,0.0,0.0,1.0
8300000.0,35.09375,1.6643864704140773E-5,8300000.0,97.3,94.5715112912565,94.82758620689656,94.23076923076923,982264.0,2307192.0,0.0,1.0,0.0,?,0.0,0.0,609.0,533.0,533.0,7.0,0.0,0.0,1.0
8400000.0,35.515625,1.6913855409560106E-5,8400000.0,97.3,94.57853098269146,94.71624266144813,94.25531914893617,1012264.0,2392456.0,0.0,1.0,0.0,?,0.0,0.0,629.0,552.0,552.0,7.0,4310.260869565217,0.0,1.0040079621261029
8500000.0,35.859375,1.7136369844795102E-5,8500000.0,97.7,95.37803642911113,95.34412955465586,95.04310344827586,1042264.0,2449720.0,0.0,1.0,0.0,?,0.0,0.0,649.0,571.0,571.0,8.0,4310.260869565217,0.0,1.0040079621261029
8600000.0,36.203125,1.7365708998921846E-5,8600000.0,98.2,96.39532834553582,96.34146341463415,96.26556016597509,1072114.0,2483024.0,0.0,1.0,0.0,?,0.0,0.0,649.0,571.0,571.0,8.0,4310.260869565217,0.0,1.0040079621261029
8700000.0,36.546875,1.759271609545168E-5,8700000.0,97.2,94.36029648727038,94.20289855072464,93.85964912280701,1102114.0,2485600.0,0.0,1.0,0.0,?,0.0,0.0,649.0,571.0,571.0,8.0,4310.260869565217,0.0,1.0040079621261029
8800000.0,36.890625,1.782366947736591E-5,8800000.0,97.8,95.58309207646872,95.5193482688391,95.28907922912205,1131964.0,2486632.0,0.0,1.0,0.0,?,0.0,0.0,649.0,571.0,571.0,8.0,4310.260869565217,0.0,1.0040079621261029
8900000.0,37.234375,1.80522893788293E-5,8900000.0,97.8,95.59709408209417,95.64356435643563,95.46391752577318,1161964.0,2489192.0,0.0,1.0,0.0,?,0.0,0.0,649.0,571.0,571.0,8.0,4310.260869565217,0.0,1.0040079621261029
9000000.0,37.5625,1.826813861650104E-5,9000000.0,98.0,95.98561243496691,96.08610567514677,95.73560767590618,1191964.0,2489968.0,0.0,1.0,0.0,?,0.0,0.0,649.0,571.0,571.0,8.0,4310.260869565217,0.0,1.0040079621261029
9100000.0,37.90625,1.8498152203392235E-5,9100000.0,97.39999999999999,94.75563265223794,95.06641366223909,94.26048565121413,1221814.0,2490320.0,0.0,1.0,0.0,?,0.0,0.0,649.0,571.0,571.0,8.0,4310.260869565217,0.0,1.0040079621261029
9200000.0,38.234375,1.871533313533291E-5,9200000.0,97.2,94.38598742461183,94.42231075697211,94.0928270042194,1251814.0,2491112.0,0.0,1.0,0.0,?,0.0,0.0,649.0,571.0,571.0,8.0,4310.260869565217,0.0,1.0040079621261029
9300000.0,38.5625,1.8936312893250334E-5,9300000.0,96.7,93.36480693598847,93.503937007874,92.91845493562231,1281664.0,2492520.0,0.0,1.0,0.0,?,0.0,0.0,649.0,571.0,571.0,8.0,4310.260869565217,0.0,1.0040079621261029
9400000.0,38.90625,1.916536534230949E-5,9400000.0,96.2,92.38247970331763,91.81034482758619,92.0335429769392,1311664.0,2493768.0,0.0,1.0,0.0,?,0.0,0.0,649.0,571.0,571.0,8.0,4310.260869565217,0.0,1.0040079621261029
9500000.0,39.25,1.9391864479985085E-5,9500000.0,97.6,95.18491916683051,94.98956158663883,94.9260042283298,1341664.0,2493856.0,0.0,1.0,0.0,?,0.0,0.0,649.0,571.0,571.0,8.0,4310.260869565217,0.0,1.0040079621261029
9600000.0,39.59375,1.9622279311685508E-5,9600000.0,98.3,96.58971457917077,96.71179883945841,96.39065817409767,1371514.0,2494544.0,0.0,1.0,0.0,?,0.0,0.0,649.0,571.0,571.0,8.0,4310.260869565217,0.0,1.0040079621261029
9700000.0,39.921875,1.9839781452901657E-5,9700000.0,98.1,96.1682733029484,95.97457627118644,95.82417582417581,1401514.0,2494608.0,0.0,1.0,0.0,?,0.0,0.0,649.0,571.0,571.0,8.0,4310.260869565217,0.0,1.0040079621261029
9800000.0,40.25,2.006111637456342E-5,9800000.0,97.3,94.58427272800212,94.71624266144813,94.21841541755887,1431364.0,2496416.0,0.0,1.0,0.0,?,0.0,0.0,649.0,571.0,571.0,8.0,4310.260869565217,0.0,1.0040079621261029
9900000.0,40.59375,2.0290435608735095E-5,9900000.0,97.1,94.1636277280009,94.15322580645162,93.72294372294373,1461364.0,2496480.0,0.0,1.0,0.0,?,0.0,0.0,649.0,571.0,571.0,8.0,4310.260869565217,0.0,1.0040079621261029
1.0E7,40.96875,2.0537860853235335E-5,1.0E7,97.8,95.59068753206772,95.54655870445343,95.39748953974895,1491364.0,2497024.0,0.0,1.0,0.0,?,0.0,0.0,649.0,571.0,571.0,8.0,4310.260869565217,0.0,1.0040079621261029
