learning evaluation instances,evaluation time (cpu seconds),model cost (RAM-Hours),classified instances,classifications correct (percent),Kappa Statistic (percent),Kappa Temporal Statistic (percent),Kappa M Statistic (percent),model training instances,model serialized size (bytes),labeling cost,newThreshold,maxPosterior,accuracyBaseLearner (percent),Change detected,Warning detected
100000.0,0.328125,5.313874377558629E-9,100000.0,71.39999999999999,42.80480439643069,42.222222222222214,42.454728370221325,29850.0,2904.0,0.0,1.0,0.0,?,0.0,26.0
200000.0,0.65625,8.047209121286869E-9,200000.0,71.2,42.40737185640237,40.61855670103092,40.8624229979466,59850.0,2904.0,0.0,1.0,0.0,?,0.0,0.0
300000.0,0.984375,1.4664256013929844E-8,300000.0,69.1,37.77888751067221,39.17322834645668,31.78807947019866,89700.0,2904.0,0.0,1.0,0.0,?,0.0,0.0
400000.0,1.328125,1.889297790411446E-8,400000.0,71.1,42.190750520083206,45.16129032258064,41.616161616161605,119700.0,2904.0,0.0,1.0,0.0,?,0.0,0.0
500000.0,1.65625,2.0348945529096657E-8,500000.0,73.2,46.362239016267445,45.96774193548387,43.93305439330543,149700.0,2904.0,0.0,1.0,0.0,?,0.0,0.0
600000.0,1.96875,2.5434354837569927E-8,600000.0,67.80000000000001,35.56829960340489,34.15132924335379,31.196581196581203,179550.0,2904.0,0.0,1.0,0.0,?,0.0,0.0
700000.0,2.296875,2.8193494977636473E-8,700000.0,71.5,42.883482303899946,44.552529182879375,41.23711340206185,209550.0,2904.0,0.0,1.0,0.0,?,0.0,0.0
800000.0,2.625,3.483634726661775E-8,800000.0,71.5,42.876613485127876,44.22700587084149,35.81081081081079,239400.0,2904.0,0.0,1.0,0.0,?,0.0,0.0
900000.0,2.953125,3.889865992176864E-8,900000.0,68.2,36.17943613126968,36.27254509018037,33.19327731092438,269400.0,2904.0,0.0,1.0,0.0,?,0.0,0.0
1000000.0,3.265625,4.030987232302626E-8,1000000.0,69.39999999999999,38.802692681522,36.116910229645086,39.99999999999999,299400.0,2904.0,0.0,1.0,0.0,?,0.0,0.0
1100000.0,3.59375,4.56753574932615E-8,1100000.0,71.5,43.000455996352024,43.45238095238095,44.33593749999999,329250.0,2904.0,0.0,1.0,0.0,?,0.0,0.0
1200000.0,3.90625,4.8327686575551834E-8,1200000.0,72.0,44.00358377063868,44.22310756972111,43.08943089430894,359250.0,2904.0,0.0,1.0,0.0,?,0.0,0.0
1300000.0,4.234375,5.499634426087142E-8,1300000.0,68.60000000000001,37.31233629336231,36.04887983706722,32.61802575107297,389100.0,2904.0,0.0,1.0,0.0,?,0.0,0.0
1400000.0,4.5625,5.9084462312360614E-8,1400000.0,69.1,38.187637527505494,39.41176470588235,38.69047619047618,419100.0,2904.0,0.0,1.0,0.0,?,0.0,0.0
1500000.0,4.890625,6.059204073001943E-8,1500000.0,70.5,41.116824220746025,40.28340080971659,37.100213219616194,449100.0,2904.0,0.0,1.0,0.0,?,0.0,0.0
1600000.0,5.203125,6.572660317437518E-8,1600000.0,69.5,38.9516497065676,40.31311154598825,36.7219917012448,478950.0,2904.0,0.0,1.0,0.0,?,0.0,0.0
1700000.0,5.546875,6.867119938962992E-8,1700000.0,69.8,39.59637578254694,39.357429718875494,39.720558882235515,508950.0,2904.0,0.0,1.0,0.0,?,0.0,0.0
1800000.0,5.859375,7.504687851501838E-8,1800000.0,69.6,39.13353381893025,38.585858585858574,37.57700205338808,538800.0,2904.0,0.0,1.0,0.0,?,0.0,0.0
1900000.0,6.1875,7.916080196284588E-8,1900000.0,72.8,45.59412416540986,45.81673306772908,43.096234309623426,568800.0,2904.0,0.0,1.0,0.0,?,0.0,0.0
2000000.0,6.515625,8.069418577684298E-8,2000000.0,68.89999999999999,37.45575648368619,37.67535070140279,31.947483588621427,598800.0,2904.0,0.0,1.0,0.0,?,0.0,0.0
2100000.0,6.875,8.662719564098452E-8,2100000.0,72.5,45.012317240938025,47.01348747591522,43.53182751540041,628650.0,2904.0,0.0,1.0,0.0,?,0.0,0.0
2200000.0,7.203125,8.946375197006597E-8,2200000.0,68.60000000000001,37.23690470003639,37.074148296593194,34.44676409185804,658650.0,2904.0,0.0,1.0,0.0,?,0.0,0.0
2300000.0,7.53125,9.618402044806217E-8,2300000.0,70.89999999999999,41.434551601996446,42.490118577075094,36.87635574837309,688500.0,2904.0,0.0,1.0,0.0,?,0.0,0.0
2400000.0,7.859375,1.0032374929222796E-7,2400000.0,68.2,36.42848004094167,39.312977099236655,32.62711864406781,718500.0,2904.0,0.0,1.0,0.0,?,0.0,0.0
2500000.0,8.1875,1.0188293850256337E-7,2500000.0,68.60000000000001,37.18417041094357,41.95933456561924,35.523613963039026,748500.0,2904.0,0.0,1.0,0.0,?,0.0,0.0
2600000.0,8.5,1.0706665408280162E-7,2600000.0,73.1,46.18880727191256,45.656565656565654,45.87525150905432,778350.0,2904.0,0.0,1.0,0.0,?,0.0,0.0
2700000.0,8.828125,1.0992901580822137E-7,2700000.0,70.6,41.13194853250357,40.96385542168674,39.13043478260869,808350.0,2904.0,0.0,1.0,0.0,?,0.0,22.0
2800000.0,9.15625,1.1661193437046476E-7,2800000.0,68.8,37.399678972712664,36.71399594320486,30.666666666666647,838200.0,2904.0,0.0,1.0,0.0,?,0.0,86.0
2900000.0,9.484375,1.2071431329887775E-7,2900000.0,68.30000000000001,36.542126419294405,38.32684824902725,35.04098360655738,868200.0,2904.0,0.0,1.0,0.0,?,0.0,0.0
3000000.0,9.796875,1.221636840556231E-7,3000000.0,71.0,41.931014044685085,39.834024896265554,37.90149892933618,898200.0,2904.0,0.0,1.0,0.0,?,0.0,0.0
3100000.0,10.125,1.2756923549912044E-7,3100000.0,70.8,41.540371178602165,42.96874999999999,39.544513457556924,928050.0,2904.0,0.0,1.0,0.0,?,0.0,0.0
3200000.0,10.453125,1.303942473087874E-7,3200000.0,70.39999999999999,40.79999999999999,40.681362725450896,41.38613861386138,958050.0,2904.0,0.0,1.0,0.0,?,0.0,0.0
3300000.0,10.765625,1.3678350822172234E-7,3300000.0,73.2,46.437493754371935,44.855967078189295,44.39834024896265,987900.0,2904.0,0.0,1.0,0.0,?,0.0,0.0
3400000.0,11.109375,1.4110827275241418E-7,3400000.0,73.9,47.84130968273127,46.62576687116564,46.62576687116564,1017900.0,2904.0,0.0,1.0,0.0,?,0.0,0.0
3500000.0,11.421875,1.4258222007710075E-7,3500000.0,72.2,44.409116904827606,42.56198347107437,39.43355119825707,1047900.0,2904.0,0.0,1.0,0.0,?,0.0,0.0
3600000.0,11.765625,1.4827221295692858E-7,3600000.0,71.7,43.390489602253176,42.36252545824847,41.164241164241155,1077750.0,2904.0,0.0,1.0,0.0,?,0.0,0.0
3700000.0,12.09375,1.5112303016293383E-7,3700000.0,70.5,40.53186685588955,41.117764471057875,35.72984749455336,1107750.0,2904.0,0.0,1.0,0.0,?,0.0,0.0
3800000.0,12.421875,1.5785755951785381E-7,3800000.0,70.19999999999999,40.34272901985905,39.797979797979785,39.43089430894308,1137600.0,2904.0,0.0,1.0,0.0,?,0.0,0.0
3900000.0,12.75,1.620115492389434E-7,3900000.0,71.89999999999999,43.794604282011065,45.64796905222437,40.96638655462184,1167600.0,2904.0,0.0,1.0,0.0,?,0.0,0.0
4000000.0,13.09375,1.63659925520834E-7,4000000.0,72.39999999999999,44.48020598648213,48.79406307977737,38.93805309734512,1197600.0,2904.0,0.0,1.0,0.0,?,0.0,0.0
4100000.0,13.421875,1.6911708775700797E-7,4100000.0,68.4,36.68451255089283,38.16046966731899,31.601731601731608,1227450.0,2904.0,0.0,1.0,0.0,?,0.0,0.0
4200000.0,13.75,1.7199371035935154E-7,4200000.0,69.39999999999999,38.79094105927676,39.644970414201175,38.79999999999999,1257450.0,2904.0,0.0,1.0,0.0,?,0.0,0.0
4300000.0,14.078125,1.7875404511060984E-7,4300000.0,73.8,47.60272465831776,47.49498997995992,46.20123203285421,1287300.0,2904.0,0.0,1.0,0.0,?,0.0,0.0
4400000.0,14.390625,1.8273480236530307E-7,4400000.0,71.39999999999999,42.769782445131014,44.3579766536965,45.83333333333333,1317300.0,2904.0,0.0,1.0,0.0,?,0.0,0.0
4500000.0,14.71875,1.8433405784890059E-7,4500000.0,68.89999999999999,37.7925351042125,39.13894324853228,37.55020080321284,1347300.0,2904.0,0.0,1.0,0.0,?,0.0,0.0
4600000.0,15.0625,1.9007811917819913E-7,4600000.0,71.1,42.22311075569771,42.31536926147704,41.73387096774193,1377150.0,2904.0,0.0,1.0,0.0,?,0.0,0.0
4700000.0,15.359375,1.9270412546272082E-7,4700000.0,69.89999999999999,39.83369313184615,44.15584415584415,37.02928870292886,1407150.0,2904.0,0.0,1.0,0.0,?,0.0,0.0
4800000.0,15.671875,1.9916711607947948E-7,4800000.0,71.2,42.36680327868852,43.30708661417322,41.46341463414633,1437000.0,2904.0,0.0,1.0,0.0,?,0.0,0.0
4900000.0,16.015625,2.0357298328437743E-7,4900000.0,72.7,45.16618862831111,45.83333333333333,40.522875816993455,1467000.0,2904.0,0.0,1.0,0.0,?,0.0,0.0
5000000.0,16.34375,2.0538479374307728E-7,5000000.0,69.1,37.98318922954647,39.530332681017605,35.22012578616351,1497000.0,2904.0,0.0,1.0,0.0,?,0.0,0.0
5100000.0,16.671875,2.110809954400692E-7,5100000.0,62.1,24.130199783801093,23.434343434343432,22.653061224489793,26971.0,2904.0,0.0,1.0,0.0,?,1.0,11.0
5200000.0,16.984375,2.1405864067168703E-7,5200000.0,63.5,26.65970101269893,21.336206896551722,22.505307855626324,56971.0,2904.0,0.0,1.0,0.0,?,0.0,11.0
5300000.0,17.3125,2.2106888031380048E-7,5300000.0,66.0,31.688499557984407,28.27004219409283,26.406926406926406,86821.0,2904.0,0.0,1.0,0.0,?,0.0,0.0
5400000.0,17.640625,2.2549858032208352E-7,5400000.0,67.4,34.79608776526592,33.604887983706725,33.87423935091279,116821.0,2904.0,0.0,1.0,0.0,?,0.0,0.0
5500000.0,17.984375,2.274357959524625E-7,5500000.0,67.0,33.741592209617515,35.546875000000014,30.526315789473692,146821.0,2904.0,0.0,1.0,0.0,?,0.0,0.0
5600000.0,18.296875,2.3289567454614575E-7,5600000.0,66.7,33.42396737174617,37.28813559322035,30.334728033472807,176671.0,2904.0,0.0,1.0,0.0,?,0.0,0.0
5700000.0,18.625,2.3604800743568277E-7,5700000.0,64.5,28.666157617650605,26.501035196687372,22.993492407809107,206671.0,2904.0,0.0,1.0,0.0,?,0.0,0.0
5800000.0,18.96875,2.434191022378703E-7,5800000.0,66.4,32.51792492619148,32.25806451612904,24.494382022471907,236521.0,2904.0,0.0,1.0,0.0,?,0.0,0.0
5900000.0,19.296875,2.478746076424917E-7,5900000.0,64.1,28.179315642905156,33.02238805970149,22.12581344902386,266521.0,2904.0,0.0,1.0,0.0,?,0.0,0.0
6000000.0,19.609375,2.496602893289593E-7,6000000.0,63.9,27.816169178104104,28.08764940239044,26.626016260162604,296521.0,2904.0,0.0,1.0,0.0,?,0.0,0.0
6100000.0,19.9375,2.554705780413416E-7,6100000.0,64.9,29.787080822871413,29.940119760479046,26.41509433962264,326371.0,2904.0,0.0,1.0,0.0,?,0.0,46.0
6200000.0,20.265625,2.5863581362904775E-7,6200000.0,65.3,30.471511352980308,31.960784313725497,25.69593147751606,356371.0,2904.0,0.0,1.0,0.0,?,0.0,105.0
6300000.0,20.578125,2.654105386075874E-7,6300000.0,63.3,26.649878082903626,22.899159663865547,25.254582484725052,386221.0,2904.0,0.0,1.0,0.0,?,0.0,51.0
6400000.0,20.890625,2.6972760679200293E-7,6400000.0,65.0,29.98991854827096,28.716904276985744,30.830039525691706,416221.0,2904.0,0.0,1.0,0.0,?,0.0,0.0
6500000.0,21.25,2.7186592989083796E-7,6500000.0,63.1,26.24071512525087,23.602484472049685,25.903614457831324,446221.0,2904.0,0.0,1.0,0.0,?,0.0,0.0
6600000.0,21.578125,2.777020239995586E-7,6600000.0,64.5,28.784644765771706,30.79922027290449,24.78813559322034,476071.0,2904.0,0.0,1.0,0.0,?,0.0,0.0
6700000.0,21.90625,2.8095757847444883E-7,6700000.0,65.10000000000001,30.213399027386746,30.75396825396826,27.892561983471076,506071.0,2904.0,0.0,1.0,0.0,?,0.0,0.0
6800000.0,22.234375,2.880968450982538E-7,6800000.0,64.2,28.448082888299066,29.388560157790934,24.152542372881356,535921.0,2904.0,0.0,1.0,0.0,?,0.0,0.0
6900000.0,22.578125,2.928726543258462E-7,6900000.0,67.4,34.74884309298491,35.44554455445545,32.921810699588484,565921.0,2904.0,0.0,1.0,0.0,?,0.0,0.0
7000000.0,22.90625,2.948508416819904E-7,7000000.0,65.2,30.362953091044442,31.22529644268775,26.27118644067797,595921.0,2904.0,0.0,1.0,0.0,?,0.0,0.0
7100000.0,23.234375,3.007127411870493E-7,7100000.0,64.4,28.881643872833983,30.196078431372552,27.789046653144016,625771.0,2904.0,0.0,1.0,0.0,?,0.0,0.0
7200000.0,23.5625,3.0399410105827784E-7,7200000.0,63.9,27.791334960195236,28.373015873015877,26.024590163934423,655771.0,2904.0,0.0,1.0,0.0,?,0.0,0.0
7300000.0,23.875,3.108179791727E-7,7300000.0,66.3,32.49415082849909,31.78137651821863,24.099099099099096,685621.0,2904.0,0.0,1.0,0.0,?,0.0,0.0
7400000.0,24.21875,3.156208226250278E-7,7400000.0,63.7,27.384315012042602,26.069246435845216,26.069246435845216,715621.0,2904.0,0.0,1.0,0.0,?,0.0,0.0
7500000.0,24.5625,3.17720243603819E-7,7500000.0,66.4,32.82794357547261,33.20079522862824,32.3943661971831,745621.0,2904.0,0.0,1.0,0.0,?,0.0,0.0
7600000.0,24.875,3.2332758160514965E-7,7600000.0,63.9,27.37529070001368,25.56701030927835,20.484581497797354,775471.0,2904.0,0.0,1.0,0.0,?,0.0,0.0
7700000.0,25.203125,3.266347468727165E-7,7700000.0,64.3,28.644525815890887,25.779625779625782,26.69404517453799,805471.0,2904.0,0.0,1.0,0.0,?,0.0,0.0
7800000.0,25.53125,3.3382562428919804E-7,7800000.0,64.5,29.119079945691233,30.79922027290449,24.78813559322034,835321.0,2904.0,0.0,1.0,0.0,?,0.0,0.0
7900000.0,25.84375,3.3821642217743727E-7,7900000.0,64.7,29.396611037329794,30.784313725490204,28.397565922920897,865321.0,2904.0,0.0,1.0,0.0,?,0.0,0.0
8000000.0,26.203125,3.4043953443566954E-7,8000000.0,64.5,28.893055154953057,29.980276134122292,21.633554083885205,895321.0,2904.0,0.0,1.0,0.0,?,0.0,0.0
8100000.0,26.53125,3.4634964928651845E-7,8100000.0,67.0,34.00000000000001,33.86773547094189,29.487179487179493,6048.0,2904.0,0.0,1.0,0.0,?,3.0,12.0
8200000.0,26.84375,3.494676396561165E-7,8200000.0,63.6,26.581226577595974,25.102880658436217,19.29046563192904,36048.0,2904.0,0.0,1.0,0.0,?,0.0,11.0
8300000.0,27.1875,3.5696607988534696E-7,8300000.0,62.8,25.706091701050898,24.848484848484848,23.770491803278688,65898.0,2904.0,0.0,1.0,0.0,?,0.0,0.0
8400000.0,27.515625,3.615431422885093E-7,8400000.0,65.7,31.284558057536678,32.61296660117879,29.713114754098363,95898.0,2904.0,0.0,1.0,0.0,?,0.0,0.0
8500000.0,27.8125,3.633495200321906E-7,8500000.0,67.5,34.90261431100928,31.144067796610177,33.53783231083845,125898.0,2904.0,0.0,1.0,0.0,?,0.0,0.0
8600000.0,28.140625,3.6922975495043723E-7,8600000.0,62.6,25.1338182953731,29.300567107750474,22.406639004149376,155748.0,2904.0,0.0,1.0,0.0,?,0.0,0.0
8700000.0,28.46875,3.725294502348535E-7,8700000.0,64.7,28.91205232717371,27.216494845360828,24.411134903640257,185748.0,2904.0,0.0,1.0,0.0,?,0.0,0.0
8800000.0,28.78125,3.7937079064754975E-7,8800000.0,65.0,29.572079957823743,28.42535787321064,25.37313432835821,215598.0,2904.0,0.0,1.0,0.0,?,0.0,0.0
8900000.0,29.125,3.84192842627979E-7,8900000.0,68.2,36.423141976320636,37.52455795677801,38.011695906432756,245598.0,2904.0,0.0,1.0,0.0,?,0.0,0.0
9000000.0,29.453125,3.862151707936492E-7,9000000.0,66.2,32.22514086342765,31.578947368421055,31.020408163265312,275598.0,2904.0,0.0,1.0,0.0,?,0.0,0.0
9100000.0,29.78125,3.921212111082342E-7,9100000.0,64.60000000000001,28.72071810856196,26.556016597510375,21.158129175946545,305448.0,2904.0,0.0,1.0,0.0,?,0.0,0.0
9200000.0,30.09375,3.9528835461371476E-7,9200000.0,64.4,28.697324146771347,24.735729386892178,25.833333333333336,335448.0,2904.0,0.0,1.0,0.0,?,0.0,0.0
9300000.0,30.421875,4.024975674433841E-7,9300000.0,65.7,31.24984967168296,26.865671641791046,29.423868312757207,365298.0,2904.0,0.0,1.0,0.0,?,0.0,0.0
9400000.0,30.734375,4.0690582762989736E-7,9400000.0,64.9,29.53222244529211,28.803245436105477,27.027027027027028,395298.0,2904.0,0.0,1.0,0.0,?,0.0,0.0
9500000.0,31.0625,4.089539611919059E-7,9500000.0,66.0,32.01957836143192,33.463796477495116,34.489402697495194,425298.0,2904.0,0.0,1.0,0.0,?,0.0,0.0
9600000.0,31.390625,4.148858069028292E-7,9600000.0,64.9,29.3847825212248,30.21868787276342,25.319148936170212,455148.0,2904.0,0.0,1.0,0.0,?,0.0,0.0
9700000.0,31.734375,4.1839669898359316E-7,9700000.0,64.7,28.994987408176232,27.216494845360828,24.411134903640257,485148.0,2904.0,0.0,1.0,0.0,?,0.0,0.0
9800000.0,32.0625,4.256317172096008E-7,9800000.0,65.2,29.699526077839593,30.53892215568863,23.178807947019866,514998.0,2904.0,0.0,1.0,0.0,?,0.0,0.0
9900000.0,32.390625,4.3028619580177803E-7,9900000.0,66.3,32.41183454737992,34.050880626223105,29.20168067226891,544998.0,2904.0,0.0,1.0,0.0,?,0.0,0.0
1.0E7,32.71875,4.323601347601249E-7,1.0E7,65.10000000000001,30.303708082373426,30.61630218687873,27.743271221532094,574998.0,2904.0,0.0,1.0,0.0,?,0.0,0.0
