learning evaluation instances,evaluation time (cpu seconds),model cost (RAM-Hours),classified instances,classifications correct (percent),Kappa Statistic (percent),Kappa Temporal Statistic (percent),Kappa M Statistic (percent),model training instances,model serialized size (bytes),labeling cost,newThreshold,maxPosterior,accuracyBaseLearner (percent),Change detected,Warning detected,tree size (nodes),tree size (leaves),active learning leaves,tree depth,active leaf byte size estimate,inactive leaf byte size estimate,byte size estimate overhead
100000.0,0.34375,1.7089187167584898E-8,100000.0,90.2,79.1147198601965,77.2093023255814,69.27899686520377,19800.0,17192.0,0.0,1.0,0.0,?,0.0,0.0,7.0,4.0,4.0,3.0,0.0,0.0,1.0
200000.0,0.625,3.068533260375262E-8,200000.0,94.1,86.83329613925461,86.43678160919539,81.95718654434249,39800.0,26240.0,0.0,1.0,0.0,?,0.0,0.0,11.0,6.0,6.0,5.0,0.0,0.0,1.0
300000.0,0.890625,4.2538255608330174E-8,300000.0,93.60000000000001,85.7605638816703,85.35469107551489,81.06508875739647,59800.0,26264.0,0.0,1.0,0.0,?,0.0,0.0,11.0,6.0,6.0,5.0,0.0,0.0,1.0
400000.0,1.1875,5.504097013423841E-8,400000.0,94.8,88.45142491649491,87.90697674418604,84.33734939759034,79800.0,30944.0,0.0,1.0,0.0,?,0.0,0.0,13.0,7.0,7.0,6.0,0.0,0.0,1.0
500000.0,1.46875,6.583849123368661E-8,500000.0,92.80000000000001,83.74864572047672,82.85714285714288,77.63975155279505,99800.0,30952.0,0.0,1.0,0.0,?,0.0,0.0,13.0,7.0,7.0,6.0,0.0,0.0,1.0
600000.0,1.765625,7.612992905908162E-8,600000.0,95.19999999999999,89.17870911017425,88.73239436619717,85.67164179104476,119800.0,30952.0,0.0,1.0,0.0,?,0.0,0.0,13.0,7.0,7.0,6.0,0.0,0.0,1.0
700000.0,2.046875,8.513057966613109E-8,700000.0,93.8,86.30040126566614,85.61484918793502,82.0809248554913,139800.0,35032.0,0.0,1.0,0.0,?,0.0,0.0,15.0,8.0,8.0,7.0,0.0,0.0,1.0
800000.0,2.328125,9.342284303986366E-8,800000.0,94.39999999999999,87.62638761224633,87.55555555555554,83.90804597701148,159800.0,39672.0,0.0,1.0,0.0,?,0.0,0.0,17.0,9.0,9.0,8.0,0.0,0.0,1.0
900000.0,2.625,1.0111162232028116E-7,900000.0,94.5,87.77603925891681,87.29792147806003,83.43373493975902,179800.0,40216.0,0.0,1.0,0.0,?,0.0,0.0,17.0,9.0,9.0,8.0,0.0,0.0,1.0
1000000.0,2.890625,1.0700482461187578E-7,1000000.0,94.89999999999999,88.3298399128628,87.99999999999999,84.01253918495296,199800.0,40264.0,0.0,1.0,0.0,?,0.0,0.0,17.0,9.0,9.0,8.0,0.0,0.0,1.0
1100000.0,3.1875,1.2390981687025893E-7,1100000.0,93.60000000000001,85.32076423771188,84.97652582159625,79.6825396825397,219600.0,44848.0,0.0,1.0,0.0,?,0.0,0.0,19.0,10.0,10.0,8.0,0.0,0.0,1.0
1200000.0,3.484375,1.3971193564227888E-7,1200000.0,95.1,89.18035682741564,89.43965517241378,85.91954022988504,239600.0,44888.0,0.0,1.0,0.0,?,0.0,0.0,19.0,10.0,10.0,8.0,0.0,0.0,1.0
1300000.0,3.78125,1.5475709612170857E-7,1300000.0,94.1,86.60698071405221,86.85968819599108,82.22891566265058,259600.0,49408.0,0.0,1.0,0.0,?,0.0,0.0,21.0,11.0,11.0,8.0,0.0,0.0,1.0
1400000.0,4.0625,1.67976055915157E-7,1400000.0,94.0,86.38943457174354,86.87089715536104,81.65137614678896,279600.0,49592.0,0.0,1.0,0.0,?,0.0,0.0,21.0,11.0,11.0,8.0,0.0,0.0,1.0
1500000.0,4.359375,1.8082345680644116E-7,1500000.0,92.9,83.9694380723588,82.02531645569621,77.602523659306,299600.0,49592.0,0.0,1.0,0.0,?,0.0,0.0,21.0,11.0,11.0,8.0,0.0,0.0,1.0
1600000.0,4.65625,1.929249588607086E-7,1600000.0,94.5,87.55667369526067,87.83185840707964,83.72781065088756,319600.0,54256.0,0.0,1.0,0.0,?,0.0,0.0,23.0,12.0,12.0,9.0,0.0,0.0,1.0
1700000.0,4.953125,2.039211297718187E-7,1700000.0,94.19999999999999,86.2190225010098,86.32075471698111,80.33898305084745,339600.0,54264.0,0.0,1.0,0.0,?,0.0,0.0,23.0,12.0,12.0,9.0,0.0,0.0,1.0
1800000.0,5.25,2.1381135512557292E-7,1800000.0,94.5,87.70158224734577,87.29792147806003,83.87096774193546,359600.0,54264.0,0.0,1.0,0.0,?,0.0,0.0,23.0,12.0,12.0,9.0,0.0,0.0,1.0
1900000.0,5.5625,2.2305796543757118E-7,1900000.0,93.8,86.67308651316354,86.46288209606986,82.87292817679557,379600.0,54264.0,0.0,1.0,0.0,?,0.0,0.0,23.0,12.0,12.0,9.0,0.0,0.0,1.0
2000000.0,5.875,2.3637523150278458E-7,2000000.0,93.89999999999999,85.94884458040025,85.33653846153845,80.69620253164554,399600.0,118968.0,0.0,1.0,0.0,?,0.0,0.0,43.0,31.0,31.0,9.0,0.0,0.0,1.0
2100000.0,6.171875,2.6037732216839987E-7,2100000.0,93.89999999999999,86.13031140861466,85.81395348837208,81.45896656534953,419400.0,136968.0,0.0,1.0,0.0,?,0.0,0.0,43.0,31.0,31.0,9.0,0.0,0.0,1.0
2200000.0,6.484375,2.845037508652442E-7,2200000.0,94.1,86.34132790073153,86.05200945626477,81.0289389067524,439400.0,137272.0,0.0,1.0,0.0,?,0.0,0.0,45.0,32.0,32.0,9.0,0.0,0.0,1.0
2300000.0,6.796875,3.0747314061348637E-7,2300000.0,94.3,87.30964467005074,87.30512249443207,83.03571428571426,459400.0,137360.0,0.0,1.0,0.0,?,0.0,0.0,45.0,32.0,32.0,9.0,0.0,0.0,1.0
2400000.0,7.140625,3.383611652275754E-7,2400000.0,95.19999999999999,88.95246337051135,88.99082568807339,85.04672897196261,479400.0,214880.0,0.0,1.0,0.0,?,0.0,0.0,65.0,51.0,51.0,9.0,0.0,0.0,1.0
2500000.0,7.46875,3.667790184004439E-7,2500000.0,94.69999999999999,88.02368147512088,88.06306306306305,83.98791540785497,499400.0,216720.0,0.0,1.0,0.0,?,0.0,0.0,65.0,51.0,51.0,9.0,0.0,0.0,1.0
2600000.0,7.8125,4.016915853652689E-7,2600000.0,94.5,87.41395723491505,87.93859649122805,82.86604361370715,519400.0,288856.0,0.0,1.0,0.0,?,0.0,0.0,85.0,70.0,70.0,9.0,0.0,0.0,1.0
2700000.0,8.140625,4.3453845945704314E-7,2700000.0,93.7,85.46618928096856,83.92857142857144,79.74276527331192,539400.0,297600.0,0.0,1.0,0.0,?,0.0,0.0,85.0,70.0,70.0,9.0,0.0,0.0,1.0
2800000.0,8.46875,4.6626008245059186E-7,2800000.0,94.0,85.8229092335392,85.91549295774647,79.93311036789295,559400.0,298744.0,0.0,1.0,0.0,?,0.0,0.0,85.0,70.0,70.0,9.0,0.0,0.0,1.0
2900000.0,8.796875,4.967776799781455E-7,2900000.0,93.60000000000001,85.72244431753285,85.96491228070177,81.5028901734104,579400.0,298960.0,0.0,1.0,0.0,?,0.0,0.0,85.0,70.0,70.0,9.0,0.0,0.0,1.0
3000000.0,9.140625,5.344697921019462E-7,3000000.0,92.7,83.48042543561893,84.53389830508475,78.14371257485031,599400.0,377600.0,0.0,1.0,0.0,?,0.0,0.0,105.0,89.0,89.0,10.0,0.0,0.0,1.0
3100000.0,9.46875,5.817554645343788E-7,3100000.0,93.89999999999999,85.87832206685803,85.68075117370891,80.38585209003215,619200.0,381056.0,0.0,1.0,0.0,?,0.0,0.0,105.0,89.0,89.0,10.0,0.0,0.0,1.0
3200000.0,9.828125,6.323061663553947E-7,3200000.0,94.8,88.14820217343737,87.90697674418604,84.04907975460121,639200.0,382136.0,0.0,1.0,0.0,?,0.0,0.0,105.0,89.0,89.0,10.0,0.0,0.0,1.0
3300000.0,10.171875,6.793990744174355E-7,3300000.0,93.8,85.60843809771404,86.12975391498881,80.25477707006368,659200.0,382368.0,0.0,1.0,0.0,?,0.0,0.0,105.0,89.0,89.0,10.0,0.0,0.0,1.0
3400000.0,10.5,7.231446539258791E-7,3400000.0,93.89999999999999,86.01802528674507,86.38392857142856,80.99688473520247,679200.0,382544.0,0.0,1.0,0.0,?,0.0,0.0,107.0,90.0,90.0,10.0,0.0,0.0,1.0
3500000.0,10.84375,7.67715553390897E-7,3500000.0,93.30000000000001,84.97959915706407,85.17699115044249,80.57971014492755,699200.0,382800.0,0.0,1.0,0.0,?,0.0,0.0,107.0,90.0,90.0,10.0,0.0,0.0,1.0
3600000.0,11.1875,8.110115757315523E-7,3600000.0,94.8,87.42381735513204,87.409200968523,82.31292517006801,719200.0,382864.0,0.0,1.0,0.0,?,0.0,0.0,107.0,90.0,90.0,10.0,0.0,0.0,1.0
3700000.0,11.53125,8.530320095208783E-7,3700000.0,92.9,83.45296914328331,83.97291196388262,76.56765676567659,739200.0,382920.0,0.0,1.0,0.0,?,0.0,0.0,107.0,90.0,90.0,10.0,0.0,0.0,1.0
3800000.0,11.890625,8.956274056496719E-7,3800000.0,94.39999999999999,87.78748478887614,86.91588785046727,84.13597733711046,759200.0,382960.0,0.0,1.0,0.0,?,0.0,0.0,107.0,90.0,90.0,10.0,0.0,0.0,1.0
3900000.0,12.21875,9.332964934098223E-7,3900000.0,94.1,86.72833118887158,86.77130044843048,82.33532934131735,779200.0,382960.0,0.0,1.0,0.0,?,0.0,0.0,107.0,90.0,90.0,10.0,0.0,0.0,1.0
4000000.0,12.578125,9.73219543488489E-7,4000000.0,93.7,85.67556752037254,85.81081081081082,80.85106382978725,799200.0,383016.0,0.0,1.0,0.0,?,0.0,0.0,107.0,90.0,90.0,10.0,0.0,0.0,1.0
4100000.0,12.890625,1.0184249064574636E-6,4100000.0,93.8,85.82507224640595,85.7142857142857,81.09756097560974,819000.0,383024.0,0.0,1.0,0.0,?,0.0,0.0,107.0,90.0,90.0,10.0,0.0,0.0,1.0
4200000.0,13.234375,1.0668702371832395E-6,4200000.0,92.9,83.95668757569733,83.09523809523812,78.35365853658539,839000.0,383024.0,0.0,1.0,0.0,?,0.0,0.0,107.0,90.0,90.0,10.0,0.0,0.0,1.0
4300000.0,13.578125,1.1140349993689191E-6,4300000.0,93.5,85.19739838583324,84.84848484848486,80.18292682926831,859000.0,383024.0,0.0,1.0,0.0,?,0.0,0.0,107.0,90.0,90.0,10.0,0.0,0.0,1.0
4400000.0,13.921875,1.159943381531371E-6,4400000.0,93.10000000000001,83.99755092953357,83.33333333333334,78.16455696202533,879000.0,383288.0,0.0,1.0,0.0,?,0.0,0.0,109.0,91.0,91.0,10.0,0.0,0.0,1.0
4500000.0,14.25,1.202542658170892E-6,4500000.0,93.0,84.49083408294304,84.9785407725322,79.47214076246335,899000.0,383288.0,0.0,1.0,0.0,?,0.0,0.0,109.0,91.0,91.0,10.0,0.0,0.0,1.0
4600000.0,14.59375,1.2458906146801177E-6,4600000.0,95.5,89.58140396369697,89.97772828507794,85.7142857142857,919000.0,383296.0,0.0,1.0,0.0,?,0.0,0.0,109.0,91.0,91.0,10.0,0.0,0.0,1.0
4700000.0,14.9375,1.2879580026492473E-6,4700000.0,95.1,88.57798207908698,87.62626262626262,83.98692810457516,939000.0,383296.0,0.0,1.0,0.0,?,0.0,0.0,109.0,91.0,91.0,10.0,0.0,0.0,1.0
4800000.0,15.28125,1.3287448220782805E-6,4800000.0,94.3,86.66454547156037,86.23188405797102,81.73076923076921,959000.0,383296.0,0.0,1.0,0.0,?,0.0,0.0,109.0,91.0,91.0,10.0,0.0,0.0,1.0
4900000.0,15.625,1.3682517843941843E-6,4900000.0,92.60000000000001,83.21363597181707,83.51893095768375,77.50759878419454,979000.0,383304.0,0.0,1.0,0.0,?,0.0,0.0,109.0,91.0,91.0,10.0,0.0,0.0,1.0
5000000.0,15.9375,1.403270806703302E-6,5000000.0,94.3,87.46492377794002,87.248322147651,83.52601156069362,999000.0,383304.0,0.0,1.0,0.0,?,0.0,0.0,109.0,91.0,91.0,10.0,0.0,0.0,1.0
5100000.0,16.5,1.4482758059683767E-6,5100000.0,68.30000000000001,38.77141069124567,30.78602620087337,11.204481792717097,12594.0,36888.0,0.0,1.0,0.0,?,4.0,68.0,17.0,9.0,9.0,6.0,0.0,0.0,1.0
5200000.0,16.953125,1.4962353290886508E-6,5200000.0,77.3,52.24229775559838,51.906779661016955,40.10554089709763,32594.0,150856.0,0.0,1.0,0.0,?,0.0,0.0,49.0,34.0,34.0,9.0,0.0,0.0,1.0
5300000.0,17.375,1.559801587265812E-6,5300000.0,76.1,51.675388012261116,51.81451612903226,37.434554973821996,52594.0,338248.0,0.0,1.0,0.0,?,0.0,0.0,99.0,77.0,77.0,10.0,0.0,0.0,1.0
5400000.0,17.78125,1.6196624104244007E-6,5400000.0,77.9,53.164074089772406,55.26315789473685,39.61748633879782,72594.0,339792.0,0.0,1.0,0.0,?,0.0,0.0,99.0,77.0,77.0,10.0,0.0,0.0,1.0
5500000.0,18.171875,1.677051121886405E-6,5500000.0,77.3,53.24677464533456,52.41090146750524,42.091836734693885,92594.0,352440.0,0.0,1.0,0.0,?,0.0,0.0,105.0,80.0,80.0,10.0,0.0,0.0,1.0
5600000.0,18.578125,1.7353909788653247E-6,5600000.0,79.80000000000001,58.414308771698686,57.82881002087683,48.469387755102055,112594.0,354048.0,0.0,1.0,0.0,?,0.0,0.0,105.0,80.0,80.0,10.0,0.0,0.0,1.0
5700000.0,19.015625,1.8109835865389961E-6,5700000.0,80.80000000000001,59.6862244469454,58.16993464052288,46.96132596685084,132594.0,480808.0,0.0,1.0,0.0,?,0.0,0.0,149.0,109.0,109.0,10.0,0.0,0.0,1.0
5800000.0,19.421875,1.8855033623468538E-6,5800000.0,85.8,69.73971896296737,69.3304535637149,60.44568245125348,152594.0,536088.0,0.0,1.0,0.0,?,0.0,0.0,173.0,121.0,121.0,11.0,0.0,0.0,1.0
5900000.0,19.875,1.982870356490214E-6,5900000.0,85.1,69.27226832527676,69.34156378600822,61.696658097686374,172594.0,671640.0,0.0,1.0,0.0,?,0.0,0.0,221.0,154.0,154.0,11.0,0.0,0.0,1.0
6000000.0,20.328125,2.086637768014851E-6,6000000.0,89.8,78.73786286338452,78.52631578947368,73.91304347826087,192594.0,740264.0,0.0,1.0,0.0,?,0.0,0.0,251.0,169.0,169.0,11.0,0.0,0.0,1.0
6100000.0,20.78125,2.209351352778159E-6,6100000.0,87.1,73.1886768923806,72.3175965665236,66.49350649350649,212394.0,771984.0,0.0,1.0,0.0,?,0.0,0.0,263.0,175.0,175.0,12.0,0.0,0.0,1.0
6200000.0,21.234375,2.3330092921646096E-6,6200000.0,90.10000000000001,78.98892143130016,79.41787941787942,73.17073170731709,232394.0,794320.0,0.0,1.0,0.0,?,0.0,0.0,273.0,180.0,180.0,12.0,0.0,0.0,1.0
6300000.0,21.703125,2.4645799486380477E-6,6300000.0,88.5,76.2184429077193,77.62645914396887,70.95959595959597,252394.0,838568.0,0.0,1.0,0.0,?,0.0,0.0,293.0,190.0,190.0,12.0,0.0,0.0,1.0
6400000.0,22.171875,2.5978201948520204E-6,6400000.0,90.3,79.52273187867324,77.70114942528737,73.27823691460055,272394.0,866592.0,0.0,1.0,0.0,?,0.0,0.0,305.0,196.0,196.0,12.0,0.0,0.0,1.0
6500000.0,22.640625,2.7327843579567134E-6,6500000.0,87.7,74.57248701749744,72.66666666666667,68.21705426356588,292394.0,895040.0,0.0,1.0,0.0,?,0.0,0.0,319.0,203.0,203.0,13.0,0.0,0.0,1.0
6600000.0,23.140625,2.889947112028797E-6,6600000.0,89.0,77.17927546274205,76.08695652173914,71.72236503856043,312394.0,1011184.0,0.0,1.0,0.0,?,0.0,0.0,357.0,231.0,231.0,13.0,0.0,0.0,1.0
6700000.0,23.609375,3.0424065577487143E-6,6700000.0,88.9,77.00358826892956,76.28205128205128,71.46529562982006,332394.0,1067488.0,0.0,1.0,0.0,?,0.0,0.0,383.0,244.0,244.0,13.0,0.0,0.0,1.0
6800000.0,24.09375,3.2041092183337434E-6,6800000.0,89.2,77.46121450663016,77.7319587628866,71.80156657963447,352394.0,1114840.0,0.0,1.0,0.0,?,0.0,0.0,407.0,256.0,256.0,13.0,0.0,0.0,1.0
6900000.0,24.5625,3.364302521933697E-6,6900000.0,89.9,78.96552011396108,78.27956989247312,73.83419689119172,372394.0,1159568.0,0.0,1.0,0.0,?,0.0,0.0,427.0,266.0,266.0,13.0,0.0,0.0,1.0
7000000.0,25.03125,3.528637300607644E-6,7000000.0,89.9,78.75920084121978,78.23275862068965,73.06666666666666,392394.0,1207872.0,0.0,1.0,0.0,?,0.0,0.0,445.0,275.0,275.0,13.0,0.0,0.0,1.0
7100000.0,25.53125,3.734519608163584E-6,7100000.0,91.9,83.03650711210148,83.56997971602435,78.90625000000001,412194.0,1314352.0,0.0,1.0,0.0,?,0.0,0.0,480.0,301.0,301.0,13.0,0.0,0.0,1.0
7200000.0,26.015625,3.9371840021986914E-6,7200000.0,91.7,82.32327534799721,82.5263157894737,76.88022284122563,432194.0,1354216.0,0.0,1.0,0.0,?,0.0,0.0,498.0,310.0,310.0,13.0,0.0,0.0,1.0
7300000.0,26.515625,4.1578670950709934E-6,7300000.0,89.0,76.51459511161973,74.77064220183487,69.94535519125684,452194.0,1457232.0,0.0,1.0,0.0,?,0.0,0.0,537.0,342.0,342.0,13.0,0.0,0.0,1.0
7400000.0,27.03125,4.392011582644448E-6,7400000.0,89.2,77.79020794946038,78.26961770623743,72.72727272727273,472194.0,1520552.0,0.0,1.0,0.0,?,0.0,0.0,551.0,349.0,349.0,13.0,0.0,0.0,1.0
7500000.0,27.5,4.606816283841099E-6,7500000.0,88.6,76.4875734763329,76.59137577002053,71.42857142857143,492194.0,1550856.0,0.0,1.0,0.0,?,0.0,0.0,563.0,355.0,355.0,13.0,0.0,0.0,1.0
7600000.0,28.015625,4.849915146931177E-6,7600000.0,91.3,82.03948835250499,81.25000000000001,78.57142857142858,512194.0,1616016.0,0.0,1.0,0.0,?,0.0,0.0,587.0,367.0,367.0,13.0,0.0,0.0,1.0
7700000.0,28.53125,5.111875717476423E-6,7700000.0,90.2,78.97906915886247,77.92792792792793,73.44173441734418,532194.0,1771408.0,0.0,1.0,0.0,?,0.0,0.0,646.0,410.0,410.0,13.0,0.0,0.0,1.0
7800000.0,29.078125,5.398565748085577E-6,7800000.0,90.9,80.68367069691618,80.21739130434783,75.47169811320755,552194.0,1848056.0,0.0,1.0,0.0,?,0.0,0.0,671.0,424.0,424.0,13.0,0.0,0.0,1.0
7900000.0,29.578125,5.668128788885142E-6,7900000.0,91.5,81.85853929226961,82.72357723577237,77.02702702702705,572194.0,1919912.0,0.0,1.0,0.0,?,0.0,0.0,707.0,451.0,451.0,13.0,0.0,0.0,1.0
8000000.0,30.15625,6.011915296160925E-6,8000000.0,88.5,76.04725564035058,75.21551724137932,70.2842377260982,592194.0,2148520.0,0.0,1.0,0.0,?,0.0,0.0,755.0,493.0,493.0,13.0,0.0,0.0,1.0
8100000.0,30.671875,6.340128214408952E-6,8100000.0,91.9,83.1916730303131,82.9113924050633,79.54545454545455,611994.0,2180496.0,0.0,1.0,0.0,?,0.0,0.0,765.0,498.0,498.0,13.0,0.0,0.0,1.0
8200000.0,31.21875,6.690773750758832E-6,8200000.0,90.8,80.58047493403694,80.75313807531381,75.46666666666667,631994.0,2212672.0,0.0,1.0,0.0,?,0.0,0.0,783.0,507.0,507.0,13.0,0.0,0.0,1.0
8300000.0,31.78125,7.054764880902236E-6,8300000.0,88.9,76.71823612322974,76.97095435684648,70.71240105540898,651994.0,2249768.0,0.0,1.0,0.0,?,0.0,0.0,793.0,512.0,512.0,13.0,0.0,0.0,1.0
8400000.0,32.359375,7.446621602866797E-6,8400000.0,88.4,75.60760201699898,75.93360995850622,69.39313984168865,671994.0,2382496.0,0.0,1.0,0.0,?,0.0,0.0,837.0,543.0,543.0,13.0,0.0,0.0,1.0
8500000.0,32.890625,7.815845019649713E-6,8500000.0,91.60000000000001,82.53144340187663,81.37472283813749,78.7878787878788,691994.0,2463272.0,0.0,1.0,0.0,?,0.0,0.0,859.0,563.0,563.0,13.0,0.0,0.0,1.0
8600000.0,33.484375,8.24514605079053E-6,8600000.0,90.0,78.90553476578816,77.97356828193833,73.75328083989501,711994.0,2585752.0,0.0,1.0,0.0,?,0.0,0.0,899.0,595.0,595.0,13.0,0.0,0.0,1.0
8700000.0,34.078125,8.679273919875009E-6,8700000.0,89.9,78.09490760822418,78.09110629067246,72.02216066481995,731994.0,2631400.0,0.0,1.0,0.0,?,0.0,0.0,911.0,601.0,601.0,13.0,0.0,0.0,1.0
8800000.0,34.65625,9.102473915037181E-6,8800000.0,91.3,81.57669600277832,80.53691275167786,76.42276422764228,751994.0,2649040.0,0.0,1.0,0.0,?,0.0,0.0,919.0,605.0,605.0,13.0,0.0,0.0,1.0
8900000.0,35.265625,9.559815581370559E-6,8900000.0,89.8,78.17266704329516,78.52631578947368,72.1311475409836,771994.0,2734736.0,0.0,1.0,0.0,?,0.0,0.0,953.0,631.0,631.0,14.0,0.0,0.0,1.0
9000000.0,35.859375,1.0017648779062761E-5,9000000.0,90.9,80.86563046696273,80.92243186582809,76.54639175257732,791994.0,2828512.0,0.0,1.0,0.0,?,0.0,0.0,979.0,653.0,653.0,14.0,0.0,0.0,1.0
9100000.0,36.46875,1.0514546916561408E-5,9100000.0,91.3,81.64727324889674,81.52866242038218,76.73796791443851,811794.0,2869968.0,0.0,1.0,0.0,?,0.0,0.0,987.0,657.0,657.0,14.0,0.0,0.0,1.0
9200000.0,37.046875,1.098574414047309E-5,9200000.0,92.9,85.12553212885061,84.82905982905984,81.84143222506395,831794.0,2882856.0,0.0,1.0,0.0,?,0.0,0.0,991.0,659.0,659.0,14.0,0.0,0.0,1.0
9300000.0,37.671875,1.15033020847477E-5,9300000.0,89.8,78.6903329322102,78.25159914712154,73.43750000000001,851794.0,2947632.0,0.0,1.0,0.0,?,0.0,0.0,1019.0,682.0,682.0,14.0,0.0,0.0,1.0
9400000.0,38.328125,1.2055945020013798E-5,9400000.0,91.3,81.93101385704318,81.72268907563026,78.03030303030305,871794.0,3015928.0,0.0,1.0,0.0,?,0.0,0.0,1039.0,692.0,692.0,14.0,0.0,0.0,1.0
9500000.0,38.96875,1.2611072064222147E-5,9500000.0,92.4,83.11861394935585,83.47826086956522,77.24550898203594,891794.0,3124488.0,0.0,1.0,0.0,?,0.0,0.0,1067.0,715.0,715.0,14.0,0.0,0.0,1.0
9600000.0,39.59375,1.3153987852597816E-5,9600000.0,93.60000000000001,86.41206269134577,85.93406593406594,82.56130790190737,911794.0,3147008.0,0.0,1.0,0.0,?,0.0,0.0,1075.0,719.0,719.0,14.0,0.0,0.0,1.0
9700000.0,40.21875,1.3700063670209299E-5,9700000.0,90.7,80.45988603701277,80.29661016949153,75.26595744680851,931794.0,3180784.0,0.0,1.0,0.0,?,0.0,0.0,1089.0,726.0,726.0,14.0,0.0,0.0,1.0
9800000.0,40.859375,1.4259132440201938E-5,9800000.0,93.10000000000001,85.42889724204925,85.56485355648536,81.55080213903744,951794.0,3191168.0,0.0,1.0,0.0,?,0.0,0.0,1091.0,727.0,727.0,14.0,0.0,0.0,1.0
9900000.0,41.5,1.4820127657407688E-5,9900000.0,91.7,82.4947695214956,82.48945147679325,77.68817204301077,971794.0,3217040.0,0.0,1.0,0.0,?,0.0,0.0,1105.0,734.0,734.0,14.0,0.0,0.0,1.0
1.0E7,42.140625,1.5395354453681244E-5,1.0E7,92.2,83.57203032855939,83.11688311688312,79.14438502673798,991794.0,3317064.0,0.0,1.0,0.0,?,0.0,0.0,1139.0,760.0,760.0,14.0,0.0,0.0,1.0
