learning evaluation instances,evaluation time (cpu seconds),model cost (RAM-Hours),classified instances,classifications correct (percent),Kappa Statistic (percent),Kappa Temporal Statistic (percent),Kappa M Statistic (percent),model training instances,model serialized size (bytes),labeling cost,newThreshold,maxPosterior,accuracyBaseLearner (percent),Change detected,Warning detected
100000.0,0.171875,7.794038133902683E-9,100000.0,56.39999999999999,8.027743557723111,11.919191919191906,3.9647577092510806,29700.0,9312.0,0.0,1.0,0.0,?,0.0,99.0
200000.0,0.34375,1.4912220649421218E-8,200000.0,53.900000000000006,5.4327936916904065,6.300813008130087,3.75782881002088,59700.0,9312.0,0.0,1.0,0.0,?,0.0,0.0
300000.0,0.515625,2.1354547546555602E-8,300000.0,57.8,11.126461569565633,14.747474747474737,7.456140350877176,89700.0,9312.0,0.0,1.0,0.0,?,0.0,0.0
400000.0,0.6875,2.712101882530584E-8,400000.0,57.49999999999999,13.839940965154844,13.265306122448969,5.34521158129174,119700.0,9312.0,0.0,1.0,0.0,?,0.0,0.0
500000.0,0.828125,3.1286068001968996E-8,500000.0,63.0,24.539076521455375,24.335378323108383,18.859649122807014,149700.0,9312.0,0.0,1.0,0.0,?,0.0,0.0
600000.0,1.0,3.570082804395093E-8,600000.0,55.900000000000006,8.013850068833177,7.547169811320761,5.16129032258065,179700.0,9312.0,0.0,1.0,0.0,?,0.0,0.0
700000.0,1.15625,3.909983206540346E-8,700000.0,61.0,19.995404864279383,18.918918918918916,11.764705882352928,209700.0,9312.0,0.0,1.0,0.0,?,0.0,0.0
800000.0,1.296875,4.16059629060328E-8,800000.0,61.5,21.26531747460039,20.781893004115222,14.253897550111347,239700.0,9312.0,0.0,1.0,0.0,?,0.0,0.0
900000.0,1.4375,4.3559120967984195E-8,900000.0,59.3,17.71860166099254,20.352250489236788,14.135021097046405,269700.0,9312.0,0.0,1.0,0.0,?,0.0,0.0
1000000.0,1.59375,4.511488239384359E-8,1000000.0,55.900000000000006,7.6594497257004175,9.259259259259267,4.545454545454549,299700.0,9312.0,0.0,1.0,0.0,?,0.0,0.0
1100000.0,1.734375,5.149735241300529E-8,1100000.0,53.800000000000004,1.3629842180774634,7.600000000000007,-3.1250000000000027,329400.0,9312.0,0.0,1.0,0.0,?,0.0,0.0
1200000.0,1.90625,5.862229348470767E-8,1200000.0,58.699999999999996,12.811072360476597,12.127659574468073,9.628008752735214,359400.0,9312.0,0.0,1.0,0.0,?,0.0,0.0
1300000.0,2.078125,6.50713789380259E-8,1300000.0,55.00000000000001,8.021731398928148,7.024793388429759,6.444906444906451,389400.0,9312.0,0.0,1.0,0.0,?,0.0,0.0
1400000.0,2.265625,7.136944784886307E-8,1400000.0,54.2,5.984169212073452,9.664694280078905,4.184100418410046,419400.0,9312.0,0.0,1.0,0.0,?,0.0,0.0
1500000.0,2.421875,7.6003424409363E-8,1500000.0,57.9,14.697205472346484,16.302186878727625,10.042735042735028,449400.0,9312.0,0.0,1.0,0.0,?,0.0,0.0
1600000.0,2.59375,8.042494300752879E-8,1600000.0,56.49999999999999,10.89717328963538,12.99999999999999,1.360544217687051,479400.0,9312.0,0.0,1.0,0.0,?,0.0,0.0
1700000.0,2.75,8.383009117096663E-8,1700000.0,59.599999999999994,18.33368371686854,17.718940936863536,14.767932489451468,509400.0,9312.0,0.0,1.0,0.0,?,0.0,0.0
1800000.0,2.921875,8.68998985323641E-8,1800000.0,54.1,4.035926941861241,9.108910891089117,1.923076923076925,539400.0,9312.0,0.0,1.0,0.0,?,0.0,0.0
1900000.0,3.046875,8.86409543454647E-8,1900000.0,58.699999999999996,16.44073969166026,17.89264413518886,11.182795698924718,569400.0,9312.0,0.0,1.0,0.0,?,0.0,0.0
2000000.0,3.21875,9.035905047009388E-8,2000000.0,57.9,15.18868000547948,13.195876288659782,12.836438923395436,599400.0,9312.0,0.0,1.0,0.0,?,0.0,0.0
2100000.0,3.375,9.74568279667033E-8,2100000.0,54.6,4.290081163697688,9.381237524950107,0.21978021978022,629100.0,9312.0,0.0,1.0,0.0,?,0.0,0.0
2200000.0,3.546875,1.0458852759458952E-7,2200000.0,54.1,3.4164078478903175,9.108910891089117,0.0,659100.0,9312.0,0.0,1.0,0.0,?,0.0,0.0
2300000.0,3.6875,1.0987058178418213E-7,2300000.0,58.8,15.206796628029476,12.526539278131624,10.043668122270729,689100.0,9312.0,0.0,1.0,0.0,?,0.0,0.0
2400000.0,3.84375,1.1512511668519841E-7,2400000.0,56.89999999999999,11.982617077414444,11.680327868852448,2.4886877828054073,719100.0,9312.0,0.0,1.0,0.0,?,0.0,0.0
2500000.0,4.0,1.1976523738768364E-7,2500000.0,60.4,19.117647058823533,20.958083832335326,11.607142857142843,749100.0,9312.0,0.0,1.0,0.0,?,0.0,0.0
2600000.0,4.15625,1.2379094389163784E-7,2600000.0,56.00000000000001,10.58655221745351,14.396887159533087,7.172995780590724,779100.0,9312.0,0.0,1.0,0.0,?,0.0,0.0
2700000.0,4.328125,1.2754336542760332E-7,2700000.0,55.900000000000006,8.991852603947411,12.673267326732685,6.369426751592362,809100.0,9312.0,0.0,1.0,0.0,?,0.0,0.0
2800000.0,4.5,1.3061993134518464E-7,2800000.0,55.800000000000004,9.356761124304294,9.979633401222005,7.337526205450741,839100.0,9312.0,0.0,1.0,0.0,?,0.0,0.0
2900000.0,4.640625,1.325841488627096E-7,2900000.0,55.400000000000006,10.074843538292797,7.851239669421495,5.508474576271192,869100.0,9312.0,0.0,1.0,0.0,?,0.0,0.0
3000000.0,4.796875,1.341521985725396E-7,3000000.0,57.199999999999996,12.75099378248904,11.934156378600811,5.934065934065916,899100.0,9312.0,0.0,1.0,0.0,?,0.0,0.0
3100000.0,4.96875,1.4196651237499381E-7,3100000.0,57.599999999999994,13.49057373704398,13.46938775510203,8.225108225108208,928800.0,9312.0,0.0,1.0,0.0,?,0.0,0.0
3200000.0,5.125,1.484560198150575E-7,3200000.0,55.900000000000006,10.504825839549973,15.355086372360857,6.765327695560259,958800.0,9312.0,0.0,1.0,0.0,?,0.0,0.0
3300000.0,5.28125,1.5433111305659016E-7,3300000.0,58.199999999999996,16.322347138144185,17.063492063492056,15.895372233400396,988800.0,9312.0,0.0,1.0,0.0,?,0.0,0.0
3400000.0,5.46875,1.6064392790819208E-7,3400000.0,53.900000000000006,2.9432818223925206,5.918367346938781,-1.31868131868132,1018800.0,9312.0,0.0,1.0,0.0,?,0.0,0.0
3500000.0,5.640625,1.657548192371097E-7,3500000.0,59.599999999999994,17.854455989101474,18.87550200803212,12.742980561555065,1048800.0,9312.0,0.0,1.0,0.0,?,0.0,0.0
3600000.0,5.8125,1.7018985494764314E-7,3600000.0,56.599999999999994,7.806691449814116,15.891472868217047,4.615384615384595,1078800.0,9312.0,0.0,1.0,0.0,?,0.0,0.0
3700000.0,6.0,1.742907786845333E-7,3700000.0,56.89999999999999,12.134778318695908,16.310679611650478,5.066079295154165,1108800.0,9312.0,0.0,1.0,0.0,?,0.0,0.0
3800000.0,6.1875,1.7765440538318621E-7,3800000.0,56.49999999999999,11.385803802058282,7.838983050847441,4.185022026431698,1138800.0,9312.0,0.0,1.0,0.0,?,0.0,0.0
3900000.0,6.359375,1.8006187423856723E-7,3900000.0,57.99999999999999,14.053835040660703,15.151515151515143,6.4587973273941905,1168800.0,9312.0,0.0,1.0,0.0,?,0.0,0.0
4000000.0,6.515625,1.8163606809038255E-7,4000000.0,57.49999999999999,8.344332013491703,15.674603174603167,3.846153846153825,1198800.0,9312.0,0.0,1.0,0.0,?,0.0,0.0
4100000.0,6.671875,1.887461338709626E-7,4100000.0,57.3,14.217064978062059,17.408123791102508,12.49999999999999,1228500.0,9312.0,0.0,1.0,0.0,?,0.0,0.0
4200000.0,6.8125,1.945922202948067E-7,4200000.0,58.4,15.515840779853763,15.618661257606483,9.956709956709943,1258500.0,9312.0,0.0,1.0,0.0,?,0.0,0.0
4300000.0,6.96875,2.0047345767832465E-7,4300000.0,56.699999999999996,9.190050752904654,13.916500994035774,6.277056277056259,1288500.0,9312.0,0.0,1.0,0.0,?,0.0,0.0
4400000.0,7.125,2.0574028086331154E-7,4400000.0,59.8,17.91998627916187,17.622950819672127,12.035010940919024,1318500.0,9312.0,0.0,1.0,0.0,?,0.0,0.0
4500000.0,7.28125,2.1039268984976741E-7,4500000.0,58.3,14.162206669411272,17.261904761904756,2.7972027972027993,1348500.0,9312.0,0.0,1.0,0.0,?,0.0,0.0
4600000.0,7.4375,2.1443068463769224E-7,4600000.0,53.0,3.3844231022233986,8.91472868217055,1.2605042016806736,1378500.0,9312.0,0.0,1.0,0.0,?,0.0,0.0
4700000.0,7.59375,2.17854265227086E-7,4700000.0,60.699999999999996,20.157004242040074,19.46721311475409,16.56050955414012,1408500.0,9312.0,0.0,1.0,0.0,?,0.0,0.0
4800000.0,7.75,2.2066343161794873E-7,4800000.0,56.49999999999999,12.322427721431213,12.474849094567393,8.805031446540866,1438500.0,9312.0,0.0,1.0,0.0,?,0.0,0.0
4900000.0,7.875,2.2241923337181408E-7,4900000.0,55.7,10.216291588300152,11.57684630738524,5.341880341880347,1468500.0,9312.0,0.0,1.0,0.0,?,0.0,0.0
5000000.0,8.03125,2.2409302699897023E-7,5000000.0,58.599999999999994,15.302782324058914,18.50393700787401,7.999999999999983,1498500.0,9312.0,0.0,1.0,0.0,?,0.0,0.0
5100000.0,8.171875,2.30581725999299E-7,5100000.0,46.800000000000004,-6.321747194065155,-9.917355371900824,-7.4747474747474705,1528200.0,9312.0,0.0,1.0,0.0,?,0.0,0.0
5200000.0,8.359375,2.384960276281668E-7,5200000.0,46.0,-6.550907655880033,-15.13859275053305,-12.5,1558200.0,9312.0,0.0,1.0,0.0,?,0.0,0.0
5300000.0,8.515625,2.4447686478702557E-7,5300000.0,46.800000000000004,-6.165162660195631,-5.13833992094861,-8.571428571428568,1588200.0,9312.0,0.0,1.0,0.0,?,0.0,0.0
5400000.0,8.671875,2.498303527115948E-7,5400000.0,48.1,-3.2277056001527575,-3.8000000000000034,-8.35073068893529,1604695.0,9312.0,0.0,1.0,0.0,?,1.0,21.0
5500000.0,8.8125,2.540955190650291E-7,5500000.0,49.8,0.9080142123963775,-1.6194331983805683,-6.8085106382978795,1634695.0,9312.0,0.0,1.0,0.0,?,0.0,0.0
5600000.0,8.96875,2.582201785925362E-7,5600000.0,47.9,-3.7435284747112783,-1.5594541910331396,-6.5439672801636055,1664695.0,9312.0,0.0,1.0,0.0,?,0.0,0.0
5700000.0,9.09375,2.6102837485571703E-7,5700000.0,47.3,-4.452407756830046,-5.823293172690768,-10.020876826722347,1694695.0,9312.0,0.0,1.0,0.0,?,0.0,0.0
5800000.0,9.234375,2.636346228731175E-7,5800000.0,46.400000000000006,-7.614531174082558,-2.485659655831731,-7.199999999999996,1724695.0,9312.0,0.0,1.0,0.0,?,0.0,0.0
5900000.0,9.390625,2.6591603980503146E-7,5900000.0,48.0,-2.5216379803237476,-4.62776659959759,-9.936575052854133,1754695.0,9312.0,0.0,1.0,0.0,?,0.0,0.0
6000000.0,9.546875,2.6758304253841436E-7,6000000.0,45.1,-7.820417141285994,-11.133603238866394,-20.659340659340668,1784695.0,9312.0,0.0,1.0,0.0,?,0.0,0.0
6100000.0,9.703125,2.74785917200562E-7,6100000.0,47.0,-5.351037608332671,-13.978494623655926,-10.878661087866119,1814395.0,9312.0,0.0,1.0,0.0,?,0.0,0.0
6200000.0,9.84375,2.807155316178169E-7,6200000.0,43.5,-11.499660567405009,-13.0,-19.957537154989392,1844395.0,9312.0,0.0,1.0,0.0,?,0.0,0.0
6300000.0,9.984375,2.860921732563939E-7,6300000.0,46.9,-5.338750376918325,-1.7241379310344842,-12.50000000000001,1874395.0,9312.0,0.0,1.0,0.0,?,0.0,0.0
6400000.0,10.109375,2.903798789096375E-7,6400000.0,48.8,-2.802574883242784,-2.400000000000002,-0.7874015748031503,1904395.0,9312.0,0.0,1.0,0.0,?,0.0,0.0
6500000.0,10.265625,2.951250967776609E-7,6500000.0,47.599999999999994,-3.5037194180088633,-0.191204588910134,-11.727078891258007,1934395.0,9312.0,0.0,1.0,0.0,?,0.0,0.0
6600000.0,10.40625,2.988428200802041E-7,6600000.0,47.199999999999996,-4.811399033670658,-4.970178926441356,-10.000000000000009,1964395.0,9312.0,0.0,1.0,0.0,?,0.0,0.0
6700000.0,10.5625,3.0235920955116546E-7,6700000.0,48.1,-3.336227013164914,-7.231404958677692,-4.6370967741935525,1994395.0,9312.0,0.0,1.0,0.0,?,0.0,0.0
6800000.0,10.71875,3.052611848235958E-7,6800000.0,48.9,-3.353424214230824,0.0,-3.441295546558708,2024395.0,9312.0,0.0,1.0,0.0,?,0.0,0.0
6900000.0,10.859375,3.073199897901051E-7,6900000.0,46.1,-6.666772212019505,-4.457364341085265,-15.170940170940172,2054395.0,9312.0,0.0,1.0,0.0,?,0.0,0.0
7000000.0,11.0,3.088258219779365E-7,7000000.0,50.3,0.26489003050248594,-0.40404040404040437,0.4008016032064131,2084395.0,9312.0,0.0,1.0,0.0,?,0.0,0.0
7100000.0,11.140625,3.1531393890165617E-7,7100000.0,46.0,-7.10418063318404,-13.20754716981132,-11.801242236024843,2114095.0,9312.0,0.0,1.0,0.0,?,0.0,0.0
7200000.0,11.265625,3.205896225861377E-7,7200000.0,47.9,-3.2640149683270914,-3.168316831683171,-8.995815899581599,2144095.0,9312.0,0.0,1.0,0.0,?,0.0,0.0
7300000.0,11.390625,3.2537377491179437E-7,7300000.0,47.099999999999994,-4.74334909433633,-3.5225048923679094,-11.603375527426172,2174095.0,9312.0,0.0,1.0,0.0,?,0.0,0.0
7400000.0,11.5625,3.3127612874118816E-7,7400000.0,47.5,-4.03703322051095,-5.633802816901413,-10.062893081761015,2204095.0,9312.0,0.0,1.0,0.0,?,0.0,0.0
7500000.0,11.71875,3.360274907511969E-7,7500000.0,47.0,-4.577742699289672,-10.647181628392493,-13.733905579399156,2234095.0,9312.0,0.0,1.0,0.0,?,0.0,0.0
7600000.0,11.859375,3.3975074378152686E-7,7600000.0,46.800000000000004,-5.104689802869432,-3.5019455252918212,-15.401301518438181,2264095.0,9312.0,0.0,1.0,0.0,?,0.0,0.0
7700000.0,12.0,3.429210240331789E-7,7700000.0,46.9,-5.172673326942432,-10.855949895615877,-11.087866108786622,2294095.0,9312.0,0.0,1.0,0.0,?,0.0,0.0
7800000.0,12.15625,3.458291434475945E-7,7800000.0,46.5,-6.874315804613762,-4.696673189823868,-6.999999999999995,2324095.0,9312.0,0.0,1.0,0.0,?,0.0,0.0
7900000.0,12.3125,3.4812284866347903E-7,7900000.0,47.9,-3.395992760295942,-7.201646090534986,-10.14799154334039,2354095.0,9312.0,0.0,1.0,0.0,?,0.0,0.0
8000000.0,12.46875,3.498021396808326E-7,8000000.0,47.5,-4.299109980928161,-3.754940711462454,-8.471074380165296,2384095.0,9312.0,0.0,1.0,0.0,?,0.0,0.0
8100000.0,12.625,3.570173026269508E-7,8100000.0,47.599999999999994,-4.208512483145668,-5.010020040080165,-7.157464212678944,2413795.0,9312.0,0.0,1.0,0.0,?,0.0,0.0
8200000.0,12.796875,3.6427812624929673E-7,8200000.0,47.599999999999994,-2.7471126884841035,-7.157464212678944,-7.597535934291589,2443795.0,9312.0,0.0,1.0,0.0,?,0.0,0.0
8300000.0,12.921875,3.690671938885417E-7,8300000.0,46.6,-7.172101536534835,-4.296874999999993,-9.87654320987654,2473795.0,9312.0,0.0,1.0,0.0,?,0.0,0.0
8400000.0,13.078125,3.744391142390668E-7,8400000.0,50.3,0.5044843049327288,2.357563850687625,0.20080321285140582,2503795.0,9312.0,0.0,1.0,0.0,?,0.0,0.0
8500000.0,13.203125,3.7824511916066205E-7,8500000.0,49.2,-1.9196199280945088,-2.008032128514058,-3.8854805725971406,2533795.0,9312.0,0.0,1.0,0.0,?,0.0,0.0
8600000.0,13.34375,3.819739019187788E-7,8600000.0,47.5,-6.5072911848479675,-15.3846153846154,-13.146551724137945,2563795.0,9312.0,0.0,1.0,0.0,?,0.0,0.0
8700000.0,13.484375,3.851497118982176E-7,8700000.0,49.4,-1.629282087537761,-2.0161290322580663,-3.688524590163938,2593795.0,9312.0,0.0,1.0,0.0,?,0.0,0.0
8800000.0,13.671875,3.886468281658987E-7,8800000.0,47.199999999999996,-6.075216972034725,-5.600000000000005,-7.755102040816333,2623795.0,9312.0,0.0,1.0,0.0,?,0.0,0.0
8900000.0,13.828125,3.909466775237686E-7,8900000.0,48.5,-3.69099680269315,-1.778656126482215,-9.341825902335465,2653795.0,9312.0,0.0,1.0,0.0,?,0.0,0.0
9000000.0,13.96875,3.924635691671736E-7,9000000.0,50.5,-0.48149922456702443,2.173913043478263,-9.271523178807955,2683795.0,9312.0,0.0,1.0,0.0,?,0.0,0.0
9100000.0,14.109375,3.9896274554646677E-7,9100000.0,50.6,0.5315721649484487,-0.20283975659229225,-2.9166666666666696,2713495.0,9312.0,0.0,1.0,0.0,?,0.0,0.0
9200000.0,14.25,4.04908949147082E-7,9200000.0,47.099999999999994,-6.625709494324047,-4.752475247524757,-6.438631790744473,2743495.0,9312.0,0.0,1.0,0.0,?,0.0,0.0
9300000.0,14.390625,4.1030217996901933E-7,9300000.0,50.0,-1.9176831256930345,0.0,-10.619469026548684,2773495.0,9312.0,0.0,1.0,0.0,?,0.0,0.0
9400000.0,14.546875,4.1568024446152974E-7,9400000.0,45.6,-9.712810584059357,-11.247443762781186,-14.76793248945148,2803495.0,9312.0,0.0,1.0,0.0,?,0.0,0.0
9500000.0,14.71875,4.209202597849071E-7,9500000.0,47.4,-5.997098178300823,-5.200000000000005,-9.583333333333343,2833495.0,9312.0,0.0,1.0,0.0,?,0.0,0.0
9600000.0,14.859375,4.2465457227081056E-7,9600000.0,46.6,-5.922537697712152,-5.952380952380946,-3.088803088803081,2863495.0,9312.0,0.0,1.0,0.0,?,0.0,0.0
9700000.0,15.015625,4.2818939416772787E-7,9700000.0,46.6,-7.142857142857148,-3.288201160541578,-8.979591836734691,2893495.0,9312.0,0.0,1.0,0.0,?,0.0,0.0
9800000.0,15.171875,4.3110980186611413E-7,9800000.0,49.4,-2.543317458709102,-5.63674321503132,-9.287257019438453,2923495.0,9312.0,0.0,1.0,0.0,?,0.0,0.0
9900000.0,15.296875,4.329545966659983E-7,9900000.0,46.6,-6.724865694551027,-6.586826347305384,-6.374501992031867,2953495.0,9312.0,0.0,1.0,0.0,?,0.0,0.0
1.0E7,15.421875,4.3430786010705765E-7,1.0E7,47.699999999999996,-4.95516828949165,-7.835051546391759,-6.51731160896131,2983495.0,9312.0,0.0,1.0,0.0,?,0.0,0.0
