learning evaluation instances,evaluation time (cpu seconds),model cost (RAM-Hours),classified instances,classifications correct (percent),Kappa Statistic (percent),Kappa Temporal Statistic (percent),Kappa M Statistic (percent),model training instances,model serialized size (bytes),labeling cost,newThreshold,maxPosterior,accuracyBaseLearner (percent),Change detected,Warning detected
100000.0,0.40625,1.7757217089335122E-9,100000.0,67.30000000000001,34.60889319052609,34.60000000000001,32.298136645962735,9522.0,2904.0,0.0,1.0,0.0,?,0.0,12.0
200000.0,0.78125,3.4544306496779122E-9,200000.0,65.2,30.75150535879874,31.89823874755382,26.42706131078224,19046.0,2904.0,0.0,1.0,0.0,?,0.0,38.0
300000.0,1.1875,5.241082463827398E-9,300000.0,65.3,30.793777423214998,31.692913385826778,26.326963906581742,28570.0,2904.0,0.0,1.0,0.0,?,0.0,22.0
400000.0,1.578125,6.9282961905830436E-9,400000.0,67.9,35.88309550822135,37.181996086105684,32.135306553911214,38094.0,2904.0,0.0,1.0,0.0,?,0.0,0.0
500000.0,1.96875,8.584789207412137E-9,500000.0,62.9,25.778030296967895,29.063097514340345,25.94810379241517,47618.0,2904.0,0.0,1.0,0.0,?,0.0,0.0
600000.0,2.34375,1.0146306724184088E-8,600000.0,65.60000000000001,31.358150820509543,34.22562141491397,28.630705394190876,57142.0,2904.0,0.0,1.0,0.0,?,0.0,0.0
700000.0,2.734375,1.173812456222044E-8,700000.0,62.7,25.47095165402537,24.493927125506072,24.34077079107505,66666.0,2904.0,0.0,1.0,0.0,?,0.0,12.0
800000.0,3.125,1.3302455449269877E-8,800000.0,67.2,34.4076087173888,32.37113402061856,30.36093418259024,76190.0,2904.0,0.0,1.0,0.0,?,0.0,40.0
900000.0,3.53125,1.4897410033477676E-8,900000.0,67.2,34.58212336854198,36.18677042801558,25.791855203619914,85714.0,2904.0,0.0,1.0,0.0,?,0.0,15.0
1000000.0,3.921875,1.633077368347181E-8,1000000.0,62.4,24.900033155836425,23.886639676113358,23.421588594704684,95238.0,2904.0,0.0,1.0,0.0,?,0.0,7.0
1100000.0,4.296875,1.7986975661996336E-8,1100000.0,66.60000000000001,33.343710959172036,31.697341513292436,25.942350332594238,104760.0,2904.0,0.0,1.0,0.0,?,0.0,0.0
1200000.0,4.6875,1.9681465346366164E-8,1200000.0,66.9,33.88726880517717,34.71400394477319,29.42430703624734,114284.0,2904.0,0.0,1.0,0.0,?,0.0,0.0
1300000.0,5.046875,2.121213280285398E-8,1300000.0,64.3,28.598286358872617,30.9477756286267,26.69404517453799,123808.0,2904.0,0.0,1.0,0.0,?,0.0,0.0
1400000.0,5.4375,2.2845181067370703E-8,1400000.0,68.60000000000001,37.17386432756028,35.91836734693879,33.75527426160338,133332.0,2904.0,0.0,1.0,0.0,?,0.0,0.0
1500000.0,5.828125,2.4447508621960875E-8,1500000.0,66.9,34.06111797282761,32.310838445807775,29.122055674518204,142856.0,2904.0,0.0,1.0,0.0,?,0.0,0.0
1600000.0,6.1875,2.5893386919051404E-8,1600000.0,67.2,34.412592782185826,36.31067961165049,30.947368421052634,152380.0,2904.0,0.0,1.0,0.0,?,0.0,0.0
1700000.0,6.578125,2.7434273053788472E-8,1700000.0,67.9,35.94859924974062,35.80000000000001,33.12500000000001,161904.0,2904.0,0.0,1.0,0.0,?,0.0,0.0
1800000.0,6.953125,2.888403186160657E-8,1800000.0,65.0,30.000000000000004,31.506849315068497,25.53191489361702,171428.0,2904.0,0.0,1.0,0.0,?,0.0,0.0
1900000.0,7.34375,3.036347657649053E-8,1900000.0,64.7,29.402823887044526,24.248927038626608,29.821073558648116,180952.0,2904.0,0.0,1.0,0.0,?,0.0,0.0
2000000.0,7.71875,3.175425162124964E-8,2000000.0,63.9,27.661109329913426,23.51694915254237,22.863247863247864,190476.0,2904.0,0.0,1.0,0.0,?,0.0,0.0
2100000.0,8.109375,3.31722549162805E-8,2100000.0,65.5,31.15036759716779,31.13772455089821,27.21518987341772,200000.0,2904.0,0.0,1.0,0.0,?,0.0,0.0
2200000.0,8.515625,3.495049895718693E-8,2200000.0,66.8,33.752633931422004,31.26293995859214,32.106339468302664,209522.0,2904.0,0.0,1.0,0.0,?,0.0,0.0
2300000.0,8.90625,3.662962828659348E-8,2300000.0,66.2,32.34804329725229,28.991596638655466,25.221238938053098,219046.0,2904.0,0.0,1.0,0.0,?,0.0,0.0
2400000.0,9.28125,3.8212100561294274E-8,2400000.0,67.10000000000001,34.11302919854208,34.72222222222223,29.550321199143475,228570.0,2904.0,0.0,1.0,0.0,?,0.0,0.0
2500000.0,9.671875,3.982978847084772E-8,2500000.0,65.10000000000001,30.27975995461193,32.88461538461539,28.336755646817252,238094.0,2904.0,0.0,1.0,0.0,?,0.0,0.0
2600000.0,10.0625,4.141675567047462E-8,2600000.0,64.60000000000001,29.389800217016663,27.459016393442624,25.63025210084034,247618.0,2904.0,0.0,1.0,0.0,?,0.0,0.0
2700000.0,10.453125,4.297300216017496E-8,2700000.0,67.0,33.9482154008743,30.817610062893085,32.098765432098766,257142.0,2904.0,0.0,1.0,0.0,?,0.0,0.0
2800000.0,10.84375,4.4498527939948754E-8,2800000.0,65.7,31.463053990328905,36.715867158671585,30.000000000000004,266666.0,2904.0,0.0,1.0,0.0,?,0.0,0.0
2900000.0,11.234375,4.599333300979599E-8,2900000.0,69.8,39.84255481896991,41.01562499999999,34.913793103448256,276190.0,2904.0,0.0,1.0,0.0,?,0.0,0.0
3000000.0,11.625,4.745741736971668E-8,3000000.0,65.4,30.76898450505827,30.938123752495017,31.485148514851492,285714.0,2904.0,0.0,1.0,0.0,?,0.0,0.0
3100000.0,12.015625,4.889078101971082E-8,3100000.0,68.4,36.79393221749289,36.926147704590825,35.510204081632665,295238.0,2904.0,0.0,1.0,0.0,?,0.0,0.0
3200000.0,12.390625,5.0546982998235346E-8,3200000.0,67.10000000000001,34.37220732797141,33.4008097165992,28.32244008714597,304760.0,2904.0,0.0,1.0,0.0,?,0.0,0.0
3300000.0,12.78125,5.2241472682605174E-8,3300000.0,65.8,31.80213846159982,30.346232179226075,25.813449023861175,314284.0,2904.0,0.0,1.0,0.0,?,0.0,0.0
3400000.0,13.1875,5.397179241602618E-8,3400000.0,63.7,27.415678213505885,22.929936305732483,21.93548387096774,323808.0,2904.0,0.0,1.0,0.0,?,0.0,0.0
3500000.0,13.578125,5.5604840680542907E-8,3500000.0,64.2,28.143327967499904,26.033057851239672,20.971302428256067,333332.0,2904.0,0.0,1.0,0.0,?,0.0,0.0
3600000.0,13.96875,5.720716823513308E-8,3600000.0,66.5,32.99517565264699,30.353430353430362,30.06263048016702,342856.0,2904.0,0.0,1.0,0.0,?,0.0,0.0
3700000.0,14.359375,5.87787750797967E-8,3700000.0,66.0,32.050282790734855,31.58953722334005,31.034482758620697,352380.0,2904.0,0.0,1.0,0.0,?,0.0,0.0
3800000.0,14.75,6.031966121453377E-8,3800000.0,68.7,37.421026535084216,36.767676767676775,37.022132796780696,361904.0,2904.0,0.0,1.0,0.0,?,0.0,0.0
3900000.0,15.125,6.176942002235187E-8,3900000.0,65.4,30.97229315628193,29.243353783231086,22.76785714285714,371428.0,2904.0,0.0,1.0,0.0,?,0.0,0.0
4000000.0,15.515625,6.324886473723583E-8,4000000.0,68.30000000000001,36.65270494948204,36.726546906187636,34.9075975359343,380952.0,2904.0,0.0,1.0,0.0,?,0.0,0.0
4100000.0,15.890625,6.463963978199495E-8,4100000.0,65.5,31.12892664931249,31.54761904761905,22.991071428571427,390476.0,2904.0,0.0,1.0,0.0,?,0.0,0.0
4200000.0,16.28125,6.605764307702581E-8,4200000.0,65.3,30.469839539618164,31.960784313725497,24.728850325379607,400000.0,2904.0,0.0,1.0,0.0,?,0.0,0.0
4300000.0,16.671875,6.776749311635892E-8,4300000.0,65.10000000000001,30.37989834268251,26.059322033898308,27.743271221532094,409522.0,2904.0,0.0,1.0,0.0,?,0.0,0.0
4400000.0,17.0625,6.944662244576547E-8,4400000.0,66.2,32.64221858197921,35.249042145593876,28.23779193205945,419046.0,2904.0,0.0,1.0,0.0,?,0.0,0.0
4500000.0,17.453125,7.109503106524546E-8,4500000.0,64.60000000000001,29.318744509224498,22.02643171806167,24.680851063829788,428570.0,2904.0,0.0,1.0,0.0,?,0.0,0.0
4600000.0,17.84375,7.271271897479891E-8,4600000.0,67.7,35.47588036469113,38.35877862595421,34.482758620689665,438094.0,2904.0,0.0,1.0,0.0,?,0.0,0.0
4700000.0,18.234375,7.429968617442581E-8,4700000.0,69.6,39.22115103943827,39.07815631262524,37.06004140786748,447618.0,2904.0,0.0,1.0,0.0,?,0.0,0.0
4800000.0,18.625,7.585593266412615E-8,4800000.0,66.60000000000001,33.58124366138365,33.06613226452907,27.233115468409586,457142.0,2904.0,0.0,1.0,0.0,?,0.0,0.0
4900000.0,19.015625,7.738145844389994E-8,4900000.0,65.8,31.66887777120662,33.0724070450098,29.045643153526974,466666.0,2904.0,0.0,1.0,0.0,?,0.0,0.0
5000000.0,19.40625,7.910990259713595E-8,5000000.0,67.4,34.84065942851661,35.31746031746032,31.22362869198313,476190.0,2904.0,0.0,1.0,0.0,?,0.0,0.0
5100000.0,19.78125,8.073971710271304E-8,5100000.0,51.800000000000004,3.059069608414967,-2.118644067796612,-18.427518427518415,485714.0,2904.0,0.0,1.0,0.0,?,0.0,0.0
5200000.0,20.171875,8.240671983609596E-8,5200000.0,55.800000000000004,9.33816863100636,12.648221343873528,-10.224438902743122,495238.0,2904.0,0.0,1.0,0.0,?,0.0,0.0
5300000.0,20.5625,8.436556931378112E-8,5300000.0,55.1,7.852070763042332,6.458333333333339,-9.77995110024448,504760.0,2904.0,0.0,1.0,0.0,?,0.0,0.0
5400000.0,20.9375,8.62833177153435E-8,5400000.0,55.1,7.86190366746561,10.379241516966077,-13.383838383838368,514284.0,2904.0,0.0,1.0,0.0,?,0.0,10.0
5500000.0,21.328125,8.825025159037775E-8,5500000.0,59.3,14.680776132418785,15.208333333333323,-1.4962593516209488,523808.0,2904.0,0.0,1.0,0.0,?,0.0,0.0
5600000.0,21.71875,9.018646475548545E-8,5600000.0,56.599999999999994,9.766807491434086,12.676056338028157,-3.827751196172252,533332.0,2904.0,0.0,1.0,0.0,?,0.0,0.0
5700000.0,22.109375,9.20919572106666E-8,5700000.0,60.4,17.36227045075126,20.321931589537222,5.714285714285719,542856.0,2904.0,0.0,1.0,0.0,?,0.0,0.0
5800000.0,22.484375,9.389173808611102E-8,5800000.0,58.9,13.416812727517858,15.257731958762877,-6.201550387596905,552380.0,2904.0,0.0,1.0,0.0,?,0.0,0.0
5900000.0,22.875,9.573578912143907E-8,5900000.0,58.9,15.288472636733887,16.29327902240325,4.861111111111114,561904.0,2904.0,0.0,1.0,0.0,?,0.0,0.0
6000000.0,23.265625,9.754911944684056E-8,6000000.0,59.199999999999996,15.231347780017032,17.408906882591086,0.7299270072992706,571428.0,2904.0,0.0,1.0,0.0,?,0.0,0.0
6100000.0,23.65625,9.93317290623155E-8,6100000.0,58.599999999999994,14.676119618309597,13.389121338912124,0.24096385542168694,580952.0,2904.0,0.0,1.0,0.0,?,0.0,0.0
6200000.0,24.046875,1.0108361796786389E-7,6200000.0,58.4,14.074086314232703,16.297786720321923,1.6548463356974008,590476.0,2904.0,0.0,1.0,0.0,?,0.0,0.0
6300000.0,24.4375,1.0257114708009695E-7,6300000.0,60.8,20.155127181475976,20.162932790224026,7.109004739336498,600000.0,2904.0,0.0,1.0,0.0,?,0.0,0.0
6400000.0,24.828125,1.0458416202002102E-7,6400000.0,62.9,23.232908458864436,24.59349593495935,8.395061728395069,609522.0,2904.0,0.0,1.0,0.0,?,0.0,0.0
6500000.0,25.21875,1.0656645625001856E-7,6500000.0,59.699999999999996,16.45244215938303,17.24845995893223,-2.0253164556962044,619046.0,2904.0,0.0,1.0,0.0,?,0.0,0.0
6600000.0,25.609375,1.0851802977008954E-7,6600000.0,59.9,16.964847761985222,11.868131868131854,0.49627791563275475,628570.0,2904.0,0.0,1.0,0.0,?,0.0,0.0
6700000.0,26.0,1.1043888258023396E-7,6700000.0,62.2,22.127365020766046,18.534482758620683,6.435643564356441,638094.0,2904.0,0.0,1.0,0.0,?,0.0,0.0
6800000.0,26.390625,1.1232901468045183E-7,6800000.0,62.1,22.621478154348715,22.653061224489793,5.250000000000004,647618.0,2904.0,0.0,1.0,0.0,?,0.0,0.0
6900000.0,26.78125,1.1418842607074315E-7,6900000.0,61.6,20.505123693199458,15.604395604395597,0.7751937984496131,657142.0,2904.0,0.0,1.0,0.0,?,0.0,0.0
7000000.0,27.171875,1.1601711675110792E-7,7000000.0,56.89999999999999,11.93153954294306,9.263157894736826,-8.838383838383844,666666.0,2904.0,0.0,1.0,0.0,?,0.0,7.0
7100000.0,27.5625,1.1780457700499231E-7,7100000.0,60.8,19.865242775606333,22.22222222222222,6.220095693779909,676190.0,2904.0,0.0,1.0,0.0,?,0.0,38.0
7200000.0,27.953125,1.1956131654895014E-7,7200000.0,64.5,27.178292156589244,30.118110236220474,9.898477157360414,685714.0,2904.0,0.0,1.0,0.0,?,0.0,0.0
7300000.0,28.34375,1.2128733538298144E-7,7300000.0,61.1,20.2300000820257,21.57258064516129,3.233830845771147,695238.0,2904.0,0.0,1.0,0.0,?,0.0,0.0
7400000.0,28.71875,1.2322448633818164E-7,7400000.0,61.0,20.731707317073166,18.749999999999993,2.500000000000002,704760.0,2904.0,0.0,1.0,0.0,?,0.0,0.0
7500000.0,29.09375,1.2513214541185236E-7,7500000.0,61.5,22.3571169281652,24.361493123772103,10.672853828306273,714284.0,2904.0,0.0,1.0,0.0,?,0.0,0.0
7600000.0,29.484375,1.270885695703328E-7,7600000.0,61.5,21.550248594017436,20.124481327800826,7.451923076923082,723808.0,2904.0,0.0,1.0,0.0,?,0.0,0.0
7700000.0,29.875,1.290142730188867E-7,7700000.0,61.6,22.681969193597105,21.14989733059548,11.316397228637422,733332.0,2904.0,0.0,1.0,0.0,?,0.0,0.0
7800000.0,30.25,1.3083345644796894E-7,7800000.0,63.1,25.012193139326932,27.9296875,13.785046728971972,742856.0,2904.0,0.0,1.0,0.0,?,0.0,0.0
7900000.0,30.65625,1.3277228895781774E-7,7900000.0,63.7,26.28783079097422,25.0,11.029411764705891,752380.0,2904.0,0.0,1.0,0.0,?,0.0,0.0
8000000.0,31.046875,1.3460583027659196E-7,8000000.0,62.1,23.403395311236867,18.494623655913973,4.292929292929296,761904.0,2904.0,0.0,1.0,0.0,?,0.0,0.0
8100000.0,31.4375,1.3640865088543963E-7,8100000.0,61.8,23.13264649066324,19.916142557651987,9.905660377358497,771428.0,2904.0,0.0,1.0,0.0,?,0.0,0.0
8200000.0,31.8125,1.381098667884039E-7,8200000.0,62.0,23.20750141459865,20.168067226890752,8.212560386473436,780952.0,2904.0,0.0,1.0,0.0,?,0.0,0.0
8300000.0,32.1875,1.3978159080983867E-7,8300000.0,62.8,24.576656069551674,20.85106382978723,5.58375634517767,790476.0,2904.0,0.0,1.0,0.0,?,0.0,0.0
8400000.0,32.578125,1.412586102055179E-7,8400000.0,64.2,27.18841522941751,20.267260579064583,3.243243243243246,800000.0,2904.0,0.0,1.0,0.0,?,0.0,0.0
8500000.0,32.953125,1.4318101521995335E-7,8500000.0,65.0,29.58341548601527,27.083333333333336,15.254237288135606,809522.0,2904.0,0.0,1.0,0.0,?,0.0,0.0
8600000.0,33.34375,1.4515279973339706E-7,8600000.0,63.0,25.79102753353444,20.08639308855291,10.194174757281562,819046.0,2904.0,0.0,1.0,0.0,?,0.0,0.0
8700000.0,33.734375,1.4709386353691421E-7,8700000.0,60.5,20.640023144985662,19.87829614604462,9.610983981693371,828570.0,2904.0,0.0,1.0,0.0,?,0.0,0.0
8800000.0,34.125,1.490042066305048E-7,8800000.0,63.1,25.40873587011013,22.478991596638654,14.583333333333345,838094.0,2904.0,0.0,1.0,0.0,?,0.0,0.0
8900000.0,34.515625,1.5088382901416885E-7,8900000.0,59.8,19.623469946775536,20.238095238095234,5.854800936768155,847618.0,2904.0,0.0,1.0,0.0,?,0.0,0.0
9000000.0,34.90625,1.5273273068790634E-7,9000000.0,63.5,26.693873616221346,24.897119341563787,11.6222760290557,857142.0,2904.0,0.0,1.0,0.0,?,0.0,0.0
9100000.0,35.296875,1.545509116517173E-7,9100000.0,63.2,25.555802803795043,24.59016393442623,6.83544303797469,866666.0,2904.0,0.0,1.0,0.0,?,0.0,0.0
9200000.0,35.6875,1.563383719056017E-7,9200000.0,62.8,24.937952743194977,21.51898734177215,5.822784810126587,876190.0,2904.0,0.0,1.0,0.0,?,0.0,0.0
9300000.0,36.09375,1.5816538103131787E-7,9300000.0,61.3,21.536028547098653,18.697478991596633,0.0,885714.0,2904.0,0.0,1.0,0.0,?,0.0,0.0
9400000.0,36.484375,1.5989139986534916E-7,9400000.0,63.7,27.058634409034283,27.400000000000002,11.46341463414635,895238.0,2904.0,0.0,1.0,0.0,?,0.0,0.0
9500000.0,36.875,1.619092654436827E-7,9500000.0,62.6,23.96550392167226,20.93023255813953,6.73316708229427,904760.0,2904.0,0.0,1.0,0.0,?,0.0,0.0
9600000.0,37.265625,1.6389641031208967E-7,9600000.0,65.60000000000001,30.652152000806375,28.18371607515658,18.289786223277922,914284.0,2904.0,0.0,1.0,0.0,?,0.0,0.0
9700000.0,37.640625,1.657745775042309E-7,9700000.0,62.2,23.59808550546536,22.857142857142858,9.569377990430631,923808.0,2904.0,0.0,1.0,0.0,?,0.0,0.0
9800000.0,38.03125,1.6770028095278478E-7,9800000.0,63.3,25.21802917923221,19.16299559471365,-1.9444444444444462,933332.0,2904.0,0.0,1.0,0.0,?,0.0,0.0
9900000.0,38.4375,1.696710630009572E-7,9900000.0,60.3,20.082132216764627,14.25485961123109,5.250596658711221,942856.0,2904.0,0.0,1.0,0.0,?,0.0,0.0
1.0E7,38.828125,1.7153532502965798E-7,1.0E7,62.5,23.79287920663306,20.71881606765327,8.980582524271853,952380.0,2904.0,0.0,1.0,0.0,?,0.0,0.0
