learning evaluation instances,evaluation time (cpu seconds),model cost (RAM-Hours),classified instances,classifications correct (percent),Kappa Statistic (percent),Kappa Temporal Statistic (percent),Kappa M Statistic (percent),model training instances,model serialized size (bytes),labeling cost,newThreshold,maxPosterior,accuracyBaseLearner (percent),Change detected,Warning detected
100000.0,0.171875,1.2232986692753103E-9,100000.0,65.10000000000001,27.60237314857073,26.98744769874477,19.025522041763356,9590.0,9328.0,0.0,1.0,0.0,?,2.0,3.0
200000.0,0.3125,2.2137020197179585E-9,200000.0,68.10000000000001,34.81068532566049,38.05825242718448,29.424778761061955,28638.0,9328.0,0.0,1.0,0.0,?,0.0,0.0
300000.0,0.46875,3.3025086546937628E-9,300000.0,66.10000000000001,30.838909743757135,29.521829521829524,26.143790849673206,47686.0,9328.0,0.0,1.0,0.0,?,0.0,0.0
400000.0,0.609375,4.375566883633534E-9,400000.0,66.5,32.032137639993515,33.79446640316207,27.173913043478265,66734.0,9328.0,0.0,1.0,0.0,?,0.0,55.0
500000.0,0.78125,5.636926895628373E-9,500000.0,64.9,28.80959914328134,27.027027027027028,24.19006479481641,85782.0,9328.0,0.0,1.0,0.0,?,0.0,24.0
600000.0,0.9375,6.798816482639975E-9,600000.0,66.3,31.13229139419305,33.66141732283465,25.442477876106196,104830.0,9328.0,0.0,1.0,0.0,?,0.0,8.0
700000.0,1.125,8.179114148434666E-9,700000.0,68.2,34.738440700227805,34.96932515337424,26.558891454965377,123878.0,9328.0,0.0,1.0,0.0,?,0.0,0.0
800000.0,1.296875,9.431581323345502E-9,800000.0,65.7,29.620236541665644,31.124497991967875,22.398190045248867,142926.0,9328.0,0.0,1.0,0.0,?,0.0,0.0
900000.0,1.453125,1.0558546313809024E-8,900000.0,66.10000000000001,31.97415419191717,28.78151260504202,32.06412825651303,161974.0,9328.0,0.0,1.0,0.0,?,0.0,0.0
1000000.0,1.640625,1.1896934463746018E-8,1000000.0,67.80000000000001,34.64450262842762,37.35408560311285,29.540481400437642,181022.0,9328.0,0.0,1.0,0.0,?,0.0,0.0
1100000.0,1.8125,1.3245444279164076E-8,1100000.0,65.9,30.97277776878108,34.042553191489375,27.7542372881356,200066.0,9328.0,0.0,1.0,0.0,?,0.0,0.0
1200000.0,1.96875,1.44597207609978E-8,1200000.0,67.0,32.978321533456004,33.198380566801625,28.725701943844495,219114.0,9328.0,0.0,1.0,0.0,?,0.0,0.0
1300000.0,2.125,1.566235571064883E-8,1300000.0,64.4,28.238827632082895,30.873786407766996,26.293995859213254,238162.0,9328.0,0.0,1.0,0.0,?,0.0,0.0
1400000.0,2.296875,1.6972448469863998E-8,1400000.0,66.2,32.28732611064812,35.98484848484849,32.12851405622491,257210.0,9328.0,0.0,1.0,0.0,?,0.0,0.0
1500000.0,2.46875,1.8269735543678204E-8,1500000.0,63.5,26.38457504739624,22.669491525423727,23.640167364016733,276258.0,9328.0,0.0,1.0,0.0,?,0.0,0.0
1600000.0,2.625,1.9437445896781155E-8,1600000.0,67.0,33.66567500201014,36.04651162790699,31.535269709543574,295306.0,9328.0,0.0,1.0,0.0,?,0.0,0.0
1700000.0,2.796875,2.0709121599793436E-8,1700000.0,65.2,28.894846102293343,26.42706131078224,23.348017621145374,314354.0,9328.0,0.0,1.0,0.0,?,0.0,0.0
1800000.0,2.96875,2.1967991617404753E-8,1800000.0,69.1,36.93929029150782,39.648437499999986,32.53275109170304,333402.0,9328.0,0.0,1.0,0.0,?,0.0,0.0
1900000.0,3.125,2.310077737395962E-8,1900000.0,68.2,35.219175124163264,36.40000000000001,29.490022172949004,352450.0,9328.0,0.0,1.0,0.0,?,0.0,0.0
2000000.0,3.296875,2.4334036020769013E-8,2000000.0,65.2,29.07945953657095,29.41176470588236,22.83813747228381,371498.0,9328.0,0.0,1.0,0.0,?,0.0,0.0
2100000.0,3.46875,2.5554488982177443E-8,2100000.0,66.10000000000001,31.384852042262075,32.60437375745527,28.329809725158565,390546.0,9328.0,0.0,1.0,0.0,?,0.0,0.0
2200000.0,3.609375,2.6652576505310006E-8,2200000.0,64.3,28.322464582864864,29.585798816568055,26.69404517453799,409590.0,9328.0,0.0,1.0,0.0,?,0.0,0.0
2300000.0,3.78125,2.798187779262662E-8,2300000.0,66.5,32.52388855766288,33.66336633663367,30.06263048016702,428638.0,9328.0,0.0,1.0,0.0,?,0.0,0.0
2400000.0,3.953125,2.929837339454227E-8,2400000.0,66.8,32.875864829783715,35.53398058252428,29.21108742004265,447686.0,9328.0,0.0,1.0,0.0,?,0.0,0.0
2500000.0,4.109375,3.048354604591926E-8,2500000.0,66.60000000000001,32.224025974025984,34.63796477495109,28.01724137931035,466734.0,9328.0,0.0,1.0,0.0,?,0.0,0.0
2600000.0,4.265625,3.165707716511356E-8,2600000.0,65.3,30.042579271636406,33.39731285988484,27.100840336134457,485782.0,9328.0,0.0,1.0,0.0,?,0.0,0.0
2700000.0,4.4375,3.293515571082632E-8,2700000.0,66.8,32.68587417124551,36.76190476190477,28.60215053763441,504830.0,9328.0,0.0,1.0,0.0,?,0.0,0.0
2800000.0,4.609375,3.420042857113812E-8,2800000.0,64.9,29.04790782292299,29.376257545271635,26.105263157894736,523878.0,9328.0,0.0,1.0,0.0,?,0.0,0.0
2900000.0,4.78125,3.545289574604896E-8,2900000.0,66.2,31.964573268921104,31.578947368421055,30.165289256198353,542926.0,9328.0,0.0,1.0,0.0,?,0.0,0.0
3000000.0,4.921875,3.646716423746613E-8,3000000.0,66.7,31.65473532116118,30.625000000000007,24.830699774266364,561974.0,9328.0,0.0,1.0,0.0,?,0.0,0.0
3100000.0,5.09375,3.769402004157504E-8,3100000.0,66.9,33.195553366863386,35.976789168278536,30.16877637130802,581022.0,9328.0,0.0,1.0,0.0,?,0.0,0.0
3200000.0,5.25,3.8919938055591454E-8,3200000.0,67.30000000000001,33.62885744209271,30.720338983050855,30.2771855010661,600066.0,9328.0,0.0,1.0,0.0,?,0.0,0.0
3300000.0,5.40625,4.0134214537425176E-8,3300000.0,67.4,34.005959707197,37.54789272030653,30.341880341880344,619114.0,9328.0,0.0,1.0,0.0,?,0.0,0.0
3400000.0,5.578125,4.145711298204131E-8,3400000.0,66.8,32.84219128647662,34.90196078431374,29.21108742004265,638162.0,9328.0,0.0,1.0,0.0,?,0.0,0.0
3500000.0,5.75,4.276720574125648E-8,3500000.0,68.30000000000001,35.87046238003529,35.95959595959597,31.681034482758623,657210.0,9328.0,0.0,1.0,0.0,?,0.0,0.0
3600000.0,5.90625,4.394655762654212E-8,3600000.0,65.0,29.45141419679428,28.86178861788618,27.385892116182575,676258.0,9328.0,0.0,1.0,0.0,?,0.0,0.0
3700000.0,6.0625,4.511426797964507E-8,3700000.0,65.4,29.466924880236476,28.364389233954455,23.956043956043953,695306.0,9328.0,0.0,1.0,0.0,?,0.0,0.0
3800000.0,6.234375,4.638594368265735E-8,3800000.0,69.6,38.44359489405817,38.08553971486761,35.04273504273503,714354.0,9328.0,0.0,1.0,0.0,?,0.0,0.0
3900000.0,6.390625,4.7530370971394915E-8,3900000.0,68.30000000000001,36.310595345248814,37.35177865612649,34.50413223140497,733402.0,9328.0,0.0,1.0,0.0,?,0.0,0.0
4000000.0,6.546875,4.8663156727949783E-8,4000000.0,66.5,32.27781057193916,34.57031250000001,28.723404255319153,752450.0,9328.0,0.0,1.0,0.0,?,0.0,0.0
4100000.0,6.703125,4.9784300952321956E-8,4100000.0,67.10000000000001,32.977509778357245,37.57115749525618,27.212389380530976,771498.0,9328.0,0.0,1.0,0.0,?,0.0,0.0
4200000.0,6.859375,5.089380364451144E-8,4200000.0,69.1,37.58332323354743,38.56858846918488,34.810126582278464,790546.0,9328.0,0.0,1.0,0.0,?,0.0,0.0
4300000.0,7.015625,5.211390089243651E-8,4300000.0,66.2,31.411224208185207,33.464566929133866,27.467811158798284,809590.0,9328.0,0.0,1.0,0.0,?,0.0,0.0
4400000.0,7.1875,5.344320217975312E-8,4400000.0,64.7,28.664963786859797,23.92241379310345,25.995807127882603,828638.0,9328.0,0.0,1.0,0.0,?,0.0,0.0
4500000.0,7.34375,5.46400163633128E-8,4500000.0,66.60000000000001,32.653686706563654,30.41666666666667,29.53586497890296,847686.0,9328.0,0.0,1.0,0.0,?,0.0,0.0
4600000.0,7.5,5.582518901468979E-8,4600000.0,67.10000000000001,33.27925370107484,36.363636363636374,30.000000000000004,866734.0,9328.0,0.0,1.0,0.0,?,0.0,0.0
4700000.0,7.65625,5.699872013388409E-8,4700000.0,67.2,33.11173195750148,30.508474576271194,27.912087912087912,885782.0,9328.0,0.0,1.0,0.0,?,0.0,0.0
4800000.0,7.8125,5.816060972089569E-8,4800000.0,64.7,28.567959593343257,30.784313725490204,24.57264957264957,904830.0,9328.0,0.0,1.0,0.0,?,0.0,0.0
4900000.0,7.984375,5.942588258120749E-8,4900000.0,67.5,33.63825703434476,34.34343434343435,29.65367965367966,923878.0,9328.0,0.0,1.0,0.0,?,0.0,0.0
5000000.0,8.15625,6.082561513822941E-8,5000000.0,69.69999999999999,38.965433889291745,38.787878787878775,36.874999999999986,942926.0,9328.0,0.0,1.0,0.0,?,0.0,0.0
5100000.0,8.3125,6.197456968948246E-8,5100000.0,62.6,33.12830782434559,17.98245614035087,-1.081081081081082,2774.0,9232.0,0.0,1.0,0.0,?,4.0,35.0
5200000.0,8.484375,6.335224801053604E-8,5200000.0,63.0,13.89621934589053,20.258620689655167,4.392764857881141,1052.0,9232.0,0.0,1.0,0.0,?,4.0,48.0
5300000.0,8.65625,6.480249188219508E-8,5300000.0,60.4,0.0,18.518518518518512,0.0,655.0,8920.0,0.0,1.0,0.0,?,10.0,59.0
5400000.0,8.8125,6.6166491402934E-8,5400000.0,61.8,31.570650616222405,18.550106609808097,-3.243243243243246,12970.0,9232.0,0.0,1.0,0.0,?,2.0,25.0
5500000.0,8.984375,6.765408519034585E-8,5500000.0,62.6,31.81975622828351,24.137931034482758,8.108108108108114,32018.0,9232.0,0.0,1.0,0.0,?,0.0,0.0
5600000.0,9.15625,6.912887329235673E-8,5600000.0,54.300000000000004,20.391596697209362,0.0,-18.70129870129869,51066.0,9232.0,0.0,1.0,0.0,?,0.0,0.0
5700000.0,9.328125,7.059085570896665E-8,5700000.0,61.1,30.76813554495622,12.780269058295952,-8.055555555555562,70114.0,9232.0,0.0,1.0,0.0,?,0.0,0.0
5800000.0,9.5,7.204003244017561E-8,5800000.0,64.60000000000001,35.41843019352579,26.70807453416149,11.055276381909557,89162.0,9232.0,0.0,1.0,0.0,?,0.0,0.0
5900000.0,9.6875,7.360698267196616E-8,5900000.0,62.9,32.19087446355853,23.188405797101446,6.783919597989955,108210.0,9232.0,0.0,1.0,0.0,?,0.0,0.0
6000000.0,9.859375,7.50305480323732E-8,6000000.0,65.5,36.458471467091016,26.282051282051285,15.647921760391212,127258.0,9232.0,0.0,1.0,0.0,?,0.0,0.0
6100000.0,10.03125,7.644130770737927E-8,6100000.0,62.7,32.73461732669696,16.92650334075723,2.8645833333333357,146306.0,9232.0,0.0,1.0,0.0,?,0.0,0.0
6200000.0,10.203125,7.783926169698438E-8,6200000.0,61.7,31.88350122360708,17.456896551724128,-6.09418282548477,165354.0,9232.0,0.0,1.0,0.0,?,0.0,0.0
6300000.0,10.375,7.907714461907745E-8,6300000.0,64.1,34.80124367989772,25.363825363825367,7.235142118863055,184402.0,9232.0,0.0,1.0,0.0,?,0.0,0.0
6400000.0,10.5625,8.072092896327377E-8,6400000.0,63.7,34.7643248916333,16.55172413793105,0.0,203446.0,9232.0,0.0,1.0,0.0,?,0.0,0.0
6500000.0,10.734375,8.22149255933861E-8,6500000.0,62.6,32.90011446451063,15.765765765765757,-1.3550135501355027,222494.0,9232.0,0.0,1.0,0.0,?,0.0,0.0
6600000.0,10.90625,8.369611653809747E-8,6600000.0,61.4,30.361111912940565,18.565400843881854,-0.5208333333333338,241542.0,9232.0,0.0,1.0,0.0,?,0.0,0.0
6700000.0,11.09375,8.52979913664361E-8,6700000.0,65.2,36.339289634280206,24.675324675324674,13.432835820895534,260590.0,9232.0,0.0,1.0,0.0,?,0.0,0.0
6800000.0,11.265625,8.675357094034554E-8,6800000.0,63.7,34.42160943461673,18.426966292134825,6.44329896907217,279638.0,9232.0,0.0,1.0,0.0,?,0.0,0.0
6900000.0,11.4375,8.819634482885401E-8,6900000.0,64.2,34.92991333682313,24.63157894736842,7.731958762886605,298686.0,9232.0,0.0,1.0,0.0,?,0.0,0.0
7000000.0,11.625,8.975631014133494E-8,7000000.0,63.2,34.0454512868306,22.851153039832283,-1.6574585635359134,317734.0,9232.0,0.0,1.0,0.0,?,0.0,0.0
7100000.0,11.796875,9.117347265904149E-8,7100000.0,64.4,35.24235004784063,27.4949083503055,6.561679790026252,336782.0,9232.0,0.0,1.0,0.0,?,0.0,0.0
7200000.0,11.96875,9.257782949134708E-8,7200000.0,64.7,35.934199159340544,28.397565922920897,6.613756613756619,355830.0,9232.0,0.0,1.0,0.0,?,0.0,0.0
7300000.0,12.140625,9.396938063825171E-8,7300000.0,62.1,31.927581004382503,20.54507337526205,-2.156334231805932,374878.0,9232.0,0.0,1.0,0.0,?,0.0,0.0
7400000.0,12.328125,9.562014990175764E-8,7400000.0,61.5,30.492868748871626,19.287211740041922,1.2820512820512833,393922.0,9232.0,0.0,1.0,0.0,?,0.0,0.0
7500000.0,12.5,9.712054937457045E-8,7500000.0,64.0,34.07559331966012,23.404255319148934,10.891089108910899,412970.0,9232.0,0.0,1.0,0.0,?,0.0,0.0
7600000.0,12.671875,9.86081431619823E-8,7600000.0,63.0,32.71748617980797,24.024640657084188,6.565656565656572,432018.0,9232.0,0.0,1.0,0.0,?,0.0,0.0
7700000.0,12.84375,1.0008293126399318E-7,7700000.0,61.4,31.201163520219016,16.45021645021644,-8.42696629213484,451066.0,9232.0,0.0,1.0,0.0,?,0.0,0.0
7800000.0,13.03125,1.016778211730222E-7,7800000.0,63.3,34.111310592459596,21.0752688172043,2.1333333333333355,470114.0,9232.0,0.0,1.0,0.0,?,0.0,0.0
7900000.0,13.203125,1.0312699790423116E-7,7900000.0,48.199999999999996,12.682010808551098,-4.8582995951417045,-37.400530503978786,489162.0,9232.0,0.0,1.0,0.0,?,0.0,0.0
8000000.0,13.375,1.0456336895003916E-7,8000000.0,64.1,34.85282909302072,23.779193205944797,7.712082262210804,508210.0,9232.0,0.0,1.0,0.0,?,0.0,0.0
8100000.0,13.5625,1.0611634934321048E-7,8100000.0,62.0,31.733501963560055,14.414414414414404,-1.8766756032171599,527258.0,9232.0,0.0,1.0,0.0,?,0.0,0.0
8200000.0,13.734375,1.0752710901821655E-7,8200000.0,64.9,35.876356461690236,29.940119760479046,11.586901763224192,546306.0,9232.0,0.0,1.0,0.0,?,0.0,0.0
8300000.0,13.90625,1.0892506300782166E-7,8300000.0,65.3,36.37510451351709,27.708333333333336,14.742014742014753,565354.0,9232.0,0.0,1.0,0.0,?,0.0,0.0
8400000.0,14.078125,1.1016294592991473E-7,8400000.0,44.3,7.419719433548296,-24.608501118568242,-46.96569920844327,584402.0,9232.0,0.0,1.0,0.0,?,0.0,0.0
8500000.0,14.25,1.1166974824542803E-7,8500000.0,65.0,35.89626183629737,24.07809110629067,11.392405063291148,603446.0,9232.0,0.0,1.0,0.0,?,0.0,0.0
8600000.0,14.421875,1.1316374487554036E-7,8600000.0,46.6,7.551037367385953,-8.536585365853655,-32.835820895522374,622494.0,9232.0,0.0,1.0,0.0,?,0.0,0.0
8700000.0,14.59375,1.1464493582025173E-7,8700000.0,64.0,34.53902746815141,22.58064516129032,6.976744186046517,641542.0,9232.0,0.0,1.0,0.0,?,0.0,0.0
8800000.0,14.78125,1.1624681064859035E-7,8800000.0,65.5,36.686559933052926,23.672566371681413,11.764705882352951,660590.0,9232.0,0.0,1.0,0.0,?,0.0,0.0
8900000.0,14.953125,1.177023902224998E-7,8900000.0,61.8,31.140401476695896,18.20128479657387,0.0,679638.0,9232.0,0.0,1.0,0.0,?,0.0,0.0
9000000.0,15.125,1.1914516411100827E-7,9000000.0,61.9,31.932196606971857,18.93617021276595,-3.2520325203252063,698686.0,9232.0,0.0,1.0,0.0,?,0.0,0.0
9100000.0,15.296875,1.205751323141158E-7,9100000.0,61.8,31.87330574975032,17.13665943600867,-3.80434782608696,717734.0,9232.0,0.0,1.0,0.0,?,0.0,0.0
9200000.0,15.484375,1.221211277879775E-7,9200000.0,64.7,35.65533131124592,23.92241379310345,9.02061855670104,736782.0,9232.0,0.0,1.0,0.0,?,0.0,0.0
9300000.0,15.65625,1.2352548462028307E-7,9300000.0,65.9,37.66999093381687,27.60084925690022,12.787723785166252,755830.0,9232.0,0.0,1.0,0.0,?,0.0,0.0
9400000.0,15.828125,1.249170357671877E-7,9400000.0,65.5,36.5687557915484,27.672955974842772,15.233415233415245,774878.0,9232.0,0.0,1.0,0.0,?,0.0,0.0
9500000.0,16.015625,1.2656780503069365E-7,9500000.0,62.1,31.96766040553737,20.042194092827,-1.8817204301075288,793922.0,9232.0,0.0,1.0,0.0,?,0.0,0.0
9600000.0,16.1875,1.2806820450350646E-7,9600000.0,63.1,34.015235506598486,17.999999999999993,-2.7855153203342646,812970.0,9232.0,0.0,1.0,0.0,?,0.0,0.0
9700000.0,16.34375,1.2942056249206267E-7,9700000.0,60.199999999999996,29.327617985588518,14.592274678111577,-5.013192612137207,832018.0,9232.0,0.0,1.0,0.0,?,0.0,0.0
9800000.0,16.53125,1.310294222397109E-7,9800000.0,54.6,21.646324625835327,2.5751072961373414,-24.72527472527472,851066.0,9232.0,0.0,1.0,0.0,?,0.0,0.0
9900000.0,16.703125,1.3249140465632083E-7,9900000.0,59.199999999999996,29.1440321213721,12.820512820512809,-20.710059171597653,870114.0,9232.0,0.0,1.0,0.0,?,0.0,0.0
1.0E7,16.875,1.3394058138752979E-7,1.0E7,62.8,33.26827588186332,21.848739495798316,0.5347593582887705,889162.0,9232.0,0.0,1.0,0.0,?,0.0,0.0
