learning evaluation instances,evaluation time (cpu seconds),model cost (RAM-Hours),classified instances,classifications correct (percent),Kappa Statistic (percent),Kappa Temporal Statistic (percent),Kappa M Statistic (percent),model training instances,model serialized size (bytes),labeling cost,newThreshold,maxPosterior,accuracyBaseLearner (percent),Change detected,Warning detected
100000.0,0.109375,7.517519406974315E-10,100000.0,69.3,39.455852075066844,36.3070539419087,24.57002457002456,10000.0,7424.0,10000.0,0.6885418629191108,0.6891089412569125,0.0,0.0,0.0
200000.0,0.203125,1.3961107470095157E-9,200000.0,68.60000000000001,38.10124586027442,34.30962343096235,29.910714285714292,20000.0,7424.0,20000.0,0.6988665882100349,0.7007055093497423,0.0,0.0,0.0
300000.0,0.296875,2.0631705410778523E-9,300000.0,67.0,34.792918115712936,34.52380952380953,21.42857142857145,30000.0,7424.0,30000.0,0.7093461333573515,0.6993762425452014,0.0,0.0,7.0
400000.0,0.40625,2.8380115206042926E-9,400000.0,69.89999999999999,40.21657093373374,40.98039215686274,30.484988452655887,40000.0,7424.0,40000.0,0.7271826480927513,0.6964134788330305,0.0,0.0,35.0
500000.0,0.5,3.502160931626956E-9,500000.0,69.5,39.697101506583884,36.7219917012448,26.506024096385538,50000.0,7424.0,50000.0,0.7022642591620253,0.6969707714362007,0.0,0.0,0.0
600000.0,0.59375,4.166310342649619E-9,600000.0,67.5,35.915131916236156,32.98969072164949,24.41860465116281,60000.0,7424.0,60000.0,0.6987498799950291,0.6992385553573396,0.0,0.0,0.0
700000.0,0.703125,4.941151322176059E-9,700000.0,67.30000000000001,35.62434541574467,28.446389496717728,17.839195979899515,70000.0,7424.0,70000.0,0.7234831513652966,0.6980914862079389,0.0,0.0,0.0
800000.0,0.796875,5.605300733198722E-9,800000.0,67.9,36.309018325542276,31.84713375796179,24.64788732394368,80000.0,7424.0,80000.0,0.6986915331964169,0.6976943832461149,0.0,0.0,0.0
900000.0,0.890625,6.269450144221385E-9,900000.0,67.4,35.52342714740611,34.53815261044178,21.44578313253014,90000.0,7424.0,90000.0,0.6951950332159829,0.700186744184295,0.0,0.0,0.0
1000000.0,1.0,7.044291123747825E-9,1000000.0,68.0,36.824815212584504,34.156378600823054,20.79207920792081,100000.0,7424.0,100000.0,0.6986331912698686,0.6964518519475518,0.0,0.0,0.0
1100000.0,1.09375,7.708440534770489E-9,1100000.0,69.3,39.333818135829,41.41221374045801,29.74828375286041,110000.0,7424.0,110000.0,0.7091092366164935,0.696511594988805,0.0,0.0,0.0
1200000.0,1.1875,8.372589945793152E-9,1200000.0,70.89999999999999,42.47647663477504,37.55364806866952,33.863636363636346,120000.0,7424.0,120000.0,0.705560602757121,0.6998441255504838,0.0,0.0,0.0
1300000.0,1.28125,9.036739356815815E-9,1300000.0,72.1,44.688511070227754,42.94478527607362,35.26682134570766,130000.0,7424.0,130000.0,0.7090500247940597,0.7007704102425695,0.0,0.0,0.0
1400000.0,1.390625,9.811580336342255E-9,1400000.0,68.30000000000001,37.691642424718935,33.68200836820085,27.95454545454546,140000.0,7424.0,140000.0,0.7196822711653824,0.7006915568358214,0.0,0.0,0.0
1500000.0,1.484375,1.0475729747364918E-8,1500000.0,67.10000000000001,35.53873162168094,32.02479338842976,20.14563106796118,150000.0,7424.0,150000.0,0.708990817915912,0.6982414890363516,0.0,0.0,0.0
1600000.0,1.578125,1.1139879158387581E-8,1600000.0,69.19999999999999,38.81410612971409,36.494845360824726,24.13793103448275,160000.0,7424.0,160000.0,0.6984581947184895,0.7001323141906866,0.0,0.0,0.0
1700000.0,1.671875,1.1804028569410244E-8,1700000.0,67.9,36.521622198843545,36.81102362204726,28.824833702882486,170000.0,7424.0,170000.0,0.7160209321414547,0.6983364101218196,0.0,0.0,0.0
1800000.0,1.78125,1.2578869548936684E-8,1800000.0,66.10000000000001,33.497073086520516,27.253218884120173,16.91176470588237,180000.0,7424.0,180000.0,0.7053838709988547,0.6983456199691679,0.0,0.0,0.0
1900000.0,1.875,1.3243018959959347E-8,1900000.0,67.0,35.15986041686316,31.535269709543574,20.289855072463784,190000.0,7424.0,190000.0,0.7018538801889409,0.6987981764736472,0.0,0.0,0.0
2000000.0,1.96875,1.390716837098201E-8,2000000.0,68.8,38.19334389857369,29.09090909090907,17.89473684210525,200000.0,7424.0,200000.0,0.7339639923960676,0.7350871177608699,0.0,0.0,0.0
2100000.0,2.0625,1.4571317782004673E-8,2100000.0,69.69999999999999,40.18619268336977,41.5057915057915,30.82191780821916,210000.0,7424.0,210000.0,0.7017952742010507,0.698919267235513,0.0,0.0,0.0
2200000.0,2.171875,1.5346158761531114E-8,2200000.0,66.8,34.6608464962863,28.29373650107992,17.206982543640912,220000.0,7424.0,220000.0,0.7123187351651743,0.6996616930407108,0.0,0.0,0.0
2300000.0,2.265625,1.6010308172553778E-8,2300000.0,69.0,38.864697715511795,33.47639484978539,28.240740740740737,230000.0,7424.0,230000.0,0.6947887852543122,0.6998479114314893,0.0,0.0,0.0
2400000.0,2.359375,1.6674457583576443E-8,2400000.0,67.4,35.31232637510914,32.36514522821577,16.410256410256423,240000.0,7424.0,240000.0,0.705207183509077,0.699640183714469,0.0,0.0,0.0
2500000.0,2.46875,1.7449298563102883E-8,2500000.0,68.60000000000001,37.68778005770827,36.820925553319924,20.90680100755669,250000.0,7424.0,250000.0,0.7016780769059692,0.7018212736948048,0.0,0.0,0.0
2600000.0,2.5625,1.8113447974125548E-8,2600000.0,71.0,42.43838922764226,41.883767535070135,37.76824034334763,260000.0,7424.0,260000.0,0.6981666312026631,0.701853177656174,0.0,0.0,0.0
2700000.0,2.65625,1.8777597385148212E-8,2700000.0,70.6,41.83285849952516,44.212523719165084,30.0,270000.0,7424.0,270000.0,0.708635680453932,0.6998085745488908,0.0,0.0,0.0
2800000.0,2.75,1.9441746796170877E-8,2800000.0,67.10000000000001,35.5957685049605,29.0948275862069,12.032085561497336,280000.0,7424.0,280000.0,0.7121403106017561,0.7017253454007963,0.0,0.0,0.0
2900000.0,2.84375,2.010589620719354E-8,2900000.0,68.7,37.99033203898883,34.655532359081434,24.57831325301207,290000.0,7424.0,290000.0,0.7015608991824243,0.7015721350915349,0.0,0.0,0.0
3000000.0,2.953125,2.088073718671998E-8,3000000.0,69.1,38.72597622012642,40.46242774566473,30.090497737556543,300000.0,7424.0,300000.0,0.7120808456795078,0.6997833911891266,0.0,0.0,0.0
3100000.0,3.046875,2.1544886597742646E-8,3100000.0,67.7,36.727210042155754,31.85654008438819,23.820754716981153,310000.0,7424.0,310000.0,0.6945567501573731,0.6998352430364553,0.0,0.0,0.0
3200000.0,3.140625,2.220903600876531E-8,3200000.0,68.7,38.45318902933011,37.40000000000001,27.378190255220442,320000.0,7424.0,320000.0,0.7049716690323607,0.6996689731084779,0.0,0.0,0.0
3300000.0,3.25,2.2996100597083578E-8,3300000.0,67.7,36.42783476747941,34.482758620689665,21.980676328502433,330000.0,7424.0,330000.0,0.6944987534922086,0.6993835753305465,0.0,0.0,14.0
3400000.0,3.34375,2.3670727387070664E-8,3400000.0,68.2,37.02870540523415,36.65338645418328,24.644549763033194,340000.0,7424.0,340000.0,0.70491280270383,0.6993476947960322,0.0,0.0,0.0
3500000.0,3.4375,2.4341667691866563E-8,3500000.0,70.1,40.60625322792101,35.14099783080259,26.172839506172835,350000.0,7424.0,350000.0,0.7226378413011192,0.7298258744268883,0.0,0.0,81.0
3600000.0,3.546875,2.512873228018483E-8,3600000.0,68.60000000000001,37.95766104333877,36.30831643002029,26.806526806526826,360000.0,7424.0,360000.0,0.6978751893967721,0.6996362573077403,0.0,0.0,43.0
3700000.0,3.640625,2.5803359070171917E-8,3700000.0,69.19999999999999,38.840349483717226,36.09958506224065,22.999999999999993,370000.0,7424.0,370000.0,0.6943827746899406,0.7004894132780269,0.0,0.0,40.0
3800000.0,3.734375,2.6477985860159002E-8,3800000.0,68.5,37.72931427125506,36.87374749498999,28.246013667425974,380000.0,7424.0,380000.0,0.7118430356406054,0.7004672063070813,0.0,0.0,9.0
3900000.0,3.828125,2.7152612650146088E-8,3900000.0,68.4,37.8598621904792,37.17693836978132,24.401913875598105,390000.0,7424.0,390000.0,0.6943247925520233,0.6995354984796082,0.0,0.0,0.0
4000000.0,3.921875,2.7827239440133174E-8,4000000.0,69.39999999999999,39.29992581102042,36.90721649484534,28.671328671328666,400000.0,7424.0,400000.0,0.6977586467418034,0.6994696383810348,0.0,0.0,0.0
4100000.0,4.015625,2.850186623012026E-8,4100000.0,67.60000000000001,36.24231070460119,33.470225872689944,25.173210161662833,410000.0,7424.0,410000.0,0.70120948340827,0.7005275060976186,0.0,0.0,0.0
4200000.0,4.109375,2.9176493020107346E-8,4200000.0,70.3,41.19463980231895,39.26380368098158,29.453681710213775,420000.0,7424.0,420000.0,0.6977003827128568,0.6993518335774084,0.0,0.0,31.0
4300000.0,4.21875,2.9963557608425616E-8,4300000.0,66.60000000000001,34.18485778805949,32.79678068410464,19.12832929782084,430000.0,7424.0,430000.0,0.6942088428006067,0.6994020668527593,0.0,0.0,0.0
4400000.0,4.3125,3.0638184398412705E-8,4400000.0,70.3,41.652587324663074,39.87854251012145,28.947368421052627,440000.0,7424.0,440000.0,0.6976421235490577,0.7006153520703603,0.0,0.0,0.0
4500000.0,4.40625,3.1312811188399794E-8,4500000.0,69.1,38.68755655031191,36.157024793388416,27.97202797202797,450000.0,7424.0,450000.0,0.7010923839381703,0.6990205064418678,0.0,0.0,0.0
4600000.0,4.515625,3.209987577671806E-8,4600000.0,70.3,41.315945465323054,40.71856287425149,32.34624145785875,460000.0,7424.0,460000.0,0.6975838692499938,0.698885251408166,0.0,0.0,0.0
4700000.0,4.609375,3.277450256670515E-8,4700000.0,70.3,41.47506483065207,41.87866927592954,27.737226277372258,470000.0,7424.0,470000.0,0.7151246217513987,0.6986570509247017,0.0,0.0,0.0
4800000.0,4.71875,3.356156715502342E-8,4800000.0,69.0,38.99247049006757,37.499999999999986,25.659472422062347,480000.0,7424.0,480000.0,0.7186613436212681,0.7000873205540488,0.0,0.0,0.0
4900000.0,4.8125,3.422571656604608E-8,4900000.0,72.39999999999999,45.44160670514746,46.82080924855491,35.8139534883721,78691.0,7424.0,490000.0,0.6940349544784533,0.6945092730323358,0.0,1.0,12.0
5000000.0,4.921875,3.5012781154364347E-8,5000000.0,68.0,36.983064198503364,33.19415448851775,24.170616113744096,88691.0,7424.0,500000.0,0.725787347523533,0.6953227805080613,0.0,0.0,5.0
5100000.0,5.015625,3.567693056538701E-8,5100000.0,63.5,29.756360417227985,10.539215686274519,-29.432624113475157,19956.0,7424.0,510000.0,0.6668982578532621,0.6275544267891564,0.0,1.0,6.0
5200000.0,5.09375,3.6230388407905893E-8,5200000.0,65.0,32.40659557128015,17.061611374407594,-19.453924914675742,29956.0,7424.0,520000.0,0.6067201225617915,0.6033073103653003,0.0,0.0,0.0
5300000.0,5.1875,3.6894537818928555E-8,5300000.0,64.60000000000001,32.33944954128441,17.482517482517494,-17.99999999999998,39956.0,7424.0,530000.0,0.5977068119860317,0.5887042699546459,0.0,0.0,0.0
5400000.0,5.296875,3.766937879845499E-8,5400000.0,59.3,23.67242530399754,3.0952380952380976,-41.81184668989547,49956.0,7424.0,540000.0,0.606669460403821,0.5808437703139526,0.0,0.0,0.0
5500000.0,5.390625,3.833352820947765E-8,5500000.0,63.1,29.989526888575213,12.559241706161147,-22.591362126245826,59956.0,7424.0,550000.0,0.5917395073809523,0.5753925654467995,0.0,0.0,0.0
5600000.0,5.484375,3.8997677620500314E-8,5600000.0,62.6,27.69957045038915,13.225058004640381,-25.08361204013376,69956.0,7424.0,560000.0,0.6312499583981682,0.5724662671066842,0.0,0.0,0.0
5700000.0,5.578125,3.9661827031522976E-8,5700000.0,70.6,37.223484395551836,24.42159383033418,-2.7972027972027993,79956.0,7424.0,570000.0,0.7817947792193811,0.608273970567249,0.0,0.0,0.0
5800000.0,5.6875,4.043666801104941E-8,5800000.0,64.1,29.87295088371803,6.994818652849746,-25.087108013937264,89956.0,7424.0,580000.0,0.5657570637761516,0.5704876352831889,0.0,0.0,0.0
5900000.0,5.78125,4.1100817422072074E-8,5900000.0,68.0,32.76548179835528,22.705314009661855,-10.726643598615887,99956.0,7424.0,590000.0,0.7006826897684879,0.604265418914548,0.0,0.0,0.0
6000000.0,5.875,4.1764966833094735E-8,6000000.0,62.9,28.003104987385985,3.886010362694304,-34.90909090909089,109956.0,7424.0,600000.0,0.5770805895272376,0.5687192050415185,0.0,0.0,0.0
6100000.0,5.96875,4.2429116244117396E-8,6100000.0,66.9,32.97044219257531,28.19956616052061,-4.088050314465413,119956.0,7424.0,610000.0,0.6868191173188737,0.6002577580156588,0.0,0.0,0.0
6200000.0,6.078125,4.3203957223643833E-8,6200000.0,65.2,32.766615146831526,15.121951219512209,-24.285714285714267,129956.0,7424.0,620000.0,0.5828027263436847,0.5672477177763542,0.0,0.0,0.0
6300000.0,6.171875,4.3868106634666495E-8,6300000.0,68.4,33.66946402408051,24.76190476190478,-7.849829351535805,139956.0,7424.0,630000.0,0.7894149415271544,0.5990929054437106,0.0,0.0,0.0
6400000.0,6.265625,4.4532256045689156E-8,6400000.0,66.5,34.56622288893057,18.292682926829286,-7.0287539936102315,149956.0,7424.0,640000.0,0.8012522645001913,0.5674607010125419,0.0,0.0,0.0
6500000.0,6.359375,4.519640545671182E-8,6500000.0,69.0,35.083428265094135,22.30576441102756,-9.154929577464795,159956.0,7424.0,650000.0,0.7815336871706404,0.5980845289096242,0.0,0.0,0.0
6600000.0,6.453125,4.586055486773448E-8,6600000.0,70.39999999999999,37.68289858733868,29.355608591885442,-0.3389830508474579,169956.0,7424.0,660000.0,0.7932528302760863,0.5967832846275412,0.0,0.0,0.0
6700000.0,6.546875,4.652470427875714E-8,6700000.0,66.2,30.45725384336835,18.357487922705328,-10.457516339869253,179956.0,7424.0,670000.0,0.7971759431823464,0.8039504692624856,0.0,0.0,0.0
6800000.0,6.640625,4.71888536897798E-8,6800000.0,70.0,37.42908629780417,25.373134328358205,-4.8951048951048985,189956.0,7424.0,680000.0,0.8011184582442519,0.8043106061824776,0.0,0.0,0.0
6900000.0,6.734375,4.785300310080246E-8,6900000.0,63.7,30.420848443957155,15.18691588785048,-21.40468227424747,199956.0,7424.0,690000.0,0.5683177362104316,0.5652231480683214,0.0,0.0,0.0
7000000.0,6.828125,4.8517152511825123E-8,7000000.0,67.5,31.166234602416182,12.162162162162172,-23.106060606060584,209956.0,7424.0,700000.0,0.7931203598969868,0.5960891289007066,0.0,0.0,0.0
7100000.0,6.9375,4.929199349135156E-8,7100000.0,65.60000000000001,34.08572687731132,18.483412322274894,-14.28571428571426,219956.0,7424.0,710000.0,0.5626438422938393,0.565519520140908,0.0,0.0,0.0
7200000.0,7.015625,4.9845451333870446E-8,7200000.0,64.5,31.424818420645963,11.910669975186114,-27.240143369175605,229956.0,7424.0,720000.0,0.5825594419020439,0.5656997583377606,0.0,0.0,0.0
7300000.0,7.109375,5.050960074489311E-8,7300000.0,70.0,37.531234382808584,28.57142857142857,3.2258064516129052,239956.0,7424.0,730000.0,0.7735373092252318,0.5950385855956032,0.0,0.0,0.0
7400000.0,7.21875,5.1284441724419544E-8,7400000.0,68.2,34.249430368492675,14.054054054054067,-13.978494623655886,249956.0,7424.0,740000.0,0.7851365461781995,0.5948562842266837,0.0,0.0,0.0
7500000.0,7.3125,5.1948591135442206E-8,7500000.0,68.7,33.62681731046535,25.476190476190496,-7.560137457044641,259956.0,7424.0,750000.0,0.7812074447250987,0.5944584592867138,0.0,0.0,0.0
7600000.0,7.390625,5.250204897796109E-8,7600000.0,64.7,31.223941082492303,16.745283018867937,-6.969696969696977,269956.0,7424.0,760000.0,0.5709853510082764,0.5657706649816286,0.0,0.0,0.0
7700000.0,7.484375,5.316619838898375E-8,7700000.0,66.7,35.21400778210118,24.660633484162894,-10.999999999999972,279956.0,7424.0,770000.0,0.5625029089209499,0.5660870491235023,0.0,0.0,0.0
7800000.0,7.5625,5.371965623150264E-8,7800000.0,69.8,35.40383299110198,23.73737373737373,-12.686567164179117,289956.0,7424.0,780000.0,0.8007840403563709,0.5939566681986926,0.0,0.0,0.0
7900000.0,7.671875,5.4494497211029075E-8,7900000.0,63.6,29.523197323430438,10.784313725490206,-21.739130434782588,299956.0,7424.0,790000.0,0.6213012747609616,0.5659902932472008,0.0,0.0,0.0
8000000.0,7.765625,5.5158646622051736E-8,8000000.0,66.7,30.45577572092092,23.094688221709024,-7.073954983922799,309956.0,7424.0,800000.0,0.7694734652546055,0.5934911547550511,0.0,0.0,0.0
8100000.0,7.859375,5.58227960330744E-8,8100000.0,63.2,29.91544145653997,10.02444987775062,-18.70967741935482,319956.0,7424.0,810000.0,0.5852450325133794,0.5656360497856004,0.0,0.0,0.0
8200000.0,7.96875,5.6597637012600834E-8,8200000.0,68.10000000000001,34.69377727916672,25.46728971962619,-1.5923566878980908,329956.0,7424.0,820000.0,0.7393871304770696,0.5929098613716437,0.0,0.0,0.0
8300000.0,8.0625,5.7261786423623496E-8,8300000.0,62.6,27.93945372711018,6.265664160401007,-31.69014084507041,339956.0,7424.0,830000.0,0.5736654872677164,0.5654723129839412,0.0,0.0,0.0
8400000.0,8.15625,5.792593583464616E-8,8400000.0,67.60000000000001,31.77683444511826,22.302158273381313,-17.39130434782606,349956.0,7424.0,840000.0,0.6561137449286251,0.5927083302197675,0.0,0.0,0.0
8500000.0,8.265625,5.8700776814172594E-8,8500000.0,61.4,26.01055020548364,-0.7832898172323766,-40.87591240875912,359956.0,7424.0,850000.0,0.5679382031958286,0.5654310436106886,0.0,0.0,0.0
8600000.0,8.359375,5.9364926225195255E-8,8600000.0,67.30000000000001,32.60511129431163,25.34246575342466,-8.99999999999997,369956.0,7424.0,860000.0,0.8005166065601167,0.5927744214672044,0.0,0.0,0.0
8700000.0,8.453125,6.002907563621792E-8,8700000.0,68.8,34.288121314237564,21.999999999999993,-7.5862068965517295,379956.0,7424.0,870000.0,0.7355641182215947,0.592560125419117,0.0,0.0,0.0
8800000.0,8.546875,6.069322504724058E-8,8800000.0,64.1,30.309124651545634,16.511627906976756,-17.320261437908474,389956.0,7424.0,880000.0,0.611866939184475,0.5657779442925558,0.0,0.0,0.0
8900000.0,8.640625,6.135737445826325E-8,8900000.0,69.8,37.84575869336142,26.699029126213585,0.6578947368421058,399956.0,7424.0,890000.0,0.7502863015889035,0.5925061293172639,0.0,0.0,0.0
9000000.0,8.75,6.21322154377897E-8,9000000.0,67.0,32.80555148316474,25.675675675675674,-10.738255033557017,409956.0,7424.0,900000.0,0.7245762190925475,0.5921795168343942,0.0,0.0,0.0
9100000.0,8.828125,6.268567328030859E-8,9100000.0,68.5,34.009301546067796,24.096385542168694,-7.14285714285711,419956.0,7424.0,910000.0,0.8123847116520544,0.8142813687149132,0.0,0.0,0.0
9200000.0,8.921875,6.334982269133126E-8,9200000.0,66.5,32.49941566658338,16.250000000000014,-13.94557823129249,429956.0,7424.0,920000.0,0.7102398938838141,0.5916533673474809,0.0,0.0,0.0
9300000.0,9.03125,6.41246636708577E-8,9300000.0,66.8,31.7052298982984,20.76372315035801,-12.162162162162133,439956.0,7424.0,930000.0,0.7066856018148846,0.5918399849176685,0.0,0.0,0.0
9400000.0,9.140625,6.489950465038414E-8,9400000.0,70.8,40.275550610334776,29.126213592233007,3.3112582781456976,449956.0,7424.0,940000.0,0.6365517044310552,0.5914609763490335,0.0,0.0,0.0
9500000.0,9.21875,6.545296249290304E-8,9500000.0,64.3,30.090471154975916,10.526315789473694,-21.016949152542352,459956.0,7424.0,950000.0,0.6208863583668938,0.5653842812852982,0.0,0.0,0.0
9600000.0,9.3125,6.61171119039257E-8,9600000.0,69.5,36.871822893381676,29.06976744186046,-0.3289473684210529,469956.0,7424.0,960000.0,0.6689663742751075,0.5917332762823815,0.0,0.0,0.0
9700000.0,9.421875,6.689195288345215E-8,9700000.0,64.7,32.05684897758069,17.90697674418606,-20.890410958904088,479956.0,7424.0,970000.0,0.5733302569744301,0.5656041810258097,0.0,0.0,0.0
9800000.0,9.515625,6.755610229447481E-8,9800000.0,69.6,36.3838398212051,24.37810945273631,-7.420494699646649,489956.0,7424.0,980000.0,0.7100619900372123,0.5918476241719388,0.0,0.0,0.0
9900000.0,9.625,6.833094327400126E-8,9900000.0,65.2,32.77051175550104,20.000000000000014,-22.105263157894715,499956.0,7424.0,990000.0,0.5732823829268003,0.5653653272174073,0.0,0.0,0.0
1.0E7,9.71875,6.899509268502393E-8,1.0E7,69.6,36.9103504380995,24.938271604938265,-5.190311418685125,509956.0,7424.0,1000000.0,0.7842846900395772,0.5917111575822369,0.0,0.0,0.0
