learning evaluation instances,evaluation time (cpu seconds),model cost (RAM-Hours),classified instances,classifications correct (percent),Kappa Statistic (percent),Kappa Temporal Statistic (percent),Kappa M Statistic (percent),model training instances,model serialized size (bytes),labeling cost,newThreshold,maxPosterior,accuracyBaseLearner (percent),Change detected,Warning detected
100000.0,0.40625,1.6384227718744013E-8,100000.0,73.1,44.439854593522796,41.900647948164135,40.879120879120876,13141.0,2904.0,0.0,1.0,0.0,?,1.0,18.0
200000.0,0.828125,3.173969970602128E-8,200000.0,74.9,47.52159768509614,45.19650655021834,42.0323325635104,43141.0,2904.0,0.0,1.0,0.0,?,0.0,0.0
300000.0,1.1875,4.340713429782126E-8,300000.0,75.4,48.25148934737976,48.319327731092436,41.981132075471706,73141.0,2904.0,0.0,1.0,0.0,?,0.0,0.0
400000.0,1.59375,5.4998931268023124E-8,400000.0,73.6,44.834272961689074,47.09418837675351,38.46153846153847,103141.0,2904.0,0.0,1.0,0.0,?,0.0,0.0
500000.0,2.015625,6.537764824719893E-8,500000.0,76.6,50.0955435746946,50.318471337579616,42.079207920792086,133141.0,2904.0,0.0,1.0,0.0,?,0.0,0.0
600000.0,2.421875,7.377449138503936E-8,600000.0,74.6,46.62856422432814,51.526717557251914,40.515222482435604,163141.0,2904.0,0.0,1.0,0.0,?,0.0,0.0
700000.0,2.828125,8.057385760669908E-8,700000.0,75.9,49.23023771203223,49.47589098532495,43.42723004694837,193141.0,2904.0,0.0,1.0,0.0,?,0.0,0.0
800000.0,3.234375,8.583712365685238E-8,800000.0,73.7,45.16629415885512,45.66115702479338,39.26096997690532,223141.0,2904.0,0.0,1.0,0.0,?,0.0,70.0
900000.0,3.65625,8.964914337007537E-8,900000.0,74.0,45.8423596067322,49.11937377690802,40.9090909090909,253141.0,2904.0,0.0,1.0,0.0,?,0.0,8.0
1000000.0,4.0625,9.172250025181307E-8,1000000.0,72.6,42.51812567132116,43.96728016359918,35.981308411214954,283141.0,2904.0,0.0,1.0,0.0,?,0.0,0.0
1100000.0,4.46875,1.0818912414833903E-7,1100000.0,72.7,42.535510107856425,43.47826086956521,36.95150115473441,312841.0,2904.0,0.0,1.0,0.0,?,0.0,0.0
1200000.0,4.890625,1.235489617101848E-7,1200000.0,74.8,46.490225972625076,50.29585798816568,38.98305084745763,118058.0,2904.0,0.0,1.0,0.0,?,1.0,39.0
1300000.0,5.3125,1.3733108062297105E-7,1300000.0,74.2,45.342920213374455,47.239263803680984,38.71733966745844,148058.0,2904.0,0.0,1.0,0.0,?,0.0,26.0
1400000.0,5.75,1.499032886284921E-7,1400000.0,73.4,43.383054079825634,45.82484725050916,36.36363636363637,178058.0,2904.0,0.0,1.0,0.0,?,0.0,0.0
1500000.0,6.15625,1.599800048602952E-7,1500000.0,72.89999999999999,42.84243917254412,44.58077709611452,35.9338061465721,208058.0,2904.0,0.0,1.0,0.0,?,0.0,0.0
1600000.0,6.546875,1.6813311958685518E-7,1600000.0,75.2,47.4262165107119,47.56871035940804,41.09263657957245,238058.0,2904.0,0.0,1.0,0.0,?,0.0,0.0
1700000.0,6.96875,1.7519574612379075E-7,1700000.0,73.9,44.821695855496266,45.850622406639005,38.15165876777252,268058.0,2904.0,0.0,1.0,0.0,?,0.0,43.0
1800000.0,7.375,1.8039931698391835E-7,1800000.0,75.1,48.54393810393711,49.287169042769854,44.17040358744394,298058.0,2904.0,0.0,1.0,0.0,?,0.0,0.0
1900000.0,7.78125,1.8408612555099859E-7,1900000.0,73.0,43.223635790137735,43.86694386694386,36.47058823529412,328058.0,2904.0,0.0,1.0,0.0,?,0.0,88.0
2000000.0,8.203125,1.862558161115481E-7,2000000.0,72.5,42.30979013350563,44.88977955911823,36.489607390300236,358058.0,2904.0,0.0,1.0,0.0,?,0.0,0.0
2100000.0,8.609375,2.0273841477723586E-7,2100000.0,71.2,38.55790277641476,42.284569138276545,31.26491646778043,387758.0,2904.0,0.0,1.0,0.0,?,0.0,0.0
2200000.0,9.03125,2.1819604120941626E-7,2200000.0,74.7,46.489001692047374,45.238095238095234,39.036144578313255,417758.0,2904.0,0.0,1.0,0.0,?,0.0,0.0
2300000.0,9.421875,2.3089905476404563E-7,2300000.0,71.6,40.480182415666285,39.83050847457626,34.25925925925926,447758.0,2904.0,0.0,1.0,0.0,?,0.0,86.0
2400000.0,9.84375,2.430388445241584E-7,2400000.0,72.8,42.42752641560552,44.147843942505126,34.92822966507177,477758.0,2904.0,0.0,1.0,0.0,?,0.0,116.0
2500000.0,10.265625,2.535197159482374E-7,2500000.0,72.7,42.2808575415451,43.12499999999999,36.51162790697675,507758.0,2904.0,0.0,1.0,0.0,?,0.0,8.0
2600000.0,10.65625,2.6167202223506246E-7,2600000.0,75.8,49.4138697971538,50.20576131687243,43.19248826291081,537758.0,2904.0,0.0,1.0,0.0,?,0.0,13.0
2700000.0,11.046875,2.68287484585825E-7,2700000.0,74.8,47.09439032583137,49.6,40.845070422535215,567758.0,2904.0,0.0,1.0,0.0,?,0.0,22.0
2800000.0,11.4375,2.733669114402599E-7,2800000.0,73.4,43.229111087397285,45.714285714285715,35.90361445783133,597758.0,2904.0,0.0,1.0,0.0,?,0.0,0.0
2900000.0,11.859375,2.771937741070158E-7,2900000.0,72.1,41.14023392010261,43.97590361445783,34.19811320754717,627758.0,2904.0,0.0,1.0,0.0,?,0.0,0.0
3000000.0,12.265625,2.792990805270771E-7,3000000.0,73.5,43.42200777146761,45.0207468879668,34.88943488943489,657758.0,2904.0,0.0,1.0,0.0,?,0.0,34.0
3100000.0,12.671875,2.957976539619267E-7,3100000.0,72.39999999999999,41.8996295048838,43.326488706365495,34.59715639810427,687458.0,2904.0,0.0,1.0,0.0,?,0.0,0.0
3200000.0,13.09375,3.112517879344523E-7,3200000.0,76.6,50.676199790900824,50.63291139240506,44.54976303317537,717458.0,2904.0,0.0,1.0,0.0,?,0.0,91.0
3300000.0,13.484375,3.2403807078177734E-7,3300000.0,76.8,50.60298426108878,52.066115702479344,42.57425742574259,747458.0,2904.0,0.0,1.0,0.0,?,0.0,59.0
3400000.0,13.90625,3.361883379208545E-7,3400000.0,74.2,46.307272242940854,46.13778705636743,41.628959276018094,777458.0,2904.0,0.0,1.0,0.0,?,0.0,0.0
3500000.0,14.3125,3.462970036909812E-7,3500000.0,74.3,45.68157992627913,49.209486166007906,39.81264637002342,807458.0,2904.0,0.0,1.0,0.0,?,0.0,51.0
3600000.0,14.734375,3.551355459623867E-7,3600000.0,73.6,43.77595570226813,46.45030425963488,36.07748184019371,837458.0,2904.0,0.0,1.0,0.0,?,0.0,0.0
3700000.0,15.15625,3.6231516989775834E-7,3700000.0,75.2,47.79738650141453,45.96949891067538,40.66985645933015,867458.0,2904.0,0.0,1.0,0.0,?,0.0,0.0
3800000.0,15.5625,3.676314049193429E-7,3800000.0,74.3,44.44444444444444,50.481695568400774,35.75000000000001,897458.0,2904.0,0.0,1.0,0.0,?,0.0,0.0
3900000.0,15.96875,3.7135016302474676E-7,3900000.0,71.8,40.70622668724425,41.73553719008264,32.37410071942446,927458.0,2904.0,0.0,1.0,0.0,?,0.0,30.0
4000000.0,16.390625,3.735495394923621E-7,4000000.0,75.7,47.77158774373259,52.5390625,38.63636363636364,957458.0,2904.0,0.0,1.0,0.0,?,0.0,104.0
4100000.0,16.796875,3.900607245870763E-7,4100000.0,71.89999999999999,41.003569179088814,45.75289575289575,33.2541567695962,987158.0,2904.0,0.0,1.0,0.0,?,0.0,0.0
4200000.0,17.21875,4.0554803692632253E-7,4200000.0,73.2,42.27198511134182,43.220338983050844,32.83208020050125,1017158.0,2904.0,0.0,1.0,0.0,?,0.0,0.0
4300000.0,17.609375,4.1835210544781557E-7,4300000.0,76.7,51.26420240625158,53.952569169960476,44.12470023980816,1047158.0,2904.0,0.0,1.0,0.0,?,0.0,0.0
4400000.0,18.0,4.2962013847298095E-7,4400000.0,75.0,47.62752697182361,46.92144373673035,41.1764705882353,1077158.0,2904.0,0.0,1.0,0.0,?,0.0,0.0
4500000.0,18.390625,4.3935213600181873E-7,4500000.0,74.2,45.29842043888477,47.131147540983605,38.424821002386636,1107158.0,2904.0,0.0,1.0,0.0,?,0.0,0.0
4600000.0,18.78125,4.475480980343289E-7,4600000.0,75.0,47.49553712065525,49.08350305498981,41.1764705882353,1137158.0,2904.0,0.0,1.0,0.0,?,0.0,0.0
4700000.0,19.1875,4.5447442163195875E-7,4700000.0,76.0,49.22590663490466,52.56916996047431,41.888619854721554,1167158.0,2904.0,0.0,1.0,0.0,?,0.0,0.0
4800000.0,19.609375,4.5994099410664704E-7,4800000.0,75.6,48.66680972637727,48.739495798319325,42.85714285714287,1197158.0,2904.0,0.0,1.0,0.0,?,0.0,21.0
4900000.0,20.015625,4.6360762401794393E-7,4900000.0,72.8,42.96259016943465,44.48979591836734,37.03703703703704,1227158.0,2904.0,0.0,1.0,0.0,?,0.0,0.0
5000000.0,20.421875,4.6591976165978447E-7,5000000.0,74.2,45.68878410239138,48.296593186372746,38.862559241706165,1257158.0,2904.0,0.0,1.0,0.0,?,0.0,0.0
5100000.0,20.828125,4.82693269279682E-7,5100000.0,49.9,-0.48779705075335555,-1.2121212121212133,-1.0080645161290331,1286858.0,2904.0,0.0,1.0,0.0,?,0.0,5.0
5200000.0,21.25,4.984529934720033E-7,5200000.0,48.199999999999996,-3.8030387437828495,-6.804123711340212,-6.147540983606563,1316858.0,2904.0,0.0,1.0,0.0,?,0.0,0.0
5300000.0,21.6875,5.130733350395329E-7,5300000.0,67.5,34.35722595656671,35.89743589743591,28.097345132743367,88485.0,2904.0,0.0,1.0,0.0,?,1.0,22.0
5400000.0,22.09375,5.250544119108883E-7,5400000.0,69.6,39.23888711224815,42.314990512333964,38.709677419354826,118485.0,2904.0,0.0,1.0,0.0,?,0.0,6.0
5500000.0,22.515625,5.358373810951081E-7,5500000.0,71.1,42.08277553768827,41.73387096774193,39.539748953974886,148485.0,2904.0,0.0,1.0,0.0,?,0.0,0.0
5600000.0,22.921875,5.446235041341021E-7,5600000.0,66.5,32.44387800372668,31.492842535787325,28.418803418803424,178485.0,2904.0,0.0,1.0,0.0,?,0.0,50.0
5700000.0,23.34375,5.520886366462543E-7,5700000.0,70.5,40.80441779639929,42.495126705653014,39.30041152263373,208485.0,2904.0,0.0,1.0,0.0,?,0.0,17.0
5800000.0,23.765625,5.578948508223727E-7,5800000.0,70.7,41.053393956464,42.66144814090019,34.1573033707865,238485.0,2904.0,0.0,1.0,0.0,?,0.0,0.0
5900000.0,24.171875,5.618885431128245E-7,5900000.0,68.2,36.031541680077254,36.14457831325302,33.19327731092438,268485.0,2904.0,0.0,1.0,0.0,?,0.0,0.0
6000000.0,24.5625,5.641925963573159E-7,6000000.0,68.8,37.5862689791754,34.72803347280333,38.823529411764696,298485.0,2904.0,0.0,1.0,0.0,?,0.0,0.0
6100000.0,24.96875,5.809820787463753E-7,6100000.0,68.8,37.612976500887804,38.09523809523808,39.18128654970759,328185.0,2904.0,0.0,1.0,0.0,?,0.0,0.0
6200000.0,25.390625,5.967583921220569E-7,6200000.0,70.5,40.93621110799663,41.35188866799204,39.918533604887976,358185.0,2904.0,0.0,1.0,0.0,?,0.0,0.0
6300000.0,25.828125,6.113986536446546E-7,6300000.0,67.5,35.248645202422715,33.80855397148677,30.25751072961374,388185.0,2904.0,0.0,1.0,0.0,?,0.0,0.0
6400000.0,26.25,6.238571303482686E-7,6400000.0,68.10000000000001,36.121813099233464,37.57338551859101,36.83168316831684,418185.0,2904.0,0.0,1.0,0.0,?,0.0,0.0
6500000.0,26.65625,6.342567050726051E-7,6500000.0,68.7,37.263485344108794,36.51115618661259,33.119658119658126,448185.0,2904.0,0.0,1.0,0.0,?,0.0,0.0
6600000.0,27.0625,6.430588028807608E-7,6600000.0,67.80000000000001,35.5257256359326,36.98630136986302,33.05613305613306,478185.0,2904.0,0.0,1.0,0.0,?,0.0,0.0
6700000.0,27.484375,6.505405245762734E-7,6700000.0,70.0,40.02279133929106,39.7590361445783,39.99999999999999,508185.0,2904.0,0.0,1.0,0.0,?,0.0,0.0
6800000.0,27.890625,6.561476685520677E-7,6800000.0,68.5,36.8550191239085,36.363636363636374,35.1851851851852,538185.0,2904.0,0.0,1.0,0.0,?,0.0,0.0
6900000.0,28.3125,6.603115535755125E-7,6900000.0,71.0,41.999767999072,42.23107569721115,39.20335429769391,568185.0,2904.0,0.0,1.0,0.0,?,0.0,0.0
7000000.0,28.71875,6.627237437189454E-7,7000000.0,68.7,36.880399448258075,37.2745490981964,31.659388646288217,598185.0,2904.0,0.0,1.0,0.0,?,0.0,0.0
7100000.0,29.125,6.795292008771666E-7,7100000.0,71.39999999999999,42.846408716122504,44.78764478764478,41.39344262295081,627885.0,2904.0,0.0,1.0,0.0,?,0.0,0.0
7200000.0,29.546875,6.953221034362086E-7,7200000.0,68.0,35.94080930780042,35.74297188755021,33.19415448851775,657885.0,2904.0,0.0,1.0,0.0,?,0.0,0.0
7300000.0,29.9375,7.084091258649199E-7,7300000.0,69.39999999999999,38.27035968610677,39.52569169960473,33.6225596529284,687885.0,2904.0,0.0,1.0,0.0,?,0.0,0.0
7400000.0,30.375,7.213462312291895E-7,7400000.0,67.60000000000001,34.95099239890301,38.049713193116645,31.210191082802552,717885.0,2904.0,0.0,1.0,0.0,?,0.0,0.0
7500000.0,30.765625,7.313611826652455E-7,7500000.0,68.10000000000001,36.173958975261925,40.925925925925924,34.49691991786448,747885.0,2904.0,0.0,1.0,0.0,?,0.0,0.0
7600000.0,31.1875,7.405184118801522E-7,7600000.0,73.3,46.57692122997135,45.95141700404858,46.27766599597585,777885.0,2904.0,0.0,1.0,0.0,?,0.0,0.0
7700000.0,31.59375,7.47739007541289E-7,7700000.0,70.3,40.4241320377755,40.48096192384769,38.3817427385892,807885.0,2904.0,0.0,1.0,0.0,?,0.0,0.0
7800000.0,32.015625,7.53578400084128E-7,7800000.0,70.1,39.87000659619993,39.35091277890466,33.702882483370274,837885.0,2904.0,0.0,1.0,0.0,?,0.0,0.0
7900000.0,32.421875,7.576040419129034E-7,7900000.0,68.30000000000001,36.494326559394835,38.2066276803119,34.9075975359343,867885.0,2904.0,0.0,1.0,0.0,?,0.0,0.0
8000000.0,32.828125,7.600322068254982E-7,8000000.0,69.3,38.421175092468516,36.3070539419087,34.2612419700214,897885.0,2904.0,0.0,1.0,0.0,?,0.0,0.0
8100000.0,33.25,7.775006169039343E-7,8100000.0,70.3,40.50147043504041,42.105263157894726,38.3817427385892,927585.0,2904.0,0.0,1.0,0.0,?,0.0,0.0
8200000.0,33.640625,7.921390351839364E-7,8200000.0,69.1,38.229649768111294,38.19999999999999,38.69047619047618,957585.0,2904.0,0.0,1.0,0.0,?,0.0,0.0
8300000.0,34.046875,8.057655132789579E-7,8300000.0,71.8,43.80499936232623,42.094455852156045,41.614906832298125,987585.0,2904.0,0.0,1.0,0.0,?,0.0,0.0
8400000.0,34.453125,8.177945144577987E-7,8400000.0,71.6,43.20249909004003,41.80327868852458,41.92229038854805,1017585.0,2904.0,0.0,1.0,0.0,?,0.0,0.0
8500000.0,34.859375,8.282260387204588E-7,8500000.0,71.5,42.79359930629711,41.115702479338836,37.90849673202613,1047585.0,2904.0,0.0,1.0,0.0,?,0.0,0.0
8600000.0,35.265625,8.370600860669381E-7,8600000.0,69.6,39.13987019174944,38.08553971486761,36.929460580912846,1077585.0,2904.0,0.0,1.0,0.0,?,0.0,0.0
8700000.0,35.6875,8.445749861291713E-7,8700000.0,70.89999999999999,41.20737029254888,41.91616766467065,36.739130434782595,1107585.0,2904.0,0.0,1.0,0.0,?,0.0,0.0
8800000.0,36.078125,8.499971914312077E-7,8800000.0,70.1,40.139660778064275,39.595959595959584,39.35091277890466,1137585.0,2904.0,0.0,1.0,0.0,?,0.0,0.0
8900000.0,36.484375,8.54038808029145E-7,8900000.0,71.39999999999999,42.633637548891784,44.680851063829785,39.78947368421052,1167585.0,2904.0,0.0,1.0,0.0,?,0.0,0.0
9000000.0,36.890625,8.564829477109015E-7,9000000.0,70.1,39.72551928783381,44.42379182156132,33.84955752212388,1197585.0,2904.0,0.0,1.0,0.0,?,0.0,0.0
9100000.0,37.296875,8.733203544074462E-7,9100000.0,67.4,34.3390602026224,36.203522504892376,29.28416485900217,1227285.0,2904.0,0.0,1.0,0.0,?,0.0,0.0
9200000.0,37.703125,8.885602841878103E-7,9200000.0,69.39999999999999,38.79999999999999,39.644970414201175,38.79999999999999,1257285.0,2904.0,0.0,1.0,0.0,?,0.0,0.0
9300000.0,38.109375,9.022027370519936E-7,9300000.0,72.5,44.948471769576315,44.99999999999999,43.53182751540041,1287285.0,2904.0,0.0,1.0,0.0,?,0.0,0.0
9400000.0,38.53125,9.147109813056886E-7,9400000.0,70.1,40.19999999999999,41.94174757281553,43.37121212121212,1317285.0,2904.0,0.0,1.0,0.0,?,0.0,0.0
9500000.0,38.9375,9.251584803375104E-7,9500000.0,68.8,37.47620288170576,38.823529411764696,37.47494989979959,1347285.0,2904.0,0.0,1.0,0.0,?,0.0,0.0
9600000.0,39.328125,9.336681169871655E-7,9600000.0,69.1,38.18961585546371,38.32335329341316,37.575757575757564,1377285.0,2904.0,0.0,1.0,0.0,?,0.0,0.0
9700000.0,39.734375,9.409206621866259E-7,9700000.0,68.89999999999999,37.715292798205546,42.40740740740739,34.93723849372384,1407285.0,2904.0,0.0,1.0,0.0,?,0.0,0.0
9800000.0,40.15625,9.467932330961856E-7,9800000.0,69.5,38.928179539138014,39.8422090729783,38.1338742393509,1437285.0,2904.0,0.0,1.0,0.0,?,0.0,0.0
9900000.0,40.546875,9.506947632568577E-7,9900000.0,71.6,42.89092568983336,43.650793650793645,38.12636165577341,1467285.0,2904.0,0.0,1.0,0.0,?,0.0,0.0
1.0E7,40.953125,9.53154877707776E-7,1.0E7,68.5,36.530324400564176,38.11394891944991,33.962264150943405,1497285.0,2904.0,0.0,1.0,0.0,?,0.0,0.0
