learning evaluation instances,evaluation time (cpu seconds),model cost (RAM-Hours),classified instances,classifications correct (percent),Kappa Statistic (percent),Kappa Temporal Statistic (percent),Kappa M Statistic (percent),model training instances,model serialized size (bytes),labeling cost,newThreshold,maxPosterior,accuracyBaseLearner (percent),Change detected,Warning detected
100000.0,0.109375,3.188777352786726E-9,100000.0,68.60000000000001,38.84387659707074,26.63551401869161,7.647058823529419,29700.0,7320.0,0.0,1.0,0.0,?,0.0,24.0
200000.0,0.25,6.939387983745998E-9,200000.0,68.89999999999999,39.36865417907885,30.425055928411616,11.898016997167119,59700.0,7320.0,0.0,1.0,0.0,?,0.0,0.0
300000.0,0.390625,1.0340752649224466E-8,300000.0,67.10000000000001,35.64767001533503,28.78787878787879,5.4597701149425335,89700.0,7320.0,0.0,1.0,0.0,?,0.0,0.0
400000.0,0.515625,1.305374704922239E-8,400000.0,64.8,32.60294326010286,25.581395348837212,1.9498607242339852,119700.0,7320.0,0.0,1.0,0.0,?,0.0,0.0
500000.0,0.671875,1.6056938976463343E-8,500000.0,65.2,32.96889988096201,25.641025641025646,2.521008403361347,149700.0,7320.0,0.0,1.0,0.0,?,0.0,0.0
600000.0,0.796875,1.8149051660050946E-8,600000.0,65.4,32.417651103193954,26.382978723404253,4.94505494505495,179700.0,7320.0,0.0,1.0,0.0,?,0.0,0.0
700000.0,0.921875,1.993072348543339E-8,700000.0,69.6,39.48635058901278,30.11494252873563,8.15709969788517,209700.0,7320.0,0.0,1.0,0.0,?,0.0,0.0
800000.0,1.046875,2.1401954452610676E-8,800000.0,65.10000000000001,32.4298160696999,20.861678004535143,0.285714285714286,239700.0,7320.0,0.0,1.0,0.0,?,0.0,0.0
900000.0,1.1875,2.2707843325204318E-8,900000.0,67.9,37.18396292875371,31.991525423728824,7.492795389048998,269700.0,7320.0,0.0,1.0,0.0,?,0.0,0.0
1000000.0,1.296875,2.3451898919625412E-8,1000000.0,66.60000000000001,34.57035841338996,25.77777777777778,3.4682080924855523,299700.0,7320.0,0.0,1.0,0.0,?,0.0,0.0
1100000.0,1.421875,2.7099320302820866E-8,1100000.0,67.80000000000001,37.647168174495,35.85657370517929,16.580310880829032,329400.0,7320.0,0.0,1.0,0.0,?,0.0,0.0
1200000.0,1.546875,3.043630082781116E-8,1200000.0,69.6,40.50857341907403,32.74336283185839,15.320334261838422,359400.0,7320.0,0.0,1.0,0.0,?,0.0,0.0
1300000.0,1.6875,3.384115795294444E-8,1300000.0,66.3,34.666118663388986,28.144989339019194,7.92349726775957,389400.0,7320.0,0.0,1.0,0.0,?,0.0,0.0
1400000.0,1.8125,3.655725676152441E-8,1400000.0,66.60000000000001,35.333728300980844,27.39130434782609,13.695090439276496,419400.0,7320.0,0.0,1.0,0.0,?,0.0,0.0
1500000.0,1.953125,3.926362195569608E-8,1500000.0,66.0,34.40446975660199,23.766816143497756,0.5847953216374274,449400.0,7320.0,0.0,1.0,0.0,?,0.0,0.0
1600000.0,2.078125,4.135883904786574E-8,1600000.0,68.0,37.46384628613417,32.34672304439747,7.51445086705203,479400.0,7320.0,0.0,1.0,0.0,?,0.0,0.0
1700000.0,2.203125,4.3143615281830234E-8,1700000.0,65.0,31.88329077660833,25.213675213675213,5.913978494623661,509400.0,7320.0,0.0,1.0,0.0,?,0.0,0.0
1800000.0,2.34375,4.480224257955949E-8,1800000.0,66.7,35.42506981073534,24.660633484162894,2.0588235294117667,539400.0,7320.0,0.0,1.0,0.0,?,0.0,0.0
1900000.0,2.46875,4.596613709711367E-8,1900000.0,67.0,35.89718685775781,27.631578947368425,5.444126074498572,569400.0,7320.0,0.0,1.0,0.0,?,0.0,0.0
2000000.0,2.59375,4.6819590756462685E-8,2000000.0,67.0,34.93690851735016,19.512195121951233,-3.1250000000000036,599400.0,7320.0,0.0,1.0,0.0,?,0.0,0.0
2100000.0,2.71875,5.047011654824019E-8,2100000.0,66.5,35.76074617249104,29.175475687103596,7.967032967032975,629100.0,7320.0,0.0,1.0,0.0,?,0.0,0.0
2200000.0,2.859375,5.422771209850907E-8,2200000.0,67.4,35.634181014057816,25.740318906605925,-1.875000000000002,659100.0,7320.0,0.0,1.0,0.0,?,0.0,0.0
2300000.0,2.96875,5.687865066445536E-8,2300000.0,65.2,32.457611328488916,23.85120350109409,4.3956043956043995,689100.0,7320.0,0.0,1.0,0.0,?,0.0,0.0
2400000.0,3.09375,5.959785388161739E-8,2400000.0,66.7,34.74477958236659,23.623853211009195,1.7699115044247804,719100.0,7320.0,0.0,1.0,0.0,?,0.0,0.0
2500000.0,3.234375,6.230771153544386E-8,2500000.0,66.10000000000001,33.648064637354395,23.47629796839729,-4.629629629629634,749100.0,7320.0,0.0,1.0,0.0,?,0.0,0.0
2600000.0,3.34375,6.41437428486016E-8,2600000.0,68.89999999999999,38.70713441072131,35.610766045548644,22.249999999999993,779100.0,7320.0,0.0,1.0,0.0,?,0.0,0.0
2700000.0,3.46875,6.593162349114814E-8,2700000.0,68.4,38.20859682673769,37.05179282868527,12.465373961218848,809100.0,7320.0,0.0,1.0,0.0,?,0.0,0.0
2800000.0,3.59375,6.740906327548953E-8,2800000.0,65.5,33.072088150849694,21.232876712328764,-7.812500000000008,839100.0,7320.0,0.0,1.0,0.0,?,0.0,0.0
2900000.0,3.734375,6.87219370673928E-8,2900000.0,66.8,34.71147190233466,23.678160919540247,4.5977011494252915,869100.0,7320.0,0.0,1.0,0.0,?,0.0,0.0
3000000.0,3.859375,6.957849513532386E-8,3000000.0,68.0,37.17902407613903,32.05944798301486,11.602209944751392,899100.0,7320.0,0.0,1.0,0.0,?,0.0,0.0
3100000.0,3.984375,7.323212533568341E-8,3100000.0,65.60000000000001,33.63659864418028,23.89380530973451,5.23415977961433,928800.0,7320.0,0.0,1.0,0.0,?,0.0,0.0
3200000.0,4.109375,7.657531467783781E-8,3200000.0,66.4,34.81980391624345,28.8135593220339,9.919571045576417,958800.0,7320.0,0.0,1.0,0.0,?,0.0,0.0
3300000.0,4.25,7.99871567222807E-8,3300000.0,65.0,31.899990271427185,23.076923076923077,-1.449275362318842,988800.0,7320.0,0.0,1.0,0.0,?,0.0,0.0
3400000.0,4.375,8.270946434802477E-8,3400000.0,65.3,31.89561776758938,21.493212669683253,-3.273809523809527,1018800.0,7320.0,0.0,1.0,0.0,?,0.0,0.0
3500000.0,4.484375,8.481984776962132E-8,3500000.0,64.0,30.197927654029904,16.27906976744187,-7.1428571428571495,1048800.0,7320.0,0.0,1.0,0.0,?,0.0,0.0
3600000.0,4.609375,8.692127367895509E-8,3600000.0,65.7,33.441999456669386,27.48414376321353,7.297297297297304,1078800.0,7320.0,0.0,1.0,0.0,?,0.0,0.0
3700000.0,4.75,8.893613186147476E-8,3700000.0,68.10000000000001,36.94904534134483,25.813953488372114,4.7761194029850795,1108800.0,7320.0,0.0,1.0,0.0,?,0.0,0.0
3800000.0,4.859375,9.023160803028277E-8,3800000.0,66.9,35.09803921568627,31.46997929606626,11.733333333333345,1138800.0,7320.0,0.0,1.0,0.0,?,0.0,0.0
3900000.0,4.96875,9.125544844816127E-8,3900000.0,67.80000000000001,37.44754918720667,28.28507795100223,10.055865921787719,1168800.0,7320.0,0.0,1.0,0.0,?,0.0,0.0
4000000.0,5.09375,9.211511092467439E-8,4000000.0,69.6,40.059309735629995,35.72938689217758,18.279569892473106,1198800.0,7320.0,0.0,1.0,0.0,?,0.0,0.0
4100000.0,5.234375,9.622893735973369E-8,4100000.0,68.30000000000001,37.53103741831741,32.69639065817411,12.430939226519348,1228500.0,7320.0,0.0,1.0,0.0,?,0.0,0.0
4200000.0,5.359375,9.957523111047014E-8,4200000.0,69.0,39.15842361438215,31.86813186813185,13.88888888888887,1258500.0,7320.0,0.0,1.0,0.0,?,0.0,0.0
4300000.0,5.484375,1.0261108400300143E-7,4300000.0,66.5,35.20209210200545,26.373626373626376,5.898876404494388,1288500.0,7320.0,0.0,1.0,0.0,?,0.0,0.0
4400000.0,5.625,1.0567717254161832E-7,4400000.0,68.30000000000001,38.69088602306925,29.867256637168143,10.198300283286128,1318500.0,7320.0,0.0,1.0,0.0,?,0.0,0.0
4500000.0,5.75,1.0809214371773929E-7,4500000.0,66.5,34.908989165746966,23.515981735159816,6.685236768802234,1348500.0,7320.0,0.0,1.0,0.0,?,0.0,0.0
4600000.0,5.875,1.101966740356551E-7,4600000.0,66.4,34.161023325808884,30.145530145530152,7.6923076923077,1378500.0,7320.0,0.0,1.0,0.0,?,0.0,0.0
4700000.0,6.015625,1.1221502467782958E-7,4700000.0,66.0,33.26424219584197,30.327868852459023,3.4090909090909123,1408500.0,7320.0,0.0,1.0,0.0,?,0.0,0.0
4800000.0,6.140625,1.1369867327933506E-7,4800000.0,67.30000000000001,36.53295240165519,29.220779220779225,3.2544378698224885,1438500.0,7320.0,0.0,1.0,0.0,?,0.0,0.0
4900000.0,6.265625,1.148718810226354E-7,4900000.0,65.10000000000001,32.63276556974535,27.139874739039666,0.8522727272727281,1468500.0,7320.0,0.0,1.0,0.0,?,0.0,0.0
5000000.0,6.390625,1.1575896577495664E-7,5000000.0,66.5,34.88824101068999,25.389755011135858,5.633802816901413,1498500.0,7320.0,0.0,1.0,0.0,?,0.0,0.0
5100000.0,6.515625,1.1944312265970638E-7,5100000.0,69.1,39.11857888183092,36.02484472049688,24.26470588235293,1528200.0,7320.0,0.0,1.0,0.0,?,0.0,0.0
5200000.0,6.640625,1.2281683868625095E-7,5200000.0,70.7,41.91947224028289,38.70292887029287,34.59821428571427,1558200.0,7320.0,0.0,1.0,0.0,?,0.0,0.0
5300000.0,6.78125,1.262630232506328E-7,5300000.0,69.69999999999999,40.51778969603216,39.76143141153081,27.684964200477324,1588200.0,7320.0,0.0,1.0,0.0,?,0.0,0.0
5400000.0,6.90625,1.2901585756076705E-7,5400000.0,69.8,40.065808536057745,40.78431372549019,30.254041570438794,1618200.0,7320.0,0.0,1.0,0.0,?,0.0,0.0
5500000.0,7.03125,1.3145825101269615E-7,5500000.0,69.5,39.78900488005179,36.853002070393366,26.682692307692303,1648200.0,7320.0,0.0,1.0,0.0,?,0.0,0.0
5600000.0,7.171875,1.3385669768063557E-7,5600000.0,68.10000000000001,36.64349553128104,34.36213991769549,25.813953488372114,1678200.0,7320.0,0.0,1.0,0.0,?,0.0,0.0
5700000.0,7.296875,1.3567820941615435E-7,5700000.0,72.0,44.40826569672326,38.86462882096069,29.648241206030146,1708200.0,7320.0,0.0,1.0,0.0,?,0.0,0.0
5800000.0,7.421875,1.3718928029346797E-7,5800000.0,69.6,39.911448450347876,35.59322033898304,28.638497652582156,1738200.0,7320.0,0.0,1.0,0.0,?,0.0,0.0
5900000.0,7.546875,1.3838991031257641E-7,5900000.0,70.5,41.713427645617635,40.76305220883533,28.915662650602407,1768200.0,7320.0,0.0,1.0,0.0,?,0.0,0.0
6000000.0,7.6875,1.3939137311859262E-7,6000000.0,68.10000000000001,37.0137819373692,34.49691991786448,21.234567901234584,1798200.0,7320.0,0.0,1.0,0.0,?,0.0,0.0
6100000.0,7.8125,1.430786344119244E-7,6100000.0,69.1,38.93859871000378,41.03053435114503,29.290617848970246,1827900.0,7320.0,0.0,1.0,0.0,?,0.0,0.0
6200000.0,7.9375,1.4645545484705103E-7,6200000.0,71.1,42.74052940244095,38.11563169164881,34.46712018140588,1857900.0,7320.0,0.0,1.0,0.0,?,0.0,0.0
6300000.0,8.078125,1.4990513187108767E-7,6300000.0,68.0,37.02547713040843,34.69387755102042,25.754060324826007,1887900.0,7320.0,0.0,1.0,0.0,?,0.0,0.0
6400000.0,8.203125,1.5266107058980398E-7,6400000.0,69.89999999999999,40.25122276567361,36.89727463312368,31.74603174603173,1917900.0,7320.0,0.0,1.0,0.0,?,0.0,0.0
6500000.0,8.328125,1.5510656845031512E-7,6500000.0,67.0,35.32784861229242,31.958762886597945,20.096852300242148,1947900.0,7320.0,0.0,1.0,0.0,?,0.0,0.0
6600000.0,8.453125,1.572416254526211E-7,6600000.0,69.0,38.90542165113024,36.08247422680411,23.456790123456784,1977900.0,7320.0,0.0,1.0,0.0,?,0.0,0.0
6700000.0,8.59375,1.5929431861473452E-7,6700000.0,66.9,34.493322672830764,34.84251968503938,26.607538802660756,2007900.0,7320.0,0.0,1.0,0.0,?,0.0,0.0
6800000.0,8.71875,1.6080849390063018E-7,6800000.0,65.9,33.094225305686805,26.666666666666668,16.216216216216228,2037900.0,7320.0,0.0,1.0,0.0,?,0.0,0.0
6900000.0,8.828125,1.6186176152485936E-7,6900000.0,70.39999999999999,41.761631933513804,38.58921161825725,28.502415458937193,2067900.0,7320.0,0.0,1.0,0.0,?,0.0,0.0
7000000.0,8.96875,1.6286671679053037E-7,7000000.0,69.0,38.5649566585678,29.38496583143506,18.205804749340356,2097900.0,7320.0,0.0,1.0,0.0,?,0.0,0.0
7100000.0,9.09375,1.665570824924442E-7,7100000.0,69.69999999999999,40.2154611104534,41.5057915057915,30.82191780821916,2127600.0,7320.0,0.0,1.0,0.0,?,0.0,0.0
7200000.0,9.21875,1.6993700733615288E-7,7200000.0,68.0,36.74389183205504,30.885529157667392,20.398009950248774,2157600.0,7320.0,0.0,1.0,0.0,?,0.0,0.0
7300000.0,9.34375,1.7300649132165638E-7,7300000.0,67.5,35.92372360057413,30.25751072961374,24.768518518518537,2187600.0,7320.0,0.0,1.0,0.0,?,0.0,0.0
7400000.0,9.484375,1.7611041483986702E-7,7400000.0,67.2,35.00600401853123,31.808731808731817,15.681233933161968,2217600.0,7320.0,0.0,1.0,0.0,?,0.0,0.0
7500000.0,9.609375,1.7855901710896021E-7,7500000.0,68.10000000000001,36.74199459034988,35.8148893360161,19.849246231155796,2247600.0,7320.0,0.0,1.0,0.0,?,0.0,0.0
7600000.0,9.734375,1.8069717851984824E-7,7600000.0,68.0,36.347542418395555,35.871743486973955,31.182795698924735,2277600.0,7320.0,0.0,1.0,0.0,?,0.0,0.0
7700000.0,9.875,1.8275336414161646E-7,7700000.0,70.8,42.238838446778615,44.592030360531304,30.64133016627078,2307600.0,7320.0,0.0,1.0,0.0,?,0.0,0.0
7800000.0,10.0,1.8426184801177838E-7,7800000.0,67.10000000000001,35.5957685049605,29.0948275862069,12.032085561497336,2337600.0,7320.0,0.0,1.0,0.0,?,0.0,23.0
7900000.0,10.109375,1.8531013564724053E-7,7900000.0,67.60000000000001,36.09089295224571,32.21757322175733,21.927710843373514,2367600.0,7320.0,0.0,1.0,0.0,?,0.0,0.0
8000000.0,10.234375,1.861977378009921E-7,8000000.0,70.3,40.99697236989534,42.66409266409266,32.80542986425338,2397600.0,7320.0,0.0,1.0,0.0,?,0.0,0.0
8100000.0,10.359375,1.8988241208717218E-7,8100000.0,70.19999999999999,41.193882585101136,37.26315789473683,29.882352941176464,2427300.0,7320.0,0.0,1.0,0.0,?,0.0,0.0
8200000.0,10.484375,1.932566455151471E-7,8200000.0,69.0,39.02654902068768,37.999999999999986,28.07424593967517,2457300.0,7320.0,0.0,1.0,0.0,?,0.0,0.0
8300000.0,10.609375,1.9632043808491685E-7,8300000.0,68.7,37.918504649170146,36.51115618661259,24.213075060532706,2487300.0,7320.0,0.0,1.0,0.0,?,0.0,0.0
8400000.0,10.734375,1.9907378979648144E-7,8400000.0,67.9,36.46533501175689,36.18290258449306,24.113475177304984,2517300.0,7320.0,0.0,1.0,0.0,?,0.0,0.0
8500000.0,10.859375,2.0151670064984089E-7,8500000.0,66.0,33.205507009492685,26.247288503253795,16.256157635467993,2547300.0,7320.0,0.0,1.0,0.0,?,0.0,0.0
8600000.0,10.96875,2.0338261189560087E-7,8600000.0,68.10000000000001,37.23388347145815,35.16260162601627,25.64102564102566,2577300.0,7320.0,0.0,1.0,0.0,?,0.0,0.0
8700000.0,11.09375,2.0520464103254998E-7,8700000.0,70.7,41.47023571713943,39.2116182572614,26.749999999999996,2607300.0,7320.0,0.0,1.0,0.0,?,0.0,0.0
8800000.0,11.21875,2.0671622931129395E-7,8800000.0,68.5,37.72931427125506,37.000000000000014,28.246013667425974,2637300.0,7320.0,0.0,1.0,0.0,?,0.0,0.0
8900000.0,11.34375,2.0791737673183274E-7,8900000.0,68.8,38.679004241368865,37.97216699801192,25.179856115107906,2667300.0,7320.0,0.0,1.0,0.0,?,0.0,0.0
9000000.0,11.46875,2.0880808329416637E-7,9000000.0,68.8,38.83336404734924,35.537190082644614,27.27272727272727,2697300.0,7320.0,0.0,1.0,0.0,?,0.0,0.0
9100000.0,11.59375,2.1249586198892849E-7,9100000.0,69.8,40.1534607945718,37.9876796714579,30.092592592592588,2727000.0,7320.0,0.0,1.0,0.0,?,0.0,0.0
9200000.0,11.703125,2.1545103259591584E-7,9200000.0,70.8,42.74330175064316,40.28629856850715,30.805687203791464,2757000.0,7320.0,0.0,1.0,0.0,?,0.0,0.0
9300000.0,11.8125,2.1813456745197366E-7,9300000.0,68.60000000000001,38.498903165152,36.820925553319924,23.786407766990312,2787000.0,7320.0,0.0,1.0,0.0,?,0.0,0.0
9400000.0,11.9375,2.208910235721203E-7,9400000.0,70.19999999999999,41.51266309723814,39.676113360323875,28.70813397129186,2817000.0,7320.0,0.0,1.0,0.0,?,0.0,0.0
9500000.0,12.0625,2.233370388340618E-7,9500000.0,68.60000000000001,38.10124586027442,35.257731958762896,26.97674418604653,2847000.0,7320.0,0.0,1.0,0.0,?,0.0,0.0
9600000.0,12.1875,2.2547261323779812E-7,9600000.0,70.5,41.68300860323886,41.23505976095617,32.801822323462396,2877000.0,7320.0,0.0,1.0,0.0,?,0.0,0.0
9700000.0,12.3125,2.2729774678332927E-7,9700000.0,70.19999999999999,41.380816183615735,41.79687499999999,27.493917274939168,2907000.0,7320.0,0.0,1.0,0.0,?,0.0,0.0
9800000.0,12.453125,2.2900177605657104E-7,9800000.0,70.7,42.0921150410296,40.927419354838705,29.73621103117506,2937000.0,7320.0,0.0,1.0,0.0,?,0.0,0.0
9900000.0,12.578125,2.3020602788569188E-7,9900000.0,67.0,35.123913325548216,36.416184971098275,23.076923076923094,2967000.0,7320.0,0.0,1.0,0.0,?,0.0,0.0
1.0E7,12.703125,2.3109983885660756E-7,1.0E7,67.2,35.49275276810826,31.380753138075317,22.458628841607585,2997000.0,7320.0,0.0,1.0,0.0,?,0.0,0.0
