learning evaluation instances,evaluation time (cpu seconds),model cost (RAM-Hours),classified instances,classifications correct (percent),Kappa Statistic (percent),Kappa Temporal Statistic (percent),Kappa M Statistic (percent),model training instances,model serialized size (bytes),labeling cost,newThreshold,maxPosterior,accuracyBaseLearner (percent),Change detected,Warning detected
100000.0,0.109375,1.982035529282358E-9,100000.0,57.599999999999994,15.575183882824708,14.343434343434334,13.292433537832299,29850.0,5144.0,0.0,1.0,0.0,?,0.0,35.0
200000.0,0.234375,3.264156273669667E-9,200000.0,60.199999999999996,21.26763070958042,14.224137931034472,15.498938428874725,59850.0,5144.0,0.0,1.0,0.0,?,0.0,0.0
300000.0,0.359375,6.025786408119732E-9,300000.0,57.099999999999994,15.598366267677108,9.302325581395333,7.1428571428571255,89700.0,5144.0,0.0,1.0,0.0,?,0.0,0.0
400000.0,0.484375,7.804353824920125E-9,400000.0,64.5,29.130400063882465,27.698574338085542,28.137651821862352,119700.0,5144.0,0.0,1.0,0.0,?,0.0,0.0
500000.0,0.609375,8.599858524070845E-9,500000.0,61.1,22.817460317460316,24.0234375,18.10526315789473,149700.0,5144.0,0.0,1.0,0.0,?,0.0,0.0
600000.0,0.71875,1.0590495852132638E-8,600000.0,63.9,28.090514322138567,32.14285714285714,24.31865828092243,179550.0,5144.0,0.0,1.0,0.0,?,0.0,0.0
700000.0,0.828125,1.1720953302250968E-8,700000.0,60.699999999999996,22.674327089563974,18.6335403726708,14.565217391304339,209550.0,5144.0,0.0,1.0,0.0,?,0.0,0.0
800000.0,0.953125,1.449241406387753E-8,800000.0,60.5,22.767089003597675,20.2020202020202,11.235955056179762,239400.0,5144.0,0.0,1.0,0.0,?,0.0,0.0
900000.0,1.0625,1.605726235235731E-8,900000.0,55.400000000000006,11.078856705371965,16.791044776119406,3.4632034632034667,269400.0,5144.0,0.0,1.0,0.0,?,0.0,0.0
1000000.0,1.171875,1.6761930762893623E-8,1000000.0,56.599999999999994,13.565101013319728,13.54581673306772,11.78861788617885,299400.0,5144.0,0.0,1.0,0.0,?,0.0,0.0
1100000.0,1.296875,1.9046775479283597E-8,1100000.0,61.199999999999996,23.19630075378475,22.554890219560875,18.487394957983184,329250.0,5144.0,0.0,1.0,0.0,?,0.0,0.0
1200000.0,1.421875,2.0348557478023898E-8,1200000.0,61.9,24.733901747121713,25.440313111545986,18.415417558886503,359250.0,5144.0,0.0,1.0,0.0,?,0.0,0.0
1300000.0,1.546875,2.3129848866826956E-8,1300000.0,58.5,18.431045733648848,12.815126050420156,15.650406504065032,389100.0,5144.0,0.0,1.0,0.0,?,0.0,0.0
1400000.0,1.65625,2.4703298954086168E-8,1400000.0,56.8,13.425118739854502,12.195121951219502,14.624505928853745,419100.0,5144.0,0.0,1.0,0.0,?,0.0,0.0
1500000.0,1.765625,2.5416569163401917E-8,1500000.0,55.300000000000004,10.409351099138986,7.261410788381749,10.240963855421697,449100.0,5144.0,0.0,1.0,0.0,?,0.0,0.0
1600000.0,1.890625,2.7711244506968387E-8,1600000.0,53.900000000000006,8.570204596479265,10.311284046692617,2.5369978858350977,478950.0,5144.0,0.0,1.0,0.0,?,0.0,0.0
1700000.0,2.0,2.8858905554645585E-8,1700000.0,62.6,25.599974536889686,25.940594059405942,22.727272727272727,508950.0,5144.0,0.0,1.0,0.0,?,0.0,0.0
1800000.0,2.109375,3.130113731862769E-8,1800000.0,61.8,24.472792410899636,24.65483234714004,19.238900634249468,538800.0,5144.0,0.0,1.0,0.0,?,0.0,0.0
1900000.0,2.234375,3.3109196616957575E-8,1900000.0,62.3,25.013326544088976,25.494071146245062,22.587268993839835,568800.0,5144.0,0.0,1.0,0.0,?,0.0,0.0
2000000.0,2.359375,3.3934193197637784E-8,2000000.0,61.5,22.749089041205842,23.913043478260867,18.60465116279069,598800.0,5144.0,0.0,1.0,0.0,?,0.0,0.0
2100000.0,2.484375,3.623869916838075E-8,2100000.0,62.4,25.041366798907518,26.129666011787823,23.732251521298174,628650.0,5144.0,0.0,1.0,0.0,?,0.0,0.0
2200000.0,2.59375,3.739496201483738E-8,2200000.0,55.300000000000004,10.771319067390612,11.133200795228639,8.401639344262303,658650.0,5144.0,0.0,1.0,0.0,?,0.0,0.0
2300000.0,2.71875,4.0195914657993435E-8,2300000.0,60.4,22.940407248271992,19.838056680161937,10.810810810810796,688500.0,5144.0,0.0,1.0,0.0,?,0.0,0.0
2400000.0,2.84375,4.2013804583499814E-8,2400000.0,62.7,25.654558790700648,24.032586558044805,24.186991869918696,718500.0,5144.0,0.0,1.0,0.0,?,0.0,0.0
2500000.0,2.953125,4.2744278390374435E-8,2500000.0,55.800000000000004,11.764118739145198,12.12723658051691,11.244979919678725,748500.0,5144.0,0.0,1.0,0.0,?,0.0,0.0
2600000.0,3.0625,4.4769322913553964E-8,2600000.0,59.199999999999996,19.157654462378588,15.876288659793806,10.329670329670314,778350.0,5144.0,0.0,1.0,0.0,?,0.0,0.0
2700000.0,3.15625,4.5767778323756307E-8,2700000.0,59.4,19.241908277903303,15.592515592515586,16.803278688524586,808350.0,5144.0,0.0,1.0,0.0,?,0.0,0.0
2800000.0,3.296875,4.8929909502880426E-8,2800000.0,61.0,22.86789049613746,23.976608187134502,17.197452229299355,838200.0,5144.0,0.0,1.0,0.0,?,0.0,0.0
2900000.0,3.421875,5.07576300555633E-8,2900000.0,63.7,27.305788301638927,28.82352941176471,26.21951219512195,868200.0,5144.0,0.0,1.0,0.0,?,0.0,0.0
3000000.0,3.578125,5.181345234935481E-8,3000000.0,60.6,22.59575337513948,22.134387351778653,13.215859030836993,898200.0,5144.0,0.0,1.0,0.0,?,0.0,0.0
3100000.0,3.671875,5.355657776817678E-8,3100000.0,62.2,25.35574504050141,24.096385542168676,19.057815845824404,928050.0,5144.0,0.0,1.0,0.0,?,0.0,0.0
3200000.0,3.78125,5.4730044212192283E-8,3200000.0,57.99999999999999,17.725461618927838,13.402061855670091,6.873614190687344,958050.0,5144.0,0.0,1.0,0.0,?,0.0,0.0
3300000.0,3.890625,5.71980813725127E-8,3300000.0,60.699999999999996,20.888624065962375,20.606060606060602,19.46721311475409,987900.0,5144.0,0.0,1.0,0.0,?,0.0,0.0
3400000.0,4.015625,5.903563255237207E-8,3400000.0,61.8,23.924689425531824,24.95088408644401,21.88139059304703,1017900.0,5144.0,0.0,1.0,0.0,?,0.0,0.0
3500000.0,4.140625,5.989012101458177E-8,3500000.0,61.5,23.40442463791182,18.60465116279069,21.267893660531694,1047900.0,5144.0,0.0,1.0,0.0,?,0.0,0.0
3600000.0,4.28125,6.251586859838828E-8,3600000.0,59.8,20.131604043486547,24.007561436672965,16.770186335403718,1077750.0,5144.0,0.0,1.0,0.0,?,0.0,0.0
3700000.0,4.40625,6.386680373301106E-8,3700000.0,57.99999999999999,17.060301110602047,13.402061855670091,9.871244635193118,1107750.0,5144.0,0.0,1.0,0.0,?,0.0,0.0
3800000.0,4.546875,6.705105382328229E-8,3800000.0,60.8,22.335636847777845,19.836400817995905,16.23931623931623,1137600.0,5144.0,0.0,1.0,0.0,?,0.0,0.0
3900000.0,4.65625,6.866751290443868E-8,3900000.0,65.8,31.358381502890182,32.94117647058824,33.33333333333334,1167600.0,5144.0,0.0,1.0,0.0,?,0.0,0.0
4000000.0,4.765625,6.94237921076516E-8,4000000.0,62.0,24.41270662184473,23.076923076923077,22.448979591836732,1197600.0,5144.0,0.0,1.0,0.0,?,0.0,0.0
4100000.0,4.890625,7.176762058710055E-8,4100000.0,60.0,21.354279310277015,17.012448132780076,10.913140311803996,1227450.0,5144.0,0.0,1.0,0.0,?,0.0,0.0
4200000.0,5.0,7.295829062867492E-8,4200000.0,59.699999999999996,20.104359962569973,14.799154334038045,16.21621621621621,1257450.0,5144.0,0.0,1.0,0.0,?,0.0,0.0
4300000.0,5.109375,7.544353138655421E-8,4300000.0,61.7,23.741030113333174,18.336886993603404,21.35523613963039,1287300.0,5144.0,0.0,1.0,0.0,?,0.0,0.0
4400000.0,5.234375,7.730074382076658E-8,4400000.0,62.3,25.03718314788156,23.52941176470588,21.784232365145225,1317300.0,5144.0,0.0,1.0,0.0,?,0.0,0.0
4500000.0,5.359375,7.817489353732928E-8,4500000.0,62.8,24.978522076884918,27.34375,28.32369942196532,1347300.0,5144.0,0.0,1.0,0.0,?,0.0,0.0
4600000.0,5.484375,8.052855264395473E-8,4600000.0,61.199999999999996,23.140008002947614,23.015873015873016,17.622080679405514,1377150.0,5144.0,0.0,1.0,0.0,?,0.0,0.0
4700000.0,5.609375,8.18991490329305E-8,4700000.0,56.699999999999996,14.335456811617133,10.72164948453607,7.280513918629533,1407150.0,5144.0,0.0,1.0,0.0,?,0.0,0.0
4800000.0,5.71875,8.439299158958922E-8,4800000.0,58.3,17.7651040064368,16.932270916334655,8.149779735682802,1437000.0,5144.0,0.0,1.0,0.0,?,0.0,0.0
4900000.0,5.828125,8.602665426830447E-8,4900000.0,60.9,22.653900933692032,23.483365949119374,18.029350104821795,1467000.0,5144.0,0.0,1.0,0.0,?,0.0,0.0
5000000.0,5.953125,8.698177730871568E-8,5000000.0,54.7,8.932276170411239,9.580838323353301,6.211180124223608,1497000.0,5144.0,0.0,1.0,0.0,?,0.0,0.0
5100000.0,6.0625,8.91120806853804E-8,5100000.0,54.2,5.063159945774079,2.3454157782516014,-10.89588377723969,1526850.0,5144.0,0.0,1.0,0.0,?,0.0,0.0
5200000.0,6.171875,9.038220418410165E-8,5200000.0,57.199999999999996,9.987591747460499,7.956989247311812,-15.363881401617263,1556850.0,5144.0,0.0,1.0,0.0,?,0.0,0.0
5300000.0,6.296875,9.33132832869887E-8,5300000.0,56.00000000000001,7.87771184985743,0.0,-13.69509043927647,1586700.0,5144.0,0.0,1.0,0.0,?,0.0,0.0
5400000.0,6.421875,9.526129967222608E-8,5400000.0,59.8,15.027816764462168,17.113402061855663,-5.235602094240843,1616700.0,5144.0,0.0,1.0,0.0,?,0.0,0.0
5500000.0,6.5625,9.634687254826225E-8,5500000.0,54.900000000000006,6.306351224457584,5.845511482254703,-18.062827225130874,1646700.0,5144.0,0.0,1.0,0.0,?,0.0,0.0
5600000.0,6.671875,9.84857777237064E-8,5600000.0,57.9,11.132688816650484,12.836438923395436,-13.783783783783795,1676550.0,5144.0,0.0,1.0,0.0,?,0.0,0.0
5700000.0,6.78125,9.976450302120709E-8,5700000.0,56.699999999999996,8.166208558145843,7.081545064377666,-19.283746556473847,1706550.0,5144.0,0.0,1.0,0.0,?,0.0,0.0
5800000.0,6.90625,1.0270541275127064E-7,5800000.0,58.5,13.057687795394349,10.367170626349878,-6.138107416879801,1736400.0,5144.0,0.0,1.0,0.0,?,0.0,0.0
5900000.0,7.015625,1.0441852888713277E-7,5900000.0,57.9,10.87381764910111,11.740041928721162,-17.27019498607244,1766400.0,5144.0,0.0,1.0,0.0,?,0.0,0.0
6000000.0,7.125,1.0527146514505145E-7,6000000.0,57.199999999999996,10.870470637234469,8.936170212765942,-9.743589743589752,1796400.0,5144.0,0.0,1.0,0.0,?,0.0,0.0
6100000.0,7.25,1.077257588298784E-7,6100000.0,53.0,0.6733081705714079,-1.5118790496760273,-24.66843501326259,1826250.0,5144.0,0.0,1.0,0.0,?,0.0,0.0
6200000.0,7.375,1.0919698979705568E-7,6200000.0,57.599999999999994,11.471904857352841,9.787234042553177,-9.278350515463925,1856250.0,5144.0,0.0,1.0,0.0,?,0.0,0.0
6300000.0,7.5,1.1214773015429573E-7,6300000.0,58.8,12.133659206558411,11.397849462365578,-3.7783375314861494,1886100.0,5144.0,0.0,1.0,0.0,?,0.0,0.0
6400000.0,7.625,1.141154077938861E-7,6400000.0,55.900000000000006,8.941491294723997,9.072164948453617,-3.03738317757007,1916100.0,5144.0,0.0,1.0,0.0,?,0.0,0.0
6500000.0,7.734375,1.1497694585058421E-7,6500000.0,56.3,8.720245306507808,8.57740585774057,-20.718232044198913,1946100.0,5144.0,0.0,1.0,0.0,?,0.0,0.0
6600000.0,7.84375,1.1713305462358724E-7,6600000.0,55.400000000000006,7.005450398041697,8.041237113402069,-11.779448621553868,1975950.0,5144.0,0.0,1.0,0.0,?,0.0,0.0
6700000.0,7.96875,1.1861411621794101E-7,6700000.0,60.0,16.211064328955356,11.699779249448111,-8.991825613079026,2005950.0,5144.0,0.0,1.0,0.0,?,0.0,0.0
6800000.0,8.078125,1.2120461582930549E-7,6800000.0,59.4,13.42729812141501,14.164904862579272,-14.366197183098606,2035800.0,5144.0,0.0,1.0,0.0,?,0.0,0.0
6900000.0,8.171875,1.2268774702938064E-7,6900000.0,57.49999999999999,10.801984603373144,11.273486430062619,-9.254498714652964,2065800.0,5144.0,0.0,1.0,0.0,?,0.0,0.0
7000000.0,8.296875,1.2368219257849784E-7,7000000.0,60.099999999999994,16.031112682458712,10.538116591928237,-1.5267175572519098,2095800.0,5144.0,0.0,1.0,0.0,?,0.0,0.0
7100000.0,8.421875,1.261561475176778E-7,7100000.0,55.50000000000001,5.80016934801018,4.710920770877949,-17.105263157894722,2125650.0,5144.0,0.0,1.0,0.0,?,0.0,0.0
7200000.0,8.546875,1.2764703973920808E-7,7200000.0,58.099999999999994,11.700244457557112,11.040339702760072,-16.388888888888903,2155650.0,5144.0,0.0,1.0,0.0,?,0.0,0.0
7300000.0,8.671875,1.306174413508011E-7,7300000.0,59.0,12.90049837909951,13.684210526315779,-7.611548556430453,2185500.0,5144.0,0.0,1.0,0.0,?,0.0,0.0
7400000.0,8.78125,1.3235636288300155E-7,7400000.0,57.699999999999996,10.739155757007914,10.570824524312883,-11.904761904761916,2215500.0,5144.0,0.0,1.0,0.0,?,0.0,0.0
7500000.0,8.890625,1.3323510453725854E-7,7500000.0,59.5,14.092991685050048,11.378555798687076,-11.263736263736273,2245500.0,5144.0,0.0,1.0,0.0,?,0.0,0.0
7600000.0,9.0,1.3540841690782044E-7,7600000.0,58.8,14.685662221485957,8.84955752212388,-8.994708994709002,2275350.0,5144.0,0.0,1.0,0.0,?,0.0,0.0
7700000.0,9.109375,1.3672154940043888E-7,7700000.0,54.900000000000006,4.71643102821746,4.246284501061575,-17.75456919060051,2305350.0,5144.0,0.0,1.0,0.0,?,0.0,0.0
7800000.0,9.234375,1.397017816392084E-7,7800000.0,56.3,8.182475249188975,7.415254237288119,-16.223404255319164,2335200.0,5144.0,0.0,1.0,0.0,?,0.0,0.0
7900000.0,9.34375,1.4144930497018828E-7,7900000.0,57.99999999999999,12.84607371562089,15.492957746478863,-0.7194244604316552,2365200.0,5144.0,0.0,1.0,0.0,?,0.0,0.0
8000000.0,9.46875,1.4246341177365849E-7,8000000.0,56.10000000000001,8.580519945689753,6.196581196581202,-10.025062656641584,2395200.0,5144.0,0.0,1.0,0.0,?,0.0,0.0
8100000.0,9.609375,1.4526872999138306E-7,8100000.0,55.7,6.526674712828015,5.944798301486205,-20.708446866485,2425050.0,5144.0,0.0,1.0,0.0,?,0.0,0.0
8200000.0,9.71875,1.4659046428278092E-7,8200000.0,56.599999999999994,9.034508199470121,8.631578947368405,-10.152284263959398,2455050.0,5144.0,0.0,1.0,0.0,?,0.0,0.0
8300000.0,9.8125,1.4883301143224044E-7,8300000.0,60.0,16.107382550335565,14.346895074946456,-4.1666666666666705,2484900.0,5144.0,0.0,1.0,0.0,?,0.0,0.0
8400000.0,9.9375,1.508400115805368E-7,8400000.0,56.99999999999999,10.135089948505312,9.853249475890971,-10.824742268041247,2514900.0,5144.0,0.0,1.0,0.0,?,0.0,0.0
8500000.0,10.0625,1.518639490111835E-7,8500000.0,59.8,15.118243243243242,13.918629550321187,-3.0769230769230793,2544900.0,5144.0,0.0,1.0,0.0,?,0.0,0.0
8600000.0,10.171875,1.5405446497930426E-7,8600000.0,55.60000000000001,6.1132139307690885,3.2679738562091534,-19.6765498652291,2574750.0,5144.0,0.0,1.0,0.0,?,0.0,0.0
8700000.0,10.265625,1.551947530565991E-7,8700000.0,58.4,13.975648491265213,12.97071129707112,-6.122448979591842,2604750.0,5144.0,0.0,1.0,0.0,?,0.0,0.0
8800000.0,10.390625,1.581946465497216E-7,8800000.0,57.099999999999994,11.764705882352946,13.682092555331982,-5.147058823529416,2634600.0,5144.0,0.0,1.0,0.0,?,0.0,0.0
8900000.0,10.515625,1.6021147732519446E-7,8900000.0,57.49999999999999,10.141912349249845,5.34521158129174,-13.031914893617033,2664600.0,5144.0,0.0,1.0,0.0,?,0.0,0.0
9000000.0,10.640625,1.6124524538301766E-7,9000000.0,56.599999999999994,9.613838662784628,8.438818565400828,-10.997442455242975,2694600.0,5144.0,0.0,1.0,0.0,?,0.0,0.0
9100000.0,10.75,1.6344436314991785E-7,9100000.0,58.699999999999996,13.088494010892331,13.41719077568133,-7.832898172323767,2724450.0,5144.0,0.0,1.0,0.0,?,0.0,0.0
9200000.0,10.84375,1.6459202419759506E-7,9200000.0,55.00000000000001,5.066495645716608,7.786885245901646,-15.979381443298953,2754450.0,5144.0,0.0,1.0,0.0,?,0.0,0.0
9300000.0,10.96875,1.6760174831789407E-7,9300000.0,55.900000000000006,3.670566443281413,7.933194154488525,-4.255319148936147,2784300.0,5144.0,0.0,1.0,0.0,?,0.0,0.0
9400000.0,11.078125,1.6937507704521224E-7,9400000.0,59.5,7.119465008118437,13.829787234042543,-6.0209424083769685,2814300.0,5144.0,0.0,1.0,0.0,?,0.0,0.0
9500000.0,11.1875,1.7028822589458696E-7,9500000.0,61.6,6.37434657096043,15.418502202643161,-7.8651685393258495,2844300.0,5144.0,0.0,1.0,0.0,?,0.0,0.0
9600000.0,11.3125,1.728113339696494E-7,9600000.0,61.199999999999996,9.020564166295403,16.916488222698064,-4.582210242587605,2874150.0,5144.0,0.0,1.0,0.0,?,0.0,0.0
9700000.0,11.40625,1.7396636798770897E-7,9700000.0,62.6,12.471213794911161,17.98245614035087,1.0582010582010593,2904150.0,5144.0,0.0,1.0,0.0,?,0.0,0.0
9800000.0,11.53125,1.7698592273518447E-7,9800000.0,59.3,4.365806663846994,15.560165975103727,-7.671957671957679,2934000.0,5144.0,0.0,1.0,0.0,?,0.0,0.0
9900000.0,11.640625,1.7876785326128208E-7,9900000.0,62.8,10.233826403802986,22.66112266112266,-1.917808219178084,2964000.0,5144.0,0.0,1.0,0.0,?,0.0,0.0
1.0E7,11.75,1.7968960390943623E-7,1.0E7,64.7,15.67531412737091,24.248927038626608,4.594594594594599,2994000.0,5144.0,0.0,1.0,0.0,?,0.0,0.0
