learning evaluation instances,evaluation time (cpu seconds),model cost (RAM-Hours),classified instances,classifications correct (percent),Kappa Statistic (percent),Kappa Temporal Statistic (percent),Kappa M Statistic (percent),model training instances,model serialized size (bytes),labeling cost,newThreshold,maxPosterior,accuracyBaseLearner (percent),Change detected,Warning detected,tree size (nodes),tree size (leaves),active learning leaves,tree depth,active leaf byte size estimate,inactive leaf byte size estimate,byte size estimate overhead
100000.0,0.453125,8.049052363882462E-9,100000.0,87.5,73.64314932737317,72.70742358078603,64.9859943977591,9090.0,22056.0,0.0,1.0,0.0,?,0.0,17.0,9.0,5.0,5.0,4.0,0.0,0.0,1.0
200000.0,0.859375,2.518829811985294E-8,200000.0,85.7,70.77768150533767,69.63906581740976,62.26912928759894,18181.0,116424.0,0.0,1.0,0.0,?,0.0,0.0,41.0,30.0,30.0,7.0,0.0,0.0,1.0
300000.0,1.15625,3.918096707719896E-8,300000.0,86.5,72.52009086689954,72.72727272727273,64.65968586387434,27272.0,135592.0,0.0,1.0,0.0,?,0.0,0.0,47.0,33.0,33.0,8.0,0.0,0.0,1.0
400000.0,1.4375,5.273287469107244E-8,400000.0,88.2,75.69656126938096,76.06490872210954,67.75956284153006,36363.0,139776.0,0.0,1.0,0.0,?,0.0,0.0,49.0,34.0,34.0,8.0,0.0,0.0,1.0
500000.0,1.734375,6.777434868531096E-8,500000.0,85.6,69.95255006865008,69.8744769874477,63.358778625954194,45454.0,149464.0,0.0,1.0,0.0,?,0.0,0.0,53.0,36.0,36.0,8.0,0.0,0.0,1.0
600000.0,2.046875,8.56686771536867E-8,600000.0,88.5,76.53808175356419,76.04166666666666,70.73791348600508,54545.0,174976.0,0.0,1.0,0.0,?,0.0,0.0,61.0,40.0,40.0,9.0,0.0,0.0,1.0
700000.0,2.34375,1.0302710709058577E-7,700000.0,87.1,73.35305345088285,71.95652173913044,64.46280991735537,63636.0,179768.0,0.0,1.0,0.0,?,0.0,0.0,63.0,41.0,41.0,9.0,0.0,0.0,1.0
800000.0,2.640625,1.2075971527439026E-7,800000.0,89.0,77.1290751829674,76.29310344827587,69.44444444444444,72727.0,184760.0,0.0,1.0,0.0,?,0.0,0.0,65.0,42.0,42.0,9.0,0.0,0.0,1.0
900000.0,2.921875,1.3755029714148907E-7,900000.0,88.0,75.4439528687602,75.25773195876289,69.15167095115682,81818.0,184784.0,0.0,1.0,0.0,?,0.0,0.0,65.0,42.0,42.0,9.0,0.0,0.0,1.0
1000000.0,3.234375,1.5687653406833612E-7,1000000.0,89.9,79.271676490387,78.69198312236287,74.23469387755102,90909.0,193168.0,0.0,1.0,0.0,?,0.0,0.0,69.0,44.0,44.0,9.0,0.0,0.0,1.0
1100000.0,3.546875,1.7692972000481356E-7,1100000.0,88.5,76.30234091658424,75.26881720430107,70.12987012987013,100000.0,202256.0,0.0,1.0,0.0,?,0.0,0.0,73.0,46.0,46.0,9.0,0.0,0.0,1.0
1200000.0,3.875,2.0618149493303565E-7,1200000.0,88.8,76.61209488807216,76.71517671517671,69.56521739130434,109090.0,297200.0,0.0,1.0,0.0,?,0.0,0.0,99.0,68.0,68.0,10.0,0.0,0.0,1.0
1300000.0,4.1875,2.3453509331577356E-7,1300000.0,89.0,77.26220399523747,78.59922178988327,72.22222222222223,118181.0,303440.0,0.0,1.0,0.0,?,0.0,0.0,101.0,69.0,69.0,10.0,0.0,0.0,1.0
1400000.0,4.515625,2.6510090618911717E-7,1400000.0,91.0,80.97058475278675,79.26267281105991,75.13812154696133,127272.0,312896.0,0.0,1.0,0.0,?,0.0,0.0,105.0,71.0,71.0,10.0,0.0,0.0,1.0
1500000.0,4.828125,2.9494914795375535E-7,1500000.0,88.9,76.83678068813543,75.27839643652561,71.31782945736434,136363.0,322112.0,0.0,1.0,0.0,?,0.0,0.0,111.0,74.0,74.0,10.0,0.0,0.0,1.0
1600000.0,5.140625,3.2793801640056904E-7,1600000.0,88.3,75.93761054302848,74.56521739130434,69.9228791773779,145454.0,361024.0,0.0,1.0,0.0,?,0.0,0.0,122.0,83.0,83.0,10.0,0.0,0.0,1.0
1700000.0,5.46875,3.6296273012542066E-7,1700000.0,90.60000000000001,80.5523947450088,79.95735607675907,75.83547557840618,154545.0,365696.0,0.0,1.0,0.0,?,0.0,0.0,124.0,84.0,84.0,10.0,0.0,0.0,1.0
1800000.0,5.78125,3.9741325761295033E-7,1800000.0,87.5,73.92312955823695,74.2798353909465,67.44791666666666,163636.0,379304.0,0.0,1.0,0.0,?,0.0,0.0,128.0,86.0,86.0,10.0,0.0,0.0,1.0
1900000.0,6.109375,4.3429120624851855E-7,1900000.0,88.6,76.17704219171212,75.48387096774194,70.54263565891473,172727.0,387704.0,0.0,1.0,0.0,?,0.0,0.0,132.0,88.0,88.0,10.0,0.0,0.0,1.0
2000000.0,6.453125,4.792633505227665E-7,2000000.0,86.7,72.0881427072403,71.33620689655173,64.53333333333333,181818.0,459048.0,0.0,1.0,0.0,?,0.0,0.0,154.0,108.0,108.0,10.0,0.0,0.0,1.0
2100000.0,6.796875,5.260716877981193E-7,2100000.0,89.0,77.22180577240857,77.68762677484787,71.27937336814621,190909.0,479768.0,0.0,1.0,0.0,?,0.0,0.0,156.0,109.0,109.0,10.0,0.0,0.0,1.0
2200000.0,7.140625,5.73256369938867E-7,2200000.0,89.8,78.23489245476271,78.57142857142857,71.66666666666667,200000.0,484120.0,0.0,1.0,0.0,?,0.0,0.0,158.0,110.0,110.0,10.0,0.0,0.0,1.0
2300000.0,7.46875,6.187899917778042E-7,2300000.0,87.4,73.46295765867467,71.16704805491992,65.57377049180327,209090.0,488472.0,0.0,1.0,0.0,?,0.0,0.0,160.0,111.0,111.0,10.0,0.0,0.0,1.0
2400000.0,7.8125,6.674843219419321E-7,2400000.0,89.9,79.27048527588727,79.71887550200803,74.55919395465995,218181.0,499704.0,0.0,1.0,0.0,?,0.0,0.0,166.0,114.0,114.0,10.0,0.0,0.0,1.0
2500000.0,8.15625,7.170473044324253E-7,2500000.0,87.4,74.32762836185819,74.12731006160163,68.5,227272.0,509560.0,0.0,1.0,0.0,?,0.0,0.0,172.0,117.0,117.0,10.0,0.0,0.0,1.0
2600000.0,8.5,7.673316738671727E-7,2600000.0,88.9,77.27886811918155,76.07758620689656,72.66009852216749,236363.0,517776.0,0.0,1.0,0.0,?,0.0,0.0,174.0,118.0,118.0,10.0,0.0,0.0,1.0
2700000.0,8.859375,8.211742776135604E-7,2700000.0,89.5,77.71552273016682,76.2979683972912,71.54471544715447,245454.0,531536.0,0.0,1.0,0.0,?,0.0,0.0,180.0,121.0,121.0,10.0,0.0,0.0,1.0
2800000.0,9.21875,8.763802017913097E-7,2800000.0,88.6,75.89393330654882,75.16339869281046,69.2722371967655,254545.0,546272.0,0.0,1.0,0.0,?,0.0,0.0,186.0,124.0,124.0,10.0,0.0,0.0,1.0
2900000.0,9.578125,9.326764848083258E-7,2900000.0,90.4,79.92303831353522,80.44806517311609,74.05405405405406,263636.0,558064.0,0.0,1.0,0.0,?,0.0,0.0,194.0,128.0,128.0,10.0,0.0,0.0,1.0
3000000.0,9.9375,9.89036731577168E-7,3000000.0,88.4,76.00837225078698,75.0,70.02583979328165,272727.0,558880.0,0.0,1.0,0.0,?,0.0,0.0,198.0,130.0,130.0,10.0,0.0,0.0,1.0
3100000.0,10.28125,1.045238039094127E-6,3100000.0,90.7,80.65144302786193,80.37974683544304,76.51515151515153,281818.0,584664.0,0.0,1.0,0.0,?,0.0,0.0,206.0,134.0,134.0,10.0,0.0,0.0,1.0
3200000.0,10.625,1.1019344997799233E-6,3200000.0,89.5,78.19314641744549,78.07933194154488,72.00000000000001,290909.0,590360.0,0.0,1.0,0.0,?,0.0,0.0,206.0,134.0,134.0,10.0,0.0,0.0,1.0
3300000.0,11.0,1.1720289411540662E-6,3300000.0,89.2,77.4504850233638,77.59336099585063,71.50395778364117,300000.0,675344.0,0.0,1.0,0.0,?,0.0,0.0,232.0,156.0,156.0,10.0,0.0,0.0,1.0
3400000.0,11.390625,1.2505009524627695E-6,3400000.0,89.9,79.07065415602932,79.002079002079,73.35092348284961,309090.0,727896.0,0.0,1.0,0.0,?,0.0,0.0,254.0,176.0,176.0,10.0,0.0,0.0,1.0
3500000.0,11.765625,1.3293358561996787E-6,3500000.0,90.8,80.95198658357316,79.6008869179601,76.70886075949367,318181.0,763992.0,0.0,1.0,0.0,?,0.0,0.0,258.0,178.0,178.0,10.0,0.0,0.0,1.0
3600000.0,12.15625,1.4195480293387342E-6,3600000.0,89.8,78.76088504641372,77.5330396475771,73.22834645669292,327272.0,844120.0,0.0,1.0,0.0,?,0.0,0.0,278.0,197.0,197.0,10.0,0.0,0.0,1.0
3700000.0,12.53125,1.5066794650111762E-6,3700000.0,89.2,77.11864406779661,76.52173913043478,70.0,336363.0,849680.0,0.0,1.0,0.0,?,0.0,0.0,280.0,198.0,198.0,10.0,0.0,0.0,1.0
3800000.0,12.921875,1.5975707275275556E-6,3800000.0,91.2,81.41891891891892,80.31319910514542,76.08695652173914,345454.0,851096.0,0.0,1.0,0.0,?,0.0,0.0,282.0,199.0,199.0,10.0,0.0,0.0,1.0
3900000.0,13.3125,1.6889017812597255E-6,3900000.0,89.4,77.3963109073462,77.6842105263158,70.95890410958904,354545.0,855576.0,0.0,1.0,0.0,?,0.0,0.0,282.0,199.0,199.0,10.0,0.0,0.0,1.0
4000000.0,13.671875,1.773635158315301E-6,4000000.0,90.5,80.30026542800266,80.08385744234802,75.57840616966581,363636.0,863296.0,0.0,1.0,0.0,?,0.0,0.0,286.0,201.0,201.0,10.0,0.0,0.0,1.0
4100000.0,14.0625,1.8741460452373658E-6,4100000.0,90.2,79.57269411151641,79.14893617021276,73.86666666666667,372727.0,946536.0,0.0,1.0,0.0,?,0.0,0.0,308.0,221.0,221.0,10.0,0.0,0.0,1.0
4200000.0,14.453125,1.9759237572240335E-6,4200000.0,92.80000000000001,84.9914326094479,84.64818763326227,81.58567774936063,381818.0,959152.0,0.0,1.0,0.0,?,0.0,0.0,312.0,223.0,223.0,10.0,0.0,0.0,1.0
4300000.0,14.828125,2.0749497343786064E-6,4300000.0,90.0,79.18617962326987,78.67803837953092,74.02597402597402,390909.0,972824.0,0.0,1.0,0.0,?,0.0,0.0,318.0,226.0,226.0,10.0,0.0,0.0,1.0
4400000.0,15.234375,2.1833704926797916E-6,4400000.0,90.60000000000001,80.53604558706601,80.25210084033614,76.26262626262627,400000.0,983768.0,0.0,1.0,0.0,?,0.0,0.0,324.0,229.0,229.0,10.0,0.0,0.0,1.0
4500000.0,15.625,2.2895485421435704E-6,4500000.0,90.4,78.83224554595168,79.1304347826087,71.25748502994013,409090.0,1001296.0,0.0,1.0,0.0,?,0.0,0.0,334.0,234.0,234.0,10.0,0.0,0.0,1.0
4600000.0,16.015625,2.401634669190066E-6,4600000.0,92.2,83.3085100919316,82.8193832599119,78.68852459016395,418181.0,1059872.0,0.0,1.0,0.0,?,0.0,0.0,358.0,255.0,255.0,10.0,0.0,0.0,1.0
4700000.0,16.421875,2.5208392374527954E-6,4700000.0,89.9,78.73469319004869,78.60169491525424,73.13829787234043,427272.0,1084984.0,0.0,1.0,0.0,?,0.0,0.0,364.0,258.0,258.0,10.0,0.0,0.0,1.0
4800000.0,16.8125,2.6356207025754786E-6,4800000.0,92.7,84.4851184656845,84.72803347280336,80.48128342245991,436363.0,1086728.0,0.0,1.0,0.0,?,0.0,0.0,364.0,258.0,258.0,10.0,0.0,0.0,1.0
4900000.0,17.234375,2.774493122059438E-6,4900000.0,90.5,79.83323143808167,80.0,74.46236559139786,445454.0,1223352.0,0.0,1.0,0.0,?,0.0,0.0,406.0,297.0,297.0,10.0,0.0,0.0,1.0
5000000.0,17.640625,2.9108007826531927E-6,5000000.0,92.30000000000001,83.73812038014783,83.36933045356373,79.46666666666667,454545.0,1244648.0,0.0,1.0,0.0,?,0.0,0.0,408.0,298.0,298.0,10.0,0.0,0.0,1.0
5100000.0,18.203125,2.9223445259655515E-6,5100000.0,83.39999999999999,64.89001692047377,65.34446764091857,61.57407407407407,5091.0,30280.0,0.0,1.0,0.0,?,2.0,32.0,12.0,8.0,8.0,3.0,0.0,0.0,1.0
5200000.0,18.546875,2.9323187320389682E-6,5200000.0,96.0,91.87203329215163,92.21789883268482,91.1504424778761,14182.0,63072.0,0.0,1.0,0.0,?,0.0,0.0,26.0,15.0,15.0,4.0,0.0,0.0,1.0
5300000.0,18.84375,2.9412824207813378E-6,5300000.0,96.1,92.14089956472674,91.89189189189189,91.52173913043478,23273.0,67744.0,0.0,1.0,0.0,?,0.0,0.0,28.0,16.0,16.0,4.0,0.0,0.0,1.0
5400000.0,19.15625,2.9507482799494433E-6,5400000.0,96.3,92.5607206047933,92.68774703557312,91.95652173913042,32364.0,68264.0,0.0,1.0,0.0,?,0.0,0.0,28.0,16.0,16.0,4.0,0.0,0.0,1.0
5500000.0,19.4375,2.959063244310932E-6,5500000.0,96.3,92.5647868304289,92.32365145228215,92.0086393088553,41455.0,68912.0,0.0,1.0,0.0,?,0.0,0.0,28.0,16.0,16.0,4.0,0.0,0.0,1.0
5600000.0,19.71875,2.967729200867729E-6,5600000.0,96.0,91.94743284158989,92.12598425196849,91.1504424778761,50545.0,68984.0,0.0,1.0,0.0,?,0.0,0.0,28.0,16.0,16.0,4.0,0.0,0.0,1.0
5700000.0,20.015625,2.9768686120708783E-6,5700000.0,96.6,93.09451176167128,93.06122448979592,92.14780600461893,59636.0,69024.0,0.0,1.0,0.0,?,0.0,0.0,28.0,16.0,16.0,4.0,0.0,0.0,1.0
5800000.0,20.296875,2.9855176884060103E-6,5800000.0,96.3,92.51163732038049,92.58517034068136,91.60997732426303,68727.0,69040.0,0.0,1.0,0.0,?,0.0,0.0,28.0,16.0,16.0,4.0,0.0,0.0,1.0
5900000.0,20.59375,2.994636823940608E-6,5900000.0,96.7,93.39904946312268,93.0817610062893,93.39999999999999,77818.0,69048.0,0.0,1.0,0.0,?,0.0,0.0,28.0,16.0,16.0,4.0,0.0,0.0,1.0
6000000.0,20.890625,3.003744900019632E-6,6000000.0,96.39999999999999,92.75889951363942,92.99610894941634,92.12253829321662,86909.0,69048.0,0.0,1.0,0.0,?,0.0,0.0,28.0,16.0,16.0,4.0,0.0,0.0,1.0
6100000.0,21.171875,3.0123712753670078E-6,6100000.0,96.0,91.99102995354797,92.27799227799227,91.52542372881355,96000.0,69160.0,0.0,1.0,0.0,?,0.0,0.0,28.0,16.0,16.0,4.0,0.0,0.0,1.0
6200000.0,21.46875,3.0214670631620614E-6,6200000.0,97.7,95.38245332262598,95.33468559837728,95.02164502164501,105091.0,69176.0,0.0,1.0,0.0,?,0.0,0.0,28.0,16.0,16.0,4.0,0.0,0.0,1.0
6300000.0,21.765625,3.0305517915015413E-6,6300000.0,96.39999999999999,92.80092148205028,93.00970873786407,92.56198347107437,114182.0,69176.0,0.0,1.0,0.0,?,0.0,0.0,28.0,16.0,16.0,4.0,0.0,0.0,1.0
6400000.0,22.0625,3.040255234938942E-6,6400000.0,96.89999999999999,93.79950396031683,94.1398865784499,93.76257545271629,123273.0,77328.0,0.0,1.0,0.0,?,0.0,0.0,32.0,18.0,18.0,5.0,0.0,0.0,1.0
6500000.0,22.375,3.0508619642609513E-6,6500000.0,96.8,93.59077070982214,93.23467230443974,93.29140461215933,132364.0,82304.0,0.0,1.0,0.0,?,0.0,0.0,34.0,19.0,19.0,5.0,0.0,0.0,1.0
6600000.0,22.65625,3.0605436445006885E-6,6600000.0,96.2,92.39233147012187,92.63565891472868,92.11618257261411,141455.0,87600.0,0.0,1.0,0.0,?,0.0,0.0,36.0,20.0,20.0,5.0,0.0,0.0,1.0
6700000.0,22.921875,3.0700255431131346E-6,6700000.0,96.8,93.57013972890101,93.23467230443974,92.93598233995584,150545.0,87768.0,0.0,1.0,0.0,?,0.0,0.0,36.0,20.0,20.0,5.0,0.0,0.0,1.0
6800000.0,23.203125,3.0800599617780073E-6,6800000.0,97.3,94.56806019394037,94.7265625,94.10480349344978,159636.0,87840.0,0.0,1.0,0.0,?,0.0,0.0,36.0,20.0,20.0,5.0,0.0,0.0,1.0
6900000.0,23.46875,3.0895297661320194E-6,6900000.0,97.3,94.55095862764882,94.61077844311376,94.0,168727.0,87880.0,0.0,1.0,0.0,?,0.0,0.0,36.0,20.0,20.0,5.0,0.0,0.0,1.0
7000000.0,23.71875,3.098433727346774E-6,7000000.0,97.8,95.56766165946748,95.53752535496956,95.13274336283185,177818.0,87888.0,0.0,1.0,0.0,?,0.0,0.0,36.0,20.0,20.0,5.0,0.0,0.0,1.0
7100000.0,24.0,3.1087702437717876E-6,7100000.0,97.39999999999999,94.78705103477037,94.8207171314741,94.50317124735729,186909.0,92400.0,0.0,1.0,0.0,?,0.0,0.0,38.0,21.0,21.0,5.0,0.0,0.0,1.0
7200000.0,24.25,3.1179536017589265E-6,7200000.0,97.1,94.19744687662572,94.2800788954635,94.05737704918032,196000.0,92472.0,0.0,1.0,0.0,?,0.0,0.0,38.0,21.0,21.0,5.0,0.0,0.0,1.0
7300000.0,24.53125,3.1282808049581937E-6,7300000.0,97.1,94.19210125771048,94.25742574257426,93.95833333333333,205091.0,92560.0,0.0,1.0,0.0,?,0.0,0.0,38.0,21.0,21.0,5.0,0.0,0.0,1.0
7400000.0,24.796875,3.1380243793440354E-6,7400000.0,97.39999999999999,94.78771986800902,94.94163424124513,94.45628997867803,214182.0,92560.0,0.0,1.0,0.0,?,0.0,0.0,38.0,21.0,21.0,5.0,0.0,0.0,1.0
7500000.0,25.0625,3.1477624563396796E-6,7500000.0,97.0,93.97234511940783,94.12915851272015,93.52051835853132,223273.0,92624.0,0.0,1.0,0.0,?,0.0,0.0,38.0,21.0,21.0,5.0,0.0,0.0,1.0
7600000.0,25.328125,3.1574906380329686E-6,7600000.0,97.5,94.98997995991984,95.20153550863724,94.73684210526315,232364.0,92624.0,0.0,1.0,0.0,?,0.0,0.0,38.0,21.0,21.0,5.0,0.0,0.0,1.0
7700000.0,25.609375,3.167541936919506E-6,7700000.0,97.0,93.97919208785562,94.28571428571428,93.53448275862068,241455.0,92656.0,0.0,1.0,0.0,?,0.0,0.0,38.0,21.0,21.0,5.0,0.0,0.0,1.0
7800000.0,25.875,3.177612606022092E-6,7800000.0,97.1,94.18002584871277,94.16498993963782,93.88185654008439,250545.0,96280.0,0.0,1.0,0.0,?,0.0,0.0,42.0,23.0,23.0,5.0,0.0,0.0,1.0
7900000.0,26.140625,3.18772120711704E-6,7900000.0,97.39999999999999,94.79610748840132,94.7261663286004,94.61697722567287,259636.0,96976.0,0.0,1.0,0.0,?,0.0,0.0,42.0,23.0,23.0,5.0,0.0,0.0,1.0
8000000.0,26.421875,3.1986840379734822E-6,8000000.0,96.5,92.92580585177339,92.70833333333333,92.09932279909707,268727.0,100672.0,0.0,1.0,0.0,?,0.0,0.0,42.0,23.0,23.0,5.0,0.0,0.0,1.0
8100000.0,26.6875,3.209028477107898E-6,8100000.0,95.19999999999999,90.37196315671234,90.69767441860465,89.87341772151898,277818.0,100680.0,0.0,1.0,0.0,?,0.0,0.0,42.0,23.0,23.0,5.0,0.0,0.0,1.0
8200000.0,26.96875,3.2200058598795686E-6,8200000.0,97.7,95.38760187383687,95.13742071881607,95.08547008547008,286909.0,101160.0,0.0,1.0,0.0,?,0.0,0.0,42.0,23.0,23.0,5.0,0.0,0.0,1.0
8300000.0,27.25,3.2312591469639694E-6,8300000.0,96.3,92.57624398073835,92.91187739463601,92.09401709401709,296000.0,105072.0,0.0,1.0,0.0,?,0.0,0.0,44.0,24.0,24.0,5.0,0.0,0.0,1.0
8400000.0,27.515625,3.2418773561302146E-6,8400000.0,97.5,94.98616180658618,95.10763209393346,94.68085106382979,305091.0,105072.0,0.0,1.0,0.0,?,0.0,0.0,44.0,24.0,24.0,5.0,0.0,0.0,1.0
8500000.0,27.78125,3.2524856699941047E-6,8500000.0,97.6,95.18056805037912,95.1417004048583,94.82758620689654,314182.0,105072.0,0.0,1.0,0.0,?,0.0,0.0,44.0,24.0,24.0,5.0,0.0,0.0,1.0
8600000.0,28.046875,3.2630840885556397E-6,8600000.0,97.3,94.59883334800317,94.51219512195121,94.39834024896265,323273.0,105072.0,0.0,1.0,0.0,?,0.0,0.0,44.0,24.0,24.0,5.0,0.0,0.0,1.0
8700000.0,28.328125,3.2743333011037765E-6,8700000.0,96.2,92.35965899951745,92.13250517598343,91.66666666666666,332364.0,105592.0,0.0,1.0,0.0,?,0.0,0.0,44.0,24.0,24.0,5.0,0.0,0.0,1.0
8800000.0,28.625,3.2861927239638226E-6,8800000.0,97.7,95.38660269422402,95.31568228105905,95.07494646680942,341455.0,108832.0,0.0,1.0,0.0,?,0.0,0.0,46.0,25.0,25.0,5.0,0.0,0.0,1.0
8900000.0,28.921875,3.2984171088577965E-6,8900000.0,97.1,94.19930391646997,94.25742574257426,94.02061855670102,350545.0,108832.0,0.0,1.0,0.0,?,0.0,0.0,46.0,25.0,25.0,5.0,0.0,0.0,1.0
9000000.0,29.21875,3.3106341207813877E-6,9000000.0,97.39999999999999,94.78932854485987,94.9119373776908,94.45628997867803,359636.0,108880.0,0.0,1.0,0.0,?,0.0,0.0,46.0,25.0,25.0,5.0,0.0,0.0,1.0
9100000.0,29.5,3.3221988188516754E-6,9100000.0,96.7,93.35251033382484,93.7381404174573,92.71523178807946,368727.0,108896.0,0.0,1.0,0.0,?,0.0,0.0,46.0,25.0,25.0,5.0,0.0,0.0,1.0
9200000.0,29.796875,3.334396783935112E-6,9200000.0,96.89999999999999,93.78901898556647,93.82470119521912,93.45991561181434,377818.0,108920.0,0.0,1.0,0.0,?,0.0,0.0,46.0,25.0,25.0,5.0,0.0,0.0,1.0
9300000.0,30.09375,3.3465836895629752E-6,9300000.0,96.7,93.3756754803639,93.503937007874,92.91845493562231,386909.0,108920.0,0.0,1.0,0.0,?,0.0,0.0,46.0,25.0,25.0,5.0,0.0,0.0,1.0
9400000.0,30.375,3.358118701726197E-6,9400000.0,95.6,91.19108537840293,90.51724137931033,90.77568134171908,396000.0,108920.0,0.0,1.0,0.0,?,0.0,0.0,46.0,25.0,25.0,5.0,0.0,0.0,1.0
9500000.0,30.671875,3.3702920902416924E-6,9500000.0,97.3,94.58713904236465,94.36325678496867,94.29175475687103,405091.0,109032.0,0.0,1.0,0.0,?,0.0,0.0,46.0,25.0,25.0,5.0,0.0,0.0,1.0
9600000.0,30.96875,3.3824544193016146E-6,9600000.0,98.1,96.1902775884056,96.32495164410058,95.96602972399151,414182.0,109032.0,0.0,1.0,0.0,?,0.0,0.0,46.0,25.0,25.0,5.0,0.0,0.0,1.0
9700000.0,31.25,3.39396673047708E-6,9700000.0,98.0,95.96879850039304,95.76271186440678,95.60439560439559,423273.0,109040.0,0.0,1.0,0.0,?,0.0,0.0,46.0,25.0,25.0,5.0,0.0,0.0,1.0
9800000.0,31.53125,3.405468564273581E-6,9800000.0,97.1,94.19079822438744,94.32485322896281,93.79014989293361,432364.0,109040.0,0.0,1.0,0.0,?,0.0,0.0,46.0,25.0,25.0,5.0,0.0,0.0,1.0
9900000.0,31.828125,3.417349491630576E-6,9900000.0,97.3,94.57111834961998,94.55645161290323,94.15584415584415,441455.0,109112.0,0.0,1.0,0.0,?,0.0,0.0,46.0,25.0,25.0,5.0,0.0,0.0,1.0
1.0E7,32.09375,3.4283063400329805E-6,1.0E7,97.7,95.39473157291941,95.34412955465586,95.18828451882845,450545.0,109112.0,0.0,1.0,0.0,?,0.0,0.0,46.0,25.0,25.0,5.0,0.0,0.0,1.0
