learning evaluation instances,evaluation time (cpu seconds),model cost (RAM-Hours),classified instances,classifications correct (percent),Kappa Statistic (percent),Kappa Temporal Statistic (percent),Kappa M Statistic (percent),model training instances,model serialized size (bytes),labeling cost,newThreshold,maxPosterior,accuracyBaseLearner (percent),Change detected,Warning detected
100000.0,0.109375,4.643613162140052E-9,100000.0,56.599999999999994,14.819452567781322,7.264957264957247,3.7694013303769194,19800.0,5144.0,0.0,1.0,0.0,?,0.0,136.0
200000.0,0.21875,8.85713638530837E-9,200000.0,62.9,27.46369274324102,24.43991853360489,15.489749430523908,39800.0,5144.0,0.0,1.0,0.0,?,0.0,0.0
300000.0,0.328125,1.2652793278296789E-8,300000.0,63.3,27.846807172066683,23.060796645702304,19.340659340659336,59800.0,5144.0,0.0,1.0,0.0,?,0.0,6.0
400000.0,0.4375,1.6018360232313474E-8,400000.0,62.9,28.28478864309408,22.54697286012526,13.519813519813532,79800.0,5144.0,0.0,1.0,0.0,?,0.0,0.0
500000.0,0.5625,1.9373191106650562E-8,500000.0,55.7,12.375783277422634,5.543710021321966,5.341880341880347,99800.0,5144.0,0.0,1.0,0.0,?,0.0,0.0
600000.0,0.671875,2.1878578182723785E-8,600000.0,64.2,29.63836477987422,27.67676767676768,20.44444444444444,119800.0,5144.0,0.0,1.0,0.0,?,0.0,0.0
700000.0,0.796875,2.4250346339411204E-8,700000.0,55.7,13.496836678903387,8.847736625514411,-0.6818181818181824,139800.0,5144.0,0.0,1.0,0.0,?,0.0,0.0
800000.0,0.921875,2.6130583137273786E-8,800000.0,63.0,27.970721071484196,21.610169491525422,15.909090909090901,159800.0,5144.0,0.0,1.0,0.0,?,0.0,0.0
900000.0,1.046875,2.751928857631153E-8,900000.0,50.1,2.529163118129177,-1.0121457489878551,-12.895927601809968,179800.0,5144.0,0.0,1.0,0.0,?,0.0,0.0
1000000.0,1.15625,2.830431589649783E-8,1000000.0,64.0,29.419791474695035,27.710843373493976,20.529801324503307,199800.0,5144.0,0.0,1.0,0.0,?,0.0,0.0
1100000.0,1.265625,3.2964453566819425E-8,1100000.0,54.6,11.133382138201291,8.835341365461856,-0.6651884700665195,219600.0,5144.0,0.0,1.0,0.0,?,0.0,0.0
1200000.0,1.375,3.719450129816929E-8,1200000.0,53.800000000000004,9.228085066251712,4.545454545454549,0.0,239600.0,5144.0,0.0,1.0,0.0,?,0.0,0.0
1300000.0,1.484375,4.0994459090547425E-8,1300000.0,61.4,24.13760573566868,24.90272373540856,16.45021645021644,259600.0,5144.0,0.0,1.0,0.0,?,0.0,0.0
1400000.0,1.609375,4.48457366372976E-8,1400000.0,64.5,30.419443355546843,28.571428571428577,19.318181818181813,279600.0,5144.0,0.0,1.0,0.0,?,0.0,0.0
1500000.0,1.734375,4.820548282522294E-8,1500000.0,64.1,29.819211160113856,26.883910386965375,19.144144144144136,299600.0,5144.0,0.0,1.0,0.0,?,0.0,0.0
1600000.0,1.859375,5.1073697654323446E-8,1600000.0,56.3,15.07307213930348,1.5765765765765531,-6.845965770171154,319600.0,5144.0,0.0,1.0,0.0,?,0.0,0.0
1700000.0,1.984375,5.3450381124599114E-8,1700000.0,52.800000000000004,7.384151701620002,-2.3861171366594385,-6.306306306306313,339600.0,5144.0,0.0,1.0,0.0,?,0.0,0.0
1800000.0,2.09375,5.509988922211859E-8,1800000.0,61.8,25.92276575692583,21.721311475409834,11.778290993071602,359600.0,5144.0,0.0,1.0,0.0,?,0.0,0.0
1900000.0,2.203125,5.631930738066634E-8,1900000.0,63.2,28.08707716960116,23.01255230125523,14.617169373549896,379600.0,5144.0,0.0,1.0,0.0,?,0.0,0.0
2000000.0,2.328125,5.7221396774467496E-8,2000000.0,62.9,27.428504362114147,25.94810379241517,16.62921348314606,399600.0,5144.0,0.0,1.0,0.0,?,0.0,0.0
2100000.0,2.4375,6.188583534417881E-8,2100000.0,50.6,5.122610779915192,5.363984674329506,-14.351851851851837,419400.0,5144.0,0.0,1.0,0.0,?,0.0,0.0
2200000.0,2.5625,6.67250909221669E-8,2200000.0,54.400000000000006,11.088579952034626,8.433734939759043,-2.471910112359553,439400.0,5144.0,0.0,1.0,0.0,?,0.0,0.0
2300000.0,2.6875,7.107281514133017E-8,2300000.0,54.2,9.722742378667757,7.474747474747481,1.9271948608137062,459400.0,5144.0,0.0,1.0,0.0,?,0.0,0.0
2400000.0,2.8125,7.492900800166859E-8,2400000.0,61.9,25.768616295834473,23.030303030303028,12.413793103448285,479400.0,5144.0,0.0,1.0,0.0,?,0.0,0.0
2500000.0,2.921875,7.787308681549298E-8,2500000.0,55.1,12.135823535857982,6.263048016701466,0.0,499400.0,5144.0,0.0,1.0,0.0,?,0.0,0.0
2600000.0,3.0625,8.110535822601782E-8,2600000.0,54.1,10.853706854359428,5.555555555555561,-4.555808656036451,519400.0,5144.0,0.0,1.0,0.0,?,0.0,0.0
2700000.0,3.15625,8.289155731391576E-8,2700000.0,64.0,29.70864232242645,25.311203319502074,18.3673469387755,539400.0,5144.0,0.0,1.0,0.0,?,0.0,0.0
2800000.0,3.265625,8.454536631082496E-8,2800000.0,64.2,30.21768962075849,25.72614107883818,15.962441314554003,559400.0,5144.0,0.0,1.0,0.0,?,0.0,0.0
2900000.0,3.375,8.576908536876242E-8,2900000.0,65.10000000000001,31.09085739558981,32.49516441005804,25.427350427350426,579400.0,5144.0,0.0,1.0,0.0,?,0.0,0.0
3000000.0,3.46875,8.644933889930448E-8,3000000.0,54.800000000000004,11.407291258330073,2.5862068965517264,-0.44444444444444486,599400.0,5144.0,0.0,1.0,0.0,?,0.0,0.0
3100000.0,3.59375,9.178504114970566E-8,3100000.0,54.0,9.259836430992113,10.156250000000009,0.2169197396963126,619200.0,5144.0,0.0,1.0,0.0,?,0.0,0.0
3200000.0,3.703125,9.602369067983496E-8,3200000.0,64.5,30.551751660889092,28.714859437751006,19.86455981941309,639200.0,5144.0,0.0,1.0,0.0,?,0.0,0.0
3300000.0,3.828125,1.0037633021258647E-7,3300000.0,64.3,30.850404437970695,28.45691382765531,16.588785046728987,659200.0,5144.0,0.0,1.0,0.0,?,0.0,0.0
3400000.0,3.953125,1.0423743838651313E-7,3400000.0,63.0,27.714327020384566,24.024640657084188,12.529550827423177,679200.0,5144.0,0.0,1.0,0.0,?,0.0,0.0
3500000.0,4.0625,1.0718581809972724E-7,3500000.0,55.400000000000006,12.460793819653542,12.720156555773004,0.6681514476614705,699200.0,5144.0,0.0,1.0,0.0,?,0.0,0.0
3600000.0,4.171875,1.0970410787396962E-7,3600000.0,55.300000000000004,12.284832929097886,11.66007905138341,0.8869179600886926,719200.0,5144.0,0.0,1.0,0.0,?,0.0,0.0
3700000.0,4.296875,1.1209062197142178E-7,3700000.0,66.7,34.42455081801928,33.13253012048193,27.292576419213976,739200.0,5144.0,0.0,1.0,0.0,?,0.0,0.0
3800000.0,4.40625,1.1374873186772069E-7,3800000.0,63.2,27.54308036417478,22.19873150105708,16.74208144796379,759200.0,5144.0,0.0,1.0,0.0,?,0.0,0.0
3900000.0,4.515625,1.1497675182504787E-7,3900000.0,62.9,27.578102429159273,26.824457593688365,15.296803652968027,779200.0,5144.0,0.0,1.0,0.0,?,0.0,0.0
4000000.0,4.625,1.1577468184340332E-7,4000000.0,63.5,28.10091873236995,26.411290322580644,19.956140350877188,799200.0,5144.0,0.0,1.0,0.0,?,0.0,0.0
4100000.0,4.75,1.2111529940739273E-7,4100000.0,59.4,20.267398792620593,20.07874015748031,11.159737417943095,819000.0,5144.0,0.0,1.0,0.0,?,0.0,0.0
4200000.0,4.859375,1.2535824983691176E-7,4200000.0,64.4,29.869628427227923,29.08366533864542,22.440087145969496,839000.0,5144.0,0.0,1.0,0.0,?,0.0,0.0
4300000.0,4.96875,1.2917111032745903E-7,4300000.0,60.0,20.549479797718963,18.86409736308316,17.864476386036955,859000.0,5144.0,0.0,1.0,0.0,?,0.0,0.0
4400000.0,5.078125,1.325538808790346E-7,4400000.0,61.7,25.27470812261971,25.1953125,15.07760532150775,879000.0,5144.0,0.0,1.0,0.0,?,0.0,0.0
4500000.0,5.203125,1.3592837300772468E-7,4500000.0,62.0,25.637172020790285,19.83122362869198,12.844036697247715,899000.0,5144.0,0.0,1.0,0.0,?,0.0,0.0
4600000.0,5.3125,1.3845096368135677E-7,4600000.0,57.4,16.26930621454711,13.59026369168356,7.189542483660113,919000.0,5144.0,0.0,1.0,0.0,?,0.0,0.0
4700000.0,5.421875,1.4054346441601714E-7,4700000.0,61.4,24.773932023698173,17.69722814498933,8.095238095238102,939000.0,5144.0,0.0,1.0,0.0,?,0.0,0.0
4800000.0,5.546875,1.424433624682327E-7,4800000.0,58.8,19.490680850897515,17.764471057884226,6.997742663656867,959000.0,5144.0,0.0,1.0,0.0,?,0.0,0.0
4900000.0,5.671875,1.4385172916162345E-7,4900000.0,64.4,30.256249510226475,27.789046653144016,19.45701357466063,979000.0,5144.0,0.0,1.0,0.0,?,0.0,0.0
5000000.0,5.78125,1.4471937902271746E-7,5000000.0,64.3,30.367006834566045,26.69404517453799,18.67881548974942,999000.0,5144.0,0.0,1.0,0.0,?,0.0,0.0
5100000.0,5.90625,1.5013967640697954E-7,5100000.0,48.0,1.8256650367209688,-10.638297872340436,-40.161725067385454,1018800.0,5144.0,0.0,1.0,0.0,?,0.0,0.0
5200000.0,6.03125,1.550684424324168E-7,5200000.0,45.300000000000004,-4.7146477988866256,-12.09016393442623,-43.56955380577428,1038800.0,5144.0,0.0,1.0,0.0,?,0.0,0.0
5300000.0,6.140625,1.5895102276570265E-7,5300000.0,45.800000000000004,-3.4094594852422104,-20.44444444444445,-45.3083109919571,1058800.0,5144.0,0.0,1.0,0.0,?,0.0,0.0
5400000.0,6.265625,1.6289672607349024E-7,5400000.0,47.199999999999996,1.0683864778471852,-17.073170731707336,-45.45454545454547,1078800.0,5144.0,0.0,1.0,0.0,?,0.0,0.0
5500000.0,6.390625,1.6635089802245297E-7,5500000.0,48.5,2.061463563061,-7.51565762004176,-41.48351648351649,1098800.0,5144.0,0.0,1.0,0.0,?,0.0,0.0
5600000.0,6.5,1.6894320853882364E-7,5600000.0,45.6,-4.8238227552479245,-9.236947791164656,-39.13043478260869,1118800.0,5144.0,0.0,1.0,0.0,?,0.0,0.0
5700000.0,6.625,1.7141121336155467E-7,5700000.0,61.6,8.978856546885352,14.093959731543611,-2.6737967914438525,3079.0,5144.0,0.0,1.0,0.0,?,6.0,53.0
5800000.0,6.765625,1.7363823846810394E-7,5800000.0,64.5,15.75859974181791,25.57651991614256,4.5698924731182835,23079.0,5144.0,0.0,1.0,0.0,?,0.0,0.0
5900000.0,6.890625,1.7512628498176733E-7,5900000.0,60.3,10.298703059333896,16.421052631578938,-1.7948717948717965,43079.0,5144.0,0.0,1.0,0.0,?,0.0,0.0
6000000.0,7.03125,1.7624736453096072E-7,6000000.0,52.1,8.894484978050993,-1.0548523206751064,-24.093264248704653,63079.0,5144.0,0.0,1.0,0.0,?,0.0,0.0
6100000.0,7.140625,1.8099442564157978E-7,6100000.0,59.9,8.062948221786096,17.319587628865975,-0.5012531328320806,82879.0,5144.0,0.0,1.0,0.0,?,0.0,0.0
6200000.0,7.25,1.8531139681322709E-7,6200000.0,61.1,10.508880095702573,14.505494505494495,-1.0389610389610398,102879.0,5144.0,0.0,1.0,0.0,?,0.0,0.0
6300000.0,7.359375,1.8919827804590267E-7,6300000.0,67.30000000000001,17.84992915498478,28.13186813186814,5.491329479768792,122879.0,5144.0,0.0,1.0,0.0,?,0.0,0.0
6400000.0,7.484375,1.931488966672785E-7,6400000.0,63.800000000000004,14.255801945114232,22.1505376344086,1.8970189701897036,142879.0,5144.0,0.0,1.0,0.0,?,0.0,0.0
6500000.0,7.59375,1.9617559802201062E-7,6500000.0,63.3,16.52488786585755,24.016563146997928,6.615776081424942,162879.0,5144.0,0.0,1.0,0.0,?,0.0,0.0
6600000.0,7.703125,1.98772209437771E-7,6600000.0,63.800000000000004,14.744894114100534,21.47505422993492,3.7234042553191524,182879.0,5144.0,0.0,1.0,0.0,?,0.0,0.0
6700000.0,7.8125,2.0093873091455965E-7,6700000.0,65.8,20.23360823972834,24.16851441241685,9.52380952380953,202879.0,5144.0,0.0,1.0,0.0,?,0.0,0.0
6800000.0,7.921875,2.0267516245237657E-7,6800000.0,64.1,11.866370760256899,20.57522123893805,-0.5602240896358549,222879.0,5144.0,0.0,1.0,0.0,?,0.0,0.0
6900000.0,8.015625,2.037948838228153E-7,6900000.0,63.5,15.004796989539779,21.50537634408602,4.450261780104716,242879.0,5144.0,0.0,1.0,0.0,?,0.0,0.0
7000000.0,8.140625,2.0479631429124212E-7,7000000.0,61.1,11.143394916214376,19.294605809128626,2.506265664160403,262879.0,5144.0,0.0,1.0,0.0,?,0.0,0.0
7100000.0,8.25,2.0954767630125087E-7,7100000.0,61.9,9.574215597854472,12.413793103448285,-5.248618784530391,282679.0,5144.0,0.0,1.0,0.0,?,0.0,0.0
7200000.0,8.359375,2.138689483722879E-7,7200000.0,67.30000000000001,21.212413261372422,30.866807610993664,8.146067415730345,302679.0,5144.0,0.0,1.0,0.0,?,0.0,0.0
7300000.0,8.46875,2.177601305043532E-7,7300000.0,51.7,8.0546418128655,-3.6480686695279005,-24.806201550387588,322679.0,5144.0,0.0,1.0,0.0,?,0.0,0.0
7400000.0,8.59375,2.217156644393173E-7,7400000.0,62.7,12.430625334547878,18.913043478260864,1.5831134564643814,342679.0,5144.0,0.0,1.0,0.0,?,0.0,0.0
7500000.0,8.703125,2.247466666934391E-7,7500000.0,53.2,9.772696601052655,4.294478527607366,-13.868613138686115,362679.0,5144.0,0.0,1.0,0.0,?,0.0,0.0
7600000.0,8.828125,2.277191379107535E-7,7600000.0,66.9,20.864134956535068,25.950782997762868,8.310249307479232,382679.0,5144.0,0.0,1.0,0.0,?,0.0,0.0
7700000.0,8.921875,2.295798428046207E-7,7700000.0,64.3,14.186817941445137,23.717948717948715,3.5135135135135167,402679.0,5144.0,0.0,1.0,0.0,?,0.0,0.0
7800000.0,9.046875,2.3156925130428543E-7,7800000.0,64.0,15.35983824324642,20.704845814977972,2.4390243902439046,422679.0,5144.0,0.0,1.0,0.0,?,0.0,0.0
7900000.0,9.15625,2.3287989380252035E-7,7900000.0,65.8,19.08925732455144,24.669603524229075,8.064516129032265,442679.0,5144.0,0.0,1.0,0.0,?,0.0,0.0
8000000.0,9.265625,2.3376044636178352E-7,8000000.0,63.2,13.801180549048997,23.333333333333332,1.6042780748663117,462679.0,5144.0,0.0,1.0,0.0,?,0.0,0.0
8100000.0,9.375,2.38516109271182E-7,8100000.0,64.0,12.959381044487426,24.050632911392405,-1.1235955056179785,482479.0,5144.0,0.0,1.0,0.0,?,0.0,0.0
8200000.0,9.5,2.43459621237384E-7,8200000.0,60.6,10.291438979963573,12.249443207126937,1.5000000000000013,502479.0,5144.0,0.0,1.0,0.0,?,0.0,0.0
8300000.0,9.59375,2.467986066929169E-7,8300000.0,63.7,15.450047981515484,24.532224532224532,5.221932114882511,522479.0,5144.0,0.0,1.0,0.0,?,0.0,0.0
8400000.0,9.703125,2.5026399978540015E-7,8400000.0,53.1,10.632621951219525,-1.9565217391304366,-35.94202898550725,542479.0,5144.0,0.0,1.0,0.0,?,0.0,0.0
8500000.0,9.8125,2.532993029389117E-7,8500000.0,52.6,9.863997322542373,-6.756756756756764,-28.80434782608695,562479.0,5144.0,0.0,1.0,0.0,?,0.0,0.0
8600000.0,9.9375,2.5627668946981436E-7,8600000.0,49.0,3.464671855598289,-2.6156941649899417,-32.8125,582479.0,5144.0,0.0,1.0,0.0,?,0.0,0.0
8700000.0,10.0625,2.587625446418922E-7,8700000.0,50.5,4.851606950638175,-5.995717344753753,-28.57142857142857,602479.0,5144.0,0.0,1.0,0.0,?,0.0,0.0
8800000.0,10.171875,2.6050757797848854E-7,8800000.0,62.5,13.68992819002025,22.680412371134018,1.3157894736842117,622479.0,5144.0,0.0,1.0,0.0,?,0.0,0.0
8900000.0,10.296875,2.6201037043291665E-7,8900000.0,63.9,16.760436073859545,24.159663865546218,7.90816326530613,642479.0,5144.0,0.0,1.0,0.0,?,0.0,0.0
9000000.0,10.40625,2.6289522389156956E-7,9000000.0,62.7,12.410061806090438,21.802935010482177,0.7978723404255326,662479.0,5144.0,0.0,1.0,0.0,?,0.0,0.0
9100000.0,10.515625,2.6765518770035777E-7,9100000.0,53.300000000000004,10.939049507971637,3.5123966942148797,-31.549295774647884,682279.0,5144.0,0.0,1.0,0.0,?,0.0,0.0
9200000.0,10.625,2.719850615701742E-7,9200000.0,51.5,8.15646351255132,-3.1914893617021307,-26.302083333333325,702279.0,5144.0,0.0,1.0,0.0,?,0.0,0.0
9300000.0,10.75,2.764419574911396E-7,9300000.0,61.8,14.260960905691542,22.672064777327932,7.50605326876514,722279.0,5144.0,0.0,1.0,0.0,?,0.0,0.0
9400000.0,10.859375,2.7991165148301263E-7,9400000.0,60.9,11.108079843586598,22.111553784860554,2.9776674937965284,742279.0,5144.0,0.0,1.0,0.0,?,0.0,0.0
9500000.0,10.953125,2.8251702638549944E-7,9500000.0,62.2,13.859504395899902,23.014256619144604,4.785894206549123,762279.0,5144.0,0.0,1.0,0.0,?,0.0,0.0
9600000.0,11.078125,2.8549932822999036E-7,9600000.0,51.6,7.5146275935076865,0.20618556701030946,-23.15521628498727,782279.0,5144.0,0.0,1.0,0.0,?,0.0,0.0
9700000.0,11.171875,2.873674060942399E-7,9700000.0,64.2,16.179273335175203,24.47257383966245,4.021447721179628,802279.0,5144.0,0.0,1.0,0.0,?,0.0,0.0
9800000.0,11.28125,2.89116740330226E-7,9800000.0,64.3,18.852570805109792,25.0,9.62025316455697,822279.0,5144.0,0.0,1.0,0.0,?,0.0,0.0
9900000.0,11.40625,2.9062444809824235E-7,9900000.0,65.0,15.005633912266378,22.907488986784138,0.5681818181818187,842279.0,5144.0,0.0,1.0,0.0,?,0.0,0.0
1.0E7,11.515625,2.91513602456285E-7,1.0E7,63.3,15.493865821758837,24.173553719008265,5.655526992287922,862279.0,5144.0,0.0,1.0,0.0,?,0.0,0.0
