learning evaluation instances,evaluation time (cpu seconds),model cost (RAM-Hours),classified instances,classifications correct (percent),Kappa Statistic (percent),Kappa Temporal Statistic (percent),Kappa M Statistic (percent),model training instances,model serialized size (bytes),labeling cost,newThreshold,maxPosterior,accuracyBaseLearner (percent),Change detected,Warning detected
100000.0,0.109375,4.6558367709318796E-9,100000.0,62.2,10.059532024041214,19.7452229299363,-1.8867924528301903,19800.0,5144.0,0.0,1.0,0.0,?,0.0,9.0
200000.0,0.234375,9.485261721743477E-9,200000.0,63.4,14.653085780644428,24.84599589322382,3.9370078740157513,39800.0,5144.0,0.0,1.0,0.0,?,0.0,0.0
300000.0,0.34375,1.3280918614731894E-8,300000.0,65.0,17.16564504295553,22.222222222222218,6.166219839142097,59800.0,5144.0,0.0,1.0,0.0,?,0.0,0.0
400000.0,0.46875,1.712728084789382E-8,400000.0,62.5,8.726256656898371,16.666666666666657,-3.5911602209944786,79800.0,5144.0,0.0,1.0,0.0,?,0.0,0.0
500000.0,0.578125,2.0062757862938774E-8,500000.0,63.800000000000004,14.32155451941965,24.4258872651357,0.8219178082191789,99800.0,5144.0,0.0,1.0,0.0,?,0.0,0.0
600000.0,0.703125,2.292605737845103E-8,600000.0,62.7,14.602316955904564,25.250501002004004,4.60358056265985,119800.0,5144.0,0.0,1.0,0.0,?,0.0,0.0
700000.0,0.8125,2.500135451555252E-8,700000.0,61.6,8.899823018926996,14.093959731543611,-2.9490616621983943,139800.0,5144.0,0.0,1.0,0.0,?,0.0,0.0
800000.0,0.921875,2.664656171368228E-8,800000.0,64.4,15.398033241918855,25.210084033613445,4.043126684636123,159800.0,5144.0,0.0,1.0,0.0,?,0.0,0.0
900000.0,1.03125,2.7861678972840307E-8,900000.0,54.0,11.659080870350106,3.361344537815129,-17.6470588235294,179800.0,5144.0,0.0,1.0,0.0,?,0.0,0.0
1000000.0,1.15625,2.875885305305322E-8,1000000.0,63.6,15.840485350695477,23.36842105263158,5.699481865284979,199800.0,5144.0,0.0,1.0,0.0,?,0.0,0.0
1100000.0,1.265625,3.341899072337482E-8,1100000.0,60.0,8.159141839021347,17.525773195876283,-0.5025125628140708,219600.0,5144.0,0.0,1.0,0.0,?,0.0,0.0
1200000.0,1.390625,3.825333098777466E-8,1200000.0,53.6,10.840558322572726,-1.97802197802198,-20.83333333333332,239600.0,5144.0,0.0,1.0,0.0,?,0.0,0.0
1300000.0,1.5,4.20532887801528E-8,1300000.0,67.30000000000001,17.923334872793724,28.28947368421053,5.763688760806922,259600.0,5144.0,0.0,1.0,0.0,?,0.0,0.0
1400000.0,1.609375,4.54231566335592E-8,1400000.0,52.800000000000004,10.244318008945148,-1.7241379310344844,-28.26086956521739,279600.0,5144.0,0.0,1.0,0.0,?,0.0,0.0
1500000.0,1.734375,4.8782902821484544E-8,1500000.0,63.4,16.645410487191644,24.22360248447205,6.632653061224496,299600.0,5144.0,0.0,1.0,0.0,?,0.0,0.0
1600000.0,1.84375,5.129259079694748E-8,1600000.0,63.9,14.858490566037725,21.52173913043478,3.7333333333333365,319600.0,5144.0,0.0,1.0,0.0,?,0.0,0.0
1700000.0,1.96875,5.366927426722315E-8,1700000.0,65.7,20.109191868373482,23.946784922394677,9.49868073878629,339600.0,5144.0,0.0,1.0,0.0,?,0.0,0.0
1800000.0,2.09375,5.555442637867398E-8,1800000.0,64.1,11.866370760256899,20.399113082039907,-0.5602240896358549,359600.0,5144.0,0.0,1.0,0.0,?,0.0,0.0
1900000.0,2.234375,5.712224972537823E-8,1900000.0,63.6,15.119462361078067,21.551724137931032,4.461942257217852,379600.0,5144.0,0.0,1.0,0.0,?,0.0,0.0
2000000.0,2.34375,5.791157794495424E-8,2000000.0,61.1,11.143394916214376,19.12681912681912,2.506265664160403,399600.0,5144.0,0.0,1.0,0.0,?,0.0,0.0
2100000.0,2.453125,6.257601651466555E-8,2100000.0,61.9,9.63769697084687,12.413793103448285,-4.958677685950417,419400.0,5144.0,0.0,1.0,0.0,?,0.0,0.0
2200000.0,2.5625,6.681036514540513E-8,2200000.0,67.30000000000001,21.27007974113024,30.866807610993664,8.403361344537823,439400.0,5144.0,0.0,1.0,0.0,?,0.0,0.0
2300000.0,2.671875,7.061462383717298E-8,2300000.0,63.2,14.18110585107624,21.03004291845493,4.9095607235142165,459400.0,5144.0,0.0,1.0,0.0,?,0.0,0.0
2400000.0,2.765625,7.35067684824268E-8,2400000.0,62.7,12.430625334547878,18.73638344226579,1.5831134564643814,479400.0,5144.0,0.0,1.0,0.0,?,0.0,0.0
2500000.0,2.875,7.645084729625119E-8,2500000.0,59.3,9.511316643692457,16.768916155419216,0.7317073170731713,499400.0,5144.0,0.0,1.0,0.0,?,0.0,0.0
2600000.0,3.0,7.932397743893994E-8,2600000.0,66.9,20.699568758984196,26.11607142857143,8.055555555555562,519400.0,5144.0,0.0,1.0,0.0,?,0.0,0.0
2700000.0,3.125,8.170557622280385E-8,2700000.0,64.3,14.186817941445137,23.717948717948715,3.5135135135135167,539400.0,5144.0,0.0,1.0,0.0,?,0.0,0.0
2800000.0,3.25,8.359564364784294E-8,2800000.0,64.0,15.35983824324642,20.704845814977972,2.4390243902439046,559400.0,5144.0,0.0,1.0,0.0,?,0.0,0.0
2900000.0,3.375,8.499417971405718E-8,2900000.0,65.7,18.901793145191803,24.282560706401764,7.79569892473119,579400.0,5144.0,0.0,1.0,0.0,?,0.0,0.0
3000000.0,3.484375,8.578780883302291E-8,3000000.0,63.2,13.801180549048997,23.492723492723492,1.6042780748663117,599400.0,5144.0,0.0,1.0,0.0,?,0.0,0.0
3100000.0,3.59375,9.045654830212394E-8,3100000.0,53.7,11.527760792466683,2.5263157894736867,-30.056179775280896,619200.0,5144.0,0.0,1.0,0.0,?,0.0,0.0
3200000.0,3.703125,9.469519783225323E-8,3200000.0,60.699999999999996,10.395082445644237,12.472160356347427,1.5037593984962419,639200.0,5144.0,0.0,1.0,0.0,?,0.0,0.0
3300000.0,3.828125,9.904783736500474E-8,3300000.0,63.7,15.28429935681413,24.375,4.9738219895288,659200.0,5144.0,0.0,1.0,0.0,?,0.0,0.0
3400000.0,3.9375,1.0242630701719058E-7,3400000.0,53.0,10.49494391651274,-2.173913043478263,-36.23188405797102,679200.0,5144.0,0.0,1.0,0.0,?,0.0,0.0
3500000.0,4.046875,1.0537468673040469E-7,3500000.0,62.9,11.333957899164465,16.62921348314606,-0.8152173913043484,699200.0,5144.0,0.0,1.0,0.0,?,0.0,0.0
3600000.0,4.140625,1.0753322082261244E-7,3600000.0,61.5,10.618104825229373,22.379032258064512,-0.522193211488251,719200.0,5144.0,0.0,1.0,0.0,?,0.0,0.0
3700000.0,4.265625,1.099197349200646E-7,3700000.0,50.4,4.691631310336356,-5.982905982905988,-29.166666666666664,739200.0,5144.0,0.0,1.0,0.0,?,0.0,0.0
3800000.0,4.375,1.1157784481636351E-7,3800000.0,62.5,13.629495872641511,22.52066115702479,1.0554089709762544,759200.0,5144.0,0.0,1.0,0.0,?,0.0,0.0
3900000.0,4.5,1.12981296196166E-7,3900000.0,52.900000000000006,9.58859933352785,1.2578616352201268,-20.153061224489786,779200.0,5144.0,0.0,1.0,0.0,?,0.0,0.0
4000000.0,4.609375,1.1377922621452145E-7,4000000.0,62.8,12.522045855379194,22.17573221757322,0.8000000000000007,799200.0,5144.0,0.0,1.0,0.0,?,0.0,0.0
4100000.0,4.71875,1.1845226658301219E-7,4100000.0,64.3,13.071004188175698,26.239669421487605,-0.5633802816901414,819000.0,5144.0,0.0,1.0,0.0,?,0.0,0.0
4200000.0,4.828125,1.226952170125312E-7,4200000.0,62.4,12.165950289665487,19.999999999999996,2.0833333333333353,839000.0,5144.0,0.0,1.0,0.0,?,0.0,0.0
4300000.0,4.96875,1.2759746621466342E-7,4300000.0,55.7,10.779021993071803,10.323886639676122,-7.263922518159785,859000.0,5144.0,0.0,1.0,0.0,?,0.0,0.0
4400000.0,5.09375,1.3146348970217834E-7,4400000.0,60.9,11.108079843586598,22.266401590457257,2.9776674937965284,879000.0,5144.0,0.0,1.0,0.0,?,0.0,0.0
4500000.0,5.21875,1.3483798183086843E-7,4500000.0,56.3,8.924939144352924,10.997963340122187,-10.353535353535362,899000.0,5144.0,0.0,1.0,0.0,?,0.0,0.0
4600000.0,5.328125,1.3736057250450052E-7,4600000.0,63.2,15.755544567148325,24.123711340206185,6.59898477157361,919000.0,5144.0,0.0,1.0,0.0,?,0.0,0.0
4700000.0,5.4375,1.394530732391609E-7,4700000.0,61.6,15.98734559393008,18.987341772151893,-2.9490616621983943,939000.0,5144.0,0.0,1.0,0.0,?,0.0,0.0
4800000.0,5.5625,1.4135297129137646E-7,4800000.0,55.300000000000004,12.294470823686378,6.289308176100635,-13.164556962025301,959000.0,5144.0,0.0,1.0,0.0,?,0.0,0.0
4900000.0,5.671875,1.4258529214809336E-7,4900000.0,65.0,15.005633912266378,22.737306843267106,0.5681818181818187,979000.0,5144.0,0.0,1.0,0.0,?,0.0,0.0
5000000.0,5.78125,1.4345294200918738E-7,5000000.0,63.3,15.493865821758837,24.016563146997928,5.655526992287922,999000.0,5144.0,0.0,1.0,0.0,?,0.0,0.0
5100000.0,5.890625,1.481957022204167E-7,5100000.0,48.1,-4.697044275351203,-3.8000000000000034,-7.45341614906833,1018800.0,5144.0,0.0,1.0,0.0,?,0.0,0.0
5200000.0,6.015625,1.5312446824585395E-7,5200000.0,50.1,-0.7958631277017039,2.3483365949119395,-5.274261603375533,1038800.0,5144.0,0.0,1.0,0.0,?,0.0,0.0
5300000.0,6.140625,1.5756170291246637E-7,5300000.0,53.800000000000004,5.8848454229885485,9.23379174852653,1.9108280254777086,1058800.0,5144.0,0.0,1.0,0.0,?,0.0,0.0
5400000.0,6.265625,1.6150740622025396E-7,5400000.0,47.599999999999994,-6.2574268669065,-2.7450980392156885,-10.782241014799164,1078800.0,5144.0,0.0,1.0,0.0,?,0.0,0.0
5500000.0,6.375,1.6452980667559635E-7,5500000.0,48.699999999999996,-2.564717737098439,1.91204588910134,-2.3952095808383254,1098800.0,5144.0,0.0,1.0,0.0,?,0.0,0.0
5600000.0,6.484375,1.6712211719196703E-7,5600000.0,49.5,-1.7578927854661426,3.441682600382412,-4.989604989604994,1118800.0,5144.0,0.0,1.0,0.0,?,0.0,0.0
5700000.0,6.609375,1.695932264232801E-7,5700000.0,50.5,0.7044965818275328,0.0,-0.6097560975609762,1138800.0,5144.0,0.0,1.0,0.0,?,0.0,0.0
5800000.0,6.71875,1.713253570617073E-7,5800000.0,51.0,1.0244974468360089,-1.0309278350515474,-3.813559322033902,1158800.0,5144.0,0.0,1.0,0.0,?,0.0,0.0
5900000.0,6.828125,1.7262739776116277E-7,5900000.0,53.400000000000006,4.736594639900244,9.514563106796125,-5.191873589164791,1178800.0,5144.0,0.0,1.0,0.0,?,0.0,0.0
6000000.0,6.953125,1.7362391291600133E-7,6000000.0,51.1,1.7898745159787333,1.0121457489878551,0.4073319755600819,1198800.0,5144.0,0.0,1.0,0.0,?,0.0,0.0
6100000.0,7.0625,1.7837097402662038E-7,6100000.0,51.1,-0.4313000616142927,0.0,-8.666666666666675,1218600.0,5144.0,0.0,1.0,0.0,?,0.0,0.0
6200000.0,7.1875,1.833046553656459E-7,6200000.0,47.699999999999996,-4.784420580221192,-3.155818540433928,-11.276595744680861,1238600.0,5144.0,0.0,1.0,0.0,?,0.0,0.0
6300000.0,7.296875,1.8719153659832148E-7,6300000.0,49.6,-0.9587070875416067,2.702702702702705,-3.4907597535934323,1258600.0,5144.0,0.0,1.0,0.0,?,0.0,0.0
6400000.0,7.421875,1.911421552196973E-7,6400000.0,49.4,-2.242050983625106,-3.2653061224489828,-6.7510548523206815,1278600.0,5144.0,0.0,1.0,0.0,?,0.0,0.0
6500000.0,7.53125,1.9416885657442943E-7,6500000.0,49.1,-3.2940450678615543,-4.089979550102253,-8.760683760683769,1298600.0,5144.0,0.0,1.0,0.0,?,0.0,0.0
6600000.0,7.65625,1.971364124781556E-7,6600000.0,54.400000000000006,7.862407862407873,11.627906976744196,4.201680672268911,1318600.0,5144.0,0.0,1.0,0.0,?,0.0,0.0
6700000.0,7.75,1.9899343088683157E-7,6700000.0,47.9,-4.821381147442033,-4.408817635270545,-8.316008316008324,1338600.0,5144.0,0.0,1.0,0.0,?,0.0,0.0
6800000.0,7.875,2.0097792407290805E-7,6800000.0,52.5,3.7495136817533323,7.045009784735819,-0.849256900212315,1358600.0,5144.0,0.0,1.0,0.0,?,0.0,0.0
6900000.0,7.984375,2.0228426567175324E-7,6900000.0,49.3,-1.4000000000000012,-8.565310492505361,-0.7952286282306171,1378600.0,5144.0,0.0,1.0,0.0,?,0.0,0.0
7000000.0,8.109375,2.0328569614018006E-7,7000000.0,50.3,-0.6227678752196628,-5.073995771670195,-5.970149253731349,1398600.0,5144.0,0.0,1.0,0.0,?,0.0,0.0
7100000.0,8.21875,2.080370581501888E-7,7100000.0,50.9,0.9681323114158988,1.9960079840319378,-3.3684210526315823,1418400.0,5144.0,0.0,1.0,0.0,?,0.0,0.0
7200000.0,8.328125,2.1235833022122585E-7,7200000.0,50.3,0.060325759099151,-2.898550724637684,-1.6359918200409014,1438400.0,5144.0,0.0,1.0,0.0,?,0.0,0.0
7300000.0,8.453125,2.1680539551501476E-7,7300000.0,51.9,1.6408192644941824,-0.8385744234800846,-6.651884700665195,1458400.0,5144.0,0.0,1.0,0.0,?,0.0,0.0
7400000.0,8.546875,2.1977204596623782E-7,7400000.0,52.400000000000006,3.358495316135488,5.55555555555556,-1.9271948608137062,1478400.0,5144.0,0.0,1.0,0.0,?,0.0,0.0
7500000.0,8.671875,2.2323604854237705E-7,7500000.0,50.2,-0.1468015363886839,4.230769230769234,-2.2587268993839853,1498400.0,5144.0,0.0,1.0,0.0,?,0.0,0.0
7600000.0,8.765625,2.2546540195536286E-7,7600000.0,51.2,1.204575361878735,-0.20533880903490778,-2.7368421052631606,1518400.0,5144.0,0.0,1.0,0.0,?,0.0,0.0
7700000.0,8.890625,2.2794634181385243E-7,7700000.0,51.4,2.2856315645558305,-2.1008403361344556,0.0,1538400.0,5144.0,0.0,1.0,0.0,?,0.0,0.0
7800000.0,9.0,2.2968707425105907E-7,7800000.0,49.3,-1.8358574699714854,6.457564575645751,-3.4693877551020442,1558400.0,5144.0,0.0,1.0,0.0,?,0.0,0.0
7900000.0,9.109375,2.30997716749294E-7,7900000.0,51.1,0.40165223271387657,4.678362573099419,-5.61555075593953,1578400.0,5144.0,0.0,1.0,0.0,?,0.0,0.0
8000000.0,9.234375,2.3200406253130904E-7,8000000.0,48.5,-2.866684776529624,-3.0000000000000027,-2.1825396825396846,1598400.0,5144.0,0.0,1.0,0.0,?,0.0,0.0
8100000.0,9.359375,2.3743910585633588E-7,8100000.0,52.7,5.431018625890722,5.588822355289426,3.4693877551020442,1618200.0,5144.0,0.0,1.0,0.0,?,0.0,0.0
8200000.0,9.46875,2.4176467882676265E-7,8200000.0,51.4,1.2403882106221447,1.4198782961460459,-6.113537117903936,1638200.0,5144.0,0.0,1.0,0.0,?,0.0,0.0
8300000.0,9.59375,2.462166594341398E-7,8300000.0,49.8,-1.3551711327550944,-2.24032586558045,-8.658008658008667,1658200.0,5144.0,0.0,1.0,0.0,?,0.0,0.0
8400000.0,9.6875,2.49186996370554E-7,8400000.0,49.3,-1.9546332046332173,-7.643312101910834,-8.798283261802583,1678200.0,5144.0,0.0,1.0,0.0,?,0.0,0.0
8500000.0,9.8125,2.526559142602815E-7,8500000.0,53.800000000000004,5.828060791859643,4.347826086956526,-2.2123893805309756,1698200.0,5144.0,0.0,1.0,0.0,?,0.0,0.0
8600000.0,9.9375,2.556333007911842E-7,8600000.0,51.800000000000004,2.745718390340766,0.0,-0.4166666666666671,1718200.0,5144.0,0.0,1.0,0.0,?,0.0,0.0
8700000.0,10.0625,2.58119155963262E-7,8700000.0,50.1,0.024042314473475115,-0.20080321285140582,-1.2170385395537535,1738200.0,5144.0,0.0,1.0,0.0,?,0.0,0.0
8800000.0,10.171875,2.5986418929985835E-7,8800000.0,52.5,4.8721481671366345,3.84615384615385,4.426559356136825,1758200.0,5144.0,0.0,1.0,0.0,?,0.0,0.0
8900000.0,10.296875,2.6136698175428646E-7,8900000.0,52.7,3.4701757536673212,3.2719836400818028,-5.345211581291764,1778200.0,5144.0,0.0,1.0,0.0,?,0.0,0.0
9000000.0,10.40625,2.6225183521293937E-7,9000000.0,49.0,-2.5170962334012827,-1.5936254980079694,-4.722792607802879,1798200.0,5144.0,0.0,1.0,0.0,?,0.0,0.0
9100000.0,10.53125,2.6769179385155444E-7,9100000.0,48.3,-5.202754399387918,-2.3762376237623783,-15.144766146993332,1818000.0,5144.0,0.0,1.0,0.0,?,0.0,0.0
9200000.0,10.65625,2.726402211313447E-7,9200000.0,52.5,3.220022656702073,7.045009784735819,-2.8138528138528165,1838000.0,5144.0,0.0,1.0,0.0,?,0.0,0.0
9300000.0,10.765625,2.765400050621894E-7,9300000.0,47.3,-6.107097699066585,-11.652542372881367,-9.109730848861291,1858000.0,5144.0,0.0,1.0,0.0,?,0.0,0.0
9400000.0,10.875,2.800096990540624E-7,9400000.0,53.400000000000006,5.896607431340874,10.556621880998089,0.8510638297872349,1878000.0,5144.0,0.0,1.0,0.0,?,0.0,0.0
9500000.0,11.0,2.8348353225737816E-7,9500000.0,50.7,0.3130130947855403,-8.830022075055197,-4.6709129511677325,1898000.0,5144.0,0.0,1.0,0.0,?,0.0,0.0
9600000.0,11.125,2.864658341018691E-7,9600000.0,50.1,-0.1493208310587262,4.952380952380957,-1.4227642276422778,1918000.0,5144.0,0.0,1.0,0.0,?,0.0,0.0
9700000.0,11.234375,2.8864525827682687E-7,9700000.0,50.2,0.27234860621596196,0.20040080160320656,-3.3195020746887995,1938000.0,5144.0,0.0,1.0,0.0,?,0.0,0.0
9800000.0,11.359375,2.906444974036681E-7,9800000.0,50.5,-1.1194639647001228,0.8016032064128262,-7.60869565217392,1958000.0,5144.0,0.0,1.0,0.0,?,0.0,0.0
9900000.0,11.46875,2.9196374170068243E-7,9900000.0,49.4,-1.8452917686461325,1.171875000000001,-4.9792531120331995,1978000.0,5144.0,0.0,1.0,0.0,?,0.0,0.0
1.0E7,11.59375,2.92979918109874E-7,1.0E7,51.300000000000004,1.6757520694528516,3.5643564356435675,-2.5263157894736867,1998000.0,5144.0,0.0,1.0,0.0,?,0.0,0.0
