learning evaluation instances,evaluation time (cpu seconds),model cost (RAM-Hours),classified instances,classifications correct (percent),Kappa Statistic (percent),Kappa Temporal Statistic (percent),Kappa M Statistic (percent),model training instances,model serialized size (bytes),labeling cost,newThreshold,maxPosterior,accuracyBaseLearner (percent),Change detected,Warning detected
100000.0,0.109375,4.644292251517375E-9,100000.0,54.50000000000001,10.81928655429244,9.000000000000007,5.797101449275368,15339.0,5144.0,0.0,1.0,0.0,?,1.0,62.0
200000.0,0.21875,8.840838240252601E-9,200000.0,63.2,27.147466988695978,27.98434442270059,22.19873150105708,4289.0,5144.0,0.0,1.0,0.0,?,3.0,29.0
300000.0,0.34375,1.3141478929254745E-8,300000.0,60.4,21.968905791247103,22.047244094488185,15.923566878980882,14514.0,5144.0,0.0,1.0,0.0,?,2.0,22.0
400000.0,0.453125,1.649233228009608E-8,400000.0,61.8,24.37590323283115,25.244618395303327,19.238900634249468,5372.0,5144.0,0.0,1.0,0.0,?,4.0,48.0
500000.0,0.5625,1.9415585686349206E-8,500000.0,60.4,20.72135558474005,24.282982791586996,20.958083832335326,14341.0,5144.0,0.0,1.0,0.0,?,3.0,43.0
600000.0,0.671875,2.19087491536306E-8,600000.0,53.2,6.869378333200678,10.516252390057371,2.9045643153526997,34341.0,5144.0,0.0,1.0,0.0,?,0.0,0.0
700000.0,0.78125,2.3969106324430968E-8,700000.0,54.7,9.36954816818453,8.299595141700413,8.113590263691691,54341.0,5048.0,0.0,1.0,0.0,?,0.0,0.0
800000.0,0.875,2.5366478237426942E-8,800000.0,56.599999999999994,11.943611448142086,10.515463917525759,7.855626326963891,74341.0,5048.0,0.0,1.0,0.0,?,0.0,0.0
900000.0,0.984375,2.6569371887793142E-8,900000.0,54.2,10.760213863732018,10.894941634241254,-3.6199095022624475,94341.0,5144.0,0.0,1.0,0.0,?,0.0,0.0
1000000.0,1.09375,2.734217559918761E-8,1000000.0,60.8,21.912039490197177,20.647773279352222,20.162932790224026,114341.0,5144.0,0.0,1.0,0.0,?,0.0,0.0
1100000.0,1.21875,3.265407738379306E-8,1100000.0,55.1,11.756613340670578,8.179959100204506,0.4434589800443463,134141.0,5144.0,0.0,1.0,0.0,?,0.0,0.0
1200000.0,1.328125,3.68719015063511E-8,1200000.0,55.00000000000001,10.211183296885725,11.242603550295868,4.05117270788913,154141.0,5144.0,0.0,1.0,0.0,?,0.0,0.0
1300000.0,1.4375,4.065963568993741E-8,1300000.0,54.300000000000004,8.713925021573077,11.60541586073502,6.1601642710472335,174141.0,5144.0,0.0,1.0,0.0,?,0.0,0.0
1400000.0,1.546875,4.401727993455198E-8,1400000.0,63.0,26.761678543151223,24.489795918367346,21.940928270042193,194141.0,5144.0,0.0,1.0,0.0,?,0.0,0.0
1500000.0,1.65625,4.694211788268553E-8,1500000.0,54.0,7.5729872008680115,5.930470347648267,1.4989293361884382,214141.0,5048.0,0.0,1.0,0.0,?,0.0,0.0
1600000.0,1.765625,4.9439582249356643E-8,1600000.0,55.7,12.250816087218334,13.980582524271856,6.736842105263165,234141.0,5144.0,0.0,1.0,0.0,?,0.0,0.0
1700000.0,1.875,5.1504240319546726E-8,1700000.0,54.800000000000004,8.576051779935275,9.600000000000009,5.833333333333339,254141.0,5048.0,0.0,1.0,0.0,?,0.0,0.0
1800000.0,1.984375,5.3141524808274375E-8,1800000.0,57.699999999999996,14.693663534062019,17.2211350293542,9.999999999999986,274141.0,5144.0,0.0,1.0,0.0,?,0.0,0.0
1900000.0,2.09375,5.4346003000521E-8,1900000.0,56.39999999999999,12.790581382789332,6.43776824034333,13.320079522862812,294141.0,5048.0,0.0,1.0,0.0,?,0.0,0.0
2000000.0,2.203125,5.512039125379589E-8,2000000.0,54.1,9.211026014304712,2.754237288135596,1.923076923076925,314141.0,5048.0,0.0,1.0,0.0,?,0.0,0.0
2100000.0,2.3125,5.977260621471538E-8,2100000.0,56.3,13.41939880966532,12.774451097804379,7.805907172995765,333941.0,5144.0,0.0,1.0,0.0,?,0.0,0.0
2200000.0,2.4375,6.459789195408424E-8,2200000.0,62.9,26.351480116884762,23.188405797101446,24.13087934560327,353941.0,5144.0,0.0,1.0,0.0,?,0.0,0.0
2300000.0,2.546875,6.838721067955096E-8,2300000.0,55.900000000000006,9.737686664920107,7.352941176470596,2.433628318584073,373941.0,5048.0,0.0,1.0,0.0,?,0.0,0.0
2400000.0,2.65625,7.174643946604596E-8,2400000.0,55.300000000000004,9.136738029222599,11.309523809523819,4.282655246252681,393941.0,5048.0,0.0,1.0,0.0,?,0.0,0.0
2500000.0,2.765625,7.467829467107852E-8,2500000.0,55.60000000000001,11.700481669895044,14.615384615384627,8.829568788501035,413941.0,5144.0,0.0,1.0,0.0,?,0.0,0.0
2600000.0,2.875,7.718005993713936E-8,2600000.0,61.7,24.236429814844115,21.516393442622945,19.537815126050415,433941.0,5144.0,0.0,1.0,0.0,?,0.0,0.0
2700000.0,2.984375,7.924901890671916E-8,2700000.0,54.6,8.513485192887439,4.821802935010487,6.584362139917702,453941.0,5048.0,0.0,1.0,0.0,?,0.0,0.0
2800000.0,3.09375,8.089060429483652E-8,2800000.0,53.6,7.5033888844589764,14.391143911439116,5.306122448979597,473941.0,5144.0,0.0,1.0,0.0,?,0.0,0.0
2900000.0,3.203125,8.210209974398216E-8,2900000.0,54.400000000000006,10.120155160995301,10.937500000000009,1.7241379310344844,493941.0,5144.0,0.0,1.0,0.0,?,0.0,0.0
3000000.0,3.3125,8.288078889664676E-8,3000000.0,52.6,5.378645118017198,5.389221556886232,6.138613861386144,513941.0,5048.0,0.0,1.0,0.0,?,0.0,0.0
3100000.0,3.4375,8.820252130842871E-8,3100000.0,58.5,16.939531979280904,17.165668662674644,15.306122448979584,533741.0,5144.0,0.0,1.0,0.0,?,0.0,0.0
3200000.0,3.546875,9.242623087225688E-8,3200000.0,56.599999999999994,11.323969907360103,12.145748987854239,5.4466230936818985,553741.0,5048.0,0.0,1.0,0.0,?,0.0,0.0
3300000.0,3.65625,9.621985049711332E-8,3300000.0,55.60000000000001,9.462771662663192,9.572301425661923,3.687635574837314,573741.0,5048.0,0.0,1.0,0.0,?,0.0,0.0
3400000.0,3.78125,1.0006388442383871E-7,3400000.0,54.2,7.641924919741244,2.7600849256900237,1.505376344086023,593741.0,5048.0,0.0,1.0,0.0,?,0.0,0.0
3500000.0,3.875,1.0257826134976412E-7,3500000.0,55.00000000000001,7.691928992529206,7.024793388429759,0.6622516556291397,613741.0,5048.0,0.0,1.0,0.0,?,0.0,0.0
3600000.0,3.984375,1.0508432751521467E-7,3600000.0,61.7,23.86594044447978,20.37422037422037,20.041753653444673,633741.0,5144.0,0.0,1.0,0.0,?,0.0,0.0
3700000.0,4.09375,1.0715758738418419E-7,3700000.0,52.800000000000004,5.306449994984447,5.030181086519119,4.259634888438138,653741.0,5048.0,0.0,1.0,0.0,?,0.0,0.0
3800000.0,4.21875,1.0903860028419229E-7,3800000.0,53.6,7.316780856121296,6.262626262626268,6.639839034205237,673741.0,5144.0,0.0,1.0,0.0,?,0.0,0.0
3900000.0,4.34375,1.1042808182537555E-7,3900000.0,55.00000000000001,11.581627841177033,7.975460122699393,-0.44642857142857184,693741.0,5144.0,0.0,1.0,0.0,?,0.0,0.0
4000000.0,4.453125,1.1121378823493916E-7,4000000.0,64.4,29.17198871526742,28.94211576846308,26.899383983572893,713741.0,5144.0,0.0,1.0,0.0,?,0.0,0.0
4100000.0,4.5625,1.1587188863712878E-7,4100000.0,55.00000000000001,7.260856662380066,10.714285714285724,-0.44642857142857184,733541.0,5048.0,0.0,1.0,0.0,?,0.0,0.0
4200000.0,4.671875,1.2010261545785596E-7,4200000.0,51.5,4.3724466457403395,4.901960784313729,-5.206073752711502,753541.0,5144.0,0.0,1.0,0.0,?,0.0,0.0
4300000.0,4.78125,1.239032523396114E-7,4300000.0,56.49999999999999,13.762340906387521,7.838983050847441,9.93788819875775,773541.0,5144.0,0.0,1.0,0.0,?,0.0,0.0
4400000.0,4.890625,1.2727379928239514E-7,4400000.0,62.0,24.94894553268474,27.203065134099617,19.320594479830145,793541.0,5144.0,0.0,1.0,0.0,?,0.0,0.0
4500000.0,5.0,1.3021153992869783E-7,4500000.0,57.099999999999994,12.765870917890105,5.5066079295154,8.723404255319133,813541.0,5048.0,0.0,1.0,0.0,?,0.0,0.0
4600000.0,5.109375,1.327219069935381E-7,4600000.0,56.10000000000001,12.479365864161613,16.22137404580154,10.953346855983783,833541.0,5144.0,0.0,1.0,0.0,?,0.0,0.0
4700000.0,5.21875,1.3480218411940663E-7,4700000.0,54.2,8.548151993770096,8.21643286573147,5.175983436853007,853541.0,5144.0,0.0,1.0,0.0,?,0.0,0.0
4800000.0,5.328125,1.3645237130630342E-7,4800000.0,62.3,25.9122423632619,24.448897795591183,17.86492374727668,873541.0,5144.0,0.0,1.0,0.0,?,0.0,0.0
4900000.0,5.453125,1.3784676816107494E-7,4900000.0,64.2,28.830433537962406,29.941291585127207,25.72614107883818,893541.0,5144.0,0.0,1.0,0.0,?,0.0,0.0
5000000.0,5.546875,1.3857999066304826E-7,5000000.0,52.2,5.306031886906088,5.1587301587301635,-0.8438818565400852,913541.0,5144.0,0.0,1.0,0.0,?,0.0,0.0
5100000.0,5.640625,1.4263240801584386E-7,5100000.0,53.2,9.13785806090872,0.8474576271186449,-14.987714987714973,933341.0,5048.0,0.0,1.0,0.0,?,0.0,0.0
5200000.0,5.75,1.4693013832180034E-7,5200000.0,54.2,10.003733469572227,9.486166007905146,-14.214463840398986,953341.0,5048.0,0.0,1.0,0.0,?,0.0,0.0
5300000.0,5.859375,1.5079777868878508E-7,5300000.0,54.7,10.443158094515095,5.625000000000005,-10.75794621026893,973341.0,5048.0,0.0,1.0,0.0,?,0.0,0.0
5400000.0,5.96875,1.542353291167981E-7,5400000.0,53.5,9.301563524014608,7.185628742514977,-17.42424242424241,993341.0,5048.0,0.0,1.0,0.0,?,0.0,0.0
5500000.0,6.078125,1.5724278960583937E-7,5500000.0,54.7,10.463691346800035,5.625000000000005,-12.967581047381529,1013341.0,5048.0,0.0,1.0,0.0,?,0.0,0.0
5600000.0,6.203125,1.60188355948776E-7,5600000.0,54.1,10.404060121022853,7.645875251509062,-9.80861244019137,1033341.0,5048.0,0.0,1.0,0.0,?,0.0,0.0
5700000.0,6.296875,1.6202888218685983E-7,5700000.0,56.10000000000001,12.507971938775519,11.670020120724356,-4.523809523809501,1053341.0,5048.0,0.0,1.0,0.0,?,0.0,0.0
5800000.0,6.40625,1.6374607285898592E-7,5800000.0,53.1,7.783903670554547,3.2989690721649514,-21.18863049095606,1073341.0,5048.0,0.0,1.0,0.0,?,0.0,0.0
5900000.0,6.515625,1.6503317359214026E-7,5900000.0,53.7,9.251274010192096,5.702647657841146,-7.175925925925906,1093341.0,5048.0,0.0,1.0,0.0,?,0.0,0.0
6000000.0,6.625,1.6589018438632288E-7,6000000.0,54.900000000000006,11.501299027495438,8.704453441295554,-9.732360097323582,1113341.0,5048.0,0.0,1.0,0.0,?,0.0,0.0
6100000.0,6.703125,1.692722111733423E-7,6100000.0,54.2,5.209346606784368,4.184100418410046,-10.361445783132512,1133141.0,5144.0,0.0,1.0,0.0,?,0.0,0.0
6200000.0,6.8125,1.735742423786885E-7,6200000.0,56.00000000000001,13.360926565508999,11.468812877263591,-4.018912529550804,1153141.0,5048.0,0.0,1.0,0.0,?,0.0,0.0
6300000.0,6.921875,1.7744618364506296E-7,6300000.0,52.2,5.403479885375942,2.647657841140532,-13.270142180094771,1173141.0,5048.0,0.0,1.0,0.0,?,0.0,0.0
6400000.0,7.03125,1.8088803497246568E-7,6400000.0,53.7,7.329570473559903,5.8943089430894355,-14.320987654320971,1193141.0,5048.0,0.0,1.0,0.0,?,0.0,0.0
6500000.0,7.140625,1.8389979636089668E-7,6500000.0,52.400000000000006,7.178097150991597,2.2587268993839853,-20.50632911392404,1213141.0,5048.0,0.0,1.0,0.0,?,0.0,0.0
6600000.0,7.25,1.8648146781035593E-7,6600000.0,55.1,9.071025857041032,1.31868131868132,-11.41439205955333,1233141.0,5048.0,0.0,1.0,0.0,?,0.0,0.0
6700000.0,7.359375,1.8863576567835276E-7,6700000.0,55.1,6.126647487790214,3.2327586206896584,-11.138613861386121,1253141.0,5144.0,0.0,1.0,0.0,?,0.0,0.0
6800000.0,7.46875,1.9035997360737784E-7,6800000.0,56.00000000000001,12.490055688146395,10.204081632653072,-9.99999999999998,1273141.0,5144.0,0.0,1.0,0.0,?,0.0,0.0
6900000.0,7.5625,1.9146921759885216E-7,6900000.0,57.49999999999999,15.306252590632269,6.593406593406575,-9.819121447028433,1293141.0,5144.0,0.0,1.0,0.0,?,0.0,0.0
7000000.0,7.65625,1.9220981307120784E-7,7000000.0,52.6,7.807929296072707,0.2105263157894739,-19.696969696969685,1313141.0,5144.0,0.0,1.0,0.0,?,0.0,0.0
7100000.0,7.765625,1.9694623511491548E-7,7100000.0,56.3,13.647968257230247,13.293650793650782,-4.545454545454549,1332941.0,5048.0,0.0,1.0,0.0,?,0.0,0.0
7200000.0,7.875,2.012525672196514E-7,7200000.0,53.1,7.72584542013268,7.6771653543307155,-19.035532994923845,1352941.0,5048.0,0.0,1.0,0.0,?,0.0,0.0
7300000.0,7.984375,2.0512880938541556E-7,7300000.0,54.900000000000006,10.951925886729276,9.072580645161299,-12.189054726368141,1372941.0,5048.0,0.0,1.0,0.0,?,0.0,0.0
7400000.0,8.09375,2.08574961612208E-7,7400000.0,51.2,3.404592240696753,-1.6666666666666683,-21.999999999999993,1392941.0,5048.0,0.0,1.0,0.0,?,0.0,0.0
7500000.0,8.203125,2.115910239000287E-7,7500000.0,52.400000000000006,5.762354832451014,6.483300589390968,-10.44083526682133,1412941.0,5048.0,0.0,1.0,0.0,?,0.0,0.0
7600000.0,8.296875,2.1380757162761355E-7,7600000.0,54.0,8.796751578212747,4.5643153526971,-10.576923076923059,1432941.0,5048.0,0.0,1.0,0.0,?,0.0,0.0
7700000.0,8.40625,2.1596345403749078E-7,7700000.0,50.0,1.452588840491158,-2.6694045174538013,-15.473441108545021,1452941.0,5048.0,0.0,1.0,0.0,?,0.0,0.0
7800000.0,8.515625,2.176892465083963E-7,7800000.0,52.2,5.16475144435275,6.640625000000005,-11.682242990654188,1472941.0,5048.0,0.0,1.0,0.0,?,0.0,0.0
7900000.0,8.609375,2.1879984867862525E-7,7900000.0,54.400000000000006,10.89851810166949,5.7851239669421535,-11.764705882352922,1492941.0,5048.0,0.0,1.0,0.0,?,0.0,0.0
8000000.0,8.71875,2.196681776290966E-7,8000000.0,54.1,3.839707706231357,1.2903225806451626,-15.909090909090896,1512941.0,5144.0,0.0,1.0,0.0,?,0.0,0.0
8100000.0,8.8125,2.237339827439023E-7,8100000.0,56.2,9.935844711301229,8.176100628930826,-3.3018867924528066,1532741.0,5144.0,0.0,1.0,0.0,?,0.0,0.0
8200000.0,8.921875,2.280446157480279E-7,8200000.0,52.6,6.295962423494812,0.42016806722689115,-14.49275362318839,1552741.0,5048.0,0.0,1.0,0.0,?,0.0,0.0
8300000.0,9.03125,2.319278751706911E-7,8300000.0,53.800000000000004,2.8203143405243676,1.7021276595744699,-17.25888324873095,1572741.0,5144.0,0.0,1.0,0.0,?,0.0,0.0
8400000.0,9.15625,2.358743545806242E-7,8400000.0,56.00000000000001,8.577127659574487,2.0044543429844115,-18.918918918918905,1592741.0,5144.0,0.0,1.0,0.0,?,0.0,0.0
8500000.0,9.25,2.384655656189554E-7,8500000.0,65.8,23.23887075849872,28.750000000000004,17.19128329297822,1612741.0,5144.0,0.0,1.0,0.0,?,0.0,0.0
8600000.0,9.359375,2.410585552247034E-7,8600000.0,64.4,20.268042714828358,23.110151187904965,13.592233009708748,1632741.0,5144.0,0.0,1.0,0.0,?,0.0,0.0
8700000.0,9.46875,2.432214548914797E-7,8700000.0,64.9,23.975949542556144,28.803245436105477,19.679633867276902,1652741.0,5144.0,0.0,1.0,0.0,?,0.0,0.0
8800000.0,9.578125,2.449542646192842E-7,8800000.0,63.1,19.76167695920676,22.478991596638654,14.583333333333345,1672741.0,5144.0,0.0,1.0,0.0,?,0.0,0.0
8900000.0,9.6875,2.46256984408117E-7,8900000.0,64.7,23.015859169181933,29.960317460317466,17.330210772833738,1692741.0,5144.0,0.0,1.0,0.0,?,0.0,0.0
9000000.0,9.796875,2.4712961425797806E-7,9000000.0,65.2,22.014010586373974,28.395061728395067,15.73849878934626,1712741.0,5144.0,0.0,1.0,0.0,?,0.0,0.0
9100000.0,9.90625,2.5187735445797445E-7,9100000.0,68.10000000000001,27.212157166978514,34.63114754098361,19.24050632911394,1732541.0,5144.0,0.0,1.0,0.0,?,0.0,0.0
9200000.0,10.015625,2.5619500471899906E-7,9200000.0,66.60000000000001,23.311826969439537,29.53586497890296,15.443037974683557,1752541.0,5144.0,0.0,1.0,0.0,?,0.0,0.0
9300000.0,10.125,2.6008256504105195E-7,9300000.0,66.10000000000001,22.295469757121776,28.78151260504202,12.40310077519381,1772541.0,5144.0,0.0,1.0,0.0,?,0.0,0.0
9400000.0,10.234375,2.635400354241331E-7,9400000.0,67.60000000000001,26.94146297465503,35.20000000000001,20.975609756097576,1792541.0,5144.0,0.0,1.0,0.0,?,0.0,0.0
9500000.0,10.359375,2.669998987888296E-7,9500000.0,66.10000000000001,23.197520571283583,28.329809725158565,15.461346633416472,1812541.0,5144.0,0.0,1.0,0.0,?,0.0,0.0
9600000.0,10.46875,2.6959718929396734E-7,9600000.0,63.7,19.852687915639986,24.217118997912316,13.776722090261293,1832541.0,5144.0,0.0,1.0,0.0,?,0.0,0.0
9700000.0,10.578125,2.717643898601333E-7,9700000.0,64.60000000000001,21.415759470066952,27.755102040816325,15.311004784689008,1852541.0,5144.0,0.0,1.0,0.0,?,0.0,0.0
9800000.0,10.6875,2.7350150048732754E-7,9800000.0,69.1,25.97029228557737,31.93832599118941,14.16666666666665,1872541.0,5144.0,0.0,1.0,0.0,?,0.0,0.0
9900000.0,10.78125,2.746218039343754E-7,9900000.0,64.3,21.13913089578879,22.894168466522675,14.79713603818617,1892541.0,5144.0,0.0,1.0,0.0,?,0.0,0.0
1.0E7,10.875,2.7537345886230464E-7,1.0E7,66.4,24.74736615781553,28.96405919661734,18.446601941747588,1912541.0,5144.0,0.0,1.0,0.0,?,0.0,0.0
