learning evaluation instances,evaluation time (cpu seconds),model cost (RAM-Hours),classified instances,classifications correct (percent),Kappa Statistic (percent),Kappa Temporal Statistic (percent),Kappa M Statistic (percent),model training instances,model serialized size (bytes),labeling cost,newThreshold,maxPosterior,accuracyBaseLearner (percent),Change detected,Warning detected,tree size (nodes),tree size (leaves),active learning leaves,tree depth,active leaf byte size estimate,inactive leaf byte size estimate,byte size estimate overhead
100000.0,0.984375,6.674497853964568E-8,100000.0,79.80000000000001,56.03859898061781,57.11252653927814,45.55256064690028,55900.0,151880.0,0.0,1.0,0.0,?,4.0,52.0,54.0,35.0,35.0,4.0,0.0,0.0,1.0
200000.0,1.890625,1.5790380227069059E-7,200000.0,85.1,68.64794801871864,69.40451745379876,60.892388451443566,115900.0,293208.0,0.0,1.0,0.0,?,0.0,0.0,112.0,70.0,70.0,6.0,0.0,0.0,1.0
300000.0,2.78125,2.6702745041499537E-7,300000.0,84.89999999999999,68.04692657987844,66.44444444444444,59.51742627345844,175900.0,392808.0,0.0,1.0,0.0,?,0.0,0.0,151.0,94.0,94.0,6.0,0.0,0.0,1.0
400000.0,3.640625,3.997957295117279E-7,400000.0,86.8,71.6601971763251,70.66666666666667,63.535911602209936,235900.0,531056.0,0.0,1.0,0.0,?,0.0,0.0,202.0,127.0,127.0,6.0,0.0,0.0,1.0
500000.0,4.46875,5.451389329714907E-7,500000.0,86.3,70.76896816591277,71.39874739039665,62.465753424657535,295900.0,627112.0,0.0,1.0,0.0,?,0.0,0.0,237.0,149.0,149.0,7.0,0.0,0.0,1.0
600000.0,5.3125,7.32724179720713E-7,600000.0,85.6,69.95555926474577,71.14228456913827,63.171355498721226,355600.0,746952.0,0.0,1.0,0.0,?,0.0,0.0,278.0,180.0,180.0,7.0,0.0,0.0,1.0
700000.0,6.21875,9.645665219674508E-7,700000.0,86.7,71.88612400544521,70.24608501118567,64.343163538874,415600.0,891224.0,0.0,1.0,0.0,?,0.0,0.0,338.0,222.0,222.0,8.0,0.0,0.0,1.0
800000.0,7.140625,1.2344014248810708E-6,800000.0,86.7,72.07431172626947,72.05882352941177,64.15094339622641,475600.0,1048264.0,0.0,1.0,0.0,?,0.0,0.0,391.0,253.0,253.0,8.0,0.0,0.0,1.0
900000.0,8.046875,1.5238222032268014E-6,900000.0,85.3,69.39922561305633,69.11764705882352,62.40409207161125,535600.0,1166056.0,0.0,1.0,0.0,?,0.0,0.0,437.0,282.0,282.0,8.0,0.0,0.0,1.0
1000000.0,9.0,1.8439858750854103E-6,1000000.0,86.4,71.68978667421607,71.36842105263158,64.76683937823834,595600.0,1244848.0,0.0,1.0,0.0,?,0.0,0.0,470.0,300.0,300.0,8.0,0.0,0.0,1.0
1100000.0,9.953125,2.2028202591981327E-6,1100000.0,88.0,74.8722673590753,75.25773195876289,69.84924623115577,655300.0,1340304.0,0.0,1.0,0.0,?,0.0,0.0,506.0,321.0,321.0,9.0,0.0,0.0,1.0
1200000.0,10.90625,2.58611479593027E-6,1200000.0,87.9,74.6594735872133,73.4065934065934,68.48958333333334,715300.0,1454312.0,0.0,1.0,0.0,?,0.0,0.0,551.0,351.0,351.0,9.0,0.0,0.0,1.0
1300000.0,11.859375,2.987186340356453E-6,1300000.0,87.8,73.54371142694812,73.24561403508771,64.8414985590778,775300.0,1541248.0,0.0,1.0,0.0,?,0.0,0.0,583.0,370.0,370.0,9.0,0.0,0.0,1.0
1400000.0,12.828125,3.414896168073433E-6,1400000.0,88.8,76.05773506173684,75.86206896551724,69.56521739130434,835300.0,1636112.0,0.0,1.0,0.0,?,0.0,0.0,622.0,394.0,394.0,10.0,0.0,0.0,1.0
1500000.0,13.8125,3.8694677318239385E-6,1500000.0,87.5,74.07026336314908,74.12008281573499,68.11224489795919,895300.0,1729360.0,0.0,1.0,0.0,?,0.0,0.0,660.0,419.0,419.0,10.0,0.0,0.0,1.0
1600000.0,14.765625,4.345941641885374E-6,1600000.0,89.1,76.83315621679066,76.30434782608695,70.93333333333334,955000.0,1815560.0,0.0,1.0,0.0,?,0.0,0.0,686.0,435.0,435.0,10.0,0.0,0.0,1.0
1700000.0,15.796875,4.874929565832847E-6,1700000.0,88.8,76.37659088895732,75.16629711751663,70.44854881266491,1015000.0,1880952.0,0.0,1.0,0.0,?,0.0,0.0,712.0,451.0,451.0,10.0,4099.139013452915,0.0,1.0176696845449333
1800000.0,16.78125,5.383207592078382E-6,1800000.0,89.3,76.90939852220151,76.2749445676275,70.0280112044818,1075000.0,1909104.0,0.0,1.0,0.0,?,0.0,0.0,724.0,457.0,457.0,10.0,4099.139013452915,0.0,1.0176696845449333
1900000.0,17.75,5.8909863259436365E-6,1900000.0,88.4,75.40695135240567,75.0,69.55380577427822,1135000.0,1954248.0,0.0,1.0,0.0,?,0.0,0.0,748.0,469.0,469.0,11.0,4099.139013452915,0.0,1.0176696845449333
2000000.0,18.75,6.428224927124879E-6,2000000.0,88.5,76.35029531283418,76.0914760914761,71.1779448621554,1195000.0,2019712.0,0.0,1.0,0.0,?,0.0,0.0,780.0,488.0,488.0,11.0,4099.139013452915,0.0,1.0176696845449333
2100000.0,19.75,7.0014870854922475E-6,2100000.0,91.9,82.65970200376778,81.37931034482759,77.68595041322315,1254700.0,2097752.0,0.0,1.0,0.0,?,0.0,0.0,801.0,503.0,503.0,11.0,4099.139013452915,0.0,1.0176696845449333
2200000.0,20.75,7.582615815206535E-6,2200000.0,91.4,81.24441148888842,81.81818181818183,75.91036414565828,1314700.0,2143136.0,0.0,1.0,0.0,?,0.0,0.0,824.0,516.0,516.0,11.0,4099.139013452915,0.0,1.0176696845449333
2300000.0,21.78125,8.198044249891408E-6,2300000.0,92.2,83.56032727594625,83.2618025751073,79.84496124031008,1374700.0,2218520.0,0.0,1.0,0.0,?,0.0,0.0,852.0,533.0,533.0,11.0,4099.139013452915,0.0,1.0176696845449333
2400000.0,22.8125,8.821678994637397E-6,2400000.0,91.60000000000001,82.13655329048942,81.69934640522877,77.8364116094987,1434700.0,2264304.0,0.0,1.0,0.0,?,0.0,0.0,867.0,542.0,542.0,11.0,4099.139013452915,0.0,1.0176696845449333
2500000.0,23.859375,9.463661052804026E-6,2500000.0,91.60000000000001,82.7018121911038,82.82208588957056,79.51219512195124,1494700.0,2312160.0,0.0,1.0,0.0,?,0.0,0.0,884.0,552.0,552.0,11.0,4099.139013452915,0.0,1.0176696845449333
2600000.0,24.90625,1.0135659443524976E-5,2600000.0,91.2,81.17727583846681,80.35714285714286,75.55555555555557,1554400.0,2361936.0,0.0,1.0,0.0,?,0.0,0.0,911.0,567.0,567.0,12.0,4099.139013452915,0.0,1.0176696845449333
2700000.0,25.921875,1.0795394288531193E-5,2700000.0,90.8,80.44051364911982,80.34188034188034,75.13513513513514,1614400.0,2406568.0,0.0,1.0,0.0,?,0.0,0.0,927.0,575.0,575.0,12.0,4099.139013452915,0.0,1.0176696845449333
2800000.0,26.921875,1.1453104638753251E-5,2800000.0,91.4,81.75809537546506,81.05726872246697,76.69376693766938,1674400.0,2452976.0,0.0,1.0,0.0,?,0.0,0.0,944.0,585.0,585.0,12.0,4099.139013452915,0.0,1.0176696845449333
2900000.0,27.984375,1.2152427645762347E-5,2900000.0,91.3,81.51139068344101,80.79470198675497,76.61290322580646,1734400.0,2469928.0,0.0,1.0,0.0,?,0.0,0.0,961.0,595.0,595.0,12.0,4099.139013452915,0.0,1.0176696845449333
3000000.0,29.03125,1.285658082148681E-5,3000000.0,91.4,81.65341161211046,82.12058212058213,77.0053475935829,1794400.0,2540648.0,0.0,1.0,0.0,?,0.0,0.0,983.0,609.0,609.0,12.0,4099.139013452915,0.0,1.0176696845449333
3100000.0,30.0625,1.3585369451902806E-5,3100000.0,89.8,78.08525266414576,78.52631578947368,71.34831460674158,1854100.0,2611152.0,0.0,1.0,0.0,?,0.0,0.0,1018.0,631.0,631.0,12.0,4099.139013452915,0.0,1.0176696845449333
3200000.0,31.109375,1.4334902451891038E-5,3200000.0,90.7,80.60058907458553,79.28730512249443,76.69172932330828,1914100.0,2661936.0,0.0,1.0,0.0,?,0.0,0.0,1030.0,637.0,637.0,12.0,4099.139013452915,0.0,1.0176696845449333
3300000.0,32.171875,1.5100000633133782E-5,3300000.0,91.10000000000001,81.19713013276095,81.45833333333334,76.70157068062828,1974100.0,2692848.0,0.0,1.0,0.0,?,0.0,0.0,1063.0,655.0,655.0,12.0,4099.139013452915,0.0,1.0176696845449333
3400000.0,33.328125,1.595553942024708E-5,3400000.0,91.9,82.18762369705766,82.3913043478261,76.5217391304348,2034100.0,2784320.0,0.0,1.0,0.0,?,0.0,0.0,1084.0,667.0,667.0,12.0,4049.648120300752,0.0,1.0192854405618088
3500000.0,34.40625,1.6759441059548408E-5,3500000.0,91.10000000000001,80.87732265328223,80.0,75.81521739130436,2094100.0,2821432.0,0.0,1.0,0.0,?,0.0,0.0,1104.0,677.0,677.0,12.0,4049.648120300752,0.0,1.0192854405618088
3600000.0,35.46875,1.758109199322967E-5,3600000.0,90.60000000000001,80.0912414169953,81.0483870967742,75.45691906005223,2153800.0,2867408.0,0.0,1.0,0.0,?,0.0,0.0,1117.0,685.0,685.0,12.0,4049.648120300752,0.0,1.0192854405618088
3700000.0,36.53125,1.8409944508069506E-5,3700000.0,91.4,81.74996604644846,81.62393162393164,77.60416666666667,2213800.0,2908552.0,0.0,1.0,0.0,?,0.0,0.0,1141.0,697.0,697.0,12.0,4049.648120300752,0.0,1.0192854405618088
3800000.0,37.59375,1.9242838704182456E-5,3800000.0,90.5,80.01329641754118,80.37190082644628,74.93403693931398,2273800.0,2938344.0,0.0,1.0,0.0,?,0.0,0.0,1152.0,704.0,704.0,12.0,4049.648120300752,0.0,1.0192854405618088
3900000.0,38.671875,2.009408170124516E-5,3900000.0,89.60000000000001,78.41678841811662,78.19706498951781,73.46938775510205,2333800.0,2975264.0,0.0,1.0,0.0,?,0.0,0.0,1176.0,719.0,719.0,12.0,4049.648120300752,0.0,1.0192854405618088
4000000.0,39.71875,2.0928188653973242E-5,4000000.0,91.5,81.93411264612116,82.21757322175733,77.33333333333334,2393800.0,3018048.0,0.0,1.0,0.0,?,0.0,0.0,1194.0,728.0,728.0,12.0,4049.648120300752,0.0,1.0192854405618088
4100000.0,40.8125,2.183092253593107E-5,4100000.0,91.9,82.6098157928636,83.26446280991736,77.18309859154931,2453500.0,3067416.0,0.0,1.0,0.0,?,0.0,0.0,1213.0,739.0,739.0,12.0,4049.648120300752,0.0,1.0192854405618088
4200000.0,41.90625,2.2746233153156936E-5,4200000.0,91.5,82.00646920354284,81.91489361702128,77.86458333333334,2513500.0,3126816.0,0.0,1.0,0.0,?,0.0,0.0,1241.0,756.0,756.0,12.0,4049.648120300752,0.0,1.0192854405618088
4300000.0,43.015625,2.368615917576891E-5,4300000.0,92.4,84.32543692844563,84.61538461538463,81.59806295399517,2573500.0,3181912.0,0.0,1.0,0.0,?,0.0,0.0,1263.0,767.0,767.0,12.0,4049.648120300752,0.0,1.0192854405618088
4400000.0,44.109375,2.4618313473183663E-5,4400000.0,92.2,83.8160171633213,84.49304174950299,80.64516129032259,2633500.0,3216272.0,0.0,1.0,0.0,?,0.0,0.0,1271.0,771.0,771.0,12.0,4049.648120300752,0.0,1.0192854405618088
4500000.0,45.234375,2.5583850510884077E-5,4500000.0,91.9,83.08948792464176,83.5030549898167,79.54545454545455,2693500.0,3254456.0,0.0,1.0,0.0,?,0.0,0.0,1287.0,779.0,779.0,12.0,4049.648120300752,0.0,1.0192854405618088
4600000.0,46.3125,2.652775690269967E-5,4600000.0,93.10000000000001,85.569804502221,85.77319587628867,82.48730964467006,2753200.0,3260320.0,0.0,1.0,0.0,?,0.0,0.0,1289.0,780.0,780.0,12.0,4049.648120300752,0.0,1.0192854405618088
4700000.0,47.421875,2.7506457247202182E-5,4700000.0,92.30000000000001,83.60027261884478,83.75527426160339,79.35656836461126,2813200.0,3301216.0,0.0,1.0,0.0,?,0.0,0.0,1312.0,793.0,793.0,12.0,4049.648120300752,0.0,1.0192854405618088
4800000.0,48.5,2.8462156026055004E-5,4800000.0,91.9,83.1193731243748,83.01886792452831,79.49367088607596,2873200.0,3332616.0,0.0,1.0,0.0,?,0.0,0.0,1328.0,801.0,801.0,12.0,4049.648120300752,0.0,1.0192854405618088
4900000.0,49.625,2.946729289962807E-5,4900000.0,91.2,81.07819864451096,80.5739514348786,75.00000000000001,2933200.0,3374728.0,0.0,1.0,0.0,?,0.0,0.0,1352.0,816.0,816.0,12.0,4049.648120300752,0.0,1.0192854405618088
5000000.0,50.75,3.048319353385725E-5,5000000.0,91.5,82.07688804169972,82.4016563146998,78.14910025706942,2993200.0,3424328.0,0.0,1.0,0.0,?,0.0,0.0,1383.0,833.0,833.0,12.0,4049.648120300752,0.0,1.0192854405618088
5100000.0,51.96875,3.057626758365788E-5,5100000.0,83.5,66.93254238646838,67.0,65.83850931677017,58840.0,182584.0,0.0,1.0,0.0,?,1.0,14.0,58.0,43.0,43.0,4.0,0.0,0.0,1.0
5200000.0,52.890625,3.071206172333202E-5,5200000.0,86.2,72.27891429765214,72.99412915851272,70.88607594936708,118840.0,471016.0,0.0,1.0,0.0,?,0.0,0.0,161.0,114.0,114.0,5.0,0.0,0.0,1.0
5300000.0,53.765625,3.088621826868297E-5,5300000.0,89.60000000000001,79.11478833641257,79.56777996070727,77.91932059447984,178840.0,685480.0,0.0,1.0,0.0,?,0.0,0.0,234.0,164.0,164.0,5.0,0.0,0.0,1.0
5400000.0,54.65625,3.1105663672658714E-5,5400000.0,91.5,82.94104424892429,83.33333333333334,82.02959830866808,238840.0,883072.0,0.0,1.0,0.0,?,0.0,0.0,305.0,213.0,213.0,6.0,0.0,0.0,1.0
5500000.0,55.53125,3.1329428149749416E-5,5500000.0,92.5,84.99987999903999,85.65965583173997,85.02994011976048,298840.0,934176.0,0.0,1.0,0.0,?,0.0,0.0,325.0,226.0,226.0,6.0,0.0,0.0,1.0
5600000.0,56.375,3.157715529798426E-5,5600000.0,91.8,83.55124589282634,84.32122370936904,82.95218295218297,358540.0,1019432.0,0.0,1.0,0.0,?,0.0,0.0,358.0,247.0,247.0,6.0,0.0,0.0,1.0
5700000.0,57.28125,3.1875612621661275E-5,5700000.0,92.2,84.39700422481117,84.24242424242425,84.14634146341464,418540.0,1172104.0,0.0,1.0,0.0,?,0.0,0.0,421.0,286.0,286.0,6.0,0.0,0.0,1.0
5800000.0,58.203125,3.2219627367643015E-5,5800000.0,92.9,85.74732210249081,85.36082474226805,84.95762711864407,478540.0,1356144.0,0.0,1.0,0.0,?,0.0,0.0,495.0,338.0,338.0,6.0,0.0,0.0,1.0
5900000.0,59.140625,3.26339320357268E-5,5900000.0,92.9,85.58305379348437,86.21359223300972,83.97291196388262,538540.0,1636232.0,0.0,1.0,0.0,?,0.0,0.0,584.0,402.0,402.0,7.0,0.0,0.0,1.0
6000000.0,60.0625,3.3054679418758794E-5,6000000.0,94.8,89.59213165152855,89.4736842105263,89.40936863543787,598540.0,1707192.0,0.0,1.0,0.0,?,0.0,0.0,609.0,419.0,419.0,7.0,0.0,0.0,1.0
6100000.0,61.046875,3.3572237201345456E-5,6100000.0,94.6,89.09971740008073,88.95705521472391,87.99999999999999,658240.0,1913616.0,0.0,1.0,0.0,?,0.0,0.0,681.0,467.0,467.0,7.0,0.0,0.0,1.0
6200000.0,62.015625,3.4109155595716495E-5,6200000.0,94.6,89.19762347716497,89.34911242603549,88.51063829787233,718240.0,2038392.0,0.0,1.0,0.0,?,0.0,0.0,737.0,504.0,504.0,7.0,0.0,0.0,1.0
6300000.0,63.0,3.4688092192583195E-5,6300000.0,95.0,89.9989198833474,90.34749034749035,89.73305954825462,778240.0,2183936.0,0.0,1.0,0.0,?,0.0,0.0,795.0,539.0,539.0,7.0,0.0,0.0,1.0
6400000.0,63.953125,3.5276479191250264E-5,6400000.0,95.7,91.38117648945295,91.22448979591836,90.92827004219409,838240.0,2311504.0,0.0,1.0,0.0,?,0.0,0.0,839.0,567.0,567.0,7.0,0.0,0.0,1.0
6500000.0,64.921875,3.5889639079363805E-5,6500000.0,96.39999999999999,92.77410238294046,92.63803680981594,92.3076923076923,898240.0,2386768.0,0.0,1.0,0.0,?,0.0,0.0,870.0,587.0,587.0,7.0,0.0,0.0,1.0
6600000.0,65.90625,3.654833676086531E-5,6600000.0,96.6,93.18822926016155,93.4108527131783,92.85714285714285,957940.0,2465608.0,0.0,1.0,0.0,?,0.0,0.0,902.0,606.0,606.0,7.0,0.0,0.0,1.0
6700000.0,67.0,3.7286871358648764E-5,6700000.0,95.89999999999999,91.78876703330154,91.78356713426852,91.47609147609147,1017940.0,2504064.0,0.0,1.0,0.0,?,0.0,0.0,922.0,616.0,616.0,8.0,3985.6156351791533,0.0,1.0152862410753982
6800000.0,68.015625,3.798841595804939E-5,6800000.0,96.3,92.58279207762007,92.75929549902152,92.14437367303609,1077940.0,2578912.0,0.0,1.0,0.0,?,0.0,0.0,954.0,635.0,635.0,8.0,3985.6156351791533,0.0,1.0152862410753982
6900000.0,69.0,3.867797213994587E-5,6900000.0,96.5,93.0,92.5053533190578,93.0417495029821,1137940.0,2631552.0,0.0,1.0,0.0,?,0.0,0.0,975.0,647.0,647.0,8.0,3985.6156351791533,0.0,1.0152862410753982
7000000.0,69.984375,3.937029289469743E-5,7000000.0,96.7,93.3737068688556,93.02325581395348,92.9637526652452,1197940.0,2657456.0,0.0,1.0,0.0,?,0.0,0.0,989.0,654.0,654.0,8.0,3985.6156351791533,0.0,1.0152862410753982
7100000.0,70.96875,4.0094122038378066E-5,7100000.0,96.6,93.18568994889267,93.21357285429141,92.84210526315789,1257640.0,2719912.0,0.0,1.0,0.0,?,0.0,0.0,1023.0,674.0,674.0,8.0,3985.6156351791533,0.0,1.0152862410753982
7200000.0,71.953125,4.0825480925074466E-5,7200000.0,95.8,91.59344288545064,91.30434782608695,91.41104294478527,1317640.0,2764472.0,0.0,1.0,0.0,?,0.0,0.0,1035.0,680.0,680.0,8.0,3985.6156351791533,0.0,1.0152862410753982
7300000.0,72.96875,4.159921256359666E-5,7300000.0,95.6,91.12520321267642,90.77568134171908,90.24390243902438,1377640.0,2852184.0,0.0,1.0,0.0,?,0.0,0.0,1078.0,706.0,706.0,8.0,3985.6156351791533,0.0,1.0152862410753982
7400000.0,73.953125,4.23661115928553E-5,7400000.0,96.7,93.3667275051659,93.45238095238095,92.93361884368308,1437640.0,2933736.0,0.0,1.0,0.0,?,0.0,0.0,1107.0,725.0,725.0,8.0,3985.6156351791533,0.0,1.0152862410753982
7500000.0,74.953125,4.3158549136326955E-5,7500000.0,97.6,95.19725282861796,95.38461538461537,95.07186858316221,1497640.0,3000296.0,0.0,1.0,0.0,?,0.0,0.0,1137.0,743.0,743.0,8.0,3985.6156351791533,0.0,1.0152862410753982
7600000.0,75.984375,4.4011990442716824E-5,7600000.0,97.39999999999999,94.78801242858574,94.6611909650924,94.52631578947368,1557340.0,3074984.0,0.0,1.0,0.0,?,0.0,0.0,1171.0,763.0,763.0,8.0,3985.6156351791533,0.0,1.0152862410753982
7700000.0,77.0,4.486856597294617E-5,7700000.0,97.7,95.3966487602975,95.16806722689076,95.26748971193415,1617340.0,3150976.0,0.0,1.0,0.0,?,0.0,0.0,1205.0,783.0,783.0,8.0,3985.6156351791533,0.0,1.0152862410753982
7800000.0,78.0,4.57210717528748E-5,7800000.0,97.1,94.19698243086404,94.64944649446491,94.08163265306122,1677340.0,3201144.0,0.0,1.0,0.0,?,0.0,0.0,1217.0,789.0,789.0,9.0,3985.6156351791533,0.0,1.0152862410753982
7900000.0,79.015625,4.658812967439492E-5,7900000.0,97.7,95.37673573421456,95.51656920077973,95.03239740820733,1737340.0,3220920.0,0.0,1.0,0.0,?,0.0,0.0,1236.0,800.0,800.0,9.0,3985.6156351791533,0.0,1.0152862410753982
8000000.0,80.015625,4.746106453239917E-5,8000000.0,97.89999999999999,95.80006719892481,95.8,95.83333333333333,1797340.0,3310064.0,0.0,1.0,0.0,?,0.0,0.0,1265.0,819.0,819.0,9.0,3985.6156351791533,0.0,1.0152862410753982
8100000.0,81.015625,4.835972872873147E-5,8100000.0,96.8,93.59997439989759,93.6127744510978,93.46938775510203,1857040.0,3348344.0,0.0,1.0,0.0,?,0.0,0.0,1281.0,827.0,827.0,9.0,3985.6156351791533,0.0,1.0152862410753982
8200000.0,82.03125,4.927807616897755E-5,8200000.0,97.0,93.95940721649484,93.91480730223122,93.44978165938865,1917040.0,3384880.0,0.0,1.0,0.0,?,0.0,0.0,1294.0,835.0,835.0,9.0,3985.6156351791533,0.0,1.0152862410753982
8300000.0,83.03125,5.019249627366662E-5,8300000.0,97.6,95.16915991690954,95.11201629327903,94.8051948051948,1977040.0,3439336.0,0.0,1.0,0.0,?,0.0,0.0,1319.0,852.0,852.0,9.0,3985.6156351791533,0.0,1.0152862410753982
8400000.0,84.171875,5.124633497972455E-5,8400000.0,96.1,92.18831371732111,91.71974522292993,91.63090128755364,2037040.0,3490928.0,0.0,1.0,0.0,?,0.0,0.0,1350.0,869.0,869.0,9.0,3961.173457508731,0.0,1.017153699119039
8500000.0,85.171875,5.218447276598049E-5,8500000.0,97.5,94.94663648124191,94.824016563147,94.46902654867256,2097040.0,3560792.0,0.0,1.0,0.0,?,0.0,0.0,1373.0,882.0,882.0,9.0,3961.173457508731,0.0,1.017153699119039
8600000.0,86.203125,5.31834955068512E-5,8600000.0,97.7,95.39170506912443,95.22821576763485,95.20833333333333,2156740.0,3618024.0,0.0,1.0,0.0,?,0.0,0.0,1402.0,898.0,898.0,9.0,3961.173457508731,0.0,1.017153699119039
8700000.0,87.25,5.4209777186366E-5,8700000.0,96.7,93.39894383101296,93.37349397590361,93.30628803245435,2216740.0,3677640.0,0.0,1.0,0.0,?,0.0,0.0,1435.0,916.0,916.0,9.0,3961.173457508731,0.0,1.017153699119039
8800000.0,88.296875,5.525181451553685E-5,8800000.0,96.8,93.5994623548378,93.52226720647772,93.56136820925552,2276740.0,3750640.0,0.0,1.0,0.0,?,0.0,0.0,1464.0,932.0,932.0,9.0,3961.173457508731,0.0,1.017153699119039
8900000.0,89.34375,5.6308411520957526E-5,8900000.0,96.8,93.54601890209713,93.45603271983639,92.87305122494432,2336740.0,3819232.0,0.0,1.0,0.0,?,0.0,0.0,1506.0,956.0,956.0,9.0,3961.173457508731,0.0,1.017153699119039
9000000.0,90.375,5.735831551848807E-5,9000000.0,98.5,96.99687675182189,97.01195219123507,96.91991786447637,2396740.0,3868176.0,0.0,1.0,0.0,?,0.0,0.0,1524.0,965.0,965.0,9.0,3961.173457508731,0.0,1.017153699119039
9100000.0,91.421875,5.845442947853977E-5,9100000.0,98.1,96.15767292494115,96.23762376237623,95.7683741648107,2456440.0,3918872.0,0.0,1.0,0.0,?,0.0,0.0,1543.0,976.0,976.0,9.0,3961.173457508731,0.0,1.017153699119039
9200000.0,92.46875,5.956261367019679E-5,9200000.0,98.6,97.1837332432128,97.26027397260275,96.96969696969695,2516440.0,3978384.0,0.0,1.0,0.0,?,0.0,0.0,1569.0,992.0,992.0,9.0,3961.173457508731,0.0,1.017153699119039
9300000.0,93.515625,6.067657406674697E-5,9300000.0,97.2,94.39504521997445,94.06779661016948,94.20289855072464,2576440.0,4014704.0,0.0,1.0,0.0,?,0.0,0.0,1585.0,1000.0,1000.0,9.0,3961.173457508731,0.0,1.017153699119039
9400000.0,94.578125,6.181040419808899E-5,9400000.0,97.0,93.97251466688097,94.24184261036469,93.61702127659574,2636440.0,4041576.0,0.0,1.0,0.0,?,0.0,0.0,1604.0,1011.0,1011.0,10.0,3961.173457508731,0.0,1.017153699119039
9500000.0,95.65625,6.297497214594234E-5,9500000.0,97.6,95.17930959678942,94.70198675496688,94.90445859872611,2696440.0,4106880.0,0.0,1.0,0.0,?,0.0,0.0,1620.0,1019.0,1019.0,10.0,3961.173457508731,0.0,1.017153699119039
9600000.0,96.671875,6.409485601276779E-5,9600000.0,97.6,95.19907822301882,95.42857142857143,95.1219512195122,2756140.0,4132792.0,0.0,1.0,0.0,?,0.0,0.0,1638.0,1028.0,1028.0,10.0,3961.173457508731,0.0,1.017153699119039
9700000.0,97.703125,6.523676885990425E-5,9700000.0,98.1,96.19957435232746,96.19238476953907,96.05809128630705,2816140.0,4165816.0,0.0,1.0,0.0,?,0.0,0.0,1659.0,1040.0,1040.0,10.0,3961.173457508731,0.0,1.017153699119039
9800000.0,98.734375,6.639303047753248E-5,9800000.0,98.4,96.77938808373591,96.79358717434869,96.52173913043478,2876140.0,4234464.0,0.0,1.0,0.0,?,0.0,0.0,1682.0,1053.0,1053.0,10.0,3961.173457508731,0.0,1.017153699119039
9900000.0,99.8125,6.760608220550541E-5,9900000.0,97.6,95.1930780323666,95.3125,95.0207468879668,2936140.0,4264712.0,0.0,1.0,0.0,?,0.0,0.0,1704.0,1067.0,1067.0,10.0,3961.173457508731,0.0,1.017153699119039
1.0E7,100.875,6.880821191265971E-5,1.0E7,98.4,96.79069300972822,96.83168316831683,96.63157894736841,2996140.0,4303944.0,0.0,1.0,0.0,?,0.0,0.0,1712.0,1071.0,1071.0,10.0,3961.173457508731,0.0,1.017153699119039
