learning evaluation instances,evaluation time (cpu seconds),model cost (RAM-Hours),classified instances,classifications correct (percent),Kappa Statistic (percent),Kappa Temporal Statistic (percent),Kappa M Statistic (percent),model training instances,model serialized size (bytes),labeling cost,newThreshold,maxPosterior,accuracyBaseLearner (percent),Change detected,Warning detected
100000.0,0.15625,6.815470341179106E-9,100000.0,65.7,18.503312139442507,26.236559139784948,7.046070460704613,29700.0,9208.0,0.0,1.0,0.0,?,0.0,32.0
200000.0,0.328125,1.3636632098091974E-8,200000.0,63.7,14.207924068104266,25.918367346938776,2.156334231805932,59700.0,9208.0,0.0,1.0,0.0,?,0.0,118.0
300000.0,0.484375,1.9213249389496115E-8,300000.0,64.7,18.928105535855373,28.68686868686869,9.948979591836743,89700.0,9208.0,0.0,1.0,0.0,?,0.0,34.0
400000.0,0.640625,2.4185477135082086E-8,400000.0,60.6,17.05437780257258,13.406593406593394,-3.412073490813651,119700.0,9208.0,0.0,1.0,0.0,?,0.0,0.0
500000.0,0.8125,2.8839632351365354E-8,500000.0,64.4,14.665541658077283,24.093816631130064,4.043126684636123,6835.0,9208.0,0.0,1.0,0.0,?,2.0,1.0
600000.0,0.96875,3.245626834945546E-8,600000.0,64.5,16.302799966049587,25.73221757322176,5.08021390374332,6454.0,9208.0,0.0,1.0,0.0,?,1.0,66.0
700000.0,1.140625,3.589815201444758E-8,700000.0,66.2,19.615677321156774,22.831050228310502,6.111111111111116,36454.0,9208.0,0.0,1.0,0.0,?,0.0,19.0
800000.0,1.296875,3.82859596154756E-8,800000.0,64.60000000000001,14.583534407875698,24.680851063829788,2.2099447513812174,46672.0,9208.0,0.0,1.0,0.0,?,1.0,0.0
900000.0,1.453125,4.0059353017972575E-8,900000.0,65.60000000000001,16.348922262858913,22.86995515695067,2.8248587570621497,76672.0,9208.0,0.0,1.0,0.0,?,0.0,0.0
1000000.0,1.59375,4.110243430154191E-8,1000000.0,65.10000000000001,18.90887123007575,28.336755646817252,8.63874345549739,106672.0,9208.0,0.0,1.0,0.0,?,0.0,0.0
1100000.0,1.75,4.779728543427255E-8,1100000.0,61.7,20.141784820683906,19.198312236286917,-0.789473684210527,136372.0,9208.0,0.0,1.0,0.0,?,0.0,0.0
1200000.0,1.921875,5.448576606189211E-8,1200000.0,65.0,20.005119672340978,27.685950413223143,9.32642487046633,166372.0,9208.0,0.0,1.0,0.0,?,0.0,0.0
1300000.0,2.078125,5.995178879756067E-8,1300000.0,64.5,16.60950698600919,23.326133909287254,5.835543766578255,196372.0,9208.0,0.0,1.0,0.0,?,0.0,0.0
1400000.0,2.234375,6.480339733469817E-8,1400000.0,64.5,19.365829282696588,26.501035196687372,10.579345088161219,226372.0,9208.0,0.0,1.0,0.0,?,0.0,0.0
1500000.0,2.390625,6.904059167330464E-8,1500000.0,65.3,20.506922999386056,27.55741127348643,9.162303664921474,256372.0,9208.0,0.0,1.0,0.0,?,0.0,0.0
1600000.0,2.546875,7.266337181338005E-8,1600000.0,63.800000000000004,24.130328167768393,23.14225053078556,8.816120906801014,286372.0,9208.0,0.0,1.0,0.0,?,0.0,0.0
1700000.0,2.671875,7.507006456661555E-8,1700000.0,64.7,14.063412924083677,27.066115702479344,1.1204481792717098,316372.0,9208.0,0.0,1.0,0.0,?,0.0,0.0
1800000.0,2.828125,7.746401630962887E-8,1800000.0,64.5,17.821030408533662,22.31947483588621,9.2071611253197,346372.0,9208.0,0.0,1.0,0.0,?,0.0,0.0
1900000.0,2.96875,7.906560009966294E-8,1900000.0,66.10000000000001,18.50256272177401,24.666666666666668,5.571030640668529,376372.0,9208.0,0.0,1.0,0.0,?,0.0,0.0
2000000.0,3.09375,7.999769877642393E-8,2000000.0,64.2,19.658886894075405,27.08757637474542,10.500000000000009,406372.0,9208.0,0.0,1.0,0.0,?,0.0,0.0
2100000.0,3.25,8.669869405113988E-8,2100000.0,62.9,15.489749430523931,18.99563318777292,7.250000000000006,436072.0,9208.0,0.0,1.0,0.0,?,0.0,0.0
2200000.0,3.390625,9.21766170197063E-8,2200000.0,65.5,20.28945325496285,31.000000000000007,12.87878787878789,466072.0,9208.0,0.0,1.0,0.0,?,0.0,0.0
2300000.0,3.53125,9.710156720959476E-8,2300000.0,68.0,21.07534837834506,25.925925925925945,7.24637681159421,496072.0,9208.0,0.0,1.0,0.0,?,0.0,0.0
2400000.0,3.671875,1.014735446208053E-7,2400000.0,66.60000000000001,20.993868745742198,26.914660831509853,8.24175824175825,526072.0,9208.0,0.0,1.0,0.0,?,0.0,0.0
2500000.0,3.828125,1.0571688310139708E-7,2500000.0,64.0,12.413873642415057,22.413793103448274,1.6393442622950833,556072.0,9208.0,0.0,1.0,0.0,?,0.0,0.0
2600000.0,3.984375,1.093458073834578E-7,2600000.0,65.9,19.01468660346169,30.122950819672134,7.336956521739137,586072.0,9208.0,0.0,1.0,0.0,?,0.0,0.0
2700000.0,4.140625,1.123603174669875E-7,2700000.0,65.3,16.881449472544528,24.40087145969499,4.143646408839783,616072.0,9208.0,0.0,1.0,0.0,?,0.0,0.0
2800000.0,4.28125,1.1452040376348626E-7,2800000.0,62.9,15.575904316324108,19.87041036717062,3.38541666666667,646072.0,9208.0,0.0,1.0,0.0,?,0.0,0.0
2900000.0,4.421875,1.161275172813071E-7,2900000.0,62.9,21.14369277072582,21.729957805907173,1.8518518518518534,676072.0,9208.0,0.0,1.0,0.0,?,0.0,0.0
3000000.0,4.578125,1.1729878476924365E-7,3000000.0,62.7,21.458471956673712,19.61206896551724,1.0610079575596827,706072.0,9208.0,0.0,1.0,0.0,?,0.0,0.0
3100000.0,4.71875,1.2333521024427478E-7,3100000.0,65.4,15.55661855509076,23.451327433628315,1.9830028328611915,735772.0,9208.0,0.0,1.0,0.0,?,0.0,0.0
3200000.0,4.859375,1.2881866294062797E-7,3200000.0,65.3,19.034196968565666,23.230088495575217,6.720430107526888,765772.0,9208.0,0.0,1.0,0.0,?,0.0,0.0
3300000.0,5.015625,1.3429697396026715E-7,3300000.0,64.7,16.97633943271086,25.52742616033755,4.851752021563346,795772.0,9208.0,0.0,1.0,0.0,?,0.0,0.0
3400000.0,5.15625,1.3867448109926447E-7,3400000.0,65.4,17.551911318263922,27.15789473684211,4.155124653739616,825772.0,9208.0,0.0,1.0,0.0,?,0.0,0.0
3500000.0,5.3125,1.4292396372184155E-7,3500000.0,65.9,20.96162582631029,23.88392857142857,9.788359788359797,855772.0,9208.0,0.0,1.0,0.0,?,0.0,0.0
3600000.0,5.453125,1.4619552530348298E-7,3600000.0,68.0,22.642531136381212,32.05944798301486,10.614525139664813,885772.0,9208.0,0.0,1.0,0.0,?,0.0,0.0
3700000.0,5.59375,1.4891411410644647E-7,3700000.0,60.5,15.663165086685451,12.222222222222209,-9.72222222222223,915772.0,9208.0,0.0,1.0,0.0,?,0.0,0.0
3800000.0,5.75,1.5132035413343042E-7,3800000.0,64.2,17.469304575151348,24.312896405919663,6.52741514360314,945772.0,9208.0,0.0,1.0,0.0,?,0.0,0.0
3900000.0,5.890625,1.5293299737903803E-7,3900000.0,64.60000000000001,17.909236370382402,24.358974358974358,8.05194805194806,975772.0,9208.0,0.0,1.0,0.0,?,0.0,0.0
4000000.0,6.015625,1.5387492668297552E-7,4000000.0,64.9,19.314054526228677,23.695652173913043,9.067357512953375,1005772.0,9208.0,0.0,1.0,0.0,?,0.0,0.0
4100000.0,6.171875,1.605882102416621E-7,4100000.0,63.9,17.09535182803602,22.030237580993518,5.000000000000004,1035472.0,9208.0,0.0,1.0,0.0,?,0.0,0.0
4200000.0,6.328125,1.6668707960181763E-7,4200000.0,67.60000000000001,21.933354215357916,31.501057082452437,8.732394366197191,1065472.0,9208.0,0.0,1.0,0.0,?,0.0,0.0
4300000.0,6.46875,1.7162308924727968E-7,4300000.0,63.800000000000004,18.487561472087634,25.051759834368532,9.045226130653274,1095472.0,9208.0,0.0,1.0,0.0,?,0.0,0.0
4400000.0,6.609375,1.760061261140638E-7,4400000.0,65.4,16.217891596606083,28.659793814432994,1.7045454545454561,1125472.0,9208.0,0.0,1.0,0.0,?,0.0,0.0
4500000.0,6.78125,1.8068731555508244E-7,4500000.0,66.3,20.21326969335379,29.497907949790797,10.372340425531924,1155472.0,9208.0,0.0,1.0,0.0,?,0.0,0.0
4600000.0,6.921875,1.8396440686451066E-7,4600000.0,59.4,14.671464119981165,12.875536480686684,-8.556149732620328,1185472.0,9208.0,0.0,1.0,0.0,?,0.0,0.0
4700000.0,7.09375,1.8729388506876099E-7,4700000.0,65.60000000000001,17.967110534549217,21.995464852607707,3.9106145251396685,1215472.0,9208.0,0.0,1.0,0.0,?,0.0,0.0
4800000.0,7.25,1.8970626923773024E-7,4800000.0,62.3,12.453440092144499,21.621621621621617,0.0,1245472.0,9208.0,0.0,1.0,0.0,?,0.0,0.0
4900000.0,7.375,1.9114464521408082E-7,4900000.0,67.30000000000001,20.622590762120254,29.373650107991367,9.668508287292827,1275472.0,9208.0,0.0,1.0,0.0,?,0.0,0.0
5000000.0,7.53125,1.924216566193435E-7,5000000.0,65.9,16.966981591506762,27.4468085106383,3.9436619718309895,1305472.0,9208.0,0.0,1.0,0.0,?,0.0,0.0
5100000.0,7.6875,1.9923453995337089E-7,5100000.0,46.9,-0.5918056513272297,-7.489878542510128,-16.960352422907505,1335172.0,9208.0,0.0,1.0,0.0,?,0.0,0.0
5200000.0,7.84375,2.0543300908886725E-7,5200000.0,48.8,0.21671681816055788,-4.27698574338086,-7.112970711297077,1365172.0,9208.0,0.0,1.0,0.0,?,0.0,0.0
5300000.0,8.0,2.1101706402583256E-7,5300000.0,47.199999999999996,-0.3374988598011704,-6.882591093117416,-15.789473684210542,1395172.0,9208.0,0.0,1.0,0.0,?,0.0,0.0
5400000.0,8.140625,2.154897406904234E-7,5400000.0,47.0,-0.15117157974302317,-8.384458077709619,-17.777777777777796,1425172.0,9208.0,0.0,1.0,0.0,?,0.0,0.0
5500000.0,8.296875,2.198449672303266E-7,5500000.0,46.0,-2.2417449257800595,-10.20408163265306,-18.421052631578952,1455172.0,9208.0,0.0,1.0,0.0,?,0.0,0.0
5600000.0,8.46875,2.23959860805836E-7,5600000.0,46.9,-1.7880967351132735,-11.320754716981142,-14.439655172413806,1485172.0,9208.0,0.0,1.0,0.0,?,0.0,0.0
5700000.0,8.609375,2.26773619134393E-7,5700000.0,46.6,-0.283573400439447,-11.018711018711018,-20.54176072234764,1515172.0,9208.0,0.0,1.0,0.0,?,0.0,0.0
5800000.0,8.765625,2.292856030787031E-7,5800000.0,48.6,3.2015065913370826,-5.54414784394251,-14.222222222222236,1545172.0,9208.0,0.0,1.0,0.0,?,0.0,0.0
5900000.0,8.921875,2.3118317282448213E-7,5900000.0,49.8,2.6769650722749523,1.5686274509803935,-5.907172995780597,1575172.0,9208.0,0.0,1.0,0.0,?,0.0,0.0
6000000.0,9.0625,2.3233801281700533E-7,6000000.0,46.800000000000004,-1.7188963882143742,-9.240246406570838,-15.401301518438181,1605172.0,9208.0,0.0,1.0,0.0,?,0.0,0.0
6100000.0,9.21875,2.39157040293018E-7,6100000.0,47.3,0.45936022000935617,-5.400000000000005,-17.63392857142859,1634872.0,9208.0,0.0,1.0,0.0,?,0.0,0.0
6200000.0,9.375,2.453616535704997E-7,6200000.0,48.8,2.310956436792128,-9.168443496801714,-12.280701754385976,1664872.0,9208.0,0.0,1.0,0.0,?,0.0,0.0
6300000.0,9.53125,2.5095185264945034E-7,6300000.0,49.0,0.295984078637136,-5.371900826446286,-6.029106029106035,1694872.0,9208.0,0.0,1.0,0.0,?,0.0,0.0
6400000.0,9.671875,2.55430059041828E-7,6400000.0,46.7,-4.06497715646843,-5.1282051282051215,-11.27348643006263,1724872.0,9208.0,0.0,1.0,0.0,?,0.0,0.0
6500000.0,9.828125,2.597914297237165E-7,6500000.0,49.0,1.497622423003961,-1.3916500994035799,-9.207708779443264,1754872.0,9208.0,0.0,1.0,0.0,?,0.0,0.0
6600000.0,9.984375,2.63538386207074E-7,6600000.0,45.6,-2.214522729578707,-8.799999999999997,-23.356009070294796,1784872.0,9208.0,0.0,1.0,0.0,?,0.0,0.0
6700000.0,10.140625,2.6667092849190043E-7,6700000.0,47.699999999999996,-1.4352211016291732,-6.51731160896131,-10.105263157894747,1814872.0,9208.0,0.0,1.0,0.0,?,0.0,0.0
6800000.0,10.265625,2.6868543096093675E-7,6800000.0,47.4,-1.1600713890085617,-4.365079365079369,-12.393162393162404,1844872.0,9208.0,0.0,1.0,0.0,?,0.0,0.0
6900000.0,10.421875,2.705891448487011E-7,6900000.0,49.4,2.8399162810345766,-0.7968127490039847,-8.817204301075279,1874872.0,9208.0,0.0,1.0,0.0,?,0.0,0.0
7000000.0,10.578125,2.7187844453793436E-7,7000000.0,49.6,1.0239309995404673,-3.703703703703707,-4.347826086956526,1904872.0,9208.0,0.0,1.0,0.0,?,0.0,0.0
7100000.0,10.71875,2.7802109899413256E-7,7100000.0,50.5,6.260652198613791,1.1976047904191627,-9.030837004405296,1934572.0,9208.0,0.0,1.0,0.0,?,0.0,0.0
7200000.0,10.875,2.842318564135995E-7,7200000.0,50.3,5.716215293323114,1.5841584158415856,-8.51528384279477,1964572.0,9208.0,0.0,1.0,0.0,?,0.0,0.0
7300000.0,11.046875,2.905272736421062E-7,7300000.0,47.099999999999994,-0.6430501122484018,-12.553191489361716,-15.50218340611355,1994572.0,9208.0,0.0,1.0,0.0,?,0.0,1.0
7400000.0,11.203125,2.9563596601494483E-7,7400000.0,46.2,-1.0780405138822649,-10.472279260780287,-21.444695259593686,2024572.0,9208.0,0.0,1.0,0.0,?,0.0,0.0
7500000.0,11.375,3.0057967200668323E-7,7500000.0,45.2,-2.628257229861076,-9.381237524950096,-22.048997772828518,2054572.0,9208.0,0.0,1.0,0.0,?,0.0,0.0
7600000.0,11.546875,3.0484752238003747E-7,7600000.0,45.800000000000004,-5.009047827552667,-5.65302144249512,-14.587737843551798,2084572.0,9208.0,0.0,1.0,0.0,?,0.0,0.0
7700000.0,11.703125,3.08112972157283E-7,7700000.0,48.1,-0.2046569100668041,-2.7722772277227747,-10.425531914893627,2114572.0,9208.0,0.0,1.0,0.0,?,0.0,0.0
7800000.0,11.875,3.1102911129386893E-7,7800000.0,49.8,2.235344065373782,-2.448979591836737,-5.241090146750529,2144572.0,9208.0,0.0,1.0,0.0,?,0.0,0.0
7900000.0,12.015625,3.12862070536034E-7,7900000.0,49.8,2.4344736709126527,-3.933747412008285,-6.131078224101485,2174572.0,9208.0,0.0,1.0,0.0,?,0.0,0.0
8000000.0,12.1875,3.1442649843585165E-7,8000000.0,46.6,-1.3455808392325037,-9.87654320987654,-17.36263736263737,2204572.0,9208.0,0.0,1.0,0.0,?,0.0,0.0
8100000.0,12.34375,3.2138457754626877E-7,8100000.0,46.0,-3.3061803878955915,-10.429447852760735,-16.630669546436287,2234272.0,9208.0,0.0,1.0,0.0,?,0.0,0.0
8200000.0,12.515625,3.2836260894934346E-7,8200000.0,48.199999999999996,-0.5696357360027632,0.3846153846153849,-9.513742071881616,2264272.0,9208.0,0.0,1.0,0.0,?,0.0,0.0
8300000.0,12.6875,3.34664784734034E-7,8300000.0,50.3,0.9447124008450526,1.1928429423459255,-0.2016129032258066,2294272.0,9208.0,0.0,1.0,0.0,?,0.0,0.0
8400000.0,12.859375,3.4029110490034035E-7,8400000.0,46.400000000000006,-1.8992034371970112,-9.387755102040813,-17.80219780219781,2324272.0,9208.0,0.0,1.0,0.0,?,0.0,0.0
8500000.0,13.015625,3.4479152721663327E-7,8500000.0,46.300000000000004,-2.2467631378522537,-7.831325301204815,-15.98272138228942,2354272.0,9208.0,0.0,1.0,0.0,?,0.0,0.0
8600000.0,13.1875,3.490661361461713E-7,8600000.0,47.9,1.3369692837934999,-1.1650485436893214,-14.757709251101335,2384272.0,9208.0,0.0,1.0,0.0,?,0.0,0.0
8700000.0,13.328125,3.5201057067347906E-7,8700000.0,48.1,1.8183469160745414,-0.5813953488372098,-14.317180616740103,2414272.0,9208.0,0.0,1.0,0.0,?,0.0,0.0
8800000.0,13.515625,3.551991863383188E-7,8800000.0,46.5,-1.7040658814225698,-13.347457627118645,-17.841409691629963,2444272.0,9208.0,0.0,1.0,0.0,?,0.0,0.0
8900000.0,13.671875,3.5724195186048756E-7,8900000.0,46.400000000000006,-1.0371386885530318,-8.064516129032254,-19.376391982182632,2474272.0,9208.0,0.0,1.0,0.0,?,0.0,0.0
9000000.0,13.828125,3.586703031841253E-7,9000000.0,46.7,0.01125576858139881,-5.753968253968248,-20.588235294117656,2504272.0,9208.0,0.0,1.0,0.0,?,0.0,0.0
9100000.0,14.0,3.6633094876176793E-7,9100000.0,51.5,4.130493223903732,6.189555125725344,0.8179959100204507,2533972.0,9208.0,0.0,1.0,0.0,?,0.0,0.0
9200000.0,14.171875,3.7331573872102643E-7,9200000.0,52.900000000000006,9.983258032704184,4.46247464503043,-1.7278617710583168,2563972.0,9208.0,0.0,1.0,0.0,?,0.0,0.0
9300000.0,14.328125,3.790511335763668E-7,9300000.0,54.800000000000004,13.602948203820578,10.139165009940367,1.952277657266813,2593972.0,9208.0,0.0,1.0,0.0,?,0.0,0.0
9400000.0,14.453125,3.831479181018142E-7,9400000.0,54.800000000000004,13.682803399217033,7.377049180327876,1.0940919037199135,2623972.0,9208.0,0.0,1.0,0.0,?,0.0,0.0
9500000.0,14.609375,3.8765448456009246E-7,9500000.0,54.900000000000006,16.96859903381643,10.515873015873026,-5.128205128205106,2653972.0,9208.0,0.0,1.0,0.0,?,0.0,0.0
9600000.0,14.765625,3.9154663681983965E-7,9600000.0,54.300000000000004,11.102638520374423,11.262135922330106,4.192872117400423,2683972.0,9208.0,0.0,1.0,0.0,?,0.0,0.0
9700000.0,14.9375,3.951521486871774E-7,9700000.0,53.800000000000004,10.564950752648219,5.327868852459021,1.9108280254777086,2713972.0,9208.0,0.0,1.0,0.0,?,0.0,0.0
9800000.0,15.09375,3.978154725498625E-7,9800000.0,53.300000000000004,9.287273800921515,6.22489959839358,2.0964360587002115,2743972.0,9208.0,0.0,1.0,0.0,?,0.0,0.0
9900000.0,15.265625,4.0006927318043196E-7,9900000.0,53.5,10.428095913209635,7.000000000000006,0.6410256410256416,2773972.0,9208.0,0.0,1.0,0.0,?,0.0,0.0
1.0E7,15.421875,4.0150376864605495E-7,1.0E7,56.699999999999996,15.029396296616069,14.763779527559045,3.5634743875278185,2803972.0,9208.0,0.0,1.0,0.0,?,0.0,0.0
