learning evaluation instances,evaluation time (cpu seconds),model cost (RAM-Hours),classified instances,classifications correct (percent),Kappa Statistic (percent),Kappa Temporal Statistic (percent),Kappa M Statistic (percent),model training instances,model serialized size (bytes),labeling cost,newThreshold,maxPosterior,accuracyBaseLearner (percent),Change detected,Warning detected
100000.0,0.140625,7.657217793166638E-10,100000.0,68.10000000000001,37.22746091966691,33.817427385892124,21.62162162162164,10881.0,7320.0,0.0,1.0,0.0,?,1.0,34.0
200000.0,0.28125,1.5279510989785194E-9,200000.0,68.5,37.661289045802135,34.10041841004185,29.687500000000007,29063.0,7320.0,0.0,1.0,0.0,?,0.0,0.0
300000.0,0.40625,2.2023838634292284E-9,300000.0,69.69999999999999,40.52292713567838,39.88095238095237,27.857142857142854,47245.0,7320.0,0.0,1.0,0.0,?,0.0,0.0
400000.0,0.546875,2.957628263781468E-9,400000.0,65.2,31.843019589256283,31.764705882352946,19.63048498845267,65427.0,7320.0,0.0,1.0,0.0,?,0.0,0.0
500000.0,0.6875,3.7093802044788996E-9,500000.0,69.5,39.77806736958496,36.7219917012448,26.506024096385538,83609.0,7320.0,0.0,1.0,0.0,?,0.0,0.0
600000.0,0.828125,4.457639685521523E-9,600000.0,67.4,35.66466687717083,32.78350515463918,24.186046511627925,101791.0,7320.0,0.0,1.0,0.0,?,0.0,0.0
700000.0,0.96875,5.2024067069093385E-9,700000.0,72.89999999999999,45.95435436393659,40.70021881838073,31.909547738693465,119973.0,7320.0,0.0,1.0,0.0,?,0.0,0.0
800000.0,1.109375,5.943681268642346E-9,800000.0,69.3,39.583579328531506,34.81953290870487,27.93427230046948,138155.0,7320.0,0.0,1.0,0.0,?,0.0,0.0
900000.0,1.25,6.72686534623305E-9,900000.0,70.5,41.713427645617635,40.76305220883533,28.915662650602407,156337.0,7320.0,0.0,1.0,0.0,?,0.0,42.0
1000000.0,1.390625,7.506556964168946E-9,1000000.0,68.0,36.824815212584504,34.156378600823054,20.79207920792081,174519.0,7320.0,0.0,1.0,0.0,?,0.0,0.0
1100000.0,1.53125,8.282756122450035E-9,1100000.0,68.89999999999999,38.90844517082063,40.64885496183205,28.832951945080087,192701.0,7320.0,0.0,1.0,0.0,?,0.0,0.0
1200000.0,1.671875,9.093879877279203E-9,1200000.0,70.8,42.29249011857705,37.339055793991406,33.63636363636362,210881.0,7320.0,0.0,1.0,0.0,?,0.0,0.0
1300000.0,1.796875,9.811774361878635E-9,1300000.0,69.69999999999999,39.963383608220454,38.03680981595091,29.698375870069604,229063.0,7320.0,0.0,1.0,0.0,?,0.0,0.0
1400000.0,1.9375,1.0615913197398187E-8,1400000.0,68.5,38.08475509080903,34.10041841004185,28.40909090909091,247245.0,7320.0,0.0,1.0,0.0,?,0.0,0.0
1500000.0,2.078125,1.1416559573262931E-8,1500000.0,67.0,35.32049673858506,31.818181818181824,19.90291262135924,265427.0,7320.0,0.0,1.0,0.0,?,0.0,0.0
1600000.0,2.234375,1.2302286146829527E-8,1600000.0,69.0,38.87337718675561,36.08247422680411,23.645320197044327,283609.0,7320.0,0.0,1.0,0.0,?,0.0,0.0
1700000.0,2.375,1.3095947603384654E-8,1700000.0,66.9,34.493322672830764,34.84251968503938,26.607538802660756,301791.0,7320.0,0.0,1.0,0.0,?,0.0,0.0
1800000.0,2.515625,1.3886116600284974E-8,1800000.0,65.9,33.10472543511356,26.82403433476395,16.421568627450995,319973.0,7320.0,0.0,1.0,0.0,?,0.0,0.0
1900000.0,2.65625,1.4672793137530485E-8,1900000.0,70.89999999999999,42.80345616504052,39.626556016597505,29.71014492753623,338155.0,7320.0,0.0,1.0,0.0,?,0.0,0.0
2000000.0,2.78125,1.5368956762055554E-8,2000000.0,64.9,31.089995288204804,20.227272727272723,7.631578947368428,356337.0,7320.0,0.0,1.0,0.0,?,0.0,0.0
2100000.0,2.921875,1.614864837999145E-8,2100000.0,69.69999999999999,40.2154611104534,41.5057915057915,30.82191780821916,374519.0,7320.0,0.0,1.0,0.0,?,0.0,0.0
2200000.0,3.0625,1.6924847538272536E-8,2200000.0,66.8,34.60988493703247,28.29373650107992,17.206982543640912,392701.0,7320.0,0.0,1.0,0.0,?,0.0,0.0
2300000.0,3.203125,1.7735971293101704E-8,2300000.0,68.60000000000001,38.009349927348545,32.61802575107297,27.314814814814838,410881.0,7320.0,0.0,1.0,0.0,?,0.0,0.0
2400000.0,3.359375,1.8633339398850994E-8,2400000.0,67.5,36.26201215924691,32.57261410788382,16.66666666666668,429063.0,7320.0,0.0,1.0,0.0,?,0.0,72.0
2500000.0,3.484375,1.9348129474868373E-8,2500000.0,68.2,36.945547126263584,36.01609657947687,19.89924433249372,447245.0,7320.0,0.0,1.0,0.0,?,0.0,64.0
2600000.0,3.625,2.0148775850733116E-8,2600000.0,71.1,42.62913407710326,42.084168336673336,37.98283261802574,465427.0,7320.0,0.0,1.0,0.0,?,0.0,18.0
2700000.0,3.765625,2.0936034464587762E-8,2700000.0,70.8,42.228553339664444,44.592030360531304,30.476190476190474,483609.0,7320.0,0.0,1.0,0.0,?,0.0,73.0
2800000.0,3.890625,2.1632715490543174E-8,2800000.0,67.10000000000001,35.5957685049605,29.0948275862069,12.032085561497336,501791.0,7320.0,0.0,1.0,0.0,?,0.0,0.0
2900000.0,4.015625,2.2326292107916535E-8,2900000.0,67.7,36.309500335213166,32.56784968684761,22.1686746987952,519973.0,7320.0,0.0,1.0,0.0,?,0.0,0.0
3000000.0,4.15625,2.310307334280676E-8,3000000.0,68.89999999999999,38.442658643759145,40.07707129094412,29.638009049773732,538155.0,7320.0,0.0,1.0,0.0,?,0.0,0.0
3100000.0,4.296875,2.3886257420397462E-8,3100000.0,67.9,37.081523528766105,32.27848101265823,24.292452830188697,556337.0,7320.0,0.0,1.0,0.0,?,0.0,78.0
3200000.0,4.4375,2.466041931054658E-8,3200000.0,69.0,39.02654902068768,37.999999999999986,28.07424593967517,574519.0,7320.0,0.0,1.0,0.0,?,0.0,160.0
3300000.0,4.578125,2.5436618468827666E-8,3300000.0,67.7,36.38476385551661,34.482758620689665,21.980676328502433,592701.0,7320.0,0.0,1.0,0.0,?,0.0,62.0
3400000.0,4.71875,2.6247742223656835E-8,3400000.0,67.80000000000001,36.27598435793109,35.85657370517929,23.696682464454994,610881.0,7320.0,0.0,1.0,0.0,?,0.0,0.0
3500000.0,4.875,2.7145110329406125E-8,3500000.0,67.60000000000001,35.95445650240171,29.7180043383948,20.000000000000018,629063.0,7320.0,0.0,1.0,0.0,?,0.0,0.0
3600000.0,5.015625,2.7949249164925677E-8,3600000.0,68.0,37.05471125815831,35.091277890466536,25.40792540792543,647245.0,7320.0,0.0,1.0,0.0,?,0.0,0.0
3700000.0,5.15625,2.874989554079042E-8,3700000.0,68.8,38.04606830818109,35.26970954356845,21.999999999999993,665427.0,7320.0,0.0,1.0,0.0,?,0.0,10.0
3800000.0,5.296875,2.9547049457000357E-8,3800000.0,68.5,37.72931427125506,36.87374749498999,28.246013667425974,683609.0,7320.0,0.0,1.0,0.0,?,0.0,47.0
3900000.0,5.4375,3.034071091355549E-8,3900000.0,69.6,40.219614259195154,39.56262425447315,27.272727272727266,701791.0,7320.0,0.0,1.0,0.0,?,0.0,0.0
4000000.0,5.578125,3.113087991045581E-8,4000000.0,68.7,38.65439493242186,35.463917525773205,27.039627039627064,719973.0,7320.0,0.0,1.0,0.0,?,0.0,0.0
4100000.0,5.71875,3.191755644770132E-8,4100000.0,68.30000000000001,37.60333831981734,34.9075975359343,26.78983833718247,738155.0,7320.0,0.0,1.0,0.0,?,0.0,0.0
4200000.0,5.875,3.278776097835766E-8,4200000.0,68.2,37.83404426685227,34.96932515337424,24.465558194774367,756337.0,7320.0,0.0,1.0,0.0,?,0.0,0.0
4300000.0,6.015625,3.3567452596293557E-8,4300000.0,68.60000000000001,38.463468073514605,36.820925553319924,23.97094430992738,774519.0,7320.0,0.0,1.0,0.0,?,0.0,0.0
4400000.0,6.15625,3.4343651754574647E-8,4400000.0,67.60000000000001,36.121888899403814,34.41295546558705,22.48803827751198,792701.0,7320.0,0.0,1.0,0.0,?,0.0,0.0
4500000.0,6.296875,3.515477550940381E-8,4500000.0,68.5,37.91684404711225,34.91735537190084,26.573426573426595,810881.0,7320.0,0.0,1.0,0.0,?,0.0,0.0
4600000.0,6.4375,3.596240680457817E-8,4600000.0,66.8,34.47928795563537,33.73253493013973,24.373576309794988,829063.0,7320.0,0.0,1.0,0.0,?,0.0,0.0
4700000.0,6.5625,3.667719688059555E-8,4700000.0,70.19999999999999,41.380816183615735,41.68297455968688,27.493917274939168,847245.0,7320.0,0.0,1.0,0.0,?,0.0,0.0
4800000.0,6.703125,3.7477843256460294E-8,4800000.0,70.8,42.27081315118324,41.129032258064505,29.976019184652277,865427.0,7320.0,0.0,1.0,0.0,?,0.0,0.0
4900000.0,6.84375,3.827499717267023E-8,4900000.0,67.10000000000001,35.30499075785583,36.608863198458586,23.488372093023273,883609.0,7320.0,0.0,1.0,0.0,?,0.0,0.0
5000000.0,7.0,3.918724056954185E-8,5000000.0,67.30000000000001,35.663862371819604,31.732776617954077,22.511848341232245,901791.0,7320.0,0.0,1.0,0.0,?,0.0,0.0
5100000.0,7.125,3.989996103983786E-8,5100000.0,64.5,31.21914548991344,12.990196078431381,-25.886524822695016,246101.0,7320.0,0.0,1.0,0.0,?,1.0,2.0
5200000.0,7.25,4.0609577101551824E-8,5200000.0,63.1,30.24310938031684,12.559241706161147,-25.938566552901005,264283.0,7320.0,0.0,1.0,0.0,?,0.0,0.0
5300000.0,7.390625,4.140440271132522E-8,5300000.0,64.60000000000001,32.33944954128441,17.482517482517494,-17.99999999999998,282465.0,7320.0,0.0,1.0,0.0,?,0.0,0.0
5400000.0,7.53125,4.219573586144381E-8,5400000.0,64.2,30.126436018846352,14.761904761904773,-24.738675958188132,300647.0,7320.0,0.0,1.0,0.0,?,0.0,14.0
5500000.0,7.671875,4.29719350197249E-8,5500000.0,63.1,29.989526888575213,12.559241706161147,-22.591362126245826,318829.0,7320.0,0.0,1.0,0.0,?,0.0,8.0
5600000.0,7.8125,4.38104163751834E-8,5600000.0,61.1,25.206691020957507,9.744779582366597,-30.10033444816052,337009.0,7320.0,0.0,1.0,0.0,?,0.0,127.0
5700000.0,7.953125,4.4635509968631795E-8,5700000.0,64.8,32.043183467959906,9.511568123393324,-23.076923076923055,355191.0,7320.0,0.0,1.0,0.0,?,0.0,32.0
5800000.0,8.078125,4.536582208755943E-8,5800000.0,62.1,27.651873797379434,1.8134715025906751,-32.05574912891985,373373.0,7320.0,0.0,1.0,0.0,?,0.0,0.0
5900000.0,8.21875,4.618393076169821E-8,5900000.0,63.7,29.540831379369248,12.318840579710155,-25.605536332179913,391555.0,7320.0,0.0,1.0,0.0,?,0.0,0.0
6000000.0,8.359375,4.699854697618219E-8,6000000.0,62.9,28.003104987385985,3.886010362694304,-34.90909090909089,409737.0,7320.0,0.0,1.0,0.0,?,0.0,0.0
6100000.0,8.5,4.7809670731011354E-8,6100000.0,64.8,31.976995856780654,23.644251626898047,-10.69182389937108,427919.0,7320.0,0.0,1.0,0.0,?,0.0,0.0
6200000.0,8.640625,4.8617302026185714E-8,6200000.0,62.9,28.86724442058439,9.512195121951226,-32.499999999999986,446101.0,7320.0,0.0,1.0,0.0,?,0.0,0.0
6300000.0,8.765625,4.933209210220309E-8,6300000.0,64.4,32.11625663105948,15.238095238095251,-21.501706484641616,464283.0,7320.0,0.0,1.0,0.0,?,0.0,0.0
6400000.0,8.890625,5.004377776963842E-8,6400000.0,66.5,34.56622288893057,18.292682926829286,-7.0287539936102315,482465.0,7320.0,0.0,1.0,0.0,?,0.0,0.0
6500000.0,9.015625,5.0752359028491696E-8,6500000.0,63.1,29.7795572877021,7.518796992481209,-29.929577464788714,500647.0,7320.0,0.0,1.0,0.0,?,0.0,0.0
6600000.0,9.15625,5.151866288441749E-8,6600000.0,65.4,32.94443690769202,17.42243436754178,-17.288135593220314,518829.0,7320.0,0.0,1.0,0.0,?,0.0,15.0
6700000.0,9.296875,5.23472489375207E-8,6700000.0,63.2,29.14901809780516,11.11111111111112,-20.26143790849671,537009.0,7320.0,0.0,1.0,0.0,?,0.0,0.0
6800000.0,9.4375,5.31723425309691E-8,6800000.0,62.6,28.387610673692592,6.965174129353239,-30.769230769230756,555191.0,7320.0,0.0,1.0,0.0,?,0.0,0.0
6900000.0,9.5625,5.3902654649896734E-8,6900000.0,63.7,30.420848443957155,15.18691588785048,-21.40468227424747,573373.0,7320.0,0.0,1.0,0.0,?,0.0,0.0
7000000.0,9.6875,5.462986236024232E-8,7000000.0,64.3,29.858065733012683,3.5135135135135167,-35.22727272727271,591555.0,7320.0,0.0,1.0,0.0,?,0.0,0.0
7100000.0,9.828125,5.54444785747263E-8,7100000.0,63.6,30.990289347858248,13.744075829383897,-20.930232558139515,609737.0,7320.0,0.0,1.0,0.0,?,0.0,45.0
7200000.0,9.96875,5.625560232955546E-8,7200000.0,62.7,27.32728052059386,7.444168734491321,-33.69175627240142,627919.0,7320.0,0.0,1.0,0.0,?,0.0,0.0
7300000.0,10.078125,5.688376000357996E-8,7300000.0,65.0,32.46372337141094,16.66666666666668,-12.903225806451587,646101.0,7320.0,0.0,1.0,0.0,?,0.0,0.0
7400000.0,10.21875,5.768789883909952E-8,7400000.0,64.0,29.31224743855075,2.7027027027027053,-29.032258064516114,664283.0,7320.0,0.0,1.0,0.0,?,0.0,0.0
7500000.0,10.34375,5.839958450653485E-8,7500000.0,65.10000000000001,31.907753541187034,16.904761904761916,-19.931271477663206,682465.0,7320.0,0.0,1.0,0.0,?,0.0,0.0
7600000.0,10.484375,5.919673842274479E-8,7600000.0,64.7,31.223941082492303,16.745283018867937,-6.969696969696977,700647.0,7320.0,0.0,1.0,0.0,?,0.0,0.0
7700000.0,10.625,5.996304227867058E-8,7700000.0,66.7,35.21400778210118,24.660633484162894,-10.999999999999972,718829.0,7320.0,0.0,1.0,0.0,?,0.0,0.0
7800000.0,10.765625,6.079162833177379E-8,7800000.0,62.2,27.495089614534734,4.545454545454549,-41.044776119402975,737009.0,7320.0,0.0,1.0,0.0,?,0.0,0.0
7900000.0,10.90625,6.161672192522218E-8,7900000.0,63.6,29.523197323430438,10.784313725490206,-21.739130434782588,755191.0,7320.0,0.0,1.0,0.0,?,0.0,0.0
8000000.0,11.03125,6.234703404414982E-8,8000000.0,64.8,31.110336972221038,18.70669745958431,-13.183279742765247,773373.0,7320.0,0.0,1.0,0.0,?,0.0,0.0
8100000.0,11.171875,6.316514271828861E-8,8100000.0,66.5,35.215625604331855,18.092909535452335,-8.064516129032228,791555.0,7320.0,0.0,1.0,0.0,?,0.0,0.0
8200000.0,11.3125,6.397975893277258E-8,8200000.0,64.7,31.88326373719675,17.523364485981322,-12.420382165605108,809737.0,7320.0,0.0,1.0,0.0,?,0.0,0.0
8300000.0,11.453125,6.479088268760174E-8,8300000.0,64.4,30.24641043325601,10.776942355889734,-25.352112676056322,827919.0,7320.0,0.0,1.0,0.0,?,0.0,0.0
8400000.0,11.59375,6.55985139827761E-8,8400000.0,64.7,30.82554712485107,15.34772182254198,-27.898550724637662,846101.0,7320.0,0.0,1.0,0.0,?,0.0,0.0
8500000.0,11.703125,6.62239552992913E-8,8500000.0,61.4,26.01055020548364,-0.7832898172323766,-40.87591240875912,864283.0,7320.0,0.0,1.0,0.0,?,0.0,0.0
8600000.0,11.84375,6.702460167515605E-8,8600000.0,63.5,29.4276875483372,16.666666666666657,-21.666666666666647,882465.0,7320.0,0.0,1.0,0.0,?,0.0,0.0
8700000.0,11.984375,6.782175559136599E-8,8700000.0,66.7,33.56741012648128,16.750000000000014,-14.827586206896527,900647.0,7320.0,0.0,1.0,0.0,?,0.0,0.0
8800000.0,12.125,6.858805944729178E-8,8800000.0,63.4,29.428641944838656,14.883720930232569,-19.60784313725488,918829.0,7320.0,0.0,1.0,0.0,?,0.0,0.0
8900000.0,12.265625,6.941664550039499E-8,8900000.0,65.2,33.02540415704388,15.533980582524284,-14.473684210526288,937009.0,7320.0,0.0,1.0,0.0,?,0.0,0.0
9000000.0,12.40625,7.024173909384338E-8,9000000.0,61.9,27.9342669723313,14.189189189189177,-27.852348993288572,955191.0,7320.0,0.0,1.0,0.0,?,0.0,0.0
9100000.0,12.53125,7.097205121277102E-8,9100000.0,65.5,32.50170213098975,16.867469879518087,-17.34693877551018,973373.0,7320.0,0.0,1.0,0.0,?,0.0,0.0
9200000.0,12.671875,7.17901598869098E-8,9200000.0,65.4,32.68587259342268,13.500000000000012,-17.687074829931948,991555.0,7320.0,0.0,1.0,0.0,?,0.0,0.0
9300000.0,12.8125,7.260477610139378E-8,9300000.0,64.2,30.881626096626725,14.558472553699294,-20.945945945945923,1009737.0,7320.0,0.0,1.0,0.0,?,0.0,0.0
9400000.0,12.953125,7.341589985622294E-8,9400000.0,65.60000000000001,34.22159673249607,16.50485436893205,-13.907284768211895,1027919.0,7320.0,0.0,1.0,0.0,?,0.0,0.0
9500000.0,13.09375,7.42235311513973E-8,9500000.0,65.7,33.26069190956143,14.035087719298259,-16.27118644067794,1046101.0,7320.0,0.0,1.0,0.0,?,0.0,0.0
9600000.0,13.21875,7.493832122741468E-8,9600000.0,64.60000000000001,31.248252074205286,17.674418604651176,-16.44736842105261,1064283.0,7320.0,0.0,1.0,0.0,?,0.0,0.0
9700000.0,13.359375,7.573896760327943E-8,9700000.0,64.5,30.897284165939965,17.441860465116292,-21.5753424657534,1082465.0,7320.0,0.0,1.0,0.0,?,0.0,0.0
9800000.0,13.5,7.653612151948936E-8,9800000.0,66.10000000000001,34.25441794796208,15.671641791044788,-19.78798586572436,1100647.0,7320.0,0.0,1.0,0.0,?,0.0,0.0
9900000.0,13.640625,7.730242537541516E-8,9900000.0,62.2,28.168291431503338,13.103448275862078,-32.6315789473684,1118829.0,7320.0,0.0,1.0,0.0,?,0.0,0.0
1.0E7,13.78125,7.813101142851836E-8,1.0E7,63.0,29.736073499865167,8.641975308641982,-28.02768166089964,1137009.0,7320.0,0.0,1.0,0.0,?,0.0,0.0
