learning evaluation instances,evaluation time (cpu seconds),model cost (RAM-Hours),classified instances,classifications correct (percent),Kappa Statistic (percent),Kappa Temporal Statistic (percent),Kappa M Statistic (percent),model training instances,model serialized size (bytes),labeling cost,newThreshold,maxPosterior,accuracyBaseLearner (percent),Change detected,Warning detected
100000.0,0.421875,1.7863931134343146E-8,100000.0,71.7,43.393207184862185,42.82828282828282,43.05835010060362,29700.0,2904.0,0.0,1.0,0.0,?,0.0,0.0
200000.0,0.84375,3.406894393265247E-8,200000.0,69.69999999999999,39.37963155620288,37.525773195876276,37.782340862422984,59700.0,2904.0,0.0,1.0,0.0,?,0.0,0.0
300000.0,1.25,4.8076294155584435E-8,300000.0,68.10000000000001,35.61902609144924,37.20472440944883,29.580573951434886,89700.0,2904.0,0.0,1.0,0.0,?,0.0,0.0
400000.0,1.640625,6.000886464284525E-8,400000.0,69.89999999999999,39.83850335785096,42.88425047438329,39.19191919191918,119700.0,2904.0,0.0,1.0,0.0,?,0.0,0.0
500000.0,2.0625,7.123712243305312E-8,500000.0,70.39999999999999,40.67470497691122,40.32258064516128,38.075313807531366,149700.0,2904.0,0.0,1.0,0.0,?,0.0,0.0
600000.0,2.484375,8.080646188722717E-8,600000.0,67.10000000000001,33.69983152905519,32.719836400818004,29.700854700854705,179700.0,2904.0,0.0,1.0,0.0,?,0.0,0.0
700000.0,2.875,8.813092588550515E-8,700000.0,70.6,41.005317547908085,42.80155642023345,39.38144329896906,209700.0,2904.0,0.0,1.0,0.0,?,0.0,0.0
800000.0,3.296875,9.438242866761155E-8,800000.0,70.89999999999999,41.454346461508734,43.05283757338551,34.459459459459445,239700.0,2904.0,0.0,1.0,0.0,?,0.0,0.0
900000.0,3.671875,9.84647259530094E-8,900000.0,68.10000000000001,35.83657837994401,36.072144288577164,32.98319327731093,269700.0,2904.0,0.0,1.0,0.0,?,0.0,0.0
1000000.0,4.078125,1.0128973776267635E-7,1000000.0,68.89999999999999,37.78905087295363,35.07306889352817,39.019607843137244,299700.0,2904.0,0.0,1.0,0.0,?,0.0,0.0
1100000.0,4.5,1.1917025808037984E-7,1100000.0,68.8,37.612976500887804,38.09523809523808,39.062499999999986,329400.0,2904.0,0.0,1.0,0.0,?,0.0,0.0
1200000.0,4.921875,1.353918600620495E-7,1200000.0,70.89999999999999,41.74967171636293,42.03187250996015,40.85365853658536,359400.0,2904.0,0.0,1.0,0.0,?,0.0,0.0
1300000.0,5.34375,1.4995454370768534E-7,1300000.0,67.4,35.01833838303302,33.604887983706725,30.04291845493563,389400.0,2904.0,0.0,1.0,0.0,?,0.0,0.0
1400000.0,5.75,1.623803917835984E-7,1400000.0,67.80000000000001,35.51746235181033,36.86274509803923,36.11111111111112,419400.0,2904.0,0.0,1.0,0.0,?,0.0,0.0
1500000.0,6.15625,1.7320876294333076E-7,1500000.0,68.7,37.244366027748825,36.63967611336034,33.262260127931775,449400.0,2904.0,0.0,1.0,0.0,?,0.0,0.0
1600000.0,6.5625,1.8243965718688237E-7,1600000.0,67.9,35.74345423973097,37.181996086105684,33.402489626556026,479400.0,2904.0,0.0,1.0,0.0,?,0.0,0.0
1700000.0,6.96875,1.9007307451425328E-7,1700000.0,70.0,40.02518942044341,39.7590361445783,40.11976047904191,509400.0,2904.0,0.0,1.0,0.0,?,0.0,0.0
1800000.0,7.359375,1.9587686337116693E-7,1800000.0,68.60000000000001,37.065824337487534,36.565656565656575,35.523613963039026,539400.0,2904.0,0.0,1.0,0.0,?,0.0,0.0
1900000.0,7.765625,2.0031532686617642E-7,1900000.0,70.89999999999999,41.79906878510055,42.03187250996015,39.12133891213388,569400.0,2904.0,0.0,1.0,0.0,?,0.0,0.0
2000000.0,8.171875,2.0315631344500516E-7,2000000.0,68.2,35.881667399255576,36.27254509018037,30.415754923413573,599400.0,2904.0,0.0,1.0,0.0,?,0.0,0.0
2100000.0,8.578125,2.2039056703862218E-7,2100000.0,71.1,42.245279700714626,44.315992292870895,40.657084188911696,629100.0,2904.0,0.0,1.0,0.0,?,0.0,0.0
2200000.0,8.96875,2.3542592922846478E-7,2200000.0,68.10000000000001,36.1356247097074,36.072144288577164,33.40292275574114,659100.0,2904.0,0.0,1.0,0.0,?,0.0,0.0
2300000.0,9.375,2.494652289897204E-7,2300000.0,69.69999999999999,38.84668480410756,40.118577075098806,34.27331887201734,689100.0,2904.0,0.0,1.0,0.0,?,0.0,0.0
2400000.0,9.78125,2.6190705183479527E-7,2400000.0,67.60000000000001,34.966921446464134,38.167938931297726,31.355932203389834,719100.0,2904.0,0.0,1.0,0.0,?,0.0,0.0
2500000.0,10.1875,2.730381028312776E-7,2500000.0,68.30000000000001,36.5725993629248,41.404805914972286,34.9075975359343,749100.0,2904.0,0.0,1.0,0.0,?,0.0,48.0
2600000.0,10.578125,2.8220500098541384E-7,2600000.0,73.7,47.37558227017335,46.868686868686865,47.08249496981891,779100.0,2904.0,0.0,1.0,0.0,?,0.0,34.0
2700000.0,10.984375,2.9014109814953476E-7,2700000.0,70.1,40.02872203011801,39.95983935742971,38.09523809523808,809100.0,2904.0,0.0,1.0,0.0,?,0.0,0.0
2800000.0,11.390625,2.96479718397475E-7,2800000.0,70.19999999999999,40.04024144869214,39.55375253549695,33.777777777777764,839100.0,2904.0,0.0,1.0,0.0,?,0.0,0.0
2900000.0,11.8125,3.014032133958406E-7,2900000.0,68.8,37.50400615345169,39.29961089494162,36.065573770491795,869100.0,2904.0,0.0,1.0,0.0,?,0.0,0.0
3000000.0,12.203125,3.044259695646664E-7,3000000.0,69.0,37.77824165325219,35.68464730290455,33.61884368308349,899100.0,2904.0,0.0,1.0,0.0,?,0.0,0.0
3100000.0,12.59375,3.212884055554039E-7,3100000.0,70.5,40.903554601109,42.38281249999999,38.92339544513457,928800.0,2904.0,0.0,1.0,0.0,?,0.0,0.0
3200000.0,13.0,3.3722786206959025E-7,3200000.0,69.19999999999999,38.43152306019317,38.27655310621241,39.009900990099,958800.0,2904.0,0.0,1.0,0.0,?,0.0,0.0
3300000.0,13.390625,3.510182270676726E-7,3300000.0,72.1,44.411237298266585,42.59259259259259,42.1161825726141,988800.0,2904.0,0.0,1.0,0.0,?,0.0,0.0
3400000.0,13.8125,3.6425290292956767E-7,3400000.0,71.6,43.19750069003036,41.92229038854805,41.92229038854805,1018800.0,2904.0,0.0,1.0,0.0,?,0.0,0.0
3500000.0,14.203125,3.7497119693499475E-7,3500000.0,71.5,42.812424753190456,41.115702479338836,37.90849673202613,1048800.0,2904.0,0.0,1.0,0.0,?,0.0,0.0
3600000.0,14.609375,3.8452074578445824E-7,3600000.0,69.19999999999999,38.32401518671003,37.27087576374744,35.96673596673595,1078800.0,2904.0,0.0,1.0,0.0,?,0.0,0.0
3700000.0,15.015625,3.9247281771774096E-7,3700000.0,70.7,40.798034413920725,41.51696606786427,36.16557734204792,1108800.0,2904.0,0.0,1.0,0.0,?,0.0,0.0
3800000.0,15.421875,3.9882741273484297E-7,3800000.0,70.0,39.93080028192477,39.393939393939384,39.02439024390243,1138800.0,2904.0,0.0,1.0,0.0,?,0.0,0.0
3900000.0,15.828125,4.0358453083576427E-7,3900000.0,71.6,43.035943517329905,45.067698259187615,40.336134453781504,1168800.0,2904.0,0.0,1.0,0.0,?,0.0,0.0
4000000.0,16.234375,4.0674417202050486E-7,4000000.0,70.19999999999999,39.93872944211543,44.71243042671614,34.07079646017698,1198800.0,2904.0,0.0,1.0,0.0,?,0.0,0.0
4100000.0,16.640625,4.242970802200337E-7,4100000.0,67.4,34.38108887135473,36.203522504892376,29.43722943722944,1228500.0,2904.0,0.0,1.0,0.0,?,0.0,0.0
4200000.0,17.046875,4.402525115033818E-7,4200000.0,69.5,38.98975027804671,39.8422090729783,38.99999999999999,1258500.0,2904.0,0.0,1.0,0.0,?,0.0,0.0
4300000.0,17.4375,4.5405823685642743E-7,4300000.0,72.39999999999999,44.745408463562,44.68937875751502,43.326488706365495,1288500.0,2904.0,0.0,1.0,0.0,?,0.0,0.0
4400000.0,17.828125,4.6632792671314543E-7,4400000.0,70.0,39.99999999999999,41.63424124513618,43.18181818181818,1318500.0,2904.0,0.0,1.0,0.0,?,0.0,0.0
4500000.0,18.234375,4.774909272479514E-7,4500000.0,68.8,37.47620288170576,38.94324853228962,37.349397590361434,1348500.0,2904.0,0.0,1.0,0.0,?,0.0,0.0
4600000.0,18.640625,4.870564508665767E-7,4600000.0,69.19999999999999,38.393839383938385,38.52295409181636,37.9032258064516,1378500.0,2904.0,0.0,1.0,0.0,?,0.0,0.0
4700000.0,19.03125,4.947180342343119E-7,4700000.0,68.89999999999999,37.70531207435301,42.300556586270865,34.93723849372384,1408500.0,2904.0,0.0,1.0,0.0,?,0.0,0.0
4800000.0,19.421875,5.008435821057194E-7,4800000.0,69.69999999999999,39.31649950331655,40.35433070866141,38.414634146341456,1438500.0,2904.0,0.0,1.0,0.0,?,0.0,0.0
4900000.0,19.828125,5.056166749758025E-7,4900000.0,72.0,43.71384116850064,44.44444444444444,38.99782135076252,1468500.0,2904.0,0.0,1.0,0.0,?,0.0,0.0
5000000.0,20.234375,5.090352755764292E-7,5000000.0,68.30000000000001,36.10468350654273,37.96477495107633,33.54297693920336,1498500.0,2904.0,0.0,1.0,0.0,?,0.0,0.0
5100000.0,20.65625,5.275112602652774E-7,5100000.0,61.7,23.384676935387077,22.626262626262626,21.83673469387755,28987.0,2904.0,0.0,1.0,0.0,?,1.0,5.0
5200000.0,21.046875,5.430826179993648E-7,5200000.0,63.2,26.134379227702826,20.68965517241379,21.86836518046709,58987.0,2904.0,0.0,1.0,0.0,?,0.0,0.0
5300000.0,21.453125,5.576793531266351E-7,5300000.0,66.10000000000001,31.733054089975443,28.48101265822785,26.623376623376625,88987.0,2904.0,0.0,1.0,0.0,?,0.0,0.0
5400000.0,21.875,5.711785828073819E-7,5400000.0,66.8,33.56944194329393,32.38289205702649,32.65720081135903,118987.0,2904.0,0.0,1.0,0.0,?,0.0,0.0
5500000.0,22.28125,5.825803641022907E-7,5500000.0,66.0,31.678890786697472,33.59375000000001,28.421052631578952,148987.0,2904.0,0.0,1.0,0.0,?,0.0,0.0
5600000.0,22.703125,5.927617571109699E-7,5600000.0,68.0,35.960808014504885,39.73634651600755,33.05439330543934,178987.0,2904.0,0.0,1.0,0.0,?,0.0,0.0
5700000.0,23.109375,6.009685845735173E-7,5700000.0,63.800000000000004,27.202525790817848,25.051759834368532,21.47505422993492,208987.0,2904.0,0.0,1.0,0.0,?,0.0,0.0
5800000.0,23.5,6.073237293296391E-7,5800000.0,66.4,32.368511100823255,32.25806451612904,24.494382022471907,238987.0,2904.0,0.0,1.0,0.0,?,0.0,0.0
5900000.0,23.921875,6.125283673302168E-7,5900000.0,63.7,27.369785830905663,32.276119402985074,21.258134490238607,268987.0,2904.0,0.0,1.0,0.0,?,0.0,0.0
6000000.0,24.328125,6.15942764044222E-7,6000000.0,63.0,25.98578927154014,26.294820717131472,24.796747967479675,298987.0,2904.0,0.0,1.0,0.0,?,0.0,0.0
6100000.0,24.734375,6.337504277730154E-7,6100000.0,65.4,30.62767915502108,30.938123752495017,27.463312368972748,328687.0,2904.0,0.0,1.0,0.0,?,0.0,0.0
6200000.0,25.140625,6.499606145856282E-7,6200000.0,64.8,29.366910805658677,30.980392156862752,24.62526766595289,358687.0,2904.0,0.0,1.0,0.0,?,0.0,0.0
6300000.0,25.5625,6.651353517857692E-7,6300000.0,62.2,24.276419115997303,20.588235294117645,23.014256619144604,388687.0,2904.0,0.0,1.0,0.0,?,0.0,0.0
6400000.0,25.96875,6.781505847660205E-7,6400000.0,65.2,30.416699992001927,29.124236252545828,31.22529644268775,418687.0,2904.0,0.0,1.0,0.0,?,0.0,0.0
6500000.0,26.390625,6.900074852940939E-7,6500000.0,64.1,28.263701832772504,25.672877846790893,27.911646586345384,448687.0,2904.0,0.0,1.0,0.0,?,0.0,0.0
6600000.0,26.796875,6.998277644419838E-7,6600000.0,64.4,28.39903459372486,30.604288499025344,24.576271186440675,478687.0,2904.0,0.0,1.0,0.0,?,0.0,0.0
6700000.0,27.203125,7.080505666736929E-7,6700000.0,65.9,31.75195337517613,32.34126984126985,29.545454545454547,508687.0,2904.0,0.0,1.0,0.0,?,0.0,0.0
6800000.0,27.609375,7.146758919892214E-7,6800000.0,65.3,30.452001859958,31.558185404339255,26.48305084745763,538687.0,2904.0,0.0,1.0,0.0,?,0.0,0.0
6900000.0,28.015625,7.197037403885691E-7,6900000.0,66.3,32.49793688056342,33.267326732673276,30.658436213991774,568687.0,2904.0,0.0,1.0,0.0,?,0.0,0.0
7000000.0,28.40625,7.230021745069989E-7,7000000.0,65.9,31.796180586112825,32.60869565217392,27.7542372881356,598687.0,2904.0,0.0,1.0,0.0,?,0.0,0.0
7100000.0,28.8125,7.408258130049542E-7,7100000.0,64.9,29.851068422188654,31.1764705882353,28.803245436105477,628387.0,2904.0,0.0,1.0,0.0,?,0.0,0.0
7200000.0,29.21875,7.570519745867287E-7,7200000.0,61.9,23.75730409029057,24.404761904761905,21.92622950819672,658387.0,2904.0,0.0,1.0,0.0,?,0.0,0.0
7300000.0,29.625,7.716806592523225E-7,7300000.0,67.4,34.35889175257733,34.00809716599191,26.576576576576578,688387.0,2904.0,0.0,1.0,0.0,?,0.0,0.0
7400000.0,30.015625,7.842106667036813E-7,7400000.0,62.9,25.725130931979447,24.43991853360489,24.43991853360489,718387.0,2904.0,0.0,1.0,0.0,?,0.0,0.0
7500000.0,30.4375,7.96084156415115E-7,7500000.0,66.60000000000001,33.19786233159462,33.598409542743546,32.79678068410464,748387.0,2904.0,0.0,1.0,0.0,?,0.0,0.0
7600000.0,30.828125,8.055420928738185E-7,7600000.0,63.4,26.17752892388621,24.536082474226802,19.383259911894267,778387.0,2904.0,0.0,1.0,0.0,?,0.0,0.0
7700000.0,31.25,8.140977459131846E-7,7700000.0,63.9,27.800000000000004,24.948024948024948,25.87268993839836,808387.0,2904.0,0.0,1.0,0.0,?,0.0,0.0
7800000.0,31.65625,8.207390459978748E-7,7800000.0,64.5,28.91242010156514,30.79922027290449,24.78813559322034,838387.0,2904.0,0.0,1.0,0.0,?,0.0,0.0
7900000.0,32.078125,8.259768623651732E-7,7900000.0,65.7,31.414814400089586,32.74509803921569,30.425963488843816,868387.0,2904.0,0.0,1.0,0.0,?,0.0,0.0
8000000.0,32.484375,8.29423208617502E-7,8000000.0,65.8,31.302953972979168,32.544378698224854,24.503311258278146,898387.0,2904.0,0.0,1.0,0.0,?,0.0,0.0
8100000.0,32.890625,8.472628218846191E-7,8100000.0,66.8,33.48079758928,33.46693386773548,29.059829059829063,928087.0,2904.0,0.0,1.0,0.0,?,0.0,0.0
8200000.0,33.296875,8.635049582355555E-7,8200000.0,62.3,24.124106395311387,22.427983539094647,16.40798226164079,958087.0,2904.0,0.0,1.0,0.0,?,0.0,0.0
8300000.0,33.703125,8.781496176703112E-7,8300000.0,64.7,29.467147275793454,28.68686868686869,27.66393442622951,988087.0,2904.0,0.0,1.0,0.0,?,0.0,0.0
8400000.0,34.109375,8.911968001888861E-7,8400000.0,65.3,30.469839539618164,31.82711198428291,28.893442622950822,1018087.0,2904.0,0.0,1.0,0.0,?,0.0,0.0
8500000.0,34.515625,9.026465057912803E-7,8500000.0,67.4,34.74544719385407,30.932203389830516,33.33333333333334,1048087.0,2904.0,0.0,1.0,0.0,?,0.0,0.0
8600000.0,34.921875,9.124987344774938E-7,8600000.0,63.2,26.354929216680606,30.434782608695656,23.651452282157674,1078087.0,2904.0,0.0,1.0,0.0,?,0.0,0.0
8700000.0,35.34375,9.210709767002201E-7,8700000.0,65.9,31.090507869019422,29.69072164948454,26.980728051391868,1108087.0,2904.0,0.0,1.0,0.0,?,0.0,0.0
8800000.0,35.765625,9.279843005869127E-7,8800000.0,64.5,28.699396656302977,27.402862985685072,24.307036247334754,1138087.0,2904.0,0.0,1.0,0.0,?,0.0,0.0
8900000.0,36.171875,9.33044098524584E-7,8900000.0,68.30000000000001,36.62839048106449,37.72102161100197,38.2066276803119,1168087.0,2904.0,0.0,1.0,0.0,?,0.0,0.0
9000000.0,36.59375,9.366395857392089E-7,9000000.0,66.3,32.47034305867265,31.78137651821863,31.224489795918377,1198087.0,2904.0,0.0,1.0,0.0,?,0.0,0.0
9100000.0,37.0,9.544951737754878E-7,9100000.0,64.7,29.190971748601875,26.763485477178424,21.380846325167035,1227787.0,2904.0,0.0,1.0,0.0,?,0.0,0.0
9200000.0,37.421875,9.713785968617436E-7,9200000.0,62.1,24.121085929366544,19.87315010570824,21.041666666666664,1257787.0,2904.0,0.0,1.0,0.0,?,0.0,0.0
9300000.0,37.8125,9.854753605193565E-7,9300000.0,65.60000000000001,31.08422149210675,26.652452025586353,29.218106995884778,1287787.0,2904.0,0.0,1.0,0.0,?,0.0,0.0
9400000.0,38.203125,9.980360886806419E-7,9400000.0,64.60000000000001,28.978697621789507,28.194726166328604,26.403326403326403,1317787.0,2904.0,0.0,1.0,0.0,?,0.0,0.0
9500000.0,38.625,1.0099427567587962E-6,9500000.0,63.7,27.45745369667223,28.9628180039139,30.057803468208093,1347787.0,2904.0,0.0,1.0,0.0,?,0.0,0.0
9600000.0,39.015625,1.0194314139274264E-6,9600000.0,64.60000000000001,28.961310001605394,29.622266401590462,24.680851063829788,1377787.0,2904.0,0.0,1.0,0.0,?,0.0,0.0
9700000.0,39.421875,1.027702140466621E-6,9700000.0,64.1,27.752062789293625,25.979381443298973,23.12633832976445,1407787.0,2904.0,0.0,1.0,0.0,?,0.0,0.0
9800000.0,39.828125,1.0343753900896348E-6,9800000.0,64.9,29.294882641591514,29.940119760479046,22.516556291390728,1437787.0,2904.0,0.0,1.0,0.0,?,0.0,0.0
9900000.0,40.234375,1.0394511627964679E-6,9900000.0,65.9,31.780352741589578,33.26810176125245,28.361344537815132,1467787.0,2904.0,0.0,1.0,0.0,?,0.0,0.0
1.0E7,40.625,1.0427956779797875E-6,1.0E7,63.7,27.43831257096254,27.833001988071572,24.84472049689441,1497787.0,2904.0,0.0,1.0,0.0,?,0.0,0.0
