learning evaluation instances,evaluation time (cpu seconds),model cost (RAM-Hours),classified instances,classifications correct (percent),Kappa Statistic (percent),Kappa Temporal Statistic (percent),Kappa M Statistic (percent),model training instances,model serialized size (bytes),labeling cost,newThreshold,maxPosterior,accuracyBaseLearner (percent),Change detected,Warning detected
100000.0,0.390625,1.574598071682784E-8,100000.0,70.39999999999999,32.15272970656056,37.15498938428873,20.21563342318058,19800.0,2904.0,0.0,1.0,0.0,?,0.0,13.0
200000.0,0.78125,2.9955925937328075E-8,200000.0,70.19999999999999,32.45907881436218,38.80903490759753,21.784776902887128,39800.0,2904.0,0.0,1.0,0.0,?,0.0,0.0
300000.0,1.171875,4.26306441012356E-8,300000.0,72.39999999999999,36.65918510664664,38.66666666666666,26.005361930294903,59800.0,2904.0,0.0,1.0,0.0,?,0.0,4.0
400000.0,1.578125,5.421487407551872E-8,400000.0,70.3,30.422152462165574,33.999999999999986,17.95580110497236,79800.0,2904.0,0.0,1.0,0.0,?,0.0,0.0
500000.0,1.96875,6.386926138980522E-8,500000.0,69.69999999999999,28.514132024725136,36.74321503131523,16.986301369863,99800.0,2904.0,0.0,1.0,0.0,?,0.0,89.0
600000.0,2.34375,7.168228168868357E-8,600000.0,71.3,36.32579892264139,42.484969939879754,26.598465473145776,119800.0,2904.0,0.0,1.0,0.0,?,0.0,50.0
700000.0,2.75,7.854806931896343E-8,700000.0,67.80000000000001,25.318786731792414,27.96420581655481,13.672922252010736,139800.0,2904.0,0.0,1.0,0.0,?,0.0,11.0
800000.0,3.140625,8.359192482506237E-8,800000.0,69.6,29.48500860561242,36.13445378151259,18.05929919137465,159800.0,2904.0,0.0,1.0,0.0,?,0.0,46.0
900000.0,3.53125,8.712238114741115E-8,900000.0,69.69999999999999,32.11939817013611,36.34453781512604,22.506393861892573,179800.0,2904.0,0.0,1.0,0.0,?,0.0,5.0
1000000.0,3.9375,8.917640015068983E-8,1000000.0,70.1,33.091058817211035,37.052631578947356,22.538860103626934,199800.0,2904.0,0.0,1.0,0.0,?,0.0,130.0
1100000.0,4.3125,1.0435851032121317E-7,1100000.0,69.89999999999999,33.35576948624161,37.93814432989689,24.371859296482405,219600.0,2904.0,0.0,1.0,0.0,?,0.0,0.0
1200000.0,4.734375,1.1972533280236856E-7,1200000.0,69.39999999999999,30.769230769230766,32.74725274725273,20.31249999999999,239600.0,2904.0,0.0,1.0,0.0,?,0.0,82.0
1300000.0,5.140625,1.3292553679396712E-7,1300000.0,71.2,31.250149196724823,36.84210526315788,17.002881844380386,259600.0,2904.0,0.0,1.0,0.0,?,0.0,0.0
1400000.0,5.53125,1.4408200513571503E-7,1400000.0,68.89999999999999,27.858296063985744,32.97413793103446,15.489130434782592,279600.0,2904.0,0.0,1.0,0.0,?,0.0,0.0
1500000.0,5.921875,1.5370243798113534E-7,1500000.0,70.3,33.82470900696956,38.509316770186324,24.234693877551013,299600.0,2904.0,0.0,1.0,0.0,?,0.0,0.0
1600000.0,6.328125,1.6211021122419174E-7,1600000.0,71.8,35.06044905008635,38.69565217391303,24.79999999999999,319600.0,2904.0,0.0,1.0,0.0,?,0.0,0.0
1700000.0,6.703125,1.6839663860284622E-7,1700000.0,70.19999999999999,31.933322065024228,33.924611973392444,21.37203166226912,339600.0,2904.0,0.0,1.0,0.0,?,0.0,0.0
1800000.0,7.078125,1.7320847190502618E-7,1800000.0,72.2,34.2002489976189,38.35920177383591,22.12885154061624,359600.0,2904.0,0.0,1.0,0.0,?,0.0,0.0
1900000.0,7.484375,1.7682381439954045E-7,1900000.0,71.1,34.3927355278093,37.715517241379295,24.14698162729658,379600.0,2904.0,0.0,1.0,0.0,?,0.0,0.0
2000000.0,7.859375,1.786864595487714E-7,2000000.0,68.60000000000001,29.98729068652592,34.719334719334725,21.303258145363426,399600.0,2904.0,0.0,1.0,0.0,?,0.0,0.0
2100000.0,8.265625,1.950975921418932E-7,2100000.0,70.5,31.63383545770567,32.18390804597701,18.73278236914599,419400.0,2904.0,0.0,1.0,0.0,?,0.0,0.0
2200000.0,8.65625,2.0934149183125963E-7,2200000.0,73.0,36.35227835270266,42.917547568710354,24.369747899159655,439400.0,2904.0,0.0,1.0,0.0,?,0.0,0.0
2300000.0,9.046875,2.2204935602429844E-7,2300000.0,69.89999999999999,31.64310889865919,35.4077253218884,22.222222222222214,459400.0,2904.0,0.0,1.0,0.0,?,0.0,0.0
2400000.0,9.4375,2.3322118472100964E-7,2400000.0,69.69999999999999,30.982014322940376,33.98692810457515,20.052770448548802,479400.0,2904.0,0.0,1.0,0.0,?,0.0,0.0
2500000.0,9.828125,2.428569779213932E-7,2500000.0,68.10000000000001,30.248830191979714,34.76482617586913,22.19512195121953,499400.0,2904.0,0.0,1.0,0.0,?,0.0,0.0
2600000.0,10.21875,2.5095673562544916E-7,2600000.0,71.3,33.03779748016798,35.937499999999986,20.277777777777768,519400.0,2904.0,0.0,1.0,0.0,?,0.0,0.0
2700000.0,10.609375,2.575204578331775E-7,2700000.0,70.19999999999999,30.99935167176067,36.32478632478631,19.459459459459445,539400.0,2904.0,0.0,1.0,0.0,?,0.0,0.0
2800000.0,11.015625,2.627492520130343E-7,2800000.0,70.8,32.917667924077485,35.6828193832599,20.867208672086708,559400.0,2904.0,0.0,1.0,0.0,?,0.0,0.0
2900000.0,11.40625,2.6624090322810743E-7,2900000.0,71.0,33.79720943823507,35.98233995584987,22.04301075268816,579400.0,2904.0,0.0,1.0,0.0,?,0.0,0.0
3000000.0,11.796875,2.68196518946853E-7,3000000.0,71.5,34.36627762373682,40.74844074844074,23.79679144385026,599400.0,2904.0,0.0,1.0,0.0,?,0.0,0.0
3100000.0,12.1875,2.839918144875103E-7,3100000.0,68.60000000000001,26.038290495213705,33.894736842105274,11.797752808988776,619200.0,2904.0,0.0,1.0,0.0,?,0.0,0.0
3200000.0,12.578125,2.9825107453184E-7,3200000.0,68.5,29.029118338875836,29.84409799554566,21.052631578947388,639200.0,2904.0,0.0,1.0,0.0,?,0.0,0.0
3300000.0,12.984375,3.114832280617622E-7,3300000.0,70.89999999999999,33.90749775149219,39.374999999999986,23.821989528795804,659200.0,2904.0,0.0,1.0,0.0,?,0.0,0.0
3400000.0,13.375,3.2267041711343666E-7,3400000.0,70.89999999999999,30.921521150833204,36.739130434782595,15.65217391304346,679200.0,2904.0,0.0,1.0,0.0,?,0.0,0.0
3500000.0,13.765625,3.323215706687835E-7,3500000.0,68.89999999999999,27.94654606787388,30.11235955056178,15.489130434782592,699200.0,2904.0,0.0,1.0,0.0,?,0.0,0.0
3600000.0,14.15625,3.404366887278028E-7,3600000.0,69.89999999999999,32.25420204002628,39.31451612903225,21.409921671018267,719200.0,2904.0,0.0,1.0,0.0,?,0.0,0.0
3700000.0,14.53125,3.467526079879868E-7,3700000.0,69.8,31.022511328753094,35.47008547008546,21.354166666666657,739200.0,2904.0,0.0,1.0,0.0,?,0.0,0.0
3800000.0,14.890625,3.513922112890417E-7,3800000.0,68.5,28.563653186741426,34.91735537190084,16.88654353562007,759200.0,2904.0,0.0,1.0,0.0,?,0.0,0.0
3900000.0,15.28125,3.548992228590781E-7,3900000.0,69.8,32.352519532649985,36.68763102725366,22.95918367346938,779200.0,2904.0,0.0,1.0,0.0,?,0.0,0.0
4000000.0,15.671875,3.568701989327869E-7,4000000.0,69.5,29.64244521337946,36.192468619246846,18.666666666666654,799200.0,2904.0,0.0,1.0,0.0,?,0.0,0.0
4100000.0,16.046875,3.720484285925827E-7,4100000.0,72.3,35.116649489365685,42.76859504132231,21.97183098591548,819000.0,2904.0,0.0,1.0,0.0,?,0.0,0.0
4200000.0,16.4375,3.8632304899187566E-7,4200000.0,70.19999999999999,32.36618490812695,36.59574468085105,22.39583333333332,839000.0,2904.0,0.0,1.0,0.0,?,0.0,0.0
4300000.0,16.828125,3.9906163389484104E-7,4300000.0,70.0,34.40759122810853,39.27125506072874,27.360774818401936,859000.0,2904.0,0.0,1.0,0.0,?,0.0,0.0
4400000.0,17.203125,4.098160813252133E-7,4400000.0,69.69999999999999,33.29164978776617,39.76143141153081,24.81389578163771,879000.0,2904.0,0.0,1.0,0.0,?,0.0,0.0
4500000.0,17.59375,4.194825952355234E-7,4500000.0,69.6,31.826336562612113,38.08553971486761,23.232323232323225,899000.0,2904.0,0.0,1.0,0.0,?,0.0,0.0
4600000.0,17.984375,4.2761307364950595E-7,4600000.0,69.5,31.928759541132873,37.11340206185566,22.588832487309634,919000.0,2904.0,0.0,1.0,0.0,?,0.0,0.0
4700000.0,18.375,4.342075165671609E-7,4700000.0,71.8,35.65727688818511,40.506329113924046,24.396782841823047,939000.0,2904.0,0.0,1.0,0.0,?,0.0,0.0
4800000.0,18.765625,4.3926592398848816E-7,4800000.0,70.0,32.549407558963054,37.1069182389937,24.0506329113924,959000.0,2904.0,0.0,1.0,0.0,?,0.0,0.0
4900000.0,19.15625,4.4278829591348784E-7,4900000.0,72.0,33.71965306972691,38.189845474613676,20.454545454545443,979000.0,2904.0,0.0,1.0,0.0,?,0.0,0.0
5000000.0,19.546875,4.450082714255487E-7,5000000.0,69.1,30.344535314644318,36.02484472049688,20.565552699228782,999000.0,2904.0,0.0,1.0,0.0,?,0.0,0.0
5100000.0,19.921875,4.602276344990566E-7,5100000.0,63.800000000000004,27.39758446548979,27.6,25.051759834368532,10553.0,2904.0,0.0,1.0,0.0,?,1.0,2.0
5200000.0,20.3125,4.748094619976151E-7,5200000.0,65.8,31.585769840126755,33.0724070450098,27.848101265822788,30553.0,2904.0,0.0,1.0,0.0,?,0.0,12.0
5300000.0,20.703125,4.87855253999846E-7,5300000.0,66.0,31.833127496110485,33.20235756385069,27.813163481953296,50553.0,2904.0,0.0,1.0,0.0,?,0.0,0.0
5400000.0,21.09375,4.993650105057492E-7,5400000.0,64.9,29.602323323893504,31.1764705882353,25.79281183932347,70553.0,2904.0,0.0,1.0,0.0,?,0.0,0.0
5500000.0,21.5,5.09737680355708E-7,5500000.0,62.5,25.00239992320246,28.298279158699813,25.149700598802394,90553.0,2904.0,0.0,1.0,0.0,?,0.0,0.0
5600000.0,21.875,5.178378584484261E-7,5600000.0,64.8,29.45524215690598,32.69598470363289,26.819126819126822,110553.0,2904.0,0.0,1.0,0.0,?,0.0,0.0
5700000.0,22.25,5.244634424646696E-7,5700000.0,62.9,25.759613229596894,25.050505050505052,24.59349593495935,130553.0,2904.0,0.0,1.0,0.0,?,0.0,0.0
5800000.0,22.65625,5.300436815660862E-7,5800000.0,67.2,34.16404393345751,32.37113402061856,30.508474576271194,150553.0,2904.0,0.0,1.0,0.0,?,0.0,0.0
5900000.0,23.046875,5.338732605903513E-7,5900000.0,65.7,31.243234574830613,33.39805825242719,22.57336343115124,170553.0,2904.0,0.0,1.0,0.0,?,0.0,0.0
6000000.0,23.4375,5.361668041182889E-7,6000000.0,63.0,25.98667760196835,25.101214574898783,24.643584521384927,190553.0,2904.0,0.0,1.0,0.0,?,0.0,0.0
6100000.0,23.828125,5.523000274681383E-7,6100000.0,65.8,31.020572811617598,30.061349693251536,24.0,210353.0,2904.0,0.0,1.0,0.0,?,0.0,0.0
6200000.0,24.21875,5.6689721532166E-7,6200000.0,66.9,33.79735189407577,34.71400394477319,29.574468085106385,230353.0,2904.0,0.0,1.0,0.0,?,0.0,0.0
6300000.0,24.625,5.80480813773142E-7,6300000.0,63.800000000000004,27.573057177269945,30.11583011583012,25.667351129363453,250353.0,2904.0,0.0,1.0,0.0,?,0.0,0.0
6400000.0,25.015625,5.920059306340085E-7,6400000.0,67.7,35.15045896610156,34.081632653061234,31.85654008438819,270353.0,2904.0,0.0,1.0,0.0,?,0.0,0.0
6500000.0,25.40625,6.019950119985475E-7,6500000.0,67.0,34.03377470734984,32.51533742331289,29.487179487179493,290353.0,2904.0,0.0,1.0,0.0,?,0.0,0.0
6600000.0,25.8125,6.107979505840275E-7,6600000.0,65.3,30.419647726908156,32.75193798449613,27.100840336134457,310353.0,2904.0,0.0,1.0,0.0,?,0.0,19.0
6700000.0,26.203125,6.177262791122E-7,6700000.0,66.0,31.88092786190261,31.863727454909824,29.313929313929314,330353.0,2904.0,0.0,1.0,0.0,?,0.0,9.0
6800000.0,26.609375,6.233342638653186E-7,6800000.0,64.4,28.559674745845033,30.33268101761253,24.416135881104033,350353.0,2904.0,0.0,1.0,0.0,?,0.0,49.0
6900000.0,26.984375,6.270362710994152E-7,6900000.0,64.0,28.000000000000004,22.912205567451817,28.429423459244536,370353.0,2904.0,0.0,1.0,0.0,?,0.0,0.0
7000000.0,27.390625,6.294493020201724E-7,7000000.0,64.1,27.770087561164054,24.1014799154334,23.454157782515992,390353.0,2904.0,0.0,1.0,0.0,?,0.0,0.0
7100000.0,27.796875,6.462555999557178E-7,7100000.0,64.4,28.59291946645272,28.94211576846308,25.05263157894737,410153.0,2904.0,0.0,1.0,0.0,?,0.0,0.0
7200000.0,28.1875,6.608794663204916E-7,7200000.0,66.60000000000001,33.155882882702585,30.848861283643895,31.697341513292436,430153.0,2904.0,0.0,1.0,0.0,?,0.0,0.0
7300000.0,28.59375,6.744908104236756E-7,7300000.0,65.0,29.68301101364954,26.624737945492665,22.394678492239464,450153.0,2904.0,0.0,1.0,0.0,?,0.0,0.0
7400000.0,28.984375,6.860426057957942E-7,7400000.0,66.8,33.29180815366996,34.126984126984134,28.90792291220557,470153.0,2904.0,0.0,1.0,0.0,?,0.0,0.0
7500000.0,29.390625,6.964589960666167E-7,7500000.0,64.1,28.185062492998547,30.961538461538467,26.283367556468175,490153.0,2904.0,0.0,1.0,0.0,?,0.0,0.0
7600000.0,29.796875,7.052779094212586E-7,7600000.0,65.3,30.5861172234447,28.747433264887068,26.94736842105263,510153.0,2904.0,0.0,1.0,0.0,?,0.0,0.0
7700000.0,30.1875,7.122215983043942E-7,7700000.0,65.7,31.342327555146333,27.941176470588236,29.423868312757207,530153.0,2904.0,0.0,1.0,0.0,?,0.0,87.0
7800000.0,30.59375,7.178455578266746E-7,7800000.0,67.60000000000001,35.13773222293402,40.22140221402214,33.87755102040817,550153.0,2904.0,0.0,1.0,0.0,?,0.0,0.0
7900000.0,30.984375,7.217018153621918E-7,7900000.0,67.80000000000001,35.39922077817858,37.231968810916186,30.453563714902813,570153.0,2904.0,0.0,1.0,0.0,?,0.0,11.0
8000000.0,31.375,7.240220374013815E-7,8000000.0,64.8,29.593240951131307,29.600000000000005,30.15873015873016,590153.0,2904.0,0.0,1.0,0.0,?,0.0,0.0
8100000.0,31.765625,7.401819392624829E-7,8100000.0,69.3,38.60049119607042,38.72255489021955,37.34693877551019,609953.0,2904.0,0.0,1.0,0.0,?,0.0,0.0
8200000.0,32.15625,7.548058056272566E-7,8200000.0,66.7,33.186732048699454,32.45436105476674,27.292576419213976,629953.0,2904.0,0.0,1.0,0.0,?,0.0,0.0
8300000.0,32.546875,7.678936364957028E-7,8300000.0,64.2,28.203564953713357,27.08757637474542,22.51082251082251,649953.0,2904.0,0.0,1.0,0.0,?,0.0,0.0
8400000.0,32.953125,7.799075036827062E-7,8400000.0,63.7,27.25159325023047,22.929936305732483,22.10300429184549,669953.0,2904.0,0.0,1.0,0.0,?,0.0,0.0
8500000.0,33.359375,7.903238939535287E-7,8500000.0,63.2,25.657767147197607,23.809523809523807,18.58407079646017,689953.0,2904.0,0.0,1.0,0.0,?,0.0,0.0
8600000.0,33.765625,7.991428073081706E-7,8600000.0,65.2,30.259402956360027,27.800829875518673,27.500000000000004,709953.0,2904.0,0.0,1.0,0.0,?,0.0,0.0
8700000.0,34.140625,8.058234945767455E-7,8700000.0,64.4,28.764382191095557,28.514056224899605,27.789046653144016,729953.0,2904.0,0.0,1.0,0.0,?,0.0,36.0
8800000.0,34.53125,8.112465083185169E-7,8800000.0,66.4,32.789515164365646,31.983805668016203,32.3943661971831,749953.0,2904.0,0.0,1.0,0.0,?,0.0,99.0
8900000.0,34.9375,8.152267481717797E-7,8900000.0,63.3,26.026557876659872,24.948875255623722,18.26280623608017,769953.0,2904.0,0.0,1.0,0.0,?,0.0,12.0
9000000.0,35.328125,8.175776909208959E-7,9000000.0,66.10000000000001,32.14354342813222,32.47011952191235,30.39014373716633,789953.0,2904.0,0.0,1.0,0.0,?,0.0,23.0
9100000.0,35.734375,8.344159383947649E-7,9100000.0,62.3,24.10455453198479,25.346534653465348,16.035634743875267,809753.0,2904.0,0.0,1.0,0.0,?,0.0,0.0
9200000.0,36.125,8.490705254694652E-7,9200000.0,64.4,28.254735993550987,30.33268101761253,22.943722943722943,829753.0,2904.0,0.0,1.0,0.0,?,0.0,12.0
9300000.0,36.515625,8.621195512306357E-7,9300000.0,65.3,30.52441055868786,26.48305084745763,28.157349896480333,849753.0,2904.0,0.0,1.0,0.0,?,0.0,41.0
9400000.0,36.921875,8.741653679559626E-7,9400000.0,64.60000000000001,29.216987922898507,32.05374280230327,24.680851063829788,869753.0,2904.0,0.0,1.0,0.0,?,0.0,9.0
9500000.0,37.296875,8.838099893182514E-7,9500000.0,66.10000000000001,32.10549084325381,25.165562913907287,28.025477707006374,889753.0,2904.0,0.0,1.0,0.0,?,0.0,133.0
9600000.0,37.703125,8.926608522112169E-7,9600000.0,66.7,33.39786873179943,36.571428571428584,32.31707317073172,909753.0,2904.0,0.0,1.0,0.0,?,0.0,0.0
9700000.0,38.09375,8.995608853486675E-7,9700000.0,68.10000000000001,36.21122682407897,36.072144288577164,33.817427385892124,929753.0,2904.0,0.0,1.0,0.0,?,0.0,28.0
9800000.0,38.484375,9.049248829897905E-7,9800000.0,66.0,31.912848446010905,31.863727454909824,26.08695652173913,949753.0,2904.0,0.0,1.0,0.0,?,0.0,0.0
9900000.0,38.875,9.088272215901975E-7,9900000.0,65.3,30.48488296619201,32.22656250000001,28.008298755186722,969753.0,2904.0,0.0,1.0,0.0,?,0.0,47.0
1.0E7,39.265625,9.111312748346889E-7,1.0E7,63.9,27.640809781519348,28.51485148514852,24.0,989753.0,2904.0,0.0,1.0,0.0,?,0.0,27.0
