learning evaluation instances,evaluation time (cpu seconds),model cost (RAM-Hours),classified instances,classifications correct (percent),Kappa Statistic (percent),Kappa Temporal Statistic (percent),Kappa M Statistic (percent),model training instances,model serialized size (bytes),labeling cost,newThreshold,maxPosterior,accuracyBaseLearner (percent),Change detected,Warning detected,tree size (nodes),tree size (leaves),active learning leaves,tree depth,active leaf byte size estimate,inactive leaf byte size estimate,byte size estimate overhead
100000.0,0.59375,2.634239434782002E-8,100000.0,97.8,95.49684164848345,95.39748953974895,94.89559164733178,19830.0,66048.0,0.0,1.0,0.0,?,1.0,13.0,26.0,15.0,15.0,3.0,0.0,0.0,1.0
200000.0,0.984375,4.995611056478487E-8,200000.0,98.1,96.16539653836217,96.31067961165049,95.79646017699115,39830.0,142528.0,0.0,1.0,0.0,?,0.0,0.0,46.0,34.0,34.0,3.0,0.0,0.0,1.0
300000.0,1.359375,7.13361724693742E-8,300000.0,97.7,95.36809544140036,95.21829521829521,94.98910675381264,59830.0,143640.0,0.0,1.0,0.0,?,0.0,0.0,46.0,34.0,34.0,3.0,0.0,0.0,1.0
400000.0,1.71875,9.140963407440318E-8,400000.0,97.39999999999999,94.76987447698745,94.86166007905138,94.34782608695652,79830.0,153520.0,0.0,1.0,0.0,?,0.0,0.0,50.0,36.0,36.0,4.0,0.0,0.0,1.0
500000.0,2.078125,1.1030497262254358E-7,500000.0,97.2,94.37418877811398,94.17879417879418,93.9524838012959,99830.0,155248.0,0.0,1.0,0.0,?,0.0,0.0,50.0,36.0,36.0,4.0,0.0,0.0,1.0
600000.0,2.453125,1.361662483153244E-7,600000.0,97.1,94.15171657201857,94.29133858267717,93.58407079646017,119730.0,160960.0,0.0,1.0,0.0,?,0.0,0.0,52.0,37.0,37.0,4.0,0.0,0.0,1.0
700000.0,2.828125,1.6708848609899481E-7,700000.0,96.6,93.09451176167128,93.04703476482617,92.14780600461893,139730.0,227472.0,0.0,1.0,0.0,?,0.0,0.0,74.0,57.0,57.0,5.0,0.0,0.0,1.0
800000.0,3.25,2.0257798799624046E-7,800000.0,97.1,94.12227293732316,94.17670682730923,93.43891402714931,159730.0,248240.0,0.0,1.0,0.0,?,0.0,0.0,74.0,57.0,57.0,5.0,0.0,0.0,1.0
900000.0,3.671875,2.371524654639264E-7,900000.0,97.1,94.19651791074645,93.90756302521008,94.18837675350701,179730.0,254232.0,0.0,1.0,0.0,?,0.0,0.0,76.0,58.0,58.0,5.0,0.0,0.0,1.0
1000000.0,4.09375,2.701928800282379E-7,1000000.0,97.2,94.35827379297282,94.55252918287937,93.87308533916848,199730.0,254568.0,0.0,1.0,0.0,?,0.0,0.0,78.0,59.0,59.0,5.0,0.0,0.0,1.0
1100000.0,4.5,3.081329567875299E-7,1100000.0,96.8,93.58275043316434,93.81044487427465,93.22033898305084,219630.0,255088.0,0.0,1.0,0.0,?,0.0,0.0,78.0,59.0,59.0,5.0,0.0,0.0,1.0
1200000.0,4.921875,3.4695077273580764E-7,1200000.0,98.4,96.78238031460276,96.76113360323886,96.54427645788337,239630.0,264120.0,0.0,1.0,0.0,?,0.0,0.0,80.0,60.0,60.0,5.0,0.0,0.0,1.0
1300000.0,5.328125,3.8283178582787514E-7,1300000.0,97.89999999999999,95.79542542286006,95.92233009708737,95.65217391304347,259630.0,264256.0,0.0,1.0,0.0,?,0.0,0.0,80.0,60.0,60.0,5.0,0.0,0.0,1.0
1400000.0,5.765625,4.202477996134096E-7,1400000.0,97.5,94.99943993727297,95.26515151515152,94.97991967871485,279630.0,267800.0,0.0,1.0,0.0,?,0.0,0.0,84.0,62.0,62.0,5.0,0.0,0.0,1.0
1500000.0,6.203125,4.5714770547217796E-7,1500000.0,95.6,91.1912970014374,90.6779661016949,90.79497907949789,299630.0,277520.0,0.0,1.0,0.0,?,0.0,0.0,102.0,71.0,71.0,5.0,0.0,0.0,1.0
1600000.0,6.625,5.003730055048234E-7,1600000.0,96.89999999999999,93.79508570788063,93.99224806201549,93.56846473029044,319530.0,289832.0,0.0,1.0,0.0,?,0.0,0.0,116.0,78.0,78.0,5.0,0.0,0.0,1.0
1700000.0,7.03125,5.431593227614131E-7,1700000.0,97.2,94.36973167749822,94.08033826638477,93.83259911894272,339530.0,315400.0,0.0,1.0,0.0,?,0.0,0.0,136.0,97.0,97.0,6.0,0.0,0.0,1.0
1800000.0,7.4375,5.88289727198167E-7,1800000.0,97.39999999999999,94.76835903544637,94.921875,94.32314410480349,359530.0,351960.0,0.0,1.0,0.0,?,0.0,0.0,136.0,97.0,97.0,6.0,0.0,0.0,1.0
1900000.0,7.875,6.393038266752329E-7,1900000.0,96.8,93.54304969833935,93.6,92.90465631929045,379530.0,387528.0,0.0,1.0,0.0,?,0.0,0.0,136.0,97.0,97.0,6.0,0.0,0.0,1.0
2000000.0,8.296875,6.879337080236938E-7,2000000.0,97.39999999999999,94.75580189839971,94.7261663286004,94.23503325942349,399530.0,396744.0,0.0,1.0,0.0,?,0.0,0.0,136.0,97.0,97.0,6.0,0.0,0.0,1.0
2100000.0,8.71875,7.431180630293157E-7,2100000.0,97.0,93.98375614158226,94.03578528827038,93.65750528541226,419430.0,399056.0,0.0,1.0,0.0,?,0.0,0.0,136.0,97.0,97.0,6.0,0.0,0.0,1.0
2200000.0,9.140625,7.968460623588827E-7,2200000.0,97.6,95.1968299077391,95.26627218934911,95.07186858316221,439430.0,400112.0,0.0,1.0,0.0,?,0.0,0.0,136.0,97.0,97.0,6.0,0.0,0.0,1.0
2300000.0,9.546875,8.472506629510059E-7,2300000.0,96.89999999999999,93.78852118715385,93.86138613861385,93.52818371607515,459430.0,401824.0,0.0,1.0,0.0,?,0.0,0.0,136.0,97.0,97.0,6.0,0.0,0.0,1.0
2400000.0,9.984375,9.008760874470076E-7,2400000.0,97.8,95.58412049730832,95.72815533980582,95.30916844349679,479430.0,410384.0,0.0,1.0,0.0,?,0.0,0.0,138.0,98.0,98.0,6.0,0.0,0.0,1.0
2500000.0,10.421875,9.534529979444213E-7,2500000.0,96.89999999999999,93.77580031161153,93.9334637964775,93.31896551724137,499430.0,415496.0,0.0,1.0,0.0,?,0.0,0.0,140.0,99.0,99.0,6.0,0.0,0.0,1.0
2600000.0,10.828125,1.0083423047843907E-6,2600000.0,97.89999999999999,95.7907058785799,95.96928982725528,95.58823529411764,519330.0,415632.0,0.0,1.0,0.0,?,0.0,0.0,140.0,99.0,99.0,6.0,0.0,0.0,1.0
2700000.0,11.25,1.0639020992029044E-6,2700000.0,97.39999999999999,94.78026941840156,95.04761904761905,94.40860215053762,539330.0,416832.0,0.0,1.0,0.0,?,0.0,0.0,140.0,99.0,99.0,6.0,0.0,0.0,1.0
2800000.0,11.671875,1.123148184787068E-6,2800000.0,96.8,93.5788100732417,93.56136820925552,93.26315789473684,559330.0,465024.0,0.0,1.0,0.0,?,0.0,0.0,160.0,118.0,118.0,6.0,0.0,0.0,1.0
2900000.0,12.109375,1.1876671083478463E-6,2900000.0,96.89999999999999,93.79245162117134,93.72469635627529,93.59504132231405,579330.0,506472.0,0.0,1.0,0.0,?,0.0,0.0,162.0,119.0,119.0,6.0,0.0,0.0,1.0
3000000.0,12.53125,1.2484201902730597E-6,3000000.0,96.5,92.91601224113084,92.70833333333333,92.09932279909707,599330.0,507480.0,0.0,1.0,0.0,?,0.0,0.0,162.0,119.0,119.0,6.0,0.0,0.0,1.0
3100000.0,12.953125,1.3155042284375262E-6,3100000.0,96.5,92.97442691396684,93.2301740812379,92.61603375527426,619230.0,507744.0,0.0,1.0,0.0,?,0.0,0.0,162.0,119.0,119.0,6.0,0.0,0.0,1.0
3200000.0,13.359375,1.378602885072016E-6,3200000.0,97.39999999999999,94.78642384769941,94.4915254237288,94.45628997867803,639230.0,507864.0,0.0,1.0,0.0,?,0.0,0.0,162.0,119.0,119.0,6.0,0.0,0.0,1.0
3300000.0,13.796875,1.4480275502945813E-6,3300000.0,97.39999999999999,94.77861319966583,95.0191570881226,94.44444444444444,659230.0,535368.0,0.0,1.0,0.0,?,0.0,0.0,182.0,138.0,138.0,6.0,0.0,0.0,1.0
3400000.0,14.25,1.5285490210064583E-6,3400000.0,97.39999999999999,94.77863417102785,94.90196078431372,94.45628997867803,679230.0,623152.0,0.0,1.0,0.0,?,0.0,0.0,202.0,157.0,157.0,6.0,0.0,0.0,1.0
3500000.0,14.703125,1.6169713732476036E-6,3500000.0,97.7,95.37803642911113,95.35353535353535,95.04310344827586,699230.0,704856.0,0.0,1.0,0.0,?,0.0,0.0,222.0,176.0,176.0,6.0,0.0,0.0,1.0
3600000.0,15.15625,1.715212387757169E-6,3600000.0,97.8,95.59619511257726,95.52845528455283,95.43568464730289,719130.0,730936.0,0.0,1.0,0.0,?,0.0,0.0,222.0,176.0,176.0,6.0,0.0,0.0,1.0
3700000.0,15.609375,1.8134487133162718E-6,3700000.0,95.8,91.53447685082537,91.30434782608695,90.76923076923076,739130.0,745248.0,0.0,1.0,0.0,?,0.0,0.0,222.0,176.0,176.0,6.0,0.0,0.0,1.0
3800000.0,16.0625,1.911571566274183E-6,3800000.0,97.0,93.98151120241381,93.89002036659878,93.58974358974358,759130.0,758632.0,0.0,1.0,0.0,?,0.0,0.0,222.0,176.0,176.0,6.0,0.0,0.0,1.0
3900000.0,16.5,2.0054606526779636E-6,3900000.0,97.89999999999999,95.79596412556053,95.8498023715415,95.66115702479338,779130.0,765496.0,0.0,1.0,0.0,?,0.0,0.0,224.0,177.0,177.0,6.0,0.0,0.0,1.0
4000000.0,16.9375,2.097748899056266E-6,4000000.0,97.89999999999999,95.78536679350705,95.8984375,95.53191489361701,799130.0,765752.0,0.0,1.0,0.0,?,0.0,0.0,224.0,177.0,177.0,6.0,0.0,0.0,1.0
4100000.0,17.390625,2.2001311946142884E-6,4100000.0,97.0,93.95122265952641,94.30740037950663,93.36283185840706,819030.0,766000.0,0.0,1.0,0.0,?,0.0,0.0,224.0,177.0,177.0,6.0,0.0,0.0,1.0
4200000.0,17.828125,2.2973749825420485E-6,4200000.0,97.39999999999999,94.78916145582812,94.83101391650099,94.51476793248945,839030.0,766192.0,0.0,1.0,0.0,?,0.0,0.0,224.0,177.0,177.0,6.0,0.0,0.0,1.0
4300000.0,18.296875,2.3998961357089388E-6,4300000.0,96.6,93.16654339646911,93.30708661417322,92.7038626609442,859030.0,766832.0,0.0,1.0,0.0,?,0.0,0.0,224.0,177.0,177.0,6.0,0.0,0.0,1.0
4400000.0,18.734375,2.4939626908033266E-6,4400000.0,95.5,90.98507127803643,90.30172413793103,90.56603773584905,879030.0,766920.0,0.0,1.0,0.0,?,0.0,0.0,224.0,177.0,177.0,6.0,0.0,0.0,1.0
4500000.0,19.1875,2.5897738911832382E-6,4500000.0,96.8,93.58398562812779,93.33333333333333,93.24894514767932,899030.0,767544.0,0.0,1.0,0.0,?,0.0,0.0,224.0,177.0,177.0,6.0,0.0,0.0,1.0
4600000.0,19.625,2.6936401587186597E-6,4600000.0,98.0,95.98554797270172,96.13152804642165,95.74468085106382,918930.0,810352.0,0.0,1.0,0.0,?,0.0,0.0,244.0,196.0,196.0,6.0,0.0,0.0,1.0
4700000.0,20.09375,2.8052504381371876E-6,4700000.0,98.3,96.57036797934151,96.39830508474576,96.26373626373625,938930.0,827368.0,0.0,1.0,0.0,?,0.0,0.0,244.0,196.0,196.0,6.0,0.0,0.0,1.0
4800000.0,20.546875,2.9133129282854505E-6,4800000.0,97.6,95.18397225968022,95.29411764705881,94.87179487179486,958930.0,843160.0,0.0,1.0,0.0,?,0.0,0.0,248.0,198.0,198.0,6.0,0.0,0.0,1.0
4900000.0,21.0,3.0204085568483514E-6,4900000.0,97.7,95.36973659840719,95.35353535353535,95.02164502164501,978930.0,849296.0,0.0,1.0,0.0,?,0.0,0.0,248.0,198.0,198.0,6.0,0.0,0.0,1.0
5000000.0,21.46875,3.130489915040219E-6,5000000.0,97.1,94.19210125771048,94.14141414141413,93.95833333333333,998930.0,854640.0,0.0,1.0,0.0,?,0.0,0.0,248.0,198.0,198.0,6.0,0.0,0.0,1.0
5100000.0,22.25,3.163474256224517E-6,5100000.0,88.1,74.54545454545455,73.90350877192982,67.83783783783784,10746.0,54176.0,0.0,1.0,0.0,?,7.0,69.0,17.0,12.0,12.0,4.0,0.0,0.0,1.0
5200000.0,22.796875,3.190801944583655E-6,5200000.0,87.2,73.60051808983249,72.41379310344827,66.9250645994832,30746.0,97656.0,0.0,1.0,0.0,?,0.0,8.0,38.0,24.0,24.0,5.0,0.0,0.0,1.0
5300000.0,23.34375,3.2357157841842215E-6,5300000.0,89.2,77.86594963273872,77.77777777777779,72.72727272727273,50746.0,235992.0,0.0,1.0,0.0,?,0.0,0.0,78.0,53.0,53.0,7.0,0.0,0.0,1.0
5400000.0,23.828125,3.2845218083821245E-6,5400000.0,93.0,85.13421678559294,85.07462686567166,81.0810810810811,70746.0,322240.0,0.0,1.0,0.0,?,0.0,0.0,106.0,76.0,76.0,7.0,0.0,0.0,1.0
5500000.0,24.296875,3.334165182119857E-6,5500000.0,90.9,81.15505044648035,81.54158215010142,77.64127764127765,90746.0,356344.0,0.0,1.0,0.0,?,0.0,0.0,120.0,83.0,83.0,8.0,0.0,0.0,1.0
5600000.0,24.796875,3.4073216051587635E-6,5600000.0,90.5,79.73203618364909,79.21225382932167,75.32467532467533,110646.0,454768.0,0.0,1.0,0.0,?,0.0,0.0,146.0,105.0,105.0,8.0,0.0,0.0,1.0
5700000.0,25.375,3.5170266508228254E-6,5700000.0,93.2,85.31444367657222,84.75336322869957,81.11111111111113,130646.0,636816.0,0.0,1.0,0.0,?,0.0,0.0,196.0,148.0,148.0,9.0,0.0,0.0,1.0
5800000.0,25.9375,3.6354221972740362E-6,5800000.0,92.2,83.5404146127355,83.85093167701864,80.40201005025128,150646.0,731168.0,0.0,1.0,0.0,?,0.0,0.0,220.0,169.0,169.0,9.0,0.0,0.0,1.0
5900000.0,26.546875,3.7911307946261434E-6,5900000.0,92.5,84.28845557613187,84.472049689441,81.15577889447238,170646.0,919344.0,0.0,1.0,0.0,?,0.0,0.0,270.0,212.0,212.0,10.0,0.0,0.0,1.0
6000000.0,27.09375,3.942086704127077E-6,6000000.0,91.10000000000001,81.35860185324822,80.98290598290599,78.239608801956,190646.0,1012888.0,0.0,1.0,0.0,?,0.0,0.0,294.0,233.0,233.0,10.0,0.0,0.0,1.0
6100000.0,27.609375,4.093144703397734E-6,6100000.0,91.4,81.76791832027408,80.84632516703788,77.60416666666667,210546.0,1020552.0,0.0,1.0,0.0,?,0.0,0.0,296.0,234.0,234.0,10.0,0.0,0.0,1.0
6200000.0,28.140625,4.249812627676875E-6,6200000.0,92.0,82.59696752159064,82.75862068965519,77.83933518005541,230546.0,1042336.0,0.0,1.0,0.0,?,0.0,0.0,308.0,240.0,240.0,10.0,0.0,0.0,1.0
6300000.0,28.703125,4.437777970451862E-6,6300000.0,91.3,81.58449541517439,81.91268191268192,77.51937984496125,250546.0,1208264.0,0.0,1.0,0.0,?,0.0,0.0,350.0,279.0,279.0,10.0,0.0,0.0,1.0
6400000.0,29.234375,4.6254357827516894E-6,6400000.0,92.5,83.9441685220072,82.75862068965519,79.33884297520663,270546.0,1296296.0,0.0,1.0,0.0,?,0.0,0.0,370.0,298.0,298.0,10.0,0.0,0.0,1.0
6500000.0,29.765625,4.811641184561369E-6,6500000.0,93.5,86.08101278833719,85.36036036036036,82.3848238482385,290546.0,1300128.0,0.0,1.0,0.0,?,0.0,0.0,370.0,298.0,298.0,10.0,0.0,0.0,1.0
6600000.0,30.296875,5.007718799687508E-6,6600000.0,93.8,86.97128639634187,86.91983122362869,83.85416666666666,310446.0,1314288.0,0.0,1.0,0.0,?,0.0,0.0,376.0,301.0,301.0,10.0,0.0,0.0,1.0
6700000.0,30.828125,5.202995994800909E-6,6700000.0,92.5,84.41979309485231,83.76623376623378,81.34328358208957,330446.0,1322816.0,0.0,1.0,0.0,?,0.0,0.0,380.0,303.0,303.0,10.0,0.0,0.0,1.0
6800000.0,31.390625,5.407914900893553E-6,6800000.0,92.30000000000001,83.80937962589155,82.69662921348315,80.15463917525774,350446.0,1324536.0,0.0,1.0,0.0,?,0.0,0.0,380.0,303.0,303.0,10.0,0.0,0.0,1.0
6900000.0,31.984375,5.643719697319385E-6,6900000.0,92.9,85.14097240825075,85.05263157894738,81.70103092783506,370446.0,1465760.0,0.0,1.0,0.0,?,0.0,0.0,422.0,342.0,342.0,11.0,0.0,0.0,1.0
7000000.0,32.609375,5.908517988346931E-6,7000000.0,92.9,84.67489186085666,85.11530398322851,80.38674033149172,390446.0,1582624.0,0.0,1.0,0.0,?,0.0,0.0,460.0,377.0,377.0,11.0,0.0,0.0,1.0
7100000.0,33.21875,6.18126783390633E-6,7100000.0,93.89999999999999,87.06091973527913,87.57637474541751,83.98950131233595,410346.0,1617200.0,0.0,1.0,0.0,?,0.0,0.0,460.0,377.0,377.0,11.0,0.0,0.0,1.0
7200000.0,33.796875,6.4398701781303524E-6,7200000.0,93.8,86.85594111461619,87.42393509127788,83.59788359788358,430346.0,1630464.0,0.0,1.0,0.0,?,0.0,0.0,464.0,379.0,379.0,11.0,0.0,0.0,1.0
7300000.0,34.34375,6.683962063915614E-6,7300000.0,92.5,83.99228214563182,84.27672955974843,79.78436657681942,450346.0,1641064.0,0.0,1.0,0.0,?,0.0,0.0,466.0,380.0,380.0,11.0,0.0,0.0,1.0
7400000.0,34.890625,6.926155894891256E-6,7400000.0,92.80000000000001,84.89552739783504,84.9056603773585,81.53846153846155,470346.0,1642040.0,0.0,1.0,0.0,?,0.0,0.0,468.0,381.0,381.0,11.0,0.0,0.0,1.0
7500000.0,35.453125,7.173743344739908E-6,7500000.0,92.80000000000001,85.14361175305382,84.68085106382979,82.1782178217822,490346.0,1645936.0,0.0,1.0,0.0,?,0.0,0.0,468.0,381.0,381.0,11.0,0.0,0.0,1.0
7600000.0,36.03125,7.437069434672594E-6,7600000.0,93.60000000000001,86.62117867415881,86.85831622176593,83.83838383838386,510246.0,1647584.0,0.0,1.0,0.0,?,0.0,0.0,468.0,381.0,381.0,11.0,0.0,0.0,1.0
7700000.0,36.609375,7.699385686363611E-6,7700000.0,91.7,81.81865975045564,82.03463203463204,76.68539325842697,530246.0,1655184.0,0.0,1.0,0.0,?,0.0,0.0,472.0,383.0,383.0,11.0,0.0,0.0,1.0
7800000.0,37.234375,7.993903515549998E-6,7800000.0,93.2,85.52421500798299,85.37634408602152,81.86666666666667,550246.0,1737048.0,0.0,1.0,0.0,?,0.0,0.0,498.0,405.0,405.0,11.0,0.0,0.0,1.0
7900000.0,37.828125,8.272324080785945E-6,7900000.0,95.0,89.2998232330798,89.87854251012145,86.73740053050398,570246.0,1742496.0,0.0,1.0,0.0,?,0.0,0.0,500.0,406.0,406.0,11.0,0.0,0.0,1.0
8000000.0,38.421875,8.558193803764881E-6,8000000.0,90.9,81.02490533304419,80.67940552016985,76.60668380462727,590246.0,1805328.0,0.0,1.0,0.0,?,0.0,0.0,524.0,427.0,427.0,11.0,0.0,0.0,1.0
8100000.0,39.046875,8.881277365920445E-6,8100000.0,92.5,84.11218912850063,83.10810810810811,79.89276139410188,610146.0,1884608.0,0.0,1.0,0.0,?,0.0,0.0,544.0,446.0,446.0,11.0,0.0,0.0,1.0
8200000.0,39.671875,9.216984229472777E-6,8200000.0,94.1,87.69294952023363,88.22355289421156,85.13853904282115,630146.0,1976912.0,0.0,1.0,0.0,?,0.0,0.0,566.0,466.0,466.0,11.0,0.0,0.0,1.0
8300000.0,40.296875,9.565353199529151E-6,8300000.0,92.5,84.51616099889343,84.37500000000001,81.57248157248158,650146.0,2069488.0,0.0,1.0,0.0,?,0.0,0.0,588.0,486.0,486.0,11.0,0.0,0.0,1.0
8400000.0,40.921875,9.91508164184375E-6,8400000.0,92.60000000000001,84.32767859033824,83.44519015659955,80.47493403693933,670146.0,2092216.0,0.0,1.0,0.0,?,0.0,0.0,592.0,488.0,488.0,11.0,0.0,0.0,1.0
8500000.0,41.53125,1.0254764088636472E-5,8500000.0,93.7,86.80130729908657,86.33405639913234,84.05063291139243,690146.0,2098328.0,0.0,1.0,0.0,?,0.0,0.0,594.0,489.0,489.0,11.0,0.0,0.0,1.0
8600000.0,42.140625,1.060415499119295E-5,8600000.0,92.80000000000001,85.01248959200667,85.3658536585366,82.08955223880598,710046.0,2102272.0,0.0,1.0,0.0,?,0.0,0.0,600.0,492.0,492.0,11.0,0.0,0.0,1.0
8700000.0,42.78125,1.0971875712534206E-5,8700000.0,94.1,87.58260723155279,87.31182795698923,84.75452196382427,730046.0,2119112.0,0.0,1.0,0.0,?,0.0,0.0,600.0,492.0,492.0,11.0,0.0,0.0,1.0
8800000.0,43.421875,1.1337898031342775E-5,8800000.0,94.0,87.38971252747992,86.72566371681415,84.65473145780051,750046.0,2123240.0,0.0,1.0,0.0,?,0.0,0.0,602.0,493.0,493.0,11.0,0.0,0.0,1.0
8900000.0,44.03125,1.1684443743433805E-5,8900000.0,92.80000000000001,84.79627001824448,84.58244111349038,81.151832460733,770046.0,2127328.0,0.0,1.0,0.0,?,0.0,0.0,604.0,494.0,494.0,11.0,0.0,0.0,1.0
9000000.0,44.640625,1.2028827817024043E-5,9000000.0,92.5,84.02923289211428,84.04255319148936,79.67479674796749,790046.0,2128016.0,0.0,1.0,0.0,?,0.0,0.0,604.0,494.0,494.0,11.0,0.0,0.0,1.0
9100000.0,45.28125,1.2410172882179421E-5,9100000.0,93.5,86.1440338341377,85.9002169197397,82.33695652173914,809946.0,2186704.0,0.0,1.0,0.0,?,0.0,0.0,626.0,514.0,514.0,11.0,0.0,0.0,1.0
9200000.0,45.890625,1.2775013068070017E-5,9200000.0,94.19999999999999,87.78721110437301,87.49999999999999,85.05154639175257,829946.0,2214304.0,0.0,1.0,0.0,?,0.0,0.0,628.0,515.0,515.0,11.0,0.0,0.0,1.0
9300000.0,46.546875,1.3168163713999095E-5,9300000.0,93.30000000000001,86.01462828134395,85.77494692144376,82.86445012787725,849946.0,2230056.0,0.0,1.0,0.0,?,0.0,0.0,636.0,519.0,519.0,12.0,0.0,0.0,1.0
9400000.0,47.171875,1.3544521514429817E-5,9400000.0,93.0,85.52061657351598,85.32494758909854,82.80098280098281,869946.0,2256480.0,0.0,1.0,0.0,?,0.0,0.0,660.0,540.0,540.0,12.0,0.0,0.0,1.0
9500000.0,47.828125,1.3945275245027413E-5,9500000.0,92.80000000000001,84.70740161761708,84.81012658227849,80.64516129032259,889946.0,2303528.0,0.0,1.0,0.0,?,0.0,0.0,660.0,540.0,540.0,12.0,0.0,0.0,1.0
9600000.0,48.46875,1.4349479137712886E-5,9600000.0,94.3,87.69801873354339,87.33333333333331,84.1225626740947,909846.0,2324208.0,0.0,1.0,0.0,?,0.0,0.0,668.0,544.0,544.0,12.0,0.0,0.0,1.0
9700000.0,49.125,1.4765145671036513E-5,9700000.0,92.7,84.451809127853,84.33476394849787,80.7387862796834,929846.0,2347936.0,0.0,1.0,0.0,?,0.0,0.0,674.0,547.0,547.0,12.0,0.0,0.0,1.0
9800000.0,49.765625,1.5170086731409866E-5,9800000.0,95.0,89.25156497214005,89.27038626609442,86.26373626373625,949846.0,2357296.0,0.0,1.0,0.0,?,0.0,0.0,676.0,548.0,548.0,12.0,0.0,0.0,1.0
9900000.0,50.421875,1.558256426101758E-5,9900000.0,94.1,86.80644382228502,87.39316239316238,82.54437869822483,969846.0,2357912.0,0.0,1.0,0.0,?,0.0,0.0,676.0,548.0,548.0,12.0,0.0,0.0,1.0
1.0E7,51.078125,1.6005401978165747E-5,1.0E7,94.69999999999999,88.71158744898915,88.8655462184874,85.82887700534758,989846.0,2433224.0,0.0,1.0,0.0,?,0.0,0.0,704.0,571.0,571.0,12.0,0.0,0.0,1.0
