learning evaluation instances,evaluation time (cpu seconds),model cost (RAM-Hours),classified instances,classifications correct (percent),Kappa Statistic (percent),Kappa Temporal Statistic (percent),Kappa M Statistic (percent),model training instances,model serialized size (bytes),labeling cost,newThreshold,maxPosterior,accuracyBaseLearner (percent),Change detected,Warning detected,tree size (nodes),tree size (leaves),active learning leaves,tree depth,active leaf byte size estimate,inactive leaf byte size estimate,byte size estimate overhead
100000.0,0.1875,0.0,100000.0,98.0,95.91775084400501,95.81589958158996,95.35962877030161,29700.0,0.0,0.0,1.0,0.0,?,0.0,3.0,32.0,18.0,18.0,5.0,0.0,0.0,1.0
200000.0,0.34375,0.0,200000.0,97.7,95.35270916849863,95.53398058252426,94.91150442477876,59700.0,0.0,0.0,1.0,0.0,?,0.0,0.0,36.0,20.0,20.0,5.0,0.0,0.0,1.0
300000.0,0.5,0.0,300000.0,97.0,93.95539078398582,93.76299376299376,93.4640522875817,89700.0,0.0,0.0,1.0,0.0,?,0.0,0.0,38.0,21.0,21.0,5.0,0.0,0.0,1.0
400000.0,0.625,0.0,400000.0,97.5,94.96049024350911,95.0592885375494,94.56521739130434,119700.0,0.0,0.0,1.0,0.0,?,0.0,0.0,38.0,21.0,21.0,5.0,0.0,0.0,1.0
500000.0,0.796875,0.0,500000.0,97.6,95.16637732064238,95.01039501039502,94.81641468682504,149700.0,0.0,0.0,1.0,0.0,?,0.0,0.0,40.0,22.0,22.0,5.0,0.0,0.0,1.0
600000.0,0.96875,0.0,600000.0,96.6,93.12342243220503,93.30708661417322,92.47787610619469,179700.0,0.0,0.0,1.0,0.0,?,0.0,0.0,66.0,44.0,44.0,5.0,0.0,0.0,1.0
700000.0,1.125,0.0,700000.0,96.89999999999999,93.67109281852777,93.66053169734151,92.84064665127019,209700.0,0.0,0.0,1.0,0.0,?,0.0,0.0,66.0,44.0,44.0,5.0,0.0,0.0,1.0
800000.0,1.296875,0.0,800000.0,97.6,95.13681753339385,95.18072289156626,94.57013574660633,239700.0,0.0,0.0,1.0,0.0,?,0.0,0.0,68.0,45.0,45.0,5.0,0.0,0.0,1.0
900000.0,1.484375,0.0,900000.0,97.0,93.99519615692553,93.69747899159663,93.9879759519038,269700.0,0.0,0.0,1.0,0.0,?,0.0,0.0,90.0,65.0,65.0,5.0,0.0,0.0,1.0
1000000.0,1.65625,0.0,1000000.0,96.89999999999999,93.75488529134466,93.96887159533074,93.21663019693653,299700.0,0.0,0.0,1.0,0.0,?,0.0,0.0,90.0,65.0,65.0,5.0,0.0,0.0,1.0
1100000.0,1.8125,0.0,1100000.0,96.7,93.37551590679149,93.61702127659574,93.00847457627118,329400.0,0.0,0.0,1.0,0.0,?,0.0,0.0,90.0,65.0,65.0,5.0,0.0,0.0,1.0
1200000.0,1.984375,0.0,1200000.0,97.6,95.17357047190414,95.1417004048583,94.81641468682504,359400.0,0.0,0.0,1.0,0.0,?,0.0,0.0,90.0,65.0,65.0,5.0,0.0,0.0,1.0
1300000.0,2.171875,0.0,1300000.0,97.1,94.18972743811057,94.36893203883496,93.99585921325051,389400.0,0.0,0.0,1.0,0.0,?,0.0,0.0,90.0,65.0,65.0,5.0,0.0,0.0,1.0
1400000.0,2.359375,0.0,1400000.0,97.0,93.99807938540332,94.31818181818181,93.97590361445782,419400.0,0.0,0.0,1.0,0.0,?,0.0,0.0,90.0,65.0,65.0,5.0,0.0,0.0,1.0
1500000.0,2.515625,0.0,1500000.0,96.8,93.58684019608235,93.22033898305084,93.30543933054393,449400.0,0.0,0.0,1.0,0.0,?,0.0,0.0,90.0,65.0,65.0,5.0,0.0,0.0,1.0
1600000.0,2.703125,0.0,1600000.0,97.7,95.39170506912443,95.54263565891472,95.22821576763485,479400.0,0.0,0.0,1.0,0.0,?,0.0,0.0,90.0,65.0,65.0,5.0,0.0,0.0,1.0
1700000.0,2.859375,0.0,1700000.0,96.7,93.3519746649798,93.02325581395348,92.73127753303963,509400.0,0.0,0.0,1.0,0.0,?,0.0,0.0,92.0,66.0,66.0,5.0,0.0,0.0,1.0
1800000.0,3.046875,0.0,1800000.0,97.2,94.36020561078973,94.53125,93.88646288209607,539400.0,0.0,0.0,1.0,0.0,?,0.0,0.0,92.0,66.0,66.0,5.0,0.0,0.0,1.0
1900000.0,3.21875,0.0,1900000.0,97.1,94.1379561276551,94.19999999999999,93.56984478935698,569400.0,0.0,0.0,1.0,0.0,?,0.0,0.0,96.0,68.0,68.0,6.0,0.0,0.0,1.0
2000000.0,3.390625,0.0,2000000.0,97.39999999999999,94.75165222025296,94.7261663286004,94.23503325942349,599400.0,0.0,0.0,1.0,0.0,?,0.0,0.0,96.0,68.0,68.0,6.0,0.0,0.0,1.0
2100000.0,3.5625,0.0,2100000.0,96.5,92.97267777117432,93.0417495029821,92.60042283298097,629100.0,0.0,0.0,1.0,0.0,?,0.0,0.0,96.0,68.0,68.0,6.0,0.0,0.0,1.0
2200000.0,3.75,0.0,2200000.0,97.5,94.99515531034041,95.06903353057199,94.8665297741273,659100.0,0.0,0.0,1.0,0.0,?,0.0,0.0,96.0,68.0,68.0,6.0,0.0,0.0,1.0
2300000.0,3.921875,0.0,2300000.0,97.3,94.58726925729314,94.65346534653465,94.36325678496867,689100.0,0.0,0.0,1.0,0.0,?,0.0,0.0,96.0,68.0,68.0,6.0,0.0,0.0,1.0
2400000.0,4.09375,0.0,2400000.0,97.39999999999999,94.7747305971679,94.9514563106796,94.45628997867803,719100.0,0.0,0.0,1.0,0.0,?,0.0,0.0,96.0,68.0,68.0,6.0,0.0,0.0,1.0
2500000.0,4.25,0.0,2500000.0,96.1,92.14684987998774,92.3679060665362,91.59482758620689,749100.0,0.0,0.0,1.0,0.0,?,0.0,0.0,96.0,68.0,68.0,6.0,0.0,0.0,1.0
2600000.0,4.4375,0.0,2600000.0,97.7,95.38626953814551,95.58541266794626,95.16806722689076,779100.0,0.0,0.0,1.0,0.0,?,0.0,0.0,96.0,68.0,68.0,6.0,0.0,0.0,1.0
2700000.0,4.640625,0.0,2700000.0,97.0,93.97215133918704,94.28571428571428,93.54838709677419,809100.0,0.0,0.0,1.0,0.0,?,0.0,0.0,96.0,68.0,68.0,6.0,0.0,0.0,1.0
2800000.0,4.828125,0.0,2800000.0,97.3,94.57831325301204,94.56740442655935,94.3157894736842,839100.0,0.0,0.0,1.0,0.0,?,0.0,0.0,96.0,68.0,68.0,6.0,0.0,0.0,1.0
2900000.0,4.984375,0.0,2900000.0,97.0,93.99308002819248,93.92712550607287,93.80165289256198,869100.0,0.0,0.0,1.0,0.0,?,0.0,0.0,96.0,68.0,68.0,6.0,0.0,0.0,1.0
3000000.0,5.140625,0.0,3000000.0,96.7,93.31155196316084,93.12499999999999,92.55079006772007,899100.0,0.0,0.0,1.0,0.0,?,0.0,0.0,96.0,68.0,68.0,6.0,0.0,0.0,1.0
3100000.0,5.3125,0.0,3100000.0,95.7,91.36317256782922,91.68278529980657,90.92827004219409,928800.0,0.0,0.0,1.0,0.0,?,0.0,0.0,96.0,68.0,68.0,6.0,0.0,0.0,1.0
3200000.0,5.46875,0.0,3200000.0,97.7,95.38052429040835,95.12711864406779,95.0959488272921,958800.0,0.0,0.0,1.0,0.0,?,0.0,0.0,96.0,68.0,68.0,6.0,0.0,0.0,1.0
3300000.0,5.65625,0.0,3300000.0,96.8,93.56209360715894,93.86973180076627,93.16239316239316,988800.0,0.0,0.0,1.0,0.0,?,0.0,0.0,96.0,68.0,68.0,6.0,0.0,0.0,1.0
3400000.0,5.828125,0.0,3400000.0,96.89999999999999,93.77219909676798,93.92156862745098,93.39019189765457,1018800.0,0.0,0.0,1.0,0.0,?,0.0,0.0,96.0,68.0,68.0,6.0,0.0,0.0,?
3500000.0,6.0,0.0,3500000.0,97.3,94.57264613652809,94.54545454545455,94.18103448275862,1048800.0,0.0,0.0,1.0,0.0,?,0.0,0.0,96.0,68.0,68.0,6.0,0.0,0.0,?
3600000.0,6.171875,0.0,3600000.0,98.0,95.99480927281758,95.9349593495935,95.85062240663899,1078800.0,0.0,0.0,1.0,0.0,?,0.0,0.0,96.0,68.0,68.0,6.0,0.0,0.0,?
3700000.0,6.34375,0.0,3700000.0,96.89999999999999,93.73914448438825,93.58178053830227,93.18681318681318,1108800.0,0.0,0.0,1.0,0.0,?,0.0,0.0,96.0,68.0,68.0,6.0,0.0,0.0,?
3800000.0,6.515625,0.0,3800000.0,97.8,95.58076750016069,95.5193482688391,95.2991452991453,1138800.0,0.0,0.0,1.0,0.0,?,0.0,0.0,96.0,68.0,68.0,6.0,0.0,0.0,?
3900000.0,6.6875,0.0,3900000.0,97.6,95.19446402255399,95.25691699604742,95.04132231404958,1168800.0,0.0,0.0,1.0,0.0,?,0.0,0.0,98.0,69.0,69.0,6.0,0.0,0.0,?
4000000.0,6.859375,0.0,4000000.0,98.0,95.9835647469445,96.09375,95.74468085106382,1198800.0,0.0,0.0,1.0,0.0,?,0.0,0.0,98.0,69.0,69.0,6.0,0.0,0.0,?
4100000.0,7.03125,0.0,4100000.0,96.7,93.3321479374111,93.7381404174573,92.69911504424778,1228500.0,0.0,0.0,1.0,0.0,?,0.0,0.0,118.0,88.0,88.0,6.0,0.0,0.0,?
4200000.0,7.1875,0.0,4200000.0,96.39999999999999,92.77294189445283,92.84294234592446,92.40506329113923,1258500.0,0.0,0.0,1.0,0.0,?,0.0,0.0,120.0,89.0,89.0,6.0,0.0,0.0,?
4300000.0,7.375,0.0,4300000.0,96.7,93.35754140465858,93.503937007874,92.91845493562231,1288500.0,0.0,0.0,1.0,0.0,?,0.0,0.0,140.0,108.0,108.0,6.0,0.0,0.0,?
4400000.0,7.5625,0.0,4400000.0,95.7,91.37460684254445,90.73275862068965,90.98532494758909,1318500.0,0.0,0.0,1.0,0.0,?,0.0,0.0,140.0,108.0,108.0,6.0,0.0,0.0,?
4500000.0,7.734375,0.0,4500000.0,97.1,94.1763793948254,93.95833333333333,93.88185654008439,1348500.0,0.0,0.0,1.0,0.0,?,0.0,0.0,140.0,108.0,108.0,6.0,0.0,0.0,?
4600000.0,7.90625,0.0,4600000.0,97.6,95.18265756724207,95.35783365570599,94.89361702127658,1378500.0,0.0,0.0,1.0,0.0,?,0.0,0.0,142.0,109.0,109.0,6.0,0.0,0.0,?
4700000.0,8.09375,0.0,4700000.0,97.7,95.3582240161453,95.12711864406779,94.94505494505493,1408500.0,0.0,0.0,1.0,0.0,?,0.0,0.0,142.0,109.0,109.0,6.0,0.0,0.0,?
4800000.0,8.265625,0.0,4800000.0,97.39999999999999,94.77592747379926,94.90196078431372,94.44444444444444,1438500.0,0.0,0.0,1.0,0.0,?,0.0,0.0,142.0,109.0,109.0,6.0,0.0,0.0,?
4900000.0,8.453125,0.0,4900000.0,97.6,95.16472181032815,95.15151515151514,94.8051948051948,1468500.0,0.0,0.0,1.0,0.0,?,0.0,0.0,142.0,109.0,109.0,6.0,0.0,0.0,?
5000000.0,8.609375,0.0,5000000.0,97.2,94.38562720564644,94.34343434343434,94.16666666666667,1498500.0,0.0,0.0,1.0,0.0,?,0.0,0.0,142.0,109.0,109.0,6.0,0.0,0.0,?
5100000.0,9.03125,0.0,5100000.0,76.8,50.51194539249148,49.122807017543856,37.2972972972973,2981.0,0.0,0.0,1.0,0.0,?,9.0,79.0,1.0,1.0,1.0,0.0,0.0,0.0,1.0
5200000.0,9.265625,0.0,5200000.0,88.5,75.9567137218171,75.21551724137932,70.2842377260982,32981.0,0.0,0.0,1.0,0.0,?,0.0,6.0,43.0,28.0,28.0,6.0,0.0,0.0,1.0
5300000.0,9.5,0.0,5300000.0,91.60000000000001,82.36361193227629,82.71604938271606,78.7878787878788,62981.0,0.0,0.0,1.0,0.0,?,0.0,0.0,81.0,47.0,47.0,8.0,0.0,0.0,1.0
5400000.0,9.703125,0.0,5400000.0,93.30000000000001,85.68437246271527,85.71428571428572,81.89189189189192,92981.0,0.0,0.0,1.0,0.0,?,0.0,0.0,107.0,60.0,60.0,8.0,0.0,0.0,1.0
5500000.0,9.90625,0.0,5500000.0,93.0,85.39701348064271,85.80121703853956,82.80098280098281,122981.0,0.0,0.0,1.0,0.0,?,0.0,0.0,117.0,65.0,65.0,8.0,0.0,0.0,1.0
5600000.0,10.125,0.0,5600000.0,93.2,85.612424094958,85.1203501094092,82.33766233766235,152981.0,0.0,0.0,1.0,0.0,?,0.0,0.0,135.0,74.0,74.0,9.0,0.0,0.0,1.0
5700000.0,10.328125,0.0,5700000.0,93.2,85.31444367657222,84.75336322869957,81.11111111111113,182981.0,0.0,0.0,1.0,0.0,?,0.0,0.0,157.0,85.0,85.0,9.0,0.0,0.0,1.0
5800000.0,10.546875,0.0,5800000.0,93.7,86.82482454012364,86.95652173913044,84.1708542713568,212981.0,0.0,0.0,1.0,0.0,?,0.0,0.0,197.0,114.0,114.0,10.0,0.0,0.0,1.0
5900000.0,10.765625,0.0,5900000.0,94.3,88.11003846506853,88.19875776397514,85.67839195979899,242981.0,0.0,0.0,1.0,0.0,?,0.0,0.0,254.0,162.0,162.0,10.0,0.0,0.0,1.0
6000000.0,10.984375,0.0,6000000.0,94.39999999999999,88.26610790990046,88.03418803418802,86.30806845965769,272981.0,0.0,0.0,1.0,0.0,?,0.0,0.0,270.0,170.0,170.0,10.0,0.0,0.0,1.0
6100000.0,11.203125,0.0,6100000.0,92.30000000000001,83.69997798438585,82.85077951002228,79.94791666666667,302681.0,0.0,0.0,1.0,0.0,?,0.0,0.0,296.0,192.0,192.0,10.0,0.0,0.0,1.0
6200000.0,11.421875,0.0,6200000.0,94.1,87.25007995712568,87.28448275862067,83.65650969529085,332681.0,0.0,0.0,1.0,0.0,?,0.0,0.0,326.0,216.0,216.0,11.0,0.0,0.0,1.0
6300000.0,11.640625,0.0,6300000.0,93.60000000000001,86.51103776487898,86.69438669438671,83.46253229974162,362681.0,0.0,0.0,1.0,0.0,?,0.0,0.0,330.0,218.0,218.0,11.0,0.0,0.0,1.0
6400000.0,11.84375,0.0,6400000.0,94.1,87.27987719691612,86.43678160919539,83.74655647382919,392681.0,0.0,0.0,1.0,0.0,?,0.0,0.0,336.0,221.0,221.0,12.0,0.0,0.0,1.0
6500000.0,12.03125,0.0,6500000.0,94.3,87.72525238603865,87.16216216216215,84.55284552845526,422681.0,0.0,0.0,1.0,0.0,?,0.0,0.0,364.0,244.0,244.0,12.0,0.0,0.0,1.0
6600000.0,12.265625,0.0,6600000.0,95.3,90.07986761899936,90.08438818565399,87.76041666666666,452681.0,0.0,0.0,1.0,0.0,?,0.0,0.0,368.0,246.0,246.0,12.0,0.0,0.0,1.0
6700000.0,12.484375,0.0,6700000.0,94.3,88.2451929025712,87.66233766233765,85.82089552238806,482681.0,0.0,0.0,1.0,0.0,?,0.0,0.0,380.0,252.0,252.0,12.0,0.0,0.0,1.0
6800000.0,12.703125,0.0,6800000.0,93.5,86.3454557676795,85.3932584269663,83.24742268041238,512681.0,0.0,0.0,1.0,0.0,?,0.0,0.0,384.0,254.0,254.0,12.0,0.0,0.0,1.0
6900000.0,12.9375,0.0,6900000.0,95.0,89.50144460122287,89.4736842105263,87.11340206185567,542681.0,0.0,0.0,1.0,0.0,?,0.0,0.0,410.0,276.0,276.0,12.0,0.0,0.0,1.0
7000000.0,13.1875,0.0,7000000.0,94.5,88.10008048672834,88.46960167714883,84.80662983425414,572681.0,0.0,0.0,1.0,0.0,?,0.0,0.0,460.0,319.0,319.0,12.0,0.0,0.0,1.0
7100000.0,13.4375,0.0,7100000.0,94.8,88.95323394076384,89.40936863543787,86.35170603674538,602381.0,0.0,0.0,1.0,0.0,?,0.0,0.0,488.0,342.0,342.0,13.0,0.0,0.0,1.0
7200000.0,13.671875,0.0,7200000.0,95.0,89.41090761228672,89.85801217038538,86.77248677248676,632381.0,0.0,0.0,1.0,0.0,?,0.0,0.0,536.0,384.0,384.0,13.0,0.0,0.0,1.0
7300000.0,13.9375,0.0,7300000.0,92.9,84.795792503255,85.11530398322851,80.86253369272238,662381.0,0.0,0.0,1.0,0.0,?,0.0,0.0,558.0,404.0,404.0,13.0,0.0,0.0,1.0
7400000.0,14.1875,0.0,7400000.0,92.7,84.67867187172061,84.69601677148847,81.2820512820513,692381.0,0.0,0.0,1.0,0.0,?,0.0,0.0,562.0,406.0,406.0,13.0,0.0,0.0,1.0
7500000.0,14.421875,0.0,7500000.0,93.7,86.9851920407219,86.59574468085107,84.40594059405943,722381.0,0.0,0.0,1.0,0.0,?,0.0,0.0,590.0,429.0,429.0,13.0,0.0,0.0,1.0
7600000.0,14.671875,0.0,7600000.0,94.5,88.48755819016041,88.70636550308008,86.1111111111111,752381.0,0.0,0.0,1.0,0.0,?,0.0,0.0,596.0,432.0,432.0,14.0,0.0,0.0,1.0
7700000.0,14.953125,0.0,7700000.0,93.2,85.1325823829847,85.2813852813853,80.89887640449439,782381.0,0.0,0.0,1.0,0.0,?,0.0,0.0,658.0,490.0,490.0,14.0,0.0,0.0,1.0
7800000.0,15.203125,0.0,7800000.0,95.0,89.31052912880811,89.24731182795698,86.66666666666666,812381.0,0.0,0.0,1.0,0.0,?,0.0,0.0,658.0,490.0,490.0,14.0,0.0,0.0,1.0
7900000.0,15.46875,0.0,7900000.0,95.1,89.48615175988944,90.08097165991902,87.00265251989389,842381.0,0.0,0.0,1.0,0.0,?,0.0,0.0,660.0,491.0,491.0,14.0,0.0,0.0,1.0
8000000.0,15.75,0.0,8000000.0,92.30000000000001,83.95900170826216,83.65180467091295,80.2056555269923,872381.0,0.0,0.0,1.0,0.0,?,0.0,0.0,666.0,494.0,494.0,14.0,0.0,0.0,1.0
8100000.0,16.015625,0.0,8100000.0,94.5,88.32380839157275,87.6126126126126,85.25469168900803,902081.0,0.0,0.0,1.0,0.0,?,0.0,0.0,686.0,513.0,513.0,14.0,0.0,0.0,1.0
8200000.0,16.265625,0.0,8200000.0,94.69999999999999,88.90637820459149,89.42115768463073,86.64987405541561,932081.0,0.0,0.0,1.0,0.0,?,0.0,0.0,710.0,534.0,534.0,14.0,0.0,0.0,1.0
8300000.0,16.546875,0.0,8300000.0,94.1,87.72510901767583,87.70833333333331,85.50368550368549,962081.0,0.0,0.0,1.0,0.0,?,0.0,0.0,719.0,542.0,542.0,14.0,0.0,0.0,1.0
8400000.0,16.796875,0.0,8400000.0,93.89999999999999,86.98083408033465,86.35346756152124,83.90501319261212,992081.0,0.0,0.0,1.0,0.0,?,0.0,0.0,743.0,563.0,563.0,14.0,0.0,0.0,1.0
8500000.0,17.09375,0.0,8500000.0,94.3,88.10020876826721,87.63557483731019,85.56962025316454,1022081.0,0.0,0.0,1.0,0.0,?,0.0,0.0,743.0,563.0,563.0,14.0,0.0,0.0,?
8600000.0,17.34375,0.0,8600000.0,93.8,87.06241757507969,87.39837398373983,84.57711442786069,1052081.0,0.0,0.0,1.0,0.0,?,0.0,0.0,749.0,566.0,566.0,14.0,0.0,0.0,?
8700000.0,17.59375,0.0,8700000.0,93.60000000000001,86.54947900247575,86.23655913978496,83.46253229974162,1082081.0,0.0,0.0,1.0,0.0,?,0.0,0.0,833.0,644.0,644.0,14.0,0.0,0.0,?
8800000.0,17.921875,0.0,8800000.0,93.7,86.70437278406214,86.06194690265487,83.88746803069054,1112081.0,0.0,0.0,1.0,0.0,?,0.0,0.0,857.0,665.0,665.0,14.0,0.0,0.0,?
8900000.0,18.203125,0.0,8900000.0,93.8,86.84232865316378,86.72376873661669,83.76963350785338,1142081.0,0.0,0.0,1.0,0.0,?,0.0,0.0,881.0,686.0,686.0,14.0,0.0,0.0,?
9000000.0,18.5,0.0,9000000.0,93.7,86.46372277704248,86.59574468085107,82.9268292682927,1172081.0,0.0,0.0,1.0,0.0,?,0.0,0.0,905.0,707.0,707.0,15.0,0.0,0.0,?
9100000.0,18.796875,0.0,9100000.0,93.7,86.49436622133805,86.33405639913234,82.88043478260872,1201781.0,0.0,0.0,1.0,0.0,?,0.0,0.0,907.0,708.0,708.0,15.0,0.0,0.0,?
9200000.0,19.109375,0.0,9200000.0,93.10000000000001,85.3674674267101,85.12931034482759,82.21649484536084,1231781.0,0.0,0.0,1.0,0.0,?,0.0,0.0,913.0,711.0,711.0,15.0,0.0,0.0,?
9300000.0,19.390625,0.0,9300000.0,92.5,84.27316876777132,84.07643312101911,80.81841432225065,1261781.0,0.0,0.0,1.0,0.0,?,0.0,0.0,915.0,712.0,712.0,15.0,0.0,0.0,?
9400000.0,19.6875,0.0,9400000.0,92.80000000000001,85.10691990418786,84.9056603773585,82.30958230958232,1291781.0,0.0,0.0,1.0,0.0,?,0.0,0.0,919.0,714.0,714.0,15.0,0.0,0.0,?
9500000.0,19.9375,0.0,9500000.0,94.3,87.87357886854107,87.97468354430379,84.6774193548387,1321781.0,0.0,0.0,1.0,0.0,?,0.0,0.0,921.0,715.0,715.0,15.0,0.0,0.0,?
9600000.0,20.234375,0.0,9600000.0,94.1,87.25085138382283,86.88888888888887,83.56545961002783,1351781.0,0.0,0.0,1.0,0.0,?,0.0,0.0,921.0,715.0,715.0,15.0,0.0,0.0,?
9700000.0,20.546875,0.0,9700000.0,94.39999999999999,88.06646976341776,87.98283261802574,85.22427440633244,1381781.0,0.0,0.0,1.0,0.0,?,0.0,0.0,921.0,715.0,715.0,15.0,0.0,0.0,?
9800000.0,20.859375,0.0,9800000.0,95.89999999999999,91.10829660987541,91.20171673819742,88.73626373626372,1411781.0,0.0,0.0,1.0,0.0,?,0.0,0.0,969.0,757.0,757.0,15.0,0.0,0.0,?
9900000.0,21.1875,0.0,9900000.0,94.39999999999999,87.52250405518616,88.03418803418802,83.43195266272187,1441781.0,0.0,0.0,1.0,0.0,?,0.0,0.0,971.0,758.0,758.0,15.0,0.0,0.0,?
1.0E7,21.515625,0.0,1.0E7,95.5,90.38453320113847,90.54621848739495,87.96791443850266,1471781.0,0.0,0.0,1.0,0.0,?,0.0,0.0,993.0,778.0,778.0,15.0,0.0,0.0,?
