learning evaluation instances,evaluation time (cpu seconds),model cost (RAM-Hours),classified instances,classifications correct (percent),Kappa Statistic (percent),Kappa Temporal Statistic (percent),Kappa M Statistic (percent),model training instances,model serialized size (bytes),labeling cost,newThreshold,maxPosterior,accuracyBaseLearner (percent),Change detected,Warning detected
100000.0,0.34375,1.3866423008342585E-8,100000.0,72.5,34.90323069348179,40.86021505376343,25.47425474254742,9900.0,2904.0,0.0,1.0,0.0,?,0.0,3.0
200000.0,0.71875,2.751883585005999E-8,200000.0,72.0,35.36144494872776,42.85714285714285,24.528301886792445,19900.0,2904.0,0.0,1.0,0.0,?,0.0,0.0
300000.0,1.09375,3.969665461530288E-8,300000.0,69.0,29.050095210194797,37.37373737373736,20.918367346938766,29900.0,2904.0,0.0,1.0,0.0,?,0.0,0.0
400000.0,1.484375,5.0845846999436616E-8,400000.0,71.3,33.62749995374738,36.923076923076906,24.67191601049868,39900.0,2904.0,0.0,1.0,0.0,?,0.0,0.0
500000.0,1.859375,6.00744776117305E-8,500000.0,69.39999999999999,29.35929340825248,34.754797441364595,17.520215633423167,49900.0,2904.0,0.0,1.0,0.0,?,0.0,0.0
600000.0,2.234375,6.782851414754987E-8,600000.0,73.5,39.394216607356846,44.56066945606694,29.14438502673796,59900.0,2904.0,0.0,1.0,0.0,?,0.0,0.0
700000.0,2.609375,7.410795660689474E-8,700000.0,73.6,37.95826283135927,39.72602739726027,26.66666666666666,69900.0,2904.0,0.0,1.0,0.0,?,0.0,0.0
800000.0,2.96875,7.871260297381216E-8,800000.0,71.6,33.510638297872326,39.574468085106375,21.54696132596684,79900.0,2904.0,0.0,1.0,0.0,?,0.0,0.0
900000.0,3.34375,8.204285728020801E-8,900000.0,73.8,37.356541698546295,41.255605381165914,25.988700564971744,89900.0,2904.0,0.0,1.0,0.0,?,0.0,0.0
1000000.0,3.703125,8.382119833388264E-8,1000000.0,72.39999999999999,35.83544115459008,43.326488706365495,27.748691099476435,99900.0,2904.0,0.0,1.0,0.0,?,0.0,0.0
1100000.0,4.0625,9.83320448237161E-8,1100000.0,71.1,33.84911188427028,39.02953586497889,23.947368421052623,109800.0,2904.0,0.0,1.0,0.0,?,0.0,0.0
1200000.0,4.4375,1.1199920360619824E-7,1200000.0,71.8,36.079931818593934,41.73553719008264,26.943005181347147,119800.0,2904.0,0.0,1.0,0.0,?,0.0,0.0
1300000.0,4.8125,1.2419176831220587E-7,1300000.0,71.8,34.17582058476146,39.09287257019437,25.198938992042436,129800.0,2904.0,0.0,1.0,0.0,?,0.0,0.0
1400000.0,5.203125,1.353563210513029E-7,1400000.0,69.69999999999999,31.62493455851821,37.2670807453416,23.677581863979842,139800.0,2904.0,0.0,1.0,0.0,?,0.0,0.0
1500000.0,5.578125,1.4459969760436153E-7,1500000.0,73.6,38.75960360761608,44.88517745302714,30.89005235602094,149800.0,2904.0,0.0,1.0,0.0,?,0.0,0.0
1600000.0,5.96875,1.5269217935080332E-7,1600000.0,70.7,34.49059168634184,37.791932059447966,26.196473551637272,159800.0,2904.0,0.0,1.0,0.0,?,0.0,0.0
1700000.0,6.34375,1.5898636775091292E-7,1700000.0,71.89999999999999,32.53106932252548,41.942148760330575,21.288515406162453,169800.0,2904.0,0.0,1.0,0.0,?,0.0,0.0
1800000.0,6.75,1.6420759493485093E-7,1800000.0,70.6,33.056756030584395,35.66739606126914,24.8081841432225,179800.0,2904.0,0.0,1.0,0.0,?,0.0,0.0
1900000.0,7.109375,1.6741322017171316E-7,1900000.0,71.5,32.12863647621407,36.66666666666665,20.612813370473525,189800.0,2904.0,0.0,1.0,0.0,?,0.0,0.0
2000000.0,7.484375,1.6928362634239924E-7,2000000.0,72.2,37.33092876465283,43.38085539714867,30.5,199800.0,2904.0,0.0,1.0,0.0,?,0.0,0.0
2100000.0,7.859375,1.8444012514212065E-7,2100000.0,71.1,35.23083818915285,36.899563318777275,27.749999999999996,209700.0,2904.0,0.0,1.0,0.0,?,0.0,0.0
2200000.0,8.234375,1.9812202986536754E-7,2200000.0,71.3,35.246019999278005,42.599999999999994,27.52525252525252,219700.0,2904.0,0.0,1.0,0.0,?,0.0,0.0
2300000.0,8.609375,2.1032934051213994E-7,2300000.0,74.3,37.332357961472795,40.50925925925927,25.507246376811587,229700.0,2904.0,0.0,1.0,0.0,?,0.0,0.0
2400000.0,8.984375,2.2106205708243782E-7,2400000.0,71.8,33.37995161778046,38.29321663019692,22.52747252747252,239700.0,2904.0,0.0,1.0,0.0,?,0.0,0.0
2500000.0,9.34375,2.2993442447235187E-7,2500000.0,70.7,30.037536175130597,36.85344827586206,19.94535519125682,249700.0,2904.0,0.0,1.0,0.0,?,0.0,0.0
2600000.0,9.703125,2.3739363920564454E-7,2600000.0,71.5,33.80836476468291,41.5983606557377,22.554347826086946,259700.0,2904.0,0.0,1.0,0.0,?,0.0,0.0
2700000.0,10.078125,2.437025735465189E-7,2700000.0,70.89999999999999,30.75319582329929,36.60130718954247,19.613259668508274,269700.0,2904.0,0.0,1.0,0.0,?,0.0,0.0
2800000.0,10.4375,2.4833548296656876E-7,2800000.0,70.3,31.621019284253936,35.85313174946003,22.656249999999993,279700.0,2904.0,0.0,1.0,0.0,?,0.0,0.0
2900000.0,10.8125,2.516952291544941E-7,2900000.0,73.2,37.98707909886895,43.459915611814345,29.100529100529098,289700.0,2904.0,0.0,1.0,0.0,?,0.0,0.0
3000000.0,11.1875,2.535803812659449E-7,3000000.0,70.6,31.453511958331188,36.63793103448275,22.015915119363385,299700.0,2904.0,0.0,1.0,0.0,?,0.0,0.0
3100000.0,11.5625,2.687516260064311E-7,3100000.0,72.8,34.27697422787525,39.82300884955751,22.946175637393758,309600.0,2904.0,0.0,1.0,0.0,?,0.0,0.0
3200000.0,11.9375,2.824482766704427E-7,3200000.0,73.2,38.38740528213051,40.7079646017699,27.956989247311824,319600.0,2904.0,0.0,1.0,0.0,?,0.0,0.0
3300000.0,12.3125,2.9467033325797984E-7,3300000.0,70.89999999999999,32.1349278904457,38.60759493670885,21.563342318059288,329600.0,2904.0,0.0,1.0,0.0,?,0.0,0.0
3400000.0,12.6875,3.054177957690425E-7,3400000.0,73.9,38.25641802060958,45.05263157894737,27.700831024930743,339600.0,2904.0,0.0,1.0,0.0,?,0.0,0.0
3500000.0,13.046875,3.1430429468552273E-7,3500000.0,70.1,31.086301155168755,33.258928571428555,20.899470899470888,349600.0,2904.0,0.0,1.0,0.0,?,0.0,0.0
3600000.0,13.421875,3.2210256904363634E-7,3600000.0,74.5,38.81781625190743,45.859872611464965,28.770949720670387,359600.0,2904.0,0.0,1.0,0.0,?,0.0,0.0
3700000.0,13.796875,3.2842624932527546E-7,3700000.0,72.39999999999999,33.831990794016114,38.66666666666666,23.333333333333325,369600.0,2904.0,0.0,1.0,0.0,?,0.0,0.0
3800000.0,14.171875,3.3327533553044003E-7,3800000.0,73.5,39.334279565953935,43.97463002114164,30.809399477806785,379600.0,2904.0,0.0,1.0,0.0,?,0.0,0.0
3900000.0,14.53125,3.365092238204347E-7,3900000.0,72.2,37.01144216608134,40.59829059829059,27.792207792207783,389600.0,2904.0,0.0,1.0,0.0,?,0.0,0.0
4000000.0,14.890625,3.3832995945380796E-7,4000000.0,73.4,38.88541704959011,42.17391304347825,31.088082901554404,399600.0,2904.0,0.0,1.0,0.0,?,0.0,0.0
4100000.0,15.25,3.528832005233401E-7,4100000.0,71.7,34.86466580740194,38.876889848812084,25.526315789473674,409500.0,2904.0,0.0,1.0,0.0,?,0.0,0.0
4200000.0,15.625,3.665945971281165E-7,4200000.0,72.8,33.533709649830165,42.49471458773784,23.380281690140837,419500.0,2904.0,0.0,1.0,0.0,?,0.0,0.0
4300000.0,16.0,3.7883139965641835E-7,4300000.0,70.7,33.75057657348032,39.3374741200828,26.381909547738687,429500.0,2904.0,0.0,1.0,0.0,?,0.0,0.0
4400000.0,16.390625,3.900420334604052E-7,4400000.0,73.4,35.58947735461623,45.15463917525773,24.431818181818173,439500.0,2904.0,0.0,1.0,0.0,?,0.0,0.0
4500000.0,16.75,3.989426639034517E-7,4500000.0,71.7,34.15787220578107,40.7949790794979,24.734042553191482,449500.0,2904.0,0.0,1.0,0.0,?,0.0,0.0
4600000.0,17.125,4.0675568420233006E-7,4600000.0,72.7,35.864304844241886,41.41630901287553,27.005347593582883,459500.0,2904.0,0.0,1.0,0.0,?,0.0,0.0
4700000.0,17.453125,4.123018071469334E-7,4700000.0,72.2,33.43549468441718,36.96145124716552,22.346368715083788,469500.0,2904.0,0.0,1.0,0.0,?,0.0,0.0
4800000.0,17.8125,4.169629796201157E-7,4800000.0,70.89999999999999,32.65510154962694,39.50103950103949,22.81167108753315,479500.0,2904.0,0.0,1.0,0.0,?,0.0,0.0
4900000.0,18.1875,4.203522176895705E-7,4900000.0,72.39999999999999,34.96333440156841,40.38876889848812,23.75690607734806,489500.0,2904.0,0.0,1.0,0.0,?,0.0,0.0
5000000.0,18.546875,4.2240203280622765E-7,5000000.0,72.6,33.980676095703906,41.70212765957446,22.816901408450693,499500.0,2904.0,0.0,1.0,0.0,?,0.0,0.0
5100000.0,18.921875,4.3782473464186E-7,5100000.0,59.099999999999994,17.02440172362025,17.206477732793516,9.91189427312774,9020.0,2904.0,0.0,1.0,0.0,?,1.0,43.0
5200000.0,19.28125,4.5119167124438624E-7,5200000.0,59.5,18.230054190255434,17.515274949083494,15.271966527196643,19020.0,2904.0,0.0,1.0,0.0,?,0.0,0.0
5300000.0,19.65625,4.6366518492706954E-7,5300000.0,60.6,20.04610539303224,20.24291497975708,13.596491228070166,29020.0,2904.0,0.0,1.0,0.0,?,0.0,0.0
5400000.0,20.03125,4.7466410453327834E-7,5400000.0,61.1,20.790063123600074,20.44989775051124,13.555555555555543,39020.0,2904.0,0.0,1.0,0.0,?,0.0,0.0
5500000.0,20.421875,4.845852769600849E-7,5500000.0,61.1,20.877064518753553,20.61224489795918,14.69298245614034,49020.0,2904.0,0.0,1.0,0.0,?,0.0,0.0
5600000.0,20.78125,4.922996029361255E-7,5600000.0,63.4,25.643609413600316,23.270440251572325,21.12068965517241,59020.0,2904.0,0.0,1.0,0.0,?,0.0,0.0
5700000.0,21.15625,4.988747403129108E-7,5700000.0,63.3,24.60597893076076,23.700623700623698,17.155756207674937,69020.0,2904.0,0.0,1.0,0.0,?,0.0,0.0
5800000.0,21.53125,5.039752836132216E-7,5800000.0,61.5,20.830762903557464,20.944558521560573,14.444444444444434,79020.0,2904.0,0.0,1.0,0.0,?,0.0,0.0
5900000.0,21.921875,5.077523140547176E-7,5900000.0,62.4,23.849643551523002,26.27450980392157,20.675105485232066,89020.0,2904.0,0.0,1.0,0.0,?,0.0,0.0
6000000.0,22.296875,5.099036692020794E-7,6000000.0,63.5,25.72544869968662,25.051334702258725,20.824295010845983,99020.0,2904.0,0.0,1.0,0.0,?,0.0,0.0
6100000.0,22.65625,5.246978899877932E-7,6100000.0,61.0,20.444531479486923,21.999999999999996,12.946428571428559,108920.0,2904.0,0.0,1.0,0.0,?,0.0,0.0
6200000.0,23.03125,5.386607436877157E-7,6200000.0,61.7,21.73323088492537,18.336886993603404,16.008771929824555,118920.0,2904.0,0.0,1.0,0.0,?,0.0,0.0
6300000.0,23.40625,5.511490033111638E-7,6300000.0,59.5,18.504507405022544,16.32231404958677,15.800415800415793,128920.0,2904.0,0.0,1.0,0.0,?,0.0,0.0
6400000.0,23.78125,5.621626688581373E-7,6400000.0,58.3,15.836468441703126,17.75147928994082,12.943632567849676,138920.0,2904.0,0.0,1.0,0.0,?,0.0,0.0
6500000.0,24.15625,5.717017403286363E-7,6500000.0,60.4,19.729838202921336,21.272365805168985,15.203426124196993,148920.0,2904.0,0.0,1.0,0.0,?,0.0,0.0
6600000.0,24.53125,5.797662177226609E-7,6600000.0,61.5,21.024345014892557,23.0,12.698412698412687,158920.0,2904.0,0.0,1.0,0.0,?,0.0,0.0
6700000.0,24.90625,5.863561010402109E-7,6700000.0,63.5,26.29240710823909,25.661914460285136,23.157894736842103,168920.0,2904.0,0.0,1.0,0.0,?,0.0,0.0
6800000.0,25.3125,5.918976643847093E-7,6800000.0,62.7,24.28548229944787,25.992063492063494,20.299145299145295,178920.0,2904.0,0.0,1.0,0.0,?,0.0,0.0
6900000.0,25.6875,5.955383595493104E-7,6900000.0,61.199999999999996,21.309347557141987,22.709163346613543,16.55913978494623,188920.0,2904.0,0.0,1.0,0.0,?,0.0,0.0
7000000.0,26.078125,5.977947148494421E-7,7000000.0,59.699999999999996,18.81481720239485,17.078189300411513,16.563146997929596,198920.0,2904.0,0.0,1.0,0.0,?,0.0,0.0
7100000.0,26.453125,6.13246908566604E-7,7100000.0,62.5,23.29217702938216,25.149700598802394,17.400881057268716,208820.0,2904.0,0.0,1.0,0.0,?,0.0,0.0
7200000.0,26.828125,6.272245082072913E-7,7200000.0,60.3,18.92465915681645,21.386138613861384,13.318777292576408,218820.0,2904.0,0.0,1.0,0.0,?,0.0,0.0
7300000.0,27.203125,6.39727513771504E-7,7300000.0,62.3,23.140906978071705,19.787234042553187,17.685589519650648,228820.0,2904.0,0.0,1.0,0.0,?,0.0,0.0
7400000.0,27.59375,6.512154424045648E-7,7400000.0,59.199999999999996,16.35950652108846,16.22176591375769,7.900677200902917,238820.0,2904.0,0.0,1.0,0.0,?,0.0,0.0
7500000.0,27.96875,6.607692598158285E-7,7500000.0,62.7,23.719385501366094,25.54890219560878,16.92650334075723,248820.0,2904.0,0.0,1.0,0.0,?,0.0,0.0
7600000.0,28.359375,6.691851174562341E-7,7600000.0,62.3,23.810062730388676,26.510721247563357,20.295983086680756,258820.0,2904.0,0.0,1.0,0.0,?,0.0,0.0
7700000.0,28.703125,6.752393609430226E-7,7700000.0,58.5,15.633258792437479,17.821782178217816,11.702127659574456,268820.0,2904.0,0.0,1.0,0.0,?,0.0,0.0
7800000.0,29.078125,6.803693961248629E-7,7800000.0,60.9,20.985838075530253,20.204081632653057,18.029350104821795,278820.0,2904.0,0.0,1.0,0.0,?,0.0,0.0
7900000.0,29.453125,6.840248372302286E-7,7900000.0,59.699999999999996,18.715257327728782,16.563146997929596,14.799154334038045,288820.0,2904.0,0.0,1.0,0.0,?,0.0,0.0
8000000.0,29.84375,6.862965528853236E-7,8000000.0,58.699999999999996,15.855099629191963,15.020576131687232,9.230769230769216,298820.0,2904.0,0.0,1.0,0.0,?,0.0,0.0
8100000.0,30.21875,7.017634925432501E-7,8100000.0,61.199999999999996,20.984999368694577,20.654396728016355,16.198704103671698,308720.0,2904.0,0.0,1.0,0.0,?,0.0,0.0
8200000.0,30.59375,7.157558381247022E-7,8200000.0,59.699999999999996,18.323834847956665,22.499999999999996,14.799154334038045,318720.0,2904.0,0.0,1.0,0.0,?,0.0,0.0
8300000.0,30.953125,7.277520166503057E-7,8300000.0,58.699999999999996,17.276908039162272,17.89264413518886,16.73387096774193,328720.0,2904.0,0.0,1.0,0.0,?,0.0,0.0
8400000.0,31.328125,7.387951740788087E-7,8400000.0,61.8,21.81263687905519,22.04081632653061,16.043956043956033,338720.0,2904.0,0.0,1.0,0.0,?,0.0,0.0
8500000.0,31.71875,7.487624275705051E-7,8500000.0,61.9,22.658438553042902,23.493975903614455,17.710583153347727,348720.0,2904.0,0.0,1.0,0.0,?,0.0,0.0
8600000.0,32.109375,7.571936455658739E-7,8600000.0,61.3,20.926811327693997,24.854368932038835,14.75770925110131,358720.0,2904.0,0.0,1.0,0.0,?,0.0,0.0
8700000.0,32.484375,7.638130207649533E-7,8700000.0,59.0,16.24311559267187,20.542635658914723,9.691629955947121,368720.0,2904.0,0.0,1.0,0.0,?,0.0,0.0
8800000.0,32.875,7.691721677676669E-7,8800000.0,59.599999999999994,17.530823875234745,14.40677966101694,11.013215859030822,378720.0,2904.0,0.0,1.0,0.0,?,0.0,0.0
8900000.0,33.25,7.728423548137974E-7,8900000.0,59.199999999999996,16.683343611777044,17.74193548387096,9.131403118040074,388720.0,2904.0,0.0,1.0,0.0,?,0.0,0.0
9000000.0,33.625,7.750379477834534E-7,9000000.0,60.4,18.454087179994055,21.428571428571423,10.40723981900451,398720.0,2904.0,0.0,1.0,0.0,?,0.0,0.0
9100000.0,34.0,7.905196333821447E-7,9100000.0,58.599999999999994,16.705229060620074,19.92263056092843,15.337423312883427,408620.0,2904.0,0.0,1.0,0.0,?,0.0,0.0
9200000.0,34.390625,8.051103537177872E-7,9200000.0,60.099999999999994,19.02554652682506,19.06693711967545,13.822894168466512,418620.0,2904.0,0.0,1.0,0.0,?,0.0,0.0
9300000.0,34.765625,8.176428511635295E-7,9300000.0,65.0,28.721259393519745,30.41749502982108,24.07809110629067,428620.0,2904.0,0.0,1.0,0.0,?,0.0,0.0
9400000.0,35.140625,8.287007545327973E-7,9400000.0,60.5,19.278369055209506,19.05737704918032,13.566739606126903,438620.0,2904.0,0.0,1.0,0.0,?,0.0,0.0
9500000.0,35.515625,8.382840638255905E-7,9500000.0,62.8,23.133190344536878,26.190476190476193,13.286713286713297,448620.0,2904.0,0.0,1.0,0.0,?,0.0,0.0
9600000.0,35.890625,8.463927790419093E-7,9600000.0,58.099999999999994,15.343273932193801,18.64077669902912,12.159329140461205,458620.0,2904.0,0.0,1.0,0.0,?,0.0,0.0
9700000.0,36.265625,8.530269001817536E-7,9700000.0,62.8,24.552180685358245,23.770491803278688,21.019108280254773,468620.0,2904.0,0.0,1.0,0.0,?,0.0,0.0
9800000.0,36.640625,8.581864272451233E-7,9800000.0,59.5,18.45987823341816,18.674698795180717,15.0943396226415,478620.0,2904.0,0.0,1.0,0.0,?,0.0,0.0
9900000.0,37.015625,8.618713602320186E-7,9900000.0,59.3,17.340937154741,18.599999999999994,13.034188034188023,488620.0,2904.0,0.0,1.0,0.0,?,0.0,0.0
1.0E7,37.390625,8.640816991424393E-7,1.0E7,58.9,15.772475018648901,19.09448818897637,8.463251670378604,498620.0,2904.0,0.0,1.0,0.0,?,0.0,0.0
