learning evaluation instances,evaluation time (cpu seconds),model cost (RAM-Hours),classified instances,classifications correct (percent),Kappa Statistic (percent),Kappa Temporal Statistic (percent),Kappa M Statistic (percent),model training instances,model serialized size (bytes),labeling cost,newThreshold,maxPosterior,accuracyBaseLearner (percent),Change detected,Warning detected
100000.0,0.140625,6.119953468441963E-9,100000.0,56.39999999999999,8.027743557723111,11.919191919191906,3.9647577092510806,2987.0,9208.0,0.0,1.0,0.0,?,4.0,42.0
200000.0,0.328125,1.3538325826327006E-8,200000.0,53.7,6.425326197674991,5.8943089430894355,3.340292275574116,5263.0,9208.0,0.0,1.0,0.0,?,1.0,27.0
300000.0,0.484375,1.9090366549789907E-8,300000.0,57.8,11.126461569565633,14.747474747474737,7.456140350877176,15263.0,9208.0,0.0,1.0,0.0,?,0.0,9.0
400000.0,0.625,2.3534230422228578E-8,400000.0,57.49999999999999,13.839940965154844,13.265306122448969,5.34521158129174,25263.0,9208.0,0.0,1.0,0.0,?,0.0,0.0
500000.0,0.78125,2.785744274862939E-8,500000.0,53.900000000000006,2.7869156671221567,5.725971370143154,-1.0964912280701766,35263.0,9208.0,0.0,1.0,0.0,?,0.0,0.0
600000.0,0.9375,3.1566240876499156E-8,600000.0,55.900000000000006,8.013850068833177,7.547169811320761,5.16129032258065,45263.0,9208.0,0.0,1.0,0.0,?,0.0,0.0
700000.0,1.09375,3.466062480583788E-8,700000.0,58.8,11.568246990744704,14.345114345114334,6.787330316742063,55263.0,9208.0,0.0,1.0,0.0,?,0.0,0.0
800000.0,1.25,3.7140594536645557E-8,800000.0,53.6,1.343346416679788,4.52674897119342,-3.340757238307353,65263.0,9208.0,0.0,1.0,0.0,?,0.0,0.0
900000.0,1.390625,3.8819594515694526E-8,900000.0,59.3,17.71860166099254,20.352250489236788,14.135021097046405,75263.0,9208.0,0.0,1.0,0.0,?,0.0,0.0
1000000.0,1.546875,4.007073584944011E-8,1000000.0,61.6,21.990541353139072,20.98765432098765,16.883116883116873,85263.0,9208.0,0.0,1.0,0.0,?,0.0,0.0
1100000.0,1.703125,4.685774911195041E-8,1100000.0,53.800000000000004,1.3629842180774634,7.600000000000007,-3.1250000000000027,95163.0,9208.0,0.0,1.0,0.0,?,0.0,0.0
1200000.0,1.859375,5.303034817592967E-8,1200000.0,58.9,16.126557066592653,12.553191489361689,10.06564551422318,105163.0,9208.0,0.0,1.0,0.0,?,0.0,0.0
1300000.0,2.015625,5.858853304137788E-8,1300000.0,55.00000000000001,9.497894317674458,7.024793388429759,6.444906444906451,115163.0,9208.0,0.0,1.0,0.0,?,0.0,0.0
1400000.0,2.171875,6.353230370829504E-8,1400000.0,54.2,5.984169212073452,9.664694280078905,4.184100418410046,125163.0,9208.0,0.0,1.0,0.0,?,0.0,0.0
1500000.0,2.328125,6.786166017668116E-8,1500000.0,57.9,14.697205472346484,16.302186878727625,10.042735042735028,135163.0,9208.0,0.0,1.0,0.0,?,0.0,0.0
1600000.0,2.484375,7.157660244653624E-8,1600000.0,55.7,4.455027002777923,11.40000000000001,-0.4535147392290254,145163.0,9208.0,0.0,1.0,0.0,?,0.0,0.0
1700000.0,2.640625,7.467713051786027E-8,1700000.0,59.599999999999994,18.33368371686854,17.718940936863536,14.767932489451468,155163.0,9208.0,0.0,1.0,0.0,?,0.0,0.0
1800000.0,2.78125,7.691463300337396E-8,1800000.0,59.3,17.619340630869875,19.405940594059402,13.034188034188023,165163.0,9208.0,0.0,1.0,0.0,?,0.0,0.0
1900000.0,2.9375,7.87863326776359E-8,1900000.0,54.400000000000006,4.871179722540938,9.34393638170975,1.9354838709677438,175163.0,9208.0,0.0,1.0,0.0,?,0.0,0.0
2000000.0,3.09375,8.004361815336679E-8,2000000.0,57.9,15.18868000547948,13.195876288659782,12.836438923395436,185163.0,9208.0,0.0,1.0,0.0,?,0.0,0.0
2100000.0,3.25,8.68367755578624E-8,2100000.0,54.6,4.290081163697688,9.381237524950107,0.21978021978022,195063.0,9208.0,0.0,1.0,0.0,?,0.0,0.0
2200000.0,3.40625,9.301551876382697E-8,2200000.0,58.4,15.37043742905154,17.623762376237618,9.368191721132883,205063.0,9208.0,0.0,1.0,0.0,?,0.0,0.0
2300000.0,3.5625,9.857984777126049E-8,2300000.0,58.8,15.206796628029476,12.526539278131624,10.043668122270729,215063.0,9208.0,0.0,1.0,0.0,?,0.0,0.0
2400000.0,3.71875,1.0352976258016297E-7,2400000.0,58.199999999999996,11.8604611932997,14.344262295081958,5.429864253393645,225063.0,9208.0,0.0,1.0,0.0,?,0.0,0.0
2500000.0,3.875,1.078652631905344E-7,2500000.0,59.3,14.826472016205974,18.762475049900193,9.151785714285698,235063.0,9208.0,0.0,1.0,0.0,?,0.0,0.0
2600000.0,4.015625,1.1121424096119076E-7,2600000.0,55.300000000000004,8.418904632733177,13.03501945525293,5.696202531645575,245063.0,9208.0,0.0,1.0,0.0,?,0.0,0.0
2700000.0,4.171875,1.143209131745001E-7,2700000.0,55.900000000000006,8.991852603947411,12.673267326732685,6.369426751592362,255063.0,9208.0,0.0,1.0,0.0,?,0.0,0.0
2800000.0,4.3125,1.1656394538780057E-7,2800000.0,58.9,16.649766781585875,16.29327902240325,13.836477987421372,265063.0,9208.0,0.0,1.0,0.0,?,0.0,0.0
2900000.0,4.46875,1.1844178920404783E-7,2900000.0,56.10000000000001,11.175318473915096,9.297520661157034,6.99152542372882,275063.0,9208.0,0.0,1.0,0.0,?,0.0,0.0
3000000.0,4.625,1.1970521882176404E-7,3000000.0,56.699999999999996,8.526280209565648,10.905349794238669,4.835164835164815,285063.0,9208.0,0.0,1.0,0.0,?,0.0,0.0
3100000.0,4.78125,1.2650452036824497E-7,3100000.0,57.599999999999994,13.49057373704398,13.46938775510203,8.225108225108208,294963.0,9208.0,0.0,1.0,0.0,?,0.0,0.0
3200000.0,4.9375,1.3268940771619484E-7,3200000.0,55.900000000000006,10.504825839549973,15.355086372360857,6.765327695560259,304963.0,9208.0,0.0,1.0,0.0,?,0.0,0.0
3300000.0,5.078125,1.377028335506718E-7,3300000.0,58.199999999999996,16.322347138144185,17.063492063492056,15.895372233400396,314963.0,9208.0,0.0,1.0,0.0,?,0.0,0.0
3400000.0,5.234375,1.426588925015596E-7,3400000.0,58.599999999999994,15.51192832799329,15.510204081632645,9.010989010988995,324963.0,9208.0,0.0,1.0,0.0,?,0.0,0.0
3500000.0,5.390625,1.4700053725391633E-7,3500000.0,59.599999999999994,17.854455989101474,18.87550200803212,12.742980561555065,334963.0,9208.0,0.0,1.0,0.0,?,0.0,0.0
3600000.0,5.515625,1.4998232169697688E-7,3600000.0,56.599999999999994,7.806691449814116,15.891472868217047,4.615384615384595,344963.0,9208.0,0.0,1.0,0.0,?,0.0,0.0
3700000.0,5.671875,1.5309513805227152E-7,3700000.0,54.2,2.8969775094134826,11.067961165048553,-0.8810572687224677,354963.0,9208.0,0.0,1.0,0.0,?,0.0,0.0
3800000.0,5.828125,1.5559354020903514E-7,3800000.0,56.49999999999999,11.385803802058282,7.838983050847441,4.185022026431698,364963.0,9208.0,0.0,1.0,0.0,?,0.0,0.0
3900000.0,5.984375,1.574775281672677E-7,3900000.0,57.99999999999999,14.053835040660703,15.151515151515143,6.4587973273941905,374963.0,9208.0,0.0,1.0,0.0,?,0.0,0.0
4000000.0,6.140625,1.5874710192696923E-7,4000000.0,57.49999999999999,8.344332013491703,15.674603174603167,3.846153846153825,384963.0,9208.0,0.0,1.0,0.0,?,0.0,0.0
4100000.0,6.296875,1.6555254761543545E-7,4100000.0,57.3,14.217064978062059,17.408123791102508,12.49999999999999,394863.0,9208.0,0.0,1.0,0.0,?,0.0,0.0
4200000.0,6.453125,1.7174357910537065E-7,4200000.0,58.4,15.515840779853763,15.618661257606483,9.956709956709943,404863.0,9208.0,0.0,1.0,0.0,?,0.0,0.0
4300000.0,6.578125,1.7620487293849397E-7,4300000.0,60.699999999999996,20.00162846557831,21.868787276341944,14.935064935064926,414863.0,9208.0,0.0,1.0,0.0,?,0.0,0.0
4400000.0,6.734375,1.8116707603136707E-7,4400000.0,55.60000000000001,6.215543717497551,9.01639344262296,2.844638949671775,424863.0,9208.0,0.0,1.0,0.0,?,0.0,0.0
4500000.0,6.890625,1.855148649257091E-7,4500000.0,58.3,14.162206669411272,17.261904761904756,2.7972027972027993,434863.0,9208.0,0.0,1.0,0.0,?,0.0,0.0
4600000.0,7.046875,1.892482396215201E-7,4600000.0,56.599999999999994,12.426551301091232,15.891472868217047,8.82352941176469,444863.0,9208.0,0.0,1.0,0.0,?,0.0,0.0
4700000.0,7.203125,1.9236720011880008E-7,4700000.0,60.699999999999996,20.157004242040074,19.46721311475409,16.56050955414012,454863.0,9208.0,0.0,1.0,0.0,?,0.0,0.0
4800000.0,7.359375,1.94871746417549E-7,4800000.0,56.49999999999999,12.322427721431213,12.474849094567393,8.805031446540866,464863.0,9208.0,0.0,1.0,0.0,?,0.0,0.0
4900000.0,7.515625,1.9676187851776687E-7,4900000.0,55.7,10.216291588300152,11.57684630738524,5.341880341880347,474863.0,9208.0,0.0,1.0,0.0,?,0.0,0.0
5000000.0,7.671875,1.9813105205280921E-7,5000000.0,55.7,5.604091199659066,12.795275590551192,1.5555555555555571,484863.0,9208.0,0.0,1.0,0.0,?,0.0,0.0
5100000.0,7.828125,2.0506940523369452E-7,5100000.0,47.699999999999996,-4.363720536704899,-8.057851239669429,-5.656565656565662,494763.0,9208.0,0.0,1.0,0.0,?,0.0,3.0
5200000.0,7.96875,2.1074319698123475E-7,5200000.0,55.50000000000001,11.946051621379903,5.117270788912585,7.291666666666674,4351.0,9208.0,0.0,1.0,0.0,?,3.0,26.0
5300000.0,8.109375,2.1583607627285857E-7,5300000.0,57.99999999999999,16.166660678571002,16.996047430830032,14.285714285714276,10006.0,9112.0,0.0,1.0,0.0,?,1.0,7.0
5400000.0,8.25,2.2040217623321553E-7,5400000.0,55.900000000000006,12.70922075659927,11.800000000000011,7.933194154488525,20006.0,9112.0,0.0,1.0,0.0,?,0.0,8.0
5500000.0,8.421875,2.2532382798898558E-7,5500000.0,55.2,12.067205778440773,9.311740890688268,4.680851063829792,30006.0,9112.0,0.0,1.0,0.0,?,0.0,28.0
5600000.0,8.578125,2.2918752317006396E-7,5600000.0,54.300000000000004,9.088015532620902,10.916179337231977,6.5439672801636055,40006.0,9208.0,0.0,1.0,0.0,?,0.0,0.0
5700000.0,8.734375,2.3244068466333885E-7,5700000.0,53.2,7.048060919270847,6.024096385542174,2.2964509394572046,50006.0,9208.0,0.0,1.0,0.0,?,0.0,0.0
5800000.0,8.890625,2.3507167093662756E-7,5800000.0,58.199999999999996,15.955235104171262,20.07648183556405,16.39999999999999,60006.0,9112.0,0.0,1.0,0.0,?,0.0,0.0
5900000.0,9.046875,2.3709212352211282E-7,5900000.0,55.7,13.341158059467926,10.865191146881298,6.342494714587745,70006.0,9208.0,0.0,1.0,0.0,?,0.0,0.0
6000000.0,9.203125,2.385020424197946E-7,6000000.0,53.6,9.210088637564327,6.072874493927131,-1.97802197802198,80006.0,9208.0,0.0,1.0,0.0,?,0.0,0.0
6100000.0,9.359375,2.454400722247859E-7,6100000.0,60.199999999999996,21.30032429012102,14.408602150537625,16.73640167364016,89906.0,9112.0,0.0,1.0,0.0,?,0.0,0.0
6200000.0,9.515625,2.517636878312462E-7,6200000.0,58.699999999999996,18.682859213054844,17.39999999999999,12.314225053078545,99906.0,9112.0,0.0,1.0,0.0,?,0.0,0.0
6300000.0,9.65625,2.5690196909838253E-7,6300000.0,61.3,23.685497483790563,25.862068965517242,18.00847457627118,109906.0,9112.0,0.0,1.0,0.0,?,0.0,0.0
6400000.0,9.8125,2.619967563077807E-7,6400000.0,58.8,17.026821281411976,17.599999999999994,18.897637795275585,119906.0,9112.0,0.0,1.0,0.0,?,0.0,0.0
6500000.0,9.984375,2.6693370374333526E-7,6500000.0,55.50000000000001,12.43329187853219,14.913957934990451,5.117270788912585,129906.0,9208.0,0.0,1.0,0.0,?,0.0,0.0
6600000.0,10.140625,2.7080742357712653E-7,6600000.0,52.7,6.141854779820297,5.964214711729627,1.4583333333333348,139906.0,9208.0,0.0,1.0,0.0,?,0.0,0.0
6700000.0,10.296875,2.740589681909316E-7,6700000.0,59.4,19.335932067344565,16.115702479338832,18.145161290322577,149906.0,9112.0,0.0,1.0,0.0,?,0.0,0.0
6800000.0,10.453125,2.767038596276608E-7,6800000.0,54.900000000000006,8.804141222145837,11.741682974559698,8.704453441295554,159906.0,9208.0,0.0,1.0,0.0,?,0.0,0.0
6900000.0,10.609375,2.787343368658589E-7,6900000.0,56.89999999999999,14.61965134706814,16.472868217054256,7.90598290598289,169906.0,9208.0,0.0,1.0,0.0,?,0.0,0.0
7000000.0,10.75,2.8000180868224964E-7,7000000.0,60.199999999999996,20.041787206685946,19.59595959595959,20.240480961923843,179906.0,9112.0,0.0,1.0,0.0,?,0.0,0.0
7100000.0,10.890625,2.862515652345286E-7,7100000.0,54.0,8.787709342121454,3.5639412997903595,4.761904761904766,189806.0,9112.0,0.0,1.0,0.0,?,0.0,0.0
7200000.0,11.046875,2.9258908600442937E-7,7200000.0,56.3,13.066658178895679,13.465346534653456,8.57740585774057,199806.0,9208.0,0.0,1.0,0.0,?,0.0,0.0
7300000.0,11.21875,2.9888023467113574E-7,7300000.0,55.2,11.139320850523662,12.328767123287681,5.4852320675105535,209806.0,9208.0,0.0,1.0,0.0,?,0.0,0.0
7400000.0,11.34375,3.0296097975224256E-7,7400000.0,59.3,19.62811712572768,18.108651911468808,14.675052410901458,219806.0,9112.0,0.0,1.0,0.0,?,0.0,0.0
7500000.0,11.5,3.0744749690509503E-7,7500000.0,56.89999999999999,15.51206354433753,10.020876826722326,7.510729613733889,229806.0,9112.0,0.0,1.0,0.0,?,0.0,0.0
7600000.0,11.65625,3.1131959985941645E-7,7600000.0,59.8,20.968509293080995,21.789883268482487,12.798264642082419,239806.0,9112.0,0.0,1.0,0.0,?,0.0,0.0
7700000.0,11.8125,3.145772886152068E-7,7700000.0,59.5,19.9231262011531,15.448851774530262,15.271966527196643,249806.0,9112.0,0.0,1.0,0.0,?,0.0,0.0
7800000.0,11.953125,3.169562357167402E-7,7800000.0,58.5,17.14913156318626,18.78669275929549,16.999999999999993,259806.0,9112.0,0.0,1.0,0.0,?,0.0,0.0
7900000.0,12.125,3.19196519234942E-7,7900000.0,54.6,10.523888545086905,6.584362139917702,4.016913319238904,269806.0,9208.0,0.0,1.0,0.0,?,0.0,0.0
8000000.0,12.28125,3.2061096539513925E-7,8000000.0,57.4,15.599442084574891,15.81027667984189,11.983471074380153,279806.0,9112.0,0.0,1.0,0.0,?,0.0,0.0
8100000.0,12.453125,3.2826058385479775E-7,8100000.0,54.7,9.83639186338124,9.218436873747503,7.361963190184055,289706.0,9208.0,0.0,1.0,0.0,?,0.0,0.0
8200000.0,12.625,3.3523861525787244E-7,8200000.0,54.900000000000006,11.167312722574135,7.770961145194281,7.39219712525668,299706.0,9208.0,0.0,1.0,0.0,?,0.0,0.0
8300000.0,12.78125,3.4096010494977234E-7,8300000.0,58.8,18.086240078891688,19.531249999999993,15.226337448559663,309706.0,9112.0,0.0,1.0,0.0,?,0.0,0.0
8400000.0,12.9375,3.460671804431412E-7,8400000.0,57.9,15.947260399779575,17.28880157170923,15.461847389558226,319706.0,9112.0,0.0,1.0,0.0,?,0.0,0.0
8500000.0,13.09375,3.50559841737979E-7,8500000.0,57.99999999999999,16.395948786546914,15.66265060240963,14.110429447852752,329706.0,9112.0,0.0,1.0,0.0,?,0.0,0.0
8600000.0,13.25,3.544380888342857E-7,8600000.0,55.00000000000001,11.56946513282268,1.0989010989011,3.017241379310348,339706.0,9112.0,0.0,1.0,0.0,?,0.0,0.0
8700000.0,13.40625,3.5770968275351654E-7,8700000.0,53.400000000000006,7.192020903702765,6.048387096774199,4.50819672131148,349706.0,9208.0,0.0,1.0,0.0,?,0.0,0.0
8800000.0,13.5625,3.603591014527612E-7,8800000.0,58.9,18.208955223880583,17.799999999999994,16.122448979591827,359706.0,9112.0,0.0,1.0,0.0,?,0.0,0.0
8900000.0,13.71875,3.623941059534748E-7,8900000.0,56.2,13.04451406177414,13.438735177865624,7.006369426751599,369706.0,9112.0,0.0,1.0,0.0,?,0.0,0.0
9000000.0,13.875,3.638146962556573E-7,9000000.0,58.199999999999996,18.36065061483412,17.391304347826082,7.726269315673272,379706.0,9112.0,0.0,1.0,0.0,?,0.0,0.0
9100000.0,14.015625,3.700824971828195E-7,9100000.0,55.800000000000004,12.440570522979412,10.344827586206906,7.916666666666675,389606.0,9208.0,0.0,1.0,0.0,?,0.0,0.0
9200000.0,14.171875,3.7642454521523573E-7,9200000.0,60.199999999999996,21.056807362741992,21.188118811881186,19.91951710261569,399606.0,9112.0,0.0,1.0,0.0,?,0.0,0.0
9300000.0,14.328125,3.8215605955984846E-7,9300000.0,55.400000000000006,12.841598399099494,10.80000000000001,1.3274336283185855,409606.0,9208.0,0.0,1.0,0.0,?,0.0,0.0
9400000.0,14.484375,3.8727704021665776E-7,9400000.0,53.900000000000006,8.68321593547212,5.725971370143154,2.7426160337552767,419606.0,9208.0,0.0,1.0,0.0,?,0.0,0.0
9500000.0,14.640625,3.917758456534809E-7,9500000.0,57.3,15.565925808747924,14.59999999999999,11.041666666666654,429606.0,9112.0,0.0,1.0,0.0,?,0.0,0.0
9600000.0,14.78125,3.9527529022759854E-7,9600000.0,55.60000000000001,10.485675692022339,11.904761904761916,14.285714285714299,439606.0,9208.0,0.0,1.0,0.0,?,0.0,0.0
9700000.0,14.9375,3.985530282888147E-7,9700000.0,51.6,3.670089960990369,6.3829787234042605,1.2244897959183685,449606.0,9208.0,0.0,1.0,0.0,?,0.0,0.0
9800000.0,15.09375,4.0120859113004465E-7,9800000.0,59.0,19.012345679012334,14.40501043841335,11.447084233261325,459606.0,9112.0,0.0,1.0,0.0,?,0.0,0.0
9900000.0,15.25,4.032575007941987E-7,9900000.0,55.00000000000001,9.926500024019616,10.179640718562883,10.358565737051801,469606.0,9208.0,0.0,1.0,0.0,?,0.0,0.0
1.0E7,15.40625,4.0468423523836656E-7,1.0E7,57.8,16.032265895171644,12.989690721649474,14.0529531568228,479606.0,9112.0,0.0,1.0,0.0,?,0.0,0.0
