learning evaluation instances,evaluation time (cpu seconds),model cost (RAM-Hours),classified instances,classifications correct (percent),Kappa Statistic (percent),Kappa Temporal Statistic (percent),Kappa M Statistic (percent),model training instances,model serialized size (bytes),labeling cost,newThreshold,maxPosterior,accuracyBaseLearner (percent),Change detected,Warning detected
100000.0,0.1875,4.466079796353976E-9,100000.0,65.7,18.503312139442507,26.236559139784948,7.046070460704613,24160.0,9208.0,0.0,1.0,0.0,?,5.0,74.0
200000.0,0.40625,8.818589978747898E-9,200000.0,63.7,14.207924068104266,25.918367346938776,2.156334231805932,64160.0,9208.0,0.0,1.0,0.0,?,0.0,17.0
300000.0,0.59375,1.1787180685334736E-8,300000.0,64.7,18.928105535855373,28.68686868686869,9.948979591836743,104160.0,9208.0,0.0,1.0,0.0,?,0.0,3.0
400000.0,0.796875,1.4204415492713451E-8,400000.0,65.2,19.11980030957595,23.516483516483515,8.661417322834653,144160.0,9208.0,0.0,1.0,0.0,?,0.0,0.0
500000.0,1.0,1.582291184200181E-8,500000.0,64.4,14.665541658077283,24.093816631130064,4.043126684636123,184160.0,9208.0,0.0,1.0,0.0,?,0.0,0.0
600000.0,1.1875,2.0266096625063154E-8,600000.0,64.5,16.302799966049587,25.73221757322176,5.08021390374332,223960.0,9208.0,0.0,1.0,0.0,?,0.0,0.0
700000.0,1.390625,2.4280808348622587E-8,700000.0,66.2,19.615677321156774,22.831050228310502,6.111111111111116,263960.0,9208.0,0.0,1.0,0.0,?,0.0,0.0
800000.0,1.609375,2.7744164172973898E-8,800000.0,64.60000000000001,14.583534407875698,24.680851063829788,2.2099447513812174,303960.0,9208.0,0.0,1.0,0.0,?,0.0,0.0
900000.0,1.78125,2.978951670229435E-8,900000.0,65.60000000000001,16.348922262858913,22.86995515695067,2.8248587570621497,343960.0,9208.0,0.0,1.0,0.0,?,0.0,0.0
1000000.0,1.984375,3.140801305158271E-8,1000000.0,65.10000000000001,18.90887123007575,28.336755646817252,8.63874345549739,383960.0,9208.0,0.0,1.0,0.0,?,0.0,0.0
1100000.0,2.1875,3.622945061781341E-8,1100000.0,65.3,19.69079800037031,26.79324894514768,8.684210526315796,423760.0,9208.0,0.0,1.0,0.0,?,0.0,0.0
1200000.0,2.390625,4.025214972595374E-8,1200000.0,65.0,20.005119672340978,27.685950413223143,9.32642487046633,463760.0,9208.0,0.0,1.0,0.0,?,0.0,0.0
1300000.0,2.578125,4.3228113402922953E-8,1300000.0,64.5,16.60950698600919,23.326133909287254,5.835543766578255,503760.0,9208.0,0.0,1.0,0.0,?,0.0,0.0
1400000.0,2.78125,4.565333559488257E-8,1400000.0,64.5,19.365829282696588,26.501035196687372,10.579345088161219,543760.0,9208.0,0.0,1.0,0.0,?,0.0,0.0
1500000.0,2.984375,4.727981932875183E-8,1500000.0,65.3,20.506922999386056,27.55741127348643,9.162303664921474,583760.0,9208.0,0.0,1.0,0.0,?,0.0,0.0
1600000.0,3.1875,5.210125689498253E-8,1600000.0,63.6,17.974049152473622,22.717622080679405,8.312342569269529,623560.0,9208.0,0.0,1.0,0.0,?,0.0,0.0
1700000.0,3.390625,5.6123956003122864E-8,1700000.0,64.7,14.063412924083677,27.066115702479344,1.1204481792717098,663560.0,9208.0,0.0,1.0,0.0,?,0.0,0.0
1800000.0,3.578125,5.9099919680092074E-8,1800000.0,64.5,17.821030408533662,22.31947483588621,9.2071611253197,703560.0,9208.0,0.0,1.0,0.0,?,0.0,0.0
1900000.0,3.78125,6.152514187205169E-8,1900000.0,66.10000000000001,18.50256272177401,24.666666666666668,5.571030640668529,743560.0,9208.0,0.0,1.0,0.0,?,0.0,0.0
2000000.0,3.984375,6.315162560592095E-8,2000000.0,64.2,19.658886894075405,27.08757637474542,10.500000000000009,783560.0,9208.0,0.0,1.0,0.0,?,0.0,0.0
2100000.0,4.1875,6.798105055673255E-8,2100000.0,62.9,15.489749430523931,18.99563318777292,7.250000000000006,823360.0,9208.0,0.0,1.0,0.0,?,0.0,0.0
2200000.0,4.375,7.170168424232139E-8,2200000.0,65.5,20.28945325496285,31.000000000000007,12.87878787878789,863360.0,9208.0,0.0,1.0,0.0,?,0.0,0.0
2300000.0,4.5625,7.468502088967297E-8,2300000.0,68.0,21.07534837834506,25.925925925925945,7.24637681159421,903360.0,9208.0,0.0,1.0,0.0,?,0.0,0.0
2400000.0,4.765625,7.71182304662135E-8,2400000.0,66.60000000000001,20.993868745742198,26.914660831509853,8.24175824175825,943360.0,9208.0,0.0,1.0,0.0,?,0.0,0.0
2500000.0,4.96875,7.875270158466366E-8,2500000.0,64.0,12.413873642415057,22.413793103448274,1.6393442622950833,983360.0,9208.0,0.0,1.0,0.0,?,0.0,0.0
2600000.0,5.15625,8.321063230848975E-8,2600000.0,65.9,19.01468660346169,30.122950819672134,7.336956521739137,1023160.0,9208.0,0.0,1.0,0.0,?,0.0,0.0
2700000.0,5.359375,8.724131880121099E-8,2700000.0,65.3,16.881449472544528,24.40087145969499,4.143646408839783,1063160.0,9208.0,0.0,1.0,0.0,?,0.0,0.0
2800000.0,5.5625,9.047326683584187E-8,2800000.0,63.3,15.051015684313828,20.73434125269978,4.4270833333333375,1103160.0,9208.0,0.0,1.0,0.0,?,0.0,0.0
2900000.0,5.734375,9.253213647753E-8,2900000.0,65.0,19.377130747258818,26.160337552742618,7.407407407407414,1143160.0,9208.0,0.0,1.0,0.0,?,0.0,0.0
3000000.0,5.9375,9.416660759598017E-8,3000000.0,61.8,10.422421596169265,17.67241379310344,-1.3262599469496033,1183160.0,9208.0,0.0,1.0,0.0,?,0.0,0.0
3100000.0,6.109375,9.825980264900459E-8,3100000.0,65.4,15.55661855509076,23.451327433628315,1.9830028328611915,1222960.0,9208.0,0.0,1.0,0.0,?,0.0,0.0
3200000.0,6.296875,1.019878093049758E-7,3200000.0,65.3,19.034196968565666,23.230088495575217,6.720430107526888,1262960.0,9208.0,0.0,1.0,0.0,?,0.0,0.0
3300000.0,6.5,1.0522774472418758E-7,3300000.0,64.7,16.97633943271086,25.52742616033755,4.851752021563346,1302960.0,9208.0,0.0,1.0,0.0,?,0.0,0.0
3400000.0,6.6875,1.0748115730368428E-7,3400000.0,65.4,17.551911318263922,27.15789473684211,4.155124653739616,1342960.0,9208.0,0.0,1.0,0.0,?,0.0,0.0
3500000.0,6.890625,1.0912361580671535E-7,3500000.0,65.9,20.96162582631029,23.88392857142857,9.788359788359797,1382960.0,9208.0,0.0,1.0,0.0,?,0.0,0.0
3600000.0,7.078125,1.1358891950092382E-7,3600000.0,68.0,22.642531136381212,32.05944798301486,10.614525139664813,1422760.0,9208.0,0.0,1.0,0.0,?,0.0,0.0
3700000.0,7.28125,1.1762759337822596E-7,3700000.0,64.1,13.058219509832405,20.222222222222218,0.27777777777777807,1462760.0,9208.0,0.0,1.0,0.0,?,0.0,0.0
3800000.0,7.453125,1.2036907719448207E-7,3800000.0,64.2,17.469304575151348,24.312896405919663,6.52741514360314,1502760.0,9208.0,0.0,1.0,0.0,?,0.0,0.0
3900000.0,7.65625,1.2281027415560349E-7,3900000.0,64.60000000000001,17.909236370382402,24.358974358974358,8.05194805194806,1542760.0,9208.0,0.0,1.0,0.0,?,0.0,0.0
4000000.0,7.84375,1.2432638969686293E-7,4000000.0,64.9,19.314054526228677,23.695652173913043,9.067357512953375,1582760.0,9208.0,0.0,1.0,0.0,?,0.0,0.0
4100000.0,8.046875,1.2917178941683634E-7,4100000.0,63.9,17.09535182803602,22.030237580993518,5.000000000000004,1622560.0,9208.0,0.0,1.0,0.0,?,0.0,0.0
4200000.0,8.234375,1.329071690431899E-7,4200000.0,67.60000000000001,21.933354215357916,31.501057082452437,8.732394366197191,1662560.0,9208.0,0.0,1.0,0.0,?,0.0,0.0
4300000.0,8.421875,1.3590525163130624E-7,4300000.0,63.800000000000004,18.487561472087634,25.051759834368532,9.045226130653274,1702560.0,9208.0,0.0,1.0,0.0,?,0.0,0.0
4400000.0,8.625,1.3835443597700858E-7,4400000.0,65.4,16.217891596606083,28.659793814432994,1.7045454545454561,1742560.0,9208.0,0.0,1.0,0.0,?,0.0,0.0
4500000.0,8.8125,1.398779244886504E-7,4500000.0,66.3,20.21326969335379,29.497907949790797,10.372340425531924,1782560.0,9208.0,0.0,1.0,0.0,?,0.0,0.0
4600000.0,9.0,1.4435060115324123E-7,4600000.0,64.1,15.460188577941478,22.961373390557938,4.010695187165779,1822360.0,9208.0,0.0,1.0,0.0,?,0.0,0.0
4700000.0,9.171875,1.4777469914406535E-7,4700000.0,65.60000000000001,17.967110534549217,21.995464852607707,3.9106145251396685,1862360.0,9208.0,0.0,1.0,0.0,?,0.0,0.0
4800000.0,9.359375,1.5077278173218168E-7,4800000.0,62.3,12.453440092144499,21.621621621621617,0.0,1902360.0,9208.0,0.0,1.0,0.0,?,0.0,0.0
4900000.0,9.5625,1.5322196607788402E-7,4900000.0,67.30000000000001,20.622590762120254,29.373650107991367,9.668508287292827,1942360.0,9208.0,0.0,1.0,0.0,?,0.0,0.0
5000000.0,9.765625,1.5499390428885815E-7,5000000.0,65.9,16.966981591506762,27.4468085106383,3.9436619718309895,1982360.0,9208.0,0.0,1.0,0.0,?,0.0,0.0
5100000.0,9.96875,1.6001586724693574E-7,5100000.0,46.9,-0.5918056513272297,-7.489878542510128,-16.960352422907505,2022160.0,9208.0,0.0,1.0,0.0,?,0.0,2.0
5200000.0,10.1875,1.6456395516999892E-7,5200000.0,48.8,0.21671681816055788,-4.27698574338086,-7.112970711297077,2062160.0,9208.0,0.0,1.0,0.0,?,0.0,0.0
5300000.0,10.390625,1.6793337029715376E-7,5300000.0,59.699999999999996,18.263536207428082,18.42105263157894,11.622807017543847,34927.0,9208.0,0.0,1.0,0.0,?,3.0,28.0
5400000.0,10.59375,1.7050404696621825E-7,5400000.0,57.599999999999994,14.065666801783525,13.292433537832299,5.777777777777759,74927.0,9208.0,0.0,1.0,0.0,?,0.0,0.0
5500000.0,10.796875,1.7227598517719238E-7,5500000.0,63.0,24.539076521455375,24.489795918367346,18.859649122807014,114927.0,9208.0,0.0,1.0,0.0,?,0.0,0.0
5600000.0,11.0,1.7724287722052796E-7,5600000.0,60.0,18.831168831168828,16.142557651991606,13.79310344827585,154727.0,9208.0,0.0,1.0,0.0,?,0.0,0.0
5700000.0,11.203125,1.8141103080577316E-7,5700000.0,61.1,20.235888518889126,19.12681912681912,12.189616252821658,194727.0,9208.0,0.0,1.0,0.0,?,0.0,0.0
5800000.0,11.390625,1.845212601539161E-7,5800000.0,61.5,21.316165951359075,20.944558521560573,14.444444444444434,234727.0,9208.0,0.0,1.0,0.0,?,0.0,0.0
5900000.0,11.59375,1.870919368229806E-7,5900000.0,59.3,17.71860166099254,20.196078431372545,14.135021097046405,274727.0,9208.0,0.0,1.0,0.0,?,0.0,0.0
6000000.0,11.796875,1.8886387503395473E-7,6000000.0,61.5,21.754965003129787,20.944558521560573,16.48590021691973,314727.0,9208.0,0.0,1.0,0.0,?,0.0,0.0
6100000.0,12.0,1.938387544618712E-7,6100000.0,57.599999999999994,13.947069329436596,15.199999999999992,5.357142857142837,354527.0,9208.0,0.0,1.0,0.0,?,0.0,0.0
6200000.0,12.203125,1.9801489543169734E-7,6200000.0,59.0,16.29099699464262,12.579957356076749,10.087719298245599,394527.0,9208.0,0.0,1.0,0.0,?,0.0,0.0
6300000.0,12.40625,2.013922979434331E-7,6300000.0,55.00000000000001,9.497894317674458,7.024793388429759,6.444906444906451,434527.0,9208.0,0.0,1.0,0.0,?,0.0,0.0
6400000.0,12.59375,2.0377260322372117E-7,6400000.0,59.599999999999994,18.591389225852463,20.315581854043387,15.657620041753646,474527.0,9208.0,0.0,1.0,0.0,?,0.0,0.0
6500000.0,12.796875,2.055525288192762E-7,6500000.0,57.99999999999999,14.864979912189288,16.50099403578528,10.064239828693776,514527.0,9208.0,0.0,1.0,0.0,?,0.0,0.0
6600000.0,12.984375,2.1017499319795103E-7,6600000.0,56.599999999999994,11.123489201708717,13.199999999999989,1.5873015873015637,554327.0,9208.0,0.0,1.0,0.0,?,0.0,61.0
6700000.0,13.1875,2.1438392448342506E-7,6700000.0,59.699999999999996,18.56940796120428,17.922606924643578,15.157894736842096,594327.0,9208.0,0.0,1.0,0.0,?,0.0,0.0
6800000.0,13.390625,2.1779411731080873E-7,6800000.0,59.3,17.619340630869875,19.24603174603174,13.034188034188023,634327.0,9208.0,0.0,1.0,0.0,?,0.0,0.0
6900000.0,13.59375,2.2040557168010205E-7,6900000.0,58.599999999999994,16.226552540520846,17.52988047808764,10.967741935483858,674327.0,9208.0,0.0,1.0,0.0,?,0.0,0.0
7000000.0,13.796875,2.22218287591305E-7,7000000.0,57.8,14.993050379711137,13.16872427983538,12.629399585921314,714327.0,9208.0,0.0,1.0,0.0,?,0.0,0.0
7100000.0,14.0,2.2723394471945032E-7,7100000.0,60.099999999999994,18.352145762906087,20.359281437125745,12.114537444933909,754127.0,9208.0,0.0,1.0,0.0,?,0.0,0.0
7200000.0,14.203125,2.3145086338950525E-7,7200000.0,58.3,15.131434339816172,17.42574257425742,8.951965065502169,794127.0,9208.0,0.0,1.0,0.0,?,0.0,0.0
7300000.0,14.390625,2.3460610666208793E-7,7300000.0,59.5,17.658157331880307,13.829787234042543,11.572052401746712,834127.0,9208.0,0.0,1.0,0.0,?,0.0,0.0
7400000.0,14.59375,2.3722554841596214E-7,7400000.0,56.8,11.810457809878038,11.293634496919905,2.483069977426614,874127.0,9208.0,0.0,1.0,0.0,?,0.0,0.0
7500000.0,14.796875,2.3904625171174603E-7,7500000.0,60.3,18.946508779093506,20.758483033932134,11.581291759465467,914127.0,9208.0,0.0,1.0,0.0,?,0.0,0.0
7600000.0,15.0,2.440619088398913E-7,7600000.0,58.599999999999994,16.48747110345467,19.298245614035086,12.473572938689207,953927.0,9208.0,0.0,1.0,0.0,?,0.0,0.0
7700000.0,15.203125,2.4827882750994626E-7,7700000.0,57.49999999999999,13.8525155065472,15.841584158415834,9.57446808510637,993927.0,9208.0,0.0,1.0,0.0,?,0.0,0.0
7800000.0,15.40625,2.5169700772191083E-7,7800000.0,58.9,17.052142113293456,16.122448979591827,13.836477987421372,1033927.0,9208.0,0.0,1.0,0.0,?,0.0,0.0
7900000.0,15.609375,2.543256980263524E-7,7900000.0,55.300000000000004,9.899377559905837,7.45341614906833,5.4968287526427115,1073927.0,9208.0,0.0,1.0,0.0,?,0.0,57.0
8000000.0,15.8125,2.5616868192123036E-7,8000000.0,57.199999999999996,12.75099378248904,11.934156378600811,5.934065934065916,1113927.0,9208.0,0.0,1.0,0.0,?,0.0,51.0
8100000.0,16.03125,2.616027551185753E-7,8100000.0,57.599999999999994,13.54948680202423,13.292433537832299,8.423326133909272,1153727.0,9208.0,0.0,1.0,0.0,?,0.0,0.0
8200000.0,16.25,2.661766484379768E-7,8200000.0,56.00000000000001,10.697976497331094,15.384615384615397,6.976744186046519,1193727.0,9208.0,0.0,1.0,0.0,?,0.0,0.0
8300000.0,16.46875,2.698903618794348E-7,8300000.0,58.199999999999996,16.2824605746468,16.89860834990059,15.725806451612895,1233727.0,9208.0,0.0,1.0,0.0,?,0.0,0.0
8400000.0,16.703125,2.7294771926891465E-7,8400000.0,58.599999999999994,15.51192832799329,15.510204081632645,9.010989010988995,1273727.0,9208.0,0.0,1.0,0.0,?,0.0,0.0
8500000.0,16.921875,2.749410729544857E-7,8500000.0,59.5,17.666192315511278,18.674698795180717,12.526997840172774,211562.0,9208.0,0.0,1.0,0.0,?,1.0,22.0
8600000.0,17.140625,2.8037514615183065E-7,8600000.0,57.3,12.9175674022107,17.08737864077669,5.947136563876634,251362.0,9208.0,0.0,1.0,0.0,?,0.0,0.0
8700000.0,17.359375,2.8494903947123214E-7,8700000.0,56.89999999999999,12.134778318695908,16.472868217054256,5.066079295154165,291362.0,9208.0,0.0,1.0,0.0,?,0.0,0.0
8800000.0,17.578125,2.8866275291269015E-7,8800000.0,56.49999999999999,11.385803802058282,7.838983050847441,4.185022026431698,331362.0,9208.0,0.0,1.0,0.0,?,0.0,0.0
8900000.0,17.796875,2.915162864762047E-7,8900000.0,57.99999999999999,14.053835040660703,15.322580645161283,6.4587973273941905,371362.0,9208.0,0.0,1.0,0.0,?,0.0,0.0
9000000.0,18.015625,2.935096401617758E-7,9000000.0,58.199999999999996,14.576725631886985,17.063492063492056,5.429864253393645,411362.0,9208.0,0.0,1.0,0.0,?,0.0,0.0
9100000.0,18.234375,2.9895231515790017E-7,9100000.0,57.199999999999996,14.048285584612225,17.21470019342359,12.474437627811849,451162.0,9208.0,0.0,1.0,0.0,?,0.0,0.0
9200000.0,18.453125,3.0353481027608107E-7,9200000.0,58.5,15.753146569224501,15.821501014198775,10.367170626349878,491162.0,9208.0,0.0,1.0,0.0,?,0.0,0.0
9300000.0,18.671875,3.0725712551631853E-7,9300000.0,60.699999999999996,19.97686863174698,21.868787276341944,14.750542299349231,531162.0,9208.0,0.0,1.0,0.0,?,0.0,0.0
9400000.0,18.875,3.0991482263844867E-7,9400000.0,59.9,18.138539803859114,17.827868852459012,12.253829321663007,571162.0,9208.0,0.0,1.0,0.0,?,0.0,0.0
9500000.0,19.09375,3.119167781227992E-7,9500000.0,58.199999999999996,13.981503965493813,17.063492063492056,2.564102564102566,611162.0,9208.0,0.0,1.0,0.0,?,0.0,0.0
9600000.0,19.3125,3.173594531189236E-7,9600000.0,56.599999999999994,12.450930158435563,15.728155339805816,9.014675052410887,650962.0,9208.0,0.0,1.0,0.0,?,0.0,0.0
9700000.0,19.515625,3.2161462715723444E-7,9700000.0,60.6,19.962947313680246,19.262295081967206,16.34819532908704,690962.0,9208.0,0.0,1.0,0.0,?,0.0,0.0
9800000.0,19.734375,3.253369423974719E-7,9800000.0,56.49999999999999,12.322427721431213,12.650602409638543,8.805031446540866,730962.0,9208.0,0.0,1.0,0.0,?,0.0,0.0
9900000.0,19.953125,3.2819907775976587E-7,9900000.0,55.60000000000001,10.00194590387236,11.20000000000001,5.128205128205133,770962.0,9208.0,0.0,1.0,0.0,?,0.0,0.0
1.0E7,20.171875,3.302010332441164E-7,1.0E7,58.8,15.65569508305456,18.897637795275585,8.240534521158112,810962.0,9208.0,0.0,1.0,0.0,?,0.0,0.0
