learning evaluation instances,evaluation time (cpu seconds),model cost (RAM-Hours),classified instances,classifications correct (percent),Kappa Statistic (percent),Kappa Temporal Statistic (percent),Kappa M Statistic (percent),model training instances,model serialized size (bytes),labeling cost,newThreshold,maxPosterior,accuracyBaseLearner (percent),Change detected,Warning detected
100000.0,0.171875,7.497017375297017E-9,100000.0,63.0,27.631192911768732,20.940170940170937,17.960088691796003,29700.0,9208.0,0.0,1.0,0.0,?,0.0,21.0
200000.0,0.359375,1.493828474647469E-8,200000.0,62.9,27.46369274324102,24.43991853360489,15.489749430523908,59700.0,9208.0,0.0,1.0,0.0,?,0.0,0.0
300000.0,0.53125,2.108359088500341E-8,300000.0,63.3,27.846807172066683,23.060796645702304,19.340659340659336,89700.0,9208.0,0.0,1.0,0.0,?,0.0,0.0
400000.0,0.71875,2.7050264179706575E-8,400000.0,62.9,28.28478864309408,22.54697286012526,13.519813519813532,119700.0,9208.0,0.0,1.0,0.0,?,0.0,0.0
500000.0,0.890625,3.1843859081466995E-8,500000.0,62.9,26.691432184634838,20.8955223880597,20.726495726495724,149700.0,9208.0,0.0,1.0,0.0,?,0.0,0.0
600000.0,1.0625,3.596159836484327E-8,600000.0,64.2,29.63836477987422,27.67676767676768,20.44444444444444,179700.0,9208.0,0.0,1.0,0.0,?,0.0,0.0
700000.0,1.25,3.971638054483467E-8,700000.0,62.4,26.768463695855406,22.633744855967073,14.545454545454534,209700.0,9208.0,0.0,1.0,0.0,?,0.0,0.0
800000.0,1.421875,4.248240859144264E-8,800000.0,63.0,27.970721071484196,21.610169491525422,15.909090909090901,239700.0,9208.0,0.0,1.0,0.0,?,0.0,0.0
900000.0,1.609375,4.4762596694959536E-8,900000.0,62.6,27.061393244402836,24.291497975708502,15.384615384615374,269700.0,9208.0,0.0,1.0,0.0,?,0.0,0.0
1000000.0,1.796875,4.630548776023918E-8,1000000.0,64.0,29.419791474695035,27.710843373493976,20.529801324503307,299700.0,9208.0,0.0,1.0,0.0,?,0.0,0.0
1100000.0,1.96875,5.3809263691720037E-8,1100000.0,62.7,26.693133131559293,25.100401606425706,17.29490022172948,329400.0,9208.0,0.0,1.0,0.0,?,0.0,0.0
1200000.0,2.15625,6.125790403328008E-8,1200000.0,61.6,24.008549038233195,20.661157024793383,16.883116883116873,359400.0,9208.0,0.0,1.0,0.0,?,0.0,0.0
1300000.0,2.328125,6.740996872799264E-8,1300000.0,61.4,24.13760573566868,24.90272373540856,16.45021645021644,389400.0,9208.0,0.0,1.0,0.0,?,0.0,0.0
1400000.0,2.515625,7.338401499307818E-8,1400000.0,64.5,30.419443355546843,28.571428571428577,19.318181818181813,419400.0,9208.0,0.0,1.0,0.0,?,0.0,0.0
1500000.0,2.6875,7.818436845102244E-8,1500000.0,53.2,9.088083545720146,4.6843177189409415,-5.405405405405411,449400.0,9208.0,0.0,1.0,0.0,?,0.0,0.0
1600000.0,2.875,8.268382063963347E-8,1600000.0,61.9,26.21712692203417,14.189189189189177,6.845965770171154,479400.0,9208.0,0.0,1.0,0.0,?,0.0,0.0
1700000.0,3.046875,8.613246286080944E-8,1700000.0,65.8,32.892753987190765,25.813449023861175,22.972972972972972,509400.0,9208.0,0.0,1.0,0.0,?,0.0,0.0
1800000.0,3.21875,8.890524946360125E-8,1800000.0,61.8,25.92276575692583,21.721311475409834,11.778290993071602,539400.0,9208.0,0.0,1.0,0.0,?,0.0,0.0
1900000.0,3.390625,9.100218044800892E-8,1900000.0,63.2,28.08707716960116,23.01255230125523,14.617169373549896,569400.0,9208.0,0.0,1.0,0.0,?,0.0,0.0
2000000.0,3.5625,9.242325581403244E-8,2000000.0,62.9,27.428504362114147,25.94810379241517,16.62921348314606,599400.0,9208.0,0.0,1.0,0.0,?,0.0,0.0
2100000.0,3.734375,9.993379030169714E-8,2100000.0,63.9,29.092223322176668,30.84291187739464,16.435185185185198,629100.0,9208.0,0.0,1.0,0.0,?,0.0,0.0
2200000.0,3.90625,1.0676846917097769E-7,2200000.0,58.599999999999994,18.96494352991836,16.867469879518065,6.966292134831442,659100.0,9208.0,0.0,1.0,0.0,?,0.0,0.0
2300000.0,4.078125,1.1292729242187409E-7,2300000.0,61.1,23.193568004296417,21.41414141414141,16.702355460385434,689100.0,9208.0,0.0,1.0,0.0,?,0.0,0.0
2400000.0,4.265625,1.18908711657342E-7,2400000.0,59.599999999999994,21.147652971601442,18.383838383838377,7.1264367816092005,719100.0,9208.0,0.0,1.0,0.0,?,0.0,0.0
2500000.0,4.4375,1.237158236714701E-7,2500000.0,57.8,16.871860533832354,11.899791231732765,6.0133630289532105,749100.0,9208.0,0.0,1.0,0.0,?,0.0,0.0
2600000.0,4.609375,1.2784708006721407E-7,2600000.0,58.199999999999996,18.13777138895525,13.991769547325092,4.7835990888382485,779100.0,9208.0,0.0,1.0,0.0,?,0.0,0.0
2700000.0,4.765625,1.3098835350117753E-7,2700000.0,64.0,29.70864232242645,25.311203319502074,18.3673469387755,809100.0,9208.0,0.0,1.0,0.0,?,0.0,0.0
2800000.0,4.9375,1.337678986601532E-7,2800000.0,53.2,8.140192198982488,2.9045643153526997,-9.859154929577446,839100.0,9208.0,0.0,1.0,0.0,?,0.0,0.0
2900000.0,5.125,1.3606283270443484E-7,2900000.0,55.800000000000004,13.046899590808941,14.506769825918775,5.555555555555561,869100.0,9208.0,0.0,1.0,0.0,?,0.0,0.0
3000000.0,5.296875,1.374906666266422E-7,3000000.0,64.2,29.666011787819258,22.844827586206897,20.44444444444444,899100.0,9208.0,0.0,1.0,0.0,?,0.0,0.0
3100000.0,5.46875,1.4500795967049075E-7,3100000.0,62.6,26.563279283383263,26.953125,18.87201735357917,928800.0,9208.0,0.0,1.0,0.0,?,0.0,0.0
3200000.0,5.65625,1.5247134595281553E-7,3200000.0,55.1,12.280016254571603,9.839357429718884,-1.3544018058690759,958800.0,9208.0,0.0,1.0,0.0,?,0.0,0.0
3300000.0,5.828125,1.5863692775989578E-7,3300000.0,53.7,10.318591750085245,7.214428857715436,-8.177570093457923,988800.0,9208.0,0.0,1.0,0.0,?,0.0,0.0
3400000.0,6.015625,1.6462571996574607E-7,3400000.0,50.6,4.636518422139778,-1.4373716632443545,-16.784869976359325,1018800.0,9208.0,0.0,1.0,0.0,?,0.0,0.0
3500000.0,6.1875,1.6943959053605802E-7,3500000.0,52.0,5.97563985535919,6.06653620352251,-6.9042316258351955,1048800.0,9208.0,0.0,1.0,0.0,?,0.0,0.0
3600000.0,6.359375,1.735776054879858E-7,3600000.0,52.1,6.041584935268731,5.335968379446645,-6.208425720620848,1078800.0,9208.0,0.0,1.0,0.0,?,0.0,0.0
3700000.0,6.53125,1.7703976482152947E-7,3700000.0,52.1,5.580042104599178,3.8152610441767107,-4.585152838427952,1108800.0,9208.0,0.0,1.0,0.0,?,0.0,0.0
3800000.0,6.703125,1.7982606853668896E-7,3800000.0,63.2,27.54308036417478,22.19873150105708,16.74208144796379,1138800.0,9208.0,0.0,1.0,0.0,?,0.0,0.0
3900000.0,6.875,1.819365166334643E-7,3900000.0,53.800000000000004,9.879683525537997,8.875739644970421,-5.479452054794526,1168800.0,9208.0,0.0,1.0,0.0,?,0.0,0.0
4000000.0,7.03125,1.8324069161381993E-7,4000000.0,55.1,11.82939282067395,9.475806451612911,1.535087719298247,1198800.0,9208.0,0.0,1.0,0.0,?,0.0,0.0
4100000.0,7.203125,1.907647432138523E-7,4100000.0,49.2,0.43783832516060445,0.0,-11.159737417943118,1228500.0,9208.0,0.0,1.0,0.0,?,0.0,0.0
4200000.0,7.375,1.9761293919550055E-7,4200000.0,63.9,28.964974419519873,28.08764940239044,21.350762527233112,1258500.0,9208.0,0.0,1.0,0.0,?,0.0,0.0
4300000.0,7.5625,2.0434640140997045E-7,4300000.0,53.400000000000006,7.382747751149768,5.476673427991892,4.312114989733064,1288500.0,9208.0,0.0,1.0,0.0,?,0.0,0.0
4400000.0,7.734375,2.098428861548504E-7,4400000.0,61.7,25.27470812261971,25.1953125,15.07760532150775,1318500.0,9208.0,0.0,1.0,0.0,?,0.0,0.0
4500000.0,7.921875,2.151017542928458E-7,4500000.0,62.0,25.637172020790285,19.83122362869198,12.844036697247715,1348500.0,9208.0,0.0,1.0,0.0,?,0.0,0.0
4600000.0,8.09375,2.1924652780095743E-7,4600000.0,63.3,27.690998218873634,25.557809330628807,20.04357298474945,1378500.0,9208.0,0.0,1.0,0.0,?,0.0,0.0
4700000.0,8.265625,2.2271544569068492E-7,4700000.0,64.5,30.83697007481298,24.307036247334754,15.476190476190489,1408500.0,9208.0,0.0,1.0,0.0,?,0.0,0.0
4800000.0,8.4375,2.2550850796202825E-7,4800000.0,53.0,8.32023157919376,6.187624750499007,-6.094808126410841,1438500.0,9208.0,0.0,1.0,0.0,?,0.0,0.0
4900000.0,8.609375,2.2762571461498745E-7,4900000.0,50.6,3.483955672955181,-0.20283975659229225,-11.764705882352953,1468500.0,9208.0,0.0,1.0,0.0,?,0.0,0.0
5000000.0,8.78125,2.2916986684625354E-7,5000000.0,64.3,30.367006834566045,26.69404517453799,18.67881548974942,1498500.0,9208.0,0.0,1.0,0.0,?,0.0,0.0
5100000.0,8.96875,2.3749744286760694E-7,5100000.0,49.4,4.188804859483221,-7.659574468085113,-36.38814016172507,1528200.0,9208.0,0.0,1.0,0.0,?,0.0,0.0
5200000.0,9.140625,2.444551986021301E-7,5200000.0,51.6,6.708146846002918,0.8196721311475417,-27.03412073490813,1558200.0,9208.0,0.0,1.0,0.0,?,0.0,0.0
5300000.0,9.3125,2.506897888249822E-7,5300000.0,51.300000000000004,7.2190088627755875,-8.22222222222223,-30.563002680965145,1585985.0,9208.0,0.0,1.0,0.0,?,1.0,30.0
5400000.0,9.46875,2.5576970074325806E-7,5400000.0,49.3,4.067391238533491,-12.416851441241697,-39.669421487603316,1615985.0,9208.0,0.0,1.0,0.0,?,0.0,29.0
5500000.0,9.640625,2.606817482349774E-7,5500000.0,51.1,5.836953507717915,-2.0876826722338224,-34.34065934065934,1645985.0,9208.0,0.0,1.0,0.0,?,0.0,0.0
5600000.0,9.78125,2.641477234040698E-7,5600000.0,53.0,9.96479048615182,5.6224899598393625,-20.20460358056265,1675985.0,9208.0,0.0,1.0,0.0,?,0.0,0.0
5700000.0,9.953125,2.677080596590208E-7,5700000.0,50.5,4.975082354928635,-10.738255033557058,-32.35294117647059,1705985.0,9208.0,0.0,1.0,0.0,?,0.0,0.0
5800000.0,10.109375,2.703303147831725E-7,5800000.0,51.7,7.70042194092828,-1.2578616352201268,-29.838709677419352,1735985.0,9208.0,0.0,1.0,0.0,?,0.0,0.0
5900000.0,10.265625,2.723381557087932E-7,5900000.0,54.1,4.195366311834691,3.3684210526315823,-17.69230769230768,1765985.0,9208.0,0.0,1.0,0.0,?,0.0,0.0
6000000.0,10.4375,2.7387092510859176E-7,6000000.0,55.300000000000004,7.2591018863540215,5.696202531645575,-15.803108808290139,1795985.0,9208.0,0.0,1.0,0.0,?,0.0,0.0
6100000.0,10.59375,2.808002237644461E-7,6100000.0,52.1,0.7517176790406017,1.2371134020618568,-20.050125313283196,1825685.0,9208.0,0.0,1.0,0.0,?,0.0,0.0
6200000.0,10.765625,2.877465966675017E-7,6200000.0,53.1,3.26306670516894,-3.0769230769230798,-21.81818181818181,1855685.0,9208.0,0.0,1.0,0.0,?,0.0,0.0
6300000.0,10.9375,2.940171139521732E-7,6300000.0,54.900000000000006,4.067862946797022,0.87912087912088,-30.346820809248555,1885685.0,9208.0,0.0,1.0,0.0,?,0.0,0.0
6400000.0,11.078125,2.985945644064083E-7,6400000.0,54.300000000000004,4.286779428150168,1.7204301075268835,-23.848238482384815,1915685.0,9208.0,0.0,1.0,0.0,?,0.0,0.0
6500000.0,11.25,3.0351337045431146E-7,6500000.0,53.7,5.209194912825222,4.140786749482405,-17.811704834605585,1945685.0,9208.0,0.0,1.0,0.0,?,0.0,0.0
6600000.0,11.40625,3.0737059811751055E-7,6600000.0,55.400000000000006,7.210146133617394,3.253796095444689,-18.617021276595732,1975685.0,9208.0,0.0,1.0,0.0,?,0.0,0.0
6700000.0,11.5625,3.106134115821786E-7,6700000.0,54.2,4.6786546786546905,-1.552106430155212,-21.164021164021154,2005685.0,9208.0,0.0,1.0,0.0,?,0.0,0.0
6800000.0,11.71875,3.132418108483156E-7,6800000.0,56.10000000000001,6.53290297306275,2.8761061946902684,-22.969187675070017,2035685.0,9208.0,0.0,1.0,0.0,?,0.0,0.0
6900000.0,11.875,3.152557959159216E-7,6900000.0,56.3,8.677516697177152,6.021505376344067,-14.397905759162317,2065685.0,9208.0,0.0,1.0,0.0,?,0.0,0.0
7000000.0,12.03125,3.166553667849965E-7,7000000.0,52.400000000000006,2.3136879866358573,1.2448132780082999,-19.298245614035075,2095685.0,9208.0,0.0,1.0,0.0,?,0.0,0.0
7100000.0,12.203125,3.242843538626201E-7,7100000.0,54.400000000000006,2.9043522698236917,-4.82758620689653,-25.966850828729278,2125385.0,9208.0,0.0,1.0,0.0,?,0.0,0.0
7200000.0,12.359375,3.3060538246192873E-7,7200000.0,53.2,-0.9247118901386977,1.0570824524312907,-31.46067415730337,2155385.0,9208.0,0.0,1.0,0.0,?,0.0,0.0
7300000.0,12.53125,3.3688265830278404E-7,7300000.0,56.3,7.499132142887362,6.223175965665218,-12.919896640826883,2185385.0,9208.0,0.0,1.0,0.0,?,0.0,0.0
7400000.0,12.703125,3.424840785252552E-7,7400000.0,53.7,3.3782148133926744,-0.6521739130434789,-22.16358839050131,2215385.0,9208.0,0.0,1.0,0.0,?,0.0,0.0
7500000.0,12.859375,3.4696186452897066E-7,7500000.0,55.00000000000001,6.088393777625671,7.975460122699393,-9.489051094890492,2245385.0,9208.0,0.0,1.0,0.0,?,0.0,0.0
7600000.0,13.03125,3.5121157351467355E-7,7600000.0,56.10000000000001,6.701350811421966,1.7897091722595095,-21.60664819944597,2275385.0,9208.0,0.0,1.0,0.0,?,0.0,0.0
7700000.0,13.171875,3.5413563536066156E-7,7700000.0,54.300000000000004,3.6393539408763234,2.3504273504273523,-23.513513513513505,2305385.0,9208.0,0.0,1.0,0.0,?,0.0,0.0
7800000.0,13.34375,3.570336331095961E-7,7800000.0,50.9,-4.438753371393565,-8.149779735682827,-33.06233062330624,2335385.0,9208.0,0.0,1.0,0.0,?,0.0,0.0
7900000.0,13.5,3.590537623191874E-7,7900000.0,55.50000000000001,8.324543476827742,1.9823788546255525,-19.62365591397848,2365385.0,9208.0,0.0,1.0,0.0,?,0.0,0.0
8000000.0,13.671875,3.6060004883135363E-7,8000000.0,54.900000000000006,5.5639777876425,6.041666666666672,-20.588235294117634,2395385.0,9208.0,0.0,1.0,0.0,?,0.0,0.0
8100000.0,13.84375,3.6823579446516107E-7,8100000.0,54.7,3.685875629337329,4.430379746835447,-27.247191011235948,2425085.0,9208.0,0.0,1.0,0.0,?,0.0,0.0
8200000.0,14.0,3.7456296720645497E-7,8200000.0,55.300000000000004,6.991260923845209,0.44543429844098037,-11.749999999999982,2455085.0,9208.0,0.0,1.0,0.0,?,0.0,0.0
8300000.0,14.15625,3.802757257492178E-7,8300000.0,55.60000000000001,7.34054852725733,7.6923076923077,-15.92689295039163,2485085.0,9208.0,0.0,1.0,0.0,?,0.0,0.0
8400000.0,14.3125,3.853740700934496E-7,8400000.0,54.7,4.297122575738375,1.521739130434784,-31.304347826086953,2515085.0,9208.0,0.0,1.0,0.0,?,0.0,0.0
8500000.0,14.484375,3.9030639325372046E-7,8500000.0,55.400000000000006,6.660192874363798,-0.4504504504504509,-21.195652173913032,2545085.0,9208.0,0.0,1.0,0.0,?,0.0,0.0
8600000.0,14.640625,3.941759092008902E-7,8600000.0,54.900000000000006,5.548947006885937,9.25553319919518,-17.44791666666665,2575085.0,9208.0,0.0,1.0,0.0,?,0.0,0.0
8700000.0,14.8125,3.9775652112439273E-7,8700000.0,52.5,0.033672868086549575,-1.713062098501072,-23.376623376623368,2605085.0,9208.0,0.0,1.0,0.0,?,0.0,0.0
8800000.0,14.96875,4.003972086745004E-7,8800000.0,56.99999999999999,9.7548690396239,11.340206185566998,-13.157894736842115,2635085.0,9208.0,0.0,1.0,0.0,?,0.0,0.0
8900000.0,15.140625,4.0262610936123464E-7,8900000.0,54.50000000000001,4.242781378903962,4.411764705882358,-16.071428571428555,2665085.0,9208.0,0.0,1.0,0.0,?,0.0,0.0
9000000.0,15.296875,4.040379685142802E-7,9000000.0,52.400000000000006,0.5582110505732543,0.20964360587002115,-26.59574468085106,2695085.0,9208.0,0.0,1.0,0.0,?,0.0,0.0
9100000.0,15.46875,4.116804727042715E-7,9100000.0,53.7,2.5386266997853046,4.3388429752066155,-30.422535211267604,2724785.0,9208.0,0.0,1.0,0.0,?,0.0,0.0
9200000.0,15.640625,4.186471212758786E-7,9200000.0,55.400000000000006,6.18584457981357,5.106382978723409,-16.145833333333318,2754785.0,9208.0,0.0,1.0,0.0,?,0.0,0.0
9300000.0,15.78125,4.23794133692152E-7,9300000.0,52.300000000000004,1.3027213136463116,3.441295546558708,-15.496368038740908,2784785.0,9208.0,0.0,1.0,0.0,?,0.0,0.0
9400000.0,15.953125,4.294090710269908E-7,9400000.0,54.400000000000006,5.385946493262906,9.163346613545825,-13.151364764267973,2814785.0,9208.0,0.0,1.0,0.0,?,0.0,0.0
9500000.0,16.109375,4.338991453146769E-7,9500000.0,56.10000000000001,7.872978032217197,10.590631364562128,-10.57934508816119,2844785.0,9208.0,0.0,1.0,0.0,?,0.0,0.0
9600000.0,16.28125,4.3816237141274743E-7,9600000.0,55.00000000000001,6.10171896453151,7.216494845360831,-14.503816793893115,2874785.0,9208.0,0.0,1.0,0.0,?,0.0,0.0
9700000.0,16.4375,4.414236173033714E-7,9700000.0,51.300000000000004,-1.3114317572852647,-2.7426160337552767,-30.563002680965145,2904785.0,9208.0,0.0,1.0,0.0,?,0.0,0.0
9800000.0,16.609375,4.443351321646736E-7,9800000.0,56.10000000000001,8.591179777620471,7.773109243697486,-11.139240506329095,2934785.0,9208.0,0.0,1.0,0.0,?,0.0,0.0
9900000.0,16.765625,4.4636754965823555E-7,9900000.0,56.39999999999999,6.9616579603263995,3.9647577092510806,-23.863636363636388,2964785.0,9208.0,0.0,1.0,0.0,?,0.0,0.0
1.0E7,16.9375,4.479273532827695E-7,1.0E7,56.49999999999999,8.61805287128379,10.123966942148746,-11.825192802056565,2994785.0,9208.0,0.0,1.0,0.0,?,0.0,0.0
