learning evaluation instances,evaluation time (cpu seconds),model cost (RAM-Hours),classified instances,classifications correct (percent),Kappa Statistic (percent),Kappa Temporal Statistic (percent),Kappa M Statistic (percent),model training instances,model serialized size (bytes),labeling cost,newThreshold,maxPosterior,accuracyBaseLearner (percent),Change detected,Warning detected
100000.0,0.140625,8.262577466666699E-10,100000.0,65.10000000000001,27.60237314857073,26.98744769874477,19.025522041763356,29944.0,5264.0,29944.0,1.0,0.0,0.0,0.0,7.0
200000.0,0.296875,1.7520829310847655E-9,200000.0,68.10000000000001,34.81068532566049,38.05825242718448,29.424778761061955,59702.0,5264.0,59702.0,1.0,0.0,0.0,0.0,77.0
300000.0,0.453125,2.677908115502861E-9,300000.0,66.10000000000001,30.838909743757135,29.521829521829524,26.143790849673206,89831.0,5264.0,89831.0,1.0,0.0,0.0,0.0,0.0
400000.0,0.578125,3.4185682630373375E-9,400000.0,66.5,32.032137639993515,33.79446640316207,27.173913043478265,119923.0,5264.0,119923.0,1.0,0.0,0.0,0.0,0.0
500000.0,0.71875,4.251810929013624E-9,500000.0,64.9,28.80959914328134,27.027027027027028,24.19006479481641,149866.0,5264.0,149866.0,1.0,0.0,0.0,0.0,0.0
600000.0,0.859375,5.0850535949899096E-9,600000.0,66.3,31.13229139419305,33.66141732283465,25.442477876106196,179971.0,5264.0,179971.0,1.0,0.0,0.0,0.0,0.0
700000.0,1.015625,6.010878779408005E-9,700000.0,68.2,34.738440700227805,34.96932515337424,26.558891454965377,209925.0,5264.0,209925.0,1.0,0.0,0.0,0.0,0.0
800000.0,1.15625,6.844121445384291E-9,800000.0,65.7,29.620236541665644,31.124497991967875,22.398190045248867,239901.0,5264.0,239901.0,1.0,0.0,0.0,0.0,0.0
900000.0,1.296875,7.677364111360576E-9,900000.0,66.10000000000001,31.97415419191717,28.78151260504202,32.06412825651303,269842.0,5264.0,269842.0,1.0,0.0,0.0,0.0,0.0
1000000.0,1.4375,8.510606777336862E-9,1000000.0,67.80000000000001,34.64450262842762,37.35408560311285,29.540481400437642,299958.0,5264.0,299958.0,1.0,0.0,0.0,0.0,0.0
1100000.0,1.5625,9.251266924871338E-9,1100000.0,65.9,30.97277776878108,34.042553191489375,27.7542372881356,329733.0,5264.0,329733.0,1.0,0.0,0.0,0.0,0.0
1200000.0,1.71875,1.0177092109289434E-8,1200000.0,67.0,32.978321533456004,33.198380566801625,28.725701943844495,359647.0,5264.0,359647.0,1.0,0.0,0.0,0.0,0.0
1300000.0,1.859375,1.101033477526572E-8,1300000.0,64.4,28.238827632082895,30.873786407766996,26.293995859213254,389776.0,5264.0,389776.0,1.0,0.0,0.0,0.0,0.0
1400000.0,2.0,1.1843577441242005E-8,1400000.0,66.2,32.28732611064812,35.98484848484849,32.12851405622491,419941.0,5264.0,419941.0,1.0,0.0,0.0,0.0,0.0
1500000.0,2.140625,1.2676820107218291E-8,1500000.0,63.5,26.38457504739624,22.669491525423727,23.640167364016733,449864.0,5264.0,449864.0,1.0,0.0,0.0,0.0,0.0
1600000.0,2.28125,1.3510062773194577E-8,1600000.0,67.0,33.66567500201014,36.04651162790699,31.535269709543574,479874.0,5264.0,479874.0,1.0,0.0,0.0,0.0,0.0
1700000.0,2.421875,1.4343305439170863E-8,1700000.0,65.2,28.894846102293343,26.42706131078224,23.348017621145374,509732.0,5264.0,509732.0,1.0,0.0,0.0,0.0,0.0
1800000.0,2.578125,1.526913062358896E-8,1800000.0,69.1,36.93929029150782,39.648437499999986,32.53275109170304,539822.0,5264.0,539822.0,1.0,0.0,0.0,0.0,0.0
1900000.0,2.71875,1.6102373289565245E-8,1900000.0,68.2,35.219175124163264,36.40000000000001,29.490022172949004,569987.0,5264.0,569987.0,1.0,0.0,0.0,0.0,0.0
2000000.0,2.859375,1.693561595554153E-8,2000000.0,65.2,29.07945953657095,29.41176470588236,22.83813747228381,599779.0,5264.0,599779.0,1.0,0.0,0.0,0.0,0.0
2100000.0,3.0,1.7768858621517816E-8,2100000.0,66.10000000000001,31.384852042262075,32.60437375745527,28.329809725158565,629723.0,5264.0,629723.0,1.0,0.0,0.0,0.0,0.0
2200000.0,3.140625,1.8602101287494102E-8,2200000.0,64.3,28.322464582864864,29.585798816568055,26.69404517453799,659772.0,5264.0,659772.0,1.0,0.0,0.0,0.0,0.0
2300000.0,3.28125,1.9435343953470388E-8,2300000.0,66.5,32.52388855766288,33.66336633663367,30.06263048016702,689949.0,5264.0,689949.0,1.0,0.0,0.0,0.0,0.0
2400000.0,3.421875,2.0268586619446674E-8,2400000.0,66.8,32.875864829783715,35.53398058252428,29.21108742004265,719873.0,5264.0,719873.0,1.0,0.0,0.0,0.0,0.0
2500000.0,3.5625,2.110182928542296E-8,2500000.0,66.60000000000001,32.224025974025984,34.63796477495109,28.01724137931035,749823.0,5264.0,749823.0,1.0,0.0,0.0,0.0,0.0
2600000.0,3.703125,2.1935071951399245E-8,2600000.0,65.3,30.042579271636406,33.39731285988484,27.100840336134457,779947.0,5264.0,779947.0,1.0,0.0,0.0,0.0,0.0
2700000.0,3.84375,2.276831461737553E-8,2700000.0,66.8,32.68587417124551,36.76190476190477,28.60215053763441,809985.0,5264.0,809985.0,1.0,0.0,0.0,0.0,0.0
2800000.0,4.0,2.3694139801793627E-8,2800000.0,64.9,29.04790782292299,29.376257545271635,26.105263157894736,839998.0,5264.0,839998.0,1.0,0.0,0.0,0.0,0.0
2900000.0,4.125,2.4434799949328103E-8,2900000.0,66.2,31.964573268921104,31.578947368421055,30.165289256198353,869891.0,5264.0,869891.0,1.0,0.0,0.0,0.0,0.0
3000000.0,4.265625,2.526804261530439E-8,3000000.0,66.7,31.65473532116118,30.625000000000007,24.830699774266364,899984.0,5264.0,899984.0,1.0,0.0,0.0,0.0,0.0
3100000.0,4.390625,2.6008702762838864E-8,3100000.0,66.9,33.195553366863386,35.976789168278536,30.16877637130802,929764.0,5264.0,929764.0,1.0,0.0,0.0,0.0,0.0
3200000.0,4.53125,2.684194542881515E-8,3200000.0,67.30000000000001,33.62885744209271,30.720338983050855,30.2771855010661,959879.0,5264.0,959879.0,1.0,0.0,0.0,0.0,0.0
3300000.0,4.671875,2.7675188094791436E-8,3300000.0,67.4,34.005959707197,37.54789272030653,30.341880341880344,989986.0,5264.0,989986.0,1.0,0.0,0.0,0.0,0.0
3400000.0,4.8125,2.850843076076772E-8,3400000.0,66.8,32.84219128647662,34.90196078431374,29.21108742004265,1019707.0,5264.0,1019707.0,1.0,0.0,0.0,0.0,0.0
3500000.0,4.953125,2.9341673426744007E-8,3500000.0,68.30000000000001,35.87046238003529,35.95959595959597,31.681034482758623,1049292.0,5264.0,1049292.0,1.0,0.0,0.0,0.0,0.0
3600000.0,5.09375,3.017491609272029E-8,3600000.0,65.0,29.45141419679428,28.86178861788618,27.385892116182575,1079112.0,5264.0,1079112.0,1.0,0.0,0.0,0.0,0.0
3700000.0,5.234375,3.100815875869658E-8,3700000.0,65.4,29.466924880236476,28.364389233954455,23.956043956043953,1109386.0,5264.0,1109386.0,1.0,0.0,0.0,0.0,0.0
3800000.0,5.375,3.184140142467287E-8,3800000.0,69.6,38.44359489405817,38.08553971486761,35.04273504273503,1139163.0,5264.0,1139163.0,1.0,0.0,0.0,0.0,0.0
3900000.0,5.53125,3.276722660909097E-8,3900000.0,68.30000000000001,36.310595345248814,37.35177865612649,34.50413223140497,1169127.0,5264.0,1169127.0,1.0,0.0,0.0,0.0,0.0
4000000.0,5.671875,3.3600469275067256E-8,4000000.0,66.5,32.27781057193916,34.57031250000001,28.723404255319153,1198972.0,5264.0,1198972.0,1.0,0.0,0.0,0.0,0.0
4100000.0,5.8125,3.4433711941043546E-8,4100000.0,67.10000000000001,32.977509778357245,37.57115749525618,27.212389380530976,1228880.0,5264.0,1228880.0,1.0,0.0,0.0,0.0,0.0
4200000.0,5.953125,3.5266954607019835E-8,4200000.0,69.1,37.58332323354743,38.56858846918488,34.810126582278464,1258911.0,5264.0,1258911.0,1.0,0.0,0.0,0.0,0.0
4300000.0,6.09375,3.6100197272996124E-8,4300000.0,66.2,31.411224208185207,33.464566929133866,27.467811158798284,1288946.0,5264.0,1288946.0,1.0,0.0,0.0,0.0,0.0
4400000.0,6.265625,3.711860497585603E-8,4400000.0,64.7,28.664963786859797,23.92241379310345,25.995807127882603,1318965.0,5264.0,1318965.0,1.0,0.0,0.0,0.0,0.0
4500000.0,6.40625,3.7951847641832316E-8,4500000.0,66.60000000000001,32.653686706563654,30.41666666666667,29.53586497890296,1349153.0,5264.0,1349153.0,1.0,0.0,0.0,0.0,0.0
4600000.0,6.546875,3.8785090307808605E-8,4600000.0,67.10000000000001,33.27925370107484,36.363636363636374,30.000000000000004,1379057.0,5264.0,1379057.0,1.0,0.0,0.0,0.0,0.0
4700000.0,6.6875,3.9618332973784894E-8,4700000.0,67.2,33.11173195750148,30.508474576271194,27.912087912087912,1409092.0,5264.0,1409092.0,1.0,0.0,0.0,0.0,0.0
4800000.0,6.828125,4.045157563976118E-8,4800000.0,64.7,28.567959593343257,30.784313725490204,24.57264957264957,1439400.0,5264.0,1439400.0,1.0,0.0,0.0,0.0,0.0
4900000.0,6.96875,4.128481830573747E-8,4900000.0,67.5,33.63825703434476,34.34343434343435,29.65367965367966,1469219.0,5264.0,1469219.0,1.0,0.0,0.0,0.0,0.0
5000000.0,7.109375,4.211806097171376E-8,5000000.0,69.69999999999999,38.965433889291745,38.787878787878775,36.874999999999986,1499327.0,5264.0,1499327.0,1.0,0.0,0.0,0.0,0.0
5100000.0,7.25,4.2932968224502305E-8,5100000.0,63.0,0.0,18.859649122807014,0.0,28764.0,5168.0,1529381.0,1.0,0.0,0.0,1.0,12.0
5200000.0,7.390625,4.374787547729085E-8,5200000.0,61.3,0.0,16.59482758620689,0.0,58732.0,5168.0,1559349.0,1.0,0.0,0.0,0.0,0.0
5300000.0,7.53125,4.4608184705591896E-8,5300000.0,60.4,0.0,18.518518518518512,0.0,88691.0,5168.0,1589308.0,1.0,0.0,0.0,0.0,24.0
5400000.0,7.703125,4.565967376240429E-8,5400000.0,63.0,0.0,21.10874200426439,0.0,118636.0,5168.0,1619253.0,1.0,0.0,0.0,0.0,0.0
5500000.0,7.8125,4.632020136341456E-8,5500000.0,59.3,0.0,17.444219066937112,0.0,148480.0,5168.0,1649097.0,1.0,0.0,0.0,0.0,11.0
5600000.0,7.96875,4.7237295398695635E-8,5600000.0,61.5,0.0,15.754923413566729,0.0,178044.0,5168.0,1678661.0,1.0,0.0,0.0,0.0,95.0
5700000.0,8.109375,4.80626800304486E-8,5700000.0,64.0,0.0,19.282511210762326,0.0,208102.0,5168.0,1708719.0,1.0,0.0,0.0,0.0,0.0
5800000.0,8.25,4.8888064662201565E-8,5800000.0,60.199999999999996,0.0,17.5983436853002,0.0,238166.0,5168.0,1738783.0,1.0,0.0,0.0,0.0,0.0
5900000.0,8.375,4.9621739890426424E-8,5900000.0,60.199999999999996,0.0,17.5983436853002,0.0,268175.0,5168.0,1768792.0,1.0,0.0,0.0,0.0,0.0
6000000.0,8.515625,5.044712452217939E-8,6000000.0,59.099999999999994,0.0,12.606837606837596,0.0,298409.0,5168.0,1799026.0,1.0,0.0,0.0,0.0,0.0
6100000.0,8.65625,5.1272509153932354E-8,6100000.0,61.6,0.0,14.476614699331838,0.0,328520.0,5168.0,1829137.0,1.0,0.0,0.0,0.0,0.0
6200000.0,8.796875,5.209789378568532E-8,6200000.0,63.9,0.0,22.198275862068964,0.0,358533.0,5168.0,1859150.0,1.0,0.0,0.0,0.0,0.0
6300000.0,8.9375,5.2923278417438284E-8,6300000.0,61.3,0.0,19.542619542619537,0.0,388724.0,5168.0,1889341.0,1.0,0.0,0.0,0.0,0.0
6400000.0,9.078125,5.374866304919125E-8,6400000.0,63.7,0.0,16.55172413793105,0.0,418919.0,5168.0,1919536.0,1.0,0.0,0.0,0.0,0.0
6500000.0,9.21875,5.4574047680944214E-8,6500000.0,63.1,0.0,16.891891891891884,0.0,448856.0,5168.0,1949473.0,1.0,0.0,0.0,0.0,0.0
6600000.0,9.359375,5.539943231269718E-8,6600000.0,61.6,0.0,18.987341772151893,0.0,478974.0,5168.0,1979591.0,1.0,0.0,0.0,0.0,0.0
6700000.0,9.5,5.6224816944450143E-8,6700000.0,59.8,0.0,12.987012987012974,0.0,508772.0,5168.0,2009389.0,1.0,0.0,0.0,0.0,0.0
6800000.0,9.640625,5.705020157620311E-8,6800000.0,61.199999999999996,0.0,12.808988764044932,0.0,538752.0,5168.0,2039369.0,1.0,0.0,0.0,0.0,0.0
6900000.0,9.78125,5.787558620795607E-8,6900000.0,61.199999999999996,0.0,18.315789473684205,0.0,568742.0,5168.0,2069359.0,1.0,0.0,0.0,0.0,0.0
7000000.0,9.921875,5.870097083970904E-8,7000000.0,63.800000000000004,0.0,24.10901467505241,0.0,598881.0,5168.0,2099498.0,1.0,0.0,0.0,0.0,0.0
7100000.0,10.078125,5.961806487499011E-8,7100000.0,61.9,0.0,22.40325865580448,0.0,628789.0,5168.0,2129406.0,1.0,0.0,0.0,0.0,0.0
7200000.0,10.21875,6.044344950674308E-8,7200000.0,62.2,0.0,23.326572008113587,0.0,658677.0,5168.0,2159294.0,1.0,0.0,0.0,0.0,0.0
7300000.0,10.359375,6.126883413849605E-8,7300000.0,62.9,0.0,22.22222222222222,0.0,688433.0,5168.0,2189050.0,1.0,0.0,0.0,0.0,0.0
7400000.0,10.5,6.209421877024902E-8,7400000.0,61.0,0.0,18.238993710691815,0.0,718283.0,5168.0,2218900.0,1.0,0.0,0.0,0.0,0.0
7500000.0,10.640625,6.2919603402002E-8,7500000.0,59.599999999999994,0.0,14.042553191489352,0.0,748115.0,5168.0,2248732.0,1.0,0.0,0.0,0.0,0.0
7600000.0,10.78125,6.374498803375497E-8,7600000.0,60.4,0.0,18.685831622176586,0.0,778228.0,5168.0,2278845.0,1.0,0.0,0.0,0.0,0.0
7700000.0,10.921875,6.457037266550794E-8,7700000.0,64.4,0.0,22.943722943722943,0.0,808411.0,5168.0,2309028.0,1.0,0.0,0.0,0.0,0.0
7800000.0,11.0625,6.539575729726091E-8,7800000.0,62.5,0.0,19.354838709677413,0.0,838349.0,5168.0,2338966.0,1.0,0.0,0.0,0.0,0.0
7900000.0,11.203125,6.622114192901388E-8,7900000.0,62.3,0.0,23.684210526315788,0.0,868452.0,5168.0,2369069.0,1.0,0.0,0.0,0.0,0.0
8000000.0,11.34375,6.704652656076685E-8,8000000.0,61.1,0.0,17.409766454352436,0.0,898471.0,5168.0,2399088.0,1.0,0.0,0.0,0.0,0.0
8100000.0,11.484375,6.787191119251982E-8,8100000.0,62.7,0.0,15.990990990990984,0.0,928641.0,5168.0,2429258.0,1.0,0.0,0.0,0.0,0.0
8200000.0,11.609375,6.860558642074468E-8,8200000.0,60.3,0.0,20.758483033932134,0.0,958783.0,5168.0,2459400.0,1.0,0.0,0.0,0.0,0.0
8300000.0,11.734375,6.933926164896954E-8,8300000.0,59.3,0.0,15.208333333333323,0.0,988691.0,5168.0,2489308.0,1.0,0.0,0.0,0.0,0.0
8400000.0,11.875,7.016464628072251E-8,8400000.0,62.1,0.0,15.212527964205808,0.0,1018633.0,5168.0,2519250.0,1.0,0.0,0.0,0.0,0.0
8500000.0,12.015625,7.099003091247549E-8,8500000.0,60.5,0.0,14.316702819956607,0.0,1048661.0,5168.0,2549278.0,1.0,0.0,0.0,0.0,0.0
8600000.0,12.15625,7.181541554422846E-8,8600000.0,59.8,0.0,18.29268292682926,0.0,1078671.0,5168.0,2579288.0,1.0,0.0,0.0,0.0,0.0
8700000.0,12.296875,7.264080017598143E-8,8700000.0,61.3,0.0,16.77419354838709,0.0,1109067.0,5168.0,2609684.0,1.0,0.0,0.0,0.0,0.0
8800000.0,12.4375,7.34661848077344E-8,8800000.0,60.9,0.0,13.495575221238926,0.0,1139140.0,5168.0,2639757.0,1.0,0.0,0.0,0.0,0.0
8900000.0,12.578125,7.429156943948737E-8,8900000.0,61.8,0.0,18.20128479657387,0.0,1169167.0,5168.0,2669784.0,1.0,0.0,0.0,0.0,0.0
9000000.0,12.71875,7.511695407124034E-8,9000000.0,63.1,0.0,21.489361702127656,0.0,1198978.0,5168.0,2699595.0,1.0,0.0,0.0,0.0,0.0
9100000.0,12.859375,7.594233870299331E-8,9100000.0,63.2,0.0,20.173535791757043,0.0,1229200.0,5168.0,2729817.0,1.0,0.0,0.0,0.0,0.0
9200000.0,13.0,7.676772333474629E-8,9200000.0,61.199999999999996,0.0,16.379310344827577,0.0,1259173.0,5168.0,2759790.0,1.0,0.0,0.0,0.0,0.0
9300000.0,13.140625,7.759310796649926E-8,9300000.0,60.9,0.0,16.985138004246277,0.0,1289206.0,5168.0,2789823.0,1.0,0.0,0.0,0.0,0.0
9400000.0,13.28125,7.841849259825223E-8,9400000.0,59.3,0.0,14.675052410901458,0.0,1319383.0,5168.0,2820000.0,1.0,0.0,0.0,0.0,0.0
9500000.0,13.421875,7.92438772300052E-8,9500000.0,62.8,0.0,21.51898734177215,0.0,1349179.0,5168.0,2849796.0,1.0,0.0,0.0,0.0,0.0
9600000.0,13.5625,8.006926186175817E-8,9600000.0,64.1,0.0,20.222222222222218,0.0,1379151.0,5168.0,2879768.0,1.0,0.0,0.0,0.0,0.0
9700000.0,13.703125,8.089464649351114E-8,9700000.0,62.1,0.0,18.669527896995703,0.0,1409244.0,5168.0,2909861.0,1.0,0.0,0.0,0.0,0.0
9800000.0,13.84375,8.172003112526412E-8,9800000.0,63.6,0.0,21.88841201716738,0.0,1438923.0,5168.0,2939540.0,1.0,0.0,0.0,0.0,0.0
9900000.0,13.984375,8.254541575701709E-8,9900000.0,66.2,0.0,27.77777777777778,0.0,1468773.0,5168.0,2969390.0,1.0,0.0,0.0,0.0,0.0
1.0E7,14.125,8.337080038877006E-8,1.0E7,62.6,0.0,21.428571428571423,0.0,1498811.0,5168.0,2999428.0,1.0,0.0,0.0,0.0,0.0
