learning evaluation instances,evaluation time (cpu seconds),model cost (RAM-Hours),classified instances,classifications correct (percent),Kappa Statistic (percent),Kappa Temporal Statistic (percent),Kappa M Statistic (percent),model training instances,model serialized size (bytes),labeling cost,newThreshold,maxPosterior,accuracyBaseLearner (percent),Change detected,Warning detected
100000.0,0.15625,1.2922100722789764E-9,100000.0,54.300000000000004,-2.554665900685781,2.5586353944562923,-10.92233009708736,8760.0,9208.0,0.0,1.0,0.0,?,1.0,11.0
200000.0,0.3125,2.5168345827195383E-9,200000.0,62.0,10.613473842679701,18.103448275862064,-2.7027027027027053,18565.0,9208.0,0.0,1.0,0.0,?,0.0,0.0
300000.0,0.46875,3.673873531321685E-9,300000.0,58.599999999999994,3.959913703110845,6.122448979591818,-6.976744186046517,28370.0,9208.0,0.0,1.0,0.0,?,0.0,0.0
400000.0,0.625,4.763326918085417E-9,400000.0,62.1,10.478925936073914,21.85567010309278,0.5249343832021002,38175.0,9208.0,0.0,1.0,0.0,?,0.0,0.0
500000.0,0.78125,6.098545984261567E-9,500000.0,62.2,11.658712834727005,20.920502092050206,0.7874015748031503,47975.0,9208.0,0.0,1.0,0.0,?,0.0,0.0
600000.0,0.9375,7.366179488599301E-9,600000.0,61.8,9.21923791689045,21.074380165289252,-2.9649595687331565,57780.0,9208.0,0.0,1.0,0.0,?,0.0,0.0
700000.0,1.078125,8.44622263684869E-9,700000.0,59.4,2.2473479175795754,13.06209850107065,-11.845730027548221,67585.0,9208.0,0.0,1.0,0.0,?,0.0,0.0
800000.0,1.25,9.691931255575684E-9,800000.0,61.199999999999996,10.845588235294121,16.198704103671698,1.0204081632653068,77390.0,9208.0,0.0,1.0,0.0,?,0.0,0.0
900000.0,1.40625,1.0756808074398174E-8,900000.0,58.8,1.2274645186037623,13.626834381551353,-14.444444444444457,87195.0,9208.0,0.0,1.0,0.0,?,0.0,0.0
1000000.0,1.5625,1.2067450572633083E-8,1000000.0,60.3,9.215641436085068,15.531914893617014,-1.7948717948717965,96995.0,9208.0,0.0,1.0,0.0,?,0.0,0.0
1100000.0,1.71875,1.3310507509029576E-8,1100000.0,61.5,8.803213916866449,16.846652267818566,-1.8518518518518534,106800.0,9208.0,0.0,1.0,0.0,?,0.0,0.0
1200000.0,1.875,1.4485978883587654E-8,1200000.0,60.3,8.508480825958692,15.711252653927804,-2.3195876288659814,116605.0,9208.0,0.0,1.0,0.0,?,0.0,0.0
1300000.0,2.03125,1.559386469630732E-8,1300000.0,60.0,8.330888823701953,14.163090128755353,-0.5025125628140708,126410.0,9208.0,0.0,1.0,0.0,?,0.0,0.0
1400000.0,2.1875,1.69475161884394E-8,1400000.0,54.400000000000006,0.39884148126146285,6.172839506172846,-6.293706293706272,136210.0,9208.0,0.0,1.0,0.0,?,0.0,0.0
1500000.0,2.328125,1.8104975525703697E-8,1500000.0,62.3,10.05220312455266,21.129707112970706,-4.143646408839783,146015.0,9208.0,0.0,1.0,0.0,?,0.0,0.0
1600000.0,2.484375,1.932345589415895E-8,1600000.0,57.599999999999994,3.192810696281142,12.577319587628855,-6.532663316582921,155820.0,9208.0,0.0,1.0,0.0,?,0.0,0.0
1700000.0,2.640625,2.0474350700775786E-8,1700000.0,62.4,20.179341734316093,16.81415929203539,-2.732240437158472,165625.0,9208.0,0.0,1.0,0.0,?,0.0,0.0
1800000.0,2.796875,2.1557659945554205E-8,1800000.0,59.8,13.757594480486038,15.010570824524303,-13.559322033898319,175430.0,9208.0,0.0,1.0,0.0,?,0.0,0.0
1900000.0,2.9375,2.275382737732596E-8,1900000.0,59.9,7.681965522322076,16.28392484342379,-3.3505154639175285,185230.0,9208.0,0.0,1.0,0.0,?,0.0,0.0
2000000.0,3.09375,2.4015316739678385E-8,2000000.0,61.6,12.44510718634144,13.90134529147981,2.2900763358778646,195035.0,9208.0,0.0,1.0,0.0,?,0.0,0.0
2100000.0,3.25,2.5209220540192395E-8,2100000.0,63.0,13.184260541073222,20.940170940170937,2.3746701846965723,204840.0,9208.0,0.0,1.0,0.0,?,0.0,0.0
2200000.0,3.390625,2.622290695500043E-8,2200000.0,61.3,6.963102576184475,17.659574468085097,-7.799442896935941,214645.0,9208.0,0.0,1.0,0.0,?,0.0,0.0
2300000.0,3.53125,2.7175766364153893E-8,2300000.0,60.099999999999994,7.450361848209298,15.999999999999993,-5.000000000000004,224450.0,9208.0,0.0,1.0,0.0,?,0.0,0.0
2400000.0,3.6875,2.848026472040349E-8,2400000.0,59.5,4.643957016792048,14.37632135306553,-7.427055702917778,234250.0,9208.0,0.0,1.0,0.0,?,0.0,0.0
2500000.0,3.84375,2.9717177514814672E-8,2500000.0,61.3,7.637231503579958,15.317286652078765,-6.027397260273978,244055.0,9208.0,0.0,1.0,0.0,?,0.0,0.0
2600000.0,3.984375,3.076957202413016E-8,2600000.0,59.3,4.910985467968771,9.955752212389365,-7.671957671957679,253860.0,9208.0,0.0,1.0,0.0,?,0.0,0.0
2700000.0,4.140625,3.1871313694864516E-8,2700000.0,60.6,8.201304753028893,16.17021276595744,-3.141361256544505,263665.0,9208.0,0.0,1.0,0.0,?,0.0,0.0
2800000.0,4.296875,3.3218821045011285E-8,2800000.0,64.60000000000001,16.531482249971695,25.0,5.851063829787239,273465.0,9208.0,0.0,1.0,0.0,?,0.0,0.0
2900000.0,4.4375,3.43707506544888E-8,2900000.0,60.4,11.641854985541395,20.48192771084337,5.263157894736846,283270.0,9208.0,0.0,1.0,0.0,?,0.0,0.0
3000000.0,4.578125,3.546185325831175E-8,3000000.0,61.4,12.594934129187394,17.521367521367516,3.258145363408524,293075.0,9208.0,0.0,1.0,0.0,?,0.0,0.0
3100000.0,4.734375,3.660660392294327E-8,3100000.0,64.5,16.319372418865143,24.78813559322034,3.532608695652177,302880.0,9208.0,0.0,1.0,0.0,?,0.0,0.0
3200000.0,4.890625,3.7683769025736386E-8,3200000.0,62.6,14.474797506505855,21.097046413502106,4.834605597964381,312685.0,9208.0,0.0,1.0,0.0,?,0.0,0.0
3300000.0,5.03125,3.8874406729721364E-8,3300000.0,61.5,10.672853828306273,17.55888650963597,0.0,322485.0,9208.0,0.0,1.0,0.0,?,0.0,0.0
3400000.0,5.1875,4.012975195008848E-8,3400000.0,59.0,14.783946126826434,14.046121593291394,-5.398457583547563,332290.0,9208.0,0.0,1.0,0.0,?,0.0,0.0
3500000.0,5.328125,4.119873564276431E-8,3500000.0,61.6,10.987895280967624,17.773019271948602,1.2853470437018006,342095.0,9208.0,0.0,1.0,0.0,?,0.0,0.0
3600000.0,5.484375,4.231890973945459E-8,3600000.0,63.3,12.592409115158912,20.21739130434782,1.3440860215053776,351900.0,9208.0,0.0,1.0,0.0,?,0.0,0.0
3700000.0,5.640625,4.337149827430646E-8,3700000.0,60.0,7.352505188259707,16.492693110647174,-2.0408163265306136,361705.0,9208.0,0.0,1.0,0.0,?,0.0,0.0
3800000.0,5.765625,4.441018164571789E-8,3800000.0,62.1,15.046802711329477,23.895582329317268,7.33496332518338,371505.0,9208.0,0.0,1.0,0.0,?,0.0,0.0
3900000.0,5.921875,4.564095029814376E-8,3900000.0,60.8,7.383343177790904,12.694877505567916,-4.533333333333337,381310.0,9208.0,0.0,1.0,0.0,?,0.0,0.0
4000000.0,6.078125,4.680413338873122E-8,4000000.0,60.4,9.109688080975005,16.455696202531637,-1.278772378516625,391115.0,9208.0,0.0,1.0,0.0,?,0.0,0.0
4100000.0,6.21875,4.779017116460536E-8,4100000.0,63.9,16.079299250525377,24.31865828092243,5.989583333333338,400920.0,9208.0,0.0,1.0,0.0,?,0.0,0.0
4200000.0,6.375,4.913153437276682E-8,4200000.0,57.4,1.0590858416945137,12.883435582822075,-9.793814432989699,410720.0,9208.0,0.0,1.0,0.0,?,0.0,0.0
4300000.0,6.515625,5.0277934254457565E-8,4300000.0,61.7,16.038968441174667,20.041753653444673,9.241706161137447,420525.0,9208.0,0.0,1.0,0.0,?,0.0,0.0
4400000.0,6.671875,5.148412633894219E-8,4400000.0,62.7,13.332403922115338,20.806794055201692,2.356020942408379,430330.0,9208.0,0.0,1.0,0.0,?,0.0,0.0
4500000.0,6.8125,5.250887220932379E-8,4500000.0,63.1,21.2561458617864,18.54304635761589,-3.6516853932584303,440135.0,9208.0,0.0,1.0,0.0,?,0.0,0.0
4600000.0,6.96875,5.3579893170131586E-8,4600000.0,59.8,4.856574836694092,13.918629550321187,-8.648648648648656,449940.0,9208.0,0.0,1.0,0.0,?,0.0,0.0
4700000.0,7.125,5.489667981035181E-8,4700000.0,61.5,10.2555734785406,15.384615384615374,-1.8518518518518534,459740.0,9208.0,0.0,1.0,0.0,?,0.0,0.0
4800000.0,7.265625,5.602096078089543E-8,4800000.0,63.7,14.606720427578038,24.688796680497923,3.9682539682539715,469545.0,9208.0,0.0,1.0,0.0,?,0.0,0.0
4900000.0,7.421875,5.720257629743882E-8,4900000.0,57.99999999999999,-0.2520623281393619,12.863070539419075,-15.3846153846154,479350.0,9208.0,0.0,1.0,0.0,?,0.0,0.0
5000000.0,7.578125,5.84100618854993E-8,5000000.0,64.7,15.601928005814617,24.411134903640257,4.336043360433608,489155.0,9208.0,0.0,1.0,0.0,?,0.0,0.0
5100000.0,7.734375,5.945650627836586E-8,5100000.0,57.699999999999996,-1.0936275165860794,9.032258064516114,-14.945652173913057,498960.0,9208.0,0.0,1.0,0.0,?,0.0,0.0
5200000.0,7.859375,6.056503884287345E-8,5200000.0,56.39999999999999,-3.1078991056099445,11.020408163265294,-17.5202156334232,508760.0,9208.0,0.0,1.0,0.0,?,0.0,0.0
5300000.0,8.015625,6.188311898666952E-8,5300000.0,55.400000000000006,-2.685478523539382,10.080645161290331,-13.775510204081618,518565.0,9208.0,0.0,1.0,0.0,?,0.0,0.0
5400000.0,8.171875,6.313361356862718E-8,5400000.0,58.099999999999994,12.439083515142398,7.912087912087895,-9.685863874345559,528370.0,9208.0,0.0,1.0,0.0,?,0.0,0.0
5500000.0,8.296875,6.407994078472258E-8,5500000.0,59.8,14.90982981965963,14.285714285714276,-8.648648648648656,538175.0,9208.0,0.0,1.0,0.0,?,0.0,0.0
5600000.0,8.4375,6.536574801430107E-8,5600000.0,57.199999999999996,10.60052219321148,10.647181628392472,-14.133333333333345,547975.0,9208.0,0.0,1.0,0.0,?,0.0,0.0
5700000.0,8.59375,6.672683715199432E-8,5700000.0,61.5,17.994376757263357,12.100456621004554,-6.94444444444445,557780.0,9208.0,0.0,1.0,0.0,?,0.0,0.0
5800000.0,8.75,6.802034072784915E-8,5800000.0,56.3,7.97752714347081,7.021276595744663,-20.718232044198913,567585.0,9208.0,0.0,1.0,0.0,?,0.0,0.0
5900000.0,8.890625,6.912366694046392E-8,5900000.0,58.3,11.056318200820755,6.711409395973137,-18.130311614730896,577390.0,9208.0,0.0,1.0,0.0,?,0.0,0.0
6000000.0,9.046875,7.028199939264193E-8,6000000.0,60.5,17.373005447106173,18.72427983539094,-3.4031413612565475,587195.0,9208.0,0.0,1.0,0.0,?,0.0,0.0
6100000.0,9.203125,7.168609752423235E-8,6100000.0,60.8,18.22429906542056,17.299578059071724,-3.157894736842108,596995.0,9208.0,0.0,1.0,0.0,?,0.0,0.0
6200000.0,9.359375,7.302261009398436E-8,6200000.0,60.9,18.723860678977967,19.214876033057845,-1.2953367875647679,606800.0,9208.0,0.0,1.0,0.0,?,0.0,0.0
6300000.0,9.5,7.416464440110658E-8,6300000.0,59.4,13.933453176406744,12.311015118790484,-7.978723404255327,616605.0,9208.0,0.0,1.0,0.0,?,0.0,0.0
6400000.0,9.65625,7.536598584718176E-8,6400000.0,59.5,16.17544789217472,16.149068322981357,-2.2727272727272747,626410.0,9208.0,0.0,1.0,0.0,?,0.0,0.0
6500000.0,9.8125,7.681309297266935E-8,6500000.0,61.3,19.444143776591766,19.374999999999996,-1.3089005235602107,636210.0,9208.0,0.0,1.0,0.0,?,0.0,0.0
6600000.0,9.96875,7.819261453631853E-8,6600000.0,59.0,14.805902911975801,13.135593220338974,-3.2745591939546626,646015.0,9208.0,0.0,1.0,0.0,?,0.0,0.0
6700000.0,10.109375,7.937335693794822E-8,6700000.0,59.8,14.358390960336424,16.94214876033057,-12.605042016806733,655820.0,9208.0,0.0,1.0,0.0,?,0.0,0.0
6800000.0,10.265625,8.061770737792057E-8,6800000.0,64.5,17.821030408533662,22.48908296943231,9.2071611253197,665625.0,9208.0,0.0,1.0,0.0,?,0.0,0.0
6900000.0,10.40625,8.16767957682411E-8,6900000.0,66.0,18.317533381702177,24.444444444444443,5.292479108635102,675430.0,9208.0,0.0,1.0,0.0,?,0.0,0.0
7000000.0,10.546875,8.295707327003281E-8,7000000.0,64.2,19.597177366830028,27.08757637474542,10.275689223057654,685230.0,9208.0,0.0,1.0,0.0,?,0.0,0.0
7100000.0,10.703125,8.431201826574075E-8,7100000.0,62.8,15.379540956757138,18.599562363238505,7.231920199501253,695035.0,9208.0,0.0,1.0,0.0,?,0.0,0.0
7200000.0,10.859375,8.559937769961027E-8,7200000.0,65.5,20.28945325496285,31.000000000000007,12.87878787878789,704840.0,9208.0,0.0,1.0,0.0,?,0.0,0.0
7300000.0,11.015625,8.681915157164137E-8,7300000.0,68.0,21.07534837834506,25.925925925925945,7.24637681159421,714645.0,9208.0,0.0,1.0,0.0,?,0.0,0.0
7400000.0,11.15625,8.78561210508148E-8,7400000.0,66.5,20.808275653390822,26.535087719298247,7.967032967032975,724450.0,9208.0,0.0,1.0,0.0,?,0.0,0.0
7500000.0,11.3125,8.92540750404199E-8,7500000.0,64.1,12.600181129429643,22.629310344827584,1.9125683060109306,734250.0,9208.0,0.0,1.0,0.0,?,0.0,0.0
7600000.0,11.46875,9.05844434681866E-8,7600000.0,65.9,19.01468660346169,30.122950819672134,7.336956521739137,744055.0,9208.0,0.0,1.0,0.0,?,0.0,0.0
7700000.0,11.609375,9.172094804752206E-8,7700000.0,65.4,17.002096536636618,24.618736383442265,4.155124653739616,753860.0,9208.0,0.0,1.0,0.0,?,0.0,0.0
7800000.0,11.765625,9.291614535161192E-8,7800000.0,63.3,15.051015684313828,20.9051724137931,4.4270833333333375,763665.0,9208.0,0.0,1.0,0.0,?,0.0,0.0
7900000.0,11.921875,9.43571083351142E-8,7900000.0,58.9,12.912658388778233,13.29113924050632,-8.730158730158738,773465.0,9208.0,0.0,1.0,0.0,?,0.0,0.0
8000000.0,12.0625,9.559314801461167E-8,8000000.0,61.8,10.422421596169265,17.67241379310344,-1.3262599469496033,783270.0,9208.0,0.0,1.0,0.0,?,0.0,0.0
8100000.0,12.21875,9.689893987443713E-8,8100000.0,56.599999999999994,14.315949079192578,3.7694013303769194,-23.295454545454568,793075.0,9208.0,0.0,1.0,0.0,?,0.0,0.0
8200000.0,12.375,9.813714617242416E-8,8200000.0,65.3,19.034196968565666,23.230088495575217,6.720430107526888,802880.0,9208.0,0.0,1.0,0.0,?,0.0,0.0
8300000.0,12.515625,9.919070483495791E-8,8300000.0,64.8,17.098445595854923,25.581395348837212,4.864864864864869,812685.0,9208.0,0.0,1.0,0.0,?,0.0,0.0
8400000.0,12.671875,1.0060709125051895E-7,8400000.0,65.3,17.427350345996075,26.94736842105263,4.143646408839783,822485.0,9208.0,0.0,1.0,0.0,?,0.0,0.0
8500000.0,12.828125,1.0195589210424157E-7,8500000.0,66.0,21.23795404002965,24.107142857142858,10.052910052910063,832290.0,9208.0,0.0,1.0,0.0,?,0.0,0.0
8600000.0,12.953125,1.0298086433774895E-7,8600000.0,67.80000000000001,22.265783425713124,31.779661016949156,10.055865921787719,842095.0,9208.0,0.0,1.0,0.0,?,0.0,0.0
8700000.0,13.109375,1.0419449406779474E-7,8700000.0,64.2,13.169600628671486,20.267260579064583,0.2785515320334264,851900.0,9208.0,0.0,1.0,0.0,?,0.0,0.0
8800000.0,13.25,1.0522593381918138E-7,8800000.0,59.099999999999994,22.135579280829738,13.347457627118633,-6.788511749347265,861705.0,9208.0,0.0,1.0,0.0,?,0.0,0.0
8900000.0,13.390625,1.064785626820392E-7,8900000.0,55.1,15.624976510294136,4.264392324093821,-16.32124352331605,871505.0,9208.0,0.0,1.0,0.0,?,0.0,0.0
9000000.0,13.53125,1.0767036453924244E-7,9000000.0,64.9,19.314054526228677,23.695652173913043,9.067357512953375,881310.0,9208.0,0.0,1.0,0.0,?,0.0,0.0
9100000.0,13.671875,1.0880133939079111E-7,9100000.0,55.300000000000004,14.967280474813583,3.24675324675325,-17.631578947368407,891115.0,9208.0,0.0,1.0,0.0,?,0.0,0.0
9200000.0,13.8125,1.0987148723668521E-7,9200000.0,54.7,14.00649981776213,4.228329809725163,-27.247191011235948,900920.0,9208.0,0.0,1.0,0.0,?,0.0,0.0
9300000.0,13.96875,1.1130630607820219E-7,9300000.0,63.7,18.299918074848986,25.0,8.793969849246238,910720.0,9208.0,0.0,1.0,0.0,?,0.0,0.0
9400000.0,14.125,1.1267353935788074E-7,9400000.0,53.1,11.98372543426367,3.099173553719011,-33.23863636363637,920525.0,9208.0,0.0,1.0,0.0,?,0.0,0.0
9500000.0,14.265625,1.1384322230393687E-7,9500000.0,66.3,20.37765092806111,29.64509394572025,10.610079575596826,930330.0,9208.0,0.0,1.0,0.0,?,0.0,0.0
9600000.0,14.421875,1.150752844599386E-7,9600000.0,55.300000000000004,14.437970399748881,4.077253218884124,-19.518716577540093,940135.0,9208.0,0.0,1.0,0.0,?,0.0,0.0
9700000.0,14.578125,1.1623976105410191E-7,9700000.0,56.699999999999996,17.29886242961808,2.036199095022601,-20.94972067039108,949940.0,9208.0,0.0,1.0,0.0,?,0.0,0.0
9800000.0,14.71875,1.1750897910032007E-7,9800000.0,56.599999999999994,17.46381910503394,9.583333333333318,-15.119363395225477,959740.0,9208.0,0.0,1.0,0.0,?,0.0,0.0
9900000.0,14.875,1.1885163581205738E-7,9900000.0,67.2,20.433154146208928,29.31034482758621,9.392265193370175,969545.0,9208.0,0.0,1.0,0.0,?,0.0,0.0
1.0E7,15.03125,1.2012670696195628E-7,1.0E7,66.10000000000001,17.453978766923147,27.71855010660981,4.507042253521131,979350.0,9208.0,0.0,1.0,0.0,?,0.0,0.0
