learning evaluation instances,evaluation time (cpu seconds),model cost (RAM-Hours),classified instances,classifications correct (percent),Kappa Statistic (percent),Kappa Temporal Statistic (percent),Kappa M Statistic (percent),model training instances,model serialized size (bytes),labeling cost,newThreshold,maxPosterior,accuracyBaseLearner (percent),Change detected,Warning detected
100000.0,0.15625,1.3378060733278593E-9,100000.0,63.0,27.631192911768732,20.940170940170937,17.960088691796003,6818.0,9208.0,0.0,1.0,0.0,?,2.0,21.0
200000.0,0.328125,2.735048635966248E-9,200000.0,53.5,8.736918958384045,5.295315682281064,-5.922551252847386,16623.0,9208.0,0.0,1.0,0.0,?,0.0,0.0
300000.0,0.484375,3.9376835856172775E-9,300000.0,63.3,27.846807172066683,23.060796645702304,19.340659340659336,26428.0,9208.0,0.0,1.0,0.0,?,0.0,0.0
400000.0,0.640625,5.072732973429892E-9,400000.0,62.9,28.28478864309408,22.54697286012526,13.519813519813532,36233.0,9208.0,0.0,1.0,0.0,?,0.0,0.0
500000.0,0.796875,6.453548040654924E-9,500000.0,54.800000000000004,10.516312955337357,3.6247334754797476,3.4188034188034218,46033.0,9208.0,0.0,1.0,0.0,?,0.0,0.0
600000.0,0.953125,7.76677754604154E-9,600000.0,64.2,29.63836477987422,27.67676767676768,20.44444444444444,55838.0,9208.0,0.0,1.0,0.0,?,0.0,0.0
700000.0,1.078125,8.763292700880103E-9,700000.0,51.300000000000004,4.502313906973103,-0.20576131687242818,-10.681818181818192,65643.0,9208.0,0.0,1.0,0.0,?,0.0,0.0
800000.0,1.25,1.005915692076087E-8,800000.0,52.1,6.247553433022783,-1.4830508474576285,-8.863636363636372,75448.0,9208.0,0.0,1.0,0.0,?,0.0,0.0
900000.0,1.40625,1.1169629740632243E-8,900000.0,62.6,27.061393244402836,24.291497975708502,15.384615384615374,85253.0,9208.0,0.0,1.0,0.0,?,0.0,0.0
1000000.0,1.5625,1.2525868239916034E-8,1000000.0,57.599999999999994,16.933433117699824,14.859437751004007,6.401766004414992,95053.0,9208.0,0.0,1.0,0.0,?,0.0,0.0
1100000.0,1.71875,1.381452117736141E-8,1100000.0,62.7,26.693133131559293,25.100401606425706,17.29490022172948,104858.0,9208.0,0.0,1.0,0.0,?,0.0,0.0
1200000.0,1.875,1.503558855296837E-8,1200000.0,61.6,24.008549038233195,20.661157024793383,16.883116883116873,114663.0,9208.0,0.0,1.0,0.0,?,0.0,0.0
1300000.0,2.03125,1.6189070366736916E-8,1300000.0,53.0,7.296367595543919,8.5603112840467,-1.7316017316017334,124468.0,9208.0,0.0,1.0,0.0,?,0.0,0.0
1400000.0,2.1875,1.758831785991788E-8,1400000.0,54.400000000000006,11.394372765428267,8.249496981891355,-3.6363636363636402,134268.0,9208.0,0.0,1.0,0.0,?,0.0,0.0
1500000.0,2.34375,1.891997979126043E-8,1500000.0,55.2,12.554653341661462,8.75763747454176,-0.9009009009009018,144073.0,9208.0,0.0,1.0,0.0,?,0.0,0.0
1600000.0,2.5,2.0184056160764566E-8,1600000.0,61.9,26.21712692203417,14.189189189189177,6.845965770171154,153878.0,9208.0,0.0,1.0,0.0,?,0.0,0.0
1700000.0,2.65625,2.1380546968430284E-8,1700000.0,50.2,3.0917242667662914,-8.026030368763564,-12.162162162162174,163683.0,9208.0,0.0,1.0,0.0,?,0.0,0.0
1800000.0,2.8125,2.2509452214257588E-8,1800000.0,61.8,25.92276575692583,21.721311475409834,11.778290993071602,173488.0,9208.0,0.0,1.0,0.0,?,0.0,0.0
1900000.0,2.96875,2.388412313949731E-8,1900000.0,54.0,9.86577838738122,3.765690376569041,-6.728538283062624,183288.0,9208.0,0.0,1.0,0.0,?,0.0,0.0
2000000.0,3.125,2.519120850289862E-8,2000000.0,62.7,27.06866885656186,25.54890219560878,16.179775280898866,193093.0,9208.0,0.0,1.0,0.0,?,0.0,0.0
2100000.0,3.265625,2.6306758324305223E-8,2100000.0,63.9,29.092223322176668,30.84291187739464,16.435185185185198,202898.0,9208.0,0.0,1.0,0.0,?,0.0,0.0
2200000.0,3.421875,2.74786725640297E-8,2200000.0,54.1,9.43530247425121,7.831325301204826,-3.14606741573034,212703.0,9208.0,0.0,1.0,0.0,?,0.0,0.0
2300000.0,3.578125,2.8583001241915762E-8,2300000.0,62.8,26.521421375945632,24.848484848484848,20.34261241970021,222508.0,9208.0,0.0,1.0,0.0,?,0.0,0.0
2400000.0,3.71875,2.9798086163484394E-8,2400000.0,51.1,5.111188729770642,1.2121212121212133,-12.41379310344826,232308.0,9208.0,0.0,1.0,0.0,?,0.0,0.0
2500000.0,3.875,3.108059495894446E-8,2500000.0,61.3,23.873445011841902,19.20668058455114,13.808463251670366,242113.0,9208.0,0.0,1.0,0.0,?,0.0,0.0
2600000.0,4.03125,3.229551819256611E-8,2600000.0,62.9,27.601845274800755,23.662551440329217,15.489749430523908,251918.0,9208.0,0.0,1.0,0.0,?,0.0,0.0
2700000.0,4.1875,3.3442855864349345E-8,2700000.0,55.2,12.364781596604134,7.0539419087137,-1.587301587301589,261723.0,9208.0,0.0,1.0,0.0,?,0.0,0.0
2800000.0,4.34375,3.4835959215544995E-8,2800000.0,64.2,30.21768962075849,25.72614107883818,15.962441314554003,271523.0,9208.0,0.0,1.0,0.0,?,0.0,0.0
2900000.0,4.5,3.6161477004902235E-8,2900000.0,65.10000000000001,31.09085739558981,32.49516441005804,25.427350427350426,281328.0,9208.0,0.0,1.0,0.0,?,0.0,0.0
3000000.0,4.640625,3.729361600966918E-8,3000000.0,64.2,29.666011787819258,22.844827586206897,20.44444444444444,291133.0,9208.0,0.0,1.0,0.0,?,0.0,0.0
3100000.0,4.796875,3.848396267534959E-8,3100000.0,62.6,26.563279283383263,26.953125,18.87201735357917,300938.0,9208.0,0.0,1.0,0.0,?,0.0,0.0
3200000.0,4.953125,3.9606723779191583E-8,3200000.0,64.5,30.551751660889092,28.714859437751006,19.86455981941309,310743.0,9208.0,0.0,1.0,0.0,?,0.0,0.0
3300000.0,5.09375,4.083839788412055E-8,3300000.0,64.3,30.850404437970695,28.45691382765531,16.588785046728987,320543.0,9208.0,0.0,1.0,0.0,?,0.0,0.0
3400000.0,5.25,4.213933910553655E-8,3400000.0,50.6,4.636518422139778,-1.4373716632443545,-16.784869976359325,330348.0,9208.0,0.0,1.0,0.0,?,0.0,0.0
3500000.0,5.40625,4.337269476511413E-8,3500000.0,63.9,29.356419368473784,29.35420743639922,19.599109131403115,340153.0,9208.0,0.0,1.0,0.0,?,0.0,0.0
3600000.0,5.5625,4.45384648628533E-8,3600000.0,65.10000000000001,31.224480143778283,31.027667984189726,22.616407982261638,349958.0,9208.0,0.0,1.0,0.0,?,0.0,0.0
3700000.0,5.71875,4.563664939875405E-8,3700000.0,66.7,34.42455081801928,33.13253012048193,27.292576419213976,359763.0,9208.0,0.0,1.0,0.0,?,0.0,0.0
3800000.0,5.875,4.698059961406722E-8,3800000.0,51.6,5.566134923360284,-2.325581395348839,-9.502262443438923,369563.0,9208.0,0.0,1.0,0.0,?,0.0,0.0
3900000.0,6.03125,4.8256964267541976E-8,3900000.0,62.9,27.578102429159273,26.824457593688365,15.296803652968027,379368.0,9208.0,0.0,1.0,0.0,?,0.0,0.0
4000000.0,6.1875,4.9465743359178314E-8,4000000.0,55.1,11.82939282067395,9.475806451612911,1.535087719298247,389173.0,9208.0,0.0,1.0,0.0,?,0.0,0.0
4100000.0,6.34375,5.060693688897624E-8,4100000.0,49.2,0.43783832516060445,0.0,-11.159737417943118,398978.0,9208.0,0.0,1.0,0.0,?,0.0,0.0
4200000.0,6.5,5.1993896098186586E-8,4200000.0,51.9,5.137934570813253,4.183266932270921,-4.793028322440092,408778.0,9208.0,0.0,1.0,0.0,?,0.0,0.0
4300000.0,6.65625,5.331326974555851E-8,4300000.0,53.400000000000006,7.382747751149768,5.476673427991892,4.312114989733064,418583.0,9208.0,0.0,1.0,0.0,?,0.0,0.0
4400000.0,6.796875,5.4439879022538674E-8,4400000.0,54.300000000000004,10.218932214311547,10.742187500000009,-1.330376940133039,428388.0,9208.0,0.0,1.0,0.0,?,0.0,0.0
4500000.0,6.953125,5.562408154623377E-8,4500000.0,53.6,9.289959336878345,2.1097046413502127,-6.4220183486238325,438193.0,9208.0,0.0,1.0,0.0,?,0.0,0.0
4600000.0,7.109375,5.674069850809045E-8,4600000.0,63.3,27.690998218873634,25.557809330628807,20.04357298474945,447998.0,9208.0,0.0,1.0,0.0,?,0.0,0.0
4700000.0,7.265625,5.810308114935955E-8,4700000.0,49.6,2.987372959655073,-7.462686567164186,-19.99999999999999,457798.0,9208.0,0.0,1.0,0.0,?,0.0,0.0
4800000.0,7.421875,5.939787822879024E-8,4800000.0,64.9,31.242262305872025,29.940119760479046,20.76749435665914,467603.0,9208.0,0.0,1.0,0.0,?,0.0,0.0
4900000.0,7.578125,6.06250897463825E-8,4900000.0,64.4,30.256249510226475,27.789046653144016,19.45701357466063,477408.0,9208.0,0.0,1.0,0.0,?,0.0,0.0
5000000.0,7.734375,6.187817133549187E-8,5000000.0,64.3,30.367006834566045,26.69404517453799,18.67881548974942,487213.0,9208.0,0.0,1.0,0.0,?,0.0,0.0
5100000.0,7.890625,6.297021172940732E-8,5100000.0,48.0,1.8256650367209688,-10.638297872340436,-40.161725067385454,497018.0,9208.0,0.0,1.0,0.0,?,0.0,0.0
5200000.0,8.046875,6.44014734360907E-8,5200000.0,45.300000000000004,-4.7146477988866256,-12.09016393442623,-43.56955380577428,506818.0,9208.0,0.0,1.0,0.0,?,0.0,0.0
5300000.0,8.203125,6.576514958093565E-8,5300000.0,45.800000000000004,-3.4094594852422104,-20.44444444444445,-45.3083109919571,516623.0,9208.0,0.0,1.0,0.0,?,0.0,0.0
5400000.0,8.359375,6.706124016394219E-8,5400000.0,47.199999999999996,1.0683864778471852,-17.073170731707336,-45.45454545454547,526428.0,9208.0,0.0,1.0,0.0,?,0.0,0.0
5500000.0,8.5,6.816689468299349E-8,5500000.0,48.5,2.061463563061,-7.51565762004176,-41.48351648351649,536233.0,9208.0,0.0,1.0,0.0,?,0.0,0.0
5600000.0,8.640625,6.949373831351599E-8,5600000.0,45.6,-4.8238227552479245,-9.236947791164656,-39.13043478260869,546033.0,9208.0,0.0,1.0,0.0,?,0.0,0.0
5700000.0,8.796875,7.090042345225812E-8,5700000.0,46.7,-0.8560464429794301,-19.239373601789715,-42.513368983957214,555838.0,9208.0,0.0,1.0,0.0,?,0.0,0.0
5800000.0,8.953125,7.223952302916183E-8,5800000.0,46.0,-2.043901554090825,-13.20754716981132,-45.16129032258064,565643.0,9208.0,0.0,1.0,0.0,?,0.0,0.0
5900000.0,9.109375,7.351103704422713E-8,5900000.0,47.9,0.65214904084512,-9.684210526315798,-33.58974358974359,575448.0,9208.0,0.0,1.0,0.0,?,0.0,0.0
6000000.0,9.265625,7.471496549745402E-8,6000000.0,48.699999999999996,2.173166843377898,-8.227848101265831,-32.90155440414508,585253.0,9208.0,0.0,1.0,0.0,?,0.0,0.0
6100000.0,9.421875,7.616465963009332E-8,6100000.0,49.7,2.929483963101619,-3.7113402061855707,-26.065162907268164,595053.0,9208.0,0.0,1.0,0.0,?,0.0,0.0
6200000.0,9.5625,7.740855734381411E-8,6200000.0,49.9,2.9257895756636314,-10.10989010989012,-30.129870129870127,604858.0,9208.0,0.0,1.0,0.0,?,0.0,0.0
6300000.0,9.71875,7.872308035277658E-8,6300000.0,46.300000000000004,-0.29509543909453706,-18.02197802197803,-55.202312138728324,614663.0,9208.0,0.0,1.0,0.0,?,0.0,0.0
6400000.0,9.875,7.997001779990064E-8,6400000.0,47.199999999999996,-1.0971336664943443,-13.548387096774206,-43.08943089430895,624468.0,9208.0,0.0,1.0,0.0,?,0.0,0.0
6500000.0,10.03125,8.146272092643711E-8,6500000.0,50.6,-3.263891501841613,-2.277432712215323,-25.699745547073782,634268.0,9208.0,0.0,1.0,0.0,?,0.0,0.0
6600000.0,10.1875,8.288783849113517E-8,6600000.0,51.0,-3.764315240224981,-6.290672451193065,-30.31914893617021,644073.0,9208.0,0.0,1.0,0.0,?,0.0,0.0
6700000.0,10.34375,8.424537049399482E-8,6700000.0,49.3,-7.763201523563371,-12.416851441241697,-34.12698412698413,653878.0,9208.0,0.0,1.0,0.0,?,0.0,0.0
6800000.0,10.5,8.553531693501605E-8,6800000.0,55.2,4.906243499450256,0.8849557522123902,-25.490196078431364,663683.0,9208.0,0.0,1.0,0.0,?,0.0,0.0
6900000.0,10.640625,8.663544172628058E-8,6900000.0,48.8,-7.900327072866431,-10.107526881720439,-34.031413612565444,673488.0,9208.0,0.0,1.0,0.0,?,0.0,0.0
7000000.0,10.796875,8.810356828487582E-8,7000000.0,50.7,-2.3203686023826258,-2.28215767634855,-23.55889724310776,683288.0,9208.0,0.0,1.0,0.0,?,0.0,0.0
7100000.0,10.953125,8.950410928163264E-8,7100000.0,52.0,-1.8468223791417566,-10.344827586206879,-32.59668508287293,693093.0,9208.0,0.0,1.0,0.0,?,0.0,0.0
7200000.0,11.109375,9.083706471655104E-8,7200000.0,49.7,-6.683521107642185,-6.342494714587745,-41.29213483146068,702898.0,9208.0,0.0,1.0,0.0,?,0.0,0.0
7300000.0,11.265625,9.210243458963103E-8,7300000.0,51.6,-1.238710001296856,-3.8626609442060125,-25.064599483204127,712703.0,9208.0,0.0,1.0,0.0,?,0.0,0.0
7400000.0,11.390625,9.306066203862429E-8,7400000.0,50.8,-3.247251986250485,-6.956521739130442,-29.815303430079155,722508.0,9208.0,0.0,1.0,0.0,?,0.0,0.0
7500000.0,11.546875,9.450421202927827E-8,7500000.0,50.3,-2.7657849899922136,-1.6359918200409014,-20.924574209245733,732308.0,9208.0,0.0,1.0,0.0,?,0.0,0.0
7600000.0,11.703125,9.588017645809385E-8,7600000.0,48.8,-9.917004074657706,-14.541387024608515,-41.82825484764543,742113.0,9208.0,0.0,1.0,0.0,?,0.0,0.0
7700000.0,11.859375,9.718855532507102E-8,7700000.0,51.4,-2.8702057404114845,-3.84615384615385,-31.351351351351347,751918.0,9208.0,0.0,1.0,0.0,?,0.0,0.0
7800000.0,12.015625,9.842934863020976E-8,7800000.0,50.7,-4.0523427606585045,-8.590308370044061,-33.60433604336043,761723.0,9208.0,0.0,1.0,0.0,?,0.0,0.0
7900000.0,12.171875,9.991590761476094E-8,7900000.0,49.8,-5.363019678957624,-10.572687224669613,-34.946236559139784,771523.0,9208.0,0.0,1.0,0.0,?,0.0,0.0
8000000.0,12.328125,1.0133488103747368E-7,8000000.0,50.6,-4.15436773660329,-2.9166666666666696,-32.0855614973262,781328.0,9208.0,0.0,1.0,0.0,?,0.0,0.0
8100000.0,12.484375,1.0268626889834802E-7,8100000.0,61.6,7.542954002619622,18.987341772151893,-7.8651685393258495,791133.0,9208.0,0.0,1.0,0.0,?,0.0,0.0
8200000.0,12.640625,1.0397007119738395E-7,8200000.0,59.699999999999996,8.367439745338778,10.244988864142526,-0.7500000000000007,800938.0,9208.0,0.0,1.0,0.0,?,0.0,0.0
8300000.0,12.796875,1.0518628793458145E-7,8300000.0,59.3,6.021114076974939,15.384615384615374,-6.2663185378590125,810743.0,9208.0,0.0,1.0,0.0,?,0.0,0.0
8400000.0,12.953125,1.0664827035119136E-7,8400000.0,62.4,7.405127194818611,18.260869565217387,-8.98550724637682,820543.0,9208.0,0.0,1.0,0.0,?,0.0,0.0
8500000.0,13.109375,1.0804266720596287E-7,8500000.0,60.0,5.770607968037381,9.909909909909894,-8.695652173913052,830348.0,9208.0,0.0,1.0,0.0,?,0.0,0.0
8600000.0,13.265625,1.0936947849889597E-7,8600000.0,61.8,11.053572759108851,23.138832997987926,0.5208333333333338,840153.0,9208.0,0.0,1.0,0.0,?,0.0,0.0
8700000.0,13.421875,1.1062870422999065E-7,8700000.0,59.199999999999996,5.888865822434421,12.633832976445383,-5.974025974025979,849958.0,9208.0,0.0,1.0,0.0,?,0.0,0.0
8800000.0,13.578125,1.1182034439924691E-7,8800000.0,62.5,12.136832239925015,22.680412371134018,1.3157894736842117,859763.0,9208.0,0.0,1.0,0.0,?,0.0,0.0
8900000.0,13.734375,1.1325775024791559E-7,8900000.0,59.4,7.0785117914164255,14.705882352941165,-3.5714285714285747,869563.0,9208.0,0.0,1.0,0.0,?,0.0,0.0
9000000.0,13.875,1.1449058850606283E-7,9000000.0,61.7,9.322499384434714,19.706498951781963,-1.8617021276595762,879368.0,9208.0,0.0,1.0,0.0,?,0.0,0.0
9100000.0,14.03125,1.1579282323105468E-7,9100000.0,61.5,7.040757195286837,20.45454545454545,-8.450704225352121,889173.0,9208.0,0.0,1.0,0.0,?,0.0,0.0
9200000.0,14.1875,1.1702747239420813E-7,9200000.0,61.7,11.821045070266873,18.510638297872333,0.2604166666666669,898978.0,9208.0,0.0,1.0,0.0,?,0.0,0.0
9300000.0,14.34375,1.1850788723677398E-7,9300000.0,59.0,8.830945890054572,17.004048582995946,0.7263922518159812,908778.0,9208.0,0.0,1.0,0.0,?,0.0,0.0
9400000.0,14.453125,1.194968677332832E-7,9400000.0,59.599999999999994,8.915873438155224,19.521912350597606,-0.24813895781637738,918583.0,9208.0,0.0,1.0,0.0,?,0.0,0.0
9500000.0,14.609375,1.2084211145217223E-7,9500000.0,61.5,11.474716259220436,21.588594704684315,3.0226700251889196,928388.0,9208.0,0.0,1.0,0.0,?,0.0,0.0
9600000.0,14.75,1.2199200379351779E-7,9600000.0,59.599999999999994,6.331003973976699,16.701030927835046,-2.798982188295168,938193.0,9208.0,0.0,1.0,0.0,?,0.0,0.0
9700000.0,14.90625,1.2320207638872997E-7,9700000.0,61.3,8.901736281119346,18.35443037974683,-3.7533512064343197,947998.0,9208.0,0.0,1.0,0.0,?,0.0,0.0
9800000.0,15.03125,1.2436674700842967E-7,9800000.0,59.3,6.775390535526121,14.49579831932772,-3.0379746835443067,957798.0,9208.0,0.0,1.0,0.0,?,0.0,0.0
9900000.0,15.1875,1.2575499972121586E-7,9900000.0,60.3,4.074768522993058,12.555066079295141,-12.78409090909092,967603.0,9208.0,0.0,1.0,0.0,?,0.0,0.0
1.0E7,15.359375,1.2720773358725842E-7,1.0E7,61.9,11.909958567623558,21.280991735537185,2.0565552699228813,977408.0,9208.0,0.0,1.0,0.0,?,0.0,0.0
