learning evaluation instances,evaluation time (cpu seconds),model cost (RAM-Hours),classified instances,classifications correct (percent),Kappa Statistic (percent),Kappa Temporal Statistic (percent),Kappa M Statistic (percent),model training instances,model serialized size (bytes),labeling cost,newThreshold,maxPosterior,accuracyBaseLearner (percent),Change detected,Warning detected,tree size (nodes),tree size (leaves),active learning leaves,tree depth,active leaf byte size estimate,inactive leaf byte size estimate,byte size estimate overhead
100000.0,0.46875,1.4047448833783468E-8,100000.0,89.9,73.90693300540464,75.24509803921569,64.18439716312058,38106.0,31704.0,0.0,1.0,0.0,?,3.0,41.0,33.0,17.0,17.0,6.0,0.0,0.0,1.0
200000.0,0.9375,2.922024577856064E-8,200000.0,92.2,80.63122346105139,81.56028368794327,73.3788395904437,78106.0,50344.0,0.0,1.0,0.0,?,0.0,0.0,53.0,27.0,27.0,6.0,0.0,0.0,1.0
300000.0,1.375,4.7194383417566615E-8,300000.0,89.4,73.5067557772768,75.34883720930233,64.7840531561462,118106.0,93072.0,0.0,1.0,0.0,?,0.0,0.0,101.0,51.0,51.0,8.0,0.0,0.0,1.0
400000.0,1.796875,6.636012888823947E-8,400000.0,88.4,70.29586344291428,72.44655581947744,59.581881533101054,158106.0,119144.0,0.0,1.0,0.0,?,0.0,0.0,127.0,64.0,64.0,8.0,0.0,0.0,1.0
500000.0,2.21875,8.735505010311803E-8,500000.0,88.5,71.28589263420724,72.74881516587678,61.79401993355482,198106.0,145168.0,0.0,1.0,0.0,?,0.0,0.0,155.0,78.0,78.0,9.0,0.0,0.0,1.0
600000.0,2.65625,1.1647892986527748E-7,600000.0,88.6,70.91836734693878,73.61111111111111,62.000000000000014,237906.0,171384.0,0.0,1.0,0.0,?,0.0,0.0,183.0,92.0,92.0,9.0,0.0,0.0,1.0
700000.0,3.109375,1.4928001393046645E-7,700000.0,90.7,76.26315735740029,76.09254498714654,67.59581881533101,277906.0,203072.0,0.0,1.0,0.0,?,0.0,0.0,217.0,109.0,109.0,11.0,0.0,0.0,1.0
800000.0,3.546875,1.8262239690456127E-7,800000.0,89.3,72.32882663880585,72.20779220779221,62.71777003484321,317906.0,227136.0,0.0,1.0,0.0,?,0.0,0.0,243.0,122.0,122.0,11.0,0.0,0.0,1.0
900000.0,4.0,2.1910055592242216E-7,900000.0,89.3,72.4646930456623,74.15458937198068,62.97577854671281,357906.0,252992.0,0.0,1.0,0.0,?,0.0,0.0,271.0,136.0,136.0,11.0,0.0,0.0,1.0
1000000.0,4.4375,2.564667698202862E-7,1000000.0,90.60000000000001,74.89651488850313,75.64766839378238,65.81818181818183,397906.0,281192.0,0.0,1.0,0.0,?,0.0,0.0,301.0,151.0,151.0,11.0,0.0,0.0,1.0
1100000.0,4.90625,3.046190573109521E-7,1100000.0,88.9,73.21144136925736,75.86956521739131,64.98422712933754,437706.0,309272.0,0.0,1.0,0.0,?,0.0,0.0,331.0,166.0,166.0,12.0,0.0,0.0,1.0
1200000.0,5.390625,3.583331514770786E-7,1200000.0,91.4,77.84875334844426,79.02439024390246,69.2857142857143,477706.0,349920.0,0.0,1.0,0.0,?,0.0,0.0,375.0,188.0,188.0,12.0,0.0,0.0,1.0
1300000.0,5.875,4.136832689659463E-7,1300000.0,91.2,77.50039629983792,78.99761336515513,69.96587030716725,517706.0,372288.0,0.0,1.0,0.0,?,0.0,0.0,399.0,200.0,200.0,13.0,0.0,0.0,1.0
1400000.0,6.34375,4.683819780540135E-7,1400000.0,89.4,74.0906046666243,74.14634146341464,66.13418530351439,557706.0,391000.0,0.0,1.0,0.0,?,0.0,0.0,419.0,210.0,210.0,13.0,0.0,0.0,1.0
1500000.0,6.828125,5.258302553556859E-7,1500000.0,90.0,74.31484858603243,74.87437185929649,64.66431095406362,597706.0,407776.0,0.0,1.0,0.0,?,0.0,0.0,437.0,219.0,219.0,14.0,0.0,0.0,1.0
1600000.0,7.296875,5.895608531621595E-7,1600000.0,90.4,75.67994811722265,77.08830548926015,67.56756756756758,637506.0,436096.0,0.0,1.0,0.0,?,0.0,0.0,469.0,235.0,235.0,14.0,0.0,0.0,1.0
1700000.0,7.78125,6.573014414041407E-7,1700000.0,89.3,73.21705698008552,74.15458937198068,65.03267973856211,677506.0,460424.0,0.0,1.0,0.0,?,0.0,0.0,497.0,249.0,249.0,14.0,0.0,0.0,1.0
1800000.0,8.28125,7.300884398217831E-7,1800000.0,89.4,73.02798982188295,73.63184079601992,62.93706293706295,717506.0,491752.0,0.0,1.0,0.0,?,0.0,0.0,527.0,264.0,264.0,15.0,0.0,0.0,1.0
1900000.0,8.765625,8.02179727341152E-7,1900000.0,89.8,74.79776441345504,76.16822429906543,65.88628762541808,757506.0,513664.0,0.0,1.0,0.0,?,0.0,0.0,551.0,276.0,276.0,15.0,0.0,0.0,1.0
2000000.0,9.265625,8.791080068072512E-7,2000000.0,89.1,70.48118378577463,70.54054054054055,58.71212121212122,797506.0,542320.0,0.0,1.0,0.0,?,0.0,0.0,581.0,291.0,291.0,15.0,0.0,0.0,1.0
2100000.0,9.78125,9.675888900852039E-7,2100000.0,91.0,77.63919600486969,78.72340425531917,70.0996677740864,837306.0,572024.0,0.0,1.0,0.0,?,0.0,0.0,613.0,307.0,307.0,15.0,0.0,0.0,1.0
2200000.0,10.28125,1.0558410172557666E-6,2200000.0,90.4,74.62626604360054,76.1786600496278,65.46762589928059,877306.0,600224.0,0.0,1.0,0.0,?,0.0,0.0,643.0,322.0,322.0,15.0,0.0,0.0,1.0
2300000.0,10.796875,1.1485925966149403E-6,2300000.0,88.6,72.00942840306423,72.79236276849642,63.22580645161291,917306.0,622592.0,0.0,1.0,0.0,?,0.0,0.0,667.0,334.0,334.0,16.0,0.0,0.0,1.0
2400000.0,11.328125,1.2454214285955662E-6,2400000.0,89.7,73.06682565084147,72.16216216216218,63.08243727598567,957306.0,641160.0,0.0,1.0,0.0,?,0.0,0.0,689.0,345.0,345.0,16.0,0.0,0.0,1.0
2500000.0,11.875,1.348472109788822E-6,2500000.0,89.2,72.25290959073043,74.34679334916865,62.88659793814434,997306.0,674184.0,0.0,1.0,0.0,?,0.0,0.0,723.0,362.0,362.0,16.0,0.0,0.0,1.0
2600000.0,12.4375,1.4641866113783585E-6,2600000.0,89.4,74.49961508852964,74.94089834515367,67.87878787878789,1037106.0,702216.0,0.0,1.0,0.0,?,0.0,0.0,753.0,377.0,377.0,16.0,1734.2148760330579,0.0,1.0738340322785613
2700000.0,12.953125,1.5733956307586697E-6,2700000.0,90.8,77.04590818363275,79.18552036199095,69.33333333333334,1077106.0,734904.0,0.0,1.0,0.0,?,0.0,0.0,789.0,395.0,395.0,17.0,1734.2148760330579,0.0,1.0738340322785613
2800000.0,13.5,1.6911757605460783E-6,2800000.0,90.8,74.88863656214517,76.76767676767678,65.67164179104479,1117106.0,758016.0,0.0,1.0,0.0,?,0.0,0.0,813.0,407.0,407.0,17.0,1734.2148760330579,0.0,1.0738340322785613
2900000.0,14.046875,1.8116213161394828E-6,2900000.0,89.7,73.79588264625968,74.6928746928747,65.55183946488296,1157106.0,786096.0,0.0,1.0,0.0,?,0.0,0.0,843.0,422.0,422.0,17.0,1734.2148760330579,0.0,1.0738340322785613
3000000.0,14.609375,1.936898172263884E-6,3000000.0,89.9,75.03830754782265,76.67436489607391,67.4193548387097,1197106.0,805000.0,0.0,1.0,0.0,?,0.0,0.0,865.0,433.0,433.0,17.0,1734.2148760330579,0.0,1.0738340322785613
3100000.0,15.140625,2.0646696147094998E-6,3100000.0,88.9,72.81543887147338,72.79411764705883,64.07766990291263,1236906.0,834920.0,0.0,1.0,0.0,?,0.0,0.0,895.0,448.0,448.0,17.0,1734.2148760330579,0.0,1.0738340322785613
3200000.0,15.703125,2.2015402727346452E-6,3200000.0,88.3,71.27932209381107,72.66355140186917,62.738853503184714,1276906.0,855136.0,0.0,1.0,0.0,?,0.0,0.0,917.0,459.0,459.0,17.0,1734.2148760330579,0.0,1.0738340322785613
3300000.0,16.25,2.33652739552781E-6,3300000.0,89.2,72.14843850736261,72.93233082706767,62.10526315789474,1316906.0,877984.0,0.0,1.0,0.0,?,0.0,0.0,947.0,474.0,474.0,17.0,1734.2148760330579,0.0,1.0738340322785613
3400000.0,16.8125,2.4785505956970157E-6,3400000.0,90.5,74.72059606173498,77.16346153846155,65.45454545454547,1356906.0,909048.0,0.0,1.0,0.0,?,0.0,0.0,975.0,488.0,488.0,17.0,1734.2148760330579,0.0,1.0738340322785613
3500000.0,17.390625,2.627014764584601E-6,3500000.0,89.0,70.74919294364167,71.2041884816754,59.706959706959715,1396906.0,935000.0,0.0,1.0,0.0,?,0.0,0.0,1003.0,502.0,502.0,18.0,1734.2148760330579,0.0,1.0738340322785613
3600000.0,17.953125,2.780090435408056E-6,3600000.0,88.5,71.22122122122123,73.80410022779044,61.66666666666668,1436706.0,955600.0,0.0,1.0,0.0,?,0.0,0.0,1025.0,513.0,513.0,18.0,1734.2148760330579,0.0,1.0738340322785613
3700000.0,18.53125,2.938557267447727E-6,3700000.0,89.5,72.63201793254444,73.75,63.793103448275865,1476706.0,972592.0,0.0,1.0,0.0,?,0.0,0.0,1045.0,523.0,523.0,18.0,1734.2148760330579,0.0,1.0738340322785613
3800000.0,19.078125,3.0895131769486606E-6,3800000.0,90.2,75.91427447896187,77.15617715617716,67.97385620915034,1516706.0,989440.0,0.0,1.0,0.0,?,0.0,0.0,1061.0,531.0,531.0,18.0,1734.2148760330579,0.0,1.0738340322785613
3900000.0,19.65625,3.2513481306119106E-6,3900000.0,91.3,78.67019711679907,78.83211678832119,71.38157894736844,1556706.0,1013792.0,0.0,1.0,0.0,?,0.0,0.0,1087.0,544.0,544.0,18.0,1734.2148760330579,0.0,1.0738340322785613
4000000.0,20.203125,3.406735098299882E-6,4000000.0,89.60000000000001,74.14427494580242,76.62921348314606,65.1006711409396,1596706.0,1039312.0,0.0,1.0,0.0,?,0.0,0.0,1115.0,558.0,558.0,18.0,1734.2148760330579,0.0,1.0738340322785613
4100000.0,20.796875,3.586838332315287E-6,4100000.0,88.5,70.88902389631431,72.28915662650603,61.016949152542374,1636506.0,1074560.0,0.0,1.0,0.0,?,0.0,0.0,1153.0,577.0,577.0,18.0,1734.2148760330579,0.0,1.0738340322785613
4200000.0,21.375,3.764719424200142E-6,4200000.0,88.5,71.12265089042678,71.3216957605985,60.88435374149661,1676506.0,1100656.0,0.0,1.0,0.0,?,0.0,0.0,1181.0,591.0,591.0,18.0,1734.2148760330579,0.0,1.0738340322785613
4300000.0,21.953125,3.943673768339473E-6,4300000.0,87.8,69.72449288525583,70.88305489260144,58.922558922558935,1716506.0,1117216.0,0.0,1.0,0.0,?,0.0,0.0,1199.0,600.0,600.0,18.0,1734.2148760330579,0.0,1.0738340322785613
4400000.0,22.5,4.115904416216331E-6,4400000.0,89.8,75.00784067743453,75.24271844660196,66.22516556291393,1756506.0,1147280.0,0.0,1.0,0.0,?,0.0,0.0,1231.0,616.0,616.0,18.0,1734.2148760330579,0.0,1.0738340322785613
4500000.0,23.078125,4.298961527335148E-6,4500000.0,90.5,76.0456695613584,76.13065326633168,67.68707482993199,1796506.0,1163248.0,0.0,1.0,0.0,?,0.0,0.0,1253.0,627.0,627.0,18.0,1734.2148760330579,0.0,1.0738340322785613
4600000.0,23.65625,4.491782003444517E-6,4600000.0,89.1,72.75272472752725,74.5920745920746,64.14473684210527,1836306.0,1189792.0,0.0,1.0,0.0,?,0.0,0.0,1277.0,639.0,639.0,18.0,1734.2148760330579,0.0,1.0738340322785613
4700000.0,24.25,4.69308375613764E-6,4700000.0,90.10000000000001,74.76138032305434,76.97674418604652,66.09589041095892,1876306.0,1220288.0,0.0,1.0,0.0,?,0.0,0.0,1311.0,656.0,656.0,18.0,1734.2148760330579,0.0,1.0738340322785613
4800000.0,24.859375,4.902335155444842E-6,4800000.0,91.4,78.2023531320177,78.60696517412936,69.61130742049471,1916306.0,1246384.0,0.0,1.0,0.0,?,0.0,0.0,1337.0,669.0,669.0,18.0,1734.2148760330579,0.0,1.0738340322785613
4900000.0,25.46875,5.113082297611983E-6,4900000.0,91.60000000000001,78.67240818979526,80.73394495412846,70.62937062937064,1956306.0,1265216.0,0.0,1.0,0.0,?,0.0,0.0,1361.0,681.0,681.0,18.0,1734.2148760330579,0.0,1.0738340322785613
5000000.0,26.0625,5.322490631240525E-6,5000000.0,90.0,74.56984899576334,75.18610421836229,65.39792387543254,1996306.0,1300176.0,0.0,1.0,0.0,?,0.0,0.0,1397.0,699.0,699.0,18.0,1734.2148760330579,0.0,1.0738340322785613
5100000.0,26.703125,5.339999689668832E-6,5100000.0,88.1,76.07809396685509,76.10441767068274,73.61419068736141,16386.0,16792.0,0.0,1.0,0.0,?,12.0,121.0,17.0,9.0,9.0,4.0,0.0,0.0,1.0
5200000.0,27.171875,5.355766204754927E-6,5200000.0,91.0,81.998199819982,82.21343873517787,81.55737704918033,56386.0,50320.0,0.0,1.0,0.0,?,0.0,0.0,55.0,28.0,28.0,7.0,0.0,0.0,1.0
5300000.0,27.625,5.373839295417486E-6,5300000.0,89.0,77.82070255949091,77.68762677484787,75.92997811816193,96386.0,83656.0,0.0,1.0,0.0,?,0.0,0.0,89.0,45.0,45.0,8.0,0.0,0.0,1.0
5400000.0,28.0625,5.392753292754708E-6,5400000.0,87.8,75.48753681892522,76.62835249042146,73.98720682302772,136386.0,105904.0,0.0,1.0,0.0,?,0.0,0.0,113.0,57.0,57.0,8.0,0.0,0.0,1.0
5500000.0,28.484375,5.4138721962873325E-6,5500000.0,88.2,76.22760257386567,75.86912065439672,74.51403887688984,176386.0,141440.0,0.0,1.0,0.0,?,0.0,0.0,151.0,76.0,76.0,8.0,0.0,0.0,1.0
5600000.0,28.96875,5.447441750826937E-6,5600000.0,88.6,77.07160096540628,77.10843373493977,75.84745762711864,216186.0,176976.0,0.0,1.0,0.0,?,0.0,0.0,189.0,95.0,95.0,10.0,0.0,0.0,1.0
5700000.0,29.453125,5.481889464944189E-6,5700000.0,90.60000000000001,80.8357254697286,80.08474576271188,78.0373831775701,256186.0,193368.0,0.0,1.0,0.0,?,0.0,0.0,207.0,104.0,104.0,10.0,0.0,0.0,1.0
5800000.0,29.90625,5.515482981637536E-6,5800000.0,89.4,78.60487647343774,77.91666666666667,77.05627705627705,296186.0,214376.0,0.0,1.0,0.0,?,0.0,0.0,229.0,115.0,115.0,10.0,0.0,0.0,1.0
5900000.0,30.375,5.552504994233866E-6,5900000.0,89.5,78.64829471047088,79.24901185770752,76.24434389140272,336186.0,242336.0,0.0,1.0,0.0,?,0.0,0.0,259.0,130.0,130.0,10.0,0.0,0.0,1.0
6000000.0,30.84375,5.591342115723013E-6,6000000.0,90.3,80.34097265571167,80.56112224448898,78.25112107623319,376186.0,266568.0,0.0,1.0,0.0,?,0.0,0.0,291.0,146.0,146.0,10.0,0.0,0.0,1.0
6100000.0,31.328125,5.640114056101692E-6,6100000.0,89.0,77.86533268404976,79.4007490636704,76.13882863340564,415986.0,296656.0,0.0,1.0,0.0,?,0.0,0.0,319.0,160.0,160.0,11.0,0.0,0.0,1.0
6200000.0,31.8125,5.691182644416891E-6,6200000.0,91.4,82.73390538983229,81.89473684210526,81.74097664543525,455986.0,324232.0,0.0,1.0,0.0,?,0.0,0.0,347.0,174.0,174.0,11.0,0.0,0.0,1.0
6300000.0,32.328125,5.74755540583283E-6,6300000.0,91.3,82.45330966883144,82.53012048192771,81.16883116883118,495986.0,348584.0,0.0,1.0,0.0,?,0.0,0.0,373.0,187.0,187.0,11.0,0.0,0.0,1.0
6400000.0,32.828125,5.803871447116967E-6,6400000.0,89.2,78.28159123541549,77.54677754677755,77.07006369426752,535986.0,370664.0,0.0,1.0,0.0,?,0.0,0.0,397.0,199.0,199.0,12.0,0.0,0.0,1.0
6500000.0,33.359375,5.86575117065675E-6,6500000.0,89.7,79.19662621790626,79.27565392354126,77.2626931567329,575986.0,394824.0,0.0,1.0,0.0,?,0.0,0.0,423.0,212.0,212.0,12.0,0.0,0.0,1.0
6600000.0,33.875,5.932492268685668E-6,6600000.0,90.5,80.7486544322677,81.40900195694717,78.84187082405344,615786.0,406368.0,0.0,1.0,0.0,?,0.0,0.0,435.0,218.0,218.0,12.0,0.0,0.0,1.0
6700000.0,34.390625,6.0029288740932135E-6,6700000.0,89.2,78.32169797307877,79.23076923076924,77.45302713987473,655786.0,443192.0,0.0,1.0,0.0,?,0.0,0.0,475.0,238.0,238.0,12.0,0.0,0.0,1.0
6800000.0,34.921875,6.079115005882666E-6,6800000.0,89.2,78.22580645161291,77.16701902748414,76.0,695786.0,478632.0,0.0,1.0,0.0,?,0.0,0.0,515.0,258.0,258.0,12.0,0.0,0.0,1.0
6900000.0,35.46875,6.1610663801224714E-6,6900000.0,90.10000000000001,79.99612045972553,79.54545454545455,78.04878048780488,735786.0,512712.0,0.0,1.0,0.0,?,0.0,0.0,551.0,276.0,276.0,13.0,0.0,0.0,1.0
7000000.0,35.984375,6.239733839821487E-6,7000000.0,89.2,77.74297254966615,76.47058823529413,73.46437346437347,775786.0,532544.0,0.0,1.0,0.0,?,0.0,0.0,571.0,286.0,286.0,13.0,0.0,0.0,1.0
7100000.0,36.53125,6.333210492610106E-6,7100000.0,90.4,80.75998075998076,81.7490494296578,79.74683544303798,815586.0,564608.0,0.0,1.0,0.0,?,0.0,0.0,607.0,304.0,304.0,14.0,0.0,0.0,1.0
7200000.0,37.0625,6.426747487340539E-6,7200000.0,90.3,80.29656713386147,80.16359918200409,78.20224719101124,855586.0,593696.0,0.0,1.0,0.0,?,0.0,0.0,639.0,320.0,320.0,14.0,0.0,0.0,1.0
7300000.0,37.609375,6.526084681455463E-6,7300000.0,88.4,76.6872595873645,75.21367521367522,75.26652452025586,895586.0,624456.0,0.0,1.0,0.0,?,0.0,0.0,673.0,337.0,337.0,14.0,0.0,0.0,1.0
7400000.0,38.171875,6.629284535948605E-6,7400000.0,89.5,78.56162817287904,78.7878787878788,75.46728971962618,935586.0,640896.0,0.0,1.0,0.0,?,0.0,0.0,687.0,344.0,344.0,14.0,0.0,0.0,1.0
7500000.0,38.734375,6.735483249132007E-6,7500000.0,89.0,77.53561625931252,78.21782178217822,74.05660377358491,975586.0,670720.0,0.0,1.0,0.0,?,0.0,0.0,719.0,360.0,360.0,14.0,0.0,0.0,1.0
7600000.0,39.296875,6.85246551357624E-6,7600000.0,89.4,78.8189781955368,79.13385826771653,79.05138339920948,1015386.0,705968.0,0.0,1.0,0.0,?,0.0,0.0,757.0,379.0,379.0,14.0,1732.774193548387,0.0,1.0738948047757342
7700000.0,39.84375,6.968631674276876E-6,7700000.0,90.7,81.2448574609167,82.5515947467167,79.47019867549669,1055386.0,732424.0,0.0,1.0,0.0,?,0.0,0.0,787.0,394.0,394.0,14.0,1732.774193548387,0.0,1.0738948047757342
7800000.0,40.40625,7.089185560794758E-6,7800000.0,90.3,79.97423489190216,80.0411522633745,76.16707616707617,1095386.0,749152.0,0.0,1.0,0.0,?,0.0,0.0,805.0,403.0,403.0,14.0,1732.774193548387,0.0,1.0738948047757342
7900000.0,40.984375,7.215579260244142E-6,7900000.0,89.7,79.27415265492068,78.63070539419087,77.94432548179871,1135386.0,775080.0,0.0,1.0,0.0,?,0.0,0.0,831.0,416.0,416.0,14.0,1732.774193548387,0.0,1.0738948047757342
8000000.0,41.5625,7.3467170457459194E-6,8000000.0,89.8,79.53114276425897,80.45977011494253,78.343949044586,1175386.0,815872.0,0.0,1.0,0.0,?,0.0,0.0,875.0,438.0,438.0,14.0,1732.774193548387,0.0,1.0738948047757342
8100000.0,42.125,7.483499228126476E-6,8100000.0,88.7,77.2282096133229,76.35983263598327,75.38126361655773,1215186.0,840200.0,0.0,1.0,0.0,?,0.0,0.0,903.0,452.0,452.0,14.0,1732.774193548387,0.0,1.0738948047757342
8200000.0,42.71875,7.629592178596394E-6,8200000.0,88.4,76.6317485898469,77.16535433070867,75.0,1255186.0,860680.0,0.0,1.0,0.0,?,0.0,0.0,925.0,463.0,463.0,14.0,1732.774193548387,0.0,1.0738948047757342
8300000.0,43.28125,7.769668914584653E-6,8300000.0,89.2,78.20744094821846,79.11025145067698,76.15894039735099,1295186.0,881520.0,0.0,1.0,0.0,?,0.0,0.0,945.0,473.0,473.0,14.0,1732.774193548387,0.0,1.0738948047757342
8400000.0,43.859375,7.915792747452445E-6,8400000.0,90.60000000000001,80.96981083182172,81.23752495009981,79.4759825327511,1335186.0,905224.0,0.0,1.0,0.0,?,0.0,0.0,971.0,486.0,486.0,14.0,1732.774193548387,0.0,1.0738948047757342
8500000.0,44.453125,8.067589919341525E-6,8500000.0,89.0,77.63391186947965,76.74418604651163,74.65437788018434,1375186.0,925776.0,0.0,1.0,0.0,?,0.0,0.0,995.0,498.0,498.0,14.0,1732.774193548387,0.0,1.0738948047757342
8600000.0,45.046875,8.227931135075378E-6,8600000.0,88.2,76.20967741935483,76.20967741935483,74.34782608695653,1414986.0,942792.0,0.0,1.0,0.0,?,0.0,0.0,1011.0,506.0,506.0,14.0,1732.774193548387,0.0,1.0738948047757342
8700000.0,45.640625,8.39251795292108E-6,8700000.0,89.60000000000001,78.58848719426831,78.94736842105263,75.81395348837209,1454986.0,979544.0,0.0,1.0,0.0,?,0.0,0.0,1053.0,527.0,527.0,14.0,1732.774193548387,0.0,1.0738948047757342
8800000.0,46.25,8.563852396845407E-6,8800000.0,90.10000000000001,80.00323180092107,80.2,78.43137254901961,1494986.0,1004160.0,0.0,1.0,0.0,?,0.0,0.0,1079.0,540.0,540.0,14.0,1732.774193548387,0.0,1.0738948047757342
8900000.0,46.859375,8.737240018995689E-6,8900000.0,91.2,82.29233741146169,82.91262135922331,80.86956521739131,1534986.0,1026504.0,0.0,1.0,0.0,?,0.0,0.0,1101.0,551.0,551.0,14.0,1732.774193548387,0.0,1.0738948047757342
9000000.0,47.46875,8.914440145923035E-6,9000000.0,89.60000000000001,79.0667809942474,79.92277992277992,77.5377969762419,1574986.0,1059840.0,0.0,1.0,0.0,?,0.0,0.0,1141.0,571.0,571.0,14.0,1732.774193548387,0.0,1.0738948047757342
9100000.0,48.078125,9.10157195499374E-6,9100000.0,88.5,76.81657272338744,76.86116700201208,74.83588621444201,1614786.0,1084048.0,0.0,1.0,0.0,?,0.0,0.0,1163.0,582.0,582.0,14.0,1732.774193548387,0.0,1.0738948047757342
9200000.0,48.6875,9.288597826121584E-6,9200000.0,88.8,77.44164031501137,77.55511022044088,75.70498915401302,1654786.0,1092848.0,0.0,1.0,0.0,?,0.0,0.0,1179.0,590.0,590.0,14.0,1732.774193548387,0.0,1.0738948047757342
9300000.0,49.3125,9.484724012306997E-6,9300000.0,87.7,75.15071194220418,75.69169960474308,72.23476297968398,1694786.0,1128616.0,0.0,1.0,0.0,?,0.0,0.0,1213.0,607.0,607.0,15.0,1732.774193548387,0.0,1.0738948047757342
9400000.0,49.921875,9.678285245576668E-6,9400000.0,90.0,79.76429450236353,79.83870967741936,77.47747747747749,1734786.0,1152728.0,0.0,1.0,0.0,?,0.0,0.0,1241.0,621.0,621.0,15.0,1732.774193548387,0.0,1.0738948047757342
9500000.0,50.53125,9.871890619655865E-6,9500000.0,90.3,80.45221877393092,80.44354838709677,79.13978494623656,1774786.0,1162504.0,0.0,1.0,0.0,?,0.0,0.0,1247.0,624.0,624.0,15.0,1732.774193548387,0.0,1.0738948047757342
9600000.0,51.15625,1.0082978761703192E-5,9600000.0,89.1,78.10435984379771,77.93522267206477,77.24425887265136,1814586.0,1201024.0,0.0,1.0,0.0,?,0.0,0.0,1289.0,645.0,645.0,15.0,1732.774193548387,0.0,1.0738948047757342
9700000.0,51.8125,1.0307836119965134E-5,9700000.0,90.0,79.5664824925622,80.6949806949807,76.85185185185186,1854586.0,1229176.0,0.0,1.0,0.0,?,0.0,0.0,1325.0,663.0,663.0,15.0,1732.774193548387,0.0,1.0738948047757342
9800000.0,52.46875,1.0536418962551076E-5,9800000.0,91.2,82.29775181448045,82.67716535433071,80.95238095238095,1894586.0,1260336.0,0.0,1.0,0.0,?,0.0,0.0,1353.0,677.0,677.0,16.0,1732.774193548387,0.0,1.0738948047757342
9900000.0,53.109375,1.07627612629181E-5,9900000.0,91.3,82.55016326628852,83.5538752362949,81.83716075156576,1934586.0,1288896.0,0.0,1.0,0.0,?,0.0,0.0,1383.0,692.0,692.0,16.0,1732.774193548387,0.0,1.0738948047757342
1.0E7,53.765625,1.0996260712595865E-5,1.0E7,90.0,79.81396550610425,79.50819672131148,77.87610619469027,1974586.0,1307896.0,0.0,1.0,0.0,?,0.0,0.0,1403.0,702.0,702.0,16.0,1732.774193548387,0.0,1.0738948047757342
