learning evaluation instances,evaluation time (cpu seconds),model cost (RAM-Hours),classified instances,classifications correct (percent),Kappa Statistic (percent),Kappa Temporal Statistic (percent),Kappa M Statistic (percent),model training instances,model serialized size (bytes),labeling cost,newThreshold,maxPosterior,accuracyBaseLearner (percent),Change detected,Warning detected,tree size (nodes),tree size (leaves),active learning leaves,tree depth,active leaf byte size estimate,inactive leaf byte size estimate,byte size estimate overhead
100000.0,0.375,2.4439456562201182E-8,100000.0,69.69999999999999,39.345168031900826,37.39669421487602,38.787878787878775,9900.0,61232.0,0.0,1.0,0.0,?,0.0,21.0,20.0,15.0,15.0,3.0,0.0,0.0,1.0
200000.0,0.71875,4.8526239374445546E-8,200000.0,68.2,35.13778122259164,32.3404255319149,33.75000000000001,19900.0,95304.0,0.0,1.0,0.0,?,0.0,0.0,37.0,28.0,28.0,3.0,0.0,0.0,1.0
300000.0,1.09375,7.697271131392983E-8,300000.0,70.0,40.01847430991254,40.711462450592876,38.77551020408162,29900.0,132896.0,0.0,1.0,0.0,?,0.0,20.0,52.0,40.0,40.0,3.0,0.0,0.0,1.0
400000.0,1.4375,1.0324499776793852E-7,400000.0,69.5,39.22462578310563,38.99999999999999,36.32567849686846,39900.0,150256.0,0.0,1.0,0.0,?,0.0,0.0,59.0,45.0,45.0,3.0,0.0,0.0,1.0
500000.0,1.78125,1.3208268986394008E-7,500000.0,72.1,44.64505376770763,43.52226720647773,40.63829787234042,49900.0,194232.0,0.0,1.0,0.0,?,0.0,0.0,92.0,69.0,69.0,4.0,0.0,0.0,1.0
600000.0,2.15625,1.684322099511822E-7,600000.0,72.89999999999999,45.95780321461333,47.276264591439684,44.69387755102041,59900.0,259696.0,0.0,1.0,0.0,?,0.0,0.0,119.0,90.0,90.0,5.0,0.0,0.0,1.0
700000.0,2.546875,2.084273405166136E-7,700000.0,71.6,43.42336455673003,42.9718875502008,40.70981210855949,69900.0,295848.0,0.0,1.0,0.0,?,0.0,0.0,128.0,96.0,96.0,6.0,0.0,0.0,1.0
800000.0,2.921875,2.4992940274791587E-7,800000.0,72.5,44.84291261512789,47.41873804971319,44.99999999999999,79900.0,342896.0,0.0,1.0,0.0,?,0.0,0.0,146.0,108.0,108.0,6.0,0.0,0.0,1.0
900000.0,3.3125,2.956604132325285E-7,900000.0,74.5,49.43325586375932,48.69215291750503,46.088794926004226,89900.0,382712.0,0.0,1.0,0.0,?,0.0,0.0,158.0,117.0,117.0,6.0,0.0,0.0,1.0
1000000.0,3.734375,3.481101723284357E-7,1000000.0,74.3,48.98566834729445,48.08080808080808,43.51648351648351,99900.0,425824.0,0.0,1.0,0.0,?,0.0,0.0,183.0,134.0,134.0,6.0,0.0,0.0,1.0
1100000.0,4.15625,4.229570751906269E-7,1100000.0,74.0,48.26179531570254,44.20600858369098,45.492662473794546,109800.0,493840.0,0.0,1.0,0.0,?,0.0,0.0,210.0,152.0,152.0,6.0,0.0,0.0,1.0
1200000.0,4.609375,5.129567903673483E-7,1200000.0,72.8,46.00710641761122,45.599999999999994,42.250530785562624,119800.0,590680.0,0.0,1.0,0.0,?,0.0,0.0,251.0,180.0,180.0,6.0,0.0,0.0,1.0
1300000.0,5.0625,6.15952400645862E-7,1300000.0,75.9,52.09509421960722,53.91969407265774,48.940677966101696,129800.0,716352.0,0.0,1.0,0.0,?,0.0,0.0,302.0,216.0,216.0,6.0,0.0,0.0,1.0
1400000.0,5.515625,7.225547516201105E-7,1400000.0,76.3,52.428361528394454,52.6,53.43811394891945,139800.0,762048.0,0.0,1.0,0.0,?,0.0,0.0,333.0,233.0,233.0,6.0,0.0,0.0,1.0
1500000.0,5.96875,8.319732862421208E-7,1500000.0,75.5,51.64410058027079,53.24427480916031,47.87234042553191,149800.0,801112.0,0.0,1.0,0.0,?,0.0,0.0,355.0,247.0,247.0,6.0,0.0,0.0,1.0
1600000.0,6.4375,9.487960616954499E-7,1600000.0,79.80000000000001,59.86329677316803,59.840954274353884,57.82881002087683,159800.0,846088.0,0.0,1.0,0.0,?,0.0,0.0,375.0,260.0,260.0,7.0,0.0,0.0,1.0
1700000.0,6.890625,1.0631867593878674E-6,1700000.0,75.0,50.27784738879143,48.34710743801653,49.596774193548384,169800.0,873680.0,0.0,1.0,0.0,?,0.0,0.0,389.0,270.0,270.0,7.0,0.0,0.0,1.0
1800000.0,7.328125,1.1757580472880767E-6,1800000.0,80.7,60.873514004443805,62.304687500000014,60.93117408906884,179800.0,907528.0,0.0,1.0,0.0,?,0.0,0.0,400.0,277.0,277.0,7.0,0.0,0.0,1.0
1900000.0,7.796875,1.3004272154325412E-6,1900000.0,77.5,55.43919133024906,56.395348837209305,51.92307692307693,189800.0,955944.0,0.0,1.0,0.0,?,0.0,0.0,423.0,290.0,290.0,7.0,0.0,0.0,1.0
2000000.0,8.234375,1.4201932289223704E-6,2000000.0,81.39999999999999,62.71274782992201,62.424242424242415,62.72545090180359,199800.0,1001080.0,0.0,1.0,0.0,?,0.0,0.0,445.0,304.0,304.0,7.0,0.0,0.0,1.0
2100000.0,8.71875,1.5837153639747864E-6,2100000.0,80.5,61.10361995643606,59.20502092050211,59.5435684647303,209700.0,1110568.0,0.0,1.0,0.0,?,0.0,0.0,489.0,335.0,335.0,7.0,0.0,0.0,1.0
2200000.0,9.203125,1.7498499235241776E-6,2200000.0,81.10000000000001,62.32658268218786,62.57425742574259,60.5427974947808,219700.0,1146464.0,0.0,1.0,0.0,?,0.0,0.0,513.0,350.0,350.0,7.0,0.0,0.0,1.0
2300000.0,9.6875,1.91805657878932E-6,2300000.0,79.4,59.06964915139065,59.60784313725491,56.44820295983087,229700.0,1178032.0,0.0,1.0,0.0,?,0.0,0.0,534.0,362.0,362.0,7.0,0.0,0.0,1.0
2400000.0,10.15625,2.081338768928415E-6,2400000.0,83.1,66.3949095247564,65.99597585513078,64.57023060796645,239700.0,1197248.0,0.0,1.0,0.0,?,0.0,0.0,548.0,369.0,369.0,7.0,0.0,0.0,1.0
2500000.0,10.625,2.249501671435104E-6,2500000.0,82.8,65.77727372211942,64.01673640167364,63.01075268817203,249700.0,1252472.0,0.0,1.0,0.0,?,0.0,0.0,570.0,383.0,383.0,7.0,0.0,0.0,1.0
2600000.0,11.109375,2.424915049535532E-6,2600000.0,83.5,67.15372058764979,67.8988326848249,64.20824295010846,259700.0,1280664.0,0.0,1.0,0.0,?,0.0,0.0,587.0,393.0,393.0,8.0,0.0,0.0,1.0
2700000.0,11.59375,2.606414394297947E-6,2700000.0,81.8,63.83392219126688,62.00417536534446,62.00417536534446,269700.0,1344208.0,0.0,1.0,0.0,?,0.0,0.0,623.0,417.0,417.0,8.0,0.0,0.0,1.0
2800000.0,12.09375,2.7940231181370707E-6,2800000.0,83.5,67.01820595031542,67.6470588235294,67.0,279700.0,1361304.0,0.0,1.0,0.0,?,0.0,0.0,636.0,425.0,425.0,8.0,0.0,0.0,1.0
2900000.0,12.578125,2.9831772877110367E-6,2900000.0,83.1,66.36708830529928,65.15463917525773,64.2706131078224,289700.0,1435368.0,0.0,1.0,0.0,?,0.0,0.0,668.0,447.0,447.0,8.0,0.0,0.0,1.0
3000000.0,13.078125,3.1798643370469404E-6,3000000.0,84.7,69.4917687595712,69.76284584980237,68.3884297520661,299700.0,1461536.0,0.0,1.0,0.0,?,0.0,0.0,690.0,461.0,461.0,8.0,0.0,0.0,1.0
3100000.0,13.578125,3.401385620236396E-6,3100000.0,84.1,68.31406935033878,68.13627254509016,67.41803278688523,309600.0,1516376.0,0.0,1.0,0.0,?,0.0,0.0,710.0,474.0,474.0,8.0,0.0,0.0,1.0
3200000.0,14.09375,3.629548785587151E-6,3200000.0,86.9,73.90708532183919,73.26530612244898,73.1006160164271,319600.0,1529368.0,0.0,1.0,0.0,?,0.0,0.0,724.0,481.0,481.0,8.0,0.0,0.0,1.0
3300000.0,14.609375,3.8587641514216855E-6,3300000.0,84.7,69.4905520415407,70.1171875,68.5185185185185,329600.0,1552304.0,0.0,1.0,0.0,?,0.0,0.0,738.0,488.0,488.0,8.0,0.0,0.0,1.0
3400000.0,15.109375,4.081209513565732E-6,3400000.0,87.2,74.41555534235185,74.85265225933202,74.34869739478958,339600.0,1568736.0,0.0,1.0,0.0,?,0.0,0.0,754.0,496.0,496.0,8.0,0.0,0.0,1.0
3500000.0,15.625,4.309690686770611E-6,3500000.0,85.6,71.25519003513254,71.0261569416499,70.5521472392638,349600.0,1577016.0,0.0,1.0,0.0,?,0.0,0.0,760.0,499.0,499.0,8.0,0.0,0.0,1.0
3600000.0,16.125,4.531411686912179E-6,3600000.0,84.39999999999999,68.92677874272964,65.78947368421052,66.30669546436285,359600.0,1593424.0,0.0,1.0,0.0,?,0.0,0.0,769.0,505.0,505.0,8.0,0.0,0.0,1.0
3700000.0,16.671875,4.782816233475589E-6,3700000.0,85.5,71.06804795121873,70.70707070707071,70.28688524590163,369600.0,1671224.0,0.0,1.0,0.0,?,0.0,0.0,798.0,524.0,524.0,8.0,0.0,0.0,1.0
3800000.0,17.203125,5.031938166616277E-6,3800000.0,86.0,72.04249540698139,72.0,71.42857142857143,379600.0,1721904.0,0.0,1.0,0.0,?,0.0,0.0,816.0,536.0,536.0,8.0,0.0,0.0,1.0
3900000.0,17.734375,5.283831883894486E-6,3900000.0,85.6,71.29564291779789,71.48514851485149,69.42675159235668,389600.0,1757144.0,0.0,1.0,0.0,?,0.0,0.0,845.0,555.0,555.0,8.0,0.0,0.0,1.0
4000000.0,18.21875,5.512091221236106E-6,4000000.0,88.3,76.69564108897087,76.83168316831683,74.17218543046357,399600.0,1761040.0,0.0,1.0,0.0,?,0.0,0.0,857.0,561.0,561.0,8.0,0.0,0.0,1.0
4100000.0,18.765625,5.7941611804482004E-6,4100000.0,87.1,74.31650035439247,73.78048780487805,73.06889352818371,409500.0,1796040.0,0.0,1.0,0.0,?,0.0,0.0,886.0,577.0,577.0,8.0,0.0,0.0,1.0
4200000.0,19.265625,6.0519057377758944E-6,4200000.0,86.7,73.47575324872166,73.6111111111111,73.18548387096774,419500.0,1810024.0,0.0,1.0,0.0,?,0.0,0.0,892.0,580.0,580.0,8.0,0.0,0.0,1.0
4300000.0,19.796875,6.326773048688967E-6,4300000.0,85.8,71.80570557214561,71.6,68.58407079646017,429500.0,1832520.0,0.0,1.0,0.0,?,0.0,0.0,903.0,587.0,587.0,8.0,0.0,0.0,1.0
4400000.0,20.34375,6.614258745685218E-6,4400000.0,87.6,75.24011102014737,74.59016393442623,73.78435517970402,439500.0,1879544.0,0.0,1.0,0.0,?,0.0,0.0,926.0,600.0,600.0,8.0,0.0,0.0,1.0
4500000.0,20.890625,6.902197168933019E-6,4500000.0,87.4,74.88839285714286,74.8,73.75,449500.0,1897816.0,0.0,1.0,0.0,?,0.0,0.0,942.0,608.0,608.0,8.0,0.0,0.0,1.0
4600000.0,21.421875,7.183743808935912E-6,4600000.0,88.4,76.69906032934674,76.93836978131213,77.56286266924565,459500.0,1926168.0,0.0,1.0,0.0,?,0.0,0.0,964.0,619.0,619.0,8.0,0.0,0.0,1.0
4700000.0,21.953125,7.4706251163863454E-6,4700000.0,89.5,79.0347185061538,79.69052224371373,78.61507128309573,469500.0,1980032.0,0.0,1.0,0.0,?,0.0,0.0,983.0,633.0,633.0,9.0,0.0,0.0,1.0
4800000.0,22.5,7.767395096986242E-6,4800000.0,89.4,78.87031957644957,77.82426778242679,77.10583153347731,479500.0,2005376.0,0.0,1.0,0.0,?,0.0,0.0,998.0,642.0,642.0,9.0,0.0,0.0,1.0
4900000.0,23.015625,8.045383049951243E-6,4900000.0,87.7,75.37991000656537,75.4980079681275,75.4980079681275,489500.0,2006872.0,0.0,1.0,0.0,?,0.0,0.0,1006.0,646.0,646.0,9.0,0.0,0.0,1.0
5000000.0,23.546875,8.331151685625727E-6,5000000.0,90.5,81.03171497256587,80.53278688524591,80.57259713701433,499500.0,2015032.0,0.0,1.0,0.0,?,0.0,0.0,1010.0,648.0,648.0,9.0,0.0,0.0,1.0
5100000.0,24.109375,8.365076274559314E-6,5100000.0,73.2,46.4,42.85714285714285,40.444444444444436,8547.0,39592.0,0.0,1.0,0.0,?,2.0,28.0,16.0,13.0,13.0,2.0,0.0,0.0,1.0
5200000.0,24.4375,8.386724285729642E-6,5200000.0,74.1,45.00641237971479,47.357723577235774,41.00227790432801,18547.0,76608.0,0.0,1.0,0.0,?,0.0,0.0,33.0,26.0,26.0,3.0,0.0,0.0,1.0
5300000.0,24.78125,8.412013380115644E-6,5300000.0,73.7,45.27127137125638,44.86373165618448,42.32456140350877,28547.0,121040.0,0.0,1.0,0.0,?,0.0,0.0,52.0,40.0,40.0,4.0,0.0,0.0,1.0
5400000.0,25.15625,8.447953894372202E-6,5400000.0,72.2,40.168990319428715,42.08333333333333,35.1981351981352,38547.0,222016.0,0.0,1.0,0.0,?,0.0,0.0,91.0,67.0,67.0,4.0,0.0,0.0,1.0
5500000.0,25.546875,8.491060709477298E-6,5500000.0,73.0,44.391353061358984,42.553191489361694,42.3076923076923,48547.0,293128.0,0.0,1.0,0.0,?,0.0,0.0,124.0,91.0,91.0,5.0,0.0,0.0,1.0
5600000.0,25.921875,8.535711418112946E-6,5600000.0,72.5,41.92185850052797,44.33198380566801,38.88888888888888,58547.0,341816.0,0.0,1.0,0.0,?,0.0,0.0,148.0,106.0,106.0,5.0,0.0,0.0,1.0
5700000.0,26.296875,8.584904652606281E-6,5700000.0,75.2,47.4101625619733,48.865979381443296,43.50797266514806,68547.0,403656.0,0.0,1.0,0.0,?,0.0,0.0,178.0,127.0,127.0,5.0,0.0,0.0,1.0
5800000.0,26.6875,8.637943958294474E-6,5800000.0,83.8,66.28932911603128,65.6779661016949,63.18181818181817,78547.0,436520.0,0.0,1.0,0.0,?,0.0,0.0,196.0,139.0,139.0,5.0,0.0,0.0,1.0
5900000.0,27.046875,8.688018650799576E-6,5900000.0,84.39999999999999,67.51894728075288,68.42105263157893,64.70588235294117,88547.0,465336.0,0.0,1.0,0.0,?,0.0,0.0,224.0,156.0,156.0,6.0,0.0,0.0,1.0
6000000.0,27.421875,8.740547572314325E-6,6000000.0,85.1,69.31150674322998,70.08032128514056,67.10816777041941,98547.0,483320.0,0.0,1.0,0.0,?,0.0,0.0,237.0,164.0,164.0,6.0,0.0,0.0,1.0
6100000.0,27.796875,8.809174404531303E-6,6100000.0,86.1,71.33595090405174,72.1442885771543,69.24778761061945,108447.0,512168.0,0.0,1.0,0.0,?,0.0,0.0,254.0,174.0,174.0,6.0,0.0,0.0,1.0
6200000.0,28.1875,8.884681867332095E-6,6200000.0,86.4,72.23707901408967,71.95876288659794,70.62634989200863,118447.0,566936.0,0.0,1.0,0.0,?,0.0,0.0,280.0,190.0,190.0,6.0,0.0,0.0,1.0
6300000.0,28.578125,8.961344590514071E-6,6300000.0,87.6,74.76268785515411,75.87548638132296,73.16017316017316,128447.0,593488.0,0.0,1.0,0.0,?,0.0,0.0,298.0,202.0,202.0,7.0,0.0,0.0,1.0
6400000.0,28.96875,9.03857079619128E-6,6400000.0,87.1,73.30960854092527,74.09638554216868,70.68181818181817,138447.0,614144.0,0.0,1.0,0.0,?,0.0,0.0,319.0,214.0,214.0,7.0,0.0,0.0,1.0
6500000.0,29.34375,9.112369573105956E-6,6500000.0,89.3,78.05434318905262,78.16326530612245,75.90090090090091,148447.0,625760.0,0.0,1.0,0.0,?,0.0,0.0,331.0,220.0,220.0,7.0,0.0,0.0,1.0
6600000.0,29.75,9.198388660378341E-6,6600000.0,88.3,75.15290519877675,73.64864864864865,71.39364303178485,158447.0,698456.0,0.0,1.0,0.0,?,0.0,0.0,358.0,238.0,238.0,7.0,0.0,0.0,1.0
6700000.0,30.140625,9.282153526631495E-6,6700000.0,91.7,82.9652737870454,81.99566160520608,81.34831460674158,168447.0,723984.0,0.0,1.0,0.0,?,0.0,0.0,371.0,246.0,246.0,7.0,0.0,0.0,1.0
6800000.0,30.5625,9.374144040824226E-6,6800000.0,88.8,76.85453072561046,77.0961145194274,74.19354838709677,178447.0,753048.0,0.0,1.0,0.0,?,0.0,0.0,402.0,266.0,266.0,7.0,0.0,0.0,1.0
6900000.0,30.96875,9.465365858179415E-6,6900000.0,92.2,83.80553352462182,83.68200836820084,81.90255220417635,188447.0,793208.0,0.0,1.0,0.0,?,0.0,0.0,420.0,278.0,278.0,7.0,0.0,0.0,1.0
7000000.0,31.359375,9.552349931456978E-6,7000000.0,90.3,80.06494307205394,80.60000000000001,78.20224719101124,198447.0,801136.0,0.0,1.0,0.0,?,0.0,0.0,426.0,281.0,281.0,7.0,0.0,0.0,1.0
7100000.0,31.734375,9.650295574424996E-6,7100000.0,89.4,77.98564497906561,79.69348659003832,75.46296296296296,208347.0,812968.0,0.0,1.0,0.0,?,0.0,0.0,432.0,284.0,284.0,7.0,0.0,0.0,1.0
7200000.0,32.109375,9.747593172101512E-6,7200000.0,88.7,76.6923806773648,77.30923694779118,74.6067415730337,218347.0,821432.0,0.0,1.0,0.0,?,0.0,0.0,438.0,287.0,287.0,7.0,0.0,0.0,1.0
7300000.0,32.484375,9.84443364561432E-6,7300000.0,89.9,79.50786411076304,79.55465587044534,78.37259100642399,228347.0,831856.0,0.0,1.0,0.0,?,0.0,0.0,453.0,296.0,296.0,7.0,0.0,0.0,1.0
7400000.0,32.859375,9.9437871378743E-6,7400000.0,90.3,79.92134133719728,80.44354838709677,77.70114942528737,238347.0,872800.0,0.0,1.0,0.0,?,0.0,0.0,464.0,303.0,303.0,7.0,0.0,0.0,1.0
7500000.0,33.25,1.0046218877606508E-5,7500000.0,87.9,75.12846865364851,74.73903966597078,73.1111111111111,248347.0,877464.0,0.0,1.0,0.0,?,0.0,0.0,468.0,305.0,305.0,7.0,0.0,0.0,1.0
7600000.0,33.640625,1.0147171172623833E-5,7600000.0,89.5,78.31205849547652,78.39506172839506,76.08200455580865,258347.0,878024.0,0.0,1.0,0.0,?,0.0,0.0,468.0,305.0,305.0,7.0,0.0,0.0,1.0
7700000.0,34.046875,1.0255216103461053E-5,7700000.0,91.7,82.9078837900841,82.78008298755188,81.17913832199547,268347.0,922136.0,0.0,1.0,0.0,?,0.0,0.0,484.0,316.0,316.0,7.0,0.0,0.0,1.0
7800000.0,34.4375,1.0358481344559954E-5,7800000.0,90.5,80.23830523705713,80.33126293995859,77.75175644028104,278347.0,931144.0,0.0,1.0,0.0,?,0.0,0.0,491.0,321.0,321.0,7.0,0.0,0.0,1.0
7900000.0,34.8125,1.0456794859944946E-5,7900000.0,91.4,82.59052924791087,83.33333333333334,81.62393162393164,288347.0,937824.0,0.0,1.0,0.0,?,0.0,0.0,497.0,324.0,324.0,7.0,0.0,0.0,1.0
8000000.0,35.1875,1.0555295415947006E-5,8000000.0,90.9,81.35108327663517,80.34557235421167,79.73273942093542,298347.0,954912.0,0.0,1.0,0.0,?,0.0,0.0,502.0,328.0,328.0,7.0,0.0,0.0,1.0
8100000.0,35.59375,1.0677247644505566E-5,8100000.0,89.4,78.39212984291485,79.296875,77.00650759219089,308247.0,962968.0,0.0,1.0,0.0,?,0.0,0.0,513.0,335.0,335.0,7.0,0.0,0.0,1.0
8200000.0,35.984375,1.079348996022923E-5,8200000.0,93.0,85.67000896648011,85.94377510040162,84.19864559819415,318247.0,968048.0,0.0,1.0,0.0,?,0.0,0.0,517.0,337.0,337.0,8.0,0.0,0.0,1.0
8300000.0,36.359375,1.0903978966073029E-5,8300000.0,92.9,85.30483160578866,85.80000000000001,83.41121495327104,328247.0,971848.0,0.0,1.0,0.0,?,0.0,0.0,519.0,338.0,338.0,8.0,0.0,0.0,1.0
8400000.0,36.765625,1.1023445856860942E-5,8400000.0,90.8,80.72741441505609,81.14754098360656,78.25059101654847,338247.0,984824.0,0.0,1.0,0.0,?,0.0,0.0,528.0,344.0,344.0,8.0,0.0,0.0,1.0
8500000.0,37.140625,1.1132284093441234E-5,8500000.0,91.8,83.2310838445808,83.95303326810178,81.77777777777779,348247.0,985184.0,0.0,1.0,0.0,?,0.0,0.0,530.0,345.0,345.0,8.0,0.0,0.0,1.0
8600000.0,37.53125,1.1244193172185785E-5,8600000.0,90.10000000000001,79.73122374272167,80.43478260869566,78.04878048780488,358247.0,985872.0,0.0,1.0,0.0,?,0.0,0.0,536.0,348.0,348.0,8.0,0.0,0.0,1.0
8700000.0,37.9375,1.136194403645479E-5,8700000.0,90.9,81.46050476322417,81.72690763052209,80.13100436681223,368247.0,1013952.0,0.0,1.0,0.0,?,0.0,0.0,547.0,355.0,355.0,8.0,0.0,0.0,1.0
8800000.0,38.328125,1.1476148275606747E-5,8800000.0,89.5,78.30022567765296,77.7542372881356,76.24434389140272,378247.0,1038784.0,0.0,1.0,0.0,?,0.0,0.0,556.0,361.0,361.0,8.0,0.0,0.0,1.0
8900000.0,38.734375,1.159486351146673E-5,8900000.0,90.60000000000001,80.60872112452915,81.4595660749507,78.48970251716248,388247.0,1053328.0,0.0,1.0,0.0,?,0.0,0.0,568.0,367.0,367.0,8.0,0.0,0.0,1.0
9000000.0,39.125,1.170834338861621E-5,9000000.0,90.5,80.61446038820054,80.84677419354838,79.16666666666667,398247.0,1061848.0,0.0,1.0,0.0,?,0.0,0.0,574.0,370.0,370.0,8.0,0.0,0.0,1.0
9100000.0,39.515625,1.1835474579129366E-5,9100000.0,89.9,79.40322370138345,80.11811023622047,77.89934354485777,408147.0,1059984.0,0.0,1.0,0.0,?,0.0,0.0,578.0,372.0,372.0,8.0,0.0,0.0,1.0
9200000.0,39.921875,1.1968250974961038E-5,9200000.0,90.4,80.45602605863192,80.9145129224652,79.1304347826087,418147.0,1080456.0,0.0,1.0,0.0,?,0.0,0.0,583.0,376.0,376.0,8.0,0.0,0.0,1.0
9300000.0,40.296875,1.2089690005975878E-5,9300000.0,88.9,77.70260497854629,77.48478701825559,77.25409836065575,428147.0,1084040.0,0.0,1.0,0.0,?,0.0,0.0,587.0,378.0,378.0,8.0,0.0,0.0,1.0
9400000.0,40.6875,1.2215102453612618E-5,9400000.0,90.8,81.15526423596887,81.99608610567515,79.55555555555556,438147.0,1088448.0,0.0,1.0,0.0,?,0.0,0.0,593.0,381.0,381.0,8.0,0.0,0.0,1.0
9500000.0,41.078125,1.23393903615781E-5,9500000.0,90.10000000000001,79.56706954626512,79.11392405063292,77.29357798165138,448147.0,1092488.0,0.0,1.0,0.0,?,0.0,0.0,597.0,383.0,383.0,8.0,0.0,0.0,1.0
9600000.0,41.484375,1.2467512214142414E-5,9600000.0,91.10000000000001,81.89585028478439,81.94726166328601,80.65217391304348,458147.0,1096840.0,0.0,1.0,0.0,?,0.0,0.0,599.0,384.0,384.0,8.0,0.0,0.0,1.0
9700000.0,41.875,1.258877898281854E-5,9700000.0,90.9,80.94815385517248,80.59701492537314,78.28162291169451,468147.0,1092976.0,0.0,1.0,0.0,?,0.0,0.0,601.0,385.0,385.0,8.0,0.0,0.0,1.0
9800000.0,42.25,1.2704783746610497E-5,9800000.0,92.0,83.53394477285077,84.03193612774452,81.90045248868779,478147.0,1103880.0,0.0,1.0,0.0,?,0.0,0.0,603.0,386.0,386.0,8.0,0.0,0.0,1.0
9900000.0,42.65625,1.2828858097135606E-5,9900000.0,92.10000000000001,83.79779650032405,84.00809716599191,82.1266968325792,488147.0,1103880.0,0.0,1.0,0.0,?,0.0,0.0,603.0,386.0,386.0,8.0,0.0,0.0,1.0
1.0E7,43.046875,1.2946624321759575E-5,1.0E7,92.2,83.94156376228574,84.01639344262296,82.23234624145786,498147.0,1103880.0,0.0,1.0,0.0,?,0.0,0.0,603.0,386.0,386.0,8.0,0.0,0.0,1.0
