learning evaluation instances,evaluation time (cpu seconds),model cost (RAM-Hours),classified instances,classifications correct (percent),Kappa Statistic (percent),Kappa Temporal Statistic (percent),Kappa M Statistic (percent),model training instances,model serialized size (bytes),labeling cost,newThreshold,maxPosterior,accuracyBaseLearner (percent),Change detected,Warning detected,tree size (nodes),tree size (leaves),active learning leaves,tree depth,active leaf byte size estimate,inactive leaf byte size estimate,byte size estimate overhead
100000.0,0.296875,1.768898477570878E-8,100000.0,86.6,72.9516965745544,71.05831533477321,70.54945054945054,9987.0,186192.0,9987.0,1.0,0.0,0.0,0.0,6.0,57.0,44.0,44.0,3.0,0.0,0.0,1.0
200000.0,0.5625,3.4341129422601725E-8,200000.0,90.4,80.33085146924442,79.03930131004367,77.82909930715937,19915.0,198152.0,19915.0,1.0,0.0,0.0,0.0,0.0,61.0,46.0,46.0,3.0,0.0,0.0,1.0
300000.0,0.8125,5.106561325697435E-8,300000.0,88.5,76.31600626081226,75.84033613445378,72.87735849056605,29890.0,214320.0,29890.0,1.0,0.0,0.0,0.0,0.0,69.0,50.0,50.0,4.0,0.0,0.0,1.0
400000.0,1.09375,7.415892064778341E-8,400000.0,90.3,80.16051574477834,80.56112224448898,77.3892773892774,39895.0,272896.0,39895.0,1.0,0.0,0.0,0.0,0.0,98.0,69.0,69.0,5.0,0.0,0.0,1.0
500000.0,1.375,1.0019113283811344E-7,500000.0,90.0,79.13467316552047,78.76857749469215,75.24752475247526,49881.0,313104.0,49881.0,1.0,0.0,0.0,0.0,0.0,108.0,74.0,74.0,5.0,0.0,0.0,1.0
600000.0,1.65625,1.285976355171038E-7,600000.0,90.10000000000001,79.8827918620813,81.10687022900764,76.81498829039813,59758.0,345544.0,59758.0,1.0,0.0,0.0,0.0,0.0,124.0,82.0,82.0,5.0,0.0,0.0,1.0
700000.0,1.9375,1.5996225152371658E-7,700000.0,92.10000000000001,83.86081897150515,83.43815513626835,81.45539906103288,69609.0,386064.0,69609.0,1.0,0.0,0.0,0.0,0.0,140.0,93.0,93.0,5.0,0.0,0.0,1.0
800000.0,2.21875,1.931644833853675E-7,800000.0,92.5,84.77973228563775,84.50413223140497,82.67898383371826,79615.0,411208.0,79615.0,1.0,0.0,0.0,0.0,0.0,148.0,97.0,97.0,5.0,0.0,0.0,1.0
900000.0,2.515625,2.325527344105972E-7,900000.0,94.5,88.8256806176351,89.23679060665361,87.49999999999999,89617.0,467472.0,89617.0,1.0,0.0,0.0,0.0,0.0,173.0,111.0,111.0,5.0,0.0,0.0,1.0
1000000.0,2.796875,2.7277248187197576E-7,1000000.0,90.9,81.38724351212488,81.39059304703477,78.73831775700936,99704.0,507160.0,99704.0,1.0,0.0,0.0,0.0,0.0,191.0,120.0,120.0,5.0,0.0,0.0,1.0
1100000.0,3.09375,3.1879394858454663E-7,1100000.0,92.2,84.05384077555578,83.85093167701864,81.98614318706699,109593.0,553440.0,109593.0,1.0,0.0,0.0,0.0,0.0,211.0,133.0,133.0,6.0,0.0,0.0,1.0
1200000.0,3.375,3.656749807608624E-7,1200000.0,90.7,80.82616548050042,81.65680473372781,77.48184019370461,119597.0,598352.0,119597.0,1.0,0.0,0.0,0.0,0.0,226.0,142.0,142.0,6.0,0.0,0.0,1.0
1300000.0,3.65625,4.139326241177817E-7,1300000.0,92.9,85.35575209557126,85.48057259713703,83.13539192399051,129466.0,617176.0,129466.0,1.0,0.0,0.0,0.0,0.0,234.0,146.0,146.0,6.0,0.0,0.0,1.0
1400000.0,3.953125,4.6616274630650877E-7,1400000.0,92.7,85.06192140524348,85.13238289205704,82.53588516746413,139708.0,633896.0,139708.0,1.0,0.0,0.0,0.0,0.0,242.0,150.0,150.0,6.0,0.0,0.0,1.0
1500000.0,4.25,5.190871565395759E-7,1500000.0,92.4,84.42093007047481,84.45807770961146,82.03309692671395,149600.0,642888.0,149600.0,1.0,0.0,0.0,0.0,0.0,246.0,152.0,152.0,6.0,0.0,0.0,1.0
1600000.0,4.546875,5.745914919922749E-7,1600000.0,92.7,85.04073837276022,84.56659619450319,82.6603325415677,159502.0,676336.0,159502.0,1.0,0.0,0.0,0.0,0.0,261.0,161.0,161.0,6.0,0.0,0.0,1.0
1700000.0,4.859375,6.366492662992742E-7,1700000.0,93.30000000000001,86.27015418411929,86.09958506224066,84.12322274881518,169516.0,721096.0,169516.0,1.0,0.0,0.0,0.0,0.0,277.0,172.0,172.0,6.0,0.0,0.0,1.0
1800000.0,5.15625,6.959568256408803E-7,1800000.0,94.0,87.7943593666086,87.78004073319754,86.5470852017937,179689.0,725664.0,179689.0,1.0,0.0,0.0,0.0,0.0,279.0,173.0,173.0,6.0,0.0,0.0,1.0
1900000.0,5.46875,7.616790955782764E-7,1900000.0,93.10000000000001,85.87801882930823,85.65488565488566,83.76470588235296,189839.0,766272.0,189839.0,1.0,0.0,0.0,0.0,0.0,293.0,183.0,183.0,6.0,0.0,0.0,1.0
2000000.0,5.78125,8.284775604907837E-7,2000000.0,92.80000000000001,85.37661314236274,85.57114228456915,83.37182448036953,199843.0,779512.0,199843.0,1.0,0.0,0.0,0.0,0.0,299.0,186.0,186.0,6.0,0.0,0.0,1.0
2100000.0,6.078125,8.932251431461837E-7,2100000.0,93.5,86.62738546869987,86.9739478957916,84.48687350835323,209734.0,796248.0,209734.0,1.0,0.0,0.0,0.0,0.0,306.0,191.0,191.0,6.0,0.0,0.0,1.0
2200000.0,6.390625,9.620434138923883E-7,2200000.0,94.5,88.65277491231689,88.09523809523809,86.74698795180721,219737.0,804400.0,219737.0,1.0,0.0,0.0,0.0,0.0,310.0,193.0,193.0,6.0,0.0,0.0,1.0
2300000.0,6.703125,1.0316416672948334E-6,2300000.0,93.60000000000001,87.03067245963298,86.4406779661017,85.18518518518519,229897.0,814008.0,229897.0,1.0,0.0,0.0,0.0,0.0,312.0,194.0,194.0,6.0,0.0,0.0,1.0
2400000.0,7.015625,1.1023245234456326E-6,2400000.0,93.5,86.6361834584735,86.65297741273102,84.44976076555025,239938.0,827352.0,239938.0,1.0,0.0,0.0,0.0,0.0,318.0,197.0,197.0,6.0,0.0,0.0,1.0
2500000.0,7.34375,1.1769578041922713E-6,2500000.0,93.2,86.09634415637525,85.83333333333334,84.18604651162792,249937.0,832248.0,249937.0,1.0,0.0,0.0,0.0,0.0,327.0,203.0,203.0,6.0,0.0,0.0,1.0
2600000.0,7.65625,1.2515754982208211E-6,2600000.0,95.3,90.41559606835514,90.32921810699588,88.96713615023474,259975.0,875848.0,259975.0,1.0,0.0,0.0,0.0,0.0,336.0,209.0,209.0,6.0,0.0,0.0,1.0
2700000.0,7.984375,1.332366761441032E-6,2700000.0,93.10000000000001,85.97161794006426,86.20000000000002,83.80281690140846,269905.0,904528.0,269905.0,1.0,0.0,0.0,0.0,0.0,354.0,221.0,221.0,6.0,0.0,0.0,1.0
2800000.0,8.28125,1.4089940426250298E-6,2800000.0,93.7,86.99314559418616,87.14285714285715,84.81927710843375,279788.0,950328.0,279788.0,1.0,0.0,0.0,0.0,0.0,363.0,227.0,227.0,6.0,0.0,0.0,1.0
2900000.0,8.609375,1.4951317765129108E-6,2900000.0,93.7,87.11403465711061,87.34939759036145,85.14150943396228,289861.0,967296.0,289861.0,1.0,0.0,0.0,0.0,0.0,370.0,232.0,232.0,6.0,0.0,0.0,1.0
3000000.0,8.921875,1.5800929718857838E-6,3000000.0,94.39999999999999,88.35376277446645,88.3817427385892,86.24078624078622,299719.0,1003368.0,299719.0,1.0,0.0,0.0,0.0,0.0,384.0,242.0,242.0,6.0,0.0,0.0,1.0
3100000.0,9.25,1.6701544841958416E-6,3100000.0,93.0,85.67827681026581,85.62628336755648,83.41232227488153,309746.0,1013368.0,309746.0,1.0,0.0,0.0,0.0,0.0,386.0,243.0,243.0,6.0,0.0,0.0,1.0
3200000.0,9.5625,1.7559900879859924E-6,3200000.0,93.5,86.68000032787693,86.28691983122364,84.59715639810427,319838.0,1014168.0,319838.0,1.0,0.0,0.0,0.0,0.0,391.0,247.0,247.0,6.0,0.0,0.0,1.0
3300000.0,9.90625,1.8564101386194429E-6,3300000.0,94.0,87.53075746491984,87.60330578512395,85.14851485148513,329832.0,1081392.0,329832.0,1.0,0.0,0.0,0.0,0.0,409.0,259.0,259.0,6.0,0.0,0.0,1.0
3400000.0,10.25,1.959174341108236E-6,3400000.0,94.19999999999999,88.21961880311326,87.89144050104383,86.87782805429863,339781.0,1107656.0,339781.0,1.0,0.0,0.0,0.0,0.0,420.0,266.0,266.0,6.0,0.0,0.0,1.0
3500000.0,10.578125,2.0602717348891827E-6,3500000.0,94.19999999999999,88.16852910337849,88.53754940711461,86.41686182669788,349799.0,1142984.0,349799.0,1.0,0.0,0.0,0.0,0.0,437.0,279.0,279.0,6.0,0.0,0.0,1.0
3600000.0,10.9375,2.173534432788276E-6,3600000.0,95.6,90.91873506235113,91.07505070993915,89.34624697336561,359815.0,1170136.0,359815.0,1.0,0.0,0.0,0.0,0.0,443.0,282.0,282.0,7.0,0.0,0.0,1.0
3700000.0,11.28125,2.2855692400803995E-6,3700000.0,94.0,87.74269464600901,86.92810457516339,85.64593301435406,369853.0,1211568.0,369853.0,1.0,0.0,0.0,0.0,0.0,459.0,293.0,293.0,7.0,0.0,0.0,1.0
3800000.0,11.59375,2.3878769651572735E-6,3800000.0,95.8,91.22807017543859,91.90751445086704,89.49999999999999,379877.0,1217208.0,379877.0,1.0,0.0,0.0,0.0,0.0,461.0,294.0,294.0,7.0,0.0,0.0,1.0
3900000.0,11.9375,2.5031188852153717E-6,3900000.0,94.3,88.33668909296271,88.22314049586775,86.33093525179855,389894.0,1247488.0,389894.0,1.0,0.0,0.0,0.0,0.0,470.0,300.0,300.0,7.0,0.0,0.0,1.0
4000000.0,12.28125,2.620655868668109E-6,4000000.0,95.19999999999999,89.9919935948759,90.62499999999999,87.87878787878786,399673.0,1273152.0,399673.0,1.0,0.0,0.0,0.0,0.0,482.0,306.0,306.0,7.0,0.0,0.0,1.0
4100000.0,12.625,2.742240871561484E-6,4100000.0,95.1,89.91968664625917,90.54054054054053,88.36104513064133,409664.0,1318464.0,409664.0,1.0,0.0,0.0,0.0,0.0,501.0,317.0,317.0,7.0,0.0,0.0,1.0
4200000.0,13.0,2.877160796843883E-6,4200000.0,94.69999999999999,88.97230175111524,88.77118644067795,86.71679197994986,419746.0,1341848.0,419746.0,1.0,0.0,0.0,0.0,0.0,511.0,322.0,322.0,7.0,0.0,0.0,1.0
4300000.0,13.359375,3.0092727198886375E-6,4300000.0,93.60000000000001,86.81928832394895,87.35177865612648,84.65227817745806,429744.0,1371984.0,429744.0,1.0,0.0,0.0,0.0,0.0,530.0,333.0,333.0,7.0,0.0,0.0,1.0
4400000.0,13.734375,3.1519769496905307E-6,4400000.0,95.7,91.177677472302,90.87048832271762,89.88235294117646,439634.0,1421792.0,439634.0,1.0,0.0,0.0,0.0,0.0,553.0,349.0,349.0,7.0,0.0,0.0,1.0
4500000.0,14.09375,3.2917370036658313E-6,4500000.0,94.8,89.31259428552637,89.34426229508196,87.58949880668257,449755.0,1453928.0,449755.0,1.0,0.0,0.0,0.0,0.0,559.0,352.0,352.0,7.0,0.0,0.0,1.0
4600000.0,14.46875,3.440147136441535E-6,4600000.0,94.89999999999999,89.57481602616517,89.61303462321791,87.99999999999999,459694.0,1480304.0,459694.0,1.0,0.0,0.0,0.0,0.0,569.0,357.0,357.0,7.0,0.0,0.0,1.0
4700000.0,14.828125,3.5848093426062E-6,4700000.0,94.3,88.25672045226047,88.73517786561264,86.19854721549636,469746.0,1506344.0,469746.0,1.0,0.0,0.0,0.0,0.0,592.0,370.0,370.0,7.0,0.0,0.0,1.0
4800000.0,15.1875,3.733531759482705E-6,4800000.0,96.1,92.02773530445873,91.80672268907563,90.86651053864168,479765.0,1549832.0,479765.0,1.0,0.0,0.0,0.0,0.0,605.0,378.0,378.0,7.0,0.0,0.0,1.0
4900000.0,15.5625,3.889589602800293E-6,4900000.0,95.6,91.01923516540936,91.0204081632653,89.81481481481481,489564.0,1558728.0,489564.0,1.0,0.0,0.0,0.0,0.0,613.0,382.0,382.0,7.0,0.0,0.0,1.0
5000000.0,15.921875,4.042445119315137E-6,5000000.0,95.89999999999999,91.56038237643163,91.78356713426852,90.28436018957345,499551.0,1594056.0,499551.0,1.0,0.0,0.0,0.0,0.0,619.0,385.0,385.0,7.0,0.0,0.0,1.0
5100000.0,16.34375,4.050008913812538E-6,5100000.0,72.5,44.97799119647859,44.44444444444444,44.55645161290322,9587.0,26224.0,509539.0,1.0,0.0,0.0,1.0,30.0,8.0,6.0,6.0,2.0,0.0,0.0,1.0
5200000.0,16.59375,4.057306860987511E-6,5200000.0,73.7,47.38610993302231,45.77319587628866,46.10655737704918,19373.0,69632.0,519325.0,1.0,0.0,0.0,0.0,0.0,22.0,16.0,16.0,2.0,0.0,0.0,1.0
5300000.0,16.859375,4.065673339128908E-6,5300000.0,79.2,58.07803934214769,58.974358974358985,53.982300884955755,29208.0,78496.0,529160.0,1.0,0.0,0.0,0.0,0.0,26.0,18.0,18.0,3.0,0.0,0.0,1.0
5400000.0,17.171875,4.080292516543219E-6,5400000.0,81.3,62.594613624361905,64.51612903225805,62.29838709677418,39090.0,137352.0,539042.0,1.0,0.0,0.0,0.0,0.0,48.0,32.0,32.0,4.0,0.0,0.0,1.0
5500000.0,17.453125,4.094996935843179E-6,5500000.0,78.3,56.61145457599195,56.250000000000014,54.602510460251054,49072.0,158552.0,549024.0,1.0,0.0,0.0,0.0,0.0,55.0,37.0,37.0,4.0,0.0,0.0,1.0
5600000.0,17.75,4.112579626962542E-6,5600000.0,80.10000000000001,60.19331247649606,59.30470347648262,57.478632478632484,58894.0,185248.0,558846.0,1.0,0.0,0.0,0.0,0.0,67.0,43.0,43.0,5.0,0.0,0.0,1.0
5700000.0,18.046875,4.131966238168792E-6,5700000.0,82.6,65.14925731865596,66.08187134502923,64.19753086419752,68899.0,208648.0,568851.0,1.0,0.0,0.0,0.0,0.0,76.0,49.0,49.0,5.0,0.0,0.0,1.0
5800000.0,18.328125,4.151209108790175E-6,5800000.0,82.6,65.05813603229109,65.9491193737769,60.898876404494374,78906.0,220624.0,578858.0,1.0,0.0,0.0,0.0,0.0,82.0,52.0,52.0,5.0,0.0,0.0,1.0
5900000.0,18.625,4.178325050613945E-6,5900000.0,81.6,63.1362995255802,63.05220883534135,61.34453781512603,88951.0,308880.0,588903.0,1.0,0.0,0.0,0.0,0.0,115.0,73.0,73.0,5.0,0.0,0.0,1.0
6000000.0,18.9375,4.213042039838101E-6,6000000.0,82.39999999999999,64.7984511318498,63.179916317991626,65.49019607843137,99209.0,385016.0,599161.0,1.0,0.0,0.0,0.0,0.0,145.0,94.0,94.0,6.0,0.0,0.0,1.0
6100000.0,19.234375,4.249454682899845E-6,6100000.0,82.89999999999999,65.80082078030127,66.07142857142856,66.66666666666666,109184.0,429536.0,609136.0,1.0,0.0,0.0,0.0,0.0,156.0,101.0,101.0,6.0,0.0,0.0,1.0
6200000.0,19.546875,4.288158896896573E-6,6200000.0,83.5,66.99049326205946,67.19681908548706,66.39511201629327,119077.0,434152.0,619029.0,1.0,0.0,0.0,0.0,0.0,158.0,102.0,102.0,6.0,0.0,0.0,1.0
6300000.0,19.890625,4.338278215275042E-6,6300000.0,87.0,74.01091541552547,73.5234215885947,72.1030042918455,129200.0,518712.0,629152.0,1.0,0.0,0.0,0.0,0.0,188.0,123.0,123.0,6.0,0.0,0.0,1.0
6400000.0,20.203125,4.38542642061495E-6,6400000.0,86.1,72.20200145589517,72.79843444227005,72.47524752475248,139331.0,538280.0,639283.0,1.0,0.0,0.0,0.0,0.0,193.0,127.0,127.0,6.0,0.0,0.0,1.0
6500000.0,20.53125,4.438209321556819E-6,6500000.0,84.2,68.36760843103336,67.95131845841784,66.23931623931622,149174.0,576712.0,649126.0,1.0,0.0,0.0,0.0,0.0,212.0,138.0,138.0,6.0,0.0,0.0,1.0
6600000.0,20.84375,4.4899643398821345E-6,6600000.0,84.89999999999999,69.78404597627546,70.45009784735812,68.6070686070686,159202.0,595008.0,659154.0,1.0,0.0,0.0,0.0,0.0,216.0,140.0,140.0,6.0,0.0,0.0,1.0
6700000.0,21.171875,4.546596998504052E-6,6700000.0,85.8,71.59602344328205,71.4859437751004,71.6,169123.0,621896.0,669075.0,1.0,0.0,0.0,0.0,0.0,225.0,146.0,146.0,6.0,0.0,0.0,1.0
6800000.0,21.53125,4.613094012408206E-6,6800000.0,85.8,71.57771693007318,71.31313131313131,70.78189300411523,179147.0,669800.0,679099.0,1.0,0.0,0.0,0.0,0.0,245.0,159.0,159.0,6.0,0.0,0.0,1.0
6900000.0,21.890625,4.687923420634534E-6,6900000.0,86.5,72.99870393778902,73.10756972111554,71.69811320754717,189092.0,759072.0,689044.0,1.0,0.0,0.0,0.0,0.0,278.0,180.0,180.0,6.0,0.0,0.0,1.0
7000000.0,22.21875,4.761553686370865E-6,7000000.0,86.1,72.0355691465819,72.1442885771543,69.65065502183405,199283.0,821400.0,699235.0,1.0,0.0,0.0,0.0,0.0,305.0,198.0,198.0,6.0,0.0,0.0,1.0
7100000.0,22.578125,4.844998119450691E-6,7100000.0,87.5,74.99859992159561,75.86872586872587,74.38524590163934,209324.0,851400.0,709276.0,1.0,0.0,0.0,0.0,0.0,322.0,208.0,208.0,7.0,0.0,0.0,1.0
7200000.0,22.921875,4.9286918106695834E-6,7200000.0,87.1,74.17830978021539,74.09638554216868,73.06889352818371,219208.0,894824.0,719160.0,1.0,0.0,0.0,0.0,0.0,333.0,215.0,215.0,7.0,0.0,0.0,1.0
7300000.0,23.28125,5.0229394239270015E-6,7300000.0,88.2,76.21073258847389,76.6798418972332,74.40347071583514,229186.0,967184.0,729138.0,1.0,0.0,0.0,0.0,0.0,354.0,230.0,230.0,7.0,0.0,0.0,1.0
7400000.0,23.625,5.115432755297256E-6,7400000.0,85.0,69.88471870319583,71.31931166347992,68.15286624203821,239060.0,993432.0,739012.0,1.0,0.0,0.0,0.0,0.0,367.0,238.0,238.0,7.0,0.0,0.0,1.0
7500000.0,24.0,5.221662512566479E-6,7500000.0,87.4,74.79727810603545,76.66666666666666,74.12731006160163,249152.0,1048152.0,749104.0,1.0,0.0,0.0,0.0,0.0,387.0,251.0,251.0,7.0,0.0,0.0,1.0
7600000.0,24.375,5.337902435308528E-6,7600000.0,87.9,75.8042584505127,75.50607287449392,75.65392354124748,259207.0,1151008.0,759159.0,1.0,0.0,0.0,0.0,0.0,431.0,282.0,282.0,7.0,0.0,0.0,1.0
7700000.0,24.765625,5.463452317700203E-6,7700000.0,88.4,76.78328396445441,76.75350701402806,75.93360995850622,269260.0,1195016.0,769212.0,1.0,0.0,0.0,0.0,0.0,446.0,291.0,291.0,7.0,0.0,0.0,1.0
7800000.0,25.140625,5.5898273583605054E-6,7800000.0,87.7,75.13684840350267,75.05070993914808,72.72727272727273,279175.0,1255096.0,779127.0,1.0,0.0,0.0,0.0,0.0,460.0,301.0,301.0,7.0,0.0,0.0,1.0
7900000.0,25.515625,5.719807393486714E-6,7900000.0,89.4,78.77019335146545,79.33723196881091,78.2340862422998,289160.0,1292160.0,789112.0,1.0,0.0,0.0,0.0,0.0,470.0,309.0,309.0,7.0,0.0,0.0,1.0
8000000.0,25.90625,5.857324609274251E-6,8000000.0,88.7,77.3101481868198,76.55601659751038,75.80299785867238,299187.0,1313080.0,799139.0,1.0,0.0,0.0,0.0,0.0,479.0,315.0,315.0,7.0,0.0,0.0,1.0
8100000.0,26.28125,5.994092433765116E-6,8100000.0,87.3,74.51743649424134,75.24366471734892,73.65145228215766,309366.0,1361888.0,809318.0,1.0,0.0,0.0,0.0,0.0,495.0,326.0,326.0,7.0,0.0,0.0,1.0
8200000.0,26.6875,6.145909913660337E-6,8200000.0,88.7,77.39638342134741,77.4,77.57936507936508,319325.0,1396520.0,819277.0,1.0,0.0,0.0,0.0,0.0,511.0,337.0,337.0,7.0,0.0,0.0,1.0
8300000.0,27.078125,6.295683075829098E-6,8300000.0,88.6,77.16931556011279,76.59137577002053,76.3975155279503,329417.0,1433944.0,829369.0,1.0,0.0,0.0,0.0,0.0,522.0,344.0,344.0,7.0,0.0,0.0,1.0
8400000.0,27.484375,6.4525284041236666E-6,8400000.0,90.3,80.61364799181376,80.12295081967213,80.16359918200409,339336.0,1444192.0,839288.0,1.0,0.0,0.0,0.0,0.0,524.0,345.0,345.0,7.0,0.0,0.0,1.0
8500000.0,27.875,6.604483545136947E-6,8500000.0,89.4,78.64238077008322,78.09917355371901,76.90631808278867,349294.0,1455440.0,849246.0,1.0,0.0,0.0,0.0,0.0,530.0,348.0,348.0,7.0,0.0,0.0,1.0
8600000.0,28.296875,6.773791877397645E-6,8600000.0,89.2,78.37413546601736,78.0040733197556,77.59336099585063,359448.0,1502912.0,859400.0,1.0,0.0,0.0,0.0,0.0,558.0,368.0,368.0,7.0,0.0,0.0,1.0
8700000.0,28.71875,6.952160523117829E-6,8700000.0,90.4,80.71359691417551,80.83832335329342,79.1304347826087,369613.0,1585648.0,869565.0,1.0,0.0,0.0,0.0,0.0,577.0,382.0,382.0,7.0,0.0,0.0,1.0
8800000.0,29.125,7.1273171407584505E-6,8800000.0,90.60000000000001,81.19842066733605,81.01010101010101,80.93306288032454,379576.0,1617864.0,879528.0,1.0,0.0,0.0,0.0,0.0,584.0,387.0,387.0,7.0,0.0,0.0,1.0
8900000.0,29.578125,7.325107386956611E-6,8900000.0,92.30000000000001,84.56295108259825,85.10638297872342,83.78947368421053,389555.0,1638456.0,889507.0,1.0,0.0,0.0,0.0,0.0,595.0,394.0,394.0,7.0,0.0,0.0,1.0
9000000.0,29.984375,7.5063932712914205E-6,9000000.0,90.60000000000001,81.04716433318279,82.5278810408922,79.20353982300885,399499.0,1675984.0,899451.0,1.0,0.0,0.0,0.0,0.0,604.0,400.0,400.0,7.0,0.0,0.0,1.0
9100000.0,30.390625,7.690219984700282E-6,9100000.0,90.5,80.9285966659172,81.40900195694717,79.39262472885032,409522.0,1700072.0,909474.0,1.0,0.0,0.0,0.0,0.0,613.0,406.0,406.0,7.0,0.0,0.0,1.0
9200000.0,30.796875,7.87512037075228E-6,9200000.0,90.8,81.60000000000001,81.85404339250493,81.60000000000001,419406.0,1710240.0,919358.0,1.0,0.0,0.0,0.0,0.0,617.0,408.0,408.0,7.0,0.0,0.0,1.0
9300000.0,31.21875,8.07158694240368E-6,9300000.0,90.3,80.5959639605038,80.60000000000001,80.08213552361397,429296.0,1750944.0,929248.0,1.0,0.0,0.0,0.0,0.0,638.0,423.0,423.0,7.0,0.0,0.0,1.0
9400000.0,31.640625,8.27179917703486E-6,9400000.0,91.60000000000001,83.19858868144925,83.68932038834951,84.0909090909091,439423.0,1785096.0,939375.0,1.0,0.0,0.0,0.0,0.0,648.0,428.0,428.0,7.0,0.0,0.0,1.0
9500000.0,32.046875,8.466341597441997E-6,9500000.0,88.4,76.77073112121273,77.25490196078432,76.75350701402806,449383.0,1801624.0,949335.0,1.0,0.0,0.0,0.0,0.0,652.0,430.0,430.0,7.0,0.0,0.0,1.0
9600000.0,32.46875,8.669758163806465E-6,9600000.0,88.9,77.79946718721249,77.84431137724552,77.57575757575758,459324.0,1814296.0,959276.0,1.0,0.0,0.0,0.0,0.0,660.0,434.0,434.0,7.0,0.0,0.0,1.0
9700000.0,32.890625,8.876626153424796E-6,9700000.0,90.2,80.39058748199136,81.85185185185185,79.4979079497908,469332.0,1845784.0,969284.0,1.0,0.0,0.0,0.0,0.0,673.0,442.0,442.0,7.0,0.0,0.0,1.0
9800000.0,33.328125,9.097775683686551E-6,9800000.0,90.8,81.59536203123187,81.85404339250493,81.33874239350914,479120.0,1904056.0,979072.0,1.0,0.0,0.0,0.0,0.0,693.0,455.0,455.0,7.0,0.0,0.0,1.0
9900000.0,33.75,9.31388384843659E-6,9900000.0,91.60000000000001,83.10301128477461,83.33333333333334,81.69934640522877,488930.0,1930184.0,988882.0,1.0,0.0,0.0,0.0,0.0,714.0,470.0,470.0,8.0,0.0,0.0,1.0
1.0E7,34.1875,9.544607633466108E-6,1.0E7,90.8,81.52617860972447,81.9253438113949,80.71278825995807,498889.0,1988344.0,998841.0,1.0,0.0,0.0,0.0,0.0,733.0,481.0,481.0,8.0,0.0,0.0,1.0
