learning evaluation instances,evaluation time (cpu seconds),model cost (RAM-Hours),classified instances,classifications correct (percent),Kappa Statistic (percent),Kappa Temporal Statistic (percent),Kappa M Statistic (percent),model training instances,model serialized size (bytes),labeling cost,newThreshold,maxPosterior,accuracyBaseLearner (percent),Change detected,Warning detected,tree size (nodes),tree size (leaves),active learning leaves,tree depth,active leaf byte size estimate,inactive leaf byte size estimate,byte size estimate overhead
100000.0,0.25,0.0,100000.0,74.5,48.04273943128194,45.512820512820504,43.45898004434589,9900.0,0.0,0.0,1.0,0.0,?,0.0,0.0,16.0,13.0,13.0,2.0,0.0,0.0,1.0
200000.0,0.515625,0.0,200000.0,81.3,61.35533255079603,61.914460285132364,57.40318906605921,19900.0,0.0,0.0,1.0,0.0,?,0.0,0.0,51.0,41.0,41.0,3.0,0.0,0.0,1.0
300000.0,0.75,0.0,300000.0,82.39999999999999,64.17448653489933,63.1027253668763,61.3186813186813,29900.0,0.0,0.0,1.0,0.0,?,0.0,0.0,72.0,56.0,56.0,4.0,0.0,0.0,1.0
400000.0,1.0,0.0,400000.0,87.9,74.99028548279084,74.73903966597078,71.7948717948718,39900.0,0.0,0.0,1.0,0.0,?,0.0,0.0,109.0,82.0,82.0,4.0,0.0,0.0,1.0
500000.0,1.25,0.0,500000.0,91.0,81.86069009996775,80.81023454157783,80.76923076923077,49900.0,0.0,0.0,1.0,0.0,?,0.0,0.0,131.0,96.0,96.0,4.0,0.0,0.0,1.0
600000.0,1.5,0.0,600000.0,89.4,78.45528455284553,78.58585858585859,76.44444444444444,59900.0,0.0,0.0,1.0,0.0,?,0.0,0.0,148.0,109.0,109.0,4.0,0.0,0.0,1.0
700000.0,1.71875,0.0,700000.0,91.0,81.71029100959194,81.4814814814815,79.54545454545455,69900.0,0.0,0.0,1.0,0.0,?,0.0,0.0,169.0,124.0,124.0,4.0,0.0,0.0,1.0
800000.0,1.96875,0.0,800000.0,91.9,83.48691184865041,82.83898305084747,81.59090909090911,79900.0,0.0,0.0,1.0,0.0,?,0.0,0.0,179.0,129.0,129.0,4.0,0.0,0.0,1.0
900000.0,2.171875,0.0,900000.0,91.2,82.06716661232475,82.18623481781377,80.09049773755656,89900.0,0.0,0.0,1.0,0.0,?,0.0,0.0,197.0,141.0,141.0,4.0,0.0,0.0,1.0
1000000.0,2.390625,0.0,1000000.0,92.5,84.7593191683059,84.9397590361446,83.44370860927152,99900.0,0.0,0.0,1.0,0.0,?,0.0,0.0,206.0,147.0,147.0,4.0,0.0,0.0,1.0
1100000.0,2.578125,0.0,1100000.0,92.7,85.14968305761924,85.3413654618474,83.81374722838139,109800.0,0.0,0.0,1.0,0.0,?,0.0,0.0,224.0,159.0,159.0,5.0,0.0,0.0,1.0
1200000.0,2.8125,0.0,1200000.0,92.5,84.83169245953096,84.50413223140497,83.76623376623378,119800.0,0.0,0.0,1.0,0.0,?,0.0,0.0,226.0,160.0,160.0,5.0,0.0,0.0,1.0
1300000.0,3.0,0.0,1300000.0,91.10000000000001,81.99474003641514,82.68482490272375,80.73593073593074,129800.0,0.0,0.0,1.0,0.0,?,0.0,0.0,231.0,164.0,164.0,5.0,0.0,0.0,1.0
1400000.0,3.234375,0.0,1400000.0,91.8,83.20498115680813,83.5010060362173,81.36363636363637,139800.0,0.0,0.0,1.0,0.0,?,0.0,0.0,235.0,166.0,166.0,5.0,0.0,0.0,1.0
1500000.0,3.46875,0.0,1500000.0,94.19999999999999,88.19372068785825,88.18737270875762,86.93693693693693,149800.0,0.0,0.0,1.0,0.0,?,0.0,0.0,239.0,168.0,168.0,5.0,0.0,0.0,1.0
1600000.0,3.6875,0.0,1600000.0,92.30000000000001,83.81033279227607,82.65765765765767,81.17359413202935,159800.0,0.0,0.0,1.0,0.0,?,0.0,0.0,245.0,171.0,171.0,5.0,0.0,0.0,1.0
1700000.0,3.90625,0.0,1700000.0,90.8,81.1178247734139,80.04338394793928,79.27927927927928,169800.0,0.0,0.0,1.0,0.0,?,0.0,0.0,247.0,172.0,172.0,5.0,0.0,0.0,1.0
1800000.0,4.125,0.0,1800000.0,89.5,78.35015835312747,78.48360655737704,75.75057736720555,179800.0,0.0,0.0,1.0,0.0,?,0.0,0.0,258.0,179.0,179.0,5.0,0.0,0.0,1.0
1900000.0,4.34375,0.0,1900000.0,92.9,85.35538962914072,85.14644351464436,83.52668213457078,189800.0,0.0,0.0,1.0,0.0,?,0.0,0.0,264.0,182.0,182.0,5.0,0.0,0.0,1.0
2000000.0,4.578125,0.0,2000000.0,92.4,84.51034342199124,84.8303393213573,82.92134831460675,199800.0,0.0,0.0,1.0,0.0,?,0.0,0.0,269.0,186.0,186.0,5.0,0.0,0.0,1.0
2100000.0,4.78125,0.0,2100000.0,90.9,81.26492629498478,82.56704980842913,78.93518518518519,209700.0,0.0,0.0,1.0,0.0,?,0.0,0.0,275.0,189.0,189.0,5.0,0.0,0.0,1.0
2200000.0,5.0,0.0,2200000.0,90.60000000000001,80.73809962910596,81.12449799196789,78.87640449438203,219700.0,0.0,0.0,1.0,0.0,?,0.0,0.0,275.0,189.0,189.0,5.0,0.0,0.0,1.0
2300000.0,5.21875,0.0,2300000.0,90.3,80.39294954721863,80.40404040404042,79.22912205567452,229700.0,0.0,0.0,1.0,0.0,?,0.0,0.0,275.0,189.0,189.0,5.0,0.0,0.0,1.0
2400000.0,5.4375,0.0,2400000.0,91.60000000000001,82.72848771460883,83.03030303030303,80.6896551724138,239700.0,0.0,0.0,1.0,0.0,?,0.0,0.0,279.0,191.0,191.0,5.0,0.0,0.0,1.0
2500000.0,5.65625,0.0,2500000.0,90.7,80.99682871808285,80.58455114822547,79.28730512249443,249700.0,0.0,0.0,1.0,0.0,?,0.0,0.0,288.0,197.0,197.0,5.0,0.0,0.0,1.0
2600000.0,5.890625,0.0,2600000.0,91.10000000000001,81.69989472298987,81.68724279835392,79.72665148063783,259700.0,0.0,0.0,1.0,0.0,?,0.0,0.0,297.0,203.0,203.0,5.0,0.0,0.0,1.0
2700000.0,6.09375,0.0,2700000.0,91.5,82.54691799104761,82.36514522821578,80.72562358276645,269700.0,0.0,0.0,1.0,0.0,?,0.0,0.0,314.0,216.0,216.0,5.0,0.0,0.0,1.0
2800000.0,6.34375,0.0,2800000.0,91.2,81.7965181703846,81.74273858921163,79.34272300469485,279700.0,0.0,0.0,1.0,0.0,?,0.0,0.0,318.0,218.0,218.0,5.0,0.0,0.0,1.0
2900000.0,6.5625,0.0,2900000.0,91.4,82.62654340939946,83.36557059961316,81.62393162393164,289700.0,0.0,0.0,1.0,0.0,?,0.0,0.0,324.0,221.0,221.0,5.0,0.0,0.0,1.0
3000000.0,6.75,0.0,3000000.0,90.60000000000001,80.75348075348076,79.74137931034483,79.11111111111111,299700.0,0.0,0.0,1.0,0.0,?,0.0,0.0,331.0,226.0,226.0,5.0,0.0,0.0,1.0
3100000.0,6.96875,0.0,3100000.0,90.3,80.26128362704002,81.0546875,78.9587852494577,309600.0,0.0,0.0,1.0,0.0,?,0.0,0.0,335.0,228.0,228.0,5.0,0.0,0.0,1.0
3200000.0,7.171875,0.0,3200000.0,93.2,86.05339907378163,86.34538152610443,84.65011286681717,319600.0,0.0,0.0,1.0,0.0,?,0.0,0.0,337.0,229.0,229.0,5.0,0.0,0.0,1.0
3300000.0,7.390625,0.0,3300000.0,94.3,88.23752765212797,88.57715430861722,86.68224299065419,329600.0,0.0,0.0,1.0,0.0,?,0.0,0.0,339.0,230.0,230.0,5.0,0.0,0.0,1.0
3400000.0,7.625,0.0,3400000.0,92.60000000000001,84.6369121023763,84.80492813141684,82.50591016548464,339600.0,0.0,0.0,1.0,0.0,?,0.0,0.0,343.0,232.0,232.0,5.0,0.0,0.0,1.0
3500000.0,7.84375,0.0,3500000.0,93.10000000000001,85.88910884609723,86.49706457925636,84.6325167037862,349600.0,0.0,0.0,1.0,0.0,?,0.0,0.0,345.0,233.0,233.0,5.0,0.0,0.0,1.0
3600000.0,8.0625,0.0,3600000.0,92.0,83.64416239711157,84.18972332015812,82.26164079822618,359600.0,0.0,0.0,1.0,0.0,?,0.0,0.0,345.0,233.0,233.0,5.0,0.0,0.0,1.0
3700000.0,8.28125,0.0,3700000.0,91.0,81.65481703737527,81.9277108433735,80.34934497816595,369600.0,0.0,0.0,1.0,0.0,?,0.0,0.0,347.0,234.0,234.0,5.0,0.0,0.0,1.0
3800000.0,8.484375,0.0,3800000.0,91.4,82.341152506735,81.81818181818183,80.54298642533936,379600.0,0.0,0.0,1.0,0.0,?,0.0,0.0,349.0,235.0,235.0,5.0,0.0,0.0,1.0
3900000.0,8.671875,0.0,3900000.0,91.60000000000001,82.66697480933672,83.4319526627219,80.82191780821918,389600.0,0.0,0.0,1.0,0.0,?,0.0,0.0,351.0,236.0,236.0,5.0,0.0,0.0,1.0
4000000.0,8.90625,0.0,4000000.0,90.8,81.25020380213259,81.45161290322581,79.82456140350878,399600.0,0.0,0.0,1.0,0.0,?,0.0,0.0,355.0,238.0,238.0,5.0,0.0,0.0,1.0
4100000.0,9.125,0.0,4100000.0,90.5,80.69450992505406,81.29921259842521,79.21225382932167,409500.0,0.0,0.0,1.0,0.0,?,0.0,0.0,355.0,238.0,238.0,5.0,0.0,0.0,1.0
4200000.0,9.359375,0.0,4200000.0,90.5,80.64447776763595,81.07569721115539,79.30283224400871,419500.0,0.0,0.0,1.0,0.0,?,0.0,0.0,361.0,241.0,241.0,6.0,0.0,0.0,1.0
4300000.0,9.59375,0.0,4300000.0,88.4,76.69213118311546,76.47058823529413,76.18069815195072,429500.0,0.0,0.0,1.0,0.0,?,0.0,0.0,365.0,243.0,243.0,6.0,0.0,0.0,1.0
4400000.0,9.8125,0.0,4400000.0,90.9,81.4138542355988,82.22656250000001,79.82261640798227,439500.0,0.0,0.0,1.0,0.0,?,0.0,0.0,367.0,244.0,244.0,6.0,0.0,0.0,1.0
4500000.0,10.03125,0.0,4500000.0,89.7,78.71900826446281,78.27004219409282,76.37614678899082,449500.0,0.0,0.0,1.0,0.0,?,0.0,0.0,372.0,248.0,248.0,6.0,0.0,0.0,1.0
4600000.0,10.234375,0.0,4600000.0,90.60000000000001,80.87059158713039,80.93306288032454,79.520697167756,459500.0,0.0,0.0,1.0,0.0,?,0.0,0.0,372.0,248.0,248.0,6.0,0.0,0.0,1.0
4700000.0,10.4375,0.0,4700000.0,92.4,84.1083974573436,83.79530916844351,81.90476190476191,469500.0,0.0,0.0,1.0,0.0,?,0.0,0.0,379.0,253.0,253.0,6.0,0.0,0.0,1.0
4800000.0,10.625,0.0,4800000.0,91.5,82.54634458854548,83.03393213572855,80.81264108352146,479500.0,0.0,0.0,1.0,0.0,?,0.0,0.0,385.0,256.0,256.0,6.0,0.0,0.0,1.0
4900000.0,10.8125,0.0,4900000.0,91.8,83.18652297295081,83.36713995943205,81.44796380090499,489500.0,0.0,0.0,1.0,0.0,?,0.0,0.0,385.0,256.0,256.0,6.0,0.0,0.0,1.0
5000000.0,11.015625,0.0,5000000.0,91.60000000000001,82.7149824063214,82.75154004106777,80.86560364464694,499500.0,0.0,0.0,1.0,0.0,?,0.0,0.0,387.0,257.0,257.0,6.0,0.0,0.0,1.0
5100000.0,11.296875,0.0,5100000.0,76.7,47.43254218933309,50.42553191489362,37.1967654986523,9498.0,0.0,0.0,1.0,0.0,?,1.0,4.0,15.0,11.0,11.0,2.0,0.0,0.0,1.0
5200000.0,11.53125,0.0,5200000.0,79.4,53.660588555515076,57.786885245901644,45.931758530183735,19498.0,0.0,0.0,1.0,0.0,?,0.0,0.0,27.0,17.0,17.0,3.0,0.0,0.0,1.0
5300000.0,11.734375,0.0,5300000.0,79.9,55.25378450578808,55.333333333333336,46.11260053619304,29498.0,0.0,0.0,1.0,0.0,?,0.0,0.0,47.0,30.0,30.0,5.0,0.0,0.0,1.0
5400000.0,11.921875,0.0,5400000.0,79.0,52.0930763088856,53.43680709534369,42.14876033057852,39498.0,0.0,0.0,1.0,0.0,?,0.0,0.0,53.0,33.0,33.0,7.0,0.0,0.0,1.0
5500000.0,12.109375,0.0,5500000.0,80.60000000000001,56.727337615988596,59.498956158663894,46.703296703296715,49498.0,0.0,0.0,1.0,0.0,?,0.0,0.0,70.0,43.0,43.0,8.0,0.0,0.0,1.0
5600000.0,12.359375,0.0,5600000.0,83.0,63.60382117058674,65.86345381526102,56.52173913043478,59498.0,0.0,0.0,1.0,0.0,?,0.0,21.0,86.0,54.0,54.0,8.0,0.0,0.0,1.0
5700000.0,12.59375,0.0,5700000.0,83.2,63.452836756004174,62.41610738255032,55.0802139037433,69498.0,0.0,0.0,1.0,0.0,?,0.0,0.0,98.0,63.0,63.0,8.0,0.0,0.0,1.0
5800000.0,12.828125,0.0,5800000.0,82.5,61.770360013981104,63.31236897274633,52.95698924731182,79498.0,0.0,0.0,1.0,0.0,?,0.0,0.0,105.0,68.0,68.0,8.0,0.0,0.0,1.0
5900000.0,13.03125,0.0,5900000.0,81.0,59.19945026627729,60.00000000000001,51.2820512820513,89498.0,0.0,0.0,1.0,0.0,?,0.0,0.0,112.0,73.0,73.0,8.0,0.0,0.0,1.0
6000000.0,13.28125,0.0,6000000.0,83.0,63.68142197914886,64.1350210970464,55.95854922279791,99498.0,0.0,0.0,1.0,0.0,?,0.0,0.0,125.0,81.0,81.0,8.0,0.0,0.0,1.0
6100000.0,13.515625,0.0,6100000.0,83.0,63.66605255171175,64.94845360824742,57.39348370927318,109398.0,0.0,0.0,1.0,0.0,?,0.0,0.0,134.0,87.0,87.0,9.0,0.0,0.0,1.0
6200000.0,13.765625,0.0,6200000.0,80.9,58.76511226252159,58.02197802197803,50.389610389610404,119398.0,0.0,0.0,1.0,0.0,?,0.0,0.0,157.0,103.0,103.0,9.0,0.0,0.0,1.0
6300000.0,14.0,0.0,6300000.0,83.8,64.10656362443943,64.3956043956044,53.17919075144507,129398.0,0.0,0.0,1.0,0.0,?,0.0,0.0,173.0,114.0,114.0,9.0,0.0,0.0,1.0
6400000.0,14.234375,0.0,6400000.0,84.89999999999999,67.33524851169874,67.5268817204301,59.07859078590785,139398.0,0.0,0.0,1.0,0.0,?,0.0,0.0,189.0,125.0,125.0,9.0,0.0,0.0,1.0
6500000.0,14.5,0.0,6500000.0,83.89999999999999,66.02601436614249,66.66666666666666,59.03307888040712,149398.0,0.0,0.0,1.0,0.0,?,0.0,0.0,209.0,141.0,141.0,9.0,0.0,0.0,1.0
6600000.0,14.734375,0.0,6600000.0,85.8,69.15189433437608,69.19739696312364,62.23404255319148,159398.0,0.0,0.0,1.0,0.0,?,0.0,0.0,223.0,151.0,151.0,9.0,0.0,0.0,1.0
6700000.0,15.0,0.0,6700000.0,86.9,72.18471050865884,70.95343680709534,65.34391534391534,169398.0,0.0,0.0,1.0,0.0,?,0.0,0.0,242.0,165.0,165.0,9.0,0.0,0.0,1.0
6800000.0,15.265625,0.0,6800000.0,86.2,69.40770659773794,69.46902654867256,61.344537815126046,179398.0,0.0,0.0,1.0,0.0,?,0.0,0.0,260.0,177.0,177.0,9.0,0.0,0.0,1.0
6900000.0,15.484375,0.0,6900000.0,86.4,70.87544971732054,70.75268817204301,64.3979057591623,189398.0,0.0,0.0,1.0,0.0,?,0.0,0.0,272.0,186.0,186.0,9.0,0.0,0.0,1.0
7000000.0,15.765625,0.0,7000000.0,86.5,71.64842365235508,71.99170124481327,66.16541353383458,199398.0,0.0,0.0,1.0,0.0,?,0.0,0.0,296.0,204.0,204.0,10.0,0.0,0.0,1.0
7100000.0,16.015625,0.0,7100000.0,86.6,70.53235283769044,69.19540229885057,62.98342541436463,209298.0,0.0,0.0,1.0,0.0,?,0.0,0.0,308.0,210.0,210.0,10.0,0.0,0.0,1.0
7200000.0,16.3125,0.0,7200000.0,87.8,72.88213955473361,74.20718816067652,65.73033707865167,219298.0,0.0,0.0,1.0,0.0,?,0.0,0.0,325.0,223.0,223.0,10.0,0.0,0.0,1.0
7300000.0,16.578125,0.0,7300000.0,88.2,74.69581365825624,74.67811158798283,69.50904392764858,229298.0,0.0,0.0,1.0,0.0,?,0.0,0.0,333.0,227.0,227.0,10.0,0.0,0.0,1.0
7400000.0,16.8125,0.0,7400000.0,88.1,74.17512304794313,74.13043478260869,68.60158311345647,239298.0,0.0,0.0,1.0,0.0,?,0.0,0.0,345.0,236.0,236.0,10.0,0.0,0.0,1.0
7500000.0,17.0625,0.0,7500000.0,86.2,70.94137316751666,71.77914110429448,66.42335766423358,249298.0,0.0,0.0,1.0,0.0,?,0.0,0.0,357.0,245.0,245.0,10.0,0.0,0.0,1.0
7600000.0,17.296875,0.0,7600000.0,86.6,70.6725613359305,70.02237136465324,62.880886426592795,259298.0,0.0,0.0,1.0,0.0,?,0.0,0.0,357.0,245.0,245.0,10.0,0.0,0.0,1.0
7700000.0,17.5625,0.0,7700000.0,87.1,72.15867397591401,72.43589743589743,65.13513513513513,269298.0,0.0,0.0,1.0,0.0,?,0.0,0.0,366.0,251.0,251.0,10.0,0.0,0.0,1.0
7800000.0,17.828125,0.0,7800000.0,88.5,75.03798567397439,74.66960352422907,68.83468834688347,279298.0,0.0,0.0,1.0,0.0,?,0.0,0.0,371.0,255.0,255.0,10.0,0.0,0.0,1.0
7900000.0,18.0625,0.0,7900000.0,87.2,72.48400632867855,71.80616740088105,65.59139784946237,289298.0,0.0,0.0,1.0,0.0,?,0.0,0.0,375.0,257.0,257.0,10.0,0.0,0.0,1.0
8000000.0,18.328125,0.0,8000000.0,87.3,72.35693079220248,73.54166666666666,66.0427807486631,299298.0,0.0,0.0,1.0,0.0,?,0.0,0.0,380.0,261.0,261.0,10.0,0.0,0.0,1.0
8100000.0,18.578125,0.0,8100000.0,86.0,68.80125508093846,70.46413502109704,60.67415730337078,309198.0,0.0,0.0,1.0,0.0,?,0.0,0.0,382.0,262.0,262.0,10.0,0.0,0.0,1.0
8200000.0,18.8125,0.0,8200000.0,87.5,73.46072186836517,72.16035634743875,68.75,319198.0,0.0,0.0,1.0,0.0,?,0.0,0.0,382.0,262.0,262.0,10.0,0.0,0.0,1.0
8300000.0,19.078125,0.0,8300000.0,86.4,70.6132750208516,71.72557172557173,64.49086161879896,329198.0,0.0,0.0,1.0,0.0,?,0.0,0.0,384.0,263.0,263.0,10.0,0.0,0.0,1.0
8400000.0,19.34375,0.0,8400000.0,85.5,67.672894279217,68.4782608695652,57.97101449275361,339198.0,0.0,0.0,1.0,0.0,?,0.0,0.0,390.0,266.0,266.0,10.0,0.0,0.0,1.0
8500000.0,19.59375,0.0,8500000.0,87.0,71.53517376681614,70.72072072072072,64.67391304347827,349198.0,0.0,0.0,1.0,0.0,?,0.0,0.0,390.0,266.0,266.0,10.0,0.0,0.0,1.0
8600000.0,19.8125,0.0,8600000.0,86.0,69.72423099546728,71.83098591549295,63.541666666666664,359198.0,0.0,0.0,1.0,0.0,?,0.0,0.0,400.0,274.0,274.0,10.0,0.0,0.0,1.0
8700000.0,20.0625,0.0,8700000.0,86.8,71.60129945569157,71.73447537473233,65.71428571428571,369198.0,0.0,0.0,1.0,0.0,?,0.0,0.0,404.0,276.0,276.0,10.0,0.0,0.0,1.0
8800000.0,20.34375,0.0,8800000.0,86.0,69.9828473413379,71.13402061855669,63.1578947368421,379198.0,0.0,0.0,1.0,0.0,?,0.0,0.0,404.0,276.0,276.0,10.0,0.0,0.0,1.0
8900000.0,20.59375,0.0,8900000.0,85.9,69.97086535021212,70.3781512605042,64.03061224489795,389198.0,0.0,0.0,1.0,0.0,?,0.0,0.0,406.0,277.0,277.0,10.0,0.0,0.0,1.0
9000000.0,20.84375,0.0,9000000.0,85.8,68.78187766013578,70.23060796645701,62.23404255319148,399198.0,0.0,0.0,1.0,0.0,?,0.0,0.0,408.0,278.0,278.0,11.0,0.0,0.0,1.0
9100000.0,21.078125,0.0,9100000.0,88.6,74.88378241424134,76.44628099173553,67.88732394366197,409098.0,0.0,0.0,1.0,0.0,?,0.0,0.0,408.0,278.0,278.0,11.0,0.0,0.0,1.0
9200000.0,21.328125,0.0,9200000.0,87.8,73.5105089456314,74.04255319148936,68.22916666666666,419098.0,0.0,0.0,1.0,0.0,?,0.0,0.0,415.0,283.0,283.0,11.0,0.0,0.0,1.0
9300000.0,21.546875,0.0,9300000.0,86.9,72.49840448758859,73.48178137651821,68.28087167070218,429098.0,0.0,0.0,1.0,0.0,?,0.0,0.0,417.0,284.0,284.0,11.0,0.0,0.0,1.0
9400000.0,21.796875,0.0,9400000.0,86.2,70.82662134222909,72.50996015936255,65.75682382133995,439098.0,0.0,0.0,1.0,0.0,?,0.0,0.0,417.0,284.0,284.0,11.0,0.0,0.0,1.0
9500000.0,22.0625,0.0,9500000.0,87.2,72.74960721113519,73.93075356415478,67.75818639798489,449098.0,0.0,0.0,1.0,0.0,?,0.0,0.0,424.0,289.0,289.0,11.0,0.0,0.0,1.0
9600000.0,22.328125,0.0,9600000.0,89.2,76.94977184542688,77.7319587628866,72.51908396946565,459098.0,0.0,0.0,1.0,0.0,?,0.0,0.0,433.0,295.0,295.0,11.0,0.0,0.0,1.0
9700000.0,22.546875,0.0,9700000.0,88.9,75.9158486734189,76.58227848101265,70.24128686327077,469098.0,0.0,0.0,1.0,0.0,?,0.0,0.0,437.0,297.0,297.0,11.0,0.0,0.0,1.0
9800000.0,22.828125,0.0,9800000.0,86.0,70.23746253109123,70.58823529411764,64.55696202531645,479098.0,0.0,0.0,1.0,0.0,?,0.0,0.0,444.0,302.0,302.0,11.0,0.0,0.0,1.0
9900000.0,23.109375,0.0,9900000.0,85.5,67.86062594201613,68.06167400881057,58.80681818181818,489098.0,0.0,0.0,1.0,0.0,?,0.0,0.0,448.0,304.0,304.0,11.0,0.0,0.0,1.0
1.0E7,23.375,0.0,1.0E7,86.3,70.47642855295709,71.69421487603306,64.78149100257069,499098.0,0.0,0.0,1.0,0.0,?,0.0,0.0,448.0,304.0,304.0,11.0,0.0,0.0,1.0
