learning evaluation instances,evaluation time (cpu seconds),model cost (RAM-Hours),classified instances,classifications correct (percent),Kappa Statistic (percent),Kappa Temporal Statistic (percent),Kappa M Statistic (percent),model training instances,model serialized size (bytes),labeling cost,newThreshold,maxPosterior,accuracyBaseLearner (percent),Change detected,Warning detected
100000.0,0.140625,5.8684963732957844E-9,100000.0,64.3,0.0,22.052401746724886,0.0,14267.0,9232.0,0.0,1.0,0.0,?,4.0,70.0
200000.0,0.296875,1.1804060906999641E-8,200000.0,62.1,0.0,19.532908704883223,0.0,34267.0,9232.0,0.0,1.0,0.0,?,0.0,4.0
300000.0,0.453125,1.7192796804010868E-8,300000.0,61.8,0.0,22.828282828282827,0.0,54267.0,9232.0,0.0,1.0,0.0,?,0.0,14.0
400000.0,0.609375,2.199945609188742E-8,400000.0,63.4,0.0,25.760649087221093,0.0,74267.0,9232.0,0.0,1.0,0.0,?,0.0,0.0
500000.0,0.765625,2.62240387706293E-8,500000.0,60.699999999999996,0.0,17.782426778242673,0.0,94267.0,9232.0,0.0,1.0,0.0,?,0.0,0.0
600000.0,0.921875,2.98345306267341E-8,600000.0,60.699999999999996,0.0,18.124999999999993,0.0,114267.0,9232.0,0.0,1.0,0.0,?,0.0,61.0
700000.0,1.0625,3.2560104349007216E-8,700000.0,63.7,0.0,21.086956521739125,0.0,134267.0,9232.0,0.0,1.0,0.0,?,0.0,0.0
800000.0,1.21875,3.500644298684267E-8,800000.0,64.0,0.0,22.413793103448274,0.0,154267.0,9232.0,0.0,1.0,0.0,?,0.0,0.0
900000.0,1.359375,3.668427881267337E-8,900000.0,61.1,0.0,19.793814432989688,0.0,174267.0,9232.0,0.0,1.0,0.0,?,0.0,0.0
1000000.0,1.515625,3.796646423223947E-8,1000000.0,60.8,0.0,17.299578059071724,0.0,194267.0,9232.0,0.0,1.0,0.0,?,0.0,0.0
1100000.0,1.671875,4.4493159900108986E-8,1100000.0,61.5,0.0,17.20430107526881,0.0,214067.0,9232.0,0.0,1.0,0.0,?,0.0,0.0
1200000.0,1.796875,4.9248855147096857E-8,1200000.0,63.2,0.0,23.492723492723492,0.0,234067.0,9232.0,0.0,1.0,0.0,?,0.0,0.0
1300000.0,1.953125,5.461139759669702E-8,1300000.0,60.4,0.0,22.957198443579767,0.0,254067.0,9232.0,0.0,1.0,0.0,?,0.0,0.0
1400000.0,2.09375,5.891381685311596E-8,1400000.0,63.800000000000004,0.0,16.589861751152085,0.0,274067.0,9232.0,0.0,1.0,0.0,?,0.0,0.0
1500000.0,2.234375,6.26923671613137E-8,1500000.0,61.3,0.0,13.808463251670366,0.0,294067.0,9232.0,0.0,1.0,0.0,?,0.0,0.0
1600000.0,2.390625,6.630867978350985E-8,1600000.0,61.1,0.0,15.434782608695643,0.0,314067.0,9232.0,0.0,1.0,0.0,?,0.0,0.0
1700000.0,2.53125,6.903949219526517E-8,1700000.0,61.1,0.0,17.05756929637526,0.0,334067.0,9232.0,0.0,1.0,0.0,?,0.0,0.0
1800000.0,2.6875,7.149165159919196E-8,1800000.0,61.6,0.0,20.98765432098765,0.0,354067.0,9232.0,0.0,1.0,0.0,?,0.0,0.0
1900000.0,2.84375,7.336173439398408E-8,1900000.0,61.3,0.0,16.77419354838709,0.0,374067.0,9232.0,0.0,1.0,0.0,?,0.0,0.0
2000000.0,3.0,7.464974057964153E-8,2000000.0,62.5,0.0,19.181034482758616,0.0,394067.0,9232.0,0.0,1.0,0.0,?,0.0,0.0
2100000.0,3.140625,8.05290053702063E-8,2100000.0,61.7,0.0,22.312373225152125,0.0,413867.0,9232.0,0.0,1.0,0.0,?,0.0,0.0
2200000.0,3.265625,8.528935723006724E-8,2200000.0,64.0,0.0,24.369747899159663,0.0,433867.0,9232.0,0.0,1.0,0.0,?,0.0,0.0
2300000.0,3.421875,9.065772044575876E-8,2300000.0,63.4,0.0,16.247139588100698,0.0,453867.0,9232.0,0.0,1.0,0.0,?,0.0,0.0
2400000.0,3.5625,9.496537839165991E-8,2400000.0,60.3,0.0,20.281124497991964,0.0,473867.0,9232.0,0.0,1.0,0.0,?,0.0,0.0
2500000.0,3.71875,9.916958838908208E-8,2500000.0,60.0,0.0,17.864476386036955,0.0,493867.0,9232.0,0.0,1.0,0.0,?,0.0,0.0
2600000.0,3.859375,1.0242950843854083E-7,2600000.0,59.4,0.0,12.499999999999988,0.0,513867.0,9232.0,0.0,1.0,0.0,?,0.0,0.0
2700000.0,4.0,1.0516555953977837E-7,2700000.0,63.1,0.0,16.70428893905191,0.0,533867.0,9232.0,0.0,1.0,0.0,?,0.0,0.0
2800000.0,4.140625,1.073777416927947E-7,2800000.0,62.9,0.0,19.172113289760343,0.0,553867.0,9232.0,0.0,1.0,0.0,?,0.0,0.0
2900000.0,4.296875,1.0925364525367818E-7,2900000.0,63.0,0.0,24.643584521384927,0.0,573867.0,9232.0,0.0,1.0,0.0,?,0.0,0.0
3000000.0,4.4375,1.104180895102521E-7,3000000.0,61.3,0.0,16.59482758620689,0.0,593867.0,9232.0,0.0,1.0,0.0,?,0.0,0.0
3100000.0,4.609375,1.1761026043030953E-7,3100000.0,60.4,0.0,16.455696202531637,0.0,613667.0,9232.0,0.0,1.0,0.0,?,0.0,0.0
3200000.0,4.765625,1.2356652102122706E-7,3200000.0,62.5,0.0,21.71189979123173,0.0,633667.0,9232.0,0.0,1.0,0.0,?,0.0,0.0
3300000.0,4.921875,1.2894070500300994E-7,3300000.0,62.1,0.0,21.369294605809124,0.0,653667.0,9232.0,0.0,1.0,0.0,?,0.0,0.0
3400000.0,5.0625,1.332536016383933E-7,3400000.0,62.1,0.0,21.205821205821202,0.0,673667.0,9232.0,0.0,1.0,0.0,?,0.0,0.0
3500000.0,5.21875,1.3746363240190682E-7,3500000.0,60.5,0.0,12.416851441241674,0.0,693667.0,9232.0,0.0,1.0,0.0,?,0.0,0.0
3600000.0,5.359375,1.4072879114084776E-7,3600000.0,61.9,0.0,16.079295154185015,0.0,713667.0,9232.0,0.0,1.0,0.0,?,0.0,0.0
3700000.0,5.515625,1.4377466868609194E-7,3700000.0,64.0,0.0,21.739130434782606,0.0,733667.0,9232.0,0.0,1.0,0.0,?,0.0,0.0
3800000.0,5.65625,1.4599208952859047E-7,3800000.0,63.2,0.0,17.673378076062633,0.0,753667.0,9232.0,0.0,1.0,0.0,?,0.0,0.0
3900000.0,5.796875,1.476856414228678E-7,3900000.0,63.5,0.0,23.157894736842103,0.0,773667.0,9232.0,0.0,1.0,0.0,?,0.0,0.0
4000000.0,5.9375,1.488553243689239E-7,4000000.0,61.1,0.0,18.44863731656184,0.0,793667.0,9232.0,0.0,1.0,0.0,?,0.0,0.0
4100000.0,6.09375,1.5539948233506747E-7,4100000.0,62.5,0.0,20.212765957446805,0.0,813467.0,9232.0,0.0,1.0,0.0,?,0.0,0.0
4200000.0,6.234375,1.6076535555637546E-7,4200000.0,60.9,0.0,16.631130063965877,0.0,833467.0,9232.0,0.0,1.0,0.0,?,0.0,0.0
4300000.0,6.390625,1.6614536030424967E-7,4300000.0,61.5,0.0,17.910447761194025,0.0,853467.0,9232.0,0.0,1.0,0.0,?,0.0,0.0
4400000.0,6.53125,1.7046349562911525E-7,4400000.0,60.4,0.0,16.806722689075624,0.0,873467.0,9232.0,0.0,1.0,0.0,?,0.0,0.0
4500000.0,6.6875,1.7467934715872012E-7,4500000.0,66.60000000000001,0.0,27.39130434782609,0.0,893467.0,9232.0,0.0,1.0,0.0,?,0.0,0.0
4600000.0,6.828125,1.7794974458714328E-7,4600000.0,63.4,0.0,19.383259911894267,0.0,913467.0,9232.0,0.0,1.0,0.0,?,0.0,0.0
4700000.0,6.96875,1.8069627306734524E-7,4700000.0,62.4,0.0,20.338983050847453,0.0,933467.0,9232.0,0.0,1.0,0.0,?,0.0,0.0
4800000.0,7.109375,1.82918932599326E-7,4800000.0,62.6,0.0,21.757322175732213,0.0,953467.0,9232.0,0.0,1.0,0.0,?,0.0,0.0
4900000.0,7.265625,1.8480647769239216E-7,4900000.0,62.8,0.0,21.684210526315788,0.0,973467.0,9232.0,0.0,1.0,0.0,?,0.0,0.0
5000000.0,7.40625,1.8610188918602138E-7,5000000.0,62.5,0.0,19.006479481641463,0.0,993467.0,9232.0,0.0,1.0,0.0,?,0.0,0.0
5100000.0,7.5625,1.9283457529834577E-7,5100000.0,43.2,0.0,-18.58037578288101,-31.481481481481467,1013267.0,9232.0,0.0,1.0,0.0,?,0.0,3.0
5200000.0,7.703125,1.9837012385121651E-7,5200000.0,45.2,0.0,-6.614785992217893,-21.238938053097353,1033267.0,9232.0,0.0,1.0,0.0,?,0.0,0.0
5300000.0,7.859375,2.0389403087190458E-7,5300000.0,66.0,30.668841761827082,29.313929313929314,26.08695652173913,14836.0,9328.0,0.0,1.0,0.0,?,2.0,4.0
5400000.0,8.015625,2.0883586128345796E-7,5400000.0,66.60000000000001,32.224025974025984,33.992094861660085,27.39130434782609,34836.0,9328.0,0.0,1.0,0.0,?,0.0,0.0
5500000.0,8.15625,2.127596397056348E-7,5500000.0,65.0,29.02307358482148,27.385892116182575,24.406047516198704,54836.0,9328.0,0.0,1.0,0.0,?,0.0,0.0
5600000.0,8.3125,2.1653731689891883E-7,5600000.0,66.3,31.13229139419305,33.66141732283465,25.442477876106196,74836.0,9328.0,0.0,1.0,0.0,?,0.0,0.0
5700000.0,8.46875,2.197329174830682E-7,5700000.0,68.2,34.738440700227805,35.10204081632654,26.558891454965377,94836.0,9328.0,0.0,1.0,0.0,?,0.0,0.0
5800000.0,8.609375,2.220850890605814E-7,5800000.0,65.8,29.79402140666505,31.46292585170341,22.448979591836732,114836.0,9328.0,0.0,1.0,0.0,?,0.0,0.0
5900000.0,8.765625,2.2411653642646143E-7,5900000.0,66.0,31.796207066715354,28.721174004192875,32.00000000000001,134836.0,9328.0,0.0,1.0,0.0,?,0.0,0.0
6000000.0,8.921875,2.2556590718320677E-7,6000000.0,67.80000000000001,34.64450262842762,37.35408560311285,29.540481400437642,154836.0,9328.0,0.0,1.0,0.0,?,0.0,0.0
6100000.0,9.0625,2.3159040008775065E-7,6100000.0,66.0,31.167400881057265,34.362934362934375,27.966101694915256,174636.0,9328.0,0.0,1.0,0.0,?,0.0,0.0
6200000.0,9.21875,2.3770220448366473E-7,6200000.0,67.0,32.93991416309014,33.06288032454362,28.571428571428577,194636.0,9328.0,0.0,1.0,0.0,?,0.0,0.0
6300000.0,9.375,2.4323193227044413E-7,6300000.0,64.5,28.47356544165055,31.067961165048548,26.65289256198347,214636.0,9328.0,0.0,1.0,0.0,?,0.0,0.0
6400000.0,9.515625,2.476848183303244E-7,6400000.0,66.2,32.25774125663895,36.10586011342156,31.991951710261574,234636.0,9328.0,0.0,1.0,0.0,?,0.0,0.0
6500000.0,9.671875,2.5205039289883444E-7,6500000.0,63.5,26.345952054241668,22.832980972515855,23.480083857442345,254636.0,9328.0,0.0,1.0,0.0,?,0.0,0.0
6600000.0,9.84375,2.5621224065414736E-7,6600000.0,67.0,33.66567500201014,36.04651162790699,31.535269709543574,274636.0,9328.0,0.0,1.0,0.0,?,0.0,0.0
6700000.0,10.0,2.5941366200438807E-7,6700000.0,65.2,28.84570559297291,26.42706131078224,23.178807947019866,294636.0,9328.0,0.0,1.0,0.0,?,0.0,0.0
6800000.0,10.125,2.615091377972729E-7,6800000.0,69.1,36.93929029150782,39.648437499999986,32.53275109170304,314636.0,9328.0,0.0,1.0,0.0,?,0.0,0.0
6900000.0,10.265625,2.633426791160471E-7,6900000.0,68.30000000000001,35.39841043407378,36.726546906187636,29.555555555555564,334636.0,9328.0,0.0,1.0,0.0,?,0.0,0.0
7000000.0,10.421875,2.647978706388838E-7,7000000.0,65.2,29.120771687414454,29.41176470588236,23.008849557522122,354636.0,9328.0,0.0,1.0,0.0,?,0.0,0.0
7100000.0,10.5625,2.708276022329099E-7,7100000.0,66.10000000000001,31.384852042262075,32.47011952191235,28.329809725158565,374436.0,9328.0,0.0,1.0,0.0,?,0.0,0.0
7200000.0,10.71875,2.7694522739491535E-7,7200000.0,64.3,28.350660297836477,29.585798816568055,26.84426229508197,394436.0,9328.0,0.0,1.0,0.0,?,0.0,0.0
7300000.0,10.875,2.824807759477861E-7,7300000.0,66.5,32.55214625110736,33.66336633663367,30.208333333333336,414436.0,9328.0,0.0,1.0,0.0,?,0.0,0.0
7400000.0,11.03125,2.874342478915222E-7,7400000.0,66.9,33.06965608722379,35.603112840466935,29.42430703624734,434436.0,9328.0,0.0,1.0,0.0,?,0.0,0.0
7500000.0,11.171875,2.913685036926635E-7,7500000.0,66.60000000000001,32.18632112822471,34.63796477495109,27.861771058315338,454436.0,9328.0,0.0,1.0,0.0,?,0.0,0.0
7600000.0,11.328125,2.9515782241813024E-7,7600000.0,65.4,30.220832913179397,33.58925143953935,27.15789473684211,474436.0,9328.0,0.0,1.0,0.0,?,0.0,0.0
7700000.0,11.484375,2.983650645344623E-7,7700000.0,66.8,32.66921928742943,36.76190476190477,28.448275862068968,494436.0,9328.0,0.0,1.0,0.0,?,0.0,0.0
7800000.0,11.625,3.0072771349093996E-7,7800000.0,65.0,29.219718173140713,29.5774647887324,26.160337552742618,514436.0,9328.0,0.0,1.0,0.0,?,0.0,0.0
7900000.0,11.78125,3.027708023890027E-7,7900000.0,66.3,32.13854208618608,31.64300202839757,30.227743271221534,534436.0,9328.0,0.0,1.0,0.0,?,0.0,0.0
8000000.0,11.9375,3.0423181467793074E-7,8000000.0,66.8,31.84402957804885,30.83333333333334,25.056433408577877,554436.0,9328.0,0.0,1.0,0.0,?,0.0,0.0
8100000.0,12.078125,3.1026678496143906E-7,8100000.0,66.9,33.195553366863386,35.85271317829458,30.16877637130802,574236.0,9328.0,0.0,1.0,0.0,?,0.0,0.0
8200000.0,12.234375,3.1642224510303824E-7,8200000.0,67.30000000000001,33.58841879508676,30.866807610993664,30.12820512820513,594236.0,9328.0,0.0,1.0,0.0,?,0.0,11.0
8300000.0,12.390625,3.220121208060949E-7,8300000.0,67.5,34.21691819418358,37.73946360153258,30.555555555555564,614236.0,9328.0,0.0,1.0,0.0,?,0.0,40.0
8400000.0,12.546875,3.270199199000169E-7,8400000.0,66.8,32.87505054589568,35.029354207436405,29.361702127659576,634236.0,9328.0,0.0,1.0,0.0,?,0.0,19.0
8500000.0,12.703125,3.3142656320706035E-7,8500000.0,68.4,36.06345095500163,36.03238866396762,31.89655172413794,654236.0,9328.0,0.0,1.0,0.0,?,0.0,18.0
8600000.0,12.859375,3.352511299049691E-7,8600000.0,65.10000000000001,29.647876535047047,29.06504065040651,27.593360995850624,674236.0,9328.0,0.0,1.0,0.0,?,0.0,0.0
8700000.0,13.0,3.381693709848658E-7,8700000.0,65.4,29.509746398070273,28.364389233954455,24.12280701754386,694236.0,9328.0,0.0,1.0,0.0,?,0.0,0.0
8800000.0,13.140625,3.405442435501353E-7,8800000.0,69.6,38.41141981936717,38.08553971486761,34.9036402569593,714236.0,9328.0,0.0,1.0,0.0,?,0.0,49.0
8900000.0,13.296875,3.4260091423574445E-7,8900000.0,68.2,36.12790487476652,37.02970297029704,34.43298969072166,734236.0,9328.0,0.0,1.0,0.0,?,0.0,0.0
9000000.0,13.4375,3.439280489045715E-7,9000000.0,66.60000000000001,32.45648094221188,34.63796477495109,28.784648187633266,754236.0,9328.0,0.0,1.0,0.0,?,0.0,0.0
9100000.0,13.59375,3.5064715322934945E-7,9100000.0,67.10000000000001,33.016263406927216,37.57115749525618,27.373068432671083,774036.0,9328.0,0.0,1.0,0.0,?,0.0,0.0
9200000.0,13.75,3.567841809449927E-7,9200000.0,69.19999999999999,37.79185315645751,38.64541832669322,35.02109704641349,794036.0,9328.0,0.0,1.0,0.0,?,0.0,0.0
9300000.0,13.890625,3.6178363694085043E-7,9300000.0,66.2,31.411224208185207,33.464566929133866,27.467811158798284,814036.0,9328.0,0.0,1.0,0.0,?,0.0,0.0
9400000.0,14.046875,3.6675651143822433E-7,9400000.0,64.7,28.664963786859797,23.92241379310345,25.995807127882603,834036.0,9328.0,0.0,1.0,0.0,?,0.0,0.0
9500000.0,14.21875,3.7158638911528747E-7,9500000.0,66.60000000000001,32.625157846748465,30.2713987473904,29.386892177589857,854036.0,9328.0,0.0,1.0,0.0,?,0.0,0.0
9600000.0,14.375,3.75395110394392E-7,9600000.0,67.0,33.10765613281173,36.17021276595745,29.93630573248408,874036.0,9328.0,0.0,1.0,0.0,?,0.0,0.0
9700000.0,14.53125,3.786217550643619E-7,9700000.0,67.2,33.11173195750148,30.508474576271194,27.912087912087912,894036.0,9328.0,0.0,1.0,0.0,?,0.0,0.0
9800000.0,14.6875,3.812663231251971E-7,9800000.0,64.7,28.532093746456983,30.91976516634051,24.411134903640257,914036.0,9328.0,0.0,1.0,0.0,?,0.0,0.0
9900000.0,14.84375,3.8332881457689764E-7,9900000.0,67.4,33.44439544645337,34.2741935483871,29.43722943722944,934036.0,9328.0,0.0,1.0,0.0,?,0.0,0.0
1.0E7,15.0,3.848092294194635E-7,1.0E7,69.8,39.117813079590356,38.86639676113359,36.82008368200835,954036.0,9328.0,0.0,1.0,0.0,?,0.0,0.0
