learning evaluation instances,evaluation time (cpu seconds),model cost (RAM-Hours),classified instances,classifications correct (percent),Kappa Statistic (percent),Kappa Temporal Statistic (percent),Kappa M Statistic (percent),model training instances,model serialized size (bytes),labeling cost,newThreshold,maxPosterior,accuracyBaseLearner (percent),Change detected,Warning detected
100000.0,0.109375,4.394387360662222E-9,100000.0,65.10000000000001,27.60237314857073,26.98744769874477,19.025522041763356,19762.0,5264.0,0.0,1.0,0.0,?,1.0,1.0
200000.0,0.234375,8.950883056968451E-9,200000.0,68.10000000000001,34.81068532566049,38.05825242718448,29.424778761061955,39762.0,5264.0,0.0,1.0,0.0,?,0.0,0.0
300000.0,0.359375,1.304171746596694E-8,300000.0,66.10000000000001,30.838909743757135,29.521829521829524,26.143790849673206,59762.0,5264.0,0.0,1.0,0.0,?,0.0,0.0
400000.0,0.484375,1.6666890587657692E-8,400000.0,66.5,32.032137639993515,33.79446640316207,27.173913043478265,79762.0,5264.0,0.0,1.0,0.0,?,0.0,0.0
500000.0,0.609375,1.98264024220407E-8,500000.0,64.9,28.80959914328134,27.027027027027028,24.19006479481641,99762.0,5264.0,0.0,1.0,0.0,?,0.0,0.0
600000.0,0.71875,2.2240338795300987E-8,600000.0,66.3,31.13229139419305,33.66141732283465,25.442477876106196,119762.0,5264.0,0.0,1.0,0.0,?,0.0,17.0
700000.0,0.84375,2.4565799523972803E-8,700000.0,68.2,34.738440700227805,34.96932515337424,26.558891454965377,139762.0,5264.0,0.0,1.0,0.0,?,0.0,151.0
800000.0,0.953125,2.6200141292065383E-8,800000.0,65.7,29.620236541665644,31.124497991967875,22.398190045248867,159762.0,5264.0,0.0,1.0,0.0,?,0.0,12.0
900000.0,1.078125,2.7589364132533472E-8,900000.0,66.10000000000001,31.97415419191717,28.78151260504202,32.06412825651303,179762.0,5264.0,0.0,1.0,0.0,?,0.0,64.0
1000000.0,1.1875,2.8397480491548777E-8,1000000.0,67.80000000000001,34.64450262842762,37.35408560311285,29.540481400437642,199762.0,5264.0,0.0,1.0,0.0,?,0.0,0.0
1100000.0,1.3125,3.351665024335186E-8,1100000.0,65.9,30.97277776878108,34.042553191489375,27.7542372881356,219562.0,5264.0,0.0,1.0,0.0,?,0.0,0.0
1200000.0,1.4375,3.8170158707847204E-8,1200000.0,67.0,32.978321533456004,33.198380566801625,28.725701943844495,239562.0,5264.0,0.0,1.0,0.0,?,0.0,0.0
1300000.0,1.5625,4.235800588503481E-8,1300000.0,64.4,28.238827632082895,30.873786407766996,26.293995859213254,259562.0,5264.0,0.0,1.0,0.0,?,0.0,0.0
1400000.0,1.6875,4.6080191774914674E-8,1400000.0,66.2,32.28732611064812,35.98484848484849,32.12851405622491,279562.0,5264.0,0.0,1.0,0.0,?,0.0,0.0
1500000.0,1.78125,4.852258522684377E-8,1500000.0,63.5,26.38457504739624,22.669491525423727,23.640167364016733,299562.0,5264.0,0.0,1.0,0.0,?,0.0,0.0
1600000.0,1.890625,5.096459062770011E-8,1600000.0,67.0,33.66567500201014,36.04651162790699,31.535269709543574,319562.0,5264.0,0.0,1.0,0.0,?,0.0,0.0
1700000.0,2.015625,5.3289792655656754E-8,1700000.0,65.2,28.894846102293343,26.42706131078224,23.348017621145374,339562.0,5264.0,0.0,1.0,0.0,?,0.0,0.0
1800000.0,2.125,5.491689080372455E-8,1800000.0,69.1,36.93929029150782,39.648437499999986,32.53275109170304,359562.0,5264.0,0.0,1.0,0.0,?,0.0,0.0
1900000.0,2.25,5.631077025706572E-8,1900000.0,68.2,35.219175124163264,36.40000000000001,29.490022172949004,379562.0,5264.0,0.0,1.0,0.0,?,0.0,0.0
2000000.0,2.359375,5.712296115234497E-8,2000000.0,65.2,29.07945953657095,29.41176470588236,22.83813747228381,399562.0,5264.0,0.0,1.0,0.0,?,0.0,0.0
2100000.0,2.46875,6.16063092214366E-8,2100000.0,66.10000000000001,31.384852042262075,32.60437375745527,28.329809725158565,419362.0,5264.0,0.0,1.0,0.0,?,0.0,0.0
2200000.0,2.59375,6.626447429880502E-8,2200000.0,64.3,28.322464582864864,29.585798816568055,26.69404517453799,439362.0,5264.0,0.0,1.0,0.0,?,0.0,0.0
2300000.0,2.703125,6.993291511510812E-8,2300000.0,66.5,32.52388855766288,33.66336633663367,30.06263048016702,459362.0,5264.0,0.0,1.0,0.0,?,0.0,0.0
2400000.0,2.828125,7.365975761786105E-8,2400000.0,66.8,32.875864829783715,35.53398058252428,29.21108742004265,479362.0,5264.0,0.0,1.0,0.0,?,0.0,0.0
2500000.0,2.953125,7.692093883330625E-8,2500000.0,66.60000000000001,32.224025974025984,34.63796477495109,28.01724137931035,499362.0,5264.0,0.0,1.0,0.0,?,0.0,0.0
2600000.0,3.078125,7.971645876144371E-8,2600000.0,65.3,30.042579271636406,33.39731285988484,27.100840336134457,519362.0,5264.0,0.0,1.0,0.0,?,0.0,0.0
2700000.0,3.1875,8.175508507216972E-8,2700000.0,66.8,32.68587417124551,36.76190476190477,28.60215053763441,539362.0,5264.0,0.0,1.0,0.0,?,0.0,0.0
2800000.0,3.3125,8.36192824256917E-8,2800000.0,64.9,29.04790782292299,29.376257545271635,26.105263157894736,559362.0,5264.0,0.0,1.0,0.0,?,0.0,0.0
2900000.0,3.421875,8.484300148362916E-8,2900000.0,66.2,31.964573268921104,31.578947368421055,30.165289256198353,579362.0,5264.0,0.0,1.0,0.0,?,0.0,0.0
3000000.0,3.53125,8.565926691517235E-8,3000000.0,66.7,31.65473532116118,30.625000000000007,24.830699774266364,599362.0,5264.0,0.0,1.0,0.0,?,0.0,0.0
3100000.0,3.65625,9.078774989272158E-8,3100000.0,66.9,33.195553366863386,35.976789168278536,30.16877637130802,619162.0,5264.0,0.0,1.0,0.0,?,0.0,0.0
3200000.0,3.765625,9.486771887168289E-8,3200000.0,67.30000000000001,33.62885744209271,30.720338983050855,30.2771855010661,639162.0,5264.0,0.0,1.0,0.0,?,0.0,0.0
3300000.0,3.890625,9.906487927461664E-8,3300000.0,67.4,34.005959707197,37.54789272030653,30.341880341880344,659162.0,5264.0,0.0,1.0,0.0,?,0.0,0.0
3400000.0,4.015625,1.0279637839024265E-7,3400000.0,66.8,32.84219128647662,34.90196078431374,29.21108742004265,679162.0,5264.0,0.0,1.0,0.0,?,0.0,0.0
3500000.0,4.140625,1.0606221621856092E-7,3500000.0,68.30000000000001,35.87046238003529,35.95959595959597,31.681034482758623,699162.0,5264.0,0.0,1.0,0.0,?,0.0,0.0
3600000.0,4.234375,1.0816234862431882E-7,3600000.0,65.0,29.45141419679428,28.86178861788618,27.385892116182575,719162.0,5264.0,0.0,1.0,0.0,?,0.0,0.0
3700000.0,4.359375,1.1049686387802161E-7,3700000.0,65.4,29.466924880236476,28.364389233954455,23.956043956043953,739162.0,5264.0,0.0,1.0,0.0,?,0.0,0.0
3800000.0,4.46875,1.1213211109861729E-7,3800000.0,69.6,38.44359489405817,38.08553971486761,35.04273504273503,759162.0,5264.0,0.0,1.0,0.0,?,0.0,0.0
3900000.0,4.59375,1.135353037777046E-7,3900000.0,68.30000000000001,36.310595345248814,37.35177865612649,34.50413223140497,779162.0,5264.0,0.0,1.0,0.0,?,0.0,0.0
4000000.0,4.703125,1.1435564374551173E-7,4000000.0,66.5,32.27781057193916,34.57031250000001,28.723404255319153,799162.0,5264.0,0.0,1.0,0.0,?,0.0,0.0
4100000.0,4.8125,1.1884714088713126E-7,4100000.0,67.10000000000001,32.977509778357245,37.57115749525618,27.212389380530976,818962.0,5264.0,0.0,1.0,0.0,?,0.0,0.0
4200000.0,4.921875,1.2293118440235652E-7,4200000.0,69.1,37.58332323354743,38.56858846918488,34.810126582278464,838962.0,5264.0,0.0,1.0,0.0,?,0.0,0.0
4300000.0,5.046875,1.2713300141816334E-7,4300000.0,66.2,31.411224208185207,33.464566929133866,27.467811158798284,858962.0,5264.0,0.0,1.0,0.0,?,0.0,0.0
4400000.0,5.15625,1.3040213768060005E-7,4400000.0,64.7,28.664963786859797,23.92241379310345,25.995807127882603,878962.0,5264.0,0.0,1.0,0.0,?,0.0,0.0
4500000.0,5.28125,1.336726321217914E-7,4500000.0,66.60000000000001,32.653686706563654,30.41666666666667,29.53586497890296,898962.0,5264.0,0.0,1.0,0.0,?,0.0,0.0
4600000.0,5.390625,1.3612686113143957E-7,4600000.0,67.10000000000001,33.27925370107484,36.363636363636374,30.000000000000004,918962.0,5264.0,0.0,1.0,0.0,?,0.0,0.0
4700000.0,5.5,1.3817363651469346E-7,4700000.0,67.2,33.11173195750148,30.508474576271194,27.912087912087912,938962.0,5264.0,0.0,1.0,0.0,?,0.0,0.0
4800000.0,5.625,1.400471470939616E-7,4800000.0,64.7,28.567959593343257,30.784313725490204,24.57264957264957,958962.0,5264.0,0.0,1.0,0.0,?,0.0,0.0
4900000.0,5.734375,1.4127901522442694E-7,4900000.0,67.5,33.63825703434476,34.34343434343435,29.65367965367966,978962.0,5264.0,0.0,1.0,0.0,?,0.0,0.0
5000000.0,5.859375,1.4232494221586317E-7,5000000.0,69.69999999999999,38.965433889291745,38.787878787878775,36.874999999999986,998962.0,5264.0,0.0,1.0,0.0,?,0.0,0.0
5100000.0,5.984375,1.4757320362453657E-7,5100000.0,62.6,33.12830782434559,17.98245614035087,-1.081081081081082,12962.0,5168.0,0.0,1.0,0.0,?,3.0,13.0
5200000.0,6.109375,1.5235580374590223E-7,5200000.0,63.3,33.72915267214168,20.9051724137931,5.167958656330754,32962.0,5168.0,0.0,1.0,0.0,?,0.0,0.0
5300000.0,6.234375,1.5667274257996016E-7,5300000.0,64.4,35.066830093970694,26.74897119341564,10.10101010101011,52962.0,5168.0,0.0,1.0,0.0,?,0.0,0.0
5400000.0,6.34375,1.6004261043336655E-7,5400000.0,61.8,31.570650616222405,18.550106609808097,-3.243243243243246,72962.0,5168.0,0.0,1.0,0.0,?,0.0,0.0
5500000.0,6.46875,1.63428226692809E-7,5500000.0,64.1,34.17481994337935,27.180527383367142,11.793611793611804,92962.0,5168.0,0.0,1.0,0.0,?,0.0,0.0
5600000.0,6.578125,1.6598318729342685E-7,5600000.0,62.5,32.400764322024735,17.943107221006557,2.5974025974025996,112962.0,5168.0,0.0,1.0,0.0,?,0.0,0.0
5700000.0,6.703125,1.6843748097825382E-7,5700000.0,41.6,5.5260773909667344,-30.941704035874455,-62.222222222222236,132962.0,5168.0,0.0,1.0,0.0,?,0.0,0.0
5800000.0,6.8125,1.7017753432608313E-7,5800000.0,44.9,5.691379747095432,-14.078674948240167,-38.442211055276374,152962.0,5168.0,0.0,1.0,0.0,?,0.0,0.0
5900000.0,6.921875,1.7151013404751817E-7,5900000.0,62.9,32.19087446355853,23.188405797101446,6.783919597989955,172962.0,5168.0,0.0,1.0,0.0,?,0.0,0.0
6000000.0,7.046875,1.7256744387042191E-7,6000000.0,65.5,36.458471467091016,26.282051282051285,15.647921760391212,192962.0,5168.0,0.0,1.0,0.0,?,0.0,0.0
6100000.0,7.15625,1.7716374713927508E-7,6100000.0,62.7,32.73461732669696,16.92650334075723,2.8645833333333357,212762.0,5168.0,0.0,1.0,0.0,?,0.0,0.0
6200000.0,7.28125,1.8195100387351381E-7,6200000.0,43.4,7.689196374109914,-21.982758620689662,-56.78670360110804,232762.0,5168.0,0.0,1.0,0.0,?,0.0,0.0
6300000.0,7.390625,1.8573239988957844E-7,6300000.0,64.1,34.80124367989772,25.363825363825367,7.235142118863055,252762.0,5168.0,0.0,1.0,0.0,?,0.0,0.0
6400000.0,7.515625,1.895883340492017E-7,6400000.0,63.7,34.7643248916333,16.55172413793105,0.0,272762.0,5168.0,0.0,1.0,0.0,?,0.0,0.0
6500000.0,7.625,1.9255482281247777E-7,6500000.0,62.6,32.90011446451063,15.765765765765757,-1.3550135501355027,292762.0,5168.0,0.0,1.0,0.0,?,0.0,0.0
6600000.0,7.75,1.9547943439748555E-7,6600000.0,61.4,30.361111912940565,18.565400843881854,-0.5208333333333338,312762.0,5168.0,0.0,1.0,0.0,?,0.0,0.0
6700000.0,7.859375,1.9763101590797308E-7,6700000.0,65.2,36.339289634280206,24.675324675324674,13.432835820895534,332762.0,5168.0,0.0,1.0,0.0,?,0.0,0.0
6800000.0,7.96875,1.9937514379206635E-7,6800000.0,46.300000000000004,8.88668693669237,-20.674157303370794,-38.40206185567009,352762.0,5168.0,0.0,1.0,0.0,?,0.0,0.0
6900000.0,8.09375,2.009027715151509E-7,6900000.0,64.2,34.92991333682313,24.63157894736842,7.731958762886605,372762.0,5168.0,0.0,1.0,0.0,?,0.0,0.0
7000000.0,8.1875,2.0169924634198352E-7,7000000.0,63.2,34.0454512868306,22.851153039832283,-1.6574585635359134,392762.0,5168.0,0.0,1.0,0.0,?,0.0,0.0
7100000.0,8.3125,2.0695682097640307E-7,7100000.0,44.4,7.06909980711824,-13.23828920570265,-45.93175853018373,412562.0,5168.0,0.0,1.0,0.0,?,0.0,0.0
7200000.0,8.4375,2.1174873432351488E-7,7200000.0,44.3,6.831882564682424,-12.981744421906694,-47.354497354497354,432562.0,5168.0,0.0,1.0,0.0,?,0.0,0.0
7300000.0,8.5625,2.1607498638331895E-7,7300000.0,62.1,31.927581004382503,20.54507337526205,-2.156334231805932,452562.0,5168.0,0.0,1.0,0.0,?,0.0,0.0
7400000.0,8.671875,2.1945300330925322E-7,7400000.0,61.5,30.492868748871626,19.287211740041922,1.2820512820512833,472562.0,5168.0,0.0,1.0,0.0,?,0.0,0.0
7500000.0,8.78125,2.2242356660879323E-7,7500000.0,64.0,34.07559331966012,23.404255319148934,10.891089108910899,492562.0,5168.0,0.0,1.0,0.0,?,0.0,0.0
7600000.0,8.890625,2.2498667628193896E-7,7600000.0,45.1,6.298642781069935,-12.73100616016427,-38.636363636363626,512562.0,5168.0,0.0,1.0,0.0,?,0.0,0.0
7700000.0,9.015625,2.2745028319251207E-7,7700000.0,61.4,31.201163520219016,16.45021645021644,-8.42696629213484,532562.0,5168.0,0.0,1.0,0.0,?,0.0,0.0
7800000.0,9.125,2.2919848561286926E-7,7800000.0,43.1,6.028075970272499,-22.36559139784947,-51.733333333333334,552562.0,5168.0,0.0,1.0,0.0,?,0.0,0.0
7900000.0,9.25,2.307307699488269E-7,7900000.0,62.6,32.892890593879976,24.291497975708502,0.795755968169762,572562.0,5168.0,0.0,1.0,0.0,?,0.0,0.0
8000000.0,9.359375,2.3166406511639554E-7,8000000.0,64.1,34.85282909302072,23.779193205944797,7.712082262210804,592562.0,5168.0,0.0,1.0,0.0,?,0.0,0.0
8100000.0,9.46875,2.3626851745777658E-7,8100000.0,62.0,31.733501963560055,14.414414414414404,-1.8766756032171599,612362.0,5168.0,0.0,1.0,0.0,?,0.0,0.0
8200000.0,9.59375,2.4106508741776146E-7,8200000.0,64.9,35.876356461690236,29.940119760479046,11.586901763224192,632362.0,5168.0,0.0,1.0,0.0,?,0.0,0.0
8300000.0,9.71875,2.453959960904386E-7,8300000.0,65.3,36.37510451351709,27.708333333333336,14.742014742014753,652362.0,5168.0,0.0,1.0,0.0,?,0.0,0.0
8400000.0,9.828125,2.4877808755263683E-7,8400000.0,44.3,7.419719433548296,-24.608501118568242,-46.96569920844327,672362.0,5168.0,0.0,1.0,0.0,?,0.0,0.0
8500000.0,9.953125,2.521776736506985E-7,8500000.0,65.0,35.89626183629737,24.07809110629067,11.392405063291148,692362.0,5168.0,0.0,1.0,0.0,?,0.0,0.0
8600000.0,10.078125,2.551115984614524E-7,8600000.0,63.9,34.079338529074484,26.626016260162604,10.199004975124387,712362.0,5168.0,0.0,1.0,0.0,?,0.0,0.0
8700000.0,10.1875,2.5727132904446783E-7,8700000.0,64.0,34.53902746815141,22.58064516129032,6.976744186046517,732362.0,5168.0,0.0,1.0,0.0,?,0.0,0.0
8800000.0,10.296875,2.5902360600108897E-7,8800000.0,44.1,5.57368630869127,-23.672566371681427,-42.966751918158565,752362.0,5168.0,0.0,1.0,0.0,?,0.0,0.0
8900000.0,10.421875,2.605605469499197E-7,8900000.0,61.8,31.140401476695896,18.20128479657387,0.0,772362.0,5168.0,0.0,1.0,0.0,?,0.0,0.0
9000000.0,10.53125,2.614979166537523E-7,9000000.0,61.9,31.932196606971857,18.93617021276595,-3.2520325203252063,792362.0,5168.0,0.0,1.0,0.0,?,0.0,0.0
9100000.0,10.65625,2.6676480451391797E-7,9100000.0,61.8,31.87330574975032,17.13665943600867,-3.80434782608696,812162.0,5168.0,0.0,1.0,0.0,?,0.0,0.0
9200000.0,10.765625,2.7096587776516867E-7,9200000.0,64.7,35.65533131124592,23.92241379310345,9.02061855670104,832162.0,5168.0,0.0,1.0,0.0,?,0.0,0.0
9300000.0,10.890625,2.753014430507189E-7,9300000.0,65.9,37.66999093381687,27.60084925690022,12.787723785166252,852162.0,5168.0,0.0,1.0,0.0,?,0.0,0.0
9400000.0,11.0,2.7868760904918103E-7,9400000.0,58.3,25.023194263645053,12.578616352201246,-2.457002457002459,872162.0,5168.0,0.0,1.0,0.0,?,0.0,0.0
9500000.0,11.125,2.8209185176011577E-7,9500000.0,62.1,31.96766040553737,20.042194092827,-1.8817204301075288,892162.0,5168.0,0.0,1.0,0.0,?,0.0,0.0
9600000.0,11.234375,2.846631105057894E-7,9600000.0,63.1,34.015235506598486,17.999999999999993,-2.7855153203342646,912162.0,5168.0,0.0,1.0,0.0,?,0.0,0.0
9700000.0,11.359375,2.8713603064210864E-7,9700000.0,62.7,33.16370412844037,19.957081545064373,1.5831134564643814,932162.0,5168.0,0.0,1.0,0.0,?,0.0,0.0
9800000.0,11.484375,2.8914328949112016E-7,9800000.0,48.199999999999996,13.523692504941497,-11.158798283261813,-42.30769230769232,952162.0,5168.0,0.0,1.0,0.0,?,0.0,0.0
9900000.0,11.59375,2.9049218735761095E-7,9900000.0,43.1,8.637820409893443,-21.58119658119659,-68.3431952662722,972162.0,5168.0,0.0,1.0,0.0,?,0.0,0.0
1.0E7,11.71875,2.91568123632007E-7,1.0E7,62.8,33.26827588186332,21.848739495798316,0.5347593582887705,992162.0,5168.0,0.0,1.0,0.0,?,0.0,0.0
