learning evaluation instances,evaluation time (cpu seconds),model cost (RAM-Hours),classified instances,classifications correct (percent),Kappa Statistic (percent),Kappa Temporal Statistic (percent),Kappa M Statistic (percent),model training instances,model serialized size (bytes),labeling cost,newThreshold,maxPosterior,accuracyBaseLearner (percent),Change detected,Warning detected
100000.0,0.125,5.438147733608881E-9,100000.0,57.599999999999994,15.575183882824708,14.343434343434334,13.292433537832299,9900.0,9208.0,0.0,1.0,0.0,?,0.0,3.0
200000.0,0.265625,1.1003091155240933E-8,200000.0,60.199999999999996,21.26763070958042,14.224137931034472,15.498938428874725,19900.0,9208.0,0.0,1.0,0.0,?,0.0,0.0
300000.0,0.390625,1.5455589164048432E-8,300000.0,62.1,25.32372853303489,19.87315010570824,17.96536796536796,29900.0,9208.0,0.0,1.0,0.0,?,0.0,5.0
400000.0,0.515625,1.9419401521897976E-8,400000.0,64.5,29.130400063882465,27.698574338085542,28.137651821862352,39900.0,9208.0,0.0,1.0,0.0,?,0.0,44.0
500000.0,0.65625,2.3325717645800775E-8,500000.0,61.1,22.817460317460316,24.0234375,18.10526315789473,49900.0,9208.0,0.0,1.0,0.0,?,0.0,0.0
600000.0,0.796875,2.6679060991025633E-8,600000.0,63.9,28.090514322138567,32.14285714285714,24.31865828092243,59900.0,9208.0,0.0,1.0,0.0,?,0.0,0.0
700000.0,0.9375,2.947943155757255E-8,700000.0,60.699999999999996,22.674327089563974,18.6335403726708,14.565217391304339,69900.0,9208.0,0.0,1.0,0.0,?,0.0,0.0
800000.0,1.0625,3.1477118480122755E-8,800000.0,60.5,22.767089003597675,20.2020202020202,11.235955056179762,79900.0,9208.0,0.0,1.0,0.0,?,0.0,0.0
900000.0,1.1875,3.298327404384812E-8,900000.0,61.199999999999996,22.642592828888606,27.611940298507452,16.01731601731601,89900.0,9208.0,0.0,1.0,0.0,?,0.0,0.0
1000000.0,1.328125,3.412472627436122E-8,1000000.0,61.199999999999996,22.62284620293554,22.709163346613543,21.138211382113816,99900.0,9208.0,0.0,1.0,0.0,?,0.0,0.0
1100000.0,1.46875,4.024846324076256E-8,1100000.0,61.199999999999996,23.19630075378475,22.554890219560875,18.487394957983184,109800.0,9208.0,0.0,1.0,0.0,?,0.0,0.0
1200000.0,1.609375,4.581922742848596E-8,1200000.0,61.9,24.733901747121713,25.440313111545986,18.415417558886503,119800.0,9208.0,0.0,1.0,0.0,?,0.0,0.0
1300000.0,1.75,5.083701883753142E-8,1300000.0,60.6,22.79596187609731,17.226890756302513,19.918699186991866,129800.0,9208.0,0.0,1.0,0.0,?,0.0,0.0
1400000.0,1.890625,5.530183746789894E-8,1400000.0,62.4,24.635705838728423,23.57723577235772,25.691699604743086,139800.0,9208.0,0.0,1.0,0.0,?,0.0,0.0
1500000.0,2.03125,5.921368331958852E-8,1500000.0,59.5,18.822708796010485,15.975103734439825,18.674698795180717,149800.0,9208.0,0.0,1.0,0.0,?,0.0,0.0
1600000.0,2.15625,6.219934827337665E-8,1600000.0,61.5,23.838989689579584,25.09727626459144,18.60465116279069,159800.0,9208.0,0.0,1.0,0.0,?,0.0,0.0
1700000.0,2.28125,6.469348186833994E-8,1700000.0,62.6,25.599974536889686,25.940594059405942,22.727272727272727,169800.0,9208.0,0.0,1.0,0.0,?,0.0,0.0
1800000.0,2.4375,6.719673466351299E-8,1800000.0,61.8,24.472792410899636,24.65483234714004,19.238900634249468,179800.0,9208.0,0.0,1.0,0.0,?,0.0,0.0
1900000.0,2.578125,6.88966894004908E-8,1900000.0,62.3,25.013326544088976,25.494071146245062,22.587268993839835,189800.0,9208.0,0.0,1.0,0.0,?,0.0,0.0
2000000.0,2.703125,6.991622891897958E-8,2000000.0,61.5,22.749089041205842,23.913043478260867,18.60465116279069,199800.0,9208.0,0.0,1.0,0.0,?,0.0,0.0
2100000.0,2.859375,7.672652524585526E-8,2100000.0,62.4,25.041366798907518,26.129666011787823,23.732251521298174,209700.0,9208.0,0.0,1.0,0.0,?,0.0,0.0
2200000.0,3.0,8.230281916136544E-8,2200000.0,60.5,21.14509302882696,21.471172962226635,19.05737704918032,219700.0,9208.0,0.0,1.0,0.0,?,0.0,0.0
2300000.0,3.125,8.676799350521632E-8,2300000.0,60.4,22.940407248271992,19.838056680161937,10.810810810810796,229700.0,9208.0,0.0,1.0,0.0,?,0.0,0.0
2400000.0,3.28125,9.173504723649887E-8,2400000.0,62.7,25.654558790700648,24.032586558044805,24.186991869918696,239700.0,9208.0,0.0,1.0,0.0,?,0.0,0.0
2500000.0,3.421875,9.565242281597522E-8,2500000.0,63.6,27.29161256816412,27.634194831013918,26.907630522088354,249700.0,9208.0,0.0,1.0,0.0,?,0.0,0.0
2600000.0,3.5625,9.901682561677364E-8,2600000.0,59.199999999999996,19.157654462378588,15.876288659793806,10.329670329670314,259700.0,9208.0,0.0,1.0,0.0,?,0.0,0.0
2700000.0,3.703125,1.0182825563889411E-7,2700000.0,59.4,19.241908277903303,15.592515592515586,16.803278688524586,269700.0,9208.0,0.0,1.0,0.0,?,0.0,0.0
2800000.0,3.84375,1.0408671288233664E-7,2800000.0,61.0,22.86789049613746,23.976608187134502,17.197452229299355,279700.0,9208.0,0.0,1.0,0.0,?,0.0,0.0
2900000.0,3.984375,1.0579219734710124E-7,2900000.0,63.7,27.305788301638927,28.82352941176471,26.21951219512195,289700.0,9208.0,0.0,1.0,0.0,?,0.0,0.0
3000000.0,4.09375,1.0668859532516864E-7,3000000.0,60.6,22.59575337513948,22.134387351778653,13.215859030836993,299700.0,9208.0,0.0,1.0,0.0,?,0.0,0.0
3100000.0,4.234375,1.1282339174714354E-7,3100000.0,62.2,25.35574504050141,24.096385542168676,19.057815845824404,309600.0,9208.0,0.0,1.0,0.0,?,0.0,0.0
3200000.0,4.375,1.1837902194302943E-7,3200000.0,57.99999999999999,17.725461618927838,13.402061855670091,6.873614190687344,319600.0,9208.0,0.0,1.0,0.0,?,0.0,9.0
3300000.0,4.515625,1.234235888760951E-7,3300000.0,60.699999999999996,20.888624065962375,20.606060606060602,19.46721311475409,329600.0,9208.0,0.0,1.0,0.0,?,0.0,29.0
3400000.0,4.671875,1.2837512056446738E-7,3400000.0,61.8,23.924689425531824,24.95088408644401,21.88139059304703,339600.0,9208.0,0.0,1.0,0.0,?,0.0,82.0
3500000.0,4.796875,1.3184610805991625E-7,3500000.0,61.5,23.40442463791182,18.60465116279069,21.267893660531694,349600.0,9208.0,0.0,1.0,0.0,?,0.0,34.0
3600000.0,4.953125,1.3560793983439606E-7,3600000.0,59.8,20.131604043486547,24.007561436672965,16.770186335403718,359600.0,9208.0,0.0,1.0,0.0,?,0.0,22.0
3700000.0,5.09375,1.3843159346530838E-7,3700000.0,58.699999999999996,18.25602292789904,14.84536082474226,11.373390557939901,369600.0,9208.0,0.0,1.0,0.0,?,0.0,5.0
3800000.0,5.234375,1.406757898318271E-7,3800000.0,60.8,22.335636847777845,19.836400817995905,16.23931623931623,379600.0,9208.0,0.0,1.0,0.0,?,0.0,52.0
3900000.0,5.375,1.423670134196679E-7,3900000.0,65.8,31.358381502890182,32.94117647058824,33.33333333333334,389600.0,9208.0,0.0,1.0,0.0,?,0.0,0.0
4000000.0,5.5,1.4337879191670153E-7,4000000.0,62.0,24.41270662184473,23.076923076923077,22.448979591836732,399600.0,9208.0,0.0,1.0,0.0,?,0.0,0.0
4100000.0,5.640625,1.4949932746175263E-7,4100000.0,60.0,21.354279310277015,17.012448132780076,10.913140311803996,409500.0,9208.0,0.0,1.0,0.0,?,0.0,0.0
4200000.0,5.78125,1.550668902281258E-7,4200000.0,59.699999999999996,20.104359962569973,14.799154334038045,16.21621621621621,419500.0,9208.0,0.0,1.0,0.0,?,0.0,0.0
4300000.0,5.921875,1.6008148021582101E-7,4300000.0,61.7,23.741030113333174,18.336886993603404,21.35523613963039,429500.0,9208.0,0.0,1.0,0.0,?,0.0,0.0
4400000.0,6.0625,1.645430974248383E-7,4400000.0,62.3,25.03718314788156,23.52941176470588,21.784232365145225,439500.0,9208.0,0.0,1.0,0.0,?,0.0,0.0
4500000.0,6.203125,1.6845174185517764E-7,4500000.0,62.8,24.978522076884918,27.34375,28.32369942196532,449500.0,9208.0,0.0,1.0,0.0,?,0.0,0.0
4600000.0,6.34375,1.7180741350683904E-7,4600000.0,61.199999999999996,23.140008002947614,23.015873015873016,17.622080679405514,459500.0,9208.0,0.0,1.0,0.0,?,0.0,0.0
4700000.0,6.484375,1.746101123798225E-7,4700000.0,59.9,20.609780241536324,17.319587628865975,14.132762312633822,469500.0,9208.0,0.0,1.0,0.0,?,0.0,18.0
4800000.0,6.625,1.7688632295984364E-7,4800000.0,59.5,20.333928697882644,19.32270916334661,10.792951541850208,479500.0,9208.0,0.0,1.0,0.0,?,0.0,60.0
4900000.0,6.75,1.7842610961654124E-7,4900000.0,60.9,22.653900933692032,23.483365949119374,18.029350104821795,489500.0,9208.0,0.0,1.0,0.0,?,0.0,0.0
5000000.0,6.875,1.795491294210984E-7,5000000.0,62.2,24.01338007783603,24.550898203592812,21.739130434782606,499500.0,9208.0,0.0,1.0,0.0,?,0.0,0.0
5100000.0,7.046875,1.871827407740057E-7,5100000.0,54.2,5.063159945774079,2.3454157782516014,-10.89588377723969,509400.0,9208.0,0.0,1.0,0.0,?,0.0,0.0
5200000.0,7.171875,1.922429267627498E-7,5200000.0,57.199999999999996,9.987591747460499,7.956989247311812,-15.363881401617263,519400.0,9208.0,0.0,1.0,0.0,?,0.0,0.0
5300000.0,7.3125,1.97382663221409E-7,5300000.0,56.00000000000001,7.87771184985743,0.0,-13.69509043927647,529400.0,9208.0,0.0,1.0,0.0,?,0.0,0.0
5400000.0,7.4375,2.013583758121564E-7,5400000.0,61.1,9.812577088221389,19.793814432989688,-1.8324607329842948,60732.0,9208.0,0.0,1.0,0.0,?,1.0,0.0
5500000.0,7.578125,2.052780796980693E-7,5500000.0,62.2,11.832210632382303,21.08559498956158,1.0471204188481684,70732.0,9208.0,0.0,1.0,0.0,?,0.0,0.0
5600000.0,7.71875,2.0864481080530427E-7,5600000.0,61.8,9.142802778042057,20.910973084886127,-3.243243243243246,80732.0,9208.0,0.0,1.0,0.0,?,0.0,0.0
5700000.0,7.859375,2.114585691338613E-7,5700000.0,65.4,16.25155515537032,25.75107296137339,4.683195592286506,90732.0,9208.0,0.0,1.0,0.0,?,0.0,0.0
5800000.0,8.0,2.1371935468374037E-7,5800000.0,61.3,10.95260009203865,16.414686825053987,1.0230179028133002,100732.0,9208.0,0.0,1.0,0.0,?,0.0,0.0
5900000.0,8.125,2.152374104803636E-7,5900000.0,62.7,9.46953516368295,21.802935010482177,-3.8997214484679703,110732.0,9208.0,0.0,1.0,0.0,?,0.0,0.0
6000000.0,8.265625,2.163922504728868E-7,6000000.0,61.7,20.131792968261262,18.510638297872333,1.7948717948717965,120732.0,9208.0,0.0,1.0,0.0,?,0.0,0.0
6100000.0,8.40625,2.2252937520129823E-7,6100000.0,58.099999999999994,12.497598382771843,9.50323974082072,-11.140583554376668,130632.0,9208.0,0.0,1.0,0.0,?,0.0,0.0
6200000.0,8.546875,2.2811352715103172E-7,6200000.0,60.3,8.508480825958692,15.531914893617014,-2.3195876288659814,140632.0,9208.0,0.0,1.0,0.0,?,0.0,0.0
6300000.0,8.6875,2.3314470632208728E-7,6300000.0,61.1,18.365805135609303,16.34408602150537,2.0151133501259464,150632.0,9208.0,0.0,1.0,0.0,?,0.0,0.0
6400000.0,8.828125,2.376229127144649E-7,6400000.0,59.699999999999996,17.47485337964026,16.907216494845354,5.841121495327108,160632.0,9208.0,0.0,1.0,0.0,?,0.0,0.0
6500000.0,8.96875,2.415481463281646E-7,6500000.0,64.2,14.641590050738165,25.10460251046025,1.1049723756906087,170632.0,9208.0,0.0,1.0,0.0,?,0.0,0.0
6600000.0,9.09375,2.4454571151485056E-7,6600000.0,63.0,23.1756288178598,23.711340206185564,7.268170426065169,180632.0,9208.0,0.0,1.0,0.0,?,0.0,0.0
6700000.0,9.234375,2.473649995711944E-7,6700000.0,60.0,4.746936423342691,11.699779249448111,-8.991825613079026,190632.0,9208.0,0.0,1.0,0.0,?,0.0,0.0
6800000.0,9.375,2.4963131484886026E-7,6800000.0,62.4,10.65275764560512,20.507399577167014,-5.915492957746484,200632.0,9208.0,0.0,1.0,0.0,?,0.0,0.0
6900000.0,9.515625,2.513446573478482E-7,6900000.0,59.8,7.576433369965543,16.07515657620041,-3.341902313624682,210632.0,9208.0,0.0,1.0,0.0,?,0.0,0.0
7000000.0,9.65625,2.525050270681582E-7,7000000.0,61.6,12.44510718634144,13.90134529147981,2.2900763358778646,220632.0,9208.0,0.0,1.0,0.0,?,0.0,0.0
7100000.0,9.78125,2.579651643625566E-7,7100000.0,63.0,13.259564891222794,20.770877944325477,2.6315789473684235,230532.0,9208.0,0.0,1.0,0.0,?,0.0,0.0
7200000.0,9.921875,2.6355484604007684E-7,7200000.0,61.199999999999996,6.856155175724968,17.622080679405514,-7.777777777777785,240532.0,9208.0,0.0,1.0,0.0,?,0.0,0.0
7300000.0,10.0625,2.6859155493891916E-7,7300000.0,60.0,7.341774497676595,15.789473684210517,-4.986876640419951,250532.0,9208.0,0.0,1.0,0.0,?,0.0,0.0
7400000.0,10.203125,2.7307529105908354E-7,7400000.0,62.7,11.747726261794579,21.141649048625787,1.322751322751324,260532.0,9208.0,0.0,1.0,0.0,?,0.0,0.0
7500000.0,10.328125,2.765693029181826E-7,7500000.0,60.9,6.121547385809219,14.442013129102834,-7.417582417582425,270532.0,9208.0,0.0,1.0,0.0,?,0.0,0.0
7600000.0,10.453125,2.7957178341845685E-7,7600000.0,62.4,11.395984541427081,16.81415929203539,0.5291005291005296,280532.0,9208.0,0.0,1.0,0.0,?,0.0,0.0
7700000.0,10.59375,2.823966012025874E-7,7700000.0,60.5,8.096789204281048,16.13588110403396,-3.1331592689295062,290532.0,9208.0,0.0,1.0,0.0,?,0.0,0.0
7800000.0,10.734375,2.8466844620804E-7,7800000.0,64.60000000000001,16.531482249971695,25.0,5.851063829787239,300532.0,9208.0,0.0,1.0,0.0,?,0.0,0.0
7900000.0,10.875,2.863873184348147E-7,7900000.0,60.5,11.74052160234525,20.523138832997983,5.275779376498805,310532.0,9208.0,0.0,1.0,0.0,?,0.0,0.0
8000000.0,11.015625,2.8755321788291144E-7,8000000.0,61.4,12.594934129187394,17.521367521367516,3.258145363408524,320532.0,9208.0,0.0,1.0,0.0,?,0.0,0.0
8100000.0,11.15625,2.9370140206689643E-7,8100000.0,64.60000000000001,16.44203579302173,24.840764331210192,3.542234332425071,330432.0,9208.0,0.0,1.0,0.0,?,0.0,0.0
8200000.0,11.28125,2.9867492331605825E-7,8200000.0,62.6,14.547880604653704,21.26315789473684,5.076142131979699,340432.0,9208.0,0.0,1.0,0.0,?,0.0,0.0
8300000.0,11.421875,3.0371716194268737E-7,8300000.0,61.6,10.780669144981411,17.773019271948602,0.0,350432.0,9208.0,0.0,1.0,0.0,?,0.0,0.0
8400000.0,11.5625,3.0820642779063854E-7,8400000.0,62.8,13.600891861761417,22.0125786163522,4.123711340206189,360432.0,9208.0,0.0,1.0,0.0,?,0.0,0.0
8500000.0,11.703125,3.121427208599118E-7,8500000.0,61.7,11.4368958978865,17.987152034261236,1.7948717948717965,370432.0,9208.0,0.0,1.0,0.0,?,0.0,0.0
8600000.0,11.828125,3.151501166737743E-7,8600000.0,59.199999999999996,13.53697353977087,11.111111111111098,-9.973045822102435,380432.0,9208.0,0.0,1.0,0.0,?,0.0,0.0
8700000.0,11.96875,3.1798046418569163E-7,8700000.0,60.099999999999994,7.537865445579429,16.52719665271966,-1.7857142857142874,390432.0,9208.0,0.0,1.0,0.0,?,0.0,0.0
8800000.0,12.09375,3.200047972819044E-7,8800000.0,59.8,17.223997627911583,19.11468812877263,1.4705882352941189,400432.0,9208.0,0.0,1.0,0.0,?,0.0,0.0
8900000.0,12.21875,3.2153759901929237E-7,8900000.0,60.099999999999994,16.773741385352185,11.135857461024486,-6.11702127659575,410432.0,9208.0,0.0,1.0,0.0,?,0.0,0.0
9000000.0,12.359375,3.227090281951759E-7,9000000.0,59.3,15.121332699350171,14.135021097046405,-4.092071611253201,420432.0,9208.0,0.0,1.0,0.0,?,0.0,0.0
9100000.0,12.484375,3.281789961167508E-7,9100000.0,55.7,8.752358432270785,7.127882599580719,-15.665796344647504,430332.0,9208.0,0.0,1.0,0.0,?,0.0,0.0
9200000.0,12.625,3.3377973724984466E-7,9200000.0,61.7,10.999776918500878,21.516393442622945,1.2886597938144342,440332.0,9208.0,0.0,1.0,0.0,?,0.0,0.0
9300000.0,12.78125,3.3938836875475123E-7,9300000.0,60.8,20.24901837120827,18.16283924843423,7.328605200945633,450332.0,9208.0,0.0,1.0,0.0,?,0.0,0.0
9400000.0,12.921875,3.438831643304892E-7,9400000.0,63.0,22.02515426374887,21.276595744680847,3.141361256544505,460332.0,9208.0,0.0,1.0,0.0,?,0.0,0.0
9500000.0,13.0625,3.478249871275492E-7,9500000.0,63.2,12.005509220292302,18.942731277533035,-3.370786516853936,470332.0,9208.0,0.0,1.0,0.0,?,0.0,0.0
9600000.0,13.203125,3.512138371459313E-7,9600000.0,62.3,11.007667031763418,19.27194860813704,-1.617250673854449,480332.0,9208.0,0.0,1.0,0.0,?,0.0,0.0
9700000.0,13.34375,3.5404971438563546E-7,9700000.0,61.4,10.073618488491274,15.350877192982445,-2.1164021164021185,490332.0,9208.0,0.0,1.0,0.0,?,0.0,0.0
9800000.0,13.484375,3.5633261884666166E-7,9800000.0,63.7,14.606720427578038,24.688796680497923,3.9682539682539715,500332.0,9208.0,0.0,1.0,0.0,?,0.0,0.0
9900000.0,13.625,3.5806255052900993E-7,9900000.0,60.9,16.861577716351274,18.711018711018706,-7.123287671232884,510332.0,9208.0,0.0,1.0,0.0,?,0.0,0.0
1.0E7,13.765625,3.5923950943268026E-7,1.0E7,64.7,15.67531412737091,24.248927038626608,4.594594594594599,520332.0,9208.0,0.0,1.0,0.0,?,0.0,0.0
