learning evaluation instances,evaluation time (cpu seconds),model cost (RAM-Hours),classified instances,classifications correct (percent),Kappa Statistic (percent),Kappa Temporal Statistic (percent),Kappa M Statistic (percent),model training instances,model serialized size (bytes),labeling cost,newThreshold,maxPosterior,accuracyBaseLearner (percent),Change detected,Warning detected
100000.0,0.1875,1.9639264792203904E-9,100000.0,90.0,74.19434752988295,75.49019607843138,64.5390070921986,9842.0,1112.0,0.0,1.0,0.0,?,1.0,9.0
200000.0,0.375,2.9965303838253024E-9,200000.0,91.2,77.92106781744738,79.19621749408985,69.96587030716725,19842.0,1112.0,0.0,1.0,0.0,?,0.0,0.0
300000.0,0.546875,5.227921064943075E-9,300000.0,89.1,72.67540385251738,74.65116279069768,63.7873754152824,29792.0,1112.0,0.0,1.0,0.0,?,0.0,0.0
400000.0,0.71875,6.60559938599666E-9,400000.0,87.8,68.7594425865133,71.02137767220903,57.491289198606275,39792.0,1112.0,0.0,1.0,0.0,?,0.0,0.0
500000.0,0.90625,7.17719861616691E-9,500000.0,88.3,70.55240664861219,72.27488151658768,61.129568106312306,49792.0,1112.0,0.0,1.0,0.0,?,0.0,0.0
600000.0,1.09375,9.150438321133455E-9,600000.0,87.9,69.03787103377688,71.99074074074075,59.66666666666668,59742.0,1112.0,0.0,1.0,0.0,?,0.0,0.0
700000.0,1.28125,1.0192355451484522E-8,700000.0,89.5,73.02435515363273,73.00771208226222,63.41463414634148,69742.0,1112.0,0.0,1.0,0.0,?,0.0,0.0
800000.0,1.46875,1.2635913056631885E-8,800000.0,88.3,69.40568583561702,69.61038961038962,59.23344947735192,79692.0,1112.0,0.0,1.0,0.0,?,0.0,0.0
900000.0,1.65625,1.4148148087163768E-8,900000.0,88.6,70.43859785602041,72.46376811594203,60.55363321799309,89692.0,1112.0,0.0,1.0,0.0,?,0.0,0.0
1000000.0,1.859375,1.477746991440654E-8,1000000.0,89.5,71.78936055883933,72.7979274611399,61.81818181818183,99692.0,1112.0,0.0,1.0,0.0,?,0.0,7.0
1100000.0,2.046875,1.676002284511924E-8,1100000.0,88.2,71.34489574884529,74.34782608695653,62.77602523659306,109642.0,1112.0,0.0,1.0,0.0,?,0.0,0.0
1200000.0,2.234375,1.7811253201216463E-8,1200000.0,90.4,75.10373443983403,76.58536585365854,65.71428571428572,119642.0,1112.0,0.0,1.0,0.0,?,0.0,0.0
1300000.0,2.421875,2.026412403210998E-8,1300000.0,90.7,76.1462618883953,77.80429594272077,68.25938566552902,129592.0,1112.0,0.0,1.0,0.0,?,0.0,15.0
1400000.0,2.609375,2.1785672288388016E-8,1400000.0,88.9,72.84363807175151,72.92682926829269,64.5367412140575,139592.0,1112.0,0.0,1.0,0.0,?,0.0,4.0
1500000.0,2.8125,2.2425083443522456E-8,1500000.0,88.7,70.74751742205379,71.60804020100502,60.07067137809188,149592.0,1112.0,0.0,1.0,0.0,?,0.0,0.0
1600000.0,2.984375,2.425096075360974E-8,1600000.0,89.60000000000001,73.43360444680592,75.17899761336515,64.86486486486488,159542.0,1112.0,0.0,1.0,0.0,?,0.0,0.0
1700000.0,3.1875,2.5399882967273398E-8,1700000.0,88.2,70.1447221941099,71.4975845410628,61.43790849673203,169542.0,1112.0,0.0,1.0,0.0,?,0.0,0.0
1800000.0,3.375,2.786206702391307E-8,1800000.0,88.6,70.73741708934843,71.64179104477613,60.13986013986015,179492.0,1112.0,0.0,1.0,0.0,?,0.0,0.0
1900000.0,3.5625,2.9392928505937263E-8,1900000.0,89.0,72.3822101261882,74.29906542056075,63.210702341137136,189492.0,1112.0,0.0,1.0,0.0,?,0.0,0.0
2000000.0,3.75,2.999246741334598E-8,2000000.0,88.1,67.35576184519499,67.83783783783784,54.92424242424243,199492.0,1112.0,0.0,1.0,0.0,?,0.0,0.0
2100000.0,3.9375,3.199364679555099E-8,2100000.0,90.10000000000001,75.2316714368633,76.59574468085107,67.10963455149503,209442.0,1112.0,0.0,1.0,0.0,?,0.0,0.0
2200000.0,4.125,3.306350360314052E-8,2200000.0,89.4,71.58298839728056,73.69727047146402,61.870503597122315,219442.0,1112.0,0.0,1.0,0.0,?,0.0,0.0
2300000.0,4.3125,3.5535000885526347E-8,2300000.0,87.6,69.20937624155741,70.4057279236277,60.00000000000001,229392.0,1112.0,0.0,1.0,0.0,?,0.0,0.0
2400000.0,4.5,3.7075175593296696E-8,2400000.0,89.0,70.93407319328841,70.27027027027027,60.57347670250897,239392.0,1112.0,0.0,1.0,0.0,?,0.0,0.0
2500000.0,4.671875,3.763329004868866E-8,2500000.0,88.0,68.76740566455153,71.49643705463184,58.76288659793815,249392.0,1112.0,0.0,1.0,0.0,?,0.0,0.0
2600000.0,4.859375,3.9643782656639824E-8,2600000.0,88.7,72.74875801861766,73.28605200945627,65.75757575757576,259342.0,1112.0,0.0,1.0,0.0,?,0.0,0.0
2700000.0,5.0625,4.081288352608682E-8,2700000.0,90.10000000000001,75.17552657973923,77.60180995475113,67.00000000000001,269342.0,1112.0,0.0,1.0,0.0,?,0.0,0.0
2800000.0,5.265625,4.3500428243229795E-8,2800000.0,89.8,71.87417276978736,74.24242424242425,61.9402985074627,279292.0,1112.0,0.0,1.0,0.0,?,0.0,0.0
2900000.0,5.453125,4.50499161767463E-8,2900000.0,88.5,70.56233617300131,71.74447174447175,61.53846153846154,289292.0,1112.0,0.0,1.0,0.0,?,0.0,0.0
3000000.0,5.640625,4.566808153564732E-8,3000000.0,88.8,71.97758206565253,74.13394919168593,63.870967741935495,299292.0,1112.0,0.0,1.0,0.0,?,0.0,0.0
3100000.0,5.8125,4.751957021653653E-8,3100000.0,88.2,70.96528136610812,71.07843137254902,61.81229773462784,309242.0,1112.0,0.0,1.0,0.0,?,0.0,0.0
3200000.0,6.0,4.860805347561837E-8,3200000.0,87.3,68.59513941779839,70.32710280373831,59.554140127388536,319242.0,1112.0,0.0,1.0,0.0,?,0.0,0.0
3300000.0,6.1875,5.1098177209496506E-8,3300000.0,87.8,68.18525569144913,69.42355889724311,57.19298245614035,329192.0,1112.0,0.0,1.0,0.0,?,0.0,0.0
3400000.0,6.390625,5.2786878465364383E-8,3400000.0,89.5,71.65226781857451,74.7596153846154,61.81818181818183,339192.0,1112.0,0.0,1.0,0.0,?,0.0,0.0
3500000.0,6.5625,5.336206716795763E-8,3500000.0,87.8,67.3214869259162,68.06282722513089,55.311355311355314,349192.0,1112.0,0.0,1.0,0.0,?,0.0,0.0
3600000.0,6.75,5.5391186227401105E-8,3600000.0,87.4,68.30985915492957,71.29840546697038,58.00000000000001,359142.0,1112.0,0.0,1.0,0.0,?,0.0,0.0
3700000.0,6.9375,5.64889827122291E-8,3700000.0,88.8,70.58205505358268,72.00000000000001,61.3793103448276,369142.0,1112.0,0.0,1.0,0.0,?,0.0,0.0
3800000.0,7.125,5.8988419671853395E-8,3800000.0,88.9,72.4300318917469,74.12587412587413,63.72549019607844,379092.0,1112.0,0.0,1.0,0.0,?,0.0,0.0
3900000.0,7.3125,6.05565340568622E-8,3900000.0,90.2,75.62189054726369,76.15571776155718,67.76315789473686,389092.0,1112.0,0.0,1.0,0.0,?,0.0,0.0
4000000.0,7.515625,6.124639185145498E-8,4000000.0,88.8,72.04305369730616,74.8314606741573,62.416107382550344,399092.0,1112.0,0.0,1.0,0.0,?,0.0,0.0
4100000.0,7.703125,6.328482413664461E-8,4100000.0,87.7,68.73411286222675,70.36144578313254,58.30508474576271,409042.0,1112.0,0.0,1.0,0.0,?,0.0,0.0
4200000.0,7.890625,6.439193384721876E-8,4200000.0,88.0,69.77329974811083,70.07481296758104,59.18367346938776,419042.0,1112.0,0.0,1.0,0.0,?,0.0,0.0
4300000.0,8.078125,6.69006840325892E-8,4300000.0,86.5,66.26045925763013,67.78042959427208,54.545454545454554,428992.0,1112.0,0.0,1.0,0.0,?,0.0,0.0
4400000.0,8.25,6.834665934244792E-8,4400000.0,89.3,73.55177425574199,74.02912621359224,64.56953642384107,438992.0,1112.0,0.0,1.0,0.0,?,0.0,0.0
4500000.0,8.453125,6.904660646493237E-8,4500000.0,88.8,71.43265247821739,71.85929648241206,61.90476190476192,448992.0,1112.0,0.0,1.0,0.0,?,0.0,0.0
4600000.0,8.640625,7.109435197586816E-8,4600000.0,88.4,70.86012861736334,72.96037296037296,61.8421052631579,458942.0,1112.0,0.0,1.0,0.0,?,0.0,0.0
4700000.0,8.828125,7.221077491218847E-8,4700000.0,89.4,72.89058024388248,75.34883720930233,63.69863013698631,468942.0,1112.0,0.0,1.0,0.0,?,0.0,0.0
4800000.0,9.015625,7.472883832330507E-8,4800000.0,90.2,75.05104352829161,75.62189054726369,65.37102473498234,478892.0,1112.0,0.0,1.0,0.0,?,0.0,0.0
4900000.0,9.203125,7.631557915980619E-8,4900000.0,90.8,76.48790660587599,78.89908256880734,67.83216783216784,488892.0,1112.0,0.0,1.0,0.0,?,0.0,0.0
5000000.0,9.390625,7.700281760965786E-8,5000000.0,89.5,73.0962385979297,73.9454094292804,63.66782006920416,498892.0,1112.0,0.0,1.0,0.0,?,0.0,0.0
5100000.0,9.578125,7.909169653430583E-8,5100000.0,75.4,48.38200672292888,50.602409638554214,45.454545454545446,373862.0,1112.0,0.0,1.0,0.0,?,1.0,1.0
5200000.0,9.78125,8.034571591350769E-8,5200000.0,74.2,48.18548791998875,49.01185770750988,47.131147540983605,383862.0,1112.0,0.0,1.0,0.0,?,0.0,0.0
5300000.0,9.953125,8.26916463362674E-8,5300000.0,77.9,54.22535211267606,55.172413793103445,51.64113785557986,393812.0,1112.0,0.0,1.0,0.0,?,0.0,0.0
5400000.0,10.140625,8.431952058648071E-8,5400000.0,79.4,57.98199344845452,60.53639846743296,56.07675906183369,403812.0,1112.0,0.0,1.0,0.0,?,0.0,0.0
5500000.0,10.328125,8.501607226207854E-8,5500000.0,82.1,63.475649072403904,63.39468302658485,61.33909287257018,413812.0,1112.0,0.0,1.0,0.0,?,0.0,0.0
5600000.0,10.53125,8.728911375833884E-8,5600000.0,85.1,69.86587279757956,70.08032128514056,68.4322033898305,423762.0,1112.0,0.0,1.0,0.0,?,0.0,0.0
5700000.0,10.734375,8.855322246543237E-8,5700000.0,89.1,77.57349310333477,76.90677966101696,74.53271028037383,433762.0,1112.0,0.0,1.0,0.0,?,0.0,0.0
5800000.0,10.921875,9.112173251600732E-8,5800000.0,87.2,74.0689118667142,73.33333333333333,72.2943722943723,443712.0,1112.0,0.0,1.0,0.0,?,0.0,0.0
5900000.0,11.109375,9.275891999196678E-8,5900000.0,88.5,76.51508344292961,77.27272727272727,73.98190045248869,453712.0,1112.0,0.0,1.0,0.0,?,0.0,0.0
6000000.0,11.296875,9.346478489331077E-8,6000000.0,89.5,78.66356712644986,78.95791583166333,76.45739910313901,463712.0,1112.0,0.0,1.0,0.0,?,0.0,0.0
6100000.0,11.484375,9.557229026945105E-8,6100000.0,88.9,77.6395413487184,79.2134831460674,75.92190889370933,473662.0,1112.0,0.0,1.0,0.0,?,0.0,0.0
6200000.0,11.671875,9.674847307097585E-8,6200000.0,90.60000000000001,81.10134904199924,80.21052631578948,80.04246284501062,483662.0,1112.0,0.0,1.0,0.0,?,0.0,0.0
6300000.0,11.875,9.954111495365704E-8,6300000.0,90.3,80.42444643563478,80.52208835341365,79.00432900432901,493612.0,1112.0,0.0,1.0,0.0,?,0.0,0.0
6400000.0,12.046875,1.0105040726355385E-7,6400000.0,88.7,77.26284950823367,76.50727650727652,76.00849256900213,503612.0,1112.0,0.0,1.0,0.0,?,0.0,0.0
6500000.0,12.234375,1.0176558539064399E-7,6500000.0,88.6,76.96178485540489,77.06237424547284,74.83443708609272,513612.0,1112.0,0.0,1.0,0.0,?,0.0,0.0
6600000.0,12.421875,1.0388240399253041E-7,6600000.0,90.0,79.73961351286736,80.43052837573386,77.72828507795101,523562.0,1112.0,0.0,1.0,0.0,?,0.0,0.0
6700000.0,12.625,1.0516669135540728E-7,6700000.0,88.8,77.51121427395357,78.46153846153847,76.61795407098121,533562.0,1112.0,0.0,1.0,0.0,?,0.0,0.0
6800000.0,12.8125,1.0775382785747453E-7,6800000.0,88.5,76.8191896795001,75.68710359408034,74.44444444444444,543512.0,1112.0,0.0,1.0,0.0,?,0.0,0.0
6900000.0,13.0,1.094096417849263E-7,6900000.0,88.9,77.57140778817711,77.06611570247934,75.3880266075388,553512.0,1112.0,0.0,1.0,0.0,?,0.0,0.0
7000000.0,13.1875,1.101341331377626E-7,7000000.0,88.3,75.93285884724565,74.50980392156863,71.25307125307125,563512.0,1112.0,0.0,1.0,0.0,?,0.0,0.0
7100000.0,13.375,1.1226026496539518E-7,7100000.0,89.7,79.34630038099057,80.41825095057035,78.27004219409282,573462.0,1112.0,0.0,1.0,0.0,?,0.0,0.0
7200000.0,13.5625,1.1345507421841229E-7,7200000.0,89.60000000000001,78.85104219623793,78.73210633946832,76.62921348314606,583462.0,1112.0,0.0,1.0,0.0,?,0.0,0.0
7300000.0,13.765625,1.162678947568768E-7,7300000.0,87.7,75.2835360217344,73.71794871794872,73.77398720682302,593412.0,1112.0,0.0,1.0,0.0,?,0.0,0.0
7400000.0,13.953125,1.1793302191007472E-7,7400000.0,88.4,76.30873799098099,76.56565656565657,72.89719626168225,603412.0,1112.0,0.0,1.0,0.0,?,0.0,0.0
7500000.0,14.140625,1.1866682648865716E-7,7500000.0,87.7,74.82603356528858,75.64356435643565,70.99056603773585,613412.0,1112.0,0.0,1.0,0.0,?,0.0,0.0
7600000.0,14.328125,1.208022715420359E-7,7600000.0,87.7,75.42909195512514,75.78740157480314,75.69169960474308,623362.0,1112.0,0.0,1.0,0.0,?,0.0,0.0
7700000.0,14.515625,1.2200639402079915E-7,7700000.0,89.7,79.23604783369485,80.67542213883678,77.2626931567329,633362.0,1112.0,0.0,1.0,0.0,?,0.0,0.0
7800000.0,14.71875,1.2482930388715534E-7,7800000.0,89.7,78.71918413897406,78.80658436213992,74.6928746928747,643312.0,1112.0,0.0,1.0,0.0,?,0.0,0.0
7900000.0,14.90625,1.2650374426609943E-7,7900000.0,89.3,78.45782162270989,77.80082987551867,77.08779443254818,653312.0,1112.0,0.0,1.0,0.0,?,0.0,0.0
8000000.0,15.09375,1.2724686207042804E-7,8000000.0,89.2,78.32709233862715,79.3103448275862,77.07006369426752,663312.0,1112.0,0.0,1.0,0.0,?,0.0,0.0
8100000.0,15.28125,1.2939162034955294E-7,8100000.0,88.0,75.82156313594326,74.89539748953975,73.8562091503268,673262.0,1112.0,0.0,1.0,0.0,?,0.0,0.0
8200000.0,15.453125,1.305039364120199E-7,8200000.0,87.5,74.80773261532012,75.39370078740157,73.0603448275862,683262.0,1112.0,0.0,1.0,0.0,?,0.0,0.0
8300000.0,15.65625,1.3333693560626775E-7,8300000.0,88.6,76.98801358110917,77.94970986460349,74.83443708609272,693212.0,1112.0,0.0,1.0,0.0,?,0.0,0.0
8400000.0,15.84375,1.35020689210958E-7,8400000.0,90.0,79.75511790619332,80.03992015968065,78.16593886462883,703212.0,1112.0,0.0,1.0,0.0,?,0.0,0.0
8500000.0,16.03125,1.3577312024103275E-7,8500000.0,89.1,77.79552325155025,76.95560253699789,74.88479262672811,713212.0,1112.0,0.0,1.0,0.0,?,0.0,0.0
8600000.0,16.21875,1.379271917459038E-7,8600000.0,87.6,75.0,75.0,73.04347826086956,723162.0,1112.0,0.0,1.0,0.0,?,0.0,0.0
8700000.0,16.40625,1.3914994067615937E-7,8700000.0,89.1,77.57847533632287,77.93522267206477,74.65116279069768,733162.0,1112.0,0.0,1.0,0.0,?,0.0,0.0
8800000.0,16.578125,1.415556309641236E-7,8800000.0,89.9,79.59249650445732,79.80000000000001,77.99564270152506,743112.0,1112.0,0.0,1.0,0.0,?,0.0,0.0
8900000.0,16.78125,1.4338978669709634E-7,8900000.0,90.0,79.85170857511284,80.58252427184468,78.26086956521739,753112.0,1112.0,0.0,1.0,0.0,?,0.0,0.0
9000000.0,16.96875,1.4415153095291725E-7,9000000.0,89.3,78.45972976019841,79.34362934362935,76.88984881209502,763112.0,1112.0,0.0,1.0,0.0,?,0.0,0.0
9100000.0,17.15625,1.4631491568353445E-7,9100000.0,88.1,76.0185080690667,76.05633802816901,73.96061269146608,773062.0,1112.0,0.0,1.0,0.0,?,0.0,0.0
9200000.0,17.34375,1.4754697783953616E-7,9200000.0,88.0,75.80752466624465,75.95190380761522,73.96963123644251,783062.0,1112.0,0.0,1.0,0.0,?,0.0,0.0
9300000.0,17.53125,1.5018068047033417E-7,9300000.0,87.3,74.33078123357775,74.90118577075098,71.33182844243791,793012.0,1112.0,0.0,1.0,0.0,?,0.0,0.0
9400000.0,17.71875,1.5188306052651673E-7,9400000.0,89.1,77.93808089640208,78.0241935483871,75.45045045045045,803012.0,1112.0,0.0,1.0,0.0,?,0.0,0.0
9500000.0,17.90625,1.5265411800808378E-7,9500000.0,90.2,80.24233382391485,80.24193548387098,78.92473118279571,813012.0,1112.0,0.0,1.0,0.0,?,0.0,0.0
9600000.0,18.09375,1.5482681596444715E-7,9600000.0,88.6,77.10254844618697,76.92307692307693,76.20041753653445,822962.0,1112.0,0.0,1.0,0.0,?,0.0,0.0
9700000.0,18.28125,1.5606819134619504E-7,9700000.0,89.9,79.34492744138868,80.5019305019305,76.62037037037038,832962.0,1112.0,0.0,1.0,0.0,?,0.0,0.0
9800000.0,18.453125,1.5849095588136053E-7,9800000.0,90.4,80.66480833991267,81.10236220472441,79.22077922077922,842912.0,1112.0,0.0,1.0,0.0,?,0.0,0.0
9900000.0,18.65625,1.6034529027011663E-7,9900000.0,90.8,81.53952347891695,82.60869565217392,80.79331941544886,852912.0,1112.0,0.0,1.0,0.0,?,0.0,0.0
1.0E7,18.828125,1.6106063008515375E-7,1.0E7,89.60000000000001,78.9983844911147,78.68852459016394,76.99115044247787,862912.0,1112.0,0.0,1.0,0.0,?,0.0,0.0
