learning evaluation instances,evaluation time (cpu seconds),model cost (RAM-Hours),classified instances,classifications correct (percent),Kappa Statistic (percent),Kappa Temporal Statistic (percent),Kappa M Statistic (percent),model training instances,model serialized size (bytes),labeling cost,newThreshold,maxPosterior,accuracyBaseLearner (percent),Change detected,Warning detected
100000.0,0.828125,1.6650463092244332E-8,100000.0,65.8,23.603075534666786,25.327510917030565,4.201680672268911,58399.0,3024.0,0.0,1.0,0.0,?,3.0,21.0
200000.0,1.65625,3.021592015607489E-8,200000.0,66.0,24.993492082401268,27.813163481953296,10.290237467018478,118399.0,3024.0,0.0,1.0,0.0,?,0.0,0.0
300000.0,2.484375,4.069637119149168E-8,300000.0,65.3,22.43591463033002,29.898989898989903,9.162303664921474,178399.0,3024.0,0.0,1.0,0.0,?,0.0,0.0
400000.0,3.28125,4.781274280200402E-8,400000.0,66.3,22.697202418637094,31.64300202839757,7.92349726775957,238399.0,3024.0,0.0,1.0,0.0,?,0.0,0.0
500000.0,4.109375,5.212318178059326E-8,500000.0,65.9,25.275669231982896,28.661087866108794,13.231552162849884,298399.0,3024.0,0.0,1.0,0.0,?,0.0,0.0
600000.0,4.921875,6.845948519185185E-8,600000.0,66.3,25.664169688627723,29.79166666666667,14.249363867684488,358099.0,3024.0,0.0,1.0,0.0,?,0.0,0.0
700000.0,5.71875,8.151303821553786E-8,700000.0,66.9,24.911981416282536,28.04347826086957,8.815426997245188,418099.0,3024.0,0.0,1.0,0.0,?,0.0,0.0
800000.0,6.53125,9.179574489179584E-8,800000.0,65.0,20.469005635339037,24.568965517241377,2.7777777777777803,478099.0,3024.0,0.0,1.0,0.0,?,0.0,0.0
900000.0,7.359375,9.919118989879885E-8,900000.0,65.9,24.565532863766688,29.69072164948454,12.339331619537287,538099.0,3024.0,0.0,1.0,0.0,?,0.0,0.0
1000000.0,8.171875,1.0342029984005622E-7,1000000.0,68.89999999999999,32.07827378352406,34.388185654008424,20.66326530612244,598099.0,3024.0,0.0,1.0,0.0,?,0.0,0.0
1100000.0,8.96875,1.1947212947739493E-7,1100000.0,67.2,27.348439541940788,29.462365591397855,14.805194805194818,657799.0,3024.0,0.0,1.0,0.0,?,0.0,0.0
1200000.0,9.796875,1.3306843660150963E-7,1200000.0,67.4,26.406848226540507,32.22453222453223,11.41304347826088,717799.0,3024.0,0.0,1.0,0.0,?,0.0,0.0
1300000.0,10.59375,1.4318308482567467E-7,1300000.0,67.7,29.313001155502654,37.15953307392997,18.43434343434345,777799.0,3024.0,0.0,1.0,0.0,?,0.0,0.0
1400000.0,11.421875,1.5060937989296182E-7,1400000.0,68.10000000000001,26.96819567944762,26.49769585253458,11.878453038674044,837799.0,3024.0,0.0,1.0,0.0,?,0.0,0.0
1500000.0,12.234375,1.548687578178942E-7,1500000.0,67.0,27.187357960186944,26.50334075723831,14.728682170542648,897799.0,3024.0,0.0,1.0,0.0,?,0.0,0.0
1600000.0,13.0625,1.7155007097042266E-7,1600000.0,62.3,16.846795182848826,18.04347826086956,3.0848329048843217,957499.0,3024.0,0.0,1.0,0.0,?,0.0,0.0
1700000.0,13.90625,1.8540291219121875E-7,1700000.0,67.80000000000001,28.80359077542178,31.34328358208956,17.223650385604127,1017499.0,3024.0,0.0,1.0,0.0,?,0.0,0.0
1800000.0,14.734375,1.9591421328691967E-7,1800000.0,66.60000000000001,25.605844618674283,31.275720164609062,13.020833333333345,1077499.0,3024.0,0.0,1.0,0.0,?,0.0,0.0
1900000.0,15.5625,2.0334050835420682E-7,1900000.0,66.0,25.353145486719463,26.88172043010753,12.14470284237727,1137499.0,3024.0,0.0,1.0,0.0,?,0.0,0.0
2000000.0,16.375,2.075998862791392E-7,2000000.0,66.8,25.351320966835306,28.448275862068968,11.466666666666676,1197499.0,3024.0,0.0,1.0,0.0,?,0.0,0.0
2100000.0,17.1875,2.239967256577478E-7,2100000.0,67.7,27.53167964963924,34.482758620689665,15.665796344647534,1257199.0,3024.0,0.0,1.0,0.0,?,0.0,0.0
2200000.0,18.015625,2.3762388284214663E-7,2200000.0,67.5,25.246112797865507,31.722689075630257,9.72222222222223,1317199.0,3024.0,0.0,1.0,0.0,?,0.0,0.0
2300000.0,18.828125,2.479671254857546E-7,2300000.0,66.9,25.538328639173603,24.25629290617851,9.562841530054653,1377199.0,3024.0,0.0,1.0,0.0,?,0.0,0.0
2400000.0,19.640625,2.552835697618623E-7,2400000.0,64.5,22.345303093938128,28.714859437751006,10.579345088161219,1437199.0,3024.0,0.0,1.0,0.0,?,0.0,0.0
2500000.0,20.453125,2.5957321567046973E-7,2500000.0,64.8,23.74350086655113,27.720739219712527,12.00000000000001,1497199.0,3024.0,0.0,1.0,0.0,?,0.0,0.0
2600000.0,21.296875,2.7660070271748633E-7,2600000.0,66.4,27.157945854073095,27.58620689655173,17.241379310344843,1556899.0,3024.0,0.0,1.0,0.0,?,0.0,0.0
2700000.0,22.109375,2.8997074372859465E-7,2700000.0,66.5,23.999745909598268,24.37923250564334,9.214092140921418,1616899.0,3024.0,0.0,1.0,0.0,?,0.0,0.0
2800000.0,22.9375,3.005128948845797E-7,2800000.0,66.7,24.95876112097641,27.450980392156865,10.242587601078176,1676899.0,3024.0,0.0,1.0,0.0,?,0.0,0.0
2900000.0,23.75,3.078293391606874E-7,2900000.0,67.60000000000001,26.65700833031512,34.01221995926681,12.432432432432444,1736899.0,3024.0,0.0,1.0,0.0,?,0.0,0.0
3000000.0,24.578125,3.122014782598449E-7,3000000.0,66.3,25.307635022518543,27.370689655172413,12.919896640826883,1796899.0,3024.0,0.0,1.0,0.0,?,0.0,0.0
3100000.0,25.390625,3.286285856221285E-7,3100000.0,65.8,25.188996220075605,27.848101265822788,13.636363636363647,1856599.0,3024.0,0.0,1.0,0.0,?,0.0,0.0
3200000.0,26.203125,3.420288946169118E-7,3200000.0,65.5,22.6457399103139,27.974947807933198,8.000000000000007,1916599.0,3024.0,0.0,1.0,0.0,?,0.0,0.0
3300000.0,27.015625,3.524024052441948E-7,3300000.0,67.80000000000001,28.659733515302726,33.19502074688798,15.039577836411622,1976599.0,3024.0,0.0,1.0,0.0,?,0.0,0.0
3400000.0,27.828125,3.5974911750397746E-7,3400000.0,67.60000000000001,27.201808271132826,32.640332640332645,14.511873350923496,2036599.0,3024.0,0.0,1.0,0.0,?,0.0,0.0
3500000.0,28.625,3.6398595612910054E-7,3500000.0,65.8,25.155925155925157,24.16851441241685,13.417721518987353,2096599.0,3024.0,0.0,1.0,0.0,?,0.0,0.0
3600000.0,29.421875,3.8009715758057097E-7,3600000.0,69.39999999999999,31.82273912171646,32.59911894273126,19.685039370078727,2156299.0,3024.0,0.0,1.0,0.0,?,0.0,0.0
3700000.0,30.25,3.9375516482525396E-7,3700000.0,68.89999999999999,28.741636880212624,32.39130434782607,13.611111111111093,2216299.0,3024.0,0.0,1.0,0.0,?,0.0,0.0
3800000.0,31.0625,4.0412867545253695E-7,3800000.0,67.2,24.789962211541987,26.62192393736018,10.869565217391314,2276299.0,3024.0,0.0,1.0,0.0,?,0.0,0.0
3900000.0,31.875,4.1147538771231963E-7,3900000.0,67.30000000000001,25.78302315024967,31.157894736842113,10.410958904109599,2336299.0,3024.0,0.0,1.0,0.0,?,0.0,0.0
4000000.0,32.6875,4.15795301604602E-7,4000000.0,65.9,23.43754209812569,28.511530398322854,12.339331619537287,2396299.0,3024.0,0.0,1.0,0.0,?,0.0,0.0
4100000.0,33.515625,4.325691649379829E-7,4100000.0,66.7,24.91544532130779,29.14893617021277,11.20000000000001,2455999.0,3024.0,0.0,1.0,0.0,?,0.0,0.0
4200000.0,34.3125,4.457414615899324E-7,4200000.0,67.9,28.505884344347756,31.55650319829425,17.90281329923275,2515999.0,3024.0,0.0,1.0,0.0,?,0.0,0.0
4300000.0,35.140625,4.563453128664857E-7,4300000.0,68.89999999999999,31.219037508846416,33.68869936034113,19.220779220779207,2575999.0,3024.0,0.0,1.0,0.0,?,0.0,0.0
4400000.0,35.953125,4.637222931099434E-7,4400000.0,66.3,26.583359475757263,29.20168067226891,14.898989898989912,2635999.0,3024.0,0.0,1.0,0.0,?,0.0,0.0
4500000.0,36.75,4.679888176421324E-7,4500000.0,66.2,21.081141661685603,26.521739130434785,-1.1976047904191627,2695999.0,3024.0,0.0,1.0,0.0,?,0.0,0.0
4600000.0,37.5625,4.84446192988091E-7,4600000.0,67.60000000000001,26.178411286500676,28.63436123348018,11.475409836065584,2755699.0,3024.0,0.0,1.0,0.0,?,0.0,0.0
4700000.0,38.375,4.978767699665492E-7,4700000.0,66.60000000000001,25.9252687981264,29.237288135593225,11.170212765957457,2815699.0,3024.0,0.0,1.0,0.0,?,0.0,0.0
4800000.0,39.203125,5.084806212431026E-7,4800000.0,68.60000000000001,30.16014234875446,34.30962343096235,16.042780748663116,2875699.0,3024.0,0.0,1.0,0.0,?,0.0,0.0
4900000.0,40.015625,5.158576014865602E-7,4900000.0,69.6,31.244119562857335,35.999999999999986,18.279569892473106,2935699.0,3024.0,0.0,1.0,0.0,?,0.0,0.0
5000000.0,40.828125,5.209039469870427E-7,5000000.0,66.7,24.232081911262807,28.077753779697627,11.20000000000001,2995699.0,3024.0,0.0,1.0,0.0,?,0.0,0.0
5100000.0,41.640625,5.381079325969848E-7,5100000.0,74.2,47.832416693626655,46.13778705636743,40.277777777777786,51567.0,3024.0,0.0,1.0,0.0,?,3.0,36.0
5200000.0,42.46875,5.525577580556273E-7,5200000.0,77.60000000000001,54.97523638000901,56.42023346303503,50.442477876106196,111567.0,3024.0,0.0,1.0,0.0,?,0.0,0.0
5300000.0,43.265625,5.634937163752814E-7,5300000.0,78.3,56.60694288913775,54.88565488565489,52.82608695652174,171567.0,3024.0,0.0,1.0,0.0,?,0.0,0.0
5400000.0,44.109375,5.719297526714702E-7,5400000.0,76.2,52.400000000000006,52.96442687747036,48.26086956521739,231567.0,3024.0,0.0,1.0,0.0,?,0.0,0.0
5500000.0,44.921875,5.770265448114111E-7,5500000.0,75.8,51.57850085437934,49.79253112033195,47.73218142548596,291567.0,3024.0,0.0,1.0,0.0,?,0.0,0.0
5600000.0,45.71875,5.938996845442388E-7,5600000.0,77.0,54.017657219627665,54.7244094488189,49.11504424778761,351267.0,3024.0,0.0,1.0,0.0,?,0.0,0.0
5700000.0,46.53125,6.080768717866806E-7,5700000.0,77.7,55.376081579726744,54.489795918367356,48.498845265588926,411267.0,3024.0,0.0,1.0,0.0,?,0.0,0.0
5800000.0,47.34375,6.19227260661622E-7,5800000.0,74.8,49.420950163579064,49.498997995991985,42.85714285714285,471267.0,3024.0,0.0,1.0,0.0,?,0.0,0.0
5900000.0,48.171875,6.27507074063437E-7,5900000.0,77.3,54.63592834475096,52.41090146750524,54.6,531267.0,3024.0,0.0,1.0,0.0,?,0.0,0.0
6000000.0,48.96875,6.325058509699174E-7,6000000.0,76.1,52.23286378971268,53.50194552529183,47.70240700218818,591267.0,3024.0,0.0,1.0,0.0,?,0.0,0.0
6100000.0,49.78125,6.497401045635344E-7,6100000.0,76.8,53.579203483160455,55.21235521235521,50.847457627118644,650967.0,3024.0,0.0,1.0,0.0,?,0.0,0.0
6200000.0,50.5625,6.634011192040313E-7,6200000.0,77.5,55.0205106471449,54.361054766734284,51.298701298701296,710967.0,3024.0,0.0,1.0,0.0,?,0.0,0.0
6300000.0,51.390625,6.747967886945441E-7,6300000.0,75.4,50.79370159380401,52.23300970873787,49.17355371900826,770967.0,3024.0,0.0,1.0,0.0,?,0.0,0.0
6400000.0,52.203125,6.829506471856602E-7,6400000.0,76.9,53.80369570434366,56.33270321361059,53.521126760563384,830967.0,3024.0,0.0,1.0,0.0,?,0.0,0.0
6500000.0,53.0,6.879791099992065E-7,6500000.0,75.2,50.42379657764273,47.56871035940804,48.0083857442348,890967.0,3024.0,0.0,1.0,0.0,?,0.0,0.0
6600000.0,53.8125,7.052133635928235E-7,6600000.0,76.5,53.13160644909095,54.45736434108528,51.24481327800831,950667.0,3024.0,0.0,1.0,0.0,?,0.0,0.0
6700000.0,54.625,7.194208188189401E-7,6700000.0,76.8,53.57604523934351,50.95137420718816,48.78587196467991,1010667.0,3024.0,0.0,1.0,0.0,?,0.0,0.0
6800000.0,55.453125,7.308164883094529E-7,6800000.0,78.3,56.47569458373114,57.617187500000014,52.620087336244545,1070667.0,3024.0,0.0,1.0,0.0,?,0.0,0.0
6900000.0,56.28125,7.39127151771552E-7,6900000.0,77.8,55.617752898840465,55.68862275449102,50.66666666666667,1130667.0,3024.0,0.0,1.0,0.0,?,0.0,0.0
7000000.0,57.09375,7.442542118951678E-7,7000000.0,75.5,51.178102282872075,50.30425963488844,45.79646017699115,1190667.0,3024.0,0.0,1.0,0.0,?,0.0,0.0
7100000.0,57.90625,7.615187334724597E-7,7100000.0,75.2,50.362474030366954,50.59760956175299,47.56871035940804,1250367.0,3024.0,0.0,1.0,0.0,?,0.0,0.0
7200000.0,58.734375,7.760302590516705E-7,7200000.0,77.10000000000001,54.25672166513523,54.83234714003945,53.07377049180329,1310367.0,3024.0,0.0,1.0,0.0,?,0.0,0.0
7300000.0,59.5625,7.874567786024675E-7,7300000.0,76.7,53.47815669674946,53.86138613861387,51.45833333333334,1370367.0,3024.0,0.0,1.0,0.0,?,0.0,0.0
7400000.0,60.390625,7.957982921248508E-7,7400000.0,77.9,55.93114890087102,57.00389105058367,52.87846481876333,1430367.0,3024.0,0.0,1.0,0.0,?,0.0,0.0
7500000.0,61.171875,8.007572614587843E-7,7500000.0,77.3,54.6804874542812,55.577299412915856,50.9719222462203,1490367.0,3024.0,0.0,1.0,0.0,?,0.0,0.0
7600000.0,62.0,8.183537930664088E-7,7600000.0,76.5,53.11252992817239,54.894433781190024,50.526315789473685,1550067.0,3024.0,0.0,1.0,0.0,?,0.0,0.0
7700000.0,62.796875,8.323177139067814E-7,7700000.0,76.8,53.613359352506485,55.80952380952382,50.0,1610067.0,3024.0,0.0,1.0,0.0,?,0.0,0.0
7800000.0,63.578125,8.430974493320617E-7,7800000.0,75.7,51.394945074287726,51.10663983903421,48.734177215189874,1670067.0,3024.0,0.0,1.0,0.0,?,0.0,0.0
7900000.0,64.40625,8.514389628544449E-7,7900000.0,75.6,51.18340235680131,50.50709939148072,49.4824016563147,1730067.0,3024.0,0.0,1.0,0.0,?,0.0,0.0
8000000.0,65.234375,8.566954703484144E-7,8000000.0,77.3,54.6,52.708333333333336,48.75846501128668,1790067.0,3024.0,0.0,1.0,0.0,?,0.0,0.0
8100000.0,66.03125,8.736576678024397E-7,8100000.0,77.0,54.08595109954166,55.4263565891473,51.47679324894515,1849767.0,3024.0,0.0,1.0,0.0,?,0.0,0.0
8200000.0,66.859375,8.882000434419346E-7,8200000.0,78.3,56.56107872653898,54.12262156448203,53.63247863247863,1909767.0,3024.0,0.0,1.0,0.0,?,0.0,0.0
8300000.0,67.671875,8.994412362679011E-7,8300000.0,78.2,56.477991439340705,58.23754789272031,53.41880341880342,1969767.0,3024.0,0.0,1.0,0.0,?,0.0,0.0
8400000.0,68.484375,9.076556307263672E-7,8400000.0,78.4,56.872454276814956,57.72994129158513,54.04255319148936,2029767.0,3024.0,0.0,1.0,0.0,?,0.0,0.0
8500000.0,69.3125,9.129429882806208E-7,8500000.0,77.2,54.45247075369175,53.846153846153854,50.86206896551724,2089767.0,3024.0,0.0,1.0,0.0,?,0.0,0.0
8600000.0,70.140625,9.305703699485295E-7,8600000.0,76.8,53.59331743771104,52.84552845528455,51.867219917012456,2149467.0,3024.0,0.0,1.0,0.0,?,0.0,0.0
8700000.0,70.953125,9.448383611419963E-7,8700000.0,76.4,52.86636415926375,51.13871635610766,48.24561403508772,2209467.0,3024.0,0.0,1.0,0.0,?,0.0,0.0
8800000.0,71.78125,9.562957307530773E-7,8800000.0,79.60000000000001,59.18383679937256,58.4521384928717,56.3169164882227,2269467.0,3024.0,0.0,1.0,0.0,?,0.0,0.0
8900000.0,72.578125,9.643521560873421E-7,8900000.0,77.5,55.04315856777494,55.44554455445545,53.608247422680414,2329467.0,3024.0,0.0,1.0,0.0,?,0.0,0.0
9000000.0,73.40625,9.696395136415958E-7,9000000.0,76.0,52.085862135053986,53.03326810176125,48.8272921108742,2389467.0,3024.0,0.0,1.0,0.0,?,0.0,0.0
9100000.0,74.1875,9.862982228191362E-7,9100000.0,76.1,52.18202043968532,54.64895635673624,47.24061810154525,2449167.0,3024.0,0.0,1.0,0.0,?,0.0,0.0
9200000.0,75.0,1.0005964819962779E-6,9200000.0,79.5,58.9872040076504,59.16334661354582,56.75105485232068,2509167.0,3024.0,0.0,1.0,0.0,?,0.0,0.0
9300000.0,75.828125,1.0120847016676431E-6,9300000.0,77.10000000000001,54.16883480766922,54.92125984251969,50.85836909871245,2569167.0,3024.0,0.0,1.0,0.0,?,0.0,0.0
9400000.0,76.65625,1.0204879153105946E-6,9400000.0,75.3,50.62725375592674,46.76724137931034,48.21802935010482,2629167.0,3024.0,0.0,1.0,0.0,?,0.0,0.0
9500000.0,77.46875,1.0257057793852353E-6,9500000.0,75.7,51.45243137411596,49.26931106471816,48.625792811839325,2689167.0,3024.0,0.0,1.0,0.0,?,0.0,0.0
9600000.0,78.28125,1.0430308369298773E-6,9600000.0,79.4,58.76651841295132,60.15473887814314,56.263269639065825,2748867.0,3024.0,0.0,1.0,0.0,?,0.0,0.0
9700000.0,79.078125,1.0570541295843817E-6,9700000.0,78.0,55.92860433902923,53.38983050847458,51.64835164835166,2808867.0,3024.0,0.0,1.0,0.0,?,0.0,0.0
9800000.0,79.859375,1.0678920726705755E-6,9800000.0,74.4,48.9011756721691,49.902152641878665,45.18201284796574,2868867.0,3024.0,0.0,1.0,0.0,?,0.0,0.0
9900000.0,80.65625,1.0759781839119063E-6,9900000.0,78.8,57.431770356448695,57.25806451612904,54.112554112554115,2928867.0,3024.0,0.0,1.0,0.0,?,0.0,0.0
1.0E7,81.46875,1.081196047986547E-6,1.0E7,78.2,56.34621854124282,55.87044534412956,54.393305439330554,2988867.0,3024.0,0.0,1.0,0.0,?,0.0,0.0
