learning evaluation instances,evaluation time (cpu seconds),model cost (RAM-Hours),classified instances,classifications correct (percent),Kappa Statistic (percent),Kappa Temporal Statistic (percent),Kappa M Statistic (percent),model training instances,model serialized size (bytes),labeling cost,newThreshold,maxPosterior,accuracyBaseLearner (percent),Change detected,Warning detected
100000.0,0.078125,5.610571760270331E-10,100000.0,69.1,39.15070931762148,35.8921161825726,24.078624078624074,9940.0,3256.0,0.0,1.0,0.0,?,0.0,34.0
200000.0,0.15625,9.382751563356984E-10,200000.0,70.8,42.12962962962961,38.91213389121338,34.821428571428555,19900.0,3256.0,0.0,1.0,0.0,?,0.0,35.0
300000.0,0.25,1.6189167379505107E-9,300000.0,66.7,34.17931688804555,33.92857142857144,20.71428571428573,8881.0,3256.0,0.0,1.0,0.0,?,2.0,7.0
400000.0,0.359375,2.1529073516527815E-9,400000.0,65.2,31.843019589256283,31.764705882352946,19.63048498845267,18841.0,3256.0,0.0,1.0,0.0,?,0.0,56.0
500000.0,0.453125,2.857026023169359E-9,500000.0,67.2,35.86108449519937,31.950207468879675,20.963855421686763,28781.0,3256.0,0.0,1.0,0.0,?,0.0,25.0
600000.0,0.53125,3.253646557115847E-9,600000.0,68.0,36.77888414730521,34.02061855670104,25.581395348837226,38741.0,3256.0,0.0,1.0,0.0,?,0.0,37.0
700000.0,0.625,3.969406760815117E-9,700000.0,67.10000000000001,35.33449167800114,28.008752735229763,17.336683417085442,48681.0,3256.0,0.0,1.0,0.0,?,0.0,0.0
800000.0,0.734375,4.538257295886676E-9,800000.0,68.0,36.526071915960536,32.05944798301486,24.88262910798124,58641.0,3256.0,0.0,1.0,0.0,?,0.0,0.0
900000.0,0.8125,5.144425409121646E-9,900000.0,67.30000000000001,35.260344486240356,34.33734939759037,21.20481927710845,68581.0,3256.0,0.0,1.0,0.0,?,0.0,0.0
1000000.0,0.890625,5.560448496705956E-9,1000000.0,69.6,39.98357445195526,37.44855967078188,24.752475247524746,78541.0,3256.0,0.0,1.0,0.0,?,0.0,0.0
1100000.0,0.96875,6.176317886759838E-9,1100000.0,69.1,38.93859871000378,41.03053435114503,29.290617848970246,88481.0,3256.0,0.0,1.0,0.0,?,0.0,0.0
1200000.0,1.046875,6.602042251163059E-9,1200000.0,71.1,42.73599112308788,37.98283261802574,34.318181818181806,98441.0,3256.0,0.0,1.0,0.0,?,0.0,0.0
1300000.0,1.140625,7.35272705141041E-9,1300000.0,68.0,37.02547713040843,34.560327198364014,25.754060324826007,108381.0,3256.0,0.0,1.0,0.0,?,0.0,4.0
1400000.0,1.21875,7.785080621639888E-9,1400000.0,70.0,40.45728802794537,37.23849372384936,31.818181818181802,118341.0,3256.0,0.0,1.0,0.0,?,0.0,42.0
1500000.0,1.296875,8.417280494338937E-9,1500000.0,67.0,35.32049673858506,31.818181818181824,19.90291262135924,128281.0,3256.0,0.0,1.0,0.0,?,0.0,10.0
1600000.0,1.375,8.859335341387325E-9,1600000.0,69.0,38.87337718675561,36.08247422680411,23.645320197044327,138241.0,3256.0,0.0,1.0,0.0,?,0.0,0.0
1700000.0,1.46875,9.629616720808876E-9,1700000.0,67.4,35.59526961084529,35.82677165354332,27.716186252771625,148181.0,3256.0,0.0,1.0,0.0,?,0.0,0.0
1800000.0,1.546875,1.0081372844676176E-8,1800000.0,66.0,33.276814870635526,27.038626609442062,16.66666666666668,158141.0,3256.0,0.0,1.0,0.0,?,0.0,4.0
1900000.0,1.625,1.0736047342005703E-8,1900000.0,66.9,34.94138828394645,31.327800829875525,20.048309178743978,168081.0,3256.0,0.0,1.0,0.0,?,0.0,3.0
2000000.0,1.71875,1.1293482708020344E-8,2000000.0,66.0,32.90179981054627,22.727272727272723,10.526315789473694,178041.0,3256.0,0.0,1.0,0.0,?,0.0,0.0
2100000.0,1.796875,1.1957858482168782E-8,2100000.0,69.69999999999999,40.2154611104534,41.5057915057915,30.82191780821916,187981.0,3256.0,0.0,1.0,0.0,?,0.0,0.0
2200000.0,1.890625,1.2523248895174929E-8,2200000.0,66.8,34.60988493703247,28.29373650107992,17.206982543640912,197941.0,3256.0,0.0,1.0,0.0,?,0.0,20.0
2300000.0,1.96875,1.3194253875149622E-8,2300000.0,67.5,35.92372360057413,30.25751072961374,24.768518518518537,207881.0,3256.0,0.0,1.0,0.0,?,0.0,0.0
2400000.0,2.046875,1.3675113829473656E-8,2400000.0,68.8,38.943248532289616,35.26970954356845,19.999999999999986,217841.0,3256.0,0.0,1.0,0.0,?,0.0,0.0
2500000.0,2.125,1.4355820086267262E-8,2500000.0,68.2,36.945547126263584,36.01609657947687,19.89924433249372,227781.0,3256.0,0.0,1.0,0.0,?,0.0,0.0
2600000.0,2.21875,1.4944493563638794E-8,2600000.0,71.1,42.62913407710326,42.084168336673336,37.98283261802574,237741.0,3256.0,0.0,1.0,0.0,?,0.0,0.0
2700000.0,2.296875,1.563490109725131E-8,2700000.0,70.8,42.228553339664444,44.592030360531304,30.476190476190474,247681.0,3256.0,0.0,1.0,0.0,?,0.0,0.0
2800000.0,2.375,1.6135163605213165E-8,2800000.0,67.10000000000001,35.5957685049605,29.0948275862069,12.032085561497336,257641.0,3256.0,0.0,1.0,0.0,?,0.0,0.0
2900000.0,2.46875,1.6975294177730878E-8,2900000.0,68.5,37.59410412869483,34.237995824634666,24.096385542168694,267581.0,3256.0,0.0,1.0,0.0,?,0.0,0.0
3000000.0,2.546875,1.7485257962511645E-8,3000000.0,70.3,40.99697236989534,42.774566473988436,32.80542986425338,277541.0,3256.0,0.0,1.0,0.0,?,0.0,0.0
3100000.0,2.625,1.8195068049761985E-8,3100000.0,67.9,37.081523528766105,32.27848101265823,24.292452830188697,287481.0,3256.0,0.0,1.0,0.0,?,0.0,0.0
3200000.0,2.703125,1.8714733111361665E-8,3200000.0,69.0,39.02654902068768,37.999999999999986,28.07424593967517,297441.0,3256.0,0.0,1.0,0.0,?,0.0,0.0
3300000.0,2.796875,1.9578146748244764E-8,3300000.0,67.7,36.38476385551661,34.482758620689665,21.980676328502433,307381.0,3256.0,0.0,1.0,0.0,?,0.0,0.0
3400000.0,2.875,2.0107513086663353E-8,3400000.0,68.30000000000001,37.168499417272535,36.85258964143428,24.881516587677748,317341.0,3256.0,0.0,1.0,0.0,?,0.0,0.0
3500000.0,2.953125,2.0836725727551514E-8,3500000.0,66.10000000000001,33.41451917033312,26.46420824295011,16.29629629629631,327281.0,3256.0,0.0,1.0,0.0,?,0.0,0.0
3600000.0,3.0625,2.1591420388884016E-8,3600000.0,68.60000000000001,37.95766104333877,36.30831643002029,26.806526806526826,337241.0,3256.0,0.0,1.0,0.0,?,0.0,0.0
3700000.0,3.15625,2.2478117090132503E-8,3700000.0,68.8,38.04606830818109,35.26970954356845,21.999999999999993,347181.0,3256.0,0.0,1.0,0.0,?,0.0,0.0
3800000.0,3.25,2.3136639760600198E-8,3800000.0,68.5,37.72931427125506,36.87374749498999,28.246013667425974,357141.0,3256.0,0.0,1.0,0.0,?,0.0,0.0
3900000.0,3.328125,2.388525495512618E-8,3900000.0,69.6,40.219614259195154,39.56262425447315,27.272727272727266,367081.0,3256.0,0.0,1.0,0.0,?,0.0,0.0
4000000.0,3.40625,2.4443725124001503E-8,4000000.0,71.0,42.60312634833172,40.2061855670103,32.400932400932405,377041.0,3256.0,0.0,1.0,0.0,?,0.0,0.0
4100000.0,3.5,2.4885715295871097E-8,4100000.0,67.60000000000001,36.27591741044211,33.470225872689944,25.173210161662833,387001.0,3256.0,0.0,1.0,0.0,?,0.0,0.0
4200000.0,3.578125,2.5453886741565332E-8,4200000.0,70.3,41.23140973381984,39.26380368098158,29.453681710213775,396941.0,3256.0,0.0,1.0,0.0,?,0.0,0.0
4300000.0,3.65625,2.5831913161608908E-8,4300000.0,66.60000000000001,34.18485778805949,32.79678068410464,19.12832929782084,406901.0,3256.0,0.0,1.0,0.0,?,0.0,0.0
4400000.0,3.75,2.6525360428624684E-8,4400000.0,67.60000000000001,36.121888899403814,34.41295546558705,22.48803827751198,416841.0,3256.0,0.0,1.0,0.0,?,0.0,6.0
4500000.0,3.828125,2.691308812548717E-8,4500000.0,69.0,38.437096614040314,35.95041322314048,27.738927738927732,426801.0,3256.0,0.0,1.0,0.0,?,0.0,30.0
4600000.0,3.90625,2.7500662124819226E-8,4600000.0,70.5,41.68300860323886,41.117764471057875,32.801822323462396,436741.0,3256.0,0.0,1.0,0.0,?,0.0,0.0
4700000.0,4.0,2.7977576893236902E-8,4700000.0,70.19999999999999,41.380816183615735,41.68297455968688,27.493917274939168,446701.0,3256.0,0.0,1.0,0.0,?,0.0,0.0
4800000.0,4.078125,2.857485216938787E-8,4800000.0,70.8,42.27081315118324,41.129032258064505,29.976019184652277,456641.0,3256.0,0.0,1.0,0.0,?,0.0,0.0
4900000.0,4.15625,2.898198241988818E-8,4900000.0,72.39999999999999,45.44160670514746,46.82080924855491,35.8139534883721,466601.0,3256.0,0.0,1.0,0.0,?,0.0,0.0
5000000.0,4.25,2.9728592683871588E-8,5000000.0,67.30000000000001,35.663862371819604,31.732776617954077,22.511848341232245,476541.0,3256.0,0.0,1.0,0.0,?,0.0,0.0
5100000.0,4.34375,3.025071540226539E-8,5100000.0,65.5,33.381736168503664,15.441176470588246,-22.340425531914875,486501.0,3256.0,0.0,1.0,0.0,?,0.0,3.0
5200000.0,4.421875,3.087935814013084E-8,5200000.0,69.5,35.922754355151795,27.72511848341232,-4.095563139931744,18148.0,3256.0,0.0,1.0,0.0,?,1.0,12.0
5300000.0,4.5,3.1317855852345624E-8,5300000.0,67.5,33.45618345618346,24.242424242424264,-8.333333333333302,28108.0,3256.0,0.0,1.0,0.0,?,0.0,0.0
5400000.0,4.578125,3.1956199867029985E-8,5400000.0,65.5,29.190098928615416,17.857142857142872,-20.209059233449455,38048.0,3256.0,0.0,1.0,0.0,?,0.0,0.0
5500000.0,4.65625,3.2404398856063686E-8,5500000.0,66.8,32.797603384409854,21.327014218009495,-10.299003322259107,48008.0,3256.0,0.0,1.0,0.0,?,0.0,0.0
5600000.0,4.75,3.318205320586761E-8,5600000.0,62.6,27.69957045038915,13.225058004640381,-25.08361204013376,57948.0,3256.0,0.0,1.0,0.0,?,0.0,0.0
5700000.0,4.828125,3.363995347172022E-8,5700000.0,64.8,32.043183467959906,9.511568123393324,-23.076923076923055,67908.0,3256.0,0.0,1.0,0.0,?,0.0,0.0
5800000.0,4.921875,3.442924935370684E-8,5800000.0,66.9,31.825109780110232,14.248704663212447,-15.331010452961646,77848.0,3256.0,0.0,1.0,0.0,?,0.0,0.0
5900000.0,5.015625,3.499037120491266E-8,5900000.0,63.7,29.540831379369248,12.318840579710155,-25.605536332179913,87808.0,3256.0,0.0,1.0,0.0,?,0.0,0.0
6000000.0,5.125,3.592479818811019E-8,6000000.0,68.60000000000001,34.178807252908506,18.65284974093266,-14.181818181818153,97748.0,3256.0,0.0,1.0,0.0,?,0.0,0.0
6100000.0,5.234375,3.6593022135396796E-8,6100000.0,66.9,32.97044219257531,28.19956616052061,-4.088050314465413,107708.0,3256.0,0.0,1.0,0.0,?,0.0,0.0
6200000.0,5.296875,3.71347414329648E-8,6200000.0,65.2,32.766615146831526,15.121951219512209,-24.285714285714267,117648.0,3256.0,0.0,1.0,0.0,?,0.0,0.0
6300000.0,5.375,3.762174552927414E-8,6300000.0,68.4,33.66946402408051,24.76190476190478,-7.849829351535805,127608.0,3256.0,0.0,1.0,0.0,?,0.0,0.0
6400000.0,5.453125,3.8308595928053054E-8,6400000.0,67.4,33.860018584117476,20.487804878048795,-4.153354632587864,137548.0,3256.0,0.0,1.0,0.0,?,0.0,0.0
6500000.0,5.546875,3.890464237580696E-8,6500000.0,69.0,35.083428265094135,22.30576441102756,-9.154929577464795,147508.0,3256.0,0.0,1.0,0.0,?,0.0,0.0
6600000.0,5.625,3.960119405140479E-8,6600000.0,70.39999999999999,37.68289858733868,29.355608591885442,-0.3389830508474579,157448.0,3256.0,0.0,1.0,0.0,?,0.0,0.0
6700000.0,5.703125,4.010760070135196E-8,6700000.0,62.9,29.25841462577511,10.3864734299517,-21.24183006535946,167408.0,3256.0,0.0,1.0,0.0,?,0.0,0.0
6800000.0,5.78125,4.0813853653768696E-8,6800000.0,62.6,28.387610673692592,6.965174129353239,-30.769230769230756,177348.0,3256.0,0.0,1.0,0.0,?,0.0,0.0
6900000.0,5.875,4.143318316588799E-8,6900000.0,63.7,30.420848443957155,15.18691588785048,-21.40468227424747,187308.0,3256.0,0.0,1.0,0.0,?,0.0,0.0
7000000.0,5.953125,4.2149137395123635E-8,7000000.0,64.3,29.858065733012683,3.5135135135135167,-35.22727272727271,197248.0,3256.0,0.0,1.0,0.0,?,0.0,0.0
7100000.0,6.03125,4.267494659870862E-8,7100000.0,65.60000000000001,34.08572687731132,18.483412322274894,-14.28571428571426,207208.0,3256.0,0.0,1.0,0.0,?,0.0,0.0
7200000.0,6.125,4.3545733205974096E-8,7200000.0,68.30000000000001,32.54515431625897,21.339950372208456,-13.620071684587783,217148.0,3256.0,0.0,1.0,0.0,?,0.0,0.0
7300000.0,6.21875,4.4188345782458774E-8,7300000.0,70.0,37.531234382808584,28.57142857142857,3.2258064516129052,227108.0,3256.0,0.0,1.0,0.0,?,0.0,0.0
7400000.0,6.296875,4.4923702565332245E-8,7400000.0,66.2,31.368607432495548,8.648648648648656,-21.1469534050179,237048.0,3256.0,0.0,1.0,0.0,?,0.0,0.0
7500000.0,6.390625,4.557795667399962E-8,7500000.0,68.2,32.745384176130976,24.285714285714306,-9.278350515463886,247008.0,3256.0,0.0,1.0,0.0,?,0.0,0.0
7600000.0,6.46875,4.6323014733692E-8,7600000.0,68.0,34.21052631578947,24.528301886792473,3.0303030303030334,256948.0,3256.0,0.0,1.0,0.0,?,0.0,0.0
7700000.0,6.546875,4.687792776773372E-8,7700000.0,66.7,35.21400778210118,24.660633484162894,-10.999999999999972,266908.0,3256.0,0.0,1.0,0.0,?,0.0,0.0
7800000.0,6.640625,4.778363897154727E-8,7800000.0,69.8,35.40383299110198,23.73737373737373,-12.686567164179117,276848.0,3256.0,0.0,1.0,0.0,?,0.0,0.0
7900000.0,6.71875,4.834825328240791E-8,7900000.0,63.6,29.523197323430438,10.784313725490206,-21.739130434782588,286808.0,3256.0,0.0,1.0,0.0,?,0.0,0.0
8000000.0,6.796875,4.911271389573811E-8,8000000.0,67.5,36.62889098609346,24.942263279445747,-4.501607717041768,296748.0,3256.0,0.0,1.0,0.0,?,0.0,0.0
8100000.0,6.890625,4.980189260095357E-8,8100000.0,70.6,39.45135513633742,28.11735941320293,5.161290322580649,306708.0,3256.0,0.0,1.0,0.0,?,0.0,0.0
8200000.0,6.96875,5.0186063162982454E-8,8200000.0,63.3,29.786566467441624,14.252336448598141,-16.878980891719763,316668.0,3256.0,0.0,1.0,0.0,?,0.0,0.0
8300000.0,7.046875,5.077008002748091E-8,8300000.0,62.6,27.93945372711018,6.265664160401007,-31.69014084507041,326608.0,3256.0,0.0,1.0,0.0,?,0.0,0.0
8400000.0,7.125,5.1163951866328704E-8,8400000.0,63.4,28.964039500652135,12.230215827338139,-32.6086956521739,336568.0,3256.0,0.0,1.0,0.0,?,0.0,0.0
8500000.0,7.21875,5.1876413635909545E-8,8500000.0,61.4,26.01055020548364,-0.7832898172323766,-40.87591240875912,346508.0,3256.0,0.0,1.0,0.0,?,0.0,0.0
8600000.0,7.3125,5.23607013747096E-8,8600000.0,63.5,29.4276875483372,16.666666666666657,-21.666666666666647,356468.0,3256.0,0.0,1.0,0.0,?,0.0,0.0
8700000.0,7.390625,5.2964120792845876E-8,8700000.0,66.7,33.56741012648128,16.750000000000014,-14.827586206896527,366408.0,3256.0,0.0,1.0,0.0,?,0.0,0.0
8800000.0,7.46875,5.3377395185331496E-8,8800000.0,64.1,30.309124651545634,16.511627906976756,-17.320261437908474,376368.0,3256.0,0.0,1.0,0.0,?,0.0,0.0
8900000.0,7.5625,5.411314001927772E-8,8900000.0,69.8,37.84575869336142,26.699029126213585,0.6578947368421058,386308.0,3256.0,0.0,1.0,0.0,?,0.0,0.0
9000000.0,7.640625,5.453611568858225E-8,9000000.0,67.0,32.80555148316474,25.675675675675674,-10.738255033557017,396268.0,3256.0,0.0,1.0,0.0,?,0.0,0.0
9100000.0,7.71875,5.5158937660356356E-8,9100000.0,65.5,32.50170213098975,16.867469879518087,-17.34693877551018,406208.0,3256.0,0.0,1.0,0.0,?,0.0,0.0
9200000.0,7.8125,5.567814999570448E-8,9200000.0,66.5,32.49941566658338,16.250000000000014,-13.94557823129249,416168.0,3256.0,0.0,1.0,0.0,?,0.0,0.0
9300000.0,7.890625,5.6310673244297496E-8,9300000.0,66.8,31.7052298982984,20.76372315035801,-12.162162162162133,426108.0,3256.0,0.0,1.0,0.0,?,0.0,0.0
9400000.0,7.96875,5.675305146723985E-8,9400000.0,67.7,35.451122710813046,21.601941747572834,-6.95364238410593,436068.0,3256.0,0.0,1.0,0.0,?,0.0,0.0
9500000.0,8.078125,5.7652165802816546E-8,9500000.0,64.5,27.574669495674893,11.027568922305774,-20.338983050847435,446008.0,3256.0,0.0,1.0,0.0,?,0.0,0.0
9600000.0,8.171875,5.8194661202530065E-8,9600000.0,69.5,36.871822893381676,29.06976744186046,-0.3289473684210529,455968.0,3256.0,0.0,1.0,0.0,?,0.0,0.0
9700000.0,8.28125,5.910735732565323E-8,9700000.0,69.39999999999999,35.92106144877034,28.83720930232558,-4.7945205479452095,465908.0,3256.0,0.0,1.0,0.0,?,0.0,0.0
9800000.0,8.359375,5.95691381022334E-8,9800000.0,70.1,37.02982974887748,25.621890547263675,-5.653710247349827,475868.0,3256.0,0.0,1.0,0.0,?,0.0,0.0
9900000.0,8.4375,6.023076518128314E-8,9900000.0,65.2,32.77051175550104,20.000000000000014,-22.105263157894715,485808.0,3256.0,0.0,1.0,0.0,?,0.0,0.0
1.0E7,8.53125,6.079654364536205E-8,1.0E7,69.6,36.9103504380995,24.938271604938265,-5.190311418685125,495768.0,3256.0,0.0,1.0,0.0,?,0.0,0.0
