learning evaluation instances,evaluation time (cpu seconds),model cost (RAM-Hours),classified instances,classifications correct (percent),Kappa Statistic (percent),Kappa Temporal Statistic (percent),Kappa M Statistic (percent),model training instances,model serialized size (bytes),labeling cost,newThreshold,maxPosterior,accuracyBaseLearner (percent),Change detected,Warning detected
100000.0,0.15625,3.5791243943903184E-9,100000.0,61.4,12.862096366394574,17.69722814498933,6.310679611650491,30858.0,5144.0,0.0,1.0,0.0,?,4.0,108.0
200000.0,0.328125,6.840305609835519E-9,200000.0,62.0,10.613473842679701,18.103448275862064,-2.7027027027027053,90858.0,5144.0,0.0,1.0,0.0,?,0.0,77.0
300000.0,0.5,9.412114094528889E-9,300000.0,62.8,13.793502996370977,15.64625850340135,3.8759689922480653,150858.0,5144.0,0.0,1.0,0.0,?,0.0,31.0
400000.0,0.65625,1.1135707609355451E-8,400000.0,60.6,8.123813654573505,18.762886597938138,-3.412073490813651,210858.0,5144.0,0.0,1.0,0.0,?,0.0,0.0
500000.0,0.8125,1.224488692565097E-8,500000.0,61.8,11.608857625471444,20.083682008368196,-0.2624671916010501,270858.0,5144.0,0.0,1.0,0.0,?,0.0,0.0
600000.0,0.96875,1.5811723036070667E-8,600000.0,61.5,9.778594327065482,20.45454545454545,-3.7735849056603805,330558.0,5144.0,0.0,1.0,0.0,?,0.0,0.0
700000.0,1.125,1.876414494795932E-8,700000.0,64.5,13.672353753671976,23.982869379014986,2.203856749311297,390558.0,5144.0,0.0,1.0,0.0,?,0.0,0.0
800000.0,1.28125,2.110215266131693E-8,800000.0,61.0,11.179535765040269,15.766738660907118,0.5102040816326534,450558.0,5144.0,0.0,1.0,0.0,?,0.0,0.0
900000.0,1.4375,2.282574617614349E-8,900000.0,63.1,11.118604875228822,22.641509433962263,-2.500000000000002,510558.0,5144.0,0.0,1.0,0.0,?,0.0,0.0
1000000.0,1.59375,2.3934925492439007E-8,1000000.0,62.3,13.265540882528882,19.787234042553187,3.333333333333336,570558.0,5144.0,0.0,1.0,0.0,?,0.0,0.0
1100000.0,1.75,2.7507905744844014E-8,1100000.0,60.6,7.473510182610648,14.90280777537796,-4.232804232804237,630258.0,5144.0,0.0,1.0,0.0,?,0.0,0.0
1200000.0,1.90625,3.046647179871798E-8,1200000.0,60.199999999999996,8.32534827154123,15.498938428874725,-2.5773195876288684,690258.0,5144.0,0.0,1.0,0.0,?,0.0,0.0
1300000.0,2.078125,3.304503883959519E-8,1300000.0,60.099999999999994,8.773309676888315,14.377682403433468,-0.2512562814070354,750258.0,5144.0,0.0,1.0,0.0,?,0.0,0.0
1400000.0,2.234375,3.477477649640707E-8,1400000.0,58.4,9.30456660227872,14.403292181069949,3.030303030303033,810258.0,5144.0,0.0,1.0,0.0,?,0.0,0.0
1500000.0,2.390625,3.58900999546879E-8,1500000.0,64.2,14.641590050738165,25.10460251046025,1.1049723756906087,870258.0,5144.0,0.0,1.0,0.0,?,0.0,0.0
1600000.0,2.546875,3.9463080207092905E-8,1600000.0,60.5,9.179534815278064,18.55670103092783,0.7537688442211062,929958.0,5144.0,0.0,1.0,0.0,?,0.0,0.0
1700000.0,2.703125,4.242164626096687E-8,1700000.0,61.0,7.291191236878144,13.716814159292024,-6.557377049180333,989958.0,5144.0,0.0,1.0,0.0,?,0.0,0.0
1800000.0,2.859375,4.476579811630979E-8,1800000.0,62.5,10.774619067107002,20.71881606765327,-5.932203389830514,1049958.0,5144.0,0.0,1.0,0.0,?,0.0,0.0
1900000.0,3.015625,4.649553577312166E-8,1900000.0,61.7,9.968782909583295,20.041753653444673,1.2886597938144342,1109958.0,5144.0,0.0,1.0,0.0,?,0.0,0.0
2000000.0,3.171875,4.761085923140249E-8,2000000.0,61.6,12.44510718634144,13.90134529147981,2.2900763358778646,1169958.0,5144.0,0.0,1.0,0.0,?,0.0,0.0
2100000.0,3.328125,5.1189983625792814E-8,2100000.0,62.2,13.180488118589032,19.230769230769226,0.2638522427440636,1229658.0,5144.0,0.0,1.0,0.0,?,0.0,0.0
2200000.0,3.484375,5.415469382165209E-8,2200000.0,61.5,6.557026911576233,18.085106382978715,-7.242339832869088,1289658.0,5144.0,0.0,1.0,0.0,?,0.0,0.0
2300000.0,3.65625,5.674001941871314E-8,2300000.0,60.099999999999994,6.827946945637945,15.999999999999993,-5.000000000000004,1349658.0,5144.0,0.0,1.0,0.0,?,0.0,0.0
2400000.0,3.796875,5.830231303763061E-8,2400000.0,65.2,18.58315981564233,26.42706131078224,7.6923076923077,1409658.0,5144.0,0.0,1.0,0.0,?,0.0,0.0
2500000.0,3.953125,5.9423780637896747E-8,2500000.0,60.9,6.320379510278394,14.442013129102834,-7.123287671232884,1469658.0,5144.0,0.0,1.0,0.0,?,0.0,0.0
2600000.0,4.109375,6.300290503228707E-8,2600000.0,63.2,12.880437870494902,18.58407079646017,2.645502645502648,1529358.0,5144.0,0.0,1.0,0.0,?,0.0,0.0
2700000.0,4.265625,6.596761522814634E-8,2700000.0,61.5,9.45181896008354,18.085106382978715,-0.7853403141361263,1589358.0,5144.0,0.0,1.0,0.0,?,0.0,0.0
2800000.0,4.4375,6.85529408252074E-8,2800000.0,64.0,15.116761610140708,23.72881355932203,4.255319148936175,1649358.0,5144.0,0.0,1.0,0.0,?,0.0,0.0
2900000.0,4.59375,7.028882262400458E-8,2900000.0,60.4,11.641854985541395,20.48192771084337,5.263157894736846,1709358.0,5144.0,0.0,1.0,0.0,?,0.0,0.0
3000000.0,4.75,7.141029022427072E-8,3000000.0,61.0,11.201781428877174,16.666666666666657,2.2556390977443628,1769358.0,5144.0,0.0,1.0,0.0,?,0.0,0.0
3100000.0,4.90625,7.499555876064635E-8,3100000.0,63.7,15.06785212915302,23.093220338983052,1.3586956521739142,1829058.0,5144.0,0.0,1.0,0.0,?,0.0,0.0
3200000.0,5.0625,7.796641309849094E-8,3200000.0,61.7,12.029253144437394,19.198312236286917,2.5445292620865163,1889058.0,5144.0,0.0,1.0,0.0,?,0.0,0.0
3300000.0,5.21875,8.032285323780448E-8,3300000.0,61.5,10.672853828306273,17.55888650963597,0.0,1949058.0,5144.0,0.0,1.0,0.0,?,0.0,0.0
3400000.0,5.375,8.206487917858697E-8,3400000.0,60.099999999999994,8.125483550086575,16.352201257861626,-2.5706940874036013,2009058.0,5144.0,0.0,1.0,0.0,?,0.0,0.0
3500000.0,5.53125,8.319249092083842E-8,3500000.0,62.1,12.011069425355672,18.843683083511774,2.5706940874036013,2069058.0,5144.0,0.0,1.0,0.0,?,0.0,0.0
3600000.0,5.6875,8.677775945721405E-8,3600000.0,63.3,12.592409115158912,20.21739130434782,1.3440860215053776,2128758.0,5144.0,0.0,1.0,0.0,?,0.0,0.0
3700000.0,5.84375,8.974861379505863E-8,3700000.0,60.0,7.352505188259707,16.492693110647174,-2.0408163265306136,2188758.0,5144.0,0.0,1.0,0.0,?,0.0,0.0
3800000.0,6.0,9.210505393437217E-8,3800000.0,58.3,6.60526952330612,16.265060240963848,-1.9559902200489014,2248758.0,5144.0,0.0,1.0,0.0,?,0.0,0.0
3900000.0,6.15625,9.384707987515465E-8,3900000.0,62.7,13.053613053613065,16.92650334075723,0.5333333333333339,2308758.0,5144.0,0.0,1.0,0.0,?,0.0,0.0
4000000.0,6.3125,9.49746916174061E-8,4000000.0,60.6,8.930792024741228,16.87763713080168,-0.7672634271099751,2368758.0,5144.0,0.0,1.0,0.0,?,0.0,0.0
4100000.0,6.484375,9.892524556360313E-8,4100000.0,63.9,16.079299250525377,24.31865828092243,5.989583333333338,2428458.0,5144.0,0.0,1.0,0.0,?,0.0,0.0
4200000.0,6.640625,1.0190224404343302E-7,4200000.0,63.1,14.431211041852174,24.539877300613497,4.896907216494849,2488458.0,5144.0,0.0,1.0,0.0,?,0.0,0.0
4300000.0,6.796875,1.0426482832473188E-7,4300000.0,59.4,10.966474272381173,15.240083507306881,3.7914691943127994,2548458.0,5144.0,0.0,1.0,0.0,?,0.0,0.0
4400000.0,6.953125,1.0601299840749968E-7,4400000.0,61.7,10.02208335291078,18.683651804670905,-0.2617801047120421,2608458.0,5144.0,0.0,1.0,0.0,?,0.0,0.0
4500000.0,7.109375,1.0714675429173645E-7,4500000.0,65.0,15.612221279222267,22.737306843267106,1.685393258426968,2668458.0,5144.0,0.0,1.0,0.0,?,0.0,0.0
4600000.0,7.25,1.1037902570226129E-7,4600000.0,61.5,10.3692322018904,17.55888650963597,-4.054054054054058,2728158.0,5144.0,0.0,1.0,0.0,?,0.0,0.0
4700000.0,7.390625,1.1305832433410819E-7,4700000.0,62.1,11.250362960257018,16.703296703296694,-0.2645502645502648,2788158.0,5144.0,0.0,1.0,0.0,?,0.0,0.0
4800000.0,7.546875,1.1542090861540705E-7,4800000.0,63.5,13.740133289218692,24.273858921161825,3.4391534391534426,2848158.0,5144.0,0.0,1.0,0.0,?,0.0,0.0
4900000.0,7.703125,1.1716907869817485E-7,4900000.0,64.7,16.12173516328934,26.763485477178424,3.0219780219780246,2908158.0,5144.0,0.0,1.0,0.0,?,0.0,0.0
5000000.0,7.859375,1.1839176295325162E-7,5000000.0,62.8,11.447546954224087,20.34261241970021,-0.8130081300813016,2968158.0,5144.0,0.0,1.0,0.0,?,0.0,0.0
5100000.0,8.046875,1.2281554518267515E-7,5100000.0,57.99999999999999,-1.3357010500309068,9.677419354838696,-14.130434782608708,3027858.0,5144.0,0.0,1.0,0.0,?,0.0,0.0
5200000.0,8.203125,1.2588761617533037E-7,5200000.0,57.599999999999994,-0.7618929927708195,13.46938775510203,-14.285714285714299,3087858.0,5144.0,0.0,1.0,0.0,?,0.0,0.0
5300000.0,8.359375,1.2834527296945455E-7,5300000.0,54.800000000000004,-3.5519225834830013,8.870967741935491,-15.306122448979576,3147858.0,5144.0,0.0,1.0,0.0,?,0.0,0.0
5400000.0,8.53125,1.30372839824607E-7,5400000.0,58.099999999999994,12.439083515142398,7.912087912087895,-9.685863874345559,3207858.0,5144.0,0.0,1.0,0.0,?,0.0,0.0
5500000.0,8.6875,1.316016682216691E-7,5500000.0,59.8,14.90982981965963,14.285714285714276,-8.648648648648656,3267858.0,5144.0,0.0,1.0,0.0,?,0.0,0.0
5600000.0,8.828125,1.3491950489373675E-7,5600000.0,57.199999999999996,10.60052219321148,10.647181628392472,-14.133333333333345,3327558.0,5144.0,0.0,1.0,0.0,?,0.0,0.0
5700000.0,8.984375,1.3799157588639198E-7,5700000.0,61.5,17.994376757263357,12.100456621004554,-6.94444444444445,3387558.0,5144.0,0.0,1.0,0.0,?,0.0,0.0
5800000.0,9.140625,1.4044923268051615E-7,5800000.0,64.60000000000001,14.583534407875698,24.680851063829788,2.2099447513812174,3447558.0,5144.0,0.0,1.0,0.0,?,0.0,0.0
5900000.0,9.296875,1.4229247527610928E-7,5900000.0,65.7,16.468594139650854,23.2662192393736,2.8328611898017027,3507558.0,5144.0,0.0,1.0,0.0,?,0.0,0.0
6000000.0,9.453125,1.4352130367317138E-7,6000000.0,65.10000000000001,18.90887123007575,28.189300411522638,8.63874345549739,3567558.0,5144.0,0.0,1.0,0.0,?,0.0,0.0
6100000.0,9.609375,1.4721393300634296E-7,6100000.0,65.3,19.69079800037031,26.79324894514768,8.684210526315796,3627258.0,5144.0,0.0,1.0,0.0,?,0.0,0.0
6200000.0,9.765625,1.5029214814098349E-7,6200000.0,65.0,20.005119672340978,27.685950413223143,9.32642487046633,3687258.0,5144.0,0.0,1.0,0.0,?,0.0,0.0
6300000.0,9.921875,1.52755949077093E-7,6300000.0,64.5,16.442276912648033,23.326133909287254,5.585106382978728,3747258.0,5144.0,0.0,1.0,0.0,?,0.0,0.0
6400000.0,10.078125,1.5460533581467144E-7,6400000.0,64.60000000000001,19.486899563318776,26.70807453416149,10.606060606060614,3807258.0,5144.0,0.0,1.0,0.0,?,0.0,0.0
6500000.0,10.21875,1.557168110998141E-7,6500000.0,65.3,20.506922999386056,27.708333333333336,9.162303664921474,3867258.0,5144.0,0.0,1.0,0.0,?,0.0,0.0
6600000.0,10.375,1.5940944043298567E-7,6600000.0,63.6,17.974049152473622,22.881355932203387,8.312342569269529,3926958.0,5144.0,0.0,1.0,0.0,?,0.0,0.0
6700000.0,10.53125,1.624876555676262E-7,6700000.0,64.7,14.063412924083677,27.066115702479344,1.1204481792717098,3986958.0,5144.0,0.0,1.0,0.0,?,0.0,0.0
6800000.0,10.703125,1.6519783659734665E-7,6800000.0,64.5,17.821030408533662,22.48908296943231,9.2071611253197,4046958.0,5144.0,0.0,1.0,0.0,?,0.0,0.0
6900000.0,10.84375,1.6686228466116724E-7,6900000.0,66.0,18.317533381702177,24.444444444444443,5.292479108635102,4106958.0,5144.0,0.0,1.0,0.0,?,0.0,0.0
7000000.0,11.015625,1.6822075445411937E-7,7000000.0,64.2,19.597177366830028,27.08757637474542,10.275689223057654,4166958.0,5144.0,0.0,1.0,0.0,?,0.0,0.0
7100000.0,11.171875,1.7191952792927624E-7,7100000.0,62.8,15.379540956757138,18.599562363238505,7.231920199501253,4226658.0,5144.0,0.0,1.0,0.0,?,0.0,0.0
7200000.0,11.328125,1.750038872059021E-7,7200000.0,65.5,20.28945325496285,31.000000000000007,12.87878787878789,4286658.0,5144.0,0.0,1.0,0.0,?,0.0,0.0
7300000.0,11.484375,1.774738322839969E-7,7300000.0,68.0,21.07534837834506,25.925925925925945,7.24637681159421,4346658.0,5144.0,0.0,1.0,0.0,?,0.0,0.0
7400000.0,11.640625,1.7932936316356066E-7,7400000.0,66.5,20.808275653390822,26.535087719298247,7.967032967032975,4406658.0,5144.0,0.0,1.0,0.0,?,0.0,0.0
7500000.0,11.796875,1.8057047984459336E-7,7500000.0,64.1,12.600181129429643,22.629310344827584,1.9125683060109306,4466658.0,5144.0,0.0,1.0,0.0,?,0.0,0.0
7600000.0,11.953125,1.8426925331975024E-7,7600000.0,65.9,19.01468660346169,30.122950819672134,7.336956521739137,4526358.0,5144.0,0.0,1.0,0.0,?,0.0,0.0
7700000.0,12.109375,1.873536125963761E-7,7700000.0,65.4,17.002096536636618,24.618736383442265,4.155124653739616,4586358.0,5144.0,0.0,1.0,0.0,?,0.0,0.0
7800000.0,12.265625,1.898235576744709E-7,7800000.0,63.3,15.051015684313828,20.9051724137931,4.4270833333333375,4646358.0,5144.0,0.0,1.0,0.0,?,0.0,0.0
7900000.0,12.421875,1.9167908855403465E-7,7900000.0,65.10000000000001,19.652641563297145,26.371308016877638,7.671957671957679,4706358.0,5144.0,0.0,1.0,0.0,?,0.0,0.0
8000000.0,12.578125,1.9292020523506735E-7,8000000.0,61.8,10.422421596169265,17.67241379310344,-1.3262599469496033,4766358.0,5144.0,0.0,1.0,0.0,?,0.0,0.0
8100000.0,12.765625,1.97366106375638E-7,8100000.0,65.5,15.67431219569425,23.50332594235033,1.9886363636363658,4826058.0,5144.0,0.0,1.0,0.0,?,0.0,0.0
8200000.0,12.921875,2.0045660979424915E-7,8200000.0,65.3,19.034196968565666,23.230088495575217,6.720430107526888,4886058.0,5144.0,0.0,1.0,0.0,?,0.0,0.0
8300000.0,13.09375,2.0318030793633727E-7,8300000.0,64.8,17.098445595854923,25.581395348837212,4.864864864864869,4946058.0,5144.0,0.0,1.0,0.0,?,0.0,0.0
8400000.0,13.25,2.0504198295788632E-7,8400000.0,65.3,17.427350345996075,26.94736842105263,4.143646408839783,5006058.0,5144.0,0.0,1.0,0.0,?,0.0,0.0
8500000.0,13.421875,2.0641396986320615E-7,8500000.0,66.0,21.23795404002965,24.107142857142858,10.052910052910063,5066058.0,5144.0,0.0,1.0,0.0,?,0.0,0.0
8600000.0,13.578125,2.1011888748034835E-7,8600000.0,67.9,22.347476897769614,31.991525423728824,10.335195530726267,5125758.0,5144.0,0.0,1.0,0.0,?,0.0,0.0
8700000.0,13.734375,2.132093908989595E-7,8700000.0,64.2,13.169600628671486,20.267260579064583,0.2785515320334264,5185758.0,5144.0,0.0,1.0,0.0,?,0.0,0.0
8800000.0,13.890625,2.156854801190396E-7,8800000.0,64.2,17.469304575151348,24.152542372881356,6.52741514360314,5245758.0,5144.0,0.0,1.0,0.0,?,0.0,0.0
8900000.0,14.046875,2.1754715514058866E-7,8900000.0,64.5,17.791342849467846,24.307036247334754,8.031088082901562,5305758.0,5144.0,0.0,1.0,0.0,?,0.0,0.0
9000000.0,14.21875,2.1891914204590849E-7,9000000.0,64.9,19.314054526228677,23.695652173913043,9.067357512953375,5365758.0,5144.0,0.0,1.0,0.0,?,0.0,0.0
9100000.0,14.375,2.22630203805036E-7,9100000.0,64.0,17.370547190598597,22.077922077922075,5.263157894736847,5425458.0,5144.0,0.0,1.0,0.0,?,0.0,0.0
9200000.0,14.546875,2.260365161216921E-7,9200000.0,67.60000000000001,22.097407093944756,31.501057082452437,8.988764044943828,5485458.0,5144.0,0.0,1.0,0.0,?,0.0,0.0
9300000.0,14.703125,2.2851874948375754E-7,9300000.0,63.7,18.299918074848986,25.0,8.793969849246238,5545458.0,5144.0,0.0,1.0,0.0,?,0.0,0.0
9400000.0,14.859375,2.3038656864729192E-7,9400000.0,65.4,16.217891596606083,28.512396694214882,1.7045454545454561,5605458.0,5144.0,0.0,1.0,0.0,?,0.0,0.0
9500000.0,15.015625,2.3163997361229525E-7,9500000.0,66.3,20.37765092806111,29.64509394572025,10.610079575596826,5665458.0,5144.0,0.0,1.0,0.0,?,0.0,0.0
9600000.0,15.171875,2.3535103537142275E-7,9600000.0,64.0,15.274979760134046,22.746781115879827,3.7433155080213933,5725158.0,5144.0,0.0,1.0,0.0,?,0.0,0.0
9700000.0,15.328125,2.3844768293201923E-7,9700000.0,65.60000000000001,17.967110534549217,22.171945701357462,3.9106145251396685,5785158.0,5144.0,0.0,1.0,0.0,?,0.0,0.0
9800000.0,15.484375,2.4092991629408464E-7,9800000.0,62.3,12.453440092144499,21.45833333333333,0.0,5845158.0,5144.0,0.0,1.0,0.0,?,0.0,0.0
9900000.0,15.65625,2.4298451737397245E-7,9900000.0,67.2,20.433154146208928,29.31034482758621,9.392265193370175,5905158.0,5144.0,0.0,1.0,0.0,?,0.0,0.0
1.0E7,15.8125,2.442379223389758E-7,1.0E7,66.10000000000001,17.453978766923147,27.71855010660981,4.507042253521131,5965158.0,5144.0,0.0,1.0,0.0,?,0.0,0.0
