learning evaluation instances,evaluation time (cpu seconds),model cost (RAM-Hours),classified instances,classifications correct (percent),Kappa Statistic (percent),Kappa Temporal Statistic (percent),Kappa M Statistic (percent),model training instances,model serialized size (bytes),labeling cost,newThreshold,maxPosterior,accuracyBaseLearner (percent),Change detected,Warning detected,tree size (nodes),tree size (leaves),active learning leaves,tree depth,active leaf byte size estimate,inactive leaf byte size estimate,byte size estimate overhead
100000.0,0.59375,5.8628631652229365E-8,100000.0,66.0,26.582683014255927,25.76419213973799,4.761904761904766,11515.0,97560.0,0.0,1.0,0.0,?,2.0,51.0,25.0,22.0,22.0,2.0,0.0,0.0,1.0
200000.0,1.09375,1.0623163284940853E-7,200000.0,70.7,39.58713061551022,37.791932059447966,22.691292875989436,31515.0,97728.0,0.0,1.0,0.0,?,0.0,0.0,25.0,22.0,22.0,2.0,0.0,0.0,1.0
300000.0,1.625,1.4252320397645236E-7,300000.0,68.2,35.42465397361753,35.757575757575765,16.753926701570695,51515.0,101968.0,0.0,1.0,0.0,?,0.0,6.0,29.0,24.0,24.0,4.0,0.0,0.0,1.0
400000.0,2.109375,1.8844914544994633E-7,400000.0,68.8,36.372238718308466,36.71399594320486,14.754098360655721,71515.0,218320.0,0.0,1.0,0.0,?,0.0,0.0,74.0,50.0,50.0,4.0,0.0,0.0,1.0
500000.0,2.59375,2.6063165730900233E-7,500000.0,72.39999999999999,43.76505201732687,42.25941422594141,29.770992366412212,91515.0,441680.0,0.0,1.0,0.0,?,0.0,0.0,144.0,102.0,102.0,4.0,0.0,0.0,1.0
600000.0,3.0625,3.3527813179211484E-7,600000.0,73.2,46.33108911842805,44.16666666666666,31.806615776081426,111515.0,495304.0,0.0,1.0,0.0,?,0.0,0.0,166.0,113.0,113.0,5.0,0.0,0.0,1.0
700000.0,3.546875,4.201328071455161E-7,700000.0,72.5,42.87115055425371,40.217391304347814,24.242424242424235,131515.0,571040.0,0.0,1.0,0.0,?,0.0,0.0,193.0,130.0,130.0,6.0,0.0,0.0,1.0
800000.0,4.015625,5.049083847552538E-7,800000.0,73.8,47.24548969072164,43.53448275862068,27.222222222222214,151515.0,607168.0,0.0,1.0,0.0,?,0.0,0.0,209.0,138.0,138.0,6.0,0.0,0.0,1.0
900000.0,4.453125,5.829384705672662E-7,900000.0,77.60000000000001,55.299235696753215,53.81443298969073,42.41645244215939,171515.0,611872.0,0.0,1.0,0.0,?,0.0,0.0,213.0,140.0,140.0,6.0,0.0,0.0,1.0
1000000.0,4.90625,6.638866357712283E-7,1000000.0,75.4,50.500627796915744,48.10126582278481,37.244897959183675,191515.0,627304.0,0.0,1.0,0.0,?,0.0,0.0,223.0,145.0,145.0,6.0,0.0,0.0,1.0
1100000.0,5.375,7.674739592605168E-7,1100000.0,74.6,48.656788825776715,45.376344086021504,34.02597402597402,211315.0,661040.0,0.0,1.0,0.0,?,0.0,0.0,239.0,153.0,153.0,7.0,0.0,0.0,1.0
1200000.0,5.828125,8.672107489676112E-7,1200000.0,76.5,52.42221538361868,51.143451143451145,36.14130434782609,231315.0,671976.0,0.0,1.0,0.0,?,0.0,0.0,249.0,158.0,158.0,8.0,0.0,0.0,1.0
1300000.0,6.3125,9.77880909987208E-7,1300000.0,78.10000000000001,55.665144300845405,57.392996108949426,44.69696969696971,251315.0,718496.0,0.0,1.0,0.0,?,0.0,0.0,265.0,166.0,166.0,8.0,0.0,0.0,1.0
1400000.0,6.796875,1.0925609320919548E-6,1400000.0,76.8,53.029591357444815,46.54377880184333,35.91160220994475,271315.0,764696.0,0.0,1.0,0.0,?,0.0,0.0,282.0,176.0,176.0,8.0,0.0,0.0,1.0
1500000.0,7.296875,1.2177420689517427E-6,1500000.0,77.9,55.27438456743652,50.779510022271715,42.89405684754522,291315.0,831464.0,0.0,1.0,0.0,?,0.0,0.0,303.0,190.0,190.0,8.0,0.0,0.0,1.0
1600000.0,7.796875,1.3505797121777303E-6,1600000.0,77.4,54.65908042195142,50.86956521739131,41.90231362467867,311315.0,904904.0,0.0,1.0,0.0,?,0.0,0.0,327.0,209.0,209.0,9.0,0.0,0.0,1.0
1700000.0,8.296875,1.4887559033619862E-6,1700000.0,80.60000000000001,60.93985946403044,58.635394456289994,50.128534704370196,331315.0,960280.0,0.0,1.0,0.0,?,0.0,0.0,349.0,220.0,220.0,9.0,0.0,0.0,1.0
1800000.0,8.796875,1.6293286979715858E-6,1800000.0,78.0,55.54621577058615,54.73251028806585,42.70833333333334,351315.0,993032.0,0.0,1.0,0.0,?,0.0,0.0,365.0,228.0,228.0,9.0,0.0,0.0,1.0
1900000.0,9.28125,1.765970729239699E-6,1900000.0,79.3,57.87648653268541,55.48387096774194,46.511627906976756,371315.0,1011032.0,0.0,1.0,0.0,?,0.0,0.0,371.0,231.0,231.0,9.0,0.0,0.0,1.0
2000000.0,9.8125,1.9252147305653327E-6,2000000.0,79.80000000000001,58.15639564992233,56.46551724137932,46.13333333333334,391315.0,1093336.0,0.0,1.0,0.0,?,0.0,0.0,406.0,252.0,252.0,9.0,0.0,0.0,1.0
2100000.0,10.328125,2.1054814310951367E-6,2100000.0,82.0,62.97774139541006,63.48884381338742,53.00261096605743,411115.0,1156104.0,0.0,1.0,0.0,?,0.0,0.0,427.0,266.0,266.0,9.0,0.0,0.0,1.0
2200000.0,10.84375,2.2890477298965884E-6,2200000.0,79.5,57.40171224337129,56.932773109243705,43.055555555555564,431115.0,1195040.0,0.0,1.0,0.0,?,0.0,0.0,441.0,273.0,273.0,9.0,0.0,0.0,1.0
2300000.0,11.375,2.482321676022063E-6,2300000.0,81.6,62.35247900741491,57.89473684210525,49.726775956284136,451115.0,1239496.0,0.0,1.0,0.0,?,0.0,0.0,454.0,283.0,283.0,9.0,0.0,0.0,1.0
2400000.0,11.90625,2.676622534636408E-6,2400000.0,81.69999999999999,63.003695587129315,63.25301204819276,53.90428211586901,471115.0,1261240.0,0.0,1.0,0.0,?,0.0,0.0,466.0,289.0,289.0,9.0,0.0,0.0,1.0
2500000.0,12.4375,2.875475232334187E-6,2500000.0,78.60000000000001,56.60989456609895,56.05749486652978,46.500000000000014,491115.0,1308600.0,0.0,1.0,0.0,?,0.0,0.0,489.0,304.0,304.0,9.0,0.0,0.0,1.0
2600000.0,12.96875,3.078864376422846E-6,2600000.0,80.10000000000001,59.791806418763294,57.112068965517246,50.985221674876854,511115.0,1355768.0,0.0,1.0,0.0,?,0.0,0.0,505.0,312.0,312.0,9.0,0.0,0.0,1.0
2700000.0,13.53125,3.305408592698061E-6,2700000.0,79.60000000000001,57.85280712700768,53.950338600451474,44.715447154471555,531115.0,1446568.0,0.0,1.0,0.0,?,0.0,0.0,547.0,333.0,333.0,9.0,0.0,0.0,1.0
2800000.0,14.078125,3.534895529608346E-6,2800000.0,81.0,61.055518433038046,58.60566448801744,48.787061994609175,551115.0,1525832.0,0.0,1.0,0.0,?,0.0,0.0,583.0,351.0,351.0,9.0,0.0,0.0,1.0
2900000.0,14.65625,3.793269344088104E-6,2900000.0,79.5,57.83801571305172,58.248472505091655,44.594594594594604,571115.0,1645024.0,0.0,1.0,0.0,?,0.0,0.0,639.0,379.0,379.0,9.0,0.0,0.0,1.0
3000000.0,15.25,4.0700506522423695E-6,3000000.0,78.5,56.52842030345185,53.66379310344828,44.44444444444445,591115.0,1733408.0,0.0,1.0,0.0,?,0.0,0.0,672.0,397.0,397.0,10.0,0.0,0.0,1.0
3100000.0,15.796875,4.358734941989598E-6,3100000.0,79.60000000000001,58.68438107582632,56.9620253164557,48.4848484848485,610915.0,1841768.0,0.0,1.0,0.0,?,0.0,0.0,718.0,423.0,423.0,10.0,0.0,0.0,1.0
3200000.0,16.34375,4.652158143774917E-6,3200000.0,81.5,62.283384301732916,61.37787056367431,50.66666666666665,630915.0,1889408.0,0.0,1.0,0.0,?,0.0,0.0,738.0,433.0,433.0,10.0,0.0,0.0,1.0
3300000.0,16.890625,4.950934833484805E-6,3300000.0,79.7,58.47549849857222,57.8838174273859,46.43799472295515,650915.0,1941424.0,0.0,1.0,0.0,?,0.0,0.0,761.0,446.0,446.0,10.0,0.0,0.0,1.0
3400000.0,17.484375,5.293893466134452E-6,3400000.0,80.4,59.687868927985264,59.25155925155926,48.2849604221636,670915.0,2076296.0,0.0,1.0,0.0,?,0.0,0.0,808.0,478.0,478.0,10.0,0.0,0.0,1.0
3500000.0,18.0625,5.637502892770701E-6,3500000.0,83.0,65.19602825263587,62.30598669623058,56.96202531645569,690915.0,2155096.0,0.0,1.0,0.0,?,0.0,0.0,837.0,496.0,496.0,10.0,0.0,0.0,1.0
3600000.0,18.640625,5.9866819841166336E-6,3600000.0,84.0,66.35021851326852,64.75770925110132,58.00524934383201,710915.0,2206568.0,0.0,1.0,0.0,?,0.0,0.0,858.0,510.0,510.0,10.0,0.0,0.0,1.0
3700000.0,19.21875,6.338458657006009E-6,3700000.0,82.8,63.77422072451557,62.60869565217389,52.222222222222214,730915.0,2238184.0,0.0,1.0,0.0,?,0.0,0.0,868.0,515.0,515.0,10.0,0.0,0.0,1.0
3800000.0,19.828125,6.721348650494797E-6,3800000.0,82.39999999999999,63.288055268164065,60.62639821029081,52.17391304347825,750915.0,2329128.0,0.0,1.0,0.0,?,0.0,0.0,906.0,543.0,543.0,10.0,0.0,0.0,1.0
3900000.0,20.421875,7.099885551724583E-6,3900000.0,82.6,63.69024018697439,63.36842105263156,52.328767123287655,770915.0,2378848.0,0.0,1.0,0.0,?,0.0,0.0,922.0,551.0,551.0,10.0,0.0,0.0,1.0
4000000.0,21.015625,7.480597479217168E-6,4000000.0,84.1,67.2400009889811,66.66666666666666,59.12596401028277,790915.0,2407344.0,0.0,1.0,0.0,?,0.0,0.0,936.0,561.0,561.0,10.0,0.0,0.0,1.0
4100000.0,21.625,7.897060972431467E-6,4100000.0,81.89999999999999,62.98568507157463,61.489361702127646,51.73333333333332,810715.0,2440656.0,0.0,1.0,0.0,?,0.0,0.0,948.0,567.0,567.0,10.0,0.0,0.0,1.0
4200000.0,22.25,8.330303179617557E-6,4200000.0,85.0,69.04165342337396,68.01705756929637,61.63682864450127,830715.0,2492576.0,0.0,1.0,0.0,?,0.0,0.0,963.0,576.0,576.0,10.0,0.0,0.0,1.0
4300000.0,22.84375,8.74739702946196E-6,4300000.0,83.3,65.48873734242612,64.39232409381663,56.62337662337662,850715.0,2542656.0,0.0,1.0,0.0,?,0.0,0.0,980.0,586.0,586.0,11.0,0.0,0.0,1.0
4400000.0,23.453125,9.178991992181787E-6,4400000.0,84.5,68.19286206783333,67.43697478991596,60.858585858585855,870715.0,2579264.0,0.0,1.0,0.0,?,0.0,0.0,997.0,596.0,596.0,11.0,0.0,0.0,1.0
4500000.0,24.09375,9.637970360927282E-6,4500000.0,83.1,63.30012247769776,63.260869565217384,49.401197604790404,890715.0,2625120.0,0.0,1.0,0.0,?,0.0,0.0,1020.0,609.0,609.0,11.0,0.0,0.0,1.0
4600000.0,24.75,1.0115971866374213E-5,4600000.0,85.39999999999999,69.42331535033341,67.84140969162995,60.109289617486326,910715.0,2685320.0,0.0,1.0,0.0,?,0.0,0.0,1042.0,620.0,620.0,11.0,0.0,0.0,1.0
4700000.0,25.40625,1.0599857002186277E-5,4700000.0,83.8,66.40007964425565,65.6779661016949,56.914893617021264,930715.0,2734160.0,0.0,1.0,0.0,?,0.0,0.0,1063.0,632.0,632.0,11.0,0.0,0.0,1.0
4800000.0,26.0625,1.108806386279563E-5,4800000.0,85.2,69.09145587596484,69.0376569037657,60.42780748663101,950715.0,2773784.0,0.0,1.0,0.0,?,0.0,0.0,1085.0,643.0,643.0,11.0,0.0,0.0,1.0
4900000.0,26.71875,1.158186913623164E-5,4900000.0,84.1,66.82413033317754,66.52631578947367,57.258064516129025,970715.0,2821032.0,0.0,1.0,0.0,?,0.0,0.0,1104.0,656.0,656.0,11.0,0.0,0.0,1.0
5000000.0,27.390625,1.209712774854981E-5,5000000.0,86.3,71.45833333333333,70.41036717062634,63.46666666666666,990715.0,2887920.0,0.0,1.0,0.0,?,0.0,0.0,1139.0,686.0,686.0,11.0,0.0,0.0,1.0
5100000.0,28.0625,1.2142590680418328E-5,5100000.0,97.7,95.30681206026868,95.1983298538622,94.67592592592592,12191.0,70616.0,0.0,1.0,0.0,?,3.0,14.0,28.0,16.0,16.0,4.0,0.0,0.0,1.0
5200000.0,28.3125,1.215863271176608E-5,5200000.0,98.0,95.95809351354848,96.1089494163424,95.57522123893804,32191.0,71496.0,0.0,1.0,0.0,?,0.0,0.0,28.0,16.0,16.0,4.0,0.0,0.0,1.0
5300000.0,28.5625,1.2174047652580257E-5,5300000.0,97.6,95.16596841766032,95.01039501039502,94.78260869565217,52191.0,76176.0,0.0,1.0,0.0,?,0.0,0.0,30.0,17.0,17.0,5.0,0.0,0.0,1.0
5400000.0,28.8125,1.218904918965159E-5,5400000.0,97.39999999999999,94.76144422952933,94.86166007905138,94.34782608695652,72191.0,84136.0,0.0,1.0,0.0,?,0.0,0.0,34.0,19.0,19.0,5.0,0.0,0.0,1.0
5500000.0,29.046875,1.2202240500806105E-5,5500000.0,97.39999999999999,94.76825376383897,94.6058091286307,94.38444924406046,92191.0,84144.0,0.0,1.0,0.0,?,0.0,0.0,34.0,19.0,19.0,5.0,0.0,0.0,1.0
5600000.0,29.28125,1.2215318307021838E-5,5600000.0,97.6,95.16097812762114,95.2755905511811,94.69026548672565,112191.0,96600.0,0.0,1.0,0.0,?,0.0,0.0,40.0,22.0,22.0,5.0,0.0,0.0,1.0
5700000.0,29.53125,1.2228593792921551E-5,5700000.0,97.3,94.5147370730637,94.48979591836735,93.76443418013857,132191.0,100552.0,0.0,1.0,0.0,?,0.0,0.0,42.0,23.0,23.0,5.0,0.0,0.0,1.0
5800000.0,29.78125,1.2240943647662382E-5,5800000.0,97.5,94.93303499043357,94.98997995991984,94.33106575963718,152191.0,100640.0,0.0,1.0,0.0,?,0.0,0.0,42.0,23.0,23.0,5.0,0.0,0.0,1.0
5900000.0,30.046875,1.2253076937567026E-5,5900000.0,97.3,94.59727702762191,94.33962264150942,94.6,172191.0,100656.0,0.0,1.0,0.0,?,0.0,0.0,42.0,23.0,23.0,5.0,0.0,0.0,1.0
6000000.0,30.3125,1.2264220697236141E-5,6000000.0,97.2,94.36218151359319,94.55252918287937,93.87308533916848,192191.0,100656.0,0.0,1.0,0.0,?,0.0,0.0,42.0,23.0,23.0,5.0,0.0,0.0,1.0
6100000.0,30.578125,1.2284280124327373E-5,6100000.0,97.1,94.18110021349342,94.4015444015444,93.85593220338983,211991.0,100656.0,0.0,1.0,0.0,?,0.0,0.0,42.0,23.0,23.0,5.0,0.0,0.0,1.0
6200000.0,30.84375,1.2303350021183076E-5,6200000.0,98.1,96.18084310903492,96.14604462474645,95.88744588744589,231991.0,100656.0,0.0,1.0,0.0,?,0.0,0.0,42.0,23.0,23.0,5.0,0.0,0.0,1.0
6300000.0,31.109375,1.2322004865078875E-5,6300000.0,97.5,94.99519538757207,95.14563106796116,94.83471074380165,251991.0,108968.0,0.0,1.0,0.0,?,0.0,0.0,46.0,25.0,25.0,6.0,0.0,0.0,1.0
6400000.0,31.375,1.2339671278217184E-5,6400000.0,97.5,94.99899979995999,95.27410207939508,94.96981891348088,271991.0,108984.0,0.0,1.0,0.0,?,0.0,0.0,46.0,25.0,25.0,6.0,0.0,0.0,1.0
6500000.0,31.65625,1.235756722356503E-5,6500000.0,96.5,92.98597194388776,92.60042283298097,92.66247379454926,291991.0,112232.0,0.0,1.0,0.0,?,0.0,0.0,48.0,26.0,26.0,6.0,0.0,0.0,1.0
6600000.0,31.9375,1.2374415431016434E-5,6600000.0,97.7,95.39436269994472,95.54263565891472,95.22821576763485,311991.0,112232.0,0.0,1.0,0.0,?,0.0,0.0,48.0,26.0,26.0,6.0,0.0,0.0,1.0
6700000.0,32.203125,1.2389338096707231E-5,6700000.0,97.1,94.16184179799167,93.86892177589851,93.59823399558498,331991.0,112232.0,0.0,1.0,0.0,?,0.0,0.0,48.0,26.0,26.0,6.0,0.0,0.0,1.0
6800000.0,32.484375,1.2404739843784935E-5,6800000.0,97.1,94.16569428238039,94.3359375,93.66812227074234,351991.0,121104.0,0.0,1.0,0.0,?,0.0,0.0,52.0,28.0,28.0,6.0,0.0,0.0,1.0
6900000.0,32.765625,1.2419106658651597E-5,6900000.0,96.7,93.34274762961469,93.41317365269461,92.66666666666666,371991.0,121280.0,0.0,1.0,0.0,?,0.0,0.0,52.0,28.0,28.0,6.0,0.0,0.0,1.0
7000000.0,33.015625,1.2430945838180682E-5,7000000.0,97.0,93.9488801394178,93.91480730223122,93.36283185840706,391991.0,121280.0,0.0,1.0,0.0,?,0.0,0.0,52.0,28.0,28.0,6.0,0.0,0.0,1.0
7100000.0,33.296875,1.2453705033597848E-5,7100000.0,97.2,94.38848517157206,94.42231075697211,94.08033826638477,411791.0,121280.0,0.0,1.0,0.0,?,0.0,0.0,52.0,28.0,28.0,6.0,0.0,0.0,1.0
7200000.0,33.578125,1.2475748274785778E-5,7200000.0,97.39999999999999,94.79750280134463,94.87179487179486,94.67213114754098,431791.0,125816.0,0.0,1.0,0.0,?,0.0,0.0,54.0,29.0,29.0,6.0,0.0,0.0,1.0
7300000.0,33.859375,1.2496744360153875E-5,7300000.0,96.3,92.58754707909287,92.67326732673267,92.29166666666666,451791.0,125824.0,0.0,1.0,0.0,?,0.0,0.0,54.0,29.0,29.0,6.0,0.0,0.0,1.0
7400000.0,34.140625,1.2516704349157712E-5,7400000.0,97.39999999999999,94.77733362794528,94.94163424124513,94.45628997867803,471791.0,125976.0,0.0,1.0,0.0,?,0.0,0.0,56.0,30.0,30.0,6.0,0.0,0.0,1.0
7500000.0,34.40625,1.2534571966777247E-5,7500000.0,96.89999999999999,93.77234923058379,93.9334637964775,93.30453563714902,491791.0,126064.0,0.0,1.0,0.0,?,0.0,0.0,56.0,30.0,30.0,6.0,0.0,0.0,1.0
7600000.0,34.703125,1.2553436940328945E-5,7600000.0,97.89999999999999,95.78905153398837,95.96928982725528,95.57894736842105,511791.0,126080.0,0.0,1.0,0.0,?,0.0,0.0,56.0,30.0,30.0,6.0,0.0,0.0,1.0
7700000.0,34.96875,1.256932714669448E-5,7700000.0,97.5,94.98048412226737,95.23809523809523,94.61206896551724,531791.0,126088.0,0.0,1.0,0.0,?,0.0,0.0,56.0,30.0,30.0,6.0,0.0,0.0,1.0
7800000.0,35.25,1.2585425057396709E-5,7800000.0,97.2,94.37895480679664,94.36619718309859,94.0928270042194,551791.0,130472.0,0.0,1.0,0.0,?,0.0,0.0,58.0,31.0,31.0,7.0,0.0,0.0,1.0
7900000.0,35.546875,1.2601311965328126E-5,7900000.0,97.3,94.5941184008201,94.5233265720081,94.40993788819874,571791.0,130480.0,0.0,1.0,0.0,?,0.0,0.0,58.0,31.0,31.0,7.0,0.0,0.0,1.0
8000000.0,35.828125,1.261531498231408E-5,8000000.0,96.8,93.52769136796287,93.33333333333333,92.7765237020316,591791.0,130480.0,0.0,1.0,0.0,?,0.0,0.0,58.0,31.0,31.0,7.0,0.0,0.0,1.0
8100000.0,36.09375,1.263745572133404E-5,8100000.0,96.7,93.37865277655159,93.6046511627907,93.0379746835443,611591.0,130480.0,0.0,1.0,0.0,?,0.0,0.0,58.0,31.0,31.0,7.0,0.0,0.0,1.0
8200000.0,36.375,1.2659869745321989E-5,8200000.0,97.5,94.98137084858996,94.71458773784354,94.65811965811966,631591.0,130728.0,0.0,1.0,0.0,?,0.0,0.0,60.0,32.0,32.0,7.0,0.0,0.0,1.0
8300000.0,36.65625,1.268123952387315E-5,8300000.0,97.0,93.97532292269133,94.25287356321839,93.58974358974358,651591.0,130776.0,0.0,1.0,0.0,?,0.0,0.0,60.0,32.0,32.0,7.0,0.0,0.0,1.0
8400000.0,36.9375,1.270156156452787E-5,8400000.0,97.89999999999999,95.78330187542669,95.8904109589041,95.53191489361701,671591.0,130776.0,0.0,1.0,0.0,?,0.0,0.0,60.0,32.0,32.0,7.0,0.0,0.0,1.0
8500000.0,37.21875,1.2720835867286146E-5,8500000.0,97.89999999999999,95.78360666270459,95.74898785425101,95.47413793103448,691591.0,130776.0,0.0,1.0,0.0,?,0.0,0.0,60.0,32.0,32.0,7.0,0.0,0.0,1.0
8600000.0,37.515625,1.2740076247913147E-5,8600000.0,97.7,95.39635391229854,95.32520325203252,95.22821576763485,711591.0,130792.0,0.0,1.0,0.0,?,0.0,0.0,60.0,32.0,32.0,7.0,0.0,0.0,1.0
8700000.0,37.78125,1.2756301795080723E-5,8700000.0,96.5,92.95910649049681,92.75362318840578,92.32456140350877,731591.0,130792.0,0.0,1.0,0.0,?,0.0,0.0,60.0,32.0,32.0,7.0,0.0,0.0,1.0
8800000.0,38.0625,1.277243404830289E-5,8800000.0,97.39999999999999,94.78692560942844,94.70468431771893,94.43254817987152,751591.0,130792.0,0.0,1.0,0.0,?,0.0,0.0,60.0,32.0,32.0,7.0,0.0,0.0,1.0
8900000.0,38.34375,1.2787518563628615E-5,8900000.0,97.89999999999999,95.79747848709225,95.84158415841584,95.67010309278349,771591.0,130792.0,0.0,1.0,0.0,?,0.0,0.0,60.0,32.0,32.0,7.0,0.0,0.0,1.0
9000000.0,38.625,1.2801555341057897E-5,9000000.0,97.5,94.98781035478284,95.10763209393346,94.66950959488273,791591.0,130792.0,0.0,1.0,0.0,?,0.0,0.0,60.0,32.0,32.0,7.0,0.0,0.0,1.0
9100000.0,38.890625,1.2823727964941002E-5,9100000.0,97.3,94.55908431404158,94.87666034155598,94.03973509933775,811391.0,130792.0,0.0,1.0,0.0,?,0.0,0.0,60.0,32.0,32.0,7.0,0.0,0.0,1.0
9200000.0,39.171875,1.2846157122920788E-5,9200000.0,97.2,94.38832772166104,94.42231075697211,94.0928270042194,831391.0,130792.0,0.0,1.0,0.0,?,0.0,0.0,60.0,32.0,32.0,7.0,0.0,0.0,1.0
9300000.0,39.4375,1.2866350686332834E-5,9300000.0,96.39999999999999,92.76852863662658,92.91338582677164,92.27467811158797,851391.0,130792.0,0.0,1.0,0.0,?,0.0,0.0,60.0,32.0,32.0,7.0,0.0,0.0,1.0
9400000.0,39.734375,1.288781401753012E-5,9400000.0,95.8,91.58529108882325,90.94827586206897,91.1949685534591,871391.0,130792.0,0.0,1.0,0.0,?,0.0,0.0,60.0,32.0,32.0,7.0,0.0,0.0,1.0
9500000.0,40.0,1.290629954180784E-5,9500000.0,97.0,93.98505888627349,93.73695198329854,93.65750528541226,891391.0,134712.0,0.0,1.0,0.0,?,0.0,0.0,62.0,33.0,33.0,7.0,0.0,0.0,1.0
9600000.0,40.296875,1.292928354814649E-5,9600000.0,98.2,96.38952963594424,96.5183752417795,96.17834394904459,911391.0,179400.0,0.0,1.0,0.0,?,0.0,0.0,82.0,52.0,52.0,7.0,0.0,0.0,1.0
9700000.0,40.578125,1.2952648103237155E-5,9700000.0,98.3,96.57285702765905,96.39830508474576,96.26373626373625,931391.0,215528.0,0.0,1.0,0.0,?,0.0,0.0,82.0,52.0,52.0,7.0,0.0,0.0,1.0
9800000.0,40.875,1.2976314109336173E-5,9800000.0,97.2,94.38740533757752,94.52054794520548,94.00428265524626,951391.0,216952.0,0.0,1.0,0.0,?,0.0,0.0,82.0,52.0,52.0,7.0,0.0,0.0,1.0
9900000.0,41.171875,1.2999222542728403E-5,9900000.0,97.6,95.17358988384439,95.16129032258064,94.8051948051948,971391.0,221464.0,0.0,1.0,0.0,?,0.0,0.0,84.0,53.0,53.0,7.0,0.0,0.0,1.0
1.0E7,41.46875,1.3021080327841144E-5,1.0E7,97.6,95.19068917424133,95.1417004048583,94.97907949790795,991391.0,222184.0,0.0,1.0,0.0,?,0.0,0.0,84.0,53.0,53.0,7.0,0.0,0.0,1.0
