learning evaluation instances,evaluation time (cpu seconds),model cost (RAM-Hours),classified instances,classifications correct (percent),Kappa Statistic (percent),Kappa Temporal Statistic (percent),Kappa M Statistic (percent),model training instances,model serialized size (bytes),labeling cost,newThreshold,maxPosterior,accuracyBaseLearner (percent),Change detected,Warning detected
100000.0,0.375,1.5175901353359224E-8,100000.0,67.60000000000001,28.561349043956834,30.91684434968018,21.359223300970893,19589.0,2904.0,0.0,1.0,0.0,?,1.0,20.0
200000.0,0.71875,2.773543302383688E-8,200000.0,71.1,31.474368094086397,37.715517241379295,21.89189189189188,39589.0,2904.0,0.0,1.0,0.0,?,0.0,0.0
300000.0,1.09375,3.996214622424709E-8,300000.0,70.39999999999999,31.975603141991733,32.87981859410429,23.5142118863049,59589.0,2904.0,0.0,1.0,0.0,?,0.0,0.0
400000.0,1.46875,5.072435467607445E-8,400000.0,69.19999999999999,29.27701824561079,36.494845360824726,19.16010498687663,79589.0,2904.0,0.0,1.0,0.0,?,0.0,2.0
500000.0,1.84375,6.001196905142732E-8,500000.0,68.4,27.121435061969862,33.89121338912135,17.060367454068256,23195.0,2904.0,0.0,1.0,0.0,?,1.0,11.0
600000.0,2.203125,6.749721554418406E-8,600000.0,69.19999999999999,27.779210729945824,36.36363636363635,16.981132075471685,43195.0,2904.0,0.0,1.0,0.0,?,0.0,131.0
700000.0,2.546875,7.330743958138759E-8,700000.0,70.39999999999999,29.56841619355358,36.616702355460376,18.45730027548208,63195.0,2904.0,0.0,1.0,0.0,?,0.0,26.0
800000.0,2.90625,7.796861205456987E-8,800000.0,69.1,30.1423378126639,33.261339092872554,21.17346938775509,83195.0,2904.0,0.0,1.0,0.0,?,0.0,0.0
900000.0,3.265625,8.121663187113075E-8,900000.0,70.39999999999999,30.162325405813505,37.94549266247378,17.777777777777764,103195.0,2904.0,0.0,1.0,0.0,?,0.0,0.0
1000000.0,3.609375,8.297172219802938E-8,1000000.0,69.5,31.56217744468877,35.10638297872339,21.794871794871785,123195.0,2904.0,0.0,1.0,0.0,?,0.0,0.0
1100000.0,3.921875,9.563900271637574E-8,1100000.0,66.5,21.643292198010922,27.645788336933048,11.375661375661386,142995.0,2904.0,0.0,1.0,0.0,?,0.0,0.0
1200000.0,4.265625,1.0822130004978844E-7,1200000.0,68.60000000000001,28.70377098016423,33.33333333333334,19.072164948453622,162995.0,2904.0,0.0,1.0,0.0,?,0.0,0.0
1300000.0,4.59375,1.1894140496022174E-7,1300000.0,68.8,28.96304256753064,33.04721030042917,21.608040201005014,182995.0,2904.0,0.0,1.0,0.0,?,0.0,0.0
1400000.0,4.90625,1.2792220028738182E-7,1400000.0,66.8,27.79689178667898,31.687242798353914,22.61072261072263,202995.0,2904.0,0.0,1.0,0.0,?,0.0,0.0
1500000.0,5.265625,1.3683696225699453E-7,1500000.0,71.0,32.368141196664105,39.330543933054386,19.889502762430926,222995.0,2904.0,0.0,1.0,0.0,?,0.0,0.0
1600000.0,5.59375,1.4368625771668224E-7,1600000.0,69.69999999999999,32.3013950828023,37.525773195876276,23.869346733668333,242995.0,2904.0,0.0,1.0,0.0,?,0.0,0.0
1700000.0,5.921875,1.4924528335945477E-7,1700000.0,70.5,30.88680429954361,34.73451327433627,19.398907103825124,262995.0,2904.0,0.0,1.0,0.0,?,0.0,0.0
1800000.0,6.265625,1.5371731327225767E-7,1800000.0,70.3,29.431555737190752,37.20930232558138,16.10169491525422,282995.0,2904.0,0.0,1.0,0.0,?,0.0,0.0
1900000.0,6.578125,1.565539666141073E-7,1900000.0,66.2,22.624716138011873,29.43632567849687,12.88659793814434,302995.0,2904.0,0.0,1.0,0.0,?,0.0,0.0
2000000.0,6.90625,1.5824218280613425E-7,2000000.0,71.1,35.087687774024296,35.20179372197308,26.46310432569974,322995.0,2904.0,0.0,1.0,0.0,?,0.0,0.0
2100000.0,7.203125,1.7028777316833538E-7,2100000.0,69.5,29.67359324128643,34.829059829059815,19.525065963060673,342795.0,2904.0,0.0,1.0,0.0,?,0.0,0.0
2200000.0,7.515625,1.8173851357359027E-7,2200000.0,69.19999999999999,26.79877744451678,34.468085106382965,14.206128133704718,362795.0,2904.0,0.0,1.0,0.0,?,0.0,0.0
2300000.0,7.8125,1.9144932998137344E-7,2300000.0,67.5,24.6149563926517,31.578947368421055,14.473684210526327,382795.0,2904.0,0.0,1.0,0.0,?,0.0,0.0
2400000.0,8.125,2.0044241359250416E-7,2400000.0,69.3,28.871301075966365,35.0951374207188,18.567639257294417,402795.0,2904.0,0.0,1.0,0.0,?,0.0,0.0
2500000.0,8.453125,2.0859488156727622E-7,2500000.0,70.6,30.593262352746752,35.66739606126914,19.452054794520535,422795.0,2904.0,0.0,1.0,0.0,?,0.0,0.0
2600000.0,8.796875,2.157838510659834E-7,2600000.0,70.8,32.888374059977565,35.398230088495566,22.751322751322743,442795.0,2904.0,0.0,1.0,0.0,?,0.0,0.0
2700000.0,9.109375,2.2109044948592784E-7,2700000.0,68.10000000000001,26.762969153205447,32.12765957446809,16.492146596858653,462795.0,2904.0,0.0,1.0,0.0,?,0.0,0.0
2800000.0,9.390625,2.2476044250652197E-7,2800000.0,70.89999999999999,32.607688744789236,38.34745762711863,22.606382978723396,482795.0,2904.0,0.0,1.0,0.0,?,0.0,0.0
2900000.0,9.734375,2.2789427829492426E-7,2900000.0,68.2,30.11971942408102,36.14457831325302,23.923444976076574,502795.0,2904.0,0.0,1.0,0.0,?,0.0,0.0
3000000.0,10.046875,2.2951439152368245E-7,3000000.0,68.4,28.965458330148774,32.478632478632484,20.802005012531346,522795.0,2904.0,0.0,1.0,0.0,?,0.0,0.0
3100000.0,10.390625,2.434754343185988E-7,3100000.0,68.7,27.57178029952425,33.68644067796611,14.945652173913057,542595.0,2904.0,0.0,1.0,0.0,?,0.0,0.0
3200000.0,10.734375,2.560847658767469E-7,3200000.0,67.60000000000001,26.341203912100507,31.645569620253173,17.55725190839696,562595.0,2904.0,0.0,1.0,0.0,?,0.0,0.0
3300000.0,11.09375,2.6785409621273485E-7,3300000.0,70.7,33.08974651746973,37.25910064239827,23.896103896103888,582595.0,2904.0,0.0,1.0,0.0,?,0.0,0.0
3400000.0,11.453125,2.782102738921014E-7,3400000.0,68.89999999999999,29.11325468171622,34.800838574423466,20.05141388174806,602595.0,2904.0,0.0,1.0,0.0,?,0.0,0.0
3500000.0,11.828125,2.8754212608974846E-7,3500000.0,70.7,32.670919352170145,37.25910064239827,24.67866323907454,622595.0,2904.0,0.0,1.0,0.0,?,0.0,0.0
3600000.0,12.21875,2.957267699659699E-7,3600000.0,68.30000000000001,25.320392009046373,31.086956521739133,14.784946236559154,642595.0,2904.0,0.0,1.0,0.0,?,0.0,0.0
3700000.0,12.609375,3.023753783458638E-7,3700000.0,68.2,27.434371462996097,33.61169102296452,18.877551020408177,662595.0,2904.0,0.0,1.0,0.0,?,0.0,0.0
3800000.0,12.953125,3.0687444248340203E-7,3800000.0,68.89999999999999,31.18738273090947,37.55020080321284,23.960880195599014,682595.0,2904.0,0.0,1.0,0.0,?,0.0,0.0
3900000.0,13.3125,3.1016485687966156E-7,3900000.0,69.6,30.074755606670482,32.29398663697103,18.933333333333323,702595.0,2904.0,0.0,1.0,0.0,?,0.0,0.0
4000000.0,13.65625,3.1196049854366323E-7,4000000.0,69.3,30.269744791808613,35.23206751054851,21.48337595907927,722595.0,2904.0,0.0,1.0,0.0,?,0.0,0.0
4100000.0,14.015625,3.265702657194602E-7,4100000.0,70.8,33.23577830620083,38.784067085953865,23.958333333333325,742395.0,2904.0,0.0,1.0,0.0,?,0.0,0.0
4200000.0,14.375,3.3976688023863575E-7,4200000.0,67.80000000000001,25.983817579992653,34.15132924335379,17.01030927835053,762395.0,2904.0,0.0,1.0,0.0,?,0.0,0.0
4300000.0,14.734375,3.515503421011899E-7,4300000.0,68.60000000000001,32.11691456243515,34.44676409185804,25.592417061611393,782395.0,2904.0,0.0,1.0,0.0,?,0.0,0.0
4400000.0,15.109375,3.6237153431607626E-7,4400000.0,71.0,33.31248390301335,38.42887473460721,24.083769633507845,802395.0,2904.0,0.0,1.0,0.0,?,0.0,0.0
4500000.0,15.5,3.721075740435886E-7,4500000.0,69.8,27.68753352233542,33.333333333333314,15.168539325842682,822395.0,2904.0,0.0,1.0,0.0,?,0.0,0.0
4600000.0,15.890625,3.803075782747733E-7,4600000.0,68.30000000000001,25.841014363917097,32.11991434689509,14.324324324324337,842395.0,2904.0,0.0,1.0,0.0,?,0.0,0.0
4700000.0,16.265625,3.8670498826023613E-7,4700000.0,70.3,31.624167748708444,34.725274725274716,21.42857142857142,862395.0,2904.0,0.0,1.0,0.0,?,0.0,0.0
4800000.0,16.625,3.914226868396833E-7,4800000.0,67.30000000000001,24.632844407157823,32.157676348547724,13.492063492063505,882395.0,2904.0,0.0,1.0,0.0,?,0.0,0.0
4900000.0,16.96875,3.9458355685282095E-7,4900000.0,70.39999999999999,30.430204572803838,38.58921161825725,18.68131868131867,902395.0,2904.0,0.0,1.0,0.0,?,0.0,0.0
5000000.0,17.28125,3.9641515791623136E-7,5000000.0,68.7,26.36472282081927,32.97644539614562,15.176151761517628,922395.0,2904.0,0.0,1.0,0.0,?,0.0,0.0
5100000.0,17.59375,4.0931850283717124E-7,5100000.0,56.49999999999999,-1.02933799074713,6.451612903225788,-18.20652173913045,942195.0,2904.0,0.0,1.0,0.0,?,0.0,0.0
5200000.0,17.921875,4.215767451872429E-7,5200000.0,57.3,-1.5370860045275614,12.857142857142845,-15.094339622641522,962195.0,2904.0,0.0,1.0,0.0,?,0.0,0.0
5300000.0,18.234375,4.320224333140586E-7,5300000.0,57.099999999999994,4.413468565622702,13.508064516129023,-9.438775510204088,982195.0,2904.0,0.0,1.0,0.0,?,0.0,0.0
5400000.0,18.546875,4.412392930438122E-7,5400000.0,58.599999999999994,7.018111254851217,9.010989010988995,-8.376963350785347,1002195.0,2904.0,0.0,1.0,0.0,?,0.0,0.0
5500000.0,18.859375,4.4922732437650375E-7,5500000.0,60.0,8.265296761764967,14.712153518123658,-8.108108108108116,1022195.0,2904.0,0.0,1.0,0.0,?,0.0,0.0
5600000.0,19.21875,4.5700040775247757E-7,5600000.0,61.6,12.178387650085767,19.83298538622129,-2.400000000000002,1042195.0,2904.0,0.0,1.0,0.0,?,0.0,0.0
5700000.0,19.53125,4.625307822910449E-7,5700000.0,64.1,16.99805789327662,18.03652968036529,0.27777777777777807,1062195.0,2904.0,0.0,1.0,0.0,?,0.0,0.0
5800000.0,19.84375,4.668323284325501E-7,5800000.0,62.0,12.282321656109774,19.14893617021276,-4.972375690607739,1082195.0,2904.0,0.0,1.0,0.0,?,0.0,0.0
5900000.0,20.140625,4.697514102897711E-7,5900000.0,62.6,12.006211326259326,16.331096196868,-5.949008498583575,1102195.0,2904.0,0.0,1.0,0.0,?,0.0,0.0
6000000.0,20.453125,4.7159529963715217E-7,6000000.0,63.800000000000004,18.001594665120322,25.514403292181072,5.235602094240843,1122195.0,2904.0,0.0,1.0,0.0,?,0.0,0.0
6100000.0,20.796875,4.858024961625537E-7,6100000.0,65.60000000000001,21.818181818181834,27.426160337552748,9.473684210526324,1141995.0,2904.0,0.0,1.0,0.0,?,0.0,0.0
6200000.0,21.140625,4.98657981451187E-7,6200000.0,65.8,22.55995942323021,29.338842975206614,11.398963730569958,1161995.0,2904.0,0.0,1.0,0.0,?,0.0,0.0
6300000.0,21.4375,5.085930590414339E-7,6300000.0,65.8,20.1083909549617,26.13390928725702,9.04255319148937,1181995.0,2904.0,0.0,1.0,0.0,?,0.0,0.0
6400000.0,21.75,5.178222070551581E-7,6400000.0,66.10000000000001,23.225350581584973,29.8136645962733,14.393939393939407,1201995.0,2904.0,0.0,1.0,0.0,?,0.0,0.0
6500000.0,22.046875,5.254225106909871E-7,6500000.0,68.4,27.254645573583318,34.16666666666667,17.27748691099478,1221995.0,2904.0,0.0,1.0,0.0,?,0.0,0.0
6600000.0,22.40625,5.332097255935272E-7,6600000.0,67.0,25.288995748264682,30.08474576271187,16.8765743073048,1241995.0,2904.0,0.0,1.0,0.0,?,0.0,0.0
6700000.0,22.6875,5.381981221338114E-7,6700000.0,68.2,22.74540480922002,34.29752066115703,10.924369747899169,1261995.0,2904.0,0.0,1.0,0.0,?,0.0,0.0
6800000.0,23.046875,5.431590317231086E-7,6800000.0,68.30000000000001,27.132467198116945,30.78602620087337,18.92583120204605,1281995.0,2904.0,0.0,1.0,0.0,?,0.0,0.0
6900000.0,23.359375,5.462440377515224E-7,6900000.0,68.4,22.934723760005088,29.777777777777782,11.977715877437337,1301995.0,2904.0,0.0,1.0,0.0,?,0.0,0.0
7000000.0,23.65625,5.480074065013065E-7,7000000.0,67.60000000000001,26.834886210182617,34.01221995926681,18.796992481203024,1321995.0,2904.0,0.0,1.0,0.0,?,0.0,0.0
7100000.0,23.96875,5.609353279901876E-7,7100000.0,66.2,23.389710648830224,26.039387308533918,15.710723192019962,1341795.0,2904.0,0.0,1.0,0.0,?,0.0,0.0
7200000.0,24.28125,5.726344210820066E-7,7200000.0,68.8,28.086738456999548,37.59999999999999,21.2121212121212,1361795.0,2904.0,0.0,1.0,0.0,?,0.0,0.0
7300000.0,24.59375,5.831046857767635E-7,7300000.0,72.2,30.905927674909893,35.64814814814815,19.42028985507245,1381795.0,2904.0,0.0,1.0,0.0,?,0.0,0.0
7400000.0,24.890625,5.918840502595736E-7,7400000.0,72.2,33.46990350742837,39.03508771929823,23.626373626373617,1401795.0,2904.0,0.0,1.0,0.0,?,0.0,0.0
7500000.0,25.21875,6.00297288555238E-7,7500000.0,70.5,27.80437187356221,36.42241379310344,19.398907103825124,1421795.0,2904.0,0.0,1.0,0.0,?,0.0,0.0
7600000.0,25.53125,6.070810680588087E-7,7600000.0,72.0,33.543462575475644,42.62295081967212,23.91304347826086,1441795.0,2904.0,0.0,1.0,0.0,?,0.0,0.0
7700000.0,25.859375,6.129137667206427E-7,7700000.0,71.8,30.595549255009676,38.562091503267965,21.883656509695278,1461795.0,2904.0,0.0,1.0,0.0,?,0.0,0.0
7800000.0,26.1875,6.174561955655615E-7,7800000.0,69.5,28.402411312888496,34.267241379310335,20.572916666666654,1481795.0,2904.0,0.0,1.0,0.0,?,0.0,0.0
7900000.0,26.515625,6.207083545935651E-7,7900000.0,72.1,33.98824564890264,41.1392405063291,26.190476190476186,1501795.0,2904.0,0.0,1.0,0.0,?,0.0,0.0
8000000.0,26.890625,6.229505136919519E-7,8000000.0,68.7,25.353913076658923,32.543103448275865,16.976127320954923,1521795.0,2904.0,0.0,1.0,0.0,?,0.0,0.0
8100000.0,27.1875,6.35243712976161E-7,8100000.0,71.3,28.400359245584262,36.363636363636346,18.465909090909076,1541595.0,2904.0,0.0,1.0,0.0,?,0.0,0.0
8200000.0,27.53125,6.481262324895296E-7,8200000.0,70.89999999999999,30.69316363082082,35.61946902654866,21.774193548387085,1561595.0,2904.0,0.0,1.0,0.0,?,0.0,0.0
8300000.0,27.90625,6.607052960640027E-7,8300000.0,70.39999999999999,29.510382930081903,37.42071881606764,19.999999999999986,1581595.0,2904.0,0.0,1.0,0.0,?,0.0,0.0
8400000.0,28.234375,6.704217068747514E-7,8400000.0,72.39999999999999,33.75703231504772,41.89473684210526,23.75690607734806,1601595.0,2904.0,0.0,1.0,0.0,?,0.0,0.0
8500000.0,28.5625,6.78847847868585E-7,8500000.0,69.89999999999999,28.947095092864483,32.812499999999986,20.37037037037036,1621595.0,2904.0,0.0,1.0,0.0,?,0.0,0.0
8600000.0,28.890625,6.859837190455033E-7,8600000.0,74.0,36.00472580486363,44.91525423728813,27.374301675977648,1641595.0,2904.0,0.0,1.0,0.0,?,0.0,0.0
8700000.0,29.21875,6.918293204055065E-7,8700000.0,71.39999999999999,29.27829239222356,36.302895322939854,20.3342618384401,1661595.0,2904.0,0.0,1.0,0.0,?,0.0,0.0
8800000.0,29.53125,6.961677313989236E-7,8800000.0,71.0,31.671135531480743,38.5593220338983,24.281984334203646,1681595.0,2904.0,0.0,1.0,0.0,?,0.0,0.0
8900000.0,29.84375,6.992773139952785E-7,8900000.0,70.3,30.710439627096175,36.67377398720681,23.05699481865284,1701595.0,2904.0,0.0,1.0,0.0,?,0.0,0.0
9000000.0,30.140625,7.010640304846068E-7,9000000.0,71.5,33.297134351273684,38.04347826086955,26.165803108808284,1721595.0,2904.0,0.0,1.0,0.0,?,0.0,0.0
9100000.0,30.453125,7.140165285414292E-7,9100000.0,70.0,29.827844311377238,35.06493506493505,21.05263157894736,1741395.0,2904.0,0.0,1.0,0.0,?,0.0,0.0
9200000.0,30.75,7.251540147182015E-7,9200000.0,72.3,31.35408406026962,41.43763213530654,22.191011235955045,1761395.0,2904.0,0.0,1.0,0.0,?,0.0,0.0
9300000.0,31.078125,7.361735980440346E-7,9300000.0,70.89999999999999,33.3418851189767,39.87603305785123,26.88442211055276,1781395.0,2904.0,0.0,1.0,0.0,?,0.0,0.0
9400000.0,31.390625,7.454396109096707E-7,9400000.0,72.3,30.277279958116015,42.76859504132231,21.306818181818173,1801395.0,2904.0,0.0,1.0,0.0,?,0.0,0.0
9500000.0,31.6875,7.53074936154816E-7,9500000.0,69.89999999999999,28.467541850052758,37.16075156576199,20.15915119363394,1821395.0,2904.0,0.0,1.0,0.0,?,0.0,0.0
9600000.0,32.0,7.598832922263279E-7,9600000.0,71.2,30.48851129561691,38.19742489270385,22.994652406417103,1841395.0,2904.0,0.0,1.0,0.0,?,0.0,0.0
9700000.0,32.3125,7.654628199007778E-7,9700000.0,71.0,28.219243183303277,34.3891402714932,18.994413407821213,1861395.0,2904.0,0.0,1.0,0.0,?,0.0,0.0
9800000.0,32.640625,7.700310541420349E-7,9800000.0,70.1,28.776286076359447,37.70833333333332,20.689655172413783,1881395.0,2904.0,0.0,1.0,0.0,?,0.0,0.0
9900000.0,32.953125,7.731529250223605E-7,9900000.0,71.89999999999999,30.862423604208285,39.43965517241379,22.375690607734796,1901395.0,2904.0,0.0,1.0,0.0,?,0.0,0.0
1.0E7,33.265625,7.75045967505624E-7,1.0E7,71.1,27.89780949054439,38.37953091684434,18.591549295774634,1921395.0,2904.0,0.0,1.0,0.0,?,0.0,0.0
