learning evaluation instances,evaluation time (cpu seconds),model cost (RAM-Hours),classified instances,classifications correct (percent),Kappa Statistic (percent),Kappa Temporal Statistic (percent),Kappa M Statistic (percent),model training instances,model serialized size (bytes),labeling cost,newThreshold,maxPosterior,accuracyBaseLearner (percent),Change detected,Warning detected
100000.0,0.15625,1.1266416145695582E-9,100000.0,59.8,19.508239392907917,18.787878787878782,19.11468812877263,9090.0,9208.0,0.0,1.0,0.0,?,0.0,6.0
200000.0,0.3125,2.264601385427846E-9,200000.0,61.199999999999996,22.28062303698481,19.999999999999996,20.328542094455848,18181.0,9208.0,0.0,1.0,0.0,?,0.0,34.0
300000.0,0.484375,3.5095985771881214E-9,300000.0,63.1,24.757142973662955,27.36220472440945,18.54304635761589,27272.0,9208.0,0.0,1.0,0.0,?,0.0,0.0
400000.0,0.640625,4.635270064075788E-9,400000.0,56.699999999999996,13.565953369530485,17.83681214421252,12.525252525252514,36363.0,9208.0,0.0,1.0,0.0,?,0.0,0.0
500000.0,0.796875,5.754797408978145E-9,500000.0,62.0,23.4340243076824,23.387096774193548,20.5020920502092,45454.0,9208.0,0.0,1.0,0.0,?,0.0,0.0
600000.0,0.953125,6.864300101167627E-9,600000.0,54.50000000000001,7.605958704940146,6.9529652351738305,2.7777777777777803,54545.0,9208.0,0.0,1.0,0.0,?,0.0,0.0
700000.0,1.109375,7.967658651371798E-9,700000.0,55.1,9.712447214960811,12.64591439688717,7.422680412371141,63636.0,9208.0,0.0,1.0,0.0,?,0.0,0.0
800000.0,1.265625,9.064873059590658E-9,800000.0,61.9,22.76567795923,25.440313111545986,14.189189189189177,72727.0,9208.0,0.0,1.0,0.0,?,0.0,0.0
900000.0,1.40625,1.0050328758855662E-8,900000.0,59.099999999999994,17.125952342356936,18.03607214428857,14.07563025210083,81818.0,9208.0,0.0,1.0,0.0,?,0.0,0.0
1000000.0,1.5625,1.1139135393831466E-8,1000000.0,51.6,2.802266876056829,-1.0438413361169112,5.098039215686279,90909.0,9208.0,0.0,1.0,0.0,?,0.0,0.0
1100000.0,1.71875,1.222179788682196E-8,1100000.0,61.8,23.658630172027888,24.206349206349206,25.390625,100000.0,9208.0,0.0,1.0,0.0,?,0.0,0.0
1200000.0,1.875,1.3365901799665558E-8,1200000.0,62.3,24.365229672904697,24.900398406374503,23.3739837398374,109090.0,9208.0,0.0,1.0,0.0,?,0.0,0.0
1300000.0,2.015625,1.4390065593438017E-8,1300000.0,54.7,9.84931103380752,7.739307535641555,2.7896995708154533,118181.0,9208.0,0.0,1.0,0.0,?,0.0,0.0
1400000.0,2.15625,1.5408699659423695E-8,1400000.0,60.6,20.88353413654618,22.745098039215684,21.825396825396822,127272.0,9208.0,0.0,1.0,0.0,?,0.0,0.0
1500000.0,2.3125,1.6534371146311363E-8,1500000.0,55.50000000000001,10.108274078862332,9.919028340080981,5.117270788912585,136363.0,9208.0,0.0,1.0,0.0,?,0.0,0.0
1600000.0,2.46875,1.765389849121372E-8,1600000.0,54.1,7.7616835200874545,10.176125244618405,4.77178423236515,145454.0,9208.0,0.0,1.0,0.0,?,0.0,0.0
1700000.0,2.640625,1.887862001442247E-8,1700000.0,55.400000000000006,10.958493880892021,10.441767068273101,10.978043912175659,154545.0,9208.0,0.0,1.0,0.0,?,0.0,0.0
1800000.0,2.78125,1.9875135169261033E-8,1800000.0,61.7,23.0156943461761,22.626262626262626,21.35523613963039,163636.0,9208.0,0.0,1.0,0.0,?,0.0,0.0
1900000.0,2.921875,2.0866120596312814E-8,1900000.0,61.9,23.831076920616383,24.103585657370516,20.292887029288696,172727.0,9208.0,0.0,1.0,0.0,?,0.0,0.0
2000000.0,3.0625,2.1851576295577818E-8,2000000.0,61.199999999999996,20.889624715059913,22.24448897795591,15.098468271334783,181818.0,9208.0,0.0,1.0,0.0,?,0.0,0.0
2100000.0,3.21875,2.2940382930553623E-8,2100000.0,56.3,12.848903531513983,15.79961464354527,10.266940451745366,190909.0,9208.0,0.0,1.0,0.0,?,0.0,0.0
2200000.0,3.375,2.402304542354412E-8,2200000.0,59.699999999999996,18.868425926671538,19.23847695390781,15.866388308977028,200000.0,9208.0,0.0,1.0,0.0,?,0.0,0.0
2300000.0,3.53125,2.5167149336387717E-8,2300000.0,56.99999999999999,12.456788263509132,15.019762845849794,6.724511930585665,209090.0,9208.0,0.0,1.0,0.0,?,0.0,0.0
2400000.0,3.6875,2.6305109107246006E-8,2400000.0,56.8,12.482577550160428,17.55725190839694,8.474576271186425,218181.0,9208.0,0.0,1.0,0.0,?,0.0,0.0
2500000.0,3.84375,2.7436924736118984E-8,2500000.0,54.800000000000004,9.475075604333995,16.451016635859524,7.186858316221772,227272.0,9208.0,0.0,1.0,0.0,?,0.0,0.0
2600000.0,4.0,2.8562596223006652E-8,2600000.0,63.4,26.70148679825686,26.060606060606062,26.358148893360163,236363.0,9208.0,0.0,1.0,0.0,?,0.0,0.0
2700000.0,4.15625,2.968212356790901E-8,2700000.0,56.99999999999999,13.322179443246181,13.654618473895571,10.973084886128351,245454.0,9208.0,0.0,1.0,0.0,?,0.0,0.0
2800000.0,4.3125,3.0795506770826056E-8,2800000.0,62.6,23.766816143497746,24.137931034482758,16.888888888888882,254545.0,9208.0,0.0,1.0,0.0,?,0.0,0.0
2900000.0,4.453125,3.179202192566462E-8,2900000.0,60.4,20.364233083432545,22.957198443579767,18.852459016393436,263636.0,9208.0,0.0,1.0,0.0,?,0.0,0.0
3000000.0,4.59375,3.27830073527164E-8,3000000.0,61.0,21.11490928214567,19.087136929460573,16.488222698072796,272727.0,9208.0,0.0,1.0,0.0,?,0.0,0.0
3100000.0,4.75,3.3877958129677515E-8,3100000.0,60.3,20.231148832200095,22.460937499999996,17.805383022774322,281818.0,9208.0,0.0,1.0,0.0,?,0.0,0.0
3200000.0,4.90625,3.496676476465332E-8,3200000.0,56.39999999999999,13.094782497767568,12.625250501001991,13.663366336633654,290909.0,9208.0,0.0,1.0,0.0,?,0.0,0.0
3300000.0,5.0625,3.604942725764381E-8,3300000.0,62.0,24.745024259827705,21.810699588477362,21.161825726141075,300000.0,9208.0,0.0,1.0,0.0,?,0.0,0.0
3400000.0,5.21875,3.719353117048741E-8,3400000.0,62.6,24.88602357855837,23.517382413087933,23.517382413087933,309090.0,9208.0,0.0,1.0,0.0,?,0.0,0.0
3500000.0,5.375,3.83314909413457E-8,3500000.0,63.4,25.913030804795,24.380165289256198,20.261437908496728,318181.0,9208.0,0.0,1.0,0.0,?,0.0,0.0
3600000.0,5.53125,3.9463306570218675E-8,3600000.0,59.9,19.32563473222547,18.32993890020366,16.632016632016626,327272.0,9208.0,0.0,1.0,0.0,?,0.0,0.0
3700000.0,5.6875,4.058897805710634E-8,3700000.0,57.99999999999999,14.869121408794411,16.167664670658674,8.496732026143775,336363.0,9208.0,0.0,1.0,0.0,?,0.0,0.0
3800000.0,5.828125,4.159655266751846E-8,3800000.0,52.5,4.728667244311808,4.040404040404044,3.4552845528455314,345454.0,9208.0,0.0,1.0,0.0,?,0.0,0.0
3900000.0,6.0,4.282127419072721E-8,3900000.0,60.699999999999996,20.906456287232324,23.984526112185687,17.43697478991596,354545.0,9208.0,0.0,1.0,0.0,?,0.0,0.0
4000000.0,6.15625,4.3928513251658944E-8,4000000.0,60.099999999999994,18.780940594059405,25.97402597402597,11.725663716814145,363636.0,9208.0,0.0,1.0,0.0,?,0.0,0.0
4100000.0,6.3125,4.502960817060537E-8,4100000.0,57.9,14.645321914864276,17.612524461839524,8.874458874458858,372727.0,9208.0,0.0,1.0,0.0,?,0.0,0.0
4200000.0,6.46875,4.612455894756648E-8,4200000.0,53.1,6.165468892552472,7.495069033530578,6.2000000000000055,381818.0,9208.0,0.0,1.0,0.0,?,0.0,0.0
4300000.0,6.625,4.7213365582542285E-8,4300000.0,59.599999999999994,18.7818891654236,19.038076152304605,17.043121149897324,390909.0,9208.0,0.0,1.0,0.0,?,0.0,0.0
4400000.0,6.78125,4.829602807553278E-8,4400000.0,62.5,25.159858542153955,27.042801556420237,28.97727272727273,400000.0,9208.0,0.0,1.0,0.0,?,0.0,0.0
4500000.0,6.9375,4.944013198837638E-8,4500000.0,56.39999999999999,12.19413956298459,14.6771037181996,12.449799196787136,409090.0,9208.0,0.0,1.0,0.0,?,0.0,0.0
4600000.0,7.09375,5.0578091759234664E-8,4600000.0,60.099999999999994,20.024052916416114,20.359281437125745,19.55645161290322,418181.0,9208.0,0.0,1.0,0.0,?,0.0,0.0
4700000.0,7.25,5.170990738810764E-8,4700000.0,56.8,12.832929782082322,19.85157699443413,9.623430962343082,427272.0,9208.0,0.0,1.0,0.0,?,0.0,0.0
4800000.0,7.40625,5.2835578874995307E-8,4800000.0,62.5,24.751982534433495,26.18110236220473,23.78048780487805,436363.0,9208.0,0.0,1.0,0.0,?,0.0,0.0
4900000.0,7.5625,5.3955106219897664E-8,4900000.0,63.6,25.8501766151013,27.77777777777778,20.69716775599128,445454.0,9208.0,0.0,1.0,0.0,?,0.0,0.0
5000000.0,7.71875,5.516194505617022E-8,5000000.0,60.099999999999994,18.78027928184668,21.917808219178077,16.352201257861626,454545.0,9208.0,0.0,1.0,0.0,?,0.0,0.0
5100000.0,7.875,5.636263975045747E-8,5100000.0,50.7,1.7732616058975927,0.40404040404040437,-0.6122448979591842,463636.0,9208.0,0.0,1.0,0.0,?,0.0,0.0
5200000.0,8.03125,5.7557190302759405E-8,5200000.0,52.1,5.2550794354073105,-3.2327586206896584,-1.69851380042463,472727.0,9208.0,0.0,1.0,0.0,?,0.0,0.0
5300000.0,8.1875,5.874559671307603E-8,5300000.0,50.3,2.132217995069187,-4.8523206751054895,-7.575757575757583,481818.0,9208.0,0.0,1.0,0.0,?,0.0,0.0
5400000.0,8.34375,5.992785898140735E-8,5400000.0,48.199999999999996,-3.4117905412149883,-5.498981670061105,-5.070993914807307,490909.0,9208.0,0.0,1.0,0.0,?,0.0,0.0
5500000.0,8.5,6.101052147439783E-8,5500000.0,51.0,2.825979176995545,4.2968750000000036,-3.157894736842108,500000.0,9208.0,0.0,1.0,0.0,?,0.0,0.0
5600000.0,8.65625,6.224808102059695E-8,5600000.0,49.3,-1.0072836810480748,4.519774011299439,-6.066945606694566,509090.0,9208.0,0.0,1.0,0.0,?,0.0,0.0
5700000.0,8.8125,6.347949642481075E-8,5700000.0,48.4,-1.5056673997631633,-6.832298136645969,-11.930585683297192,518181.0,9208.0,0.0,1.0,0.0,?,0.0,0.0
5800000.0,8.96875,6.468439500571953E-8,5800000.0,50.7,3.356073080843728,0.6048387096774198,-10.786516853932596,510901.0,9208.0,0.0,1.0,0.0,?,1.0,17.0
5900000.0,9.125,6.588314944464299E-8,5900000.0,49.7,-0.1672773617970272,6.1567164179104426,-9.110629067245128,519992.0,9208.0,0.0,1.0,0.0,?,0.0,0.0
6000000.0,9.28125,6.707575974158114E-8,6000000.0,48.1,-3.4854043707130424,-3.3864541832669355,-5.487804878048785,529083.0,9208.0,0.0,1.0,0.0,?,0.0,0.0
6100000.0,9.421875,6.81435792810387E-8,6100000.0,48.6,-1.8907271509053303,-2.5948103792415194,-7.756813417190783,538174.0,9208.0,0.0,1.0,0.0,?,0.0,0.0
6200000.0,9.578125,6.932390129400624E-8,6200000.0,51.5,4.238767306127928,4.901960784313729,-3.8543897216274123,547265.0,9208.0,0.0,1.0,0.0,?,0.0,0.0
6300000.0,9.71875,7.038066137789024E-8,6300000.0,48.6,-1.2305219871118247,-7.983193277310932,-4.6843177189409415,556356.0,9208.0,0.0,1.0,0.0,?,0.0,0.0
6400000.0,9.859375,7.143189173398746E-8,6400000.0,50.8,1.3632718524458756,-0.20366598778004094,2.7667984189723343,565447.0,9208.0,0.0,1.0,0.0,?,0.0,0.0
6500000.0,10.015625,7.259378132099906E-8,6500000.0,51.6,2.93910030161073,-0.20703933747412026,2.8112449799196813,574538.0,9208.0,0.0,1.0,0.0,?,0.0,0.0
6600000.0,10.171875,7.365607113266984E-8,6600000.0,47.599999999999994,-3.8693307960672336,-2.144249512670567,-11.016949152542384,583629.0,9208.0,0.0,1.0,0.0,?,0.0,0.0
6700000.0,10.328125,7.487325799754924E-8,6700000.0,49.5,-0.31305619120264866,-0.19841269841269857,-4.3388429752066155,592719.0,9208.0,0.0,1.0,0.0,?,0.0,0.0
6800000.0,10.484375,7.608430072044333E-8,6800000.0,51.0,3.0424871778636216,3.3530571992110487,-3.813559322033902,601810.0,9208.0,0.0,1.0,0.0,?,0.0,0.0
6900000.0,10.609375,7.704821958517035E-8,6900000.0,51.800000000000004,4.147509426157784,4.5544554455445585,0.8230452674897127,610901.0,9208.0,0.0,1.0,0.0,?,0.0,0.0
7000000.0,10.765625,7.824697402409381E-8,7000000.0,48.3,-3.7252824858757116,-2.173913043478263,-9.533898305084755,619992.0,9208.0,0.0,1.0,0.0,?,0.0,0.0
7100000.0,10.921875,7.943958432103196E-8,7100000.0,49.7,-0.3303121210186999,1.3725490196078443,-2.0283975659229228,629083.0,9208.0,0.0,1.0,0.0,?,0.0,0.0
7200000.0,11.0625,8.050740386048952E-8,7200000.0,49.7,-0.4433084388354167,0.19841269841269857,-3.0737704918032813,638174.0,9208.0,0.0,1.0,0.0,?,0.0,0.0
7300000.0,11.21875,8.168772587345706E-8,7300000.0,48.3,-0.2777519163330626,-4.655870445344134,-16.441441441441455,647265.0,9208.0,0.0,1.0,0.0,?,0.0,0.0
7400000.0,11.375,8.286190374443928E-8,7400000.0,50.6,1.607345589260466,-0.6109979633401228,-0.6109979633401228,656356.0,9208.0,0.0,1.0,0.0,?,0.0,0.0
7500000.0,11.53125,8.402993747343619E-8,7500000.0,48.199999999999996,-3.4576422842169166,-2.9821073558648137,-4.2253521126760605,665447.0,9208.0,0.0,1.0,0.0,?,0.0,0.0
7600000.0,11.6875,8.51918270604478E-8,7600000.0,46.0,-6.780143639067293,-11.340206185567009,-18.942731277533046,674538.0,9208.0,0.0,1.0,0.0,?,0.0,0.0
7700000.0,11.828125,8.61478878909515E-8,7700000.0,50.4,1.49152946316856,-3.1185031185031216,-1.84804928131417,683629.0,9208.0,0.0,1.0,0.0,?,0.0,0.0
7800000.0,11.984375,8.736507475583089E-8,7800000.0,52.6,6.187656353906091,7.602339181286556,-0.42372881355932246,692719.0,9208.0,0.0,1.0,0.0,?,0.0,0.0
7900000.0,12.140625,8.857611747872498E-8,7900000.0,50.2,0.2623620596423131,2.35294117647059,-1.0141987829614614,701810.0,9208.0,0.0,1.0,0.0,?,0.0,0.0
8000000.0,12.296875,8.978101605963376E-8,8000000.0,47.8,-2.757928305675313,-2.9585798816568074,-15.231788079470213,710901.0,9208.0,0.0,1.0,0.0,?,0.0,0.0
8100000.0,12.453125,9.097977049855722E-8,8100000.0,49.1,-0.9343866996636829,-2.0040080160320657,-8.760683760683769,719992.0,9208.0,0.0,1.0,0.0,?,0.0,0.0
8200000.0,12.609375,9.217238079549537E-8,8200000.0,50.0,1.5247901493278133,-2.880658436213994,-10.864745011086486,729083.0,9208.0,0.0,1.0,0.0,?,0.0,0.0
8300000.0,12.765625,9.335884695044823E-8,8300000.0,52.900000000000006,5.155054369714069,4.848484848484853,3.4836065573770525,738174.0,9208.0,0.0,1.0,0.0,?,0.0,0.0
8400000.0,12.90625,9.4421136762119E-8,8400000.0,48.1,-3.3288205781635885,-1.9646365422396874,-6.352459016393448,747265.0,9208.0,0.0,1.0,0.0,?,0.0,0.0
8500000.0,13.0625,9.559531463310123E-8,8500000.0,49.6,-0.4772670183371026,-6.779661016949159,-3.06748466257669,756356.0,9208.0,0.0,1.0,0.0,?,0.0,0.0
8600000.0,13.21875,9.676334836209814E-8,8600000.0,50.7,2.092402529312699,6.805293005671083,-2.28215767634855,765447.0,9208.0,0.0,1.0,0.0,?,0.0,0.0
8700000.0,13.375,9.792523794910975E-8,8700000.0,48.5,-1.3675765472825747,-6.185567010309284,-10.278372591006434,774538.0,9208.0,0.0,1.0,0.0,?,0.0,0.0
8800000.0,13.53125,9.898752776078053E-8,8800000.0,49.5,0.09021556772498732,-3.2719836400818028,-7.675906183368878,783629.0,9208.0,0.0,1.0,0.0,?,0.0,0.0
8900000.0,13.6875,1.0020471462565992E-7,8900000.0,51.7,3.2211526901714547,5.108055009823187,5.8479532163742745,792719.0,9208.0,0.0,1.0,0.0,?,0.0,0.0
9000000.0,13.84375,1.0141575734855401E-7,9000000.0,49.7,-0.04773649455008711,-1.8218623481781393,-2.6530612244897984,801810.0,9208.0,0.0,1.0,0.0,?,0.0,0.0
9100000.0,14.0,1.0262065592946279E-7,9100000.0,50.6,2.6213389368773448,-2.4896265560165998,-10.022271714922057,810901.0,9208.0,0.0,1.0,0.0,?,0.0,0.0
9200000.0,14.140625,1.0369953492449391E-7,9200000.0,52.2,5.263992389408599,-1.0570824524312907,0.4166666666666671,819992.0,9208.0,0.0,1.0,0.0,?,0.0,0.0
9300000.0,14.296875,1.0489214522143206E-7,9300000.0,50.3,1.148035292339271,-5.970149253731349,-2.26337448559671,829083.0,9208.0,0.0,1.0,0.0,?,0.0,0.0
9400000.0,14.453125,1.0607861137638491E-7,9400000.0,47.5,-4.302425379064816,-6.490872210953352,-9.147609147609156,838174.0,9208.0,0.0,1.0,0.0,?,0.0,0.0
9500000.0,14.609375,1.0725893338935245E-7,9500000.0,51.300000000000004,2.099532811733584,4.696673189823879,6.165703275529871,847265.0,9208.0,0.0,1.0,0.0,?,0.0,0.0
9600000.0,14.78125,1.085505290474329E-7,9600000.0,49.6,0.5132254243979563,-0.19880715705765428,-7.234042553191496,856356.0,9208.0,0.0,1.0,0.0,?,0.0,0.0
9700000.0,14.9375,1.097185627764298E-7,9700000.0,50.1,1.325676680429667,-2.8865979381443325,-6.852248394004288,865447.0,9208.0,0.0,1.0,0.0,?,0.0,0.0
9800000.0,15.109375,1.1099664132214257E-7,9800000.0,50.2,2.292017375540037,0.5988023952095813,-9.933774834437095,874538.0,9208.0,0.0,1.0,0.0,?,0.0,0.0
9900000.0,15.265625,1.1205893113381335E-7,9900000.0,50.2,1.459507376685883,2.544031311154601,-4.621848739495802,883629.0,9208.0,0.0,1.0,0.0,?,0.0,0.0
1.0E7,15.421875,1.1327611799869274E-7,1.0E7,62.2,24.01338007783603,24.85089463220676,21.739130434782606,892719.0,9208.0,0.0,1.0,0.0,?,0.0,0.0
