learning evaluation instances,evaluation time (cpu seconds),model cost (RAM-Hours),classified instances,classifications correct (percent),Kappa Statistic (percent),Kappa Temporal Statistic (percent),Kappa M Statistic (percent),model training instances,model serialized size (bytes),labeling cost,newThreshold,maxPosterior,accuracyBaseLearner (percent),Change detected,Warning detected
100000.0,0.15625,1.1010949189464252E-9,100000.0,61.0,19.154228855721396,16.844349680170566,5.339805825242723,2873.0,9208.0,0.0,1.0,0.0,?,4.0,70.0
200000.0,0.328125,2.3016279252866907E-9,200000.0,62.0,10.613473842679701,18.103448275862064,-2.7027027027027053,4831.0,9208.0,0.0,1.0,0.0,?,3.0,15.0
300000.0,0.46875,3.304254884521167E-9,300000.0,56.39999999999999,9.315917552361737,1.1337868480725384,-12.661498708010347,13922.0,9208.0,0.0,1.0,0.0,?,0.0,49.0
400000.0,0.59375,4.2047920740313E-9,400000.0,61.1,9.640793116904833,19.793814432989688,-2.0997375328084007,23013.0,9208.0,0.0,1.0,0.0,?,0.0,0.0
500000.0,0.75,5.324319418933657E-9,500000.0,60.4,7.963910697103656,17.154811715481163,-3.9370078740157513,32104.0,9208.0,0.0,1.0,0.0,?,0.0,0.0
600000.0,0.90625,6.395017003847493E-9,600000.0,56.39999999999999,8.005620940959005,9.917355371900813,-17.5202156334232,28013.0,9208.0,0.0,1.0,0.0,?,1.0,6.0
700000.0,1.0625,7.48576389418708E-9,700000.0,60.699999999999996,5.564259556512451,15.845824411134895,-8.264462809917363,2158.0,9208.0,0.0,1.0,0.0,?,2.0,23.0
800000.0,1.21875,8.547406954069932E-9,800000.0,60.5,17.7672667921323,14.686825053995669,-0.7653061224489802,9239.0,9208.0,0.0,1.0,0.0,?,1.0,14.0
900000.0,1.375,9.642357731031047E-9,900000.0,62.6,9.364094610314076,21.593291404612156,-3.8888888888888924,18330.0,9208.0,0.0,1.0,0.0,?,0.0,19.0
1000000.0,1.53125,1.0717582578460375E-8,1000000.0,60.6,9.491868051088858,16.17021276595744,-1.0256410256410264,27421.0,9208.0,0.0,1.0,0.0,?,0.0,1.0
1100000.0,1.6875,1.1786663283904394E-8,1100000.0,59.599999999999994,5.773034294883755,12.742980561555065,-6.878306878306885,36512.0,9208.0,0.0,1.0,0.0,?,0.0,0.0
1200000.0,1.84375,1.2917185409201516E-8,1200000.0,61.8,11.278335191378657,18.895966029723983,1.5463917525773208,45602.0,9208.0,0.0,1.0,0.0,?,0.0,0.0
1300000.0,1.984375,1.3929125594182146E-8,1300000.0,59.8,7.52668384247331,13.733905579399131,-1.0050251256281415,54693.0,9208.0,0.0,1.0,0.0,?,0.0,0.0
1400000.0,2.140625,1.5047359435508648E-8,1400000.0,58.699999999999996,9.369404164179619,15.020576131687232,3.7296037296037325,63784.0,9208.0,0.0,1.0,0.0,?,0.0,0.0
1500000.0,2.296875,1.6173030922396316E-8,1500000.0,62.8,11.069461444308425,22.17573221757322,-2.762430939226522,72875.0,9208.0,0.0,1.0,0.0,?,0.0,21.0
1600000.0,2.453125,1.7292558267298673E-8,1600000.0,57.99999999999999,4.373326533214331,13.402061855670091,-5.527638190954779,81966.0,9208.0,0.0,1.0,0.0,?,0.0,0.0
1700000.0,2.625,1.8517279790507424E-8,1700000.0,60.699999999999996,11.162349111623486,13.05309734513273,-7.377049180327876,91057.0,9208.0,0.0,1.0,0.0,?,0.0,0.0
1800000.0,2.765625,1.9513794945345986E-8,1800000.0,61.5,3.99289796814061,18.60465116279069,-8.757062146892663,100148.0,9208.0,0.0,1.0,0.0,?,0.0,0.0
1900000.0,2.90625,2.0504780372397767E-8,1900000.0,56.3,-0.7098082595870397,8.768267223382031,-12.628865979381453,109239.0,9208.0,0.0,1.0,0.0,?,0.0,0.0
2000000.0,3.0625,2.1599731149358883E-8,2000000.0,63.9,16.837139013287636,19.058295964125556,8.142493638676852,118330.0,9208.0,0.0,1.0,0.0,?,0.0,0.0
2100000.0,3.21875,2.2678513131621814E-8,2100000.0,56.8,-1.0190767043461784,7.692307692307676,-13.984168865435368,59167.0,9208.0,0.0,1.0,0.0,?,1.0,50.0
2200000.0,3.375,2.376117562461231E-8,2200000.0,59.699999999999996,2.8531757128118,14.25531914893616,-12.256267409470764,68258.0,9208.0,0.0,1.0,0.0,?,0.0,19.0
2300000.0,3.515625,2.4758272856060005E-8,2300000.0,59.8,15.375547322330748,15.36842105263157,-5.789473684210531,77348.0,9208.0,0.0,1.0,0.0,?,0.0,10.0
2400000.0,3.640625,2.563966619264749E-8,2400000.0,61.8,20.5103981555083,19.238900634249468,-1.3262599469496033,86439.0,9208.0,0.0,1.0,0.0,?,0.0,0.0
2500000.0,3.796875,2.6771481821520467E-8,2500000.0,62.3,8.490703432205448,17.505470459518595,-3.2876712328767157,95530.0,9208.0,0.0,1.0,0.0,?,0.0,7.0
2600000.0,3.9375,2.7784586159719365E-8,2600000.0,61.8,11.70814688805888,15.486725663716804,-1.0582010582010593,104621.0,9208.0,0.0,1.0,0.0,?,0.0,0.0
2700000.0,4.09375,2.8904113504621723E-8,2700000.0,59.5,6.103068690821751,13.829787234042543,-6.0209424083769685,113712.0,9208.0,0.0,1.0,0.0,?,0.0,0.0
2800000.0,4.25,2.997578121721745E-8,2800000.0,63.0,22.300248639204366,21.610169491525422,1.5957446808510651,8103.0,9208.0,0.0,1.0,0.0,?,1.0,4.0
2900000.0,4.40625,3.1072995625436315E-8,2900000.0,60.699999999999996,12.599076619252228,21.084337349397586,5.9808612440191435,17194.0,9208.0,0.0,1.0,0.0,?,0.0,23.0
3000000.0,4.5625,3.217409054438274E-8,3000000.0,58.199999999999996,13.427086137978158,10.68376068376067,-4.761904761904765,26285.0,9208.0,0.0,1.0,0.0,?,0.0,31.0
3100000.0,4.71875,3.3269041321343854E-8,3100000.0,59.8,15.682260554399614,14.830508474576263,-9.239130434782616,35376.0,9208.0,0.0,1.0,0.0,?,0.0,21.0
3200000.0,4.875,3.4357847956319656E-8,3200000.0,58.9,14.430620096936996,13.29113924050632,-4.580152671755729,44467.0,9208.0,0.0,1.0,0.0,?,0.0,0.0
3300000.0,5.03125,3.544051044931015E-8,3300000.0,59.5,15.012380912410277,13.276231263383288,-5.194805194805199,53558.0,9208.0,0.0,1.0,0.0,?,0.0,0.0
3400000.0,5.171875,3.647020397086939E-8,3400000.0,61.5,10.618104825229373,19.287211740041922,1.0282776349614406,62648.0,9208.0,0.0,1.0,0.0,?,0.0,0.0
3500000.0,5.3125,3.749436776464185E-8,3500000.0,62.2,12.288436460165482,19.057815845824404,2.827763496143961,71739.0,9208.0,0.0,1.0,0.0,?,0.0,22.0
3600000.0,5.453125,3.851300183062753E-8,3600000.0,60.4,5.972190563027115,13.913043478260859,-6.451612903225811,80830.0,9208.0,0.0,1.0,0.0,?,0.0,0.0
3700000.0,5.609375,3.96386733175152E-8,3700000.0,59.599999999999994,14.626724371111703,15.657620041753646,-3.061224489795921,89921.0,9208.0,0.0,1.0,0.0,?,0.0,0.0
3800000.0,5.765625,4.0758200662417555E-8,3800000.0,57.699999999999996,5.646067916986384,15.060240963855412,-3.422982885085577,99012.0,9208.0,0.0,1.0,0.0,?,0.0,0.0
3900000.0,5.921875,4.18715838653346E-8,3900000.0,58.699999999999996,12.869198312236277,8.017817371937623,-10.133333333333344,108103.0,9208.0,0.0,1.0,0.0,?,0.0,0.0
4000000.0,6.078125,4.2978822926266335E-8,4000000.0,59.3,15.121332699350171,14.135021097046405,-4.092071611253201,117194.0,9208.0,0.0,1.0,0.0,?,0.0,0.0
4100000.0,6.25,4.41900273371074E-8,4100000.0,61.5,19.135314973199126,19.287211740041922,-0.2604166666666669,126285.0,9208.0,0.0,1.0,0.0,?,0.0,0.0
4200000.0,6.40625,4.524811326215665E-8,4200000.0,61.7,10.999776918500878,21.67689161554192,1.2886597938144342,135376.0,9208.0,0.0,1.0,0.0,?,0.0,2.0
4300000.0,6.546875,4.61948608669142E-8,4300000.0,55.900000000000006,3.5880125576067288,7.933194154488525,-4.5023696682464225,144467.0,9208.0,0.0,1.0,0.0,?,0.0,0.0
4400000.0,6.703125,4.724065850799283E-8,4400000.0,59.5,7.119465008118437,14.012738853503173,-6.0209424083769685,153558.0,9208.0,0.0,1.0,0.0,?,0.0,0.0
4500000.0,6.859375,4.834789756892457E-8,4500000.0,63.1,11.827114237651013,18.54304635761589,-3.6516853932584303,162648.0,9208.0,0.0,1.0,0.0,?,0.0,0.0
4600000.0,7.015625,4.944899248787099E-8,4600000.0,62.3,10.828326789346692,19.27194860813704,-1.8918918918918937,171739.0,9208.0,0.0,1.0,0.0,?,0.0,0.0
4700000.0,7.171875,5.054394326483211E-8,4700000.0,61.5,10.2555734785406,15.384615384615374,-1.8518518518518534,180830.0,9208.0,0.0,1.0,0.0,?,0.0,0.0
4800000.0,7.3125,5.1523869236310334E-8,4800000.0,63.7,14.606720427578038,24.688796680497923,3.9682539682539715,189921.0,9208.0,0.0,1.0,0.0,?,0.0,0.0
4900000.0,7.46875,5.260653172930083E-8,4900000.0,62.9,10.21992488481048,23.029045643153527,-1.923076923076925,199012.0,9208.0,0.0,1.0,0.0,?,0.0,0.0
5000000.0,7.625,5.3776505713661525E-8,5000000.0,61.1,7.111132336787794,16.702355460385434,-5.420054200542011,208103.0,9208.0,0.0,1.0,0.0,?,0.0,0.0
5100000.0,7.78125,5.494033555603691E-8,5100000.0,57.4,-0.7301755447942103,8.387096774193532,-15.760869565217405,217194.0,9208.0,0.0,1.0,0.0,?,0.0,0.0
5200000.0,7.921875,5.598225268638797E-8,5200000.0,60.099999999999994,5.814480492502924,18.571428571428566,-7.547169811320761,226285.0,9208.0,0.0,1.0,0.0,?,0.0,0.0
5300000.0,8.078125,5.7133794244792735E-8,5300000.0,57.699999999999996,3.0439167507105434,14.717741935483861,-7.90816326530613,235376.0,9208.0,0.0,1.0,0.0,?,0.0,0.0
5400000.0,8.234375,5.827919166121219E-8,5400000.0,57.3,1.00249464439725,6.1538461538461355,-11.780104712041894,244467.0,9208.0,0.0,1.0,0.0,?,0.0,0.0
5500000.0,8.375,5.9220409538182955E-8,5500000.0,57.8,0.49047349556686726,10.021321961620455,-14.054054054054067,253558.0,9208.0,0.0,1.0,0.0,?,0.0,0.0
5600000.0,8.53125,6.04211042324702E-8,5600000.0,60.9,7.345971563981024,18.371607515657615,-4.266666666666671,262648.0,9208.0,0.0,1.0,0.0,?,0.0,0.0
5700000.0,8.6875,6.161565478477214E-8,5700000.0,66.10000000000001,19.32413136601617,22.602739726027394,5.833333333333339,271739.0,9208.0,0.0,1.0,0.0,?,0.0,0.0
5800000.0,8.828125,6.26852205540571E-8,5800000.0,63.800000000000004,0.0,22.978723404255316,0.0,280830.0,9208.0,0.0,1.0,0.0,?,0.0,0.0
5900000.0,8.984375,6.386748282238842E-8,5900000.0,65.7,16.468594139650854,23.2662192393736,2.8328611898017027,289921.0,9208.0,0.0,1.0,0.0,?,0.0,0.0
6000000.0,9.109375,6.480837732346522E-8,6000000.0,63.2,5.417908913334016,24.279835390946502,3.6649214659685896,299012.0,9208.0,0.0,1.0,0.0,?,0.0,0.0
6100000.0,9.265625,6.597835130782591E-8,6100000.0,65.3,19.69079800037031,26.79324894514768,8.684210526315796,308103.0,9208.0,0.0,1.0,0.0,?,0.0,0.0
6200000.0,9.421875,6.71421811502013E-8,6200000.0,65.0,20.005119672340978,27.685950413223143,9.32642487046633,317194.0,9208.0,0.0,1.0,0.0,?,0.0,0.0
6300000.0,9.5625,6.818409828055237E-8,6300000.0,64.5,16.442276912648033,23.326133909287254,5.585106382978728,326285.0,9208.0,0.0,1.0,0.0,?,0.0,0.0
6400000.0,9.71875,6.933563983895713E-8,6400000.0,64.60000000000001,19.486899563318776,26.70807453416149,10.606060606060614,335376.0,9208.0,0.0,1.0,0.0,?,0.0,0.0
6500000.0,9.875,7.048103725537658E-8,6500000.0,65.3,20.506922999386056,27.708333333333336,9.162303664921474,344467.0,9208.0,0.0,1.0,0.0,?,0.0,0.0
6600000.0,10.015625,7.142225513234735E-8,6600000.0,63.6,17.974049152473622,22.881355932203387,8.312342569269529,353558.0,9208.0,0.0,1.0,0.0,?,0.0,0.0
6700000.0,10.171875,7.26229498266346E-8,6700000.0,64.7,14.063412924083677,27.066115702479344,1.1204481792717098,362648.0,9208.0,0.0,1.0,0.0,?,0.0,0.0
6800000.0,10.328125,7.381750037893653E-8,6800000.0,64.5,17.821030408533662,22.48908296943231,9.2071611253197,371739.0,9208.0,0.0,1.0,0.0,?,0.0,0.0
6900000.0,10.453125,7.476822550718982E-8,6900000.0,66.0,18.317533381702177,24.444444444444443,5.292479108635102,380830.0,9208.0,0.0,1.0,0.0,?,0.0,0.0
7000000.0,10.59375,7.5832261548688E-8,7000000.0,64.2,19.597177366830028,27.08757637474542,10.275689223057654,389921.0,9208.0,0.0,1.0,0.0,?,0.0,0.0
7100000.0,10.75,7.700837967503401E-8,7100000.0,62.8,15.379540956757138,18.599562363238505,7.231920199501253,399012.0,9208.0,0.0,1.0,0.0,?,0.0,0.0
7200000.0,10.890625,7.806135626095863E-8,7200000.0,65.5,20.28945325496285,31.000000000000007,12.87878787878789,408103.0,9208.0,0.0,1.0,0.0,?,0.0,0.0
7300000.0,11.046875,7.922518610333402E-8,7300000.0,68.0,21.07534837834506,25.925925925925945,7.24637681159421,417194.0,9208.0,0.0,1.0,0.0,?,0.0,0.0
7400000.0,11.203125,8.041973665563595E-8,7400000.0,56.00000000000001,7.680945347119662,3.5087719298245648,-20.87912087912087,426285.0,9208.0,0.0,1.0,0.0,?,0.0,1.0
7500000.0,11.34375,8.148930242492091E-8,7500000.0,56.3,7.176903404504772,5.818965517241361,-19.398907103825156,435376.0,9208.0,0.0,1.0,0.0,?,0.0,0.0
7600000.0,11.5,8.263858035206794E-8,7600000.0,63.2,0.0,24.59016393442623,0.0,507.0,8800.0,0.0,1.0,0.0,?,5.0,35.0
7700000.0,11.640625,8.357223123311995E-8,7700000.0,65.4,17.002096536636618,24.618736383442265,4.155124653739616,5974.0,9208.0,0.0,1.0,0.0,?,3.0,30.0
7800000.0,11.78125,8.467119187116622E-8,7800000.0,57.199999999999996,13.59819121447028,7.758620689655156,-11.458333333333343,2064.0,9208.0,0.0,1.0,0.0,?,1.0,29.0
7900000.0,11.9375,8.588094109048445E-8,7900000.0,58.699999999999996,12.66948041512657,12.869198312236277,-9.259259259259267,6744.0,9208.0,0.0,1.0,0.0,?,4.0,52.0
8000000.0,12.09375,8.708972018212079E-8,8000000.0,62.7,21.458471956673712,19.61206896551724,1.0610079575596827,15835.0,9208.0,0.0,1.0,0.0,?,0.0,8.0
8100000.0,12.234375,8.817209163680672E-8,8100000.0,65.5,15.67431219569425,23.50332594235033,1.9886363636363658,24926.0,9208.0,0.0,1.0,0.0,?,0.0,7.0
8200000.0,12.390625,8.936858244447244E-8,8200000.0,65.10000000000001,20.74522200421481,22.787610619469024,6.182795698924737,34017.0,9208.0,0.0,1.0,0.0,?,0.0,12.0
8300000.0,12.546875,9.057412777716915E-8,8300000.0,62.2,20.34055466576752,20.0845665961945,-2.162162162162164,43108.0,9208.0,0.0,1.0,0.0,?,0.0,7.0
8400000.0,12.703125,9.175768354907632E-8,8400000.0,56.8,9.083256166343963,9.052631578947354,-19.337016574585654,10469.0,9208.0,0.0,1.0,0.0,?,1.0,25.0
8500000.0,12.859375,9.293509517899818E-8,8500000.0,60.5,16.561752752405983,11.83035714285713,-4.497354497354501,19560.0,9208.0,0.0,1.0,0.0,?,0.0,0.0
8600000.0,13.0,9.398923591814107E-8,8600000.0,67.9,22.347476897769614,31.991525423728824,10.335195530726267,28651.0,9208.0,0.0,1.0,0.0,?,0.0,0.0
8700000.0,13.15625,9.515435926409231E-8,8700000.0,64.2,13.169600628671486,20.267260579064583,0.2785515320334264,37742.0,9208.0,0.0,1.0,0.0,?,0.0,0.0
8800000.0,13.3125,9.623572825350695E-8,8800000.0,59.3,5.0981196836293075,13.771186440677955,-6.2663185378590125,46833.0,9208.0,0.0,1.0,0.0,?,0.0,5.0
8900000.0,13.46875,9.747328779970606E-8,8900000.0,61.8,19.79642569201828,18.550106609808097,1.0362694300518145,55923.0,9208.0,0.0,1.0,0.0,?,0.0,0.0
9000000.0,13.625,9.870470320391986E-8,9000000.0,57.199999999999996,9.96600585641681,6.956521739130417,-10.880829015544052,65014.0,9208.0,0.0,1.0,0.0,?,0.0,0.0
9100000.0,13.765625,9.977048547524545E-8,9100000.0,61.4,9.610340951667283,16.45021645021644,-1.578947368421054,74105.0,9208.0,0.0,1.0,0.0,?,0.0,20.0
9200000.0,13.921875,1.0098961259548862E-7,9200000.0,56.49999999999999,8.521197846567967,8.033826638477786,-22.191011235955077,83196.0,9208.0,0.0,1.0,0.0,?,0.0,1.0
9300000.0,14.078125,1.022025955737465E-7,9300000.0,63.3,22.854428197862635,24.173553719008265,7.788944723618096,92287.0,9208.0,0.0,1.0,0.0,?,0.0,0.0
9400000.0,14.234375,1.0340943441001905E-7,9400000.0,60.5,16.71024442907508,18.38842975206611,-12.215909090909102,101378.0,9208.0,0.0,1.0,0.0,?,0.0,0.0
9500000.0,14.390625,1.046101291043063E-7,9500000.0,60.4,17.51271678949495,17.327766179540703,-5.039787798408493,110469.0,9208.0,0.0,1.0,0.0,?,0.0,0.0
9600000.0,14.546875,1.0580467965660823E-7,9600000.0,64.0,15.274979760134046,22.746781115879827,3.7433155080213933,119560.0,9208.0,0.0,1.0,0.0,?,0.0,0.0
9700000.0,14.703125,1.0699308606692486E-7,9700000.0,59.9,14.610359190139945,9.276018099547494,-12.011173184357553,128651.0,9208.0,0.0,1.0,0.0,?,0.0,0.0
9800000.0,14.859375,1.0817534833525618E-7,9800000.0,61.8,20.101400107925862,20.416666666666664,-1.3262599469496033,137742.0,9208.0,0.0,1.0,0.0,?,0.0,0.0
9900000.0,15.015625,1.0925801082824666E-7,9900000.0,62.2,19.60730935447648,18.534482758620683,-4.419889502762435,146833.0,9208.0,0.0,1.0,0.0,?,0.0,0.0
1.0E7,15.171875,1.1049557037444578E-7,1.0E7,66.10000000000001,17.453978766923147,27.71855010660981,4.507042253521131,155923.0,9208.0,0.0,1.0,0.0,?,0.0,0.0
