learning evaluation instances,evaluation time (cpu seconds),model cost (RAM-Hours),classified instances,classifications correct (percent),Kappa Statistic (percent),Kappa Temporal Statistic (percent),Kappa M Statistic (percent),model training instances,model serialized size (bytes),labeling cost,newThreshold,maxPosterior,accuracyBaseLearner (percent),Change detected,Warning detected
100000.0,0.171875,1.4306796300742362E-9,100000.0,55.800000000000004,12.045052036694342,10.707070707070717,9.611451942740295,29400.0,9208.0,0.0,1.0,0.0,?,0.0,16.0
200000.0,0.34375,2.787015142126216E-9,200000.0,60.199999999999996,21.26763070958042,14.224137931034472,15.498938428874725,58815.0,9208.0,0.0,1.0,0.0,?,0.0,0.0
300000.0,0.515625,4.069006536155939E-9,300000.0,62.1,25.32372853303489,19.87315010570824,17.96536796536796,88230.0,9208.0,0.0,1.0,0.0,?,0.0,0.0
400000.0,0.6875,5.276653812163406E-9,400000.0,64.5,29.130400063882465,27.698574338085542,28.137651821862352,117645.0,9208.0,0.0,1.0,0.0,?,0.0,0.0
500000.0,0.859375,6.754643335524532E-9,500000.0,60.6,21.89513331350976,23.046874999999996,17.05263157894736,147045.0,9208.0,0.0,1.0,0.0,?,0.0,0.0
600000.0,1.015625,8.030684613105323E-9,600000.0,63.9,28.090514322138567,32.14285714285714,24.31865828092243,176460.0,9208.0,0.0,1.0,0.0,?,0.0,0.0
700000.0,1.1875,9.359985900421938E-9,700000.0,60.699999999999996,22.674327089563974,18.6335403726708,14.565217391304339,205875.0,9208.0,0.0,1.0,0.0,?,0.0,0.0
800000.0,1.34375,1.0500856054325899E-8,800000.0,60.5,22.767089003597675,20.2020202020202,11.235955056179762,235290.0,9208.0,0.0,1.0,0.0,?,0.0,0.0
900000.0,1.5,1.1574140646391445E-8,900000.0,61.199999999999996,22.642592828888606,27.611940298507452,16.01731601731601,264705.0,9208.0,0.0,1.0,0.0,?,0.0,0.0
1000000.0,1.671875,1.3025095945017205E-8,1000000.0,61.199999999999996,22.62284620293554,22.709163346613543,21.138211382113816,294105.0,9208.0,0.0,1.0,0.0,?,0.0,0.0
1100000.0,1.84375,1.440170712562071E-8,1100000.0,61.199999999999996,23.19630075378475,22.554890219560875,18.487394957983184,323520.0,9208.0,0.0,1.0,0.0,?,0.0,0.0
1200000.0,1.984375,1.546719835864173E-8,1200000.0,61.9,24.733901747121713,25.440313111545986,18.415417558886503,352935.0,9208.0,0.0,1.0,0.0,?,0.0,0.0
1300000.0,2.15625,1.669512130320072E-8,1300000.0,60.6,22.79596187609731,17.226890756302513,19.918699186991866,382350.0,9208.0,0.0,1.0,0.0,?,0.0,0.0
1400000.0,2.3125,1.8057180568575857E-8,1400000.0,62.4,24.635705838728423,23.57723577235772,25.691699604743086,411750.0,9208.0,0.0,1.0,0.0,?,0.0,0.0
1500000.0,2.484375,1.9481101642466252E-8,1500000.0,55.400000000000006,10.597234527909313,7.4688796680498,10.441767068273101,441165.0,9208.0,0.0,1.0,0.0,?,0.0,0.0
1600000.0,2.640625,2.070798978416456E-8,1600000.0,61.5,23.838989689579584,25.09727626459144,18.60465116279069,470580.0,9208.0,0.0,1.0,0.0,?,0.0,0.0
1700000.0,2.8125,2.1983222622010443E-8,1700000.0,62.6,25.599974536889686,25.940594059405942,22.727272727272727,499995.0,9208.0,0.0,1.0,0.0,?,0.0,0.0
1800000.0,2.984375,2.318411134183407E-8,1800000.0,54.400000000000006,9.784075306556087,10.059171597633144,3.594080338266388,529410.0,9208.0,0.0,1.0,0.0,?,0.0,0.0
1900000.0,3.15625,2.4655342309011355E-8,1900000.0,62.3,25.013326544088976,25.494071146245062,22.587268993839835,558810.0,9208.0,0.0,1.0,0.0,?,0.0,0.0
2000000.0,3.3125,2.5925239444606835E-8,2000000.0,61.5,22.749089041205842,23.913043478260867,18.60465116279069,588225.0,9208.0,0.0,1.0,0.0,?,0.0,0.0
2100000.0,3.484375,2.7247782175739607E-8,2100000.0,62.4,25.041366798907518,26.129666011787823,23.732251521298174,617640.0,9208.0,0.0,1.0,0.0,?,0.0,0.0
2200000.0,3.640625,2.838250818765826E-8,2200000.0,59.599999999999994,19.337126884296694,19.68190854870775,17.213114754098356,647055.0,9208.0,0.0,1.0,0.0,?,0.0,0.0
2300000.0,3.796875,2.9449648637738494E-8,2300000.0,60.4,22.940407248271992,19.838056680161937,10.810810810810796,676470.0,9208.0,0.0,1.0,0.0,?,0.0,0.0
2400000.0,3.953125,3.0762554767231147E-8,2400000.0,62.7,25.654558790700648,24.032586558044805,24.186991869918696,705870.0,9208.0,0.0,1.0,0.0,?,0.0,0.0
2500000.0,4.109375,3.200787533488538E-8,2500000.0,55.800000000000004,11.764118739145198,12.12723658051691,11.244979919678725,735285.0,9208.0,0.0,1.0,0.0,?,0.0,0.0
2600000.0,4.28125,3.330338384128279E-8,2600000.0,59.199999999999996,19.157654462378588,15.876288659793806,10.329670329670314,764700.0,9208.0,0.0,1.0,0.0,?,0.0,0.0
2700000.0,4.4375,3.4413533285260195E-8,2700000.0,58.3,17.05784071922984,13.305613305613296,14.549180327868843,794115.0,9208.0,0.0,1.0,0.0,?,0.0,0.0
2800000.0,4.609375,3.590503992098901E-8,2800000.0,61.0,22.86789049613746,23.976608187134502,17.197452229299355,823515.0,9208.0,0.0,1.0,0.0,?,0.0,0.0
2900000.0,4.78125,3.732220243869556E-8,2900000.0,54.50000000000001,8.901613742842281,10.784313725490206,7.520325203252039,852930.0,9208.0,0.0,1.0,0.0,?,0.0,0.0
3000000.0,4.953125,3.866502083837986E-8,3000000.0,54.0,9.792601424492481,9.090909090909099,-1.3215859030837016,882345.0,9208.0,0.0,1.0,0.0,?,0.0,0.0
3100000.0,5.109375,3.981817927625444E-8,3100000.0,62.2,25.35574504050141,24.096385542168676,19.057815845824404,911760.0,9208.0,0.0,1.0,0.0,?,0.0,0.0
3200000.0,5.28125,4.1012309439894226E-8,3200000.0,57.99999999999999,17.725461618927838,13.402061855670091,6.873614190687344,941175.0,9208.0,0.0,1.0,0.0,?,0.0,0.0
3300000.0,5.453125,4.247678185088767E-8,3300000.0,57.8,15.07824071092794,14.747474747474737,13.524590163934416,970575.0,9208.0,0.0,1.0,0.0,?,0.0,0.0
3400000.0,5.609375,4.374053484449784E-8,3400000.0,61.8,23.924689425531824,24.95088408644401,21.88139059304703,999990.0,9208.0,0.0,1.0,0.0,?,0.0,0.0
3500000.0,5.78125,4.5056319019446774E-8,3500000.0,61.5,23.40442463791182,18.60465116279069,21.267893660531694,1029405.0,9208.0,0.0,1.0,0.0,?,0.0,0.0
3600000.0,5.953125,4.629775907637345E-8,3600000.0,59.8,20.131604043486547,24.007561436672965,16.770186335403718,1058820.0,9208.0,0.0,1.0,0.0,?,0.0,0.0
3700000.0,6.125,4.7464855015277866E-8,3700000.0,58.699999999999996,18.25602292789904,14.84536082474226,11.373390557939901,1088235.0,9208.0,0.0,1.0,0.0,?,0.0,0.0
3800000.0,6.296875,4.8902293201535946E-8,3800000.0,54.1,9.16503071369768,6.13496932515338,1.923076923076925,1117635.0,9208.0,0.0,1.0,0.0,?,0.0,0.0
3900000.0,6.453125,5.0141469627204875E-8,3900000.0,65.8,31.349563206577596,32.94117647058824,33.33333333333334,1147050.0,9208.0,0.0,1.0,0.0,?,0.0,0.0
4000000.0,6.640625,5.154737866380149E-8,4000000.0,62.0,24.41270662184473,23.076923076923077,22.448979591836732,1176465.0,9208.0,0.0,1.0,0.0,?,0.0,0.0
4100000.0,6.8125,5.27617844959928E-8,4100000.0,60.0,21.354279310277015,17.012448132780076,10.913140311803996,1205880.0,9208.0,0.0,1.0,0.0,?,0.0,0.0
4200000.0,6.984375,5.4246532575537764E-8,4200000.0,54.400000000000006,9.3990534585322,3.594080338266388,5.197505197505202,1235280.0,9208.0,0.0,1.0,0.0,?,0.0,0.0
4300000.0,7.140625,5.552871799510387E-8,4300000.0,58.5,17.386630568937367,11.513859275053292,14.784394250513339,1264695.0,9208.0,0.0,1.0,0.0,?,0.0,0.0
4400000.0,7.296875,5.6743317852831555E-8,4400000.0,57.4,15.336428389722705,13.59026369168356,11.618257261410776,1294110.0,9208.0,0.0,1.0,0.0,?,0.0,0.0
4500000.0,7.46875,5.8005033578309756E-8,4500000.0,62.8,24.978522076884918,27.34375,28.32369942196532,1323525.0,9208.0,0.0,1.0,0.0,?,0.0,0.0
4600000.0,7.625,5.9084462312360614E-8,4600000.0,61.199999999999996,23.140008002947614,23.015873015873016,17.622080679405514,1352940.0,9208.0,0.0,1.0,0.0,?,0.0,0.0
4700000.0,7.796875,6.054217616717021E-8,4700000.0,59.9,20.609780241536324,17.319587628865975,14.132762312633822,1382340.0,9208.0,0.0,1.0,0.0,?,0.0,0.0
4800000.0,7.96875,6.192554590395756E-8,4800000.0,59.5,20.333928697882644,19.32270916334661,10.792951541850208,1411755.0,9208.0,0.0,1.0,0.0,?,0.0,0.0
4900000.0,8.125,6.3115569193744E-8,4900000.0,60.9,22.653900933692032,23.483365949119374,18.029350104821795,1441170.0,9208.0,0.0,1.0,0.0,?,0.0,0.0
5000000.0,8.28125,6.433146255504754E-8,5000000.0,62.2,24.01338007783603,24.550898203592812,21.739130434782606,1470585.0,9208.0,0.0,1.0,0.0,?,0.0,0.0
5100000.0,8.453125,6.549179993776811E-8,5100000.0,54.2,5.063159945774079,2.3454157782516014,-10.89588377723969,1500000.0,9208.0,0.0,1.0,0.0,?,0.0,0.0
5200000.0,8.609375,6.688587341664566E-8,5200000.0,57.199999999999996,9.987591747460499,7.956989247311812,-15.363881401617263,1529400.0,9208.0,0.0,1.0,0.0,?,0.0,0.0
5300000.0,8.78125,6.83450101253887E-8,5300000.0,56.00000000000001,7.87771184985743,0.0,-13.69509043927647,1558815.0,9208.0,0.0,1.0,0.0,?,0.0,0.0
5400000.0,8.953125,6.972980271610949E-8,5400000.0,59.8,15.027816764462168,17.113402061855663,-5.235602094240843,1588230.0,9208.0,0.0,1.0,0.0,?,0.0,0.0
5500000.0,9.109375,7.092111950947179E-8,5500000.0,54.900000000000006,6.306351224457584,5.845511482254703,-18.062827225130874,1617645.0,9208.0,0.0,1.0,0.0,?,0.0,0.0
5600000.0,9.28125,7.250191022952397E-8,5600000.0,57.9,11.132688816650484,12.836438923395436,-13.783783783783795,1647045.0,9208.0,0.0,1.0,0.0,?,0.0,0.0
5700000.0,9.453125,7.40083568315539E-8,5700000.0,56.699999999999996,8.166208558145843,7.081545064377666,-19.283746556473847,1676460.0,9208.0,0.0,1.0,0.0,?,0.0,0.0
5800000.0,9.609375,7.531026818065178E-8,5800000.0,58.5,13.057687795394349,10.367170626349878,-6.138107416879801,1705875.0,9208.0,0.0,1.0,0.0,?,0.0,0.0
5900000.0,9.765625,7.654459396791125E-8,5900000.0,57.9,10.87381764910111,11.740041928721162,-17.27019498607244,1735290.0,9208.0,0.0,1.0,0.0,?,0.0,0.0
6000000.0,9.9375,7.782800821587442E-8,6000000.0,57.199999999999996,10.870470637234469,8.936170212765942,-9.743589743589752,1764705.0,9208.0,0.0,1.0,0.0,?,0.0,0.0
6100000.0,10.078125,7.909926353022455E-8,6100000.0,53.0,0.6733081705714079,-1.5118790496760273,-24.66843501326259,1794105.0,9208.0,0.0,1.0,0.0,?,0.0,0.0
6200000.0,10.234375,8.044418387321961E-8,6200000.0,57.599999999999994,11.471904857352841,9.787234042553177,-9.278350515463925,1823520.0,9208.0,0.0,1.0,0.0,?,0.0,0.0
6300000.0,10.390625,8.172151865437625E-8,6300000.0,58.8,12.133659206558411,11.397849462365578,-3.7783375314861494,1852935.0,9208.0,0.0,1.0,0.0,?,0.0,0.0
6400000.0,10.5625,8.30522427956263E-8,6400000.0,55.900000000000006,8.941491294723997,9.072164948453617,-3.03738317757007,1882350.0,9208.0,0.0,1.0,0.0,?,0.0,0.0
6500000.0,10.734375,8.465330918423002E-8,6500000.0,56.3,8.720245306507808,8.57740585774057,-20.718232044198913,1911750.0,9208.0,0.0,1.0,0.0,?,0.0,0.0
6600000.0,10.90625,8.618003145481147E-8,6600000.0,55.400000000000006,7.005450398041697,8.041237113402069,-11.779448621553868,1941165.0,9208.0,0.0,1.0,0.0,?,0.0,0.0
6700000.0,11.0625,8.750037522986529E-8,6700000.0,60.0,16.211064328955356,11.699779249448111,-8.991825613079026,1970580.0,9208.0,0.0,1.0,0.0,?,0.0,0.0
6800000.0,11.234375,8.887840926440223E-8,6800000.0,59.4,13.42729812141501,14.164904862579272,-14.366197183098606,1999995.0,9208.0,0.0,1.0,0.0,?,0.0,0.0
6900000.0,11.390625,9.006358191577922E-8,6900000.0,57.49999999999999,10.801984603373144,11.273486430062619,-9.254498714652964,2029410.0,9208.0,0.0,1.0,0.0,?,0.0,0.0
7000000.0,11.5625,9.163761407964757E-8,7000000.0,60.099999999999994,16.031112682458712,10.538116591928237,-1.5267175572519098,2058810.0,9208.0,0.0,1.0,0.0,?,0.0,0.0
7100000.0,11.71875,9.300096684859856E-8,7100000.0,55.50000000000001,5.80016934801018,4.710920770877949,-17.105263157894722,2088225.0,9208.0,0.0,1.0,0.0,?,0.0,0.0
7200000.0,11.875,9.429673405571115E-8,7200000.0,58.099999999999994,11.700244457557112,11.040339702760072,-16.388888888888903,2117640.0,9208.0,0.0,1.0,0.0,?,0.0,0.0
7300000.0,12.015625,9.540209753645789E-8,7300000.0,59.0,12.90049837909951,13.684210526315779,-7.611548556430453,2147055.0,9208.0,0.0,1.0,0.0,?,0.0,0.0
7400000.0,12.171875,9.656269361989364E-8,7400000.0,57.699999999999996,10.739155757007914,10.570824524312883,-11.904761904761916,2176470.0,9208.0,0.0,1.0,0.0,?,0.0,0.0
7500000.0,12.34375,9.810969155902662E-8,7500000.0,59.5,14.092991685050048,11.378555798687076,-11.263736263736273,2205870.0,9208.0,0.0,1.0,0.0,?,0.0,0.0
7600000.0,12.5,9.944846776003637E-8,7600000.0,58.8,14.685662221485957,8.84955752212388,-8.994708994709002,2235285.0,9208.0,0.0,1.0,0.0,?,0.0,0.0
7700000.0,12.671875,1.0084677746312483E-7,7700000.0,54.900000000000006,4.71643102821746,4.246284501061575,-17.75456919060051,2264700.0,9208.0,0.0,1.0,0.0,?,0.0,0.0
7800000.0,12.84375,1.0217074304819104E-7,7800000.0,56.3,8.182475249188975,7.415254237288119,-16.223404255319164,2294115.0,9208.0,0.0,1.0,0.0,?,0.0,0.0
7900000.0,12.984375,1.0347517672926185E-7,7900000.0,57.99999999999999,12.84607371562089,15.492957746478863,-0.7194244604316552,2323515.0,9208.0,0.0,1.0,0.0,?,0.0,0.0
8000000.0,13.140625,1.0485696192416877E-7,8000000.0,56.10000000000001,8.580519945689753,6.196581196581202,-10.025062656641584,2352930.0,9208.0,0.0,1.0,0.0,?,0.0,0.0
8100000.0,13.3125,1.0630258152054414E-7,8100000.0,55.7,6.526674712828015,5.944798301486205,-20.708446866485,2382345.0,9208.0,0.0,1.0,0.0,?,0.0,0.0
8200000.0,13.484375,1.0767385699889724E-7,8200000.0,56.599999999999994,9.034508199470121,8.631578947368405,-10.152284263959398,2411760.0,9208.0,0.0,1.0,0.0,?,0.0,0.0
8300000.0,13.640625,1.0885288550828892E-7,8300000.0,60.0,16.107382550335565,14.346895074946456,-4.1666666666666705,2441175.0,9208.0,0.0,1.0,0.0,?,0.0,0.0
8400000.0,13.8125,1.1042015911597342E-7,8400000.0,61.5,10.53502379535989,19.287211740041922,0.7731958762886604,2470575.0,9208.0,0.0,1.0,0.0,?,0.0,0.0
8500000.0,13.96875,1.117773677429391E-7,8500000.0,62.1,12.18314101672922,18.843683083511774,2.820512820512823,2499990.0,9208.0,0.0,1.0,0.0,?,0.0,0.0
8600000.0,14.140625,1.1319595311457909E-7,8600000.0,60.4,5.776652596614602,13.725490196078422,-6.738544474393537,2529405.0,9208.0,0.0,1.0,0.0,?,0.0,0.0
8700000.0,14.3125,1.1454019436819683E-7,8700000.0,59.599999999999994,7.991108843785303,15.481171548117146,-3.061224489795921,2558820.0,9208.0,0.0,1.0,0.0,?,0.0,0.0
8800000.0,14.46875,1.1569464630964726E-7,8800000.0,57.99999999999999,5.497353925909927,15.492957746478863,-2.9411764705882377,2588235.0,9208.0,0.0,1.0,0.0,?,0.0,0.0
8900000.0,14.640625,1.172348856925964E-7,8900000.0,59.199999999999996,4.0234860175392395,9.131403118040074,-8.51063829787235,2617635.0,9208.0,0.0,1.0,0.0,?,0.0,0.0
9000000.0,14.8125,1.187007809575233E-7,9000000.0,58.3,4.43319949397721,12.02531645569619,-6.649616368286451,2647050.0,9208.0,0.0,1.0,0.0,?,0.0,0.0
9100000.0,14.96875,1.1996582745470932E-7,9100000.0,62.3,12.380190950756269,20.964360587002094,1.5665796344647531,2676465.0,9208.0,0.0,1.0,0.0,?,0.0,0.0
9200000.0,15.140625,1.2128303448359168E-7,9200000.0,58.699999999999996,4.3272794662712935,15.368852459016386,-6.44329896907217,2705880.0,9208.0,0.0,1.0,0.0,?,0.0,0.0
9300000.0,15.296875,1.227262610983517E-7,9300000.0,55.900000000000006,3.670566443281413,7.933194154488525,-4.255319148936147,2735280.0,9208.0,0.0,1.0,0.0,?,0.0,0.0
9400000.0,15.46875,1.2423946625656546E-7,9400000.0,59.5,7.119465008118437,13.829787234042543,-6.0209424083769685,2764695.0,9208.0,0.0,1.0,0.0,?,0.0,0.0
9500000.0,15.640625,1.2567832729675698E-7,9500000.0,61.6,6.37434657096043,15.418502202643161,-7.8651685393258495,2794110.0,9208.0,0.0,1.0,0.0,?,0.0,0.0
9600000.0,15.796875,1.2691879722600176E-7,9600000.0,61.199999999999996,9.020564166295403,16.916488222698064,-4.582210242587605,2823525.0,9208.0,0.0,1.0,0.0,?,0.0,0.0
9700000.0,15.953125,1.2809168159340814E-7,9700000.0,62.6,12.471213794911161,17.98245614035087,1.0582010582010593,2852940.0,9208.0,0.0,1.0,0.0,?,0.0,0.0
9800000.0,16.109375,1.2951033164022692E-7,9800000.0,59.3,4.365806663846994,15.560165975103727,-7.671957671957679,2882340.0,9208.0,0.0,1.0,0.0,?,0.0,0.0
9900000.0,16.28125,1.3099650257370533E-7,9900000.0,62.9,10.182540066818401,22.869022869022867,-1.6438356164383578,2911755.0,9208.0,0.0,1.0,0.0,?,0.0,0.0
1.0E7,16.453125,1.3240832938916148E-7,1.0E7,61.0,7.010014306151616,16.30901287553647,-5.405405405405411,2941170.0,9208.0,0.0,1.0,0.0,?,0.0,0.0
