learning evaluation instances,evaluation time (cpu seconds),model cost (RAM-Hours),classified instances,classifications correct (percent),Kappa Statistic (percent),Kappa Temporal Statistic (percent),Kappa M Statistic (percent),model training instances,model serialized size (bytes),labeling cost,newThreshold,maxPosterior,accuracyBaseLearner (percent),Change detected,Warning detected
100000.0,0.140625,9.66247171163559E-10,100000.0,59.8,19.508239392907917,18.787878787878782,19.11468812877263,8296.0,9208.0,0.0,1.0,0.0,?,1.0,4.0
200000.0,0.296875,2.1378380349940726E-9,200000.0,55.400000000000006,10.622675387969743,8.041237113402069,8.41889117043122,17820.0,9208.0,0.0,1.0,0.0,?,0.0,27.0
300000.0,0.453125,3.313632785446114E-9,300000.0,63.1,24.757142973662955,27.36220472440945,18.54304635761589,27344.0,9208.0,0.0,1.0,0.0,?,0.0,38.0
400000.0,0.59375,4.357296145624585E-9,400000.0,61.1,22.339788380914353,26.185958254269448,21.41414141414141,36868.0,9208.0,0.0,1.0,0.0,?,0.0,35.0
500000.0,0.75,5.49848967542251E-9,500000.0,58.099999999999994,15.493525876326084,15.524193548387089,12.343096234309611,46392.0,9208.0,0.0,1.0,0.0,?,0.0,45.0
600000.0,0.90625,6.6374195739626885E-9,600000.0,58.699999999999996,15.910608701317738,15.541922290388541,11.752136752136739,55916.0,9208.0,0.0,1.0,0.0,?,0.0,36.0
700000.0,1.0625,7.764061188532246E-9,700000.0,59.699999999999996,18.874305499637643,21.59533073929961,16.907216494845354,65440.0,9208.0,0.0,1.0,0.0,?,0.0,0.0
800000.0,1.21875,8.87453400840362E-9,800000.0,61.9,22.76567795923,25.440313111545986,14.189189189189177,74964.0,9208.0,0.0,1.0,0.0,?,0.0,0.0
900000.0,1.359375,9.866392550369104E-9,900000.0,59.099999999999994,17.125952342356936,18.03607214428857,14.07563025210083,84488.0,9208.0,0.0,1.0,0.0,?,0.0,0.0
1000000.0,1.515625,1.0952288802299235E-8,1000000.0,60.8,21.270912413890052,18.16283924843423,23.137254901960784,94012.0,9208.0,0.0,1.0,0.0,?,0.0,0.0
1100000.0,1.671875,1.215880426267783E-8,1100000.0,53.300000000000004,6.6530210840242825,7.341269841269847,8.789062500000007,103534.0,9208.0,0.0,1.0,0.0,?,0.0,0.0
1200000.0,1.828125,1.3349150928358237E-8,1200000.0,62.3,24.365229672904697,24.900398406374503,23.3739837398374,113058.0,9208.0,0.0,1.0,0.0,?,0.0,0.0
1300000.0,1.984375,1.4527209310068024E-8,1300000.0,56.8,14.148078665797534,12.016293279022392,7.296137339055778,122582.0,9208.0,0.0,1.0,0.0,?,0.0,0.0
1400000.0,2.140625,1.5692979407807192E-8,1400000.0,53.800000000000004,7.258712060382222,9.41176470588236,8.333333333333341,132106.0,9208.0,0.0,1.0,0.0,?,0.0,0.0
1500000.0,2.28125,1.6731113040198882E-8,1500000.0,55.50000000000001,10.108274078862332,9.919028340080981,5.117270788912585,141630.0,9208.0,0.0,1.0,0.0,?,0.0,0.0
1600000.0,2.4375,1.7872306569996807E-8,1600000.0,54.1,7.7616835200874545,10.176125244618405,4.77178423236515,151154.0,9208.0,0.0,1.0,0.0,?,0.0,0.0
1700000.0,2.59375,1.9005092326551676E-8,1700000.0,55.400000000000006,10.958493880892021,10.441767068273101,10.978043912175659,160678.0,9208.0,0.0,1.0,0.0,?,0.0,0.0
1800000.0,2.75,2.012170928840836E-8,1800000.0,61.7,23.0156943461761,22.626262626262626,21.35523613963039,170202.0,9208.0,0.0,1.0,0.0,?,0.0,0.0
1900000.0,2.90625,2.122603796629442E-8,1900000.0,61.9,23.831076920616383,24.103585657370516,20.292887029288696,179726.0,9208.0,0.0,1.0,0.0,?,0.0,0.0
2000000.0,3.0625,2.2321958870937428E-8,2000000.0,61.199999999999996,20.889624715059913,22.24448897795591,15.098468271334783,189250.0,9208.0,0.0,1.0,0.0,?,0.0,0.0
2100000.0,3.203125,2.3297228229542574E-8,2100000.0,61.6,23.403746035545456,26.011560693641616,21.14989733059548,198774.0,9208.0,0.0,1.0,0.0,?,0.0,0.0
2200000.0,3.359375,2.4493719037208292E-8,2200000.0,59.699999999999996,18.868425926671538,19.23847695390781,15.866388308977028,208296.0,9208.0,0.0,1.0,0.0,?,0.0,0.0
2300000.0,3.515625,2.567792156090339E-8,2300000.0,62.7,23.734358387175917,26.284584980237156,19.088937093275483,217820.0,9208.0,0.0,1.0,0.0,?,0.0,0.0
2400000.0,3.671875,2.685371631135543E-8,2400000.0,56.8,12.482577550160428,17.55725190839694,8.474576271186425,227344.0,9208.0,0.0,1.0,0.0,?,0.0,0.0
2500000.0,3.828125,2.801722277783685E-8,2500000.0,54.800000000000004,9.475075604333995,16.451016635859524,7.186858316221772,236868.0,9208.0,0.0,1.0,0.0,?,0.0,0.0
2600000.0,3.96875,2.905331914209657E-8,2600000.0,63.4,26.70148679825686,26.060606060606062,26.358148893360163,246392.0,9208.0,0.0,1.0,0.0,?,0.0,0.0
2700000.0,4.125,3.019224904063675E-8,2700000.0,56.99999999999999,13.322179443246181,13.654618473895571,10.973084886128351,255916.0,9208.0,0.0,1.0,0.0,?,0.0,0.0
2800000.0,4.28125,3.131889065520631E-8,2800000.0,62.6,23.766816143497746,24.137931034482758,16.888888888888882,265440.0,9208.0,0.0,1.0,0.0,?,0.0,0.0
2900000.0,4.4375,3.2433243985805245E-8,2900000.0,60.4,20.364233083432545,22.957198443579767,18.852459016393436,274964.0,9208.0,0.0,1.0,0.0,?,0.0,0.0
3000000.0,4.59375,3.353530903243356E-8,3000000.0,61.0,21.11490928214567,19.087136929460573,16.488222698072796,284488.0,9208.0,0.0,1.0,0.0,?,0.0,0.0
3100000.0,4.734375,3.4516108118825485E-8,3100000.0,60.3,20.231148832200095,22.460937499999996,17.805383022774322,294012.0,9208.0,0.0,1.0,0.0,?,0.0,0.0
3200000.0,4.890625,3.571098204702139E-8,3200000.0,62.6,25.386235955056186,25.0501002004008,25.940594059405942,303534.0,9208.0,0.0,1.0,0.0,?,0.0,47.0
3300000.0,5.03125,3.677530912682414E-8,3300000.0,55.7,12.294595129677301,8.847736625514411,8.091286307053949,313058.0,9208.0,0.0,1.0,0.0,?,0.0,0.0
3400000.0,5.1875,3.79456064870788E-8,3400000.0,62.6,24.88602357855837,23.517382413087933,23.517382413087933,322582.0,9208.0,0.0,1.0,0.0,?,0.0,0.0
3500000.0,5.328125,3.898781465573443E-8,3500000.0,57.8,14.520565703706389,12.809917355371889,8.06100217864922,332106.0,9208.0,0.0,1.0,0.0,?,0.0,0.0
3600000.0,5.484375,4.0133535448047846E-8,3600000.0,59.9,19.32563473222547,18.32993890020366,16.632016632016626,341630.0,9208.0,0.0,1.0,0.0,?,0.0,0.0
3700000.0,5.640625,4.126696795639064E-8,3700000.0,60.8,19.985956718934332,21.7564870259481,14.59694989106753,351154.0,9208.0,0.0,1.0,0.0,?,0.0,0.0
3800000.0,5.765625,4.216388333588838E-8,3800000.0,52.5,4.728667244311808,4.040404040404044,3.4552845528455314,360678.0,9208.0,0.0,1.0,0.0,?,0.0,0.0
3900000.0,5.921875,4.327273927628993E-8,3900000.0,60.699999999999996,20.906456287232324,23.984526112185687,17.43697478991596,370202.0,9208.0,0.0,1.0,0.0,?,0.0,0.0
4000000.0,6.0625,4.425965016707777E-8,4000000.0,56.10000000000001,10.14703955986378,18.552875695732848,2.8761061946902684,379726.0,9208.0,0.0,1.0,0.0,?,0.0,0.0
4100000.0,6.203125,4.5235501602292053E-8,4100000.0,53.6,5.7385708017097175,9.197651663405097,-0.43290043290043334,389250.0,9208.0,0.0,1.0,0.0,?,0.0,0.0
4200000.0,6.359375,4.630749269078174E-8,4200000.0,60.5,20.96395956556189,22.09072978303747,20.999999999999996,398774.0,9208.0,0.0,1.0,0.0,?,0.0,0.0
4300000.0,6.515625,4.749622247699233E-8,4300000.0,59.599999999999994,18.7818891654236,19.038076152304605,17.043121149897324,408296.0,9208.0,0.0,1.0,0.0,?,0.0,0.0
4400000.0,6.65625,4.855501982900831E-8,4400000.0,57.199999999999996,14.617213808072263,16.73151750972762,18.939393939393934,417820.0,9208.0,0.0,1.0,0.0,?,0.0,0.0
4500000.0,6.8125,4.9719173047277656E-8,4500000.0,56.39999999999999,12.19413956298459,14.6771037181996,12.449799196787136,427344.0,9208.0,0.0,1.0,0.0,?,0.0,0.0
4600000.0,6.953125,5.075585148814651E-8,4600000.0,54.50000000000001,8.839557621413698,9.181636726546914,8.266129032258073,436868.0,9208.0,0.0,1.0,0.0,?,0.0,0.0
4700000.0,7.109375,5.1895428138474614E-8,4700000.0,61.7,22.825824131538656,28.942486085343226,19.874476987447697,446392.0,9208.0,0.0,1.0,0.0,?,0.0,0.0
4800000.0,7.265625,5.30227165048321E-8,4800000.0,62.5,24.751982534433495,26.18110236220473,23.78048780487805,455916.0,9208.0,0.0,1.0,0.0,?,0.0,0.0
4900000.0,7.40625,5.402621657898028E-8,4900000.0,63.6,25.8501766151013,27.77777777777778,20.69716775599128,465440.0,9208.0,0.0,1.0,0.0,?,0.0,0.0
5000000.0,7.5625,5.522238401075203E-8,5000000.0,60.099999999999994,18.78027928184668,21.917808219178077,16.352201257861626,474964.0,9208.0,0.0,1.0,0.0,?,0.0,0.0
5100000.0,7.703125,5.6298352622737477E-8,5100000.0,47.699999999999996,-4.237254354845139,-5.656565656565662,-6.7346938775510266,484488.0,9208.0,0.0,1.0,0.0,?,0.0,3.0
5200000.0,7.859375,5.7481585018750684E-8,5200000.0,47.199999999999996,-4.090685066535248,-13.793103448275875,-12.101910828025488,494012.0,9208.0,0.0,1.0,0.0,?,0.0,0.0
5300000.0,8.015625,5.878155611248479E-8,5300000.0,46.9,-4.59426878560343,-12.025316455696213,-14.935064935064949,503534.0,9208.0,0.0,1.0,0.0,?,0.0,0.0
5400000.0,8.15625,5.994047064127193E-8,5400000.0,48.9,-2.0041520281060463,-4.073319755600818,-3.651115618661261,513058.0,9208.0,0.0,1.0,0.0,?,0.0,0.0
5500000.0,8.3125,6.119937299647264E-8,5500000.0,61.199999999999996,23.008234943942853,24.21875,18.315789473684205,44568.0,9208.0,0.0,1.0,0.0,?,1.0,34.0
5600000.0,8.46875,6.244598706770274E-8,5600000.0,57.9,15.50189067028476,20.71563088512241,11.924686192468608,54092.0,9208.0,0.0,1.0,0.0,?,0.0,0.0
5700000.0,8.625,6.368031285496221E-8,5700000.0,56.3,10.762419747439262,9.52380952380951,5.206073752711478,63616.0,9208.0,0.0,1.0,0.0,?,0.0,0.0
5800000.0,8.765625,6.478014660792218E-8,5800000.0,57.99999999999999,14.129745864938336,15.322580645161283,5.6179775280898685,73140.0,9208.0,0.0,1.0,0.0,?,0.0,0.0
5900000.0,8.921875,6.598989582724041E-8,5900000.0,53.900000000000006,7.524793786308072,13.992537313432837,0.0,82664.0,9208.0,0.0,1.0,0.0,?,0.0,0.0
6000000.0,9.078125,6.718735676258802E-8,6000000.0,57.199999999999996,14.174794661190958,14.741035856573696,13.008130081300804,92188.0,9208.0,0.0,1.0,0.0,?,0.0,0.0
6100000.0,9.234375,6.837252941396501E-8,6100000.0,57.699999999999996,14.566855979512198,15.568862275449094,11.32075471698112,101712.0,9208.0,0.0,1.0,0.0,?,0.0,0.0
6200000.0,9.390625,6.954541378137138E-8,6200000.0,54.0,6.756882760969238,9.803921568627459,1.4989293361884382,111236.0,9208.0,0.0,1.0,0.0,?,0.0,0.0
6300000.0,9.53125,7.05058401864436E-8,6300000.0,60.699999999999996,22.98164885903093,17.43697478991596,19.959266802443988,120760.0,9208.0,0.0,1.0,0.0,?,0.0,0.0
6400000.0,9.671875,7.165544148948458E-8,6400000.0,54.50000000000001,9.189612089956189,7.3319755600814736,10.079051383399218,130282.0,9208.0,0.0,1.0,0.0,?,0.0,0.0
6500000.0,9.828125,7.29204879866706E-8,6500000.0,59.5,18.85003486442947,16.149068322981357,18.674698795180717,139806.0,9208.0,0.0,1.0,0.0,?,0.0,0.0
6600000.0,9.984375,7.4173246199886E-8,6600000.0,61.5,23.861281187210277,24.951267056530213,18.4322033898305,149330.0,9208.0,0.0,1.0,0.0,?,0.0,0.0
6700000.0,10.140625,7.541371612913079E-8,6700000.0,62.5,25.405792488860605,25.595238095238095,22.52066115702479,158854.0,9208.0,0.0,1.0,0.0,?,0.0,0.0
6800000.0,10.28125,7.651907960987753E-8,6800000.0,54.1,7.191730965206007,9.467455621301783,2.754237288135596,168378.0,9208.0,0.0,1.0,0.0,?,0.0,0.0
6900000.0,10.4375,7.773497297118108E-8,6900000.0,62.4,25.24375308170698,25.544554455445546,22.633744855967073,177902.0,9208.0,0.0,1.0,0.0,?,0.0,0.0
7000000.0,10.59375,7.893857804851399E-8,7000000.0,61.5,22.749089041205842,23.913043478260867,18.4322033898305,187426.0,9208.0,0.0,1.0,0.0,?,0.0,0.0
7100000.0,10.75,8.012989484187629E-8,7100000.0,54.800000000000004,9.41992681450726,11.372549019607852,8.316430020283983,196950.0,9208.0,0.0,1.0,0.0,?,0.0,0.0
7200000.0,10.890625,8.11910205003288E-8,7200000.0,54.1,7.986528746692325,8.928571428571438,5.942622950819677,206474.0,9208.0,0.0,1.0,0.0,?,0.0,0.0
7300000.0,11.03125,8.224108670320775E-8,7300000.0,60.5,23.11824608389647,20.040485829959508,11.036036036036021,215998.0,9208.0,0.0,1.0,0.0,?,0.0,0.0
7400000.0,11.171875,8.339621773403552E-8,7400000.0,54.300000000000004,8.276399136152355,6.924643584521391,6.924643584521391,225520.0,9208.0,0.0,1.0,0.0,?,0.0,0.0
7500000.0,11.328125,8.466740837320686E-8,7500000.0,58.099999999999994,16.182565973722525,16.699801192842937,15.69416498993963,235044.0,9208.0,0.0,1.0,0.0,?,0.0,0.0
7600000.0,11.46875,8.58004204928875E-8,7600000.0,59.199999999999996,19.169506300023766,15.876288659793806,10.132158590308356,244568.0,9208.0,0.0,1.0,0.0,?,0.0,0.0
7700000.0,11.625,8.704703456411759E-8,7700000.0,59.3,19.079695564692493,15.384615384615374,16.4271047227926,254092.0,9208.0,0.0,1.0,0.0,?,0.0,0.0
7800000.0,11.78125,8.828136035137706E-8,7800000.0,55.00000000000001,8.732476635514017,12.280701754385975,4.661016949152547,263616.0,9208.0,0.0,1.0,0.0,?,0.0,0.0
7900000.0,11.9375,8.950339785466592E-8,7900000.0,63.6,27.10465288597485,28.62745098039216,26.16632860040568,273140.0,9208.0,0.0,1.0,0.0,?,0.0,0.0
8000000.0,12.09375,9.071314707398415E-8,8000000.0,60.5,22.429165062881456,22.09072978303747,12.80353200883001,282664.0,9208.0,0.0,1.0,0.0,?,0.0,0.0
8100000.0,12.25,9.191060800933176E-8,8100000.0,58.5,16.108739245746808,16.83366733466933,11.324786324786313,292188.0,9208.0,0.0,1.0,0.0,?,0.0,0.0
8200000.0,12.390625,9.297726339557106E-8,8200000.0,58.099999999999994,17.937107312410866,13.786008230452666,7.095343680709516,301712.0,9208.0,0.0,1.0,0.0,?,0.0,0.0
8300000.0,12.546875,9.415014776297743E-8,8300000.0,54.2,9.000234453544433,7.474747474747481,6.147540983606563,311236.0,9208.0,0.0,1.0,0.0,?,0.0,0.0
8400000.0,12.703125,9.521728821305766E-8,8400000.0,61.8,23.950436389118934,24.95088408644401,21.721311475409834,320760.0,9208.0,0.0,1.0,0.0,?,0.0,0.0
8500000.0,12.859375,9.64946229942143E-8,8500000.0,57.8,15.163260464873165,10.593220338983038,13.701431492842525,330282.0,9208.0,0.0,1.0,0.0,?,0.0,0.0
8600000.0,13.015625,9.775966949140033E-8,8600000.0,55.7,12.045934655887176,16.257088846880922,8.091286307053949,339806.0,9208.0,0.0,1.0,0.0,?,0.0,0.0
8700000.0,13.171875,9.901242770461573E-8,8700000.0,58.699999999999996,18.220412818603762,14.84536082474226,11.563169164882215,349330.0,9208.0,0.0,1.0,0.0,?,0.0,0.0
8800000.0,13.3125,1.0012885064093604E-7,8800000.0,54.1,9.124026894536366,6.13496932515338,2.1321961620469105,358854.0,9208.0,0.0,1.0,0.0,?,0.0,0.0
8900000.0,13.46875,1.0135703228621019E-7,8900000.0,65.8,31.3906041237858,32.80943025540275,33.33333333333334,368378.0,9208.0,0.0,1.0,0.0,?,0.0,0.0
9000000.0,13.625,1.0257292564751373E-7,9000000.0,62.0,24.41270662184473,23.076923076923077,22.448979591836732,377902.0,9208.0,0.0,1.0,0.0,?,0.0,0.0
9100000.0,13.78125,1.0377653072484665E-7,9100000.0,59.9,21.170374214652476,16.804979253112027,10.690423162583505,387426.0,9208.0,0.0,1.0,0.0,?,0.0,0.0
9200000.0,13.9375,1.0496784751820895E-7,9200000.0,54.300000000000004,9.231747040597456,3.3826638477801296,4.791666666666671,396950.0,9208.0,0.0,1.0,0.0,?,0.0,0.0
9300000.0,14.078125,1.0602897317666146E-7,9300000.0,61.7,23.77138580834176,18.336886993603404,21.19341563786008,406474.0,9208.0,0.0,1.0,0.0,?,0.0,0.0
9400000.0,14.234375,1.0719571340208252E-7,9400000.0,55.2,11.0959409740551,9.127789046653152,6.860706860706866,415998.0,9208.0,0.0,1.0,0.0,?,0.0,0.0
9500000.0,14.375,1.0835084443291029E-7,9500000.0,62.7,24.80990815923366,27.005870841487283,28.13102119460501,425520.0,9208.0,0.0,1.0,0.0,?,0.0,0.0
9600000.0,14.53125,1.0962203507208163E-7,9600000.0,61.199999999999996,23.174402027562177,22.862823061630216,17.44680851063829,435044.0,9208.0,0.0,1.0,0.0,?,0.0,0.0
9700000.0,14.6875,1.1088093742728234E-7,9700000.0,60.0,20.834405367427312,17.525773195876283,14.346895074946456,444568.0,9208.0,0.0,1.0,0.0,?,0.0,0.0
9800000.0,14.84375,1.1212755149851244E-7,9800000.0,58.8,18.956027743790884,17.764471057884226,9.05077262693155,454092.0,9208.0,0.0,1.0,0.0,?,0.0,0.0
9900000.0,15.0,1.133618772857719E-7,9900000.0,56.99999999999999,14.930995188655352,15.851272015655567,9.663865546218473,463616.0,9208.0,0.0,1.0,0.0,?,0.0,0.0
1.0E7,15.15625,1.1458391478906076E-7,1.0E7,54.6,8.753255941087572,9.741550695825058,6.004140786749488,473140.0,9208.0,0.0,1.0,0.0,?,0.0,0.0
