learning evaluation instances,evaluation time (cpu seconds),model cost (RAM-Hours),classified instances,classifications correct (percent),Kappa Statistic (percent),Kappa Temporal Statistic (percent),Kappa M Statistic (percent),model training instances,model serialized size (bytes),labeling cost,newThreshold,maxPosterior,accuracyBaseLearner (percent),Change detected,Warning detected,tree size (nodes),tree size (leaves),active learning leaves,tree depth,active leaf byte size estimate,inactive leaf byte size estimate,byte size estimate overhead
100000.0,0.234375,4.104125158240397E-9,100000.0,86.3,66.34997985911203,66.42156862745098,51.41843971631206,30000.0,27856.0,30000.0,1.0,0.9009209464531063,0.0,0.0,24.0,29.0,15.0,15.0,5.0,0.0,0.0,1.0
200000.0,0.46875,9.1313268058002E-9,200000.0,91.2,78.1928839415371,79.19621749408985,69.96587030716725,60000.0,42888.0,60000.0,1.0,0.8587957204018035,0.0,0.0,0.0,45.0,23.0,23.0,7.0,0.0,0.0,1.0
300000.0,0.6875,1.5426032607340152E-8,300000.0,88.7,71.61602765051042,73.72093023255815,62.45847176079735,90000.0,70848.0,90000.0,1.0,0.8897115101300028,0.0,0.0,0.0,75.0,38.0,38.0,8.0,0.0,0.0,1.0
400000.0,0.890625,2.1866386911521357E-8,400000.0,88.1,69.62705081215735,71.73396674584323,58.53658536585367,120000.0,82032.0,120000.0,1.0,0.8976420102143945,0.0,0.0,0.0,87.0,44.0,44.0,9.0,0.0,0.0,1.0
500000.0,1.109375,3.011505921474762E-8,500000.0,88.8,71.83906022920995,73.45971563981043,62.79069767441862,149999.0,104928.0,149999.0,1.0,0.9012162938634349,0.0,0.0,0.0,115.0,58.0,58.0,10.0,0.0,0.0,1.0
600000.0,1.3125,3.8539648004290136E-8,600000.0,88.6,70.9775967413442,73.61111111111111,62.000000000000014,180000.0,119312.0,180000.0,1.0,0.9064914956554491,0.0,0.0,0.0,127.0,64.0,64.0,11.0,0.0,0.0,1.0
700000.0,1.546875,4.971066826126642E-8,700000.0,90.3,75.24221788890138,75.0642673521851,66.2020905923345,210000.0,142920.0,210000.0,1.0,0.9092251164253491,0.0,0.0,0.0,153.0,77.0,77.0,11.0,0.0,0.0,1.0
800000.0,1.765625,6.124070043572122E-8,800000.0,89.4,72.61760223192375,72.46753246753246,63.06620209059235,240000.0,162184.0,240000.0,1.0,0.9215033318364213,0.0,0.0,0.0,173.0,87.0,87.0,12.0,0.0,0.0,1.0
900000.0,2.0,7.484625611040329E-8,900000.0,89.4,72.69237705129197,74.3961352657005,63.32179930795849,269998.0,182568.0,269998.0,1.0,0.896789613397025,0.0,0.0,0.0,195.0,98.0,98.0,12.0,0.0,0.0,1.0
1000000.0,2.234375,8.947481142563954E-8,1000000.0,90.3,74.1883980840873,74.87046632124354,64.72727272727275,299998.0,199224.0,299998.0,1.0,0.8963108473933593,0.0,0.0,0.0,213.0,107.0,107.0,12.0,0.0,0.0,1.0
1100000.0,2.46875,1.0549161945366199E-7,1100000.0,89.4,74.44070968021951,76.95652173913044,66.5615141955836,330000.0,221832.0,330000.0,1.0,0.899178376725407,0.0,0.0,0.0,237.0,119.0,119.0,13.0,0.0,0.0,1.0
1200000.0,2.71875,1.2428570900940234E-7,1200000.0,91.4,77.79843040066089,79.02439024390246,69.2857142857143,360000.0,247928.0,360000.0,1.0,0.8974065140124756,0.0,0.0,0.0,265.0,133.0,133.0,13.0,0.0,0.0,1.0
1300000.0,2.953125,1.4304264267492627E-7,1300000.0,91.4,78.05820189515904,79.47494033412889,70.64846416382254,390000.0,266448.0,390000.0,1.0,0.8934982151723038,0.0,0.0,0.0,285.0,143.0,143.0,13.0,0.0,0.0,1.0
1400000.0,3.1875,1.627226528297696E-7,1400000.0,89.5,74.31154952733252,74.39024390243904,66.45367412140575,420000.0,281480.0,420000.0,1.0,0.9004153526871118,0.0,0.0,0.0,301.0,151.0,151.0,14.0,0.0,0.0,1.0
1500000.0,3.4375,1.8552763827352063E-7,1500000.0,89.7,73.5737523219179,74.12060301507537,63.604240282685524,449998.0,309152.0,449998.0,1.0,0.8916669445225244,0.0,0.0,0.0,331.0,166.0,166.0,14.0,0.0,0.0,1.0
1600000.0,3.6875,2.0909061681272257E-7,1600000.0,90.7,76.51277906859279,77.80429594272077,68.5810810810811,480000.0,320720.0,480000.0,1.0,0.9033601881281343,0.0,0.0,0.0,345.0,173.0,173.0,14.0,0.0,0.0,1.0
1700000.0,3.921875,2.3288154301957953E-7,1700000.0,89.0,72.3856767015444,73.42995169082126,64.05228758169935,509999.0,348416.0,509999.0,1.0,0.8860019134297322,0.0,0.0,0.0,373.0,187.0,187.0,14.0,0.0,0.0,1.0
1800000.0,4.1875,2.6203695193140043E-7,1800000.0,89.2,72.51908396946565,73.13432835820896,62.237762237762254,539999.0,379912.0,539999.0,1.0,0.937278263535749,0.0,0.0,0.0,407.0,204.0,204.0,15.0,0.0,0.0,1.0
1900000.0,4.4375,2.9093485661885806E-7,1900000.0,89.8,74.69723505276372,76.16822429906543,65.88628762541808,569996.0,402160.0,569996.0,1.0,0.8956796026405255,0.0,0.0,0.0,431.0,216.0,216.0,15.0,0.0,0.0,1.0
2000000.0,4.703125,3.225717874657777E-7,2000000.0,89.3,70.94854362605618,71.0810810810811,59.46969696969697,600000.0,415568.0,600000.0,1.0,0.8703318059263053,0.0,0.0,0.0,445.0,223.0,223.0,15.0,0.0,0.0,1.0
2100000.0,4.96875,3.5614654835727484E-7,2100000.0,90.9,77.36836345910886,78.48699763593382,69.76744186046513,629999.0,443408.0,629999.0,1.0,0.9041438908379095,0.0,0.0,0.0,475.0,238.0,238.0,15.0,0.0,0.0,1.0
2200000.0,5.25,3.9253797796037465E-7,2200000.0,90.5,74.86107435829585,76.42679900744417,65.82733812949641,659996.0,454832.0,659996.0,1.0,0.6415730773894032,0.0,0.0,0.0,487.0,244.0,244.0,15.0,0.0,0.0,1.0
2300000.0,5.515625,4.2766959975577064E-7,2300000.0,88.5,71.68464076426848,72.55369928400955,62.90322580645162,690000.0,465776.0,690000.0,1.0,0.8888810839449588,0.0,0.0,0.0,499.0,250.0,250.0,15.0,0.0,0.0,1.0
2400000.0,5.78125,4.635653587886029E-7,2400000.0,89.7,73.06682565084147,72.16216216216218,63.08243727598567,719999.0,476744.0,719999.0,1.0,0.9039411310604567,0.0,0.0,0.0,513.0,257.0,257.0,15.0,0.0,0.0,1.0
2500000.0,6.046875,5.005133183052143E-7,2500000.0,88.9,71.4514984105429,73.63420427553444,61.8556701030928,750000.0,491872.0,750000.0,1.0,0.8892561569028341,0.0,0.0,0.0,527.0,264.0,264.0,15.0,0.0,0.0,1.0
2600000.0,6.328125,5.411422656228145E-7,2600000.0,89.3,74.2800826883323,74.70449172576834,67.57575757575758,780000.0,512328.0,780000.0,1.0,0.9209249147575304,0.0,0.0,0.0,549.0,275.0,275.0,16.0,0.0,0.0,1.0
2700000.0,6.59375,5.813441303972569E-7,2700000.0,90.7,76.81954137587239,78.95927601809956,69.00000000000001,810000.0,538616.0,810000.0,1.0,0.910820036965873,0.0,0.0,0.0,579.0,290.0,290.0,16.0,0.0,0.0,1.0
2800000.0,6.859375,6.22695499461972E-7,2800000.0,90.8,74.95208224429344,76.76767676767678,65.67164179104479,840000.0,555128.0,840000.0,1.0,0.5702565089840058,0.0,0.0,0.0,597.0,299.0,299.0,16.0,0.0,0.0,1.0
2900000.0,7.125,6.652458493287364E-7,2900000.0,89.3,72.83381403095423,73.71007371007371,64.21404682274249,870000.0,572360.0,870000.0,1.0,0.9127874947195268,0.0,0.0,0.0,615.0,308.0,308.0,16.0,0.0,0.0,1.0
3000000.0,7.421875,7.148266174933977E-7,3000000.0,89.7,74.54401660817558,76.21247113163973,66.7741935483871,900000.0,598384.0,900000.0,1.0,0.8928372498495074,0.0,0.0,0.0,643.0,322.0,322.0,16.0,0.0,0.0,1.0
3100000.0,7.703125,7.629969493589467E-7,3100000.0,88.2,71.34239043321563,71.07843137254902,61.81229773462784,930000.0,614656.0,930000.0,1.0,0.8942835478791993,0.0,0.0,0.0,659.0,330.0,330.0,16.0,0.0,0.0,1.0
3200000.0,8.0,8.152934282811151E-7,3200000.0,88.5,71.71862242639465,73.13084112149532,63.37579617834395,960000.0,633296.0,960000.0,1.0,0.6682087770056072,0.0,0.0,0.0,679.0,340.0,340.0,17.0,0.0,0.0,1.0
3300000.0,8.265625,8.628650943541692E-7,3300000.0,89.1,71.85934837610368,72.68170426065164,61.754385964912295,990000.0,644504.0,990000.0,1.0,0.8997563938970871,0.0,0.0,0.0,691.0,346.0,346.0,17.0,0.0,0.0,1.0
3400000.0,8.578125,9.213385702524748E-7,3400000.0,90.5,74.72059606173498,77.16346153846155,65.45454545454547,1019997.0,675096.0,1019997.0,1.0,0.9000846220078125,0.0,0.0,0.0,731.0,366.0,366.0,17.0,1734.017094017094,0.0,1.0738433228180861
3500000.0,8.875,9.788698581461278E-7,3500000.0,89.0,70.74919294364167,71.2041884816754,59.706959706959715,1050000.0,700592.0,1050000.0,1.0,0.9043138309427134,0.0,0.0,0.0,751.0,376.0,376.0,17.0,1734.017094017094,0.0,1.0738433228180861
3600000.0,9.171875,1.0371261547940474E-6,3600000.0,88.1,70.33898305084747,72.89293849658314,60.333333333333336,1079998.0,709912.0,1079998.0,1.0,0.8928740943968785,0.0,0.0,0.0,761.0,381.0,381.0,17.0,1734.017094017094,0.0,1.0738433228180861
3700000.0,9.453125,1.0939659356760484E-6,3700000.0,89.7,73.21196358907672,74.25,64.48275862068967,1109997.0,732280.0,1109997.0,1.0,0.9033575720190945,0.0,0.0,0.0,789.0,395.0,395.0,17.0,1734.017094017094,0.0,1.0738433228180861
3800000.0,9.765625,1.15910289524537E-6,3800000.0,90.5,76.62930635781271,77.85547785547786,68.95424836601308,1140000.0,756488.0,1140000.0,1.0,0.9391991084765584,0.0,0.0,0.0,813.0,407.0,407.0,17.0,1734.017094017094,0.0,1.0738433228180861
3900000.0,10.0625,1.2217639272825588E-6,3900000.0,91.2,78.40427202764253,78.5888077858881,71.05263157894738,1170000.0,766528.0,1170000.0,1.0,0.9132140537104118,0.0,0.0,0.0,825.0,413.0,413.0,17.0,1734.017094017094,0.0,1.0738433228180861
4000000.0,10.359375,1.2856789786989491E-6,4000000.0,89.5,73.92185497571008,76.40449438202246,64.76510067114096,1200000.0,782656.0,1200000.0,1.0,0.8982116260981948,0.0,0.0,0.0,839.0,420.0,420.0,17.0,1734.017094017094,0.0,1.0738433228180861
4100000.0,10.65625,1.3510016530441743E-6,4100000.0,88.4,70.60537718875909,72.04819277108435,60.67796610169493,1230000.0,800744.0,1230000.0,1.0,0.912124013557586,0.0,0.0,0.0,859.0,430.0,430.0,17.0,1734.017094017094,0.0,1.0738433228180861
4200000.0,10.96875,1.4208715421975488E-6,4200000.0,88.6,71.34411196911196,71.571072319202,61.22448979591838,1260000.0,814296.0,1260000.0,1.0,0.9006383090375738,0.0,0.0,0.0,873.0,437.0,437.0,18.0,1734.017094017094,0.0,1.0738433228180861
4300000.0,11.28125,1.4926674581753712E-6,4300000.0,87.8,69.72449288525583,70.88305489260144,58.922558922558935,1290000.0,837808.0,1290000.0,1.0,0.8969227281551126,0.0,0.0,0.0,899.0,450.0,450.0,18.0,1734.017094017094,0.0,1.0738433228180861
4400000.0,11.59375,1.5660311004871296E-6,4400000.0,89.8,75.0562457204343,75.24271844660196,66.22516556291393,1320000.0,856952.0,1320000.0,1.0,0.9090529179104675,0.0,0.0,0.0,921.0,461.0,461.0,18.0,1734.017094017094,0.0,1.0738433228180861
4500000.0,11.90625,1.640901674464759E-6,4500000.0,89.60000000000001,73.74904083033805,73.86934673366835,64.62585034013607,1350000.0,875352.0,1350000.0,1.0,0.9090787649688432,0.0,0.0,0.0,941.0,471.0,471.0,18.0,1734.017094017094,0.0,1.0738433228180861
4600000.0,12.234375,1.7215170535362429E-6,4600000.0,89.1,72.75272472752725,74.5920745920746,64.14473684210527,1379999.0,898632.0,1379999.0,1.0,0.90580019508269,0.0,0.0,0.0,967.0,484.0,484.0,18.0,1734.017094017094,0.0,1.0738433228180861
4700000.0,12.546875,1.8002008760554922E-6,4700000.0,90.10000000000001,74.81479973949854,76.97674418604652,66.09589041095892,1410000.0,921928.0,1410000.0,1.0,0.9001751379664935,0.0,0.0,0.0,989.0,495.0,495.0,18.0,1734.017094017094,0.0,1.0738433228180861
4800000.0,12.875,1.8848982613740695E-6,4800000.0,91.4,78.15429166560826,78.60696517412936,69.61130742049471,1440000.0,946112.0,1440000.0,1.0,0.8980492861590434,0.0,0.0,0.0,1015.0,508.0,508.0,18.0,1734.017094017094,0.0,1.0738433228180861
4900000.0,13.203125,1.9710380325300827E-6,4900000.0,91.60000000000001,78.67240818979526,80.73394495412846,70.62937062937064,1470000.0,962888.0,1470000.0,1.0,0.893790803239107,0.0,0.0,0.0,1033.0,517.0,517.0,18.0,1734.017094017094,0.0,1.0738433228180861
5000000.0,13.53125,2.0591390138078067E-6,5000000.0,90.0,74.51515074288336,75.18610421836229,65.39792387543254,1500000.0,985688.0,1500000.0,1.0,0.8882986400594806,0.0,0.0,0.0,1061.0,531.0,531.0,18.0,1734.017094017094,0.0,1.0738433228180861
5100000.0,13.875,2.0646653784852888E-6,5100000.0,88.4,76.63052456413914,76.70682730923694,74.27937915742794,25280.0,22384.0,1530000.0,1.0,0.8312480121810597,0.0,2.0,47.0,23.0,12.0,12.0,4.0,0.0,0.0,1.0
5200000.0,14.109375,2.0695781050663855E-6,5200000.0,90.9,81.80145588352933,82.01581027667984,81.35245901639345,55280.0,41024.0,1560000.0,1.0,0.9380101121238993,0.0,0.0,0.0,43.0,22.0,22.0,6.0,0.0,0.0,1.0
5300000.0,14.359375,2.076764293532405E-6,5300000.0,88.4,76.6514095705067,76.47058823529413,74.61706783369803,85280.0,70728.0,1590000.0,1.0,0.8972940118061196,0.0,0.0,0.0,75.0,38.0,38.0,7.0,0.0,0.0,1.0
5400000.0,14.609375,2.0854157628491524E-6,5400000.0,88.7,77.27035007683828,78.35249042145594,75.90618336886993,115280.0,93096.0,1620000.0,1.0,0.9071519613654132,0.0,0.0,0.0,99.0,50.0,50.0,8.0,0.0,0.0,1.0
5500000.0,14.84375,2.094907492088775E-6,5500000.0,88.1,76.00825799791937,75.66462167689161,74.29805615550757,145280.0,115584.0,1650000.0,1.0,0.87385908301798,0.0,0.0,0.0,123.0,62.0,62.0,9.0,0.0,0.0,1.0
5600000.0,15.078125,2.105086071727177E-6,5600000.0,88.9,77.67749408755249,77.71084337349397,76.48305084745762,175280.0,126768.0,1680000.0,1.0,0.901600551184846,0.0,0.0,0.0,135.0,68.0,68.0,9.0,0.0,0.0,1.0
5700000.0,15.3125,2.116170265556624E-6,5700000.0,90.8,81.25448262372042,80.5084745762712,78.50467289719627,205280.0,141512.0,1710000.0,1.0,0.8913215770480032,0.0,0.0,0.0,151.0,76.0,76.0,9.0,0.0,0.0,1.0
5800000.0,15.5625,2.1294695519221333E-6,5800000.0,89.4,78.61143844129849,77.91666666666667,77.05627705627705,235280.0,164048.0,1740000.0,1.0,0.8995388412571629,0.0,0.0,0.0,175.0,88.0,88.0,10.0,0.0,0.0,1.0
5900000.0,15.8125,2.144104251379355E-6,5900000.0,89.5,78.63821684040917,79.24901185770752,76.24434389140272,265279.0,184432.0,1769999.0,1.0,0.901048162264224,0.0,0.0,0.0,197.0,99.0,99.0,10.0,0.0,0.0,1.0
6000000.0,16.0625,2.1602011272787226E-6,6000000.0,90.2,80.1252514764099,80.36072144288578,78.02690582959642,295280.0,206752.0,1800000.0,1.0,0.8952497530161276,0.0,0.0,0.0,221.0,111.0,111.0,10.0,0.0,0.0,1.0
6100000.0,16.296875,2.1766583732743234E-6,6100000.0,89.0,77.87227879319431,79.4007490636704,76.13882863340564,325280.0,229000.0,1830000.0,1.0,0.8995158839154693,0.0,0.0,0.0,245.0,123.0,123.0,11.0,0.0,0.0,1.0
6200000.0,16.546875,2.1953826136369676E-6,6200000.0,91.0,81.93083122191751,81.05263157894737,80.89171974522293,355278.0,246848.0,1859998.0,1.0,0.9059326236554067,0.0,0.0,0.0,265.0,133.0,133.0,11.0,0.0,0.0,1.0
6300000.0,16.8125,2.2169186397352156E-6,6300000.0,90.9,81.6521900429863,81.72690763052209,80.30303030303031,385280.0,270440.0,1890000.0,1.0,0.9122483749816527,0.0,0.0,0.0,291.0,146.0,146.0,11.0,0.0,0.0,1.0
6400000.0,17.078125,2.2402490139938894E-6,6400000.0,88.9,77.67569828806796,76.92307692307693,76.43312101910828,415280.0,296224.0,1920000.0,1.0,0.9910061187855911,0.0,0.0,0.0,317.0,159.0,159.0,11.0,0.0,0.0,1.0
6500000.0,17.328125,2.262950519151572E-6,6500000.0,89.4,78.58663725359482,78.67203219315896,76.60044150110376,445280.0,307576.0,1950000.0,1.0,0.8627167127933338,0.0,0.0,0.0,329.0,165.0,165.0,11.0,0.0,0.0,1.0
6600000.0,17.59375,2.287849298833559E-6,6600000.0,90.5,80.75660959819801,81.40900195694717,78.84187082405344,475280.0,318760.0,1980000.0,1.0,0.8948067548022144,0.0,0.0,0.0,341.0,171.0,171.0,11.0,0.0,0.0,1.0
6700000.0,17.859375,2.3141405674525433E-6,6700000.0,89.2,78.31804219951415,79.23076923076924,77.45302713987473,505279.0,338760.0,2009999.0,1.0,0.8403000924048738,0.0,0.0,0.0,363.0,182.0,182.0,11.0,0.0,0.0,1.0
6800000.0,18.109375,2.340407485866712E-6,6800000.0,89.1,78.010893685697,76.95560253699789,75.77777777777777,535280.0,361992.0,2040000.0,1.0,0.8930226706038679,0.0,0.0,0.0,391.0,196.0,196.0,12.0,0.0,0.0,1.0
6900000.0,18.375,2.369948811570389E-6,6900000.0,89.9,79.59200168113412,79.13223140495869,77.60532150776054,565280.0,385456.0,2070000.0,1.0,0.902917047385475,0.0,0.0,0.0,413.0,207.0,207.0,12.0,0.0,0.0,1.0
7000000.0,18.65625,2.4028728108128735E-6,7000000.0,89.2,77.74297254966615,76.47058823529413,73.46437346437347,595280.0,407776.0,2100000.0,1.0,0.8847125511390134,0.0,0.0,0.0,437.0,219.0,219.0,12.0,0.0,0.0,1.0
7100000.0,18.90625,2.433362759701493E-6,7100000.0,90.7,81.34373269781662,82.319391634981,80.37974683544304,625280.0,426464.0,2130000.0,1.0,0.8932542903268992,0.0,0.0,0.0,457.0,229.0,229.0,12.0,0.0,0.0,1.0
7200000.0,19.1875,2.4697780544455676E-6,7200000.0,90.5,80.69419606568037,80.57259713701433,78.65168539325843,655280.0,455136.0,2160000.0,1.0,0.8923160059099833,0.0,0.0,0.0,489.0,245.0,245.0,13.0,0.0,0.0,1.0
7300000.0,19.484375,2.510015425893167E-6,7300000.0,88.5,76.88535134265959,75.42735042735043,75.47974413646055,685280.0,478272.0,2190000.0,1.0,0.9084937568214372,0.0,0.0,0.0,513.0,257.0,257.0,13.0,0.0,0.0,1.0
7400000.0,19.75,2.5469402963709494E-6,7400000.0,89.5,78.57422703973359,78.7878787878788,75.46728971962618,715277.0,491536.0,2219997.0,1.0,0.9923703980623878,0.0,0.0,0.0,527.0,264.0,264.0,13.0,0.0,0.0,1.0
7500000.0,20.046875,2.5894006183888343E-6,7500000.0,88.9,77.31026475446028,78.01980198019803,73.82075471698114,745280.0,506856.0,2250000.0,1.0,0.9982251381284067,0.0,0.0,0.0,543.0,272.0,272.0,13.0,0.0,0.0,1.0
7600000.0,20.328125,2.6307874294515278E-6,7600000.0,89.2,78.41795626039135,78.74015748031496,78.65612648221344,775280.0,522600.0,2280000.0,1.0,0.9090437944305383,0.0,0.0,0.0,561.0,281.0,281.0,13.0,0.0,0.0,1.0
7700000.0,20.625,2.675980665824479E-6,7700000.0,90.8,81.44300784638038,82.7392120075047,79.69094922737308,805280.0,541984.0,2310000.0,1.0,0.8900482189555813,0.0,0.0,0.0,581.0,291.0,291.0,13.0,0.0,0.0,1.0
7800000.0,20.90625,2.7207650580546916E-6,7800000.0,90.60000000000001,80.57120652807461,80.65843621399178,76.90417690417691,835279.0,568704.0,2339999.0,1.0,0.9277088099635026,0.0,0.0,0.0,613.0,307.0,307.0,13.0,0.0,0.0,1.0
7900000.0,21.1875,2.7668998680180965E-6,7900000.0,89.60000000000001,79.06458976661044,78.42323651452283,77.73019271948608,865280.0,587032.0,2370000.0,1.0,0.8438812514990981,0.0,0.0,0.0,631.0,316.0,316.0,13.0,0.0,0.0,1.0
8000000.0,21.484375,2.817294734995811E-6,8000000.0,89.2,78.32709233862715,79.3103448275862,77.07006369426752,895280.0,608848.0,2400000.0,1.0,0.9009732688944947,0.0,0.0,0.0,653.0,327.0,327.0,13.0,0.0,0.0,1.0
8100000.0,21.78125,2.8693159563570376E-6,8100000.0,88.8,77.43345892688038,76.56903765690377,75.59912854030502,925278.0,629760.0,2429998.0,1.0,0.9074609533732331,0.0,0.0,0.0,675.0,338.0,338.0,13.0,0.0,0.0,1.0
8200000.0,22.078125,2.9219393036328245E-6,8200000.0,88.5,76.82983833271547,77.36220472440945,75.21551724137932,955277.0,637504.0,2459997.0,1.0,0.9154241070975406,0.0,0.0,0.0,683.0,342.0,342.0,13.0,0.0,0.0,1.0
8300000.0,22.375,2.9759813332930195E-6,8300000.0,89.0,77.80387503985213,78.72340425531915,75.71743929359823,985280.0,655736.0,2490000.0,1.0,0.8909189968759283,0.0,0.0,0.0,703.0,352.0,352.0,13.0,0.0,0.0,1.0
8400000.0,22.6875,3.034892013399964E-6,8400000.0,90.5,80.77716894238007,81.03792415169661,79.25764192139738,1015279.0,680448.0,2519999.0,1.0,0.9014549687494745,0.0,0.0,0.0,733.0,367.0,367.0,13.0,1728.5348189415042,0.0,1.0740769389438944
8500000.0,23.0,3.0958897615265503E-6,8500000.0,89.0,77.62189961591042,76.74418604651163,74.65437788018434,1045280.0,705944.0,2550000.0,1.0,0.8996483278927702,0.0,0.0,0.0,757.0,379.0,379.0,13.0,1728.5348189415042,0.0,1.0740769389438944
8600000.0,23.3125,3.1580762394393473E-6,8600000.0,88.3,76.41509433962264,76.41129032258065,74.56521739130434,1075279.0,720448.0,2579999.0,1.0,0.9096681583014002,0.0,0.0,0.0,775.0,388.0,388.0,14.0,1728.5348189415042,0.0,1.0740769389438944
8700000.0,23.609375,3.2182009696649996E-6,8700000.0,89.9,79.21211871732598,79.55465587044534,76.51162790697676,1105279.0,733928.0,2609999.0,1.0,0.8936581313348337,0.0,0.0,0.0,787.0,394.0,394.0,14.0,1728.5348189415042,0.0,1.0740769389438944
8800000.0,23.921875,3.2830087325742664E-6,8800000.0,90.3,80.40071446467684,80.60000000000001,78.86710239651417,1135280.0,752472.0,2640000.0,1.0,0.9034272790168237,0.0,0.0,0.0,807.0,404.0,404.0,14.0,1728.5348189415042,0.0,1.0740769389438944
8900000.0,24.25,3.353545746196888E-6,8900000.0,90.9,81.6916143569934,82.33009708737865,80.21739130434783,1165280.0,781408.0,2670000.0,1.0,0.9039741373670664,0.0,0.0,0.0,839.0,420.0,420.0,14.0,1728.5348189415042,0.0,1.0740769389438944
9000000.0,24.5625,3.4228257977196726E-6,9000000.0,89.60000000000001,79.0667809942474,79.92277992277992,77.5377969762419,1195278.0,807080.0,2699998.0,1.0,0.8975719930885043,0.0,0.0,0.0,869.0,435.0,435.0,14.0,1728.5348189415042,0.0,1.0740769389438944
9100000.0,24.875,3.4934601474863774E-6,9100000.0,88.3,76.4297283576557,76.45875251509054,74.39824945295405,1225278.0,823616.0,2729998.0,1.0,0.9054476006424341,0.0,0.0,0.0,887.0,444.0,444.0,14.0,1728.5348189415042,0.0,1.0740769389438944
9200000.0,25.203125,3.5695195159253962E-6,9200000.0,88.6,77.03159565937453,77.15430861723446,75.27114967462039,1255280.0,845648.0,2760000.0,1.0,0.8670807288121114,0.0,0.0,0.0,907.0,454.0,454.0,14.0,1728.5348189415042,0.0,1.0740769389438944
9300000.0,25.515625,3.643154793988084E-6,9300000.0,87.7,75.15071194220418,75.69169960474308,72.23476297968398,1285280.0,860272.0,2790000.0,1.0,0.9126960904741006,0.0,0.0,0.0,923.0,462.0,462.0,14.0,1728.5348189415042,0.0,1.0740769389438944
9400000.0,25.84375,3.722484656868294E-6,9400000.0,89.2,78.14543806255261,78.22580645161291,75.67567567567568,1315280.0,883672.0,2820000.0,1.0,0.8987062545674538,0.0,0.0,0.0,953.0,477.0,477.0,14.0,1728.5348189415042,0.0,1.0740769389438944
9500000.0,26.1875,3.8080422867399935E-6,9500000.0,90.60000000000001,81.05411669857907,81.0483870967742,79.78494623655914,1345280.0,910888.0,2850000.0,1.0,0.896137318767984,0.0,0.0,0.0,977.0,489.0,489.0,14.0,1728.5348189415042,0.0,1.0740769389438944
9600000.0,26.515625,3.890847049963969E-6,9600000.0,88.8,77.50425812256965,77.32793522267207,76.61795407098121,1375280.0,924104.0,2880000.0,1.0,0.890371582557684,0.0,0.0,0.0,991.0,496.0,496.0,14.0,1728.5348189415042,0.0,1.0740769389438944
9700000.0,26.859375,3.9789451855338265E-6,9700000.0,89.9,79.36788089751762,80.5019305019305,76.62037037037038,1405279.0,939088.0,2909999.0,1.0,0.9023941842538467,0.0,0.0,0.0,1009.0,505.0,505.0,14.0,1728.5348189415042,0.0,1.0740769389438944
9800000.0,27.1875,4.064778687380667E-6,9800000.0,91.10000000000001,82.0993266128708,82.48031496062993,80.73593073593074,1435280.0,959328.0,2940000.0,1.0,0.9162132267624113,0.0,0.0,0.0,1029.0,515.0,515.0,15.0,1728.5348189415042,0.0,1.0740769389438944
9900000.0,27.53125,4.1568608139641564E-6,9900000.0,91.0,81.95604492543838,82.98676748582231,81.21085594989562,1465279.0,983320.0,2969999.0,1.0,0.9174915730133697,0.0,0.0,0.0,1055.0,528.0,528.0,15.0,1728.5348189415042,0.0,1.0740769389438944
1.0E7,27.859375,4.246532528971631E-6,1.0E7,90.2,80.2253502937948,79.91803278688525,78.31858407079646,1495280.0,1003968.0,3000000.0,1.0,0.8993900378761149,0.0,0.0,0.0,1077.0,539.0,539.0,15.0,1728.5348189415042,0.0,1.0740769389438944
