learning evaluation instances,evaluation time (cpu seconds),model cost (RAM-Hours),classified instances,classifications correct (percent),Kappa Statistic (percent),Kappa Temporal Statistic (percent),Kappa M Statistic (percent),model training instances,model serialized size (bytes),labeling cost,newThreshold,maxPosterior,accuracyBaseLearner (percent),Change detected,Warning detected
100000.0,0.125,5.553786953290303E-9,100000.0,58.8,0.0,12.153518123667366,0.0,661.0,8904.0,0.0,1.0,0.0,?,13.0,79.0
200000.0,0.265625,1.1263667450596888E-8,200000.0,59.699999999999996,4.5611708426088065,13.14655172413792,-8.918918918918926,7588.0,9312.0,0.0,1.0,0.0,?,8.0,66.0
300000.0,0.421875,1.6993564915739826E-8,300000.0,62.8,13.793502996370977,15.64625850340135,3.8759689922480653,27588.0,9312.0,0.0,1.0,0.0,?,0.0,0.0
400000.0,0.5625,2.1597499855690532E-8,400000.0,60.6,6.883528783388421,18.762886597938138,-3.412073490813651,47588.0,9312.0,0.0,1.0,0.0,?,0.0,0.0
500000.0,0.6875,2.519835511015521E-8,500000.0,62.2,11.658712834727005,20.920502092050206,0.7874015748031503,67588.0,9312.0,0.0,1.0,0.0,?,0.0,0.0
600000.0,0.78125,2.7530348031885094E-8,600000.0,59.9,5.6870031516063735,17.148760330578504,-8.086253369272246,87588.0,9312.0,0.0,1.0,0.0,?,0.0,0.0
700000.0,0.90625,3.01481405687001E-8,700000.0,65.4,16.25155515537032,25.910064239828696,4.683195592286506,107588.0,9312.0,0.0,1.0,0.0,?,0.0,0.0
800000.0,1.015625,3.20086190994415E-8,800000.0,61.199999999999996,10.845588235294121,16.198704103671698,1.0204081632653068,127588.0,9312.0,0.0,1.0,0.0,?,0.0,0.0
900000.0,1.109375,3.323466646381551E-8,900000.0,62.6,9.364094610314076,21.593291404612156,-3.8888888888888924,147588.0,9312.0,0.0,1.0,0.0,?,0.0,0.0
1000000.0,1.21875,3.423496511661344E-8,1000000.0,60.3,9.215641436085068,15.531914893617014,-1.7948717948717965,167588.0,9312.0,0.0,1.0,0.0,?,0.0,0.0
1100000.0,1.328125,3.911037411954668E-8,1100000.0,55.60000000000001,-4.990352237902466,4.103671706263503,-17.460317460317444,187388.0,9312.0,0.0,1.0,0.0,?,0.0,0.0
1200000.0,1.4375,4.355569318350819E-8,1200000.0,60.3,8.508480825958692,15.711252653927804,-2.3195876288659814,207388.0,9312.0,0.0,1.0,0.0,?,0.0,0.0
1300000.0,1.546875,4.757092230849796E-8,1300000.0,61.1,18.439746051980514,16.523605150214586,2.2613065326633186,227388.0,9312.0,0.0,1.0,0.0,?,0.0,0.0
1400000.0,1.65625,5.1156061494516E-8,1400000.0,54.400000000000006,0.39884148126146285,6.172839506172846,-6.293706293706272,247388.0,9312.0,0.0,1.0,0.0,?,0.0,0.0
1500000.0,1.765625,5.4311110741562315E-8,1500000.0,64.2,14.641590050738165,25.10460251046025,1.1049723756906087,267388.0,9312.0,0.0,1.0,0.0,?,0.0,0.0
1600000.0,1.859375,5.6646790148483384E-8,1600000.0,57.599999999999994,3.192810696281142,12.577319587628855,-6.532663316582921,287388.0,9312.0,0.0,1.0,0.0,?,0.0,0.0
1700000.0,1.984375,5.926949799888664E-8,1700000.0,60.0,4.549185804554906,11.504424778761049,-9.289617486338807,307388.0,9312.0,0.0,1.0,0.0,?,0.0,0.0
1800000.0,2.09375,6.113427742901776E-8,1800000.0,59.8,13.757594480486038,15.010570824524303,-13.559322033898319,327388.0,9312.0,0.0,1.0,0.0,?,0.0,0.0
1900000.0,2.1875,6.236401127858296E-8,1900000.0,59.9,7.681965522322076,16.28392484342379,-3.3505154639175285,347388.0,9312.0,0.0,1.0,0.0,?,0.0,0.0
2000000.0,2.28125,6.322509660902952E-8,2000000.0,56.89999999999999,0.7113764950885487,3.363228699551548,-9.669211195928762,367388.0,9312.0,0.0,1.0,0.0,?,0.0,0.0
2100000.0,2.390625,6.810480651135246E-8,2100000.0,59.9,16.401207491786046,14.316239316239306,-5.804749340369398,387188.0,9312.0,0.0,1.0,0.0,?,0.0,0.0
2200000.0,2.5,7.255442647470369E-8,2200000.0,61.3,6.963102576184475,17.659574468085097,-7.799442896935941,407188.0,9312.0,0.0,1.0,0.0,?,0.0,0.0
2300000.0,2.609375,7.657395649908319E-8,2300000.0,60.8,8.308383233532933,17.473684210526308,-3.157894736842108,427188.0,9312.0,0.0,1.0,0.0,?,0.0,0.0
2400000.0,2.71875,8.016339658449095E-8,2400000.0,62.7,11.666635090843661,21.141649048625787,1.0610079575596827,447188.0,9312.0,0.0,1.0,0.0,?,0.0,0.0
2500000.0,2.828125,8.332274673092698E-8,2500000.0,60.9,6.320379510278394,14.442013129102834,-7.123287671232884,467188.0,9312.0,0.0,1.0,0.0,?,0.0,0.0
2600000.0,2.921875,8.566211262303924E-8,2600000.0,59.3,4.910985467968771,9.955752212389365,-7.671957671957679,487188.0,9312.0,0.0,1.0,0.0,?,0.0,0.0
2700000.0,3.03125,8.79612828915318E-8,2700000.0,60.199999999999996,6.859624817463588,15.319148936170205,-4.188481675392674,507188.0,9312.0,0.0,1.0,0.0,?,0.0,0.0
2800000.0,3.140625,8.983036322105263E-8,2800000.0,60.099999999999994,7.062331128295912,15.466101694915245,-6.11702127659575,527188.0,9312.0,0.0,1.0,0.0,?,0.0,0.0
2900000.0,3.25,9.126935361160173E-8,2900000.0,59.199999999999996,9.362337385370006,18.0722891566265,2.3923444976076578,547188.0,9312.0,0.0,1.0,0.0,?,0.0,0.0
3000000.0,3.359375,9.22782540631791E-8,3000000.0,59.9,16.423509795748224,14.316239316239306,-0.5012531328320806,567188.0,9312.0,0.0,1.0,0.0,?,0.0,0.0
3100000.0,3.46875,9.716226486489177E-8,3100000.0,64.5,16.319372418865143,24.78813559322034,3.532608695652177,586988.0,9312.0,0.0,1.0,0.0,?,0.0,0.0
3200000.0,3.578125,1.0161618572763272E-7,3200000.0,62.6,14.474797506505855,21.097046413502106,4.834605597964381,606988.0,9312.0,0.0,1.0,0.0,?,0.0,0.0
3300000.0,3.703125,1.0621484964051182E-7,3300000.0,60.4,7.973321558876148,15.203426124196993,-2.8571428571428594,626988.0,9312.0,0.0,1.0,0.0,?,0.0,0.0
3400000.0,3.8125,1.098085906253093E-7,3400000.0,62.8,13.680683500480317,22.0125786163522,4.370179948586122,646988.0,9312.0,0.0,1.0,0.0,?,0.0,0.0
3500000.0,3.90625,1.1252029152173136E-7,3500000.0,61.199999999999996,19.05773186413382,16.916488222698064,0.25706940874036016,666988.0,9312.0,0.0,1.0,0.0,?,0.0,0.0
3600000.0,4.0,1.148633438990348E-7,3600000.0,57.99999999999999,0.9957003847023967,8.695652173913029,-12.903225806451623,686988.0,9312.0,0.0,1.0,0.0,?,0.0,0.0
3700000.0,4.09375,1.1683774775721962E-7,3700000.0,59.599999999999994,7.444741761665622,15.657620041753646,-3.061224489795921,706988.0,9312.0,0.0,1.0,0.0,?,0.0,0.0
3800000.0,4.203125,1.1871112898613017E-7,3800000.0,62.1,15.046802711329477,23.895582329317268,7.33496332518338,726988.0,9312.0,0.0,1.0,0.0,?,0.0,0.0
3900000.0,4.3125,1.20154420276069E-7,3900000.0,62.3,11.606096131301287,16.035634743875267,-0.5333333333333339,746988.0,9312.0,0.0,1.0,0.0,?,0.0,0.0
4000000.0,4.421875,1.211676216270361E-7,4000000.0,60.4,9.109688080975005,16.455696202531637,-1.278772378516625,766988.0,9312.0,0.0,1.0,0.0,?,0.0,0.0
4100000.0,4.515625,1.2535760308512384E-7,4100000.0,63.9,16.079299250525377,24.31865828092243,5.989583333333338,786788.0,9312.0,0.0,1.0,0.0,?,0.0,0.0
4200000.0,4.625,1.298158248472545E-7,4200000.0,61.7,10.999776918500878,21.67689161554192,1.2886597938144342,806788.0,9312.0,0.0,1.0,0.0,?,0.0,0.0
4300000.0,4.734375,1.3384395667041344E-7,4300000.0,61.7,16.038968441174667,20.041753653444673,9.241706161137447,826788.0,9312.0,0.0,1.0,0.0,?,0.0,0.0
4400000.0,4.859375,1.3795600453805596E-7,4400000.0,58.599999999999994,3.008152937868982,12.101910828025465,-8.376963350785347,846788.0,9312.0,0.0,1.0,0.0,?,0.0,0.0
4500000.0,4.953125,1.4067139191966922E-7,4500000.0,60.099999999999994,3.731084002470643,11.920529801324491,-12.07865168539327,866788.0,9312.0,0.0,1.0,0.0,?,0.0,0.0
4600000.0,5.0625,1.4340925392591295E-7,4600000.0,59.8,4.856574836694092,13.918629550321187,-8.648648648648656,886788.0,9312.0,0.0,1.0,0.0,?,0.0,0.0
4700000.0,5.171875,1.4571702599318495E-7,4700000.0,61.5,10.2555734785406,15.384615384615374,-1.8518518518518534,906788.0,9312.0,0.0,1.0,0.0,?,0.0,0.0
4800000.0,5.28125,1.4759470812148522E-7,4800000.0,63.7,14.606720427578038,24.688796680497923,3.9682539682539715,926788.0,9312.0,0.0,1.0,0.0,?,0.0,0.0
4900000.0,5.390625,1.4904230031081376E-7,4900000.0,62.8,10.037145952638932,22.821576763485474,-2.1978021978021998,946788.0,9312.0,0.0,1.0,0.0,?,0.0,0.0
5000000.0,5.5,1.5012522150451944E-7,5000000.0,57.49999999999999,-0.604098019164515,8.993576017130605,-15.176151761517628,966788.0,9312.0,0.0,1.0,0.0,?,0.0,0.0
5100000.0,5.578125,1.5366667260726298E-7,5100000.0,57.699999999999996,-1.0936275165860794,9.032258064516114,-14.945652173913057,986588.0,9312.0,0.0,1.0,0.0,?,0.0,0.0
5200000.0,5.6875,1.5819461421213223E-7,5200000.0,56.39999999999999,-3.1078991056099445,11.020408163265294,-17.5202156334232,1006588.0,9312.0,0.0,1.0,0.0,?,0.0,0.0
5300000.0,5.796875,1.6229246587802972E-7,5300000.0,55.400000000000006,-2.685478523539382,10.080645161290331,-13.775510204081618,1026588.0,9312.0,0.0,1.0,0.0,?,0.0,0.0
5400000.0,5.90625,1.659602276049555E-7,5400000.0,57.3,-0.7617303644412581,6.1538461538461355,-11.780104712041894,1046588.0,9312.0,0.0,1.0,0.0,?,0.0,0.0
5500000.0,6.0,1.6873537485177325E-7,5500000.0,57.3,-0.38083595843717755,8.955223880597,-15.40540540540542,1066588.0,9312.0,0.0,1.0,0.0,?,0.0,0.0
5600000.0,6.109375,1.7154295670075556E-7,5600000.0,54.800000000000004,-5.669199298655756,5.63674321503132,-20.533333333333324,1086588.0,9312.0,0.0,1.0,0.0,?,0.0,0.0
5700000.0,6.203125,1.7358080690933607E-7,5700000.0,61.5,17.994376757263357,12.100456621004554,-6.94444444444445,1106588.0,9312.0,0.0,1.0,0.0,?,0.0,0.0
5800000.0,6.328125,1.7580640916195189E-7,5800000.0,56.3,7.97752714347081,7.021276595744663,-20.718232044198913,1126588.0,9312.0,0.0,1.0,0.0,?,0.0,0.0
5900000.0,6.46875,1.7775723891746674E-7,5900000.0,58.3,11.056318200820755,6.711409395973137,-18.130311614730896,1146588.0,9312.0,0.0,1.0,0.0,?,0.0,0.0
6000000.0,6.5625,1.7868914356869136E-7,6000000.0,60.5,17.373005447106173,18.72427983539094,-3.4031413612565475,1166588.0,9312.0,0.0,1.0,0.0,?,0.0,0.0
6100000.0,6.671875,1.8365147601192206E-7,6100000.0,60.8,18.22429906542056,17.299578059071724,-3.157894736842108,1186388.0,9312.0,0.0,1.0,0.0,?,0.0,0.0
6200000.0,6.765625,1.8753625530128688E-7,6200000.0,60.9,18.723860678977967,19.214876033057845,-1.2953367875647679,1206388.0,9312.0,0.0,1.0,0.0,?,0.0,0.0
6300000.0,6.875,1.916384078665741E-7,6300000.0,59.4,13.933453176406744,12.311015118790484,-7.978723404255327,1226388.0,9312.0,0.0,1.0,0.0,?,0.0,0.0
6400000.0,6.984375,1.953104704928896E-7,6400000.0,59.5,16.17544789217472,16.149068322981357,-2.2727272727272747,1246388.0,9312.0,0.0,1.0,0.0,?,0.0,0.0
6500000.0,7.09375,1.9855244318023335E-7,6500000.0,65.3,20.506922999386056,27.708333333333336,9.162303664921474,1266388.0,9312.0,0.0,1.0,0.0,?,0.0,0.0
6600000.0,7.203125,2.0136432592860536E-7,6600000.0,63.6,17.974049152473622,22.881355932203387,8.312342569269529,1286388.0,9312.0,0.0,1.0,0.0,?,0.0,0.0
6700000.0,7.328125,2.0408637485363427E-7,6700000.0,64.7,14.063412924083677,27.066115702479344,1.1204481792717098,1306388.0,9312.0,0.0,1.0,0.0,?,0.0,0.0
6800000.0,7.4375,2.0603807772406284E-7,6800000.0,64.5,17.821030408533662,22.48908296943231,9.2071611253197,1326388.0,9312.0,0.0,1.0,0.0,?,0.0,0.0
6900000.0,7.53125,2.0734231737959728E-7,6900000.0,66.0,18.317533381702177,24.444444444444443,5.292479108635102,1346388.0,9312.0,0.0,1.0,0.0,?,0.0,0.0
7000000.0,7.640625,2.0843384037208238E-7,7000000.0,64.2,19.597177366830028,27.08757637474542,10.275689223057654,1366388.0,9312.0,0.0,1.0,0.0,?,0.0,0.0
7100000.0,7.75,2.1340047371470278E-7,7100000.0,62.8,15.379540956757138,18.599562363238505,7.231920199501253,1386188.0,9312.0,0.0,1.0,0.0,?,0.0,0.0
7200000.0,7.859375,2.1793701711835145E-7,7200000.0,65.5,20.28945325496285,31.000000000000007,12.87878787878789,1406188.0,9312.0,0.0,1.0,0.0,?,0.0,0.0
7300000.0,7.96875,2.2204347058302838E-7,7300000.0,68.0,21.07534837834506,25.925925925925945,7.24637681159421,1426188.0,9312.0,0.0,1.0,0.0,?,0.0,0.0
7400000.0,8.078125,2.2571983410873359E-7,7400000.0,66.5,20.808275653390822,26.535087719298247,7.967032967032975,1446188.0,9312.0,0.0,1.0,0.0,?,0.0,0.0
7500000.0,8.1875,2.2896610769546705E-7,7500000.0,64.1,12.600181129429643,22.629310344827584,1.9125683060109306,1466188.0,9312.0,0.0,1.0,0.0,?,0.0,0.0
7600000.0,8.296875,2.317822913432288E-7,7600000.0,65.9,19.01468660346169,30.122950819672134,7.336956521739137,1486188.0,9312.0,0.0,1.0,0.0,?,0.0,0.0
7700000.0,8.40625,2.341683850520188E-7,7700000.0,65.4,17.002096536636618,24.618736383442265,4.155124653739616,1506188.0,9312.0,0.0,1.0,0.0,?,0.0,0.0
7800000.0,8.5,2.3584495971186305E-7,7800000.0,62.1,14.208362760544006,18.318965517241374,1.3020833333333344,1526188.0,9312.0,0.0,1.0,0.0,?,0.0,0.0
7900000.0,8.609375,2.373708735427096E-7,7900000.0,65.10000000000001,19.652641563297145,26.371308016877638,7.671957671957679,1546188.0,9312.0,0.0,1.0,0.0,?,0.0,0.0
8000000.0,8.71875,2.384666974345844E-7,8000000.0,61.8,10.422421596169265,17.67241379310344,-1.3262599469496033,1566188.0,9312.0,0.0,1.0,0.0,?,0.0,0.0
8100000.0,8.828125,2.434376316765945E-7,8100000.0,57.9,12.322353842821677,6.65188470066517,-19.602272727272744,1585988.0,9312.0,0.0,1.0,0.0,?,0.0,0.0
8200000.0,8.921875,2.473297839363417E-7,8200000.0,65.3,19.034196968565666,23.230088495575217,6.720430107526888,1605988.0,9312.0,0.0,1.0,0.0,?,0.0,0.0
8300000.0,9.03125,2.5144053830040836E-7,8300000.0,64.8,17.098445595854923,25.581395348837212,4.864864864864869,1625988.0,9312.0,0.0,1.0,0.0,?,0.0,0.0
8400000.0,9.140625,2.551212027255033E-7,8400000.0,56.89999999999999,9.029507366288136,9.263157894736826,-19.060773480663002,1645988.0,9312.0,0.0,1.0,0.0,?,0.0,0.0
8500000.0,9.25,2.583717772116265E-7,8500000.0,66.0,21.23795404002965,24.107142857142858,10.052910052910063,1665988.0,9312.0,0.0,1.0,0.0,?,0.0,0.0
8600000.0,9.359375,2.6119226175877796E-7,8600000.0,67.9,22.347476897769614,31.991525423728824,10.335195530726267,1685988.0,9312.0,0.0,1.0,0.0,?,0.0,0.0
8700000.0,9.46875,2.635826563669577E-7,8700000.0,56.99999999999999,16.950900599884893,4.2316258351892895,-19.777158774373277,1705988.0,9312.0,0.0,1.0,0.0,?,0.0,0.0
8800000.0,9.578125,2.655429610361657E-7,8800000.0,59.099999999999994,22.135579280829738,13.347457627118633,-6.788511749347265,1725988.0,9312.0,0.0,1.0,0.0,?,0.0,0.0
8900000.0,9.6875,2.6707317576640197E-7,8900000.0,64.5,17.791342849467846,24.307036247334754,8.031088082901562,1745988.0,9312.0,0.0,1.0,0.0,?,0.0,0.0
9000000.0,9.796875,2.681733005576665E-7,9000000.0,64.9,19.314054526228677,23.695652173913043,9.067357512953375,1765988.0,9312.0,0.0,1.0,0.0,?,0.0,0.0
9100000.0,9.875,2.7172703994438066E-7,9100000.0,55.300000000000004,14.967280474813583,3.24675324675325,-17.631578947368407,1785788.0,9312.0,0.0,1.0,0.0,?,0.0,0.0
9200000.0,9.984375,2.7627218514680877E-7,9200000.0,54.7,14.00649981776213,4.228329809725163,-27.247191011235948,1805788.0,9312.0,0.0,1.0,0.0,?,0.0,0.0
9300000.0,10.09375,2.8038724041026515E-7,9300000.0,63.7,18.299918074848986,25.0,8.793969849246238,1825788.0,9312.0,0.0,1.0,0.0,?,0.0,0.0
9400000.0,10.1875,2.8354578211696627E-7,9400000.0,65.4,16.217891596606083,28.512396694214882,1.7045454545454561,1845788.0,9312.0,0.0,1.0,0.0,?,0.0,0.0
9500000.0,10.328125,2.8773062189834003E-7,9500000.0,66.3,20.37765092806111,29.64509394572025,10.610079575596826,1865788.0,9312.0,0.0,1.0,0.0,?,0.0,0.0
9600000.0,10.46875,2.9136248890103586E-7,9600000.0,55.300000000000004,14.437970399748881,4.077253218884124,-19.518716577540093,1885788.0,9312.0,0.0,1.0,0.0,?,0.0,0.0
9700000.0,10.5625,2.934150850503811E-7,9700000.0,65.60000000000001,17.967110534549217,22.171945701357462,3.9106145251396685,1905788.0,9312.0,0.0,1.0,0.0,?,0.0,0.0
9800000.0,10.6875,2.9566034855734994E-7,9800000.0,62.3,12.453440092144499,21.45833333333333,0.0,1925788.0,9312.0,0.0,1.0,0.0,?,0.0,0.0
9900000.0,10.8125,2.974140807054939E-7,9900000.0,56.99999999999999,17.984008789062493,7.327586206896535,-18.78453038674035,1945788.0,9312.0,0.0,1.0,0.0,?,0.0,0.0
1.0E7,10.953125,2.9883405659347795E-7,1.0E7,66.10000000000001,17.453978766923147,27.71855010660981,4.507042253521131,1965788.0,9312.0,0.0,1.0,0.0,?,0.0,0.0
