learning evaluation instances,evaluation time (cpu seconds),model cost (RAM-Hours),classified instances,classifications correct (percent),Kappa Statistic (percent),Kappa Temporal Statistic (percent),Kappa M Statistic (percent),model training instances,model serialized size (bytes),labeling cost,newThreshold,maxPosterior,accuracyBaseLearner (percent),Change detected,Warning detected
100000.0,0.3125,1.9745332085424E-9,100000.0,71.1,42.20970876892681,41.616161616161605,41.851106639839024,20000.0,2904.0,20000.0,0.5614667658769004,0.5584711351752836,0.0,0.0,7.0
200000.0,0.59375,3.75161309623056E-9,200000.0,71.39999999999999,42.814639452300206,41.03092783505154,41.273100616016414,40000.0,2904.0,40000.0,0.5449086067574979,0.5147323823635096,0.0,0.0,0.0
300000.0,0.890625,5.6274196443458395E-9,300000.0,69.89999999999999,39.52714648494003,40.748031496062985,33.55408388520969,60000.0,2904.0,60000.0,0.5558148543957179,0.5257461813253961,0.0,0.0,0.0
400000.0,1.203125,7.60195285288824E-9,400000.0,71.39999999999999,42.79199087872301,45.73055028462998,42.222222222222214,80000.0,2904.0,80000.0,0.5502657850632418,0.5406835936172821,0.0,0.0,0.0
500000.0,1.5,9.477759401003519E-9,500000.0,73.2,46.4,45.96774193548387,43.93305439330543,100000.0,2904.0,100000.0,0.5502198369380888,0.5365304284931277,0.0,0.0,0.0
600000.0,1.796875,1.1353565949118798E-8,600000.0,68.10000000000001,36.11618443397739,34.76482617586913,31.837606837606845,120000.0,2904.0,120000.0,0.5501738926496709,0.5155001960392631,0.0,0.0,0.0
700000.0,2.09375,1.3229372497234077E-8,700000.0,70.8,41.52632316719065,43.19066147859922,39.793814432989684,140000.0,2904.0,140000.0,0.5286621490125518,0.5102090208653444,0.0,0.0,0.0
800000.0,2.375,1.500645238492224E-8,800000.0,72.39999999999999,44.75226595778752,45.98825831702544,37.837837837837824,160000.0,2904.0,160000.0,0.5392432267246202,0.5340622409616947,0.0,0.0,0.0
900000.0,2.6875,1.6980985593464638E-8,900000.0,68.89999999999999,37.65036086607858,37.67535070140279,34.663865546218474,180000.0,2904.0,180000.0,0.5500360828016966,0.53116481135203,0.0,0.0,0.0
1000000.0,2.984375,1.8856792141579917E-8,1000000.0,69.0,38.01909012024296,35.28183716075155,39.21568627450979,200000.0,2904.0,200000.0,0.5554900553956255,0.545237230528987,0.0,0.0,0.0
1100000.0,3.28125,2.0732598689695196E-8,1100000.0,71.3,42.596785419983505,43.05555555555555,43.94531249999999,220000.0,2904.0,220000.0,0.5284855943881726,0.5161271146637076,0.0,0.0,0.0
1200000.0,3.578125,2.2608405237810475E-8,1200000.0,72.1,44.20892657174851,44.4223107569721,43.292682926829265,240000.0,2904.0,240000.0,0.555397290547637,0.5026914825167663,0.0,0.0,0.0
1300000.0,3.890625,2.4582938446352875E-8,1300000.0,69.6,39.29518514968529,38.08553971486761,34.76394849785407,260000.0,2904.0,260000.0,0.5609044230724018,0.5180514234091882,0.0,0.0,0.0
1400000.0,4.1875,2.6458744994468154E-8,1400000.0,69.1,38.187637527505494,39.41176470588235,38.69047619047618,280000.0,2904.0,280000.0,0.5498064764267632,0.5394975845811885,0.0,0.0,0.0
1500000.0,4.484375,2.8334551542583433E-8,1500000.0,70.5,41.145958024100224,40.28340080971659,37.100213219616194,300000.0,2904.0,300000.0,0.538928111611275,0.5347848472816593,0.0,0.0,0.0
1600000.0,4.796875,3.030908475112583E-8,1600000.0,69.8,39.54946335136172,40.90019569471623,37.34439834024895,320000.0,2904.0,320000.0,0.538883110201049,0.5372304430712558,0.0,0.0,0.0
1700000.0,5.109375,3.228361795966823E-8,1700000.0,69.89999999999999,39.797591903676135,39.5582329317269,39.92015968063871,340000.0,2904.0,340000.0,0.5388381125485187,0.5005970203787283,0.0,0.0,0.0
1800000.0,5.40625,3.415942450778351E-8,1800000.0,69.5,38.961912233233534,38.38383838383837,37.37166324435317,360000.0,2904.0,360000.0,0.533458533320165,0.506926810981241,0.0,0.0,0.0
1900000.0,5.703125,3.603523105589879E-8,1900000.0,72.8,45.593688867908675,45.81673306772908,43.096234309623426,380000.0,2904.0,380000.0,0.5495769658984436,0.5487091948494813,0.0,0.0,0.0
2000000.0,6.0,3.791103760401407E-8,2000000.0,69.69999999999999,39.08568211973783,39.27855711422845,33.69803063457329,400000.0,2904.0,400000.0,0.5605766499041946,0.508287540282106,0.0,0.0,0.0
2100000.0,6.296875,3.978684415212935E-8,2100000.0,72.8,45.607614933909254,47.591522157996145,44.147843942505126,420000.0,2904.0,420000.0,0.5228163027203284,0.5157600858562571,0.0,0.0,0.0
2200000.0,6.59375,4.166265070024463E-8,2200000.0,68.5,37.06344005242716,36.87374749498999,34.237995824634666,440000.0,2904.0,440000.0,0.5332803768715803,0.5166822801872123,0.0,0.0,0.0
2300000.0,6.890625,4.3538457248359906E-8,2300000.0,70.7,41.05054764644812,42.09486166007905,36.44251626898046,460000.0,2904.0,460000.0,0.533235847056772,0.5190362154976386,0.0,0.0,0.0
2400000.0,7.171875,4.5315537136048065E-8,2400000.0,67.80000000000001,35.58557116794162,38.549618320610705,31.779661016949156,480000.0,2904.0,480000.0,0.5603894369553551,0.5026522804348316,0.0,0.0,0.0
2500000.0,7.484375,4.7290070344590464E-8,2500000.0,68.8,37.584271236351555,42.329020332717185,35.934291581108816,500000.0,2904.0,500000.0,0.543863049233288,0.5179104403072009,0.0,0.0,0.0
2600000.0,7.78125,4.916587689270574E-8,2600000.0,73.3,46.59059994559042,46.060606060606055,46.27766599597585,520000.0,2904.0,520000.0,0.5384333027202088,0.5228750675638928,0.0,0.0,0.0
2700000.0,8.078125,5.104168344082102E-8,2700000.0,70.89999999999999,41.69692015483374,41.56626506024096,39.751552795031046,540000.0,2904.0,540000.0,0.5547020477973164,0.5457819230622052,0.0,0.0,0.0
2800000.0,8.375,5.29174899889363E-8,2800000.0,69.3,38.316254771950966,37.72819472616632,31.77777777777776,560000.0,2904.0,560000.0,0.560202286529075,0.5137841722757417,0.0,0.0,0.0
2900000.0,8.6875,5.48920231974787E-8,2900000.0,68.4,36.73926969891096,38.52140077821013,35.245901639344275,580000.0,2904.0,580000.0,0.5657570637760986,0.5524304479279823,0.0,0.0,0.0
3000000.0,8.984375,5.676782974559398E-8,3000000.0,70.89999999999999,41.75386906429891,39.626556016597505,37.68736616702355,600000.0,2904.0,600000.0,0.5436360197217806,0.5292506513268059,0.0,0.0,0.0
3100000.0,9.265625,5.854490963328214E-8,3100000.0,71.0,41.932874402809645,43.35937499999999,39.95859213250517,620000.0,2904.0,620000.0,0.538208539795294,0.5255362643943572,0.0,0.0,0.0
3200000.0,9.578125,6.051944284182454E-8,3200000.0,70.6,41.19623655913978,41.082164328657306,41.78217821782177,640000.0,2904.0,640000.0,0.5381635984705464,0.5181466089157235,0.0,0.0,0.0
3300000.0,9.875,6.239524938993982E-8,3300000.0,73.6,47.236934146097724,45.67901234567901,45.22821576763485,660000.0,2904.0,660000.0,0.5222926706840704,0.5218913165763525,0.0,0.0,0.0
3400000.0,10.171875,6.42710559380551E-8,3400000.0,74.5,49.04036003485239,47.852760736196316,47.852760736196316,680000.0,2904.0,680000.0,0.5327462644344111,0.5254035088438576,0.0,0.0,0.0
3500000.0,10.46875,6.614686248617038E-8,3500000.0,72.2,44.463755608561364,42.56198347107437,39.43355119825707,700000.0,2904.0,700000.0,0.5327017792189058,0.5348749977754421,0.0,0.0,0.0
3600000.0,10.78125,6.812139569471278E-8,3600000.0,71.89999999999999,43.79685262374692,42.76985743380855,41.58004158004157,720000.0,2904.0,720000.0,0.5326572977179825,0.5002917909958244,0.0,0.0,0.0
3700000.0,11.0625,6.989847558240094E-8,3700000.0,70.3,40.14848013413187,40.71856287425149,35.29411764705881,740000.0,2904.0,740000.0,0.5597814265599486,0.5105255652918381,0.0,0.0,0.0
3800000.0,11.359375,7.177428213051622E-8,3800000.0,70.8,41.555114327803736,41.010101010101,40.65040650406503,760000.0,2904.0,760000.0,0.5432729696104354,0.5146662212456462,0.0,0.0,0.0
3900000.0,11.640625,7.355136201820438E-8,3900000.0,72.5,45.02638733407964,46.80851063829787,42.22689075630252,780000.0,2904.0,780000.0,0.5272513618808543,0.519966621093438,0.0,0.0,0.0
4000000.0,11.9375,7.542716856631966E-8,4000000.0,72.6,44.86122738102903,49.165120593692016,39.380530973451314,800000.0,2904.0,800000.0,0.5168192682080341,0.5140615374179625,0.0,0.0,0.0
4100000.0,12.234375,7.730297511443493E-8,4100000.0,68.10000000000001,36.0736815948314,37.57338551859101,30.95238095238096,820000.0,2904.0,820000.0,0.5324349459213942,0.5240033234333297,0.0,0.0,0.0
4200000.0,12.546875,7.927750832297733E-8,4200000.0,69.39999999999999,38.790451310404414,39.644970414201175,38.79999999999999,840000.0,2904.0,840000.0,0.5377143915685146,0.5206839611823988,0.0,0.0,0.0
4300000.0,12.84375,8.115331487109261E-8,4300000.0,74.3,48.61068897669284,48.49699398797595,47.227926078028744,860000.0,2904.0,860000.0,0.5430461864210299,0.5122908799660588,0.0,0.0,0.0
4400000.0,13.15625,8.312784807963501E-8,4400000.0,71.2,42.36403515793855,43.96887159533073,45.45454545454545,880000.0,2904.0,880000.0,0.5430008411445876,0.5046539884451436,0.0,0.0,0.0
4500000.0,13.453125,8.500365462775029E-8,4500000.0,69.0,37.981394418325486,39.33463796477494,37.75100401606424,900000.0,2904.0,900000.0,0.5594075942495911,0.511337968037019,0.0,0.0,0.0
4600000.0,13.75,8.687946117586557E-8,4600000.0,71.0,42.024349773095295,42.11576846307384,41.53225806451612,920000.0,2904.0,920000.0,0.5593608827678731,0.5556645138268294,0.0,0.0,0.0
4700000.0,14.046875,8.875526772398085E-8,4700000.0,70.1,40.22391043582566,44.52690166975881,37.447698744769866,940000.0,2904.0,940000.0,0.5537764110758947,0.5218400682761937,0.0,0.0,0.0
4800000.0,14.34375,9.063107427209613E-8,4800000.0,71.0,41.97400435395056,42.91338582677165,41.05691056910568,960000.0,2904.0,960000.0,0.5482476928787285,0.55266495064212,0.0,0.0,0.0
4900000.0,14.640625,9.250688082021141E-8,4900000.0,72.8,45.39402626707941,46.03174603174603,40.74074074074073,980000.0,2904.0,980000.0,0.5374001698536318,0.5359918112254831,0.0,0.0,0.0
5000000.0,14.9375,9.438268736832669E-8,5000000.0,69.0,37.77299588900307,39.33463796477494,35.01048218029349,1000000.0,2904.0,1000000.0,0.5163878774877464,0.5011533949521733,0.0,0.0,0.0
5100000.0,15.234375,9.62609515732361E-8,5100000.0,62.7,25.28942835396387,24.646464646464647,23.877551020408163,17346.0,2904.0,1020000.0,0.599460234567565,0.5219596655798133,0.0,1.0,18.0
5200000.0,15.515625,9.804035976736079E-8,5200000.0,63.800000000000004,27.152131303252396,21.98275862068965,23.14225053078556,37346.0,2904.0,1040000.0,0.5646715027342345,0.5339497916149889,0.0,0.0,0.0
5300000.0,15.8125,9.99186239722702E-8,5300000.0,67.4,34.28055349482308,31.22362869198313,29.43722943722944,57346.0,2904.0,1060000.0,0.5759733011765606,0.5437153436873653,0.0,0.0,0.0
5400000.0,16.109375,1.0179688817717961E-7,5400000.0,69.0,37.97146687476239,36.86354378818736,37.11967545638944,77346.0,2904.0,1080000.0,0.5816844584945574,0.5755651986762409,0.0,0.0,0.0
5500000.0,16.40625,1.0367515238208902E-7,5500000.0,67.0,33.581563852269305,35.546875000000014,30.526315789473692,97346.0,2904.0,1100000.0,0.60525263622325,0.5772024632847971,0.0,0.0,0.0
5600000.0,16.71875,1.0565227259778313E-7,5600000.0,67.30000000000001,34.53401028236464,38.41807909604521,31.589958158995824,117346.0,2904.0,1120000.0,0.5932772243925871,0.5232231995053958,0.0,0.0,0.0
5700000.0,17.0,1.0743168079190783E-7,5700000.0,64.7,28.755378666171527,26.91511387163561,23.42733188720173,137346.0,2904.0,1140000.0,0.6297231412452275,0.5220275349798343,0.0,0.0,0.0
5800000.0,17.296875,1.0930994499681724E-7,5800000.0,65.8,31.008049060942877,31.0483870967742,23.146067415730336,157346.0,2904.0,1160000.0,0.5931781492228214,0.56906335284224,0.0,0.0,0.0
5900000.0,17.578125,1.1108935319094193E-7,5900000.0,65.8,31.521112321394252,36.19402985074627,25.813449023861175,177346.0,2904.0,1180000.0,0.5931286178425622,0.5430050469706527,0.0,0.0,0.0
6000000.0,17.890625,1.1306647340663604E-7,6000000.0,64.9,29.712280926596403,30.079681274900405,28.65853658536586,197346.0,2904.0,1200000.0,0.5813930894993229,0.5176035200663882,0.0,0.0,0.0
6100000.0,18.171875,1.1484588160076074E-7,6100000.0,65.10000000000001,30.006818819943042,30.33932135728543,26.834381551362686,217346.0,2904.0,1220000.0,0.5755886556351711,0.5184817332514337,0.0,0.0,0.0
6200000.0,18.453125,1.1662528979488543E-7,6200000.0,66.10000000000001,31.749547010267765,33.52941176470589,27.40899357601713,237346.0,2904.0,1240000.0,0.5871089589268603,0.5356036662331829,0.0,0.0,0.0
6300000.0,18.75,1.1850355399979484E-7,6300000.0,65.5,30.745698203804384,27.521008403361346,29.735234215885953,257346.0,2904.0,1260000.0,0.5585673840877365,0.5426925371942068,0.0,0.0,0.0
6400000.0,19.046875,1.2038181820470425E-7,6400000.0,64.8,29.654025708256064,28.309572301425668,30.43478260869566,277346.0,2904.0,1280000.0,0.592881022973676,0.556348360914647,0.0,0.0,0.0
6500000.0,19.359375,1.2235893842039836E-7,6500000.0,62.8,25.696297598312583,22.981366459627328,25.301204819277107,297346.0,2904.0,1300000.0,0.5640588463902481,0.5204600944217778,0.0,0.0,0.0
6600000.0,19.640625,1.2413834661452307E-7,6600000.0,65.2,30.008045052292843,32.163742690058484,26.27118644067797,317346.0,2904.0,1320000.0,0.5640117465210993,0.5050747857185464,0.0,0.0,0.0
6700000.0,19.9375,1.2601661081943248E-7,6700000.0,66.7,33.22478182751541,33.92857142857144,31.198347107438025,337346.0,2904.0,1340000.0,0.5810533434622527,0.5702223776417211,0.0,0.0,0.0
6800000.0,20.25,1.279937310351266E-7,6800000.0,64.9,29.65029582952524,30.769230769230777,25.635593220338983,357346.0,2904.0,1360000.0,0.6045959502288347,0.5104100130994355,0.0,0.0,0.0
6900000.0,20.546875,1.29871995240036E-7,6900000.0,68.10000000000001,36.010077911240565,36.83168316831684,34.36213991769549,377346.0,2904.0,1380000.0,0.5695091752149817,0.5067073550196202,0.0,0.0,0.0
7000000.0,20.84375,1.317502594449454E-7,7000000.0,66.2,32.424597446529475,33.20158102766799,28.389830508474578,397346.0,2904.0,1400000.0,0.5751562364364884,0.5468241114809387,0.0,0.0,0.0
7100000.0,21.140625,1.3362852364985482E-7,7100000.0,65.10000000000001,30.207816724526847,31.568627450980397,29.208924949290065,417345.0,2904.0,1419999.0,0.5809173837540216,0.600948469217348,0.0,0.0,0.0
7200000.0,21.453125,1.3560564386554893E-7,7200000.0,62.8,25.547883518462918,26.190476190476193,23.770491803278688,437346.0,2904.0,1440000.0,0.5866188971736366,0.5792977252571424,0.0,0.0,0.0
7300000.0,21.75,1.3748390807045834E-7,7300000.0,67.4,34.21052631578947,34.00809716599191,26.576576576576578,457346.0,2904.0,1460000.0,0.5807622905960736,0.5451843778894524,0.0,0.0,0.0
7400000.0,22.046875,1.3936217227536775E-7,7400000.0,66.60000000000001,33.12536791058823,31.975560081466405,31.975560081466405,477346.0,2904.0,1480000.0,0.5923861432598684,0.5873027812153635,0.0,0.0,0.0
7500000.0,22.359375,1.4133929249106186E-7,7500000.0,68.30000000000001,36.58883963577591,36.97813121272367,36.21730382293764,497346.0,2904.0,1500000.0,0.5923366780134396,0.518824844340621,0.0,0.0,0.0
7600000.0,22.65625,1.4321755669597127E-7,7600000.0,64.7,28.61360750022246,27.216494845360828,22.246696035242287,517346.0,2904.0,1520000.0,0.5922872168974561,0.5841573281008531,0.0,0.0,0.0
7700000.0,22.953125,1.4509582090088068E-7,7700000.0,64.8,29.51570077813065,26.819126819126822,27.720739219712527,537346.0,2904.0,1540000.0,0.5748201350008988,0.5745853751646338,0.0,0.0,0.0
7800000.0,23.25,1.469740851057901E-7,7800000.0,63.3,26.426956200984726,28.46003898635478,22.2457627118644,557346.0,2904.0,1560000.0,0.6162335269969614,0.5043366592845434,0.0,0.0,0.0
7900000.0,23.5625,1.489512053214842E-7,7900000.0,66.4,32.82337746464231,34.117647058823536,31.845841784989865,577346.0,2904.0,1580000.0,0.5747241420989058,0.5282647590624082,0.0,0.0,0.0
8000000.0,23.859375,1.5082946952639362E-7,8000000.0,66.0,31.367759803308065,32.9388560157791,24.944812362030905,597346.0,2904.0,1600000.0,0.6039904109469149,0.5552396769129094,0.0,0.0,0.0
8100000.0,24.171875,1.5280658974208773E-7,8100000.0,68.30000000000001,36.29830879043149,36.472945891783574,32.264957264957275,617346.0,2904.0,1620000.0,0.5633057202503357,0.5293651914120064,0.0,0.0,0.0
8200000.0,24.484375,1.5478370995778184E-7,8200000.0,63.6,26.523131083541575,25.102880658436217,19.29046563192904,637346.0,2904.0,1640000.0,0.5861292444765178,0.5892057644346911,0.0,0.0,0.0
8300000.0,24.796875,1.5676083017347595E-7,8300000.0,63.800000000000004,27.75229815548823,26.86868686868687,25.81967213114754,657346.0,2904.0,1660000.0,0.5978605157557422,0.5776961358114319,0.0,0.0,0.0
8400000.0,25.09375,1.5863909437838536E-7,8400000.0,66.2,32.224325451570486,33.59528487229863,30.737704918032794,677346.0,2904.0,1680000.0,0.5802290722710616,0.5007112276112475,0.0,0.0,0.0
8500000.0,25.40625,1.6061621459407947E-7,8500000.0,67.80000000000001,35.494985836942554,31.779661016949156,34.15132924335379,697346.0,2904.0,1700000.0,0.5977606751927579,0.5294667393899101,0.0,0.0,0.0
8600000.0,25.703125,1.6249447879898888E-7,8600000.0,64.0,27.857735454315907,31.94706994328923,25.311203319502074,717346.0,2904.0,1720000.0,0.5630705746145358,0.5109019864824108,0.0,0.0,0.0
8700000.0,26.0,1.643727430038983E-7,8700000.0,65.60000000000001,30.493536302983525,29.07216494845361,26.33832976445396,737346.0,2904.0,1740000.0,0.5630235572677579,0.5544729842142158,0.0,0.0,0.0
8800000.0,26.3125,1.663498632195924E-7,8800000.0,65.0,29.501718143840666,28.42535787321064,25.37313432835821,757346.0,2904.0,1760000.0,0.585835649063138,0.540113413438865,0.0,0.0,0.0
8900000.0,26.609375,1.682281274245018E-7,8900000.0,68.30000000000001,36.63903035729991,37.72102161100197,38.2066276803119,777346.0,2904.0,1780000.0,0.5975610440830349,0.5475987312975202,0.0,0.0,0.0
9000000.0,26.921875,1.7020524764019592E-7,9000000.0,67.2,34.16695100656323,33.603238866396765,33.061224489795926,797346.0,2904.0,1800000.0,0.5741964676107921,0.5754586513032516,0.0,0.0,0.0
9100000.0,27.21875,1.7208351184510533E-7,9100000.0,65.0,29.479559146501188,27.385892116182575,22.048997772828503,817346.0,2904.0,1820000.0,0.5798900064454336,0.5095251365240913,0.0,0.0,0.0
9200000.0,27.515625,1.7396177605001474E-7,9200000.0,65.0,29.876582785702844,26.004228329809724,27.083333333333336,837346.0,2904.0,1840000.0,0.579841584647605,0.5390980085157729,0.0,0.0,0.0
9300000.0,27.828125,1.7593889626570885E-7,9300000.0,66.0,31.8090653830726,27.50533049040512,30.04115226337449,857346.0,2904.0,1860000.0,0.5914470095476371,0.5528937156451607,0.0,0.0,0.0
9400000.0,28.125,1.7780855867183883E-7,9400000.0,65.8,31.270925189808807,30.62880324543611,28.8981288981289,877346.0,2904.0,1880000.0,0.5973115989476803,0.5667432045757336,0.0,0.0,0.0
9500000.0,28.421875,1.796782210779688E-7,9500000.0,66.8,33.6764047816915,35.029354207436405,36.03082851637766,897346.0,2904.0,1900000.0,0.5796963435125962,0.5152179009089712,0.0,0.0,0.0
9600000.0,28.734375,1.8164628676863194E-7,9600000.0,65.2,29.979879275653925,30.815109343936385,25.957446808510635,917346.0,2904.0,1920000.0,0.5739088493920381,0.5750189312877655,0.0,0.0,0.0
9700000.0,29.03125,1.8351594917476192E-7,9700000.0,65.5,30.50015713007953,28.865979381443303,26.12419700214133,937346.0,2904.0,1940000.0,0.5795995363012688,0.525584699757639,0.0,0.0,0.0
9800000.0,29.328125,1.853856115808919E-7,9800000.0,65.5,30.212800388380927,31.13772455089821,23.841059602649008,957346.0,2904.0,1960000.0,0.556937252969255,0.5497013786891355,0.0,0.0,0.0
9900000.0,29.640625,1.8735367727155502E-7,9900000.0,66.5,32.800012838206506,34.442270058708424,29.621848739495803,977346.0,2904.0,1980000.0,0.5852977727089571,0.5458248014969267,0.0,0.0,0.0
1.0E7,29.9375,1.89223339677685E-7,1.0E7,65.9,31.940474859889196,32.20675944333997,29.399585921325055,997346.0,2904.0,2000000.0,0.591101388347017,0.581737655739003,0.0,0.0,0.0
