learning evaluation instances,evaluation time (cpu seconds),model cost (RAM-Hours),classified instances,classifications correct (percent),Kappa Statistic (percent),Kappa Temporal Statistic (percent),Kappa M Statistic (percent),model training instances,model serialized size (bytes),labeling cost,newThreshold,maxPosterior,accuracyBaseLearner (percent),Change detected,Warning detected,tree size (nodes),tree size (leaves),active learning leaves,tree depth,active leaf byte size estimate,inactive leaf byte size estimate,byte size estimate overhead
100000.0,0.40625,3.0066197117169696E-8,100000.0,83.39999999999999,66.72533164420959,66.8,65.63146997929606,29944.0,246192.0,29944.0,1.0,0.0,0.0,0.0,0.0,79.0,58.0,58.0,4.0,0.0,0.0,1.0
200000.0,0.828125,8.043968894829352E-8,200000.0,85.8,71.47987322602802,72.21135029354208,69.97885835095137,59702.0,421056.0,59702.0,1.0,0.0,0.0,0.0,0.0,143.0,102.0,102.0,4.0,0.0,0.0,1.0
300000.0,1.234375,1.4378133022950754E-7,300000.0,84.0,67.78804533832617,68.503937007874,66.02972399150742,89831.0,561680.0,89831.0,1.0,0.0,0.0,0.0,0.0,196.0,136.0,136.0,5.0,0.0,0.0,1.0
400000.0,1.703125,2.588035487052467E-7,400000.0,89.2,78.37430867871032,78.86497064579257,77.16701902748414,119923.0,906472.0,119923.0,1.0,0.0,0.0,0.0,0.0,310.0,220.0,220.0,5.0,0.0,0.0,1.0
500000.0,2.109375,3.673394934998618E-7,500000.0,91.7,83.39933597343895,84.1300191204589,83.43313373253494,149866.0,990408.0,149866.0,1.0,0.0,0.0,0.0,0.0,342.0,242.0,242.0,5.0,0.0,0.0,1.0
600000.0,2.5625,5.187850911170244E-7,600000.0,91.3,82.5560412238842,83.36520076481835,81.95020746887968,179971.0,1248800.0,179971.0,1.0,0.0,0.0,0.0,0.0,439.0,310.0,310.0,6.0,0.0,0.0,1.0
700000.0,3.0625,7.136094953036971E-7,700000.0,91.5,82.99714352011138,82.79352226720648,82.75862068965519,209925.0,1462264.0,209925.0,1.0,0.0,0.0,0.0,0.0,509.0,357.0,357.0,6.0,0.0,0.0,1.0
800000.0,3.5625,9.34904156666663E-7,800000.0,93.5,86.96370696017715,86.59793814432992,86.19957537154991,239901.0,1666128.0,239901.0,1.0,0.0,0.0,0.0,0.0,601.0,418.0,418.0,6.0,0.0,0.0,1.0
900000.0,4.046875,1.162299368944433E-6,900000.0,93.2,86.18851859675351,86.77042801556422,84.61538461538463,269842.0,1769624.0,269842.0,1.0,0.0,0.0,0.0,0.0,625.0,433.0,433.0,6.0,0.0,0.0,1.0
1000000.0,4.53125,1.396518362323857E-6,1000000.0,93.0,85.99142675317295,85.82995951417006,85.74338085539715,299958.0,1823784.0,299958.0,1.0,0.0,0.0,0.0,0.0,658.0,451.0,451.0,6.0,0.0,0.0,1.0
1100000.0,5.015625,1.6369366009409229E-6,1100000.0,94.19999999999999,88.30140423489166,88.13905930470347,87.13968957871396,329733.0,1873000.0,329733.0,1.0,0.0,0.0,0.0,0.0,674.0,459.0,459.0,6.0,0.0,0.0,1.0
1200000.0,5.5,1.8848392452734213E-6,1200000.0,94.5,88.99709523314155,89.15187376725837,88.272921108742,359647.0,1932440.0,359647.0,1.0,0.0,0.0,0.0,0.0,697.0,472.0,472.0,7.0,0.0,0.0,1.0
1300000.0,6.0,2.1525903462639285E-6,1300000.0,93.60000000000001,87.19892470967562,87.62088974854933,86.85831622176593,389776.0,2023720.0,389776.0,1.0,0.0,0.0,0.0,0.0,742.0,502.0,502.0,7.0,0.0,0.0,1.0
1400000.0,6.546875,2.469543994973517E-6,1400000.0,94.1,88.17170672248015,87.95918367346938,87.55274261603374,419941.0,2193400.0,419941.0,1.0,0.0,0.0,0.0,0.0,811.0,547.0,547.0,7.0,0.0,0.0,1.0
1500000.0,7.125,2.833236519816435E-6,1500000.0,96.2,92.36269942398674,92.22903885480572,91.86295503211991,449864.0,2383984.0,449864.0,1.0,0.0,0.0,0.0,0.0,887.0,594.0,594.0,7.0,0.0,0.0,1.0
1600000.0,7.71875,3.2372666949716705E-6,1600000.0,94.89999999999999,89.7833263886663,90.09708737864077,89.26315789473684,479874.0,2581696.0,479874.0,1.0,0.0,0.0,0.0,0.0,964.0,640.0,640.0,7.0,0.0,0.0,1.0
1700000.0,8.296875,3.6443427800097398E-6,1700000.0,95.3,90.58418142479364,90.6,90.20833333333333,509732.0,2672744.0,509732.0,1.0,0.0,0.0,0.0,0.0,1004.0,663.0,663.0,7.0,0.0,0.0,1.0
1800000.0,8.875,4.067162291095075E-6,1800000.0,95.5,90.95550106524098,91.19373776908023,90.42553191489361,539822.0,2777576.0,539822.0,1.0,0.0,0.0,0.0,0.0,1045.0,688.0,688.0,7.0,0.0,0.0,1.0
1900000.0,9.453125,4.504744105765389E-6,1900000.0,94.19999999999999,88.39995359981438,87.55364806866952,88.46918489065605,569987.0,2875856.0,569987.0,1.0,0.0,0.0,0.0,0.0,1088.0,714.0,714.0,7.0,0.0,0.0,1.0
2000000.0,10.015625,4.937868474775718E-6,2000000.0,95.5,90.95949855351975,90.46610169491525,90.38461538461537,599779.0,2926240.0,599779.0,1.0,0.0,0.0,0.0,0.0,1115.0,729.0,729.0,7.0,0.0,0.0,1.0
2100000.0,10.59375,5.392213125661429E-6,2100000.0,95.39999999999999,90.773131358516,90.81836327345309,90.29535864978902,629723.0,2987368.0,629723.0,1.0,0.0,0.0,0.0,0.0,1133.0,738.0,738.0,7.0,0.0,0.0,1.0
2200000.0,11.1875,5.867337167728692E-6,2200000.0,94.8,89.59333973743195,89.23395445134574,89.36605316973414,659772.0,3042464.0,659772.0,1.0,0.0,0.0,0.0,0.0,1159.0,754.0,754.0,7.0,0.0,0.0,1.0
2300000.0,11.78125,6.350913091510948E-6,2300000.0,95.5,90.92858985937298,90.54621848739495,90.04424778761062,689949.0,3097224.0,689949.0,1.0,0.0,0.0,0.0,0.0,1184.0,768.0,768.0,7.0,0.0,0.0,1.0
2400000.0,12.375,6.8517429948163524E-6,2400000.0,95.39999999999999,90.76219891797234,90.87301587301586,90.14989293361883,719873.0,3209120.0,719873.0,1.0,0.0,0.0,0.0,0.0,1231.0,799.0,799.0,8.0,0.0,0.0,1.0
2500000.0,12.96875,7.365625513355351E-6,2500000.0,94.89999999999999,89.79256899022488,90.19230769230768,89.5277207392197,749823.0,3293768.0,749823.0,1.0,0.0,0.0,0.0,0.0,1255.0,814.0,814.0,8.0,0.0,0.0,1.0
2600000.0,13.578125,7.896433881897892E-6,2600000.0,96.3,92.58647773538934,92.41803278688523,92.22689075630251,779947.0,3315248.0,779947.0,1.0,0.0,0.0,0.0,0.0,1265.0,819.0,819.0,8.0,0.0,0.0,1.0
2700000.0,14.203125,8.448216637286046E-6,2700000.0,96.3,92.58879425691646,92.24318658280922,92.38683127572016,809985.0,3360544.0,809985.0,1.0,0.0,0.0,0.0,0.0,1283.0,828.0,828.0,8.0,0.0,0.0,1.0
2800000.0,14.84375,9.02551307161856E-6,2800000.0,96.2,92.39391513210568,92.98892988929889,92.24489795918367,839998.0,3430816.0,839998.0,1.0,0.0,0.0,0.0,0.0,1332.0,854.0,854.0,9.0,0.0,0.0,1.0
2900000.0,15.484375,9.61509740187062E-6,2900000.0,96.8,93.56478651179252,93.75,93.10344827586206,869891.0,3504560.0,869891.0,1.0,0.0,0.0,0.0,0.0,1367.0,873.0,873.0,9.0,0.0,0.0,1.0
3000000.0,16.15625,1.0253604430343126E-5,3000000.0,96.8,93.60040957378726,93.6127744510978,93.66336633663366,899984.0,3619952.0,899984.0,1.0,0.0,0.0,0.0,0.0,1417.0,901.0,901.0,9.0,0.0,0.0,1.0
3100000.0,16.796875,1.0871429177415039E-5,3100000.0,97.0,94.00028798617666,94.01197604790418,93.87755102040816,929764.0,3674040.0,929764.0,1.0,0.0,0.0,0.0,0.0,1443.0,914.0,914.0,9.0,0.0,0.0,1.0
3200000.0,17.46875,1.1535670491866766E-5,3200000.0,96.89999999999999,93.77139826081365,93.72469635627529,93.24618736383442,959879.0,3767368.0,959879.0,1.0,0.0,0.0,0.0,0.0,1477.0,937.0,937.0,9.0,0.0,0.0,1.0
3300000.0,18.125,1.2197118485346434E-5,3300000.0,97.2,94.35686386740242,94.29735234215886,93.92624728850325,989986.0,3841608.0,989986.0,1.0,0.0,0.0,0.0,0.0,1508.0,957.0,957.0,9.0,0.0,0.0,1.0
3400000.0,18.921875,1.3006145212178427E-5,3400000.0,95.8,91.58303139128482,91.0828025477707,90.96774193548386,1019707.0,3869776.0,1019707.0,1.0,0.0,0.0,0.0,0.0,1520.0,963.0,963.0,9.0,3951.5991649269313,0.0,1.0181317148629343
3500000.0,19.5625,1.3661265871228855E-5,3500000.0,96.0,91.9286818326735,91.73553719008264,91.1699779249448,1049292.0,3898152.0,1049292.0,1.0,0.0,0.0,0.0,0.0,1528.0,967.0,967.0,9.0,3951.5991649269313,0.0,1.0181317148629343
3600000.0,20.234375,1.435328274965286E-5,3600000.0,96.8,93.58707153621701,93.34719334719334,93.31941544885177,1079112.0,3926400.0,1079112.0,1.0,0.0,0.0,0.0,0.0,1553.0,981.0,981.0,9.0,3951.5991649269313,0.0,1.0181317148629343
3700000.0,20.890625,1.504038945616533E-5,3700000.0,96.6,93.19850367080758,93.15895372233399,93.10344827586206,1109386.0,3991920.0,1109386.0,1.0,0.0,0.0,0.0,0.0,1573.0,991.0,991.0,9.0,3951.5991649269313,0.0,1.0181317148629343
3800000.0,21.5625,1.5749771102693756E-5,3800000.0,96.1,92.19906388766651,92.12121212121211,92.15291750503017,1139163.0,4025784.0,1139163.0,1.0,0.0,0.0,0.0,0.0,1594.0,1003.0,1003.0,9.0,3951.5991649269313,0.0,1.0181317148629343
3900000.0,22.265625,1.650270320371621E-5,3900000.0,96.3,92.51436432791131,92.43353783231083,91.74107142857142,1169127.0,4083496.0,1169127.0,1.0,0.0,0.0,0.0,0.0,1614.0,1013.0,1013.0,9.0,3951.5991649269313,0.0,1.0181317148629343
4000000.0,22.921875,1.7208884172658952E-5,4000000.0,97.3,94.5938153247315,94.61077844311376,94.45585215605749,1198972.0,4103648.0,1198972.0,1.0,0.0,0.0,0.0,0.0,1628.0,1020.0,1020.0,9.0,3951.5991649269313,0.0,1.0181317148629343
4100000.0,23.609375,1.795536314602941E-5,4100000.0,97.89999999999999,95.75496870805505,95.83333333333333,95.3125,1228880.0,4140912.0,1228880.0,1.0,0.0,0.0,0.0,0.0,1648.0,1030.0,1030.0,9.0,3951.5991649269313,0.0,1.0181317148629343
4200000.0,24.28125,1.8693873328932872E-5,4200000.0,98.2,96.37682618024887,96.47058823529412,96.09544468546638,1258911.0,4192488.0,1258911.0,1.0,0.0,0.0,0.0,0.0,1668.0,1043.0,1043.0,9.0,3951.5991649269313,0.0,1.0181317148629343
4300000.0,24.984375,1.9476060600330433E-5,4300000.0,96.8,93.5899747204628,93.22033898305084,93.37474120082815,1288946.0,4243488.0,1288946.0,1.0,0.0,0.0,0.0,0.0,1697.0,1059.0,1059.0,9.0,3951.5991649269313,0.0,1.0181317148629343
4400000.0,25.6875,2.0266898985331258E-5,4400000.0,97.3,94.57735503462459,94.82758620689656,94.26751592356688,1318965.0,4290752.0,1318965.0,1.0,0.0,0.0,0.0,0.0,1723.0,1072.0,1072.0,9.0,3951.5991649269313,0.0,1.0181317148629343
4500000.0,26.390625,2.1065614322045198E-5,4500000.0,97.3,94.58244712869698,94.05286343612335,94.25531914893617,1349153.0,4333824.0,1349153.0,1.0,0.0,0.0,0.0,0.0,1737.0,1079.0,1079.0,9.0,3951.5991649269313,0.0,1.0181317148629343
4600000.0,27.078125,2.185421404040729E-5,4600000.0,97.7,95.39922707014779,95.61068702290076,95.33468559837728,1379057.0,4376488.0,1379057.0,1.0,0.0,0.0,0.0,0.0,1757.0,1089.0,1089.0,9.0,3951.5991649269313,0.0,1.0181317148629343
4700000.0,27.765625,2.264570215225427E-5,4700000.0,97.3,94.59961117200439,94.58917835671342,94.40993788819874,1409092.0,4392592.0,1409092.0,1.0,0.0,0.0,0.0,0.0,1775.0,1098.0,1098.0,9.0,3951.5991649269313,0.0,1.0181317148629343
4800000.0,28.46875,2.345901305994226E-5,4800000.0,97.7,95.36809544140036,95.39078156312625,94.98910675381264,1439400.0,4413464.0,1439400.0,1.0,0.0,0.0,0.0,0.0,1803.0,1112.0,1112.0,9.0,3951.5991649269313,0.0,1.0181317148629343
4900000.0,29.1875,2.430910768453032E-5,4900000.0,97.89999999999999,95.79485289994953,95.8904109589041,95.64315352697095,1469219.0,4513672.0,1469219.0,1.0,0.0,0.0,0.0,0.0,1836.0,1133.0,1133.0,10.0,3951.5991649269313,0.0,1.0181317148629343
5000000.0,29.90625,2.5165722149217297E-5,5000000.0,97.5,94.98173350997631,95.03968253968253,94.72573839662446,1499327.0,4548464.0,1499327.0,1.0,0.0,0.0,0.0,0.0,1868.0,1149.0,1149.0,10.0,3951.5991649269313,0.0,1.0181317148629343
5100000.0,30.703125,2.5213659941477497E-5,5100000.0,80.10000000000001,58.40509673427755,57.83898305084747,51.10565110565112,29453.0,192792.0,1529381.0,1.0,0.0,0.0,1.0,1.0,62.0,45.0,45.0,4.0,0.0,0.0,1.0
5200000.0,31.09375,2.5252883820535826E-5,5200000.0,82.89999999999999,63.91369675687538,66.20553359683794,57.35660847880298,59421.0,347928.0,1559349.0,1.0,0.0,0.0,0.0,0.0,113.0,81.0,81.0,4.0,0.0,0.0,1.0
5300000.0,31.484375,2.5301530873144256E-5,5300000.0,85.7,70.3644140858147,70.20833333333333,65.03667481662592,89380.0,440736.0,1589308.0,1.0,0.0,0.0,0.0,0.0,157.0,106.0,106.0,5.0,0.0,0.0,1.0
5400000.0,31.921875,2.5375941865301385E-5,5400000.0,87.5,74.01636345495062,75.0499001996008,68.43434343434343,119325.0,616144.0,1619253.0,1.0,0.0,0.0,0.0,0.0,217.0,145.0,145.0,5.0,0.0,0.0,1.0
5500000.0,32.34375,2.546049693288903E-5,5500000.0,84.7,68.2691111203285,68.12499999999999,61.84538653366584,149169.0,733016.0,1649097.0,1.0,0.0,0.0,0.0,0.0,259.0,172.0,172.0,6.0,0.0,0.0,1.0
5600000.0,32.765625,2.55517889551508E-5,5600000.0,88.3,76.0581480056642,76.45875251509054,72.00956937799043,178733.0,794496.0,1678661.0,1.0,0.0,0.0,0.0,0.0,283.0,187.0,187.0,6.0,0.0,0.0,1.0
5700000.0,33.265625,2.568426959138985E-5,5700000.0,89.60000000000001,78.61138532411978,79.07444668008048,75.23809523809526,208791.0,981592.0,1708719.0,1.0,0.0,0.0,0.0,0.0,349.0,232.0,232.0,7.0,0.0,0.0,1.0
5800000.0,33.734375,2.582507974390562E-5,5800000.0,90.9,80.92035190419082,81.23711340206187,76.4857881136951,238855.0,1118024.0,1738783.0,1.0,0.0,0.0,0.0,0.0,402.0,266.0,266.0,7.0,0.0,0.0,1.0
5900000.0,34.21875,2.5989520137146534E-5,5900000.0,88.7,76.96773036346146,76.9857433808554,73.8425925925926,268864.0,1268608.0,1768792.0,1.0,0.0,0.0,0.0,0.0,458.0,303.0,303.0,7.0,0.0,0.0,1.0
6000000.0,34.671875,2.6150302372924573E-5,6000000.0,90.10000000000001,79.52955188328123,79.95951417004049,75.91240875912409,299098.0,1327632.0,1799026.0,1.0,0.0,0.0,0.0,0.0,485.0,318.0,318.0,8.0,0.0,0.0,1.0
6100000.0,35.140625,2.6323808738703117E-5,6100000.0,89.4,78.19961746498572,77.82426778242679,74.45783132530121,329209.0,1386584.0,1829137.0,1.0,0.0,0.0,0.0,0.0,504.0,329.0,329.0,8.0,0.0,0.0,1.0
6200000.0,35.59375,2.6495930732279604E-5,6200000.0,91.10000000000001,81.69251655901593,82.09255533199196,78.9598108747045,359222.0,1423888.0,1859150.0,1.0,0.0,0.0,0.0,0.0,524.0,339.0,339.0,8.0,0.0,0.0,1.0
6300000.0,36.09375,2.6696658686786477E-5,6300000.0,91.9,83.37997882486192,83.5030549898167,80.80568720379148,389413.0,1507016.0,1889341.0,1.0,0.0,0.0,0.0,0.0,558.0,359.0,359.0,8.0,0.0,0.0,1.0
6400000.0,36.5625,2.6887970776038453E-5,6400000.0,92.5,84.48104618440657,84.75609756097562,81.4814814814815,419608.0,1532672.0,1919536.0,1.0,0.0,0.0,0.0,0.0,572.0,366.0,366.0,8.0,0.0,0.0,1.0
6500000.0,37.046875,2.709816669165674E-5,6500000.0,91.7,82.56522287106668,82.95687885010268,78.98734177215191,449545.0,1632016.0,1949473.0,1.0,0.0,0.0,0.0,0.0,621.0,395.0,395.0,8.0,0.0,0.0,1.0
6600000.0,37.578125,2.7345980245930454E-5,6600000.0,91.4,82.05499517988825,81.0989010989011,78.66004962779158,479663.0,1757152.0,1979591.0,1.0,0.0,0.0,0.0,0.0,672.0,425.0,425.0,8.0,0.0,0.0,1.0
6700000.0,38.125,2.7621186875169062E-5,6700000.0,93.30000000000001,86.02582927317629,85.56034482758622,83.41584158415843,509461.0,1898592.0,2009389.0,1.0,0.0,0.0,0.0,0.0,724.0,454.0,454.0,8.0,0.0,0.0,1.0
6800000.0,38.65625,2.79040243023903E-5,6800000.0,91.7,82.74428274428274,83.06122448979593,79.25000000000001,539441.0,2010944.0,2039369.0,1.0,0.0,0.0,0.0,0.0,778.0,490.0,490.0,9.0,0.0,0.0,1.0
6900000.0,39.1875,2.81993353079694E-5,6900000.0,92.60000000000001,84.41823151138944,83.73626373626375,80.87855297157624,569431.0,2101296.0,2069359.0,1.0,0.0,0.0,0.0,0.0,803.0,504.0,504.0,9.0,0.0,0.0,1.0
7000000.0,39.734375,2.8512274406643378E-5,7000000.0,91.0,81.05422701246212,81.05263157894737,77.27272727272728,599570.0,2164224.0,2099498.0,1.0,0.0,0.0,0.0,0.0,828.0,518.0,518.0,9.0,0.0,0.0,1.0
7100000.0,40.234375,2.8803494836514194E-5,7100000.0,93.60000000000001,86.863926700711,87.30158730158732,84.68899521531101,629478.0,2203536.0,2129406.0,1.0,0.0,0.0,0.0,0.0,841.0,526.0,526.0,9.0,0.0,0.0,1.0
7200000.0,40.78125,2.9133021825044932E-5,7200000.0,92.60000000000001,84.48975485428754,85.43307086614173,81.21827411167514,659366.0,2281032.0,2159294.0,1.0,0.0,0.0,0.0,0.0,870.0,545.0,545.0,9.0,0.0,0.0,1.0
7300000.0,41.328125,2.9467748374574714E-5,7300000.0,91.9,83.09075878654276,83.66935483870968,79.85074626865672,689122.0,2317600.0,2189050.0,1.0,0.0,0.0,0.0,0.0,891.0,557.0,557.0,9.0,0.0,0.0,1.0
7400000.0,41.890625,2.9820341280558043E-5,7400000.0,92.9,85.21449396084965,85.20833333333334,82.25000000000001,718972.0,2374336.0,2218900.0,1.0,0.0,0.0,0.0,0.0,922.0,574.0,574.0,9.0,0.0,0.0,1.0
7500000.0,42.46875,3.0202426262096397E-5,7500000.0,91.9,83.41550506953203,84.08644400785855,81.2064965197216,748804.0,2505568.0,2248732.0,1.0,0.0,0.0,0.0,0.0,974.0,609.0,609.0,9.0,0.0,0.0,1.0
7600000.0,43.0625,3.061478543612692E-5,7600000.0,94.0,87.58278145695363,87.551867219917,85.57692307692307,778917.0,2634896.0,2278845.0,1.0,0.0,0.0,0.0,0.0,1024.0,640.0,640.0,9.0,0.0,0.0,1.0
7700000.0,43.671875,3.105454392627709E-5,7700000.0,92.60000000000001,84.92116213011,84.80492813141684,82.90993071593535,809100.0,2739488.0,2309028.0,1.0,0.0,0.0,0.0,0.0,1058.0,663.0,663.0,9.0,0.0,0.0,1.0
7800000.0,44.28125,3.1507984806214355E-5,7800000.0,93.2,86.08746890140108,86.71875000000001,84.11214953271029,839038.0,2825880.0,2338966.0,1.0,0.0,0.0,0.0,0.0,1096.0,685.0,685.0,9.0,0.0,0.0,1.0
7900000.0,44.890625,3.1970474552104454E-5,7900000.0,94.39999999999999,88.49516797054761,88.4297520661157,86.27450980392156,869141.0,2883000.0,2369069.0,1.0,0.0,0.0,0.0,0.0,1121.0,699.0,699.0,9.0,0.0,0.0,1.0
8000000.0,45.5,3.2444428296811465E-5,8000000.0,94.19999999999999,87.8648901981789,87.5268817204301,85.35353535353534,899160.0,2955408.0,2399088.0,1.0,0.0,0.0,0.0,0.0,1149.0,716.0,716.0,9.0,0.0,0.0,1.0
8100000.0,46.140625,3.295911320795615E-5,8100000.0,94.0,87.6932165009353,87.42138364779873,85.84905660377358,929330.0,3054040.0,2429258.0,1.0,0.0,0.0,0.0,0.0,1195.0,742.0,742.0,9.0,0.0,0.0,1.0
8200000.0,46.78125,3.348669457611524E-5,8200000.0,94.6,88.86285638859556,88.65546218487394,86.95652173913042,959472.0,3131464.0,2459400.0,1.0,0.0,0.0,0.0,0.0,1228.0,760.0,760.0,9.0,0.0,0.0,1.0
8300000.0,47.40625,3.401197085622698E-5,8300000.0,95.0,89.52010463127536,89.36170212765956,87.30964467005074,989380.0,3196504.0,2489308.0,1.0,0.0,0.0,0.0,0.0,1262.0,780.0,780.0,9.0,0.0,0.0,1.0
8400000.0,48.1875,3.468843765505072E-5,8400000.0,95.1,89.5187165775401,89.08685968819599,86.75675675675674,1019322.0,3294400.0,2519250.0,1.0,0.0,0.0,0.0,0.0,1305.0,806.0,806.0,9.0,4014.1795195954487,0.0,1.01929443540219
8500000.0,48.84375,3.5273158056144086E-5,8500000.0,94.6,88.83074441020125,88.74999999999999,86.92493946731233,1049350.0,3391080.0,2549278.0,1.0,0.0,0.0,0.0,0.0,1341.0,827.0,827.0,9.0,4014.1795195954487,0.0,1.01929443540219
8600000.0,49.5,3.5874099186104204E-5,8600000.0,95.0,89.65779719353984,89.20086393088552,87.86407766990291,1079360.0,3486144.0,2579288.0,1.0,0.0,0.0,0.0,0.0,1376.0,846.0,846.0,9.0,4014.1795195954487,0.0,1.01929443540219
8700000.0,50.171875,3.649866211667864E-5,8700000.0,93.10000000000001,85.90156431338576,86.00405679513186,84.2105263157895,1109756.0,3539472.0,2609684.0,1.0,0.0,0.0,0.0,0.0,1399.0,859.0,859.0,9.0,4014.1795195954487,0.0,1.01929443540219
8800000.0,50.8125,3.709713223442021E-5,8800000.0,95.1,89.94005091566066,89.70588235294117,88.65740740740739,1139829.0,3557256.0,2639757.0,1.0,0.0,0.0,0.0,0.0,1412.0,867.0,867.0,9.0,4014.1795195954487,0.0,1.01929443540219
8900000.0,51.5,3.7758493239784404E-5,8900000.0,94.5,88.72340774517362,89.08730158730158,87.11943793911006,1169856.0,3664104.0,2669784.0,1.0,0.0,0.0,0.0,0.0,1458.0,893.0,893.0,9.0,4014.1795195954487,0.0,1.01929443540219
9000000.0,52.203125,3.845424358991699E-5,9000000.0,94.8,89.2829908699326,89.30041152263374,87.409200968523,1199667.0,3770056.0,2699595.0,1.0,0.0,0.0,0.0,0.0,1494.0,914.0,914.0,9.0,4014.1795195954487,0.0,1.01929443540219
9100000.0,52.875,3.9126540165549765E-5,9100000.0,94.5,88.46718389599496,88.7295081967213,86.0759493670886,1229889.0,3812760.0,2729817.0,1.0,0.0,0.0,0.0,0.0,1520.0,927.0,927.0,10.0,4014.1795195954487,0.0,1.01929443540219
9200000.0,53.578125,3.9844946392501394E-5,9200000.0,95.6,90.78591920926434,90.71729957805907,88.86075949367088,1259862.0,3894080.0,2759790.0,1.0,0.0,0.0,0.0,0.0,1550.0,948.0,948.0,10.0,4014.1795195954487,0.0,1.01929443540219
9300000.0,54.265625,4.056079132068489E-5,9300000.0,95.0,89.51170703261019,89.49579831932772,87.08010335917311,1289895.0,3969088.0,2789823.0,1.0,0.0,0.0,0.0,0.0,1577.0,963.0,963.0,10.0,4014.1795195954487,0.0,1.01929443540219
9400000.0,54.96875,4.130605747276503E-5,9400000.0,94.1,87.80941361213273,88.19999999999999,85.60975609756096,1320072.0,4041056.0,2820000.0,1.0,0.0,0.0,0.0,0.0,1611.0,983.0,983.0,10.0,4014.1795195954487,0.0,1.01929443540219
9500000.0,55.671875,4.2064826346985585E-5,9500000.0,94.0,87.51035599648624,87.31501057082451,85.0374064837905,1349868.0,4114920.0,2849796.0,1.0,0.0,0.0,0.0,0.0,1642.0,1000.0,1000.0,10.0,4014.1795195954487,0.0,1.01929443540219
9600000.0,56.359375,4.281532061415621E-5,9600000.0,94.0,87.66076988569759,87.47390396659706,85.7482185273159,1379840.0,4163024.0,2879768.0,1.0,0.0,0.0,0.0,0.0,1657.0,1009.0,1009.0,10.0,4014.1795195954487,0.0,1.01929443540219
9700000.0,57.0625,4.3595038425539516E-5,9700000.0,95.7,91.14738168372682,91.22448979591836,89.71291866028707,1409933.0,4229680.0,2909861.0,1.0,0.0,0.0,0.0,0.0,1684.0,1027.0,1027.0,10.0,4014.1795195954487,0.0,1.01929443540219
9800000.0,57.796875,4.441984880637998E-5,9800000.0,95.6,90.43977055449331,90.30837004405285,87.77777777777777,1439612.0,4284312.0,2939540.0,1.0,0.0,0.0,0.0,0.0,1710.0,1040.0,1040.0,10.0,4014.1795195954487,0.0,1.01929443540219
9900000.0,58.515625,4.523405679113542E-5,9900000.0,95.5,90.71728565181157,90.28077753779696,89.26014319809067,1469462.0,4321440.0,2969390.0,1.0,0.0,0.0,0.0,0.0,1732.0,1051.0,1051.0,10.0,4014.1795195954487,0.0,1.01929443540219
1.0E7,59.234375,4.605668716572432E-5,1.0E7,95.8,91.34406120160918,91.12050739957715,89.80582524271844,1499500.0,4366504.0,2999428.0,1.0,0.0,0.0,0.0,0.0,1757.0,1065.0,1065.0,10.0,4014.1795195954487,0.0,1.01929443540219
