learning evaluation instances,evaluation time (cpu seconds),model cost (RAM-Hours),classified instances,classifications correct (percent),Kappa Statistic (percent),Kappa Temporal Statistic (percent),Kappa M Statistic (percent),model training instances,model serialized size (bytes),labeling cost,newThreshold,maxPosterior,accuracyBaseLearner (percent),Change detected,Warning detected,tree size (nodes),tree size (leaves),active learning leaves,tree depth,active leaf byte size estimate,inactive leaf byte size estimate,byte size estimate overhead
100000.0,0.421875,1.0582152754068374E-8,100000.0,89.1,72.21570806611133,73.28431372549021,61.347517730496456,17983.0,13064.0,0.0,1.0,0.0,?,3.0,47.0,13.0,7.0,7.0,4.0,0.0,0.0,1.0
200000.0,0.734375,1.9171016497744454E-8,200000.0,91.5,79.00093878156036,79.90543735224588,70.98976109215019,37983.0,31704.0,0.0,1.0,0.0,?,0.0,0.0,33.0,17.0,17.0,6.0,0.0,0.0,1.0
300000.0,1.046875,2.8204845471514595E-8,300000.0,89.3,73.12314122658951,75.11627906976744,64.45182724252493,57983.0,46616.0,0.0,1.0,0.0,?,0.0,0.0,49.0,25.0,25.0,8.0,0.0,0.0,1.0
400000.0,1.375,3.7516519013378356E-8,400000.0,88.7,70.96906792724283,73.15914489311164,60.62717770034845,77983.0,54072.0,0.0,1.0,0.0,?,0.0,0.0,57.0,29.0,29.0,8.0,0.0,0.0,1.0
500000.0,1.6875,4.682004348271423E-8,500000.0,88.8,71.83906022920995,73.45971563981043,62.79069767441862,97983.0,68864.0,0.0,1.0,0.0,?,0.0,0.0,73.0,37.0,37.0,8.0,0.0,0.0,1.0
600000.0,1.984375,6.035681710475021E-8,600000.0,88.7,71.20285423037717,73.8425925925926,62.33333333333334,117883.0,91352.0,0.0,1.0,0.0,?,0.0,0.0,97.0,49.0,49.0,9.0,0.0,0.0,1.0
700000.0,2.296875,7.474575088255935E-8,700000.0,90.60000000000001,75.98180749674222,75.83547557840618,67.2473867595819,137883.0,102536.0,0.0,1.0,0.0,?,0.0,0.0,109.0,55.0,55.0,10.0,0.0,0.0,1.0
800000.0,2.609375,8.957964989046256E-8,800000.0,89.5,72.90574295033237,72.72727272727273,63.41463414634148,157883.0,117448.0,0.0,1.0,0.0,?,0.0,0.0,125.0,63.0,63.0,10.0,0.0,0.0,1.0
900000.0,2.953125,1.0685807663119502E-7,900000.0,89.1,72.1316002086295,73.67149758454107,62.283737024221466,177883.0,137592.0,0.0,1.0,0.0,?,0.0,0.0,147.0,74.0,74.0,10.0,0.0,0.0,1.0
1000000.0,3.3125,1.2474263914757305E-7,1000000.0,90.3,74.1883980840873,74.87046632124354,64.72727272727275,197883.0,145168.0,0.0,1.0,0.0,?,0.0,0.0,155.0,78.0,78.0,10.0,0.0,0.0,1.0
1100000.0,3.65625,1.4646961871120667E-7,1100000.0,89.2,74.05006415400807,76.52173913043478,65.93059936908517,217783.0,158456.0,0.0,1.0,0.0,?,0.0,0.0,169.0,85.0,85.0,10.0,0.0,0.0,1.0
1200000.0,4.015625,1.694980568976866E-7,1200000.0,91.5,78.13111042502831,79.26829268292684,69.64285714285717,237783.0,171264.0,0.0,1.0,0.0,?,0.0,0.0,183.0,92.0,92.0,10.0,0.0,0.0,1.0
1300000.0,4.390625,1.9426813297387627E-7,1300000.0,91.2,77.54792752062785,78.99761336515513,69.96587030716725,257783.0,188280.0,0.0,1.0,0.0,?,0.0,0.0,201.0,101.0,101.0,10.0,0.0,0.0,1.0
1400000.0,4.765625,2.1882788536863195E-7,1400000.0,89.7,74.89274570982839,74.87804878048782,67.0926517571885,277783.0,195616.0,0.0,1.0,0.0,?,0.0,0.0,209.0,105.0,105.0,10.0,0.0,0.0,1.0
1500000.0,5.125,2.428760247615477E-7,1500000.0,90.0,74.31484858603243,74.87437185929649,64.66431095406362,297783.0,210528.0,0.0,1.0,0.0,?,0.0,0.0,225.0,113.0,113.0,10.0,0.0,0.0,1.0
1600000.0,5.5,2.7297714647526545E-7,1600000.0,90.5,76.00767754318618,77.32696897374703,67.90540540540542,317683.0,223576.0,0.0,1.0,0.0,?,0.0,0.0,239.0,120.0,120.0,10.0,0.0,0.0,1.0
1700000.0,5.875,3.0377908842638136E-7,1700000.0,89.4,73.38983391239734,74.3961352657005,65.35947712418302,337683.0,240184.0,0.0,1.0,0.0,?,0.0,0.0,257.0,129.0,129.0,10.0,0.0,0.0,1.0
1800000.0,6.234375,3.331339879271885E-7,1800000.0,89.5,73.2533140417554,73.88059701492537,63.286713286713294,357683.0,247928.0,0.0,1.0,0.0,?,0.0,0.0,265.0,133.0,133.0,10.0,0.0,0.0,1.0
1900000.0,6.59375,3.6351602627999256E-7,1900000.0,90.0,75.24274488638896,76.6355140186916,66.5551839464883,377683.0,268312.0,0.0,1.0,0.0,?,0.0,0.0,287.0,144.0,144.0,11.0,0.0,0.0,1.0
2000000.0,6.96875,3.957087432758676E-7,2000000.0,89.1,70.4055257499077,70.54054054054055,58.71212121212122,397683.0,282768.0,0.0,1.0,0.0,?,0.0,0.0,303.0,152.0,152.0,11.0,0.0,0.0,1.0
2100000.0,7.328125,4.314562991364963E-7,2100000.0,91.0,77.63919600486969,78.72340425531917,70.0996677740864,417583.0,296752.0,0.0,1.0,0.0,?,0.0,0.0,321.0,161.0,161.0,11.0,0.0,0.0,1.0
2200000.0,7.71875,4.713447156569196E-7,2200000.0,90.5,74.86107435829585,76.42679900744417,65.82733812949641,437583.0,316320.0,0.0,1.0,0.0,?,0.0,0.0,339.0,170.0,170.0,11.0,0.0,0.0,1.0
2300000.0,8.109375,5.114295830329259E-7,2300000.0,88.3,71.24600638977637,72.07637231503581,62.25806451612904,457583.0,327720.0,0.0,1.0,0.0,?,0.0,0.0,351.0,176.0,176.0,11.0,0.0,0.0,1.0
2400000.0,8.484375,5.502851369480292E-7,2400000.0,89.8,73.29745069191017,72.43243243243244,63.440860215053775,477583.0,341008.0,0.0,1.0,0.0,?,0.0,0.0,365.0,183.0,183.0,11.0,0.0,0.0,1.0
2500000.0,8.859375,5.905857930580775E-7,2500000.0,89.1,72.02603375354167,74.10926365795724,62.54295532646049,497583.0,365192.0,0.0,1.0,0.0,?,0.0,0.0,391.0,196.0,196.0,11.0,0.0,0.0,1.0
2600000.0,9.234375,6.356990585724513E-7,2600000.0,89.3,74.2800826883323,74.70449172576834,67.57575757575758,517483.0,376256.0,0.0,1.0,0.0,?,0.0,0.0,403.0,202.0,202.0,11.0,0.0,0.0,1.0
2700000.0,9.609375,6.813742220401764E-7,2700000.0,90.7,76.81954137587239,78.95927601809956,69.00000000000001,537483.0,391456.0,0.0,1.0,0.0,?,0.0,0.0,419.0,210.0,210.0,11.0,0.0,0.0,1.0
2800000.0,10.0,7.291028871097499E-7,2800000.0,90.60000000000001,74.47206048492222,76.26262626262627,64.92537313432837,557483.0,402400.0,0.0,1.0,0.0,?,0.0,0.0,431.0,216.0,216.0,11.0,0.0,0.0,1.0
2900000.0,10.375,7.748905853885744E-7,2900000.0,89.7,73.90264419422515,74.6928746928747,65.55183946488296,577483.0,411552.0,0.0,1.0,0.0,?,0.0,0.0,441.0,221.0,221.0,11.0,0.0,0.0,1.0
3000000.0,10.765625,8.226111660607988E-7,3000000.0,89.7,74.54401660817558,76.21247113163973,66.7741935483871,597483.0,421280.0,0.0,1.0,0.0,?,0.0,0.0,451.0,226.0,226.0,11.0,0.0,0.0,1.0
3100000.0,11.15625,8.755162707529963E-7,3100000.0,88.8,72.5961703148015,72.54901960784315,63.75404530744338,617383.0,433920.0,0.0,1.0,0.0,?,0.0,0.0,465.0,233.0,233.0,11.0,0.0,0.0,1.0
3200000.0,11.5625,9.305258087503414E-7,3200000.0,88.5,71.77027385289122,73.13084112149532,63.37579617834395,637383.0,443288.0,0.0,1.0,0.0,?,0.0,0.0,475.0,238.0,238.0,11.0,0.0,0.0,1.0
3300000.0,11.96875,9.85184742603451E-7,3300000.0,89.3,72.37569060773481,73.18295739348372,62.4561403508772,657383.0,449456.0,0.0,1.0,0.0,?,0.0,0.0,487.0,244.0,244.0,12.0,0.0,0.0,1.0
3400000.0,12.375,1.039998379484233E-6,3400000.0,90.0,73.54847242428251,75.96153846153847,63.63636363636365,677383.0,460400.0,0.0,1.0,0.0,?,0.0,0.0,495.0,248.0,248.0,12.0,0.0,0.0,1.0
3500000.0,12.78125,1.0955779645074573E-6,3500000.0,89.0,70.74919294364167,71.2041884816754,59.706959706959715,697383.0,477080.0,0.0,1.0,0.0,?,0.0,0.0,511.0,256.0,256.0,12.0,0.0,0.0,1.0
3600000.0,13.1875,1.1567504002919627E-6,3600000.0,88.3,70.77922077922078,73.34851936218678,61.00000000000001,717283.0,491704.0,0.0,1.0,0.0,?,0.0,0.0,527.0,264.0,264.0,12.0,0.0,0.0,1.0
3700000.0,13.578125,1.2155692416450215E-6,3700000.0,89.7,73.21196358907672,74.25,64.48275862068967,737283.0,501168.0,0.0,1.0,0.0,?,0.0,0.0,539.0,270.0,270.0,12.0,0.0,0.0,1.0
3800000.0,14.0,1.2798785206137432E-6,3800000.0,90.4,76.40581989775856,77.62237762237764,68.62745098039217,757283.0,517752.0,0.0,1.0,0.0,?,0.0,0.0,555.0,278.0,278.0,12.0,0.0,0.0,1.0
3900000.0,14.390625,1.3390603514077761E-6,3900000.0,91.2,78.44574205431674,78.5888077858881,71.05263157894738,777283.0,523680.0,0.0,1.0,0.0,?,0.0,0.0,561.0,281.0,281.0,12.0,0.0,0.0,1.0
4000000.0,14.796875,1.4002016784312824E-6,4000000.0,89.60000000000001,74.14427494580242,76.62921348314606,65.1006711409396,797283.0,529320.0,0.0,1.0,0.0,?,0.0,0.0,569.0,285.0,285.0,12.0,0.0,0.0,1.0
4100000.0,15.203125,1.4665289199911057E-6,4100000.0,88.6,71.05203016683173,72.53012048192772,61.35593220338984,817183.0,540024.0,0.0,1.0,0.0,?,0.0,0.0,581.0,291.0,291.0,12.0,0.0,0.0,1.0
4200000.0,15.625,1.5368618187494575E-6,4200000.0,88.4,70.9016475687825,71.07231920199501,60.54421768707484,837183.0,562656.0,0.0,1.0,0.0,?,0.0,0.0,607.0,304.0,304.0,12.0,0.0,0.0,1.0
4300000.0,16.015625,1.6027957382094527E-6,4300000.0,87.6,69.29005542649674,70.4057279236277,58.24915824915825,857183.0,580056.0,0.0,1.0,0.0,?,0.0,0.0,627.0,314.0,314.0,12.0,0.0,0.0,1.0
4400000.0,16.4375,1.675152517337766E-6,4400000.0,89.60000000000001,74.51779833777638,74.75728155339807,65.56291390728478,877183.0,599936.0,0.0,1.0,0.0,?,0.0,0.0,643.0,322.0,322.0,12.0,0.0,0.0,1.0
4500000.0,16.828125,1.7422926288822458E-6,4500000.0,90.10000000000001,74.93290120018231,75.12562814070353,66.32653061224491,897183.0,610808.0,0.0,1.0,0.0,?,0.0,0.0,655.0,328.0,328.0,12.0,0.0,0.0,1.0
4600000.0,17.25,1.8198400761725174E-6,4600000.0,89.1,72.80601959962478,74.5920745920746,64.14473684210527,917083.0,618456.0,0.0,1.0,0.0,?,0.0,0.0,663.0,332.0,332.0,12.0,0.0,0.0,1.0
4700000.0,17.6875,1.9000758442820773E-6,4700000.0,90.10000000000001,74.76138032305434,76.97674418604652,66.09589041095892,937083.0,626320.0,0.0,1.0,0.0,?,0.0,0.0,675.0,338.0,338.0,12.0,0.0,0.0,1.0
4800000.0,18.109375,1.9780223050879104E-6,4800000.0,91.4,78.15429166560826,78.60696517412936,69.61130742049471,957083.0,641016.0,0.0,1.0,0.0,?,0.0,0.0,689.0,345.0,345.0,12.0,0.0,0.0,1.0
4900000.0,18.53125,2.056176567243205E-6,4900000.0,91.60000000000001,78.67240818979526,80.73394495412846,70.62937062937064,977083.0,652368.0,0.0,1.0,0.0,?,0.0,0.0,703.0,352.0,352.0,12.0,0.0,0.0,1.0
5000000.0,18.953125,2.134967330170588E-6,5000000.0,90.10000000000001,74.79710395812756,75.43424317617867,65.74394463667821,997083.0,666968.0,0.0,1.0,0.0,?,0.0,0.0,715.0,358.0,358.0,12.0,0.0,0.0,1.0
5100000.0,19.46875,2.1483044515156906E-6,5100000.0,88.4,76.68576022510301,76.70682730923694,74.27937915742794,16118.0,14928.0,0.0,1.0,0.0,?,4.0,79.0,15.0,8.0,8.0,4.0,0.0,0.0,1.0
5200000.0,19.875,2.1587956709683765E-6,5200000.0,91.10000000000001,82.19430217669654,82.41106719367589,81.76229508196722,36118.0,24248.0,0.0,1.0,0.0,?,0.0,23.0,25.0,13.0,13.0,4.0,0.0,0.0,1.0
5300000.0,20.25,2.1701127924542456E-6,5300000.0,88.7,77.21186112545173,77.079107505071,75.27352297592998,56118.0,50344.0,0.0,1.0,0.0,?,0.0,0.0,53.0,27.0,27.0,6.0,0.0,0.0,1.0
5400000.0,20.625,2.1808649115781813E-6,5400000.0,89.1,78.07493945464931,79.11877394636015,76.7590618336887,76118.0,54072.0,0.0,1.0,0.0,?,0.0,0.0,57.0,29.0,29.0,7.0,0.0,0.0,1.0
5500000.0,21.015625,2.19237224276488E-6,5500000.0,89.0,77.84589605294427,77.50511247443764,76.24190064794817,96118.0,66544.0,0.0,1.0,0.0,?,0.0,0.0,71.0,36.0,36.0,8.0,0.0,0.0,1.0
5600000.0,21.375,2.208162364291234E-6,5600000.0,88.3,76.48146659162177,76.50602409638554,75.21186440677965,116018.0,83896.0,0.0,1.0,0.0,?,0.0,0.0,89.0,45.0,45.0,8.0,0.0,0.0,1.0
5700000.0,21.71875,2.224244170873943E-6,5700000.0,90.8,81.22142390594384,80.5084745762712,78.50467289719627,136018.0,104232.0,0.0,1.0,0.0,?,0.0,0.0,111.0,56.0,56.0,8.0,0.0,0.0,1.0
5800000.0,22.09375,2.243254016826136E-6,5800000.0,89.3,78.40634813003011,77.70833333333333,76.83982683982684,156018.0,128632.0,0.0,1.0,0.0,?,0.0,0.0,137.0,69.0,69.0,8.0,0.0,0.0,1.0
5900000.0,22.453125,2.2616577270026834E-6,5900000.0,89.3,78.23132573260743,78.85375494071147,75.7918552036199,176018.0,140080.0,0.0,1.0,0.0,?,0.0,0.0,151.0,76.0,76.0,9.0,0.0,0.0,1.0
6000000.0,22.828125,2.2813575277622374E-6,6000000.0,90.2,80.1513359366139,80.36072144288578,78.02690582959642,196018.0,154608.0,0.0,1.0,0.0,?,0.0,0.0,165.0,83.0,83.0,10.0,0.0,0.0,1.0
6100000.0,23.203125,2.3058303567166958E-6,6100000.0,88.9,77.6465660292246,79.2134831460674,75.92190889370933,215918.0,165168.0,0.0,1.0,0.0,?,0.0,0.0,177.0,89.0,89.0,10.0,0.0,0.0,1.0
6200000.0,23.5625,2.3295668587605987E-6,6200000.0,91.4,82.72988332630482,81.89473684210526,81.74097664543525,235918.0,177648.0,0.0,1.0,0.0,?,0.0,0.0,195.0,98.0,98.0,10.0,0.0,0.0,1.0
6300000.0,23.953125,2.3558532767411734E-6,6300000.0,91.2,82.25434365270138,82.32931726907631,80.95238095238095,255918.0,191888.0,0.0,1.0,0.0,?,0.0,0.0,205.0,103.0,103.0,10.0,0.0,0.0,1.0
6400000.0,24.328125,2.3814537821130618E-6,6400000.0,89.1,78.07793795855322,77.33887733887734,76.85774946921444,275918.0,205080.0,0.0,1.0,0.0,?,0.0,0.0,221.0,111.0,111.0,10.0,0.0,0.0,1.0
6500000.0,24.6875,2.4059541303560962E-6,6500000.0,89.7,79.18081562692022,79.27565392354126,77.2626931567329,295918.0,214208.0,0.0,1.0,0.0,?,0.0,0.0,229.0,115.0,115.0,10.0,0.0,0.0,1.0
6600000.0,25.046875,2.4356043043856816E-6,6600000.0,90.4,80.55806455532648,81.2133072407045,78.61915367483296,315818.0,230984.0,0.0,1.0,0.0,?,0.0,0.0,247.0,124.0,124.0,10.0,0.0,0.0,1.0
6700000.0,25.40625,2.4654151315593883E-6,6700000.0,89.2,78.31804219951415,79.23076923076924,77.45302713987473,335818.0,242168.0,0.0,1.0,0.0,?,0.0,0.0,259.0,130.0,130.0,11.0,0.0,0.0,1.0
6800000.0,25.796875,2.4981868530934054E-6,6800000.0,89.0,77.84045124899275,76.74418604651163,75.55555555555556,355818.0,255240.0,0.0,1.0,0.0,?,0.0,0.0,275.0,138.0,138.0,11.0,0.0,0.0,1.0
6900000.0,26.140625,2.5273688758412994E-6,6900000.0,89.8,79.39402265041353,78.92561983471074,77.38359201773835,375818.0,268528.0,0.0,1.0,0.0,?,0.0,0.0,289.0,145.0,145.0,11.0,0.0,0.0,1.0
7000000.0,26.53125,2.5614575457034837E-6,7000000.0,89.5,78.3692472498043,77.12418300653596,74.2014742014742,395818.0,287072.0,0.0,1.0,0.0,?,0.0,0.0,307.0,154.0,154.0,11.0,0.0,0.0,1.0
7100000.0,26.921875,2.6011535535669985E-6,7100000.0,90.4,80.73990851456546,81.7490494296578,79.74683544303798,415718.0,303848.0,0.0,1.0,0.0,?,0.0,0.0,325.0,163.0,163.0,11.0,0.0,0.0,1.0
7200000.0,27.28125,2.63765900551031E-6,7200000.0,90.7,81.100634043245,80.98159509202455,79.10112359550561,435718.0,313168.0,0.0,1.0,0.0,?,0.0,0.0,335.0,168.0,168.0,11.0,0.0,0.0,1.0
7300000.0,27.65625,2.6757081892962252E-6,7300000.0,88.6,77.08920338758234,75.64102564102564,75.69296375266525,455718.0,322200.0,0.0,1.0,0.0,?,0.0,0.0,345.0,173.0,173.0,11.0,0.0,0.0,1.0
7400000.0,28.046875,2.715683917308019E-6,7400000.0,89.5,78.56162817287904,78.7878787878788,75.46728971962618,475718.0,335008.0,0.0,1.0,0.0,?,0.0,0.0,359.0,180.0,180.0,11.0,0.0,0.0,1.0
7500000.0,28.4375,2.755672580355571E-6,7500000.0,89.1,77.71908881293848,78.41584158415841,74.29245283018868,495718.0,344616.0,0.0,1.0,0.0,?,0.0,0.0,369.0,185.0,185.0,11.0,0.0,0.0,1.0
7600000.0,28.828125,2.800838491465482E-6,7600000.0,89.3,78.6184736387761,78.93700787401575,78.85375494071147,515618.0,357280.0,0.0,1.0,0.0,?,0.0,0.0,383.0,192.0,192.0,11.0,0.0,0.0,1.0
7700000.0,29.21875,2.846032697966115E-6,7700000.0,90.4,80.64352223373753,81.98874296435274,78.80794701986756,535618.0,367032.0,0.0,1.0,0.0,?,0.0,0.0,395.0,198.0,198.0,11.0,0.0,0.0,1.0
7800000.0,29.609375,2.8919633930652504E-6,7800000.0,90.60000000000001,80.57120652807461,80.65843621399178,76.90417690417691,555618.0,383712.0,0.0,1.0,0.0,?,0.0,0.0,411.0,206.0,206.0,11.0,0.0,0.0,1.0
7900000.0,30.0,2.9393678738011255E-6,7900000.0,89.7,79.27415265492068,78.63070539419087,77.94432548179871,575618.0,407584.0,0.0,1.0,0.0,?,0.0,0.0,437.0,219.0,219.0,12.0,0.0,0.0,1.0
8000000.0,30.390625,2.9873924278136757E-6,8000000.0,89.7,79.32806165455787,80.26819923371647,78.13163481953292,595618.0,423120.0,0.0,1.0,0.0,?,0.0,0.0,455.0,228.0,228.0,12.0,0.0,0.0,1.0
8100000.0,30.78125,3.040627375917716E-6,8100000.0,88.8,77.43345892688038,76.56903765690377,75.59912854030502,615518.0,436024.0,0.0,1.0,0.0,?,0.0,0.0,467.0,234.0,234.0,12.0,0.0,0.0,1.0
8200000.0,31.1875,3.0964037028348283E-6,8200000.0,88.4,76.6317485898469,77.16535433070867,75.0,635518.0,449360.0,0.0,1.0,0.0,?,0.0,0.0,485.0,243.0,243.0,12.0,0.0,0.0,1.0
8300000.0,31.59375,3.153495005487154E-6,8300000.0,89.2,78.2157048631422,79.11025145067698,76.15894039735099,655518.0,471200.0,0.0,1.0,0.0,?,0.0,0.0,505.0,253.0,253.0,12.0,0.0,0.0,1.0
8400000.0,31.984375,3.208766413283431E-6,8400000.0,90.7,81.17546089758642,81.43712574850301,79.6943231441048,675518.0,484344.0,0.0,1.0,0.0,?,0.0,0.0,521.0,261.0,261.0,12.0,0.0,0.0,1.0
8500000.0,32.375,3.264578667262362E-6,8500000.0,89.1,77.83129001553843,76.95560253699789,74.88479262672811,695518.0,499112.0,0.0,1.0,0.0,?,0.0,0.0,535.0,268.0,268.0,12.0,0.0,0.0,1.0
8600000.0,32.796875,3.330709263941066E-6,8600000.0,88.1,76.01193355910337,76.00806451612904,74.13043478260869,715418.0,514144.0,0.0,1.0,0.0,?,0.0,0.0,553.0,277.0,277.0,12.0,0.0,0.0,1.0
8700000.0,33.203125,3.3951590497357147E-6,8700000.0,89.8,78.98813447593935,79.35222672064778,76.27906976744187,735418.0,530848.0,0.0,1.0,0.0,?,0.0,0.0,569.0,285.0,285.0,12.0,0.0,0.0,1.0
8800000.0,33.59375,3.457286834923757E-6,8800000.0,90.3,80.40071446467684,80.60000000000001,78.86710239651417,755418.0,541856.0,0.0,1.0,0.0,?,0.0,0.0,581.0,291.0,291.0,12.0,0.0,0.0,1.0
8900000.0,34.0,3.5217904304671612E-6,8900000.0,91.0,81.87822164948454,82.5242718446602,80.43478260869566,775418.0,550304.0,0.0,1.0,0.0,?,0.0,0.0,593.0,297.0,297.0,12.0,0.0,0.0,1.0
9000000.0,34.40625,3.586214992942081E-6,9000000.0,89.4,78.66421909029062,79.53667953667954,77.10583153347731,795418.0,559048.0,0.0,1.0,0.0,?,0.0,0.0,599.0,300.0,300.0,12.0,0.0,0.0,1.0
9100000.0,34.828125,3.658809259326921E-6,9100000.0,88.4,76.61903130227964,76.65995975855131,74.61706783369803,815318.0,572528.0,0.0,1.0,0.0,?,0.0,0.0,615.0,308.0,308.0,12.0,0.0,0.0,1.0
9200000.0,35.25,3.731113651560412E-6,9200000.0,88.6,77.03881246349373,77.15430861723446,75.27114967462039,835318.0,579384.0,0.0,1.0,0.0,?,0.0,0.0,621.0,311.0,311.0,12.0,0.0,0.0,1.0
9300000.0,35.671875,3.803628464488105E-6,9300000.0,87.7,75.15071194220418,75.69169960474308,72.23476297968398,855318.0,590760.0,0.0,1.0,0.0,?,0.0,0.0,635.0,318.0,318.0,12.0,0.0,0.0,1.0
9400000.0,36.078125,3.874014978969676E-6,9400000.0,89.60000000000001,78.95486628245807,79.03225806451614,76.57657657657658,875318.0,605480.0,0.0,1.0,0.0,?,0.0,0.0,649.0,325.0,325.0,13.0,0.0,0.0,1.0
9500000.0,36.5,3.947746040972156E-6,9500000.0,90.3,80.45221877393092,80.44354838709677,79.13978494623656,895318.0,620728.0,0.0,1.0,0.0,?,0.0,0.0,665.0,333.0,333.0,13.0,0.0,0.0,1.0
9600000.0,36.921875,4.026731508525295E-6,9600000.0,88.9,77.70260497854629,77.53036437246963,76.82672233820459,915218.0,630336.0,0.0,1.0,0.0,?,0.0,0.0,679.0,340.0,340.0,13.0,0.0,0.0,1.0
9700000.0,37.359375,4.109221853367571E-6,9700000.0,90.0,79.5664824925622,80.6949806949807,76.85185185185186,935218.0,644864.0,0.0,1.0,0.0,?,0.0,0.0,695.0,348.0,348.0,13.0,0.0,0.0,1.0
9800000.0,37.796875,4.192330622269462E-6,9800000.0,91.10000000000001,82.09385235677095,82.48031496062993,80.73593073593074,955218.0,659752.0,0.0,1.0,0.0,?,0.0,0.0,707.0,354.0,354.0,13.0,0.0,0.0,1.0
9900000.0,38.234375,4.27500024670735E-6,9900000.0,91.10000000000001,82.14901759424919,83.17580340264651,81.41962421711901,975218.0,665392.0,0.0,1.0,0.0,?,0.0,0.0,715.0,358.0,358.0,13.0,0.0,0.0,1.0
1.0E7,38.65625,4.35545516666025E-6,1.0E7,90.2,80.21768619598217,79.91803278688525,78.31858407079646,995218.0,681544.0,0.0,1.0,0.0,?,0.0,0.0,731.0,366.0,366.0,13.0,0.0,0.0,1.0
