learning evaluation instances,evaluation time (cpu seconds),model cost (RAM-Hours),classified instances,classifications correct (percent),Kappa Statistic (percent),Kappa Temporal Statistic (percent),Kappa M Statistic (percent),model training instances,model serialized size (bytes),labeling cost,newThreshold,maxPosterior,accuracyBaseLearner (percent),Change detected,Warning detected
100000.0,0.171875,1.0056020174589423E-9,100000.0,59.8,10.10733452593918,14.285714285714276,2.4271844660194195,30000.0,5144.0,30000.0,1.0,0.7241224122412241,0.0,0.0,19.0
200000.0,0.3125,1.828367304470804E-9,200000.0,62.0,10.613473842679701,18.103448275862064,-2.7027027027027053,60000.0,5144.0,60000.0,1.0,0.5358886017800747,0.0,0.0,0.0
300000.0,0.453125,2.6511325914826657E-9,300000.0,62.8,13.793502996370977,15.64625850340135,3.8759689922480653,90000.0,5144.0,90000.0,1.0,0.5078948538896054,0.0,0.0,0.0
400000.0,0.625,3.656734608941608E-9,400000.0,62.1,10.478925936073914,21.85567010309278,0.5249343832021002,120000.0,5144.0,120000.0,1.0,0.7503657027118262,0.0,0.0,0.0
500000.0,0.78125,4.57091826117701E-9,500000.0,62.3,11.941400155095241,21.129707112970706,1.0498687664042003,150000.0,5144.0,150000.0,1.0,0.7508853173522201,0.0,0.0,0.0
600000.0,0.9375,5.485101913412411E-9,600000.0,61.8,9.21923791689045,21.074380165289252,-2.9649595687331565,180000.0,5144.0,180000.0,1.0,0.5020270418337607,0.0,0.0,0.0
700000.0,1.109375,6.490703930871353E-9,700000.0,65.3,16.06517406196183,25.69593147751606,4.407713498622594,210000.0,5144.0,210000.0,1.0,0.59410813638309,0.0,0.0,0.0
800000.0,1.25,7.313469217883215E-9,800000.0,61.199999999999996,10.845588235294121,16.198704103671698,1.0204081632653068,240000.0,5144.0,240000.0,1.0,0.5324045279263591,0.0,0.0,0.0
900000.0,1.375,8.044816139671537E-9,900000.0,62.6,9.364094610314076,21.593291404612156,-3.8888888888888924,270000.0,5144.0,270000.0,1.0,0.7153296677475445,0.0,0.0,0.0
1000000.0,1.53125,8.958999791906939E-9,1000000.0,61.6,19.959979989994988,18.297872340425524,1.5384615384615397,300000.0,5144.0,300000.0,1.0,0.5061976870487509,0.0,0.0,0.0
1100000.0,1.6875,9.87318344414234E-9,1100000.0,58.099999999999994,12.484439357355889,9.50323974082072,-10.846560846560855,330000.0,5144.0,330000.0,1.0,0.6745083996325648,0.0,0.0,0.0
1200000.0,1.84375,1.0787367096377742E-8,1200000.0,60.3,8.508480825958692,15.711252653927804,-2.3195876288659814,360000.0,5144.0,360000.0,1.0,0.7481781820174237,0.0,0.0,0.0
1300000.0,2.0,1.1701550748613143E-8,1300000.0,60.0,8.330888823701953,14.163090128755353,-0.5025125628140708,390000.0,5144.0,390000.0,1.0,0.7146628462888142,0.0,0.0,0.0
1400000.0,2.15625,1.2615734400848545E-8,1400000.0,59.8,11.920526899295792,17.283950617283946,6.293706293706299,420000.0,5144.0,420000.0,1.0,0.7142429593272079,0.0,0.0,0.0
1500000.0,2.3125,1.3529918053083947E-8,1500000.0,64.2,14.641590050738165,25.10460251046025,1.1049723756906087,450000.0,5144.0,450000.0,1.0,0.5909126067691356,0.0,0.0,0.0
1600000.0,2.46875,1.4444101705319348E-8,1600000.0,63.0,23.11400738105529,23.711340206185564,7.0351758793969905,480000.0,5144.0,480000.0,1.0,0.5063024998742518,0.0,0.0,0.0
1700000.0,2.625,1.535828535755475E-8,1700000.0,62.4,20.179341734316093,16.81415929203539,-2.732240437158472,510000.0,5144.0,510000.0,1.0,0.6901532693792038,0.0,0.0,0.0
1800000.0,2.765625,1.6181050644566613E-8,1800000.0,62.5,10.774619067107002,20.71881606765327,-5.932203389830514,540000.0,5144.0,540000.0,1.0,0.7138241697160591,0.0,0.0,0.0
1900000.0,2.890625,1.6912397566354935E-8,1900000.0,59.099999999999994,13.100013598041867,14.613778705636735,-5.412371134020623,570000.0,5144.0,570000.0,1.0,0.5291190453835452,0.0,0.0,0.0
2000000.0,3.046875,1.782658121859034E-8,2000000.0,61.6,12.44510718634144,13.90134529147981,2.2900763358778646,600000.0,5144.0,600000.0,1.0,0.5895004261728027,0.0,0.0,0.0
2100000.0,3.1875,1.86493465056022E-8,2100000.0,63.0,13.184260541073222,20.940170940170937,2.3746701846965723,630000.0,5144.0,630000.0,1.0,0.5050247116968699,0.0,0.0,0.0
2200000.0,3.34375,1.9563530157837603E-8,2200000.0,61.3,6.963102576184475,17.659574468085097,-7.799442896935941,660000.0,5144.0,660000.0,1.0,0.5338330645319264,0.0,0.0,0.0
2300000.0,3.5,2.0477713810073006E-8,2300000.0,60.099999999999994,7.450361848209298,15.999999999999993,-5.000000000000004,690000.0,5144.0,690000.0,1.0,0.533801574842547,0.0,0.0,0.0
2400000.0,3.65625,2.139189746230841E-8,2400000.0,62.7,11.666635090843661,21.141649048625787,1.0610079575596827,720000.0,5144.0,720000.0,1.0,0.5047358229598894,0.0,0.0,0.0
2500000.0,3.8125,2.2306081114543813E-8,2500000.0,60.9,6.320379510278394,14.442013129102834,-7.123287671232884,750000.0,5144.0,750000.0,1.0,0.7461961152555341,0.0,0.0,0.0
2600000.0,3.96875,2.3220264766779216E-8,2600000.0,62.4,11.395984541427081,16.81415929203539,0.5291005291005296,780000.0,5144.0,780000.0,1.0,0.5040914358055509,0.0,0.0,0.0
2700000.0,4.125,2.413444841901462E-8,2700000.0,60.6,8.201304753028893,16.17021276595744,-3.141361256544505,810000.0,5144.0,810000.0,1.0,0.5892877918547048,0.0,0.0,0.0
2800000.0,4.265625,2.495721370602648E-8,2800000.0,64.60000000000001,16.531482249971695,25.0,5.851063829787239,840000.0,5144.0,840000.0,1.0,0.5049121152811311,0.0,0.0,0.0
2900000.0,4.421875,2.5871397358261884E-8,2900000.0,60.4,11.641854985541395,20.48192771084337,5.263157894736846,870000.0,5144.0,870000.0,1.0,0.5333813449885766,0.0,0.0,0.0
3000000.0,4.578125,2.6785581010497287E-8,3000000.0,61.4,12.594934129187394,17.521367521367516,3.258145363408524,900000.0,5144.0,900000.0,1.0,0.5334487953252286,0.0,0.0,0.0
3100000.0,4.734375,2.769976466273269E-8,3100000.0,60.099999999999994,16.07915061163365,15.466101694915245,-8.423913043478269,930000.0,5144.0,930000.0,1.0,0.690048741085803,0.0,0.0,0.0
3200000.0,4.875,2.8522529949744552E-8,3200000.0,62.6,14.474797506505855,21.097046413502106,4.834605597964381,960000.0,5144.0,960000.0,1.0,0.7126458266194006,0.0,0.0,0.0
3300000.0,5.03125,2.9436713601979955E-8,3300000.0,61.7,11.136890951276111,17.987152034261236,0.5194805194805199,990000.0,5144.0,990000.0,1.0,0.504228107618678,0.0,0.0,0.0
3400000.0,5.1875,3.0350897254215355E-8,3400000.0,59.0,14.783946126826434,14.046121593291394,-5.398457583547563,1020000.0,5144.0,1020000.0,1.0,0.503446824431765,0.0,0.0,0.0
3500000.0,5.34375,3.1265080906450755E-8,3500000.0,61.8,11.542540627909013,18.20128479657387,1.7994858611825209,1050000.0,5144.0,1050000.0,1.0,0.7128243762617493,0.0,0.0,0.0
3600000.0,5.5,3.2179264558686155E-8,3600000.0,63.3,12.592409115158912,20.21739130434782,1.3440860215053776,1080000.0,5144.0,1080000.0,1.0,0.5906052891121356,0.0,0.0,0.0
3700000.0,5.65625,3.3093448210921555E-8,3700000.0,60.0,7.352505188259707,16.492693110647174,-2.0408163265306136,1110000.0,5144.0,1110000.0,1.0,0.712876289461119,0.0,0.0,0.0
3800000.0,5.8125,3.4007631863156955E-8,3800000.0,59.8,17.281567781787952,19.277108433734934,1.7114914425427885,1140000.0,5144.0,1140000.0,1.0,0.5291618565801983,0.0,0.0,0.0
3900000.0,5.96875,3.4921815515392355E-8,3900000.0,62.3,11.606096131301287,16.035634743875267,-0.5333333333333339,1170000.0,5144.0,1170000.0,1.0,0.745847157769425,0.0,0.0,0.0
4000000.0,6.125,3.5835999167627755E-8,4000000.0,59.199999999999996,14.87408458344634,13.924050632911383,-4.347826086956526,1200000.0,5144.0,1200000.0,1.0,0.6904263234174683,0.0,0.0,0.0
4100000.0,6.28125,3.6750182819863154E-8,4100000.0,63.9,16.079299250525377,24.31865828092243,5.989583333333338,1230000.0,5144.0,1230000.0,1.0,0.5344757112553472,0.0,0.0,0.0
4200000.0,6.4375,3.7664366472098554E-8,4200000.0,61.6,19.597989949748744,21.47239263803681,1.0309278350515472,1260000.0,5144.0,1260000.0,1.0,0.6905163463866422,0.0,0.0,0.0
4300000.0,6.59375,3.8578550124333954E-8,4300000.0,60.9,20.38411103056761,18.371607515657615,7.345971563981049,1290000.0,5144.0,1290000.0,1.0,0.5283274053262397,0.0,0.0,0.0
4400000.0,6.75,3.9492733776569354E-8,4400000.0,62.7,13.332403922115338,20.806794055201692,2.356020942408379,1320000.0,5144.0,1320000.0,1.0,0.5341624307029232,0.0,0.0,0.0
4500000.0,6.890625,4.0315499063581216E-8,4500000.0,63.0,11.527278292141716,18.322295805739508,-3.9325842696629247,1350000.0,5144.0,1350000.0,1.0,0.7451388822987938,0.0,0.0,0.0
4600000.0,7.046875,4.1229682715816615E-8,4600000.0,62.3,10.828326789346692,19.27194860813704,-1.8918918918918937,1380000.0,5144.0,1380000.0,1.0,0.712032275226104,0.0,0.0,0.0
4700000.0,7.203125,4.2143866368052015E-8,4700000.0,61.5,10.2555734785406,15.384615384615374,-1.8518518518518534,1410000.0,5144.0,1410000.0,1.0,0.5063000423821034,0.0,0.0,0.0
4800000.0,7.359375,4.3058050020287415E-8,4800000.0,63.7,14.606720427578038,24.688796680497923,3.9682539682539715,1440000.0,5144.0,1440000.0,1.0,0.745079033369645,0.0,0.0,0.0
4900000.0,7.515625,4.3972233672522815E-8,4900000.0,62.9,10.455686425950962,23.029045643153527,-1.923076923076925,1470000.0,5144.0,1470000.0,1.0,0.7450564109718032,0.0,0.0,0.0
5000000.0,7.671875,4.4886417324758215E-8,5000000.0,64.7,15.601928005814617,24.411134903640257,4.336043360433608,1500000.0,5144.0,1500000.0,1.0,0.5907773934474432,0.0,0.0,0.0
5100000.0,7.828125,4.5800600976993615E-8,5100000.0,60.5,15.32181995918297,15.053763440860205,-7.336956521739137,1530000.0,5144.0,1530000.0,1.0,0.503894884166329,0.0,0.0,0.0
5200000.0,7.96875,4.6623366264005476E-8,5200000.0,58.4,12.034002241441291,15.102040816326523,-12.129380053908367,1560000.0,5144.0,1560000.0,1.0,0.5050934142363775,0.0,0.0,0.0
5300000.0,8.125,4.7537549916240876E-8,5300000.0,58.599999999999994,13.772993868301779,16.53225806451612,-5.612244897959188,1590000.0,5144.0,1590000.0,1.0,0.5061731287337472,0.0,0.0,0.0
5400000.0,8.28125,4.8451733568476276E-8,5400000.0,58.099999999999994,12.439083515142398,7.912087912087895,-9.685863874345559,1620000.0,5144.0,1620000.0,1.0,0.6694238558577122,0.0,0.0,0.0
5500000.0,8.4375,4.9365917220711676E-8,5500000.0,59.8,14.90982981965963,14.285714285714276,-8.648648648648656,1650000.0,5144.0,1650000.0,1.0,0.6714811208482094,0.0,0.0,0.0
5600000.0,8.59375,5.0280100872947076E-8,5600000.0,57.199999999999996,10.60052219321148,10.647181628392472,-14.133333333333345,1680000.0,5144.0,1680000.0,1.0,0.6685991422302014,0.0,0.0,0.0
5700000.0,8.75,5.1194284525182476E-8,5700000.0,61.5,17.994376757263357,12.100456621004554,-6.94444444444445,1710000.0,5144.0,1710000.0,1.0,0.6683995065395781,0.0,0.0,0.0
5800000.0,8.90625,5.2108468177417876E-8,5800000.0,64.60000000000001,14.583534407875698,24.680851063829788,2.2099447513812174,1740000.0,5144.0,1740000.0,1.0,0.5000040355450811,0.0,0.0,0.0
5900000.0,9.03125,5.28398150992062E-8,5900000.0,65.7,16.468594139650854,23.2662192393736,2.8328611898017027,1770000.0,5144.0,1770000.0,1.0,0.5111396909759077,0.0,0.0,0.0
6000000.0,9.1875,5.37539987514416E-8,6000000.0,65.10000000000001,18.90887123007575,28.189300411522638,8.63874345549739,1800000.0,5144.0,1800000.0,1.0,0.5119655889572572,0.0,0.0,0.0
6100000.0,9.34375,5.4668182403677E-8,6100000.0,65.3,19.69079800037031,26.79324894514768,8.684210526315796,1830000.0,5144.0,1830000.0,1.0,0.6647530272671835,0.0,0.0,0.0
6200000.0,9.484375,5.549094769068886E-8,6200000.0,65.0,20.005119672340978,27.685950413223143,9.32642487046633,1860000.0,5144.0,1860000.0,1.0,0.5114937392634077,0.0,0.0,0.0
6300000.0,9.640625,5.640513134292426E-8,6300000.0,64.5,16.442276912648033,23.326133909287254,5.585106382978728,1890000.0,5144.0,1890000.0,1.0,0.7113725490196079,0.0,0.0,0.0
6400000.0,9.796875,5.731931499515966E-8,6400000.0,64.60000000000001,19.486899563318776,26.70807453416149,10.606060606060614,1920000.0,5144.0,1920000.0,1.0,0.5145474099891509,0.0,0.0,0.0
6500000.0,9.953125,5.823349864739506E-8,6500000.0,65.3,20.506922999386056,27.708333333333336,9.162303664921474,1950000.0,5144.0,1950000.0,1.0,0.5153023002007011,0.0,0.0,0.0
6600000.0,10.109375,5.914768229963046E-8,6600000.0,63.6,17.974049152473622,22.881355932203387,8.312342569269529,1980000.0,5144.0,1980000.0,1.0,0.5209252475041694,0.0,0.0,0.0
6700000.0,10.265625,6.006186595186586E-8,6700000.0,64.7,14.063412924083677,27.066115702479344,1.1204481792717098,2010000.0,5144.0,2010000.0,1.0,0.5231516913259223,0.0,0.0,0.0
6800000.0,10.40625,6.088463123887772E-8,6800000.0,64.5,17.821030408533662,22.48908296943231,9.2071611253197,2040000.0,5144.0,2040000.0,1.0,0.7178647663986389,0.0,0.0,0.0
6900000.0,10.546875,6.170739652588958E-8,6900000.0,66.0,18.317533381702177,24.444444444444443,5.292479108635102,2070000.0,5144.0,2070000.0,1.0,0.5273072080129565,0.0,0.0,0.0
7000000.0,10.703125,6.262158017812498E-8,7000000.0,64.2,19.597177366830028,27.08757637474542,10.275689223057654,2100000.0,5144.0,2100000.0,1.0,0.7201613218998395,0.0,0.0,0.0
7100000.0,10.859375,6.353576383036038E-8,7100000.0,62.8,15.379540956757138,18.599562363238505,7.231920199501253,2130000.0,5144.0,2130000.0,1.0,0.6645261092665258,0.0,0.0,0.0
7200000.0,11.015625,6.444994748259578E-8,7200000.0,65.5,20.28945325496285,31.000000000000007,12.87878787878789,2160000.0,5144.0,2160000.0,1.0,0.6538641639517391,0.0,0.0,0.0
7300000.0,11.171875,6.536413113483118E-8,7300000.0,68.0,21.07534837834506,25.925925925925945,7.24637681159421,2190000.0,5144.0,2190000.0,1.0,0.5198001822059088,0.0,0.0,0.0
7400000.0,11.328125,6.627831478706658E-8,7400000.0,66.5,20.808275653390822,26.535087719298247,7.967032967032975,2220000.0,5144.0,2220000.0,1.0,0.5361257332541433,0.0,0.0,0.0
7500000.0,11.484375,6.717600626870983E-8,7500000.0,64.1,12.600181129429643,22.629310344827584,1.9125683060109306,2250000.0,5144.0,2250000.0,1.0,0.537540325248568,0.0,0.0,8.0
7600000.0,11.609375,6.789415945402444E-8,7600000.0,65.9,19.01468660346169,30.122950819672134,7.336956521739137,2280000.0,5144.0,2280000.0,1.0,0.6510031554098484,0.0,0.0,0.0
7700000.0,11.75,6.870208178750337E-8,7700000.0,65.4,17.002096536636618,24.618736383442265,4.155124653739616,2310000.0,5144.0,2310000.0,1.0,0.5217093781837714,0.0,0.0,0.0
7800000.0,11.890625,6.95100041209823E-8,7800000.0,63.3,15.051015684313828,20.9051724137931,4.4270833333333375,2340000.0,5144.0,2340000.0,1.0,0.5221103368745549,0.0,0.0,0.0
7900000.0,12.015625,7.02281573062969E-8,7900000.0,65.10000000000001,19.652641563297145,26.371308016877638,7.671957671957679,2370000.0,5144.0,2370000.0,1.0,0.5223825983911201,0.0,0.0,0.0
8000000.0,12.15625,7.103607963977584E-8,8000000.0,61.8,10.422421596169265,17.67241379310344,-1.3262599469496033,2400000.0,5144.0,2400000.0,1.0,0.5450243531715279,0.0,0.0,0.0
8100000.0,12.296875,7.184400197325477E-8,8100000.0,65.5,15.67431219569425,23.50332594235033,1.9886363636363658,2430000.0,5144.0,2430000.0,1.0,0.6471507103781424,0.0,0.0,0.0
8200000.0,12.4375,7.265192430673371E-8,8200000.0,65.3,19.034196968565666,23.230088495575217,6.720430107526888,2460000.0,5144.0,2460000.0,1.0,0.7319269283184671,0.0,0.0,0.0
8300000.0,12.578125,7.345984664021264E-8,8300000.0,64.8,17.098445595854923,25.581395348837212,4.864864864864869,2490000.0,5144.0,2490000.0,1.0,0.5237903502309496,0.0,0.0,0.0
8400000.0,12.71875,7.426776897369158E-8,8400000.0,65.3,17.427350345996075,26.94736842105263,4.143646408839783,2520000.0,5144.0,2520000.0,1.0,0.5242712551309676,0.0,0.0,0.0
8500000.0,12.859375,7.507569130717051E-8,8500000.0,66.0,21.23795404002965,24.107142857142858,10.052910052910063,2550000.0,5144.0,2550000.0,1.0,0.5247226545711697,0.0,0.0,0.0
8600000.0,13.0,7.588361364064944E-8,8600000.0,67.9,22.347476897769614,31.991525423728824,10.335195530726267,2580000.0,5144.0,2580000.0,1.0,0.5249567234220953,0.0,0.0,0.0
8700000.0,13.140625,7.669153597412838E-8,8700000.0,64.2,13.169600628671486,20.267260579064583,0.2785515320334264,2610000.0,5144.0,2610000.0,1.0,0.5252403204272363,0.0,0.0,0.0
8800000.0,13.28125,7.749945830760731E-8,8800000.0,64.2,17.469304575151348,24.152542372881356,6.52741514360314,2640000.0,5144.0,2640000.0,1.0,0.5549673832581509,0.0,0.0,0.0
8900000.0,13.421875,7.830738064108625E-8,8900000.0,64.5,17.791342849467846,24.307036247334754,8.031088082901562,2670000.0,5144.0,2670000.0,1.0,0.7375150159391807,0.0,0.0,0.0
9000000.0,13.5625,7.911530297456518E-8,9000000.0,64.9,19.314054526228677,23.695652173913043,9.067357512953375,2700000.0,5144.0,2700000.0,1.0,0.6416764923139749,0.0,0.0,0.0
9100000.0,13.703125,7.992322530804411E-8,9100000.0,64.0,17.370547190598597,22.077922077922075,5.263157894736847,2730000.0,5144.0,2730000.0,1.0,0.6411077741768804,0.0,0.0,0.0
9200000.0,13.84375,8.073114764152305E-8,9200000.0,67.60000000000001,22.097407093944756,31.501057082452437,8.988764044943828,2760000.0,5144.0,2760000.0,1.0,0.5267994427046397,0.0,0.0,0.0
9300000.0,13.984375,8.153906997500198E-8,9300000.0,63.7,18.299918074848986,25.0,8.793969849246238,2790000.0,5144.0,2790000.0,1.0,0.560185437163631,0.0,0.0,0.0
9400000.0,14.125,8.234699230848092E-8,9400000.0,65.4,16.217891596606083,28.512396694214882,1.7045454545454561,2820000.0,5144.0,2820000.0,1.0,0.6605498752035772,0.0,0.0,0.0
9500000.0,14.265625,8.315491464195985E-8,9500000.0,66.3,20.37765092806111,29.64509394572025,10.610079575596826,2850000.0,5144.0,2850000.0,1.0,0.5276103733195168,0.0,0.0,0.0
9600000.0,14.421875,8.40526061236031E-8,9600000.0,64.0,15.274979760134046,22.746781115879827,3.7433155080213933,2880000.0,5144.0,2880000.0,1.0,0.52786003256241,0.0,0.0,0.0
9700000.0,14.5625,8.486052845708204E-8,9700000.0,65.60000000000001,17.967110534549217,22.171945701357462,3.9106145251396685,2910000.0,5144.0,2910000.0,1.0,0.6380980470720921,0.0,0.0,0.0
9800000.0,14.71875,8.575821993872529E-8,9800000.0,62.3,12.453440092144499,21.45833333333333,0.0,2940000.0,5144.0,2940000.0,1.0,0.6600924790034916,0.0,0.0,0.0
9900000.0,14.84375,8.647637312403989E-8,9900000.0,67.2,20.433154146208928,29.31034482758621,9.392265193370175,2970000.0,5144.0,2970000.0,1.0,0.5656536826450751,0.0,0.0,0.0
1.0E7,14.984375,8.728429545751883E-8,1.0E7,66.10000000000001,17.453978766923147,27.71855010660981,4.507042253521131,3000000.0,5144.0,3000000.0,1.0,0.5290393945385821,0.0,0.0,0.0
