learning evaluation instances,evaluation time (cpu seconds),model cost (RAM-Hours),classified instances,classifications correct (percent),Kappa Statistic (percent),Kappa Temporal Statistic (percent),Kappa M Statistic (percent),model training instances,model serialized size (bytes),labeling cost,newThreshold,maxPosterior,accuracyBaseLearner (percent),Change detected,Warning detected
100000.0,0.484375,1.8770159739587043E-8,100000.0,82.5,64.08812568745587,63.389121338912126,59.39675174013921,19800.0,3024.0,0.0,1.0,0.0,?,0.0,2.0
200000.0,0.953125,3.5188600627912416E-8,200000.0,83.89999999999999,67.39306545690214,68.7378640776699,64.38053097345133,39800.0,3024.0,0.0,1.0,0.0,?,0.0,0.0
300000.0,1.40625,4.945989025549756E-8,300000.0,84.89999999999999,69.52007234441106,68.6070686070686,67.10239651416121,59800.0,3024.0,0.0,1.0,0.0,?,0.0,12.0
400000.0,1.859375,6.202158854446477E-8,400000.0,83.3,66.3794491866645,66.99604743083003,63.69565217391303,79800.0,3024.0,0.0,1.0,0.0,?,0.0,14.0
500000.0,2.3125,7.289526466694143E-8,500000.0,82.89999999999999,65.51418153657512,64.44906444906444,63.066954643628506,99800.0,3024.0,0.0,1.0,0.0,?,0.0,0.0
600000.0,2.78125,8.239766531106499E-8,600000.0,84.0,67.65219641586336,68.503937007874,64.60176991150442,119800.0,3024.0,0.0,1.0,0.0,?,0.0,0.0
700000.0,3.234375,8.991686627268791E-8,700000.0,85.6,70.7372981584819,70.5521472392638,66.74364896073904,139800.0,3024.0,0.0,1.0,0.0,?,0.0,14.0
800000.0,3.6875,9.574804506782028E-8,800000.0,82.8,65.13080004541104,65.46184738955823,61.085972850678715,159800.0,3024.0,0.0,1.0,0.0,?,0.0,0.0
900000.0,4.125,9.974833422650894E-8,900000.0,83.7,67.36736736736736,65.7563025210084,67.33466933867734,179800.0,3024.0,0.0,1.0,0.0,?,0.0,0.0
1000000.0,4.59375,1.0228812849769991E-7,1000000.0,84.2,68.14246367635968,69.26070038910505,65.42669584245075,199800.0,3024.0,0.0,1.0,0.0,?,0.0,9.0
1100000.0,5.046875,1.1995234267993107E-7,1100000.0,83.8,67.40285245162744,68.66537717601547,65.6779661016949,219600.0,3024.0,0.0,1.0,0.0,?,0.0,0.0
1200000.0,5.5,1.3592853469567168E-7,1200000.0,84.3,68.441196098769,68.21862348178136,66.09071274298056,239600.0,3024.0,0.0,1.0,0.0,?,0.0,0.0
1300000.0,5.953125,1.5021670454492174E-7,1300000.0,81.39999999999999,62.68581860493108,63.88349514563105,61.49068322981365,259600.0,3024.0,0.0,1.0,0.0,?,0.0,0.0
1400000.0,6.40625,1.6281779001777374E-7,1400000.0,83.0,65.9782260646814,67.8030303030303,65.86345381526102,279600.0,3024.0,0.0,1.0,0.0,?,0.0,45.0
1500000.0,6.859375,1.737308533241352E-7,1500000.0,83.6,67.12754911825662,65.25423728813558,65.69037656903764,299600.0,3024.0,0.0,1.0,0.0,?,0.0,34.0
1600000.0,7.328125,1.8327399933089816E-7,1600000.0,83.8,67.57198219261441,68.6046511627907,66.39004149377593,319600.0,3024.0,0.0,1.0,0.0,?,0.0,0.0
1700000.0,7.78125,1.908110183042785E-7,1700000.0,82.3,64.3424095667099,62.57928118393233,61.01321585903082,339600.0,3024.0,0.0,1.0,0.0,?,0.0,0.0
1800000.0,8.25,1.9686170465623342E-7,1800000.0,84.7,69.11461908030199,70.1171875,66.5938864628821,359600.0,3024.0,0.0,1.0,0.0,?,0.0,0.0
1900000.0,8.703125,2.0102267929663265E-7,1900000.0,83.5,66.63377228459572,67.0,63.414634146341456,379600.0,3024.0,0.0,1.0,0.0,?,0.0,0.0
2000000.0,9.15625,2.0349563177054132E-7,2000000.0,83.5,66.77861267486529,66.53144016227179,63.414634146341456,399600.0,3024.0,0.0,1.0,0.0,?,0.0,0.0
2100000.0,9.625,2.2178738921259845E-7,2100000.0,83.5,66.85682146874497,67.19681908548706,65.11627906976743,419400.0,3024.0,0.0,1.0,0.0,?,0.0,0.0
2200000.0,10.09375,2.3833291682725156E-7,2200000.0,83.89999999999999,67.77163904235726,68.24457593688362,66.94045174537987,439400.0,3024.0,0.0,1.0,0.0,?,0.0,0.0
2300000.0,10.546875,2.52638904688259E-7,2300000.0,82.3,64.51056662790229,64.95049504950494,63.048016701461364,459400.0,3024.0,0.0,1.0,0.0,?,0.0,0.0
2400000.0,11.015625,2.656919726481041E-7,2400000.0,85.7,71.30035483197662,72.23300970873787,69.5095948827292,479400.0,3024.0,0.0,1.0,0.0,?,0.0,0.0
2500000.0,11.46875,2.766219161761304E-7,2500000.0,83.89999999999999,67.59937533205608,68.4931506849315,65.30172413793103,499400.0,3024.0,0.0,1.0,0.0,?,0.0,0.0
2600000.0,11.921875,2.8586383753766617E-7,2600000.0,83.7,67.3026928138139,68.71401151631477,65.7563025210084,519400.0,3024.0,0.0,1.0,0.0,?,0.0,0.0
2700000.0,12.390625,2.9367821601529917E-7,2700000.0,84.1,67.98485824742268,69.71428571428571,65.80645161290322,539400.0,3024.0,0.0,1.0,0.0,?,0.0,0.0
2800000.0,12.828125,2.9934182142217956E-7,2800000.0,83.3,66.43216080402009,66.39839034205231,64.84210526315789,559400.0,3024.0,0.0,1.0,0.0,?,0.0,0.0
2900000.0,13.296875,3.036637402450045E-7,2900000.0,83.7,67.32681205901217,67.00404858299595,66.32231404958677,579400.0,3024.0,0.0,1.0,0.0,?,0.0,0.0
3000000.0,13.734375,3.0606771664073073E-7,3000000.0,85.0,69.74476685317337,68.74999999999999,66.13995485327312,599400.0,3024.0,0.0,1.0,0.0,?,0.0,0.0
3100000.0,14.1875,3.2376662905638417E-7,3100000.0,83.6,67.11106832876096,68.27852998065764,65.40084388185653,619200.0,3024.0,0.0,1.0,0.0,?,0.0,0.0
3200000.0,14.640625,3.3977751930554706E-7,3200000.0,84.1,68.00959309812,66.31355932203388,66.09808102345414,639200.0,3024.0,0.0,1.0,0.0,?,0.0,0.0
3300000.0,15.078125,3.535105174200402E-7,3300000.0,83.2,66.26180836707152,67.81609195402298,64.1025641025641,17336.0,3024.0,0.0,1.0,0.0,?,3.0,11.0
3400000.0,15.546875,3.664782141438789E-7,3400000.0,83.6,67.0898167063328,67.84313725490195,65.0319829424307,37336.0,3024.0,0.0,1.0,0.0,?,0.0,0.0
3500000.0,16.0,3.774241001034776E-7,3500000.0,84.1,67.95543588668718,67.87878787878788,65.73275862068965,57336.0,3024.0,0.0,1.0,0.0,?,0.0,55.0
3600000.0,16.453125,3.8665007903344097E-7,3600000.0,83.6,67.10526315789474,66.66666666666666,65.97510373443983,77336.0,3024.0,0.0,1.0,0.0,?,0.0,19.0
3700000.0,16.875,3.936681767097777E-7,3700000.0,84.2,68.08403191596808,67.28778467908903,65.27472527472527,97336.0,3024.0,0.0,1.0,0.0,?,0.0,0.0
3800000.0,17.34375,3.997198331894145E-7,3800000.0,85.1,70.00418733492236,69.65376782077392,68.16239316239316,117336.0,3024.0,0.0,1.0,0.0,?,0.0,0.0
3900000.0,17.78125,4.037382313981651E-7,3900000.0,85.1,70.1598948987439,70.55335968379445,69.21487603305785,137336.0,3024.0,0.0,1.0,0.0,?,0.0,0.0
4000000.0,18.234375,4.0621212166216626E-7,4000000.0,83.7,67.26197649289404,68.16406249999999,65.31914893617021,157336.0,3024.0,0.0,1.0,0.0,?,0.0,0.0
4100000.0,18.65625,4.226755764749314E-7,4100000.0,83.3,66.29585378455178,68.3111954459203,63.053097345132734,177136.0,3024.0,0.0,1.0,0.0,?,0.0,0.0
4200000.0,19.109375,4.3867052429252187E-7,4200000.0,85.3,70.47410156909059,70.77534791252485,68.9873417721519,197136.0,3024.0,0.0,1.0,0.0,?,0.0,0.0
4300000.0,19.546875,4.524841076797908E-7,4300000.0,84.0,67.78973136635959,68.503937007874,65.66523605150213,217136.0,3024.0,0.0,1.0,0.0,?,0.0,0.0
4400000.0,20.0,4.6510301116440017E-7,4400000.0,82.89999999999999,65.73063881295742,63.14655172413792,64.1509433962264,237136.0,3024.0,0.0,1.0,0.0,?,0.0,0.0
4500000.0,20.453125,4.76033892482519E-7,4500000.0,82.3,64.440980062841,63.124999999999986,62.658227848101255,257136.0,3024.0,0.0,1.0,0.0,?,0.0,0.0
4600000.0,20.90625,4.852767516341473E-7,4600000.0,83.5,66.8448338222883,68.08510638297872,64.89361702127658,277136.0,3024.0,0.0,1.0,0.0,?,0.0,0.0
4700000.0,21.359375,4.92831588619285E-7,4700000.0,85.3,70.30063035396799,68.85593220338983,67.69230769230768,297136.0,3024.0,0.0,1.0,0.0,?,0.0,0.0
4800000.0,21.796875,4.984960994786685E-7,4800000.0,82.3,64.46810560801694,65.29411764705881,62.17948717948717,317136.0,3024.0,0.0,1.0,0.0,?,0.0,0.0
4900000.0,22.25,5.026748921308251E-7,4900000.0,85.39999999999999,70.52220122433816,70.5050505050505,68.39826839826839,337136.0,3024.0,0.0,1.0,0.0,?,0.0,0.0
5000000.0,22.6875,5.054836057954364E-7,5000000.0,83.39999999999999,66.67737273165247,66.46464646464646,65.41666666666666,357136.0,3024.0,0.0,1.0,0.0,?,0.0,45.0
5100000.0,23.15625,5.241246092029743E-7,5100000.0,80.10000000000001,57.99383628150464,56.35964912280702,46.216216216216225,2482.0,3024.0,0.0,1.0,0.0,?,7.0,52.0
5200000.0,23.609375,5.404609126142329E-7,5200000.0,82.39999999999999,62.79903446584908,62.06896551724137,54.5219638242894,22482.0,3024.0,0.0,1.0,0.0,?,0.0,77.0
5300000.0,24.078125,5.556181875160998E-7,5300000.0,81.10000000000001,60.43906359891492,61.111111111111114,52.272727272727295,42482.0,3024.0,0.0,1.0,0.0,?,0.0,68.0
5400000.0,24.546875,5.690389338673816E-7,5400000.0,83.5,64.22841781207995,64.818763326226,55.405405405405396,62482.0,3024.0,0.0,1.0,0.0,?,0.0,85.0
5500000.0,25.0,5.804077631586955E-7,5500000.0,81.5,61.058862161001606,62.474645030425954,54.54545454545453,82482.0,3024.0,0.0,1.0,0.0,?,0.0,40.0
5600000.0,25.46875,5.904223912188575E-7,5600000.0,82.69999999999999,62.42724350621144,62.144420131291014,55.06493506493505,102482.0,3024.0,0.0,1.0,0.0,?,0.0,0.0
5700000.0,25.921875,5.984142383870978E-7,5700000.0,83.7,64.34508705923527,63.45291479820626,54.722222222222214,122482.0,3024.0,0.0,1.0,0.0,?,0.0,21.0
5800000.0,26.375,6.047180633888475E-7,5800000.0,82.5,62.73455933084045,63.76811594202898,56.03015075376884,142482.0,3024.0,0.0,1.0,0.0,?,0.0,0.0
5900000.0,26.828125,6.093338662241067E-7,5900000.0,82.19999999999999,62.04626091703056,63.14699792960662,55.27638190954774,162482.0,3024.0,0.0,1.0,0.0,?,0.0,0.0
6000000.0,27.28125,6.122616468928753E-7,6000000.0,82.0,62.110527800347725,61.53846153846153,55.990220048899744,182482.0,3024.0,0.0,1.0,0.0,?,0.0,0.0
6100000.0,27.734375,6.303985072817238E-7,6100000.0,81.89999999999999,60.955700899097444,59.6881959910913,52.86458333333333,202282.0,3024.0,0.0,1.0,0.0,?,0.0,0.0
6200000.0,28.1875,6.468473455040818E-7,6200000.0,82.8,61.608342596436714,62.931034482758605,52.3545706371191,222282.0,3024.0,0.0,1.0,0.0,?,0.0,0.0
6300000.0,28.65625,6.621171552170481E-7,6300000.0,82.69999999999999,62.6662753459304,64.03326403326403,55.297157622739014,242282.0,3024.0,0.0,1.0,0.0,?,0.0,0.0
6400000.0,29.09375,6.747391631102396E-7,6400000.0,83.1,62.31783236117799,61.149425287356316,53.44352617079888,262282.0,3024.0,0.0,1.0,0.0,?,0.0,0.0
6500000.0,29.5625,6.865165131683979E-7,6500000.0,83.3,63.249209968046614,62.38738738738737,54.74254742547424,282282.0,3024.0,0.0,1.0,0.0,?,0.0,0.0
6600000.0,30.015625,6.962132627247936E-7,6600000.0,82.19999999999999,61.545108883511915,62.44725738396624,53.64583333333333,302282.0,3024.0,0.0,1.0,0.0,?,0.0,0.0
6700000.0,30.46875,7.042219901146989E-7,6700000.0,83.5,64.77700642979735,64.28571428571428,58.95522388059701,322282.0,3024.0,0.0,1.0,0.0,?,0.0,0.0
6800000.0,30.921875,7.105426953381135E-7,6800000.0,83.89999999999999,65.52993970950945,63.82022471910111,58.50515463917525,342282.0,3024.0,0.0,1.0,0.0,?,0.0,0.0
6900000.0,31.375,7.151753783950376E-7,6900000.0,82.0,61.40651801029159,62.10526315789473,53.6082474226804,362282.0,3024.0,0.0,1.0,0.0,?,0.0,0.0
7000000.0,31.828125,7.181200392854712E-7,7000000.0,84.3,65.41149307789243,67.0859538784067,56.62983425414364,382282.0,3024.0,0.0,1.0,0.0,?,0.0,0.0
7100000.0,32.296875,7.368997709515195E-7,7100000.0,83.6,64.44105237139152,66.59877800407331,56.95538057742782,402082.0,3024.0,0.0,1.0,0.0,?,0.0,0.0
7200000.0,32.75,7.533654893955424E-7,7200000.0,83.5,63.88010822833024,66.53144016227179,56.34920634920634,422082.0,3024.0,0.0,1.0,0.0,?,0.0,0.0
7300000.0,33.203125,7.681431856730747E-7,7300000.0,82.8,62.31359471338611,63.94129979035639,53.638814016172496,442082.0,3024.0,0.0,1.0,0.0,?,0.0,0.0
7400000.0,33.671875,7.81684227856911E-7,7400000.0,82.89999999999999,63.57206765796087,64.1509433962264,56.153846153846146,462082.0,3024.0,0.0,1.0,0.0,?,0.0,0.0
7500000.0,34.109375,7.926927193895811E-7,7500000.0,83.2,64.5198351017098,64.25531914893617,58.415841584158414,482082.0,3024.0,0.0,1.0,0.0,?,0.0,0.0
7600000.0,34.578125,8.027413019186093E-7,7600000.0,83.6,65.17159361196057,66.32443531827515,58.585858585858574,502082.0,3024.0,0.0,1.0,0.0,?,0.0,0.0
7700000.0,35.03125,8.107669095301794E-7,7700000.0,81.6,58.62416348852268,60.173160173160156,48.314606741573016,522082.0,3024.0,0.0,1.0,0.0,?,0.0,0.0
7800000.0,35.5,8.173230324043996E-7,7800000.0,84.0,64.96989600437875,65.59139784946235,57.33333333333333,542082.0,3024.0,0.0,1.0,0.0,?,0.0,0.0
7900000.0,35.9375,8.218122659147613E-7,7900000.0,82.69999999999999,62.20132492003285,64.97975708502022,54.111405835543756,562082.0,3024.0,0.0,1.0,0.0,?,0.0,0.0
8000000.0,36.375,8.24671684919546E-7,8000000.0,82.69999999999999,62.82511904557253,63.269639065817394,55.52699228791773,582082.0,3024.0,0.0,1.0,0.0,?,0.0,0.0
8100000.0,36.828125,8.428423057517243E-7,8100000.0,82.1,60.684917064942354,59.684684684684676,52.010723860589806,601882.0,3024.0,0.0,1.0,0.0,?,0.0,0.0
8200000.0,37.296875,8.598932698886427E-7,8200000.0,82.6,62.62870544976566,65.2694610778443,56.171284634760696,621882.0,3024.0,0.0,1.0,0.0,?,0.0,0.0
8300000.0,37.75,8.746878463878399E-7,8300000.0,80.4,58.43424339719475,59.16666666666668,51.84275184275185,641882.0,3024.0,0.0,1.0,0.0,?,0.0,0.0
8400000.0,38.21875,8.882463508699502E-7,8400000.0,81.5,59.978193523822696,58.612975391498864,51.18733509234828,661882.0,3024.0,0.0,1.0,0.0,?,0.0,0.0
8500000.0,38.671875,8.996648830361663E-7,8500000.0,82.3,62.15199076251977,61.6052060737527,55.189873417721515,681882.0,3024.0,0.0,1.0,0.0,?,0.0,0.0
8600000.0,39.125,9.093953930358919E-7,8600000.0,83.3,64.61654504928258,66.05691056910568,58.457711442786064,701882.0,3024.0,0.0,1.0,0.0,?,0.0,0.0
8700000.0,39.59375,9.177152080357901E-7,8700000.0,83.89999999999999,65.11980588413708,65.3763440860215,58.397932816537455,721882.0,3024.0,0.0,1.0,0.0,?,0.0,0.0
8800000.0,40.046875,9.240696737025346E-7,8800000.0,82.8,63.07221957429997,61.946902654867245,56.01023017902812,741882.0,3024.0,0.0,1.0,0.0,?,0.0,0.0
8900000.0,40.515625,9.288970290476248E-7,8900000.0,81.89999999999999,60.94255750722885,61.24197002141326,52.6178010471204,761882.0,3024.0,0.0,1.0,0.0,?,0.0,0.0
9000000.0,40.96875,9.318754503813881E-7,9000000.0,83.6,63.84686944751843,65.1063829787234,55.55555555555555,781882.0,3024.0,0.0,1.0,0.0,?,0.0,0.0
9100000.0,41.40625,9.494357962264782E-7,9100000.0,83.2,63.551791169119674,63.557483731019516,54.34782608695651,801682.0,3024.0,0.0,1.0,0.0,?,0.0,0.0
9200000.0,41.859375,9.65935275113831E-7,9200000.0,82.89999999999999,63.07014512785072,63.14655172413792,55.92783505154638,821682.0,3024.0,0.0,1.0,0.0,?,0.0,0.0
9300000.0,42.328125,9.812574717216194E-7,9300000.0,83.89999999999999,65.41769411198652,65.81740976645435,58.823529411764696,841682.0,3024.0,0.0,1.0,0.0,?,0.0,0.0
9400000.0,42.78125,9.94380906275991E-7,9400000.0,81.2,60.3186329346904,60.58700209643607,53.80835380835383,861682.0,3024.0,0.0,1.0,0.0,?,0.0,0.0
9500000.0,43.25,1.0062106432289714E-6,9500000.0,79.9,55.893195702548994,57.594936708860764,45.96774193548388,881682.0,3024.0,0.0,1.0,0.0,?,0.0,0.0
9600000.0,43.703125,1.015958033450362E-6,9600000.0,84.89999999999999,66.63897628053307,66.44444444444444,57.93871866295264,901682.0,3024.0,0.0,1.0,0.0,?,0.0,0.0
9700000.0,44.15625,1.024017401505262E-6,9700000.0,81.6,60.048115964686,60.515021459227455,51.45118733509233,921682.0,3024.0,0.0,1.0,0.0,?,0.0,0.0
9800000.0,44.625,1.0306084489760302E-6,9800000.0,81.6,59.30356005379006,60.515021459227455,49.45054945054944,941682.0,3024.0,0.0,1.0,0.0,?,0.0,0.0
9900000.0,45.078125,1.035291772697949E-6,9900000.0,82.5,59.9377317888375,62.606837606837594,48.2248520710059,961682.0,3024.0,0.0,1.0,0.0,?,0.0,0.0
1.0E7,45.53125,1.0382870742533774E-6,1.0E7,83.39999999999999,63.243109190108406,65.12605042016806,55.61497326203207,981682.0,3024.0,0.0,1.0,0.0,?,0.0,0.0
