learning evaluation instances,evaluation time (cpu seconds),model cost (RAM-Hours),classified instances,classifications correct (percent),Kappa Statistic (percent),Kappa Temporal Statistic (percent),Kappa M Statistic (percent),model training instances,model serialized size (bytes),labeling cost,newThreshold,maxPosterior,accuracyBaseLearner (percent),Change detected,Warning detected
100000.0,0.21875,5.700276233255863E-9,100000.0,88.2,69.20282290057209,71.07843137254902,58.15602836879433,9900.0,1112.0,0.0,1.0,0.0,?,0.0,82.0
200000.0,0.4375,1.0857280964652696E-8,200000.0,89.5,73.40721905360093,75.17730496453902,64.16382252559728,19900.0,1112.0,0.0,1.0,0.0,?,0.0,20.0
300000.0,0.671875,1.5800566567728916E-8,300000.0,87.6,68.69651269053475,71.16279069767442,58.803986710963464,29900.0,1112.0,0.0,1.0,0.0,?,0.0,0.0
400000.0,0.90625,2.0161775561670462E-8,400000.0,84.6,60.21802588411562,63.42042755344418,46.34146341463414,39900.0,1112.0,0.0,1.0,0.0,?,0.0,0.0
500000.0,1.140625,2.3940907946477334E-8,500000.0,87.5,68.41232778401108,70.37914691943128,58.4717607973422,49900.0,1112.0,0.0,1.0,0.0,?,0.0,0.0
600000.0,1.359375,2.692482667043805E-8,600000.0,86.0,63.76811594202899,67.5925925925926,53.333333333333336,59900.0,1112.0,0.0,1.0,0.0,?,0.0,0.0
700000.0,1.59375,2.9539805836975575E-8,700000.0,87.5,67.4587637454182,67.86632390745501,56.44599303135889,69900.0,1112.0,0.0,1.0,0.0,?,0.0,0.0
800000.0,1.8125,3.1437181557218236E-8,800000.0,87.1,65.96449754100091,66.49350649350649,55.052264808362374,79900.0,1112.0,0.0,1.0,0.0,?,0.0,0.0
900000.0,2.046875,3.288800750548641E-8,900000.0,86.9,65.76810109646601,68.35748792270532,54.67128027681662,89900.0,1112.0,0.0,1.0,0.0,?,0.0,0.0
1000000.0,2.28125,3.3756756844619907E-8,1000000.0,87.3,65.3762268266085,67.09844559585493,53.81818181818182,99900.0,1112.0,0.0,1.0,0.0,?,0.0,0.0
1100000.0,2.5,3.946246579289436E-8,1100000.0,86.4,66.9149665987126,70.43478260869564,57.097791798107245,109800.0,1112.0,0.0,1.0,0.0,?,0.0,0.0
1200000.0,2.71875,4.462490323930978E-8,1200000.0,88.8,70.75412575725925,72.6829268292683,60.00000000000001,119800.0,1112.0,0.0,1.0,0.0,?,0.0,0.0
1300000.0,2.953125,4.9574009608477345E-8,1300000.0,90.10000000000001,74.4444903353709,76.37231503579953,66.21160409556315,129800.0,1112.0,0.0,1.0,0.0,?,0.0,0.0
1400000.0,3.171875,5.364990405117471E-8,1400000.0,87.6,69.52373462054592,69.75609756097562,60.383386581469644,139800.0,1112.0,0.0,1.0,0.0,?,0.0,0.0
1500000.0,3.40625,5.7434857202072926E-8,1500000.0,87.9,68.53514182589791,69.59798994974875,57.24381625441697,149800.0,1112.0,0.0,1.0,0.0,?,0.0,0.0
1600000.0,3.640625,6.063773374383648E-8,1600000.0,87.8,68.30707843218754,70.88305489260144,58.7837837837838,159800.0,1112.0,0.0,1.0,0.0,?,0.0,0.0
1700000.0,3.859375,6.308381368095675E-8,1700000.0,86.5,65.53907103546159,67.3913043478261,55.88235294117647,169800.0,1112.0,0.0,1.0,0.0,?,0.0,0.0
1800000.0,4.078125,6.4986622116218E-8,1800000.0,87.2,66.77878825630165,68.1592039800995,55.244755244755254,179800.0,1112.0,0.0,1.0,0.0,?,0.0,0.0
1900000.0,4.3125,6.644326883057753E-8,1900000.0,86.9,66.67243326854387,69.39252336448598,56.18729096989967,189800.0,1112.0,0.0,1.0,0.0,?,0.0,0.0
2000000.0,4.546875,6.731783893580239E-8,2000000.0,87.2,64.47286615152322,65.4054054054054,51.515151515151516,199800.0,1112.0,0.0,1.0,0.0,?,0.0,0.0
2100000.0,4.78125,7.343691928933065E-8,2100000.0,88.5,71.1712976425642,72.81323877068559,61.79401993355482,209700.0,1112.0,0.0,1.0,0.0,?,0.0,0.0
2200000.0,5.015625,7.897392303372423E-8,2200000.0,88.3,68.29440138745868,70.96774193548387,57.913669064748206,219700.0,1112.0,0.0,1.0,0.0,?,0.0,0.0
2300000.0,5.25,8.392885016898315E-8,2300000.0,86.3,65.88475521689328,67.30310262529832,55.80645161290323,229700.0,1112.0,0.0,1.0,0.0,?,0.0,0.0
2400000.0,5.46875,8.80101773266991E-8,2400000.0,87.3,66.32407377944654,65.67567567567568,54.48028673835126,239700.0,1112.0,0.0,1.0,0.0,?,0.0,0.0
2500000.0,5.703125,9.180095124368866E-8,2500000.0,87.4,66.91784598419409,70.07125890736341,56.70103092783506,249700.0,1112.0,0.0,1.0,0.0,?,0.0,0.0
2600000.0,5.9375,9.500964855154355E-8,2600000.0,86.3,66.57721395462308,67.61229314420804,58.48484848484847,259700.0,1112.0,0.0,1.0,0.0,?,0.0,0.0
2700000.0,6.15625,9.746116120368242E-8,2700000.0,88.8,71.7741935483871,74.6606334841629,62.66666666666667,269700.0,1112.0,0.0,1.0,0.0,?,0.0,0.0
2800000.0,6.390625,9.950570529326796E-8,2800000.0,88.1,67.06010009300677,69.94949494949495,55.59701492537313,279700.0,1112.0,0.0,1.0,0.0,?,0.0,0.0
2900000.0,6.625,1.0096817277371883E-7,2900000.0,86.8,65.89482169709434,67.56756756756756,55.85284280936455,289700.0,1112.0,0.0,1.0,0.0,?,0.0,0.0
3000000.0,6.859375,1.0184856364503502E-7,3000000.0,86.7,66.24194121529013,69.28406466512702,57.09677419354839,299700.0,1112.0,0.0,1.0,0.0,?,0.0,0.0
3100000.0,7.078125,1.0756513802334666E-7,3100000.0,87.4,68.82098792926818,69.11764705882352,59.223300970873794,309600.0,1112.0,0.0,1.0,0.0,?,0.0,0.0
3200000.0,7.3125,1.1310796253383159E-7,3200000.0,85.6,64.35855295725005,66.35514018691589,54.14012738853502,319600.0,1112.0,0.0,1.0,0.0,?,0.0,0.0
3300000.0,7.546875,1.1806871043518184E-7,3300000.0,86.7,65.27777777777777,66.66666666666666,53.333333333333336,329600.0,1112.0,0.0,1.0,0.0,?,0.0,0.0
3400000.0,7.78125,1.2244738172739742E-7,3400000.0,87.9,67.09273864563502,70.91346153846155,56.00000000000001,339600.0,1112.0,0.0,1.0,0.0,?,0.0,0.0
3500000.0,8.0,1.2599087009827293E-7,3500000.0,86.6,64.019697872866,64.92146596858639,50.91575091575091,349600.0,1112.0,0.0,1.0,0.0,?,0.0,0.0
3600000.0,8.234375,1.2920538817221916E-7,3600000.0,86.2,64.86761710794298,68.56492027334852,54.0,359600.0,1112.0,0.0,1.0,0.0,?,0.0,0.0
3700000.0,8.453125,1.3166233353937663E-7,3700000.0,87.8,67.95545282622399,69.5,57.931034482758626,369600.0,1112.0,0.0,1.0,0.0,?,0.0,0.0
3800000.0,8.671875,1.3357600740467505E-7,3800000.0,86.8,66.86281204185327,69.23076923076923,56.86274509803923,379600.0,1112.0,0.0,1.0,0.0,?,0.0,0.0
3900000.0,8.890625,1.3494640976811446E-7,3900000.0,87.8,69.17074354101807,70.31630170316302,59.86842105263158,389600.0,1112.0,0.0,1.0,0.0,?,0.0,0.0
4000000.0,9.109375,1.3577354062969484E-7,4000000.0,86.8,66.71508109416607,70.33707865168539,55.70469798657719,399600.0,1112.0,0.0,1.0,0.0,?,0.0,0.0
4100000.0,9.34375,1.4190426251540578E-7,4100000.0,86.2,64.73744729781527,66.74698795180723,53.22033898305085,409500.0,1112.0,0.0,1.0,0.0,?,0.0,0.0
4200000.0,9.5625,1.4708299810687696E-7,4200000.0,86.9,67.17285621209844,67.33167082294264,55.442176870748305,419500.0,1112.0,0.0,1.0,0.0,?,0.0,0.0
4300000.0,9.78125,1.5171846219648914E-7,4300000.0,85.3,63.03635010359881,64.91646778042958,50.505050505050505,429500.0,1112.0,0.0,1.0,0.0,?,0.0,0.0
4400000.0,10.015625,1.5610295425479606E-7,4400000.0,88.4,71.29906375566597,71.84466019417476,61.58940397350994,439500.0,1112.0,0.0,1.0,0.0,?,0.0,0.0
4500000.0,10.25,1.599053697039683E-7,4500000.0,86.7,65.9689882810501,66.58291457286433,54.761904761904766,449500.0,1112.0,0.0,1.0,0.0,?,0.0,0.0
4600000.0,10.46875,1.629110192880034E-7,4600000.0,86.8,66.6437553066753,69.23076923076923,56.57894736842106,459500.0,1112.0,0.0,1.0,0.0,?,0.0,0.0
4700000.0,10.71875,1.6572516566763317E-7,4700000.0,87.9,68.75516443563046,71.86046511627907,58.56164383561645,469500.0,1112.0,0.0,1.0,0.0,?,0.0,0.0
4800000.0,10.9375,1.6764427224795018E-7,4800000.0,88.3,69.77993594379586,70.8955223880597,58.65724381625442,479500.0,1112.0,0.0,1.0,0.0,?,0.0,0.0
4900000.0,11.1875,1.692166551947593E-7,4900000.0,89.2,72.21650545379707,75.22935779816514,62.237762237762254,489500.0,1112.0,0.0,1.0,0.0,?,0.0,0.0
5000000.0,11.421875,1.7014846283321573E-7,5000000.0,88.2,69.33424117839677,70.71960297766749,59.169550173010386,499500.0,1112.0,0.0,1.0,0.0,?,0.0,0.0
5100000.0,11.671875,1.7673653524575955E-7,5100000.0,73.6,44.3533394319825,46.98795180722891,41.46341463414633,509400.0,1112.0,0.0,1.0,0.0,?,0.0,0.0
5200000.0,11.921875,1.8270372594189307E-7,5200000.0,71.39999999999999,42.516029184169795,43.47826086956521,41.39344262295081,506168.0,1112.0,0.0,1.0,0.0,?,1.0,40.0
5300000.0,12.15625,1.8771589061038355E-7,5300000.0,74.5,46.746748419109345,48.275862068965516,44.20131291028446,516168.0,1112.0,0.0,1.0,0.0,?,0.0,50.0
5400000.0,12.375,1.918506394657823E-7,5400000.0,72.2,42.64327832864988,46.74329501915708,40.724946695095944,526168.0,1112.0,0.0,1.0,0.0,?,0.0,14.0
5500000.0,12.609375,1.9569865091600344E-7,5500000.0,73.3,44.633377571333774,45.39877300613496,42.33261339092872,536168.0,1112.0,0.0,1.0,0.0,?,0.0,0.0
5600000.0,12.84375,1.989645857570899E-7,5600000.0,73.4,45.242251572741345,46.5863453815261,43.644067796610166,546168.0,1112.0,0.0,1.0,0.0,?,0.0,0.0
5700000.0,13.0625,2.0146952010691157E-7,5700000.0,77.5,51.583749354450006,52.33050847457628,47.42990654205609,556168.0,1112.0,0.0,1.0,0.0,?,0.0,0.0
5800000.0,13.296875,2.0357130172972867E-7,5800000.0,73.9,45.72947076877012,45.62499999999999,43.5064935064935,566168.0,1112.0,0.0,1.0,0.0,?,0.0,0.0
5900000.0,13.53125,2.050910067434111E-7,5900000.0,75.6,48.2717682575218,51.77865612648221,44.796380090497735,576168.0,1112.0,0.0,1.0,0.0,?,0.0,0.0
6000000.0,13.75,2.059661265876557E-7,6000000.0,76.7,50.773677227438284,53.3066132264529,47.75784753363229,586168.0,1112.0,0.0,1.0,0.0,?,0.0,0.0
6100000.0,13.96875,2.1173612266365013E-7,6100000.0,78.0,54.59030131399155,58.80149812734082,52.27765726681128,596068.0,1112.0,0.0,1.0,0.0,?,0.0,0.0
6200000.0,14.203125,2.1733618470736665E-7,6200000.0,76.7,52.27052981760379,50.94736842105263,50.530785562632694,606068.0,1112.0,0.0,1.0,0.0,?,0.0,0.0
6300000.0,14.421875,2.2201963777964304E-7,6300000.0,78.60000000000001,55.73317446921181,57.02811244979921,53.67965367965368,616068.0,1112.0,0.0,1.0,0.0,?,0.0,0.0
6400000.0,14.65625,2.264555466050902E-7,6400000.0,78.3,55.60084133336607,54.88565488565489,53.92781316348195,626068.0,1112.0,0.0,1.0,0.0,?,0.0,0.0
6500000.0,14.875,2.3005245667364852E-7,6500000.0,76.5,51.02983220945062,52.716297786720325,48.12362030905077,636068.0,1112.0,0.0,1.0,0.0,?,0.0,0.0
6600000.0,15.09375,2.3310609524034782E-7,6600000.0,77.9,53.74285211945647,56.75146771037183,50.779510022271715,646068.0,1112.0,0.0,1.0,0.0,?,0.0,0.0
6700000.0,15.328125,2.3579577423839097E-7,6700000.0,76.3,51.7653475744279,54.42307692307693,50.52192066805845,656068.0,1112.0,0.0,1.0,0.0,?,0.0,0.0
6800000.0,15.5625,2.3790337662729944E-7,6800000.0,76.7,51.42797581821973,50.7399577167019,48.22222222222222,666068.0,1112.0,0.0,1.0,0.0,?,0.0,0.0
6900000.0,15.796875,2.3942890240707324E-7,6900000.0,78.8,55.96891239059729,56.19834710743802,52.993348115299334,676068.0,1112.0,0.0,1.0,0.0,?,0.0,0.0
7000000.0,16.03125,2.4037235157771234E-7,7000000.0,79.0,54.31604594500523,54.2483660130719,48.40294840294842,686068.0,1112.0,0.0,1.0,0.0,?,0.0,0.0
7100000.0,16.234375,2.4573524974079585E-7,7100000.0,79.10000000000001,57.425137502546356,60.2661596958175,55.9071729957806,695968.0,1112.0,0.0,1.0,0.0,?,0.0,0.0
7200000.0,16.4375,2.50593681509296E-7,7200000.0,77.5,52.62359976417081,53.987730061349694,49.43820224719101,705968.0,1112.0,0.0,1.0,0.0,?,0.0,0.0
7300000.0,16.671875,2.556174877099692E-7,7300000.0,76.6,52.101201563875286,50.0,50.10660980810234,715968.0,1112.0,0.0,1.0,0.0,?,0.0,0.0
7400000.0,16.90625,2.600592173015077E-7,7400000.0,80.5,58.62894191927764,60.606060606060616,54.43925233644862,725968.0,1112.0,0.0,1.0,0.0,?,0.0,0.0
7500000.0,17.140625,2.6391887028391155E-7,7500000.0,79.3,55.81983027985045,59.00990099009902,51.17924528301888,735968.0,1112.0,0.0,1.0,0.0,?,0.0,0.0
7600000.0,17.359375,2.669779415656294E-7,7600000.0,78.2,56.633140238080095,57.086614173228355,56.916996047430835,745968.0,1112.0,0.0,1.0,0.0,?,0.0,0.0
7700000.0,17.578125,2.6949374134548825E-7,7700000.0,82.19999999999999,63.27458642645218,66.60412757973734,60.706401766004404,755968.0,1112.0,0.0,1.0,0.0,?,0.0,0.0
7800000.0,17.8125,2.7160716450048807E-7,7800000.0,82.1,61.19762763596004,63.168724279835374,56.019656019656004,765968.0,1112.0,0.0,1.0,0.0,?,0.0,0.0
7900000.0,18.03125,2.7303642127662884E-7,7900000.0,78.2,55.28443611212531,54.77178423236515,53.319057815845824,775968.0,1112.0,0.0,1.0,0.0,?,0.0,0.0
8000000.0,18.25,2.739224065509106E-7,8000000.0,80.0,59.171174849443716,61.68582375478928,57.5371549893843,785968.0,1112.0,0.0,1.0,0.0,?,0.0,0.0
8100000.0,18.484375,2.801161867359445E-7,8100000.0,80.80000000000001,60.624915405091706,59.83263598326361,58.16993464052288,795868.0,1112.0,0.0,1.0,0.0,?,0.0,0.0
8200000.0,18.71875,2.8572789031184373E-7,8200000.0,80.60000000000001,60.34341782502045,61.81102362204726,58.1896551724138,805868.0,1112.0,0.0,1.0,0.0,?,0.0,0.0
8300000.0,18.96875,2.910928257430592E-7,8300000.0,80.2,59.06875209307518,61.70212765957448,56.291390728476834,815868.0,1112.0,0.0,1.0,0.0,?,0.0,0.0
8400000.0,19.1875,2.952438727435137E-7,8400000.0,80.4,59.46527249263758,60.87824351297406,57.2052401746725,825868.0,1112.0,0.0,1.0,0.0,?,0.0,0.0
8500000.0,19.421875,2.9910934649200893E-7,8500000.0,80.4,58.821453182513416,58.56236786469346,54.838709677419374,835868.0,1112.0,0.0,1.0,0.0,?,0.0,0.0
8600000.0,19.640625,3.021738504887454E-7,8600000.0,81.2,61.462774680223035,62.0967741935484,59.13043478260871,845868.0,1112.0,0.0,1.0,0.0,?,0.0,0.0
8700000.0,19.875,3.048751710189713E-7,8700000.0,82.3,62.57769884561715,64.17004048582994,58.837209302325576,855868.0,1112.0,0.0,1.0,0.0,?,0.0,0.0
8800000.0,20.09375,3.068531320119897E-7,8800000.0,83.39999999999999,65.95695811065218,66.8,63.83442265795206,865868.0,1112.0,0.0,1.0,0.0,?,0.0,0.0
8900000.0,20.328125,3.083902993239462E-7,8900000.0,82.1,63.31365797671749,65.24271844660193,61.086956521739125,875868.0,1112.0,0.0,1.0,0.0,?,0.0,0.0
9000000.0,20.546875,3.0928171731324656E-7,9000000.0,80.80000000000001,60.722220176504536,62.934362934362944,58.531317494600444,885868.0,1112.0,0.0,1.0,0.0,?,0.0,0.0
9100000.0,20.78125,3.154813182643718E-7,9100000.0,81.0,60.97296453469504,61.770623742454745,58.424507658643336,895768.0,1112.0,0.0,1.0,0.0,?,0.0,0.0
9200000.0,21.015625,3.210988426063623E-7,9200000.0,81.3,61.77713823185537,62.52505010020039,59.43600867678958,905768.0,1112.0,0.0,1.0,0.0,?,0.0,0.0
9300000.0,21.234375,3.257985938236945E-7,9300000.0,80.60000000000001,59.911226096551964,61.66007905138341,56.2076749435666,915768.0,1112.0,0.0,1.0,0.0,?,0.0,0.0
9400000.0,21.46875,3.302519649474157E-7,9400000.0,83.0,64.89924017178724,65.7258064516129,61.7117117117117,925768.0,1112.0,0.0,1.0,0.0,?,0.0,0.0
9500000.0,21.6875,3.338651731610298E-7,9500000.0,83.0,65.28557717833003,65.7258064516129,63.44086021505375,935768.0,1112.0,0.0,1.0,0.0,?,0.0,0.0
9600000.0,21.921875,3.371543910664816E-7,9600000.0,81.6,62.622290116033405,62.753036437246955,61.58663883089769,945768.0,1112.0,0.0,1.0,0.0,?,0.0,0.0
9700000.0,22.15625,3.398615323627988E-7,9700000.0,84.7,68.08936645921278,70.46332046332046,64.58333333333334,955768.0,1112.0,0.0,1.0,0.0,?,0.0,0.0
9800000.0,22.390625,3.419865970499813E-7,9800000.0,82.39999999999999,64.02348285391898,65.35433070866141,61.9047619047619,965768.0,1112.0,0.0,1.0,0.0,?,0.0,0.0
9900000.0,22.625,3.435295851280291E-7,9900000.0,83.1,65.84423353651636,68.05293005671076,64.71816283924842,975768.0,1112.0,0.0,1.0,0.0,?,0.0,0.0
1.0E7,22.84375,3.4442643583234805E-7,1.0E7,83.7,66.53252299605782,66.5983606557377,63.938053097345126,985768.0,1112.0,0.0,1.0,0.0,?,0.0,0.0
