learning evaluation instances,evaluation time (cpu seconds),model cost (RAM-Hours),classified instances,classifications correct (percent),Kappa Statistic (percent),Kappa Temporal Statistic (percent),Kappa M Statistic (percent),model training instances,model serialized size (bytes),labeling cost,newThreshold,maxPosterior,accuracyBaseLearner (percent),Change detected,Warning detected,tree size (nodes),tree size (leaves),active learning leaves,tree depth,active leaf byte size estimate,inactive leaf byte size estimate,byte size estimate overhead
100000.0,0.21875,4.179116028050582E-9,100000.0,83.1,64.06090506975161,60.51401869158878,50.29411764705881,30000.0,22384.0,30000.0,0.9096881769592359,0.9045928468467095,0.0,0.0,1.0,23.0,12.0,12.0,5.0,0.0,0.0,1.0
200000.0,0.453125,1.0010068460057179E-8,200000.0,88.6,75.35998201710969,74.49664429530202,67.70538243626062,60000.0,44416.0,60000.0,0.8960992026200806,0.8989068309848645,0.0,0.0,0.0,47.0,24.0,24.0,7.0,0.0,0.0,1.0
300000.0,0.671875,1.6727620580544074E-8,300000.0,88.9,75.08887213185392,75.97402597402598,68.10344827586206,90000.0,66664.0,90000.0,0.9185549176208001,0.9021435673799277,0.0,0.0,0.0,71.0,36.0,36.0,9.0,0.0,0.0,1.0
400000.0,0.875,2.415756979543302E-8,400000.0,83.3,63.736645531138706,64.69344608879491,53.481894150417816,120000.0,89056.0,120000.0,0.8958747439597678,0.8815707843340265,0.0,0.0,0.0,97.0,49.0,49.0,10.0,0.0,0.0,1.0
500000.0,1.09375,3.333931090310216E-8,500000.0,86.7,70.64639723149178,71.58119658119658,62.745098039215684,150000.0,109656.0,150000.0,0.9275080825010696,0.8992903373686346,0.0,0.0,0.0,117.0,59.0,59.0,10.0,0.0,0.0,1.0
600000.0,1.3125,4.32499412757655E-8,600000.0,86.4,70.17125210555866,71.06382978723403,62.637362637362635,180000.0,122368.0,180000.0,0.9413375103159698,0.8959571182576153,0.0,0.0,0.0,131.0,66.0,66.0,11.0,0.0,0.0,1.0
700000.0,1.53125,5.4665886434829894E-8,700000.0,89.1,75.4070250171474,74.94252873563218,67.06948640483384,210000.0,148632.0,210000.0,0.9180948083304381,0.9048893221315394,0.0,0.0,0.0,159.0,80.0,80.0,11.0,0.0,0.0,1.0
800000.0,1.75,6.714075829626785E-8,800000.0,87.9,73.03320704256741,72.56235827664399,65.42857142857143,240000.0,167104.0,240000.0,0.9134240578005384,0.919495550980897,0.0,0.0,0.0,179.0,90.0,90.0,12.0,0.0,0.0,1.0
900000.0,1.984375,8.23164656240907E-8,900000.0,87.6,72.18720701241259,73.72881355932203,64.26512968299711,270000.0,196568.0,270000.0,0.8997792766583672,0.9070537287952183,0.0,0.0,0.0,211.0,106.0,106.0,12.0,0.0,0.0,1.0
1000000.0,2.21875,9.841524944123295E-8,1000000.0,88.7,74.63433030142497,74.8888888888889,67.34104046242774,300000.0,211600.0,300000.0,0.9131952595383388,0.9018191358857935,0.0,0.0,0.0,227.0,114.0,114.0,13.0,0.0,0.0,1.0
1100000.0,2.453125,1.1577325898946987E-7,1100000.0,86.9,72.16248608124303,73.90438247011953,66.06217616580311,330000.0,232104.0,330000.0,0.9176349295113577,0.8952063013085383,0.0,0.0,0.0,249.0,125.0,125.0,13.0,0.0,0.0,1.0
1200000.0,2.6875,1.3473731491507756E-7,1200000.0,89.8,77.7283823381705,77.43362831858407,71.58774373259054,360000.0,258248.0,360000.0,0.9313171456101039,0.9014508520011947,0.0,0.0,0.0,279.0,140.0,140.0,13.0,0.0,0.0,1.0
1300000.0,2.90625,1.5317142242565752E-7,1300000.0,88.7,75.23645894511698,75.90618336886993,69.12568306010928,390000.0,271056.0,390000.0,0.899328572191475,0.8607581636891423,0.0,0.0,0.0,293.0,147.0,147.0,13.0,0.0,0.0,1.0
1400000.0,3.140625,1.739219684774677E-7,1400000.0,88.5,75.32718300793822,75.0,70.2842377260982,420000.0,287328.0,420000.0,0.9218652132799796,0.9046560933783749,0.0,0.0,0.0,311.0,156.0,156.0,13.0,0.0,0.0,1.0
1500000.0,3.375,1.961320716266831E-7,1500000.0,88.4,73.89644991718873,73.99103139013454,66.08187134502924,450000.0,311080.0,450000.0,0.8991033046252325,0.8379105906160921,0.0,0.0,0.0,339.0,170.0,170.0,14.0,0.0,0.0,1.0
1600000.0,3.625,2.2081211985399327E-7,1600000.0,88.1,73.28748058291656,74.84143763213531,65.60693641618496,479998.0,326184.0,479998.0,0.97852907764681,1.0,0.0,0.0,0.0,355.0,178.0,178.0,14.0,0.0,0.0,1.0
1700000.0,3.859375,2.4541698318595687E-7,1700000.0,87.4,72.42840137245291,73.07692307692307,66.12903225806451,510000.0,350080.0,510000.0,0.9637189812597642,0.8890539112382548,0.0,0.0,0.0,379.0,190.0,190.0,14.0,0.0,0.0,1.0
1800000.0,4.125,2.749890942747394E-7,1800000.0,87.6,72.09218581202737,71.94570135746606,63.52941176470588,539999.0,374312.0,539999.0,0.9307105513575896,1.0,0.0,0.0,0.0,405.0,203.0,203.0,14.0,0.0,0.0,1.0
1900000.0,4.375,3.0406705465995604E-7,1900000.0,89.2,75.94451200769777,76.31578947368422,69.054441260745,570000.0,393312.0,570000.0,0.9167158628254938,0.8960783484262241,0.0,0.0,0.0,429.0,215.0,215.0,14.0,0.0,0.0,1.0
2000000.0,4.640625,3.3715034886780713E-7,2000000.0,88.1,72.12592523189356,70.97560975609757,62.81249999999999,600000.0,424760.0,600000.0,0.9120521275955275,0.9038264798951576,0.0,0.0,0.0,459.0,230.0,230.0,14.0,0.0,0.0,1.0
2100000.0,4.953125,3.778957115072343E-7,2100000.0,89.8,77.70823134484928,78.43551797040169,71.97802197802197,630000.0,447032.0,630000.0,0.9074121188299736,0.8865155352347253,0.0,0.0,0.0,483.0,242.0,242.0,15.0,0.0,0.0,1.0
2200000.0,5.21875,4.144308170200222E-7,2200000.0,90.10000000000001,76.49349415898946,77.44874715261959,69.0625,660000.0,474344.0,660000.0,0.920941909709925,0.9050801254935424,0.0,0.0,0.0,513.0,257.0,257.0,15.0,0.0,0.0,1.0
2300000.0,5.484375,4.518905835640099E-7,2300000.0,87.3,72.12858597563117,72.21006564551422,65.10989010989012,690000.0,487632.0,690000.0,0.9162566747279243,0.8956882121315158,0.0,0.0,0.0,527.0,264.0,264.0,15.0,0.0,0.0,1.0
2400000.0,5.765625,4.937151162367728E-7,2400000.0,88.7,74.39940552247867,74.08256880733946,66.66666666666666,720000.0,516952.0,720000.0,0.9025695797910708,0.89524100380774,0.0,0.0,0.0,559.0,280.0,280.0,15.0,0.0,0.0,1.0
2500000.0,6.03125,5.33841666765511E-7,2500000.0,87.8,71.6942608953894,72.46049661399549,62.34567901234568,750000.0,525936.0,750000.0,0.8979778129007451,0.8918492601183642,0.0,0.0,0.0,569.0,285.0,285.0,15.0,0.0,0.0,1.0
2600000.0,6.296875,5.748648416354425E-7,2600000.0,88.5,75.4588134869825,76.19047619047619,71.25,780000.0,538816.0,780000.0,0.9296854108094955,0.8970701389450483,0.0,0.0,0.0,583.0,292.0,292.0,15.0,0.0,0.0,1.0
2700000.0,6.5625,6.170237773201532E-7,2700000.0,89.9,77.80044135360161,79.88047808764941,72.02216066481995,810000.0,555136.0,810000.0,0.8977528836783258,0.9037604364927629,0.0,0.0,0.0,599.0,300.0,300.0,15.0,0.0,0.0,1.0
2800000.0,6.84375,6.634606850436993E-7,2800000.0,90.0,76.59614304437372,77.1689497716895,68.75,840000.0,579536.0,840000.0,0.9021174776457362,0.9048068754254799,0.0,0.0,0.0,625.0,313.0,313.0,15.0,0.0,0.0,1.0
2900000.0,7.109375,7.080917971001731E-7,2900000.0,88.9,75.0207035610125,74.48275862068967,68.10344827586206,870000.0,590648.0,870000.0,0.9247240070522508,0.8922383222485668,0.0,0.0,0.0,639.0,320.0,320.0,15.0,0.0,0.0,1.0
3000000.0,7.40625,7.606211390035848E-7,3000000.0,88.2,73.8924190664991,74.94692144373673,67.40331491712708,900000.0,624672.0,900000.0,0.9109104266178584,0.8852237573626378,0.0,0.0,0.0,675.0,338.0,338.0,15.0,0.0,0.0,1.0
3100000.0,7.6875,8.123264221164088E-7,3100000.0,87.9,73.44231495219617,73.23008849557522,66.66666666666666,930000.0,651008.0,930000.0,0.897303194242969,0.8966150657585957,0.0,0.0,0.0,703.0,352.0,352.0,16.0,0.0,0.0,1.0
3200000.0,7.96875,8.65428689091156E-7,3200000.0,87.8,73.48529303097874,74.15254237288136,67.29222520107238,959998.0,669960.0,959998.0,0.9765699475413344,1.0,0.0,0.0,0.0,725.0,363.0,363.0,16.0,0.0,0.0,1.0
3300000.0,8.265625,9.230128166058826E-7,3300000.0,88.0,72.81439024942797,73.62637362637362,65.21739130434783,990000.0,689648.0,990000.0,0.8970784340018303,0.8982746343797775,0.0,0.0,0.0,745.0,373.0,373.0,16.0,0.0,0.0,1.0
3400000.0,8.578125,9.845654777665105E-7,3400000.0,89.8,76.30463871543265,76.92307692307693,69.64285714285715,1020000.0,701096.0,1020000.0,0.9287542748403307,0.8904122359130382,0.0,0.0,0.0,759.0,380.0,380.0,16.0,1720.64,0.0,1.0744157212820036
3500000.0,8.875,1.044599889104979E-6,3500000.0,88.2,72.99919455224428,72.55813953488372,64.88095238095238,1050000.0,721144.0,1050000.0,0.8968537300595822,0.9026961028990984,0.0,0.0,0.0,779.0,390.0,390.0,16.0,1720.64,0.0,1.0744157212820036
3600000.0,9.171875,1.1060585125556423E-6,3600000.0,87.4,72.48187297982004,73.36152219873149,65.94594594594595,1080000.0,739448.0,1080000.0,0.9012139526231097,0.9070361476150888,0.0,0.0,0.0,799.0,400.0,400.0,16.0,1720.64,0.0,1.0744157212820036
3700000.0,9.46875,1.1692424110757808E-6,3700000.0,88.9,74.30674505809917,74.18604651162791,66.86567164179105,1110000.0,761624.0,1110000.0,0.9146513269584041,0.9083204573454025,0.0,0.0,0.0,823.0,412.0,412.0,16.0,1720.64,0.0,1.0744157212820036
3800000.0,9.796875,1.2415056698955595E-6,3800000.0,89.60000000000001,77.4281063483451,78.46790890269152,72.26666666666667,1140000.0,789872.0,1140000.0,0.9099980949269244,0.8806782552749437,0.0,0.0,0.0,853.0,427.0,427.0,16.0,1720.64,0.0,1.0744157212820036
3900000.0,10.09375,1.308777266078525E-6,3900000.0,90.2,78.4944348864155,78.17371937639199,72.62569832402235,1170000.0,814176.0,1170000.0,0.9235664434975939,0.9195877982286544,0.0,0.0,0.0,879.0,440.0,440.0,16.0,1720.64,0.0,1.0744157212820036
4000000.0,10.421875,1.385059375833306E-6,4000000.0,88.6,75.2208388398136,75.8985200845666,69.35483870967742,1200000.0,836616.0,1200000.0,0.900762529519012,0.899465767013432,0.0,0.0,0.0,903.0,452.0,452.0,16.0,1720.64,0.0,1.0744157212820036
4100000.0,10.734375,1.460092931261493E-6,4100000.0,87.2,71.64528248387325,72.82377919320594,64.64088397790056,1230000.0,865720.0,1230000.0,0.9704344746796888,0.8811508903861278,0.0,0.0,0.0,935.0,468.0,468.0,16.0,1720.64,0.0,1.0744157212820036
4200000.0,11.046875,1.5365312315730584E-6,4200000.0,87.2,71.9150430050904,71.86813186813187,64.44444444444444,1260000.0,882880.0,1260000.0,0.9005369027691713,0.903451178227236,0.0,0.0,0.0,953.0,477.0,477.0,16.0,1720.64,0.0,1.0744157212820036
4300000.0,11.359375,1.6140612489026453E-6,4300000.0,87.3,72.03924193321122,72.08791208791209,64.32584269662921,1290000.0,896216.0,1290000.0,0.9139641820850578,0.9018978314883224,0.0,0.0,0.0,967.0,484.0,484.0,16.0,1720.64,0.0,1.0744157212820036
4400000.0,11.671875,1.6930988446498909E-6,4400000.0,89.3,76.28525075576911,76.32743362831859,69.68838526912181,1320000.0,914616.0,1320000.0,0.9184075903192012,0.8927618016919818,0.0,0.0,0.0,989.0,495.0,495.0,16.0,1720.64,0.0,1.0744157212820036
4500000.0,12.0,1.7779714350278176E-6,4500000.0,89.3,76.44811100643605,75.57077625570776,70.1949860724234,1350000.0,936512.0,1350000.0,0.9046883648814807,0.9124069120998223,0.0,0.0,0.0,1017.0,509.0,509.0,16.0,1720.64,0.0,1.0744157212820036
4600000.0,12.3125,1.8608248663238351E-6,4600000.0,88.1,73.82175917778325,75.25987525987526,67.3076923076923,1380000.0,961216.0,1380000.0,0.9181775437610648,0.906205849371181,0.0,0.0,0.0,1039.0,520.0,520.0,16.0,1720.64,0.0,1.0744157212820036
4700000.0,12.609375,1.9405537103820175E-6,4700000.0,89.0,75.44116596413517,77.45901639344262,68.75,1410000.0,974312.0,1410000.0,0.895506687893139,0.8846976767633081,0.0,0.0,0.0,1051.0,526.0,526.0,16.0,1720.64,0.0,1.0744157212820036
4800000.0,12.9375,2.030008116788748E-6,4800000.0,89.9,77.24958778956095,78.13852813852814,70.11834319526628,1440000.0,989800.0,1440000.0,0.9271270303741869,0.8945185710112602,0.0,0.0,0.0,1073.0,537.0,537.0,17.0,1720.64,0.0,1.0744157212820036
4900000.0,13.28125,2.125822389239652E-6,4900000.0,91.0,80.11664899257688,81.21085594989562,74.43181818181819,1470000.0,1013120.0,1470000.0,0.9224103289735177,0.9013018460361775,0.0,0.0,0.0,1095.0,548.0,548.0,17.0,1720.64,0.0,1.0744157212820036
5000000.0,13.625,2.2235013117703296E-6,5000000.0,89.3,76.3200991457531,76.16926503340757,69.85915492957747,1500000.0,1033816.0,1500000.0,0.9177176234993718,0.8969030329853868,0.0,0.0,0.0,1119.0,560.0,560.0,17.0,1720.64,0.0,1.0744157212820036
5100000.0,13.9375,2.2294436671978066E-6,5100000.0,88.5,76.2933522436796,76.19047619047619,71.81372549019608,25599.0,22216.0,1530000.0,0.9040087048257048,0.9005967994083985,0.0,1.0,10.0,23.0,12.0,12.0,5.0,0.0,0.0,1.0
5200000.0,14.15625,2.234662242699414E-6,5200000.0,88.6,76.92158196482364,76.15062761506276,74.55357142857143,55599.0,40688.0,1560000.0,0.8994096164758029,0.8971473807650743,0.0,0.0,0.0,43.0,22.0,22.0,7.0,0.0,0.0,1.0
5300000.0,14.359375,2.2408881987858973E-6,5300000.0,88.2,75.58523030576396,76.54075546719682,71.83770883054893,85599.0,66616.0,1590000.0,0.9884533529004521,0.8917469971574604,0.0,0.0,0.0,71.0,36.0,36.0,8.0,0.0,0.0,1.0
5400000.0,14.578125,2.2486520012737145E-6,5400000.0,87.8,74.97630953894875,76.07843137254902,71.82448036951502,115599.0,85088.0,1620000.0,0.8902815134745153,0.8047043631282823,0.0,0.0,0.0,91.0,46.0,46.0,9.0,0.0,0.0,1.0
5500000.0,14.796875,2.2575937974680624E-6,5500000.0,88.8,76.78891173154719,76.81159420289855,73.07692307692308,145599.0,105640.0,1650000.0,0.8946097839748555,0.9009416997863297,0.0,0.0,0.0,113.0,57.0,57.0,10.0,0.0,0.0,1.0
5600000.0,15.03125,2.2684306087386274E-6,5600000.0,88.2,75.7201646090535,75.7201646090535,72.55813953488372,175598.0,126096.0,1679999.0,0.9639022184000294,1.0,0.0,0.0,0.0,135.0,68.0,68.0,10.0,0.0,0.0,1.0
5700000.0,15.265625,2.280562540464517E-6,5700000.0,90.3,79.74897074665755,78.82096069868996,75.6281407035176,205599.0,147168.0,1710000.0,0.9033295553742609,0.9087313577660229,0.0,0.0,0.0,159.0,80.0,80.0,11.0,0.0,0.0,1.0
5800000.0,15.484375,2.2928852963054343E-6,5800000.0,89.1,77.61016211064278,76.90677966101696,74.41314553990611,235599.0,164616.0,1740000.0,0.9259664587303946,0.9084101302118438,0.0,0.0,0.0,177.0,89.0,89.0,12.0,0.0,0.0,1.0
5900000.0,15.71875,2.30743139076771E-6,5900000.0,88.8,76.78708367012787,77.51004016064257,73.01204819277109,265599.0,186480.0,1770000.0,0.9491706294702931,0.9016671742671467,0.0,0.0,0.0,201.0,101.0,101.0,12.0,0.0,0.0,1.0
6000000.0,15.953125,2.3235893523734475E-6,6000000.0,89.60000000000001,78.36983423805661,78.64476386036962,74.32098765432099,295599.0,212720.0,1800000.0,0.8985088035393428,0.9039907638272688,0.0,0.0,0.0,231.0,116.0,116.0,12.0,0.0,0.0,1.0
6100000.0,16.1875,2.3414450374224945E-6,6100000.0,87.9,75.30209013716525,76.90839694656488,72.31121281464532,325599.0,240368.0,1830000.0,0.911905843278421,0.8947734888649492,0.0,0.0,0.0,259.0,130.0,130.0,13.0,0.0,0.0,1.0
6200000.0,16.4375,2.36160868856435E-6,6200000.0,90.7,81.12380349270526,80.08565310492506,78.91156462585033,355598.0,257432.0,1859999.0,0.9536416565257658,0.9999999994761023,0.0,0.0,0.0,277.0,139.0,139.0,13.0,0.0,0.0,1.0
6300000.0,16.6875,2.3831253444465496E-6,6300000.0,90.4,80.24943319987986,80.40816326530613,77.72621809744781,385599.0,278080.0,1890000.0,0.9026509161435118,0.897606993483187,0.0,0.0,0.0,301.0,151.0,151.0,13.0,0.0,0.0,1.0
6400000.0,16.9375,2.405855306682901E-6,6400000.0,88.1,75.69523871768897,75.05241090146751,73.01587301587301,415599.0,296600.0,1920000.0,0.8891670648114182,0.6086082911282389,0.0,0.0,0.0,321.0,161.0,161.0,14.0,0.0,0.0,1.0
6500000.0,17.1875,2.43062486535766E-6,6500000.0,89.1,77.49514803650328,77.5257731958763,73.60774818401937,445598.0,327736.0,1949999.0,0.948552406718584,1.0,0.0,0.0,0.0,353.0,177.0,177.0,14.0,0.0,0.0,1.0
6600000.0,17.4375,2.4565296027705896E-6,6600000.0,89.7,78.60318251693049,78.76288659793815,74.56790123456791,475599.0,345064.0,1980000.0,0.9158802450652376,0.8841160862183011,0.0,0.0,0.0,373.0,187.0,187.0,14.0,0.0,0.0,1.0
6700000.0,17.6875,2.4837588878451943E-6,6700000.0,88.5,76.63361508452536,77.36220472440945,74.50110864745011,505599.0,365280.0,2010000.0,0.9021987732563752,0.8995168783845265,0.0,0.0,0.0,395.0,198.0,198.0,14.0,0.0,0.0,1.0
6800000.0,17.9375,2.5124306881075925E-6,6800000.0,88.1,75.37557422505485,74.40860215053763,70.76167076167077,535599.0,387288.0,2040000.0,0.9065849817495507,0.8851430971804354,0.0,0.0,0.0,421.0,211.0,211.0,14.0,0.0,0.0,1.0
6900000.0,18.1875,2.541837198401076E-6,6900000.0,89.3,77.89274468806043,77.80082987551867,74.15458937198068,565599.0,398520.0,2070000.0,0.9385964988031409,0.8932070620455699,0.0,0.0,0.0,429.0,215.0,215.0,14.0,0.0,0.0,1.0
7000000.0,18.4375,2.5722050405521352E-6,7000000.0,87.7,73.90994476544404,71.98177676537586,67.54617414248021,595599.0,413192.0,2100000.0,0.9063578965676268,0.8944256491351597,0.0,0.0,0.0,445.0,223.0,223.0,15.0,0.0,0.0,1.0
7100000.0,18.703125,2.605749016058527E-6,7100000.0,88.8,77.2959473265978,78.37837837837837,74.42922374429224,625599.0,431544.0,2130000.0,0.9290706883595312,0.8939974810861793,0.0,0.0,0.0,467.0,234.0,234.0,15.0,0.0,0.0,1.0
7200000.0,18.953125,2.6384938003805768E-6,7200000.0,88.7,76.33309596615423,75.5939524838013,71.8905472636816,655598.0,449464.0,2159999.0,0.9430177168750715,1.0,0.0,0.0,0.0,485.0,243.0,243.0,15.0,0.0,0.0,1.0
7300000.0,19.21875,2.6744494809665604E-6,7300000.0,87.3,74.11417483327082,72.74678111587983,70.60185185185186,685599.0,466192.0,2190000.0,0.9196415553110578,0.9056162818656799,0.0,0.0,0.0,503.0,252.0,252.0,15.0,0.0,0.0,1.0
7400000.0,19.5,2.713744308696024E-6,7400000.0,87.9,74.74599901488526,74.84407484407485,68.89460154241645,715599.0,482800.0,2220000.0,0.9059038968332854,0.8983862086292533,0.0,0.0,0.0,521.0,261.0,261.0,15.0,0.0,0.0,1.0
7500000.0,19.765625,2.7525152028020875E-6,7500000.0,87.6,74.21093788995557,75.0503018108652,68.84422110552764,745599.0,506624.0,2250000.0,0.9012951668113113,0.8978350523303167,0.0,0.0,0.0,549.0,275.0,275.0,15.0,0.0,0.0,1.0
7600000.0,20.015625,2.7903201731128815E-6,7600000.0,88.0,75.80010889950995,75.95190380761522,74.19354838709677,775599.0,526696.0,2280000.0,0.9238810895956144,0.8796836836866946,0.0,0.0,0.0,569.0,285.0,285.0,15.0,0.0,0.0,1.0
7700000.0,20.296875,2.834854272401166E-6,7700000.0,88.1,75.59855313773899,77.41935483870968,71.73396674584323,805599.0,553864.0,2310000.0,0.9100801007107007,0.9027909108653537,0.0,0.0,0.0,601.0,301.0,301.0,15.0,0.0,0.0,1.0
7800000.0,20.578125,2.8804017670659544E-6,7800000.0,88.6,75.62769378121365,75.43103448275862,69.5187165775401,835599.0,567632.0,2340000.0,0.9145046257550118,0.8984112723146965,0.0,0.0,0.0,613.0,307.0,307.0,15.0,0.0,0.0,1.0
7900000.0,20.859375,2.9271972339807275E-6,7900000.0,88.1,75.43149723346272,75.10460251046025,71.32530120481928,865599.0,584552.0,2370000.0,0.9008437030265523,0.8914075533771382,0.0,0.0,0.0,635.0,318.0,318.0,15.0,0.0,0.0,1.0
8000000.0,21.140625,2.9758763008026605E-6,8000000.0,87.8,75.16205739600639,76.44787644787645,72.39819004524887,895599.0,610120.0,2400000.0,0.8873868479480035,0.8918959678640839,0.0,0.0,0.0,659.0,330.0,330.0,16.0,0.0,0.0,1.0
8100000.0,21.4375,3.0289500136859704E-6,8100000.0,87.1,73.5655737704918,72.84210526315789,69.64705882352942,925599.0,631840.0,2430000.0,0.9096242365034826,0.9007144327324473,0.0,0.0,0.0,683.0,342.0,342.0,16.0,0.0,0.0,1.0
8200000.0,21.734375,3.0837084503016527E-6,8200000.0,87.1,73.58765622184731,74.2,70.06960556844548,955598.0,653488.0,2459999.0,0.9703758639867328,1.0,0.0,0.0,0.0,707.0,354.0,354.0,16.0,0.0,0.0,1.0
8300000.0,22.03125,3.1399390233370153E-6,8300000.0,89.1,77.39770908155901,77.89046653144015,73.60774818401937,985599.0,672416.0,2490000.0,0.8914776884975607,0.8955263713488463,0.0,0.0,0.0,727.0,364.0,364.0,16.0,0.0,0.0,1.0
8400000.0,22.359375,3.203829110134392E-6,8400000.0,90.2,79.6542890004443,80.5168986083499,76.83215130023642,1015599.0,692656.0,2520000.0,0.8958117744270538,0.8872298763143684,0.0,0.0,0.0,749.0,375.0,375.0,16.0,1719.0626702997274,0.0,1.0744845426187517
8500000.0,22.671875,3.2663926443395507E-6,8500000.0,87.5,73.8906666443867,72.88503253796095,69.21182266009852,1045599.0,713616.0,2550000.0,0.9001669313279098,0.9018740318141382,0.0,0.0,0.0,771.0,386.0,386.0,16.0,1719.0626702997274,0.0,1.0744845426187517
8600000.0,22.96875,3.3272042896391608E-6,8600000.0,87.2,73.75145084754105,73.98373983739837,70.16317016317016,1075599.0,731296.0,2580000.0,0.8955873877629787,0.8981719915488405,0.0,0.0,0.0,791.0,396.0,396.0,16.0,1719.0626702997274,0.0,1.0744845426187517
8700000.0,23.28125,3.3933514755012252E-6,8700000.0,89.1,76.93609818027932,77.38589211618257,72.75,1105599.0,757368.0,2610000.0,0.8910311423425553,0.8993049285849637,0.0,0.0,0.0,819.0,410.0,410.0,16.0,1719.0626702997274,0.0,1.0744845426187517
8800000.0,23.59375,3.462872118689119E-6,8800000.0,89.8,79.13675245143159,79.60000000000001,76.76537585421413,1135599.0,798568.0,2640000.0,0.9317183878365972,0.9202071424075606,0.0,0.0,0.0,863.0,432.0,432.0,16.0,1719.0626702997274,0.0,1.0744845426187517
8900000.0,23.921875,3.5376072628423566E-6,8900000.0,90.5,80.40137974286611,81.11332007952286,77.21822541966428,1165599.0,818784.0,2670000.0,0.9269783281889176,0.9053796178710369,0.0,0.0,0.0,885.0,443.0,443.0,16.0,1719.0626702997274,0.0,1.0744845426187517
9000000.0,24.21875,3.6059891054820677E-6,9000000.0,89.2,77.87855325738305,77.68595041322315,74.82517482517483,1195599.0,828608.0,2700000.0,0.9040901708669924,0.8593962729677413,0.0,0.0,0.0,897.0,449.0,449.0,16.0,1719.0626702997274,0.0,1.0744845426187517
9100000.0,24.546875,3.683393749977565E-6,9100000.0,87.3,74.07104940792159,73.92197125256673,70.60185185185186,1225599.0,849824.0,2730000.0,0.9740195015625978,0.8894735635428596,0.0,0.0,0.0,919.0,460.0,460.0,16.0,1719.0626702997274,0.0,1.0744845426187517
9200000.0,24.875,3.762709351980851E-6,9200000.0,87.9,75.07682927834033,75.25562372188139,71.32701421800948,1255599.0,872048.0,2760000.0,0.9038637105956766,0.9120946830711609,0.0,0.0,0.0,943.0,472.0,472.0,16.0,1719.0626702997274,0.0,1.0744845426187517
9300000.0,25.1875,3.839803458605375E-6,9300000.0,87.0,73.24662495884097,73.8430583501006,68.44660194174757,1285599.0,891048.0,2790000.0,0.8992653598949413,0.8964867705276641,0.0,0.0,0.0,963.0,482.0,482.0,16.0,1719.0626702997274,0.0,1.0744845426187517
9400000.0,25.5,3.918568125098116E-6,9400000.0,89.2,77.78801540030933,78.13765182186235,74.16267942583733,1315599.0,911432.0,2820000.0,0.9497318913538715,0.9437667638241328,0.0,0.0,0.0,989.0,495.0,495.0,16.0,1719.0626702997274,0.0,1.0744845426187517
9500000.0,25.828125,4.0036695685962E-6,9500000.0,89.1,77.64286007301966,77.5257731958763,74.65116279069768,1345599.0,939344.0,2850000.0,0.9355447417045903,0.9095768327579055,0.0,0.0,0.0,1015.0,508.0,508.0,16.0,1719.0626702997274,0.0,1.0744845426187517
9600000.0,26.15625,4.090358043969091E-6,9600000.0,87.9,75.2813028591974,75.89641434262948,72.43735763097949,1375599.0,957792.0,2880000.0,0.9124450698150957,0.9004268986448839,0.0,0.0,0.0,1037.0,519.0,519.0,16.0,1719.0626702997274,0.0,1.0744845426187517
9700000.0,26.46875,4.174393737533439E-6,9700000.0,89.0,77.16259814892477,78.515625,73.2360097323601,1405599.0,975808.0,2910000.0,0.9260499035261243,0.9073876407630063,0.0,0.0,0.0,1055.0,528.0,528.0,16.0,1719.0626702997274,0.0,1.0744845426187517
9800000.0,26.78125,4.258794845857967E-6,9800000.0,90.3,80.08426205004805,80.44354838709677,76.73860911270984,1435599.0,980256.0,2940000.0,0.9587487269965888,0.9013935737783206,0.0,0.0,0.0,1065.0,533.0,533.0,16.0,1719.0626702997274,0.0,1.0744845426187517
9900000.0,27.109375,4.349438337764391E-6,9900000.0,90.2,79.97343414733832,81.1175337186898,77.15617715617716,1465599.0,1003792.0,2970000.0,0.9075756716885847,0.9078180457492933,0.0,0.0,0.0,1085.0,543.0,543.0,17.0,1719.0626702997274,0.0,1.0744845426187517
1.0E7,27.421875,4.4373655368366996E-6,1.0E7,89.7,78.82610268723481,78.4518828451883,75.6501182033097,1495599.0,1023320.0,3000000.0,0.9029584366154777,0.9016313663358583,0.0,0.0,0.0,1111.0,556.0,556.0,17.0,1719.0626702997274,0.0,1.0744845426187517
