learning evaluation instances,evaluation time (cpu seconds),model cost (RAM-Hours),classified instances,classifications correct (percent),Kappa Statistic (percent),Kappa Temporal Statistic (percent),Kappa M Statistic (percent),model training instances,model serialized size (bytes),labeling cost,newThreshold,maxPosterior,accuracyBaseLearner (percent),Change detected,Warning detected
100000.0,0.375,1.4530960470438004E-8,100000.0,82.3,63.65712032983729,62.97071129707111,58.93271461716937,29700.0,3024.0,0.0,1.0,0.0,?,0.0,3.0
200000.0,0.75,2.766493707895279E-8,200000.0,83.1,65.77284510693453,67.18446601941747,62.61061946902654,59700.0,3024.0,0.0,1.0,0.0,?,0.0,0.0
300000.0,1.125,3.9200143267711006E-8,300000.0,84.2,68.10181577385399,67.15176715176715,65.57734204793027,12596.0,3024.0,0.0,1.0,0.0,?,1.0,16.0
400000.0,1.5,4.960146422187488E-8,400000.0,81.69999999999999,63.0988869172447,63.83399209486165,60.217391304347814,29961.0,3024.0,0.0,1.0,0.0,?,2.0,7.0
500000.0,1.875,5.861899505058925E-8,500000.0,81.6,62.864742898891166,61.746361746361735,60.25917926565874,59961.0,3024.0,0.0,1.0,0.0,?,0.0,11.0
600000.0,2.265625,6.655625636792846E-8,600000.0,79.9,59.19676497336626,60.43307086614173,55.530973451327434,1718.0,3024.0,0.0,1.0,0.0,?,3.0,68.0
700000.0,2.640625,7.27681779406137E-8,700000.0,84.39999999999999,68.31599514178592,68.09815950920245,63.972286374133944,20692.0,3024.0,0.0,1.0,0.0,?,1.0,53.0
800000.0,3.015625,7.759475718355843E-8,800000.0,82.1,63.720236406236054,64.05622489959838,59.5022624434389,50692.0,3024.0,0.0,1.0,0.0,?,0.0,42.0
900000.0,3.390625,8.101426323668826E-8,900000.0,76.5,53.25987509447473,50.63025210084034,52.90581162324649,12535.0,3024.0,0.0,1.0,0.0,?,8.0,40.0
1000000.0,3.765625,8.303678542789487E-8,1000000.0,76.2,53.52706169965985,53.69649805447471,47.921225382932164,42535.0,3024.0,0.0,1.0,0.0,?,0.0,0.0
1100000.0,4.140625,9.764613221502968E-8,1100000.0,77.8,56.30471751590351,57.059961315280475,52.96610169491526,72235.0,3024.0,0.0,1.0,0.0,?,0.0,0.0
1200000.0,4.515625,1.1085849514024127E-7,1200000.0,76.0,52.953906589981536,51.417004048582996,48.16414686825054,102235.0,3024.0,0.0,1.0,0.0,?,0.0,0.0
1300000.0,4.9375,1.2415079658644068E-7,1300000.0,76.3,53.091228653540135,53.980582524271846,50.931677018633536,132235.0,3024.0,0.0,1.0,0.0,?,0.0,0.0
1400000.0,5.296875,1.3413509198774896E-7,1400000.0,77.4,54.91397746496857,57.1969696969697,54.61847389558233,162235.0,3024.0,0.0,1.0,0.0,?,0.0,0.0
1500000.0,5.671875,1.431565033271909E-7,1500000.0,76.7,53.97367215031843,50.63559322033898,51.25523012552301,192235.0,3024.0,0.0,1.0,0.0,?,0.0,0.0
1600000.0,6.046875,1.507809308047096E-7,1600000.0,76.2,52.96219583537559,53.87596899224807,50.62240663900415,222235.0,3024.0,0.0,1.0,0.0,?,0.0,0.0
1700000.0,6.40625,1.5674889760298864E-7,1700000.0,75.4,52.08787784356497,47.99154334038055,45.814977973568276,252235.0,3024.0,0.0,1.0,0.0,?,0.0,0.0
1800000.0,6.765625,1.6137808820025792E-7,1800000.0,76.4,53.91489095794538,53.90625,48.471615720524014,282235.0,3024.0,0.0,1.0,0.0,?,0.0,0.0
1900000.0,7.140625,1.6481156409200698E-7,1900000.0,75.7,52.60755938682373,51.4,46.11973392461197,312235.0,3024.0,0.0,1.0,0.0,?,0.0,0.0
2000000.0,7.515625,1.6684805612183283E-7,2000000.0,76.2,53.69775920500219,51.724137931034484,47.22838137472284,342235.0,3024.0,0.0,1.0,0.0,?,0.0,0.0
2100000.0,7.890625,1.8147137274758688E-7,2100000.0,78.4,57.45703357349101,57.05765407554673,54.33403805496829,371935.0,3024.0,0.0,1.0,0.0,?,0.0,0.0
2200000.0,8.265625,1.946977055114177E-7,2200000.0,77.7,55.72726406403864,56.015779092702175,54.20944558521561,401935.0,3024.0,0.0,1.0,0.0,?,0.0,0.0
2300000.0,8.625,2.0603416487574582E-7,2300000.0,75.9,52.447099865036584,52.27722772277228,49.68684759916492,431935.0,3024.0,0.0,1.0,0.0,?,0.0,0.0
2400000.0,9.0,2.1646652991573022E-7,2400000.0,75.7,52.391774552521866,52.81553398058253,48.18763326226013,461935.0,3024.0,0.0,1.0,0.0,?,0.0,0.0
2500000.0,9.375,2.2550191109379137E-7,2500000.0,76.8,54.50409463148317,54.59882583170255,50.0,491935.0,3024.0,0.0,1.0,0.0,?,0.0,0.0
2600000.0,9.765625,2.334585749647684E-7,2600000.0,75.2,51.20569161997103,52.39923224568138,47.89915966386554,521935.0,3024.0,0.0,1.0,0.0,?,0.0,0.0
2700000.0,10.140625,2.396999884189831E-7,2700000.0,76.0,53.019477341685416,54.28571428571429,48.387096774193544,551935.0,3024.0,0.0,1.0,0.0,?,0.0,0.0
2800000.0,10.515625,2.445444180112746E-7,2800000.0,76.3,53.36481700118064,52.31388329979879,50.10526315789474,581935.0,3024.0,0.0,1.0,0.0,?,0.0,0.0
2900000.0,10.890625,2.479918637416429E-7,2900000.0,75.0,50.55066776378252,49.392712550607285,48.34710743801653,611935.0,3024.0,0.0,1.0,0.0,?,0.0,0.0
3000000.0,11.25,2.4995688969890275E-7,3000000.0,75.3,52.31770692570827,48.541666666666664,44.24379232505643,641935.0,3024.0,0.0,1.0,0.0,?,0.0,0.0
3100000.0,11.625,2.64594176163276E-7,3100000.0,75.9,52.54522971259343,53.38491295938105,49.15611814345991,671635.0,3024.0,0.0,1.0,0.0,?,0.0,0.0
3200000.0,12.0,2.7783447876572603E-7,3200000.0,76.9,54.665703721729855,51.059322033898304,50.74626865671642,701635.0,3024.0,0.0,1.0,0.0,?,0.0,0.0
3300000.0,12.375,2.8967779750625284E-7,3300000.0,73.2,47.51519709218524,48.65900383141762,42.735042735042725,731635.0,3024.0,0.0,1.0,0.0,?,0.0,0.0
3400000.0,12.75,3.0012413238485643E-7,3400000.0,77.7,56.18240694164991,56.27450980392157,52.45202558635395,761635.0,3024.0,0.0,1.0,0.0,?,0.0,0.0
3500000.0,13.125,3.091734834015368E-7,3500000.0,75.6,52.23179326546594,50.70707070707071,47.41379310344827,791635.0,3024.0,0.0,1.0,0.0,?,0.0,0.0
3600000.0,13.5,3.1682585055629396E-7,3600000.0,79.0,58.47241777538721,57.31707317073172,56.431535269709556,821635.0,3024.0,0.0,1.0,0.0,?,0.0,0.0
3700000.0,13.875,3.230812338491279E-7,3700000.0,76.6,54.34235429552593,51.5527950310559,48.57142857142857,851635.0,3024.0,0.0,1.0,0.0,?,0.0,0.0
3800000.0,14.25,3.279396332800386E-7,3800000.0,77.60000000000001,55.977611470976676,54.37881873727088,52.13675213675214,881635.0,3024.0,0.0,1.0,0.0,?,0.0,0.0
3900000.0,14.640625,3.3154527449773396E-7,3900000.0,76.4,53.29026537462791,53.359683794466406,51.2396694214876,911635.0,3024.0,0.0,1.0,0.0,?,0.0,0.0
4000000.0,15.015625,3.3360970620479825E-7,4000000.0,75.7,52.368631509620364,52.5390625,48.29787234042553,941635.0,3024.0,0.0,1.0,0.0,?,0.0,0.0
4100000.0,15.375,3.4765049349516605E-7,4100000.0,75.5,52.34501431594673,53.510436432637576,45.79646017699115,971335.0,3024.0,0.0,1.0,0.0,?,0.0,0.0
4200000.0,15.75,3.6090476593623535E-7,4200000.0,76.6,53.87162908058666,53.47912524850895,50.63291139240506,1001335.0,3024.0,0.0,1.0,0.0,?,0.0,0.0
4300000.0,16.125,3.7276205451538143E-7,4300000.0,76.1,53.236649944040515,52.952755905511815,48.71244635193133,1031335.0,3024.0,0.0,1.0,0.0,?,0.0,0.0
4400000.0,16.5,3.832223592326043E-7,4400000.0,74.9,50.59988663559643,45.905172413793096,47.37945492662474,1061335.0,3024.0,0.0,1.0,0.0,?,0.0,0.0
4500000.0,16.875,3.9228568008790394E-7,4500000.0,77.7,56.08956940210928,53.541666666666664,52.95358649789029,1091335.0,3024.0,0.0,1.0,0.0,?,0.0,0.0
4600000.0,17.25,3.9995201708128037E-7,4600000.0,75.6,52.14184842303467,52.804642166344294,48.08510638297872,1121335.0,3024.0,0.0,1.0,0.0,?,0.0,0.0
4700000.0,17.625,4.062213702127336E-7,4700000.0,77.0,55.02805858084196,51.271186440677965,49.45054945054945,1151335.0,3024.0,0.0,1.0,0.0,?,0.0,0.0
4800000.0,17.984375,4.1089072409603313E-7,4800000.0,76.8,54.51979173201179,54.50980392156863,50.427350427350426,1181335.0,3024.0,0.0,1.0,0.0,?,0.0,0.0
4900000.0,18.359375,4.143661095036399E-7,4900000.0,76.8,54.62084937251589,53.13131313131313,49.78354978354979,1211335.0,3024.0,0.0,1.0,0.0,?,0.0,0.0
5000000.0,18.734375,4.167658173375658E-7,5000000.0,76.4,53.381795195954496,52.323232323232325,50.83333333333333,1241335.0,3024.0,0.0,1.0,0.0,?,0.0,0.0
5100000.0,19.109375,4.31731395009491E-7,5100000.0,78.3,54.5435502115715,52.41228070175439,41.351351351351354,27282.0,3024.0,0.0,1.0,0.0,?,3.0,15.0
5200000.0,19.53125,4.4695502664479926E-7,5200000.0,80.0,58.67375824975102,56.896551724137936,48.32041343669252,10444.0,3024.0,0.0,1.0,0.0,?,2.0,23.0
5300000.0,19.90625,4.59090159792039E-7,5300000.0,78.0,54.79650207114209,54.73251028806585,44.44444444444445,40444.0,3024.0,0.0,1.0,0.0,?,0.0,0.0
5400000.0,20.28125,4.69891173351142E-7,5400000.0,77.2,53.2326878897276,51.385927505330486,38.37837837837838,70444.0,3024.0,0.0,1.0,0.0,?,0.0,28.0
5500000.0,20.65625,4.792998596611949E-7,5500000.0,75.7,50.88845413830458,50.709939148073026,40.2948402948403,100444.0,3024.0,0.0,1.0,0.0,?,0.0,13.0
5600000.0,21.046875,4.875774741069309E-7,5600000.0,78.9,55.59390521087635,53.829321663019705,45.194805194805205,2725.0,3024.0,0.0,1.0,0.0,?,5.0,66.0
5700000.0,21.421875,4.941921926931373E-7,5700000.0,76.8,50.61307901907357,47.98206278026906,35.55555555555556,32725.0,3024.0,0.0,1.0,0.0,?,0.0,17.0
5800000.0,21.78125,4.991925218039088E-7,5800000.0,78.8,55.90902284411761,56.10766045548655,46.73366834170856,62725.0,3024.0,0.0,1.0,0.0,?,0.0,0.0
5900000.0,22.140625,5.028540747136705E-7,5900000.0,77.2,52.70180562931493,52.79503105590062,42.71356783919599,92725.0,3024.0,0.0,1.0,0.0,?,0.0,0.0
6000000.0,22.515625,5.052778417141073E-7,6000000.0,78.2,55.47622062553869,53.41880341880342,46.69926650366749,122725.0,3024.0,0.0,1.0,0.0,?,0.0,0.0
6100000.0,22.875,5.19662991993957E-7,6100000.0,77.10000000000001,52.91088848311373,48.9977728285078,40.364583333333336,152425.0,3024.0,0.0,1.0,0.0,?,0.0,0.0
6200000.0,23.25,5.332765997283987E-7,6200000.0,79.60000000000001,56.67041906501562,56.0344827586207,43.490304709141284,182425.0,3024.0,0.0,1.0,0.0,?,0.0,0.0
6300000.0,23.625,5.454932236009172E-7,6300000.0,79.60000000000001,57.4899038521649,57.588357588357596,47.28682170542637,212425.0,3024.0,0.0,1.0,0.0,?,0.0,0.0
6400000.0,24.0,5.563128636115125E-7,6400000.0,79.5,56.522107977875066,52.87356321839082,43.52617079889808,242425.0,3024.0,0.0,1.0,0.0,?,0.0,0.0
6500000.0,24.390625,5.66128130433046E-7,6500000.0,79.2,55.78174891686544,53.153153153153156,43.63143631436316,272425.0,3024.0,0.0,1.0,0.0,?,0.0,0.0
6600000.0,24.765625,5.741538027197948E-7,6600000.0,77.9,54.90016815502915,53.37552742616034,42.44791666666667,302425.0,3024.0,0.0,1.0,0.0,?,0.0,0.0
6700000.0,25.140625,5.807824911446204E-7,6700000.0,78.2,55.06118275668723,52.81385281385281,45.771144278606975,332425.0,3024.0,0.0,1.0,0.0,?,0.0,0.0
6800000.0,25.515625,5.860141957075228E-7,6800000.0,79.4,57.387303898854846,53.70786516853933,46.90721649484537,362425.0,3024.0,0.0,1.0,0.0,?,0.0,0.0
6900000.0,25.875,5.896891363792946E-7,6900000.0,79.0,56.47920949665098,55.789473684210535,45.87628865979382,392425.0,3024.0,0.0,1.0,0.0,?,0.0,0.0
7000000.0,26.25,5.921268732183506E-7,7000000.0,78.9,55.41261294767005,55.765199161425585,41.71270718232045,422425.0,3024.0,0.0,1.0,0.0,?,0.0,0.0
7100000.0,26.609375,6.065254112602104E-7,7100000.0,79.80000000000001,57.644355166759645,58.85947046843179,46.98162729658794,452125.0,3024.0,0.0,1.0,0.0,?,0.0,0.0
7200000.0,27.0,6.207208045654823E-7,7200000.0,79.2,56.444533788990526,57.80933062880326,44.97354497354498,482125.0,3024.0,0.0,1.0,0.0,?,0.0,0.0
7300000.0,27.34375,6.319321821340253E-7,7300000.0,78.2,54.49820706237921,54.29769392033543,41.23989218328842,512125.0,3024.0,0.0,1.0,0.0,?,0.0,0.0
7400000.0,27.71875,6.427657919832399E-7,7400000.0,79.4,57.567767982203186,56.81341719077568,47.17948717948719,542125.0,3024.0,0.0,1.0,0.0,?,0.0,0.0
7500000.0,28.09375,6.522024179705313E-7,7500000.0,78.10000000000001,55.04335544899166,53.404255319148945,45.79207920792081,572125.0,3024.0,0.0,1.0,0.0,?,0.0,0.0
7600000.0,28.46875,6.602420600958994E-7,7600000.0,75.6,49.56343431670856,49.89733059548255,38.38383838383839,602125.0,3024.0,0.0,1.0,0.0,?,0.0,0.0
7700000.0,28.84375,6.668847183593444E-7,7700000.0,76.5,49.851475006828736,49.134199134199136,33.98876404494382,632125.0,3024.0,0.0,1.0,0.0,?,0.0,0.0
7800000.0,29.265625,6.727861020610563E-7,7800000.0,80.0,58.31162063574779,56.98924731182796,46.66666666666668,662125.0,3024.0,0.0,1.0,0.0,?,0.0,0.0
7900000.0,29.640625,6.766347926006548E-7,7900000.0,79.60000000000001,57.02204937408094,58.704453441295556,45.888594164456244,692125.0,3024.0,0.0,1.0,0.0,?,0.0,0.0
8000000.0,30.015625,6.790864992783301E-7,8000000.0,77.4,53.2429916209786,52.016985138004245,41.90231362467867,722125.0,3024.0,0.0,1.0,0.0,?,0.0,0.0
8100000.0,30.390625,6.941250305519336E-7,8100000.0,77.0,52.2787914500193,48.19819819819819,38.33780160857909,751825.0,3024.0,0.0,1.0,0.0,?,0.0,0.0
8200000.0,30.765625,7.077665779636138E-7,8200000.0,78.4,55.27042754016344,56.886227544910184,45.591939546599505,781825.0,3024.0,0.0,1.0,0.0,?,0.0,0.0
8300000.0,31.125,7.195009513654642E-7,8300000.0,76.5,51.74339808616371,51.041666666666664,42.26044226044227,811825.0,3024.0,0.0,1.0,0.0,?,0.0,0.0
8400000.0,31.5,7.303485310532981E-7,8400000.0,77.5,53.140229425436736,49.664429530201346,40.633245382585756,841825.0,3024.0,0.0,1.0,0.0,?,0.0,0.0
8500000.0,31.875,7.397991268792087E-7,8500000.0,77.2,52.6292825829507,50.542299349240785,42.27848101265824,871825.0,3024.0,0.0,1.0,0.0,?,0.0,0.0
8600000.0,32.25,7.47852738843196E-7,8600000.0,77.3,53.03513054992345,53.861788617886184,43.53233830845772,901825.0,3024.0,0.0,1.0,0.0,?,0.0,0.0
8700000.0,32.625,7.545093669452602E-7,8700000.0,76.9,52.06673306772909,50.32258064516129,40.31007751937985,931825.0,3024.0,0.0,1.0,0.0,?,0.0,0.0
8800000.0,33.0,7.597690111854012E-7,8800000.0,77.5,53.41576327754267,50.22123893805309,42.455242966751925,961825.0,3024.0,0.0,1.0,0.0,?,0.0,0.0
8900000.0,33.375,7.636316715636189E-7,8900000.0,78.9,55.90607785607411,54.81798715203426,44.764397905759175,991825.0,3024.0,0.0,1.0,0.0,?,0.0,0.0
9000000.0,33.75,7.660973480799134E-7,9000000.0,79.10000000000001,55.8885605740819,55.53191489361703,43.36043360433605,1021825.0,3024.0,0.0,1.0,0.0,?,0.0,0.0
9100000.0,34.171875,7.830314118311639E-7,9100000.0,79.3,56.46211573084754,55.09761388286335,43.750000000000014,1051525.0,3024.0,0.0,1.0,0.0,?,0.0,0.0
9200000.0,34.546875,7.966869290814633E-7,9200000.0,76.5,51.41094349609634,49.353448275862064,39.432989690721655,1081525.0,3024.0,0.0,1.0,0.0,?,0.0,0.0
9300000.0,34.921875,8.089454624698396E-7,9300000.0,80.80000000000001,60.122125989158214,59.235668789808926,50.895140664961644,1111525.0,3024.0,0.0,1.0,0.0,?,0.0,0.0
9400000.0,35.296875,8.198070119962926E-7,9400000.0,78.9,56.20334930215953,55.765199161425585,48.15724815724817,1141525.0,3024.0,0.0,1.0,0.0,?,0.0,0.0
9500000.0,35.65625,8.288772207581337E-7,9500000.0,77.4,52.36087689713324,52.320675105485236,39.24731182795699,1171525.0,3024.0,0.0,1.0,0.0,?,0.0,0.0
9600000.0,36.03125,8.369448025607403E-7,9600000.0,79.5,56.23548298947944,54.44444444444445,42.89693593314764,1201525.0,3024.0,0.0,1.0,0.0,?,0.0,0.0
9700000.0,36.40625,8.436154005014237E-7,9700000.0,77.60000000000001,53.32497072392138,51.931330472103014,40.89709762532982,1231525.0,3024.0,0.0,1.0,0.0,?,0.0,0.0
9800000.0,36.765625,8.486692806602356E-7,9800000.0,78.4,54.57604306864066,53.6480686695279,40.659340659340664,1261525.0,3024.0,0.0,1.0,0.0,?,0.0,0.0
9900000.0,37.140625,8.525459108770725E-7,9900000.0,78.0,52.55675936788352,52.991452991452995,34.9112426035503,1291525.0,3024.0,0.0,1.0,0.0,?,0.0,0.0
1.0E7,37.515625,8.550240050276952E-7,1.0E7,78.5,54.9330493766088,54.83193277310925,42.51336898395723,1321525.0,3024.0,0.0,1.0,0.0,?,0.0,20.0
