learning evaluation instances,evaluation time (cpu seconds),model cost (RAM-Hours),classified instances,classifications correct (percent),Kappa Statistic (percent),Kappa Temporal Statistic (percent),Kappa M Statistic (percent),model training instances,model serialized size (bytes),labeling cost,newThreshold,maxPosterior,accuracyBaseLearner (percent),Change detected,Warning detected
100000.0,0.421875,1.8080463632941246E-8,100000.0,66.8,26.0513186029936,29.21108742004265,19.417475728155356,29700.0,2904.0,0.0,1.0,0.0,?,0.0,6.0
200000.0,0.828125,3.389380354848173E-8,200000.0,68.7,25.600190159258386,32.543103448275865,15.40540540540542,59700.0,2904.0,0.0,1.0,0.0,?,0.0,0.0
300000.0,1.234375,4.81096665478415E-8,300000.0,68.0,26.536421864597457,27.43764172335601,17.312661498708025,89700.0,2904.0,0.0,1.0,0.0,?,0.0,50.0
400000.0,1.640625,6.072805263102054E-8,400000.0,65.5,19.683763548999902,28.865979381443303,9.448818897637803,119700.0,2904.0,0.0,1.0,0.0,?,0.0,0.0
500000.0,2.0625,7.217284291982651E-8,500000.0,65.4,18.50271108033374,27.615062761506277,9.186351706036753,149700.0,2904.0,0.0,1.0,0.0,?,0.0,0.0
600000.0,2.46875,8.159627517064413E-8,600000.0,67.7,23.56838618078562,33.26446280991736,12.938005390835592,179700.0,2904.0,0.0,1.0,0.0,?,0.0,0.0
700000.0,2.890625,8.972322878738245E-8,700000.0,69.1,25.45451036399427,33.83297644539613,14.876033057851224,209700.0,2904.0,0.0,1.0,0.0,?,0.0,0.0
800000.0,3.296875,9.595170720583863E-8,800000.0,66.5,23.892695516257437,27.645788336933048,14.540816326530626,239700.0,2904.0,0.0,1.0,0.0,?,0.0,0.0
900000.0,3.703125,1.005827087081141E-7,900000.0,68.30000000000001,23.229681294197427,33.54297693920336,11.944444444444455,269700.0,2904.0,0.0,1.0,0.0,?,0.0,0.0
1000000.0,4.09375,1.0349955927166674E-7,1000000.0,68.7,28.639824905385087,33.404255319148945,19.74358974358976,299700.0,2904.0,0.0,1.0,0.0,?,0.0,0.0
1100000.0,4.484375,1.2025608965713117E-7,1100000.0,65.2,18.08835159868942,24.838012958963283,7.936507936507943,329400.0,2904.0,0.0,1.0,0.0,?,0.0,0.0
1200000.0,4.890625,1.3608540434183346E-7,1200000.0,66.60000000000001,22.668000296362152,29.087048832271766,13.917525773195887,359400.0,2904.0,0.0,1.0,0.0,?,0.0,0.0
1300000.0,5.28125,1.4976986373464266E-7,1300000.0,68.2,27.191134719296656,31.759656652360523,20.10050251256283,389400.0,2904.0,0.0,1.0,0.0,?,0.0,0.0
1400000.0,5.6875,1.6240422458698353E-7,1400000.0,65.0,23.409209276676577,27.983539094650205,18.41491841491843,419400.0,2904.0,0.0,1.0,0.0,?,0.0,0.0
1500000.0,6.109375,1.7386560405914984E-7,1500000.0,68.8,26.288533141809506,34.72803347280333,13.812154696132579,449400.0,2904.0,0.0,1.0,0.0,?,0.0,0.0
1600000.0,6.515625,1.8330501107912926E-7,1600000.0,68.7,28.768445103911606,35.463917525773205,21.35678391959801,479400.0,2904.0,0.0,1.0,0.0,?,0.0,0.0
1700000.0,6.9375,1.9144855387922793E-7,1700000.0,69.19999999999999,26.969915398914974,31.858407079646,15.84699453551911,509400.0,2904.0,0.0,1.0,0.0,?,0.0,0.0
1800000.0,7.34375,1.9769300706684593E-7,1800000.0,68.60000000000001,23.752355420867577,33.61522198731502,11.299435028248599,539400.0,2904.0,0.0,1.0,0.0,?,0.0,0.0
1900000.0,7.75,2.023399833382832E-7,1900000.0,68.2,26.296076540829194,33.61169102296452,18.04123711340208,569400.0,2904.0,0.0,1.0,0.0,?,0.0,0.0
2000000.0,8.140625,2.052721942567991E-7,2000000.0,69.8,31.07446240362977,32.28699551569505,23.15521628498727,599400.0,2904.0,0.0,1.0,0.0,?,0.0,0.0
2100000.0,8.546875,2.2271496062684393E-7,2100000.0,68.89999999999999,27.887736741545925,33.54700854700853,17.941952506596294,629100.0,2904.0,0.0,1.0,0.0,?,0.0,0.0
2200000.0,8.953125,2.3856025008070805E-7,2200000.0,66.9,19.773134907169517,29.574468085106385,7.799442896935941,659100.0,2904.0,0.0,1.0,0.0,?,0.0,0.0
2300000.0,9.359375,2.5280806261839145E-7,2300000.0,66.4,20.963492660895746,29.263157894736846,11.578947368421062,689100.0,2904.0,0.0,1.0,0.0,?,0.0,0.0
2400000.0,9.765625,2.6553659053105456E-7,2400000.0,68.60000000000001,27.373655603099355,33.61522198731502,16.710875331565,719100.0,2904.0,0.0,1.0,0.0,?,0.0,27.0
2500000.0,10.1875,2.770957588735555E-7,2500000.0,69.5,26.73552726399228,33.26039387308533,16.438356164383546,749100.0,2904.0,0.0,1.0,0.0,?,0.0,25.0
2600000.0,10.609375,2.869960088800226E-7,2600000.0,70.3,30.372565384146494,34.29203539823008,21.42857142857142,779100.0,2904.0,0.0,1.0,0.0,?,0.0,0.0
2700000.0,11.03125,2.952373405504559E-7,2700000.0,69.0,28.088928478640085,34.04255319148935,18.848167539267003,809100.0,2904.0,0.0,1.0,0.0,?,0.0,0.0
2800000.0,11.453125,3.0181975388485534E-7,2800000.0,69.0,26.56255922374256,34.32203389830507,17.553191489361687,839100.0,2904.0,0.0,1.0,0.0,?,0.0,0.0
2900000.0,11.84375,3.063785455500087E-7,2900000.0,66.3,25.810797721048605,32.32931726907631,19.377990430622024,869100.0,2904.0,0.0,1.0,0.0,?,0.0,0.0
3000000.0,12.265625,3.0964312221234053E-7,3000000.0,66.60000000000001,24.022183702530942,28.632478632478637,16.290726817042618,899100.0,2904.0,0.0,1.0,0.0,?,0.0,0.0
3100000.0,12.671875,3.2718005564270757E-7,3100000.0,68.0,23.858834278752816,32.203389830508485,13.043478260869575,928800.0,2904.0,0.0,1.0,0.0,?,0.0,0.0
3200000.0,13.0625,3.4250403081791276E-7,3200000.0,67.60000000000001,25.981093195286554,31.645569620253173,17.55725190839696,234031.0,2904.0,0.0,1.0,0.0,?,1.0,40.0
3300000.0,13.484375,3.5739500567110055E-7,3300000.0,67.4,24.803358475768693,30.192719486081376,15.324675324675338,264031.0,2904.0,0.0,1.0,0.0,?,0.0,0.0
3400000.0,13.890625,3.701369860209525E-7,3400000.0,68.0,26.05156978652013,32.9140461215933,17.737789203084848,294031.0,2904.0,0.0,1.0,0.0,?,0.0,0.0
3500000.0,14.296875,3.8128148945462374E-7,3500000.0,67.10000000000001,23.854578445985364,29.550321199143475,15.424164524421608,324031.0,2904.0,0.0,1.0,0.0,?,0.0,0.0
3600000.0,14.71875,3.9119570929971007E-7,3600000.0,66.10000000000001,20.52104433941032,26.30434782608696,8.870967741935491,354031.0,2904.0,0.0,1.0,0.0,?,0.0,0.0
3700000.0,15.125,3.991452589010199E-7,3700000.0,65.8,21.337356935193036,28.601252609603346,12.755102040816338,384031.0,2904.0,0.0,1.0,0.0,?,0.0,0.0
3800000.0,15.515625,4.0525302109825943E-7,3800000.0,65.3,22.786624062091136,30.321285140562253,15.158924205378984,414031.0,2904.0,0.0,1.0,0.0,?,0.0,0.0
3900000.0,15.921875,4.1000761686720783E-7,3900000.0,65.4,18.922085530169888,22.939866369710465,7.7333333333333405,444031.0,2904.0,0.0,1.0,0.0,?,0.0,0.0
4000000.0,16.34375,4.1328616336815887E-7,4000000.0,66.0,21.253642019056624,28.27004219409283,13.043478260869575,474031.0,2904.0,0.0,1.0,0.0,?,0.0,0.0
4100000.0,16.734375,4.30161534394655E-7,4100000.0,66.8,22.862453531598522,30.398322851153043,13.54166666666668,503731.0,2904.0,0.0,1.0,0.0,?,0.0,0.0
4200000.0,17.15625,4.467280167672369E-7,4200000.0,66.60000000000001,23.146307341138357,31.697341513292436,13.917525773195887,533731.0,2904.0,0.0,1.0,0.0,?,0.0,0.0
4300000.0,17.546875,4.605313168010778E-7,4300000.0,65.8,25.510968618772985,28.601252609603346,18.957345971563996,563731.0,2904.0,0.0,1.0,0.0,?,0.0,0.0
4400000.0,17.953125,4.732892719200916E-7,4400000.0,68.8,27.06599592317616,33.75796178343948,18.32460732984292,593731.0,2904.0,0.0,1.0,0.0,?,0.0,0.0
4500000.0,18.359375,4.844497501229246E-7,4500000.0,65.5,16.060028028651523,23.841059602649008,3.089887640449441,623731.0,2904.0,0.0,1.0,0.0,?,0.0,0.0
4600000.0,18.78125,4.943805591513713E-7,4600000.0,69.5,28.12367441202807,34.68950749464666,17.567567567567554,653731.0,2904.0,0.0,1.0,0.0,?,0.0,0.0
4700000.0,19.15625,5.017333508779605E-7,4700000.0,66.5,21.91069380600287,26.373626373626376,11.375661375661386,683731.0,2904.0,0.0,1.0,0.0,?,0.0,0.0
4800000.0,19.578125,5.083463232343396E-7,4800000.0,67.30000000000001,24.120775592414873,32.157676348547724,13.492063492063505,713731.0,2904.0,0.0,1.0,0.0,?,0.0,0.0
4900000.0,19.984375,5.131168937724498E-7,4900000.0,68.8,25.138206388206356,35.26970954356845,14.285714285714269,743731.0,2904.0,0.0,1.0,0.0,?,0.0,0.0
5000000.0,20.390625,5.165329720411036E-7,5000000.0,67.0,21.24894401993119,29.33618843683084,10.569105691056919,773731.0,2904.0,0.0,1.0,0.0,?,0.0,0.0
5100000.0,20.78125,5.336573425059518E-7,5100000.0,58.099999999999994,0.3652481594916919,9.892473118279556,-13.858695652173925,803431.0,2904.0,0.0,1.0,0.0,?,0.0,0.0
5200000.0,21.1875,5.498692108732131E-7,5200000.0,59.599999999999994,3.3987384449109923,17.55102040816326,-8.894878706199469,833431.0,2904.0,0.0,1.0,0.0,?,0.0,0.0
5300000.0,21.578125,5.63921510345406E-7,5300000.0,56.699999999999996,0.1586393905295768,12.701612903225795,-10.459183673469397,863431.0,2904.0,0.0,1.0,0.0,?,0.0,0.0
5400000.0,22.0,5.774416947840816E-7,5400000.0,58.599999999999994,2.3603328239089607,9.010989010988995,-8.376963350785347,893431.0,2904.0,0.0,1.0,0.0,?,0.0,10.0
5500000.0,22.421875,5.893029608867234E-7,5500000.0,58.699999999999996,-1.0422273327787939,11.940298507462673,-11.621621621621632,923431.0,2904.0,0.0,1.0,0.0,?,0.0,0.0
5600000.0,22.84375,5.995053086533314E-7,5600000.0,60.3,4.106280193236718,17.118997912317322,-5.8666666666666725,953431.0,2904.0,0.0,1.0,0.0,?,0.0,0.0
5700000.0,23.265625,6.080487380839055E-7,5700000.0,62.2,6.361474435196203,13.698630136986289,-5.000000000000004,983431.0,2904.0,0.0,1.0,0.0,?,0.0,0.0
5800000.0,23.65625,6.144232853936651E-7,5800000.0,60.6,2.0621631833276917,16.17021276595744,-8.83977900552487,1013431.0,2904.0,0.0,1.0,0.0,?,0.0,0.0
5900000.0,24.078125,6.196488781521716E-7,5900000.0,64.60000000000001,10.522457852033455,20.805369127516773,-0.28328611898017025,1043431.0,2904.0,0.0,1.0,0.0,?,0.0,0.0
6000000.0,24.484375,6.230834535219601E-7,6000000.0,61.5,8.332460309145807,20.781893004115222,-0.7853403141361263,1073431.0,2904.0,0.0,1.0,0.0,?,0.0,0.0
6100000.0,24.90625,6.415969821520976E-7,6100000.0,64.60000000000001,15.00192086054552,25.31645569620253,6.842105263157901,1103131.0,2904.0,0.0,1.0,0.0,?,0.0,0.0
6200000.0,25.3125,6.578273476204936E-7,6200000.0,62.8,11.853354311603123,23.140495867768593,3.6269430051813503,1133131.0,2904.0,0.0,1.0,0.0,?,0.0,0.0
6300000.0,25.734375,6.730230395785634E-7,6300000.0,64.0,12.24306720230897,22.246220302375807,4.255319148936175,1163131.0,2904.0,0.0,1.0,0.0,?,0.0,0.0
6400000.0,26.140625,6.860584512145981E-7,6400000.0,63.800000000000004,15.67275437942604,25.051759834368532,8.585858585858592,1193131.0,2904.0,0.0,1.0,0.0,?,0.0,0.0
6500000.0,26.5625,6.979363065006002E-7,6500000.0,66.2,19.113987058237942,29.58333333333334,11.518324607329852,1223131.0,2904.0,0.0,1.0,0.0,?,0.0,0.0
6600000.0,26.984375,7.081552434505685E-7,6600000.0,63.800000000000004,16.08754711382888,23.30508474576271,8.816120906801014,1253131.0,2904.0,0.0,1.0,0.0,?,0.0,0.0
6700000.0,27.40625,7.16715262064503E-7,6700000.0,67.0,16.944775826399507,31.818181818181824,7.5630252100840405,1283131.0,2904.0,0.0,1.0,0.0,?,0.0,0.0
6800000.0,27.78125,7.22849573422637E-7,6800000.0,66.2,20.512856692676394,26.200873362445414,13.554987212276226,1313131.0,2904.0,0.0,1.0,0.0,?,0.0,0.0
6900000.0,28.203125,7.280917553645038E-7,6900000.0,67.30000000000001,18.40014373552666,27.333333333333336,8.913649025069645,1343131.0,2904.0,0.0,1.0,0.0,?,0.0,0.0
7000000.0,28.625,7.316750189703368E-7,7000000.0,64.5,18.154487439595716,27.698574338085542,11.027568922305774,1373131.0,2904.0,0.0,1.0,0.0,?,0.0,0.0
7100000.0,29.046875,7.502051367838346E-7,7100000.0,62.9,14.412003543481466,18.818380743982488,7.481296758104744,1402831.0,2904.0,0.0,1.0,0.0,?,0.0,0.0
7200000.0,29.46875,7.670763362612985E-7,7200000.0,65.3,18.575183029847945,30.600000000000005,12.373737373737384,1432831.0,2904.0,0.0,1.0,0.0,?,0.0,0.0
7300000.0,29.890625,7.822886174027286E-7,7300000.0,69.3,20.831399246995687,28.93518518518518,11.014492753623168,1462831.0,2904.0,0.0,1.0,0.0,?,0.0,0.0
7400000.0,30.3125,7.958419802081249E-7,7400000.0,67.30000000000001,20.025435335550785,28.28947368421053,10.164835164835175,1492831.0,2904.0,0.0,1.0,0.0,?,0.0,0.0
7500000.0,30.703125,8.068553547167939E-7,7500000.0,66.9,16.36091654285051,28.66379310344828,9.562841530054653,1522831.0,2904.0,0.0,1.0,0.0,?,0.0,0.0
7600000.0,31.125,8.170908808501225E-7,7600000.0,68.4,23.07093054960466,35.245901639344275,14.130434782608708,1552831.0,2904.0,0.0,1.0,0.0,?,0.0,0.0
7700000.0,31.546875,8.256674886474174E-7,7700000.0,68.30000000000001,21.389886325311963,30.936819172113296,12.18836565096954,1582831.0,2904.0,0.0,1.0,0.0,?,0.0,0.0
7800000.0,31.96875,8.325851781086783E-7,7800000.0,66.7,20.26625802126234,28.23275862068966,13.28125000000001,1612831.0,2904.0,0.0,1.0,0.0,?,0.0,0.0
7900000.0,32.390625,8.378439492339055E-7,7900000.0,69.8,28.00610279393535,36.28691983122362,20.105820105820094,1642831.0,2904.0,0.0,1.0,0.0,?,0.0,0.0
8000000.0,32.8125,8.414438020230989E-7,8000000.0,65.4,16.055684679919832,25.43103448275862,8.222811671087541,1672831.0,2904.0,0.0,1.0,0.0,?,0.0,0.0
8100000.0,33.234375,8.59990509019957E-7,8100000.0,70.19999999999999,24.485079468050603,33.924611973392444,15.340909090909074,1702531.0,2904.0,0.0,1.0,0.0,?,0.0,0.0
8200000.0,33.640625,8.76182198731435E-7,8200000.0,67.7,22.504798464491387,28.539823008849563,13.172043010752699,1732531.0,2904.0,0.0,1.0,0.0,?,0.0,12.0
8300000.0,34.0625,8.913377274034745E-7,8300000.0,69.0,25.437752549547803,34.46088794926003,16.2162162162162,1762531.0,2904.0,0.0,1.0,0.0,?,0.0,0.0
8400000.0,34.46875,9.043344632825911E-7,8400000.0,69.89999999999999,25.84088064570172,36.63157894736841,16.85082872928175,1792531.0,2904.0,0.0,1.0,0.0,?,0.0,0.0
8500000.0,34.859375,9.152952892084909E-7,8500000.0,68.2,23.837443237339787,29.017857142857146,15.873015873015886,1822531.0,2904.0,0.0,1.0,0.0,?,0.0,0.0
8600000.0,35.25,9.247200796380631E-7,8600000.0,71.3,29.011704411662848,39.19491525423728,19.83240223463686,1852531.0,2904.0,0.0,1.0,0.0,?,0.0,0.0
8700000.0,35.65625,9.329243847686375E-7,8700000.0,70.3,26.404266074596812,33.85300668151446,17.27019498607241,1882531.0,2904.0,0.0,1.0,0.0,?,0.0,0.0
8800000.0,36.078125,9.39785321760508E-7,8800000.0,69.89999999999999,29.04022782566055,36.22881355932202,21.409921671018267,1912531.0,2904.0,0.0,1.0,0.0,?,0.0,0.0
8900000.0,36.484375,9.44794673058721E-7,8900000.0,69.0,27.173974327651333,33.90191897654582,19.689119170984444,1942531.0,2904.0,0.0,1.0,0.0,?,0.0,0.0
9000000.0,36.890625,9.482065474407533E-7,9000000.0,70.1,29.7204802512199,34.999999999999986,22.538860103626934,1972531.0,2904.0,0.0,1.0,0.0,?,0.0,0.0
9100000.0,37.28125,9.65326875706927E-7,9100000.0,68.5,25.94508181305248,31.818181818181824,17.10526315789475,2002231.0,2904.0,0.0,1.0,0.0,?,0.0,0.0
9200000.0,37.6875,9.815345401875667E-7,9200000.0,71.0,27.875049741345,38.68921775898519,18.539325842696616,2032231.0,2904.0,0.0,1.0,0.0,?,0.0,0.0
9300000.0,38.09375,9.96144727752026E-7,9300000.0,67.9,26.194001710643704,33.677685950413235,19.346733668341727,2062231.0,2904.0,0.0,1.0,0.0,?,0.0,0.0
9400000.0,38.515625,1.009657927271392E-6,9400000.0,70.5,26.186520407550486,39.0495867768595,16.193181818181802,2092231.0,2904.0,0.0,1.0,0.0,?,0.0,0.0
9500000.0,38.90625,1.020634113552255E-6,9500000.0,68.2,24.294726818235944,33.61169102296452,15.64986737400532,2122231.0,2904.0,0.0,1.0,0.0,?,0.0,0.0
9600000.0,39.3125,1.030451870368172E-6,9600000.0,70.39999999999999,28.73102704368593,36.480686695278955,20.85561497326202,2152231.0,2904.0,0.0,1.0,0.0,?,0.0,0.0
9700000.0,39.71875,1.0386721502679081E-6,9700000.0,70.39999999999999,27.041842489253465,33.03167420814478,17.318435754189927,2182231.0,2904.0,0.0,1.0,0.0,?,0.0,0.0
9800000.0,40.140625,1.0455496764431388E-6,9800000.0,69.0,26.71429449506149,35.41666666666665,17.771883289124656,2212231.0,2904.0,0.0,1.0,0.0,?,0.0,0.0
9900000.0,40.53125,1.0503817207386916E-6,9900000.0,70.8,28.688652703969993,37.06896551724137,19.337016574585622,2242231.0,2904.0,0.0,1.0,0.0,?,0.0,0.0
1.0E7,40.9375,1.0538095698898857E-6,1.0E7,70.0,25.85086136582712,36.03411513859274,15.492957746478856,2272231.0,2904.0,0.0,1.0,0.0,?,0.0,0.0
