learning evaluation instances,evaluation time (cpu seconds),model cost (RAM-Hours),classified instances,classifications correct (percent),Kappa Statistic (percent),Kappa Temporal Statistic (percent),Kappa M Statistic (percent),model training instances,model serialized size (bytes),labeling cost,newThreshold,maxPosterior,accuracyBaseLearner (percent),Change detected,Warning detected,tree size (nodes),tree size (leaves),active learning leaves,tree depth,active leaf byte size estimate,inactive leaf byte size estimate,byte size estimate overhead
100000.0,0.265625,1.0295512361658945E-8,100000.0,88.9,77.08391827836228,76.97095435684648,72.72727272727273,19800.0,18632.0,0.0,1.0,0.0,?,0.0,15.0,21.0,11.0,11.0,5.0,0.0,0.0,1.0
200000.0,0.53125,2.0698223832166857E-8,200000.0,90.3,80.40847323433891,79.70711297071131,78.34821428571429,39800.0,29648.0,0.0,1.0,0.0,?,0.0,0.0,33.0,17.0,17.0,6.0,0.0,0.0,1.0
300000.0,0.8125,3.290786278537578E-8,300000.0,88.5,76.37245233399081,77.18253968253968,72.61904761904762,59800.0,55336.0,0.0,1.0,0.0,?,0.0,0.0,61.0,31.0,31.0,8.0,0.0,0.0,1.0
400000.0,1.078125,4.4576623218341005E-8,400000.0,86.7,72.90624337934518,73.92156862745098,69.28406466512702,79800.0,66784.0,0.0,1.0,0.0,?,0.0,0.0,75.0,38.0,38.0,9.0,0.0,0.0,1.0
500000.0,1.34375,5.6649441830813886E-8,500000.0,86.5,72.24506578947368,71.99170124481327,67.46987951807229,99800.0,82056.0,0.0,1.0,0.0,?,0.0,0.0,95.0,48.0,48.0,10.0,0.0,0.0,1.0
600000.0,1.59375,6.810522690001462E-8,600000.0,87.0,73.44988154562536,73.19587628865979,69.76744186046511,119800.0,92952.0,0.0,1.0,0.0,?,0.0,0.0,107.0,54.0,54.0,10.0,0.0,0.0,1.0
700000.0,1.859375,8.074042852967978E-8,700000.0,90.0,79.20236926609321,78.11816192560175,74.87437185929649,139800.0,109080.0,0.0,1.0,0.0,?,0.0,0.0,125.0,63.0,63.0,11.0,0.0,0.0,1.0
800000.0,2.125,9.374560451962882E-8,800000.0,87.9,75.220557516977,74.3099787685775,71.59624413145539,159800.0,123872.0,0.0,1.0,0.0,?,0.0,0.0,141.0,71.0,71.0,11.0,0.0,0.0,1.0
900000.0,2.40625,1.0764151940950089E-7,900000.0,87.7,74.58782694929963,75.30120481927712,70.36144578313254,179800.0,135056.0,0.0,1.0,0.0,?,0.0,0.0,153.0,77.0,77.0,12.0,0.0,0.0,1.0
1000000.0,2.671875,1.2153287469926808E-7,1000000.0,88.2,75.61338535811124,75.7201646090535,70.79207920792079,199800.0,155560.0,0.0,1.0,0.0,?,0.0,0.0,175.0,88.0,88.0,12.0,0.0,0.0,1.0
1100000.0,2.953125,1.4336773246112796E-7,1100000.0,87.2,74.07993908785684,75.57251908396947,70.70938215102976,219600.0,166864.0,0.0,1.0,0.0,?,0.0,0.0,187.0,94.0,94.0,12.0,0.0,0.0,1.0
1200000.0,3.234375,1.6543600294325087E-7,1200000.0,89.9,79.55962114466122,78.32618025751074,77.04545454545455,239600.0,179504.0,0.0,1.0,0.0,?,0.0,0.0,201.0,101.0,101.0,12.0,0.0,0.0,1.0
1300000.0,3.515625,1.8778483435097667E-7,1300000.0,89.1,77.77052657339806,77.70961145194273,74.70997679814386,259600.0,192792.0,0.0,1.0,0.0,?,0.0,0.0,215.0,108.0,108.0,12.0,0.0,0.0,1.0
1400000.0,3.796875,2.106592809367511E-7,1400000.0,88.3,76.19435175388622,75.52301255230127,73.4090909090909,279600.0,209400.0,0.0,1.0,0.0,?,0.0,0.0,233.0,117.0,117.0,13.0,0.0,0.0,1.0
1500000.0,4.0625,2.3211064722595943E-7,1500000.0,88.0,75.30457688508397,75.20661157024794,70.87378640776699,299600.0,216688.0,0.0,1.0,0.0,?,0.0,0.0,241.0,121.0,121.0,13.0,0.0,0.0,1.0
1600000.0,4.34375,2.5497170604972375E-7,1600000.0,88.6,76.41977760127085,76.49484536082475,71.92118226600985,319600.0,228160.0,0.0,1.0,0.0,?,0.0,0.0,257.0,129.0,129.0,13.0,0.0,0.0,1.0
1700000.0,4.609375,2.77087157074776E-7,1700000.0,87.9,75.4925789098451,76.18110236220473,73.17073170731707,339600.0,245176.0,0.0,1.0,0.0,?,0.0,0.0,275.0,138.0,138.0,13.0,0.0,0.0,1.0
1800000.0,4.890625,3.0074042216357257E-7,1800000.0,87.5,74.36801784806181,73.17596566523605,69.36274509803921,359600.0,257864.0,0.0,1.0,0.0,?,0.0,0.0,289.0,145.0,145.0,13.0,0.0,0.0,1.0
1900000.0,5.171875,3.2454560924735335E-7,1900000.0,87.5,74.42821488482468,74.06639004149378,69.80676328502415,379600.0,269408.0,0.0,1.0,0.0,?,0.0,0.0,301.0,151.0,151.0,13.0,0.0,0.0,1.0
2000000.0,5.453125,3.488414869126346E-7,2000000.0,86.4,71.51474530831099,69.09090909090908,64.21052631578948,399600.0,285536.0,0.0,1.0,0.0,?,0.0,0.0,319.0,160.0,160.0,13.0,0.0,0.0,1.0
2100000.0,5.75,3.817065023920602E-7,2100000.0,89.8,79.33348461762894,80.30888030888032,76.7123287671233,419400.0,292928.0,0.0,1.0,0.0,?,0.0,0.0,335.0,168.0,168.0,13.0,0.0,0.0,1.0
2200000.0,6.03125,4.137137309751577E-7,2200000.0,86.9,72.94282881692003,71.70626349892008,67.33167082294264,439400.0,314240.0,0.0,1.0,0.0,?,0.0,0.0,355.0,178.0,178.0,14.0,0.0,0.0,1.0
2300000.0,6.328125,4.47839524389969E-7,2300000.0,86.5,72.55963705546613,71.03004291845492,68.75,459400.0,328080.0,0.0,1.0,0.0,?,0.0,0.0,375.0,188.0,188.0,14.0,0.0,0.0,1.0
2400000.0,6.625,4.822270582533545E-7,2400000.0,87.4,73.8328626017611,73.85892116182573,67.6923076923077,479400.0,340912.0,0.0,1.0,0.0,?,0.0,0.0,391.0,196.0,196.0,14.0,0.0,0.0,1.0
2500000.0,6.921875,5.166182786019311E-7,2500000.0,87.2,73.51618202659141,74.24547283702213,67.75818639798489,499400.0,350448.0,0.0,1.0,0.0,?,0.0,0.0,399.0,200.0,200.0,14.0,0.0,0.0,1.0
2600000.0,7.203125,5.491976884918079E-7,2600000.0,86.6,73.03866336155555,73.14629258517033,71.24463519313305,519400.0,359888.0,0.0,1.0,0.0,?,0.0,0.0,413.0,207.0,207.0,14.0,0.0,0.0,1.0
2700000.0,7.5,5.839065609810252E-7,2700000.0,88.9,77.38754889178618,78.93738140417457,73.57142857142858,539400.0,373464.0,0.0,1.0,0.0,?,0.0,0.0,431.0,216.0,216.0,14.0,0.0,0.0,1.0
2800000.0,7.8125,6.208457893484996E-7,2800000.0,88.1,74.95011072472066,74.35344827586206,68.18181818181819,559400.0,387872.0,0.0,1.0,0.0,?,0.0,0.0,445.0,223.0,223.0,14.0,0.0,0.0,1.0
2900000.0,8.125,6.574888053971031E-7,2900000.0,87.0,73.37538656890655,72.86012526096033,68.67469879518072,579400.0,393728.0,0.0,1.0,0.0,?,0.0,0.0,453.0,227.0,227.0,14.0,0.0,0.0,1.0
3000000.0,8.421875,6.927574092211822E-7,3000000.0,87.4,74.55203502932575,75.72254335260115,71.49321266968326,599400.0,409072.0,0.0,1.0,0.0,?,0.0,0.0,475.0,238.0,238.0,15.0,0.0,0.0,1.0
3100000.0,8.734375,7.383501765111253E-7,3100000.0,86.1,71.72728012366773,70.67510548523205,67.21698113207547,619200.0,427088.0,0.0,1.0,0.0,?,0.0,0.0,493.0,247.0,247.0,15.0,0.0,0.0,1.0
3200000.0,9.046875,7.849738661510248E-7,3200000.0,85.3,70.13846003835278,70.6,65.89327146171694,639200.0,449168.0,0.0,1.0,0.0,?,0.0,0.0,513.0,257.0,257.0,15.0,0.0,0.0,1.0
3300000.0,9.359375,8.318775993150968E-7,3300000.0,86.3,72.01271480752102,72.21095334685597,66.90821256038647,659200.0,462072.0,0.0,1.0,0.0,?,0.0,0.0,525.0,263.0,263.0,15.0,0.0,0.0,1.0
3400000.0,9.6875,8.818015339784322E-7,3400000.0,87.8,74.95936027323033,75.69721115537848,71.09004739336493,679200.0,479416.0,0.0,1.0,0.0,?,0.0,0.0,537.0,269.0,269.0,15.0,0.0,0.0,1.0
3500000.0,10.015625,9.320684087773162E-7,3500000.0,85.8,70.81252183922221,69.19739696312364,64.93827160493827,699200.0,492872.0,0.0,1.0,0.0,?,0.0,0.0,555.0,278.0,278.0,15.0,0.0,0.0,1.0
3600000.0,10.3125,9.776714594206875E-7,3600000.0,86.1,71.75072350664976,71.80527383367141,67.5990675990676,719200.0,503936.0,0.0,1.0,0.0,?,0.0,0.0,567.0,284.0,284.0,15.0,0.0,0.0,1.0
3700000.0,10.625,1.0262683887655536E-6,3700000.0,87.9,74.63312368972747,74.89626556016597,69.75,739200.0,520664.0,0.0,1.0,0.0,?,0.0,0.0,585.0,293.0,293.0,15.0,0.0,0.0,1.0
3800000.0,10.9375,1.0749856139429741E-6,3800000.0,87.3,74.24812639911754,74.54909819639278,71.07061503416855,759200.0,531608.0,0.0,1.0,0.0,?,0.0,0.0,597.0,299.0,299.0,15.0,0.0,0.0,1.0
3900000.0,11.265625,1.1265135577155483E-6,3900000.0,87.7,74.98149037092483,75.54671968190854,70.57416267942584,779200.0,545424.0,0.0,1.0,0.0,?,0.0,0.0,619.0,310.0,310.0,15.0,0.0,0.0,1.0
4000000.0,11.578125,1.176887114221851E-6,4000000.0,85.9,71.4595697479536,70.92783505154638,67.13286713286713,799200.0,570800.0,0.0,1.0,0.0,?,0.0,0.0,637.0,319.0,319.0,15.0,0.0,0.0,1.0
4100000.0,11.90625,1.238750119227916E-6,4100000.0,85.1,69.86075263162152,69.40451745379876,65.58891454965358,819000.0,589728.0,0.0,1.0,0.0,?,0.0,0.0,661.0,331.0,331.0,16.0,0.0,0.0,1.0
4200000.0,12.234375,1.301083054083089E-6,4200000.0,86.7,72.8859169860556,72.80163599182004,68.40855106888361,839000.0,604664.0,0.0,1.0,0.0,?,0.0,0.0,679.0,340.0,340.0,16.0,0.0,0.0,1.0
4300000.0,12.5625,1.3633922208100556E-6,4300000.0,85.3,70.03693406494851,70.4225352112676,64.40677966101694,859000.0,613864.0,0.0,1.0,0.0,?,0.0,0.0,689.0,345.0,345.0,16.0,0.0,0.0,1.0
4400000.0,12.890625,1.4256878057494758E-6,4400000.0,87.6,74.7359499282827,74.89878542510121,70.33492822966507,879000.0,623184.0,0.0,1.0,0.0,?,0.0,0.0,699.0,350.0,350.0,16.0,0.0,0.0,1.0
4500000.0,13.234375,1.4914805716317559E-6,4500000.0,87.6,74.76279058407857,74.3801652892562,71.0955710955711,899000.0,638552.0,0.0,1.0,0.0,?,0.0,0.0,717.0,359.0,359.0,16.0,0.0,0.0,1.0
4600000.0,13.5625,1.5549435112107957E-6,4600000.0,86.5,72.63949802599045,73.05389221556887,69.24829157175398,919000.0,655712.0,0.0,1.0,0.0,?,0.0,0.0,737.0,369.0,369.0,16.0,0.0,0.0,1.0
4700000.0,13.890625,1.6183826826616292E-6,4700000.0,86.8,72.95492077021109,74.16829745596868,67.88321167883213,939000.0,664912.0,0.0,1.0,0.0,?,0.0,0.0,747.0,374.0,374.0,16.0,0.0,0.0,1.0
4800000.0,14.203125,1.6792116285715664E-6,4800000.0,89.1,77.8020348813529,78.0241935483871,73.86091127098322,959000.0,679416.0,0.0,1.0,0.0,?,0.0,0.0,759.0,380.0,380.0,16.0,0.0,0.0,1.0
4900000.0,14.546875,1.7464478797693218E-6,4900000.0,87.5,74.68098035244076,75.91522157996147,70.93023255813954,979000.0,692488.0,0.0,1.0,0.0,?,0.0,0.0,775.0,388.0,388.0,16.0,0.0,0.0,1.0
5000000.0,14.875,1.8112499836004441E-6,5000000.0,87.7,74.9545924725315,74.321503131524,70.85308056872039,999000.0,708472.0,0.0,1.0,0.0,?,0.0,0.0,787.0,394.0,394.0,16.0,0.0,0.0,1.0
5100000.0,15.234375,1.8914939977953001E-6,5100000.0,75.5,48.81287659097936,39.95098039215687,13.120567375886536,1018800.0,721520.0,0.0,1.0,0.0,?,0.0,0.0,801.0,401.0,401.0,16.0,1673.8680203045685,0.0,1.076493849923579
5200000.0,15.59375,1.972068987217628E-6,5200000.0,72.8,44.82333323866748,35.54502369668246,7.1672354948805514,1038800.0,734496.0,0.0,1.0,0.0,?,0.0,0.0,819.0,410.0,410.0,16.0,1673.8680203045685,0.0,1.076493849923579
5300000.0,15.9375,2.050493850320991E-6,5300000.0,74.3,46.50291423813488,40.0932400932401,14.333333333333345,1058800.0,758992.0,0.0,1.0,0.0,?,0.0,0.0,847.0,424.0,424.0,16.0,1673.8680203045685,0.0,1.076493849923579
5400000.0,16.28125,2.1291577528851722E-6,5400000.0,71.3,39.83178056000469,31.666666666666664,0.0,1078800.0,771136.0,0.0,1.0,0.0,?,0.0,0.0,859.0,430.0,430.0,16.0,1673.8680203045685,0.0,1.076493849923579
5500000.0,16.640625,2.2120324623150124E-6,5500000.0,74.4,46.00636956109084,39.33649289099527,14.950166112956822,1098800.0,787360.0,0.0,1.0,0.0,?,0.0,0.0,875.0,438.0,438.0,17.0,1673.8680203045685,0.0,1.076493849923579
5600000.0,16.96875,2.2875730064697556E-6,5600000.0,72.7,42.82578829206179,36.65893271461717,8.69565217391305,1118800.0,795344.0,0.0,1.0,0.0,?,0.0,0.0,887.0,444.0,444.0,17.0,1673.8680203045685,0.0,1.076493849923579
5700000.0,17.328125,2.370766047129614E-6,5700000.0,78.0,52.765372724149785,43.44473007712083,23.076923076923094,1138800.0,809704.0,0.0,1.0,0.0,?,0.0,0.0,897.0,449.0,449.0,17.0,1673.8680203045685,0.0,1.076493849923579
5800000.0,17.6875,2.453768684063106E-6,5800000.0,73.6,44.00349553936936,31.606217616580313,8.013937282229971,1158800.0,817160.0,0.0,1.0,0.0,?,0.0,0.0,905.0,453.0,453.0,17.0,1673.8680203045685,0.0,1.076493849923579
5900000.0,18.03125,2.5332948361109523E-6,5900000.0,73.8,44.459283567155516,36.71497584541063,9.342560553633225,1178800.0,828104.0,0.0,1.0,0.0,?,0.0,0.0,917.0,459.0,459.0,17.0,1673.8680203045685,0.0,1.076493849923579
6000000.0,18.390625,2.616128638490206E-6,6000000.0,74.1,45.03395585738541,32.90155440414508,5.818181818181823,1198800.0,834320.0,0.0,1.0,0.0,?,0.0,0.0,925.0,463.0,463.0,17.0,1673.8680203045685,0.0,1.076493849923579
6100000.0,18.734375,2.704835755543576E-6,6100000.0,74.7,47.92138393261479,45.119305856832966,20.440251572327032,1218600.0,854104.0,0.0,1.0,0.0,?,0.0,0.0,947.0,474.0,474.0,17.0,1673.8680203045685,0.0,1.076493849923579
6200000.0,19.09375,2.797546007463501E-6,6200000.0,72.3,42.94306665568097,32.4390243902439,1.0714285714285723,1238600.0,863280.0,0.0,1.0,0.0,?,0.0,0.0,955.0,478.0,478.0,17.0,1673.8680203045685,0.0,1.076493849923579
6300000.0,19.453125,2.890592440962791E-6,6300000.0,74.5,46.520250998288645,39.28571428571429,12.969283276450522,1258600.0,876328.0,0.0,1.0,0.0,?,0.0,0.0,969.0,485.0,485.0,17.0,1673.8680203045685,0.0,1.076493849923579
6400000.0,19.828125,2.9883471628030135E-6,6400000.0,75.0,47.60952752176299,39.024390243902445,20.127795527156536,1278600.0,892552.0,0.0,1.0,0.0,?,0.0,0.0,985.0,493.0,493.0,17.0,1673.8680203045685,0.0,1.076493849923579
6500000.0,20.1875,3.0826594835768136E-6,6500000.0,74.7,46.09313742201617,36.59147869674186,10.915492957746489,1298600.0,908736.0,0.0,1.0,0.0,?,0.0,0.0,1003.0,502.0,502.0,17.0,1673.8680203045685,0.0,1.076493849923579
6600000.0,20.5625,3.181376572077472E-6,6600000.0,77.10000000000001,51.07046707405668,45.34606205250598,22.37288135593222,1318600.0,921304.0,0.0,1.0,0.0,?,0.0,0.0,1017.0,509.0,509.0,17.0,1673.8680203045685,0.0,1.076493849923579
6700000.0,20.921875,3.276492158571878E-6,6700000.0,72.7,43.05809325958,34.05797101449276,10.784313725490204,1338600.0,936216.0,0.0,1.0,0.0,?,0.0,0.0,1033.0,517.0,517.0,17.0,1673.8680203045685,0.0,1.076493849923579
6800000.0,21.296875,3.3762569849689794E-6,6800000.0,74.9,47.31981698358729,37.56218905472637,12.237762237762247,1358600.0,950912.0,0.0,1.0,0.0,?,0.0,0.0,1051.0,526.0,526.0,17.0,1673.8680203045685,0.0,1.076493849923579
6900000.0,21.65625,3.472741842011196E-6,6900000.0,73.7,45.65217391304348,38.55140186915888,12.040133779264222,1378600.0,969696.0,0.0,1.0,0.0,?,0.0,0.0,1073.0,537.0,537.0,17.0,1673.8680203045685,0.0,1.076493849923579
7000000.0,22.015625,3.5701861553308028E-6,7000000.0,73.7,43.16118881723405,28.918918918918912,0.3787878787878791,1398600.0,989384.0,0.0,1.0,0.0,?,0.0,0.0,1087.0,544.0,544.0,17.0,1673.8680203045685,0.0,1.076493849923579
7100000.0,22.390625,3.6806860266046385E-6,7100000.0,76.0,50.13442926776565,43.12796208530806,20.265780730897028,1418400.0,993736.0,0.0,1.0,0.0,?,0.0,0.0,1093.0,547.0,547.0,17.0,1673.8680203045685,0.0,1.076493849923579
7200000.0,22.765625,3.7923857517954368E-6,7200000.0,73.4,43.6624491161782,33.99503722084367,4.659498207885308,1438400.0,1015408.0,0.0,1.0,0.0,?,0.0,0.0,1119.0,560.0,560.0,17.0,1673.8680203045685,0.0,1.076493849923579
7300000.0,23.15625,3.909877106909536E-6,7300000.0,73.8,45.616074393889065,37.61904761904763,15.483870967741947,1458400.0,1036008.0,0.0,1.0,0.0,?,0.0,0.0,1139.0,570.0,570.0,17.0,1673.8680203045685,0.0,1.076493849923579
7400000.0,23.515625,4.018408718467172E-6,7400000.0,74.8,46.527468330256546,31.891891891891888,9.677419354838717,1478400.0,1050160.0,0.0,1.0,0.0,?,0.0,0.0,1155.0,578.0,578.0,17.0,1673.8680203045685,0.0,1.076493849923579
7500000.0,23.890625,4.1315907987559E-6,7500000.0,75.9,48.62152182625974,42.61904761904763,17.182130584192453,1498400.0,1058952.0,0.0,1.0,0.0,?,0.0,0.0,1161.0,581.0,581.0,17.0,1673.8680203045685,0.0,1.076493849923579
7600000.0,24.265625,4.24472243240517E-6,7600000.0,72.6,43.824831884533374,35.37735849056604,16.969696969696955,1518400.0,1067912.0,0.0,1.0,0.0,?,0.0,0.0,1171.0,586.0,586.0,17.0,1673.8680203045685,0.0,1.076493849923579
7700000.0,24.625,4.352796628760794E-6,7700000.0,76.2,50.49916805324459,46.15384615384615,20.666666666666682,1538400.0,1073744.0,0.0,1.0,0.0,?,0.0,0.0,1177.0,589.0,589.0,17.0,1673.8680203045685,0.0,1.076493849923579
7800000.0,25.0,4.46595309767872E-6,7800000.0,76.7,49.20471589521783,41.161616161616166,13.059701492537323,1558400.0,1087104.0,0.0,1.0,0.0,?,0.0,0.0,1197.0,599.0,599.0,17.0,1673.8680203045685,0.0,1.076493849923579
7900000.0,25.390625,4.58383977982319E-6,7900000.0,75.6,48.33376388530096,40.196078431372555,18.39464882943145,1578400.0,1096736.0,0.0,1.0,0.0,?,0.0,0.0,1207.0,604.0,604.0,17.0,1673.8680203045685,0.0,1.076493849923579
8000000.0,25.75,4.69355620831872E-6,8000000.0,73.9,46.17224880382775,39.722863741339495,16.077170418006443,1598400.0,1119600.0,0.0,1.0,0.0,?,0.0,0.0,1229.0,615.0,615.0,18.0,1673.8680203045685,0.0,1.076493849923579
8100000.0,26.109375,4.8123540020444325E-6,8100000.0,74.3,46.527402105613575,37.1638141809291,17.0967741935484,1618200.0,1130648.0,0.0,1.0,0.0,?,0.0,0.0,1243.0,622.0,622.0,18.0,1673.8680203045685,0.0,1.076493849923579
8200000.0,26.5,4.941608155301461E-6,8200000.0,73.2,44.329040299127534,37.383177570093466,14.6496815286624,1638200.0,1141352.0,0.0,1.0,0.0,?,0.0,0.0,1255.0,628.0,628.0,18.0,1673.8680203045685,0.0,1.076493849923579
8300000.0,26.890625,5.070701429051243E-6,8300000.0,73.0,43.35727712137486,32.33082706766917,4.9295774647887365,1658200.0,1149240.0,0.0,1.0,0.0,?,0.0,0.0,1269.0,635.0,635.0,18.0,1673.8680203045685,0.0,1.076493849923579
8400000.0,27.296875,5.206109457907991E-6,8400000.0,72.39999999999999,40.99336389135937,33.81294964028777,0.0,1678200.0,1169528.0,0.0,1.0,0.0,?,0.0,0.0,1291.0,646.0,646.0,18.0,1673.8680203045685,0.0,1.076493849923579
8500000.0,27.6875,5.337285272414899E-6,8500000.0,72.39999999999999,41.4102302832688,27.937336814621403,-0.7299270072992706,1698200.0,1188552.0,0.0,1.0,0.0,?,0.0,0.0,1309.0,655.0,655.0,18.0,1673.8680203045685,0.0,1.076493849923579
8600000.0,28.046875,5.458186432305309E-6,8600000.0,72.39999999999999,42.40400667779632,36.986301369863,8.000000000000005,1718200.0,1200360.0,0.0,1.0,0.0,?,0.0,0.0,1323.0,662.0,662.0,18.0,1673.8680203045685,0.0,1.076493849923579
8700000.0,28.453125,5.595751895776225E-6,8700000.0,76.3,47.82264101096386,40.75000000000001,18.27586206896553,1738200.0,1218232.0,0.0,1.0,0.0,?,0.0,0.0,1343.0,672.0,672.0,18.0,1673.8680203045685,0.0,1.076493849923579
8800000.0,28.828125,5.7221851440974405E-6,8800000.0,73.4,44.65251768622555,38.139534883720934,13.07189542483661,1758200.0,1222104.0,0.0,1.0,0.0,?,0.0,0.0,1349.0,675.0,675.0,18.0,1673.8680203045685,0.0,1.076493849923579
8900000.0,29.21875,5.8547918969351384E-6,8900000.0,76.2,50.69932387644174,42.233009708737875,21.710526315789487,1778200.0,1240432.0,0.0,1.0,0.0,?,0.0,0.0,1367.0,684.0,684.0,18.0,1673.8680203045685,0.0,1.076493849923579
9000000.0,29.59375,5.9829861210245225E-6,9000000.0,72.6,43.369708994708986,38.28828828828827,8.053691275167791,1798200.0,1258976.0,0.0,1.0,0.0,?,0.0,0.0,1389.0,695.0,695.0,18.0,1673.8680203045685,0.0,1.076493849923579
9100000.0,29.984375,6.126477706453039E-6,9100000.0,71.1,40.17900759250519,30.361445783132528,1.7006802721088448,1818000.0,1270832.0,0.0,1.0,0.0,?,0.0,0.0,1407.0,704.0,704.0,18.0,1673.8680203045685,0.0,1.076493849923579
9200000.0,30.390625,6.2763252450774115E-6,9200000.0,72.89999999999999,43.616374969831625,32.25,7.823129251700686,1838000.0,1286104.0,0.0,1.0,0.0,?,0.0,0.0,1423.0,712.0,712.0,18.0,1673.8680203045685,0.0,1.076493849923579
9300000.0,30.78125,6.421349632243316E-6,9300000.0,73.0,43.89400538617548,35.56085918854415,8.78378378378379,1858000.0,1304760.0,0.0,1.0,0.0,?,0.0,0.0,1441.0,721.0,721.0,18.0,1673.8680203045685,0.0,1.076493849923579
9400000.0,31.1875,6.572022814200156E-6,9400000.0,74.7,47.529968061719686,38.59223300970874,16.22516556291392,1878000.0,1312816.0,0.0,1.0,0.0,?,0.0,0.0,1449.0,725.0,725.0,18.0,1673.8680203045685,0.0,1.076493849923579
9500000.0,31.578125,6.716693913201905E-6,9500000.0,73.8,45.125143994135506,34.335839598997495,11.18644067796611,1898000.0,1320272.0,0.0,1.0,0.0,?,0.0,0.0,1457.0,729.0,729.0,18.0,1673.8680203045685,0.0,1.076493849923579
9600000.0,31.96875,6.862429727334529E-6,9600000.0,72.6,43.14975268067588,36.27906976744186,9.868421052631586,1918000.0,1340152.0,0.0,1.0,0.0,?,0.0,0.0,1477.0,739.0,739.0,18.0,1673.8680203045685,0.0,1.076493849923579
9700000.0,32.375,7.014634805576255E-6,9700000.0,74.0,45.26776692489054,39.53488372093024,10.95890410958905,1938000.0,1355640.0,0.0,1.0,0.0,?,0.0,0.0,1495.0,748.0,748.0,18.0,1673.8680203045685,0.0,1.076493849923579
9800000.0,32.78125,7.166038623027917E-6,9800000.0,75.1,48.12889033322501,38.059701492537314,12.014134275618384,1958000.0,1357600.0,0.0,1.0,0.0,?,0.0,0.0,1495.0,748.0,748.0,18.0,1673.8680203045685,0.0,1.076493849923579
9900000.0,33.1875,7.317825834939463E-6,9900000.0,72.3,42.93131154971363,36.321839080459775,2.807017543859651,1978000.0,1370672.0,0.0,1.0,0.0,?,0.0,0.0,1511.0,756.0,756.0,18.0,1673.8680203045685,0.0,1.076493849923579
1.0E7,33.59375,7.469662652713143E-6,1.0E7,73.7,44.985524708402366,35.06172839506173,8.996539792387551,1998000.0,1380616.0,0.0,1.0,0.0,?,0.0,0.0,1523.0,762.0,762.0,18.0,1673.8680203045685,0.0,1.076493849923579
