learning evaluation instances,evaluation time (cpu seconds),model cost (RAM-Hours),classified instances,classifications correct (percent),Kappa Statistic (percent),Kappa Temporal Statistic (percent),Kappa M Statistic (percent),model training instances,model serialized size (bytes),labeling cost,newThreshold,maxPosterior,accuracyBaseLearner (percent),Change detected,Warning detected
100000.0,0.34375,1.3856463030808503E-8,100000.0,65.7,31.39945119560957,29.13223140495868,30.70707070707071,29700.0,2904.0,0.0,1.0,0.0,?,0.0,20.0
200000.0,0.65625,2.522441920720869E-8,200000.0,62.1,23.708683924473608,19.36170212765957,21.041666666666664,59700.0,2904.0,0.0,1.0,0.0,?,0.0,0.0
300000.0,0.96875,3.5363546986546784E-8,300000.0,63.9,27.77977833793462,28.65612648221344,26.3265306122449,89700.0,2904.0,0.0,1.0,0.0,?,0.0,0.0
400000.0,1.3125,4.516487630705039E-8,400000.0,63.1,26.162786044166257,26.200000000000003,22.964509394572023,119700.0,2904.0,0.0,1.0,0.0,?,0.0,0.0
500000.0,1.65625,5.3614494390785696E-8,500000.0,63.0,25.839813998236195,25.101214574898783,21.276595744680847,149700.0,2904.0,0.0,1.0,0.0,?,0.0,0.0
600000.0,1.96875,6.006713697893752E-8,600000.0,62.7,25.361187817665183,27.431906614785994,23.877551020408163,179700.0,2904.0,0.0,1.0,0.0,?,0.0,0.0
700000.0,2.3125,6.581333258913623E-8,700000.0,65.0,29.698829786806684,29.718875502008036,26.931106471816285,209700.0,2904.0,0.0,1.0,0.0,?,0.0,0.0
800000.0,2.640625,7.000806767286526E-8,800000.0,62.4,24.84809721778062,28.107074569789674,24.8,239700.0,2904.0,0.0,1.0,0.0,?,0.0,0.0
900000.0,2.96875,7.291253293967909E-8,900000.0,64.3,28.64851900707519,28.169014084507044,24.52431289640592,269700.0,2904.0,0.0,1.0,0.0,?,0.0,0.0
1000000.0,3.296875,7.452672838957773E-8,1000000.0,65.10000000000001,30.048905636174144,29.494949494949502,23.296703296703296,299700.0,2904.0,0.0,1.0,0.0,?,0.0,0.0
1100000.0,3.609375,8.713580124701062E-8,1100000.0,63.1,26.15923990042503,20.81545064377682,22.641509433962263,329400.0,2904.0,0.0,1.0,0.0,?,0.0,0.0
1200000.0,3.9375,9.908505793039997E-8,1200000.0,67.0,33.746381147030846,34.00000000000001,29.93630573248408,359400.0,2904.0,0.0,1.0,0.0,?,0.0,0.0
1300000.0,4.28125,1.1025161560003955E-7,1300000.0,67.4,34.5213227496224,37.667304015296374,30.932203389830516,389400.0,2904.0,0.0,1.0,0.0,?,0.0,0.0
1400000.0,4.625,1.2006646203291085E-7,1400000.0,63.800000000000004,27.58406849506891,27.6,28.880157170923383,419400.0,2904.0,0.0,1.0,0.0,?,0.0,0.0
1500000.0,4.9375,1.277602213020954E-7,1500000.0,65.60000000000001,31.100785130588044,34.35114503816795,26.80851063829787,449400.0,2904.0,0.0,1.0,0.0,?,0.0,0.0
1600000.0,5.265625,1.3454839871782396E-7,1600000.0,63.0,25.714744619338255,26.44135188866799,22.755741127348642,479400.0,2904.0,0.0,1.0,0.0,?,0.0,0.0
1700000.0,5.59375,1.4004630631663733E-7,1700000.0,62.9,25.83915692514353,23.347107438016526,25.201612903225808,509400.0,2904.0,0.0,1.0,0.0,?,0.0,0.0
1800000.0,5.921875,1.4425394409853553E-7,1800000.0,63.4,26.944066301253933,28.515625000000007,25.910931174089068,539400.0,2904.0,0.0,1.0,0.0,?,0.0,0.0
1900000.0,6.25,1.471713120635185E-7,1900000.0,66.4,32.3497197345532,34.88372093023256,28.20512820512821,569400.0,2904.0,0.0,1.0,0.0,?,0.0,0.0
2000000.0,6.5625,1.487209293473926E-7,2000000.0,65.5,30.995031642278242,30.303030303030308,30.86172344689379,599400.0,2904.0,0.0,1.0,0.0,?,0.0,0.0
2100000.0,6.90625,1.6260442660293648E-7,2100000.0,65.10000000000001,30.174862950662252,26.98744769874477,27.593360995850624,629100.0,2904.0,0.0,1.0,0.0,?,0.0,0.0
2200000.0,7.25,1.7513621262171203E-7,2200000.0,63.800000000000004,27.337543206060293,28.31683168316832,24.4258872651357,659100.0,2904.0,0.0,1.0,0.0,?,0.0,0.0
2300000.0,7.578125,1.8580810218635534E-7,2300000.0,67.10000000000001,34.071835648500695,35.49019607843138,30.44397463002115,689100.0,2904.0,0.0,1.0,0.0,?,0.0,0.0
2400000.0,7.90625,1.9518972193408346E-7,2400000.0,63.0,25.814536340852136,25.553319919517104,22.43186582809224,719100.0,2904.0,0.0,1.0,0.0,?,0.0,0.0
2500000.0,8.234375,2.0328107186489637E-7,2500000.0,63.5,26.7950260730044,23.640167364016733,21.50537634408602,749100.0,2904.0,0.0,1.0,0.0,?,0.0,0.0
2600000.0,8.578125,2.1040601293659874E-7,2600000.0,66.9,33.46787161510259,35.603112840466935,28.19956616052061,779100.0,2904.0,0.0,1.0,0.0,?,0.0,0.0
2700000.0,8.90625,2.1591682323358128E-7,2700000.0,63.9,27.65415076794818,24.63465553235908,24.63465553235908,809100.0,2904.0,0.0,1.0,0.0,?,0.0,0.0
2800000.0,9.21875,2.1993638559555017E-7,2800000.0,63.4,26.79414353148251,28.235294117647065,26.8,839100.0,2904.0,0.0,1.0,0.0,?,0.0,0.0
2900000.0,9.5625,2.2300619295694766E-7,2900000.0,66.3,32.424845198755186,30.515463917525775,28.75264270613108,869100.0,2904.0,0.0,1.0,0.0,?,0.0,0.0
3000000.0,9.875,2.2456809852479238E-7,3000000.0,61.9,23.736548808608767,24.703557312252965,21.280991735537185,899100.0,2904.0,0.0,1.0,0.0,?,0.0,0.0
3100000.0,10.203125,2.3783343042143522E-7,3100000.0,65.0,30.033583879737733,29.859719438877757,28.278688524590166,928800.0,2904.0,0.0,1.0,0.0,?,0.0,0.0
3200000.0,10.53125,2.4980849250116284E-7,3200000.0,63.9,27.52459345512949,26.3265306122449,25.87268993839836,958800.0,2904.0,0.0,1.0,0.0,?,0.0,0.0
3300000.0,10.859375,2.604932847639753E-7,3300000.0,66.3,32.58112271436002,34.17968750000001,30.658436213991774,988800.0,2904.0,0.0,1.0,0.0,?,0.0,0.0
3400000.0,11.1875,2.6988780720987256E-7,3400000.0,63.4,26.787114532157663,28.094302554027507,26.65330661322645,1018800.0,2904.0,0.0,1.0,0.0,?,0.0,0.0
3500000.0,11.546875,2.787638934225672E-7,3500000.0,63.9,27.779200409717998,27.364185110663986,26.1758691206544,1048800.0,2904.0,0.0,1.0,0.0,?,0.0,0.0
3600000.0,11.84375,2.849289254906277E-7,3600000.0,65.8,31.5178213856628,25.0,26.13390928725702,1078800.0,2904.0,0.0,1.0,0.0,?,0.0,0.0
3700000.0,12.1875,2.9071567243792945E-7,3700000.0,62.1,24.12351650463668,23.434343434343432,22.33606557377049,1108800.0,2904.0,0.0,1.0,0.0,?,0.0,0.0
3800000.0,12.546875,2.953523006807599E-7,3800000.0,66.0,31.940107294419096,32.00000000000001,30.61224489795919,1138800.0,2904.0,0.0,1.0,0.0,?,0.0,0.0
3900000.0,12.84375,2.9801517181719343E-7,3900000.0,62.0,23.953459517224537,24.752475247524753,19.320594479830145,1168800.0,2904.0,0.0,1.0,0.0,?,0.0,0.0
4000000.0,13.171875,2.996680753615995E-7,4000000.0,66.60000000000001,32.975871313672926,33.86138613861387,26.269315673289185,1198800.0,2904.0,0.0,1.0,0.0,?,0.0,0.0
4100000.0,13.5,3.1294630995641154E-7,4100000.0,62.9,25.812463506130968,24.59349593495935,22.54697286012526,1228500.0,2904.0,0.0,1.0,0.0,?,0.0,0.0
4200000.0,13.8125,3.243634192686942E-7,4200000.0,65.0,29.918986348218553,30.555555555555557,29.435483870967744,1258500.0,2904.0,0.0,1.0,0.0,?,0.0,0.0
4300000.0,14.140625,3.350611142296758E-7,4300000.0,61.7,23.59071756894791,23.4,15.265486725663708,1288500.0,2904.0,0.0,1.0,0.0,?,0.0,0.0
4400000.0,14.46875,3.4446853937374223E-7,4400000.0,66.10000000000001,31.964870592768623,30.532786885245905,28.329809725158565,1318500.0,2904.0,0.0,1.0,0.0,?,0.0,0.0
4500000.0,14.8125,3.529722259069483E-7,4500000.0,65.10000000000001,30.104942722102063,30.200000000000003,27.29166666666667,1348500.0,2904.0,0.0,1.0,0.0,?,0.0,0.0
4600000.0,15.140625,3.597991114171843E-7,4600000.0,64.1,28.134458626267154,28.62823061630219,30.560928433268863,1378500.0,2904.0,0.0,1.0,0.0,?,0.0,0.0
4700000.0,15.46875,3.653357271105051E-7,4700000.0,64.60000000000001,29.110679456114706,31.528046421663447,27.902240325865584,1408500.0,2904.0,0.0,1.0,0.0,?,0.0,0.0
4800000.0,15.796875,3.6958207298691075E-7,4800000.0,64.5,28.80007059823987,25.73221757322176,23.326133909287254,1438500.0,2904.0,0.0,1.0,0.0,?,0.0,0.0
4900000.0,16.140625,3.726789145730436E-7,4900000.0,65.0,30.005879506121484,30.2788844621514,30.2788844621514,1468500.0,2904.0,0.0,1.0,0.0,?,0.0,0.0
5000000.0,16.453125,3.744523079755405E-7,5000000.0,62.9,25.708472838537084,23.975409836065573,24.13087934560327,1498500.0,2904.0,0.0,1.0,0.0,?,0.0,0.0
5100000.0,16.796875,3.8858480466943646E-7,5100000.0,68.5,36.479128856624335,32.835820895522396,30.000000000000004,23098.0,2904.0,0.0,1.0,0.0,?,2.0,5.0
5200000.0,17.125,4.007900780480769E-7,5200000.0,68.30000000000001,35.689883227434656,35.56910569105692,27.79043280182233,53098.0,2904.0,0.0,1.0,0.0,?,0.0,6.0
5300000.0,17.453125,4.117071188779341E-7,5300000.0,67.9,34.94122415889745,32.70440251572328,29.60526315789474,83098.0,2904.0,0.0,1.0,0.0,?,0.0,28.0
5400000.0,17.765625,4.209239786076877E-7,5400000.0,68.8,36.646401637446836,34.999999999999986,27.27272727272727,113098.0,2904.0,0.0,1.0,0.0,?,0.0,6.0
5500000.0,18.09375,4.293114115070138E-7,5500000.0,65.8,30.87445831446867,27.23404255319149,26.923076923076927,143098.0,2904.0,0.0,1.0,0.0,?,0.0,0.0
5600000.0,18.421875,4.364085745894247E-7,5600000.0,68.0,34.95934959349594,35.22267206477734,28.888888888888893,173098.0,2904.0,0.0,1.0,0.0,?,0.0,0.0
5700000.0,18.734375,4.41938949127992E-7,5700000.0,66.5,32.03820467252558,30.9278350515464,23.69020501138952,203098.0,2904.0,0.0,1.0,0.0,?,0.0,26.0
5800000.0,19.078125,4.466706498836478E-7,5800000.0,67.10000000000001,33.157253149126376,30.29661016949153,25.227272727272727,233098.0,2904.0,0.0,1.0,0.0,?,0.0,8.0
5900000.0,19.40625,4.498970035153131E-7,5900000.0,65.60000000000001,30.327138389746743,30.36437246963563,22.171945701357462,263098.0,2904.0,0.0,1.0,0.0,?,0.0,0.0
6000000.0,19.75,4.5192528179743226E-7,6000000.0,67.9,35.38699366349709,35.54216867469881,29.139072847682122,293098.0,2904.0,0.0,1.0,0.0,?,0.0,0.0
6100000.0,20.078125,4.654866966625883E-7,6100000.0,66.0,31.019931182237233,31.863727454909824,24.778761061946902,322798.0,2904.0,0.0,1.0,0.0,?,0.0,0.0
6200000.0,20.421875,4.783421819512216E-7,6200000.0,66.4,32.10667334823214,30.72164948453609,27.429805615550755,352798.0,2904.0,0.0,1.0,0.0,?,0.0,0.0
6300000.0,20.75,4.893230571825472E-7,6300000.0,66.0,31.458245976195848,33.85214007782102,26.406926406926406,382798.0,2904.0,0.0,1.0,0.0,?,0.0,0.0
6400000.0,21.09375,4.994751199976438E-7,6400000.0,70.1,39.0442795400799,39.95983935742971,32.045454545454525,412798.0,2904.0,0.0,1.0,0.0,?,0.0,2.0
6500000.0,21.4375,5.082157117107676E-7,6500000.0,67.30000000000001,33.724097674871096,33.26530612244898,26.351351351351354,442798.0,2904.0,0.0,1.0,0.0,?,0.0,84.0
6600000.0,21.75,5.149872029303676E-7,6600000.0,67.4,32.91987835040517,26.576576576576578,20.293398533007352,472798.0,2904.0,0.0,1.0,0.0,?,0.0,50.0
6700000.0,22.078125,5.208069988940325E-7,6700000.0,68.30000000000001,35.63713148704621,31.236442516268987,28.764044943820227,502798.0,2904.0,0.0,1.0,0.0,?,0.0,0.0
6800000.0,22.421875,5.255522167620559E-7,6800000.0,67.7,34.27210939725695,33.946830265848675,25.576036866359463,532798.0,2904.0,0.0,1.0,0.0,?,0.0,0.0
6900000.0,22.75,5.287914730918904E-7,6900000.0,69.39999999999999,37.5415879132767,35.983263598326346,29.002320185614845,562798.0,2904.0,0.0,1.0,0.0,?,0.0,0.0
7000000.0,23.078125,5.307404596048097E-7,7000000.0,68.60000000000001,36.684612747766835,37.20000000000001,29.438202247191015,592798.0,2904.0,0.0,1.0,0.0,?,0.0,0.0
7100000.0,23.40625,5.443147771681348E-7,7100000.0,68.2,35.12957764867159,39.080459770114956,26.38888888888891,622498.0,2904.0,0.0,1.0,0.0,?,0.0,0.0
7200000.0,23.765625,5.577627841072778E-7,7200000.0,67.0,33.28076666464488,33.73493975903615,25.842696629213485,652498.0,2904.0,0.0,1.0,0.0,?,0.0,24.0
7300000.0,24.078125,5.682324020502468E-7,7300000.0,65.3,30.138916851218035,29.75708502024292,25.69593147751606,682498.0,2904.0,0.0,1.0,0.0,?,0.0,72.0
7400000.0,24.40625,5.77935231073449E-7,7400000.0,67.30000000000001,33.38765532695052,34.072580645161295,24.82758620689657,712498.0,2904.0,0.0,1.0,0.0,?,0.0,0.0
7500000.0,24.75,5.867483883371783E-7,7500000.0,66.3,31.545805403209425,29.64509394572025,25.11111111111111,742498.0,2904.0,0.0,1.0,0.0,?,0.0,0.0
7600000.0,25.0625,5.93531521088961E-7,7600000.0,67.2,33.3428170788709,32.51028806584363,25.28473804100228,772498.0,2904.0,0.0,1.0,0.0,?,0.0,0.0
7700000.0,25.375,5.990858254436816E-7,7700000.0,68.2,35.40917677167755,34.02489626556017,27.891156462585037,802498.0,2904.0,0.0,1.0,0.0,?,0.0,0.0
7800000.0,25.6875,6.034113014013401E-7,7800000.0,69.89999999999999,38.32321096330539,37.681159420289845,29.508196721311474,832498.0,2904.0,0.0,1.0,0.0,?,0.0,0.0
7900000.0,26.015625,6.066627813399665E-7,7900000.0,68.8,37.13327745180216,39.534883720930225,33.333333333333314,862498.0,2904.0,0.0,1.0,0.0,?,0.0,0.0
8000000.0,26.34375,6.086239914616775E-7,8000000.0,65.4,29.812034193304964,25.26997840172786,22.939866369710465,892498.0,2904.0,0.0,1.0,0.0,?,0.0,0.0
8100000.0,26.6875,6.228575107848477E-7,8100000.0,65.9,31.090507869019422,33.39843750000001,26.030368763557483,922198.0,2904.0,0.0,1.0,0.0,?,0.0,0.0
8200000.0,27.015625,6.351537821400495E-7,8200000.0,68.0,35.1273328819277,35.74297188755021,27.76523702031603,952198.0,2904.0,0.0,1.0,0.0,?,0.0,0.0
8300000.0,27.34375,6.461597836783361E-7,8300000.0,68.0,35.17858300382447,36.00000000000001,25.233644859813104,982198.0,2904.0,0.0,1.0,0.0,?,0.0,0.0
8400000.0,27.671875,6.558755153997076E-7,8400000.0,69.39999999999999,37.352850854744595,37.2950819672131,27.6595744680851,1012198.0,2904.0,0.0,1.0,0.0,?,0.0,0.0
8500000.0,28.015625,6.647021897758046E-7,8500000.0,68.2,35.67961165048544,37.769080234833666,29.33333333333334,1042198.0,2904.0,0.0,1.0,0.0,?,0.0,0.0
8600000.0,28.34375,6.718373818633457E-7,8600000.0,69.5,38.07760398902044,39.72332015810276,32.37250554323723,1072198.0,2904.0,0.0,1.0,0.0,?,0.0,0.0
8700000.0,28.65625,6.774039745020369E-7,8700000.0,68.5,36.52009189472411,36.74698795180724,31.222707423580793,1102198.0,2904.0,0.0,1.0,0.0,?,0.0,0.0
8800000.0,28.984375,6.819586269557476E-7,8800000.0,67.80000000000001,34.5059880239521,31.779661016949156,27.14932126696833,1132198.0,2904.0,0.0,1.0,0.0,?,0.0,0.0
8900000.0,29.34375,6.855339031769997E-7,8900000.0,68.2,35.340883674589804,37.27810650887575,27.231121281464553,1162198.0,2904.0,0.0,1.0,0.0,?,0.0,0.0
9000000.0,29.671875,6.8750801599688E-7,9000000.0,66.2,31.58116336312995,31.854838709677423,25.877192982456144,1192198.0,2904.0,0.0,1.0,0.0,?,0.0,0.0
9100000.0,30.0,7.011074598671662E-7,9100000.0,63.800000000000004,26.857752472086737,28.740157480314966,20.787746170678332,1221898.0,2904.0,0.0,1.0,0.0,?,0.0,0.0
9200000.0,30.34375,7.140027850659358E-7,9200000.0,67.0,33.27402135231318,34.393638170974164,28.260869565217394,1251898.0,2904.0,0.0,1.0,0.0,?,0.0,0.0
9300000.0,30.671875,7.250216893023916E-7,9300000.0,66.3,32.48657745011621,31.64300202839757,30.942622950819676,1281898.0,2904.0,0.0,1.0,0.0,?,0.0,0.0
9400000.0,31.0,7.347503237219322E-7,9400000.0,65.8,30.964876867178038,33.0724070450098,24.0,1311898.0,2904.0,0.0,1.0,0.0,?,0.0,0.0
9500000.0,31.34375,7.435905152103968E-7,9500000.0,65.2,28.907628946852338,26.58227848101266,20.183486238532126,1341898.0,2904.0,0.0,1.0,0.0,?,0.0,0.0
9600000.0,31.671875,7.50738609996107E-7,9600000.0,67.0,33.446272991287515,33.06288032454362,28.260869565217394,1371898.0,2904.0,0.0,1.0,0.0,?,0.0,0.0
9700000.0,32.0,7.56596434964902E-7,9700000.0,66.7,32.21401643148528,28.997867803837956,20.525059665871137,1401898.0,2904.0,0.0,1.0,0.0,?,0.0,0.0
9800000.0,32.34375,7.613814927430618E-7,9800000.0,69.19999999999999,37.55980473248023,38.52295409181636,30.316742081447945,1431898.0,2904.0,0.0,1.0,0.0,?,0.0,0.0
9900000.0,32.65625,7.645027168715995E-7,9900000.0,67.9,34.970220007293065,35.02024291497977,27.37556561085973,1461898.0,2904.0,0.0,1.0,0.0,?,0.0,0.0
1.0E7,32.984375,7.664897323896489E-7,1.0E7,68.89999999999999,36.969510267281684,36.270491803278674,29.157175398633235,1491898.0,2904.0,0.0,1.0,0.0,?,0.0,0.0
