learning evaluation instances,evaluation time (cpu seconds),model cost (RAM-Hours),classified instances,classifications correct (percent),Kappa Statistic (percent),Kappa Temporal Statistic (percent),Kappa M Statistic (percent),model training instances,model serialized size (bytes),labeling cost,newThreshold,maxPosterior,accuracyBaseLearner (percent),Change detected,Warning detected
100000.0,0.125,3.639401661025153E-9,100000.0,66.4,34.640522875817,21.495327102803756,1.1764705882352953,23505.0,7320.0,0.0,1.0,0.0,?,4.0,109.0
200000.0,0.28125,7.806746806535455E-9,200000.0,68.89999999999999,39.36865417907885,30.425055928411616,11.898016997167119,53505.0,7320.0,0.0,1.0,0.0,?,0.0,26.0
300000.0,0.4375,1.1586040879289308E-8,300000.0,67.10000000000001,35.64767001533503,28.78787878787879,5.4597701149425335,83505.0,7320.0,0.0,1.0,0.0,?,0.0,92.0
400000.0,0.578125,1.4632629851500193E-8,400000.0,64.8,32.60294326010286,25.581395348837212,1.9498607242339852,113505.0,7320.0,0.0,1.0,0.0,?,0.0,44.0
500000.0,0.71875,1.7335502586017052E-8,500000.0,67.9,37.165764933407466,31.410256410256416,10.084033613445389,143505.0,7320.0,0.0,1.0,0.0,?,0.0,48.0
600000.0,0.859375,1.9689129355053107E-8,600000.0,65.4,32.560968003492796,26.382978723404253,4.94505494505495,173505.0,7320.0,0.0,1.0,0.0,?,0.0,0.0
700000.0,1.0,2.1693510158608357E-8,700000.0,69.6,39.48635058901278,30.11494252873563,8.15709969788517,203505.0,7320.0,0.0,1.0,0.0,?,0.0,0.0
800000.0,1.140625,2.3348644996682803E-8,800000.0,65.10000000000001,32.4298160696999,20.861678004535143,0.285714285714286,233505.0,7320.0,0.0,1.0,0.0,?,0.0,0.0
900000.0,1.28125,2.4654533869276444E-8,900000.0,67.9,37.18396292875371,31.991525423728824,7.492795389048998,263505.0,7320.0,0.0,1.0,0.0,?,0.0,0.0
1000000.0,1.421875,2.561117677638928E-8,1000000.0,67.0,35.353946935385295,26.666666666666668,4.624277456647404,293505.0,7320.0,0.0,1.0,0.0,?,0.0,0.0
1100000.0,1.5625,2.9714525832484166E-8,1100000.0,67.5,36.30698075490926,35.258964143426304,15.80310880829017,323205.0,7320.0,0.0,1.0,0.0,?,0.0,0.0
1200000.0,1.703125,3.346862892309825E-8,1200000.0,68.0,37.377445704288476,29.203539823008857,10.863509749303631,353205.0,7320.0,0.0,1.0,0.0,?,0.0,0.0
1300000.0,1.84375,3.687348604823152E-8,1300000.0,66.8,35.12989652046144,29.21108742004265,9.289617486338807,383205.0,7320.0,0.0,1.0,0.0,?,0.0,0.0
1400000.0,1.984375,3.9929097207883995E-8,1400000.0,66.9,35.54793987070644,28.04347826086957,14.47028423772611,413205.0,7320.0,0.0,1.0,0.0,?,0.0,0.0
1500000.0,2.140625,4.2936169645852517E-8,1500000.0,65.2,32.44922044847506,21.973094170403584,-1.7543859649122824,443205.0,7320.0,0.0,1.0,0.0,?,0.0,0.0
1600000.0,2.28125,4.529328887454338E-8,1600000.0,66.7,35.04061424658818,29.59830866807611,3.757225433526015,473205.0,7320.0,0.0,1.0,0.0,?,0.0,0.0
1700000.0,2.421875,4.730116213775344E-8,1700000.0,64.8,31.698230363241226,24.786324786324787,5.37634408602151,503205.0,7320.0,0.0,1.0,0.0,?,0.0,0.0
1800000.0,2.5625,4.895978943548269E-8,1800000.0,66.3,34.73039975209172,23.755656108597282,0.8823529411764715,533205.0,7320.0,0.0,1.0,0.0,?,0.0,0.0
1900000.0,2.6875,5.012368395303687E-8,1900000.0,67.30000000000001,36.5171811298777,28.28947368421053,6.303724928366767,563205.0,7320.0,0.0,1.0,0.0,?,0.0,0.0
2000000.0,2.828125,5.108381931980452E-8,2000000.0,64.60000000000001,31.085500700825406,13.658536585365866,-10.62500000000001,593205.0,7320.0,0.0,1.0,0.0,?,0.0,0.0
2100000.0,2.96875,5.5190660835554213E-8,2100000.0,67.9,37.665061363989444,32.135306553911214,11.813186813186825,622905.0,7320.0,0.0,1.0,0.0,?,0.0,0.0
2200000.0,3.109375,5.8948256385823106E-8,2200000.0,65.9,33.66274998054626,22.323462414578586,-6.562500000000007,652905.0,7320.0,0.0,1.0,0.0,?,0.0,0.0
2300000.0,3.265625,6.273531148003209E-8,2300000.0,66.7,35.26639917887469,27.13347921225383,8.516483516483524,682905.0,7320.0,0.0,1.0,0.0,?,0.0,0.0
2400000.0,3.40625,6.579441509933937E-8,2400000.0,67.2,35.27533635118657,24.77064220183488,3.244837758112098,712905.0,7320.0,0.0,1.0,0.0,?,0.0,0.0
2500000.0,3.546875,6.850427275316585E-8,2500000.0,66.0,33.406455656534014,23.250564334085777,-4.938271604938277,742905.0,7320.0,0.0,1.0,0.0,?,0.0,0.0
2600000.0,3.671875,7.060259425391756E-8,2600000.0,68.30000000000001,37.96477495107633,34.36853002070394,20.750000000000018,772905.0,7320.0,0.0,1.0,0.0,?,0.0,0.0
2700000.0,3.8125,7.261395997678243E-8,2700000.0,68.7,38.561434639573505,37.649402390438254,13.29639889196677,802905.0,7320.0,0.0,1.0,0.0,?,0.0,0.0
2800000.0,3.96875,7.446075970720918E-8,2800000.0,65.5,33.072088150849694,21.232876712328764,-7.812500000000008,832905.0,7320.0,0.0,1.0,0.0,?,0.0,0.0
2900000.0,4.109375,7.577363349911244E-8,2900000.0,67.4,35.8913850607262,25.057471264367837,6.321839080459776,862905.0,7320.0,0.0,1.0,0.0,?,0.0,0.0
3000000.0,4.25,7.673726132553489E-8,3000000.0,68.10000000000001,37.20521885654445,32.27176220806795,11.878453038674044,892905.0,7320.0,0.0,1.0,0.0,?,0.0,0.0
3100000.0,4.40625,8.130429907598433E-8,3100000.0,65.60000000000001,33.63659864418028,23.89380530973451,5.23415977961433,922605.0,7320.0,0.0,1.0,0.0,?,0.0,0.0
3200000.0,4.546875,8.506538708590803E-8,3200000.0,66.4,34.81980391624345,28.8135593220339,9.919571045576417,952605.0,7320.0,0.0,1.0,0.0,?,0.0,0.0
3300000.0,4.6875,8.847722913035092E-8,3300000.0,67.30000000000001,35.558883808923234,28.13186813186814,5.2173913043478315,982605.0,7320.0,0.0,1.0,0.0,?,0.0,0.0
3400000.0,4.828125,9.153982520931301E-8,3400000.0,65.3,31.89561776758938,21.493212669683253,-3.273809523809527,1012605.0,7320.0,0.0,1.0,0.0,?,0.0,0.0
3500000.0,4.953125,9.395169197685193E-8,3500000.0,68.5,37.85609444295388,26.744186046511647,6.250000000000005,1042605.0,7320.0,0.0,1.0,0.0,?,0.0,0.0
3600000.0,5.09375,9.63157961248524E-8,3600000.0,65.7,33.441999456669386,27.48414376321353,7.297297297297304,1072605.0,7320.0,0.0,1.0,0.0,?,0.0,0.0
3700000.0,5.234375,9.833065430737208E-8,3700000.0,68.10000000000001,36.94904534134483,25.813953488372114,4.7761194029850795,1102605.0,7320.0,0.0,1.0,0.0,?,0.0,0.0
3800000.0,5.375,9.999626652441095E-8,3800000.0,67.7,36.9140625,33.12629399585922,13.86666666666668,1132605.0,7320.0,0.0,1.0,0.0,?,0.0,0.0
3900000.0,5.515625,1.0131263277596902E-7,3900000.0,67.80000000000001,37.44754918720667,28.28507795100223,10.055865921787719,1162605.0,7320.0,0.0,1.0,0.0,?,0.0,0.0
4000000.0,5.65625,1.0227975306204628E-7,4000000.0,69.6,40.059309735629995,35.72938689217758,18.279569892473106,1192605.0,7320.0,0.0,1.0,0.0,?,0.0,0.0
4100000.0,5.78125,1.0593648767098789E-7,4100000.0,68.30000000000001,37.53103741831741,32.69639065817411,12.430939226519348,1222305.0,7320.0,0.0,1.0,0.0,?,0.0,0.0
4200000.0,5.9375,1.1011935485940845E-7,4200000.0,69.0,39.15842361438215,31.86813186813185,13.88888888888887,1252305.0,7320.0,0.0,1.0,0.0,?,0.0,0.0
4300000.0,6.078125,1.1353468936350615E-7,4300000.0,64.7,31.106357731701223,22.417582417582416,0.842696629213484,1282305.0,7320.0,0.0,1.0,0.0,?,0.0,0.0
4400000.0,6.21875,1.1660077790212304E-7,4400000.0,68.30000000000001,38.69088602306925,29.867256637168143,10.198300283286128,1312305.0,7320.0,0.0,1.0,0.0,?,0.0,0.0
4500000.0,6.359375,1.1931762047525913E-7,4500000.0,66.5,34.908989165746966,23.515981735159816,6.685236768802234,1342305.0,7320.0,0.0,1.0,0.0,?,0.0,0.0
4600000.0,6.5,1.2168521708291443E-7,4600000.0,66.4,34.161023325808884,30.145530145530152,7.6923076923077,1372305.0,7320.0,0.0,1.0,0.0,?,0.0,0.0
4700000.0,6.640625,1.2370356772508892E-7,4700000.0,66.0,33.26424219584197,30.327868852459023,3.4090909090909123,1402305.0,7320.0,0.0,1.0,0.0,?,0.0,0.0
4800000.0,6.78125,1.253726724017826E-7,4800000.0,67.30000000000001,36.53295240165519,29.220779220779225,3.2544378698224885,1432305.0,7320.0,0.0,1.0,0.0,?,0.0,0.0
4900000.0,6.921875,1.266925311129955E-7,4900000.0,69.0,39.50416835794796,35.28183716075155,11.931818181818162,1462305.0,7320.0,0.0,1.0,0.0,?,0.0,0.0
5000000.0,7.0625,1.276905014593569E-7,5000000.0,65.60000000000001,33.25183848497197,23.385300668151444,3.0985915492957776,1492305.0,7320.0,0.0,1.0,0.0,?,0.0,0.0
5100000.0,7.203125,1.3183517795470033E-7,5100000.0,68.10000000000001,37.23931691193831,33.95445134575571,21.813725490196095,1522005.0,7320.0,0.0,1.0,0.0,?,0.0,0.0
5200000.0,7.34375,1.3563060848456297E-7,5200000.0,68.8,38.445026673821765,34.72803347280333,30.35714285714284,1552005.0,7320.0,0.0,1.0,0.0,?,0.0,0.0
5300000.0,7.484375,1.390767930489448E-7,5300000.0,68.0,36.67704899217566,36.38170974155071,23.627684964200498,1582005.0,7320.0,0.0,1.0,0.0,?,0.0,0.0
5400000.0,7.625,1.4217373164784583E-7,5400000.0,68.4,37.619184864361216,38.03921568627452,27.020785219399556,1612005.0,7320.0,0.0,1.0,0.0,?,0.0,0.0
5500000.0,7.765625,1.4492142428126606E-7,5500000.0,67.2,35.865348517081735,32.09109730848862,21.15384615384617,1642005.0,7320.0,0.0,1.0,0.0,?,0.0,0.0
5600000.0,7.890625,1.4705337687498999E-7,5600000.0,67.4,35.98303354017753,32.921810699588484,24.186046511627925,1672005.0,7320.0,0.0,1.0,0.0,?,0.0,0.0
5700000.0,8.03125,1.491025775774486E-7,5700000.0,72.0,44.40826569672326,38.86462882096069,29.648241206030146,1702005.0,7320.0,0.0,1.0,0.0,?,0.0,0.0
5800000.0,8.15625,1.5061364845476222E-7,5800000.0,69.6,39.911448450347876,35.59322033898304,28.638497652582156,1732005.0,7320.0,0.0,1.0,0.0,?,0.0,0.0
5900000.0,8.265625,1.516641997214821E-7,5900000.0,67.4,35.34952900347051,34.53815261044178,21.44578313253014,1762005.0,7320.0,0.0,1.0,0.0,?,0.0,0.0
6000000.0,8.40625,1.526656625274983E-7,6000000.0,68.0,36.84002763248791,34.291581108829575,20.987654320987673,1792005.0,7320.0,0.0,1.0,0.0,?,0.0,0.0
6100000.0,8.53125,1.563529238208301E-7,6100000.0,68.8,38.696836206591655,40.45801526717556,28.604118993135007,1821705.0,7320.0,0.0,1.0,0.0,?,0.0,0.0
6200000.0,8.671875,1.6015184681034754E-7,6200000.0,71.1,42.74052940244095,38.11563169164881,34.46712018140588,1851705.0,7320.0,0.0,1.0,0.0,?,0.0,0.0
6300000.0,8.8125,1.6360152383438418E-7,6300000.0,72.0,44.47507129004239,42.85714285714285,35.03480278422274,1881705.0,7320.0,0.0,1.0,0.0,?,0.0,0.0
6400000.0,8.953125,1.6670195489294001E-7,6400000.0,68.60000000000001,38.26359478897554,34.171907756813425,28.798185941043087,1911705.0,7320.0,0.0,1.0,0.0,?,0.0,0.0
6500000.0,9.078125,1.6914745275345116E-7,6500000.0,67.0,35.32784861229242,31.958762886597945,20.096852300242148,1941705.0,7320.0,0.0,1.0,0.0,?,0.0,0.0
6600000.0,9.21875,1.7154939188104538E-7,6600000.0,69.0,38.90542165113024,36.08247422680411,23.456790123456784,1971705.0,7320.0,0.0,1.0,0.0,?,0.0,0.0
6700000.0,9.359375,1.736020850431588E-7,6700000.0,66.9,34.493322672830764,34.84251968503938,26.607538802660756,2001705.0,7320.0,0.0,1.0,0.0,?,0.0,0.0
6800000.0,9.5,1.7530553223979142E-7,6800000.0,65.9,33.094225305686805,26.666666666666668,16.216216216216228,2031705.0,7320.0,0.0,1.0,0.0,?,0.0,0.0
6900000.0,9.625,1.7650926666748192E-7,6900000.0,70.39999999999999,41.761631933513804,38.58921161825725,28.502415458937193,2061705.0,7320.0,0.0,1.0,0.0,?,0.0,0.0
7000000.0,9.765625,1.7751422193315292E-7,7000000.0,69.0,38.5649566585678,29.38496583143506,18.205804749340356,2091705.0,7320.0,0.0,1.0,0.0,?,0.0,0.0
7100000.0,9.90625,1.8166588334780597E-7,7100000.0,69.69999999999999,40.41954081753041,41.5057915057915,30.82191780821916,2121405.0,7320.0,0.0,1.0,0.0,?,0.0,0.0
7200000.0,10.03125,1.8504580819151465E-7,7200000.0,68.0,36.74389183205504,30.885529157667392,20.398009950248774,2151405.0,7320.0,0.0,1.0,0.0,?,0.0,0.0
7300000.0,10.171875,1.884989776752061E-7,7300000.0,67.5,35.92372360057413,30.25751072961374,24.768518518518537,2181405.0,7320.0,0.0,1.0,0.0,?,0.0,0.0
7400000.0,10.296875,1.9125802080250445E-7,7400000.0,67.2,35.00600401853123,31.808731808731817,15.681233933161968,2211405.0,7320.0,0.0,1.0,0.0,?,0.0,0.0
7500000.0,10.4375,1.9401269835523428E-7,7500000.0,68.10000000000001,36.74199459034988,35.8148893360161,19.849246231155796,2241405.0,7320.0,0.0,1.0,0.0,?,0.0,0.0
7600000.0,10.5625,1.961508597661223E-7,7600000.0,71.0,42.44318745658428,41.883767535070135,37.63440860215053,2271405.0,7320.0,0.0,1.0,0.0,?,0.0,0.0
7700000.0,10.703125,1.9820704538789053E-7,7700000.0,70.1,40.98327004002873,43.26375711574952,28.97862232779097,2301405.0,7320.0,0.0,1.0,0.0,?,0.0,0.0
7800000.0,10.828125,1.9972432508236825E-7,7800000.0,67.10000000000001,35.5957685049605,29.0948275862069,12.032085561497336,2331405.0,7320.0,0.0,1.0,0.0,?,0.0,0.0
7900000.0,10.953125,2.009311639186408E-7,7900000.0,68.60000000000001,37.81316222050582,34.30962343096235,24.33734939759038,2361405.0,7320.0,0.0,1.0,0.0,?,0.0,0.0
8000000.0,11.09375,2.019396116439666E-7,8000000.0,69.19999999999999,38.88209801089008,40.54054054054053,30.316742081447945,2391405.0,7320.0,0.0,1.0,0.0,?,0.0,0.0
8100000.0,11.234375,2.060947655182745E-7,8100000.0,70.6,41.88000395374122,38.105263157894726,30.823529411764707,2421105.0,7320.0,0.0,1.0,0.0,?,0.0,0.0
8200000.0,11.359375,2.094777947705652E-7,8200000.0,69.6,40.01128734988021,39.19999999999999,29.466357308584683,2451105.0,7320.0,0.0,1.0,0.0,?,0.0,0.0
8300000.0,11.5,2.1293445671391148E-7,8300000.0,69.89999999999999,40.257389426550326,38.94523326572007,27.118644067796605,2481105.0,7320.0,0.0,1.0,0.0,?,0.0,0.0
8400000.0,11.640625,2.1604187269177695E-7,8400000.0,68.30000000000001,37.18045261781143,36.97813121272367,25.059101654846355,2511105.0,7320.0,0.0,1.0,0.0,?,0.0,0.0
8500000.0,11.78125,2.1880004270416162E-7,8500000.0,69.8,40.09552977767903,34.49023861171365,25.61576354679802,2541105.0,7320.0,0.0,1.0,0.0,?,0.0,0.0
8600000.0,11.90625,2.2094130852363172E-7,8600000.0,68.60000000000001,37.95766104333877,36.178861788617894,26.806526806526826,2571105.0,7320.0,0.0,1.0,0.0,?,0.0,0.0
8700000.0,12.046875,2.2300098660505477E-7,8700000.0,70.1,40.319361277445104,37.9668049792531,25.249999999999993,2601105.0,7320.0,0.0,1.0,0.0,?,0.0,0.0
8800000.0,12.171875,2.2452137070811454E-7,8800000.0,67.80000000000001,36.4528033786584,35.60000000000001,26.65148063781321,2631105.0,7320.0,0.0,1.0,0.0,?,0.0,0.0
8900000.0,12.296875,2.2573131395296916E-7,8900000.0,68.8,38.679004241368865,37.97216699801192,25.179856115107906,2661105.0,7320.0,0.0,1.0,0.0,?,0.0,0.0
9000000.0,12.4375,2.267432541379498E-7,9000000.0,68.8,38.83336404734924,35.537190082644614,27.27272727272727,2691105.0,7320.0,0.0,1.0,0.0,?,0.0,0.0
9100000.0,12.578125,2.309019004719125E-7,9100000.0,70.1,40.63596944042948,38.603696098562615,30.787037037037035,2720805.0,7320.0,0.0,1.0,0.0,?,0.0,0.0
9200000.0,12.703125,2.3428803413278526E-7,9200000.0,68.2,37.83525952801716,34.96932515337424,24.644549763033194,2750805.0,7320.0,0.0,1.0,0.0,?,0.0,0.0
9300000.0,12.84375,2.3774818853578634E-7,9300000.0,66.60000000000001,34.218818932375385,32.79678068410464,18.932038834951474,2780805.0,7320.0,0.0,1.0,0.0,?,0.0,0.0
9400000.0,12.984375,2.408590969733066E-7,9400000.0,70.19999999999999,41.51266309723814,39.676113360323875,28.70813397129186,2810805.0,7320.0,0.0,1.0,0.0,?,0.0,0.0
9500000.0,13.109375,2.433139080595639E-7,9500000.0,69.0,38.448097847668954,36.08247422680411,27.90697674418604,2840805.0,7320.0,0.0,1.0,0.0,?,0.0,0.0
9600000.0,13.25,2.4572632456612254E-7,9600000.0,70.5,41.68300860323886,41.23505976095617,32.801822323462396,2870805.0,7320.0,0.0,1.0,0.0,?,0.0,0.0
9700000.0,13.390625,2.477894951072004E-7,9700000.0,67.4,35.55707547729278,36.328125000000014,20.681265206812668,2900805.0,7320.0,0.0,1.0,0.0,?,0.0,0.0
9800000.0,13.53125,2.495034196827974E-7,9800000.0,69.0,38.952583881119004,37.499999999999986,25.659472422062347,2930805.0,7320.0,0.0,1.0,0.0,?,0.0,0.0
9900000.0,13.65625,2.507164673362341E-7,9900000.0,67.0,35.123913325548216,36.416184971098275,23.076923076923094,2960805.0,7320.0,0.0,1.0,0.0,?,0.0,0.0
1.0E7,13.828125,2.519575516796774E-7,1.0E7,68.10000000000001,37.167618672444355,33.26359832635984,24.586288416075668,2990805.0,7320.0,0.0,1.0,0.0,?,0.0,0.0
