learning evaluation instances,evaluation time (cpu seconds),model cost (RAM-Hours),classified instances,classifications correct (percent),Kappa Statistic (percent),Kappa Temporal Statistic (percent),Kappa M Statistic (percent),model training instances,model serialized size (bytes),labeling cost,newThreshold,maxPosterior,accuracyBaseLearner (percent),Change detected,Warning detected,tree size (nodes),tree size (leaves),active learning leaves,tree depth,active leaf byte size estimate,inactive leaf byte size estimate,byte size estimate overhead
100000.0,0.375,2.2659078240394594E-8,100000.0,94.8,89.3139120534962,89.12133891213388,87.93503480278422,9900.0,42672.0,0.0,1.0,0.0,?,0.0,5.0,22.0,13.0,13.0,3.0,0.0,0.0,1.0
200000.0,0.65625,3.860797733068466E-8,200000.0,95.3,90.47379686081203,90.87378640776699,89.60176991150442,19900.0,42704.0,0.0,1.0,0.0,?,0.0,0.0,22.0,13.0,13.0,3.0,0.0,0.0,1.0
300000.0,0.9375,5.3866533562541006E-8,300000.0,95.39999999999999,90.69161314344223,90.43659043659042,89.97821350762526,29900.0,47584.0,0.0,1.0,0.0,?,0.0,0.0,26.0,15.0,15.0,4.0,0.0,0.0,1.0
400000.0,1.21875,6.808084435760974E-8,400000.0,96.2,92.3164024587512,92.4901185770751,91.7391304347826,39900.0,47632.0,0.0,1.0,0.0,?,0.0,0.0,26.0,15.0,15.0,4.0,0.0,0.0,1.0
500000.0,1.5,8.124741725623607E-8,500000.0,94.6,89.07550444869734,88.77338877338876,88.33693304535636,49900.0,47632.0,0.0,1.0,0.0,?,0.0,0.0,26.0,15.0,15.0,4.0,0.0,0.0,1.0
600000.0,1.78125,9.336625225841999E-8,600000.0,95.89999999999999,91.6801948051948,91.9291338582677,90.929203539823,59900.0,47632.0,0.0,1.0,0.0,?,0.0,0.0,26.0,15.0,15.0,4.0,0.0,0.0,1.0
700000.0,2.0625,1.0476389434188604E-7,700000.0,96.5,92.83092452397338,92.84253578732105,91.91685912240185,69900.0,52096.0,0.0,1.0,0.0,?,0.0,0.0,28.0,16.0,16.0,5.0,0.0,0.0,1.0
800000.0,2.34375,1.1511612683534621E-7,800000.0,95.7,91.2186833743128,91.36546184738955,90.27149321266967,79900.0,52128.0,0.0,1.0,0.0,?,0.0,0.0,28.0,16.0,16.0,5.0,0.0,0.0,1.0
900000.0,2.609375,1.23903705065863E-7,900000.0,96.3,92.5878440642654,92.22689075630251,92.58517034068136,89900.0,52128.0,0.0,1.0,0.0,?,0.0,0.0,28.0,16.0,16.0,5.0,0.0,0.0,1.0
1000000.0,2.890625,1.3216046176643834E-7,1000000.0,95.7,91.2891280214571,91.63424124513618,90.59080962800874,99900.0,52128.0,0.0,1.0,0.0,?,0.0,0.0,28.0,16.0,16.0,5.0,0.0,0.0,1.0
1100000.0,3.171875,1.4985733691395984E-7,1100000.0,95.19999999999999,90.33723065030436,90.71566731141199,89.83050847457626,109800.0,52128.0,0.0,1.0,0.0,?,0.0,0.0,28.0,16.0,16.0,5.0,0.0,0.0,1.0
1200000.0,3.4375,1.6558152209553454E-7,1200000.0,95.39999999999999,90.69394823407552,90.68825910931173,90.06479481641468,119800.0,52128.0,0.0,1.0,0.0,?,0.0,0.0,28.0,16.0,16.0,5.0,0.0,0.0,1.0
1300000.0,3.71875,1.8118292145017122E-7,1300000.0,95.0,89.95834722428633,90.29126213592232,89.648033126294,129800.0,52128.0,0.0,1.0,0.0,?,0.0,0.0,28.0,16.0,16.0,5.0,0.0,0.0,1.0
1400000.0,3.984375,1.9492804616068802E-7,1400000.0,95.19999999999999,90.39292919588816,90.9090909090909,90.36144578313252,139800.0,52128.0,0.0,1.0,0.0,?,0.0,0.0,28.0,16.0,16.0,5.0,0.0,0.0,1.0
1500000.0,4.265625,2.0843396972243987E-7,1500000.0,94.6,89.15632166366122,88.5593220338983,88.70292887029288,149800.0,52128.0,0.0,1.0,0.0,?,0.0,0.0,28.0,16.0,16.0,5.0,0.0,0.0,1.0
1600000.0,4.546875,2.208921553877493E-7,1600000.0,95.1,90.15961506020707,90.50387596899225,89.83402489626555,159800.0,52128.0,0.0,1.0,0.0,?,0.0,0.0,28.0,16.0,16.0,5.0,0.0,0.0,1.0
1700000.0,4.8125,2.3167033860873848E-7,1700000.0,96.39999999999999,92.7192712799521,92.38900634249471,92.0704845814978,169800.0,52152.0,0.0,1.0,0.0,?,0.0,0.0,28.0,16.0,16.0,5.0,0.0,0.0,1.0
1800000.0,5.109375,2.426105978277823E-7,1800000.0,96.5,92.91790434719265,93.16406249999999,92.35807860262007,179800.0,52152.0,0.0,1.0,0.0,?,0.0,0.0,28.0,16.0,16.0,5.0,0.0,0.0,1.0
1900000.0,5.375,2.5140972057771357E-7,1900000.0,96.3,92.47912448878373,92.6,91.79600886917959,189800.0,52152.0,0.0,1.0,0.0,?,0.0,0.0,28.0,16.0,16.0,5.0,0.0,0.0,1.0
2000000.0,5.65625,2.5967928296368987E-7,2000000.0,95.0,89.82652185059636,89.85801217038538,88.91352549889135,199800.0,52160.0,0.0,1.0,0.0,?,0.0,0.0,28.0,16.0,16.0,5.0,0.0,0.0,1.0
2100000.0,5.9375,2.773889637966123E-7,2100000.0,95.7,91.34202620748532,91.45129224652086,90.9090909090909,209700.0,52160.0,0.0,1.0,0.0,?,0.0,0.0,28.0,16.0,16.0,5.0,0.0,0.0,1.0
2200000.0,6.21875,2.9405090673309237E-7,2200000.0,95.3,90.58010518214468,90.72978303747534,90.34907597535934,219700.0,52160.0,0.0,1.0,0.0,?,0.0,0.0,28.0,16.0,16.0,5.0,0.0,0.0,1.0
2300000.0,6.484375,3.087976559375724E-7,2300000.0,95.3,90.55557341735523,90.69306930693068,90.18789144050103,229700.0,52160.0,0.0,1.0,0.0,?,0.0,0.0,28.0,16.0,16.0,5.0,0.0,0.0,1.0
2400000.0,6.765625,3.2369299636532867E-7,2400000.0,95.6,91.13292947857595,91.45631067961165,90.61833688699359,239700.0,56656.0,0.0,1.0,0.0,?,0.0,0.0,30.0,17.0,17.0,6.0,0.0,0.0,1.0
2500000.0,7.03125,3.367712876449029E-7,2500000.0,95.7,91.30863638568633,91.58512720156556,90.73275862068965,249700.0,56656.0,0.0,1.0,0.0,?,0.0,0.0,30.0,17.0,17.0,6.0,0.0,0.0,1.0
2600000.0,7.3125,3.4986102643112347E-7,2600000.0,96.2,92.35892156231901,92.7063339731286,92.01680672268907,259700.0,60616.0,0.0,1.0,0.0,?,0.0,0.0,32.0,18.0,18.0,6.0,0.0,0.0,1.0
2700000.0,7.59375,3.622336468348901E-7,2700000.0,95.19999999999999,90.30635943211422,90.85714285714285,89.67741935483869,269700.0,65136.0,0.0,1.0,0.0,?,0.0,0.0,34.0,19.0,19.0,6.0,0.0,0.0,1.0
2800000.0,7.859375,3.729398142442936E-7,2800000.0,95.19999999999999,90.329404653974,90.34205231388329,89.89473684210525,279700.0,65288.0,0.0,1.0,0.0,?,0.0,0.0,34.0,19.0,19.0,6.0,0.0,0.0,1.0
2900000.0,8.125,3.826564514181681E-7,2900000.0,95.5,90.96820809248554,90.89068825910931,90.70247933884296,289700.0,65288.0,0.0,1.0,0.0,?,0.0,0.0,34.0,19.0,19.0,6.0,0.0,0.0,1.0
3000000.0,8.40625,3.9189691758818105E-7,3000000.0,95.89999999999999,91.63210658655258,91.45833333333333,90.74492099322798,299700.0,65288.0,0.0,1.0,0.0,?,0.0,0.0,34.0,19.0,19.0,6.0,0.0,0.0,1.0
3100000.0,8.6875,4.1057750220514016E-7,3100000.0,94.1,88.10723644426525,88.5880077369439,87.55274261603374,309600.0,65288.0,0.0,1.0,0.0,?,0.0,0.0,34.0,19.0,19.0,6.0,0.0,0.0,1.0
3200000.0,8.96875,4.2821034892565686E-7,3200000.0,95.5,90.92800464486162,90.46610169491525,90.4051172707889,319600.0,65288.0,0.0,1.0,0.0,?,0.0,0.0,34.0,19.0,19.0,6.0,0.0,0.0,1.0
3300000.0,9.25,4.4479545774973115E-7,3300000.0,95.39999999999999,90.72161621377396,91.18773946360153,90.17094017094016,329600.0,65288.0,0.0,1.0,0.0,?,0.0,0.0,34.0,19.0,19.0,6.0,0.0,0.0,1.0
3400000.0,9.515625,4.594696414036057E-7,3400000.0,96.1,92.14349602340029,92.35294117647058,91.68443496801704,339600.0,65288.0,0.0,1.0,0.0,?,0.0,0.0,34.0,19.0,19.0,6.0,0.0,0.0,1.0
3500000.0,9.796875,4.7395927443479514E-7,3500000.0,97.0,93.94594943656969,93.93939393939394,93.53448275862068,349600.0,65288.0,0.0,1.0,0.0,?,0.0,0.0,34.0,19.0,19.0,6.0,0.0,0.0,1.0
3600000.0,10.078125,4.874011695695422E-7,3600000.0,96.3,92.57380036769723,92.47967479674796,92.32365145228215,359600.0,65288.0,0.0,1.0,0.0,?,0.0,0.0,34.0,19.0,19.0,6.0,0.0,0.0,1.0
3700000.0,10.359375,4.997953268078468E-7,3700000.0,95.19999999999999,90.26151879729757,90.06211180124222,89.45054945054945,369600.0,65288.0,0.0,1.0,0.0,?,0.0,0.0,34.0,19.0,19.0,6.0,0.0,0.0,1.0
3800000.0,10.625,5.105113895196055E-7,3800000.0,96.0,91.93808448887455,91.85336048879836,91.45299145299145,379600.0,65288.0,0.0,1.0,0.0,?,0.0,0.0,34.0,19.0,19.0,6.0,0.0,0.0,1.0
3900000.0,10.90625,5.208100709650253E-7,3900000.0,95.8,91.57627880110391,91.699604743083,91.32231404958677,389600.0,65288.0,0.0,1.0,0.0,?,0.0,0.0,34.0,19.0,19.0,6.0,0.0,0.0,1.0
4000000.0,11.171875,5.295470732057261E-7,4000000.0,96.5,92.94929130305154,93.16406249999999,92.5531914893617,399600.0,65288.0,0.0,1.0,0.0,?,0.0,0.0,34.0,19.0,19.0,6.0,0.0,0.0,1.0
4100000.0,11.453125,5.482381352016497E-7,4100000.0,96.39999999999999,92.69907197092607,93.16888045540796,92.03539823008849,409500.0,65288.0,0.0,1.0,0.0,?,0.0,0.0,34.0,19.0,19.0,6.0,0.0,0.0,1.0
4200000.0,11.734375,5.658814593011308E-7,4200000.0,96.8,93.56789091142986,93.63817097415506,93.24894514767932,419500.0,65288.0,0.0,1.0,0.0,?,0.0,0.0,34.0,19.0,19.0,6.0,0.0,0.0,1.0
4300000.0,12.015625,5.824770455041696E-7,4300000.0,94.3,88.4825217215599,88.77952755905511,87.76824034334763,429500.0,65288.0,0.0,1.0,0.0,?,0.0,0.0,34.0,19.0,19.0,6.0,0.0,0.0,1.0
4400000.0,12.296875,5.980248938107659E-7,4400000.0,94.5,88.9327999613654,88.14655172413792,88.46960167714883,439500.0,65288.0,0.0,1.0,0.0,?,0.0,0.0,34.0,19.0,19.0,6.0,0.0,0.0,1.0
4500000.0,12.5625,6.117194425314667E-7,4500000.0,96.7,93.36619412526234,93.12499999999999,93.0379746835443,449500.0,65288.0,0.0,1.0,0.0,?,0.0,0.0,34.0,19.0,19.0,6.0,0.0,0.0,1.0
4600000.0,12.84375,6.251718150451782E-7,4600000.0,95.5,90.93144169924629,91.29593810444874,90.42553191489361,459500.0,65288.0,0.0,1.0,0.0,?,0.0,0.0,34.0,19.0,19.0,6.0,0.0,0.0,1.0
4700000.0,13.125,6.375764496624473E-7,4700000.0,96.89999999999999,93.72545844634254,93.4322033898305,93.18681318681318,469500.0,65288.0,0.0,1.0,0.0,?,0.0,0.0,34.0,19.0,19.0,6.0,0.0,0.0,1.0
4800000.0,13.390625,6.483024076765613E-7,4800000.0,96.0,91.93600412876589,92.15686274509804,91.45299145299145,479500.0,65288.0,0.0,1.0,0.0,?,0.0,0.0,34.0,19.0,19.0,6.0,0.0,0.0,1.0
4900000.0,13.671875,6.586115665009455E-7,4900000.0,95.3,90.49160428889338,90.5050505050505,89.82683982683982,489500.0,65288.0,0.0,1.0,0.0,?,0.0,0.0,34.0,19.0,19.0,6.0,0.0,0.0,1.0
5000000.0,13.9375,6.675860559981733E-7,5000000.0,96.2,92.37315350032112,92.32323232323232,92.08333333333333,499500.0,65288.0,0.0,1.0,0.0,?,0.0,0.0,34.0,19.0,19.0,6.0,0.0,0.0,1.0
5100000.0,14.375,7.002430114274226E-7,5100000.0,71.7,42.895193510634,37.93859649122806,23.513513513513505,9788.0,92912.0,0.0,1.0,0.0,?,1.0,9.0,23.0,21.0,21.0,2.0,0.0,0.0,1.0
5200000.0,14.78125,7.290572911087012E-7,5200000.0,74.0,47.54955558334981,43.9655172413793,32.81653746770026,19788.0,92944.0,0.0,1.0,0.0,?,0.0,0.0,23.0,21.0,21.0,2.0,0.0,0.0,1.0
5300000.0,15.171875,7.553081377409401E-7,5300000.0,73.9,47.1625692352541,46.29629629629629,34.09090909090909,29788.0,92944.0,0.0,1.0,0.0,?,0.0,0.0,23.0,21.0,21.0,2.0,0.0,0.0,1.0
5400000.0,15.5625,7.801054097298121E-7,5400000.0,74.3,47.86806767008803,45.20255863539445,30.54054054054054,39788.0,92960.0,0.0,1.0,0.0,?,0.0,0.0,23.0,21.0,21.0,2.0,0.0,0.0,1.0
5500000.0,15.953125,8.038622197798559E-7,5500000.0,73.0,45.122174300104476,45.233265720081135,33.660933660933665,49788.0,97040.0,0.0,1.0,0.0,?,0.0,0.0,25.0,22.0,22.0,2.0,0.0,0.0,1.0
5600000.0,16.390625,8.188972585938045E-7,5600000.0,78.10000000000001,55.95688198857695,52.078774617067836,43.11688311688312,3999.0,14048.0,0.0,1.0,0.0,?,2.0,6.0,5.0,3.0,3.0,2.0,0.0,0.0,1.0
5700000.0,16.75,8.356862559190229E-7,5700000.0,89.0,75.56424382441799,75.33632286995515,69.44444444444444,13999.0,76024.0,0.0,1.0,0.0,?,0.0,0.0,24.0,17.0,17.0,4.0,0.0,0.0,1.0
5800000.0,17.09375,8.535921612444026E-7,5800000.0,89.8,78.84028146574616,78.88198757763976,74.37185929648243,23999.0,111056.0,0.0,1.0,0.0,?,0.0,0.0,37.0,25.0,25.0,5.0,0.0,0.0,1.0
5900000.0,17.40625,8.694615098647776E-7,5900000.0,89.7,78.36734350978301,78.67494824016563,74.12060301507537,33999.0,120352.0,0.0,1.0,0.0,?,0.0,0.0,41.0,27.0,27.0,5.0,0.0,0.0,1.0
6000000.0,17.703125,8.851014232883854E-7,6000000.0,90.5,80.05626233362725,79.7008547008547,76.77261613691932,43999.0,141976.0,0.0,1.0,0.0,?,0.0,0.0,51.0,32.0,32.0,7.0,0.0,0.0,1.0
6100000.0,18.0,9.12377112803774E-7,6100000.0,90.60000000000001,80.15001520424367,79.06458797327394,75.52083333333334,53899.0,163616.0,0.0,1.0,0.0,?,0.0,0.0,61.0,37.0,37.0,7.0,0.0,0.0,1.0
6200000.0,18.296875,9.402063895120391E-7,6200000.0,92.0,82.68075875595892,82.75862068965519,77.83933518005541,63899.0,185088.0,0.0,1.0,0.0,?,0.0,0.0,75.0,44.0,44.0,7.0,0.0,0.0,1.0
6300000.0,18.59375,9.700398853359125E-7,6300000.0,92.7,84.66528304106345,84.82328482328482,81.13695090439278,73899.0,225432.0,0.0,1.0,0.0,?,0.0,0.0,88.0,52.0,52.0,7.0,0.0,0.0,1.0
6400000.0,18.90625,1.0024719004933207E-6,6400000.0,92.7,84.28011542271416,83.2183908045977,79.88980716253444,83899.0,252416.0,0.0,1.0,0.0,?,0.0,0.0,98.0,57.0,57.0,8.0,0.0,0.0,1.0
6500000.0,19.1875,1.037083921902296E-6,6500000.0,93.10000000000001,85.02279140438465,84.45945945945948,81.30081300813009,93899.0,341192.0,0.0,1.0,0.0,?,0.0,0.0,126.0,80.0,80.0,8.0,0.0,0.0,1.0
6600000.0,19.484375,1.0736028586203855E-6,6600000.0,93.0,85.15993351650216,85.23206751054853,81.77083333333334,103899.0,355320.0,0.0,1.0,0.0,?,0.0,0.0,130.0,82.0,82.0,8.0,0.0,0.0,1.0
6700000.0,19.765625,1.1074191813046735E-6,6700000.0,92.5,84.43247013109936,83.76623376623378,81.34328358208957,113899.0,358968.0,0.0,1.0,0.0,?,0.0,0.0,132.0,83.0,83.0,8.0,0.0,0.0,1.0
6800000.0,20.078125,1.1465981111137404E-6,6800000.0,92.80000000000001,84.85358465163245,83.82022471910113,81.44329896907217,123899.0,393280.0,0.0,1.0,0.0,?,0.0,0.0,158.0,105.0,105.0,8.0,0.0,0.0,1.0
6900000.0,20.375,1.1871863130687012E-6,6900000.0,93.30000000000001,85.95175791733763,85.89473684210527,82.73195876288662,133899.0,451496.0,0.0,1.0,0.0,?,0.0,0.0,184.0,127.0,127.0,9.0,0.0,0.0,1.0
7000000.0,20.671875,1.22906785691157E-6,7000000.0,93.10000000000001,85.0888187751221,85.53459119496857,80.93922651933703,143899.0,482608.0,0.0,1.0,0.0,?,0.0,0.0,184.0,127.0,127.0,9.0,0.0,0.0,1.0
7100000.0,20.953125,1.278482668567449E-6,7100000.0,94.69999999999999,88.73510057642277,89.20570264765783,86.08923884514435,153799.0,486664.0,0.0,1.0,0.0,?,0.0,0.0,188.0,129.0,129.0,9.0,0.0,0.0,1.0
7200000.0,21.25,1.3302169584979614E-6,7200000.0,94.19999999999999,87.65284921148539,88.23529411764704,84.65608465608464,163799.0,495472.0,0.0,1.0,0.0,?,0.0,0.0,192.0,131.0,131.0,9.0,0.0,0.0,1.0
7300000.0,21.546875,1.3812231676032146E-6,7300000.0,92.30000000000001,83.61953062509573,83.85744234800839,79.24528301886794,173799.0,500368.0,0.0,1.0,0.0,?,0.0,0.0,194.0,132.0,132.0,9.0,0.0,0.0,1.0
7400000.0,21.84375,1.431489007599238E-6,7400000.0,92.7,84.74909121296955,84.69601677148847,81.2820512820513,183799.0,505096.0,0.0,1.0,0.0,?,0.0,0.0,198.0,134.0,134.0,10.0,0.0,0.0,1.0
7500000.0,22.140625,1.4810310676693917E-6,7500000.0,93.7,86.95414485454907,86.59574468085107,84.40594059405943,193799.0,510048.0,0.0,1.0,0.0,?,0.0,0.0,200.0,135.0,135.0,10.0,0.0,0.0,1.0
7600000.0,22.4375,1.530514758390685E-6,7600000.0,93.30000000000001,86.00013373006587,86.2422997946612,83.0808080808081,203799.0,523616.0,0.0,1.0,0.0,?,0.0,0.0,206.0,138.0,138.0,10.0,0.0,0.0,1.0
7700000.0,22.75,1.5821190835494135E-6,7700000.0,93.10000000000001,84.9989564491443,85.06493506493507,80.6179775280899,213799.0,531992.0,0.0,1.0,0.0,?,0.0,0.0,208.0,139.0,139.0,10.0,0.0,0.0,1.0
7800000.0,23.0625,1.6328722833552295E-6,7800000.0,93.7,86.62420382165607,86.45161290322582,83.20000000000002,223799.0,535824.0,0.0,1.0,0.0,?,0.0,0.0,214.0,142.0,142.0,10.0,0.0,0.0,1.0
7900000.0,23.375,1.6834722029873067E-6,7900000.0,94.19999999999999,87.66571536724268,88.25910931174089,84.6153846153846,233799.0,548264.0,0.0,1.0,0.0,?,0.0,0.0,218.0,144.0,144.0,10.0,0.0,0.0,1.0
8000000.0,23.6875,1.7346115136105153E-6,8000000.0,89.9,79.03677074944582,78.55626326963908,74.03598971722366,243799.0,569232.0,0.0,1.0,0.0,?,0.0,0.0,224.0,147.0,147.0,10.0,0.0,0.0,1.0
8100000.0,24.0,1.7972306684694356E-6,8100000.0,93.2,85.64910370210917,84.6846846846847,81.76943699731905,253699.0,581424.0,0.0,1.0,0.0,?,0.0,0.0,228.0,149.0,149.0,10.0,0.0,0.0,1.0
8200000.0,24.3125,1.8600276800700359E-6,8200000.0,93.7,86.94830700896632,87.42514970059881,84.13098236775821,263699.0,597936.0,0.0,1.0,0.0,?,0.0,0.0,234.0,152.0,152.0,10.0,0.0,0.0,1.0
8300000.0,24.609375,1.9198458176106213E-6,8300000.0,91.3,82.17563757949257,81.87500000000001,78.62407862407863,273699.0,614352.0,0.0,1.0,0.0,?,0.0,0.0,238.0,154.0,154.0,10.0,0.0,0.0,1.0
8400000.0,24.9375,1.9900439656339586E-6,8400000.0,93.10000000000001,85.45371752384327,84.56375838926175,81.79419525065964,283699.0,676800.0,0.0,1.0,0.0,?,0.0,0.0,260.0,174.0,174.0,10.0,0.0,0.0,1.0
8500000.0,25.296875,2.072963300937166E-6,8500000.0,93.30000000000001,85.93854936198792,85.46637744034709,83.03797468354432,293699.0,756016.0,0.0,1.0,0.0,?,0.0,0.0,282.0,194.0,194.0,10.0,0.0,0.0,1.0
8600000.0,25.640625,2.153056460277488E-6,8600000.0,94.1,87.72357655910577,88.0081300813008,85.3233830845771,303699.0,779088.0,0.0,1.0,0.0,?,0.0,0.0,284.0,195.0,195.0,10.0,0.0,0.0,1.0
8700000.0,25.96875,2.229125335967789E-6,8700000.0,93.7,86.81600160719219,86.45161290322582,83.72093023255816,313699.0,788928.0,0.0,1.0,0.0,?,0.0,0.0,286.0,196.0,196.0,10.0,0.0,0.0,1.0
8800000.0,26.28125,2.3005797670015857E-6,8800000.0,93.60000000000001,86.61037444924705,85.84070796460178,83.63171355498723,323699.0,791056.0,0.0,1.0,0.0,?,0.0,0.0,286.0,196.0,196.0,10.0,0.0,0.0,1.0
8900000.0,26.609375,2.3747288570221925E-6,8900000.0,92.7,84.68432934146813,84.36830835117773,80.89005235602096,333699.0,795088.0,0.0,1.0,0.0,?,0.0,0.0,288.0,197.0,197.0,10.0,0.0,0.0,1.0
9000000.0,26.9375,2.4484406134838027E-6,9000000.0,91.9,82.75157152348342,82.76595744680851,78.04878048780489,343699.0,804296.0,0.0,1.0,0.0,?,0.0,0.0,290.0,198.0,198.0,10.0,0.0,0.0,1.0
9100000.0,27.28125,2.54354274754102E-6,9100000.0,93.2,85.57757567530882,85.24945770065077,81.5217391304348,353599.0,875544.0,0.0,1.0,0.0,?,0.0,0.0,312.0,218.0,218.0,10.0,0.0,0.0,1.0
9200000.0,27.671875,2.6593299116939303E-6,9200000.0,93.8,86.92027273340983,86.63793103448275,84.02061855670102,363599.0,966144.0,0.0,1.0,0.0,?,0.0,0.0,336.0,239.0,239.0,10.0,0.0,0.0,1.0
9300000.0,28.015625,2.7613520958564345E-6,9300000.0,92.80000000000001,84.93667125540293,84.71337579617835,81.58567774936063,373599.0,981928.0,0.0,1.0,0.0,?,0.0,0.0,338.0,240.0,240.0,10.0,0.0,0.0,1.0
9400000.0,28.390625,2.8717285668891335E-6,9400000.0,93.0,85.6092035310903,85.32494758909854,82.80098280098281,383599.0,986816.0,0.0,1.0,0.0,?,0.0,0.0,340.0,241.0,241.0,10.0,0.0,0.0,1.0
9500000.0,28.734375,2.9720582662978103E-6,9500000.0,93.0,85.18054332362307,85.23206751054853,81.18279569892475,393599.0,991648.0,0.0,1.0,0.0,?,0.0,0.0,342.0,242.0,242.0,10.0,0.0,0.0,1.0
9600000.0,29.078125,3.0718693354477484E-6,9600000.0,92.9,84.87894638202171,84.22222222222223,80.22284122562675,403599.0,1000168.0,0.0,1.0,0.0,?,0.0,0.0,346.0,244.0,244.0,10.0,0.0,0.0,1.0
9700000.0,29.453125,3.180616768077016E-6,9700000.0,93.5,86.24082368779796,86.05150214592275,82.8496042216359,413599.0,1013088.0,0.0,1.0,0.0,?,0.0,0.0,350.0,246.0,246.0,11.0,0.0,0.0,1.0
9800000.0,29.828125,3.300194706146916E-6,9800000.0,93.60000000000001,86.19356620185008,86.26609442060087,82.41758241758244,423599.0,1139120.0,0.0,1.0,0.0,?,0.0,0.0,399.0,292.0,292.0,11.0,0.0,0.0,1.0
9900000.0,30.21875,3.4289985584716006E-6,9900000.0,94.5,87.71871845943603,88.24786324786324,83.72781065088756,433599.0,1195296.0,0.0,1.0,0.0,?,0.0,0.0,401.0,293.0,293.0,11.0,0.0,0.0,1.0
1.0E7,30.59375,3.5514573877056444E-6,1.0E7,94.6,88.5293817761615,88.65546218487394,85.5614973262032,443599.0,1197400.0,0.0,1.0,0.0,?,0.0,0.0,401.0,293.0,293.0,11.0,0.0,0.0,1.0
