learning evaluation instances,evaluation time (cpu seconds),model cost (RAM-Hours),classified instances,classifications correct (percent),Kappa Statistic (percent),Kappa Temporal Statistic (percent),Kappa M Statistic (percent),model training instances,model serialized size (bytes),labeling cost,newThreshold,maxPosterior,accuracyBaseLearner (percent),Change detected,Warning detected,tree size (nodes),tree size (leaves),active learning leaves,tree depth,active leaf byte size estimate,inactive leaf byte size estimate,byte size estimate overhead
100000.0,0.140625,0.0,100000.0,90.0,74.36738711397285,75.49019607843138,64.5390070921986,29700.0,0.0,0.0,1.0,0.0,?,0.0,23.0,27.0,14.0,14.0,5.0,0.0,0.0,1.0
200000.0,0.28125,0.0,200000.0,91.60000000000001,79.22674013146506,80.14184397163122,71.33105802047783,59700.0,0.0,0.0,1.0,0.0,?,0.0,0.0,47.0,24.0,24.0,6.0,0.0,0.0,1.0
300000.0,0.421875,0.0,300000.0,89.5,73.6781413258195,75.58139534883722,65.11627906976746,89700.0,0.0,0.0,1.0,0.0,?,0.0,0.0,69.0,35.0,35.0,7.0,0.0,0.0,1.0
400000.0,0.5625,0.0,400000.0,88.7,71.03247439065656,73.15914489311164,60.62717770034845,119700.0,0.0,0.0,1.0,0.0,?,0.0,0.0,97.0,49.0,49.0,8.0,0.0,0.0,1.0
500000.0,0.703125,0.0,500000.0,88.7,71.61602765051042,73.22274881516589,62.45847176079735,149700.0,0.0,0.0,1.0,0.0,?,0.0,0.0,117.0,59.0,59.0,9.0,0.0,0.0,1.0
600000.0,0.84375,0.0,600000.0,88.6,70.91836734693878,73.61111111111111,62.000000000000014,179700.0,0.0,0.0,1.0,0.0,?,0.0,0.0,137.0,69.0,69.0,9.0,0.0,0.0,1.0
700000.0,0.96875,0.0,700000.0,90.60000000000001,76.03398075579648,75.83547557840618,67.2473867595819,209700.0,0.0,0.0,1.0,0.0,?,0.0,0.0,149.0,75.0,75.0,9.0,0.0,0.0,1.0
800000.0,1.109375,0.0,800000.0,89.4,72.73760718492646,72.46753246753246,63.06620209059235,239700.0,0.0,0.0,1.0,0.0,?,0.0,0.0,171.0,86.0,86.0,10.0,0.0,0.0,1.0
900000.0,1.234375,0.0,900000.0,89.2,72.23750302045686,73.91304347826087,62.629757785467135,269700.0,0.0,0.0,1.0,0.0,?,0.0,0.0,193.0,97.0,97.0,10.0,0.0,0.0,1.0
1000000.0,1.375,0.0,1000000.0,90.2,73.95348837209302,74.61139896373058,64.36363636363637,299700.0,0.0,0.0,1.0,0.0,?,0.0,0.0,217.0,109.0,109.0,10.0,0.0,0.0,1.0
1100000.0,1.53125,0.0,1100000.0,88.4,72.12784668393458,74.78260869565217,63.406940063091476,329400.0,0.0,0.0,1.0,0.0,?,0.0,0.0,237.0,119.0,119.0,11.0,0.0,0.0,1.0
1200000.0,1.671875,0.0,1200000.0,91.2,77.33360807747786,78.53658536585367,68.57142857142858,359400.0,0.0,0.0,1.0,0.0,?,0.0,0.0,259.0,130.0,130.0,11.0,0.0,0.0,1.0
1300000.0,1.8125,0.0,1300000.0,91.3,77.77959400508773,79.23627684964202,70.30716723549489,389400.0,0.0,0.0,1.0,0.0,?,0.0,0.0,275.0,138.0,138.0,11.0,0.0,0.0,1.0
1400000.0,1.96875,0.0,1400000.0,89.60000000000001,74.62585332767296,74.63414634146342,66.77316293929712,419400.0,0.0,0.0,1.0,0.0,?,0.0,0.0,295.0,148.0,148.0,11.0,0.0,0.0,1.0
1500000.0,2.125,0.0,1500000.0,89.60000000000001,73.28744252947371,73.86934673366835,63.25088339222616,449400.0,0.0,0.0,1.0,0.0,?,0.0,0.0,315.0,158.0,158.0,12.0,0.0,0.0,1.0
1600000.0,2.25,0.0,1600000.0,90.5,75.95813171906951,77.32696897374703,67.90540540540542,479400.0,0.0,0.0,1.0,0.0,?,0.0,0.0,343.0,172.0,172.0,12.0,0.0,0.0,1.0
1700000.0,2.40625,0.0,1700000.0,89.2,72.94046903187012,73.91304347826087,64.70588235294119,509400.0,0.0,0.0,1.0,0.0,?,0.0,0.0,373.0,187.0,187.0,12.0,0.0,0.0,1.0
1800000.0,2.53125,0.0,1800000.0,89.5,73.2533140417554,73.88059701492537,63.286713286713294,539400.0,0.0,0.0,1.0,0.0,?,0.0,0.0,397.0,199.0,199.0,12.0,0.0,0.0,1.0
1900000.0,2.6875,0.0,1900000.0,90.10000000000001,75.41691911918078,76.86915887850468,66.88963210702342,569400.0,0.0,0.0,1.0,0.0,?,0.0,0.0,417.0,209.0,209.0,12.0,0.0,0.0,1.0
2000000.0,2.859375,0.0,2000000.0,89.0,70.0956937799043,70.27027027027027,58.333333333333336,599400.0,0.0,0.0,1.0,0.0,?,0.0,0.0,439.0,220.0,220.0,12.0,0.0,0.0,1.0
2100000.0,2.984375,0.0,2100000.0,91.0,77.63919600486969,78.72340425531917,70.0996677740864,629100.0,0.0,0.0,1.0,0.0,?,0.0,0.0,455.0,228.0,228.0,13.0,0.0,0.0,1.0
2200000.0,3.15625,0.0,2200000.0,90.5,74.86107435829585,76.42679900744417,65.82733812949641,659100.0,0.0,0.0,1.0,0.0,?,0.0,0.0,481.0,241.0,241.0,13.0,0.0,0.0,1.0
2300000.0,3.3125,0.0,2300000.0,88.5,71.63155557748286,72.55369928400955,62.90322580645162,689100.0,0.0,0.0,1.0,0.0,?,0.0,0.0,503.0,252.0,252.0,13.0,0.0,0.0,1.0
2400000.0,3.453125,0.0,2400000.0,89.60000000000001,72.83673309478414,71.8918918918919,62.72401433691758,719100.0,0.0,0.0,1.0,0.0,?,0.0,0.0,519.0,260.0,260.0,13.0,0.0,0.0,1.0
2500000.0,3.609375,0.0,2500000.0,88.8,71.16330324361344,73.39667458432304,61.512027491408936,749100.0,0.0,0.0,1.0,0.0,?,0.0,0.0,537.0,269.0,269.0,13.0,0.0,0.0,1.0
2600000.0,3.78125,0.0,2600000.0,89.0,73.58055528869247,73.9952718676123,66.66666666666666,779100.0,0.0,0.0,1.0,0.0,?,0.0,0.0,563.0,282.0,282.0,13.0,0.0,0.0,1.0
2700000.0,3.9375,0.0,2700000.0,90.7,76.81954137587239,78.95927601809956,69.00000000000001,809100.0,0.0,0.0,1.0,0.0,?,0.0,0.0,579.0,290.0,290.0,13.0,0.0,0.0,1.0
2800000.0,4.078125,0.0,2800000.0,90.5,74.16793561018056,76.01010101010101,64.55223880597016,839100.0,0.0,0.0,1.0,0.0,?,0.0,0.0,593.0,297.0,297.0,13.0,0.0,0.0,1.0
2900000.0,4.25,0.0,2900000.0,89.8,74.07680382240069,74.93857493857494,65.88628762541808,869100.0,0.0,0.0,1.0,0.0,?,0.0,0.0,621.0,311.0,311.0,13.0,0.0,0.0,1.0
3000000.0,4.40625,0.0,3000000.0,89.7,74.54401660817558,76.21247113163973,66.7741935483871,899100.0,0.0,0.0,1.0,0.0,?,0.0,0.0,647.0,324.0,324.0,13.0,0.0,0.0,1.0
3100000.0,4.5625,0.0,3100000.0,88.7,72.32562695924766,72.30392156862746,63.43042071197412,928800.0,0.0,0.0,1.0,0.0,?,0.0,0.0,663.0,332.0,332.0,13.0,0.0,0.0,1.0
3200000.0,4.734375,0.0,3200000.0,88.5,71.71862242639465,73.13084112149532,63.37579617834395,958800.0,0.0,0.0,1.0,0.0,?,0.0,0.0,677.0,339.0,339.0,14.0,0.0,0.0,1.0
3300000.0,4.90625,0.0,3300000.0,89.2,72.2100712760209,72.93233082706767,62.10526315789474,988800.0,0.0,0.0,1.0,0.0,?,0.0,0.0,703.0,352.0,352.0,14.0,0.0,0.0,1.0
3400000.0,5.109375,0.0,3400000.0,90.7,75.1336898395722,77.64423076923079,66.1818181818182,1018800.0,0.0,0.0,1.0,0.0,?,0.0,0.0,725.0,363.0,363.0,14.0,0.0,0.0,?
3500000.0,5.265625,0.0,3500000.0,88.5,69.3826476821333,69.89528795811518,57.87545787545788,1048800.0,0.0,0.0,1.0,0.0,?,0.0,0.0,741.0,371.0,371.0,14.0,0.0,0.0,?
3600000.0,5.421875,0.0,3600000.0,88.5,71.22122122122123,73.80410022779044,61.66666666666668,1078800.0,0.0,0.0,1.0,0.0,?,0.0,0.0,763.0,382.0,382.0,14.0,0.0,0.0,?
3700000.0,5.609375,0.0,3700000.0,89.5,72.63201793254444,73.75,63.793103448275865,1108800.0,0.0,0.0,1.0,0.0,?,0.0,0.0,787.0,394.0,394.0,14.0,0.0,0.0,?
3800000.0,5.796875,0.0,3800000.0,90.3,76.13729175481929,77.3892773892774,68.30065359477125,1138800.0,0.0,0.0,1.0,0.0,?,0.0,0.0,801.0,401.0,401.0,14.0,0.0,0.0,?
3900000.0,5.953125,0.0,3900000.0,90.8,77.50919189548621,77.61557177615572,69.73684210526318,1168800.0,0.0,0.0,1.0,0.0,?,0.0,0.0,831.0,416.0,416.0,14.0,0.0,0.0,?
4000000.0,6.125,0.0,4000000.0,89.5,73.8694167653822,76.40449438202246,64.76510067114096,1198800.0,0.0,0.0,1.0,0.0,?,0.0,0.0,841.0,421.0,421.0,14.0,0.0,0.0,?
4100000.0,6.265625,0.0,4100000.0,88.4,70.48270948370188,72.04819277108435,60.67796610169493,1228500.0,0.0,0.0,1.0,0.0,?,0.0,0.0,849.0,425.0,425.0,14.0,0.0,0.0,?
4200000.0,6.453125,0.0,4200000.0,88.5,71.18227835413222,71.3216957605985,60.88435374149661,1258500.0,0.0,0.0,1.0,0.0,?,0.0,0.0,863.0,432.0,432.0,14.0,0.0,0.0,?
4300000.0,6.625,0.0,4300000.0,87.7,69.50705552194997,70.64439140811456,58.585858585858595,1288500.0,0.0,0.0,1.0,0.0,?,0.0,0.0,885.0,443.0,443.0,14.0,0.0,0.0,?
4400000.0,6.8125,0.0,4400000.0,89.8,75.00784067743453,75.24271844660196,66.22516556291393,1318500.0,0.0,0.0,1.0,0.0,?,0.0,0.0,905.0,453.0,453.0,14.0,0.0,0.0,?
4500000.0,6.984375,0.0,4500000.0,90.5,76.0456695613584,76.13065326633168,67.68707482993199,1348500.0,0.0,0.0,1.0,0.0,?,0.0,0.0,937.0,469.0,469.0,14.0,0.0,0.0,?
4600000.0,7.1875,0.0,4600000.0,88.9,72.30704748218669,74.12587412587413,63.486842105263165,1378500.0,0.0,0.0,1.0,0.0,?,0.0,0.0,965.0,483.0,483.0,14.0,0.0,0.0,?
4700000.0,7.40625,0.0,4700000.0,89.9,74.30600781504396,76.51162790697676,65.4109589041096,1408500.0,0.0,0.0,1.0,0.0,?,0.0,0.0,999.0,500.0,500.0,14.0,0.0,0.0,?
4800000.0,7.609375,0.0,4800000.0,91.60000000000001,78.70927515220335,79.10447761194031,70.31802120141344,1438500.0,0.0,0.0,1.0,0.0,?,0.0,0.0,1013.0,507.0,507.0,14.0,0.0,0.0,?
4900000.0,7.796875,0.0,4900000.0,91.5,78.39503034862797,80.50458715596332,70.2797202797203,1468500.0,0.0,0.0,1.0,0.0,?,0.0,0.0,1037.0,519.0,519.0,14.0,0.0,0.0,?
5000000.0,7.984375,0.0,5000000.0,90.2,74.97101234593127,75.68238213399503,66.08996539792389,1498500.0,0.0,0.0,1.0,0.0,?,0.0,0.0,1061.0,531.0,531.0,15.0,0.0,0.0,?
5100000.0,8.203125,0.0,5100000.0,87.9,75.56049282973136,75.70281124497991,73.17073170731707,10775.0,0.0,0.0,1.0,0.0,?,7.0,48.0,9.0,5.0,5.0,3.0,0.0,0.0,1.0
5200000.0,8.375,0.0,5200000.0,90.4,80.79961599231986,81.02766798418973,80.32786885245902,40775.0,0.0,0.0,1.0,0.0,?,0.0,4.0,39.0,20.0,20.0,5.0,0.0,0.0,1.0
5300000.0,8.53125,0.0,5300000.0,89.5,78.84719211584486,78.70182555780933,77.02407002188184,70775.0,0.0,0.0,1.0,0.0,?,0.0,0.0,51.0,26.0,26.0,6.0,0.0,0.0,1.0
5400000.0,8.6875,0.0,5400000.0,88.8,77.45744085597318,78.544061302682,76.11940298507463,100775.0,0.0,0.0,1.0,0.0,?,0.0,0.0,73.0,37.0,37.0,7.0,0.0,0.0,1.0
5500000.0,8.84375,0.0,5500000.0,89.0,77.84589605294427,77.50511247443764,76.24190064794817,130775.0,0.0,0.0,1.0,0.0,?,0.0,0.0,93.0,47.0,47.0,8.0,0.0,0.0,1.0
5600000.0,9.0,0.0,5600000.0,88.5,76.8782873043702,76.90763052208835,75.63559322033898,160775.0,0.0,0.0,1.0,0.0,?,0.0,0.0,115.0,58.0,58.0,9.0,0.0,0.0,1.0
5700000.0,9.125,0.0,5700000.0,90.5,80.66023908016025,79.87288135593221,77.80373831775702,190775.0,0.0,0.0,1.0,0.0,?,0.0,0.0,145.0,73.0,73.0,9.0,0.0,0.0,1.0
5800000.0,9.28125,0.0,5800000.0,89.0,77.8111283242964,77.08333333333334,76.19047619047619,220775.0,0.0,0.0,1.0,0.0,?,0.0,0.0,175.0,88.0,88.0,10.0,0.0,0.0,1.0
5900000.0,9.4375,0.0,5900000.0,89.2,78.04342522566479,78.65612648221344,75.56561085972851,250775.0,0.0,0.0,1.0,0.0,?,0.0,0.0,181.0,91.0,91.0,10.0,0.0,0.0,1.0
6000000.0,9.59375,0.0,6000000.0,90.5,80.746313425697,80.96192384769539,78.69955156950674,280775.0,0.0,0.0,1.0,0.0,?,0.0,0.0,207.0,104.0,104.0,11.0,0.0,0.0,1.0
6100000.0,9.6875,0.0,6100000.0,89.2,78.26095708149323,79.7752808988764,76.57266811279827,310475.0,0.0,0.0,1.0,0.0,?,0.0,0.0,215.0,108.0,108.0,11.0,0.0,0.0,1.0
6200000.0,9.84375,0.0,6200000.0,91.3,82.53110266892625,81.6842105263158,81.52866242038218,340475.0,0.0,0.0,1.0,0.0,?,0.0,0.0,247.0,124.0,124.0,11.0,0.0,0.0,1.0
6300000.0,10.015625,0.0,6300000.0,91.0,81.8454686289698,81.9277108433735,80.51948051948052,370475.0,0.0,0.0,1.0,0.0,?,0.0,0.0,265.0,133.0,133.0,11.0,0.0,0.0,1.0
6400000.0,10.140625,0.0,6400000.0,89.3,78.4801776290385,77.75467775467776,77.2823779193206,400475.0,0.0,0.0,1.0,0.0,?,0.0,0.0,291.0,146.0,146.0,12.0,0.0,0.0,1.0
6500000.0,10.3125,0.0,6500000.0,89.5,78.78462147723691,78.87323943661973,76.82119205298014,430475.0,0.0,0.0,1.0,0.0,?,0.0,0.0,313.0,157.0,157.0,12.0,0.0,0.0,1.0
6600000.0,10.484375,0.0,6600000.0,90.4,80.55002897235268,81.2133072407045,78.61915367483296,460475.0,0.0,0.0,1.0,0.0,?,0.0,0.0,333.0,167.0,167.0,12.0,0.0,0.0,1.0
6700000.0,10.65625,0.0,6700000.0,89.3,78.51698964799986,79.42307692307693,77.66179540709813,490475.0,0.0,0.0,1.0,0.0,?,0.0,0.0,355.0,178.0,178.0,12.0,0.0,0.0,1.0
6800000.0,10.8125,0.0,6800000.0,89.3,78.4230691671708,77.3784355179704,76.22222222222223,520475.0,0.0,0.0,1.0,0.0,?,0.0,0.0,371.0,186.0,186.0,12.0,0.0,0.0,1.0
6900000.0,10.984375,0.0,6900000.0,89.4,78.59442081753157,78.09917355371901,76.49667405764967,550475.0,0.0,0.0,1.0,0.0,?,0.0,0.0,403.0,202.0,202.0,12.0,0.0,0.0,1.0
7000000.0,11.15625,0.0,7000000.0,88.7,76.72118989740844,75.38126361655773,72.23587223587225,580475.0,0.0,0.0,1.0,0.0,?,0.0,0.0,427.0,214.0,214.0,12.0,0.0,0.0,1.0
7100000.0,11.328125,0.0,7100000.0,90.8,81.54241232645856,82.50950570342206,80.59071729957806,610175.0,0.0,0.0,1.0,0.0,?,0.0,0.0,445.0,223.0,223.0,12.0,0.0,0.0,1.0
7200000.0,11.5,0.0,7200000.0,90.4,80.48661503750229,80.3680981595092,78.42696629213484,640175.0,0.0,0.0,1.0,0.0,?,0.0,0.0,461.0,231.0,231.0,13.0,0.0,0.0,1.0
7300000.0,11.671875,0.0,7300000.0,88.8,77.48553646740027,76.06837606837607,76.11940298507463,670175.0,0.0,0.0,1.0,0.0,?,0.0,0.0,479.0,240.0,240.0,13.0,0.0,0.0,1.0
7400000.0,11.84375,0.0,7400000.0,89.4,78.37652588289053,78.58585858585859,75.23364485981308,700175.0,0.0,0.0,1.0,0.0,?,0.0,0.0,493.0,247.0,247.0,13.0,0.0,0.0,1.0
7500000.0,12.015625,0.0,7500000.0,88.7,76.90144069598207,77.62376237623762,73.34905660377359,730175.0,0.0,0.0,1.0,0.0,?,0.0,0.0,525.0,263.0,263.0,13.0,0.0,0.0,1.0
7600000.0,12.1875,0.0,7600000.0,89.2,78.41795626039135,78.74015748031496,78.65612648221344,760175.0,0.0,0.0,1.0,0.0,?,0.0,0.0,541.0,271.0,271.0,13.0,0.0,0.0,1.0
7700000.0,12.328125,0.0,7700000.0,90.9,81.65514905695372,82.9268292682927,79.91169977924946,790175.0,0.0,0.0,1.0,0.0,?,0.0,0.0,563.0,282.0,282.0,13.0,0.0,0.0,1.0
7800000.0,12.484375,0.0,7800000.0,90.60000000000001,80.58613354261757,80.65843621399178,76.90417690417691,820175.0,0.0,0.0,1.0,0.0,?,0.0,0.0,591.0,296.0,296.0,13.0,0.0,0.0,1.0
7900000.0,12.671875,0.0,7900000.0,89.8,79.4780999134861,78.83817427385893,78.15845824411134,850175.0,0.0,0.0,1.0,0.0,?,0.0,0.0,611.0,306.0,306.0,13.0,0.0,0.0,1.0
8000000.0,12.828125,0.0,8000000.0,89.5,78.93156973851069,79.88505747126437,77.70700636942675,880175.0,0.0,0.0,1.0,0.0,?,0.0,0.0,635.0,318.0,318.0,13.0,0.0,0.0,1.0
8100000.0,13.0,0.0,8100000.0,88.5,76.81750741839762,75.94142259414227,74.94553376906318,909875.0,0.0,0.0,1.0,0.0,?,0.0,0.0,659.0,330.0,330.0,14.0,0.0,0.0,1.0
8200000.0,13.15625,0.0,8200000.0,88.3,76.42687899937138,76.96850393700787,74.78448275862068,939875.0,0.0,0.0,1.0,0.0,?,0.0,0.0,689.0,345.0,345.0,14.0,0.0,0.0,1.0
8300000.0,13.34375,0.0,8300000.0,89.2,78.20744094821846,79.11025145067698,76.15894039735099,969875.0,0.0,0.0,1.0,0.0,?,0.0,0.0,713.0,357.0,357.0,14.0,0.0,0.0,1.0
8400000.0,13.515625,0.0,8400000.0,90.8,81.37470847369785,81.63672654690619,79.91266375545852,999875.0,0.0,0.0,1.0,0.0,?,0.0,0.0,721.0,361.0,361.0,14.0,0.0,0.0,1.0
8500000.0,13.703125,0.0,8500000.0,89.0,77.62189961591042,76.74418604651163,74.65437788018434,1029875.0,0.0,0.0,1.0,0.0,?,0.0,0.0,737.0,369.0,369.0,14.0,0.0,0.0,?
8600000.0,13.875,0.0,8600000.0,88.3,76.41509433962264,76.41129032258065,74.56521739130434,1059875.0,0.0,0.0,1.0,0.0,?,0.0,0.0,767.0,384.0,384.0,14.0,0.0,0.0,?
8700000.0,14.0625,0.0,8700000.0,89.4,78.17672733261962,78.5425101214575,75.34883720930233,1089875.0,0.0,0.0,1.0,0.0,?,0.0,0.0,781.0,391.0,391.0,14.0,0.0,0.0,?
8800000.0,14.25,0.0,8800000.0,90.2,80.20194020985943,80.4,78.64923747276688,1119875.0,0.0,0.0,1.0,0.0,?,0.0,0.0,801.0,401.0,401.0,14.0,0.0,0.0,?
8900000.0,14.40625,0.0,8900000.0,90.60000000000001,81.07280927835052,81.74757281553399,79.56521739130436,1149875.0,0.0,0.0,1.0,0.0,?,0.0,0.0,819.0,410.0,410.0,14.0,0.0,0.0,?
9000000.0,14.59375,0.0,9000000.0,89.5,78.86864751294044,79.72972972972974,77.32181425485962,1179875.0,0.0,0.0,1.0,0.0,?,0.0,0.0,845.0,423.0,423.0,14.0,0.0,0.0,?
9100000.0,14.796875,0.0,9100000.0,88.7,77.21976276298071,77.26358148893361,75.27352297592998,1209575.0,0.0,0.0,1.0,0.0,?,0.0,0.0,867.0,434.0,434.0,14.0,0.0,0.0,?
9200000.0,14.96875,0.0,9200000.0,88.8,77.43455012149077,77.55511022044088,75.70498915401302,1239575.0,0.0,0.0,1.0,0.0,?,0.0,0.0,893.0,447.0,447.0,14.0,0.0,0.0,?
9300000.0,15.15625,0.0,9300000.0,87.8,75.32432334035848,75.88932806324111,72.46049661399549,1269575.0,0.0,0.0,1.0,0.0,?,0.0,0.0,911.0,456.0,456.0,14.0,0.0,0.0,?
9400000.0,15.359375,0.0,9400000.0,89.8,79.36893203883496,79.43548387096774,77.02702702702703,1299575.0,0.0,0.0,1.0,0.0,?,0.0,0.0,931.0,466.0,466.0,14.0,0.0,0.0,?
9500000.0,15.5625,0.0,9500000.0,90.2,80.24790889851859,80.24193548387098,78.92473118279571,1329575.0,0.0,0.0,1.0,0.0,?,0.0,0.0,945.0,473.0,473.0,14.0,0.0,0.0,?
9600000.0,15.75,0.0,9600000.0,89.3,78.50611470904913,78.34008097165992,77.66179540709813,1359575.0,0.0,0.0,1.0,0.0,?,0.0,0.0,957.0,479.0,479.0,14.0,0.0,0.0,?
9700000.0,15.953125,0.0,9700000.0,90.10000000000001,79.75393877918296,80.8880308880309,77.08333333333334,1389575.0,0.0,0.0,1.0,0.0,?,0.0,0.0,985.0,493.0,493.0,15.0,0.0,0.0,?
9800000.0,16.140625,0.0,9800000.0,91.4,82.69478428847393,83.0708661417323,81.38528138528139,1419575.0,0.0,0.0,1.0,0.0,?,0.0,0.0,999.0,500.0,500.0,15.0,0.0,0.0,?
9900000.0,16.328125,0.0,9900000.0,90.9,81.74787192220984,82.79773156899812,81.00208768267224,1449575.0,0.0,0.0,1.0,0.0,?,0.0,0.0,1011.0,506.0,506.0,15.0,0.0,0.0,?
1.0E7,16.53125,0.0,1.0E7,90.3,80.42334022216482,80.12295081967213,78.53982300884957,1479575.0,0.0,0.0,1.0,0.0,?,0.0,0.0,1037.0,519.0,519.0,15.0,0.0,0.0,?
