learning evaluation instances,evaluation time (cpu seconds),model cost (RAM-Hours),classified instances,classifications correct (percent),Kappa Statistic (percent),Kappa Temporal Statistic (percent),Kappa M Statistic (percent),model training instances,model serialized size (bytes),labeling cost,newThreshold,maxPosterior,accuracyBaseLearner (percent),Change detected,Warning detected
100000.0,0.109375,6.263467690183057E-10,100000.0,57.599999999999994,15.575183882824708,14.343434343434334,13.292433537832299,9987.0,5144.0,9987.0,1.0,0.0,0.0,0.0,12.0
200000.0,0.25,1.4316497577561273E-9,200000.0,60.199999999999996,21.26763070958042,14.224137931034472,15.498938428874725,19915.0,5144.0,19915.0,1.0,0.0,0.0,0.0,0.0
300000.0,0.390625,2.236952746493949E-9,300000.0,62.1,25.32372853303489,19.87315010570824,17.96536796536796,29890.0,5144.0,29890.0,1.0,0.0,0.0,0.0,0.0
400000.0,0.515625,2.9527776253720128E-9,400000.0,64.5,29.130400063882465,27.698574338085542,28.137651821862352,39895.0,5144.0,39895.0,1.0,0.0,0.0,0.0,0.0
500000.0,0.65625,3.758080614109834E-9,500000.0,61.1,22.817460317460316,24.0234375,18.10526315789473,49881.0,5144.0,49881.0,1.0,0.0,0.0,0.0,0.0
600000.0,0.78125,4.473905492987898E-9,600000.0,63.9,28.090514322138567,32.14285714285714,24.31865828092243,59758.0,5144.0,59758.0,1.0,0.0,0.0,0.0,0.0
700000.0,0.90625,5.189730371865962E-9,700000.0,60.699999999999996,22.674327089563974,18.6335403726708,14.565217391304339,69609.0,5144.0,69609.0,1.0,0.0,0.0,0.0,0.0
800000.0,1.015625,5.816077140884267E-9,800000.0,60.5,22.767089003597675,20.2020202020202,11.235955056179762,79615.0,5144.0,79615.0,1.0,0.0,0.0,0.0,0.0
900000.0,1.140625,6.531902019762331E-9,900000.0,61.199999999999996,22.642592828888606,27.611940298507452,16.01731601731601,89617.0,5144.0,89617.0,1.0,0.0,0.0,0.0,0.0
1000000.0,1.265625,7.247726898640395E-9,1000000.0,61.199999999999996,22.62284620293554,22.709163346613543,21.138211382113816,99704.0,5144.0,99704.0,1.0,0.0,0.0,0.0,0.0
1100000.0,1.390625,7.963551777518459E-9,1100000.0,61.199999999999996,23.19630075378475,22.554890219560875,18.487394957983184,109593.0,5144.0,109593.0,1.0,0.0,0.0,0.0,0.0
1200000.0,1.515625,8.679376656396523E-9,1200000.0,61.9,24.733901747121713,25.440313111545986,18.415417558886503,119597.0,5144.0,119597.0,1.0,0.0,0.0,0.0,0.0
1300000.0,1.65625,9.484679645134345E-9,1300000.0,60.6,22.79596187609731,17.226890756302513,19.918699186991866,129466.0,5144.0,129466.0,1.0,0.0,0.0,0.0,0.0
1400000.0,1.78125,1.0200504524012409E-8,1400000.0,62.4,24.635705838728423,23.57723577235772,25.691699604743086,139708.0,5144.0,139708.0,1.0,0.0,0.0,0.0,0.0
1500000.0,1.90625,1.0916329402890473E-8,1500000.0,59.5,18.822708796010485,15.975103734439825,18.674698795180717,149600.0,5144.0,149600.0,1.0,0.0,0.0,0.0,0.0
1600000.0,2.03125,1.1632154281768536E-8,1600000.0,61.5,23.838989689579584,25.09727626459144,18.60465116279069,159502.0,5144.0,159502.0,1.0,0.0,0.0,0.0,0.0
1700000.0,2.15625,1.23479791606466E-8,1700000.0,62.6,25.599974536889686,25.940594059405942,22.727272727272727,169516.0,5144.0,169516.0,1.0,0.0,0.0,0.0,0.0
1800000.0,2.28125,1.3063804039524664E-8,1800000.0,61.8,24.472792410899636,24.65483234714004,19.238900634249468,179689.0,5144.0,179689.0,1.0,0.0,0.0,0.0,0.0
1900000.0,2.40625,1.3779628918402728E-8,1900000.0,62.3,25.013326544088976,25.494071146245062,22.587268993839835,189839.0,5144.0,189839.0,1.0,0.0,0.0,0.0,0.0
2000000.0,2.53125,1.4495453797280792E-8,2000000.0,61.5,22.749089041205842,23.913043478260867,18.60465116279069,199843.0,5144.0,199843.0,1.0,0.0,0.0,0.0,0.0
2100000.0,2.640625,1.5121800566299097E-8,2100000.0,62.4,25.041366798907518,26.129666011787823,23.732251521298174,209734.0,5144.0,209734.0,1.0,0.0,0.0,0.0,0.0
2200000.0,2.765625,1.583762544517716E-8,2200000.0,60.5,21.14509302882696,21.471172962226635,19.05737704918032,219737.0,5144.0,219737.0,1.0,0.0,0.0,0.0,0.0
2300000.0,2.890625,1.6553450324055222E-8,2300000.0,60.4,22.940407248271992,19.838056680161937,10.810810810810796,229897.0,5144.0,229897.0,1.0,0.0,0.0,0.0,0.0
2400000.0,3.015625,1.7269275202933284E-8,2400000.0,62.7,25.654558790700648,24.032586558044805,24.186991869918696,239938.0,5144.0,239938.0,1.0,0.0,0.0,0.0,0.0
2500000.0,3.15625,1.8074578191671104E-8,2500000.0,63.6,27.29161256816412,27.634194831013918,26.907630522088354,249937.0,5144.0,249937.0,1.0,0.0,0.0,0.0,0.0
2600000.0,3.28125,1.8790403070549167E-8,2600000.0,59.199999999999996,19.157654462378588,15.876288659793806,10.329670329670314,259975.0,5144.0,259975.0,1.0,0.0,0.0,0.0,0.0
2700000.0,3.40625,1.950622794942723E-8,2700000.0,59.4,19.241908277903303,15.592515592515586,16.803278688524586,269905.0,5144.0,269905.0,1.0,0.0,0.0,0.0,0.0
2800000.0,3.53125,2.022205282830529E-8,2800000.0,61.0,22.86789049613746,23.976608187134502,17.197452229299355,279788.0,5144.0,279788.0,1.0,0.0,0.0,0.0,0.0
2900000.0,3.65625,2.0937877707183353E-8,2900000.0,63.7,27.305788301638927,28.82352941176471,26.21951219512195,289861.0,5144.0,289861.0,1.0,0.0,0.0,0.0,0.0
3000000.0,3.78125,2.1653702586061415E-8,3000000.0,60.6,22.59575337513948,22.134387351778653,13.215859030836993,299719.0,5144.0,299719.0,1.0,0.0,0.0,0.0,0.0
3100000.0,3.90625,2.2369527464939478E-8,3100000.0,62.2,25.35574504050141,24.096385542168676,19.057815845824404,309746.0,5144.0,309746.0,1.0,0.0,0.0,0.0,0.0
3200000.0,4.015625,2.2995874233957782E-8,3200000.0,57.99999999999999,17.725461618927838,13.402061855670091,6.873614190687344,319838.0,5144.0,319838.0,1.0,0.0,0.0,0.0,0.0
3300000.0,4.140625,2.3711699112835844E-8,3300000.0,60.699999999999996,20.888624065962375,20.606060606060602,19.46721311475409,329832.0,5144.0,329832.0,1.0,0.0,0.0,0.0,0.0
3400000.0,4.25,2.4338045881854148E-8,3400000.0,61.8,23.924689425531824,24.95088408644401,21.88139059304703,339781.0,5144.0,339781.0,1.0,0.0,0.0,0.0,0.0
3500000.0,4.34375,2.4874914541012697E-8,3500000.0,61.5,23.40442463791182,18.60465116279069,21.267893660531694,349799.0,5144.0,349799.0,1.0,0.0,0.0,0.0,0.0
3600000.0,4.46875,2.559073941989076E-8,3600000.0,59.8,20.131604043486547,24.007561436672965,16.770186335403718,359815.0,5144.0,359815.0,1.0,0.0,0.0,0.0,0.0
3700000.0,4.59375,2.630656429876882E-8,3700000.0,58.699999999999996,18.25602292789904,14.84536082474226,11.373390557939901,369853.0,5144.0,369853.0,1.0,0.0,0.0,0.0,0.0
3800000.0,4.71875,2.7022389177646884E-8,3800000.0,60.8,22.335636847777845,19.836400817995905,16.23931623931623,379877.0,5144.0,379877.0,1.0,0.0,0.0,0.0,0.0
3900000.0,4.859375,2.7827692166384704E-8,3900000.0,65.8,31.358381502890182,32.94117647058824,33.33333333333334,389894.0,5144.0,389894.0,1.0,0.0,0.0,0.0,0.0
4000000.0,4.984375,2.8543517045262766E-8,4000000.0,62.0,24.41270662184473,23.076923076923077,22.448979591836732,399673.0,5144.0,399673.0,1.0,0.0,0.0,0.0,0.0
4100000.0,5.109375,2.925934192414083E-8,4100000.0,60.0,21.354279310277015,17.012448132780076,10.913140311803996,409664.0,5144.0,409664.0,1.0,0.0,0.0,0.0,0.0
4200000.0,5.234375,2.9975166803018894E-8,4200000.0,59.699999999999996,20.104359962569973,14.799154334038045,16.21621621621621,419746.0,5144.0,419746.0,1.0,0.0,0.0,0.0,0.0
4300000.0,5.359375,3.069099168189696E-8,4300000.0,61.7,23.741030113333174,18.336886993603404,21.35523613963039,429744.0,5144.0,429744.0,1.0,0.0,0.0,0.0,0.0
4400000.0,5.484375,3.1406816560775025E-8,4400000.0,62.3,25.03718314788156,23.52941176470588,21.784232365145225,439634.0,5144.0,439634.0,1.0,0.0,0.0,0.0,0.0
4500000.0,5.609375,3.212264143965309E-8,4500000.0,62.8,24.978522076884918,27.34375,28.32369942196532,449755.0,5144.0,449755.0,1.0,0.0,0.0,0.0,0.0
4600000.0,5.734375,3.2838466318531156E-8,4600000.0,61.199999999999996,23.140008002947614,23.015873015873016,17.622080679405514,459694.0,5144.0,459694.0,1.0,0.0,0.0,0.0,0.0
4700000.0,5.859375,3.355429119740922E-8,4700000.0,59.9,20.609780241536324,17.319587628865975,14.132762312633822,469746.0,5144.0,469746.0,1.0,0.0,0.0,0.0,0.0
4800000.0,6.0,3.4359594186147045E-8,4800000.0,59.5,20.333928697882644,19.32270916334661,10.792951541850208,479765.0,5144.0,479765.0,1.0,0.0,0.0,0.0,0.0
4900000.0,6.125,3.507541906502511E-8,4900000.0,60.9,22.653900933692032,23.483365949119374,18.029350104821795,489564.0,5144.0,489564.0,1.0,0.0,0.0,0.0,0.0
5000000.0,6.265625,3.5880722053762934E-8,5000000.0,62.2,24.01338007783603,24.550898203592812,21.739130434782606,499551.0,5144.0,499551.0,1.0,0.0,0.0,0.0,0.0
5100000.0,6.375,3.650706882278124E-8,5100000.0,54.2,5.063159945774079,2.3454157782516014,-10.89588377723969,509539.0,5144.0,509539.0,1.0,0.0,0.0,0.0,0.0
5200000.0,6.5,3.7238415744569564E-8,5200000.0,57.199999999999996,9.987591747460499,7.956989247311812,-15.363881401617263,519325.0,5144.0,519325.0,1.0,0.0,0.0,0.0,7.0
5300000.0,6.625,3.795036011272006E-8,5300000.0,61.3,0.0,12.045454545454533,0.0,2151.0,5144.0,529160.0,1.0,0.0,0.0,2.0,24.0
5400000.0,6.75,3.866230448087056E-8,5400000.0,61.8,0.0,21.23711340206185,0.0,12033.0,5144.0,539042.0,1.0,0.0,0.0,0.0,0.0
5500000.0,6.875,3.937424884902106E-8,5500000.0,61.8,0.0,20.250521920668056,0.0,22015.0,5144.0,549024.0,1.0,0.0,0.0,0.0,0.0
5600000.0,7.0,4.0086193217171556E-8,5600000.0,63.0,0.0,23.395445134575567,0.0,31837.0,5144.0,558846.0,1.0,0.0,0.0,0.0,0.0
5700000.0,7.125,4.0798137585322054E-8,5700000.0,63.7,0.0,22.10300429184549,0.0,41842.0,5144.0,568851.0,1.0,0.0,0.0,0.0,0.0
5800000.0,7.25,4.151008195347255E-8,5800000.0,60.9,0.0,15.55075593952483,0.0,51849.0,5144.0,578858.0,1.0,0.0,0.0,0.0,0.0
5900000.0,7.375,4.222202632162305E-8,5900000.0,64.1,0.0,24.737945492662476,0.0,61894.0,5144.0,588903.0,1.0,0.0,0.0,0.0,0.0
6000000.0,7.5,4.293397068977355E-8,6000000.0,61.0,0.0,17.021276595744673,0.0,72152.0,5144.0,599161.0,1.0,0.0,0.0,0.0,0.0
6100000.0,7.609375,4.355692201190523E-8,6100000.0,62.3,0.0,18.57451403887688,0.0,82127.0,5144.0,609136.0,1.0,0.0,0.0,0.0,0.0
6200000.0,7.734375,4.426886638005573E-8,6200000.0,61.199999999999996,0.0,17.44680851063829,0.0,92020.0,5144.0,619029.0,1.0,0.0,0.0,0.0,0.0
6300000.0,7.859375,4.498081074820623E-8,6300000.0,60.3,0.0,14.623655913978483,0.0,102143.0,5144.0,629152.0,1.0,0.0,0.0,0.0,0.0
6400000.0,7.96875,4.560376207033791E-8,6400000.0,57.199999999999996,0.0,11.752577319587616,0.0,112274.0,5144.0,639283.0,1.0,0.0,0.0,0.0,0.0
6500000.0,8.09375,4.631570643848841E-8,6500000.0,63.800000000000004,0.0,24.267782426778243,0.0,122117.0,5144.0,649126.0,1.0,0.0,0.0,0.0,0.0
6600000.0,8.21875,4.702765080663891E-8,6600000.0,60.099999999999994,0.0,17.731958762886592,0.0,132145.0,5144.0,659154.0,1.0,0.0,0.0,0.0,0.0
6700000.0,8.34375,4.773959517478941E-8,6700000.0,63.3,0.0,18.98454746136865,0.0,142066.0,5144.0,669075.0,1.0,0.0,0.0,0.0,0.0
6800000.0,8.46875,4.8451539542939905E-8,6800000.0,64.5,0.0,24.947145877378436,0.0,152090.0,5144.0,679099.0,1.0,0.0,0.0,0.0,0.0
6900000.0,8.59375,4.91634839110904E-8,6900000.0,61.1,0.0,18.78914405010438,0.0,162035.0,5144.0,689044.0,1.0,0.0,0.0,0.0,0.0
7000000.0,8.71875,4.98754282792409E-8,7000000.0,60.699999999999996,0.0,11.883408071748866,0.0,172226.0,5144.0,699235.0,1.0,0.0,0.0,0.0,0.0
7100000.0,8.84375,5.05873726473914E-8,7100000.0,62.0,0.0,18.629550321199137,0.0,182267.0,5144.0,709276.0,1.0,0.0,0.0,0.0,0.0
7200000.0,8.96875,5.1299317015541897E-8,7200000.0,64.0,0.0,23.56687898089172,0.0,192151.0,5144.0,719160.0,1.0,0.0,0.0,0.0,0.0
7300000.0,9.09375,5.2011261383692395E-8,7300000.0,61.9,0.0,19.78947368421052,0.0,202129.0,5144.0,729138.0,1.0,0.0,0.0,0.0,0.0
7400000.0,9.203125,5.263421270582408E-8,7400000.0,62.2,0.0,20.0845665961945,0.0,212003.0,5144.0,739012.0,1.0,0.0,0.0,0.0,0.0
7500000.0,9.328125,5.334615707397458E-8,7500000.0,63.6,0.0,20.350109409190367,0.0,222095.0,5144.0,749104.0,1.0,0.0,0.0,0.0,0.0
7600000.0,9.453125,5.4058101442125075E-8,7600000.0,62.2,0.0,16.371681415929196,0.0,232150.0,5144.0,759159.0,1.0,0.0,0.0,0.0,0.0
7700000.0,9.578125,5.477004581027557E-8,7700000.0,61.7,0.0,18.683651804670905,0.0,242203.0,5144.0,769212.0,1.0,0.0,0.0,0.0,0.0
7800000.0,9.703125,5.548199017842607E-8,7800000.0,62.4,0.0,20.338983050847453,0.0,252118.0,5144.0,779127.0,1.0,0.0,0.0,0.0,0.0
7900000.0,9.828125,5.619393454657657E-8,7900000.0,58.3,0.0,16.09657947686116,0.0,262103.0,5144.0,789112.0,1.0,0.0,0.0,0.0,0.0
8000000.0,9.9375,5.6816885868708254E-8,8000000.0,60.099999999999994,0.0,14.743589743589732,0.0,272130.0,5144.0,799139.0,1.0,0.0,0.0,0.0,0.0
8100000.0,10.0625,5.752883023685875E-8,8100000.0,63.3,0.0,22.08067940552017,0.0,282309.0,5144.0,809318.0,1.0,0.0,0.0,0.0,0.0
8200000.0,10.171875,5.815178155899044E-8,8200000.0,60.6,0.0,17.05263157894736,0.0,292268.0,5144.0,819277.0,1.0,0.0,0.0,0.0,0.0
8300000.0,10.296875,5.8863725927140935E-8,8300000.0,61.6,0.0,17.773019271948602,0.0,302360.0,5144.0,829369.0,1.0,0.0,0.0,0.0,0.0
8400000.0,10.421875,5.957567029529143E-8,8400000.0,61.199999999999996,0.0,18.65828092243186,0.0,312279.0,5144.0,839288.0,1.0,0.0,0.0,0.0,0.0
8500000.0,10.53125,6.019862161742312E-8,8500000.0,61.0,0.0,16.488222698072796,0.0,322237.0,5144.0,849246.0,1.0,0.0,0.0,0.0,0.0
8600000.0,10.65625,6.091056598557362E-8,8600000.0,62.9,0.0,19.172113289760343,0.0,332391.0,5144.0,859400.0,1.0,0.0,0.0,0.0,0.0
8700000.0,10.78125,6.162251035372413E-8,8700000.0,60.8,0.0,17.991631799163173,0.0,342556.0,5144.0,869565.0,1.0,0.0,0.0,0.0,0.0
8800000.0,10.90625,6.233445472187463E-8,8800000.0,59.199999999999996,0.0,17.90744466800804,0.0,352519.0,5144.0,879528.0,1.0,0.0,0.0,0.0,0.0
8900000.0,11.03125,6.304639909002514E-8,8900000.0,62.4,0.0,16.25835189309576,0.0,362498.0,5144.0,889507.0,1.0,0.0,0.0,0.0,0.0
9000000.0,11.140625,6.366935041215682E-8,9000000.0,60.9,0.0,17.510548523206744,0.0,372442.0,5144.0,899451.0,1.0,0.0,0.0,0.0,0.0
9100000.0,11.265625,6.438129478030732E-8,9100000.0,61.7,0.0,19.706498951781963,0.0,382465.0,5144.0,909474.0,1.0,0.0,0.0,0.0,0.0
9200000.0,11.390625,6.509323914845783E-8,9200000.0,61.199999999999996,0.0,20.49180327868852,0.0,392349.0,5144.0,919358.0,1.0,0.0,0.0,0.0,0.0
9300000.0,11.515625,6.580518351660833E-8,9300000.0,57.699999999999996,0.0,11.691022964509381,0.0,402239.0,5144.0,929248.0,1.0,0.0,0.0,0.0,0.0
9400000.0,11.640625,6.651712788475884E-8,9400000.0,61.8,0.0,18.723404255319142,0.0,412366.0,5144.0,939375.0,1.0,0.0,0.0,0.0,0.0
9500000.0,11.765625,6.722907225290934E-8,9500000.0,64.4,0.0,21.585903083700437,0.0,422326.0,5144.0,949335.0,1.0,0.0,0.0,0.0,0.0
9600000.0,11.890625,6.794101662105985E-8,9600000.0,62.9,0.0,20.556745182012843,0.0,432267.0,5144.0,959276.0,1.0,0.0,0.0,0.0,0.0
9700000.0,12.015625,6.865296098921035E-8,9700000.0,62.2,0.0,17.10526315789473,0.0,442275.0,5144.0,969284.0,1.0,0.0,0.0,0.0,0.0
9800000.0,12.140625,6.936490535736086E-8,9800000.0,62.2,0.0,21.576763485477173,0.0,452063.0,5144.0,979072.0,1.0,0.0,0.0,0.0,0.0
9900000.0,12.265625,7.007684972551136E-8,9900000.0,63.5,0.0,24.116424116424113,0.0,461873.0,5144.0,988882.0,1.0,0.0,0.0,0.0,0.0
1.0E7,12.390625,7.078879409366187E-8,1.0E7,63.0,0.0,20.60085836909871,0.0,471832.0,5144.0,998841.0,1.0,0.0,0.0,0.0,0.0
