learning evaluation instances,evaluation time (cpu seconds),model cost (RAM-Hours),classified instances,classifications correct (percent),Kappa Statistic (percent),Kappa Temporal Statistic (percent),Kappa M Statistic (percent),model training instances,model serialized size (bytes),labeling cost,newThreshold,maxPosterior,accuracyBaseLearner (percent),Change detected,Warning detected,tree size (nodes),tree size (leaves),active learning leaves,tree depth,active leaf byte size estimate,inactive leaf byte size estimate,byte size estimate overhead
100000.0,0.328125,0.0,100000.0,85.9,68.49865951742628,69.6774193548387,61.788617886178855,29700.0,0.0,0.0,1.0,0.0,?,0.0,5.0,84.0,62.0,62.0,4.0,0.0,0.0,1.0
200000.0,0.640625,0.0,200000.0,89.0,75.70596264018764,77.55102040816327,70.35040431266847,59700.0,0.0,0.0,1.0,0.0,?,0.0,0.0,172.0,124.0,124.0,4.0,0.0,0.0,1.0
300000.0,0.9375,0.0,300000.0,88.8,76.02575518871156,77.37373737373737,71.42857142857143,89700.0,0.0,0.0,1.0,0.0,?,0.0,0.0,208.0,145.0,145.0,5.0,0.0,0.0,1.0
400000.0,1.234375,0.0,400000.0,90.60000000000001,79.88848808499895,79.34065934065934,75.32808398950131,119700.0,0.0,0.0,1.0,0.0,?,0.0,0.0,251.0,168.0,168.0,5.0,0.0,0.0,1.0
500000.0,1.546875,0.0,500000.0,92.2,83.11958690599343,83.36886993603412,78.97574123989219,149700.0,0.0,0.0,1.0,0.0,?,0.0,0.0,283.0,187.0,187.0,5.0,0.0,0.0,1.0
600000.0,1.875,0.0,600000.0,92.2,83.14257062830666,83.68200836820084,79.14438502673798,179700.0,0.0,0.0,1.0,0.0,?,0.0,0.0,322.0,208.0,208.0,6.0,0.0,0.0,1.0
700000.0,2.203125,0.0,700000.0,92.0,82.33839632638644,81.73515981735162,77.77777777777779,209700.0,0.0,0.0,1.0,0.0,?,0.0,0.0,367.0,238.0,238.0,6.0,0.0,0.0,1.0
800000.0,2.5,0.0,800000.0,90.5,79.37168318379614,79.7872340425532,73.75690607734808,239700.0,0.0,0.0,1.0,0.0,?,0.0,0.0,428.0,279.0,279.0,6.0,0.0,0.0,1.0
900000.0,2.84375,0.0,900000.0,92.60000000000001,83.71650881949091,83.40807174887892,79.09604519774012,269700.0,0.0,0.0,1.0,0.0,?,0.0,0.0,459.0,296.0,296.0,6.0,0.0,0.0,1.0
1000000.0,3.140625,0.0,1000000.0,93.89999999999999,86.95655892641787,87.47433264887063,84.03141361256543,299700.0,0.0,0.0,1.0,0.0,?,0.0,0.0,485.0,312.0,312.0,6.0,0.0,0.0,1.0
1100000.0,3.46875,0.0,1100000.0,94.1,87.40822946901142,87.55274261603374,84.4736842105263,329400.0,0.0,0.0,1.0,0.0,?,0.0,0.0,535.0,346.0,346.0,7.0,0.0,0.0,1.0
1200000.0,3.78125,0.0,1200000.0,94.39999999999999,88.10575681370216,88.4297520661157,85.4922279792746,359400.0,0.0,0.0,1.0,0.0,?,0.0,0.0,580.0,376.0,376.0,7.0,0.0,0.0,1.0
1300000.0,4.09375,0.0,1300000.0,94.6,88.4438090917262,88.33693304535636,85.67639257294428,389400.0,0.0,0.0,1.0,0.0,?,0.0,0.0,625.0,406.0,406.0,7.0,0.0,0.0,1.0
1400000.0,4.40625,0.0,1400000.0,95.0,89.5026348386555,89.648033126294,87.40554156171284,419400.0,0.0,0.0,1.0,0.0,?,0.0,0.0,668.0,435.0,435.0,7.0,0.0,0.0,1.0
1500000.0,4.734375,0.0,1500000.0,93.7,86.6501665550649,86.84759916492695,83.50785340314137,449400.0,0.0,0.0,1.0,0.0,?,0.0,0.0,705.0,458.0,458.0,7.0,0.0,0.0,1.0
1600000.0,5.03125,0.0,1600000.0,93.7,86.75613632350345,86.62420382165607,84.13098236775821,479400.0,0.0,0.0,1.0,0.0,?,0.0,0.0,731.0,474.0,474.0,7.0,0.0,0.0,1.0
1700000.0,5.359375,0.0,1700000.0,95.89999999999999,91.06395592132793,91.5289256198347,88.51540616246497,509400.0,0.0,0.0,1.0,0.0,?,0.0,0.0,756.0,488.0,488.0,7.0,0.0,0.0,1.0
1800000.0,5.6875,0.0,1800000.0,95.7,90.95018815190214,90.59080962800874,89.00255754475702,539400.0,0.0,0.0,1.0,0.0,?,0.0,0.0,783.0,506.0,506.0,7.0,0.0,0.0,1.0
1900000.0,6.03125,0.0,1900000.0,95.7,90.58198925908728,90.44444444444444,88.02228412256267,569400.0,0.0,0.0,1.0,0.0,?,0.0,0.0,815.0,528.0,528.0,7.0,0.0,0.0,1.0
2000000.0,6.390625,0.0,2000000.0,96.3,92.26265161020493,92.46435845213848,90.75,599400.0,0.0,0.0,1.0,0.0,?,0.0,0.0,863.0,561.0,561.0,7.0,0.0,0.0,1.0
2100000.0,6.75,0.0,2100000.0,95.19999999999999,89.99165971643035,89.51965065502182,87.99999999999999,629100.0,0.0,0.0,1.0,0.0,?,0.0,0.0,921.0,605.0,605.0,7.0,0.0,0.0,1.0
2200000.0,7.125,0.0,2200000.0,96.5,92.64186484577348,93.0,91.16161616161615,659100.0,0.0,0.0,1.0,0.0,?,0.0,0.0,965.0,633.0,633.0,7.0,0.0,0.0,1.0
2300000.0,7.46875,0.0,2300000.0,96.2,91.5572441067342,91.2037037037037,88.9855072463768,689100.0,0.0,0.0,1.0,0.0,?,0.0,0.0,1000.0,655.0,655.0,7.0,0.0,0.0,1.0
2400000.0,7.796875,0.0,2400000.0,95.6,90.50807676377191,90.37199124726476,87.9120879120879,719100.0,0.0,0.0,1.0,0.0,?,0.0,0.0,1033.0,673.0,673.0,8.0,0.0,0.0,1.0
2500000.0,8.15625,0.0,2500000.0,95.8,90.96043252178104,90.94827586206897,88.52459016393442,749100.0,0.0,0.0,1.0,0.0,?,0.0,0.0,1066.0,694.0,694.0,8.0,0.0,0.0,1.0
2600000.0,8.515625,0.0,2600000.0,96.39999999999999,92.26059438635113,92.62295081967213,90.21739130434781,779100.0,0.0,0.0,1.0,0.0,?,0.0,0.0,1083.0,704.0,704.0,8.0,0.0,0.0,1.0
2700000.0,8.890625,0.0,2700000.0,97.2,93.93098664817062,93.89978213507625,92.26519337016575,809100.0,0.0,0.0,1.0,0.0,?,0.0,0.0,1102.0,715.0,715.0,8.0,0.0,0.0,1.0
2800000.0,9.28125,0.0,2800000.0,96.8,93.18243796018542,93.08855291576673,91.66666666666666,839100.0,0.0,0.0,1.0,0.0,?,0.0,0.0,1123.0,727.0,727.0,8.0,0.0,0.0,1.0
2900000.0,9.65625,0.0,2900000.0,96.8,93.18777887530229,93.24894514767932,91.53439153439152,869100.0,0.0,0.0,1.0,0.0,?,0.0,0.0,1159.0,751.0,751.0,8.0,0.0,0.0,1.0
3000000.0,10.0625,0.0,3000000.0,96.1,91.68450588907557,91.59482758620689,89.6551724137931,899100.0,0.0,0.0,1.0,0.0,?,0.0,0.0,1200.0,776.0,776.0,8.0,0.0,0.0,1.0
3100000.0,10.453125,0.0,3100000.0,96.3,91.89463907046844,91.81415929203538,89.5184135977337,928800.0,0.0,0.0,1.0,0.0,?,0.0,0.0,1216.0,787.0,787.0,8.0,0.0,0.0,1.0
3200000.0,10.859375,0.0,3200000.0,96.2,91.82218855450725,91.5929203539823,89.78494623655912,958800.0,0.0,0.0,1.0,0.0,?,0.0,0.0,1254.0,812.0,812.0,8.0,0.0,0.0,1.0
3300000.0,11.21875,0.0,3300000.0,97.1,93.75532950326875,93.88185654008439,92.18328840970351,988800.0,0.0,0.0,1.0,0.0,?,0.0,0.0,1279.0,829.0,829.0,8.0,0.0,0.0,1.0
3400000.0,11.640625,0.0,3400000.0,96.6,92.59475447255049,92.84210526315789,90.58171745152353,1018800.0,0.0,0.0,1.0,0.0,?,0.0,0.0,1335.0,866.0,866.0,8.0,0.0,0.0,?
3500000.0,12.046875,0.0,3500000.0,96.8,93.18777887530229,92.85714285714285,91.53439153439152,1048800.0,0.0,0.0,1.0,0.0,?,0.0,0.0,1367.0,888.0,888.0,8.0,0.0,0.0,?
3600000.0,12.421875,0.0,3600000.0,97.7,94.99952169337936,95.11677282377919,93.57541899441341,1078800.0,0.0,0.0,1.0,0.0,?,0.0,0.0,1407.0,917.0,917.0,8.0,0.0,0.0,?
3700000.0,12.84375,0.0,3700000.0,96.7,92.86023366508005,92.66666666666666,90.83333333333331,1108800.0,0.0,0.0,1.0,0.0,?,0.0,0.0,1429.0,931.0,931.0,8.0,0.0,0.0,?
3800000.0,13.25,0.0,3800000.0,96.6,92.79895966146637,92.81183932346723,91.12271540469973,1138800.0,0.0,0.0,1.0,0.0,?,0.0,0.0,1471.0,958.0,958.0,8.0,0.0,0.0,?
3900000.0,13.671875,0.0,3900000.0,96.1,91.76833129300519,91.66666666666666,89.87012987012987,1168800.0,0.0,0.0,1.0,0.0,?,0.0,0.0,1509.0,983.0,983.0,8.0,0.0,0.0,?
4000000.0,14.09375,0.0,4000000.0,96.3,92.15270413573701,91.95652173913042,90.41450777202071,1198800.0,0.0,0.0,1.0,0.0,?,0.0,0.0,1542.0,1004.0,1004.0,8.0,0.0,0.0,?
4100000.0,14.5,0.0,4100000.0,97.0,93.60068259385666,93.52051835853132,92.10526315789474,1228500.0,0.0,0.0,1.0,0.0,?,0.0,0.0,1555.0,1012.0,1012.0,8.0,0.0,0.0,?
4200000.0,14.96875,0.0,4200000.0,96.8,93.01233759144012,93.23467230443974,90.98591549295773,1258500.0,0.0,0.0,1.0,0.0,?,0.0,0.0,1603.0,1045.0,1045.0,8.0,0.0,0.0,?
4300000.0,15.375,0.0,4300000.0,97.7,95.1817930433471,95.23809523809523,94.22110552763819,1288500.0,0.0,0.0,1.0,0.0,?,0.0,0.0,1616.0,1053.0,1053.0,8.0,0.0,0.0,?
4400000.0,15.78125,0.0,4400000.0,97.1,93.62233677580534,94.02061855670102,91.76136363636363,1318500.0,0.0,0.0,1.0,0.0,?,0.0,0.0,1638.0,1067.0,1067.0,8.0,0.0,0.0,?
4500000.0,16.203125,0.0,4500000.0,97.7,95.1062996816967,95.18828451882845,93.88297872340425,1348500.0,0.0,0.0,1.0,0.0,?,0.0,0.0,1651.0,1075.0,1075.0,8.0,0.0,0.0,?
4600000.0,16.578125,0.0,4600000.0,97.5,94.65231490592352,94.6351931330472,93.31550802139037,1378500.0,0.0,0.0,1.0,0.0,?,0.0,0.0,1677.0,1094.0,1094.0,8.0,0.0,0.0,?
4700000.0,17.03125,0.0,4700000.0,96.7,92.80763698182292,92.51700680272108,90.78212290502793,1408500.0,0.0,0.0,1.0,0.0,?,0.0,0.0,1701.0,1109.0,1109.0,8.0,0.0,0.0,?
4800000.0,17.453125,0.0,4800000.0,97.6,94.88545551411826,95.01039501039502,93.63395225464191,1438500.0,0.0,0.0,1.0,0.0,?,0.0,0.0,1730.0,1128.0,1128.0,8.0,0.0,0.0,?
4900000.0,17.875,0.0,4900000.0,96.89999999999999,93.29277263797415,93.30453563714902,91.43646408839778,1468500.0,0.0,0.0,1.0,0.0,?,0.0,0.0,1751.0,1143.0,1143.0,8.0,0.0,0.0,?
5000000.0,18.3125,0.0,5000000.0,98.6,96.93902092397839,97.02127659574468,96.05633802816901,1498500.0,0.0,0.0,1.0,0.0,?,0.0,0.0,1774.0,1159.0,1159.0,8.0,0.0,0.0,?
5100000.0,18.84375,0.0,5100000.0,89.3,78.3812179254051,78.34008097165992,76.43171806167402,28970.0,0.0,0.0,1.0,0.0,?,1.0,9.0,79.0,58.0,58.0,4.0,0.0,0.0,1.0
5200000.0,19.171875,0.0,5200000.0,94.5,88.96211798893803,88.79837067209775,88.49372384937237,58970.0,0.0,0.0,1.0,0.0,?,0.0,0.0,161.0,117.0,117.0,5.0,0.0,0.0,1.0
5300000.0,19.5,0.0,5300000.0,95.3,90.53503246282482,90.48582995951416,89.69298245614034,88970.0,0.0,0.0,1.0,0.0,?,0.0,0.0,243.0,170.0,170.0,5.0,0.0,0.0,1.0
5400000.0,19.78125,0.0,5400000.0,96.0,91.92245557350564,91.8200408997955,91.1111111111111,118970.0,0.0,0.0,1.0,0.0,?,0.0,0.0,274.0,187.0,187.0,7.0,0.0,0.0,1.0
5500000.0,20.078125,0.0,5500000.0,97.1,94.16198283220331,94.08163265306122,93.64035087719299,148970.0,0.0,0.0,1.0,0.0,?,0.0,0.0,294.0,197.0,197.0,7.0,0.0,0.0,1.0
5600000.0,20.359375,0.0,5600000.0,97.2,94.37570303712035,94.12997903563941,93.9655172413793,178970.0,0.0,0.0,1.0,0.0,?,0.0,0.0,327.0,215.0,215.0,7.0,0.0,0.0,1.0
5700000.0,20.609375,0.0,5700000.0,96.8,93.50973337173407,93.34719334719334,92.7765237020316,208970.0,0.0,0.0,1.0,0.0,?,0.0,0.0,347.0,228.0,228.0,7.0,0.0,0.0,1.0
5800000.0,20.921875,0.0,5800000.0,96.3,92.52977993135472,92.40246406570841,91.77777777777777,238970.0,0.0,0.0,1.0,0.0,?,0.0,0.0,379.0,244.0,244.0,7.0,0.0,0.0,1.0
5900000.0,21.1875,0.0,5900000.0,97.1,94.17881087157252,94.31372549019608,93.88185654008439,268970.0,0.0,0.0,1.0,0.0,?,0.0,0.0,424.0,271.0,271.0,8.0,0.0,0.0,1.0
6000000.0,21.46875,0.0,6000000.0,97.39999999999999,94.76323793027049,94.6611909650924,94.36008676789587,298970.0,0.0,0.0,1.0,0.0,?,0.0,0.0,456.0,290.0,290.0,8.0,0.0,0.0,1.0
6100000.0,21.75,0.0,6100000.0,97.89999999999999,95.75496870805505,95.8,95.3125,328670.0,0.0,0.0,1.0,0.0,?,0.0,0.0,478.0,304.0,304.0,8.0,0.0,0.0,1.0
6200000.0,22.0625,0.0,6200000.0,97.39999999999999,94.75755718295319,94.45628997867803,94.29824561403508,358670.0,0.0,0.0,1.0,0.0,?,0.0,0.0,500.0,318.0,318.0,8.0,0.0,0.0,1.0
6300000.0,22.34375,0.0,6300000.0,97.39999999999999,94.79248034161328,94.62809917355372,94.5945945945946,388670.0,0.0,0.0,1.0,0.0,?,0.0,0.0,517.0,328.0,328.0,8.0,0.0,0.0,1.0
6400000.0,22.578125,0.0,6400000.0,98.3,96.5959968923454,96.64694280078895,96.4509394572025,418670.0,0.0,0.0,1.0,0.0,?,0.0,0.0,528.0,335.0,335.0,8.0,0.0,0.0,1.0
6500000.0,22.875,0.0,6500000.0,98.1,96.18792334114474,96.22266401590457,95.93147751605994,448670.0,0.0,0.0,1.0,0.0,?,0.0,0.0,538.0,340.0,340.0,8.0,0.0,0.0,1.0
6600000.0,23.15625,0.0,6600000.0,97.39999999999999,94.72404738617132,94.8,94.10430839002267,478670.0,0.0,0.0,1.0,0.0,?,0.0,0.0,542.0,342.0,342.0,8.0,0.0,0.0,1.0
6700000.0,23.484375,0.0,6700000.0,98.4,96.79197994987469,96.74134419551935,96.63157894736841,508670.0,0.0,0.0,1.0,0.0,?,0.0,0.0,548.0,345.0,345.0,8.0,0.0,0.0,1.0
6800000.0,23.765625,0.0,6800000.0,97.89999999999999,95.78435151281556,95.83333333333333,95.51282051282051,538670.0,0.0,0.0,1.0,0.0,?,0.0,0.0,554.0,348.0,348.0,8.0,0.0,0.0,1.0
6900000.0,24.0,0.0,6900000.0,97.8,95.57833383579539,95.61752988047807,95.26881720430107,568670.0,0.0,0.0,1.0,0.0,?,0.0,0.0,558.0,350.0,350.0,8.0,0.0,0.0,1.0
7000000.0,24.28125,0.0,7000000.0,97.7,95.39248052822205,95.26748971193415,95.23809523809523,598670.0,0.0,0.0,1.0,0.0,?,0.0,0.0,564.0,353.0,353.0,8.0,0.0,0.0,1.0
7100000.0,24.578125,0.0,7100000.0,97.89999999999999,95.7649336506272,95.80838323353294,95.37444933920705,628370.0,0.0,0.0,1.0,0.0,?,0.0,0.0,566.0,354.0,354.0,8.0,0.0,0.0,1.0
7200000.0,24.828125,0.0,7200000.0,98.1,96.17105316190398,96.23762376237623,95.85152838427948,658370.0,0.0,0.0,1.0,0.0,?,0.0,0.0,572.0,357.0,357.0,9.0,0.0,0.0,1.0
7300000.0,25.125,0.0,7300000.0,97.89999999999999,95.77658538939883,95.53191489361701,95.41484716157204,688370.0,0.0,0.0,1.0,0.0,?,0.0,0.0,578.0,360.0,360.0,9.0,0.0,0.0,1.0
7400000.0,25.40625,0.0,7400000.0,97.39999999999999,94.72665836453393,94.6611909650924,94.13092550790067,718370.0,0.0,0.0,1.0,0.0,?,0.0,0.0,583.0,364.0,364.0,9.0,0.0,0.0,1.0
7500000.0,25.65625,0.0,7500000.0,98.6,97.16939550419131,97.20558882235528,96.88195991091314,748370.0,0.0,0.0,1.0,0.0,?,0.0,0.0,589.0,367.0,367.0,9.0,0.0,0.0,1.0
7600000.0,25.921875,0.0,7600000.0,98.2,96.38555668451131,96.49122807017544,96.19450317124736,778370.0,0.0,0.0,1.0,0.0,?,0.0,0.0,591.0,368.0,368.0,9.0,0.0,0.0,1.0
7700000.0,26.1875,0.0,7700000.0,98.2,96.38263665594855,96.43564356435644,96.17021276595744,808370.0,0.0,0.0,1.0,0.0,?,0.0,0.0,593.0,369.0,369.0,9.0,0.0,0.0,1.0
7800000.0,26.46875,0.0,7800000.0,98.4,96.79203140601254,96.73469387755101,96.64570230607966,838370.0,0.0,0.0,1.0,0.0,?,0.0,0.0,603.0,374.0,374.0,9.0,0.0,0.0,1.0
7900000.0,26.71875,0.0,7900000.0,97.8,95.57947106361945,95.44513457556936,95.34883720930232,868370.0,0.0,0.0,1.0,0.0,?,0.0,0.0,608.0,378.0,378.0,9.0,0.0,0.0,1.0
8000000.0,27.015625,0.0,8000000.0,97.5,94.94908679489251,94.8559670781893,94.5054945054945,898370.0,0.0,0.0,1.0,0.0,?,0.0,0.0,614.0,381.0,381.0,10.0,0.0,0.0,1.0
8100000.0,27.28125,0.0,8100000.0,98.5,96.97853551630786,96.93251533742331,96.76025917926565,928070.0,0.0,0.0,1.0,0.0,?,0.0,0.0,621.0,386.0,386.0,10.0,0.0,0.0,1.0
8200000.0,27.53125,0.0,8200000.0,98.4,96.78994611122033,96.92307692307692,96.61733615221986,958070.0,0.0,0.0,1.0,0.0,?,0.0,0.0,625.0,388.0,388.0,10.0,0.0,0.0,1.0
8300000.0,27.78125,0.0,8300000.0,96.89999999999999,93.79836276777068,93.83697813121272,93.74999999999999,988070.0,0.0,0.0,1.0,0.0,?,0.0,0.0,640.0,397.0,397.0,10.0,0.0,0.0,1.0
8400000.0,28.078125,0.0,8400000.0,97.39999999999999,94.74800525199474,94.6938775510204,94.28571428571428,1018070.0,0.0,0.0,1.0,0.0,?,0.0,0.0,654.0,407.0,407.0,10.0,0.0,0.0,?
8500000.0,28.375,0.0,8500000.0,98.4,96.7726970167618,96.7871485943775,96.54427645788337,1048070.0,0.0,0.0,1.0,0.0,?,0.0,0.0,660.0,410.0,410.0,10.0,0.0,0.0,?
8600000.0,28.671875,0.0,8600000.0,98.9,97.77998433879861,97.86407766990291,97.5770925110132,1078070.0,0.0,0.0,1.0,0.0,?,0.0,0.0,664.0,412.0,412.0,10.0,0.0,0.0,?
8700000.0,28.921875,0.0,8700000.0,98.7,97.37439510102519,97.48062015503875,97.13656387665198,1108070.0,0.0,0.0,1.0,0.0,?,0.0,0.0,664.0,412.0,412.0,10.0,0.0,0.0,?
8800000.0,29.1875,0.0,8800000.0,98.1,96.1668509268151,95.97457627118644,95.81497797356829,1138070.0,0.0,0.0,1.0,0.0,?,0.0,0.0,674.0,420.0,420.0,10.0,0.0,0.0,?
8900000.0,29.46875,0.0,8900000.0,98.2,96.3621518276145,96.37096774193547,95.99109131403118,1168070.0,0.0,0.0,1.0,0.0,?,0.0,0.0,676.0,421.0,421.0,10.0,0.0,0.0,?
9000000.0,29.765625,0.0,9000000.0,98.1,96.14726374615739,96.23015873015872,95.70135746606334,1198070.0,0.0,0.0,1.0,0.0,?,0.0,0.0,678.0,422.0,422.0,10.0,0.0,0.0,?
9100000.0,30.0625,0.0,9100000.0,98.8,97.59778034904252,97.67891682785299,97.54601226993866,1227770.0,0.0,0.0,1.0,0.0,?,0.0,0.0,684.0,425.0,425.0,11.0,0.0,0.0,?
9200000.0,30.328125,0.0,9200000.0,97.7,95.36984845312676,95.33468559837728,95.03239740820733,1257770.0,0.0,0.0,1.0,0.0,?,0.0,0.0,684.0,425.0,425.0,11.0,0.0,0.0,?
9300000.0,30.609375,0.0,9300000.0,97.89999999999999,95.77495392687854,95.82504970178925,95.44468546637744,1287770.0,0.0,0.0,1.0,0.0,?,0.0,0.0,686.0,426.0,426.0,11.0,0.0,0.0,?
9400000.0,30.875,0.0,9400000.0,97.8,95.57028547496607,95.49180327868852,95.18599562363238,1317770.0,0.0,0.0,1.0,0.0,?,0.0,0.0,688.0,427.0,427.0,11.0,0.0,0.0,?
9500000.0,31.140625,0.0,9500000.0,98.9,97.74885396201702,97.81746031746032,97.43589743589743,1347770.0,0.0,0.0,1.0,0.0,?,0.0,0.0,690.0,428.0,428.0,11.0,0.0,0.0,?
9600000.0,31.421875,0.0,9600000.0,98.0,95.98855937132701,96.11650485436894,95.80712788259957,1377770.0,0.0,0.0,1.0,0.0,?,0.0,0.0,694.0,430.0,430.0,11.0,0.0,0.0,?
9700000.0,31.6875,0.0,9700000.0,98.5,96.9895477096479,96.92622950819671,96.81528662420382,1407770.0,0.0,0.0,1.0,0.0,?,0.0,0.0,696.0,431.0,431.0,11.0,0.0,0.0,?
9800000.0,31.96875,0.0,9800000.0,98.7,97.39232299890878,97.38955823293173,97.27463312368972,1437770.0,0.0,0.0,1.0,0.0,?,0.0,0.0,698.0,432.0,432.0,11.0,0.0,0.0,?
9900000.0,32.265625,0.0,9900000.0,98.1,96.18388071212803,96.2,95.94017094017093,1467770.0,0.0,0.0,1.0,0.0,?,0.0,0.0,700.0,433.0,433.0,11.0,0.0,0.0,?
1.0E7,32.515625,0.0,1.0E7,98.8,97.57476788507633,97.63779527559055,97.32739420935411,1497770.0,0.0,0.0,1.0,0.0,?,0.0,0.0,704.0,435.0,435.0,11.0,0.0,0.0,?
