learning evaluation instances,evaluation time (cpu seconds),model cost (RAM-Hours),classified instances,classifications correct (percent),Kappa Statistic (percent),Kappa Temporal Statistic (percent),Kappa M Statistic (percent),model training instances,model serialized size (bytes),labeling cost,newThreshold,maxPosterior,accuracyBaseLearner (percent),Change detected,Warning detected,tree size (nodes),tree size (leaves),active learning leaves,tree depth,active leaf byte size estimate,inactive leaf byte size estimate,byte size estimate overhead
100000.0,0.4375,1.1380632511443562E-8,100000.0,75.4,41.53909038626977,47.77070063694268,33.692722371967655,9800.0,46032.0,0.0,1.0,0.0,?,0.0,18.0,17.0,12.0,12.0,3.0,0.0,0.0,1.0
200000.0,0.84375,1.7389668048255972E-8,200000.0,69.3,30.531670317336747,36.96098562628335,19.42257217847768,3055.0,4488.0,0.0,1.0,0.0,?,3.0,26.0,1.0,1.0,1.0,0.0,0.0,0.0,1.0
300000.0,1.21875,2.6917097986572318E-8,300000.0,76.1,47.27134738254086,46.888888888888886,35.924932975871315,12860.0,46448.0,0.0,1.0,0.0,?,0.0,2.0,17.0,12.0,12.0,2.0,0.0,0.0,1.0
400000.0,1.640625,4.019892205380731E-8,400000.0,75.1,45.143068639459976,44.66666666666666,31.215469613259668,22665.0,72144.0,0.0,1.0,0.0,?,0.0,3.0,29.0,18.0,18.0,5.0,0.0,0.0,1.0
500000.0,2.03125,5.52164985694819E-8,500000.0,74.5,43.30561607897194,46.764091858037574,30.136986301369863,32465.0,92856.0,0.0,1.0,0.0,?,0.0,0.0,39.0,23.0,23.0,7.0,0.0,0.0,1.0
600000.0,2.390625,7.08452231871585E-8,600000.0,74.3,45.612149018479165,48.49699398797595,34.271099744245525,42270.0,113904.0,0.0,1.0,0.0,?,0.0,0.0,49.0,28.0,28.0,9.0,0.0,0.0,1.0
700000.0,2.796875,9.004016950105627E-8,700000.0,77.8,52.22662655424861,50.33557046979866,40.48257372654156,52075.0,130016.0,0.0,1.0,0.0,?,0.0,0.0,57.0,32.0,32.0,11.0,0.0,0.0,1.0
800000.0,3.203125,1.1613201220623321E-7,800000.0,75.5,47.65046751337584,48.529411764705884,33.9622641509434,61880.0,197128.0,0.0,1.0,0.0,?,0.0,0.0,79.0,49.0,49.0,12.0,0.0,0.0,1.0
900000.0,3.640625,1.527946895091898E-7,900000.0,79.3,55.45359857451516,56.512605042016816,47.058823529411775,71685.0,274192.0,0.0,1.0,0.0,?,0.0,0.0,108.0,68.0,68.0,13.0,0.0,0.0,1.0
1000000.0,4.046875,1.9215820227853126E-7,1000000.0,80.60000000000001,58.22854583663486,59.15789473684211,49.74093264248706,81485.0,318576.0,0.0,1.0,0.0,?,0.0,0.0,124.0,79.0,79.0,13.0,0.0,0.0,1.0
1100000.0,4.484375,2.392888159698082E-7,1100000.0,78.5,54.01699018743958,55.670103092783506,45.979899497487445,91290.0,361944.0,0.0,1.0,0.0,?,0.0,0.0,146.0,93.0,93.0,13.0,0.0,0.0,1.0
1200000.0,4.90625,2.888572958504988E-7,1200000.0,77.7,51.99180200816356,50.989010989010985,41.92708333333334,101095.0,401256.0,0.0,1.0,0.0,?,0.0,0.0,158.0,102.0,102.0,13.0,0.0,0.0,1.0
1300000.0,5.328125,3.403099577149583E-7,1300000.0,80.9,57.364168043216225,58.11403508771931,44.95677233429396,110900.0,420144.0,0.0,1.0,0.0,?,0.0,0.0,165.0,107.0,107.0,13.0,0.0,0.0,1.0
1400000.0,5.78125,3.971878646148575E-7,1400000.0,82.3,61.53311194951057,61.85344827586206,51.90217391304347,120700.0,427784.0,0.0,1.0,0.0,?,0.0,0.0,169.0,109.0,109.0,13.0,0.0,0.0,1.0
1500000.0,6.203125,4.515043433962596E-7,1500000.0,80.7,59.23384984538435,60.04140786749483,50.765306122449,130505.0,441856.0,0.0,1.0,0.0,?,0.0,0.0,175.0,112.0,112.0,13.0,0.0,0.0,1.0
1600000.0,6.640625,5.099811824038624E-7,1600000.0,80.9,58.88051668460712,58.478260869565226,49.06666666666668,140310.0,462448.0,0.0,1.0,0.0,?,0.0,0.0,182.0,117.0,117.0,13.0,0.0,0.0,1.0
1700000.0,7.0625,5.691661499440668E-7,1700000.0,81.8,60.97452193789372,59.64523281596451,51.978891820580465,150115.0,489632.0,0.0,1.0,0.0,?,0.0,0.0,193.0,124.0,124.0,13.0,0.0,0.0,1.0
1800000.0,7.5,6.359287848075229E-7,1800000.0,82.19999999999999,60.68991409200325,60.53215077605321,50.14005602240895,159920.0,538752.0,0.0,1.0,0.0,?,0.0,0.0,212.0,138.0,138.0,13.0,0.0,0.0,1.0
1900000.0,7.9375,7.064952256364954E-7,1900000.0,80.9,58.90493485033651,58.83620689655174,49.86876640419949,169720.0,566168.0,0.0,1.0,0.0,?,0.0,0.0,223.0,145.0,145.0,13.0,0.0,0.0,1.0
2000000.0,8.375,7.774745528068806E-7,2000000.0,82.1,61.9560135003018,62.785862785862776,55.137844611528806,179525.0,571464.0,0.0,1.0,0.0,?,0.0,0.0,225.0,146.0,146.0,13.0,0.0,0.0,1.0
2100000.0,8.8125,8.513920733498201E-7,2100000.0,82.1,60.1368264459865,58.85057471264368,50.68870523415977,189330.0,598992.0,0.0,1.0,0.0,?,0.0,0.0,234.0,152.0,152.0,14.0,0.0,0.0,1.0
2200000.0,9.25,9.25773185574346E-7,2200000.0,79.9,54.78228005291149,57.50528541226216,43.69747899159665,199135.0,604736.0,0.0,1.0,0.0,?,0.0,0.0,236.0,153.0,153.0,14.0,0.0,0.0,1.0
2300000.0,9.703125,1.0060386395909718E-6,2300000.0,82.8,62.7184331337758,63.090128755364795,55.55555555555555,208940.0,633824.0,0.0,1.0,0.0,?,0.0,0.0,249.0,161.0,161.0,14.0,0.0,0.0,1.0
2400000.0,10.140625,1.0851498356916835E-6,2400000.0,81.2,58.833499021200765,59.04139433551199,50.395778364116104,218740.0,641960.0,0.0,1.0,0.0,?,0.0,0.0,251.0,162.0,162.0,14.0,0.0,0.0,1.0
2500000.0,10.5625,1.1612688669831386E-6,2500000.0,80.80000000000001,59.190613841183485,60.73619631901841,53.17073170731709,228545.0,642104.0,0.0,1.0,0.0,?,0.0,0.0,251.0,162.0,162.0,14.0,0.0,0.0,1.0
2600000.0,11.015625,1.2429091212753617E-6,2600000.0,79.4,54.23849298027369,54.01785714285715,42.777777777777786,238350.0,642776.0,0.0,1.0,0.0,?,0.0,0.0,251.0,162.0,162.0,14.0,0.0,0.0,1.0
2700000.0,11.4375,1.3193276309822165E-6,2700000.0,83.0,62.787846948603445,63.67521367521366,54.05405405405405,248155.0,648152.0,0.0,1.0,0.0,?,0.0,0.0,257.0,165.0,165.0,14.0,0.0,0.0,1.0
2800000.0,11.890625,1.4030338368482057E-6,2800000.0,82.69999999999999,61.92882230222793,61.894273127753294,53.11653116531164,257955.0,655920.0,0.0,1.0,0.0,?,0.0,0.0,257.0,165.0,165.0,14.0,0.0,0.0,1.0
2900000.0,12.34375,1.4884402561518878E-6,2900000.0,80.7,57.838168472562046,57.395143487858725,48.118279569892486,267760.0,672040.0,0.0,1.0,0.0,?,0.0,0.0,266.0,171.0,171.0,14.0,0.0,0.0,1.0
3000000.0,12.78125,1.5716821265717344E-6,3000000.0,81.2,58.3252052705315,60.914760914760926,49.73262032085563,277565.0,680568.0,0.0,1.0,0.0,?,0.0,0.0,268.0,172.0,172.0,14.0,0.0,0.0,1.0
3100000.0,13.234375,1.6585833832828532E-6,3100000.0,79.9,54.417634252539926,57.684210526315795,43.53932584269664,287370.0,688048.0,0.0,1.0,0.0,?,0.0,0.0,272.0,174.0,174.0,14.0,0.0,0.0,1.0
3200000.0,13.6875,1.7471088924341728E-6,3200000.0,78.60000000000001,54.7696846982039,52.338530066815146,46.36591478696743,297175.0,703512.0,0.0,1.0,0.0,?,0.0,0.0,283.0,181.0,181.0,14.0,0.0,0.0,1.0
3300000.0,14.140625,1.8382602138444777E-6,3300000.0,81.2,58.73863117603682,60.83333333333334,50.78534031413614,306975.0,719760.0,0.0,1.0,0.0,?,0.0,0.0,285.0,182.0,182.0,14.0,0.0,0.0,1.0
3400000.0,14.578125,1.926614269096818E-6,3400000.0,81.6,58.07987606224226,59.999999999999986,46.66666666666664,316780.0,724472.0,0.0,1.0,0.0,?,0.0,0.0,285.0,182.0,182.0,14.0,0.0,0.0,1.0
3500000.0,15.046875,2.0236852449468435E-6,3500000.0,81.10000000000001,57.61191351933257,57.528089887640455,48.6413043478261,326585.0,745896.0,0.0,1.0,0.0,?,0.0,0.0,298.0,190.0,190.0,14.0,0.0,0.0,1.0
3600000.0,15.46875,2.1121693296461463E-6,3600000.0,82.69999999999999,62.10096478237628,65.12096774193547,54.830287206266306,336390.0,757784.0,0.0,1.0,0.0,?,0.0,0.0,298.0,190.0,190.0,14.0,0.0,0.0,1.0
3700000.0,15.9375,2.212535829231556E-6,3700000.0,82.19999999999999,61.698684844729044,61.96581196581196,53.64583333333333,346195.0,776288.0,0.0,1.0,0.0,?,0.0,0.0,309.0,197.0,197.0,14.0,0.0,0.0,1.0
3800000.0,16.390625,2.310789035012324E-6,3800000.0,81.6,59.580871207960804,61.98347107438016,51.45118733509233,355995.0,780720.0,0.0,1.0,0.0,?,0.0,0.0,316.0,202.0,202.0,14.0,0.0,0.0,1.0
3900000.0,16.859375,2.412760125783582E-6,3900000.0,81.89999999999999,61.34527002784848,62.05450733752619,53.82653061224488,365800.0,785088.0,0.0,1.0,0.0,?,0.0,0.0,318.0,203.0,203.0,14.0,0.0,0.0,1.0
4000000.0,17.3125,2.511666033468726E-6,4000000.0,81.89999999999999,60.26344676180021,62.13389121338911,51.73333333333332,375605.0,789584.0,0.0,1.0,0.0,?,0.0,0.0,320.0,204.0,204.0,14.0,0.0,0.0,1.0
4100000.0,17.765625,2.612693222343093E-6,4100000.0,82.0,59.98488317808949,62.809917355371894,49.295774647887306,385410.0,809288.0,0.0,1.0,0.0,?,0.0,0.0,327.0,209.0,209.0,14.0,0.0,0.0,1.0
4200000.0,18.234375,2.720101878771351E-6,4200000.0,81.89999999999999,60.36056555179844,61.489361702127646,52.86458333333333,395210.0,827064.0,0.0,1.0,0.0,?,0.0,0.0,332.0,213.0,213.0,14.0,0.0,0.0,1.0
4300000.0,18.703125,2.829394523157841E-6,4300000.0,83.0,63.87544252582905,65.58704453441294,58.837772397094426,405015.0,844232.0,0.0,1.0,0.0,?,0.0,0.0,337.0,217.0,217.0,14.0,0.0,0.0,1.0
4400000.0,19.140625,2.9324748579205732E-6,4400000.0,82.39999999999999,62.42351263295883,65.00994035785287,56.327543424317604,414820.0,855368.0,0.0,1.0,0.0,?,0.0,0.0,342.0,221.0,221.0,14.0,0.0,0.0,1.0
4500000.0,19.59375,3.0401641076120233E-6,4500000.0,82.19999999999999,61.6564417177914,63.74745417515274,55.05050505050504,424625.0,864912.0,0.0,1.0,0.0,?,0.0,0.0,344.0,222.0,222.0,14.0,0.0,0.0,1.0
4600000.0,20.0625,3.151938338608791E-6,4600000.0,83.8,65.11507717750827,66.59793814432989,58.88324873096447,434430.0,869616.0,0.0,1.0,0.0,?,0.0,0.0,348.0,224.0,224.0,14.0,0.0,0.0,1.0
4700000.0,20.515625,3.261665406171232E-6,4700000.0,84.1,64.80276265108247,66.45569620253163,57.37265415549597,444230.0,877808.0,0.0,1.0,0.0,?,0.0,0.0,352.0,226.0,226.0,14.0,0.0,0.0,1.0
4800000.0,20.984375,3.3750451984815295E-6,4800000.0,82.1,61.58633417743249,62.47379454926624,54.68354430379746,454035.0,878400.0,0.0,1.0,0.0,?,0.0,0.0,352.0,226.0,226.0,14.0,0.0,0.0,1.0
4900000.0,21.46875,3.494263380869395E-6,4900000.0,83.3,62.591616938157436,63.13465783664458,52.556818181818166,463840.0,896464.0,0.0,1.0,0.0,?,0.0,0.0,357.0,230.0,230.0,14.0,0.0,0.0,1.0
5000000.0,21.953125,3.615555663903554E-6,5000000.0,83.0,62.99311671970985,64.80331262939958,56.298200514138806,473645.0,912320.0,0.0,1.0,0.0,?,0.0,0.0,366.0,236.0,236.0,15.0,0.0,0.0,1.0
5100000.0,22.46875,3.625897322005282E-6,5100000.0,69.69999999999999,39.38351231534976,39.39999999999999,37.2670807453416,9246.0,29176.0,0.0,1.0,0.0,?,1.0,26.0,11.0,9.0,9.0,2.0,0.0,0.0,1.0
5200000.0,22.875,3.646130628314697E-6,5200000.0,72.1,44.75728847387555,45.40117416829745,41.1392405063291,19046.0,135520.0,0.0,1.0,0.0,?,0.0,0.0,48.0,38.0,38.0,3.0,0.0,0.0,1.0
5300000.0,23.28125,3.668551637221956E-6,5300000.0,73.7,47.663357982631396,48.33005893909627,44.16135881104034,28851.0,157936.0,0.0,1.0,0.0,?,0.0,0.0,57.0,44.0,44.0,3.0,0.0,0.0,1.0
5400000.0,23.703125,3.7006159093127485E-6,5400000.0,73.7,47.89520398136114,48.431372549019606,44.39746300211416,38656.0,239824.0,0.0,1.0,0.0,?,0.0,0.0,81.0,62.0,62.0,4.0,0.0,0.0,1.0
5500000.0,24.125,3.7365873706423577E-6,5500000.0,76.1,52.19005553155056,54.30210325047802,52.29540918163673,48461.0,277168.0,0.0,1.0,0.0,?,0.0,0.0,99.0,74.0,74.0,4.0,0.0,0.0,1.0
5600000.0,24.53125,3.7762527224711248E-6,5600000.0,79.60000000000001,59.25883024912027,60.99426386233271,57.588357588357596,58261.0,318776.0,0.0,1.0,0.0,?,0.0,0.0,115.0,85.0,85.0,4.0,0.0,0.0,1.0
5700000.0,24.9375,3.820872775072025E-6,5700000.0,77.4,54.92692577701194,54.343434343434346,54.0650406504065,68066.0,367480.0,0.0,1.0,0.0,?,0.0,0.0,139.0,103.0,103.0,5.0,0.0,0.0,1.0
5800000.0,25.390625,3.885731275659054E-6,5800000.0,79.4,59.047679633576145,57.5257731958763,56.355932203389834,77871.0,497552.0,0.0,1.0,0.0,?,0.0,0.0,196.0,145.0,145.0,5.0,0.0,0.0,1.0
5900000.0,25.828125,3.952483045092473E-6,5900000.0,82.5,64.93604334305772,66.01941747572815,60.49661399548532,87676.0,535600.0,0.0,1.0,0.0,?,0.0,0.0,221.0,162.0,162.0,5.0,0.0,0.0,1.0
6000000.0,26.265625,4.0236923571986456E-6,6000000.0,85.3,70.6169246514008,70.24291497975707,70.061099796334,97481.0,576528.0,0.0,1.0,0.0,?,0.0,0.0,246.0,179.0,179.0,5.0,0.0,0.0,1.0
6100000.0,26.71875,4.105448897462338E-6,6100000.0,82.8,65.55867040448537,64.82617586912065,61.777777777777764,107281.0,638496.0,0.0,1.0,0.0,?,0.0,0.0,277.0,199.0,199.0,5.0,0.0,0.0,1.0
6200000.0,27.15625,4.190345935057849E-6,6200000.0,85.3,70.60470324748039,71.00591715976331,68.72340425531914,117086.0,692656.0,0.0,1.0,0.0,?,0.0,0.0,300.0,215.0,215.0,5.0,0.0,0.0,1.0
6300000.0,27.609375,4.282773588784039E-6,6300000.0,84.2,68.41099297444488,69.4980694980695,67.5564681724846,126891.0,732552.0,0.0,1.0,0.0,?,0.0,0.0,324.0,230.0,230.0,6.0,0.0,0.0,1.0
6400000.0,28.109375,4.394408121394615E-6,6400000.0,87.0,73.98376586990281,73.46938775510205,72.57383966244726,136696.0,808584.0,0.0,1.0,0.0,?,0.0,0.0,355.0,253.0,253.0,6.0,0.0,0.0,1.0
6500000.0,28.578125,4.506266753499707E-6,6500000.0,86.3,72.65949294335525,71.98364008179959,70.72649572649571,146496.0,861760.0,0.0,1.0,0.0,?,0.0,0.0,379.0,271.0,271.0,6.0,0.0,0.0,1.0
6600000.0,29.046875,4.624096521486839E-6,6600000.0,87.1,74.28147628313502,75.0,72.89915966386555,156301.0,912464.0,0.0,1.0,0.0,?,0.0,0.0,405.0,287.0,287.0,6.0,0.0,0.0,1.0
6700000.0,29.546875,4.7562884477277595E-6,6700000.0,87.7,75.41868180183062,75.35070140280561,74.42827442827443,166106.0,964272.0,0.0,1.0,0.0,?,0.0,0.0,439.0,310.0,310.0,6.0,0.0,0.0,1.0
6800000.0,30.03125,4.889871957453175E-6,6800000.0,89.3,78.59503404789912,79.06066536203524,77.2823779193206,175911.0,1009872.0,0.0,1.0,0.0,?,0.0,0.0,464.0,327.0,327.0,7.0,0.0,0.0,1.0
6900000.0,30.515625,5.033455058259682E-6,6900000.0,89.2,78.4,76.87366167023555,78.52882703777337,185716.0,1091096.0,0.0,1.0,0.0,?,0.0,0.0,501.0,353.0,353.0,7.0,0.0,0.0,1.0
7000000.0,31.0,5.179678652590761E-6,7000000.0,89.3,78.5681093467079,77.3784355179704,77.18550106609808,195516.0,1106048.0,0.0,1.0,0.0,?,0.0,0.0,506.0,357.0,357.0,7.0,0.0,0.0,1.0
7100000.0,31.484375,5.330396298733022E-6,7100000.0,87.5,75.05985634477254,75.0499001996008,73.68421052631578,205321.0,1143424.0,0.0,1.0,0.0,?,0.0,0.0,532.0,373.0,373.0,7.0,0.0,0.0,1.0
7200000.0,31.953125,5.481459730718698E-6,7200000.0,89.3,78.64100926221654,77.84679089026916,78.11860940695297,215126.0,1187920.0,0.0,1.0,0.0,?,0.0,0.0,551.0,387.0,387.0,7.0,0.0,0.0,1.0
7300000.0,32.421875,5.635762419034209E-6,7300000.0,87.6,75.17567215871554,74.0041928721174,72.50554323725055,224931.0,1216200.0,0.0,1.0,0.0,?,0.0,0.0,571.0,400.0,400.0,7.0,0.0,0.0,1.0
7400000.0,32.875,5.786114553403522E-6,7400000.0,89.1,78.19424328022599,78.37301587301587,76.65952890792292,234736.0,1227960.0,0.0,1.0,0.0,?,0.0,0.0,581.0,405.0,405.0,7.0,0.0,0.0,1.0
7500000.0,33.359375,5.950552941713895E-6,7500000.0,88.1,76.24200413668633,77.11538461538461,75.564681724846,244536.0,1251456.0,0.0,1.0,0.0,?,0.0,0.0,590.0,411.0,411.0,7.0,0.0,0.0,1.0
7600000.0,33.84375,6.12225719831056E-6,7600000.0,87.9,75.82900519376749,75.15400410677618,74.52631578947368,254341.0,1310944.0,0.0,1.0,0.0,?,0.0,0.0,609.0,425.0,425.0,7.0,0.0,0.0,1.0
7700000.0,34.34375,6.307794246822595E-6,7700000.0,89.2,78.43381577686188,77.31092436974791,77.77777777777779,264146.0,1376488.0,0.0,1.0,0.0,?,0.0,0.0,636.0,443.0,443.0,8.0,0.0,0.0,1.0
7800000.0,34.859375,6.505999578318247E-6,7800000.0,89.2,78.43622713840747,80.07380073800738,77.9591836734694,273951.0,1429496.0,0.0,1.0,0.0,?,0.0,0.0,659.0,459.0,459.0,8.0,0.0,0.0,1.0
7900000.0,35.375,6.713967110651234E-6,7900000.0,91.3,82.63597825305966,83.04093567251462,81.20950323974083,283751.0,1496368.0,0.0,1.0,0.0,?,0.0,0.0,686.0,477.0,477.0,8.0,0.0,0.0,1.0
8000000.0,35.890625,6.92406785674393E-6,8000000.0,91.2,82.3876008710132,82.4,82.53968253968254,293556.0,1513976.0,0.0,1.0,0.0,?,0.0,0.0,695.0,483.0,483.0,8.0,0.0,0.0,1.0
8100000.0,36.40625,7.140258773385235E-6,8100000.0,90.5,80.99756768866415,81.03792415169661,80.61224489795919,303361.0,1561144.0,0.0,1.0,0.0,?,0.0,0.0,713.0,495.0,495.0,8.0,0.0,0.0,1.0
8200000.0,36.921875,7.358926523011176E-6,8200000.0,90.5,81.00319146383409,80.73022312373226,79.25764192139738,313166.0,1581288.0,0.0,1.0,0.0,?,0.0,0.0,728.0,504.0,504.0,8.0,0.0,0.0,1.0
8300000.0,37.40625,7.565366201257953E-6,8300000.0,91.7,83.3569944737201,83.09572301425663,82.03463203463204,322971.0,1591088.0,0.0,1.0,0.0,?,0.0,0.0,732.0,506.0,506.0,8.0,0.0,0.0,1.0
8400000.0,37.921875,7.78769744404902E-6,8400000.0,90.0,80.00679768878581,78.76857749469215,78.54077253218884,332771.0,1604224.0,0.0,1.0,0.0,?,0.0,0.0,738.0,509.0,509.0,8.0,0.0,0.0,1.0
8500000.0,38.4375,8.013030552926162E-6,8500000.0,91.4,82.71370682446775,82.19461697722568,80.97345132743364,342576.0,1628272.0,0.0,1.0,0.0,?,0.0,0.0,757.0,520.0,520.0,8.0,0.0,0.0,1.0
8600000.0,38.953125,8.240930134585747E-6,8600000.0,90.10000000000001,80.23273459151645,79.46058091286308,79.375,352381.0,1649104.0,0.0,1.0,0.0,?,0.0,0.0,768.0,527.0,527.0,8.0,0.0,0.0,1.0
8700000.0,39.453125,8.46385461045429E-6,8700000.0,92.30000000000001,84.60615753698522,84.53815261044177,84.38133874239352,362186.0,1665640.0,0.0,1.0,0.0,?,0.0,0.0,779.0,534.0,534.0,8.0,0.0,0.0,1.0
8800000.0,39.96875,8.694189406620959E-6,8800000.0,90.4,80.80437660213472,80.5668016194332,80.6841046277666,371991.0,1670616.0,0.0,1.0,0.0,?,0.0,0.0,781.0,535.0,535.0,8.0,0.0,0.0,1.0
8900000.0,40.484375,8.92669476646309E-6,8900000.0,91.5,82.93734593427064,82.61758691206545,81.06904231625836,381791.0,1680728.0,0.0,1.0,0.0,?,0.0,0.0,789.0,539.0,539.0,8.0,0.0,0.0,1.0
9000000.0,41.0,9.159917244687674E-6,9000000.0,92.60000000000001,85.20692315996115,85.25896414342631,84.80492813141684,391596.0,1687736.0,0.0,1.0,0.0,?,0.0,0.0,791.0,540.0,540.0,8.0,0.0,0.0,1.0
9100000.0,41.515625,9.394515266952414E-6,9100000.0,92.30000000000001,84.48606566625297,84.75247524752476,82.85077951002228,401401.0,1699648.0,0.0,1.0,0.0,?,0.0,0.0,797.0,543.0,543.0,8.0,0.0,0.0,1.0
9200000.0,42.046875,9.636742373307544E-6,9200000.0,92.9,85.80215807197307,86.10567514677105,84.63203463203463,411206.0,1705096.0,0.0,1.0,0.0,?,0.0,0.0,806.0,549.0,549.0,8.0,0.0,0.0,1.0
9300000.0,42.5625,9.875419006372489E-6,9300000.0,90.8,81.61125391260549,80.5084745762712,80.95238095238095,421006.0,1725712.0,0.0,1.0,0.0,?,0.0,0.0,810.0,551.0,551.0,8.0,0.0,0.0,1.0
9400000.0,43.078125,1.0115319649533676E-5,9400000.0,92.30000000000001,84.61661405681863,85.2207293666027,83.61702127659575,430811.0,1736512.0,0.0,1.0,0.0,?,0.0,0.0,821.0,558.0,558.0,8.0,0.0,0.0,1.0
9500000.0,43.609375,1.0364549331522234E-5,9500000.0,93.2,86.40157741701964,84.9889624724062,85.56263269639068,440616.0,1753112.0,0.0,1.0,0.0,?,0.0,0.0,830.0,564.0,564.0,8.0,0.0,0.0,1.0
9600000.0,44.140625,1.0614967549271465E-5,9600000.0,91.3,82.61168494771515,83.42857142857144,82.31707317073172,450421.0,1763336.0,0.0,1.0,0.0,?,0.0,0.0,842.0,570.0,570.0,8.0,0.0,0.0,1.0
9700000.0,44.65625,1.0858924393283407E-5,9700000.0,92.60000000000001,85.20899293229716,85.17034068136273,84.64730290456433,460226.0,1771752.0,0.0,1.0,0.0,?,0.0,0.0,842.0,570.0,570.0,8.0,0.0,0.0,1.0
9800000.0,45.203125,1.1123547414576425E-5,9800000.0,91.4,82.79449423815622,82.76553106212425,81.30434782608697,470026.0,1807112.0,0.0,1.0,0.0,?,0.0,0.0,860.0,582.0,582.0,8.0,0.0,0.0,1.0
9900000.0,45.71875,1.1375682822997782E-5,9900000.0,93.10000000000001,86.20099352846596,86.52343750000001,85.68464730290457,479831.0,1828432.0,0.0,1.0,0.0,?,0.0,0.0,864.0,584.0,584.0,8.0,0.0,0.0,1.0
1.0E7,46.25,1.1637928126017663E-5,1.0E7,93.30000000000001,86.60000000000001,86.73267326732675,85.89473684210527,489636.0,1848000.0,0.0,1.0,0.0,?,0.0,0.0,873.0,590.0,590.0,8.0,0.0,0.0,1.0
