learning evaluation instances,evaluation time (cpu seconds),model cost (RAM-Hours),classified instances,classifications correct (percent),Kappa Statistic (percent),Kappa Temporal Statistic (percent),Kappa M Statistic (percent),model training instances,model serialized size (bytes),labeling cost,newThreshold,maxPosterior,accuracyBaseLearner (percent),Change detected,Warning detected
100000.0,0.109375,4.9464870244264605E-9,100000.0,59.599999999999994,11.654209327041237,13.118279569892463,-9.485094850948519,1094.0,9312.0,0.0,1.0,0.0,?,3.0,20.0
200000.0,0.234375,1.010860109494792E-8,200000.0,61.7,9.811050618842197,21.83673469387755,-3.234501347708898,1967.0,9312.0,0.0,1.0,0.0,?,7.0,90.0
300000.0,0.34375,1.4119529320547978E-8,300000.0,57.49999999999999,11.122078530440167,14.141414141414133,-8.418367346938782,4009.0,9312.0,0.0,1.0,0.0,?,1.0,7.0
400000.0,0.453125,1.7700367607176302E-8,400000.0,54.900000000000006,5.856517818376156,0.87912087912088,-18.372703412073477,14009.0,9312.0,0.0,1.0,0.0,?,0.0,0.0
500000.0,0.5625,2.0851115954832898E-8,500000.0,64.4,14.665541658077283,24.093816631130064,4.043126684636123,3538.0,9312.0,0.0,1.0,0.0,?,3.0,11.0
600000.0,0.65625,2.3248107431249486E-8,600000.0,61.4,19.72515223105847,19.246861924686186,-3.2085561497326234,2729.0,9312.0,0.0,1.0,0.0,?,4.0,47.0
700000.0,0.765625,2.562741024626626E-8,700000.0,57.9,11.695612047990608,3.8812785388127637,-16.94444444444446,12729.0,9312.0,0.0,1.0,0.0,?,0.0,0.0
800000.0,0.875,2.75766231223113E-8,800000.0,58.9,12.94659877489811,12.553191489361689,-13.535911602209957,22729.0,9312.0,0.0,1.0,0.0,?,0.0,0.0
900000.0,0.96875,2.8878728496945567E-8,900000.0,60.9,16.37937671625448,12.331838565022409,-10.451977401129952,32729.0,9312.0,0.0,1.0,0.0,?,0.0,0.0
1000000.0,1.078125,2.996776149504715E-8,1000000.0,59.699999999999996,14.001348663713264,17.24845995893223,-5.497382198952884,42729.0,9312.0,0.0,1.0,0.0,?,0.0,0.0
1100000.0,1.203125,3.564106817874644E-8,1100000.0,59.8,6.074766355140167,15.189873417721511,-5.789473684210531,52629.0,9312.0,0.0,1.0,0.0,?,0.0,0.0
1200000.0,1.3125,4.0175121588011585E-8,1200000.0,62.3,20.959720906048986,22.107438016528924,2.3316062176165824,62629.0,9312.0,0.0,1.0,0.0,?,0.0,0.0
1300000.0,1.421875,4.4279085058305E-8,1300000.0,61.5,9.352897411024545,16.846652267818566,-2.1220159151193654,72629.0,9312.0,0.0,1.0,0.0,?,0.0,0.0
1400000.0,1.546875,4.8477797665529785E-8,1400000.0,64.5,19.365829282696588,26.501035196687372,10.579345088161219,82629.0,9312.0,0.0,1.0,0.0,?,0.0,0.0
1500000.0,1.640625,5.1258183601829744E-8,1500000.0,56.699999999999996,9.064944010887,9.60334029227556,-13.350785340314147,92629.0,9312.0,0.0,1.0,0.0,?,0.0,0.0
1600000.0,1.734375,5.366992101901108E-8,1600000.0,56.2,8.753421746684522,7.006369426751599,-10.327455919395447,102629.0,9312.0,0.0,1.0,0.0,?,0.0,0.0
1700000.0,1.828125,5.571300991707379E-8,1700000.0,60.5,16.308594577644442,18.38842975206611,-10.644257703081243,112629.0,9312.0,0.0,1.0,0.0,?,0.0,0.0
1800000.0,1.921875,5.7387450296017866E-8,1800000.0,53.800000000000004,4.043865661411946,-1.0940919037199135,-18.15856777493605,122629.0,9312.0,0.0,1.0,0.0,?,0.0,0.0
1900000.0,2.0,5.847561017920574E-8,1900000.0,66.10000000000001,18.50256272177401,24.666666666666668,5.571030640668529,132629.0,9312.0,0.0,1.0,0.0,?,0.0,0.0
2000000.0,2.109375,5.956894407669704E-8,2000000.0,58.8,7.290729072907287,16.08961303462321,-3.0000000000000027,142629.0,9312.0,0.0,1.0,0.0,?,0.0,0.0
2100000.0,2.234375,6.524716607398458E-8,2100000.0,59.5,15.378186376932721,11.572052401746712,-1.250000000000001,152529.0,9312.0,0.0,1.0,0.0,?,0.0,0.0
2200000.0,2.359375,7.043385671244727E-8,2200000.0,61.1,18.646478166304167,22.199999999999996,1.767676767676769,162529.0,9312.0,0.0,1.0,0.0,?,0.0,0.0
2300000.0,2.484375,7.512901599208514E-8,2300000.0,57.99999999999999,8.69763700789113,2.77777777777778,-21.73913043478263,172529.0,9312.0,0.0,1.0,0.0,?,0.0,0.0
2400000.0,2.578125,7.828173693269492E-8,2400000.0,58.699999999999996,13.395403455795996,9.628008752735214,-13.461538461538474,182529.0,9312.0,0.0,1.0,0.0,?,0.0,0.0
2500000.0,2.6875,8.152982142443459E-8,2500000.0,57.599999999999994,11.00214938205266,8.620689655172399,-15.84699453551914,192529.0,9312.0,0.0,1.0,0.0,?,0.0,0.0
2600000.0,2.78125,8.394524532680711E-8,2600000.0,65.9,19.01468660346169,30.122950819672134,7.336956521739137,202529.0,9312.0,0.0,1.0,0.0,?,0.0,0.0
2700000.0,2.890625,8.633314994060332E-8,2700000.0,59.5,2.859993667910683,11.764705882352928,-11.878453038674044,212529.0,9312.0,0.0,1.0,0.0,?,0.0,0.0
2800000.0,3.0,8.82909646154278E-8,2800000.0,55.300000000000004,8.34604596230502,3.4557235421166337,-16.406249999999986,222529.0,9312.0,0.0,1.0,0.0,?,0.0,0.0
2900000.0,3.09375,8.960044296044444E-8,2900000.0,58.599999999999994,12.412835962358665,12.658227848101255,-9.52380952380953,232529.0,9312.0,0.0,1.0,0.0,?,0.0,0.0
3000000.0,3.21875,9.085488272830845E-8,3000000.0,58.599999999999994,13.497340147681339,10.775862068965504,-9.814323607427063,242529.0,9312.0,0.0,1.0,0.0,?,0.0,0.0
3100000.0,3.34375,9.653802003918424E-8,3100000.0,65.4,15.55661855509076,23.451327433628315,1.9830028328611915,252429.0,9312.0,0.0,1.0,0.0,?,0.0,0.0
3200000.0,3.453125,1.0108067524722882E-7,3200000.0,60.8,16.920990166158024,13.274336283185828,-5.37634408602151,262429.0,9312.0,0.0,1.0,0.0,?,0.0,0.0
3300000.0,3.5625,1.0519324051630167E-7,3300000.0,59.199999999999996,14.47222233868162,13.924050632911383,-9.973045822102435,272429.0,9312.0,0.0,1.0,0.0,?,0.0,0.0
3400000.0,3.671875,1.088757158464028E-7,3400000.0,56.8,9.102003543338547,9.052631578947354,-19.66759002770085,282429.0,9312.0,0.0,1.0,0.0,?,0.0,0.0
3500000.0,3.78125,1.1212810123753218E-7,3500000.0,61.3,9.377019698204393,13.616071428571416,-2.3809523809523827,292429.0,9312.0,0.0,1.0,0.0,?,0.0,0.0
3600000.0,3.875,1.1454721162509589E-7,3600000.0,60.4,16.232315711094568,15.923566878980882,-10.614525139664813,302429.0,9312.0,0.0,1.0,0.0,?,0.0,0.0
3700000.0,3.984375,1.1693941713828181E-7,3700000.0,58.3,13.247898810019132,7.333333333333315,-15.83333333333335,312429.0,9312.0,0.0,1.0,0.0,?,0.0,0.0
3800000.0,4.078125,1.1862123048760827E-7,3800000.0,58.9,13.848759505982377,13.107822410147978,-7.3107049608355155,322429.0,9312.0,0.0,1.0,0.0,?,0.0,0.0
3900000.0,4.1875,1.2015325612285073E-7,3900000.0,59.099999999999994,5.407280632776714,12.606837606837596,-6.233766233766239,332429.0,9312.0,0.0,1.0,0.0,?,0.0,0.0
4000000.0,4.3125,1.21412611204303E-7,4000000.0,57.3,10.13326374098175,7.173913043478243,-10.621761658031097,342429.0,9312.0,0.0,1.0,0.0,?,0.0,0.0
4100000.0,4.421875,1.2638965725070903E-7,4100000.0,61.4,9.610340951667283,16.630669546436277,-1.578947368421054,352329.0,9312.0,0.0,1.0,0.0,?,0.0,0.0
4200000.0,4.53125,1.3093661335814332E-7,4200000.0,56.599999999999994,8.69885347638582,8.245243128964043,-22.253521126760585,362329.0,9312.0,0.0,1.0,0.0,?,0.0,0.0
4300000.0,4.640625,1.350534795266059E-7,4300000.0,63.2,22.677379771730184,23.809523809523807,7.537688442211062,372329.0,9312.0,0.0,1.0,0.0,?,0.0,0.0
4400000.0,4.734375,1.3821357343759803E-7,4400000.0,60.5,16.71024442907508,18.55670103092783,-12.215909090909102,382329.0,9312.0,0.0,1.0,0.0,?,0.0,0.0
4500000.0,4.84375,1.4147025972811714E-7,4500000.0,59.099999999999994,13.705797957633559,14.435146443514634,-8.776595744680858,392329.0,9312.0,0.0,1.0,0.0,?,0.0,0.0
4600000.0,4.953125,1.4429685607966453E-7,4600000.0,57.3,9.635749536539304,8.369098712446336,-14.171122994652418,402329.0,9312.0,0.0,1.0,0.0,?,0.0,0.0
4700000.0,5.046875,1.463510044333008E-7,4700000.0,60.3,15.051140497282484,9.977324263038534,-10.893854748603363,412329.0,9312.0,0.0,1.0,0.0,?,0.0,0.0
4800000.0,5.15625,1.483174209069047E-7,4800000.0,59.5,14.097364804099563,15.800415800415793,-7.427055702917778,422329.0,9312.0,0.0,1.0,0.0,?,0.0,0.0
4900000.0,5.265625,1.4985374744153688E-7,4900000.0,67.30000000000001,20.622590762120254,29.373650107991367,9.668508287292827,432329.0,9312.0,0.0,1.0,0.0,?,0.0,0.0
5000000.0,5.359375,1.508580236178306E-7,5000000.0,60.099999999999994,15.494747543205692,15.106382978723396,-12.39436619718311,442329.0,9312.0,0.0,1.0,0.0,?,0.0,0.0
5100000.0,5.484375,1.5662575606256728E-7,5100000.0,50.7,3.47792718359164,0.20242914979757104,-8.590308370044061,452229.0,9312.0,0.0,1.0,0.0,?,0.0,0.0
5200000.0,5.59375,1.6124243201274016E-7,5200000.0,46.7,-5.311825747457098,-8.553971486761707,-11.506276150627615,462229.0,9312.0,0.0,1.0,0.0,?,0.0,0.0
5300000.0,5.6875,1.6483093430805543E-7,5300000.0,51.6,4.907107604287825,2.0242914979757103,-6.140350877192988,472229.0,9312.0,0.0,1.0,0.0,?,0.0,0.0
5400000.0,5.796875,1.6858743038028484E-7,5400000.0,50.1,1.906821309219577,-2.0449897750511266,-10.8888888888889,482229.0,9312.0,0.0,1.0,0.0,?,0.0,0.0
5500000.0,5.890625,1.7143863563736284E-7,5500000.0,48.8,-0.6289308176100701,-4.489795918367351,-12.280701754385976,492229.0,9312.0,0.0,1.0,0.0,?,0.0,0.0
5600000.0,5.96875,1.7350743291899565E-7,5600000.0,51.6,4.438477333754541,-1.4675052410901481,-4.310344827586212,502229.0,9312.0,0.0,1.0,0.0,?,0.0,0.0
5700000.0,6.078125,1.7597365917430987E-7,5700000.0,52.0,5.78296320432143,0.20790020790020808,-8.352144469525967,512229.0,9312.0,0.0,1.0,0.0,?,0.0,0.0
5800000.0,6.1875,1.7800979549065235E-7,5800000.0,46.9,-4.097235836110583,-9.034907597535941,-18.000000000000018,522229.0,9312.0,0.0,1.0,0.0,?,0.0,0.0
5900000.0,6.296875,1.796158418680231E-7,5900000.0,48.5,-1.8245375386537834,-0.980392156862746,-8.649789029535873,532229.0,9312.0,0.0,1.0,0.0,?,0.0,0.0
6000000.0,6.390625,1.806174016868075E-7,6000000.0,47.3,-3.241832728640512,-8.213552361396312,-14.316702819956632,542229.0,9312.0,0.0,1.0,0.0,?,0.0,1.0
6100000.0,6.484375,1.8494649945447844E-7,6100000.0,45.7,-7.28341789558539,-8.599999999999996,-21.20535714285715,552129.0,9312.0,0.0,1.0,0.0,?,0.0,0.0
6200000.0,6.59375,1.895670235777895E-7,6200000.0,50.4,2.549432586212314,-5.756929637526658,-8.771929824561413,562129.0,9312.0,0.0,1.0,0.0,?,0.0,0.0
6300000.0,6.703125,1.937574577621288E-7,6300000.0,47.699999999999996,-3.779725053179681,-8.057851239669429,-8.731808731808739,572129.0,9312.0,0.0,1.0,0.0,?,0.0,0.0
6400000.0,6.8125,1.9751780200749638E-7,6400000.0,49.3,-0.5385854002903229,0.0,-5.845511482254703,582129.0,9312.0,0.0,1.0,0.0,?,0.0,0.0
6500000.0,6.9375,2.0132380692909164E-7,6500000.0,49.0,-0.6580271816147244,-1.3916500994035799,-9.207708779443264,592129.0,9312.0,0.0,1.0,0.0,?,0.0,0.0
6600000.0,7.046875,2.0422397129651576E-7,6600000.0,48.0,-1.6725128361547579,-4.0000000000000036,-17.913832199546505,602129.0,9312.0,0.0,1.0,0.0,?,0.0,0.0
6700000.0,7.15625,2.0669404572496816E-7,6700000.0,49.9,0.772430184194893,-2.036659877800409,-5.473684210526321,612129.0,9312.0,0.0,1.0,0.0,?,0.0,0.0
6800000.0,7.265625,2.087340302144488E-7,6800000.0,46.7,-5.452674897119336,-5.753968253968248,-13.88888888888889,622129.0,9312.0,0.0,1.0,0.0,?,0.0,0.0
6900000.0,7.375,2.1034392476495774E-7,6900000.0,47.9,-2.4783634933123637,-3.784860557768928,-12.043010752688184,632129.0,9312.0,0.0,1.0,0.0,?,0.0,0.0
7000000.0,7.484375,2.1152372937649493E-7,7000000.0,51.2,3.0002345486131916,-0.41152263374485637,-1.0351966873706013,642129.0,9312.0,0.0,1.0,0.0,?,0.0,0.0
7100000.0,7.59375,2.1657864433816742E-7,7100000.0,49.1,0.1655408320976526,-1.5968063872255502,-12.114537444933934,652029.0,9312.0,0.0,1.0,0.0,?,0.0,0.0
7200000.0,7.703125,2.2120346936086818E-7,7200000.0,48.8,-0.6083662144530291,-1.3861386138613874,-11.790393013100447,662029.0,9312.0,0.0,1.0,0.0,?,0.0,0.0
7300000.0,7.796875,2.2479895657549306E-7,7300000.0,47.5,-2.7727098325098596,-11.70212765957448,-14.628820960698704,672029.0,9312.0,0.0,1.0,0.0,?,0.0,0.0
7400000.0,7.90625,2.2856360172025034E-7,7400000.0,48.0,-2.022798171437538,-6.776180698151957,-17.381489841986472,682029.0,9312.0,0.0,1.0,0.0,?,0.0,0.0
7500000.0,8.03125,2.3237452195543384E-7,7500000.0,51.6,4.888046942858154,3.3932135728542945,-7.795100222717156,692029.0,9312.0,0.0,1.0,0.0,?,0.0,0.0
7600000.0,8.140625,2.3527898722224769E-7,7600000.0,49.3,-0.23090670420217516,1.1695906432748548,-7.188160676532776,702029.0,9312.0,0.0,1.0,0.0,?,0.0,0.0
7700000.0,8.25,2.3775336255008979E-7,7700000.0,47.8,-3.1865264489602323,-3.3663366336633693,-11.063829787234052,712029.0,9312.0,0.0,1.0,0.0,?,0.0,0.0
7800000.0,8.34375,2.395056071691215E-7,7800000.0,51.0,2.47552931904036,0.0,-2.7253668763102747,722029.0,9312.0,0.0,1.0,0.0,?,0.0,0.0
7900000.0,8.453125,2.4111980261902015E-7,7900000.0,48.8,-1.1869705964892776,-6.004140786749488,-8.245243128964066,732029.0,9312.0,0.0,1.0,0.0,?,0.0,0.0
8000000.0,8.5625,2.4230390812994706E-7,8000000.0,50.8,3.1171848847055137,-1.234567901234569,-8.13186813186814,742029.0,9312.0,0.0,1.0,0.0,?,0.0,0.0
8100000.0,8.65625,2.466403788680004E-7,8100000.0,51.9,5.285875190018978,1.6359918200409014,-3.887688984881213,751929.0,9312.0,0.0,1.0,0.0,?,0.0,0.0
8200000.0,8.765625,2.5126950479009084E-7,8200000.0,49.3,-0.2095110092105684,2.500000000000002,-7.188160676532776,761929.0,9312.0,0.0,1.0,0.0,?,0.0,0.0
8300000.0,8.875,2.554685407732096E-7,8300000.0,49.2,-1.4916069637626959,-0.9940357852882713,-2.4193548387096793,771929.0,9312.0,0.0,1.0,0.0,?,0.0,0.0
8400000.0,8.984375,2.592374868173566E-7,8400000.0,50.3,2.184609328872269,-1.42857142857143,-9.230769230769239,781929.0,9312.0,0.0,1.0,0.0,?,0.0,0.0
8500000.0,9.109375,2.6305332236612835E-7,8500000.0,52.400000000000006,6.631882466016753,4.417670682730928,-2.807775377969765,791929.0,9312.0,0.0,1.0,0.0,?,0.0,0.0
8600000.0,9.21875,2.659620885323319E-7,8600000.0,46.800000000000004,-4.553172756430418,-3.3009708737863996,-17.180616740088112,801929.0,9312.0,0.0,1.0,0.0,?,0.0,0.0
8700000.0,9.328125,2.684407647595637E-7,8700000.0,48.199999999999996,-2.319774975506469,-0.38759689922480656,-14.096916299559483,811929.0,9312.0,0.0,1.0,0.0,?,0.0,0.0
8800000.0,9.4375,2.704893510478238E-7,8800000.0,50.2,2.164175585836196,-5.508474576271192,-9.691629955947146,821929.0,9312.0,0.0,1.0,0.0,?,0.0,0.0
8900000.0,9.546875,2.7210784739711217E-7,8900000.0,46.7,-4.385360198038422,-7.4596774193548345,-18.708240534521163,831929.0,9312.0,0.0,1.0,0.0,?,0.0,0.0
9000000.0,9.65625,2.732962538074288E-7,9000000.0,48.199999999999996,-1.067648986982181,-2.77777777777778,-17.194570135746623,841929.0,9312.0,0.0,1.0,0.0,?,0.0,0.0
9100000.0,9.75,2.7763641103067333E-7,9100000.0,47.3,-4.93827160493828,-1.9342359767891697,-7.770961145194281,851829.0,9312.0,0.0,1.0,0.0,?,0.0,0.0
9200000.0,9.859375,2.822698378521535E-7,9200000.0,50.2,1.6374014892650495,-1.0141987829614614,-7.559395248380136,861829.0,9312.0,0.0,1.0,0.0,?,0.0,0.0
9300000.0,9.96875,2.86473174734662E-7,9300000.0,49.0,-0.1409827953864562,-1.3916500994035799,-10.629067245119316,871829.0,9312.0,0.0,1.0,0.0,?,0.0,0.0
9400000.0,10.09375,2.9078545695584683E-7,9400000.0,51.4,4.2330565419069055,0.40983606557377084,-6.345733041575498,881829.0,9312.0,0.0,1.0,0.0,?,0.0,0.0
9500000.0,10.203125,2.9412861396041185E-7,9500000.0,47.9,-1.2106424641780404,-3.373015873015876,-21.445221445221435,891829.0,9312.0,0.0,1.0,0.0,?,0.0,0.0
9600000.0,10.3125,2.970416810260051E-7,9600000.0,48.1,-2.7600681107195313,-0.7766990291262142,-8.805031446540887,901829.0,9312.0,0.0,1.0,0.0,?,0.0,0.0
9700000.0,10.40625,2.9916994713453786E-7,9700000.0,49.4,0.09792772302250205,-3.688524590163938,-7.430997876857756,911829.0,9312.0,0.0,1.0,0.0,?,0.0,0.0
9800000.0,10.5,3.0092956472395195E-7,9800000.0,49.9,0.858042965472479,-0.6024096385542175,-5.031446540880507,921829.0,9312.0,0.0,1.0,0.0,?,0.0,0.0
9900000.0,10.609375,3.0255236197263005E-7,9900000.0,47.5,-3.372503307920112,-5.000000000000004,-12.179487179487191,931829.0,9312.0,0.0,1.0,0.0,?,0.0,0.0
1.0E7,10.71875,3.037455220085879E-7,1.0E7,54.900000000000006,11.53254660724374,11.22047244094489,-0.44543429844098037,941829.0,9312.0,0.0,1.0,0.0,?,0.0,0.0
