learning evaluation instances,evaluation time (cpu seconds),model cost (RAM-Hours),classified instances,classifications correct (percent),Kappa Statistic (percent),Kappa Temporal Statistic (percent),Kappa M Statistic (percent),model training instances,model serialized size (bytes),labeling cost,newThreshold,maxPosterior,accuracyBaseLearner (percent),Change detected,Warning detected
100000.0,0.09375,4.239069918791453E-9,100000.0,53.400000000000006,9.4628778370565,1.0615711252653937,-25.60646900269541,3044.0,9216.0,0.0,1.0,0.0,?,7.0,48.0
200000.0,0.203125,8.733962507297596E-9,200000.0,53.800000000000004,8.428175580054004,5.133470225872695,-21.25984251968503,13044.0,9216.0,0.0,1.0,0.0,?,0.0,3.0
300000.0,0.3125,1.2801481514341303E-8,300000.0,59.199999999999996,15.167896870776579,9.333333333333318,-9.3833780160858,23044.0,9312.0,0.0,1.0,0.0,?,0.0,0.0
400000.0,0.40625,1.5918113705184727E-8,400000.0,57.99999999999999,14.872227266830976,6.666666666666648,-16.022099447513828,33044.0,9216.0,0.0,1.0,0.0,?,0.0,12.0
500000.0,0.515625,1.9152163683126372E-8,500000.0,53.400000000000006,8.139328589169912,2.7139874739039693,-27.671232876712327,43044.0,9216.0,0.0,1.0,0.0,?,0.0,16.0
600000.0,0.609375,2.153305104002357E-8,600000.0,59.8,12.794102972376118,19.438877755511015,-2.813299232736575,7082.0,9216.0,0.0,1.0,0.0,?,4.0,40.0
700000.0,0.71875,2.3909637497531047E-8,700000.0,58.199999999999996,10.924720734082573,6.4876957494406975,-12.064343163538885,7992.0,9312.0,0.0,1.0,0.0,?,1.0,30.0
800000.0,0.828125,2.582444317845835E-8,800000.0,54.50000000000001,11.288750243712228,4.411764705882358,-22.641509433962252,13517.0,9216.0,0.0,1.0,0.0,?,1.0,2.0
900000.0,0.921875,2.7097444722635882E-8,900000.0,51.300000000000004,4.759297213573848,-2.310924369747901,-24.552429667519174,23517.0,9216.0,0.0,1.0,0.0,?,0.0,24.0
1000000.0,1.015625,2.8004126054131326E-8,1000000.0,63.4,23.448899002744124,22.94736842105263,5.1813471502590716,33517.0,9312.0,0.0,1.0,0.0,?,0.0,0.0
1100000.0,1.125,3.296555304485891E-8,1100000.0,59.8,15.533442033248726,17.113402061855663,-1.0050251256281415,43417.0,9312.0,0.0,1.0,0.0,?,0.0,11.0
1200000.0,1.234375,3.7489872839715746E-8,1200000.0,55.400000000000006,12.10506400958568,1.97802197802198,-16.145833333333318,53417.0,9216.0,0.0,1.0,0.0,?,0.0,39.0
1300000.0,1.34375,4.1591119952499865E-8,1300000.0,53.7,9.39618328976001,-1.535087719298247,-33.429394812680115,63417.0,9216.0,0.0,1.0,0.0,?,0.0,0.0
1400000.0,1.4375,4.473413961629073E-8,1400000.0,61.1,17.449026365380366,16.163793103448267,-5.70652173913044,73417.0,9312.0,0.0,1.0,0.0,?,0.0,10.0
1500000.0,1.546875,4.797792320864068E-8,1500000.0,61.7,20.40863826037806,20.703933747412005,2.2959183673469408,83417.0,9312.0,0.0,1.0,0.0,?,0.0,57.0
1600000.0,1.640625,5.036579548484749E-8,1600000.0,63.2,22.32189973614776,19.999999999999996,1.8666666666666683,93417.0,9312.0,0.0,1.0,0.0,?,0.0,10.0
1700000.0,1.75,5.2718840177274406E-8,1700000.0,51.300000000000004,5.703486841086179,-7.982261640798234,-28.496042216358834,103417.0,9216.0,0.0,1.0,0.0,?,0.0,0.0
1800000.0,1.84375,5.436708710880743E-8,1800000.0,53.400000000000006,9.138768108877487,-3.3259423503325976,-30.53221288515406,113417.0,9216.0,0.0,1.0,0.0,?,0.0,0.0
1900000.0,1.953125,5.586266828080018E-8,1900000.0,60.8,17.72276770534676,15.517241379310336,-2.887139107611551,123417.0,9312.0,0.0,1.0,0.0,?,0.0,0.0
2000000.0,2.03125,5.662179319187998E-8,2000000.0,57.3,16.224573078854824,11.226611226611213,-7.0175438596491295,133417.0,9216.0,0.0,1.0,0.0,?,0.0,0.0
2100000.0,2.140625,6.155967841752701E-8,2100000.0,54.2,11.73738596200469,-5.2873563218390585,-26.170798898071617,143317.0,9216.0,0.0,1.0,0.0,?,0.0,0.0
2200000.0,2.234375,6.542350294896298E-8,2200000.0,57.3,16.696580462909484,9.72515856236785,-19.60784313725492,153317.0,9216.0,0.0,1.0,0.0,?,0.0,0.0
2300000.0,2.34375,6.950120829666655E-8,2300000.0,56.8,14.793907764405137,7.296137339055778,-11.627906976744196,163317.0,9216.0,0.0,1.0,0.0,?,0.0,0.0
2400000.0,2.4375,7.262773578986526E-8,2400000.0,54.2,9.66790133683617,0.2178649237472769,-20.84432717678099,173317.0,9216.0,0.0,1.0,0.0,?,0.0,0.0
2500000.0,2.546875,7.584797761713465E-8,2500000.0,58.9,15.393799662398628,15.950920245398764,-0.24390243902439046,183317.0,9312.0,0.0,1.0,0.0,?,0.0,0.0
2600000.0,2.640625,7.823953637853265E-8,2600000.0,62.5,20.409202818575434,16.29464285714285,-4.1666666666666705,193317.0,9312.0,0.0,1.0,0.0,?,0.0,0.0
2700000.0,2.75,8.059688197034928E-8,2700000.0,54.50000000000001,10.808797584976668,2.7777777777777803,-22.972972972972965,203317.0,9216.0,0.0,1.0,0.0,?,0.0,0.0
2800000.0,2.84375,8.224881538707349E-8,2800000.0,54.1,9.899652946811347,-1.1013215859030847,-24.390243902439014,213317.0,9216.0,0.0,1.0,0.0,?,0.0,0.0
2900000.0,2.953125,8.374598110094667E-8,2900000.0,55.00000000000001,12.941868383582008,0.6622516556291397,-20.96774193548386,223317.0,9216.0,0.0,1.0,0.0,?,0.0,0.0
3000000.0,3.046875,8.466061747943362E-8,3000000.0,55.300000000000004,11.887847224959991,7.068607068607075,-19.518716577540093,233317.0,9216.0,0.0,1.0,0.0,?,0.0,0.0
3100000.0,3.15625,8.960280360447037E-8,3100000.0,55.7,13.0526943851275,6.736842105263165,-24.438202247191,243217.0,9216.0,0.0,1.0,0.0,?,0.0,0.0
3200000.0,3.28125,9.476258936855529E-8,3200000.0,60.3,17.047648499335544,11.581291759465467,0.5012531328320806,253217.0,9312.0,0.0,1.0,0.0,?,0.0,0.0
3300000.0,3.390625,9.884731197315786E-8,3300000.0,61.3,19.206005895665093,19.374999999999996,-1.3089005235602107,263217.0,9312.0,0.0,1.0,0.0,?,0.0,0.0
3400000.0,3.515625,1.0302403501959311E-7,3400000.0,61.5,18.556439329835847,16.30434782608695,-11.594202898550735,273217.0,9312.0,0.0,1.0,0.0,?,0.0,0.0
3500000.0,3.640625,1.0670612229862147E-7,3500000.0,56.99999999999999,15.076154964292476,3.370786516853911,-16.847826086956537,283217.0,9216.0,0.0,1.0,0.0,?,0.0,0.0
3600000.0,3.734375,1.0909903923877411E-7,3600000.0,52.2,6.71386918864485,3.629032258064519,-24.8041775456919,293217.0,9216.0,0.0,1.0,0.0,?,0.0,0.0
3700000.0,3.84375,1.1146068572998046E-7,3700000.0,56.599999999999994,14.234672906061272,7.264957264957247,-13.020833333333345,303217.0,9216.0,0.0,1.0,0.0,?,0.0,0.0
3800000.0,3.9375,1.1311630563189586E-7,3800000.0,54.50000000000001,11.317798030670401,5.991735537190088,-20.052770448548802,313217.0,9216.0,0.0,1.0,0.0,?,0.0,0.0
3900000.0,4.046875,1.1461777224515875E-7,3900000.0,53.900000000000006,9.558188809542493,3.3542976939203384,-17.602040816326518,323217.0,9216.0,0.0,1.0,0.0,?,0.0,0.0
4000000.0,4.140625,1.1553609510883689E-7,4000000.0,52.800000000000004,7.586882036221245,1.2552301255230138,-25.86666666666666,333217.0,9216.0,0.0,1.0,0.0,?,0.0,0.0
4100000.0,4.25,1.2048258213326335E-7,4100000.0,57.3,17.10025627087053,11.77685950413222,-20.28169014084509,343117.0,9216.0,0.0,1.0,0.0,?,0.0,0.0
4200000.0,4.34375,1.243537796350817E-7,4200000.0,51.6,6.076318812680485,-2.978723404255322,-26.041666666666664,353117.0,9216.0,0.0,1.0,0.0,?,0.0,0.0
4300000.0,4.453125,1.2844008678156468E-7,4300000.0,53.800000000000004,9.086973462054644,6.477732793522273,-11.864406779661,363117.0,9216.0,0.0,1.0,0.0,?,0.0,0.0
4400000.0,4.546875,1.3157631555158231E-7,4400000.0,60.8,18.402351344487784,22.067594433399602,2.729528535980151,373117.0,9312.0,0.0,1.0,0.0,?,0.0,0.0
4500000.0,4.65625,1.3480244282012184E-7,4500000.0,56.49999999999999,13.966330179424682,11.405295315682269,-9.848484848484857,383117.0,9216.0,0.0,1.0,0.0,?,0.0,0.0
4600000.0,4.75,1.3719904624546567E-7,4600000.0,53.2,8.190649570771672,3.5051546391752613,-18.78172588832486,393117.0,9216.0,0.0,1.0,0.0,?,0.0,0.0
4700000.0,4.859375,1.3956499363606173E-7,4700000.0,53.900000000000006,9.994689491440713,2.7426160337552767,-23.592493297587122,403117.0,9216.0,0.0,1.0,0.0,?,0.0,0.0
4800000.0,4.96875,1.4150085108768607E-7,4800000.0,54.2,9.801681863835986,3.983228511530402,-15.94936708860758,413117.0,9216.0,0.0,1.0,0.0,?,0.0,0.0
4900000.0,5.078125,1.4300661860033867E-7,4900000.0,55.300000000000004,13.220059949989912,1.3245033112582794,-26.98863636363636,423117.0,9216.0,0.0,1.0,0.0,?,0.0,0.0
5000000.0,5.1875,1.441477151173684E-7,5000000.0,53.0,9.340966695343226,2.6915113871635636,-20.822622107969142,433117.0,9216.0,0.0,1.0,0.0,?,0.0,0.0
5100000.0,5.28125,1.4844732100350987E-7,5100000.0,54.7,9.041258724409062,9.40000000000001,6.211180124223608,443017.0,9216.0,0.0,1.0,0.0,?,0.0,0.0
5200000.0,5.390625,1.5303343793170317E-7,5200000.0,52.2,3.8801840352626966,6.4579256360078325,-0.8438818565400852,453017.0,9216.0,0.0,1.0,0.0,?,0.0,0.0
5300000.0,5.484375,1.5659574677960736E-7,5300000.0,53.800000000000004,7.069179151312309,9.23379174852653,1.9108280254777086,463017.0,9216.0,0.0,1.0,0.0,?,0.0,0.0
5400000.0,5.59375,1.603216838298572E-7,5400000.0,52.6,4.612796374481307,7.05882352941177,-0.2114164904862581,473017.0,9216.0,0.0,1.0,0.0,?,0.0,0.0
5500000.0,5.6875,1.6314669563952415E-7,5500000.0,51.4,2.810496466381633,7.074569789674959,2.994011976047907,483017.0,9216.0,0.0,1.0,0.0,?,0.0,0.0
5600000.0,5.796875,1.660124528118305E-7,5600000.0,54.0,7.5291383725932635,12.045889101338442,4.3659043659043695,493017.0,9216.0,0.0,1.0,0.0,?,0.0,0.0
5700000.0,5.921875,1.687960725070701E-7,5700000.0,52.6,5.096745258841627,4.242424242424246,3.658536585365857,503017.0,9216.0,0.0,1.0,0.0,?,0.0,0.0
5800000.0,6.03125,1.7080164980143303E-7,5800000.0,55.2,9.895414320193085,7.628865979381451,5.084745762711869,513017.0,9216.0,0.0,1.0,0.0,?,0.0,0.0
5900000.0,6.140625,1.723771371568242E-7,5900000.0,51.6,2.061167252815747,6.019417475728161,-9.255079006772018,523017.0,9216.0,0.0,1.0,0.0,?,0.0,0.0
6000000.0,6.234375,1.7335890637089803E-7,6000000.0,51.4,2.6282362086720905,1.6194331983805683,1.0183299389002045,533017.0,9216.0,0.0,1.0,0.0,?,0.0,0.0
6100000.0,6.34375,1.7837941413745278E-7,6100000.0,55.7,10.667473280903419,9.406952965235183,1.5555555555555571,542917.0,9216.0,0.0,1.0,0.0,?,0.0,0.0
6200000.0,6.4375,1.823140579896668E-7,6200000.0,52.800000000000004,5.537654852202448,6.903353057199217,-0.42553191489361747,552917.0,9216.0,0.0,1.0,0.0,?,0.0,0.0
6300000.0,6.546875,1.8647438587827809E-7,6300000.0,54.50000000000001,8.960671009876275,12.162162162162172,6.570841889117049,562917.0,9216.0,0.0,1.0,0.0,?,0.0,0.0
6400000.0,6.640625,1.8967173269225484E-7,6400000.0,54.2,8.036560487044813,6.5306122448979655,3.3755274261603407,572917.0,9216.0,0.0,1.0,0.0,?,0.0,0.0
6500000.0,6.75,1.9297188070292266E-7,6500000.0,53.300000000000004,5.889275810924104,4.498977505112479,0.21367521367521386,582917.0,9216.0,0.0,1.0,0.0,?,0.0,0.0
6600000.0,6.84375,1.9543193047866217E-7,6600000.0,51.4,2.3876855839064226,5.813953488372098,-2.1008403361344556,592917.0,9216.0,0.0,1.0,0.0,?,0.0,0.0
6700000.0,6.984375,1.985690323635935E-7,6700000.0,53.400000000000006,6.308682732247911,6.613226452905817,3.1185031185031216,602917.0,9216.0,0.0,1.0,0.0,?,0.0,0.0
6800000.0,7.09375,2.0057891055734612E-7,6800000.0,54.1,7.729049066435093,10.176125244618405,2.547770700636945,612917.0,9216.0,0.0,1.0,0.0,?,0.0,0.0
6900000.0,7.203125,2.0215869881212703E-7,6900000.0,52.400000000000006,4.800000000000004,-1.9271948608137062,5.367793240556665,622917.0,9216.0,0.0,1.0,0.0,?,0.0,0.0
7000000.0,7.296875,2.0314415451139202E-7,7000000.0,54.50000000000001,8.4551249034252,3.8054968287526463,2.9850746268656745,632917.0,9216.0,0.0,1.0,0.0,?,0.0,0.0
7100000.0,7.40625,2.081689631773365E-7,7100000.0,53.900000000000006,7.1687474828836235,7.984031936127751,2.947368421052634,642817.0,9216.0,0.0,1.0,0.0,?,0.0,0.0
7200000.0,7.5,2.121072935147417E-7,7200000.0,51.300000000000004,2.342183364081179,-0.828157349896481,0.40899795501022534,652817.0,9216.0,0.0,1.0,0.0,?,0.0,0.0
7300000.0,7.609375,2.162719223027427E-7,7300000.0,53.5,6.449925562306358,2.5157232704402537,-3.104212860310424,662817.0,9216.0,0.0,1.0,0.0,?,0.0,0.0
7400000.0,7.703125,2.1947295560191066E-7,7400000.0,53.400000000000006,6.441859437928402,7.539682539682547,0.214132762312634,672817.0,9216.0,0.0,1.0,0.0,?,0.0,0.0
7500000.0,7.8125,2.227774045119682E-7,7500000.0,55.50000000000001,10.814494147827483,14.423076923076936,8.624229979466127,682817.0,9216.0,0.0,1.0,0.0,?,0.0,0.0
7600000.0,7.921875,2.2565176348305402E-7,7600000.0,55.60000000000001,10.726852317281594,8.829568788501035,6.526315789473689,692817.0,9216.0,0.0,1.0,0.0,?,0.0,0.0
7700000.0,8.03125,2.280960325151681E-7,7700000.0,51.9,3.589439335508758,-1.0504201680672278,1.0288065843621408,702817.0,9216.0,0.0,1.0,0.0,?,0.0,0.0
7800000.0,8.140625,2.3011021160831046E-7,7800000.0,53.0,5.864444800512734,13.284132841328415,4.081632653061228,712817.0,9216.0,0.0,1.0,0.0,?,0.0,0.0
7900000.0,8.25,2.3169430076248107E-7,7900000.0,52.1,3.254994789099932,6.627680311890844,-3.4557235421166337,722817.0,9216.0,0.0,1.0,0.0,?,0.0,0.0
8000000.0,8.34375,2.3268344294693726E-7,8000000.0,52.1,4.244430584208932,4.200000000000004,4.960317460317465,732817.0,9216.0,0.0,1.0,0.0,?,0.0,0.0
8100000.0,8.453125,2.3771255251227144E-7,8100000.0,55.7,11.411339348563386,11.57684630738524,9.591836734693885,742717.0,9216.0,0.0,1.0,0.0,?,0.0,0.0
8200000.0,8.546875,2.416545693348678E-7,8200000.0,51.800000000000004,2.9478092783505128,2.231237322515215,-5.240174672489088,752717.0,9216.0,0.0,1.0,0.0,?,0.0,0.0
8300000.0,8.65625,2.4582349902225854E-7,8300000.0,52.5,4.31643662323638,3.258655804480655,-2.8138528138528165,762717.0,9216.0,0.0,1.0,0.0,?,0.0,0.0
8400000.0,8.75,2.4902821880661767E-7,8400000.0,52.800000000000004,5.258551820762016,-0.21231422505307876,-1.2875536480686707,772717.0,9216.0,0.0,1.0,0.0,?,0.0,0.0
8500000.0,8.859375,2.523369686160649E-7,8500000.0,53.7,6.953376205787796,4.140786749482405,-2.433628318584073,782717.0,9216.0,0.0,1.0,0.0,?,0.0,0.0
8600000.0,8.953125,2.548043913621868E-7,8600000.0,55.1,9.856010536206169,6.846473029045649,6.458333333333339,792717.0,9216.0,0.0,1.0,0.0,?,0.0,0.0
8700000.0,9.09375,2.579525527026917E-7,8700000.0,51.6,3.151575787893955,2.8112449799196813,1.8255578093306306,802717.0,9216.0,0.0,1.0,0.0,?,0.0,0.0
8800000.0,9.203125,2.599710326952238E-7,8800000.0,53.900000000000006,7.740215659747525,6.6801619433198445,7.243460764587531,812717.0,9216.0,0.0,1.0,0.0,?,0.0,0.0
8900000.0,9.296875,2.613325098839898E-7,8900000.0,53.800000000000004,6.743909085403999,5.521472392638041,-2.8953229398663725,822717.0,9216.0,0.0,1.0,0.0,?,0.0,0.0
9000000.0,9.40625,2.624908099985784E-7,9000000.0,50.9,1.5850617749164229,2.1912350597609582,-0.8213552361396311,832717.0,9216.0,0.0,1.0,0.0,?,0.0,0.0
9100000.0,9.5,2.668051618254846E-7,9100000.0,53.900000000000006,6.811455924446539,8.71287128712872,-2.672605790645882,842617.0,9216.0,0.0,1.0,0.0,?,0.0,0.0
9200000.0,9.59375,2.707508651332722E-7,9200000.0,53.400000000000006,5.855542805424016,8.806262230919772,-0.8658008658008667,852617.0,9216.0,0.0,1.0,0.0,?,0.0,0.0
9300000.0,9.703125,2.7492409572005266E-7,9300000.0,55.1,9.905932965198403,4.872881355932208,7.039337474120089,862617.0,9216.0,0.0,1.0,0.0,?,0.0,0.0
9400000.0,9.8125,2.7866723636786135E-7,9400000.0,54.400000000000006,8.360128617363358,12.476007677543196,2.978723404255322,872617.0,9216.0,0.0,1.0,0.0,?,0.0,0.0
9500000.0,9.90625,2.8150699411829306E-7,9500000.0,54.7,9.104772300431819,0.0,3.821656050955417,882617.0,9216.0,0.0,1.0,0.0,?,0.0,0.0
9600000.0,10.015625,2.843899548881583E-7,9600000.0,50.8,1.4549416741443282,6.285714285714292,0.0,892617.0,9216.0,0.0,1.0,0.0,?,0.0,0.0
9700000.0,10.125,2.8684282571905185E-7,9700000.0,51.4,2.7252930250432255,2.6052104208416855,-0.8298755186721999,902617.0,9216.0,0.0,1.0,0.0,?,0.0,0.0
9800000.0,10.234375,2.888656066109736E-7,9800000.0,50.9,1.2151939481731722,1.6032064128256525,-6.7391304347826155,912617.0,9216.0,0.0,1.0,0.0,?,0.0,0.0
9900000.0,10.34375,2.9045829756392366E-7,9900000.0,50.5,0.6351322054584545,3.3203125000000027,-2.6970954356846497,922617.0,9216.0,0.0,1.0,0.0,?,0.0,0.0
1.0E7,10.4375,2.914548127187622E-7,1.0E7,53.800000000000004,6.826661288696187,8.514851485148522,2.7368421052631606,932617.0,9216.0,0.0,1.0,0.0,?,0.0,0.0
