learning evaluation instances,evaluation time (cpu seconds),model cost (RAM-Hours),classified instances,classifications correct (percent),Kappa Statistic (percent),Kappa Temporal Statistic (percent),Kappa M Statistic (percent),model training instances,model serialized size (bytes),labeling cost,newThreshold,maxPosterior,accuracyBaseLearner (percent),Change detected,Warning detected
100000.0,0.703125,1.464941306039691E-8,100000.0,72.39999999999999,38.87449338914357,40.64516129032258,25.203252032520318,19900.0,2904.0,0.0,1.0,0.0,?,0.0,64.0
200000.0,1.421875,2.679806332000428E-8,200000.0,71.3,38.199295428901195,41.42857142857142,22.641509433962252,39900.0,2904.0,0.0,1.0,0.0,?,0.0,0.0
300000.0,2.109375,3.5715088920874726E-8,300000.0,72.6,41.02149056343848,44.646464646464636,30.102040816326525,59900.0,2904.0,0.0,1.0,0.0,?,0.0,84.0
400000.0,2.796875,4.192442348640826E-8,400000.0,72.39999999999999,40.586130736344494,39.34065934065933,27.55905511811023,79900.0,2904.0,0.0,1.0,0.0,?,0.0,6.0
500000.0,3.484375,4.5428912724471754E-8,500000.0,70.5,36.26417311946902,37.100213219616194,20.485175202156324,99900.0,2904.0,0.0,1.0,0.0,?,0.0,62.0
600000.0,4.203125,6.040386829732193E-8,600000.0,73.0,41.77420467876613,43.514644351464426,27.807486631016037,119800.0,2904.0,0.0,1.0,0.0,?,0.0,4.0
700000.0,4.890625,7.202431637172898E-8,700000.0,73.8,42.7947598253275,40.18264840182648,27.222222222222214,139800.0,2904.0,0.0,1.0,0.0,?,0.0,16.0
800000.0,5.609375,8.134666131809354E-8,800000.0,72.0,38.723344654924894,40.42553191489361,22.65193370165745,159800.0,2904.0,0.0,1.0,0.0,?,0.0,0.0
900000.0,6.3125,8.770148269832135E-8,900000.0,72.6,39.15978328448352,38.56502242152465,22.598870056497162,179800.0,2904.0,0.0,1.0,0.0,?,0.0,0.0
1000000.0,6.984375,9.113188651907776E-8,1000000.0,75.9,47.782602289765386,50.513347022587276,36.910994764397905,199800.0,2904.0,0.0,1.0,0.0,?,0.0,0.0
1100000.0,7.65625,1.0515663436510498E-7,1100000.0,72.89999999999999,41.56460238054165,42.827004219409275,28.684210526315784,219700.0,2904.0,0.0,1.0,0.0,?,0.0,0.0
1200000.0,8.34375,1.168041166642474E-7,1200000.0,72.3,40.908431534844816,42.76859504132231,28.23834196891191,239700.0,2904.0,0.0,1.0,0.0,?,0.0,0.0
1300000.0,9.03125,1.257481764898532E-7,1300000.0,73.9,42.91288637695867,43.62850971922246,30.769230769230766,259700.0,2904.0,0.0,1.0,0.0,?,0.0,0.0
1400000.0,9.71875,1.3198881384192242E-7,1400000.0,72.39999999999999,40.98251286196323,42.85714285714285,30.478589420654913,279700.0,2904.0,0.0,1.0,0.0,?,0.0,0.0
1500000.0,10.40625,1.3552602872045503E-7,1500000.0,73.9,43.15855496415287,45.511482254697285,31.675392670157066,299700.0,2904.0,0.0,1.0,0.0,?,0.0,0.0
1600000.0,11.0625,1.4922461963983046E-7,1600000.0,72.1,40.99084617857565,40.764331210191074,29.72292191435768,319600.0,2904.0,0.0,1.0,0.0,?,0.0,0.0
1700000.0,11.734375,1.6060738643217418E-7,1700000.0,73.2,40.36201149143926,44.628099173553714,24.92997198879551,339600.0,2904.0,0.0,1.0,0.0,?,0.0,0.0
1800000.0,12.4375,1.697547203447256E-7,1800000.0,73.3,42.80989752904485,41.575492341356664,31.713554987212273,359600.0,2904.0,0.0,1.0,0.0,?,0.0,0.0
1900000.0,13.125,1.759953576967948E-7,1900000.0,71.0,36.911811414176135,35.55555555555554,19.220055710306394,379600.0,2904.0,0.0,1.0,0.0,?,0.0,0.0
2000000.0,13.8125,1.7953257257532742E-7,2000000.0,72.3,40.32744506678155,43.584521384928706,30.75,399600.0,2904.0,0.0,1.0,0.0,?,0.0,0.0
2100000.0,14.5,1.938749402244058E-7,2100000.0,71.89999999999999,40.33970276008492,38.64628820960698,29.75,419500.0,2904.0,0.0,1.0,0.0,?,0.0,14.0
2200000.0,15.171875,2.0528412682728634E-7,2200000.0,72.8,42.540390725343066,45.599999999999994,31.313131313131308,439500.0,2904.0,0.0,1.0,0.0,?,0.0,67.0
2300000.0,15.875,2.144416470804976E-7,2300000.0,74.4,42.807354616742245,40.74074074074075,25.797101449275356,459500.0,2904.0,0.0,1.0,0.0,?,0.0,48.0
2400000.0,16.5625,2.2070931865730218E-7,2400000.0,72.3,39.4985147649834,39.38730853391684,23.90109890109889,479500.0,2904.0,0.0,1.0,0.0,?,0.0,41.0
2500000.0,17.25,2.2427356776057016E-7,2500000.0,73.1,40.70135527162748,42.02586206896551,26.502732240437155,499500.0,2904.0,0.0,1.0,0.0,?,0.0,40.0
2600000.0,17.953125,2.3897827809883486E-7,2600000.0,72.3,40.34800585752433,43.23770491803278,24.72826086956521,519400.0,2904.0,0.0,1.0,0.0,?,0.0,41.0
2700000.0,18.625,2.503874647017154E-7,2700000.0,72.1,37.62352330957512,39.21568627450979,22.9281767955801,539400.0,2904.0,0.0,1.0,0.0,?,0.0,0.0
2800000.0,19.3125,2.593585587520566E-7,2800000.0,73.8,43.84815856251286,43.41252699784017,31.770833333333332,559400.0,2904.0,0.0,1.0,0.0,?,0.0,3.0
2900000.0,19.984375,2.65478221182194E-7,2900000.0,73.8,42.7987564187655,44.72573839662447,30.687830687830687,579400.0,2904.0,0.0,1.0,0.0,?,0.0,25.0
3000000.0,20.6875,2.6911765518080853E-7,3000000.0,73.8,42.663311084363706,43.53448275862068,30.503978779840846,599400.0,2904.0,0.0,1.0,0.0,?,0.0,0.0
3100000.0,21.34375,2.8285834964157804E-7,3100000.0,75.9,45.80957349211204,46.68141592920353,31.728045325779036,619300.0,2904.0,0.0,1.0,0.0,?,0.0,14.0
3200000.0,22.015625,2.9429395605499544E-7,3200000.0,73.0,41.70178953914185,40.265486725663706,27.41935483870967,639300.0,2904.0,0.0,1.0,0.0,?,0.0,19.0
3300000.0,22.71875,3.0349658724541466E-7,3300000.0,73.8,42.852406524422946,44.72573839662447,29.38005390835579,659300.0,2904.0,0.0,1.0,0.0,?,0.0,0.0
3400000.0,23.40625,3.097912930469546E-7,3400000.0,73.2,41.0582247968928,43.57894736842105,25.761772853185587,679300.0,2904.0,0.0,1.0,0.0,?,0.0,0.0
3500000.0,24.09375,3.133825763749579E-7,3500000.0,71.89999999999999,39.58392459385776,37.2767857142857,25.661375661375658,699300.0,2904.0,0.0,1.0,0.0,?,0.0,0.0
3600000.0,24.78125,3.2778754959710767E-7,3600000.0,75.1,44.633692954915375,47.13375796178344,30.446927374301673,719200.0,2904.0,0.0,1.0,0.0,?,0.0,0.0
3700000.0,25.484375,3.397550446809166E-7,3700000.0,72.7,39.98944869427591,39.33333333333332,24.166666666666657,739200.0,2904.0,0.0,1.0,0.0,?,0.0,0.0
3800000.0,26.171875,3.4875317295599316E-7,3800000.0,74.1,44.17670336491625,45.243128964059196,32.375979112271544,759200.0,2904.0,0.0,1.0,0.0,?,0.0,0.0
3900000.0,26.90625,3.5547706324400175E-7,3900000.0,73.3,43.03635432667691,42.94871794871794,30.649350649350648,779200.0,2904.0,0.0,1.0,0.0,?,0.0,0.0
4000000.0,27.609375,3.5914996664764157E-7,4000000.0,74.6,44.98544496811755,44.78260869565217,34.196891191709845,799200.0,2904.0,0.0,1.0,0.0,?,0.0,0.0
4100000.0,28.296875,3.7358197409452665E-7,4100000.0,70.0,35.41164312779882,35.20518358531316,21.05263157894736,819100.0,2904.0,0.0,1.0,0.0,?,0.0,0.0
4200000.0,29.015625,3.8584367656666373E-7,4200000.0,73.8,41.680578742348345,44.608879492600416,26.19718309859154,839100.0,2904.0,0.0,1.0,0.0,?,0.0,0.0
4300000.0,29.703125,3.9486883906647563E-7,4300000.0,72.89999999999999,42.241621838208324,43.892339544513455,31.909547738693465,859100.0,2904.0,0.0,1.0,0.0,?,0.0,0.0
4400000.0,30.375,4.010469031830629E-7,4400000.0,71.1,35.604912743542656,40.41237113402061,17.897727272727256,879100.0,2904.0,0.0,1.0,0.0,?,0.0,0.0
4500000.0,31.078125,4.0474745522563655E-7,4500000.0,73.3,42.33859124755965,44.14225941422594,28.98936170212766,899100.0,2904.0,0.0,1.0,0.0,?,0.0,0.0
4600000.0,31.765625,4.1917946267252164E-7,4600000.0,73.6,41.93207812774942,43.34763948497854,29.411764705882348,919000.0,2904.0,0.0,1.0,0.0,?,0.0,0.0
4700000.0,32.453125,4.3090804764587013E-7,4700000.0,73.1,40.18660001956721,39.00226757369614,24.86033519553072,939000.0,2904.0,0.0,1.0,0.0,?,0.0,0.0
4800000.0,33.125,4.3972809281614086E-7,4800000.0,71.89999999999999,39.19275679699468,41.58004158004157,25.464190981432356,959000.0,2904.0,0.0,1.0,0.0,?,0.0,0.0
4900000.0,33.8125,4.4604983284241617E-7,4900000.0,73.2,40.26710411354598,42.11663066954643,25.966850828729278,979000.0,2904.0,0.0,1.0,0.0,?,0.0,0.0
5000000.0,34.5,4.499427612043089E-7,5000000.0,72.8,39.21923532435028,42.127659574468076,23.380281690140837,999000.0,2904.0,0.0,1.0,0.0,?,0.0,20.0
5100000.0,35.171875,4.644750475159121E-7,5100000.0,46.800000000000004,-2.8790668172465677,-7.692307692307689,-17.180616740088112,1018900.0,2904.0,0.0,1.0,0.0,?,0.0,1.0
5200000.0,35.875,4.769183902276886E-7,5200000.0,59.5,18.577253098085247,17.515274949083494,15.271966527196643,1840.0,2904.0,0.0,1.0,0.0,?,5.0,54.0
5300000.0,36.578125,4.865968690460754E-7,5300000.0,57.9,15.338084589520404,14.777327935222662,7.675438596491212,21840.0,2904.0,0.0,1.0,0.0,?,0.0,37.0
5400000.0,37.25,4.932032121966282E-7,5400000.0,59.3,18.289500100381442,16.768916155419216,9.555555555555541,41840.0,2904.0,0.0,1.0,0.0,?,0.0,0.0
5500000.0,37.9375,4.972597687608666E-7,5500000.0,60.3,20.05123165407354,18.979591836734688,12.938596491228058,61840.0,2904.0,0.0,1.0,0.0,?,0.0,0.0
5600000.0,38.625,5.121300152192513E-7,5600000.0,61.1,21.986555215068417,18.44863731656184,16.163793103448267,81740.0,2904.0,0.0,1.0,0.0,?,0.0,0.0
5700000.0,39.3125,5.242968392040994E-7,5700000.0,61.3,21.959443109038972,19.542619542619537,12.641083521444681,101740.0,2904.0,0.0,1.0,0.0,?,0.0,0.0
5800000.0,39.984375,5.335451634083357E-7,5800000.0,58.8,16.935483870967737,15.400410677618062,8.444444444444429,121740.0,2904.0,0.0,1.0,0.0,?,0.0,0.0
5900000.0,40.6875,5.404587783333328E-7,5900000.0,61.0,21.739549219803504,23.52941176470588,17.721518987341767,141740.0,2904.0,0.0,1.0,0.0,?,0.0,0.0
6000000.0,41.375,5.445153348975711E-7,6000000.0,63.3,26.115911451832396,24.64065708418891,20.39045553145336,161740.0,2904.0,0.0,1.0,0.0,?,0.0,0.0
6100000.0,42.046875,5.590740410197112E-7,6100000.0,59.699999999999996,18.226385078648768,19.399999999999995,10.044642857142842,181640.0,2904.0,0.0,1.0,0.0,?,0.0,0.0
6200000.0,42.71875,5.709907660881679E-7,6200000.0,58.9,16.907923466334555,12.366737739872056,9.868421052631565,201640.0,2904.0,0.0,1.0,0.0,?,0.0,0.0
6300000.0,43.4375,5.809125852667624E-7,6300000.0,61.3,22.517558682438114,20.04132231404958,19.542619542619537,221640.0,2904.0,0.0,1.0,0.0,?,0.0,0.0
6400000.0,44.140625,5.878538488306934E-7,6400000.0,58.4,16.314961516952255,17.948717948717942,13.152400835073058,241640.0,2904.0,0.0,1.0,0.0,?,0.0,0.0
6500000.0,44.828125,5.91937439619667E-7,6500000.0,59.9,19.438439717451896,20.278330019880713,14.132762312633822,261640.0,2904.0,0.0,1.0,0.0,?,0.0,0.0
6600000.0,45.515625,6.068347203027871E-7,6600000.0,60.199999999999996,19.43026264114885,20.399999999999995,9.75056689342402,281540.0,2904.0,0.0,1.0,0.0,?,0.0,0.0
6700000.0,46.203125,6.190285785123706E-7,6700000.0,61.5,22.721798474508223,21.588594704684315,18.947368421052627,301540.0,2904.0,0.0,1.0,0.0,?,0.0,0.0
6800000.0,46.890625,6.285190142484174E-7,6800000.0,61.4,22.182439842590803,23.41269841269841,17.521367521367516,321540.0,2904.0,0.0,1.0,0.0,?,0.0,0.0
6900000.0,47.59375,6.354602778123484E-7,6900000.0,61.5,22.653487624558018,23.306772908366533,17.20430107526881,341540.0,2904.0,0.0,1.0,0.0,?,0.0,0.0
7000000.0,48.265625,6.394510597197545E-7,7000000.0,57.699999999999996,15.30785494618144,12.962962962962951,12.422360248447193,361540.0,2904.0,0.0,1.0,0.0,?,0.0,0.0
7100000.0,48.953125,6.5437537462761E-7,7100000.0,61.7,22.472774381603987,23.552894211576845,15.638766519823779,381440.0,2904.0,0.0,1.0,0.0,?,0.0,0.0
7200000.0,49.625,6.663185195066034E-7,7200000.0,57.599999999999994,14.307426150786567,16.039603960396033,7.423580786026183,401440.0,2904.0,0.0,1.0,0.0,?,0.0,0.0
7300000.0,50.328125,6.760522956028581E-7,7300000.0,61.9,23.42693603234961,18.93617021276595,16.8122270742358,421440.0,2904.0,0.0,1.0,0.0,?,0.0,0.0
7400000.0,51.0,6.827114783744845E-7,7400000.0,60.0,19.356464587407498,17.864476386036955,9.706546275395018,441440.0,2904.0,0.0,1.0,0.0,?,0.0,0.0
7500000.0,51.65625,6.866352567966613E-7,7500000.0,60.8,20.90618909070365,21.7564870259481,12.694877505567916,461440.0,2904.0,0.0,1.0,0.0,?,0.0,0.0
7600000.0,52.328125,7.012203827293382E-7,7600000.0,60.199999999999996,20.184498144991476,22.417153996101362,15.856236786469335,481340.0,2904.0,0.0,1.0,0.0,?,0.0,0.0
7700000.0,53.015625,7.134412751636571E-7,7700000.0,57.099999999999994,13.483644577098358,15.049504950495042,8.723404255319133,501340.0,2904.0,0.0,1.0,0.0,?,0.0,0.0
7800000.0,53.703125,7.229587451244394E-7,7800000.0,60.4,20.51480712797516,19.18367346938775,16.98113207547169,521340.0,2904.0,0.0,1.0,0.0,?,0.0,0.0
7900000.0,54.40625,7.299276573273043E-7,7900000.0,60.6,20.98666399278051,18.426501035196683,16.70190274841437,541340.0,2904.0,0.0,1.0,0.0,?,0.0,0.0
8000000.0,55.078125,7.339448590452472E-7,8000000.0,58.4,16.05964607841158,14.403292181069949,8.571428571428555,561340.0,2904.0,0.0,1.0,0.0,?,0.0,0.0
8100000.0,55.75,7.48556404788461E-7,8100000.0,59.0,17.327042122880236,16.155419222903877,11.447084233261325,581240.0,2904.0,0.0,1.0,0.0,?,0.0,0.0
8200000.0,56.4375,7.608043314475153E-7,8200000.0,59.5,18.560225216167293,22.115384615384613,14.37632135306553,601240.0,2904.0,0.0,1.0,0.0,?,0.0,0.0
8300000.0,57.125,7.703488356330329E-7,8300000.0,59.099999999999994,18.12729703977131,18.687872763419477,17.540322580645153,621240.0,2904.0,0.0,1.0,0.0,?,0.0,0.0
8400000.0,57.8125,7.771899173450139E-7,8400000.0,60.099999999999994,19.38742524648455,18.571428571428566,12.307692307692296,641240.0,2904.0,0.0,1.0,0.0,?,0.0,0.0
8500000.0,58.484375,7.812335388734937E-7,8500000.0,59.5,18.61913756379857,18.674698795180717,12.526997840172774,661240.0,2904.0,0.0,1.0,0.0,?,0.0,0.0
8600000.0,59.171875,7.961848880060845E-7,8600000.0,59.0,17.514324341724056,20.388349514563103,9.691629955947121,681140.0,2904.0,0.0,1.0,0.0,?,0.0,0.0
8700000.0,59.859375,8.084328146651387E-7,8700000.0,59.199999999999996,17.85587733144348,20.93023255813953,10.132158590308356,701140.0,2904.0,0.0,1.0,0.0,?,0.0,0.0
8800000.0,60.53125,8.177603983009855E-7,8800000.0,57.99999999999999,15.345792282761156,11.01694915254236,7.488986784140953,721140.0,2904.0,0.0,1.0,0.0,?,0.0,0.0
8900000.0,61.21875,8.246014800129665E-7,8900000.0,56.599999999999994,12.503880876251438,12.49999999999999,3.3407572383073285,741140.0,2904.0,0.0,1.0,0.0,?,0.0,0.0
9000000.0,61.90625,8.287391392514109E-7,9000000.0,59.199999999999996,17.24809346097678,19.04761904761904,7.692307692307675,761140.0,2904.0,0.0,1.0,0.0,?,0.0,0.0
9100000.0,62.59375,8.437175226087371E-7,9100000.0,57.9,15.61435157346161,18.56866537717601,13.905930470347638,781040.0,2904.0,0.0,1.0,0.0,?,0.0,0.0
9200000.0,63.296875,8.562714598762491E-7,9200000.0,57.699999999999996,15.148840568081507,14.198782961460438,8.63930885529156,801040.0,2904.0,0.0,1.0,0.0,?,0.0,0.0
9300000.0,63.96875,8.656254633226327E-7,9300000.0,62.2,24.198975683512668,24.85089463220676,18.00433839479392,821040.0,2904.0,0.0,1.0,0.0,?,0.0,0.0
9400000.0,64.65625,8.724935792593491E-7,9400000.0,59.3,17.89388743191446,16.5983606557377,10.94091903719911,841040.0,2904.0,0.0,1.0,0.0,?,0.0,0.0
9500000.0,65.34375,8.766582727225289E-7,9500000.0,62.8,24.72348020348943,26.190476190476193,13.286713286713297,861040.0,2904.0,0.0,1.0,0.0,?,0.0,0.0
9600000.0,66.015625,8.912962382762794E-7,9600000.0,57.599999999999994,14.926061919380395,17.669902912621353,11.111111111111098,880940.0,2904.0,0.0,1.0,0.0,?,0.0,0.0
9700000.0,66.703125,9.03571199160069E-7,9700000.0,61.5,22.50527366709069,21.106557377049175,18.25902335456475,900940.0,2904.0,0.0,1.0,0.0,?,0.0,0.0
9800000.0,67.375,9.129252026064526E-7,9800000.0,57.099999999999994,14.19999999999999,13.855421686746977,10.062893081760993,920940.0,2904.0,0.0,1.0,0.0,?,0.0,0.0
9900000.0,68.0625,9.197933185431691E-7,9900000.0,60.9,21.38744129189988,21.799999999999997,16.452991452991444,940940.0,2904.0,0.0,1.0,0.0,?,0.0,0.0
1.0E7,68.75,9.239580120063488E-7,1.0E7,57.599999999999994,14.484750452787079,16.535433070866134,5.5679287305122305,960940.0,2904.0,0.0,1.0,0.0,?,0.0,0.0
