learning evaluation instances,evaluation time (cpu seconds),model cost (RAM-Hours),classified instances,classifications correct (percent),Kappa Statistic (percent),Kappa Temporal Statistic (percent),Kappa M Statistic (percent),model training instances,model serialized size (bytes),labeling cost,newThreshold,maxPosterior,accuracyBaseLearner (percent),Change detected,Warning detected,tree size (nodes),tree size (leaves),active learning leaves,tree depth,active leaf byte size estimate,inactive leaf byte size estimate,byte size estimate overhead
100000.0,0.28125,1.3650278560817241E-8,100000.0,89.5,77.7772133895464,75.58139534883722,67.08463949843261,9900.0,12656.0,0.0,1.0,0.0,?,0.0,0.0,5.0,3.0,3.0,2.0,0.0,0.0,1.0
200000.0,0.546875,2.5552678077171247E-8,200000.0,90.8,80.50740083140172,78.85057471264368,71.86544342507646,19900.0,12656.0,0.0,1.0,0.0,?,0.0,0.0,5.0,3.0,3.0,2.0,0.0,0.0,1.0
300000.0,0.8125,3.710104566481378E-8,300000.0,90.10000000000001,79.2168750577309,77.34553775743707,70.71005917159763,29900.0,21856.0,0.0,1.0,0.0,?,0.0,0.0,9.0,5.0,5.0,4.0,0.0,0.0,1.0
400000.0,1.09375,4.828099109646346E-8,400000.0,90.3,79.5703454085931,77.44186046511629,70.78313253012048,39900.0,21856.0,0.0,1.0,0.0,?,0.0,0.0,9.0,5.0,5.0,4.0,0.0,0.0,1.0
500000.0,1.34375,5.728739779442548E-8,500000.0,88.0,74.7788949793187,71.42857142857143,62.732919254658384,49900.0,21856.0,0.0,1.0,0.0,?,0.0,0.0,9.0,5.0,5.0,4.0,0.0,0.0,1.0
600000.0,1.640625,6.68765601908995E-8,600000.0,91.9,82.70413392552102,80.98591549295776,75.82089552238807,59900.0,21856.0,0.0,1.0,0.0,?,0.0,0.0,9.0,5.0,5.0,4.0,0.0,0.0,1.0
700000.0,1.90625,7.446680683642625E-8,700000.0,89.8,78.8170792490447,76.33410672853829,70.52023121387285,69900.0,21856.0,0.0,1.0,0.0,?,0.0,0.0,9.0,5.0,5.0,4.0,0.0,0.0,1.0
800000.0,2.171875,8.107576933172014E-8,800000.0,93.10000000000001,85.1625666609324,84.66666666666669,80.17241379310346,79900.0,21976.0,0.0,1.0,0.0,?,0.0,0.0,9.0,5.0,5.0,4.0,0.0,0.0,1.0
900000.0,2.421875,8.666680918799506E-8,900000.0,93.2,85.20710059171599,84.29561200923789,79.51807228915663,89900.0,26624.0,0.0,1.0,0.0,?,0.0,0.0,11.0,6.0,6.0,5.0,0.0,0.0,1.0
1000000.0,2.6875,9.369962046750717E-8,1000000.0,93.60000000000001,85.6986436057295,84.94117647058826,79.93730407523513,99900.0,57016.0,0.0,1.0,0.0,?,0.0,0.0,31.0,25.0,25.0,6.0,0.0,0.0,1.0
1100000.0,2.953125,1.0971791602464185E-7,1100000.0,91.9,82.01678433462104,80.98591549295776,74.28571428571429,109800.0,58032.0,0.0,1.0,0.0,?,0.0,0.0,31.0,25.0,25.0,6.0,0.0,0.0,1.0
1200000.0,3.21875,1.2474888030232654E-7,1200000.0,93.5,85.91219613690745,85.99137931034484,81.32183908045978,119800.0,58064.0,0.0,1.0,0.0,?,0.0,0.0,31.0,25.0,25.0,6.0,0.0,0.0,1.0
1300000.0,3.484375,1.387963614736994E-7,1300000.0,92.5,83.57625871553205,83.29621380846326,77.40963855421687,129800.0,58152.0,0.0,1.0,0.0,?,0.0,0.0,31.0,25.0,25.0,6.0,0.0,0.0,1.0
1400000.0,3.75,1.518543124095433E-7,1400000.0,93.10000000000001,84.76632872937935,84.90153172866522,78.89908256880736,139800.0,58152.0,0.0,1.0,0.0,?,0.0,0.0,31.0,25.0,25.0,6.0,0.0,0.0,1.0
1500000.0,4.03125,1.6463496851631336E-7,1500000.0,91.7,81.80143834415016,78.98734177215191,73.81703470031546,149800.0,58184.0,0.0,1.0,0.0,?,0.0,0.0,31.0,25.0,25.0,6.0,0.0,0.0,1.0
1600000.0,4.28125,1.7509837764211828E-7,1600000.0,94.5,87.94546968833559,87.83185840707964,83.72781065088756,159800.0,58712.0,0.0,1.0,0.0,?,0.0,0.0,31.0,25.0,25.0,6.0,0.0,0.0,1.0
1700000.0,4.546875,1.8522896829785573E-7,1700000.0,92.30000000000001,82.30779835485504,81.83962264150945,73.89830508474579,169800.0,58752.0,0.0,1.0,0.0,?,0.0,0.0,31.0,25.0,25.0,6.0,0.0,0.0,1.0
1800000.0,4.796875,1.9383335408444206E-7,1800000.0,93.8,86.49172727233112,85.68129330254041,81.8181818181818,179800.0,58768.0,0.0,1.0,0.0,?,0.0,0.0,31.0,25.0,25.0,6.0,0.0,0.0,1.0
1900000.0,5.0625,2.019859837471611E-7,1900000.0,92.10000000000001,83.40294293133441,82.75109170305677,78.17679558011051,189800.0,58768.0,0.0,1.0,0.0,?,0.0,0.0,31.0,25.0,25.0,6.0,0.0,0.0,1.0
2000000.0,5.34375,2.0957044196418592E-7,2000000.0,91.8,81.74597521014391,80.28846153846155,74.05063291139241,199800.0,58768.0,0.0,1.0,0.0,?,0.0,0.0,31.0,25.0,25.0,6.0,0.0,0.0,1.0
2100000.0,5.609375,2.2564920881349182E-7,2100000.0,93.5,85.55773794182213,84.88372093023257,80.24316109422493,209700.0,58768.0,0.0,1.0,0.0,?,0.0,0.0,31.0,25.0,25.0,6.0,0.0,0.0,1.0
2200000.0,5.890625,2.416260475810203E-7,2200000.0,92.2,82.65610616241891,81.56028368794327,74.91961414790998,219700.0,58768.0,0.0,1.0,0.0,?,0.0,0.0,31.0,25.0,25.0,6.0,0.0,0.0,1.0
2300000.0,6.171875,2.565563126053247E-7,2300000.0,93.30000000000001,85.42388220756393,85.07795100222718,80.05952380952382,229700.0,58784.0,0.0,1.0,0.0,?,0.0,0.0,31.0,25.0,25.0,6.0,0.0,0.0,1.0
2400000.0,6.453125,2.7072405727166266E-7,2400000.0,93.10000000000001,84.95000785216983,84.17431192660551,78.50467289719627,239700.0,62680.0,0.0,1.0,0.0,?,0.0,0.0,33.0,26.0,26.0,6.0,0.0,0.0,1.0
2500000.0,6.75,2.845729533065524E-7,2500000.0,91.8,82.44915606124817,81.53153153153154,75.22658610271904,249700.0,62680.0,0.0,1.0,0.0,?,0.0,0.0,33.0,26.0,26.0,6.0,0.0,0.0,1.0
2600000.0,7.046875,2.973159037840863E-7,2600000.0,92.2,83.13185268484679,82.89473684210526,75.70093457943926,259700.0,62680.0,0.0,1.0,0.0,?,0.0,0.0,33.0,26.0,26.0,6.0,0.0,0.0,1.0
2700000.0,7.34375,3.0931479866719906E-7,2700000.0,90.9,80.24693501892823,76.78571428571429,70.73954983922832,269700.0,67368.0,0.0,1.0,0.0,?,0.0,0.0,35.0,27.0,27.0,6.0,0.0,0.0,1.0
2800000.0,7.625,3.196344348705477E-7,2800000.0,90.3,78.75527832775569,77.23004694835682,67.55852842809365,279700.0,67368.0,0.0,1.0,0.0,?,0.0,0.0,35.0,27.0,27.0,6.0,0.0,0.0,1.0
2900000.0,7.921875,3.310232164545191E-7,2900000.0,91.5,82.10722194622905,81.35964912280701,75.4335260115607,289700.0,88352.0,0.0,1.0,0.0,?,0.0,0.0,55.0,46.0,46.0,7.0,0.0,0.0,1.0
3000000.0,8.234375,3.452148909370104E-7,3000000.0,92.7,84.3058004041794,84.53389830508475,78.14371257485031,299700.0,129848.0,0.0,1.0,0.0,?,0.0,0.0,55.0,46.0,46.0,7.0,0.0,0.0,1.0
3100000.0,8.515625,3.6783613419781125E-7,3100000.0,91.3,80.89574787657337,79.5774647887324,72.02572347266883,309600.0,135448.0,0.0,1.0,0.0,?,0.0,0.0,55.0,46.0,46.0,7.0,0.0,0.0,1.0
3200000.0,8.8125,3.910026215534243E-7,3200000.0,90.5,79.7453456936473,77.90697674418605,70.85889570552148,319600.0,140568.0,0.0,1.0,0.0,?,0.0,0.0,55.0,46.0,46.0,7.0,0.0,0.0,1.0
3300000.0,9.109375,4.1307299397885794E-7,3300000.0,91.4,81.11384399156711,80.7606263982103,72.61146496815287,329600.0,140696.0,0.0,1.0,0.0,?,0.0,0.0,55.0,46.0,46.0,7.0,0.0,0.0,1.0
3400000.0,9.40625,4.340429505747225E-7,3400000.0,92.9,84.56199554689675,84.15178571428572,77.88161993769471,339600.0,140768.0,0.0,1.0,0.0,?,0.0,0.0,55.0,46.0,46.0,7.0,0.0,0.0,1.0
3500000.0,9.6875,4.528987402510311E-7,3500000.0,91.8,82.64219639719735,81.85840707964603,76.23188405797102,349600.0,141280.0,0.0,1.0,0.0,?,0.0,0.0,55.0,46.0,46.0,7.0,0.0,0.0,1.0
3600000.0,10.0,4.7268934496161E-7,3600000.0,93.4,84.96665330369184,84.01937046004844,77.55102040816328,359600.0,141328.0,0.0,1.0,0.0,?,0.0,0.0,55.0,46.0,46.0,7.0,0.0,0.0,1.0
3700000.0,10.28125,4.894560616877343E-7,3700000.0,90.5,79.19677659527878,78.55530474040633,68.64686468646866,369600.0,141368.0,0.0,1.0,0.0,?,0.0,0.0,55.0,46.0,46.0,7.0,0.0,0.0,1.0
3800000.0,10.578125,5.060495459474622E-7,3800000.0,92.10000000000001,83.3584711701312,81.54205607476636,77.6203966005666,379600.0,141384.0,0.0,1.0,0.0,?,0.0,0.0,55.0,46.0,46.0,7.0,0.0,0.0,1.0
3900000.0,10.859375,5.207248614169657E-7,3900000.0,91.3,81.50714631885931,80.4932735426009,73.95209580838325,389600.0,141424.0,0.0,1.0,0.0,?,0.0,0.0,55.0,46.0,46.0,7.0,0.0,0.0,1.0
4000000.0,11.140625,5.343559314496815E-7,4000000.0,92.60000000000001,84.03128142492761,83.33333333333334,77.50759878419454,399600.0,141472.0,0.0,1.0,0.0,?,0.0,0.0,55.0,46.0,46.0,7.0,0.0,0.0,1.0
4100000.0,11.421875,5.574282840825616E-7,4100000.0,93.0,84.80850029514914,83.8709677419355,78.65853658536587,409500.0,141488.0,0.0,1.0,0.0,?,0.0,0.0,55.0,46.0,46.0,7.0,0.0,0.0,1.0
4200000.0,11.703125,5.822235834784805E-7,4200000.0,91.2,80.90211465675891,79.04761904761905,73.17073170731709,419500.0,179632.0,0.0,1.0,0.0,?,0.0,0.0,75.0,65.0,65.0,7.0,0.0,0.0,1.0
4300000.0,12.015625,6.120032695535983E-7,4300000.0,92.4,83.12850749449457,82.28438228438229,76.82926829268294,429500.0,221448.0,0.0,1.0,0.0,?,0.0,0.0,75.0,65.0,65.0,7.0,0.0,0.0,1.0
4400000.0,12.296875,6.378497993056144E-7,4400000.0,94.19999999999999,86.82967591919778,85.9903381642512,81.64556962025314,439500.0,222720.0,0.0,1.0,0.0,?,0.0,0.0,75.0,65.0,65.0,7.0,0.0,0.0,1.0
4500000.0,12.59375,6.64084056754493E-7,4500000.0,93.60000000000001,85.84014407653403,86.26609442060087,81.23167155425222,449500.0,223472.0,0.0,1.0,0.0,?,0.0,0.0,75.0,65.0,65.0,7.0,0.0,0.0,1.0
4600000.0,12.890625,6.892467758411334E-7,4600000.0,93.7,85.73175703220546,85.96881959910915,80.00000000000001,459500.0,223920.0,0.0,1.0,0.0,?,0.0,0.0,75.0,65.0,65.0,7.0,0.0,0.0,1.0
4700000.0,13.1875,7.133090790982047E-7,4700000.0,94.19999999999999,86.61324273422207,85.35353535353534,81.04575163398692,469500.0,223992.0,0.0,1.0,0.0,?,0.0,0.0,75.0,65.0,65.0,7.0,0.0,0.0,1.0
4800000.0,13.46875,7.350583715985218E-7,4800000.0,95.19999999999999,89.04949627682872,88.40579710144927,84.6153846153846,479500.0,224008.0,0.0,1.0,0.0,?,0.0,0.0,75.0,65.0,65.0,7.0,0.0,0.0,1.0
4900000.0,13.75,7.557610903556147E-7,4900000.0,93.0,84.48217001334535,84.40979955456571,78.72340425531917,489500.0,224024.0,0.0,1.0,0.0,?,0.0,0.0,75.0,65.0,65.0,7.0,0.0,0.0,1.0
5000000.0,14.03125,7.756599613154927E-7,5000000.0,93.7,86.25714410366041,85.90604026845638,81.79190751445088,499500.0,224064.0,0.0,1.0,0.0,?,0.0,0.0,75.0,65.0,65.0,7.0,0.0,0.0,1.0
5100000.0,14.53125,8.13056701897747E-7,5100000.0,62.6,22.31154317525602,18.340611353711783,-4.761904761904766,9782.0,95880.0,0.0,1.0,0.0,?,1.0,19.0,25.0,22.0,22.0,2.0,0.0,0.0,1.0
5200000.0,14.953125,8.443631102434463E-7,5200000.0,66.3,31.269375101974223,28.60169491525424,11.08179419525067,19782.0,95888.0,0.0,1.0,0.0,?,0.0,0.0,25.0,22.0,22.0,2.0,0.0,0.0,1.0
5300000.0,15.359375,8.730226868970526E-7,5300000.0,61.0,20.80382091104035,21.37096774193548,-2.094240837696337,29782.0,96128.0,0.0,1.0,0.0,?,0.0,0.0,27.0,23.0,23.0,3.0,0.0,0.0,1.0
5400000.0,15.78125,9.035747239573134E-7,5400000.0,65.9,29.572810561186973,30.971659919028344,6.830601092896181,39782.0,117648.0,0.0,1.0,0.0,?,0.0,0.0,37.0,28.0,28.0,4.0,0.0,0.0,1.0
5500000.0,16.21875,9.544140711012812E-7,5500000.0,64.5,25.220336698067115,25.57651991614256,9.438775510204088,49782.0,300840.0,0.0,1.0,0.0,?,0.0,0.0,91.0,69.0,69.0,4.0,0.0,0.0,1.0
5600000.0,16.640625,1.0023926087241204E-6,5600000.0,67.10000000000001,32.17837294061382,31.315240083507312,16.071428571428584,59782.0,305632.0,0.0,1.0,0.0,?,0.0,0.0,95.0,71.0,71.0,4.0,0.0,0.0,1.0
5700000.0,17.0625,1.0506522893491717E-6,5700000.0,68.10000000000001,33.52116902711671,30.50108932461874,11.878453038674044,69782.0,322480.0,0.0,1.0,0.0,?,0.0,0.0,111.0,79.0,79.0,5.0,0.0,0.0,1.0
5800000.0,17.46875,1.0970884209705723E-6,5800000.0,68.0,32.53755760660121,30.885529157667392,10.863509749303631,79782.0,336448.0,0.0,1.0,0.0,?,0.0,0.0,121.0,84.0,84.0,5.0,0.0,0.0,1.0
5900000.0,17.90625,1.1535696426613462E-6,5900000.0,70.6,40.10975803527412,39.50617283950616,24.42159383033418,89782.0,407800.0,0.0,1.0,0.0,?,0.0,0.0,140.0,97.0,97.0,5.0,0.0,0.0,1.0
6000000.0,18.34375,1.217596000060439E-6,6000000.0,71.6,41.22686842682538,40.210526315789465,27.365728900255746,99782.0,488720.0,0.0,1.0,0.0,?,0.0,0.0,172.0,122.0,122.0,7.0,0.0,0.0,1.0
6100000.0,18.78125,1.3025229175885518E-6,6100000.0,68.7,36.64224120480954,32.83261802575108,18.701298701298718,109682.0,543488.0,0.0,1.0,0.0,?,0.0,0.0,185.0,132.0,132.0,7.0,0.0,0.0,1.0
6200000.0,19.21875,1.3873846425364415E-6,6200000.0,73.1,44.15147614499854,44.07484407484407,27.10027100271002,119682.0,557232.0,0.0,1.0,0.0,?,0.0,0.0,193.0,136.0,136.0,7.0,0.0,0.0,1.0
6300000.0,19.65625,1.471571805369523E-6,6300000.0,69.19999999999999,36.66096341142405,40.077821011673144,22.222222222222214,129682.0,565632.0,0.0,1.0,0.0,?,0.0,0.0,195.0,137.0,137.0,7.0,0.0,0.0,1.0
6400000.0,20.109375,1.5643361257389188E-6,6400000.0,75.1,49.02680084832504,42.75862068965518,31.40495867768595,139682.0,627352.0,0.0,1.0,0.0,?,0.0,0.0,216.0,151.0,151.0,7.0,0.0,0.0,1.0
6500000.0,20.5625,1.665350185551991E-6,6500000.0,74.3,48.03629775807965,42.88888888888888,33.59173126614987,149682.0,711848.0,0.0,1.0,0.0,?,0.0,0.0,244.0,170.0,170.0,7.0,0.0,0.0,1.0
6600000.0,21.03125,1.7699542028519014E-6,6600000.0,72.0,44.4195214520797,39.13043478260869,28.02056555269922,159682.0,727056.0,0.0,1.0,0.0,?,0.0,0.0,250.0,173.0,173.0,7.0,0.0,0.0,1.0
6700000.0,21.484375,1.8706831744768553E-6,6700000.0,76.6,52.67468904843765,50.0,39.84575835475579,169682.0,738088.0,0.0,1.0,0.0,?,0.0,0.0,256.0,176.0,176.0,7.0,0.0,0.0,1.0
6800000.0,21.9375,1.9705897041906914E-6,6800000.0,74.3,47.86806767008803,47.01030927835051,32.89817232375979,179682.0,745424.0,0.0,1.0,0.0,?,0.0,0.0,260.0,178.0,178.0,7.0,0.0,0.0,1.0
6900000.0,22.390625,2.0692892980554868E-6,6900000.0,75.6,50.200829441922735,47.526881720430104,36.78756476683938,189682.0,749504.0,0.0,1.0,0.0,?,0.0,0.0,262.0,179.0,179.0,7.0,0.0,0.0,1.0
7000000.0,22.84375,2.168419337572737E-6,7000000.0,74.0,46.47452393206382,43.9655172413793,30.666666666666664,199682.0,767472.0,0.0,1.0,0.0,?,0.0,0.0,272.0,184.0,184.0,7.0,0.0,0.0,1.0
7100000.0,23.3125,2.28930694801319E-6,7100000.0,77.7,53.968987895701574,54.76673427991887,41.92708333333334,209582.0,788848.0,0.0,1.0,0.0,?,0.0,0.0,280.0,188.0,188.0,7.0,0.0,0.0,1.0
7200000.0,23.75,2.4005734788564347E-6,7200000.0,79.3,56.84767019112105,56.42105263157895,42.33983286908079,219582.0,789448.0,0.0,1.0,0.0,?,0.0,0.0,280.0,188.0,188.0,7.0,0.0,0.0,1.0
7300000.0,24.234375,2.5253172498196365E-6,7300000.0,74.7,48.14936262655245,41.97247706422019,30.874316939890704,229582.0,816144.0,0.0,1.0,0.0,?,0.0,0.0,286.0,191.0,191.0,7.0,0.0,0.0,1.0
7400000.0,24.6875,2.641378151666787E-6,7400000.0,75.2,49.56068987959649,50.10060362173038,37.37373737373738,239582.0,825072.0,0.0,1.0,0.0,?,0.0,0.0,292.0,194.0,194.0,7.0,0.0,0.0,1.0
7500000.0,25.140625,2.756867001557516E-6,7500000.0,71.1,42.70920062484636,40.657084188911696,27.568922305764403,249582.0,834536.0,0.0,1.0,0.0,?,0.0,0.0,298.0,197.0,197.0,7.0,0.0,0.0,1.0
7600000.0,25.59375,2.8708825832129355E-6,7600000.0,75.9,51.709213321043556,48.060344827586206,40.64039408866996,259582.0,836336.0,0.0,1.0,0.0,?,0.0,0.0,306.0,201.0,201.0,7.0,0.0,0.0,1.0
7700000.0,26.046875,2.9855930673268935E-6,7700000.0,74.9,49.26833212062414,43.468468468468465,31.97831978319783,269582.0,856560.0,0.0,1.0,0.0,?,0.0,0.0,312.0,204.0,204.0,7.0,0.0,0.0,1.0
7800000.0,26.484375,3.0970180523581806E-6,7800000.0,76.6,52.08747107844142,49.130434782608695,36.927223719676554,279582.0,876784.0,0.0,1.0,0.0,?,0.0,0.0,316.0,206.0,206.0,7.0,0.0,0.0,1.0
7900000.0,26.9375,3.2107007185307643E-6,7900000.0,77.8,53.572026100050195,54.87804878048781,40.00000000000001,289582.0,876488.0,0.0,1.0,0.0,?,0.0,0.0,318.0,207.0,207.0,7.0,0.0,0.0,1.0
8000000.0,27.40625,3.326715377625078E-6,8000000.0,75.6,50.369987673857594,47.41379310344827,36.95090439276486,299582.0,877784.0,0.0,1.0,0.0,?,0.0,0.0,320.0,208.0,208.0,7.0,0.0,0.0,1.0
8100000.0,27.890625,3.4670925944940085E-6,8100000.0,76.6,51.960977532518726,50.63291139240506,40.90909090909092,309482.0,911416.0,0.0,1.0,0.0,?,0.0,0.0,334.0,215.0,215.0,7.0,0.0,0.0,1.0
8200000.0,28.359375,3.603247104264382E-6,8200000.0,74.9,48.72318692543412,47.48953974895397,33.06666666666666,319482.0,928224.0,0.0,1.0,0.0,?,0.0,0.0,346.0,221.0,221.0,8.0,0.0,0.0,1.0
8300000.0,28.859375,3.7514339783228936E-6,8300000.0,74.7,48.35006002008835,47.5103734439834,33.24538258575198,329482.0,965280.0,0.0,1.0,0.0,?,0.0,0.0,358.0,227.0,227.0,8.0,0.0,0.0,1.0
8400000.0,29.328125,3.892303308627258E-6,8400000.0,76.3,51.32790615527424,50.829875518672196,37.46701846965699,339482.0,995552.0,0.0,1.0,0.0,?,0.0,0.0,370.0,233.0,233.0,8.0,0.0,0.0,1.0
8500000.0,29.78125,4.028425416133056E-6,8500000.0,75.0,49.06773583675598,44.56762749445676,36.86868686868687,349482.0,1009448.0,0.0,1.0,0.0,?,0.0,0.0,374.0,235.0,235.0,8.0,0.0,0.0,1.0
8600000.0,30.25,4.168843637065341E-6,8600000.0,77.9,54.141004996762895,51.3215859030837,41.99475065616799,359482.0,1020488.0,0.0,1.0,0.0,?,0.0,0.0,382.0,239.0,239.0,8.0,0.0,0.0,1.0
8700000.0,30.734375,4.317821003496647E-6,8700000.0,79.0,56.32443044977518,54.44685466377442,41.82825484764543,369482.0,1065744.0,0.0,1.0,0.0,?,0.0,0.0,393.0,248.0,248.0,9.0,0.0,0.0,1.0
8800000.0,31.21875,4.468048444121249E-6,8800000.0,76.6,51.07202448907903,47.651006711409394,36.585365853658544,379482.0,1089968.0,0.0,1.0,0.0,?,0.0,0.0,407.0,255.0,255.0,9.0,0.0,0.0,1.0
8900000.0,31.703125,4.619457791300698E-6,8900000.0,76.2,51.250286763019034,49.89473684210527,34.97267759562842,389482.0,1113688.0,0.0,1.0,0.0,?,0.0,0.0,415.0,259.0,259.0,9.0,0.0,0.0,1.0
9000000.0,32.15625,4.761766500046684E-6,9000000.0,78.10000000000001,55.90367268041238,54.088050314465406,43.55670103092784,399482.0,1133680.0,0.0,1.0,0.0,?,0.0,0.0,425.0,264.0,264.0,9.0,0.0,0.0,1.0
9100000.0,32.6875,4.972257172792323E-6,9100000.0,77.3,54.39312722509302,51.80467091295117,39.304812834224606,409382.0,1321168.0,0.0,1.0,0.0,?,0.0,0.0,479.0,309.0,309.0,9.0,0.0,0.0,1.0
9200000.0,33.203125,5.182509452828931E-6,9200000.0,79.60000000000001,58.34643514907485,56.41025641025642,47.82608695652175,419382.0,1379944.0,0.0,1.0,0.0,?,0.0,0.0,500.0,321.0,321.0,9.0,0.0,0.0,1.0
9300000.0,33.734375,5.403066946504017E-6,9300000.0,79.4,58.060523144076356,56.07675906183369,46.35416666666668,429382.0,1422816.0,0.0,1.0,0.0,?,0.0,0.0,520.0,334.0,334.0,9.0,0.0,0.0,1.0
9400000.0,34.265625,5.62653036063744E-6,9400000.0,79.10000000000001,57.79619398403929,56.09243697478992,47.22222222222223,439382.0,1458232.0,0.0,1.0,0.0,?,0.0,0.0,531.0,341.0,341.0,9.0,0.0,0.0,1.0
9500000.0,34.796875,5.853688020983504E-6,9500000.0,78.5,54.99794874371018,53.2608695652174,35.628742514970064,449382.0,1499320.0,0.0,1.0,0.0,?,0.0,0.0,550.0,352.0,352.0,9.0,0.0,0.0,1.0
9600000.0,35.328125,6.082461914047599E-6,9600000.0,78.10000000000001,54.656131981713386,51.868131868131876,40.326975476839245,459382.0,1525344.0,0.0,1.0,0.0,?,0.0,0.0,560.0,357.0,357.0,9.0,0.0,0.0,1.0
9700000.0,35.875,6.320245059517523E-6,9700000.0,77.7,54.88533186592649,52.7542372881356,40.69148936170213,469382.0,1555704.0,0.0,1.0,0.0,?,0.0,0.0,572.0,363.0,363.0,9.0,0.0,0.0,1.0
9800000.0,36.421875,6.558159495600396E-6,9800000.0,79.9,59.16194624818159,57.94979079497908,46.256684491978625,479382.0,1570920.0,0.0,1.0,0.0,?,0.0,0.0,588.0,371.0,371.0,9.0,0.0,0.0,1.0
9900000.0,36.96875,6.801711505330685E-6,9900000.0,79.3,57.48997831372807,56.32911392405063,44.35483870967743,489382.0,1624928.0,0.0,1.0,0.0,?,0.0,0.0,600.0,377.0,377.0,9.0,0.0,0.0,1.0
1.0E7,37.515625,7.051237237950166E-6,1.0E7,81.10000000000001,61.162574695259785,59.09090909090911,49.46524064171125,499382.0,1681288.0,0.0,1.0,0.0,?,0.0,0.0,625.0,391.0,391.0,9.0,0.0,0.0,1.0
