learning evaluation instances,evaluation time (cpu seconds),model cost (RAM-Hours),classified instances,classifications correct (percent),Kappa Statistic (percent),Kappa Temporal Statistic (percent),Kappa M Statistic (percent),model training instances,model serialized size (bytes),labeling cost,newThreshold,maxPosterior,accuracyBaseLearner (percent),Change detected,Warning detected
100000.0,0.125,2.8632995155122546E-9,100000.0,61.4,12.862096366394574,17.69722814498933,6.310679611650491,18179.0,5144.0,0.0,1.0,0.0,?,1.0,30.0
200000.0,0.265625,5.520188197907474E-9,200000.0,62.0,10.613473842679701,18.103448275862064,-2.7027027027027053,38179.0,5144.0,0.0,1.0,0.0,?,0.0,82.0
300000.0,0.421875,7.857872535371117E-9,300000.0,62.7,14.05688374407844,15.41950113378684,3.6175710594315276,58179.0,5144.0,0.0,1.0,0.0,?,0.0,0.0
400000.0,0.5625,9.408815660410457E-9,400000.0,61.9,10.409435932165147,21.44329896907216,0.0,78179.0,5144.0,0.0,1.0,0.0,?,0.0,0.0
500000.0,0.703125,1.0406786006771856E-8,500000.0,61.8,11.413716496064632,20.083682008368196,-0.2624671916010501,98179.0,5144.0,0.0,1.0,0.0,?,0.0,0.0
600000.0,0.84375,1.3616647467845017E-8,600000.0,61.5,9.778594327065482,20.45454545454545,-3.7735849056603805,118079.0,5144.0,0.0,1.0,0.0,?,0.0,0.0
700000.0,0.96875,1.597832629664077E-8,700000.0,66.0,17.154399832359484,27.194860813704498,6.336088154269978,138079.0,5144.0,0.0,1.0,0.0,?,0.0,0.0
800000.0,1.109375,1.8093592694236176E-8,800000.0,61.0,11.179535765040269,15.766738660907118,0.5102040816326534,158079.0,5144.0,0.0,1.0,0.0,?,0.0,26.0
900000.0,1.265625,1.9829474493033358E-8,900000.0,62.6,9.364094610314076,21.593291404612156,-3.8888888888888924,178079.0,5144.0,0.0,1.0,0.0,?,0.0,21.0
1000000.0,1.4375,2.106308885332611E-8,1000000.0,60.3,9.215641436085068,15.531914893617014,-1.7948717948717965,198079.0,5144.0,0.0,1.0,0.0,?,0.0,0.0
1100000.0,1.578125,2.4268875778135327E-8,1100000.0,60.6,7.473510182610648,14.90280777537796,-4.232804232804237,14795.0,5144.0,0.0,1.0,0.0,?,2.0,21.0
1200000.0,1.703125,2.6626932796918685E-8,1200000.0,60.3,8.508480825958692,15.711252653927804,-2.3195876288659814,34795.0,5144.0,0.0,1.0,0.0,?,0.0,0.0
1300000.0,1.84375,2.872677416437202E-8,1300000.0,61.1,18.439746051980514,16.523605150214586,2.2613065326633186,54795.0,5144.0,0.0,1.0,0.0,?,0.0,0.0
1400000.0,1.984375,3.027364275314742E-8,1400000.0,59.599999999999994,17.297511965248592,16.872427983539087,5.827505827505832,74795.0,5144.0,0.0,1.0,0.0,?,0.0,0.0
1500000.0,2.109375,3.115710569545627E-8,1500000.0,64.2,14.641590050738165,25.10460251046025,1.1049723756906087,94795.0,5144.0,0.0,1.0,0.0,?,0.0,0.0
1600000.0,2.25,3.436289262026549E-8,1600000.0,63.0,23.11400738105529,23.711340206185564,7.0351758793969905,114695.0,5144.0,0.0,1.0,0.0,?,0.0,0.0
1700000.0,2.40625,3.731046389374469E-8,1700000.0,61.0,7.291191236878144,13.716814159292024,-6.557377049180333,134695.0,5144.0,0.0,1.0,0.0,?,0.0,0.0
1800000.0,2.546875,3.941030526119803E-8,1800000.0,62.6,9.053770134619858,20.93023255813953,-5.6497175141242995,154695.0,5144.0,0.0,1.0,0.0,?,0.0,0.0
1900000.0,2.6875,4.095717384997343E-8,1900000.0,59.9,7.681965522322076,16.28392484342379,-3.3505154639175285,174695.0,5144.0,0.0,1.0,0.0,?,0.0,0.0
2000000.0,2.8125,4.184063679228228E-8,2000000.0,61.6,12.44510718634144,13.90134529147981,2.2900763358778646,194695.0,5144.0,0.0,1.0,0.0,?,0.0,0.0
2100000.0,2.9375,4.469514048347872E-8,2100000.0,62.2,13.180488118589032,19.230769230769226,0.2638522427440636,214595.0,5144.0,0.0,1.0,0.0,?,0.0,0.0
2200000.0,3.078125,4.7353484357396773E-8,2200000.0,61.3,6.963102576184475,17.659574468085097,-7.799442896935941,234595.0,5144.0,0.0,1.0,0.0,?,0.0,0.0
2300000.0,3.21875,4.945885545263689E-8,2300000.0,60.099999999999994,6.827946945637945,15.999999999999993,-5.000000000000004,254595.0,5144.0,0.0,1.0,0.0,?,0.0,0.0
2400000.0,3.375,5.1183742471039304E-8,2400000.0,65.2,18.58315981564233,26.42706131078224,7.6923076923077,274595.0,5144.0,0.0,1.0,0.0,?,0.0,0.0
2500000.0,3.53125,5.229421529091068E-8,2500000.0,60.9,6.320379510278394,14.442013129102834,-7.123287671232884,294595.0,5144.0,0.0,1.0,0.0,?,0.0,0.0
2600000.0,3.65625,5.5148718982107117E-8,2600000.0,62.3,10.904192465850537,16.592920353982294,0.2645502645502648,314495.0,5144.0,0.0,1.0,0.0,?,0.0,0.0
2700000.0,3.78125,5.751169131447872E-8,2700000.0,61.7,10.41941489610524,18.510638297872333,-0.2617801047120421,334495.0,5144.0,0.0,1.0,0.0,?,0.0,0.0
2800000.0,3.921875,5.961706240971883E-8,2800000.0,63.7,14.559285969834468,23.093220338983052,3.457446808510641,354495.0,5144.0,0.0,1.0,0.0,?,0.0,0.0
2900000.0,4.0625,6.116946072628101E-8,2900000.0,59.4,9.740871823145456,18.473895582329313,2.8708133971291887,374495.0,5144.0,0.0,1.0,0.0,?,0.0,0.0
3000000.0,4.1875,6.20578389821781E-8,3000000.0,61.0,11.201781428877174,16.666666666666657,2.2556390977443628,394495.0,5144.0,0.0,1.0,0.0,?,0.0,0.0
3100000.0,4.359375,6.598954011375705E-8,3100000.0,63.7,14.433611797318438,23.093220338983052,1.3586956521739142,414395.0,5144.0,0.0,1.0,0.0,?,0.0,0.0
3200000.0,4.46875,6.806144180397192E-8,3200000.0,59.699999999999996,7.526388251491496,14.97890295358649,-2.5445292620865163,434395.0,5144.0,0.0,1.0,0.0,?,0.0,0.0
3300000.0,4.609375,7.017234262699883E-8,3300000.0,62.3,12.62225930561349,19.27194860813704,2.0779220779220795,454395.0,5144.0,0.0,1.0,0.0,?,0.0,0.0
3400000.0,4.75,7.173027067134779E-8,3400000.0,60.099999999999994,8.125483550086575,16.352201257861626,-2.5706940874036013,474395.0,5144.0,0.0,1.0,0.0,?,0.0,0.0
3500000.0,4.875,7.262356424083313E-8,3500000.0,62.1,12.011069425355672,18.843683083511774,2.5706940874036013,494395.0,5144.0,0.0,1.0,0.0,?,0.0,0.0
3600000.0,5.0,7.548298324561782E-8,3600000.0,58.8,2.410369135147418,10.434782608695638,-10.75268817204302,514295.0,5144.0,0.0,1.0,0.0,?,0.0,0.0
3700000.0,5.140625,7.814685684732266E-8,3700000.0,60.0,7.352505188259707,16.492693110647174,-2.0408163265306136,534295.0,5144.0,0.0,1.0,0.0,?,0.0,0.0
3800000.0,5.296875,8.049230220624143E-8,3800000.0,58.3,6.60526952330612,16.265060240963848,-1.9559902200489014,554295.0,5144.0,0.0,1.0,0.0,?,0.0,0.0
3900000.0,5.453125,8.222333336662916E-8,3900000.0,62.7,13.053613053613065,16.92650334075723,0.5333333333333339,574295.0,5144.0,0.0,1.0,0.0,?,0.0,0.0
4000000.0,5.59375,8.322828863230018E-8,4000000.0,60.6,8.930792024741228,16.87763713080168,-0.7672634271099751,594295.0,5144.0,0.0,1.0,0.0,?,0.0,0.0
4100000.0,5.734375,8.645066474046973E-8,4100000.0,57.599999999999994,1.8045725719790806,11.111111111111098,-10.416666666666675,614195.0,5144.0,0.0,1.0,0.0,?,0.0,0.0
4200000.0,5.875,8.912006806996134E-8,4200000.0,63.1,14.431211041852174,24.539877300613497,4.896907216494849,634195.0,5144.0,0.0,1.0,0.0,?,0.0,0.0
4300000.0,6.015625,9.1236498620775E-8,4300000.0,59.4,10.966474272381173,15.240083507306881,3.7914691943127994,654195.0,5144.0,0.0,1.0,0.0,?,0.0,0.0
4400000.0,6.15625,9.279995639291073E-8,4400000.0,61.1,8.915509183377198,17.409766454352436,-1.8324607329842948,674195.0,5144.0,0.0,1.0,0.0,?,0.0,0.0
4500000.0,6.328125,9.403499360713693E-8,4500000.0,64.0,12.959381044487426,20.529801324503307,-1.1235955056179785,694195.0,5144.0,0.0,1.0,0.0,?,0.0,0.0
4600000.0,6.46875,9.725736971530648E-8,4600000.0,64.8,15.335770636905915,24.62526766595289,4.864864864864869,714095.0,5144.0,0.0,1.0,0.0,?,0.0,0.0
4700000.0,6.609375,9.992677304479809E-8,4700000.0,62.1,11.250362960257018,16.703296703296694,-0.2645502645502648,734095.0,5144.0,0.0,1.0,0.0,?,0.0,0.0
4800000.0,6.734375,1.0180804464552136E-7,4800000.0,63.5,13.740133289218692,24.273858921161825,3.4391534391534426,754095.0,5144.0,0.0,1.0,0.0,?,0.0,0.0
4900000.0,6.859375,1.0319778488741979E-7,4900000.0,63.0,11.337320757610616,23.236514522821576,-1.6483516483516498,774095.0,5144.0,0.0,1.0,0.0,?,0.0,0.0
5000000.0,6.984375,1.0417075827717779E-7,5000000.0,64.9,16.18510912651033,24.839400428265524,4.878048780487809,794095.0,5144.0,0.0,1.0,0.0,?,0.0,0.0
5100000.0,7.109375,1.0711477241582339E-7,5100000.0,57.99999999999999,-1.3357010500309068,9.677419354838696,-14.130434782608708,813995.0,5144.0,0.0,1.0,0.0,?,0.0,0.0
5200000.0,7.28125,1.1048693623807693E-7,5200000.0,57.599999999999994,-0.7618929927708195,13.46938775510203,-14.285714285714299,833995.0,5144.0,0.0,1.0,0.0,?,0.0,0.0
5300000.0,7.4375,1.1293812551432184E-7,5300000.0,58.599999999999994,13.772993868301779,16.53225806451612,-5.612244897959188,853995.0,5144.0,0.0,1.0,0.0,?,0.0,0.0
5400000.0,7.578125,1.1459122308426432E-7,5400000.0,58.099999999999994,12.439083515142398,7.912087912087895,-9.685863874345559,873995.0,5144.0,0.0,1.0,0.0,?,0.0,0.0
5500000.0,7.703125,1.1556911178761057E-7,5500000.0,59.8,14.90982981965963,14.285714285714276,-8.648648648648656,893995.0,5144.0,0.0,1.0,0.0,?,0.0,0.0
5600000.0,7.84375,1.1888112769358687E-7,5600000.0,57.199999999999996,10.60052219321148,10.647181628392472,-14.133333333333345,913895.0,5144.0,0.0,1.0,0.0,?,0.0,0.0
5700000.0,7.984375,1.2164017082088523E-7,5700000.0,66.10000000000001,19.32413136601617,22.602739726027394,5.833333333333339,933895.0,5144.0,0.0,1.0,0.0,?,0.0,0.0
5800000.0,8.109375,1.2360112224188115E-7,5800000.0,64.60000000000001,14.583534407875698,24.680851063829788,2.2099447513812174,953895.0,5144.0,0.0,1.0,0.0,?,0.0,0.0
5900000.0,8.25,1.2525421981182363E-7,5900000.0,65.7,16.468594139650854,23.2662192393736,2.8328611898017027,973895.0,5144.0,0.0,1.0,0.0,?,0.0,0.0
6000000.0,8.421875,1.2659881677892472E-7,6000000.0,65.10000000000001,18.90887123007575,28.189300411522638,8.63874345549739,993895.0,5144.0,0.0,1.0,0.0,?,0.0,0.0
6100000.0,8.5625,1.299163624126878E-7,6100000.0,65.3,19.69079800037031,26.79324894514768,8.684210526315796,1013795.0,5144.0,0.0,1.0,0.0,?,0.0,0.0
6200000.0,8.71875,1.3298811002944906E-7,6200000.0,65.0,20.005119672340978,27.685950413223143,9.32642487046633,1033795.0,5144.0,0.0,1.0,0.0,?,0.0,0.0
6300000.0,8.84375,1.3495397676403325E-7,6300000.0,64.5,16.442276912648033,23.326133909287254,5.585106382978728,1053795.0,5144.0,0.0,1.0,0.0,?,0.0,0.0
6400000.0,8.96875,1.3642831213979257E-7,6400000.0,64.60000000000001,19.486899563318776,26.70807453416149,10.606060606060614,1073795.0,5144.0,0.0,1.0,0.0,?,0.0,0.0
6500000.0,9.109375,1.3753396665884388E-7,6500000.0,65.3,20.506922999386056,27.708333333333336,9.162303664921474,1093795.0,5144.0,0.0,1.0,0.0,?,0.0,0.0
6600000.0,9.265625,1.412201284741362E-7,6600000.0,63.6,17.974049152473622,22.881355932203387,8.312342569269529,1113695.0,5144.0,0.0,1.0,0.0,?,0.0,0.0
6700000.0,9.40625,1.4398470132922133E-7,6700000.0,64.7,14.063412924083677,27.066115702479344,1.1204481792717098,1133695.0,5144.0,0.0,1.0,0.0,?,0.0,0.0
6800000.0,9.5625,1.4644203474745154E-7,6800000.0,64.5,17.821030408533662,22.48908296943231,9.2071611253197,1153695.0,5144.0,0.0,1.0,0.0,?,0.0,0.0
6900000.0,9.6875,1.4791637012321087E-7,6900000.0,66.0,18.317533381702177,24.444444444444443,5.292479108635102,1173695.0,5144.0,0.0,1.0,0.0,?,0.0,0.0
7000000.0,9.8125,1.4889917414014537E-7,7000000.0,64.2,19.597177366830028,27.08757637474542,10.275689223057654,1193695.0,5144.0,0.0,1.0,0.0,?,0.0,0.0
7100000.0,9.953125,1.5222224950169523E-7,7100000.0,62.8,15.379540956757138,18.599562363238505,7.231920199501253,1213595.0,5144.0,0.0,1.0,0.0,?,0.0,0.0
7200000.0,10.078125,1.5468456290869248E-7,7200000.0,65.5,20.28945325496285,31.000000000000007,12.87878787878789,1233595.0,5144.0,0.0,1.0,0.0,?,0.0,0.0
7300000.0,10.21875,1.5690169271288647E-7,7300000.0,68.0,21.07534837834506,25.925925925925945,7.24637681159421,1253595.0,5144.0,0.0,1.0,0.0,?,0.0,0.0
7400000.0,10.359375,1.585658497384025E-7,7400000.0,66.5,20.808275653390822,26.535087719298247,7.967032967032975,1273595.0,5144.0,0.0,1.0,0.0,?,0.0,0.0
7500000.0,10.5,1.596770339852406E-7,7500000.0,64.1,12.600181129429643,22.629310344827584,1.9125683060109306,1293595.0,5144.0,0.0,1.0,0.0,?,0.0,0.0
7600000.0,10.640625,1.6300010934679047E-7,7600000.0,65.9,19.01468660346169,30.122950819672134,7.336956521739137,1313495.0,5144.0,0.0,1.0,0.0,?,0.0,0.0
7700000.0,10.78125,1.657702119296624E-7,7700000.0,65.4,17.002096536636618,24.618736383442265,4.155124653739616,1333495.0,5144.0,0.0,1.0,0.0,?,0.0,0.0
7800000.0,10.921875,1.6798734173385638E-7,7800000.0,63.3,15.051015684313828,20.9051724137931,4.4270833333333375,1353495.0,5144.0,0.0,1.0,0.0,?,0.0,0.0
7900000.0,11.046875,1.6946659242320397E-7,7900000.0,65.10000000000001,19.652641563297145,26.371308016877638,7.671957671957679,1373495.0,5144.0,0.0,1.0,0.0,?,0.0,0.0
8000000.0,11.203125,1.707012415863574E-7,8000000.0,61.8,10.422421596169265,17.67241379310344,-1.3262599469496033,1393495.0,5144.0,0.0,1.0,0.0,?,0.0,0.0
8100000.0,11.359375,1.7439969168562033E-7,8100000.0,65.5,15.67431219569425,23.50332594235033,1.9886363636363658,1413395.0,5144.0,0.0,1.0,0.0,?,0.0,0.0
8200000.0,11.5,1.7717532399627902E-7,8200000.0,65.3,19.034196968565666,23.230088495575217,6.720430107526888,1433395.0,5144.0,0.0,1.0,0.0,?,0.0,0.0
8300000.0,11.640625,1.7939798352825977E-7,8300000.0,64.8,17.098445595854923,25.581395348837212,4.864864864864869,1453395.0,5144.0,0.0,1.0,0.0,?,0.0,0.0
8400000.0,11.765625,1.808821495311956E-7,8400000.0,65.3,17.427350345996075,26.94736842105263,4.143646408839783,1473395.0,5144.0,0.0,1.0,0.0,?,0.0,0.0
8500000.0,11.90625,1.8199886350582046E-7,8500000.0,66.0,21.23795404002965,24.107142857142858,10.052910052910063,1493395.0,5144.0,0.0,1.0,0.0,?,0.0,0.0
8600000.0,12.03125,1.849576235852308E-7,8600000.0,67.9,22.347476897769614,31.991525423728824,10.335195530726267,1513295.0,5144.0,0.0,1.0,0.0,?,0.0,0.0
8700000.0,12.125,1.8680804512566993E-7,8700000.0,64.2,13.169600628671486,20.267260579064583,0.2785515320334264,1533295.0,5144.0,0.0,1.0,0.0,?,0.0,0.0
8800000.0,12.28125,1.8927766682787077E-7,8800000.0,64.2,17.469304575151348,24.152542372881356,6.52741514360314,1553295.0,5144.0,0.0,1.0,0.0,?,0.0,0.0
8900000.0,12.4375,1.9113287433154057E-7,8900000.0,64.5,17.791342849467846,24.307036247334754,8.031088082901562,1573295.0,5144.0,0.0,1.0,0.0,?,0.0,0.0
9000000.0,12.5625,1.9212550897565156E-7,9000000.0,64.9,19.314054526228677,23.695652173913043,9.067357512953375,1593295.0,5144.0,0.0,1.0,0.0,?,0.0,0.0
9100000.0,12.703125,1.95459643792775E-7,9100000.0,64.0,17.370547190598597,22.077922077922075,5.263157894736847,1613195.0,5144.0,0.0,1.0,0.0,?,0.0,0.0
9200000.0,12.84375,1.9824080583122047E-7,9200000.0,67.60000000000001,22.097407093944756,31.501057082452437,8.988764044943828,1633195.0,5144.0,0.0,1.0,0.0,?,0.0,0.0
9300000.0,12.96875,2.002214185065694E-7,9300000.0,63.7,18.299918074848986,25.0,8.793969849246238,1653195.0,5144.0,0.0,1.0,0.0,?,0.0,0.0
9400000.0,13.09375,2.0171049982309347E-7,9400000.0,65.4,16.217891596606083,28.512396694214882,1.7045454545454561,1673195.0,5144.0,0.0,1.0,0.0,?,0.0,0.0
9500000.0,13.25,2.0295743727021754E-7,9500000.0,66.3,20.37765092806111,29.64509394572025,10.610079575596826,1693195.0,5144.0,0.0,1.0,0.0,?,0.0,0.0
9600000.0,13.390625,2.0629157208734097E-7,9600000.0,64.0,15.274979760134046,22.746781115879827,3.7433155080213933,1713095.0,5144.0,0.0,1.0,0.0,?,0.0,0.0
9700000.0,13.53125,2.0907273412578645E-7,9700000.0,65.60000000000001,17.967110534549217,22.171945701357462,3.9106145251396685,1733095.0,5144.0,0.0,1.0,0.0,?,0.0,0.0
9800000.0,13.671875,2.11300923385554E-7,9800000.0,62.3,12.453440092144499,21.45833333333333,0.0,1753095.0,5144.0,0.0,1.0,0.0,?,0.0,0.0
9900000.0,13.8125,2.129761398666436E-7,9900000.0,67.2,20.433154146208928,29.31034482758621,9.392265193370175,1773095.0,5144.0,0.0,1.0,0.0,?,0.0,0.0
1.0E7,13.9375,2.1397368982434286E-7,1.0E7,66.10000000000001,17.453978766923147,27.71855010660981,4.507042253521131,1793095.0,5144.0,0.0,1.0,0.0,?,0.0,0.0
