learning evaluation instances,evaluation time (cpu seconds),model cost (RAM-Hours),classified instances,classifications correct (percent),Kappa Statistic (percent),Kappa Temporal Statistic (percent),Kappa M Statistic (percent),model training instances,model serialized size (bytes),labeling cost,newThreshold,maxPosterior,accuracyBaseLearner (percent),Change detected,Warning detected,tree size (nodes),tree size (leaves),active learning leaves,tree depth,active leaf byte size estimate,inactive leaf byte size estimate,byte size estimate overhead
100000.0,0.8125,6.840396155085828E-8,100000.0,88.8,77.47430663100099,75.80993520518359,75.38461538461539,33977.0,215240.0,0.0,1.0,0.0,?,2.0,44.0,72.0,50.0,50.0,4.0,0.0,0.0,1.0
200000.0,1.53125,1.5461519877943727E-7,200000.0,90.7,81.00288429326645,79.6943231441048,78.52193995381064,73977.0,367928.0,0.0,1.0,0.0,?,0.0,0.0,139.0,88.0,88.0,5.0,0.0,0.0,1.0
300000.0,2.234375,2.5651061959150765E-7,300000.0,92.5,84.58287424558866,84.2436974789916,82.311320754717,113977.0,479176.0,0.0,1.0,0.0,?,0.0,0.0,181.0,112.0,112.0,5.0,0.0,0.0,1.0
400000.0,2.90625,3.594324678286082E-7,400000.0,93.30000000000001,86.27251716959793,86.57314629258518,84.3822843822844,153977.0,526072.0,0.0,1.0,0.0,?,0.0,0.0,203.0,123.0,123.0,5.0,0.0,0.0,1.0
500000.0,3.578125,4.651826263094942E-7,500000.0,91.60000000000001,82.44499431552198,82.16560509554141,79.20792079207922,193977.0,557336.0,0.0,1.0,0.0,?,0.0,0.0,223.0,133.0,133.0,6.0,0.0,0.0,1.0
600000.0,4.25,5.853093332714505E-7,600000.0,93.5,86.73664277902023,87.59541984732826,84.77751756440283,233777.0,579136.0,0.0,1.0,0.0,?,0.0,0.0,231.0,137.0,137.0,6.0,0.0,0.0,1.0
700000.0,4.921875,7.056988478224311E-7,700000.0,93.7,87.03543647363874,86.7924528301887,85.21126760563382,273777.0,595752.0,0.0,1.0,0.0,?,0.0,0.0,239.0,141.0,141.0,6.0,0.0,0.0,1.0
800000.0,5.59375,8.315489200564723E-7,800000.0,93.60000000000001,86.9016188780418,86.77685950413225,85.21939953810626,313777.0,642208.0,0.0,1.0,0.0,?,0.0,0.0,257.0,153.0,153.0,6.0,0.0,0.0,1.0
900000.0,6.28125,9.669434318008524E-7,900000.0,95.19999999999999,90.2264212412445,90.60665362035223,89.09090909090908,353777.0,694352.0,0.0,1.0,0.0,?,0.0,0.0,282.0,167.0,167.0,6.0,0.0,0.0,1.0
1000000.0,6.9375,1.1035517673008146E-6,1000000.0,93.5,86.66590081071325,86.70756646216769,84.81308411214955,393777.0,752744.0,0.0,1.0,0.0,?,0.0,0.0,300.0,179.0,179.0,6.0,0.0,0.0,1.0
1100000.0,7.609375,1.2579060340714126E-6,1100000.0,94.0,87.74715019134867,87.57763975155278,86.14318706697458,433577.0,775104.0,0.0,1.0,0.0,?,0.0,0.0,309.0,185.0,185.0,6.0,0.0,0.0,1.0
1200000.0,8.265625,1.4134609631987085E-6,1200000.0,92.5,84.50387609712558,85.20710059171599,81.8401937046005,473577.0,818368.0,0.0,1.0,0.0,?,0.0,0.0,325.0,196.0,196.0,7.0,0.0,0.0,1.0
1300000.0,8.921875,1.5704066673707634E-6,1300000.0,94.5,88.66325327528918,88.75255623721881,86.93586698337292,513577.0,841656.0,0.0,1.0,0.0,?,0.0,0.0,331.0,199.0,199.0,7.0,0.0,0.0,1.0
1400000.0,9.5625,1.7256215667455564E-6,1400000.0,94.19999999999999,88.05522604454987,88.18737270875762,86.12440191387559,553577.0,868840.0,0.0,1.0,0.0,?,0.0,0.0,344.0,207.0,207.0,7.0,0.0,0.0,1.0
1500000.0,10.203125,1.8832428678352804E-6,1500000.0,94.1,87.89425736398478,87.93456032719835,86.05200945626477,593577.0,898448.0,0.0,1.0,0.0,?,0.0,0.0,355.0,214.0,214.0,7.0,0.0,0.0,1.0
1600000.0,10.859375,2.0615377838516404E-6,1600000.0,93.5,86.61945736753263,86.25792811839325,84.56057007125892,633377.0,936624.0,0.0,1.0,0.0,?,0.0,0.0,368.0,222.0,222.0,7.0,0.0,0.0,1.0
1700000.0,11.5625,2.252397793603854E-6,1700000.0,94.39999999999999,88.5059358631221,88.3817427385892,86.72985781990519,673377.0,950792.0,0.0,1.0,0.0,?,0.0,0.0,380.0,228.0,228.0,7.0,0.0,0.0,1.0
1800000.0,12.21875,2.4372866674740284E-6,1800000.0,93.60000000000001,86.98636822071121,86.96537678207741,85.65022421524665,713377.0,1005512.0,0.0,1.0,0.0,?,0.0,0.0,399.0,239.0,239.0,7.0,0.0,0.0,1.0
1900000.0,12.875,2.6212669197573433E-6,1900000.0,94.1,87.93949304987734,87.73388773388773,86.11764705882352,753377.0,1015312.0,0.0,1.0,0.0,?,0.0,0.0,403.0,241.0,241.0,7.0,0.0,0.0,1.0
2000000.0,13.53125,2.8048465093080374E-6,2000000.0,94.39999999999999,88.5952156929832,88.77755511022043,87.06697459584295,793377.0,1028080.0,0.0,1.0,0.0,?,0.0,0.0,409.0,244.0,244.0,7.0,0.0,0.0,1.0
2100000.0,14.1875,3.0004256081560424E-6,2100000.0,94.8,89.29834165455868,89.57915831663325,87.58949880668257,833177.0,1037760.0,0.0,1.0,0.0,?,0.0,0.0,413.0,246.0,246.0,8.0,0.0,0.0,1.0
2200000.0,14.84375,3.1972460823857953E-6,2200000.0,95.3,90.26915113871635,89.82683982683982,88.67469879518072,873177.0,1060184.0,0.0,1.0,0.0,?,0.0,0.0,422.0,252.0,252.0,8.0,0.0,0.0,1.0
2300000.0,15.5,3.3937120719605854E-6,2300000.0,95.39999999999999,90.64218989031019,90.25423728813558,89.35185185185185,913177.0,1073208.0,0.0,1.0,0.0,?,0.0,0.0,432.0,257.0,257.0,8.0,0.0,0.0,1.0
2400000.0,16.171875,3.5974018586178625E-6,2400000.0,94.5,88.67688354895292,88.70636550308008,86.84210526315789,953177.0,1102960.0,0.0,1.0,0.0,?,0.0,0.0,439.0,262.0,262.0,8.0,0.0,0.0,1.0
2500000.0,16.828125,3.796756694403788E-6,2500000.0,94.39999999999999,88.53680504380577,88.33333333333331,86.9767441860465,993177.0,1120456.0,0.0,1.0,0.0,?,0.0,0.0,452.0,270.0,270.0,8.0,0.0,0.0,1.0
2600000.0,17.53125,4.033901980922868E-6,2600000.0,95.8,91.40147730808916,91.35802469135803,90.14084507042253,1032977.0,1188912.0,0.0,1.0,0.0,?,0.0,0.0,471.0,284.0,284.0,8.0,4076.929889298893,0.0,1.0209114737954905
2700000.0,18.1875,4.256417839011799E-6,2700000.0,93.7,87.10612274971143,87.4,85.21126760563382,1072977.0,1211000.0,0.0,1.0,0.0,?,0.0,0.0,478.0,289.0,289.0,8.0,4076.929889298893,0.0,1.0209114737954905
2800000.0,18.890625,4.496547723344217E-6,2800000.0,96.2,92.14080370623151,92.24489795918367,90.8433734939759,1112977.0,1235576.0,0.0,1.0,0.0,?,0.0,0.0,485.0,294.0,294.0,8.0,4076.929889298893,0.0,1.0209114737954905
2900000.0,19.53125,4.712761923049887E-6,2900000.0,95.0,89.72512658644045,89.9598393574297,88.2075471698113,1152977.0,1235232.0,0.0,1.0,0.0,?,0.0,0.0,493.0,298.0,298.0,8.0,4076.929889298893,0.0,1.0209114737954905
3000000.0,20.1875,4.940369593289991E-6,3000000.0,95.19999999999999,90.01751094954267,90.0414937759336,88.2063882063882,1192977.0,1286328.0,0.0,1.0,0.0,?,0.0,0.0,505.0,307.0,307.0,8.0,4076.929889298893,0.0,1.0209114737954905
3100000.0,20.859375,5.189596009182019E-6,3100000.0,94.69999999999999,89.15294753301187,89.11704312114989,87.44075829383885,1232777.0,1318424.0,0.0,1.0,0.0,?,0.0,0.0,522.0,317.0,317.0,8.0,4076.929889298893,0.0,1.0209114737954905
3200000.0,21.546875,5.443976681110346E-6,3200000.0,95.3,90.35010635414699,90.08438818565399,88.86255924170615,1272777.0,1329952.0,0.0,1.0,0.0,?,0.0,0.0,530.0,321.0,321.0,8.0,4076.929889298893,0.0,1.0209114737954905
3300000.0,22.234375,5.7039335176038244E-6,3300000.0,94.39999999999999,88.35274542429283,88.4297520661157,86.13861386138612,1312777.0,1376296.0,0.0,1.0,0.0,?,0.0,0.0,545.0,330.0,330.0,8.0,4076.929889298893,0.0,1.0209114737954905
3400000.0,22.890625,5.9533426732135314E-6,3400000.0,96.0,91.88706798637027,91.64926931106471,90.95022624434388,1352777.0,1398912.0,0.0,1.0,0.0,?,0.0,0.0,550.0,334.0,334.0,8.0,4076.929889298893,0.0,1.0209114737954905
3500000.0,23.59375,6.221227425461014E-6,3500000.0,96.2,92.22519119891643,92.4901185770751,91.1007025761124,1392777.0,1417680.0,0.0,1.0,0.0,?,0.0,0.0,557.0,339.0,339.0,8.0,4076.929889298893,0.0,1.0209114737954905
3600000.0,24.265625,6.4887252261137794E-6,3600000.0,96.89999999999999,93.61787981850073,93.71196754563894,92.49394673123487,1432577.0,1423120.0,0.0,1.0,0.0,?,0.0,0.0,561.0,341.0,341.0,8.0,4076.929889298893,0.0,1.0209114737954905
3700000.0,24.984375,6.777673293577714E-6,3700000.0,95.7,91.1593213648363,90.6318082788671,89.71291866028707,1472577.0,1453168.0,0.0,1.0,0.0,?,0.0,0.0,576.0,350.0,350.0,8.0,4076.929889298893,0.0,1.0209114737954905
3800000.0,25.703125,7.06778163374919E-6,3800000.0,95.1,89.73607038123166,90.55876685934489,87.75,1512577.0,1474488.0,0.0,1.0,0.0,?,0.0,0.0,586.0,355.0,355.0,8.0,4076.929889298893,0.0,1.0209114737954905
3900000.0,26.4375,7.36420427630138E-6,3900000.0,95.6,90.96297695969898,90.9090909090909,89.44844124700239,1552577.0,1489632.0,0.0,1.0,0.0,?,0.0,0.0,594.0,359.0,359.0,8.0,4076.929889298893,0.0,1.0209114737954905
4000000.0,27.140625,7.648487581819709E-6,4000000.0,96.0,91.65999466239658,92.18749999999999,89.8989898989899,1592577.0,1507400.0,0.0,1.0,0.0,?,0.0,0.0,599.0,363.0,363.0,8.0,4076.929889298893,0.0,1.0209114737954905
4100000.0,27.84375,7.945531461801792E-6,4100000.0,97.0,93.8183331753574,94.20849420849422,92.87410926365796,1632377.0,1516568.0,0.0,1.0,0.0,?,0.0,0.0,610.0,370.0,370.0,8.0,4076.929889298893,0.0,1.0209114737954905
4200000.0,28.59375,8.271820325818325E-6,4200000.0,94.69999999999999,88.91640038144311,88.77118644067795,86.71679197994986,1672377.0,1580248.0,0.0,1.0,0.0,?,0.0,0.0,636.0,389.0,389.0,8.0,4076.929889298893,0.0,1.0209114737954905
4300000.0,29.34375,8.608622269497977E-6,4300000.0,94.89999999999999,89.49302831525858,89.92094861660078,87.76978417266186,1712377.0,1649424.0,0.0,1.0,0.0,?,0.0,0.0,664.0,409.0,409.0,8.0,4076.929889298893,0.0,1.0209114737954905
4400000.0,30.0625,8.938428299087617E-6,4400000.0,95.7,91.18852459016392,90.87048832271762,89.88235294117646,1752377.0,1702272.0,0.0,1.0,0.0,?,0.0,0.0,673.0,415.0,415.0,8.0,4076.929889298893,0.0,1.0209114737954905
4500000.0,30.8125,9.289848902780148E-6,4500000.0,95.8,91.35635287483586,91.39344262295081,89.97613365155131,1792377.0,1754824.0,0.0,1.0,0.0,?,0.0,0.0,690.0,428.0,428.0,8.0,4076.929889298893,0.0,1.0209114737954905
4600000.0,31.578125,9.665375821188919E-6,4600000.0,96.39999999999999,92.62974715938171,92.66802443991853,91.52941176470587,1832177.0,1778688.0,0.0,1.0,0.0,?,0.0,0.0,708.0,440.0,440.0,8.0,4076.929889298893,0.0,1.0209114737954905
4700000.0,32.359375,1.005733650850339E-5,4700000.0,96.7,93.18170548273524,93.4782608695652,92.0096852300242,1872177.0,1837080.0,0.0,1.0,0.0,?,0.0,0.0,713.0,444.0,444.0,8.0,4076.929889298893,0.0,1.0209114737954905
4800000.0,33.140625,1.0455035501056246E-5,4800000.0,96.1,92.01820667523515,91.80672268907563,90.86651053864168,1912177.0,1880544.0,0.0,1.0,0.0,?,0.0,0.0,734.0,459.0,459.0,8.0,4076.929889298893,0.0,1.0209114737954905
4900000.0,33.890625,1.0840311232540341E-5,4900000.0,96.8,93.46490654816363,93.46938775510203,92.59259259259258,1952177.0,1913592.0,0.0,1.0,0.0,?,0.0,0.0,741.0,464.0,464.0,8.0,4076.929889298893,0.0,1.0209114737954905
5000000.0,34.6875,1.1250011383607568E-5,5000000.0,95.8,91.39047868938486,91.58316633266533,90.04739336492891,1992177.0,1928096.0,0.0,1.0,0.0,?,0.0,0.0,743.0,465.0,465.0,8.0,4076.929889298893,0.0,1.0209114737954905
5100000.0,35.796875,1.131732230229924E-5,5100000.0,75.6,51.19062860069133,50.70707070707071,50.806451612903224,38287.0,121408.0,0.0,1.0,0.0,?,3.0,35.0,40.0,28.0,28.0,3.0,0.0,0.0,1.0
5200000.0,36.65625,1.1385722448014549E-5,5200000.0,80.60000000000001,61.193946255615884,60.00000000000001,60.24590163934427,78287.0,209400.0,0.0,1.0,0.0,?,0.0,0.0,73.0,49.0,49.0,5.0,0.0,0.0,1.0
5300000.0,37.5,1.1490700546548597E-5,5300000.0,82.1,63.94385716127368,64.69428007889545,60.398230088495566,118287.0,397232.0,0.0,1.0,0.0,?,0.0,0.0,145.0,97.0,97.0,5.0,0.0,0.0,1.0
5400000.0,38.359375,1.1626012177051355E-5,5400000.0,84.6,69.21083778509963,70.77798861480076,68.9516129032258,158287.0,539592.0,0.0,1.0,0.0,?,0.0,0.0,191.0,126.0,126.0,5.0,0.0,0.0,1.0
5500000.0,39.21875,1.1785780888102534E-5,5500000.0,85.39999999999999,70.74335914330143,70.56451612903226,69.4560669456067,198287.0,664328.0,0.0,1.0,0.0,?,0.0,0.0,237.0,155.0,155.0,6.0,0.0,0.0,1.0
5600000.0,40.078125,1.1976710100296056E-5,5600000.0,85.8,71.51385790630867,70.96114519427402,69.65811965811966,238087.0,743336.0,0.0,1.0,0.0,?,0.0,0.0,271.0,175.0,175.0,7.0,0.0,0.0,1.0
5700000.0,40.921875,1.2173932789462721E-5,5700000.0,87.7,75.3682743373465,76.0233918128655,74.69135802469135,278087.0,803056.0,0.0,1.0,0.0,?,0.0,0.0,291.0,188.0,188.0,7.0,0.0,0.0,1.0
5800000.0,41.828125,1.2405593200431515E-5,5800000.0,88.0,75.8750326692266,76.51663405088063,73.03370786516854,318087.0,902496.0,0.0,1.0,0.0,?,0.0,0.0,334.0,217.0,217.0,7.0,0.0,0.0,1.0
5900000.0,42.734375,1.266392061047049E-5,5900000.0,88.3,76.54370489174018,76.50602409638554,75.42016806722688,358087.0,1030960.0,0.0,1.0,0.0,?,0.0,0.0,378.0,245.0,245.0,7.0,0.0,0.0,1.0
6000000.0,43.640625,1.2931777843429396E-5,6000000.0,88.1,76.18533016338066,75.10460251046025,76.66666666666667,398087.0,1086568.0,0.0,1.0,0.0,?,0.0,0.0,397.0,256.0,256.0,7.0,0.0,0.0,1.0
6100000.0,44.53125,1.3222958562740434E-5,6100000.0,88.5,76.99944798675168,77.18253968253968,77.58284600389864,437887.0,1146608.0,0.0,1.0,0.0,?,0.0,0.0,422.0,270.0,270.0,7.0,0.0,0.0,1.0
6200000.0,45.46875,1.3539908977691082E-5,6200000.0,88.6,77.19261040577146,77.33598409542743,76.78207739307535,477887.0,1204640.0,0.0,1.0,0.0,?,0.0,0.0,446.0,285.0,285.0,7.0,0.0,0.0,1.0
6300000.0,46.40625,1.3872406658871718E-5,6300000.0,90.10000000000001,80.2,79.83706720977597,78.75536480686695,517887.0,1283600.0,0.0,1.0,0.0,?,0.0,0.0,478.0,304.0,304.0,7.0,0.0,0.0,1.0
6400000.0,47.328125,1.4212559779278104E-5,6400000.0,89.0,78.00079197148902,78.47358121330724,78.21782178217822,557887.0,1353808.0,0.0,1.0,0.0,?,0.0,0.0,510.0,323.0,323.0,7.0,0.0,0.0,1.0
6500000.0,48.25,1.4560760496856849E-5,6500000.0,90.0,79.9435209550093,79.7160243407708,78.63247863247864,597887.0,1402544.0,0.0,1.0,0.0,?,0.0,0.0,525.0,332.0,332.0,7.0,0.0,0.0,1.0
6600000.0,49.15625,1.493038108391273E-5,6600000.0,89.60000000000001,79.19600563308155,79.6477495107632,78.37837837837837,637687.0,1458048.0,0.0,1.0,0.0,?,0.0,0.0,553.0,349.0,349.0,7.0,0.0,0.0,1.0
6700000.0,50.078125,1.531944558438327E-5,6700000.0,89.7,79.39917596703869,79.31726907630522,79.4,677687.0,1527776.0,0.0,1.0,0.0,?,0.0,0.0,581.0,366.0,366.0,7.0,0.0,0.0,1.0
6800000.0,51.03125,1.5742623978035727E-5,6800000.0,91.2,82.38619077356648,82.22222222222223,81.89300411522635,717687.0,1627448.0,0.0,1.0,0.0,?,0.0,0.0,616.0,388.0,388.0,7.0,0.0,0.0,1.0
6900000.0,51.9375,1.6151676762900828E-5,6900000.0,91.60000000000001,83.19912635457044,83.26693227091634,82.38993710691824,757687.0,1670936.0,0.0,1.0,0.0,?,0.0,0.0,634.0,397.0,397.0,7.0,0.0,0.0,1.0
7000000.0,52.875,1.6587025440660198E-5,7000000.0,92.4,84.72816127061698,84.76953907815631,83.4061135371179,797687.0,1736088.0,0.0,1.0,0.0,?,0.0,0.0,663.0,413.0,413.0,7.0,0.0,0.0,1.0
7100000.0,53.828125,1.7058504745364186E-5,7100000.0,90.8,81.6005151855748,82.23938223938224,81.14754098360656,837487.0,1791984.0,0.0,1.0,0.0,?,0.0,0.0,686.0,426.0,426.0,7.0,0.0,0.0,1.0
7200000.0,54.765625,1.7530654246608414E-5,7200000.0,92.5,84.97728565591174,84.9397590361446,84.34237995824635,877487.0,1841632.0,0.0,1.0,0.0,?,0.0,0.0,706.0,439.0,439.0,8.0,0.0,0.0,1.0
7300000.0,55.71875,1.802527403924614E-5,7300000.0,92.2,84.27489103305903,84.58498023715416,83.08026030368765,917487.0,1915672.0,0.0,1.0,0.0,?,0.0,0.0,739.0,457.0,457.0,8.0,0.0,0.0,1.0
7400000.0,56.65625,1.852164374819646E-5,7400000.0,89.9,79.75773414890291,80.68833652007649,78.55626326963908,957487.0,1971288.0,0.0,1.0,0.0,?,0.0,0.0,767.0,474.0,474.0,8.0,0.0,0.0,1.0
7500000.0,57.65625,1.90744664804596E-5,7500000.0,91.60000000000001,83.20181420406597,84.44444444444444,82.75154004106777,997487.0,2076448.0,0.0,1.0,0.0,?,0.0,0.0,793.0,493.0,493.0,8.0,0.0,0.0,1.0
7600000.0,58.71875,1.9696087175462804E-5,7600000.0,92.10000000000001,84.19620708970153,84.00809716599191,84.1046277665996,1037287.0,2140096.0,0.0,1.0,0.0,?,0.0,0.0,824.0,516.0,516.0,8.0,4138.17444219067,0.0,1.0183910750348018
7700000.0,59.703125,2.028214198718261E-5,7700000.0,92.80000000000001,85.58754764116198,85.57114228456915,85.06224066390043,1077287.0,2194872.0,0.0,1.0,0.0,?,0.0,0.0,834.0,521.0,521.0,8.0,4138.17444219067,0.0,1.0183910750348018
7800000.0,60.640625,2.0838913785862837E-5,7800000.0,91.60000000000001,83.0437994808173,82.96146044624747,81.37472283813749,1117287.0,2204352.0,0.0,1.0,0.0,?,0.0,0.0,838.0,523.0,523.0,8.0,4138.17444219067,0.0,1.0183910750348018
7900000.0,61.625,2.143061997938073E-5,7900000.0,92.2,84.38782250155121,84.79532163742691,83.98357289527722,1157287.0,2247232.0,0.0,1.0,0.0,?,0.0,0.0,862.0,538.0,538.0,8.0,4138.17444219067,0.0,1.0183910750348018
8000000.0,62.609375,2.202776771607912E-5,8000000.0,92.30000000000001,84.52646978441555,84.02489626556017,83.5117773019272,1197287.0,2283640.0,0.0,1.0,0.0,?,0.0,0.0,877.0,547.0,547.0,8.0,4138.17444219067,0.0,1.0183910750348018
8100000.0,63.609375,2.2667863652006615E-5,8100000.0,92.7,85.37999983978082,85.76998050682262,84.85477178423237,1237087.0,2351816.0,0.0,1.0,0.0,?,0.0,0.0,897.0,560.0,560.0,8.0,4138.17444219067,0.0,1.0183910750348018
8200000.0,64.59375,2.3304006738019067E-5,8200000.0,92.4,84.80583455952915,84.80000000000001,84.92063492063492,1277087.0,2390600.0,0.0,1.0,0.0,?,0.0,0.0,914.0,570.0,570.0,8.0,4138.17444219067,0.0,1.0183910750348018
8300000.0,65.59375,2.3955667630717566E-5,8300000.0,92.30000000000001,84.57779202050955,84.18891170431212,84.05797101449276,1317087.0,2426616.0,0.0,1.0,0.0,?,0.0,0.0,923.0,576.0,576.0,8.0,4138.17444219067,0.0,1.0183910750348018
8400000.0,66.59375,2.4617393016039077E-5,8400000.0,92.9,85.79875029002552,85.45081967213116,85.48057259713703,1357087.0,2480440.0,0.0,1.0,0.0,?,0.0,0.0,952.0,592.0,592.0,8.0,4138.17444219067,0.0,1.0183910750348018
8500000.0,67.59375,2.5288371608540823E-5,8500000.0,93.0,85.91452936418187,85.53719008264464,84.74945533769063,1397087.0,2531192.0,0.0,1.0,0.0,?,0.0,0.0,969.0,602.0,602.0,8.0,4138.17444219067,0.0,1.0183910750348018
8600000.0,68.640625,2.6017965218569664E-5,8600000.0,91.5,82.98584422239304,82.68839103869654,82.36514522821578,1436887.0,2570520.0,0.0,1.0,0.0,?,0.0,0.0,986.0,612.0,612.0,8.0,4138.17444219067,0.0,1.0183910750348018
8700000.0,69.640625,2.6719244908437954E-5,8700000.0,93.0,85.88709677419357,86.02794411177645,84.78260869565219,1476887.0,2602400.0,0.0,1.0,0.0,?,0.0,0.0,1003.0,622.0,622.0,8.0,4138.17444219067,0.0,1.0183910750348018
8800000.0,70.65625,2.7439288710916617E-5,8800000.0,92.80000000000001,85.59394945877268,85.45454545454547,85.39553752535498,1516887.0,2647128.0,0.0,1.0,0.0,?,0.0,0.0,1016.0,630.0,630.0,8.0,4138.17444219067,0.0,1.0183910750348018
8900000.0,71.6875,2.8181154080407897E-5,8900000.0,93.8,87.56393541269681,88.00773694390715,86.94736842105262,1556887.0,2702440.0,0.0,1.0,0.0,?,0.0,0.0,1037.0,645.0,645.0,8.0,4138.17444219067,0.0,1.0183910750348018
9000000.0,72.71875,2.892905733056573E-5,9000000.0,93.4,86.65653102154364,87.73234200743495,85.39823008849558,1596887.0,2740072.0,0.0,1.0,0.0,?,0.0,0.0,1051.0,652.0,652.0,8.0,4138.17444219067,0.0,1.0183910750348018
9100000.0,73.78125,2.972464843575532E-5,9100000.0,92.4,84.72134548656484,85.12720156555774,83.51409978308027,1636687.0,2769968.0,0.0,1.0,0.0,?,0.0,0.0,1071.0,662.0,662.0,8.0,4138.17444219067,0.0,1.0183910750348018
9200000.0,74.796875,3.0488912921605835E-5,9200000.0,92.30000000000001,84.60000000000001,84.81262327416175,84.60000000000001,1676687.0,2799408.0,0.0,1.0,0.0,?,0.0,0.0,1084.0,670.0,670.0,8.0,4138.17444219067,0.0,1.0183910750348018
9300000.0,75.8125,3.12608410927674E-5,9300000.0,91.8,83.58548957278235,83.60000000000001,83.16221765913758,1716687.0,2843552.0,0.0,1.0,0.0,?,0.0,0.0,1107.0,683.0,683.0,8.0,4138.17444219067,0.0,1.0183910750348018
9400000.0,76.828125,3.204007772082049E-5,9400000.0,93.5,87.0007279592343,87.37864077669903,87.68939393939394,1756687.0,2886352.0,0.0,1.0,0.0,?,0.0,0.0,1128.0,695.0,695.0,8.0,4138.17444219067,0.0,1.0183910750348018
9500000.0,77.859375,3.283598308270383E-5,9500000.0,91.4,82.77209078707507,83.13725490196079,82.76553106212425,1796687.0,2918912.0,0.0,1.0,0.0,?,0.0,0.0,1142.0,702.0,702.0,9.0,4138.17444219067,0.0,1.0183910750348018
9600000.0,78.953125,3.371226416978364E-5,9600000.0,93.2,86.40130547467444,86.42714570858284,86.26262626262627,1836487.0,2971480.0,0.0,1.0,0.0,?,0.0,0.0,1159.0,712.0,712.0,9.0,4138.17444219067,0.0,1.0183910750348018
9700000.0,80.0,3.456361090583313E-5,9700000.0,92.80000000000001,85.58616271620757,86.66666666666667,84.93723849372385,1876487.0,3032976.0,0.0,1.0,0.0,?,0.0,0.0,1186.0,727.0,727.0,9.0,4138.17444219067,0.0,1.0183910750348018
9800000.0,81.015625,3.539500935908614E-5,9800000.0,94.6,89.19788278502585,89.34911242603549,89.04665314401622,1916487.0,3068824.0,0.0,1.0,0.0,?,0.0,0.0,1203.0,737.0,737.0,9.0,4138.17444219067,0.0,1.0183910750348018
9900000.0,82.03125,3.623570891148928E-5,9900000.0,93.5,86.918475942071,87.10317460317462,85.83877995642702,1956487.0,3119216.0,0.0,1.0,0.0,?,0.0,0.0,1225.0,751.0,751.0,9.0,4138.17444219067,0.0,1.0183910750348018
1.0E7,83.078125,3.711267374455929E-5,1.0E7,92.4,84.72085402384351,85.0687622789784,84.06708595387842,1996487.0,3172576.0,0.0,1.0,0.0,?,0.0,0.0,1242.0,761.0,761.0,9.0,4138.17444219067,0.0,1.0183910750348018
