learning evaluation instances,evaluation time (cpu seconds),model cost (RAM-Hours),classified instances,classifications correct (percent),Kappa Statistic (percent),Kappa Temporal Statistic (percent),Kappa M Statistic (percent),model training instances,model serialized size (bytes),labeling cost,newThreshold,maxPosterior,accuracyBaseLearner (percent),Change detected,Warning detected
100000.0,0.15625,3.5690997416774434E-9,100000.0,56.39999999999999,12.738567951838082,9.917355371900813,11.919191919191906,39800.0,5144.0,0.0,1.0,0.0,?,0.0,17.0
200000.0,0.3125,6.523785284823842E-9,200000.0,57.49999999999999,13.498331026622148,9.57446808510637,11.45833333333332,79800.0,5144.0,0.0,1.0,0.0,?,0.0,0.0
300000.0,0.46875,8.864056629439195E-9,300000.0,55.50000000000001,10.740075098687385,12.055335968379458,9.183673469387763,119800.0,5144.0,0.0,1.0,0.0,?,0.0,0.0
400000.0,0.625,1.0589913775523504E-8,400000.0,57.599999999999994,14.459907116370823,15.199999999999992,11.482254697286,159800.0,5144.0,0.0,1.0,0.0,?,0.0,0.0
500000.0,0.765625,1.1590212428321441E-8,500000.0,56.99999999999999,12.87080564110875,12.955465587044523,8.510638297872324,199800.0,5144.0,0.0,1.0,0.0,?,0.0,0.0
600000.0,0.921875,1.5159312169998884E-8,600000.0,54.300000000000004,8.243986668272898,11.089494163424133,6.7346938775510266,239600.0,5144.0,0.0,1.0,0.0,?,0.0,0.0
700000.0,1.0625,1.7818529158830643E-8,700000.0,55.60000000000001,10.196717730484991,10.843373493975914,7.306889352818378,279600.0,5144.0,0.0,1.0,0.0,?,0.0,0.0
800000.0,1.21875,2.0158800503445998E-8,800000.0,54.50000000000001,9.287377587801856,13.001912045889114,9.000000000000007,319600.0,5144.0,0.0,1.0,0.0,?,0.0,0.0
900000.0,1.375,2.1884657649530305E-8,900000.0,59.699999999999996,18.367512295513652,18.913480885311866,14.799154334038045,359600.0,5144.0,0.0,1.0,0.0,?,0.0,0.0
1000000.0,1.515625,2.2884956302328243E-8,1000000.0,55.50000000000001,9.666680199748285,10.101010101010111,2.1978021978022,399600.0,5144.0,0.0,1.0,0.0,?,0.0,0.0
1100000.0,1.671875,2.6460200185990996E-8,1100000.0,54.2,7.489324914457934,1.7167381974248945,3.983228511530402,439400.0,5144.0,0.0,1.0,0.0,?,0.0,0.0
1200000.0,1.828125,2.9421029871122705E-8,1200000.0,57.8,14.599447122487044,15.59999999999999,10.403397027600835,479400.0,5144.0,0.0,1.0,0.0,?,0.0,0.0
1300000.0,1.984375,3.176744535772337E-8,1300000.0,57.4,13.776352861167766,18.546845124282978,9.745762711864392,519400.0,5144.0,0.0,1.0,0.0,?,0.0,0.0
1400000.0,2.140625,3.349944664579299E-8,1400000.0,55.300000000000004,10.944821650569015,10.600000000000009,12.180746561886062,559400.0,5144.0,0.0,1.0,0.0,?,0.0,0.0
1500000.0,2.296875,3.461703373533157E-8,1500000.0,55.900000000000006,10.739586285066592,15.839694656488563,6.170212765957453,599400.0,5144.0,0.0,1.0,0.0,?,0.0,0.0
1600000.0,2.4375,3.7834753230628045E-8,1600000.0,55.00000000000001,9.098254686489996,10.536779324055676,6.054279749478085,639200.0,5144.0,0.0,1.0,0.0,?,0.0,0.0
1700000.0,2.59375,4.0795582915759754E-8,1700000.0,54.900000000000006,9.545279507091987,6.818181818181825,9.072580645161299,679200.0,5144.0,0.0,1.0,0.0,?,0.0,0.0
1800000.0,2.75,4.314199840236042E-8,1800000.0,54.7,10.418364037620345,11.523437500000009,8.299595141700413,719200.0,5144.0,0.0,1.0,0.0,?,0.0,0.0
1900000.0,2.90625,4.487399969043004E-8,1900000.0,56.49999999999999,11.562357686552584,15.697674418604644,7.051282051282034,759200.0,5144.0,0.0,1.0,0.0,?,0.0,0.0
2000000.0,3.0625,4.599158677996862E-8,2000000.0,56.2,12.692306158979749,11.515151515151526,12.224448897795602,799200.0,5144.0,0.0,1.0,0.0,?,0.0,0.0
2100000.0,3.21875,4.9572974805616684E-8,2100000.0,60.199999999999996,19.985203293875458,16.73640167364016,17.427385892116178,839000.0,5144.0,0.0,1.0,0.0,?,0.0,0.0
2200000.0,3.375,5.25399486327337E-8,2200000.0,55.800000000000004,10.73772643738515,12.475247524752486,7.724425887265143,879000.0,5144.0,0.0,1.0,0.0,?,0.0,0.0
2300000.0,3.53125,5.489250826131967E-8,2300000.0,55.50000000000001,9.87086216115495,12.745098039215696,5.919661733615227,919000.0,5144.0,0.0,1.0,0.0,?,0.0,0.0
2400000.0,3.6875,5.66306536913746E-8,2400000.0,54.50000000000001,8.09937386386589,8.450704225352121,4.612159329140465,959000.0,5144.0,0.0,1.0,0.0,?,0.0,0.0
2500000.0,3.84375,5.7754384922898484E-8,2500000.0,55.300000000000004,9.561769109375648,6.48535564853557,3.8709677419354875,999000.0,5144.0,0.0,1.0,0.0,?,0.0,0.0
2600000.0,3.984375,6.097763414598174E-8,2600000.0,57.8,13.948850544242926,17.898832684824896,8.459869848156167,1038800.0,5144.0,0.0,1.0,0.0,?,0.0,0.0
2700000.0,4.140625,6.394460797309875E-8,2700000.0,57.9,15.043547749158497,12.108559498956147,12.108559498956147,1078800.0,5144.0,0.0,1.0,0.0,?,0.0,0.0
2800000.0,4.296875,6.629716760168473E-8,2800000.0,55.800000000000004,11.512220122361382,13.333333333333345,11.60000000000001,1118800.0,5144.0,0.0,1.0,0.0,?,0.0,0.0
2900000.0,4.453125,6.803531303173966E-8,2900000.0,56.2,11.511218680426218,9.690721649484544,7.399577167019035,1158800.0,5144.0,0.0,1.0,0.0,?,0.0,0.0
3000000.0,4.59375,6.904667114011115E-8,3000000.0,55.50000000000001,10.478627526715597,12.055335968379458,8.057851239669429,1198800.0,5144.0,0.0,1.0,0.0,?,0.0,0.0
3100000.0,4.75,7.263420330774454E-8,3100000.0,55.300000000000004,10.242405744486042,10.420841683366742,8.401639344262303,1238600.0,5144.0,0.0,1.0,0.0,?,0.0,0.0
3200000.0,4.890625,7.531000947993663E-8,3200000.0,57.3,13.053747851796334,12.857142857142845,12.320328542094444,1278600.0,5144.0,0.0,1.0,0.0,?,0.0,0.0
3300000.0,5.03125,7.743284287345079E-8,3300000.0,58.3,16.144496907199894,18.554687499999993,14.197530864197521,1318600.0,5144.0,0.0,1.0,0.0,?,0.0,0.0
3400000.0,5.171875,7.900270348828701E-8,3400000.0,54.400000000000006,8.731365987222391,10.412573673870343,8.617234468937882,1358600.0,5144.0,0.0,1.0,0.0,?,0.0,0.0
3500000.0,5.3125,8.001959132444529E-8,3500000.0,56.99999999999999,13.67957859574741,13.480885311871216,12.065439672801624,1398600.0,5144.0,0.0,1.0,0.0,?,0.0,0.0
3600000.0,5.46875,8.360712349207867E-8,3600000.0,59.4,17.85367432826157,10.964912280701741,12.311015118790484,1438400.0,5144.0,0.0,1.0,0.0,?,0.0,0.0
3700000.0,5.609375,8.628292966427077E-8,3700000.0,54.2,7.949319870083937,7.474747474747481,6.147540983606563,1478400.0,5144.0,0.0,1.0,0.0,?,0.0,0.0
3800000.0,5.765625,8.864163343484204E-8,3800000.0,56.699999999999996,13.020770559640027,13.39999999999999,11.632653061224477,1518400.0,5144.0,0.0,1.0,0.0,?,0.0,0.0
3900000.0,5.921875,9.038592300688229E-8,3900000.0,56.00000000000001,11.40356882533215,12.871287128712883,6.581740976645442,1558400.0,5144.0,0.0,1.0,0.0,?,0.0,0.0
4000000.0,6.0625,9.140281084304056E-8,4000000.0,57.8,14.164836058904875,16.43564356435643,6.843267108167753,1598400.0,5144.0,0.0,1.0,0.0,?,0.0,0.0
4100000.0,6.21875,9.499648715265924E-8,4100000.0,55.7,10.558534694404964,9.959349593495944,7.51565762004176,1638200.0,5144.0,0.0,1.0,0.0,?,0.0,0.0
4200000.0,6.375,9.797574926374689E-8,4200000.0,58.199999999999996,15.706432526830763,17.063492063492056,15.725806451612895,1678200.0,5144.0,0.0,1.0,0.0,?,0.0,0.0
4300000.0,6.53125,1.0034059717630348E-7,4300000.0,55.300000000000004,8.760613977792305,10.600000000000009,1.1061946902654878,1718200.0,5144.0,0.0,1.0,0.0,?,0.0,0.0
4400000.0,6.6875,1.0209103089032904E-7,4400000.0,54.7,8.270627971586169,7.17213114754099,4.228329809725163,1758200.0,5144.0,0.0,1.0,0.0,?,0.0,0.0
4500000.0,6.828125,1.031134484542741E-7,4500000.0,59.099999999999994,17.56026767717487,18.199999999999996,14.791666666666659,1798200.0,5144.0,0.0,1.0,0.0,?,0.0,0.0
4600000.0,6.96875,1.0634775713293091E-7,4600000.0,56.3,13.2330516551242,13.121272365805158,15.47388781431334,1838000.0,5144.0,0.0,1.0,0.0,?,0.0,0.0
4700000.0,7.125,1.0932701924401856E-7,4700000.0,55.900000000000006,11.500517752073021,14.70019342359769,10.183299389002046,1878000.0,5144.0,0.0,1.0,0.0,?,0.0,0.0
4800000.0,7.28125,1.1169186715657515E-7,4800000.0,56.49999999999999,12.020969346892203,8.995815899581574,6.047516198704086,1918000.0,5144.0,0.0,1.0,0.0,?,0.0,0.0
4900000.0,7.421875,1.1326725749919815E-7,4900000.0,55.400000000000006,10.884481511527078,11.155378486055787,11.155378486055787,1958000.0,5144.0,0.0,1.0,0.0,?,0.0,0.0
5000000.0,7.5625,1.1436971059689923E-7,5000000.0,55.300000000000004,10.189024978300722,8.401639344262303,8.588957055214731,1998000.0,5144.0,0.0,1.0,0.0,?,0.0,0.0
5100000.0,7.71875,1.1805845941934324E-7,5100000.0,44.4,-9.27672955974842,-18.550106609808108,-23.555555555555564,2037800.0,5144.0,0.0,1.0,0.0,?,0.0,0.0
5200000.0,7.875,1.2113279404325622E-7,5200000.0,46.400000000000006,-4.0764573616618085,-8.943089430894306,-22.095671981776775,2077800.0,5144.0,0.0,1.0,0.0,?,0.0,0.0
5300000.0,8.03125,1.2359271446863814E-7,5300000.0,46.0,-6.058701527245311,-13.20754716981132,-18.421052631578952,2117800.0,5144.0,0.0,1.0,0.0,?,0.0,0.0
5400000.0,8.15625,1.2506911945011884E-7,5400000.0,45.5,-5.872936934696791,-13.541666666666668,-27.039627039627025,2157800.0,5144.0,0.0,1.0,0.0,?,0.0,0.0
5500000.0,8.3125,1.2630021147843868E-7,5500000.0,46.7,-5.133181846872435,-13.404255319148936,-13.88888888888889,2197800.0,5144.0,0.0,1.0,0.0,?,0.0,0.0
5600000.0,8.46875,1.299889603008827E-7,5600000.0,48.4,-1.216163201255402,-4.453441295546563,-14.66666666666668,2237600.0,5144.0,0.0,1.0,0.0,?,0.0,0.0
5700000.0,8.609375,1.3275586146240436E-7,5700000.0,44.7,-7.1489467239161195,-14.02061855670103,-25.968109339407757,2277600.0,5144.0,0.0,1.0,0.0,?,0.0,0.0
5800000.0,8.765625,1.3521578188778628E-7,5800000.0,46.9,-3.735250449324077,-12.50000000000001,-20.681818181818205,2317600.0,5144.0,0.0,1.0,0.0,?,0.0,0.0
5900000.0,8.890625,1.3669218686926698E-7,5900000.0,45.5,-6.697886402969521,-10.323886639676111,-23.303167420814493,2357600.0,5144.0,0.0,1.0,0.0,?,0.0,0.0
6000000.0,9.046875,1.3792327889758682E-7,6000000.0,44.5,-9.314802996998274,-11.44578313253012,-22.51655629139074,2397600.0,5144.0,0.0,1.0,0.0,?,0.0,0.0
6100000.0,9.203125,1.4161817186201614E-7,6100000.0,44.6,-8.589976792322656,-11.02204408817635,-22.56637168141594,2437400.0,5144.0,0.0,1.0,0.0,?,0.0,0.0
6200000.0,9.359375,1.4469865062791444E-7,6200000.0,46.400000000000006,-5.621174680870349,-10.515463917525771,-15.766738660907132,2477400.0,5144.0,0.0,1.0,0.0,?,0.0,0.0
6300000.0,9.5,1.4691810873854495E-7,6300000.0,45.9,-6.500255915587226,-5.252918287937737,-17.099567099567103,2517400.0,5144.0,0.0,1.0,0.0,?,0.0,0.0
6400000.0,9.65625,1.4876975910738115E-7,6400000.0,43.7,-10.296998667816002,-13.052208835341366,-27.95454545454547,2557400.0,5144.0,0.0,1.0,0.0,?,0.0,0.0
6500000.0,9.8125,1.500069952776863E-7,6500000.0,44.5,-8.591866762671009,-13.26530612244898,-25.00000000000001,2597400.0,5144.0,0.0,1.0,0.0,?,0.0,0.0
6600000.0,9.96875,1.537018882421156E-7,6600000.0,44.2,-6.817564023538146,-25.67567567567569,-36.430317848410745,2637200.0,5144.0,0.0,1.0,0.0,?,0.0,0.0
6700000.0,10.125,1.567823670080139E-7,6700000.0,48.6,-1.3946698755252245,-11.496746203904566,-15.505617977528106,2677200.0,5144.0,0.0,1.0,0.0,?,0.0,0.0
6800000.0,10.265625,1.5900182511864442E-7,6800000.0,47.9,-1.598271464341148,-6.5439672801636055,-20.046082949308747,2717200.0,5144.0,0.0,1.0,0.0,?,0.0,0.0
6900000.0,10.421875,1.608534754874806E-7,6900000.0,42.9,-10.303208258638808,-19.4560669456067,-32.48259860788862,2757200.0,5144.0,0.0,1.0,0.0,?,0.0,0.0
7000000.0,10.578125,1.6209071165778575E-7,7000000.0,46.1,-5.6158639338480265,-7.799999999999995,-21.12359550561799,2797200.0,5144.0,0.0,1.0,0.0,?,0.0,0.0
7100000.0,10.71875,1.6542164505355892E-7,7100000.0,45.5,-6.934873718743609,-4.4061302681992265,-26.15740740740739,2837000.0,5144.0,0.0,1.0,0.0,?,0.0,0.0
7200000.0,10.859375,1.6819960567065415E-7,7200000.0,45.1,-7.067633980809735,-10.240963855421684,-23.370786516853943,2877000.0,5144.0,0.0,1.0,0.0,?,0.0,0.0
7300000.0,11.015625,1.706718143800067E-7,7300000.0,45.300000000000004,-10.567593790426894,-10.728744939271254,-17.13062098501071,2917000.0,5144.0,0.0,1.0,0.0,?,0.0,0.0
7400000.0,11.171875,1.7252572838010062E-7,7400000.0,61.0,19.98194464391965,21.37096774193548,10.344827586206904,2957000.0,5144.0,0.0,1.0,0.0,?,0.0,13.0
7500000.0,11.328125,1.737652281816635E-7,7500000.0,62.6,23.79788101059495,21.92066805845511,16.888888888888882,2997000.0,5144.0,0.0,1.0,0.0,?,0.0,0.0
7600000.0,11.484375,1.7746238477735059E-7,7600000.0,61.0,19.58663406145229,19.75308641975308,11.16173120728928,3036800.0,5144.0,0.0,1.0,0.0,?,0.0,0.0
7700000.0,11.625,1.80236852934791E-7,7700000.0,63.5,25.126976442690346,24.273858921161825,17.23356009070294,3076800.0,5144.0,0.0,1.0,0.0,?,0.0,0.0
7800000.0,11.78125,1.82705181133416E-7,7800000.0,63.5,24.804285125669562,24.43064182194617,14.519906323185023,3116800.0,5144.0,0.0,1.0,0.0,?,0.0,0.0
7900000.0,11.9375,1.8455909513350992E-7,7900000.0,64.8,28.761090602940225,31.782945736434115,24.786324786324787,3156800.0,5144.0,0.0,1.0,0.0,?,0.0,0.0
8000000.0,12.09375,1.857985949350728E-7,8000000.0,61.3,20.95523656239022,16.414686825053987,13.808463251670366,3196800.0,5144.0,0.0,1.0,0.0,?,0.0,0.0
8100000.0,12.234375,1.8913156559897796E-7,8100000.0,61.5,21.977594396978,24.8046875,16.48590021691973,3236600.0,5144.0,0.0,1.0,0.0,?,0.0,0.0
8200000.0,12.390625,1.922204521381193E-7,8200000.0,62.7,23.695042018869632,25.100401606425706,15.80135440180586,3276600.0,5144.0,0.0,1.0,0.0,?,0.0,0.0
8300000.0,12.53125,1.9444747724466857E-7,8300000.0,62.5,23.027028802259526,25.0,12.383177570093467,3316600.0,5144.0,0.0,1.0,0.0,?,0.0,0.0
8400000.0,12.6875,1.9630753538674783E-7,8400000.0,63.0,23.380533685644835,24.18032786885246,12.529550827423177,3356600.0,5144.0,0.0,1.0,0.0,?,0.0,0.0
8500000.0,12.84375,1.9755317933029603E-7,8500000.0,61.8,22.35772357723577,25.244618395303327,15.1111111111111,3396600.0,5144.0,0.0,1.0,0.0,?,0.0,0.0
8600000.0,13.0,2.0125648006796842E-7,8600000.0,64.8,27.97659239252758,30.43478260869566,21.95121951219512,3436400.0,5144.0,0.0,1.0,0.0,?,0.0,0.0
8700000.0,13.171875,2.046542552610239E-7,8700000.0,64.9,28.29417773237999,29.51807228915663,23.362445414847162,3476400.0,5144.0,0.0,1.0,0.0,?,0.0,0.0
8800000.0,13.328125,2.0712872760163418E-7,8800000.0,63.7,25.16019429485647,23.093220338983052,17.873303167420808,3516400.0,5144.0,0.0,1.0,0.0,?,0.0,0.0
8900000.0,13.484375,2.0898878574371344E-7,8900000.0,62.2,22.465673625611764,25.443786982248522,13.501144164759735,3556400.0,5144.0,0.0,1.0,0.0,?,0.0,0.0
9000000.0,13.625,2.1010986529290683E-7,9000000.0,61.3,20.915823374585166,21.9758064516129,15.131578947368412,3596400.0,5144.0,0.0,1.0,0.0,?,0.0,0.0
9100000.0,13.765625,2.1344836568459876E-7,9100000.0,60.099999999999994,18.94527282330476,21.456692913385826,12.691466083150974,3636200.0,5144.0,0.0,1.0,0.0,?,0.0,0.0
9200000.0,13.921875,2.1654339636572542E-7,9200000.0,61.8,22.433398310591297,24.055666003976143,16.956521739130427,3676200.0,5144.0,0.0,1.0,0.0,?,0.0,0.0
9300000.0,14.078125,2.1902401284832103E-7,9300000.0,60.0,19.59863639287321,18.86409736308316,18.032786885245898,3716200.0,5144.0,0.0,1.0,0.0,?,0.0,0.0
9400000.0,14.21875,2.2070359490397913E-7,9400000.0,59.4,17.1090240914659,20.547945205479447,9.777777777777763,3756200.0,5144.0,0.0,1.0,0.0,?,0.0,0.0
9500000.0,14.375,2.2195538298951264E-7,9500000.0,62.0,25.637172020790285,19.83122362869198,12.844036697247715,3796200.0,5144.0,0.0,1.0,0.0,?,0.0,0.0
9600000.0,14.53125,2.2566482786917032E-7,9600000.0,63.3,27.676178464449002,25.557809330628807,20.21739130434782,3836000.0,5144.0,0.0,1.0,0.0,?,0.0,0.0
9700000.0,14.671875,2.284503554821843E-7,9700000.0,64.4,30.664568425890952,24.093816631130064,15.035799522673043,3876000.0,5144.0,0.0,1.0,0.0,?,0.0,0.0
9800000.0,14.8125,2.3068291031652035E-7,9800000.0,64.8,31.07121596641289,29.74051896207585,20.36199095022624,3916000.0,5144.0,0.0,1.0,0.0,?,0.0,0.0
9900000.0,14.96875,2.325491126005849E-7,9900000.0,64.3,30.076230619168125,27.732793522267208,19.230769230769226,3956000.0,5144.0,0.0,1.0,0.0,?,0.0,0.0
1.0E7,15.125,2.3380090068611842E-7,1.0E7,64.3,30.333851113487526,26.84426229508197,18.67881548974942,3996000.0,5144.0,0.0,1.0,0.0,?,0.0,0.0
