learning evaluation instances,evaluation time (cpu seconds),model cost (RAM-Hours),classified instances,classifications correct (percent),Kappa Statistic (percent),Kappa Temporal Statistic (percent),Kappa M Statistic (percent),model training instances,model serialized size (bytes),labeling cost,newThreshold,maxPosterior,accuracyBaseLearner (percent),Change detected,Warning detected
100000.0,0.15625,6.8109430786636146E-9,100000.0,63.0,27.631192911768732,20.940170940170937,17.960088691796003,19800.0,9208.0,0.0,1.0,0.0,?,0.0,85.0
200000.0,0.34375,1.4197883299655387E-8,200000.0,62.9,27.46369274324102,24.43991853360489,15.489749430523908,39800.0,9208.0,0.0,1.0,0.0,?,0.0,27.0
300000.0,0.5,1.9739252618617483E-8,300000.0,53.800000000000004,5.750831310308257,3.1446540880503173,-1.5384615384615399,59800.0,9208.0,0.0,1.0,0.0,?,0.0,0.0
400000.0,0.65625,2.4666207739048536E-8,400000.0,52.6,2.5144685804543707,1.0438413361169112,-10.489510489510472,79800.0,9208.0,0.0,1.0,0.0,?,0.0,0.0
500000.0,0.828125,2.9410002753138545E-8,500000.0,51.2,0.5672556562561145,-4.05117270788913,-4.273504273504278,99800.0,9208.0,0.0,1.0,0.0,?,0.0,0.0
600000.0,0.984375,3.310812947650751E-8,600000.0,64.2,29.63836477987422,27.67676767676768,20.44444444444444,119800.0,9208.0,0.0,1.0,0.0,?,0.0,0.0
700000.0,1.140625,3.6191842001345426E-8,700000.0,62.4,26.768463695855406,22.633744855967073,14.545454545454534,139800.0,9208.0,0.0,1.0,0.0,?,0.0,0.0
800000.0,1.296875,3.86611403276523E-8,800000.0,63.0,27.970721071484196,21.610169491525422,15.909090909090901,159800.0,9208.0,0.0,1.0,0.0,?,0.0,0.0
900000.0,1.46875,4.0701512868205706E-8,900000.0,62.6,27.061393244402836,24.291497975708502,15.384615384615374,179800.0,9208.0,0.0,1.0,0.0,?,0.0,0.0
1000000.0,1.640625,4.2066029790374967E-8,1000000.0,53.7,5.986029889538673,7.028112449799203,-2.2075055187637993,199800.0,9208.0,0.0,1.0,0.0,?,0.0,0.0
1100000.0,1.796875,4.884237164838446E-8,1100000.0,53.900000000000006,6.219231363869391,7.429718875502014,-2.2172949002217317,219600.0,9208.0,0.0,1.0,0.0,?,0.0,0.0
1200000.0,1.9375,5.438810654191507E-8,1200000.0,55.400000000000006,9.896077448968054,7.851239669421495,3.4632034632034667,239600.0,9208.0,0.0,1.0,0.0,?,0.0,0.0
1300000.0,2.09375,5.993562000286248E-8,1300000.0,61.4,24.13760573566868,24.90272373540856,16.45021645021644,259600.0,9208.0,0.0,1.0,0.0,?,0.0,0.0
1400000.0,2.265625,6.536202919152047E-8,1400000.0,64.5,30.419443355546843,28.571428571428577,19.318181818181813,279600.0,9208.0,0.0,1.0,0.0,?,0.0,0.0
1500000.0,2.421875,6.968071425540579E-8,1500000.0,53.800000000000004,6.468644726613109,5.906313645621187,-4.054054054054059,299600.0,9208.0,0.0,1.0,0.0,?,0.0,0.0
1600000.0,2.578125,7.338498512076006E-8,1600000.0,50.9,-1.0695671505380495,-10.585585585585596,-20.04889975550121,319600.0,9208.0,0.0,1.0,0.0,?,0.0,0.0
1700000.0,2.75,7.678382745426561E-8,1700000.0,52.2,2.6555881394591174,-3.687635574837314,-7.657657657657666,339600.0,9208.0,0.0,1.0,0.0,?,0.0,0.0
1800000.0,2.90625,7.92592699225578E-8,1800000.0,61.8,25.92276575692583,21.721311475409834,11.778290993071602,359600.0,9208.0,0.0,1.0,0.0,?,0.0,0.0
1900000.0,3.0625,8.112029819231893E-8,1900000.0,55.50000000000001,8.681233890959259,6.903765690376576,-3.24825986078884,379600.0,9208.0,0.0,1.0,0.0,?,0.0,0.0
2000000.0,3.21875,8.236691226354903E-8,2000000.0,62.9,27.428504362114147,25.94810379241517,16.62921348314606,399600.0,9208.0,0.0,1.0,0.0,?,0.0,0.0
2100000.0,3.375,8.914939826354383E-8,2100000.0,54.400000000000006,5.987135081642765,12.64367816091955,-5.555555555555534,419400.0,9208.0,0.0,1.0,0.0,?,0.0,0.0
2200000.0,3.546875,9.593427724515397E-8,2200000.0,63.3,28.272681077277873,26.305220883534137,17.52808988764044,439400.0,9208.0,0.0,1.0,0.0,?,0.0,0.0
2300000.0,3.703125,1.0148793484808668E-7,2300000.0,62.8,26.521421375945632,24.848484848484848,20.34261241970021,459400.0,9208.0,0.0,1.0,0.0,?,0.0,0.0
2400000.0,3.875,1.0692110259292852E-7,2400000.0,54.0,5.870797438048681,7.070707070707077,-5.747126436781588,479400.0,9208.0,0.0,1.0,0.0,?,0.0,0.0
2500000.0,4.03125,1.1124593179879915E-7,2500000.0,61.3,23.873445011841902,19.20668058455114,13.808463251670366,499400.0,9208.0,0.0,1.0,0.0,?,0.0,0.0
2600000.0,4.1875,1.1495634680613874E-7,2600000.0,54.6,6.7658426190994545,6.584362139917702,-3.4168564920273385,519400.0,9208.0,0.0,1.0,0.0,?,0.0,0.0
2700000.0,4.328125,1.1774274753406643E-7,2700000.0,54.300000000000004,6.43605303458386,5.1867219917012495,-3.6281179138322033,539400.0,9208.0,0.0,1.0,0.0,?,0.0,0.0
2800000.0,4.5,1.2047249280537166E-7,2800000.0,64.2,30.21768962075849,25.72614107883818,15.962441314554003,559400.0,9208.0,0.0,1.0,0.0,?,0.0,0.0
2900000.0,4.65625,1.223396652171181E-7,2900000.0,53.300000000000004,5.913545225968655,9.671179883945848,0.21367521367521386,579400.0,9208.0,0.0,1.0,0.0,?,0.0,0.0
3000000.0,4.8125,1.235924234303335E-7,3000000.0,64.2,29.666011787819258,22.844827586206897,20.44444444444444,599400.0,9208.0,0.0,1.0,0.0,?,0.0,0.0
3100000.0,4.96875,1.3038105357231363E-7,3100000.0,53.400000000000006,5.278007016745068,8.984375000000009,-1.0845986984815628,619200.0,9208.0,0.0,1.0,0.0,?,0.0,0.0
3200000.0,5.140625,1.371726911101076E-7,3200000.0,64.5,30.551751660889092,28.714859437751006,19.86455981941309,639200.0,9208.0,0.0,1.0,0.0,?,0.0,0.0
3300000.0,5.296875,1.4273249285502565E-7,3300000.0,57.49999999999999,12.76396597589412,14.829659318637264,0.7009345794392529,659200.0,9208.0,0.0,1.0,0.0,?,0.0,0.0
3400000.0,5.453125,1.4767788040141264E-7,3400000.0,63.0,27.714327020384566,24.024640657084188,12.529550827423177,679200.0,9208.0,0.0,1.0,0.0,?,0.0,0.0
3500000.0,5.625,1.5244195108405417E-7,3500000.0,52.6,3.527160971241338,7.24070450097848,-5.5679287305122545,699200.0,9208.0,0.0,1.0,0.0,?,0.0,0.0
3600000.0,5.78125,1.5615851023337906E-7,3600000.0,65.10000000000001,31.224480143778283,31.027667984189726,22.616407982261638,719200.0,9208.0,0.0,1.0,0.0,?,0.0,0.0
3700000.0,5.9375,1.592606551841729E-7,3700000.0,54.50000000000001,7.302523816120803,8.63453815261045,0.655021834061136,739200.0,9208.0,0.0,1.0,0.0,?,0.0,0.0
3800000.0,6.09375,1.617483859364357E-7,3800000.0,63.2,27.54308036417478,22.19873150105708,16.74208144796379,759200.0,9208.0,0.0,1.0,0.0,?,0.0,0.0
3900000.0,6.25,1.6362170249016747E-7,3900000.0,55.00000000000001,7.381489470304449,11.242603550295868,-2.739726027397263,779200.0,9208.0,0.0,1.0,0.0,?,0.0,0.0
4000000.0,6.390625,1.6475471460984812E-7,4000000.0,63.5,28.10091873236995,26.411290322580644,19.956140350877188,799200.0,9208.0,0.0,1.0,0.0,?,0.0,0.0
4100000.0,6.5625,1.722289663222101E-7,4100000.0,51.6,2.0714716391697867,4.724409448818902,-5.908096280087533,819000.0,9208.0,0.0,1.0,0.0,?,0.0,0.0
4200000.0,6.71875,1.784093264076445E-7,4200000.0,63.0,26.68534539128229,26.294820717131472,19.389978213507618,839000.0,9208.0,0.0,1.0,0.0,?,0.0,0.0
4300000.0,6.875,1.8397527229454783E-7,4300000.0,58.3,16.452287644555568,15.41582150101419,14.373716632443523,859000.0,9208.0,0.0,1.0,0.0,?,0.0,0.0
4400000.0,7.046875,1.8942195715175735E-7,4400000.0,60.3,21.156320999030832,22.460937499999996,11.973392461197326,879000.0,9208.0,0.0,1.0,0.0,?,0.0,0.0
4500000.0,7.203125,1.937590746415986E-7,4500000.0,56.89999999999999,13.866150796188526,9.071729957805893,1.146788990825689,899000.0,9208.0,0.0,1.0,0.0,?,0.0,0.0
4600000.0,7.359375,1.974817779329088E-7,4600000.0,63.3,27.690998218873634,25.557809330628807,20.04357298474945,919000.0,9208.0,0.0,1.0,0.0,?,0.0,0.0
4700000.0,7.515625,2.0059006702568797E-7,4700000.0,53.400000000000006,6.320360244451597,0.6396588486140731,-10.952380952380935,939000.0,9208.0,0.0,1.0,0.0,?,0.0,0.0
4800000.0,7.6875,2.033333294093609E-7,4800000.0,61.5,24.107424462246886,23.153692614770456,13.092550790067708,959000.0,9208.0,0.0,1.0,0.0,?,0.0,0.0
4900000.0,7.84375,2.0521279010507796E-7,4900000.0,64.4,30.256249510226475,27.789046653144016,19.45701357466063,979000.0,9208.0,0.0,1.0,0.0,?,0.0,0.0
5000000.0,8.0,2.065712922356195E-7,5000000.0,56.00000000000001,9.640904740977447,9.650924024640666,-0.22779043280182257,999000.0,9208.0,0.0,1.0,0.0,?,0.0,0.0
5100000.0,8.15625,2.1346566629492575E-7,5100000.0,48.0,1.8256650367209688,-10.638297872340436,-40.161725067385454,1018800.0,9208.0,0.0,1.0,0.0,?,0.0,0.0
5200000.0,8.3125,2.1974562615570094E-7,5200000.0,45.300000000000004,-4.7146477988866256,-12.09016393442623,-43.56955380577428,1038800.0,9208.0,0.0,1.0,0.0,?,0.0,0.0
5300000.0,8.46875,2.254111718179451E-7,5300000.0,45.800000000000004,-3.4094594852422104,-20.44444444444445,-45.3083109919571,1058800.0,9208.0,0.0,1.0,0.0,?,0.0,0.0
5400000.0,8.640625,2.3096741642802955E-7,5400000.0,47.199999999999996,1.0683864778471852,-17.073170731707336,-45.45454545454547,1078800.0,9208.0,0.0,1.0,0.0,?,0.0,0.0
5500000.0,8.796875,2.3540413369321162E-7,5500000.0,48.5,2.061463563061,-7.51565762004176,-41.48351648351649,1098800.0,9208.0,0.0,1.0,0.0,?,0.0,0.0
5600000.0,8.953125,2.3922643675986266E-7,5600000.0,45.6,-4.8238227552479245,-9.236947791164656,-39.13043478260869,1118800.0,9208.0,0.0,1.0,0.0,?,0.0,0.0
5700000.0,9.109375,2.4243432562798266E-7,5700000.0,46.7,-0.8560464429794301,-19.239373601789715,-42.513368983957214,1138800.0,9208.0,0.0,1.0,0.0,?,0.0,0.0
5800000.0,9.265625,2.450278002975716E-7,5800000.0,46.0,-2.043901554090825,-13.20754716981132,-45.16129032258064,1158800.0,9208.0,0.0,1.0,0.0,?,0.0,0.0
5900000.0,9.4375,2.4720476681573526E-7,5900000.0,47.9,0.65214904084512,-9.684210526315798,-33.58974358974359,1178800.0,9208.0,0.0,1.0,0.0,?,0.0,0.0
6000000.0,9.59375,2.485694130882621E-7,6000000.0,48.699999999999996,2.173166843377898,-8.227848101265831,-32.90155440414508,1198800.0,9208.0,0.0,1.0,0.0,?,0.0,0.0
6100000.0,9.75,2.5550679614146553E-7,6100000.0,49.7,2.929483963101619,-3.7113402061855707,-26.065162907268164,1218600.0,9208.0,0.0,1.0,0.0,?,0.0,5.0
6200000.0,9.921875,2.624620618816051E-7,6200000.0,49.9,2.9257895756636314,-10.10989010989012,-30.129870129870127,1238600.0,9208.0,0.0,1.0,0.0,?,0.0,0.0
6300000.0,10.09375,2.687414720033606E-7,6300000.0,46.300000000000004,-0.29509543909453706,-18.02197802197803,-55.202312138728324,1258600.0,9208.0,0.0,1.0,0.0,?,0.0,0.0
6400000.0,10.234375,2.733261984152099E-7,6400000.0,47.199999999999996,-1.0971336664943443,-13.548387096774206,-43.08943089430895,1278600.0,9208.0,0.0,1.0,0.0,?,0.0,0.0
6500000.0,10.40625,2.7825389730019705E-7,6500000.0,50.6,-3.263891501841613,-2.277432712215323,-25.699745547073782,1298600.0,9208.0,0.0,1.0,0.0,?,0.0,0.0
6600000.0,10.578125,2.8250574056680005E-7,6600000.0,51.0,-3.764315240224981,-6.290672451193065,-30.31914893617021,1318600.0,9208.0,0.0,1.0,0.0,?,0.0,0.0
6700000.0,10.734375,2.857566384288172E-7,6700000.0,49.3,-7.763201523563371,-12.416851441241697,-34.12698412698413,1338600.0,9208.0,0.0,1.0,0.0,?,0.0,0.0
6800000.0,10.90625,2.8865677045865196E-7,6800000.0,55.2,4.906243499450256,0.8849557522123902,-25.490196078431364,1358600.0,9208.0,0.0,1.0,0.0,?,0.0,0.0
6900000.0,11.078125,2.9088104687010253E-7,6900000.0,48.8,-7.900327072866431,-10.107526881720439,-34.031413612565444,1378600.0,9208.0,0.0,1.0,0.0,?,0.0,0.0
7000000.0,11.25,2.9242946766316894E-7,7000000.0,50.7,-2.3203686023826258,-2.28215767634855,-23.55889724310776,1398600.0,9208.0,0.0,1.0,0.0,?,0.0,0.0
7100000.0,11.390625,2.986483741551638E-7,7100000.0,52.0,-1.8468223791417566,-10.344827586206879,-32.59668508287293,1418400.0,9208.0,0.0,1.0,0.0,?,0.0,6.0
7200000.0,11.546875,3.049438560588493E-7,7200000.0,49.7,-6.683521107642185,-6.342494714587745,-41.29213483146068,1438400.0,9208.0,0.0,1.0,0.0,?,0.0,0.0
7300000.0,11.703125,3.1062492376400374E-7,7300000.0,51.6,-1.238710001296856,-3.8626609442060125,-25.064599483204127,1458400.0,9208.0,0.0,1.0,0.0,?,0.0,0.0
7400000.0,11.859375,3.156915772706271E-7,7400000.0,50.8,-3.247251986250485,-6.956521739130442,-29.815303430079155,1478400.0,9208.0,0.0,1.0,0.0,?,0.0,0.0
7500000.0,12.03125,3.205890405095287E-7,7500000.0,50.3,-2.7657849899922136,-1.6359918200409014,-20.924574209245733,1498400.0,9208.0,0.0,1.0,0.0,?,0.0,0.0
7600000.0,12.1875,3.2442686561909E-7,7600000.0,48.8,-9.917004074657706,-14.541387024608515,-41.82825484764543,1518400.0,9208.0,0.0,1.0,0.0,?,0.0,0.0
7700000.0,12.34375,3.276502765301202E-7,7700000.0,51.4,-2.8702057404114845,-3.84615384615385,-31.351351351351347,1538400.0,9208.0,0.0,1.0,0.0,?,0.0,0.0
7800000.0,12.5,3.302592732426194E-7,7800000.0,50.7,-4.0523427606585045,-8.590308370044061,-33.60433604336043,1558400.0,9208.0,0.0,1.0,0.0,?,0.0,0.0
7900000.0,12.65625,3.3225385575658755E-7,7900000.0,49.8,-5.363019678957624,-10.572687224669613,-34.946236559139784,1578400.0,9208.0,0.0,1.0,0.0,?,0.0,0.0
8000000.0,12.8125,3.3363402407202463E-7,8000000.0,50.6,-4.15436773660329,-2.9166666666666696,-32.0855614973262,1598400.0,9208.0,0.0,1.0,0.0,?,0.0,0.0
8100000.0,12.96875,3.4055006431622645E-7,8100000.0,49.4,-6.345416638644158,-6.7510548523206815,-42.134831460674164,1618200.0,9208.0,0.0,1.0,0.0,?,0.0,0.0
8200000.0,13.140625,3.474818529664643E-7,8200000.0,50.2,-3.6636136552872496,-10.91314031180402,-24.499999999999993,1638200.0,9208.0,0.0,1.0,0.0,?,0.0,0.0
8300000.0,13.296875,3.53169064813604E-7,8300000.0,49.2,-6.015768802147032,-5.613305613305618,-32.637075718015666,1658200.0,9208.0,0.0,1.0,0.0,?,0.0,0.0
8400000.0,13.453125,3.582418624622127E-7,8400000.0,52.400000000000006,-2.23587276359029,-3.478260869565221,-37.97101449275363,1678200.0,9208.0,0.0,1.0,0.0,?,0.0,0.0
8500000.0,13.59375,3.622544075672826E-7,8500000.0,49.8,-4.827931840962252,-13.063063063063076,-36.41304347826087,1698200.0,9208.0,0.0,1.0,0.0,?,0.0,0.0
8600000.0,13.765625,3.6648277374398386E-7,8600000.0,53.1,0.9127017662469347,5.633802816901413,-22.135416666666657,1718200.0,9208.0,0.0,1.0,0.0,?,0.0,0.0
8700000.0,13.90625,3.693893732916979E-7,8700000.0,51.4,-3.1299734748010697,-4.068522483940047,-26.233766233766225,1738200.0,9208.0,0.0,1.0,0.0,?,0.0,0.0
8800000.0,14.0625,3.720045141461824E-7,8800000.0,51.300000000000004,-3.8290977315367507,-0.4123711340206189,-28.1578947368421,1758200.0,9208.0,0.0,1.0,0.0,?,0.0,0.0
8900000.0,14.21875,3.7400524080213585E-7,8900000.0,49.1,-6.34830427733297,-6.932773109243703,-29.8469387755102,1778200.0,9208.0,0.0,1.0,0.0,?,0.0,0.0
9000000.0,14.375,3.7539155325955826E-7,9000000.0,52.5,-1.0655500519157801,0.4192872117400423,-26.329787234042545,1798200.0,9208.0,0.0,1.0,0.0,?,0.0,0.0
9100000.0,14.53125,3.823137376457454E-7,9100000.0,49.9,-5.718506013926992,-3.5123966942148797,-41.12676056338029,1818000.0,9208.0,0.0,1.0,0.0,?,0.0,0.0
9200000.0,14.6875,3.886215078334015E-7,9200000.0,51.4,-1.6328169438217128,-3.4042553191489398,-26.562499999999993,1838000.0,9208.0,0.0,1.0,0.0,?,0.0,0.0
9300000.0,14.859375,3.9488419942143906E-7,9300000.0,50.3,-3.132574122646834,-0.6072874493927131,-20.338983050847446,1858000.0,9208.0,0.0,1.0,0.0,?,0.0,0.0
9400000.0,15.0,3.9945524703297364E-7,9400000.0,50.7,-2.66299051252364,1.7928286852589657,-22.332506203473937,1878000.0,9208.0,0.0,1.0,0.0,?,0.0,0.0
9500000.0,15.15625,4.039197746250366E-7,9500000.0,49.7,-5.013069220940824,-2.443991853360491,-26.700251889168758,1898000.0,9208.0,0.0,1.0,0.0,?,0.0,0.0
9600000.0,15.3125,4.0776988801856847E-7,9600000.0,49.5,-6.564364876385342,-4.12371134020619,-28.498727735368952,1918000.0,9208.0,0.0,1.0,0.0,?,0.0,0.0
9700000.0,15.484375,4.1132915713306944E-7,9700000.0,51.6,-3.028264654919165,-2.1097046413502127,-29.75871313672922,1938000.0,9208.0,0.0,1.0,0.0,?,0.0,0.0
9800000.0,15.640625,4.139504421295393E-7,9800000.0,48.6,-7.448209544912944,-7.983193277310932,-30.126582278481013,1958000.0,9208.0,0.0,1.0,0.0,?,0.0,0.0
9900000.0,15.796875,4.1595731292747807E-7,9900000.0,47.099999999999994,-11.545014422833628,-16.519823788546272,-50.28409090909093,1978000.0,9208.0,0.0,1.0,0.0,?,0.0,0.0
1.0E7,15.953125,4.173497695268858E-7,1.0E7,50.7,-2.6091444936561308,-1.8595041322314068,-26.73521850899742,1998000.0,9208.0,0.0,1.0,0.0,?,0.0,0.0
