learning evaluation instances,evaluation time (cpu seconds),model cost (RAM-Hours),classified instances,classifications correct (percent),Kappa Statistic (percent),Kappa Temporal Statistic (percent),Kappa M Statistic (percent),model training instances,model serialized size (bytes),labeling cost,newThreshold,maxPosterior,accuracyBaseLearner (percent),Change detected,Warning detected,tree size (nodes),tree size (leaves),active learning leaves,tree depth,active leaf byte size estimate,inactive leaf byte size estimate,byte size estimate overhead
100000.0,0.265625,1.0366978434224923E-8,100000.0,94.69999999999999,88.0308217631277,87.67441860465115,83.38557993730406,19968.0,105736.0,19968.0,1.0,0.0,0.0,0.0,1.0,29.0,24.0,24.0,4.0,0.0,0.0,1.0
200000.0,0.484375,1.8904942812191115E-8,200000.0,95.3,89.47877398615674,89.19540229885057,85.6269113149847,39876.0,105744.0,39876.0,1.0,0.0,0.0,0.0,0.0,29.0,24.0,24.0,4.0,0.0,0.0,1.0
300000.0,0.703125,2.7442907190157305E-8,300000.0,95.0,88.9392276926344,88.55835240274598,85.20710059171596,59806.0,105744.0,59806.0,1.0,0.0,0.0,0.0,0.0,29.0,24.0,24.0,4.0,0.0,0.0,1.0
400000.0,0.9375,3.687594370502565E-8,400000.0,95.1,89.14199609998226,88.60465116279069,85.24096385542167,79806.0,110424.0,79806.0,1.0,0.0,0.0,0.0,0.0,31.0,25.0,25.0,4.0,0.0,0.0,1.0
500000.0,1.171875,4.630946528373493E-8,500000.0,93.4,85.19807664705039,84.28571428571429,79.50310559006213,99682.0,110432.0,99682.0,1.0,0.0,0.0,0.0,0.0,31.0,25.0,25.0,4.0,0.0,0.0,1.0
600000.0,1.40625,5.602868946476115E-8,600000.0,95.3,89.50564908676817,88.96713615023474,85.97014925373134,119750.0,115120.0,119750.0,1.0,0.0,0.0,0.0,0.0,33.0,26.0,26.0,4.0,0.0,0.0,1.0
700000.0,1.640625,6.60336162481043E-8,700000.0,93.60000000000001,86.01080665186144,85.15081206496521,81.5028901734104,139626.0,119808.0,139626.0,1.0,0.0,0.0,0.0,0.0,35.0,27.0,27.0,5.0,0.0,0.0,1.0
800000.0,1.859375,7.537154791255791E-8,800000.0,94.69999999999999,88.3596303194293,88.22222222222221,84.77011494252872,159647.0,119808.0,159647.0,1.0,0.0,0.0,0.0,0.0,35.0,27.0,27.0,5.0,0.0,0.0,1.0
900000.0,2.078125,8.470947957701152E-8,900000.0,95.3,89.56964811987358,89.14549653579675,85.84337349397589,179718.0,119808.0,179718.0,1.0,0.0,0.0,0.0,0.0,35.0,27.0,27.0,5.0,0.0,0.0,1.0
1000000.0,2.3125,9.969892238991127E-8,1000000.0,95.19999999999999,89.07964126621557,88.70588235294117,84.95297805642632,199911.0,201896.0,199911.0,1.0,0.0,0.0,0.0,0.0,57.0,47.0,47.0,5.0,0.0,0.0,1.0
1100000.0,2.671875,1.5837525198650028E-7,1100000.0,93.5,84.87316732604143,84.7417840375587,79.36507936507938,219843.0,584824.0,219843.0,1.0,0.0,0.0,0.0,0.0,189.0,146.0,146.0,6.0,0.0,0.0,1.0
1200000.0,3.09375,2.6073313266452817E-7,1200000.0,95.5,90.07691493490455,90.30172413793103,87.06896551724137,239740.0,891264.0,239740.0,1.0,0.0,0.0,0.0,44.0,257.0,206.0,206.0,6.0,0.0,0.0,1.0
1300000.0,3.40625,3.3752261919693817E-7,1300000.0,95.8,90.54531047399509,90.64587973273942,87.34939759036143,259656.0,903248.0,259656.0,1.0,0.0,0.0,0.0,0.0,257.0,206.0,206.0,6.0,0.0,0.0,1.0
1400000.0,3.734375,4.275175807480183E-7,1400000.0,94.3,87.1003367491038,87.52735229759298,82.56880733944952,279837.0,1013600.0,279837.0,1.0,0.0,0.0,0.0,0.0,297.0,244.0,244.0,6.0,0.0,0.0,1.0
1500000.0,4.078125,5.271443903135757E-7,1500000.0,93.8,86.08199054473292,84.30379746835442,80.44164037854887,299790.0,1073512.0,299790.0,1.0,0.0,0.0,0.0,0.0,297.0,244.0,244.0,6.0,0.0,0.0,1.0
1600000.0,4.421875,6.324362928151257E-7,1600000.0,95.5,89.98067383308246,90.04424778761062,86.68639053254437,319560.0,1137168.0,319560.0,1.0,0.0,0.0,0.0,0.0,317.0,263.0,263.0,6.0,0.0,0.0,1.0
1700000.0,4.75,7.33698705314762E-7,1700000.0,94.3,86.52227371606922,86.5566037735849,80.67796610169489,339484.0,1146048.0,339484.0,1.0,0.0,0.0,0.0,0.0,317.0,263.0,263.0,6.0,0.0,0.0,1.0
1800000.0,5.078125,8.353305424356626E-7,1800000.0,94.39999999999999,87.57515919327282,87.06697459584295,83.57771260997066,359564.0,1150384.0,359564.0,1.0,0.0,0.0,0.0,0.0,317.0,263.0,263.0,6.0,0.0,0.0,1.0
1900000.0,5.390625,9.323096795318028E-7,1900000.0,95.1,89.46118705747739,89.30131004366811,86.46408839779004,379667.0,1152696.0,379667.0,1.0,0.0,0.0,0.0,0.0,317.0,263.0,263.0,6.0,0.0,0.0,1.0
2000000.0,5.703125,1.029350904799584E-6,2000000.0,93.60000000000001,85.34476441708802,84.61538461538463,79.746835443038,399603.0,1153464.0,399603.0,1.0,0.0,0.0,0.0,0.0,317.0,263.0,263.0,6.0,0.0,0.0,1.0
2100000.0,6.015625,1.1265460569928917E-6,2100000.0,94.6,87.86347760811617,87.44186046511628,83.58662613981761,419498.0,1155368.0,419498.0,1.0,0.0,0.0,0.0,0.0,317.0,263.0,263.0,6.0,0.0,0.0,1.0
2200000.0,6.34375,1.22900570406475E-6,2200000.0,95.1,88.67617559785171,88.4160756501182,84.24437299035368,439444.0,1160112.0,439444.0,1.0,0.0,0.0,0.0,0.0,319.0,264.0,264.0,7.0,0.0,0.0,1.0
2300000.0,6.671875,1.3334021140407356E-6,2300000.0,94.6,88.00383877159308,87.97327394209353,83.9285714285714,459746.0,1182808.0,459746.0,1.0,0.0,0.0,0.0,0.0,329.0,269.0,269.0,7.0,0.0,0.0,1.0
2400000.0,7.015625,1.444768891411109E-6,2400000.0,96.0,90.82396230483714,90.82568807339449,87.53894080996884,479709.0,1205200.0,479709.0,1.0,0.0,0.0,0.0,0.0,338.0,275.0,275.0,8.0,0.0,0.0,1.0
2500000.0,7.34375,1.5539447324246995E-6,2500000.0,94.39999999999999,87.41307152522104,87.38738738738738,83.08157099697884,499835.0,1238968.0,499835.0,1.0,0.0,0.0,0.0,0.0,347.0,283.0,283.0,8.0,0.0,0.0,1.0
2600000.0,7.6875,1.668595456673453E-6,2600000.0,95.1,88.8599905423593,89.25438596491227,84.73520249221183,519957.0,1242072.0,519957.0,1.0,0.0,0.0,0.0,0.0,347.0,283.0,283.0,8.0,0.0,0.0,1.0
2700000.0,8.015625,1.7780476870636143E-6,2700000.0,94.3,86.80433373460504,85.45918367346937,81.67202572347266,539911.0,1242224.0,539911.0,1.0,0.0,0.0,0.0,0.0,347.0,283.0,283.0,8.0,0.0,0.0,1.0
2800000.0,8.34375,1.8875895572515824E-6,2800000.0,94.6,87.38441554800697,87.32394366197182,81.93979933110367,559947.0,1243280.0,559947.0,1.0,0.0,0.0,0.0,0.0,347.0,283.0,283.0,8.0,0.0,0.0,1.0
2900000.0,8.6875,2.002389681163347E-6,2900000.0,94.8,88.46290379836704,88.59649122807016,84.97109826589593,579897.0,1243752.0,579897.0,1.0,0.0,0.0,0.0,0.0,347.0,283.0,283.0,8.0,0.0,0.0,1.0
3000000.0,9.015625,2.1119770503395957E-6,3000000.0,93.8,86.04307736637371,86.86440677966101,81.43712574850298,599997.0,1243816.0,599997.0,1.0,0.0,0.0,0.0,0.0,347.0,283.0,283.0,8.0,0.0,0.0,1.0
3100000.0,9.34375,2.2215875085546732E-6,3100000.0,94.89999999999999,88.2139786834783,88.0281690140845,83.60128617363343,619914.0,1244080.0,619914.0,1.0,0.0,0.0,0.0,0.0,349.0,284.0,284.0,8.0,0.0,0.0,1.0
3200000.0,9.6875,2.336749037365532E-6,3200000.0,95.3,89.34694506650224,89.06976744186046,85.58282208588956,639980.0,1247792.0,639980.0,1.0,0.0,0.0,0.0,0.0,349.0,284.0,284.0,8.0,0.0,0.0,1.0
3300000.0,10.015625,2.4466759512304424E-6,3300000.0,94.5,87.33174250730151,87.69574944071587,82.484076433121,659985.0,1247792.0,659985.0,1.0,0.0,0.0,0.0,0.0,349.0,284.0,284.0,8.0,0.0,0.0,1.0
3400000.0,10.359375,2.561840325749168E-6,3400000.0,95.19999999999999,89.04274698333127,89.28571428571428,85.04672897196261,679732.0,1247824.0,679732.0,1.0,0.0,0.0,0.0,0.0,349.0,284.0,284.0,8.0,0.0,0.0,1.0
3500000.0,10.6875,2.671769955971588E-6,3500000.0,95.1,89.07566772194228,89.15929203539822,85.79710144927535,699529.0,1247824.0,699529.0,1.0,0.0,0.0,0.0,0.0,349.0,284.0,284.0,8.0,0.0,0.0,1.0
3600000.0,11.03125,2.7869343304903132E-6,3600000.0,96.2,90.82799104039545,90.79903147699757,87.07482993197277,719393.0,1247824.0,719393.0,1.0,0.0,0.0,0.0,0.0,349.0,284.0,284.0,8.0,0.0,0.0,1.0
3700000.0,11.34375,2.8916292164164273E-6,3700000.0,93.89999999999999,85.86143276995392,86.23024830699772,79.86798679867985,739655.0,1247824.0,739655.0,1.0,0.0,0.0,0.0,0.0,349.0,284.0,284.0,8.0,0.0,0.0,1.0
3800000.0,11.671875,3.001900428595641E-6,3800000.0,95.5,90.21773155716322,89.48598130841121,87.25212464589234,759596.0,1251824.0,759596.0,1.0,0.0,0.0,0.0,0.0,351.0,285.0,285.0,9.0,0.0,0.0,1.0
3900000.0,12.015625,3.1174674707775303E-6,3900000.0,95.5,89.99706580596974,89.91031390134529,86.52694610778443,779558.0,1252328.0,779558.0,1.0,0.0,0.0,0.0,0.0,351.0,285.0,285.0,9.0,0.0,0.0,1.0
4000000.0,12.34375,3.227786898302534E-6,4000000.0,94.89999999999999,88.5112364612806,88.5135135135135,84.49848024316108,799506.0,1252392.0,799506.0,1.0,0.0,0.0,0.0,0.0,351.0,285.0,285.0,9.0,0.0,0.0,1.0
4100000.0,12.65625,3.33285560676207E-6,4100000.0,94.8,88.20412311265969,88.01843317972349,84.14634146341461,819382.0,1252424.0,819382.0,1.0,0.0,0.0,0.0,0.0,351.0,285.0,285.0,9.0,0.0,0.0,1.0
4200000.0,12.96875,3.437925608725182E-6,4200000.0,94.5,87.61060352129174,86.9047619047619,83.23170731707316,839480.0,1252440.0,839480.0,1.0,0.0,0.0,0.0,0.0,351.0,285.0,285.0,9.0,0.0,0.0,1.0
4300000.0,13.3125,3.553544585075642E-6,4300000.0,93.4,85.1901051951316,84.61538461538463,79.87804878048782,859382.0,1252912.0,859382.0,1.0,0.0,0.0,0.0,0.0,351.0,285.0,285.0,9.0,0.0,0.0,1.0
4400000.0,13.640625,3.663908153410172E-6,4400000.0,94.69999999999999,87.83287419651055,87.19806763285023,83.2278481012658,879284.0,1252912.0,879284.0,1.0,0.0,0.0,0.0,0.0,351.0,285.0,285.0,9.0,0.0,0.0,1.0
4500000.0,13.984375,3.779527129760632E-6,4500000.0,94.3,87.37999929150871,87.76824034334763,83.28445747800585,899416.0,1252912.0,899416.0,1.0,0.0,0.0,0.0,0.0,351.0,285.0,285.0,9.0,0.0,0.0,1.0
4600000.0,14.3125,3.889891377184539E-6,4600000.0,96.8,92.61021176361915,92.87305122494432,89.84126984126983,919461.0,1252920.0,919461.0,1.0,0.0,0.0,0.0,0.0,351.0,285.0,285.0,9.0,0.0,0.0,1.0
4700000.0,14.640625,4.000549670308827E-6,4700000.0,95.39999999999999,89.32556110420109,88.38383838383838,84.96732026143789,939496.0,1256360.0,939496.0,1.0,0.0,0.0,0.0,0.0,353.0,286.0,286.0,9.0,0.0,0.0,1.0
4800000.0,14.984375,4.116529340131414E-6,4800000.0,95.6,89.73305954825462,89.37198067632849,85.8974358974359,959513.0,1256944.0,959513.0,1.0,0.0,0.0,0.0,0.0,353.0,286.0,286.0,9.0,0.0,0.0,1.0
4900000.0,15.328125,4.232866857718261E-6,4900000.0,93.8,86.00091219862446,86.19153674832961,81.15501519756837,979240.0,1260944.0,979240.0,1.0,0.0,0.0,0.0,0.0,355.0,287.0,287.0,9.0,0.0,0.0,1.0
5000000.0,15.671875,4.3492086438669085E-6,5000000.0,95.5,90.11727500329422,89.93288590604026,86.99421965317919,999443.0,1260992.0,999443.0,1.0,0.0,0.0,0.0,0.0,355.0,287.0,287.0,9.0,0.0,0.0,1.0
5100000.0,16.234375,4.376076135991347E-6,5100000.0,67.4,29.77921378567584,28.820960698689962,8.68347338935575,19521.0,97792.0,1019499.0,1.0,0.0,0.0,1.0,17.0,25.0,22.0,22.0,2.0,0.0,0.0,1.0
5200000.0,16.59375,4.391304715277833E-6,5200000.0,68.7,34.4826431334461,33.68644067796611,17.414248021108193,39366.0,119384.0,1039344.0,1.0,0.0,0.0,0.0,10.0,35.0,27.0,27.0,5.0,0.0,0.0,1.0
5300000.0,16.890625,4.403886689235351E-6,5300000.0,68.30000000000001,34.14437547262318,36.08870967741937,17.015706806282736,59258.0,119408.0,1059236.0,1.0,0.0,0.0,0.0,0.0,35.0,27.0,27.0,5.0,0.0,0.0,1.0
5400000.0,17.203125,4.4175118091516185E-6,5400000.0,69.89999999999999,36.85544301885525,39.06882591093117,17.75956284153004,79219.0,124096.0,1079197.0,1.0,0.0,0.0,0.0,0.0,37.0,28.0,28.0,6.0,0.0,0.0,1.0
5500000.0,17.546875,4.440613977041922E-6,5500000.0,68.89999999999999,37.987525722216006,34.800838574423466,20.66326530612244,99290.0,214856.0,1099268.0,1.0,0.0,0.0,0.0,0.0,79.0,49.0,49.0,7.0,0.0,0.0,1.0
5600000.0,17.96875,4.522416986421577E-6,5600000.0,70.3,39.740946939570506,37.99582463465552,24.234693877551013,118960.0,703664.0,1118938.0,1.0,0.0,0.0,0.0,0.0,211.0,160.0,160.0,7.0,0.0,0.0,1.0
5700000.0,18.328125,4.5999789856270774E-6,5700000.0,68.7,36.73649233157355,31.808278867102402,13.535911602209957,138958.0,787920.0,1138936.0,1.0,0.0,0.0,0.0,0.0,251.0,180.0,180.0,7.0,0.0,0.0,1.0
5800000.0,18.65625,4.671253490313473E-6,5800000.0,69.3,38.39151689316646,33.69330453563713,14.484679665738142,159019.0,793280.0,1158997.0,1.0,0.0,0.0,0.0,0.0,253.0,181.0,181.0,7.0,0.0,0.0,1.0
5900000.0,18.984375,4.742832227040909E-6,5900000.0,71.5,43.40207168276562,41.35802469135801,26.73521850899742,179023.0,796856.0,1179001.0,1.0,0.0,0.0,0.0,0.0,255.0,182.0,182.0,7.0,0.0,0.0,1.0
6000000.0,19.3125,4.814773597495836E-6,6000000.0,74.3,48.6,45.89473684210526,34.271099744245525,199183.0,801112.0,1199161.0,1.0,0.0,0.0,0.0,0.0,255.0,182.0,182.0,7.0,0.0,0.0,1.0
6100000.0,19.65625,4.893687210925336E-6,6100000.0,71.39999999999999,43.757251578140036,38.62660944206007,25.714285714285705,219230.0,840776.0,1219208.0,1.0,0.0,0.0,0.0,0.0,273.0,191.0,191.0,7.0,0.0,0.0,1.0
6200000.0,20.015625,4.9814015963218265E-6,6200000.0,73.2,45.746132387534566,44.28274428274428,27.37127371273712,239161.0,896696.0,1239139.0,1.0,0.0,0.0,0.0,0.0,292.0,204.0,204.0,7.0,0.0,0.0,1.0
6300000.0,20.375,5.07404714072537E-6,6300000.0,71.89999999999999,43.209377526273244,45.33073929961089,29.040404040404038,259314.0,949592.0,1259292.0,1.0,0.0,0.0,0.0,0.0,307.0,215.0,215.0,7.0,0.0,0.0,1.0
6400000.0,20.71875,5.163073688486797E-6,6400000.0,74.3,47.448061508261084,40.919540229885065,29.20110192837465,279471.0,954168.0,1279449.0,1.0,0.0,0.0,0.0,0.0,309.0,216.0,216.0,7.0,0.0,0.0,1.0
6500000.0,21.109375,5.269887980021949E-6,6500000.0,73.6,47.03241054697062,41.33333333333333,31.782945736434108,299282.0,1009760.0,1299260.0,1.0,0.0,0.0,0.0,0.0,342.0,234.0,234.0,7.0,0.0,0.0,1.0
6600000.0,21.46875,5.371707116460634E-6,6600000.0,71.7,42.3766085681707,38.478260869565204,27.249357326478147,319378.0,1047792.0,1319356.0,1.0,0.0,0.0,0.0,0.0,348.0,237.0,237.0,7.0,0.0,0.0,1.0
6700000.0,21.84375,5.479202696329189E-6,6700000.0,75.1,49.79879194522625,46.79487179487179,35.98971722365039,339211.0,1060600.0,1339189.0,1.0,0.0,0.0,0.0,0.0,354.0,240.0,240.0,7.0,0.0,0.0,1.0
6800000.0,22.21875,5.5871786834258165E-6,6800000.0,73.3,45.68489918140837,44.94845360824742,30.287206266318535,359276.0,1065528.0,1359254.0,1.0,0.0,0.0,0.0,0.0,356.0,241.0,241.0,7.0,0.0,0.0,1.0
6900000.0,22.59375,5.6964197170196305E-6,6900000.0,76.1,51.959026476807665,48.60215053763441,38.082901554404145,379335.0,1078496.0,1379313.0,1.0,0.0,0.0,0.0,0.0,362.0,244.0,244.0,7.0,0.0,0.0,1.0
7000000.0,22.96875,5.807796583717896E-6,7000000.0,76.2,51.69964485032978,48.706896551724135,36.53333333333333,399563.0,1100392.0,1399541.0,1.0,0.0,0.0,0.0,0.0,372.0,249.0,249.0,8.0,0.0,0.0,1.0
7100000.0,23.359375,5.925215987695588E-6,7100000.0,78.3,56.25493895850469,55.98377281947262,43.48958333333334,419398.0,1114184.0,1419376.0,1.0,0.0,0.0,0.0,0.0,380.0,253.0,253.0,8.0,0.0,0.0,1.0
7200000.0,23.703125,6.029402332690854E-6,7200000.0,75.6,49.987086829796226,48.63157894736842,32.03342618384401,439327.0,1123784.0,1439305.0,1.0,0.0,0.0,0.0,0.0,382.0,254.0,254.0,8.0,0.0,0.0,1.0
7300000.0,24.078125,6.143519616064926E-6,7300000.0,76.6,52.998457385268026,46.33027522935781,36.0655737704918,459206.0,1128496.0,1459184.0,1.0,0.0,0.0,0.0,0.0,384.0,255.0,255.0,8.0,0.0,0.0,1.0
7400000.0,24.453125,6.264309049583971E-6,7400000.0,75.3,50.70253871946352,50.30181086519114,37.62626262626263,479093.0,1197192.0,1479071.0,1.0,0.0,0.0,0.0,0.0,408.0,276.0,276.0,8.0,0.0,0.0,1.0
7500000.0,24.828125,6.3885350634033475E-6,7500000.0,73.0,46.539946539946534,44.558521560574945,32.33082706766917,499060.0,1232448.0,1499038.0,1.0,0.0,0.0,0.0,0.0,418.0,281.0,281.0,8.0,0.0,0.0,1.0
7600000.0,25.21875,6.519933198837356E-6,7600000.0,74.7,49.45701248991138,45.474137931034484,37.684729064039416,519121.0,1252112.0,1519099.0,1.0,0.0,0.0,0.0,0.0,424.0,284.0,284.0,9.0,0.0,0.0,1.0
7700000.0,25.59375,6.646570562022841E-6,7700000.0,75.0,49.6038865482694,43.69369369369369,32.24932249322493,539215.0,1257184.0,1539193.0,1.0,0.0,0.0,0.0,0.0,428.0,286.0,286.0,9.0,0.0,0.0,1.0
7800000.0,25.984375,6.779546771819392E-6,7800000.0,76.1,51.75187138139036,48.04347826086956,35.57951482479785,559278.0,1267656.0,1559256.0,1.0,0.0,0.0,0.0,0.0,430.0,287.0,287.0,9.0,0.0,0.0,1.0
7900000.0,26.359375,6.908555127059419E-6,7900000.0,76.5,52.12874312487269,52.235772357723576,36.48648648648649,579354.0,1281512.0,1579332.0,1.0,0.0,0.0,0.0,0.0,436.0,290.0,290.0,9.0,0.0,0.0,1.0
8000000.0,26.75,7.043415809878044E-6,8000000.0,73.2,45.93569575514518,42.24137931034482,30.749354005167955,599515.0,1286208.0,1599493.0,1.0,0.0,0.0,0.0,0.0,438.0,291.0,291.0,9.0,0.0,0.0,1.0
8100000.0,27.125,7.173391964493525E-6,8100000.0,76.0,51.51593509599846,49.36708860759494,39.3939393939394,619715.0,1291432.0,1619693.0,1.0,0.0,0.0,0.0,0.0,442.0,293.0,293.0,9.0,0.0,0.0,1.0
8200000.0,27.53125,7.317429731806946E-6,8200000.0,73.7,47.18875502008032,44.97907949790795,29.866666666666664,639738.0,1322000.0,1639716.0,1.0,0.0,0.0,0.0,0.0,456.0,300.0,300.0,9.0,0.0,0.0,1.0
8300000.0,27.921875,7.459437021882169E-6,8300000.0,74.7,49.00509545923632,47.5103734439834,33.24538258575198,659745.0,1356544.0,1659723.0,1.0,0.0,0.0,0.0,0.0,470.0,307.0,307.0,9.0,0.0,0.0,1.0
8400000.0,28.3125,7.6019714146645525E-6,8400000.0,74.0,47.2597376780491,46.058091286307054,31.398416886543533,679534.0,1361736.0,1679512.0,1.0,0.0,0.0,0.0,0.0,472.0,308.0,308.0,9.0,0.0,0.0,1.0
8500000.0,28.703125,7.744619797449559E-6,8500000.0,73.7,46.980937328645616,41.6851441241685,33.58585858585859,699597.0,1362864.0,1699575.0,1.0,0.0,0.0,0.0,0.0,472.0,308.0,308.0,9.0,0.0,0.0,1.0
8600000.0,29.09375,7.894180339968039E-6,8600000.0,76.2,51.54663941334788,47.57709251101321,37.53280839895014,719619.0,1431120.0,1719597.0,1.0,0.0,0.0,0.0,0.0,498.0,328.0,328.0,9.0,0.0,0.0,1.0
8700000.0,29.5,8.05534390060024E-6,8700000.0,74.4,46.9414656591072,44.468546637744026,29.08587257617728,740004.0,1484336.0,1739982.0,1.0,0.0,0.0,0.0,0.0,516.0,337.0,337.0,9.0,0.0,0.0,1.0
8800000.0,29.90625,8.217016972290973E-6,8800000.0,75.4,49.82725073729467,44.96644295302013,33.33333333333333,759961.0,1489168.0,1759939.0,1.0,0.0,0.0,0.0,0.0,516.0,337.0,337.0,9.0,0.0,0.0,1.0
8900000.0,30.296875,8.372873643464926E-6,8900000.0,72.5,43.76416120667795,42.105263157894726,24.863387978142068,779950.0,1493120.0,1779928.0,1.0,0.0,0.0,0.0,0.0,518.0,338.0,338.0,9.0,0.0,0.0,1.0
9000000.0,30.703125,8.535524539183826E-6,9000000.0,75.4,50.22016447581428,48.42767295597484,36.5979381443299,799895.0,1498424.0,1799873.0,1.0,0.0,0.0,0.0,0.0,520.0,339.0,339.0,9.0,0.0,0.0,1.0
9100000.0,31.09375,8.692660162018405E-6,9100000.0,76.0,51.16313142001335,49.044585987261144,35.8288770053476,819971.0,1505704.0,1819949.0,1.0,0.0,0.0,0.0,0.0,524.0,341.0,341.0,10.0,0.0,0.0,1.0
9200000.0,31.5,8.856614262589977E-6,9200000.0,77.4,53.895428303310965,51.70940170940172,42.199488491048605,839869.0,1510752.0,1839847.0,1.0,0.0,0.0,0.0,0.0,526.0,342.0,342.0,10.0,0.0,0.0,1.0
9300000.0,31.921875,9.028137687386737E-6,9300000.0,76.5,52.13381348889504,49.89339019189765,38.802083333333336,859608.0,1522248.0,1859586.0,1.0,0.0,0.0,0.0,0.0,534.0,346.0,346.0,10.0,0.0,0.0,1.0
9400000.0,32.359375,9.2174071404669E-6,9400000.0,76.1,52.06039988446356,49.78991596638656,39.64646464646465,879858.0,1622632.0,1879836.0,1.0,0.0,0.0,0.0,0.0,576.0,376.0,376.0,10.0,0.0,0.0,1.0
9500000.0,32.796875,9.41316868799428E-6,9500000.0,75.1,48.59577700889354,45.8695652173913,25.449101796407174,899707.0,1679728.0,1899685.0,1.0,0.0,0.0,0.0,0.0,590.0,383.0,383.0,10.0,0.0,0.0,1.0
9600000.0,33.21875,9.60455984265233E-6,9600000.0,80.10000000000001,58.977868663214494,56.26373626373628,45.7765667574932,919801.0,1703600.0,1919779.0,1.0,0.0,0.0,0.0,0.0,602.0,389.0,389.0,10.0,0.0,0.0,1.0
9700000.0,33.65625,9.804682049434632E-6,9700000.0,74.4,48.131098648166756,45.762711864406775,31.914893617021274,939813.0,1718040.0,1939791.0,1.0,0.0,0.0,0.0,0.0,608.0,392.0,392.0,11.0,0.0,0.0,1.0
9800000.0,34.078125,1.0002768249250948E-5,9800000.0,75.7,50.67912610718258,49.163179916317986,35.02673796791444,959688.0,1764768.0,1959666.0,1.0,0.0,0.0,0.0,0.0,621.0,402.0,402.0,11.0,0.0,0.0,1.0
9900000.0,34.515625,1.0208710704723165E-5,9900000.0,76.0,50.94512394532017,49.36708860759494,35.483870967741936,979444.0,1769336.0,1979422.0,1.0,0.0,0.0,0.0,0.0,623.0,403.0,403.0,11.0,0.0,0.0,1.0
1.0E7,34.9375,1.0408253260215536E-5,1.0E7,76.2,51.06827414924587,48.48484848484848,36.36363636363637,999375.0,1778032.0,1999353.0,1.0,0.0,0.0,0.0,0.0,629.0,406.0,406.0,11.0,0.0,0.0,1.0
