learning evaluation instances,evaluation time (cpu seconds),model cost (RAM-Hours),classified instances,classifications correct (percent),Kappa Statistic (percent),Kappa Temporal Statistic (percent),Kappa M Statistic (percent),model training instances,model serialized size (bytes),labeling cost,newThreshold,maxPosterior,accuracyBaseLearner (percent),Change detected,Warning detected
100000.0,0.6875,1.4323870547943646E-8,100000.0,58.3,16.276492366504158,15.757575757575747,8.149779735682802,19368.0,2904.0,0.0,1.0,0.0,?,3.0,39.0
200000.0,1.390625,2.6208419714950855E-8,200000.0,59.099999999999994,17.841130056084978,16.869918699186982,14.613778705636735,12391.0,2904.0,0.0,1.0,0.0,?,2.0,47.0
300000.0,2.0625,3.492278564307425E-8,300000.0,58.9,17.202533481603233,16.96969696969696,9.868421052631565,13599.0,2904.0,0.0,1.0,0.0,?,2.0,16.0
400000.0,2.734375,4.0995170517514154E-8,400000.0,57.99999999999999,15.395926918195899,14.285714285714276,6.4587973273941905,33599.0,2904.0,0.0,1.0,0.0,?,0.0,0.0
500000.0,3.421875,4.450535117131141E-8,500000.0,58.9,16.789491585818176,15.950920245398764,9.868421052631565,53599.0,2904.0,0.0,1.0,0.0,?,0.0,0.0
600000.0,4.109375,5.882922171925506E-8,600000.0,61.4,22.441680564206628,19.0775681341719,16.98924731182795,73499.0,2904.0,0.0,1.0,0.0,?,0.0,0.0
700000.0,4.796875,7.04496697936621E-8,700000.0,62.0,22.890862161328535,20.997920997920993,14.027149321266958,93499.0,2904.0,0.0,1.0,0.0,?,0.0,0.0
800000.0,5.453125,7.896137604903845E-8,800000.0,57.3,13.684363730452636,12.139917695473239,4.89977728285076,113499.0,2904.0,0.0,1.0,0.0,?,0.0,0.0
900000.0,6.109375,8.48925426705844E-8,900000.0,61.9,23.361628515106396,25.440313111545986,19.62025316455696,133499.0,2904.0,0.0,1.0,0.0,?,0.0,0.0
1000000.0,6.78125,8.832294649134082E-8,1000000.0,63.3,26.026557876659872,24.485596707818928,20.562770562770556,153499.0,2904.0,0.0,1.0,0.0,?,0.0,0.0
1100000.0,7.453125,1.0234769433736803E-7,1100000.0,58.8,16.24109553394268,17.599999999999994,8.035714285714269,173399.0,2904.0,0.0,1.0,0.0,?,0.0,0.0
1200000.0,8.15625,1.1425989214330914E-7,1200000.0,57.99999999999999,14.931884744856408,10.638297872340411,8.096280087527335,193399.0,2904.0,0.0,1.0,0.0,?,0.0,0.0
1300000.0,8.84375,1.2320395196891496E-7,1300000.0,60.4,20.57666157234142,18.181818181818176,17.671517671517663,213399.0,2904.0,0.0,1.0,0.0,?,0.0,0.0
1400000.0,9.53125,1.2944458932098416E-7,1400000.0,57.49999999999999,14.495867635579376,16.173570019723858,11.087866108786598,233399.0,2904.0,0.0,1.0,0.0,?,0.0,0.0
1500000.0,10.203125,1.3290141295227742E-7,1500000.0,60.9,21.367205096853063,22.266401590457257,16.452991452991444,253399.0,2904.0,0.0,1.0,0.0,?,0.0,0.0
1600000.0,10.875,1.4692616079830462E-7,1600000.0,60.099999999999994,18.85955993004432,20.199999999999996,9.523809523809508,273299.0,2904.0,0.0,1.0,0.0,?,0.0,0.0
1700000.0,11.5625,1.5857364309744704E-7,1700000.0,61.6,22.83082265558432,21.792260692464353,18.987341772151893,293299.0,2904.0,0.0,1.0,0.0,?,0.0,0.0
1800000.0,12.25,1.6751770292305287E-7,1800000.0,61.8,22.9291755439344,24.356435643564357,18.376068376068368,313299.0,2904.0,0.0,1.0,0.0,?,0.0,0.0
1900000.0,12.9375,1.7375834027512207E-7,1900000.0,61.0,21.483360512170073,22.465208747514907,16.12903225806451,333299.0,2904.0,0.0,1.0,0.0,?,0.0,0.0
2000000.0,13.625,1.772955551536547E-7,2000000.0,58.599999999999994,16.968508200864,14.639175257731948,14.285714285714276,353299.0,2904.0,0.0,1.0,0.0,?,0.0,0.0
2100000.0,14.28125,1.910199514693684E-7,2100000.0,61.6,22.09215037838058,23.353293413173652,15.604395604395597,373199.0,2904.0,0.0,1.0,0.0,?,0.0,0.0
2200000.0,14.953125,2.0242913807224896E-7,2200000.0,57.699999999999996,14.38910657038307,16.23762376237623,7.843137254901944,393199.0,2904.0,0.0,1.0,0.0,?,0.0,0.0
2300000.0,15.625,2.1119634362144603E-7,2300000.0,62.4,24.18865733273114,20.16985138004246,17.90393013100436,413199.0,2904.0,0.0,1.0,0.0,?,0.0,0.0
2400000.0,16.3125,2.1746401519825062E-7,2400000.0,59.5,18.22212889000169,17.00819672131147,8.371040723981883,433199.0,2904.0,0.0,1.0,0.0,?,0.0,0.0
2500000.0,16.96875,2.2086625297864278E-7,2500000.0,60.5,20.2535734474683,21.15768463073852,11.83035714285713,453199.0,2904.0,0.0,1.0,0.0,?,0.0,0.0
2600000.0,17.640625,2.3491742063520684E-7,2600000.0,60.099999999999994,19.84153132809925,22.373540856031127,15.822784810126574,473099.0,2904.0,0.0,1.0,0.0,?,0.0,0.0
2700000.0,18.328125,2.465919371590846E-7,2700000.0,57.599999999999994,14.415705525435083,16.039603960396033,9.978768577494677,493099.0,2904.0,0.0,1.0,0.0,?,0.0,0.0
2800000.0,19.015625,2.555630312094258E-7,2800000.0,61.4,22.42172834742202,21.384928716904277,19.0775681341719,513099.0,2904.0,0.0,1.0,0.0,?,0.0,0.0
2900000.0,19.703125,2.618307027862304E-7,2900000.0,60.5,20.724756354061306,18.38842975206611,16.313559322033893,533099.0,2904.0,0.0,1.0,0.0,?,0.0,0.0
3000000.0,20.390625,2.653949518894984E-7,3000000.0,57.699999999999996,14.507457860059006,12.962962962962951,7.032967032967015,553099.0,2904.0,0.0,1.0,0.0,?,0.0,0.0
3100000.0,21.046875,2.791451536015504E-7,3100000.0,58.199999999999996,15.552825949929684,14.693877551020398,9.52380952380951,572999.0,2904.0,0.0,1.0,0.0,?,0.0,0.0
3200000.0,21.71875,2.905807600149678E-7,3200000.0,59.599999999999994,18.593357701592257,22.456813819577732,14.587737843551787,592999.0,2904.0,0.0,1.0,0.0,?,0.0,0.0
3300000.0,22.40625,2.995788882900444E-7,3300000.0,58.9,17.745382934268346,18.45238095238095,17.30382293762575,612999.0,2904.0,0.0,1.0,0.0,?,0.0,0.0
3400000.0,23.109375,3.060166555870739E-7,3400000.0,60.199999999999996,19.545573995835767,18.775510204081627,12.527472527472517,632999.0,2904.0,0.0,1.0,0.0,?,0.0,0.0
3500000.0,23.78125,3.095263188394408E-7,3500000.0,59.4,18.166609557978745,18.473895582329313,12.311015118790484,652999.0,2904.0,0.0,1.0,0.0,?,0.0,0.0
3600000.0,24.4375,3.232765205514928E-7,3600000.0,60.099999999999994,19.47527749747728,22.674418604651162,12.307692307692296,672899.0,2904.0,0.0,1.0,0.0,?,0.0,0.0
3700000.0,25.125,3.34978071300106E-7,3700000.0,59.099999999999994,17.51704110031056,20.582524271844658,9.91189427312774,692899.0,2904.0,0.0,1.0,0.0,?,0.0,0.0
3800000.0,25.8125,3.4397619957518256E-7,3800000.0,57.99999999999999,15.251501259120548,11.01694915254236,7.488986784140953,712899.0,2904.0,0.0,1.0,0.0,?,0.0,0.0
3900000.0,26.46875,3.499847823857434E-7,3900000.0,57.8,14.642286454014009,14.747474747474737,6.0133630289532105,732899.0,2904.0,0.0,1.0,0.0,?,0.0,0.0
4000000.0,27.15625,3.5357606571374674E-7,4000000.0,59.699999999999996,18.011441777951376,20.039682539682534,8.82352941176469,752899.0,2904.0,0.0,1.0,0.0,?,0.0,0.0
4100000.0,27.8125,3.673520728221371E-7,4100000.0,57.8,15.307302035835848,18.37524177949709,13.524590163934416,772799.0,2904.0,0.0,1.0,0.0,?,0.0,0.0
4200000.0,28.5,3.7908065779548557E-7,4200000.0,58.199999999999996,15.991382082449027,15.212981744421898,9.52380952380951,792799.0,2904.0,0.0,1.0,0.0,?,0.0,0.0
4300000.0,29.171875,3.879007029657563E-7,4300000.0,61.6,22.753826099551006,23.658051689860834,16.883116883116873,812799.0,2904.0,0.0,1.0,0.0,?,0.0,0.0
4400000.0,29.859375,3.942224429920316E-7,4400000.0,59.4,18.02451188240755,16.803278688524586,11.159737417943095,832799.0,2904.0,0.0,1.0,0.0,?,0.0,0.0
4500000.0,30.515625,3.976762915651004E-7,4500000.0,62.2,23.42132452746095,25.0,11.888111888111897,852799.0,2904.0,0.0,1.0,0.0,?,0.0,0.0
4600000.0,31.203125,4.121082990119855E-7,4600000.0,57.49999999999999,14.59827026331864,17.635658914728676,10.714285714285701,872699.0,2904.0,0.0,1.0,0.0,?,0.0,0.0
4700000.0,31.859375,4.2330376648654545E-7,4700000.0,61.3,22.04998469198666,20.696721311475404,17.83439490445859,892699.0,2904.0,0.0,1.0,0.0,?,0.0,0.0
4800000.0,32.515625,4.31918694327275E-7,4800000.0,57.099999999999994,14.105172110009443,13.682092555331982,10.062893081760993,912699.0,2904.0,0.0,1.0,0.0,?,0.0,0.0
4900000.0,33.203125,4.382404343535503E-7,4900000.0,60.6,20.631083607297096,21.357285429141715,15.811965811965804,932699.0,2904.0,0.0,1.0,0.0,?,0.0,0.0
5000000.0,33.875,4.4217837663988277E-7,5000000.0,57.699999999999996,14.285714285714285,16.732283464566923,5.999999999999981,952699.0,2904.0,0.0,1.0,0.0,?,0.0,0.0
5100000.0,34.546875,4.56710662951486E-7,5100000.0,45.5,-8.981691075899253,-12.603305785123966,-10.1010101010101,972599.0,2904.0,0.0,1.0,0.0,?,0.0,0.0
5200000.0,35.234375,4.6887748693633414E-7,5200000.0,50.4,1.576365627926903,-5.756929637526658,-3.3333333333333366,992599.0,2904.0,0.0,1.0,0.0,?,0.0,0.0
5300000.0,35.875,4.776956565264199E-7,5300000.0,46.800000000000004,-6.3612844924447405,-5.13833992094861,-8.571428571428568,1012599.0,2904.0,0.0,1.0,0.0,?,0.0,0.0
5400000.0,36.53125,4.841483637897505E-7,5400000.0,49.5,-0.7967936639734287,-1.0000000000000009,-5.427974947807939,1032599.0,2904.0,0.0,1.0,0.0,?,0.0,0.0
5500000.0,37.203125,4.881127258866198E-7,5500000.0,50.5,1.4846952991282933,-0.20242914979757104,-5.319148936170218,1052599.0,2904.0,0.0,1.0,0.0,?,0.0,0.0
5600000.0,37.875,5.02645012198223E-7,5600000.0,49.7,-0.5469112308700926,1.9493177387914247,-2.862985685071577,1072499.0,2904.0,0.0,1.0,0.0,?,0.0,0.0
5700000.0,38.53125,5.142587987292144E-7,5700000.0,52.300000000000004,4.823854294698863,4.216867469879522,0.4175365344467645,1092499.0,2904.0,0.0,1.0,0.0,?,0.0,1.0
5800000.0,39.234375,5.239372775476012E-7,5800000.0,49.7,-0.7596032114869989,3.82409177820268,-0.6000000000000005,1112499.0,2904.0,0.0,1.0,0.0,?,0.0,0.0
5900000.0,39.921875,5.306972565853761E-7,5900000.0,51.1,2.636189869385139,1.6096579476861181,-3.3826638477801296,1132499.0,2904.0,0.0,1.0,0.0,?,0.0,0.0
6000000.0,40.609375,5.347538131496144E-7,6000000.0,51.1,2.76010181355393,1.0121457489878551,-7.47252747252748,1152499.0,2904.0,0.0,1.0,0.0,?,0.0,0.0
6100000.0,41.296875,5.496510938327344E-7,6100000.0,49.9,0.3000947248600926,-7.741935483870975,-4.811715481171552,1172399.0,2904.0,0.0,1.0,0.0,?,0.0,0.0
6200000.0,41.96875,5.615678189011911E-7,6200000.0,48.0,-3.483822692410262,-4.0000000000000036,-10.40339702760086,1192399.0,2904.0,0.0,1.0,0.0,?,0.0,0.0
6300000.0,42.671875,5.712739463585118E-7,6300000.0,48.9,-1.960189633980888,2.107279693486592,-8.262711864406787,1212399.0,2904.0,0.0,1.0,0.0,?,0.0,0.0
6400000.0,43.359375,5.780609596210221E-7,6400000.0,52.5,4.798935351462283,5.000000000000004,6.49606299212599,1232399.0,2904.0,0.0,1.0,0.0,?,0.0,0.0
6500000.0,44.03125,5.820517415284281E-7,6500000.0,50.1,0.4715137105974965,4.588910133843216,-6.396588486140731,1252399.0,2904.0,0.0,1.0,0.0,?,0.0,0.0
6600000.0,44.71875,5.969490222115482E-7,6600000.0,52.5,5.244847314539228,5.5666003976143195,1.0416666666666676,1272299.0,2904.0,0.0,1.0,0.0,?,0.0,0.0
6700000.0,45.40625,6.091428804211317E-7,6700000.0,49.4,-1.088802317450795,-4.545454545454549,-2.0161290322580663,1292299.0,2904.0,0.0,1.0,0.0,?,0.0,0.0
6800000.0,46.09375,6.186333161571785E-7,6800000.0,52.2,3.869358860912243,6.4579256360078325,3.2388663967611366,1312299.0,2904.0,0.0,1.0,0.0,?,0.0,0.0
6900000.0,46.78125,6.254203294196889E-7,6900000.0,50.7,1.739587983927538,4.457364341085275,-5.341880341880347,1332299.0,2904.0,0.0,1.0,0.0,?,0.0,0.0
7000000.0,47.46875,6.295039202086625E-7,7000000.0,50.2,0.38724956794470666,-0.6060606060606066,0.20040080160320656,1352299.0,2904.0,0.0,1.0,0.0,?,0.0,0.0
7100000.0,48.171875,6.447674240916966E-7,7100000.0,50.8,1.9533600902347892,-3.1446540880503173,-1.8633540372670825,1372199.0,2904.0,0.0,1.0,0.0,?,0.0,0.0
7200000.0,48.84375,6.5671056897069E-7,7200000.0,49.5,-0.5663578648866116,0.0,-5.648535564853561,1392199.0,2904.0,0.0,1.0,0.0,?,0.0,0.0
7300000.0,49.546875,6.664443450669446E-7,7300000.0,51.4,2.8000000000000025,4.892367906066541,-2.5316455696202556,1412199.0,2904.0,0.0,1.0,0.0,?,0.0,0.0
7400000.0,50.21875,6.73103527838571E-7,7400000.0,51.800000000000004,3.680138125079931,3.0181086519114717,-1.0482180293501058,1432199.0,2904.0,0.0,1.0,0.0,?,0.0,0.0
7500000.0,50.90625,6.772141528522801E-7,7500000.0,54.800000000000004,9.79628328756626,5.63674321503132,3.004291845493565,1452199.0,2904.0,0.0,1.0,0.0,?,0.0,0.0
7600000.0,51.625,6.928168457104927E-7,7600000.0,54.2,8.442848746786504,10.894941634241254,0.6507592190889377,1472099.0,2904.0,0.0,1.0,0.0,?,0.0,0.0
7700000.0,52.296875,7.047599905894862E-7,7700000.0,52.6,5.565649803959075,1.0438413361169112,0.8368200836820092,1492099.0,2904.0,0.0,1.0,0.0,?,0.0,0.0
7800000.0,53.015625,7.147100728212131E-7,7800000.0,50.8,1.6224300859403966,3.7181996086105706,1.6000000000000014,1512099.0,2904.0,0.0,1.0,0.0,?,0.0,0.0
7900000.0,53.6875,7.213692555928395E-7,7900000.0,49.3,-1.5315849340745582,-4.320987654320992,-7.188160676532776,1532099.0,2904.0,0.0,1.0,0.0,?,0.0,0.0
8000000.0,54.40625,7.256667271980808E-7,8000000.0,58.3,16.23007199794291,17.588932806324102,13.84297520661156,468503.0,2904.0,0.0,1.0,0.0,?,1.0,9.0
8100000.0,55.09375,7.406180763306716E-7,8100000.0,61.6,23.108653079858872,23.046092184368735,21.47239263803681,488403.0,2904.0,0.0,1.0,0.0,?,0.0,0.0
8200000.0,55.78125,7.528660029897259E-7,8200000.0,60.9,20.93406993391624,20.04089979550102,19.712525667351123,508403.0,2904.0,0.0,1.0,0.0,?,0.0,0.0
8300000.0,56.484375,7.626274277249144E-7,8300000.0,61.9,23.57316515417759,25.5859375,21.604938271604933,528403.0,2904.0,0.0,1.0,0.0,?,0.0,0.0
8400000.0,57.171875,7.694685094368954E-7,8400000.0,58.9,17.746699861510255,19.253438113948913,17.469879518072283,548403.0,2904.0,0.0,1.0,0.0,?,0.0,0.0
8500000.0,57.890625,7.737942440952691E-7,8500000.0,59.8,19.496956103812877,19.277108433734934,17.79141104294478,568403.0,2904.0,0.0,1.0,0.0,?,0.0,0.0
8600000.0,58.609375,7.89425200006614E-7,8600000.0,63.9,27.3279221824975,20.659340659340657,22.198275862068964,588303.0,2904.0,0.0,1.0,0.0,?,0.0,0.0
8700000.0,59.3125,8.019514886351922E-7,8700000.0,60.0,19.853813355560533,19.354838709677413,18.032786885245898,608303.0,2904.0,0.0,1.0,0.0,?,0.0,0.0
8800000.0,60.015625,8.117129133703808E-7,8800000.0,60.9,21.627580677490478,21.799999999999997,20.204081632653057,628303.0,2904.0,0.0,1.0,0.0,?,0.0,0.0
8900000.0,60.71875,8.187094742121796E-7,8900000.0,58.4,16.533240235793592,17.78656126482213,11.677282377919308,648303.0,2904.0,0.0,1.0,0.0,?,0.0,0.0
9000000.0,61.421875,8.229411711605887E-7,9000000.0,63.6,26.866511291489182,28.06324110671937,19.646799116997787,668303.0,2904.0,0.0,1.0,0.0,?,0.0,0.0
9100000.0,62.09375,8.375791367143393E-7,9100000.0,59.5,18.77256317689529,17.8498985801217,15.624999999999991,688203.0,2904.0,0.0,1.0,0.0,?,0.0,0.0
9200000.0,62.796875,8.501330739818513E-7,9200000.0,62.6,24.930952533881428,25.940594059405942,24.748490945674046,708203.0,2904.0,0.0,1.0,0.0,?,0.0,0.0
9300000.0,63.5,8.599221473559736E-7,9300000.0,60.8,21.17624348497522,21.599999999999998,13.274336283185828,728203.0,2904.0,0.0,1.0,0.0,?,0.0,0.0
9400000.0,64.203125,8.669463568367063E-7,9400000.0,62.1,23.795812992110154,22.494887525562373,20.042194092827,748203.0,2904.0,0.0,1.0,0.0,?,0.0,0.0
9500000.0,64.921875,8.713003545482125E-7,9500000.0,60.6,20.743482458963626,21.199999999999996,17.91666666666666,768203.0,2904.0,0.0,1.0,0.0,?,0.0,0.0
9600000.0,65.625,8.866191557091142E-7,9600000.0,59.9,19.97030319480145,20.436507936507933,22.586872586872587,788103.0,2904.0,0.0,1.0,0.0,?,0.0,0.0
9700000.0,66.328125,8.991730929766263E-7,9700000.0,58.3,16.422816370705878,19.34235976789168,14.897959183673459,808103.0,2904.0,0.0,1.0,0.0,?,0.0,0.0
9800000.0,67.0625,9.093972362784874E-7,9800000.0,59.3,18.075684380032204,15.031315240083497,12.095032397408195,828103.0,2904.0,0.0,1.0,0.0,?,0.0,0.0
9900000.0,67.765625,9.164214457592201E-7,9900000.0,60.5,21.030955865300793,21.15768463073852,21.31474103585657,848103.0,2904.0,0.0,1.0,0.0,?,0.0,0.0
1.0E7,68.453125,9.205861392223999E-7,1.0E7,59.4,18.627164096541048,16.288659793814425,17.311608961303453,868103.0,2904.0,0.0,1.0,0.0,?,0.0,0.0
