learning evaluation instances,evaluation time (cpu seconds),model cost (RAM-Hours),classified instances,classifications correct (percent),Kappa Statistic (percent),Kappa Temporal Statistic (percent),Kappa M Statistic (percent),model training instances,model serialized size (bytes),labeling cost,newThreshold,maxPosterior,accuracyBaseLearner (percent),Change detected,Warning detected
100000.0,0.21875,5.695296244488822E-9,100000.0,88.3,73.1848184818482,72.66355140186917,65.58823529411765,19800.0,1112.0,0.0,1.0,0.0,?,0.0,19.0
200000.0,0.46875,1.1583324521780014E-8,200000.0,89.0,75.37971198739442,75.39149888143177,68.83852691218131,39800.0,1112.0,0.0,1.0,0.0,?,0.0,0.0
300000.0,0.6875,1.619207776255078E-8,300000.0,87.4,71.1918349429324,72.72727272727273,63.79310344827586,59800.0,1112.0,0.0,1.0,0.0,?,0.0,0.0
400000.0,0.921875,2.0547951054241923E-8,400000.0,86.4,69.47757274885878,71.24735729386892,62.116991643454035,79800.0,1112.0,0.0,1.0,0.0,?,0.0,0.0
500000.0,1.15625,2.4332419141299194E-8,500000.0,85.8,67.95204542684715,69.65811965811966,60.22408963585434,99800.0,1112.0,0.0,1.0,0.0,?,0.0,9.0
600000.0,1.390625,2.7534810619221792E-8,600000.0,86.0,68.61999713097117,70.2127659574468,61.53846153846153,119800.0,1112.0,0.0,1.0,0.0,?,0.0,0.0
700000.0,1.640625,3.032981314592891E-8,700000.0,88.8,73.87340732757616,74.25287356321839,66.16314199395771,139800.0,1112.0,0.0,1.0,0.0,?,0.0,0.0
800000.0,1.875,3.236805140558216E-8,800000.0,86.9,70.04344843356964,70.29478458049886,62.57142857142857,159800.0,1112.0,0.0,1.0,0.0,?,0.0,0.0
900000.0,2.109375,3.3824213056100737E-8,900000.0,86.3,68.73488091869243,70.97457627118644,60.51873198847262,179800.0,1112.0,0.0,1.0,0.0,?,0.0,0.0
1000000.0,2.359375,3.4756570433576896E-8,1000000.0,86.6,69.08681529602835,70.22222222222221,61.27167630057803,199800.0,1112.0,0.0,1.0,0.0,?,0.0,0.0
1100000.0,2.59375,4.087516572326421E-8,1100000.0,85.9,69.29362265564431,71.91235059760956,63.471502590673566,219600.0,1112.0,0.0,1.0,0.0,?,0.0,0.0
1200000.0,2.828125,4.6411684403816854E-8,1200000.0,88.7,74.6875140002688,75.0,68.52367688022284,239600.0,1112.0,0.0,1.0,0.0,?,0.0,0.0
1300000.0,3.0625,5.136612647523482E-8,1300000.0,88.0,73.08596343279565,74.4136460554371,67.21311475409836,259600.0,1112.0,0.0,1.0,0.0,?,0.0,0.0
1400000.0,3.3125,5.6029982968337E-8,1400000.0,86.7,71.0441522250283,71.08695652173913,65.63307493540051,279600.0,1112.0,0.0,1.0,0.0,?,0.0,0.0
1500000.0,3.546875,5.982027182148562E-8,1500000.0,87.0,70.10834574986663,70.85201793721973,61.98830409356725,299600.0,1112.0,0.0,1.0,0.0,?,0.0,0.0
1600000.0,3.78125,6.302848406549956E-8,1600000.0,87.7,71.64461247637051,73.99577167019027,64.45086705202311,319600.0,1112.0,0.0,1.0,0.0,?,0.0,0.0
1700000.0,4.015625,6.565461970037882E-8,1700000.0,84.7,65.85065352474822,67.3076923076923,58.87096774193547,339600.0,1112.0,0.0,1.0,0.0,?,0.0,0.0
1800000.0,4.265625,6.783494932783973E-8,1800000.0,87.1,70.39111274329784,70.81447963800905,62.058823529411754,359600.0,1112.0,0.0,1.0,0.0,?,0.0,0.0
1900000.0,4.5,6.929693174444965E-8,1900000.0,87.6,72.00410004470314,72.80701754385964,64.4699140401146,379600.0,1112.0,0.0,1.0,0.0,?,0.0,38.0
2000000.0,4.75,7.023549793908991E-8,2000000.0,86.8,68.41500765696784,67.8048780487805,58.74999999999999,399600.0,1112.0,0.0,1.0,0.0,?,0.0,44.0
2100000.0,4.984375,7.635991399486858E-8,2100000.0,88.0,73.36269356442676,74.63002114164905,67.03296703296702,419400.0,1112.0,0.0,1.0,0.0,?,0.0,7.0
2200000.0,5.234375,8.22717427379555E-8,2200000.0,88.4,72.09928805079853,73.5763097949886,63.74999999999999,439400.0,1112.0,0.0,1.0,0.0,?,0.0,60.0
2300000.0,5.46875,8.723200557546482E-8,2300000.0,85.3,67.15113160999678,67.83369803063457,59.615384615384606,459400.0,1112.0,0.0,1.0,0.0,?,0.0,61.0
2400000.0,5.71875,9.189068805426357E-8,2400000.0,87.6,71.25730736601037,71.55963302752293,63.421828908554566,479400.0,1112.0,0.0,1.0,0.0,?,0.0,56.0
2500000.0,5.9375,9.543372369888754E-8,2500000.0,86.3,67.49734284846645,69.0744920993228,57.71604938271604,499400.0,1112.0,0.0,1.0,0.0,?,0.0,27.0
2600000.0,6.1875,9.886202557633318E-8,2600000.0,86.3,70.33347769597228,71.63561076604555,65.75,519400.0,1112.0,0.0,1.0,0.0,?,0.0,0.0
2700000.0,6.421875,1.014939819773038E-7,2700000.0,88.8,75.06267728877866,77.68924302788844,68.97506925207757,539400.0,1112.0,0.0,1.0,0.0,?,0.0,0.0
2800000.0,6.65625,1.0354386176913975E-7,2800000.0,88.5,72.31584015406837,73.74429223744292,64.0625,559400.0,1112.0,0.0,1.0,0.0,?,0.0,0.0
2900000.0,6.90625,1.0510951849735443E-7,2900000.0,87.4,70.99020113460546,71.0344827586207,63.79310344827586,579400.0,1112.0,0.0,1.0,0.0,?,0.0,0.0
3000000.0,7.140625,1.0599524507092103E-7,3000000.0,86.3,69.10378422263317,70.91295116772824,62.154696132596676,599400.0,1112.0,0.0,1.0,0.0,?,0.0,0.0
3100000.0,7.390625,1.1253416434758237E-7,3100000.0,86.3,69.60149108014555,69.69026548672565,62.25895316804407,619200.0,1112.0,0.0,1.0,0.0,?,0.0,0.0
3200000.0,7.609375,1.1771244721280202E-7,3200000.0,85.8,68.72425808213627,69.91525423728812,61.93029490616622,639200.0,1112.0,0.0,1.0,0.0,?,0.0,0.0
3300000.0,7.84375,1.2267853081640267E-7,3300000.0,86.6,69.21026630821902,70.54945054945054,61.15942028985507,659200.0,1112.0,0.0,1.0,0.0,?,0.0,0.0
3400000.0,8.09375,1.2735480494383306E-7,3400000.0,87.3,70.01718699831908,71.26696832579185,62.202380952380956,679200.0,1112.0,0.0,1.0,0.0,?,0.0,69.0
3500000.0,8.328125,1.3115673532916437E-7,3500000.0,86.2,67.74495138369484,67.90697674418604,58.928571428571416,699200.0,1112.0,0.0,1.0,0.0,?,0.0,16.0
3600000.0,8.578125,1.345912460237741E-7,3600000.0,86.5,70.05722397196469,71.45877378435517,63.51351351351351,719200.0,1112.0,0.0,1.0,0.0,?,0.0,3.0
3700000.0,8.8125,1.3722902319083607E-7,3700000.0,87.8,71.21079831040423,71.6279069767442,63.582089552238806,739200.0,1112.0,0.0,1.0,0.0,?,0.0,0.0
3800000.0,9.046875,1.3928472374876336E-7,3800000.0,87.1,71.42857142857143,73.2919254658385,65.60000000000001,759200.0,1112.0,0.0,1.0,0.0,?,0.0,0.0
3900000.0,9.28125,1.4075834769755597E-7,3900000.0,88.4,74.05943073868008,74.16481069042317,67.59776536312849,779200.0,1112.0,0.0,1.0,0.0,?,0.0,0.0
4000000.0,9.515625,1.416498950372139E-7,4000000.0,85.8,68.57517173004744,69.97885835095137,61.82795698924731,799200.0,1112.0,0.0,1.0,0.0,?,0.0,0.0
4100000.0,9.765625,1.4819502313103935E-7,4100000.0,85.6,67.50491939414727,69.42675159235668,60.22099447513811,819000.0,1112.0,0.0,1.0,0.0,?,0.0,0.0
4200000.0,10.015625,1.5411926950845448E-7,4200000.0,85.8,68.21844225604296,68.79120879120877,60.55555555555555,839000.0,1112.0,0.0,1.0,0.0,?,0.0,0.0
4300000.0,10.25,1.5909117387814648E-7,4300000.0,84.2,64.33215343494906,65.27472527472527,55.61797752808988,859000.0,1112.0,0.0,1.0,0.0,?,0.0,0.0
4400000.0,10.5,1.6377365682274096E-7,4400000.0,86.7,69.85494106980961,70.57522123893804,62.3229461756374,879000.0,1112.0,0.0,1.0,0.0,?,0.0,0.0
4500000.0,10.734375,1.675814079741636E-7,4500000.0,87.6,72.13545763016562,71.68949771689498,65.45961002785515,899000.0,1112.0,0.0,1.0,0.0,?,0.0,0.0
4600000.0,10.984375,1.7102212748593747E-7,4600000.0,86.8,70.4851173440183,72.55717255717255,63.73626373626373,919000.0,1112.0,0.0,1.0,0.0,?,0.0,0.0
4700000.0,11.203125,1.7348948555688055E-7,4700000.0,87.7,72.00218519530183,74.79508196721312,65.05681818181817,939000.0,1112.0,0.0,1.0,0.0,?,0.0,0.0
4800000.0,11.453125,1.7568844163583377E-7,4800000.0,87.8,71.88318153324236,73.59307359307358,63.90532544378698,959000.0,1112.0,0.0,1.0,0.0,?,0.0,0.0
4900000.0,11.6875,1.7716788635071772E-7,4900000.0,88.0,72.95835586803679,74.94780793319416,65.9090909090909,979000.0,1112.0,0.0,1.0,0.0,?,0.0,0.0
5000000.0,11.9375,1.7817371473130245E-7,5000000.0,86.3,69.08565755032042,69.48775055679288,61.408450704225345,999000.0,1112.0,0.0,1.0,0.0,?,0.0,0.0
5100000.0,12.171875,1.8435051768190324E-7,5100000.0,87.3,73.53857950094178,73.70600414078675,68.87254901960785,17415.0,1112.0,0.0,1.0,0.0,?,3.0,5.0
5200000.0,12.40625,1.8994524402336936E-7,5200000.0,88.4,76.37743964028543,75.73221757322176,74.10714285714286,37415.0,1112.0,0.0,1.0,0.0,?,0.0,0.0
5300000.0,12.65625,1.9529207040452289E-7,5300000.0,86.8,72.4484556524498,73.75745526838966,68.4964200477327,57415.0,1112.0,0.0,1.0,0.0,?,0.0,0.0
5400000.0,12.890625,1.9972264352771965E-7,5400000.0,85.39999999999999,69.90472578258019,71.37254901960785,66.28175519630484,77415.0,1112.0,0.0,1.0,0.0,?,0.0,34.0
5500000.0,13.125,2.0357114004178175E-7,5500000.0,87.2,73.36174746936601,73.49896480331263,69.23076923076923,97415.0,1112.0,0.0,1.0,0.0,?,0.0,0.0
5600000.0,13.359375,2.0683755994670917E-7,5600000.0,86.6,72.26821192052981,72.42798353909464,68.83720930232559,117415.0,1112.0,0.0,1.0,0.0,?,0.0,0.0
5700000.0,13.59375,2.0952190324250191E-7,5700000.0,88.1,74.81268255513694,74.0174672489083,70.10050251256281,137415.0,1112.0,0.0,1.0,0.0,?,0.0,0.0
5800000.0,13.828125,2.1162416992915999E-7,5800000.0,86.4,71.74624806794196,71.1864406779661,68.07511737089203,157415.0,1112.0,0.0,1.0,0.0,?,0.0,0.0
5900000.0,14.0625,2.1314436000668338E-7,5900000.0,87.6,74.08080934763069,75.1004016064257,70.12048192771084,177415.0,1112.0,0.0,1.0,0.0,?,0.0,0.0
6000000.0,14.296875,2.140824734750721E-7,6000000.0,87.7,74.10090120441338,74.74332648870636,69.62962962962963,197415.0,1112.0,0.0,1.0,0.0,?,0.0,0.0
6100000.0,14.515625,2.198529222773181E-7,6100000.0,88.5,76.42978946678035,78.05343511450383,73.6842105263158,217215.0,1112.0,0.0,1.0,0.0,?,0.0,0.0
6200000.0,14.765625,2.2582683919204606E-7,6200000.0,88.5,76.42128399435751,75.37473233404711,73.92290249433107,237215.0,1112.0,0.0,1.0,0.0,?,0.0,0.0
6300000.0,15.0,2.3084530969046884E-7,6300000.0,88.9,77.03954989243753,77.34693877551021,74.24593967517403,257215.0,1112.0,0.0,1.0,0.0,?,0.0,0.0
6400000.0,15.21875,2.3498594398713774E-7,6400000.0,87.2,73.73680171695659,73.16561844863732,70.9750566893424,277215.0,1112.0,0.0,1.0,0.0,?,0.0,0.0
6500000.0,15.46875,2.3909721575263475E-7,6500000.0,87.7,74.23436256231932,74.63917525773196,70.2179176755448,297215.0,1112.0,0.0,1.0,0.0,?,0.0,0.0
6600000.0,15.703125,2.423694564236535E-7,6600000.0,88.1,74.943148319717,75.4639175257732,70.61728395061728,317215.0,1112.0,0.0,1.0,0.0,?,0.0,0.0
6700000.0,15.9375,2.4505962048553755E-7,6700000.0,86.9,73.23340471092077,74.21259842519686,70.95343680709534,337215.0,1112.0,0.0,1.0,0.0,?,0.0,0.0
6800000.0,16.1875,2.4730824710180357E-7,6800000.0,86.8,72.42013330268904,71.61290322580645,67.56756756756756,357215.0,1112.0,0.0,1.0,0.0,?,0.0,0.0
6900000.0,16.40625,2.487325238891773E-7,6900000.0,87.5,74.00750247448576,74.06639004149378,69.80676328502415,377215.0,1112.0,0.0,1.0,0.0,?,0.0,0.0
7000000.0,16.640625,2.4967645812365735E-7,7000000.0,86.3,70.4550355833513,68.79271070615034,63.852242744063325,397215.0,1112.0,0.0,1.0,0.0,?,0.0,0.0
7100000.0,16.859375,2.554523396409219E-7,7100000.0,88.3,76.01102262755165,77.41312741312741,73.2876712328767,417015.0,1112.0,0.0,1.0,0.0,?,0.0,0.0
7200000.0,17.09375,2.610587075145707E-7,7200000.0,87.6,73.65065873353166,73.2181425485961,69.1542288557214,437015.0,1112.0,0.0,1.0,0.0,?,0.0,0.0
7300000.0,17.34375,2.6641795153005247E-7,7300000.0,85.1,69.25502236748709,68.02575107296137,65.50925925925925,457015.0,1112.0,0.0,1.0,0.0,?,0.0,0.0
7400000.0,17.578125,2.708601661854319E-7,7400000.0,87.2,72.71614990770384,73.38877338877339,67.09511568123393,477015.0,1112.0,0.0,1.0,0.0,?,0.0,0.0
7500000.0,17.796875,2.744629616952604E-7,7500000.0,86.2,70.77856078059357,72.23340040241449,65.32663316582914,497015.0,1112.0,0.0,1.0,0.0,?,0.0,0.0
7600000.0,18.03125,2.777410231323705E-7,7600000.0,87.5,74.64503042596348,74.9498997995992,73.11827956989248,517015.0,1112.0,0.0,1.0,0.0,?,0.0,0.0
7700000.0,18.28125,2.8061674028221096E-7,7700000.0,89.1,77.45921979949046,79.31688804554081,74.10926365795724,537015.0,1112.0,0.0,1.0,0.0,?,0.0,0.0
7800000.0,18.515625,2.827306485010517E-7,7800000.0,88.2,74.4699264387711,74.56896551724138,68.44919786096257,557015.0,1112.0,0.0,1.0,0.0,?,0.0,0.0
7900000.0,18.75,2.842624801107578E-7,7900000.0,86.8,72.40860349909075,72.38493723849372,68.19277108433735,577015.0,1112.0,0.0,1.0,0.0,?,0.0,0.0
8000000.0,18.984375,2.852122351113292E-7,8000000.0,87.2,73.77951852640894,75.2895752895753,71.04072398190044,597015.0,1112.0,0.0,1.0,0.0,?,0.0,0.0
8100000.0,19.234375,2.9181945137679567E-7,8100000.0,86.9,72.95623451692816,72.42105263157895,69.17647058823529,616815.0,1112.0,0.0,1.0,0.0,?,0.0,0.0
8200000.0,19.46875,2.9743164001653583E-7,8200000.0,86.1,71.34587792931708,72.2,67.74941995359629,636815.0,1112.0,0.0,1.0,0.0,?,0.0,0.0
8300000.0,19.703125,3.0246175204714133E-7,8300000.0,86.9,72.57853841516511,73.42799188640974,68.28087167070218,656815.0,1112.0,0.0,1.0,0.0,?,0.0,0.0
8400000.0,19.9375,3.0690978746861215E-7,8400000.0,88.1,75.11147549212352,76.34194831013916,71.8676122931442,676815.0,1112.0,0.0,1.0,0.0,?,0.0,0.0
8500000.0,20.1875,3.1103347686843737E-7,8500000.0,86.3,71.11191707222441,70.28199566160521,66.25615763546799,696815.0,1112.0,0.0,1.0,0.0,?,0.0,0.0
8600000.0,20.40625,3.1409843359142537E-7,8600000.0,86.5,72.17825699871402,72.5609756097561,68.53146853146853,716815.0,1112.0,0.0,1.0,0.0,?,0.0,0.0
8700000.0,20.640625,3.1680023918549217E-7,8700000.0,87.2,72.64957264957265,73.44398340248962,68.0,736815.0,1112.0,0.0,1.0,0.0,?,0.0,0.0
8800000.0,20.875,3.189199681704243E-7,8800000.0,88.6,76.54176183715045,77.2,74.03189066059225,756815.0,1112.0,0.0,1.0,0.0,?,0.0,0.0
8900000.0,21.125,3.205601307046082E-7,8900000.0,88.4,75.84571240572541,76.93836978131213,72.18225419664269,776815.0,1112.0,0.0,1.0,0.0,?,0.0,0.0
9000000.0,21.34375,3.214520014201601E-7,9000000.0,86.8,72.74067710505992,72.72727272727273,69.23076923076923,796815.0,1112.0,0.0,1.0,0.0,?,0.0,0.0
9100000.0,21.578125,3.276520874351263E-7,9100000.0,85.6,70.31172686788719,70.4312114989733,66.66666666666666,816615.0,1112.0,0.0,1.0,0.0,?,0.0,0.0
9200000.0,21.8125,3.3327009684095776E-7,9200000.0,86.3,71.63537586232597,71.98364008179959,67.53554502369668,836615.0,1112.0,0.0,1.0,0.0,?,0.0,0.0
9300000.0,22.046875,3.3830602963765457E-7,9300000.0,85.6,70.12745618693575,71.0261569416499,65.04854368932038,856615.0,1112.0,0.0,1.0,0.0,?,0.0,0.0
9400000.0,22.265625,3.424629620793792E-7,9400000.0,86.6,72.17792837685204,72.8744939271255,67.94258373205741,876615.0,1112.0,0.0,1.0,0.0,?,0.0,0.0
9500000.0,22.515625,3.4659286029636855E-7,9500000.0,87.4,73.95402679014387,74.02061855670104,70.69767441860465,896615.0,1112.0,0.0,1.0,0.0,?,0.0,0.0
9600000.0,22.734375,3.496632497343752E-7,9600000.0,86.5,72.24141334386103,73.10756972111554,69.24829157175398,916615.0,1112.0,0.0,1.0,0.0,?,0.0,0.0
9700000.0,22.984375,3.5255138451854384E-7,9700000.0,87.7,74.2255079460873,75.9765625,70.07299270072993,936615.0,1112.0,0.0,1.0,0.0,?,0.0,0.0
9800000.0,23.21875,3.546769342695673E-7,9800000.0,88.3,75.71304022916927,76.41129032258065,71.94244604316548,956615.0,1112.0,0.0,1.0,0.0,?,0.0,0.0
9900000.0,23.453125,3.5622040741145604E-7,9900000.0,88.9,77.15109098394402,78.61271676300578,74.12587412587413,976615.0,1112.0,0.0,1.0,0.0,?,0.0,0.0
1.0E7,23.6875,3.5718180394421013E-7,1.0E7,88.1,75.38107611591997,75.10460251046025,71.8676122931442,996615.0,1112.0,0.0,1.0,0.0,?,0.0,0.0
