learning evaluation instances,evaluation time (cpu seconds),model cost (RAM-Hours),classified instances,classifications correct (percent),Kappa Statistic (percent),Kappa Temporal Statistic (percent),Kappa M Statistic (percent),model training instances,model serialized size (bytes),labeling cost,newThreshold,maxPosterior,accuracyBaseLearner (percent),Change detected,Warning detected
100000.0,0.296875,7.743462144086758E-9,100000.0,89.3,72.35684981760689,73.77450980392157,62.05673758865249,29173.0,1112.0,0.0,1.0,0.0,?,1.0,41.0
200000.0,0.609375,1.5104144242488675E-8,200000.0,90.10000000000001,75.13537407448338,76.59574468085107,66.21160409556315,59173.0,1112.0,0.0,1.0,0.0,?,0.0,35.0
300000.0,0.890625,2.1030266200088792E-8,300000.0,88.1,70.10891407443131,72.32558139534883,60.465116279069775,89173.0,1112.0,0.0,1.0,0.0,?,0.0,0.0
400000.0,1.1875,2.6548320117096108E-8,400000.0,86.1,64.13236447710663,66.9833729216152,51.56794425087108,119173.0,1112.0,0.0,1.0,0.0,?,0.0,0.0
500000.0,1.46875,3.107745821277301E-8,500000.0,88.0,69.76705516000787,71.56398104265404,60.13289036544851,149173.0,1112.0,0.0,1.0,0.0,?,0.0,0.0
600000.0,1.75,3.49081043774883E-8,600000.0,87.1,66.85508735868449,70.1388888888889,57.00000000000001,179173.0,1112.0,0.0,1.0,0.0,?,0.0,0.0
700000.0,2.046875,3.821426717978385E-8,700000.0,88.9,71.23100209417571,71.46529562982006,61.3240418118467,209173.0,1112.0,0.0,1.0,0.0,?,0.0,0.0
800000.0,2.359375,4.0918336405108374E-8,800000.0,87.4,66.9418018292203,67.27272727272727,56.09756097560976,239173.0,1112.0,0.0,1.0,0.0,?,0.0,0.0
900000.0,2.640625,4.265350677693884E-8,900000.0,87.7,68.06986210333945,70.28985507246377,57.43944636678201,269173.0,1112.0,0.0,1.0,0.0,?,0.0,0.0
1000000.0,2.859375,4.3459812230947947E-8,1000000.0,88.4,68.56794472293727,69.94818652849742,57.81818181818183,299173.0,1112.0,0.0,1.0,0.0,?,0.0,0.0
1100000.0,3.140625,5.0789902969780894E-8,1100000.0,87.3,69.18672360248446,72.39130434782608,59.936908517350155,328873.0,1112.0,0.0,1.0,0.0,?,0.0,0.0
1200000.0,3.375,5.6316235309673675E-8,1200000.0,89.7,73.2578668605255,74.87804878048782,63.21428571428572,358873.0,1112.0,0.0,1.0,0.0,?,0.0,0.0
1300000.0,3.59375,6.093087399171457E-8,1300000.0,90.4,75.35061186970745,77.08830548926015,67.23549488054609,388873.0,1112.0,0.0,1.0,0.0,?,0.0,0.0
1400000.0,3.8125,6.500224117189645E-8,1400000.0,88.4,71.59438744276024,71.70731707317074,62.939297124600635,418873.0,1112.0,0.0,1.0,0.0,?,0.0,0.0
1500000.0,4.046875,6.87823436843852E-8,1500000.0,88.0,68.90047634103738,69.84924623115577,57.597173144876336,448873.0,1112.0,0.0,1.0,0.0,?,0.0,0.0
1600000.0,4.265625,7.176716786084901E-8,1600000.0,88.8,71.27026472398933,73.26968973747017,62.16216216216217,478873.0,1112.0,0.0,1.0,0.0,?,0.0,0.0
1700000.0,4.5,7.438311715506843E-8,1700000.0,87.5,68.40466296622078,69.80676328502415,59.15032679738563,508873.0,1112.0,0.0,1.0,0.0,?,0.0,0.0
1800000.0,4.71875,7.628139832781419E-8,1800000.0,87.3,67.14780899167056,68.40796019900498,55.59440559440559,538873.0,1112.0,0.0,1.0,0.0,?,0.0,0.0
1900000.0,4.9375,7.763640799870091E-8,1900000.0,87.6,68.67753522514285,71.02803738317758,58.52842809364549,568873.0,1112.0,0.0,1.0,0.0,?,0.0,0.0
2000000.0,5.15625,7.84481461677286E-8,2000000.0,87.6,65.9400544959128,66.48648648648648,53.03030303030303,598873.0,1112.0,0.0,1.0,0.0,?,0.0,0.0
2100000.0,5.390625,8.456237588284742E-8,2100000.0,89.2,73.0604792241418,74.46808510638299,64.11960132890367,628573.0,1112.0,0.0,1.0,0.0,?,0.0,0.0
2200000.0,5.609375,8.972571878176594E-8,2200000.0,89.1,70.81347399989289,72.95285359801488,60.79136690647483,658573.0,1112.0,0.0,1.0,0.0,?,0.0,0.0
2300000.0,5.84375,9.46757952786154E-8,2300000.0,86.8,67.2846237731734,68.4964200477327,57.41935483870968,688573.0,1112.0,0.0,1.0,0.0,?,0.0,0.0
2400000.0,6.0625,9.875259517381587E-8,2400000.0,87.9,67.99009544771539,67.29729729729729,56.63082437275986,718573.0,1112.0,0.0,1.0,0.0,?,0.0,0.0
2500000.0,6.28125,1.022861235671573E-7,2500000.0,87.5,67.28810543174467,70.30878859857482,57.04467353951891,748573.0,1112.0,0.0,1.0,0.0,?,0.0,0.0
2600000.0,6.484375,1.0506279068067668E-7,2600000.0,87.5,69.60560229538491,70.44917257683215,62.121212121212125,778573.0,1112.0,0.0,1.0,0.0,?,0.0,0.0
2700000.0,6.703125,1.0750977607030005E-7,2700000.0,89.3,73.11557788944724,75.7918552036199,64.33333333333334,808573.0,1112.0,0.0,1.0,0.0,?,0.0,0.0
2800000.0,6.921875,1.094134899580644E-7,2800000.0,88.8,69.03750884642605,71.71717171717172,58.2089552238806,838573.0,1112.0,0.0,1.0,0.0,?,0.0,0.0
2900000.0,7.140625,1.1077393234396972E-7,2900000.0,87.5,67.80375227949435,69.28746928746929,58.19397993311037,868573.0,1112.0,0.0,1.0,0.0,?,0.0,0.0
3000000.0,7.359375,1.11591103228016E-7,3000000.0,88.0,69.74586526825334,72.2863741339492,61.290322580645174,898573.0,1112.0,0.0,1.0,0.0,?,0.0,0.0
3100000.0,7.578125,1.1730315034381215E-7,3100000.0,87.6,69.37379285816608,69.6078431372549,59.87055016181231,928273.0,1112.0,0.0,1.0,0.0,?,0.0,0.0
3200000.0,7.828125,1.2321032247402598E-7,3200000.0,86.2,65.84361325069797,67.7570093457944,56.050955414012726,958273.0,1112.0,0.0,1.0,0.0,?,0.0,0.0
3300000.0,8.09375,1.2882700603869221E-7,3300000.0,87.1,66.39749934878874,67.66917293233082,54.736842105263165,988273.0,1112.0,0.0,1.0,0.0,?,0.0,0.0
3400000.0,8.3125,1.3290923864891126E-7,3400000.0,88.3,68.25827455236028,71.875,57.45454545454546,1018273.0,1112.0,0.0,1.0,0.0,?,0.0,0.0
3500000.0,8.609375,1.3771211443882845E-7,3500000.0,87.5,66.31308884720694,67.27748691099477,54.21245421245422,1048273.0,1112.0,0.0,1.0,0.0,?,0.0,0.0
3600000.0,8.90625,1.4177769319050836E-7,3600000.0,86.5,65.73604060913706,69.24829157175398,55.00000000000001,1078273.0,1112.0,0.0,1.0,0.0,?,0.0,0.0
3700000.0,9.21875,1.4528114762571117E-7,3700000.0,88.1,68.77787689562889,70.25,58.96551724137932,1108273.0,1112.0,0.0,1.0,0.0,?,0.0,0.0
3800000.0,9.515625,1.478721323009166E-7,3800000.0,87.6,69.05199265234407,71.0955710955711,59.477124183006545,1138273.0,1112.0,0.0,1.0,0.0,?,0.0,0.0
3900000.0,9.78125,1.4953069492346705E-7,3900000.0,89.0,72.42167756428258,73.2360097323601,63.81578947368423,1168273.0,1112.0,0.0,1.0,0.0,?,0.0,0.0
4000000.0,10.0,1.5035329852253192E-7,4000000.0,87.6,68.98511285417,72.13483146067415,58.38926174496645,1198273.0,1112.0,0.0,1.0,0.0,?,0.0,0.0
4100000.0,10.234375,1.5647916976983342E-7,4100000.0,87.0,66.98915720779056,68.67469879518072,55.93220338983051,1227973.0,1112.0,0.0,1.0,0.0,?,0.0,0.0
4200000.0,10.5,1.6276213702642248E-7,4200000.0,87.5,68.61157705481172,68.82793017456359,57.48299319727892,1257973.0,1112.0,0.0,1.0,0.0,?,0.0,0.0
4300000.0,10.703125,1.6706229265158369E-7,4300000.0,86.0,64.9040124741167,66.5871121718377,52.861952861952865,1287973.0,1112.0,0.0,1.0,0.0,?,0.0,0.0
4400000.0,10.9375,1.7144193407148117E-7,4400000.0,88.8,72.34294745160015,72.81553398058253,62.91390728476822,1317973.0,1112.0,0.0,1.0,0.0,?,0.0,0.0
4500000.0,11.203125,1.7574584085701234E-7,4500000.0,87.6,68.23835577139813,68.84422110552764,57.82312925170069,1347973.0,1112.0,0.0,1.0,0.0,?,0.0,0.0
4600000.0,11.421875,1.7874696317853192E-7,4600000.0,87.8,69.29241673714309,71.56177156177156,59.86842105263158,1377973.0,1112.0,0.0,1.0,0.0,?,0.0,0.0
4700000.0,11.65625,1.8138037477102538E-7,4700000.0,88.9,71.58159921350156,74.18604651162791,61.98630136986303,1407973.0,1112.0,0.0,1.0,0.0,?,0.0,0.0
4800000.0,11.875,1.832949540888269E-7,4800000.0,89.2,72.19805283399664,73.13432835820896,61.8374558303887,1437973.0,1112.0,0.0,1.0,0.0,?,0.0,0.0
4900000.0,12.09375,1.846662619047694E-7,4900000.0,90.2,74.95450921060703,77.52293577981652,65.73426573426575,1467973.0,1112.0,0.0,1.0,0.0,?,0.0,0.0
5000000.0,12.34375,1.8566122485531693E-7,5000000.0,88.6,70.50315409255799,71.712158808933,60.55363321799309,1497973.0,1112.0,0.0,1.0,0.0,?,0.0,0.0
5100000.0,12.609375,1.9267424553011847E-7,5100000.0,89.3,78.40530220467737,78.5140562248996,76.2749445676275,24877.0,1112.0,0.0,1.0,0.0,?,5.0,15.0
5200000.0,12.828125,1.9790640281927248E-7,5200000.0,90.7,81.39181239745488,81.6205533596838,80.94262295081968,54877.0,1112.0,0.0,1.0,0.0,?,0.0,0.0
5300000.0,13.0625,2.0293020901994566E-7,5300000.0,87.9,75.54765176622746,75.45638945233266,73.52297592997812,84877.0,1112.0,0.0,1.0,0.0,?,0.0,0.0
5400000.0,13.28125,2.070758233053816E-7,5400000.0,87.9,75.63686444431916,76.81992337164752,74.2004264392324,114877.0,1112.0,0.0,1.0,0.0,?,0.0,0.0
5500000.0,13.515625,2.1093547628778543E-7,5500000.0,87.2,74.17449166118547,73.8241308793456,72.35421166306695,144877.0,1112.0,0.0,1.0,0.0,?,0.0,0.0
5600000.0,13.734375,2.1399454756950332E-7,5600000.0,87.0,73.82409793814433,73.89558232931726,72.45762711864407,174877.0,1112.0,0.0,1.0,0.0,?,0.0,0.0
5700000.0,13.96875,2.166900473336378E-7,5700000.0,90.0,79.54039544323687,78.8135593220339,76.6355140186916,204877.0,1112.0,0.0,1.0,0.0,?,0.0,24.0
5800000.0,14.1875,2.1866257561163764E-7,5800000.0,88.2,76.16816389840368,75.41666666666667,74.45887445887446,234877.0,1112.0,0.0,1.0,0.0,?,0.0,0.0
5900000.0,14.40625,2.2009183238777844E-7,5900000.0,88.5,76.58165467918904,77.27272727272727,73.98190045248869,264877.0,1112.0,0.0,1.0,0.0,?,0.0,0.0
6000000.0,14.625,2.209778176620602E-7,6000000.0,89.0,77.68183219984094,77.9559118236473,75.33632286995515,294877.0,1112.0,0.0,1.0,0.0,?,0.0,16.0
6100000.0,14.859375,2.2717159784709408E-7,6100000.0,88.2,76.24062209299984,77.90262172284643,74.40347071583514,324577.0,1112.0,0.0,1.0,0.0,?,0.0,0.0
6200000.0,15.09375,2.3278330142299328E-7,6200000.0,89.8,79.48816950011462,78.52631578947368,78.343949044586,354577.0,1112.0,0.0,1.0,0.0,?,0.0,0.0
6300000.0,15.3125,2.3747761992530684E-7,6300000.0,90.0,79.81592120135636,79.91967871485944,78.35497835497836,384577.0,1112.0,0.0,1.0,0.0,?,0.0,0.0
6400000.0,15.546875,2.419251702829367E-7,6400000.0,88.5,76.86042206590152,76.0914760914761,75.58386411889597,414577.0,1112.0,0.0,1.0,0.0,?,0.0,0.0
6500000.0,15.78125,2.457906440314319E-7,6500000.0,88.7,77.15085290002183,77.26358148893361,75.05518763796908,444577.0,1112.0,0.0,1.0,0.0,?,0.0,0.0
6600000.0,16.0,2.488551480281684E-7,6600000.0,89.2,78.09161760947092,78.86497064579257,75.94654788418708,474577.0,1112.0,0.0,1.0,0.0,?,0.0,0.0
6700000.0,16.21875,2.513763805230458E-7,6700000.0,88.5,76.89909524804347,77.88461538461539,75.99164926931107,504577.0,1112.0,0.0,1.0,0.0,?,0.0,0.0
6800000.0,16.421875,2.532130585879915E-7,6800000.0,87.9,75.58022199798184,74.4186046511628,73.1111111111111,534577.0,1112.0,0.0,1.0,0.0,?,0.0,0.0
6900000.0,16.640625,2.546477480791509E-7,6900000.0,89.0,77.74261560687793,77.27272727272727,75.60975609756098,564577.0,1112.0,0.0,1.0,0.0,?,0.0,0.0
7000000.0,16.859375,2.5553916606845124E-7,7000000.0,87.6,74.38863185723727,72.98474945533769,69.53316953316954,594577.0,1112.0,0.0,1.0,0.0,?,0.0,0.0
7100000.0,17.09375,2.6173876701957645E-7,7100000.0,88.8,77.51581922718658,78.70722433460077,76.37130801687763,624277.0,1112.0,0.0,1.0,0.0,?,0.0,0.0
7200000.0,17.296875,2.6660728811596827E-7,7200000.0,89.3,78.22636441333279,78.11860940695297,75.95505617977528,654277.0,1112.0,0.0,1.0,0.0,?,0.0,0.0
7300000.0,17.546875,2.719784323643479E-7,7300000.0,87.5,74.86285171897875,73.29059829059828,73.34754797441364,684277.0,1112.0,0.0,1.0,0.0,?,0.0,0.0
7400000.0,17.78125,2.764318034880691E-7,7400000.0,87.9,75.23658273027932,75.55555555555556,71.72897196261682,714277.0,1112.0,0.0,1.0,0.0,?,0.0,0.0
7500000.0,18.0,2.800450117016832E-7,7500000.0,87.5,74.35287165766624,75.24752475247524,70.51886792452831,744277.0,1112.0,0.0,1.0,0.0,?,0.0,0.0
7600000.0,18.21875,2.8311494841343826E-7,7600000.0,87.2,74.43599412027864,74.80314960629921,74.70355731225297,774277.0,1112.0,0.0,1.0,0.0,?,0.0,0.0
7700000.0,18.4375,2.856416136233343E-7,7700000.0,89.3,78.39693115283667,79.92495309568481,76.37969094922738,804277.0,1112.0,0.0,1.0,0.0,?,0.0,0.0
7800000.0,18.671875,2.877666783105168E-7,7800000.0,89.4,78.02334501275061,78.18930041152264,73.95577395577396,834277.0,1112.0,0.0,1.0,0.0,?,0.0,0.0
7900000.0,18.890625,2.892068005166948E-7,7900000.0,88.8,77.43618671555494,76.76348547717843,76.017130620985,864277.0,1112.0,0.0,1.0,0.0,?,0.0,0.0
8000000.0,19.109375,2.901036512210137E-7,8000000.0,88.9,77.70170913386207,78.73563218390804,76.43312101910828,894277.0,1112.0,0.0,1.0,0.0,?,0.0,0.0
8100000.0,19.328125,2.958953781570825E-7,8100000.0,88.0,75.80557358936413,74.89539748953975,73.8562091503268,923977.0,1112.0,0.0,1.0,0.0,?,0.0,0.0
8200000.0,19.5625,3.015187232651644E-7,8200000.0,87.0,73.78101907128335,74.40944881889764,71.98275862068965,953977.0,1112.0,0.0,1.0,0.0,?,0.0,0.0
8300000.0,19.796875,3.0655999176411163E-7,8300000.0,88.2,76.15342642927874,77.17601547388782,73.9514348785872,983977.0,1112.0,0.0,1.0,0.0,?,0.0,0.0
8400000.0,20.015625,3.107219041946033E-7,8400000.0,89.7,79.13002601655009,79.44111776447106,77.51091703056768,1013977.0,1112.0,0.0,1.0,0.0,?,0.0,0.0
8500000.0,20.234375,3.14340545123236E-7,8500000.0,88.6,76.73317441139014,75.8985200845666,73.73271889400922,1043977.0,1112.0,0.0,1.0,0.0,?,0.0,0.0
8600000.0,20.453125,3.1741591455000967E-7,8600000.0,87.4,74.57216661285115,74.59677419354838,72.60869565217392,1073977.0,1112.0,0.0,1.0,0.0,?,0.0,0.0
8700000.0,20.6875,3.201288766124182E-7,8700000.0,88.2,75.67812680352873,76.11336032388664,72.55813953488372,1103977.0,1112.0,0.0,1.0,0.0,?,0.0,0.0
8800000.0,20.921875,3.222597620656921E-7,8800000.0,89.60000000000001,78.97588291184022,79.2,77.34204793028323,1133977.0,1112.0,0.0,1.0,0.0,?,0.0,0.0
8900000.0,21.140625,3.2370531698688866E-7,8900000.0,89.2,78.2047142395867,79.02912621359224,76.52173913043478,1163977.0,1112.0,0.0,1.0,0.0,?,0.0,0.0
9000000.0,21.34375,3.245431515905592E-7,9000000.0,88.7,77.23151319766271,78.18532818532819,75.5939524838013,1193977.0,1112.0,0.0,1.0,0.0,?,0.0,0.0
9100000.0,21.5625,3.3034031124164664E-7,9100000.0,87.7,75.19521166752709,75.25150905432596,73.08533916849015,1223677.0,1112.0,0.0,1.0,0.0,?,0.0,0.0
9200000.0,21.78125,3.35594199390875E-7,9200000.0,87.4,74.56590458580777,74.74949899799599,72.66811279826464,1253677.0,1112.0,0.0,1.0,0.0,?,0.0,0.0
9300000.0,22.015625,3.4064128865591354E-7,9300000.0,87.0,73.71836601016493,74.30830039525692,70.65462753950338,1283677.0,1112.0,0.0,1.0,0.0,?,0.0,0.0
9400000.0,22.28125,3.457016363326046E-7,9400000.0,88.6,76.8998832836208,77.01612903225806,74.32432432432432,1313677.0,1112.0,0.0,1.0,0.0,?,0.0,0.0
9500000.0,22.515625,3.4958457237937383E-7,9500000.0,89.8,79.43009256458346,79.43548387096774,78.06451612903226,1343677.0,1112.0,0.0,1.0,0.0,?,0.0,0.0
9600000.0,22.734375,3.526653745211661E-7,9600000.0,88.4,76.6851041934654,76.51821862348179,75.78288100208769,1373677.0,1112.0,0.0,1.0,0.0,?,0.0,0.0
9700000.0,22.96875,3.5538415734966594E-7,9700000.0,89.3,78.11789342800583,79.34362934362935,75.2314814814815,1403677.0,1112.0,0.0,1.0,0.0,?,0.0,0.0
9800000.0,23.1875,3.573784164877401E-7,9800000.0,90.2,80.23779179505381,80.70866141732283,78.7878787878788,1433677.0,1112.0,0.0,1.0,0.0,?,0.0,0.0
9900000.0,23.40625,3.588294041239553E-7,9900000.0,90.3,80.52803160481139,81.66351606805293,79.74947807933195,1463677.0,1112.0,0.0,1.0,0.0,?,0.0,0.0
1.0E7,23.640625,3.598019571250511E-7,1.0E7,88.9,77.54563697566029,77.25409836065575,75.4424778761062,1493677.0,1112.0,0.0,1.0,0.0,?,0.0,0.0
