learning evaluation instances,evaluation time (cpu seconds),model cost (RAM-Hours),classified instances,classifications correct (percent),Kappa Statistic (percent),Kappa Temporal Statistic (percent),Kappa M Statistic (percent),model training instances,model serialized size (bytes),labeling cost,newThreshold,maxPosterior,accuracyBaseLearner (percent),Change detected,Warning detected,tree size (nodes),tree size (leaves),active learning leaves,tree depth,active leaf byte size estimate,inactive leaf byte size estimate,byte size estimate overhead
100000.0,0.90625,5.033306984437836E-8,100000.0,76.5,49.05701278994148,50.10615711252654,36.65768194070081,37185.0,100440.0,0.0,1.0,0.0,?,5.0,66.0,39.0,23.0,23.0,4.0,0.0,0.0,1.0
200000.0,1.734375,1.159288674696452E-7,200000.0,82.8,63.53444510873943,64.68172484599589,54.85564304461942,77185.0,206776.0,0.0,1.0,0.0,?,0.0,0.0,84.0,53.0,53.0,5.0,0.0,0.0,1.0
300000.0,2.5,1.8974950459475317E-7,300000.0,84.39999999999999,67.07735555189748,65.33333333333331,58.1769436997319,117185.0,288160.0,0.0,1.0,0.0,?,0.0,0.0,110.0,69.0,69.0,6.0,0.0,0.0,1.0
400000.0,3.28125,2.836724161170423E-7,400000.0,86.0,69.69119659155855,68.88888888888889,61.32596685082873,157185.0,395032.0,0.0,1.0,0.0,?,0.0,0.0,149.0,96.0,96.0,6.0,0.0,0.0,1.0
500000.0,4.03125,3.8219392687703174E-7,500000.0,85.0,68.05043770900338,68.6847599164927,58.904109589041084,197185.0,453096.0,0.0,1.0,0.0,?,0.0,0.0,165.0,107.0,107.0,7.0,0.0,0.0,1.0
600000.0,4.765625,4.955167080172235E-7,600000.0,85.6,70.03732849491674,71.14228456913827,63.171355498721226,236985.0,480880.0,0.0,1.0,0.0,?,0.0,0.0,180.0,116.0,116.0,7.0,0.0,0.0,1.0
700000.0,5.546875,6.25432973417143E-7,700000.0,83.39999999999999,64.54885210891618,62.8635346756152,55.495978552278814,276985.0,542128.0,0.0,1.0,0.0,?,0.0,0.0,208.0,133.0,133.0,7.0,0.0,0.0,1.0
800000.0,6.34375,7.821102432596187E-7,800000.0,85.3,68.89889390079804,69.11764705882352,60.37735849056604,316985.0,674048.0,0.0,1.0,0.0,?,0.0,0.0,257.0,165.0,165.0,7.0,0.0,0.0,1.0
900000.0,7.171875,9.592581449800896E-7,900000.0,85.2,69.31637717636035,68.90756302521008,62.14833759590792,356985.0,755744.0,0.0,1.0,0.0,?,0.0,0.0,286.0,181.0,181.0,7.0,0.0,0.0,1.0
1000000.0,7.984375,1.138918806747016E-6,1000000.0,87.1,73.21050314413165,72.84210526315789,66.58031088082902,396985.0,798608.0,0.0,1.0,0.0,?,0.0,0.0,305.0,192.0,192.0,7.0,0.0,0.0,1.0
1100000.0,8.765625,1.329233604742007E-6,1100000.0,86.2,71.17698168694024,71.54639175257732,65.32663316582914,436785.0,824408.0,0.0,1.0,0.0,?,0.0,0.0,326.0,204.0,204.0,8.0,0.0,0.0,1.0
1200000.0,9.546875,1.5344042913056909E-6,1200000.0,87.0,72.99767364572948,71.42857142857143,66.14583333333334,476785.0,912848.0,0.0,1.0,0.0,?,0.0,0.0,352.0,223.0,223.0,8.0,0.0,0.0,1.0
1300000.0,10.328125,1.7481735428898697E-6,1300000.0,85.6,68.85557204095491,68.42105263157893,58.5014409221902,516785.0,970368.0,0.0,1.0,0.0,?,0.0,0.0,374.0,237.0,237.0,8.0,0.0,0.0,1.0
1400000.0,11.125,1.9731267497667835E-6,1400000.0,88.8,76.21878715814508,75.86206896551724,69.56521739130434,556785.0,1018824.0,0.0,1.0,0.0,?,0.0,0.0,390.0,245.0,245.0,8.0,0.0,0.0,1.0
1500000.0,11.9375,2.2078583262757294E-6,1500000.0,87.4,74.03732032177238,73.91304347826086,67.85714285714286,596785.0,1059384.0,0.0,1.0,0.0,?,0.0,0.0,405.0,254.0,254.0,8.0,0.0,0.0,1.0
1600000.0,12.734375,2.4633814205622507E-6,1600000.0,88.3,75.42016806722688,74.56521739130434,68.80000000000001,636585.0,1121176.0,0.0,1.0,0.0,?,0.0,0.0,433.0,274.0,274.0,9.0,0.0,0.0,1.0
1700000.0,13.546875,2.738229846323116E-6,1700000.0,87.5,73.78179743606952,72.28381374722838,67.01846965699208,676585.0,1204152.0,0.0,1.0,0.0,?,0.0,0.0,457.0,289.0,289.0,9.0,0.0,0.0,1.0
1800000.0,14.390625,3.0382600703483656E-6,1800000.0,87.9,74.04836869332463,73.17073170731707,66.1064425770308,716585.0,1285992.0,0.0,1.0,0.0,?,0.0,0.0,488.0,309.0,309.0,9.0,0.0,0.0,1.0
1900000.0,15.25,3.3621692111612196E-6,1900000.0,87.6,73.8165724204045,73.27586206896551,67.45406824146983,756585.0,1383264.0,0.0,1.0,0.0,?,0.0,0.0,522.0,332.0,332.0,9.0,0.0,0.0,1.0
2000000.0,16.09375,3.6866553839192622E-6,2000000.0,87.0,73.29882720233327,72.97297297297297,67.41854636591479,796585.0,1427840.0,0.0,1.0,0.0,?,0.0,0.0,544.0,343.0,343.0,9.0,0.0,0.0,1.0
2100000.0,16.9375,4.0257522616431945E-6,2100000.0,90.5,79.75760261830084,78.16091954022988,73.82920110192838,836385.0,1433792.0,0.0,1.0,0.0,?,0.0,0.0,548.0,345.0,345.0,9.0,0.0,0.0,1.0
2200000.0,17.78125,4.366953346309148E-6,2200000.0,87.9,73.92039037511532,74.4186046511628,66.1064425770308,876385.0,1458488.0,0.0,1.0,0.0,?,0.0,0.0,560.0,351.0,351.0,10.0,0.0,0.0,1.0
2300000.0,18.609375,4.6995924074306256E-6,2300000.0,89.2,77.25904058418999,76.82403433476395,72.09302325581396,916385.0,1463184.0,0.0,1.0,0.0,?,0.0,0.0,564.0,353.0,353.0,10.0,0.0,0.0,1.0
2400000.0,19.46875,5.045386820307209E-6,2400000.0,89.9,78.72931900124676,77.99564270152506,73.35092348284961,956385.0,1480984.0,0.0,1.0,0.0,?,0.0,0.0,576.0,359.0,359.0,11.0,0.0,0.0,1.0
2500000.0,20.359375,5.419989013009602E-6,2500000.0,90.2,79.75875743555851,79.95910020449898,76.09756097560977,996385.0,1566368.0,0.0,1.0,0.0,?,0.0,0.0,604.0,379.0,379.0,11.0,0.0,0.0,1.0
2600000.0,21.328125,5.851337789661355E-6,2600000.0,89.4,77.43528610354224,76.33928571428572,70.55555555555556,1036185.0,1600752.0,0.0,1.0,0.0,?,0.0,0.0,615.0,386.0,386.0,11.0,4070.8179419525068,0.0,1.018231313681263
2700000.0,22.203125,6.241336102700896E-6,2700000.0,88.3,75.2485720330019,75.0,68.37837837837839,1076185.0,1617624.0,0.0,1.0,0.0,?,0.0,0.0,626.0,393.0,393.0,11.0,4070.8179419525068,0.0,1.018231313681263
2800000.0,23.109375,6.652061905091007E-6,2800000.0,90.7,80.30612331331476,79.51541850220265,74.79674796747969,1116185.0,1661640.0,0.0,1.0,0.0,?,0.0,0.0,639.0,401.0,401.0,11.0,4070.8179419525068,0.0,1.018231313681263
2900000.0,24.015625,7.064526370312605E-6,2900000.0,90.10000000000001,79.07507609063241,78.1456953642384,73.38709677419355,1156185.0,1684152.0,0.0,1.0,0.0,?,0.0,0.0,645.0,404.0,404.0,11.0,4070.8179419525068,0.0,1.018231313681263
3000000.0,24.921875,7.477579767712289E-6,3000000.0,91.10000000000001,81.10483631268312,81.4968814968815,76.20320855614973,1196185.0,1701768.0,0.0,1.0,0.0,?,0.0,0.0,653.0,408.0,408.0,11.0,4070.8179419525068,0.0,1.018231313681263
3100000.0,25.828125,7.908192346803845E-6,3100000.0,90.3,79.2749213728976,79.57894736842105,72.75280898876404,1235985.0,1715640.0,0.0,1.0,0.0,?,0.0,0.0,659.0,411.0,411.0,11.0,4070.8179419525068,0.0,1.018231313681263
3200000.0,26.75,8.349079709862257E-6,3200000.0,89.60000000000001,78.56792525151776,76.83741648106904,73.93483709273183,1275985.0,1742664.0,0.0,1.0,0.0,?,0.0,0.0,674.0,420.0,420.0,11.0,4070.8179419525068,0.0,1.018231313681263
3300000.0,27.671875,8.801618726768843E-6,3300000.0,89.7,78.21765427399231,78.54166666666667,73.03664921465969,1315985.0,1806528.0,0.0,1.0,0.0,?,0.0,0.0,695.0,435.0,435.0,11.0,4070.8179419525068,0.0,1.018231313681263
3400000.0,28.59375,9.25671626141088E-6,3400000.0,89.60000000000001,77.42222608167076,77.39130434782608,69.85507246376812,1355985.0,1832312.0,0.0,1.0,0.0,?,0.0,0.0,707.0,441.0,441.0,11.0,4070.8179419525068,0.0,1.018231313681263
3500000.0,29.546875,9.732764091394429E-6,3500000.0,90.8,80.37743575743099,79.32584269662922,75.00000000000001,1395985.0,1869776.0,0.0,1.0,0.0,?,0.0,0.0,727.0,454.0,454.0,11.0,4070.8179419525068,0.0,1.018231313681263
3600000.0,30.46875,1.0213645226839518E-5,3600000.0,90.5,79.92918170217442,80.84677419354838,75.1958224543081,1435785.0,1894544.0,0.0,1.0,0.0,?,0.0,0.0,739.0,460.0,460.0,11.0,4070.8179419525068,0.0,1.018231313681263
3700000.0,31.375,1.0687934441698923E-5,3700000.0,90.5,80.02691110924228,79.7008547008547,75.26041666666667,1475785.0,1916296.0,0.0,1.0,0.0,?,0.0,0.0,743.0,462.0,462.0,11.0,4070.8179419525068,0.0,1.018231313681263
3800000.0,32.28125,1.116287823404289E-5,3800000.0,90.4,79.7926217810278,80.16528925619835,74.67018469656993,1515785.0,1934200.0,0.0,1.0,0.0,?,0.0,0.0,749.0,465.0,465.0,11.0,4070.8179419525068,0.0,1.018231313681263
3900000.0,33.203125,1.1646913157569039E-5,3900000.0,90.2,79.66197370168682,79.45492662473795,75.00000000000001,1555785.0,1953064.0,0.0,1.0,0.0,?,0.0,0.0,759.0,470.0,470.0,11.0,4070.8179419525068,0.0,1.018231313681263
4000000.0,34.125,1.213399884161643E-5,4000000.0,91.10000000000001,81.16402116402116,81.38075313807532,76.26666666666667,1595785.0,1980912.0,0.0,1.0,0.0,?,0.0,0.0,771.0,476.0,476.0,12.0,4070.8179419525068,0.0,1.018231313681263
4100000.0,35.03125,1.2628598714299087E-5,4100000.0,91.8,82.4497570789547,83.05785123966943,76.90140845070424,1635585.0,1987192.0,0.0,1.0,0.0,?,0.0,0.0,775.0,478.0,478.0,12.0,4070.8179419525068,0.0,1.018231313681263
4200000.0,35.984375,1.3162234422957732E-5,4200000.0,91.8,82.65005585835677,82.55319148936171,78.64583333333334,1675585.0,2056728.0,0.0,1.0,0.0,?,0.0,0.0,796.0,493.0,493.0,12.0,4070.8179419525068,0.0,1.018231313681263
4300000.0,36.890625,1.3677233105732336E-5,4300000.0,90.9,81.21154560845687,81.57894736842107,77.96610169491527,1715585.0,2104224.0,0.0,1.0,0.0,?,0.0,0.0,812.0,504.0,504.0,12.0,4070.8179419525068,0.0,1.018231313681263
4400000.0,37.8125,1.4197756956693615E-5,4400000.0,91.60000000000001,82.62703977166967,83.30019880715707,79.15632754342433,1755585.0,2105360.0,0.0,1.0,0.0,?,0.0,0.0,823.0,511.0,511.0,12.0,4070.8179419525068,0.0,1.018231313681263
4500000.0,38.765625,1.474265025333605E-5,4500000.0,91.8,82.82851973463782,83.29938900203668,79.2929292929293,1795585.0,2147680.0,0.0,1.0,0.0,?,0.0,0.0,832.0,517.0,517.0,12.0,4070.8179419525068,0.0,1.018231313681263
4600000.0,39.703125,1.530104022498967E-5,4600000.0,92.2,83.73807458803122,83.91752577319589,80.20304568527919,1835385.0,2179272.0,0.0,1.0,0.0,?,0.0,0.0,844.0,526.0,526.0,12.0,4070.8179419525068,0.0,1.018231313681263
4700000.0,40.65625,1.5872034871588567E-5,4700000.0,91.8,82.58246776694493,82.70042194092828,78.01608579088473,1875385.0,2207704.0,0.0,1.0,0.0,?,0.0,0.0,852.0,530.0,530.0,12.0,4070.8179419525068,0.0,1.018231313681263
4800000.0,41.625,1.645824047348773E-5,4800000.0,90.9,81.06848631105935,80.92243186582809,76.96202531645571,1915385.0,2246080.0,0.0,1.0,0.0,?,0.0,0.0,865.0,538.0,538.0,12.0,4070.8179419525068,0.0,1.018231313681263
4900000.0,42.578125,1.7032698993312405E-5,4900000.0,90.9,80.47042664606406,79.91169977924946,74.14772727272728,1955385.0,2251944.0,0.0,1.0,0.0,?,0.0,0.0,871.0,541.0,541.0,12.0,4070.8179419525068,0.0,1.018231313681263
5000000.0,43.515625,1.7599028489914623E-5,5000000.0,90.8,80.62807160875444,80.95238095238095,76.3496143958869,1995385.0,2270064.0,0.0,1.0,0.0,?,0.0,0.0,875.0,543.0,543.0,12.0,4070.8179419525068,0.0,1.018231313681263
5100000.0,44.5625,1.7675629286612903E-5,5100000.0,81.10000000000001,62.122730369954716,62.20000000000001,60.86956521739132,39160.0,165472.0,0.0,1.0,0.0,?,1.0,13.0,53.0,39.0,39.0,3.0,0.0,0.0,1.0
5200000.0,45.375,1.7740564200923675E-5,5200000.0,83.8,67.47823852503774,68.29745596868884,65.82278481012658,79160.0,206568.0,0.0,1.0,0.0,?,0.0,0.0,72.0,50.0,50.0,4.0,0.0,0.0,1.0
5300000.0,46.171875,1.7836101695946935E-5,5300000.0,84.8,69.43371943371942,70.13752455795678,67.72823779193206,119160.0,375760.0,0.0,1.0,0.0,?,0.0,0.0,128.0,90.0,90.0,5.0,0.0,0.0,1.0
5400000.0,46.96875,1.7955542943026455E-5,5400000.0,88.5,76.87512567866479,77.45098039215686,75.68710359408034,159160.0,506496.0,0.0,1.0,0.0,?,0.0,0.0,174.0,122.0,122.0,5.0,0.0,0.0,1.0
5500000.0,47.765625,1.8099780168591274E-5,5500000.0,90.0,80.00071997408094,80.87954110898661,80.03992015968065,199160.0,641536.0,0.0,1.0,0.0,?,0.0,0.0,218.0,153.0,153.0,6.0,0.0,0.0,1.0
5600000.0,48.515625,1.8263759686508112E-5,5600000.0,91.10000000000001,82.15660486302689,82.98279158699809,81.4968814968815,238960.0,725928.0,0.0,1.0,0.0,?,0.0,0.0,250.0,175.0,175.0,6.0,0.0,0.0,1.0
5700000.0,49.328125,1.8455872260448005E-5,5700000.0,90.4,80.7950835413866,80.60606060606061,80.48780487804879,278960.0,809664.0,0.0,1.0,0.0,?,0.0,0.0,284.0,198.0,198.0,7.0,0.0,0.0,1.0
5800000.0,50.15625,1.866753795184195E-5,5800000.0,91.9,83.73624608465184,83.29896907216495,82.83898305084747,318960.0,898576.0,0.0,1.0,0.0,?,0.0,0.0,314.0,219.0,219.0,7.0,0.0,0.0,1.0
5900000.0,50.984375,1.8888907701087494E-5,5900000.0,90.5,80.69184179504899,81.55339805825244,78.55530474040633,358960.0,958816.0,0.0,1.0,0.0,?,0.0,0.0,340.0,235.0,235.0,7.0,0.0,0.0,1.0
6000000.0,51.796875,1.9117651261492736E-5,6000000.0,92.4,84.78411461565875,84.61538461538463,84.52138492871691,398960.0,1028712.0,0.0,1.0,0.0,?,0.0,0.0,369.0,254.0,254.0,7.0,0.0,0.0,1.0
6100000.0,52.640625,1.9379384919173187E-5,6100000.0,91.9,83.62644026682838,83.43558282208589,82.0,438760.0,1078336.0,0.0,1.0,0.0,?,0.0,0.0,385.0,262.0,262.0,7.0,0.0,0.0,1.0
6200000.0,53.46875,1.9638242633340673E-5,6200000.0,92.7,85.39649515883812,85.60157790927022,84.46808510638299,478760.0,1102608.0,0.0,1.0,0.0,?,0.0,0.0,404.0,273.0,273.0,7.0,0.0,0.0,1.0
6300000.0,54.265625,1.9893092847067034E-5,6300000.0,90.8,81.59403646781558,82.23938223938224,81.10882956878851,518760.0,1145512.0,0.0,1.0,0.0,?,0.0,0.0,420.0,281.0,281.0,7.0,0.0,0.0,1.0
6400000.0,55.09375,2.016809714000879E-5,6400000.0,92.4,84.74287733273377,84.48979591836736,83.9662447257384,558760.0,1207888.0,0.0,1.0,0.0,?,0.0,0.0,444.0,296.0,296.0,7.0,0.0,0.0,1.0
6500000.0,55.90625,2.0444386658103514E-5,6500000.0,93.4,86.73548138143933,86.5030674846626,85.8974358974359,598760.0,1253728.0,0.0,1.0,0.0,?,0.0,0.0,462.0,308.0,308.0,7.0,0.0,0.0,1.0
6600000.0,56.78125,2.077505429042503E-5,6600000.0,93.7,87.37454708692725,87.79069767441861,86.76470588235296,638560.0,1338944.0,0.0,1.0,0.0,?,0.0,0.0,491.0,327.0,327.0,8.0,0.0,0.0,1.0
6700000.0,57.625,2.109899738570675E-5,6700000.0,94.6,89.18602834862641,89.17835671342684,88.77338877338876,678560.0,1377328.0,0.0,1.0,0.0,?,0.0,0.0,505.0,337.0,337.0,8.0,0.0,0.0,1.0
6800000.0,58.453125,2.1428765677329566E-5,6800000.0,93.60000000000001,87.14482559143846,87.47553816046968,86.41188959660299,718560.0,1447432.0,0.0,1.0,0.0,?,0.0,0.0,538.0,358.0,358.0,8.0,0.0,0.0,1.0
6900000.0,59.265625,2.175568176123003E-5,6900000.0,93.30000000000001,86.60000000000001,85.65310492505354,86.67992047713719,758560.0,1478536.0,0.0,1.0,0.0,?,0.0,0.0,542.0,360.0,360.0,8.0,0.0,0.0,1.0
7000000.0,60.109375,2.210502551558117E-5,7000000.0,94.39999999999999,88.74276823370012,88.16067653276954,88.0597014925373,798560.0,1538616.0,0.0,1.0,0.0,?,0.0,0.0,570.0,377.0,377.0,9.0,0.0,0.0,1.0
7100000.0,60.96875,2.2488335250980323E-5,7100000.0,93.60000000000001,87.16019660948943,87.22554890219561,86.5263157894737,838360.0,1601144.0,0.0,1.0,0.0,?,0.0,0.0,600.0,398.0,398.0,9.0,0.0,0.0,1.0
7200000.0,61.84375,2.2899573668837547E-5,7200000.0,94.5,88.98810715572819,88.61283643892338,88.75255623721881,878360.0,1708560.0,0.0,1.0,0.0,?,0.0,0.0,637.0,424.0,424.0,9.0,0.0,0.0,1.0
7300000.0,62.734375,2.3336051672231406E-5,7300000.0,95.39999999999999,90.70710825410806,90.35639412997902,89.80044345898004,918360.0,1801176.0,0.0,1.0,0.0,?,0.0,0.0,675.0,452.0,452.0,9.0,0.0,0.0,1.0
7400000.0,63.578125,2.3761737102176993E-5,7400000.0,94.0,87.9474993069812,88.09523809523809,87.15203426124197,958360.0,1871896.0,0.0,1.0,0.0,?,0.0,0.0,695.0,465.0,465.0,9.0,0.0,0.0,1.0
7500000.0,64.453125,2.421441808110103E-5,7500000.0,94.1,88.19017422495516,88.65384615384613,87.88501026694044,998360.0,1936504.0,0.0,1.0,0.0,?,0.0,0.0,725.0,486.0,486.0,9.0,0.0,0.0,1.0
7600000.0,65.375,2.47286629746668E-5,7600000.0,94.39999999999999,88.76066231811338,88.50102669404517,88.21052631578947,1038160.0,2031808.0,0.0,1.0,0.0,?,0.0,0.0,754.0,505.0,505.0,9.0,3916.5010266940453,0.0,1.0154938615954399
7700000.0,66.21875,2.520262642065063E-5,7700000.0,95.8,91.59058145122536,91.17647058823528,91.35802469135803,1078160.0,2062040.0,0.0,1.0,0.0,?,0.0,0.0,768.0,515.0,515.0,9.0,3916.5010266940453,0.0,1.0154938615954399
7800000.0,67.078125,2.569554926594719E-5,7800000.0,95.1,90.19568610188482,90.95940959409592,89.99999999999999,1118160.0,2122784.0,0.0,1.0,0.0,?,0.0,0.0,794.0,531.0,531.0,9.0,3916.5010266940453,0.0,1.0154938615954399
7900000.0,67.9375,2.620214573754411E-5,7900000.0,95.6,91.15943950846483,91.42300194931772,90.49676025917925,1158160.0,2199200.0,0.0,1.0,0.0,?,0.0,0.0,819.0,548.0,548.0,9.0,3916.5010266940453,0.0,1.0154938615954399
8000000.0,68.78125,2.6705372502975574E-5,8000000.0,95.6,91.2005631639575,91.19999999999999,91.26984126984127,1198160.0,2240984.0,0.0,1.0,0.0,?,0.0,0.0,834.0,557.0,557.0,9.0,3916.5010266940453,0.0,1.0154938615954399
8100000.0,69.609375,2.7216319770862653E-5,8100000.0,94.69999999999999,89.40067835658517,89.42115768463073,89.18367346938774,1237960.0,2259464.0,0.0,1.0,0.0,?,0.0,0.0,844.0,562.0,562.0,9.0,3916.5010266940453,0.0,1.0154938615954399
8200000.0,70.46875,2.7748139885564638E-5,8200000.0,94.3,88.52481458516198,88.43813387423934,87.55458515283841,1277960.0,2281688.0,0.0,1.0,0.0,?,0.0,0.0,854.0,567.0,567.0,9.0,3916.5010266940453,0.0,1.0154938615954399
8300000.0,71.3125,2.827783600271989E-5,8300000.0,94.69999999999999,89.3073589580122,89.20570264765783,88.52813852813853,1317960.0,2331280.0,0.0,1.0,0.0,?,0.0,0.0,872.0,579.0,579.0,9.0,3916.5010266940453,0.0,1.0154938615954399
8400000.0,72.1875,2.8834569772394988E-5,8400000.0,95.1,90.17862869604258,89.59660297239914,89.48497854077252,1357960.0,2379024.0,0.0,1.0,0.0,?,0.0,0.0,893.0,591.0,591.0,9.0,3916.5010266940453,0.0,1.0154938615954399
8500000.0,73.0625,2.9396450134097695E-5,8500000.0,95.6,91.10089961814768,90.8902691511387,90.2654867256637,1397960.0,2416816.0,0.0,1.0,0.0,?,0.0,0.0,904.0,598.0,598.0,9.0,3916.5010266940453,0.0,1.0154938615954399
8600000.0,73.90625,2.9961215784876702E-5,8600000.0,96.0,91.97805195013557,91.70124481327801,91.66666666666666,1437760.0,2461008.0,0.0,1.0,0.0,?,0.0,0.0,922.0,610.0,610.0,9.0,3916.5010266940453,0.0,1.0154938615954399
8700000.0,74.828125,3.057944982881761E-5,8700000.0,95.39999999999999,90.79760737791825,90.76305220883533,90.66937119675455,1477760.0,2481024.0,0.0,1.0,0.0,?,0.0,0.0,930.0,614.0,614.0,9.0,3916.5010266940453,0.0,1.0154938615954399
8800000.0,75.703125,3.116401539753294E-5,8800000.0,94.8,89.59862701876646,89.4736842105263,89.53722334004023,1517760.0,2486336.0,0.0,1.0,0.0,?,0.0,0.0,943.0,622.0,622.0,9.0,3916.5010266940453,0.0,1.0154938615954399
8900000.0,76.625,3.179294522851705E-5,8900000.0,96.1,92.122867114788,92.0245398773006,91.31403118040087,1557760.0,2555952.0,0.0,1.0,0.0,?,0.0,0.0,978.0,644.0,644.0,9.0,3916.5010266940453,0.0,1.0154938615954399
9000000.0,77.546875,3.243375566348226E-5,9000000.0,95.7,91.3874601419667,91.43426294820716,91.17043121149896,1597760.0,2620688.0,0.0,1.0,0.0,?,0.0,0.0,995.0,654.0,654.0,9.0,3916.5010266940453,0.0,1.0154938615954399
9100000.0,78.453125,3.3090336267681164E-5,9100000.0,96.39999999999999,92.70324502908566,92.87128712871286,91.98218262806235,1637560.0,2673056.0,0.0,1.0,0.0,?,0.0,0.0,1029.0,674.0,674.0,10.0,3916.5010266940453,0.0,1.0154938615954399
9200000.0,79.34375,3.3742366746688875E-5,9200000.0,96.6,93.15211962038573,93.3463796477495,92.64069264069263,1677560.0,2717440.0,0.0,1.0,0.0,?,0.0,0.0,1035.0,677.0,677.0,10.0,3916.5010266940453,0.0,1.0154938615954399
9300000.0,80.265625,3.4421450012208264E-5,9300000.0,95.5,90.98160246903683,90.46610169491525,90.6832298136646,1717560.0,2750000.0,0.0,1.0,0.0,?,0.0,0.0,1057.0,691.0,691.0,10.0,3916.5010266940453,0.0,1.0154938615954399
9400000.0,81.1875,3.51082546209606E-5,9400000.0,95.39999999999999,90.75785582255082,91.1708253358925,90.21276595744679,1757560.0,2797384.0,0.0,1.0,0.0,?,0.0,0.0,1072.0,700.0,700.0,10.0,3916.5010266940453,0.0,1.0154938615954399
9500000.0,82.09375,3.5788036152047824E-5,9500000.0,96.1,92.17640403456825,91.39072847682118,91.71974522292993,1797560.0,2832080.0,0.0,1.0,0.0,?,0.0,0.0,1086.0,707.0,707.0,10.0,3916.5010266940453,0.0,1.0154938615954399
9600000.0,83.0,3.649746873027955E-5,9600000.0,96.6,93.19825875424108,93.52380952380952,93.08943089430893,1837360.0,2897536.0,0.0,1.0,0.0,?,0.0,0.0,1102.0,718.0,718.0,10.0,3916.5010266940453,0.0,1.0154938615954399
9700000.0,83.90625,3.721121326735657E-5,9700000.0,95.89999999999999,91.79855654595208,91.78356713426852,91.49377593360995,1877360.0,2931008.0,0.0,1.0,0.0,?,0.0,0.0,1122.0,731.0,731.0,10.0,3916.5010266940453,0.0,1.0154938615954399
9800000.0,84.859375,3.797156500190289E-5,9800000.0,96.39999999999999,92.7442760399871,92.78557114228457,92.17391304347825,1917360.0,2985256.0,0.0,1.0,0.0,?,0.0,0.0,1150.0,748.0,748.0,10.0,3916.5010266940453,0.0,1.0154938615954399
9900000.0,85.78125,3.8708376135521875E-5,9900000.0,96.1,92.18142306119339,92.38281249999999,91.90871369294605,1957360.0,3006176.0,0.0,1.0,0.0,?,0.0,0.0,1156.0,751.0,751.0,10.0,3916.5010266940453,0.0,1.0154938615954399
1.0E7,86.703125,3.944944955744884E-5,1.0E7,97.0,93.97892624184647,94.05940594059405,93.68421052631578,1997360.0,3039056.0,0.0,1.0,0.0,?,0.0,0.0,1168.0,757.0,757.0,10.0,3916.5010266940453,0.0,1.0154938615954399
