learning evaluation instances,evaluation time (cpu seconds),model cost (RAM-Hours),classified instances,classifications correct (percent),Kappa Statistic (percent),Kappa Temporal Statistic (percent),Kappa M Statistic (percent),model training instances,model serialized size (bytes),labeling cost,newThreshold,maxPosterior,accuracyBaseLearner (percent),Change detected,Warning detected,tree size (nodes),tree size (leaves),active learning leaves,tree depth,active leaf byte size estimate,inactive leaf byte size estimate,byte size estimate overhead
100000.0,0.3125,0.0,100000.0,67.9,29.51003987843228,29.912663755458517,10.084033613445389,12275.0,0.0,0.0,1.0,0.0,?,2.0,47.0,25.0,22.0,22.0,2.0,0.0,0.0,1.0
200000.0,0.5625,0.0,200000.0,69.69999999999999,36.575849423112345,35.66878980891718,20.052770448548802,32275.0,0.0,0.0,1.0,0.0,?,0.0,0.0,27.0,23.0,23.0,3.0,0.0,0.0,1.0
300000.0,0.828125,0.0,300000.0,66.5,29.646088322510742,32.32323232323233,12.303664921465979,52275.0,0.0,0.0,1.0,0.0,?,0.0,0.0,27.0,23.0,23.0,3.0,0.0,0.0,1.0
400000.0,1.078125,0.0,400000.0,67.7,33.29037481308914,34.482758620689665,11.748633879781432,72275.0,0.0,0.0,1.0,0.0,?,0.0,0.0,87.0,58.0,58.0,5.0,0.0,0.0,1.0
500000.0,1.328125,0.0,500000.0,69.69999999999999,38.18294583765168,36.61087866108785,22.900763358778615,92275.0,0.0,0.0,1.0,0.0,?,0.0,0.0,115.0,77.0,77.0,5.0,0.0,0.0,1.0
600000.0,1.578125,0.0,600000.0,72.3,43.28930235605309,42.29166666666666,29.51653944020356,112275.0,0.0,0.0,1.0,0.0,?,0.0,0.0,135.0,87.0,87.0,5.0,0.0,0.0,1.0
700000.0,1.875,0.0,700000.0,71.8,41.38359655285661,38.69565217391303,22.31404958677685,132275.0,0.0,0.0,1.0,0.0,?,0.0,0.0,172.0,109.0,109.0,6.0,0.0,0.0,1.0
800000.0,2.125,0.0,800000.0,70.5,38.628609469917606,36.42241379310344,18.055555555555543,152275.0,0.0,0.0,1.0,0.0,?,0.0,0.0,199.0,126.0,126.0,6.0,0.0,0.0,1.0
900000.0,2.375,0.0,900000.0,75.9,50.92848998208177,50.30927835051546,38.04627249357327,172275.0,0.0,0.0,1.0,0.0,?,0.0,0.0,219.0,136.0,136.0,7.0,0.0,0.0,1.0
1000000.0,2.65625,0.0,1000000.0,79.10000000000001,57.521015918440355,55.9071729957806,46.68367346938776,192275.0,0.0,0.0,1.0,0.0,?,0.0,0.0,273.0,181.0,181.0,7.0,0.0,0.0,1.0
1100000.0,2.953125,0.0,1100000.0,75.0,49.0866138525141,46.236559139784944,35.064935064935064,212075.0,0.0,0.0,1.0,0.0,?,0.0,0.0,281.0,185.0,185.0,7.0,0.0,0.0,1.0
1200000.0,3.203125,0.0,1200000.0,77.4,53.27025506997055,53.01455301455301,38.58695652173913,232075.0,0.0,0.0,1.0,0.0,?,0.0,0.0,299.0,194.0,194.0,8.0,0.0,0.0,1.0
1300000.0,3.46875,0.0,1300000.0,76.5,52.26526698950242,54.28015564202335,40.65656565656566,252075.0,0.0,0.0,1.0,0.0,?,0.0,0.0,316.0,206.0,206.0,8.0,0.0,0.0,1.0
1400000.0,3.765625,0.0,1400000.0,79.60000000000001,58.1843822767374,52.99539170506914,43.64640883977901,272075.0,0.0,0.0,1.0,0.0,?,0.0,0.0,343.0,223.0,223.0,8.0,0.0,0.0,1.0
1500000.0,4.03125,0.0,1500000.0,79.10000000000001,57.351812854041185,53.4521158129176,45.99483204134368,292075.0,0.0,0.0,1.0,0.0,?,0.0,0.0,353.0,228.0,228.0,8.0,0.0,0.0,1.0
1600000.0,4.3125,0.0,1600000.0,76.2,50.44165233361514,48.26086956521739,38.817480719794354,312075.0,0.0,0.0,1.0,0.0,?,0.0,0.0,374.0,242.0,242.0,9.0,0.0,0.0,1.0
1700000.0,4.671875,0.0,1700000.0,78.5,56.26205336436355,54.15778251599147,44.73007712082263,332075.0,0.0,0.0,1.0,0.0,?,0.0,0.0,392.0,251.0,251.0,9.0,0.0,0.0,1.0
1800000.0,5.046875,0.0,1800000.0,80.2,59.72728456131217,59.25925925925927,48.437500000000014,352075.0,0.0,0.0,1.0,0.0,?,0.0,0.0,419.0,268.0,268.0,9.0,0.0,0.0,1.0
1900000.0,5.34375,0.0,1900000.0,81.5,61.3946344802257,60.21505376344085,52.19638242894056,372075.0,0.0,0.0,1.0,0.0,?,0.0,0.0,443.0,280.0,280.0,9.0,0.0,0.0,1.0
2000000.0,5.640625,0.0,2000000.0,80.5,59.669079627714595,57.974137931034484,48.000000000000014,392075.0,0.0,0.0,1.0,0.0,?,0.0,0.0,465.0,291.0,291.0,9.0,0.0,0.0,1.0
2100000.0,5.9375,0.0,2100000.0,83.6,66.07266242712862,66.73427991886409,57.180156657963444,411875.0,0.0,0.0,1.0,0.0,?,0.0,0.0,475.0,296.0,296.0,9.0,0.0,0.0,1.0
2200000.0,6.21875,0.0,2200000.0,82.3,62.83074338513228,62.815126050420155,50.83333333333332,431875.0,0.0,0.0,1.0,0.0,?,0.0,0.0,487.0,302.0,302.0,9.0,0.0,0.0,1.0
2300000.0,6.515625,0.0,2300000.0,82.8,64.45693503058357,60.64073226544622,53.00546448087431,451875.0,0.0,0.0,1.0,0.0,?,0.0,0.0,505.0,311.0,311.0,9.0,0.0,0.0,1.0
2400000.0,6.84375,0.0,2400000.0,82.69999999999999,64.61270342581757,65.26104417670682,56.42317380352644,471875.0,0.0,0.0,1.0,0.0,?,0.0,0.0,517.0,317.0,317.0,9.0,0.0,0.0,1.0
2500000.0,7.203125,0.0,2500000.0,81.5,62.13671715104378,62.01232032854208,53.749999999999986,491875.0,0.0,0.0,1.0,0.0,?,0.0,0.0,557.0,346.0,346.0,10.0,0.0,0.0,1.0
2600000.0,7.515625,0.0,2600000.0,82.69999999999999,64.39596624819922,62.7155172413793,57.38916256157635,511875.0,0.0,0.0,1.0,0.0,?,0.0,0.0,579.0,357.0,357.0,10.0,0.0,0.0,1.0
2700000.0,7.8125,0.0,2700000.0,81.5,61.21137911369049,58.23927765237019,49.86449864498643,531875.0,0.0,0.0,1.0,0.0,?,0.0,0.0,599.0,367.0,367.0,10.0,0.0,0.0,1.0
2800000.0,8.109375,0.0,2800000.0,83.8,65.8928699255117,64.70588235294117,56.33423180592991,551875.0,0.0,0.0,1.0,0.0,?,0.0,0.0,629.0,382.0,382.0,10.0,0.0,0.0,1.0
2900000.0,8.421875,0.0,2900000.0,83.8,66.12012715409068,67.0061099796334,56.21621621621621,571875.0,0.0,0.0,1.0,0.0,?,0.0,0.0,667.0,401.0,401.0,10.0,0.0,0.0,1.0
3000000.0,8.75,0.0,3000000.0,81.8,62.28745249669496,60.7758620689655,52.97157622739017,591875.0,0.0,0.0,1.0,0.0,?,0.0,0.0,696.0,417.0,417.0,10.0,0.0,0.0,1.0
3100000.0,9.09375,0.0,3100000.0,83.3,65.58347347248326,64.76793248945147,57.828282828282816,611675.0,0.0,0.0,1.0,0.0,?,0.0,0.0,744.0,444.0,444.0,10.0,0.0,0.0,1.0
3200000.0,9.359375,0.0,3200000.0,85.8,70.30841610036592,70.35490605427974,62.133333333333326,631675.0,0.0,0.0,1.0,0.0,?,0.0,0.0,786.0,468.0,468.0,10.0,0.0,0.0,1.0
3300000.0,9.6875,0.0,3300000.0,84.6,67.91091737269595,68.04979253112032,59.366754617414244,651675.0,0.0,0.0,1.0,0.0,?,0.0,0.0,812.0,481.0,481.0,10.0,0.0,0.0,1.0
3400000.0,10.0,0.0,3400000.0,83.2,64.95838808585195,65.07276507276507,55.672823218997344,671675.0,0.0,0.0,1.0,0.0,?,0.0,0.0,845.0,499.0,499.0,10.0,0.0,0.0,1.0
3500000.0,10.34375,0.0,3500000.0,85.3,69.73565016882154,67.40576496674056,62.78481012658228,691675.0,0.0,0.0,1.0,0.0,?,0.0,0.0,871.0,512.0,512.0,10.0,0.0,0.0,1.0
3600000.0,10.734375,0.0,3600000.0,86.2,70.80168419270888,69.60352422907489,63.77952755905512,711675.0,0.0,0.0,1.0,0.0,?,0.0,0.0,889.0,521.0,521.0,11.0,0.0,0.0,1.0
3700000.0,11.0625,0.0,3700000.0,85.0,68.1825895129815,67.39130434782608,58.33333333333333,731675.0,0.0,0.0,1.0,0.0,?,0.0,0.0,902.0,529.0,529.0,11.0,0.0,0.0,1.0
3800000.0,11.390625,0.0,3800000.0,85.6,69.7966306463521,67.78523489932886,60.8695652173913,751675.0,0.0,0.0,1.0,0.0,?,0.0,0.0,921.0,540.0,540.0,11.0,0.0,0.0,1.0
3900000.0,11.75,0.0,3900000.0,86.3,71.06896988638763,71.1578947368421,62.465753424657535,771675.0,0.0,0.0,1.0,0.0,?,0.0,0.0,934.0,548.0,548.0,11.0,0.0,0.0,1.0
4000000.0,12.0625,0.0,4000000.0,86.1,71.01606419003453,70.85953878406708,64.26735218508998,791675.0,0.0,0.0,1.0,0.0,?,0.0,0.0,954.0,558.0,558.0,11.0,0.0,0.0,1.0
4100000.0,12.375,0.0,4100000.0,87.0,72.61716692996313,72.34042553191489,65.33333333333333,811475.0,0.0,0.0,1.0,0.0,?,0.0,0.0,970.0,569.0,569.0,11.0,0.0,0.0,1.0
4200000.0,12.703125,0.0,4200000.0,88.2,75.29033852236225,74.84008528784648,69.82097186700767,831475.0,0.0,0.0,1.0,0.0,?,0.0,0.0,988.0,581.0,581.0,11.0,0.0,0.0,1.0
4300000.0,13.0625,0.0,4300000.0,86.7,72.35731803633037,71.64179104477611,65.45454545454545,851475.0,0.0,0.0,1.0,0.0,?,0.0,0.0,1012.0,596.0,596.0,12.0,0.0,0.0,1.0
4400000.0,13.4375,0.0,4400000.0,87.1,73.30032784713714,72.89915966386555,67.42424242424242,871475.0,0.0,0.0,1.0,0.0,?,0.0,0.0,1022.0,601.0,601.0,12.0,0.0,0.0,1.0
4500000.0,13.765625,0.0,4500000.0,87.0,71.70813238853005,71.73913043478261,61.07784431137724,891475.0,0.0,0.0,1.0,0.0,?,0.0,0.0,1062.0,630.0,630.0,12.0,0.0,0.0,1.0
4600000.0,14.109375,0.0,4600000.0,87.4,73.25158792160592,72.24669603524228,65.57377049180327,911475.0,0.0,0.0,1.0,0.0,?,0.0,0.0,1078.0,638.0,638.0,12.0,0.0,0.0,1.0
4700000.0,14.453125,0.0,4700000.0,87.2,73.12008601572475,72.88135593220339,65.95744680851064,931475.0,0.0,0.0,1.0,0.0,?,0.0,0.0,1096.0,647.0,647.0,12.0,0.0,0.0,1.0
4800000.0,14.78125,0.0,4800000.0,88.6,76.14184302169838,76.15062761506276,69.5187165775401,951475.0,0.0,0.0,1.0,0.0,?,0.0,0.0,1118.0,658.0,658.0,12.0,0.0,0.0,1.0
4900000.0,15.109375,0.0,4900000.0,87.6,74.0577090446542,73.89473684210526,66.66666666666666,971475.0,0.0,0.0,1.0,0.0,?,0.0,0.0,1124.0,661.0,661.0,12.0,0.0,0.0,1.0
5000000.0,15.421875,0.0,5000000.0,87.1,73.01255230125523,72.13822894168467,65.60000000000001,991475.0,0.0,0.0,1.0,0.0,?,0.0,0.0,1148.0,673.0,673.0,12.0,0.0,0.0,1.0
5100000.0,15.78125,0.0,5100000.0,98.0,95.92462180490348,95.82463465553236,95.37037037037037,14259.0,0.0,0.0,1.0,0.0,?,2.0,3.0,28.0,16.0,16.0,4.0,0.0,0.0,1.0
5200000.0,15.890625,0.0,5200000.0,98.2,96.36792148253373,96.49805447470817,96.01769911504424,34259.0,0.0,0.0,1.0,0.0,?,0.0,0.0,30.0,17.0,17.0,5.0,0.0,0.0,1.0
5300000.0,16.046875,0.0,5300000.0,97.1,94.16921344700016,93.97089397089397,93.69565217391303,54259.0,0.0,0.0,1.0,0.0,?,0.0,0.0,34.0,19.0,19.0,5.0,0.0,0.0,1.0
5400000.0,16.171875,0.0,5400000.0,98.1,96.17613910803414,96.24505928853755,95.8695652173913,74259.0,0.0,0.0,1.0,0.0,?,0.0,0.0,36.0,20.0,20.0,5.0,0.0,0.0,1.0
5500000.0,16.3125,0.0,5500000.0,97.5,94.96872559831915,94.81327800829875,94.60043196544275,94259.0,0.0,0.0,1.0,0.0,?,0.0,0.0,38.0,21.0,21.0,5.0,0.0,0.0,1.0
5600000.0,16.453125,0.0,5600000.0,97.8,95.56251210223972,95.66929133858267,95.13274336283185,114259.0,0.0,0.0,1.0,0.0,?,0.0,0.0,38.0,21.0,21.0,5.0,0.0,0.0,1.0
5700000.0,16.625,0.0,5700000.0,97.3,94.48470834320638,94.48979591836735,93.76443418013857,134259.0,0.0,0.0,1.0,0.0,?,0.0,0.0,46.0,25.0,25.0,5.0,0.0,0.0,1.0
5800000.0,16.765625,0.0,5800000.0,97.0,93.90067865115542,93.9879759519038,93.19727891156462,154259.0,0.0,0.0,1.0,0.0,?,0.0,0.0,46.0,25.0,25.0,5.0,0.0,0.0,1.0
5900000.0,16.890625,0.0,5900000.0,97.1,94.19665727459015,93.92033542976938,94.19999999999999,174259.0,0.0,0.0,1.0,0.0,?,0.0,0.0,46.0,25.0,25.0,5.0,0.0,0.0,1.0
6000000.0,17.0625,0.0,6000000.0,97.0,93.95319775058955,94.16342412451361,93.43544857768052,194259.0,0.0,0.0,1.0,0.0,?,0.0,0.0,46.0,25.0,25.0,5.0,0.0,0.0,1.0
6100000.0,17.21875,0.0,6100000.0,96.8,93.57553563971604,93.8223938223938,93.22033898305084,214059.0,0.0,0.0,1.0,0.0,?,0.0,0.0,46.0,25.0,25.0,5.0,0.0,0.0,1.0
6200000.0,17.359375,0.0,6200000.0,97.8,95.57172992383374,95.53752535496956,95.23809523809523,234059.0,0.0,0.0,1.0,0.0,?,0.0,0.0,46.0,25.0,25.0,5.0,0.0,0.0,1.0
6300000.0,17.515625,0.0,6300000.0,96.89999999999999,93.7892678548532,93.98058252427184,93.59504132231405,254059.0,0.0,0.0,1.0,0.0,?,0.0,0.0,46.0,25.0,25.0,5.0,0.0,0.0,1.0
6400000.0,17.671875,0.0,6400000.0,97.39999999999999,94.79802324883455,95.08506616257088,94.76861167002012,274059.0,0.0,0.0,1.0,0.0,?,0.0,0.0,46.0,25.0,25.0,5.0,0.0,0.0,1.0
6500000.0,17.828125,0.0,6500000.0,96.3,92.58517034068136,92.17758985200845,92.24318658280922,294059.0,0.0,0.0,1.0,0.0,?,0.0,0.0,46.0,25.0,25.0,5.0,0.0,0.0,1.0
6600000.0,17.984375,0.0,6600000.0,97.7,95.39170506912443,95.54263565891472,95.22821576763485,314059.0,0.0,0.0,1.0,0.0,?,0.0,0.0,46.0,25.0,25.0,5.0,0.0,0.0,1.0
6700000.0,18.140625,0.0,6700000.0,97.1,94.15779591770954,93.86892177589851,93.59823399558498,334059.0,0.0,0.0,1.0,0.0,?,0.0,0.0,46.0,25.0,25.0,5.0,0.0,0.0,1.0
6800000.0,18.296875,0.0,6800000.0,97.5,94.96872559831915,95.1171875,94.5414847161572,354059.0,0.0,0.0,1.0,0.0,?,0.0,0.0,46.0,25.0,25.0,5.0,0.0,0.0,1.0
6900000.0,18.453125,0.0,6900000.0,96.89999999999999,93.73357590458863,93.81237524950099,93.1111111111111,374059.0,0.0,0.0,1.0,0.0,?,0.0,0.0,46.0,25.0,25.0,5.0,0.0,0.0,1.0
7000000.0,18.625,0.0,7000000.0,96.5,92.93899289864427,92.90060851926977,92.25663716814158,394059.0,0.0,0.0,1.0,0.0,?,0.0,0.0,46.0,25.0,25.0,5.0,0.0,0.0,1.0
7100000.0,18.78125,0.0,7100000.0,97.2,94.38483906547678,94.42231075697211,94.08033826638477,413859.0,0.0,0.0,1.0,0.0,?,0.0,0.0,46.0,25.0,25.0,5.0,0.0,0.0,1.0
7200000.0,18.953125,0.0,7200000.0,97.0,93.99615754082612,94.08284023668638,93.85245901639344,433859.0,0.0,0.0,1.0,0.0,?,0.0,0.0,46.0,25.0,25.0,5.0,0.0,0.0,1.0
7300000.0,19.125,0.0,7300000.0,96.8,93.58768836165437,93.66336633663366,93.33333333333333,453859.0,0.0,0.0,1.0,0.0,?,0.0,0.0,46.0,25.0,25.0,5.0,0.0,0.0,1.0
7400000.0,19.265625,0.0,7400000.0,97.1,94.17108859945328,94.3579766536965,93.81663113006397,473859.0,0.0,0.0,1.0,0.0,?,0.0,0.0,48.0,26.0,26.0,5.0,0.0,0.0,1.0
7500000.0,19.421875,0.0,7500000.0,97.0,93.95977208206656,94.12915851272015,93.52051835853132,493859.0,0.0,0.0,1.0,0.0,?,0.0,0.0,48.0,26.0,26.0,5.0,0.0,0.0,1.0
7600000.0,19.59375,0.0,7600000.0,97.7,95.38338016860698,95.58541266794626,95.1578947368421,513859.0,0.0,0.0,1.0,0.0,?,0.0,0.0,48.0,26.0,26.0,5.0,0.0,0.0,1.0
7700000.0,19.734375,0.0,7700000.0,97.6,95.17498713329901,95.42857142857143,94.82758620689654,533859.0,0.0,0.0,1.0,0.0,?,0.0,0.0,48.0,26.0,26.0,5.0,0.0,0.0,1.0
7800000.0,19.90625,0.0,7800000.0,96.7,93.3717370869387,93.36016096579476,93.0379746835443,553859.0,0.0,0.0,1.0,0.0,?,0.0,0.0,50.0,27.0,27.0,6.0,0.0,0.0,1.0
7900000.0,20.0625,0.0,7900000.0,96.5,92.98473478288756,92.90060851926977,92.75362318840578,573859.0,0.0,0.0,1.0,0.0,?,0.0,0.0,54.0,29.0,29.0,6.0,0.0,0.0,1.0
8000000.0,20.21875,0.0,8000000.0,97.1,94.12227293732316,93.95833333333333,93.45372460496614,593859.0,0.0,0.0,1.0,0.0,?,0.0,0.0,54.0,29.0,29.0,6.0,0.0,0.0,1.0
8100000.0,20.375,0.0,8100000.0,96.7,93.3717370869387,93.6046511627907,93.0379746835443,613659.0,0.0,0.0,1.0,0.0,?,0.0,0.0,54.0,29.0,29.0,6.0,0.0,0.0,1.0
8200000.0,20.53125,0.0,8200000.0,96.5,92.96307019236954,92.60042283298097,92.52136752136751,633659.0,0.0,0.0,1.0,0.0,?,0.0,0.0,74.0,48.0,48.0,6.0,0.0,0.0,1.0
8300000.0,20.703125,0.0,8300000.0,97.5,94.9684420686546,95.21072796934865,94.65811965811966,653659.0,0.0,0.0,1.0,0.0,?,0.0,0.0,76.0,49.0,49.0,7.0,0.0,0.0,1.0
8400000.0,20.875,0.0,8400000.0,96.89999999999999,93.76934517827712,93.9334637964775,93.40425531914893,673659.0,0.0,0.0,1.0,0.0,?,0.0,0.0,76.0,49.0,49.0,7.0,0.0,0.0,1.0
8500000.0,21.03125,0.0,8500000.0,96.89999999999999,93.76137040555118,93.72469635627529,93.31896551724137,693659.0,0.0,0.0,1.0,0.0,?,0.0,0.0,76.0,49.0,49.0,7.0,0.0,0.0,1.0
8600000.0,21.1875,0.0,8600000.0,97.39999999999999,94.79024734302614,94.71544715447155,94.6058091286307,713659.0,0.0,0.0,1.0,0.0,?,0.0,0.0,76.0,49.0,49.0,7.0,0.0,0.0,1.0
8700000.0,21.3125,0.0,8700000.0,96.6,93.13719157731558,92.96066252587991,92.5438596491228,733659.0,0.0,0.0,1.0,0.0,?,0.0,0.0,76.0,49.0,49.0,7.0,0.0,0.0,1.0
8800000.0,21.46875,0.0,8800000.0,97.2,94.37549967659122,94.29735234215886,94.00428265524626,753659.0,0.0,0.0,1.0,0.0,?,0.0,0.0,76.0,49.0,49.0,7.0,0.0,0.0,1.0
8900000.0,21.609375,0.0,8900000.0,97.2,94.3915873810716,94.45544554455445,94.22680412371133,773659.0,0.0,0.0,1.0,0.0,?,0.0,0.0,76.0,49.0,49.0,7.0,0.0,0.0,1.0
9000000.0,21.765625,0.0,9000000.0,97.8,95.57507884404968,95.69471624266144,95.30916844349679,793659.0,0.0,0.0,1.0,0.0,?,0.0,0.0,76.0,49.0,49.0,7.0,0.0,0.0,1.0
9100000.0,21.9375,0.0,9100000.0,97.3,94.55289342231619,94.87666034155598,94.03973509933775,813459.0,0.0,0.0,1.0,0.0,?,0.0,0.0,76.0,49.0,49.0,7.0,0.0,0.0,1.0
9200000.0,22.09375,0.0,9200000.0,97.0,93.9812214108017,94.0239043824701,93.67088607594937,833459.0,0.0,0.0,1.0,0.0,?,0.0,0.0,76.0,49.0,49.0,7.0,0.0,0.0,1.0
9300000.0,22.265625,0.0,9300000.0,96.7,93.35390266891156,93.503937007874,92.91845493562231,853459.0,0.0,0.0,1.0,0.0,?,0.0,0.0,76.0,49.0,49.0,7.0,0.0,0.0,1.0
9400000.0,22.421875,0.0,9400000.0,95.7,91.37460684254445,90.73275862068965,90.98532494758909,873459.0,0.0,0.0,1.0,0.0,?,0.0,0.0,76.0,49.0,49.0,7.0,0.0,0.0,1.0
9500000.0,22.546875,0.0,9500000.0,96.6,93.18011321012071,92.901878914405,92.81183932346723,893459.0,0.0,0.0,1.0,0.0,?,0.0,0.0,76.0,49.0,49.0,7.0,0.0,0.0,1.0
9600000.0,22.71875,0.0,9600000.0,97.0,93.9755406952226,94.19729206963248,93.63057324840763,913459.0,0.0,0.0,1.0,0.0,?,0.0,0.0,76.0,49.0,49.0,7.0,0.0,0.0,1.0
9700000.0,22.890625,0.0,9700000.0,98.0,95.96587127095225,95.76271186440678,95.60439560439559,933459.0,0.0,0.0,1.0,0.0,?,0.0,0.0,76.0,49.0,49.0,7.0,0.0,0.0,1.0
9800000.0,23.03125,0.0,9800000.0,97.3,94.5742166776522,94.71624266144813,94.21841541755887,953459.0,0.0,0.0,1.0,0.0,?,0.0,0.0,76.0,49.0,49.0,7.0,0.0,0.0,1.0
9900000.0,23.171875,0.0,9900000.0,97.2,94.3571140669085,94.35483870967741,93.93939393939394,973459.0,0.0,0.0,1.0,0.0,?,0.0,0.0,78.0,50.0,50.0,7.0,0.0,0.0,1.0
1.0E7,23.328125,0.0,1.0E7,96.89999999999999,93.78413711792494,93.72469635627529,93.51464435146443,993459.0,0.0,0.0,1.0,0.0,?,0.0,0.0,78.0,50.0,50.0,7.0,0.0,0.0,1.0
