learning evaluation instances,evaluation time (cpu seconds),model cost (RAM-Hours),classified instances,classifications correct (percent),Kappa Statistic (percent),Kappa Temporal Statistic (percent),Kappa M Statistic (percent),model training instances,model serialized size (bytes),labeling cost,newThreshold,maxPosterior,accuracyBaseLearner (percent),Change detected,Warning detected
100000.0,0.125,3.5938703351550633E-9,100000.0,37.0,2.173913043478263,-47.19626168224298,-85.29411764705884,469.0,7008.0,0.0,1.0,0.0,?,18.0,109.0
200000.0,0.265625,7.344480966114336E-9,200000.0,66.9,36.128499424963536,25.950782997762868,6.2322946175637455,19163.0,7320.0,0.0,1.0,0.0,?,1.0,39.0
300000.0,0.421875,1.112377503886819E-8,300000.0,66.3,35.01033663488538,27.056277056277057,3.160919540229888,39163.0,7320.0,0.0,1.0,0.0,?,0.0,0.0
400000.0,0.5625,1.4175893738865854E-8,400000.0,66.4,34.67889622887271,28.96405919661734,6.4066852367688085,59163.0,7320.0,0.0,1.0,0.0,?,0.0,0.0
500000.0,0.6875,1.6578447280658618E-8,500000.0,68.0,37.18568304680845,31.62393162393163,10.364145658263315,79163.0,7320.0,0.0,1.0,0.0,?,0.0,0.0
600000.0,0.828125,1.8932074049694673E-8,600000.0,65.4,32.417651103193954,26.382978723404253,4.94505494505495,99163.0,7320.0,0.0,1.0,0.0,?,0.0,0.0
700000.0,0.96875,2.0936454853249923E-8,700000.0,68.0,36.89582684214886,26.43678160919542,3.3232628398791575,119163.0,7320.0,0.0,1.0,0.0,?,0.0,0.0
800000.0,1.09375,2.240768582042721E-8,800000.0,66.3,34.06378399530425,23.582766439909296,3.714285714285718,139163.0,7320.0,0.0,1.0,0.0,?,0.0,0.0
900000.0,1.234375,2.371357469302085E-8,900000.0,67.2,36.00574387469613,30.508474576271194,5.475504322766576,159163.0,7320.0,0.0,1.0,0.0,?,0.0,0.0
1000000.0,1.375,2.4670217600133687E-8,1000000.0,67.10000000000001,35.510933738954535,26.88888888888889,4.913294797687866,179163.0,7320.0,0.0,1.0,0.0,?,0.0,0.0
1100000.0,1.5,2.831763898332914E-8,1100000.0,67.80000000000001,37.647168174495,35.85657370517929,16.580310880829032,198963.0,7320.0,0.0,1.0,0.0,?,0.0,0.0
1200000.0,1.640625,3.2071742073943225E-8,1200000.0,67.9,37.56078583933087,28.98230088495576,10.584958217270204,218963.0,7320.0,0.0,1.0,0.0,?,0.0,0.0
1300000.0,1.78125,3.54765991990765E-8,1300000.0,69.5,39.99700968704013,34.968017057569284,16.66666666666665,238963.0,7320.0,0.0,1.0,0.0,?,0.0,0.0
1400000.0,1.921875,3.853221035872897E-8,1400000.0,69.69999999999999,40.26402119740079,34.13043478260868,21.70542635658914,258963.0,7320.0,0.0,1.0,0.0,?,0.0,0.0
1500000.0,2.046875,4.0937868309103786E-8,1500000.0,66.0,34.40446975660199,23.766816143497756,0.5847953216374274,278963.0,7320.0,0.0,1.0,0.0,?,0.0,0.0
1600000.0,2.1875,4.329498753779465E-8,1600000.0,68.0,37.46384628613417,32.34672304439747,7.51445086705203,298963.0,7320.0,0.0,1.0,0.0,?,0.0,0.0
1700000.0,2.328125,4.530286080100471E-8,1700000.0,63.9,30.05611011222023,22.863247863247864,2.9569892473118307,318963.0,7320.0,0.0,1.0,0.0,?,0.0,0.0
1800000.0,2.453125,4.677719617676404E-8,1800000.0,66.7,35.42506981073534,24.660633484162894,2.0588235294117667,338963.0,7320.0,0.0,1.0,0.0,?,0.0,0.0
1900000.0,2.59375,4.808657750901249E-8,1900000.0,66.10000000000001,34.341517078952876,25.657894736842106,2.8653295128939855,358963.0,7320.0,0.0,1.0,0.0,?,0.0,0.0
2000000.0,2.71875,4.894003116836151E-8,2000000.0,67.0,34.93690851735016,19.512195121951233,-3.1250000000000036,378963.0,7320.0,0.0,1.0,0.0,?,0.0,0.0
2100000.0,2.84375,5.259055696013901E-8,2100000.0,67.9,37.665061363989444,32.135306553911214,11.813186813186825,398763.0,7320.0,0.0,1.0,0.0,?,0.0,0.0
2200000.0,2.984375,5.63481525104079E-8,2200000.0,65.9,33.66274998054626,22.323462414578586,-6.562500000000007,418763.0,7320.0,0.0,1.0,0.0,?,0.0,0.0
2300000.0,3.125,5.975650209519599E-8,2300000.0,66.7,35.26639917887469,27.13347921225383,8.516483516483524,438763.0,7320.0,0.0,1.0,0.0,?,0.0,0.0
2400000.0,3.25,6.247570531235801E-8,2400000.0,67.2,35.27533635118657,24.77064220183488,3.244837758112098,458763.0,7320.0,0.0,1.0,0.0,?,0.0,0.0
2500000.0,3.390625,6.518556296618449E-8,2500000.0,66.10000000000001,33.187752270433904,23.47629796839729,-4.629629629629634,478763.0,7320.0,0.0,1.0,0.0,?,0.0,0.0
2600000.0,3.53125,6.754617465453016E-8,2600000.0,67.10000000000001,35.21071287908625,31.8840579710145,17.750000000000014,498763.0,7320.0,0.0,1.0,0.0,?,0.0,0.0
2700000.0,3.65625,6.933405529707671E-8,2700000.0,68.7,38.561434639573505,37.649402390438254,13.29639889196677,518763.0,7320.0,0.0,1.0,0.0,?,0.0,0.0
2800000.0,3.796875,7.099617505446077E-8,2800000.0,65.5,33.072088150849694,21.232876712328764,-7.812500000000008,538763.0,7320.0,0.0,1.0,0.0,?,0.0,0.0
2900000.0,3.9375,7.230904884636403E-8,2900000.0,67.4,35.8913850607262,25.057471264367837,6.321839080459776,558763.0,7320.0,0.0,1.0,0.0,?,0.0,0.0
3000000.0,4.078125,7.327267667278649E-8,3000000.0,68.10000000000001,37.20521885654445,32.27176220806795,11.878453038674044,578763.0,7320.0,0.0,1.0,0.0,?,0.0,0.0
3100000.0,4.203125,7.692630687314604E-8,3100000.0,65.60000000000001,33.63659864418028,23.89380530973451,5.23415977961433,598563.0,7320.0,0.0,1.0,0.0,?,0.0,0.0
3200000.0,4.34375,8.068739488306974E-8,3200000.0,68.8,39.11553607599628,33.89830508474575,16.353887399463794,618563.0,7320.0,0.0,1.0,0.0,?,0.0,0.0
3300000.0,4.484375,8.409923692751263E-8,3300000.0,67.30000000000001,35.558883808923234,28.13186813186814,5.2173913043478315,638563.0,7320.0,0.0,1.0,0.0,?,0.0,0.0
3400000.0,4.609375,8.68215445532567E-8,3400000.0,65.60000000000001,32.701036091025756,22.171945701357462,-2.380952380952383,658563.0,7320.0,0.0,1.0,0.0,?,0.0,0.0
3500000.0,4.75,8.953489466673799E-8,3500000.0,64.0,30.197927654029904,16.27906976744187,-7.1428571428571495,678563.0,7320.0,0.0,1.0,0.0,?,0.0,0.0
3600000.0,4.890625,9.189899881473847E-8,3600000.0,68.10000000000001,37.59536758089128,32.55813953488373,13.783783783783795,698563.0,7320.0,0.0,1.0,0.0,?,0.0,0.0
3700000.0,5.015625,9.368998386586706E-8,3700000.0,68.10000000000001,36.94904534134483,25.813953488372114,4.7761194029850795,718563.0,7320.0,0.0,1.0,0.0,?,0.0,0.0
3800000.0,5.15625,9.535559608290593E-8,3800000.0,67.7,36.9140625,33.12629399585922,13.86666666666668,738563.0,7320.0,0.0,1.0,0.0,?,0.0,0.0
3900000.0,5.296875,9.6671962334464E-8,3900000.0,68.7,39.229437027717594,30.289532293986642,12.569832402234649,758563.0,7320.0,0.0,1.0,0.0,?,0.0,0.0
4000000.0,5.421875,9.753162481097711E-8,4000000.0,69.6,40.059309735629995,35.72938689217758,18.279569892473106,778563.0,7320.0,0.0,1.0,0.0,?,0.0,0.0
4100000.0,5.546875,1.0118835941991873E-7,4100000.0,65.10000000000001,32.47374408903404,25.902335456475583,3.5911602209944786,798363.0,7320.0,0.0,1.0,0.0,?,0.0,0.0
4200000.0,5.6875,1.0495293988949723E-7,4200000.0,65.9,34.478518176927224,25.054945054945055,5.277777777777783,818363.0,7320.0,0.0,1.0,0.0,?,0.0,0.0
4300000.0,5.828125,1.0836827439359492E-7,4300000.0,66.5,35.20209210200545,26.373626373626376,5.898876404494388,838363.0,7320.0,0.0,1.0,0.0,?,0.0,0.0
4400000.0,5.9375,1.1075300992363029E-7,4400000.0,68.30000000000001,38.69088602306925,29.867256637168143,10.198300283286128,858363.0,7320.0,0.0,1.0,0.0,?,0.0,0.0
4500000.0,6.078125,1.1346985249676638E-7,4500000.0,66.5,34.908989165746966,23.515981735159816,6.685236768802234,878363.0,7320.0,0.0,1.0,0.0,?,0.0,0.0
4600000.0,6.21875,1.1583744910442166E-7,4600000.0,68.2,38.01846192228529,33.887733887733894,12.637362637362648,898363.0,7320.0,0.0,1.0,0.0,?,0.0,0.0
4700000.0,6.359375,1.1785579974659614E-7,4700000.0,68.10000000000001,37.92711592646213,34.63114754098361,9.375000000000009,918363.0,7320.0,0.0,1.0,0.0,?,0.0,0.0
4800000.0,6.484375,1.1933944834810163E-7,4800000.0,67.30000000000001,36.53295240165519,29.220779220779225,3.2544378698224885,938363.0,7320.0,0.0,1.0,0.0,?,0.0,0.0
4900000.0,6.609375,1.2051265609140196E-7,4900000.0,69.0,39.50416835794796,35.28183716075155,11.931818181818162,958363.0,7320.0,0.0,1.0,0.0,?,0.0,0.0
5000000.0,6.75,1.2151062643776336E-7,5000000.0,65.60000000000001,33.25183848497197,23.385300668151444,3.0985915492957776,978363.0,7320.0,0.0,1.0,0.0,?,0.0,0.0
5100000.0,6.875,1.251947833225131E-7,5100000.0,69.1,39.11857888183092,36.02484472049688,24.26470588235293,998163.0,7320.0,0.0,1.0,0.0,?,0.0,0.0
5200000.0,7.015625,1.2899021385237574E-7,5200000.0,70.5,41.57119994929567,38.28451882845187,34.1517857142857,1018163.0,7320.0,0.0,1.0,0.0,?,0.0,0.0
5300000.0,7.15625,1.3243639841675757E-7,5300000.0,68.5,38.240622377677234,37.375745526838976,24.821002386634863,1038163.0,7320.0,0.0,1.0,0.0,?,0.0,0.0
5400000.0,7.296875,1.355333370156586E-7,5400000.0,68.4,37.619184864361216,38.03921568627452,27.020785219399556,1058163.0,7320.0,0.0,1.0,0.0,?,0.0,0.0
5500000.0,7.421875,1.379757304675877E-7,5500000.0,70.7,42.119569511828935,39.3374741200828,29.567307692307686,1078163.0,7320.0,0.0,1.0,0.0,?,0.0,0.0
5600000.0,7.5625,1.4037417713552711E-7,5600000.0,68.10000000000001,36.95901347772816,34.36213991769549,25.813953488372114,1098163.0,7320.0,0.0,1.0,0.0,?,0.0,0.0
5700000.0,7.703125,1.4242337783798573E-7,5700000.0,68.10000000000001,36.99686366832306,30.34934497816594,19.849246231155796,1118163.0,7320.0,0.0,1.0,0.0,?,0.0,0.0
5800000.0,7.828125,1.4393444871529935E-7,5800000.0,67.60000000000001,36.03310484253088,31.355932203389834,23.943661971831006,1138163.0,7320.0,0.0,1.0,0.0,?,0.0,0.0
5900000.0,7.96875,1.4528515748679635E-7,5900000.0,70.39999999999999,41.61390220328619,40.56224899598393,28.67469879518072,1158163.0,7320.0,0.0,1.0,0.0,?,0.0,0.0
6000000.0,8.109375,1.4628662029281256E-7,6000000.0,69.8,40.34803563316015,37.9876796714579,25.432098765432094,1178163.0,7320.0,0.0,1.0,0.0,?,0.0,0.0
6100000.0,8.234375,1.4997388158614435E-7,6100000.0,68.8,38.696836206591655,40.45801526717556,28.604118993135007,1197963.0,7320.0,0.0,1.0,0.0,?,0.0,0.0
6200000.0,8.375,1.537728045756618E-7,6200000.0,71.1,42.74052940244095,38.11563169164881,34.46712018140588,1217963.0,7320.0,0.0,1.0,0.0,?,0.0,0.0
6300000.0,8.515625,1.5722248159969843E-7,6300000.0,72.0,44.47507129004239,42.85714285714285,35.03480278422274,1237963.0,7320.0,0.0,1.0,0.0,?,0.0,0.0
6400000.0,8.65625,1.6032291265825426E-7,6400000.0,69.89999999999999,40.25122276567361,36.89727463312368,31.74603174603173,1257963.0,7320.0,0.0,1.0,0.0,?,0.0,0.0
6500000.0,8.78125,1.627684105187654E-7,6500000.0,67.0,35.32784861229242,31.958762886597945,20.096852300242148,1277963.0,7320.0,0.0,1.0,0.0,?,0.0,0.0
6600000.0,8.921875,1.6517034964635963E-7,6600000.0,69.0,38.90542165113024,36.08247422680411,23.456790123456784,1297963.0,7320.0,0.0,1.0,0.0,?,0.0,0.0
6700000.0,9.0625,1.6722304280847305E-7,6700000.0,66.9,34.493322672830764,34.84251968503938,26.607538802660756,1317963.0,7320.0,0.0,1.0,0.0,?,0.0,0.0
6800000.0,9.1875,1.6873721809436872E-7,6800000.0,69.69999999999999,40.46309104627765,34.83870967741934,25.55282555282555,1337963.0,7320.0,0.0,1.0,0.0,?,0.0,0.0
6900000.0,9.328125,1.7009141932552053E-7,6900000.0,66.8,34.81095176010432,31.120331950207476,19.80676328502417,1357963.0,7320.0,0.0,1.0,0.0,?,0.0,0.0
7000000.0,9.46875,1.7109637459119153E-7,7000000.0,65.0,31.296840832446733,20.273348519362184,7.651715039577843,1377963.0,7320.0,0.0,1.0,0.0,?,0.0,0.0
7100000.0,9.59375,1.7478674029310537E-7,7100000.0,69.69999999999999,40.2154611104534,41.5057915057915,30.82191780821916,1397763.0,7320.0,0.0,1.0,0.0,?,0.0,0.0
7200000.0,9.734375,1.7858915574227762E-7,7200000.0,68.0,36.74389183205504,30.885529157667392,20.398009950248774,1417763.0,7320.0,0.0,1.0,0.0,?,0.0,0.0
7300000.0,9.875,1.8204232522596906E-7,7300000.0,68.60000000000001,38.009349927348545,32.61802575107297,27.314814814814838,1437763.0,7320.0,0.0,1.0,0.0,?,0.0,0.0
7400000.0,10.0,1.8480136835326743E-7,7400000.0,67.2,35.00600401853123,31.808731808731817,15.681233933161968,1457763.0,7320.0,0.0,1.0,0.0,?,0.0,0.0
7500000.0,10.125,1.8724997062236062E-7,7500000.0,68.10000000000001,36.74199459034988,35.8148893360161,19.849246231155796,1477763.0,7320.0,0.0,1.0,0.0,?,0.0,0.0
7600000.0,10.25,1.8938813203324864E-7,7600000.0,68.0,36.347542418395555,35.871743486973955,31.182795698924735,1497763.0,7320.0,0.0,1.0,0.0,?,0.0,0.0
7700000.0,10.390625,1.9144431765501687E-7,7700000.0,70.1,40.98327004002873,43.26375711574952,28.97862232779097,1517763.0,7320.0,0.0,1.0,0.0,?,0.0,0.0
7800000.0,10.53125,1.931512573113043E-7,7800000.0,67.10000000000001,35.5957685049605,29.0948275862069,12.032085561497336,1537763.0,7320.0,0.0,1.0,0.0,?,0.0,0.0
7900000.0,10.65625,1.9435809614757683E-7,7900000.0,67.60000000000001,36.09089295224571,32.21757322175733,21.927710843373514,1557763.0,7320.0,0.0,1.0,0.0,?,0.0,0.0
8000000.0,10.796875,1.9536654387290265E-7,8000000.0,70.3,40.99697236989534,42.66409266409266,32.80542986425338,1577763.0,7320.0,0.0,1.0,0.0,?,0.0,0.0
8100000.0,10.9375,1.9952169774721053E-7,8100000.0,67.9,37.046479701902356,32.42105263157896,24.470588235294137,1597563.0,7320.0,0.0,1.0,0.0,?,0.0,0.0
8200000.0,11.078125,2.033276056560376E-7,8200000.0,69.0,39.02654902068768,37.999999999999986,28.07424593967517,1617563.0,7320.0,0.0,1.0,0.0,?,0.0,0.0
8300000.0,11.203125,2.0640019405012319E-7,8300000.0,68.7,37.918504649170146,36.51115618661259,24.213075060532706,1637563.0,7320.0,0.0,1.0,0.0,?,0.0,0.0
8400000.0,11.34375,2.0950761002798866E-7,8400000.0,68.30000000000001,37.18045261781143,36.97813121272367,25.059101654846355,1657563.0,7320.0,0.0,1.0,0.0,?,0.0,0.0
8500000.0,11.484375,2.1226578004037332E-7,8500000.0,69.8,40.09552977767903,34.49023861171365,25.61576354679802,1677563.0,7320.0,0.0,1.0,0.0,?,0.0,0.0
8600000.0,11.625,2.1467470408727718E-7,8600000.0,68.10000000000001,37.23388347145815,35.16260162601627,25.64102564102566,1697563.0,7320.0,0.0,1.0,0.0,?,0.0,0.0
8700000.0,11.75,2.1650552904854211E-7,8700000.0,70.7,41.47023571713943,39.2116182572614,26.749999999999996,1717563.0,7320.0,0.0,1.0,0.0,?,0.0,0.0
8800000.0,11.875,2.1802591315160188E-7,8800000.0,68.5,37.72931427125506,37.000000000000014,28.246013667425974,1737563.0,7320.0,0.0,1.0,0.0,?,0.0,0.0
8900000.0,12.03125,2.1953834220767012E-7,8900000.0,68.8,38.679004241368865,37.97216699801192,25.179856115107906,1757563.0,7320.0,0.0,1.0,0.0,?,0.0,0.0
9000000.0,12.171875,2.2055028239265077E-7,9000000.0,69.39999999999999,39.29992581102042,36.77685950413222,28.671328671328666,1777563.0,7320.0,0.0,1.0,0.0,?,0.0,0.0
9100000.0,12.296875,2.242468569117287E-7,9100000.0,70.1,40.63596944042948,38.603696098562615,30.787037037037035,1797363.0,7320.0,0.0,1.0,0.0,?,0.0,0.0
9200000.0,12.4375,2.280562572802106E-7,9200000.0,68.2,37.83525952801716,34.96932515337424,24.644549763033194,1817363.0,7320.0,0.0,1.0,0.0,?,0.0,0.0
9300000.0,12.578125,2.3151641168321167E-7,9300000.0,66.60000000000001,34.218818932375385,32.79678068410464,18.932038834951474,1837363.0,7320.0,0.0,1.0,0.0,?,0.0,0.0
9400000.0,12.703125,2.3428166362767413E-7,9400000.0,67.5,35.945445228428405,34.21052631578948,22.248803827751214,1857363.0,7320.0,0.0,1.0,0.0,?,0.0,0.0
9500000.0,12.84375,2.370433260997136E-7,9500000.0,68.60000000000001,38.10124586027442,35.257731958762896,26.97674418604653,1877363.0,7320.0,0.0,1.0,0.0,?,0.0,0.0
9600000.0,12.984375,2.3945574260627226E-7,9600000.0,68.10000000000001,36.78611910367077,36.45418326693228,27.33485193621868,1897363.0,7320.0,0.0,1.0,0.0,?,0.0,0.0
9700000.0,13.125,2.415189131473501E-7,9700000.0,67.4,35.55707547729278,36.328125000000014,20.681265206812668,1917363.0,7320.0,0.0,1.0,0.0,?,0.0,0.0
9800000.0,13.25,2.430424016589919E-7,9800000.0,70.7,42.0921150410296,40.927419354838705,29.73621103117506,1937363.0,7320.0,0.0,1.0,0.0,?,0.0,0.0
9900000.0,13.390625,2.4440708026910814E-7,9900000.0,67.0,35.123913325548216,36.416184971098275,23.076923076923094,1957363.0,7320.0,0.0,1.0,0.0,?,0.0,0.0
1.0E7,13.53125,2.4542251291374356E-7,1.0E7,67.2,35.49275276810826,31.380753138075317,22.458628841607585,1977363.0,7320.0,0.0,1.0,0.0,?,0.0,0.0
