learning evaluation instances,evaluation time (cpu seconds),model cost (RAM-Hours),classified instances,classifications correct (percent),Kappa Statistic (percent),Kappa Temporal Statistic (percent),Kappa M Statistic (percent),model training instances,model serialized size (bytes),labeling cost,newThreshold,maxPosterior,accuracyBaseLearner (percent),Change detected,Warning detected,tree size (nodes),tree size (leaves),active learning leaves,tree depth,active leaf byte size estimate,inactive leaf byte size estimate,byte size estimate overhead
100000.0,0.421875,3.182678483426571E-8,100000.0,75.8,51.59477223540142,51.11111111111111,51.30784708249497,29385.0,106152.0,0.0,1.0,0.0,?,1.0,31.0,36.0,26.0,26.0,4.0,0.0,0.0,1.0
200000.0,0.8125,6.963589435650242E-8,200000.0,79.2,58.41995841995843,57.11340206185568,57.28952772073923,59385.0,203536.0,0.0,1.0,0.0,?,0.0,0.0,74.0,51.0,51.0,5.0,0.0,0.0,1.0
300000.0,1.25,1.2656984229882556E-7,300000.0,80.30000000000001,60.42142145359865,61.220472440944896,56.51214128035321,89385.0,347072.0,0.0,1.0,0.0,?,0.0,0.0,138.0,92.0,92.0,5.0,0.0,0.0,1.0
400000.0,1.6875,2.047167314837376E-7,400000.0,87.3,74.59593534965595,75.90132827324479,74.34343434343434,119385.0,549064.0,0.0,1.0,0.0,?,0.0,0.0,207.0,140.0,140.0,5.0,0.0,0.0,1.0
500000.0,2.140625,3.03913354097555E-7,500000.0,84.3,68.6138099236336,68.34677419354837,67.15481171548117,149385.0,719392.0,0.0,1.0,0.0,?,0.0,0.0,282.0,188.0,188.0,6.0,0.0,0.0,1.0
600000.0,2.5625,4.0821216922874247E-7,600000.0,86.6,73.14274032236729,72.59713701431492,71.36752136752136,179385.0,843520.0,0.0,1.0,0.0,?,0.0,0.0,332.0,219.0,219.0,6.0,0.0,0.0,1.0
700000.0,2.984375,5.248044423448543E-7,700000.0,87.6,75.19851191071464,75.87548638132296,74.43298969072166,209385.0,970768.0,0.0,1.0,0.0,?,0.0,0.0,396.0,257.0,257.0,7.0,0.0,0.0,1.0
800000.0,3.453125,6.642544758506119E-7,800000.0,89.2,78.34386730405211,78.86497064579257,75.67567567567568,239385.0,1067192.0,0.0,1.0,0.0,?,0.0,0.0,436.0,280.0,280.0,7.0,0.0,0.0,1.0
900000.0,3.890625,8.138460947925018E-7,900000.0,89.7,79.37822340391453,79.35871743486975,78.36134453781513,269385.0,1253544.0,0.0,1.0,0.0,?,0.0,0.0,503.0,327.0,327.0,7.0,0.0,0.0,1.0
1000000.0,4.34375,9.833422761100033E-7,1000000.0,88.3,76.58969946776581,75.5741127348643,77.05882352941177,299385.0,1392504.0,0.0,1.0,0.0,?,0.0,0.0,549.0,359.0,359.0,7.0,0.0,0.0,1.0
1100000.0,4.765625,1.1682601567978659E-6,1100000.0,90.2,80.39811821934906,80.55555555555556,80.859375,329085.0,1503552.0,0.0,1.0,0.0,?,0.0,0.0,594.0,389.0,389.0,8.0,0.0,0.0,1.0
1200000.0,5.25,1.391105179209262E-6,1200000.0,90.2,80.4,80.4780876494024,80.08130081300814,359085.0,1602424.0,0.0,1.0,0.0,?,0.0,0.0,629.0,411.0,411.0,8.0,0.0,0.0,1.0
1300000.0,5.703125,1.6147437337268556E-6,1300000.0,90.7,81.3822759266822,81.05906313645622,80.04291845493563,389085.0,1746504.0,0.0,1.0,0.0,?,0.0,0.0,678.0,443.0,443.0,8.0,0.0,0.0,1.0
1400000.0,6.15625,1.846089047224571E-6,1400000.0,89.7,79.3975277033244,79.80392156862746,79.56349206349206,419085.0,1827088.0,0.0,1.0,0.0,?,0.0,0.0,707.0,459.0,459.0,8.0,0.0,0.0,1.0
1500000.0,6.640625,2.1098777587111624E-6,1500000.0,90.60000000000001,81.13684616094686,80.97165991902835,79.95735607675907,449085.0,1973384.0,0.0,1.0,0.0,?,0.0,0.0,762.0,497.0,497.0,8.0,0.0,0.0,1.0
1600000.0,7.125,2.3796221163744727E-6,1600000.0,90.2,80.39396134009276,80.82191780821918,79.66804979253112,479085.0,2035824.0,0.0,1.0,0.0,?,0.0,0.0,789.0,512.0,512.0,8.0,0.0,0.0,1.0
1700000.0,7.578125,2.6354062396826015E-6,1700000.0,92.2,84.39406974650367,84.33734939759037,84.43113772455091,509085.0,2080224.0,0.0,1.0,0.0,?,0.0,0.0,806.0,522.0,522.0,8.0,0.0,0.0,1.0
1800000.0,8.0625,2.922028102653308E-6,1800000.0,92.0,84.00415891868114,83.83838383838385,83.57289527720741,539085.0,2200272.0,0.0,1.0,0.0,?,0.0,0.0,848.0,549.0,549.0,9.0,0.0,0.0,1.0
1900000.0,8.578125,3.2409376904575357E-6,1900000.0,91.5,82.99877591186566,83.06772908366534,82.21757322175733,569085.0,2318384.0,0.0,1.0,0.0,?,0.0,0.0,890.0,573.0,573.0,9.0,0.0,0.0,1.0
2000000.0,9.078125,3.570233691587216E-6,2000000.0,93.2,86.32709607627874,86.37274549098197,85.1203501094092,599085.0,2487984.0,0.0,1.0,0.0,?,0.0,0.0,962.0,621.0,621.0,9.0,0.0,0.0,1.0
2100000.0,9.59375,3.950897630097137E-6,2100000.0,91.9,83.79455497047009,84.39306358381504,83.3675564681725,628785.0,2658280.0,0.0,1.0,0.0,?,0.0,0.0,1020.0,656.0,656.0,9.0,0.0,0.0,1.0
2200000.0,10.140625,4.370475265507896E-6,2200000.0,90.8,81.60154547018051,81.56312625250501,80.79331941544886,658785.0,2784872.0,0.0,1.0,0.0,?,0.0,0.0,1070.0,684.0,684.0,9.0,0.0,0.0,1.0
2300000.0,10.6875,4.804777822250292E-6,2300000.0,93.10000000000001,86.09588599432551,86.36363636363637,85.03253796095446,688785.0,2903608.0,0.0,1.0,0.0,?,0.0,0.0,1123.0,715.0,715.0,9.0,0.0,0.0,1.0
2400000.0,11.21875,5.24037672827641E-6,2400000.0,90.60000000000001,81.16202263763749,82.06106870229009,80.08474576271188,718785.0,3018056.0,0.0,1.0,0.0,?,0.0,0.0,1177.0,748.0,748.0,9.0,0.0,0.0,1.0
2500000.0,11.765625,5.6999402780396226E-6,2500000.0,90.4,80.7993087751159,82.2550831792976,80.28747433264888,748785.0,3111720.0,0.0,1.0,0.0,?,0.0,0.0,1222.0,775.0,775.0,9.0,0.0,0.0,1.0
2600000.0,12.34375,6.198320576610663E-6,2600000.0,93.60000000000001,87.20000000000002,87.07070707070707,87.12273641851108,778785.0,3210360.0,0.0,1.0,0.0,?,0.0,0.0,1254.0,791.0,791.0,9.0,0.0,0.0,1.0
2700000.0,12.890625,6.682695788590029E-6,2700000.0,94.1,88.19678952675126,88.15261044176705,87.78467908902691,808785.0,3316424.0,0.0,1.0,0.0,?,0.0,0.0,1319.0,828.0,828.0,9.0,0.0,0.0,1.0
2800000.0,13.46875,7.21010774011827E-6,2800000.0,93.0,85.89278516727127,85.80121703853956,84.44444444444446,838785.0,3433784.0,0.0,1.0,0.0,?,0.0,0.0,1357.0,850.0,850.0,9.0,0.0,0.0,1.0
2900000.0,14.03125,7.740426097168688E-6,2900000.0,92.7,85.39789729721082,85.7976653696498,85.04098360655739,868785.0,3566360.0,0.0,1.0,0.0,?,0.0,0.0,1404.0,878.0,878.0,10.0,0.0,0.0,1.0
3000000.0,14.59375,8.28552803593791E-6,3000000.0,93.89999999999999,87.74499955801637,87.34439834024896,86.93790149892932,898785.0,3682712.0,0.0,1.0,0.0,?,0.0,0.0,1446.0,905.0,905.0,10.0,0.0,0.0,1.0
3100000.0,15.171875,8.877633048945827E-6,3100000.0,92.60000000000001,85.18287139933764,85.54687500000001,84.67908902691512,928485.0,3758440.0,0.0,1.0,0.0,?,0.0,0.0,1470.0,917.0,917.0,10.0,0.0,0.0,1.0
3200000.0,15.75,9.486207757921264E-6,3200000.0,93.60000000000001,87.1975419280502,87.1743486973948,87.32673267326734,958485.0,3883192.0,0.0,1.0,0.0,?,0.0,0.0,1532.0,954.0,954.0,10.0,0.0,0.0,1.0
3300000.0,16.359375,1.0140307713299985E-5,3300000.0,93.4,86.77222166549755,86.41975308641976,86.30705394190873,988485.0,3978056.0,0.0,1.0,0.0,?,0.0,0.0,1574.0,978.0,978.0,10.0,0.0,0.0,1.0
3400000.0,17.03125,1.0871982117856123E-5,3400000.0,94.0,87.99947197676697,87.73006134969324,87.73006134969324,1018485.0,4053248.0,0.0,1.0,0.0,?,0.0,0.0,1610.0,999.0,999.0,10.0,3980.7173252279636,0.0,1.0191276691487434
3500000.0,17.640625,1.1545811753927E-5,3500000.0,92.7,85.3035915606378,84.91735537190084,84.0958605664488,1048485.0,4132864.0,0.0,1.0,0.0,?,0.0,0.0,1645.0,1018.0,1018.0,10.0,3980.7173252279636,0.0,1.0191276691487434
3600000.0,18.25,1.2232724725941398E-5,3600000.0,92.80000000000001,85.58062035375545,85.33604887983708,85.03118503118505,1078485.0,4230568.0,0.0,1.0,0.0,?,0.0,0.0,1693.0,1045.0,1045.0,10.0,3980.7173252279636,0.0,1.0191276691487434
3700000.0,18.859375,1.2935093287119844E-5,3700000.0,94.5,88.92370649030521,89.02195608782434,88.01742919389977,1108485.0,4343320.0,0.0,1.0,0.0,?,0.0,0.0,1729.0,1066.0,1066.0,10.0,3980.7173252279636,0.0,1.0191276691487434
3800000.0,19.453125,1.3628984419887673E-5,3800000.0,93.7,87.402821767924,87.27272727272728,87.19512195121952,1138485.0,4420176.0,0.0,1.0,0.0,?,0.0,0.0,1764.0,1085.0,1085.0,10.0,3980.7173252279636,0.0,1.0191276691487434
3900000.0,20.046875,1.4338256797701529E-5,3900000.0,95.1,90.18020328983229,90.52224371373306,89.70588235294117,1168485.0,4534960.0,0.0,1.0,0.0,?,0.0,0.0,1805.0,1107.0,1107.0,10.0,3980.7173252279636,0.0,1.0191276691487434
4000000.0,20.6875,1.5125490899663413E-5,4000000.0,95.0,89.91480023236299,90.72356215213358,88.93805309734513,1198485.0,4682072.0,0.0,1.0,0.0,?,0.0,0.0,1863.0,1142.0,1142.0,10.0,3980.7173252279636,0.0,1.0191276691487434
4100000.0,21.328125,1.595512805377236E-5,4100000.0,94.5,88.96140908616522,89.23679060665361,88.09523809523809,1228185.0,4800464.0,0.0,1.0,0.0,?,0.0,0.0,1908.0,1169.0,1169.0,10.0,3980.7173252279636,0.0,1.0191276691487434
4200000.0,21.96875,1.680063685247053E-5,4200000.0,95.6,91.19954237620355,91.3214990138067,91.19999999999999,1258185.0,4910880.0,0.0,1.0,0.0,?,0.0,0.0,1960.0,1198.0,1198.0,10.0,3980.7173252279636,0.0,1.0191276691487434
4300000.0,22.640625,1.7702685662597E-5,4300000.0,95.3,90.59217268767614,90.58116232464928,90.34907597535934,1288185.0,5013608.0,0.0,1.0,0.0,?,0.0,0.0,2011.0,1228.0,1228.0,10.0,3980.7173252279636,0.0,1.0191276691487434
4400000.0,23.234375,1.8517487365493752E-5,4400000.0,94.6,89.19948157511558,89.49416342412451,89.77272727272727,1318185.0,5144224.0,0.0,1.0,0.0,?,0.0,0.0,2057.0,1257.0,1257.0,10.0,3980.7173252279636,0.0,1.0191276691487434
4500000.0,23.953125,1.952133894923867E-5,4500000.0,93.2,86.38120606436884,86.69275929549903,86.34538152610443,1348185.0,5253112.0,0.0,1.0,0.0,?,0.0,0.0,2099.0,1281.0,1281.0,10.0,3980.7173252279636,0.0,1.0191276691487434
4600000.0,24.609375,2.0454546287914527E-5,4600000.0,94.0,88.00167976483291,88.02395209580838,87.9032258064516,1378185.0,5365832.0,0.0,1.0,0.0,?,0.0,0.0,2147.0,1308.0,1308.0,10.0,3980.7173252279636,0.0,1.0191276691487434
4700000.0,25.296875,2.144634377651123E-5,4700000.0,96.0,91.99102995354797,92.57884972170687,91.6317991631799,1408185.0,5460128.0,0.0,1.0,0.0,?,0.0,0.0,2184.0,1328.0,1328.0,10.0,3980.7173252279636,0.0,1.0191276691487434
4800000.0,25.953125,2.240102527947682E-5,4800000.0,96.3,92.59644629422122,92.71653543307086,92.47967479674796,1438185.0,5521912.0,0.0,1.0,0.0,?,0.0,0.0,2219.0,1347.0,1347.0,10.0,3980.7173252279636,0.0,1.0191276691487434
4900000.0,26.625,2.340154350450676E-5,4900000.0,95.39999999999999,90.7499386680716,90.87301587301586,89.97821350762526,1468185.0,5669368.0,0.0,1.0,0.0,?,0.0,0.0,2274.0,1379.0,1379.0,10.0,3980.7173252279636,0.0,1.0191276691487434
5000000.0,27.328125,2.4467727408692652E-5,5000000.0,94.8,89.5555484140502,89.8238747553816,89.0985324947589,1498185.0,5786928.0,0.0,1.0,0.0,?,0.0,0.0,2328.0,1409.0,1409.0,10.0,3980.7173252279636,0.0,1.0191276691487434
5100000.0,28.0625,2.4565995910153203E-5,5100000.0,90.0,79.95831329164663,79.7979797979798,79.59183673469387,28674.0,328648.0,0.0,1.0,0.0,?,1.0,13.0,109.0,82.0,82.0,4.0,0.0,0.0,1.0
5200000.0,28.5,2.4662773390041867E-5,5200000.0,93.4,86.74001181344403,85.77586206896552,85.98726114649683,58674.0,680536.0,0.0,1.0,0.0,?,0.0,0.0,233.0,171.0,171.0,5.0,0.0,0.0,1.0
5300000.0,28.890625,2.4759046435873536E-5,5300000.0,95.89999999999999,91.73846811048689,91.35021097046413,91.12554112554112,88674.0,792888.0,0.0,1.0,0.0,?,0.0,0.0,274.0,196.0,196.0,5.0,0.0,0.0,1.0
5400000.0,29.3125,2.487298531276691E-5,5400000.0,96.0,91.9956776659396,91.85336048879836,91.88640973630831,118674.0,898904.0,0.0,1.0,0.0,?,0.0,0.0,319.0,223.0,223.0,5.0,0.0,0.0,1.0
5500000.0,29.71875,2.499496360542252E-5,5500000.0,96.39999999999999,92.77761059283779,92.96874999999999,92.42105263157893,148674.0,1030040.0,0.0,1.0,0.0,?,0.0,0.0,390.0,263.0,263.0,6.0,0.0,0.0,1.0
5600000.0,30.140625,2.5134640163742E-5,5600000.0,98.1,96.19863150734264,96.42184557438794,96.02510460251045,178674.0,1163816.0,0.0,1.0,0.0,?,0.0,0.0,441.0,293.0,293.0,6.0,0.0,0.0,1.0
5700000.0,30.53125,2.5271462121357513E-5,5700000.0,96.5,92.95383351720471,92.75362318840578,92.40780911062906,208674.0,1252728.0,0.0,1.0,0.0,?,0.0,0.0,481.0,316.0,316.0,6.0,0.0,0.0,1.0
5800000.0,30.921875,2.5414165478044493E-5,5800000.0,97.5,94.9353753899761,94.95967741935483,94.3820224719101,238674.0,1325752.0,0.0,1.0,0.0,?,0.0,0.0,514.0,334.0,334.0,6.0,0.0,0.0,1.0
5900000.0,31.3125,2.5564788310374644E-5,5900000.0,98.4,96.79856575745934,97.01492537313433,96.52928416485899,268674.0,1418968.0,0.0,1.0,0.0,?,0.0,0.0,554.0,360.0,360.0,6.0,0.0,0.0,1.0
6000000.0,31.6875,2.571598620205703E-5,6000000.0,98.1,96.19890528472199,96.21513944223106,96.13821138211381,298674.0,1501888.0,0.0,1.0,0.0,?,0.0,0.0,585.0,380.0,380.0,6.0,0.0,0.0,1.0
6100000.0,32.078125,2.5894386215238928E-5,6100000.0,98.4,96.79203140601254,96.80638722554889,96.64570230607966,328374.0,1571464.0,0.0,1.0,0.0,?,0.0,0.0,620.0,402.0,402.0,7.0,0.0,0.0,1.0
6200000.0,32.5,2.6099361291724354E-5,6200000.0,98.5,96.98487613871177,97.05882352941177,96.78800856531049,358374.0,1698824.0,0.0,1.0,0.0,?,0.0,0.0,663.0,428.0,428.0,7.0,0.0,0.0,1.0
6300000.0,32.875,2.628540228922954E-5,6300000.0,98.3,96.5828046731151,96.42857142857143,96.5376782077393,388374.0,1753344.0,0.0,1.0,0.0,?,0.0,0.0,690.0,443.0,443.0,7.0,0.0,0.0,1.0
6400000.0,33.28125,2.649468101379978E-5,6400000.0,99.2,98.39969274100628,98.37067209775967,98.41897233201581,418374.0,1841736.0,0.0,1.0,0.0,?,0.0,0.0,727.0,466.0,466.0,7.0,0.0,0.0,1.0
6500000.0,33.71875,2.6728042381970823E-5,6500000.0,99.2,98.40007679631377,98.34368530020704,98.39357429718876,448374.0,1927072.0,0.0,1.0,0.0,?,0.0,0.0,763.0,487.0,487.0,7.0,0.0,0.0,1.0
6600000.0,34.203125,2.6992813509423276E-5,6600000.0,98.8,97.59136746098015,97.6608187134503,97.45762711864407,478374.0,1993008.0,0.0,1.0,0.0,?,0.0,0.0,804.0,509.0,509.0,7.0,0.0,0.0,1.0
6700000.0,34.703125,2.7273597952444098E-5,6700000.0,98.9,97.79760379292671,97.81746031746032,97.72727272727273,508374.0,2065648.0,0.0,1.0,0.0,?,0.0,0.0,825.0,521.0,521.0,7.0,0.0,0.0,1.0
6800000.0,35.140625,2.7526211051736018E-5,6800000.0,98.8,97.59190881361374,97.63313609467455,97.45762711864407,538374.0,2141680.0,0.0,1.0,0.0,?,0.0,0.0,859.0,541.0,541.0,7.0,0.0,0.0,1.0
6900000.0,35.546875,2.7766533797451595E-5,6900000.0,98.5,96.99781440888967,97.02970297029702,96.91358024691358,568374.0,2211312.0,0.0,1.0,0.0,?,0.0,0.0,898.0,565.0,565.0,8.0,0.0,0.0,1.0
7000000.0,35.921875,2.7994142825870454E-5,7000000.0,99.1,98.19989919435488,98.22134387351778,98.09322033898304,598374.0,2285672.0,0.0,1.0,0.0,?,0.0,0.0,923.0,579.0,579.0,8.0,0.0,0.0,1.0
7100000.0,36.328125,2.8261208175940224E-5,7100000.0,99.4,98.79976475389176,98.82352941176471,98.78296146044624,628074.0,2343384.0,0.0,1.0,0.0,?,0.0,0.0,950.0,594.0,594.0,8.0,0.0,0.0,1.0
7200000.0,36.75,2.8540755997204936E-5,7200000.0,99.0,97.999799979998,98.01587301587301,97.95081967213115,658074.0,2378664.0,0.0,1.0,0.0,?,0.0,0.0,962.0,600.0,600.0,8.0,0.0,0.0,1.0
7300000.0,37.15625,2.8815658232714558E-5,7300000.0,99.3,98.58189361771093,98.582995951417,98.42342342342342,688074.0,2447912.0,0.0,1.0,0.0,?,0.0,0.0,989.0,618.0,618.0,8.0,0.0,0.0,1.0
7400000.0,37.53125,2.907175020987374E-5,7400000.0,99.1,98.19922206393161,98.16700610997962,98.16700610997962,718074.0,2487040.0,0.0,1.0,0.0,?,0.0,0.0,1002.0,626.0,626.0,8.0,0.0,0.0,1.0
7500000.0,37.953125,2.9361420925447915E-5,7500000.0,99.5,98.99991999359948,99.00596421471172,98.99396378269618,748074.0,2516432.0,0.0,1.0,0.0,?,0.0,0.0,1016.0,633.0,633.0,8.0,0.0,0.0,1.0
7600000.0,38.359375,2.9642290157628134E-5,7600000.0,98.8,97.59016788497068,97.52577319587628,97.3568281938326,778074.0,2549816.0,0.0,1.0,0.0,?,0.0,0.0,1033.0,643.0,643.0,9.0,0.0,0.0,1.0
7700000.0,38.78125,2.9935454205972032E-5,7700000.0,99.0,97.99823043570515,97.92099792099792,97.94661190965093,808074.0,2578512.0,0.0,1.0,0.0,?,0.0,0.0,1049.0,651.0,651.0,9.0,0.0,0.0,1.0
7800000.0,39.203125,3.0229331589200425E-5,7800000.0,99.4,98.79595440680687,98.83040935672514,98.72881355932203,838074.0,2600136.0,0.0,1.0,0.0,?,0.0,0.0,1057.0,655.0,655.0,9.0,0.0,0.0,1.0
7900000.0,39.609375,3.051406839707245E-5,7900000.0,99.2,98.40005759792646,98.4313725490196,98.37728194726166,868074.0,2631736.0,0.0,1.0,0.0,?,0.0,0.0,1084.0,670.0,670.0,9.0,0.0,0.0,1.0
8000000.0,40.0625,3.083574634122972E-5,8000000.0,99.3,98.58832260458512,98.61932938856016,98.45474613686534,898074.0,2681488.0,0.0,1.0,0.0,?,0.0,0.0,1106.0,681.0,681.0,9.0,0.0,0.0,1.0
8100000.0,40.484375,3.115650344019134E-5,8100000.0,99.2,98.3930063636948,98.39679358717434,98.29059829059828,927774.0,2739032.0,0.0,1.0,0.0,?,0.0,0.0,1137.0,698.0,698.0,9.0,0.0,0.0,1.0
8200000.0,40.921875,3.149339424756665E-5,8200000.0,99.6,99.1922422950012,99.1769547325103,99.1130820399113,957774.0,2791488.0,0.0,1.0,0.0,?,0.0,0.0,1163.0,711.0,711.0,9.0,0.0,0.0,1.0
8300000.0,41.34375,3.1820187189926696E-5,8300000.0,99.3,98.59866592996532,98.58585858585859,98.5655737704918,987774.0,2824208.0,0.0,1.0,0.0,?,0.0,0.0,1181.0,720.0,720.0,9.0,0.0,0.0,1.0
8400000.0,41.84375,3.221057070833113E-5,8400000.0,99.6,99.19946203848986,99.21414538310412,99.18032786885246,1017774.0,2862968.0,0.0,1.0,0.0,?,0.0,0.0,1195.0,727.0,727.0,10.0,3852.7690179806364,0.0,1.0208791650631543
8500000.0,42.265625,3.2541864558071305E-5,8500000.0,99.4,98.79920747693478,98.72881355932203,98.77300613496932,1047774.0,2895480.0,0.0,1.0,0.0,?,0.0,0.0,1205.0,732.0,732.0,10.0,3852.7690179806364,0.0,1.0208791650631543
8600000.0,42.6875,3.2873823721375725E-5,8600000.0,99.6,99.1989650628612,99.24385633270322,99.1701244813278,1077774.0,2916648.0,0.0,1.0,0.0,?,0.0,0.0,1217.0,738.0,738.0,10.0,3852.7690179806364,0.0,1.0208791650631543
8700000.0,43.125,3.3218154631969E-5,8700000.0,99.1,98.19188518069095,98.14432989690721,98.07280513918629,1107774.0,2932416.0,0.0,1.0,0.0,?,0.0,0.0,1229.0,744.0,744.0,10.0,3852.7690179806364,0.0,1.0208791650631543
8800000.0,43.53125,3.3538435301226044E-5,8800000.0,99.1,98.19282914605154,98.15950920245399,98.08102345415777,1137774.0,2952704.0,0.0,1.0,0.0,?,0.0,0.0,1233.0,746.0,746.0,10.0,3852.7690179806364,0.0,1.0208791650631543
8900000.0,43.953125,3.387327748997551E-5,8900000.0,99.5,98.9998879874546,99.01768172888016,99.02534113060429,1167774.0,2988240.0,0.0,1.0,0.0,?,0.0,0.0,1251.0,755.0,755.0,10.0,3852.7690179806364,0.0,1.0208791650631543
9000000.0,44.40625,3.4232040343340485E-5,9000000.0,99.6,99.19927935141627,99.19028340080972,99.18367346938776,1197774.0,2995856.0,0.0,1.0,0.0,?,0.0,0.0,1257.0,758.0,758.0,10.0,3852.7690179806364,0.0,1.0208791650631543
9100000.0,44.828125,3.458248858805746E-5,9100000.0,99.6,99.19485026227753,99.1701244813278,99.10913140311803,1227474.0,3009344.0,0.0,1.0,0.0,?,0.0,0.0,1265.0,762.0,762.0,10.0,3852.7690179806364,0.0,1.0208791650631543
9200000.0,45.296875,3.497494307036201E-5,9200000.0,99.4,98.7976915678102,98.73150105708245,98.75,1257474.0,3049656.0,0.0,1.0,0.0,?,0.0,0.0,1282.0,772.0,772.0,10.0,3852.7690179806364,0.0,1.0208791650631543
9300000.0,45.703125,3.531614059789313E-5,9300000.0,99.2,98.39838557265723,98.29424307036247,98.35390946502058,1287474.0,3074896.0,0.0,1.0,0.0,?,0.0,0.0,1294.0,778.0,778.0,10.0,3852.7690179806364,0.0,1.0208791650631543
9400000.0,46.15625,3.5696468872225115E-5,9400000.0,99.8,99.59936057948485,99.59432048681542,99.58419958419958,1317474.0,3087992.0,0.0,1.0,0.0,?,0.0,0.0,1300.0,781.0,781.0,10.0,3852.7690179806364,0.0,1.0208791650631543
9500000.0,46.578125,3.6050499507433004E-5,9500000.0,99.4,98.7986160056385,98.82583170254404,98.84393063583815,1347474.0,3102504.0,0.0,1.0,0.0,?,0.0,0.0,1304.0,783.0,783.0,10.0,3852.7690179806364,0.0,1.0208791650631543
9600000.0,47.015625,3.6416803939371466E-5,9600000.0,99.4,98.79653401797177,98.80715705765407,98.72340425531915,1377474.0,3110248.0,0.0,1.0,0.0,?,0.0,0.0,1308.0,785.0,785.0,10.0,3852.7690179806364,0.0,1.0208791650631543
9700000.0,47.5,3.682183098539502E-5,9700000.0,99.7,99.39745969005327,99.38144329896907,99.3576017130621,1407474.0,3121192.0,0.0,1.0,0.0,?,0.0,0.0,1314.0,788.0,788.0,10.0,3852.7690179806364,0.0,1.0208791650631543
9800000.0,47.921875,3.71747265712151E-5,9800000.0,99.1,98.18360888659261,98.20359281437125,98.01324503311258,1437474.0,3137488.0,0.0,1.0,0.0,?,0.0,0.0,1322.0,792.0,792.0,10.0,3852.7690179806364,0.0,1.0208791650631543
9900000.0,48.40625,3.758260964079655E-5,9900000.0,99.3,98.59663191659985,98.63013698630137,98.52941176470587,1467474.0,3174128.0,0.0,1.0,0.0,?,0.0,0.0,1337.0,801.0,801.0,10.0,3852.7690179806364,0.0,1.0208791650631543
1.0E7,48.828125,3.793948313816346E-5,1.0E7,99.2,98.39953906725137,98.40954274353876,98.34368530020704,1497474.0,3204064.0,0.0,1.0,0.0,?,0.0,0.0,1344.0,806.0,806.0,10.0,3852.7690179806364,0.0,1.0208791650631543
