learning evaluation instances,evaluation time (cpu seconds),model cost (RAM-Hours),classified instances,classifications correct (percent),Kappa Statistic (percent),Kappa Temporal Statistic (percent),Kappa M Statistic (percent),model training instances,model serialized size (bytes),labeling cost,newThreshold,maxPosterior,accuracyBaseLearner (percent),Change detected,Warning detected,tree size (nodes),tree size (leaves),active learning leaves,tree depth,active leaf byte size estimate,inactive leaf byte size estimate,byte size estimate overhead
100000.0,0.921875,8.462950871843431E-8,100000.0,89.5,78.79216319935367,77.56410256410257,76.71840354767184,39800.0,243912.0,0.0,1.0,0.0,?,0.0,21.0,79.0,58.0,58.0,3.0,0.0,0.0,1.0
200000.0,1.703125,1.7664773622527718E-7,200000.0,90.4,80.49058060845002,80.44806517311609,78.13211845102505,79800.0,359128.0,0.0,1.0,0.0,?,0.0,0.0,126.0,89.0,89.0,5.0,0.0,0.0,1.0
300000.0,2.5,2.992901136167347E-7,300000.0,91.2,82.2304787674414,81.55136268343817,80.65934065934066,119800.0,513456.0,0.0,1.0,0.0,?,0.0,0.0,179.0,126.0,126.0,5.0,0.0,0.0,1.0
400000.0,3.296875,4.5018357923254367E-7,400000.0,92.9,85.46142568126531,85.17745302713988,83.44988344988347,159800.0,665088.0,0.0,1.0,0.0,?,0.0,0.0,234.0,161.0,161.0,5.0,0.0,0.0,1.0
500000.0,4.078125,6.085116506761146E-7,500000.0,92.4,84.71784312463807,83.79530916844351,83.76068376068378,199800.0,731432.0,0.0,1.0,0.0,?,0.0,0.0,262.0,178.0,178.0,5.0,0.0,0.0,1.0
600000.0,4.859375,7.875196105386647E-7,600000.0,92.80000000000001,85.46628986677433,85.45454545454547,84.00000000000001,239600.0,772760.0,0.0,1.0,0.0,?,0.0,0.0,281.0,189.0,189.0,5.0,0.0,0.0,1.0
700000.0,5.640625,9.832638897933064E-7,700000.0,94.1,88.03633709141049,87.86008230452674,86.59090909090908,279600.0,870280.0,0.0,1.0,0.0,?,0.0,0.0,325.0,214.0,214.0,6.0,0.0,0.0,1.0
800000.0,6.4375,1.198125537484884E-6,800000.0,94.69999999999999,89.25820835022293,88.77118644067795,87.95454545454544,319600.0,958864.0,0.0,1.0,0.0,?,0.0,0.0,360.0,236.0,236.0,7.0,0.0,0.0,1.0
900000.0,7.21875,1.4132287146316632E-6,900000.0,94.39999999999999,88.6685552407932,88.66396761133602,87.33031674208144,359600.0,995960.0,0.0,1.0,0.0,?,0.0,0.0,371.0,243.0,243.0,7.0,0.0,0.0,1.0
1000000.0,7.984375,1.6293633962050078E-6,1000000.0,95.3,90.51440196331696,90.56224899598394,89.62472406181014,399600.0,1037904.0,0.0,1.0,0.0,?,0.0,0.0,388.0,253.0,253.0,7.0,0.0,0.0,1.0
1100000.0,8.71875,1.8542428733780979E-6,1100000.0,96.0,91.94156019453072,91.96787148594376,91.13082039911308,439400.0,1069248.0,0.0,1.0,0.0,?,0.0,0.0,402.0,260.0,260.0,7.0,0.0,0.0,1.0
1200000.0,9.46875,2.085898498383661E-6,1200000.0,96.7,93.35861086289758,93.18181818181817,92.85714285714285,479400.0,1094568.0,0.0,1.0,0.0,?,0.0,0.0,414.0,266.0,266.0,7.0,0.0,0.0,1.0
1300000.0,10.234375,2.324951993715432E-6,1300000.0,95.5,90.9601523515657,91.24513618677042,90.25974025974025,519400.0,1122632.0,0.0,1.0,0.0,?,0.0,0.0,427.0,274.0,274.0,7.0,0.0,0.0,1.0
1400000.0,10.96875,2.5571329105231498E-6,1400000.0,95.6,91.08878807517821,91.14688128772636,89.99999999999999,559400.0,1152808.0,0.0,1.0,0.0,?,0.0,0.0,447.0,284.0,284.0,7.0,0.0,0.0,1.0
1500000.0,11.734375,2.8051897728194794E-6,1500000.0,96.5,92.92872151284952,92.87169042769857,92.1171171171171,599400.0,1198096.0,0.0,1.0,0.0,?,0.0,0.0,460.0,292.0,292.0,7.0,0.0,0.0,1.0
1600000.0,12.46875,3.0594543528018726E-6,1600000.0,95.5,90.73700504730301,89.86486486486486,88.99755501222492,639200.0,1223112.0,0.0,1.0,0.0,?,0.0,0.0,474.0,299.0,299.0,7.0,0.0,0.0,1.0
1700000.0,13.25,3.331518576790889E-6,1700000.0,96.39999999999999,92.7085358740035,92.19088937093275,91.89189189189189,679200.0,1245920.0,0.0,1.0,0.0,?,0.0,0.0,490.0,307.0,307.0,7.0,0.0,0.0,1.0
1800000.0,14.03125,3.6076152981776328E-6,1800000.0,95.39999999999999,90.66236323407018,90.57377049180327,89.37644341801385,719200.0,1280928.0,0.0,1.0,0.0,?,0.0,0.0,505.0,316.0,316.0,7.0,0.0,0.0,1.0
1900000.0,14.78125,3.877909944599701E-6,1900000.0,97.1,94.10894789872265,93.93305439330544,93.27146171693735,759200.0,1322952.0,0.0,1.0,0.0,?,0.0,0.0,520.0,325.0,325.0,7.0,0.0,0.0,1.0
2000000.0,15.5625,4.1590028235481846E-6,2000000.0,97.0,93.94000605999393,94.01197604790418,93.25842696629213,799200.0,1335776.0,0.0,1.0,0.0,?,0.0,0.0,528.0,329.0,329.0,7.0,0.0,0.0,1.0
2100000.0,16.328125,4.455251942595674E-6,2100000.0,95.5,90.87842768417467,91.37931034482759,89.58333333333333,839000.0,1379560.0,0.0,1.0,0.0,?,0.0,0.0,544.0,340.0,340.0,7.0,0.0,0.0,1.0
2200000.0,17.109375,4.758824296813044E-6,2200000.0,96.39999999999999,92.71505757128114,92.7710843373494,91.91011235955055,879000.0,1400952.0,0.0,1.0,0.0,?,0.0,0.0,556.0,346.0,346.0,7.0,0.0,0.0,1.0
2300000.0,17.890625,5.063478343395723E-6,2300000.0,96.2,92.3707954048096,92.32323232323232,91.86295503211991,919000.0,1421368.0,0.0,1.0,0.0,?,0.0,0.0,570.0,353.0,353.0,7.0,0.0,0.0,1.0
2400000.0,18.65625,5.365124412087931E-6,2400000.0,97.2,94.31575955662925,94.34343434343434,93.5632183908046,959000.0,1452008.0,0.0,1.0,0.0,?,0.0,0.0,583.0,361.0,361.0,7.0,0.0,0.0,1.0
2500000.0,19.390625,5.655376395831506E-6,2500000.0,96.8,93.54601890209713,93.31941544885177,92.87305122494432,999000.0,1471928.0,0.0,1.0,0.0,?,0.0,0.0,591.0,365.0,365.0,7.0,0.0,0.0,1.0
2600000.0,20.1875,5.984791011239092E-6,2600000.0,97.1,94.12836606600527,94.03292181069959,93.39407744874715,1038800.0,1481192.0,0.0,1.0,0.0,?,0.0,0.0,603.0,371.0,371.0,7.0,3955.0465753424655,0.0,1.0196288147897743
2700000.0,20.953125,6.303068431508211E-6,2700000.0,97.5,94.93545746999764,94.81327800829875,94.33106575963718,1078800.0,1505248.0,0.0,1.0,0.0,?,0.0,0.0,613.0,376.0,376.0,7.0,3955.0465753424655,0.0,1.0196288147897743
2800000.0,21.71875,6.619490353235355E-6,2800000.0,96.6,93.07287337212524,92.9460580912863,92.01877934272301,1118800.0,1511064.0,0.0,1.0,0.0,?,0.0,0.0,613.0,376.0,376.0,7.0,3955.0465753424655,0.0,1.0196288147897743
2900000.0,22.46875,6.929512116281937E-6,2900000.0,95.89999999999999,91.7757879196354,92.0696324951644,91.23931623931622,1158800.0,1526472.0,0.0,1.0,0.0,?,0.0,0.0,619.0,379.0,379.0,7.0,3955.0465753424655,0.0,1.0196288147897743
3000000.0,23.25,7.252970471098606E-6,3000000.0,97.39999999999999,94.7411003236246,94.39655172413792,94.22222222222221,1198800.0,1544184.0,0.0,1.0,0.0,?,0.0,0.0,628.0,385.0,385.0,7.0,3955.0465753424655,0.0,1.0196288147897743
3100000.0,24.0,7.583198829605762E-6,3100000.0,97.0,93.97273264247455,94.140625,93.49240780911062,1238600.0,1584640.0,0.0,1.0,0.0,?,0.0,0.0,641.0,393.0,393.0,7.0,3955.0465753424655,0.0,1.0196288147897743
3200000.0,24.765625,7.91952893551853E-6,3200000.0,97.1,94.13311753995549,94.17670682730923,93.45372460496614,1278600.0,1595832.0,0.0,1.0,0.0,?,0.0,0.0,649.0,397.0,397.0,7.0,3955.0465753424655,0.0,1.0196288147897743
3300000.0,25.515625,8.249789890315797E-6,3300000.0,98.0,95.91529965361741,95.99198396793587,95.32710280373831,1318600.0,1614992.0,0.0,1.0,0.0,?,0.0,0.0,663.0,404.0,404.0,7.0,3955.0465753424655,0.0,1.0196288147897743
3400000.0,26.265625,8.577163745131757E-6,3400000.0,97.0,93.86585859577235,93.83983572895276,92.9078014184397,1358600.0,1615304.0,0.0,1.0,0.0,?,0.0,0.0,665.0,405.0,405.0,7.0,3955.0465753424655,0.0,1.0196288147897743
3500000.0,27.03125,8.911275492411933E-6,3500000.0,97.6,95.15752178106348,95.30332681017613,94.65478841870824,1398600.0,1629984.0,0.0,1.0,0.0,?,0.0,0.0,675.0,410.0,410.0,7.0,3955.0465753424655,0.0,1.0196288147897743
3600000.0,27.796875,9.261405373561299E-6,3600000.0,96.7,93.34258646568003,93.4782608695652,92.68292682926828,1438400.0,1649952.0,0.0,1.0,0.0,?,0.0,0.0,681.0,413.0,413.0,7.0,3955.0465753424655,0.0,1.0196288147897743
3700000.0,28.578125,9.618318581487983E-6,3700000.0,97.3,94.56438585612935,94.57831325301204,94.10480349344978,1478400.0,1663304.0,0.0,1.0,0.0,?,0.0,0.0,683.0,414.0,414.0,7.0,3955.0465753424655,0.0,1.0196288147897743
3800000.0,29.328125,9.960340588198354E-6,3800000.0,97.8,95.53788739250365,95.34883720930232,95.02262443438913,1518400.0,1675248.0,0.0,1.0,0.0,?,0.0,0.0,693.0,419.0,419.0,7.0,3955.0465753424655,0.0,1.0196288147897743
3900000.0,30.09375,1.0309083995202348E-5,3900000.0,97.5,94.9206400806196,95.06903353057199,94.29223744292237,1558400.0,1688336.0,0.0,1.0,0.0,?,0.0,0.0,699.0,422.0,422.0,7.0,3955.0465753424655,0.0,1.0196288147897743
4000000.0,30.84375,1.0651327967126335E-5,4000000.0,97.2,94.36029648727038,94.35483870967741,93.85964912280701,1598400.0,1706608.0,0.0,1.0,0.0,?,0.0,0.0,707.0,426.0,426.0,7.0,3955.0465753424655,0.0,1.0196288147897743
4100000.0,31.59375,1.1006812241652773E-5,4100000.0,97.89999999999999,95.77090381826969,95.86614173228347,95.40481400437636,1638200.0,1713856.0,0.0,1.0,0.0,?,0.0,0.0,709.0,427.0,427.0,7.0,3955.0465753424655,0.0,1.0196288147897743
4200000.0,32.34375,1.1362010910589661E-5,4200000.0,97.6,95.16910157366516,95.21912350597609,94.77124183006535,1678200.0,1727504.0,0.0,1.0,0.0,?,0.0,0.0,717.0,431.0,431.0,7.0,3955.0465753424655,0.0,1.0196288147897743
4300000.0,33.109375,1.1725978595980753E-5,4300000.0,97.3,94.59662829605674,94.5233265720081,94.45585215605749,1718200.0,1749528.0,0.0,1.0,0.0,?,0.0,0.0,719.0,432.0,432.0,7.0,3955.0465753424655,0.0,1.0196288147897743
4400000.0,33.875,1.2090069875638517E-5,4400000.0,96.8,93.54304969833935,93.75,92.90465631929045,1758200.0,1765264.0,0.0,1.0,0.0,?,0.0,0.0,725.0,435.0,435.0,7.0,3955.0465753424655,0.0,1.0196288147897743
4500000.0,34.65625,1.246329901429514E-5,4500000.0,96.8,93.51028619637873,93.24894514767932,92.66055045871559,1798200.0,1788776.0,0.0,1.0,0.0,?,0.0,0.0,746.0,447.0,447.0,8.0,3955.0465753424655,0.0,1.0196288147897743
4600000.0,35.390625,1.2827442357471833E-5,4600000.0,98.1,96.17237989331012,96.14604462474645,95.86056644880175,1838000.0,1797952.0,0.0,1.0,0.0,?,0.0,0.0,756.0,452.0,452.0,8.0,3955.0465753424655,0.0,1.0196288147897743
4700000.0,36.171875,1.3220122556150372E-5,4700000.0,98.1,96.10400262467192,95.94882729211088,95.47619047619047,1878000.0,1839136.0,0.0,1.0,0.0,?,0.0,0.0,764.0,456.0,456.0,8.0,3955.0465753424655,0.0,1.0196288147897743
4800000.0,36.90625,1.3588883254366615E-5,4800000.0,97.8,95.54206467248359,95.60878243512974,95.03386004514672,1918000.0,1852360.0,0.0,1.0,0.0,?,0.0,0.0,774.0,461.0,461.0,9.0,3955.0465753424655,0.0,1.0196288147897743
4900000.0,37.65625,1.3967025054929155E-5,4900000.0,97.8,95.54417745515822,95.53752535496956,95.02262443438913,1958000.0,1875360.0,0.0,1.0,0.0,?,0.0,0.0,778.0,463.0,463.0,9.0,3955.0465753424655,0.0,1.0196288147897743
5000000.0,38.390625,1.4336302507823952E-5,5000000.0,98.0,95.94759428934987,95.89322381930184,95.44419134396355,1998000.0,1883024.0,0.0,1.0,0.0,?,0.0,0.0,782.0,465.0,465.0,9.0,3955.0465753424655,0.0,1.0196288147897743
5100000.0,39.390625,1.4389447913142954E-5,5100000.0,76.0,47.65105941168515,48.93617021276596,35.309973045822105,33480.0,92144.0,0.0,1.0,0.0,?,4.0,34.0,35.0,21.0,21.0,4.0,0.0,0.0,1.0
5200000.0,40.1875,1.445671782777127E-5,5200000.0,81.89999999999999,61.33370931494441,62.90983606557376,52.49343832020996,73480.0,227736.0,0.0,1.0,0.0,?,0.0,0.0,84.0,53.0,53.0,7.0,0.0,0.0,1.0
5300000.0,40.984375,1.4540339729541704E-5,5300000.0,84.7,67.93393972418997,65.99999999999999,58.98123324396782,113480.0,321920.0,0.0,1.0,0.0,?,0.0,0.0,120.0,77.0,77.0,8.0,0.0,0.0,1.0
5400000.0,41.78125,1.4638130055067852E-5,5400000.0,86.4,70.93656906197776,69.84478935698448,62.53443526170799,153480.0,405456.0,0.0,1.0,0.0,?,0.0,0.0,153.0,95.0,95.0,9.0,0.0,0.0,1.0
5500000.0,42.546875,1.473402019150348E-5,5500000.0,86.5,71.46311766496432,71.81628392484342,62.91208791208791,193480.0,430336.0,0.0,1.0,0.0,?,0.0,0.0,162.0,101.0,101.0,9.0,0.0,0.0,1.0
5600000.0,43.28125,1.4847051158236959E-5,5600000.0,85.39999999999999,69.62118027956836,70.68273092369478,62.65984654731458,233280.0,480168.0,0.0,1.0,0.0,?,0.0,0.0,184.0,115.0,115.0,10.0,0.0,0.0,1.0
5700000.0,44.046875,1.4975142354766526E-5,5700000.0,85.8,70.18760812240716,68.23266219239373,62.03208556149732,273280.0,546888.0,0.0,1.0,0.0,?,0.0,0.0,211.0,133.0,133.0,11.0,0.0,0.0,1.0
5800000.0,44.8125,1.511290242585043E-5,5800000.0,85.9,70.3582240161453,70.44025157232704,62.096774193548384,313280.0,610672.0,0.0,1.0,0.0,?,0.0,0.0,238.0,151.0,151.0,11.0,0.0,0.0,1.0
5900000.0,45.609375,1.5268349379766732E-5,5900000.0,85.9,70.78446811155776,70.3157894736842,63.84615384615384,353280.0,684064.0,0.0,1.0,0.0,?,0.0,0.0,259.0,163.0,163.0,11.0,0.0,0.0,1.0
6000000.0,46.375,1.5425703895743937E-5,6000000.0,86.5,71.99100392540892,71.51898734177215,65.02590673575129,393280.0,739360.0,0.0,1.0,0.0,?,0.0,0.0,285.0,176.0,176.0,12.0,0.0,0.0,1.0
6100000.0,47.15625,1.5611834209671037E-5,6100000.0,86.3,71.30144791527015,71.75257731958763,65.6641604010025,433080.0,804688.0,0.0,1.0,0.0,?,0.0,0.0,310.0,193.0,193.0,13.0,0.0,0.0,1.0
6200000.0,47.984375,1.5828932939459466E-5,6200000.0,86.0,70.83272568178504,69.23076923076923,63.63636363636363,473080.0,911976.0,0.0,1.0,0.0,?,0.0,0.0,345.0,218.0,218.0,13.0,0.0,0.0,1.0
6300000.0,48.78125,1.6041272934267504E-5,6300000.0,86.6,70.71012642733488,70.54945054945054,61.27167630057803,513080.0,943720.0,0.0,1.0,0.0,?,0.0,0.0,356.0,225.0,225.0,13.0,0.0,0.0,1.0
6400000.0,49.59375,1.6263212924564465E-5,6400000.0,88.1,74.77231484151078,74.40860215053763,67.75067750677508,553080.0,984568.0,0.0,1.0,0.0,?,0.0,0.0,381.0,239.0,239.0,13.0,0.0,0.0,1.0
6500000.0,50.421875,1.6505737245703738E-5,6500000.0,88.1,75.44325948426717,75.36231884057972,69.72010178117048,593080.0,1075600.0,0.0,1.0,0.0,?,0.0,0.0,415.0,262.0,262.0,14.0,0.0,0.0,1.0
6600000.0,51.25,1.677338037148325E-5,6600000.0,88.7,76.032917621108,75.48806941431671,69.9468085106383,632880.0,1131832.0,0.0,1.0,0.0,?,0.0,0.0,439.0,277.0,277.0,14.0,0.0,0.0,1.0
6700000.0,52.078125,1.705530536128208E-5,6700000.0,87.5,73.86490035209206,72.28381374722838,66.93121693121694,672880.0,1213456.0,0.0,1.0,0.0,?,0.0,0.0,456.0,290.0,290.0,14.0,0.0,0.0,1.0
6800000.0,52.90625,1.735570953719111E-5,6800000.0,88.8,75.87506731287023,75.22123893805309,68.62745098039215,712880.0,1314584.0,0.0,1.0,0.0,?,0.0,0.0,497.0,318.0,318.0,15.0,0.0,0.0,1.0
6900000.0,53.75,1.767169331691952E-5,6900000.0,88.3,75.50148666192051,74.83870967741936,69.3717277486911,752880.0,1374928.0,0.0,1.0,0.0,?,0.0,0.0,518.0,330.0,330.0,15.0,0.0,0.0,1.0
7000000.0,54.578125,1.7989109587183014E-5,7000000.0,88.5,76.31093240170067,76.14107883817427,71.1779448621554,792880.0,1423832.0,0.0,1.0,0.0,?,0.0,0.0,544.0,343.0,343.0,15.0,0.0,0.0,1.0
7100000.0,55.421875,1.833415761615874E-5,7100000.0,90.4,79.24162745640743,77.93103448275863,73.48066298342542,832680.0,1461864.0,0.0,1.0,0.0,?,0.0,0.0,561.0,353.0,353.0,15.0,0.0,0.0,1.0
7200000.0,56.265625,1.868112649794461E-5,7200000.0,89.7,77.69094815636262,78.22410147991543,71.06741573033707,872680.0,1485824.0,0.0,1.0,0.0,?,0.0,0.0,573.0,362.0,362.0,15.0,0.0,0.0,1.0
7300000.0,57.109375,1.9036283451391175E-5,7300000.0,89.60000000000001,78.0595346089745,77.6824034334764,73.1266149870801,912680.0,1538280.0,0.0,1.0,0.0,?,0.0,0.0,585.0,368.0,368.0,15.0,0.0,0.0,1.0
7400000.0,57.96875,1.9402380211330534E-5,7400000.0,89.5,77.8417436226428,77.17391304347827,72.29551451187336,952680.0,1572960.0,0.0,1.0,0.0,?,0.0,0.0,600.0,377.0,377.0,15.0,0.0,0.0,1.0
7500000.0,58.84375,1.978293465476276E-5,7500000.0,90.7,80.78432993098889,80.98159509202455,77.37226277372264,992680.0,1622488.0,0.0,1.0,0.0,?,0.0,0.0,619.0,391.0,391.0,15.0,0.0,0.0,1.0
7600000.0,59.765625,2.021002777231236E-5,7600000.0,90.5,79.66592179727566,78.74720357941834,73.6842105263158,1032480.0,1671128.0,0.0,1.0,0.0,?,0.0,0.0,636.0,401.0,401.0,15.0,4105.306122448979,0.0,1.0177669516802546
7700000.0,60.625,2.0615464664943928E-5,7700000.0,90.10000000000001,79.17104986324426,78.84615384615385,73.24324324324326,1072480.0,1718984.0,0.0,1.0,0.0,?,0.0,0.0,654.0,413.0,413.0,15.0,4105.306122448979,0.0,1.0177669516802546
7800000.0,61.46875,2.1016189485736604E-5,7800000.0,90.4,79.63694367493775,78.8546255506608,73.98373983739837,1112480.0,1746296.0,0.0,1.0,0.0,?,0.0,0.0,670.0,424.0,424.0,15.0,4105.306122448979,0.0,1.0177669516802546
7900000.0,62.34375,2.1437541808053434E-5,7900000.0,90.2,79.23024754153951,78.41409691629956,73.65591397849462,1152480.0,1786864.0,0.0,1.0,0.0,?,0.0,0.0,678.0,428.0,428.0,15.0,4105.306122448979,0.0,1.0177669516802546
8000000.0,63.21875,2.1860288527225038E-5,8000000.0,91.2,81.24691000221628,81.66666666666667,76.47058823529413,1192480.0,1808080.0,0.0,1.0,0.0,?,0.0,0.0,694.0,436.0,436.0,15.0,4105.306122448979,0.0,1.0177669516802546
8100000.0,64.09375,2.2300146487800195E-5,8100000.0,89.4,77.42144366437189,77.63713080168777,70.2247191011236,1232280.0,1822648.0,0.0,1.0,0.0,?,0.0,0.0,711.0,446.0,446.0,15.0,4105.306122448979,0.0,1.0177669516802546
8200000.0,65.0,2.2766458860132842E-5,8200000.0,90.0,79.14929107589658,77.72828507795101,75.00000000000001,1272280.0,1883464.0,0.0,1.0,0.0,?,0.0,0.0,727.0,457.0,457.0,15.0,4105.306122448979,0.0,1.0177669516802546
8300000.0,65.890625,2.3227295314427463E-5,8300000.0,91.0,81.05111566820084,81.2889812889813,76.50130548302873,1312280.0,1909648.0,0.0,1.0,0.0,?,0.0,0.0,739.0,463.0,463.0,15.0,4105.306122448979,0.0,1.0177669516802546
8400000.0,66.796875,2.3701372588725964E-5,8400000.0,88.8,75.38732007471707,75.65217391304347,67.53623188405797,1352280.0,1946672.0,0.0,1.0,0.0,?,0.0,0.0,756.0,473.0,473.0,15.0,4105.306122448979,0.0,1.0177669516802546
8500000.0,67.6875,2.4167583938429336E-5,8500000.0,90.8,80.46543230847631,79.27927927927928,75.00000000000001,1392280.0,1963160.0,0.0,1.0,0.0,?,0.0,0.0,763.0,478.0,478.0,15.0,4105.306122448979,0.0,1.0177669516802546
8600000.0,68.59375,2.4668806484745192E-5,8600000.0,90.2,79.38612728435366,80.28169014084507,74.47916666666667,1432080.0,2016584.0,0.0,1.0,0.0,?,0.0,0.0,778.0,487.0,487.0,16.0,4105.306122448979,0.0,1.0177669516802546
8700000.0,69.484375,2.516346644066895E-5,8700000.0,91.9,82.9531105311895,82.65524625267666,78.96103896103898,1472080.0,2040656.0,0.0,1.0,0.0,?,0.0,0.0,792.0,494.0,494.0,16.0,4105.306122448979,0.0,1.0177669516802546
8800000.0,70.390625,2.5675426683543868E-5,8800000.0,90.9,80.93042749371332,81.23711340206187,76.05263157894737,1512080.0,2092464.0,0.0,1.0,0.0,?,0.0,0.0,815.0,510.0,510.0,16.0,4105.306122448979,0.0,1.0177669516802546
8900000.0,71.296875,2.6197985830044164E-5,8900000.0,90.9,81.07226650248765,80.88235294117648,76.78571428571429,1552080.0,2152624.0,0.0,1.0,0.0,?,0.0,0.0,828.0,518.0,518.0,16.0,4105.306122448979,0.0,1.0177669516802546
9000000.0,72.203125,2.672047370449743E-5,9000000.0,91.7,82.43282141587227,82.59958071278827,77.92553191489363,1592080.0,2167456.0,0.0,1.0,0.0,?,0.0,0.0,832.0,520.0,520.0,16.0,4105.306122448979,0.0,1.0177669516802546
9100000.0,73.125,2.726736497910072E-5,9100000.0,91.9,82.58813413585555,83.26446280991736,77.18309859154931,1631880.0,2171032.0,0.0,1.0,0.0,?,0.0,0.0,838.0,523.0,523.0,16.0,4105.306122448979,0.0,1.0177669516802546
9200000.0,74.03125,2.7805345145882E-5,9200000.0,91.4,81.80371711974001,81.70212765957447,77.60416666666667,1671880.0,2187672.0,0.0,1.0,0.0,?,0.0,0.0,844.0,526.0,526.0,16.0,4105.306122448979,0.0,1.0177669516802546
9300000.0,74.96875,2.836819770487232E-5,9300000.0,91.2,81.86352301065519,82.18623481781377,78.69249394673125,1711880.0,2228768.0,0.0,1.0,0.0,?,0.0,0.0,857.0,534.0,534.0,16.0,4105.306122448979,0.0,1.0177669516802546
9400000.0,75.90625,2.893411780759278E-5,9400000.0,91.3,81.9848921578372,82.66932270916335,78.4119106699752,1751880.0,2256496.0,0.0,1.0,0.0,?,0.0,0.0,870.0,542.0,542.0,16.0,4105.306122448979,0.0,1.0177669516802546
9500000.0,76.8125,2.9482046051675243E-5,9500000.0,90.8,80.73484020387566,81.26272912423626,76.82619647355165,1791880.0,2275352.0,0.0,1.0,0.0,?,0.0,0.0,881.0,549.0,549.0,16.0,4105.306122448979,0.0,1.0177669516802546
9600000.0,77.71875,3.0047540979770318E-5,9600000.0,91.60000000000001,82.40948212677738,82.68041237113403,78.6259541984733,1831680.0,2289416.0,0.0,1.0,0.0,?,0.0,0.0,885.0,551.0,551.0,16.0,4105.306122448979,0.0,1.0177669516802546
9700000.0,78.65625,3.0630952484595275E-5,9700000.0,91.10000000000001,81.08540047945323,81.22362869198312,76.13941018766756,1871680.0,2298000.0,0.0,1.0,0.0,?,0.0,0.0,899.0,558.0,558.0,16.0,4105.306122448979,0.0,1.0177669516802546
9800000.0,79.5625,3.119749398643357E-5,9800000.0,89.9,78.93287722664887,78.78151260504202,74.43037974683546,1911680.0,2324048.0,0.0,1.0,0.0,?,0.0,0.0,907.0,562.0,562.0,16.0,4105.306122448979,0.0,1.0177669516802546
9900000.0,80.484375,3.1771721906908267E-5,9900000.0,90.5,79.68939743787095,79.07488986784142,73.01136363636364,1951680.0,2330472.0,0.0,1.0,0.0,?,0.0,0.0,915.0,566.0,566.0,16.0,4105.306122448979,0.0,1.0177669516802546
1.0E7,81.453125,3.237657135792283E-5,1.0E7,90.4,79.78581385261332,80.16528925619835,75.32133676092546,1991680.0,2351256.0,0.0,1.0,0.0,?,0.0,0.0,919.0,568.0,568.0,16.0,4105.306122448979,0.0,1.0177669516802546
