learning evaluation instances,evaluation time (cpu seconds),model cost (RAM-Hours),classified instances,classifications correct (percent),Kappa Statistic (percent),Kappa Temporal Statistic (percent),Kappa M Statistic (percent),model training instances,model serialized size (bytes),labeling cost,newThreshold,maxPosterior,accuracyBaseLearner (percent),Change detected,Warning detected
100000.0,0.140625,1.203734427690506E-9,100000.0,67.30000000000001,30.971882124461704,29.373650107991367,28.13186813186814,19510.0,9208.0,0.0,1.0,0.0,?,1.0,117.0
200000.0,0.3125,2.6006212768455347E-9,200000.0,63.1,19.841159500886324,19.432314410480345,14.780600461893775,39120.0,9208.0,0.0,1.0,0.0,?,0.0,13.0
300000.0,0.484375,3.923164007978307E-9,300000.0,60.199999999999996,12.294619561384943,16.38655462184873,6.132075471698118,58730.0,9208.0,0.0,1.0,0.0,?,0.0,0.0
400000.0,0.65625,5.171362621088823E-9,400000.0,69.5,33.48395763909486,38.87775551102203,28.904428904428904,78340.0,9208.0,0.0,1.0,0.0,?,0.0,0.0
500000.0,0.8125,6.5518543124198915E-9,500000.0,62.1,14.144617615077937,19.532908704883223,6.188118811881193,97940.0,9208.0,0.0,1.0,0.0,?,0.0,0.0
600000.0,0.984375,7.99605105486181E-9,600000.0,59.9,12.658999825753606,23.47328244274809,6.088992974238881,117550.0,9208.0,0.0,1.0,0.0,?,0.0,0.0
700000.0,1.15625,9.365903679281473E-9,700000.0,69.6,33.40460209249749,36.26834381551362,28.638497652582156,137160.0,9208.0,0.0,1.0,0.0,?,0.0,0.0
800000.0,1.328125,1.061445800587535E-8,800000.0,62.5,18.44280121792083,22.52066115702479,13.394919168591235,156770.0,9208.0,0.0,1.0,0.0,?,0.0,0.0
900000.0,1.484375,1.168192183184955E-8,900000.0,68.60000000000001,32.2925651198896,38.55185909980432,28.636363636363637,176380.0,9208.0,0.0,1.0,0.0,?,0.0,0.0
1000000.0,1.671875,1.325779723831349E-8,1000000.0,68.2,30.516710949517574,34.96932515337424,25.70093457943927,195980.0,9208.0,0.0,1.0,0.0,?,0.0,0.0
1100000.0,1.828125,1.4503441181861694E-8,1100000.0,68.5,31.651304483674448,34.782608695652186,27.25173210161665,215590.0,9208.0,0.0,1.0,0.0,?,0.0,0.0
1200000.0,2.0,1.579930540174246E-8,1200000.0,59.9,10.935598219600376,20.90729783037475,2.905569007263925,235200.0,9208.0,0.0,1.0,0.0,?,0.0,0.0
1300000.0,2.15625,1.6909778221613832E-8,1300000.0,63.2,18.720376006608387,24.74437627811861,12.589073634204285,254810.0,9208.0,0.0,1.0,0.0,?,0.0,0.0
1400000.0,2.328125,1.8401640570826E-8,1400000.0,67.60000000000001,27.812633680308014,34.01221995926681,22.48803827751198,274410.0,9208.0,0.0,1.0,0.0,?,0.0,0.0
1500000.0,2.46875,1.956142821452684E-8,1500000.0,68.30000000000001,30.240132389704605,35.17382413087935,25.059101654846355,294020.0,9208.0,0.0,1.0,0.0,?,0.0,0.0
1600000.0,2.625,2.07824955901338E-8,1600000.0,61.3,14.434293497006307,18.181818181818176,8.076009501187654,313630.0,9208.0,0.0,1.0,0.0,?,0.0,0.0
1700000.0,2.796875,2.20513255852792E-8,1700000.0,60.9,14.402304789092524,18.879668049792524,7.345971563981049,333240.0,9208.0,0.0,1.0,0.0,?,0.0,0.0
1800000.0,2.9375,2.302863221201632E-8,1800000.0,59.199999999999996,12.177985948477744,16.904276985743376,8.520179372197292,352850.0,9208.0,0.0,1.0,0.0,?,0.0,0.0
1900000.0,3.109375,2.4493460336493123E-8,1900000.0,58.699999999999996,9.350307287093935,14.137214137214126,2.8235294117647083,372450.0,9208.0,0.0,1.0,0.0,?,0.0,0.0
2000000.0,3.265625,2.575753670599726E-8,2000000.0,68.30000000000001,30.895868575713724,36.472945891783574,26.78983833718247,392060.0,9208.0,0.0,1.0,0.0,?,0.0,0.0
2100000.0,3.4375,2.7073676594429548E-8,2100000.0,65.8,23.43889214733761,31.46292585170341,18.377088305489274,411670.0,9208.0,0.0,1.0,0.0,?,0.0,0.0
2200000.0,3.59375,2.8202581840256852E-8,2200000.0,69.1,31.284468955701815,33.1168831168831,25.54216867469879,431280.0,9208.0,0.0,1.0,0.0,?,0.0,0.0
2300000.0,3.765625,2.937003349264463E-8,2300000.0,67.10000000000001,28.16217443708842,30.29661016949153,23.84259259259261,450890.0,9208.0,0.0,1.0,0.0,?,0.0,0.0
2400000.0,3.921875,3.0677118856045936E-8,2400000.0,68.30000000000001,29.654976522071046,34.9075975359343,24.16267942583734,470490.0,9208.0,0.0,1.0,0.0,?,0.0,0.0
2500000.0,4.09375,3.2040568637765116E-8,2500000.0,62.0,16.4688296843401,20.83333333333333,11.627906976744196,490100.0,9208.0,0.0,1.0,0.0,?,0.0,0.0
2600000.0,4.265625,3.332967430146204E-8,2600000.0,61.9,16.5096200201604,21.604938271604933,10.563380281690149,509710.0,9208.0,0.0,1.0,0.0,?,0.0,0.0
2700000.0,4.40625,3.43235701115595E-8,2700000.0,68.7,31.49965421550692,37.40000000000001,26.525821596244153,529320.0,9208.0,0.0,1.0,0.0,?,0.0,0.0
2800000.0,4.578125,3.580867390458783E-8,2800000.0,61.3,14.068745003996796,21.0204081632653,6.746987951807235,548920.0,9208.0,0.0,1.0,0.0,?,0.0,0.0
2900000.0,4.734375,3.709118270004789E-8,2900000.0,67.30000000000001,27.868071364286113,34.33734939759037,22.877358490566056,568530.0,9208.0,0.0,1.0,0.0,?,0.0,0.0
3000000.0,4.90625,3.842759825703171E-8,3000000.0,65.8,22.651383906964558,29.045643153526974,15.970515970515983,588140.0,9208.0,0.0,1.0,0.0,?,0.0,0.0
3100000.0,5.0625,3.957493592881494E-8,3100000.0,67.7,28.802560462717253,33.67556468172486,23.459715639810444,607750.0,9208.0,0.0,1.0,0.0,?,0.0,0.0
3200000.0,5.234375,4.076266324975424E-8,3200000.0,70.5,34.840037814866186,37.76371308016876,30.09478672985782,627360.0,9208.0,0.0,1.0,0.0,?,0.0,0.0
3300000.0,5.390625,4.208818103911148E-8,3300000.0,62.2,14.705032854357716,21.900826446280988,6.435643564356441,646960.0,9208.0,0.0,1.0,0.0,?,0.0,0.0
3400000.0,5.5625,4.347190648938219E-8,3400000.0,60.699999999999996,15.75129267100558,17.954070981210847,11.085972850678719,666570.0,9208.0,0.0,1.0,0.0,?,0.0,0.0
3500000.0,5.734375,4.478128782163064E-8,3500000.0,59.8,11.341652221090117,20.55335968379446,5.854800936768155,686180.0,9208.0,0.0,1.0,0.0,?,0.0,0.0
3600000.0,5.890625,4.590404892547263E-8,3600000.0,69.1,30.78081037974229,37.322515212981735,25.181598062953984,705790.0,9208.0,0.0,1.0,0.0,?,0.0,0.0
3700000.0,6.0625,4.706474202167657E-8,3700000.0,67.7,28.790003262872926,29.629629629629633,22.727272727272744,725400.0,9208.0,0.0,1.0,0.0,?,0.0,0.0
3800000.0,6.21875,4.8365683243092566E-8,3800000.0,69.1,29.484253765403917,40.46242774566473,22.749999999999993,745000.0,9208.0,0.0,1.0,0.0,?,0.0,0.0
3900000.0,6.390625,4.972237446862791E-8,3900000.0,66.0,24.394376720583868,29.752066115702487,18.46522781774582,764610.0,9208.0,0.0,1.0,0.0,?,0.0,0.0
4000000.0,6.546875,5.0888144566367076E-8,4000000.0,62.5,14.101154480483771,26.7578125,5.303030303030307,784220.0,9208.0,0.0,1.0,0.0,?,0.0,0.0
4100000.0,6.71875,5.20961475558579E-8,4100000.0,59.5,11.199010691200591,21.81467181467181,3.8004750593824257,803830.0,9208.0,0.0,1.0,0.0,?,0.0,0.0
4200000.0,6.890625,5.357449279270239E-8,4200000.0,69.3,29.938747752106394,34.957627118644055,23.057644110275678,823430.0,9208.0,0.0,1.0,0.0,?,0.0,0.0
4300000.0,7.046875,5.485085744617715E-8,4300000.0,72.0,38.4184990828755,44.66403162055336,32.853717026378895,843040.0,9208.0,0.0,1.0,0.0,?,0.0,0.0
4400000.0,7.21875,5.6180514446977125E-8,4400000.0,71.0,36.86731250680309,38.42887473460721,31.76470588235294,862650.0,9208.0,0.0,1.0,0.0,?,0.0,0.0
4500000.0,7.375,5.732170797677505E-8,4500000.0,68.7,30.36025773379375,35.860655737704924,25.29832935560861,882260.0,9208.0,0.0,1.0,0.0,?,0.0,0.0
4600000.0,7.546875,5.8502676741530514E-8,4600000.0,59.8,11.560884391156085,18.12627291242362,5.411764705882357,901870.0,9208.0,0.0,1.0,0.0,?,0.0,0.0
4700000.0,7.703125,5.982205038890245E-8,4700000.0,70.3,33.72725081892588,41.30434782608695,28.087167070217912,921470.0,9208.0,0.0,1.0,0.0,?,0.0,0.0
4800000.0,7.875,6.119901728298931E-8,4800000.0,67.5,28.71368784930294,31.722689075630257,23.88758782201407,941080.0,9208.0,0.0,1.0,0.0,?,0.0,0.0
4900000.0,8.015625,6.22647995543149E-8,4900000.0,67.0,27.664574053940328,32.653061224489804,23.61111111111113,960690.0,9208.0,0.0,1.0,0.0,?,0.0,0.0
5000000.0,8.1875,6.359089942028127E-8,5000000.0,59.8,11.54103439777487,19.438877755511015,4.739336492890999,980300.0,9208.0,0.0,1.0,0.0,?,0.0,0.0
5100000.0,8.34375,6.463993082029953E-8,5100000.0,51.2,1.891405043746778,1.4141414141414155,1.6129032258064528,999910.0,9208.0,0.0,1.0,0.0,?,0.0,0.0
5200000.0,8.5,6.602365627057023E-8,5200000.0,49.8,-0.7566786423940853,-3.5051546391752613,-2.868852459016396,1019510.0,9208.0,0.0,1.0,0.0,?,0.0,0.0
5300000.0,8.65625,6.733979615900252E-8,5300000.0,55.7,5.927222071215015,12.623274161735711,1.991150442477878,1039120.0,9208.0,0.0,1.0,0.0,?,0.0,0.0
5400000.0,8.8125,6.85883504855964E-8,5400000.0,50.4,1.3053167780961499,5.8823529411764754,0.0,1058730.0,9208.0,0.0,1.0,0.0,?,0.0,0.0
5500000.0,8.984375,6.98874161268274E-8,5500000.0,52.1,1.55781166509105,3.427419354838713,-0.2092050209205023,1078340.0,9208.0,0.0,1.0,0.0,?,0.0,0.0
5600000.0,9.15625,7.145682401541207E-8,5600000.0,53.6,2.619207521826739,5.112474437627816,0.8547008547008554,1097940.0,9208.0,0.0,1.0,0.0,?,0.0,0.0
5700000.0,9.3125,7.281597289774153E-8,5700000.0,52.0,2.392998324413138,6.432748538011701,1.234567901234569,1117550.0,9208.0,0.0,1.0,0.0,?,0.0,0.0
5800000.0,9.484375,7.423669255028168E-8,5800000.0,52.900000000000006,1.670146137787058,7.827788649706465,-5.8426966292134885,1137160.0,9208.0,0.0,1.0,0.0,?,0.0,0.0
5900000.0,9.65625,7.558306808479957E-8,5900000.0,52.5,2.115137327310505,4.6184738955823335,0.21008403361344558,1156770.0,9208.0,0.0,1.0,0.0,?,0.0,0.0
6000000.0,9.8125,7.673946028161378E-8,6000000.0,51.800000000000004,2.2538398828668558,-0.8368200836820092,5.490196078431377,1176380.0,9208.0,0.0,1.0,0.0,?,0.0,0.0
6100000.0,9.984375,7.828183394546309E-8,6100000.0,51.7,3.6535837675238767,4.1666666666666705,5.8479532163742745,1195980.0,9208.0,0.0,1.0,0.0,?,0.0,0.0
6200000.0,10.140625,7.96164062598513E-8,6200000.0,48.9,-3.2631978854283807,-1.5904572564612343,-4.073319755600818,1215590.0,9208.0,0.0,1.0,0.0,?,0.0,0.0
6300000.0,10.3125,8.10100916876561E-8,6300000.0,50.8,3.334184726015283,-0.20366598778004094,-5.5793991416309066,1235200.0,9208.0,0.0,1.0,0.0,?,0.0,0.0
6400000.0,10.46875,8.220949287836749E-8,6400000.0,53.6,6.14241270637544,9.197651663405097,8.118811881188126,1254810.0,9208.0,0.0,1.0,0.0,?,0.0,0.0
6500000.0,10.640625,8.379917643550368E-8,6500000.0,53.7,3.7149797032009033,6.085192697768768,1.0683760683760695,1274410.0,9208.0,0.0,1.0,0.0,?,0.0,0.0
6600000.0,10.78125,8.503899961296054E-8,6600000.0,50.9,0.3507005893718141,3.9138943248532323,-2.079002079002081,1294020.0,9208.0,0.0,1.0,0.0,?,0.0,0.0
6700000.0,10.953125,8.647999493405221E-8,6700000.0,52.400000000000006,5.32450225749349,4.417670682730928,4.800000000000004,1313630.0,9208.0,0.0,1.0,0.0,?,0.0,0.0
6800000.0,11.125,8.784664613712163E-8,6800000.0,53.2,4.648585213195996,5.4545454545454595,3.703703703703707,1333240.0,9208.0,0.0,1.0,0.0,?,0.0,0.0
6900000.0,11.28125,8.902147075989178E-8,6900000.0,51.9,3.913766100936502,4.183266932270921,-0.8385744234800846,1352850.0,9208.0,0.0,1.0,0.0,?,0.0,0.0
7000000.0,11.453125,9.058412009229261E-8,7000000.0,53.300000000000004,1.5905661808710603,6.41282565130261,-1.9650655021834078,1372450.0,9208.0,0.0,1.0,0.0,?,0.0,0.0
7100000.0,11.609375,9.193712483263677E-8,7100000.0,52.300000000000004,5.420946187096012,7.915057915057922,2.25409836065574,1392060.0,9208.0,0.0,1.0,0.0,?,0.0,0.0
7200000.0,11.78125,9.335108592899309E-8,7200000.0,53.400000000000006,4.448281094292731,6.425702811244986,2.7139874739039693,1411670.0,9208.0,0.0,1.0,0.0,?,0.0,0.0
7300000.0,11.9375,9.456891954566041E-8,7300000.0,55.2,6.04696812727281,11.462450592885386,2.8199566160520635,1431280.0,9208.0,0.0,1.0,0.0,?,0.0,0.0
7400000.0,12.109375,9.583419240597222E-8,7400000.0,53.5,3.6005705187740586,11.089866156787773,1.2738853503184726,1450890.0,9208.0,0.0,1.0,0.0,?,0.0,0.0
7500000.0,12.28125,9.736980751363767E-8,7500000.0,51.2,2.0461908413188508,9.629629629629626,-0.20533880903490778,1470490.0,9208.0,0.0,1.0,0.0,?,0.0,0.0
7600000.0,12.4375,9.869823568604059E-8,7600000.0,49.3,-1.8808777429467156,-2.6315789473684235,-2.0120724346076475,1490100.0,9208.0,0.0,1.0,0.0,?,0.0,0.0
7700000.0,12.609375,1.0008516255766154E-7,7700000.0,53.900000000000006,5.799174465650429,7.6152304609218495,4.35684647302905,1509710.0,9208.0,0.0,1.0,0.0,?,0.0,0.0
7800000.0,12.75,1.0115909390151501E-7,7800000.0,55.1,4.748570167846187,8.92494929006086,0.4434589800443463,1529320.0,9208.0,0.0,1.0,0.0,?,0.0,0.0
7900000.0,12.921875,1.0274201890246736E-7,7900000.0,51.9,2.234182669636905,6.237816764132559,1.2320328542094467,1548920.0,9208.0,0.0,1.0,0.0,?,0.0,0.0
8000000.0,13.078125,1.0411345606876744E-7,8000000.0,52.300000000000004,0.7482376049738332,1.03734439834025,-2.1413276231263403,1568530.0,9208.0,0.0,1.0,0.0,?,0.0,0.0
8100000.0,13.25,1.0554769283367528E-7,8100000.0,54.0,6.079513900231948,10.331384015594551,4.5643153526971,1588140.0,9208.0,0.0,1.0,0.0,?,0.0,0.0
8200000.0,13.40625,1.0678395887629854E-7,8200000.0,50.1,1.1646331801616219,0.20000000000000018,0.9920634920634929,1607750.0,9208.0,0.0,1.0,0.0,?,0.0,0.0
8300000.0,13.578125,1.0806950740516186E-7,8300000.0,49.3,1.3925626264197914,-4.106776180698156,-4.968944099378887,1627360.0,9208.0,0.0,1.0,0.0,?,0.0,0.0
8400000.0,13.734375,1.0948395356535912E-7,8400000.0,52.5,3.7807091463019407,2.6639344262295106,2.862985685071577,1646960.0,9208.0,0.0,1.0,0.0,?,0.0,0.0
8500000.0,13.890625,1.1083081416371796E-7,8500000.0,54.1,3.1825315131368,5.165289256198352,0.0,1666570.0,9208.0,0.0,1.0,0.0,?,0.0,0.0
8600000.0,14.0625,1.1223801670389043E-7,8600000.0,53.300000000000004,4.969272719873021,4.887983706720982,3.1120331950207496,1686180.0,9208.0,0.0,1.0,0.0,?,0.0,0.0
8700000.0,14.21875,1.1344970617857244E-7,8700000.0,50.8,-2.980576021433362,1.7964071856287442,-6.956521739130442,1705790.0,9208.0,0.0,1.0,0.0,?,0.0,0.0
8800000.0,14.359375,1.1447939970013169E-7,8800000.0,51.7,2.587187492436884,2.4242424242424265,2.0283975659229228,1725400.0,9208.0,0.0,1.0,0.0,?,0.0,0.0
8900000.0,14.53125,1.160082562516133E-7,8900000.0,53.6,4.41858069832114,10.251450676982602,2.315789473684213,1745000.0,9208.0,0.0,1.0,0.0,?,0.0,0.0
9000000.0,14.703125,1.1746276868507265E-7,9000000.0,53.300000000000004,0.7902787219578403,13.197026022304833,-3.3185840707964633,1764610.0,9208.0,0.0,1.0,0.0,?,0.0,0.0
9100000.0,14.859375,1.186786620463762E-7,9100000.0,55.400000000000006,6.74099506940059,12.720156555773004,3.253796095444689,1784220.0,9208.0,0.0,1.0,0.0,?,0.0,116.0
9200000.0,15.015625,1.1982696984584133E-7,9200000.0,51.300000000000004,2.6000000000000023,3.9447731755424096,2.6000000000000023,1803830.0,9208.0,0.0,1.0,0.0,?,0.0,0.0
9300000.0,15.171875,1.2122104332471886E-7,9300000.0,52.2,2.8798758162763614,4.400000000000004,1.84804928131417,1823430.0,9208.0,0.0,1.0,0.0,?,0.0,0.0
9400000.0,15.328125,1.2254753124175799E-7,9400000.0,49.0,-1.1362960318876818,0.9708737864077678,3.409090909090912,1843040.0,9208.0,0.0,1.0,0.0,?,0.0,0.0
9500000.0,15.46875,1.2368054336143864E-7,9500000.0,54.1,6.5743944636678195,10.000000000000009,8.016032064128263,1862650.0,9208.0,0.0,1.0,0.0,?,0.0,0.0
9600000.0,15.625,1.2487186015480094E-7,9600000.0,53.5,6.318749949633748,7.185628742514977,6.060606060606066,1882260.0,9208.0,0.0,1.0,0.0,?,0.0,0.0
9700000.0,15.78125,1.2599559138632483E-7,9700000.0,53.400000000000006,4.633267845448591,13.703703703703704,2.5104602510460277,1901870.0,9208.0,0.0,1.0,0.0,?,0.0,0.0
9800000.0,15.9375,1.2736508829726113E-7,9800000.0,51.0,1.1447039788247837,3.3530571992110487,0.6085192697768768,1921470.0,9208.0,0.0,1.0,0.0,?,0.0,0.0
9900000.0,16.09375,1.2866699964635903E-7,9900000.0,51.6,-1.616201485612066,3.9682539682539715,-5.446623093681922,1941080.0,9208.0,0.0,1.0,0.0,?,0.0,0.0
1.0E7,16.25,1.2990132543361851E-7,1.0E7,52.800000000000004,1.3514021894972628,7.269155206286844,1.0482180293501058,1960690.0,9208.0,0.0,1.0,0.0,?,0.0,0.0
