learning evaluation instances,evaluation time (cpu seconds),model cost (RAM-Hours),classified instances,classifications correct (percent),Kappa Statistic (percent),Kappa Temporal Statistic (percent),Kappa M Statistic (percent),model training instances,model serialized size (bytes),labeling cost,newThreshold,maxPosterior,accuracyBaseLearner (percent),Change detected,Warning detected
100000.0,0.234375,6.100162863731384E-9,100000.0,87.5,73.97373220844334,74.06639004149378,69.28746928746929,19800.0,1112.0,0.0,1.0,0.0,?,0.0,3.0
200000.0,0.46875,1.1618249118328094E-8,200000.0,88.6,76.81418808981452,76.15062761506276,74.55357142857143,39800.0,1112.0,0.0,1.0,0.0,?,0.0,0.0
300000.0,0.71875,1.68833260734876E-8,300000.0,86.5,71.83744993324433,73.21428571428571,67.85714285714286,59800.0,1112.0,0.0,1.0,0.0,?,0.0,0.0
400000.0,0.96875,2.1535282333691916E-8,400000.0,85.6,70.30058285106155,71.76470588235294,66.74364896073904,79800.0,1112.0,0.0,1.0,0.0,?,0.0,9.0
500000.0,1.203125,2.531441471849879E-8,500000.0,87.2,73.33944304430234,73.44398340248962,69.1566265060241,99800.0,1112.0,0.0,1.0,0.0,?,0.0,0.0
600000.0,1.4375,2.8511470494170986E-8,600000.0,86.6,72.26821192052981,72.37113402061856,68.83720930232559,119800.0,1112.0,0.0,1.0,0.0,?,0.0,0.0
700000.0,1.671875,3.112644966070851E-8,700000.0,88.1,74.81268255513694,73.96061269146608,70.10050251256281,139800.0,1112.0,0.0,1.0,0.0,?,0.0,0.0
800000.0,1.90625,3.3159352218111354E-8,800000.0,86.3,71.52974621989841,70.91295116772824,67.84037558685446,159800.0,1112.0,0.0,1.0,0.0,?,0.0,0.0
900000.0,2.140625,3.4610178166379526E-8,900000.0,87.6,74.08080934763069,75.1004016064257,70.12048192771084,179800.0,1112.0,0.0,1.0,0.0,?,0.0,0.0
1000000.0,2.390625,3.5525461296654404E-8,1000000.0,87.7,74.09697418963542,74.69135802469135,69.55445544554456,199800.0,1112.0,0.0,1.0,0.0,?,0.0,31.0
1100000.0,2.625,4.163872088409132E-8,1100000.0,88.5,76.42978946678035,78.05343511450383,73.6842105263158,219600.0,1112.0,0.0,1.0,0.0,?,0.0,104.0
1200000.0,2.859375,4.7169903862393556E-8,1200000.0,88.5,76.40541649569143,75.32188841201717,73.86363636363636,239600.0,1112.0,0.0,1.0,0.0,?,0.0,2.0
1300000.0,3.109375,5.2448950656172296E-8,1300000.0,89.1,77.45325169617739,77.70961145194273,74.70997679814386,259600.0,1112.0,0.0,1.0,0.0,?,0.0,0.0
1400000.0,3.34375,5.681598041620519E-8,1400000.0,87.0,73.29498767460969,72.80334728033473,70.45454545454545,279600.0,1112.0,0.0,1.0,0.0,?,0.0,0.0
1500000.0,3.578125,6.06009335671034E-8,1500000.0,87.6,74.01073105298457,74.3801652892562,69.90291262135922,299600.0,1112.0,0.0,1.0,0.0,?,0.0,0.0
1600000.0,3.796875,6.35902850060827E-8,1600000.0,87.9,74.52610127243176,75.05154639175258,70.19704433497537,319600.0,1112.0,0.0,1.0,0.0,?,0.0,0.0
1700000.0,4.03125,6.62038089810974E-8,1700000.0,86.9,73.23340471092077,74.21259842519686,70.95343680709534,339600.0,1112.0,0.0,1.0,0.0,?,0.0,13.0
1800000.0,4.28125,6.837068617136941E-8,1800000.0,86.8,72.44396940445571,71.67381974248926,67.64705882352942,359600.0,1112.0,0.0,1.0,0.0,?,0.0,0.0
1900000.0,4.515625,6.982005692811476E-8,1900000.0,87.4,73.80892990770766,73.85892116182573,69.56521739130434,379600.0,1112.0,0.0,1.0,0.0,?,0.0,0.0
2000000.0,4.734375,7.062953146588471E-8,2000000.0,86.2,70.28935583878746,68.63636363636363,63.68421052631579,399600.0,1112.0,0.0,1.0,0.0,?,0.0,0.0
2100000.0,4.96875,7.674133586179879E-8,2100000.0,88.3,76.01102262755165,77.41312741312741,73.2876712328767,419400.0,1112.0,0.0,1.0,0.0,?,0.0,0.0
2200000.0,5.21875,8.263971216769682E-8,2200000.0,87.6,73.62274570199659,73.2181425485961,69.07730673316709,439400.0,1112.0,0.0,1.0,0.0,?,0.0,0.0
2300000.0,5.453125,8.758736334534155E-8,2300000.0,85.2,69.4527921799148,68.24034334763948,65.74074074074075,459400.0,1112.0,0.0,1.0,0.0,?,0.0,0.0
2400000.0,5.703125,9.224397621841894E-8,2400000.0,87.1,72.51927911039154,73.23651452282157,66.92307692307692,479400.0,1112.0,0.0,1.0,0.0,?,0.0,0.0
2500000.0,5.9375,9.602747417779432E-8,2500000.0,86.2,70.74895395715781,72.23340040241449,65.23929471032746,499400.0,1112.0,0.0,1.0,0.0,?,0.0,0.0
2600000.0,6.171875,9.922889552803503E-8,2600000.0,87.5,74.658806166222,74.9498997995992,73.17596566523605,519400.0,1112.0,0.0,1.0,0.0,?,0.0,0.0
2700000.0,6.390625,1.0167361728640066E-7,2700000.0,89.3,77.85596026490067,79.69639468690703,74.52380952380952,539400.0,1112.0,0.0,1.0,0.0,?,0.0,0.0
2800000.0,6.625,1.0371088541837202E-7,2800000.0,88.1,74.23952479499857,74.35344827586206,68.18181818181819,559400.0,1112.0,0.0,1.0,0.0,?,0.0,0.0
2900000.0,6.859375,1.051660769412087E-7,2900000.0,86.8,72.40860349909075,72.44258872651356,68.19277108433735,579400.0,1112.0,0.0,1.0,0.0,?,0.0,0.0
3000000.0,7.109375,1.0609739951582418E-7,3000000.0,87.3,73.97818265266815,75.52986512524085,71.26696832579185,599400.0,1112.0,0.0,1.0,0.0,?,0.0,0.0
3100000.0,7.34375,1.122150246778296E-7,3100000.0,87.0,73.15114665256758,72.57383966244726,69.33962264150944,619200.0,1112.0,0.0,1.0,0.0,?,0.0,0.0
3200000.0,7.578125,1.1775057323070035E-7,3200000.0,86.1,71.34587792931708,72.2,67.74941995359629,639200.0,1112.0,0.0,1.0,0.0,?,0.0,0.0
3300000.0,7.8125,1.2270404517443642E-7,3300000.0,86.8,72.40387349266612,73.22515212981745,68.11594202898551,659200.0,1112.0,0.0,1.0,0.0,?,0.0,0.0
3400000.0,8.0625,1.273668668646779E-7,3400000.0,88.1,75.08855078167522,76.29482071713147,71.80094786729858,679200.0,1112.0,0.0,1.0,0.0,?,0.0,0.0
3500000.0,8.296875,1.3115618559014463E-7,3500000.0,86.2,70.88423317931515,70.06507592190889,65.92592592592592,699200.0,1112.0,0.0,1.0,0.0,?,0.0,0.0
3600000.0,8.53125,1.3436342770647668E-7,3600000.0,86.4,71.98036977670826,72.41379310344827,68.29836829836829,719200.0,1112.0,0.0,1.0,0.0,?,0.0,0.0
3700000.0,8.765625,1.3698859321367406E-7,3700000.0,87.2,72.64957264957265,73.44398340248962,68.0,739200.0,1112.0,0.0,1.0,0.0,?,0.0,0.0
3800000.0,8.984375,1.3889547618519926E-7,3800000.0,88.7,76.75337178970236,77.35470941883767,74.25968109339408,759200.0,1112.0,0.0,1.0,0.0,?,0.0,0.0
3900000.0,9.234375,1.4045388929338917E-7,3900000.0,88.3,75.6495533670216,76.73956262425448,72.00956937799043,779200.0,1112.0,0.0,1.0,0.0,?,0.0,0.0
4000000.0,9.46875,1.4133282497318253E-7,4000000.0,86.8,72.74067710505992,72.78350515463917,69.23076923076923,799200.0,1112.0,0.0,1.0,0.0,?,0.0,0.0
4100000.0,9.703125,1.474562709012793E-7,4100000.0,85.7,70.54752764001252,70.63655030800821,66.97459584295612,819000.0,1112.0,0.0,1.0,0.0,?,0.0,0.0
4200000.0,9.9375,1.5299764022024137E-7,4200000.0,86.3,71.6132775268327,71.98364008179959,67.45843230403801,839000.0,1112.0,0.0,1.0,0.0,?,0.0,0.0
4300000.0,10.1875,1.582875524440573E-7,4300000.0,85.6,70.12931517306328,71.0261569416499,65.13317191283294,859000.0,1112.0,0.0,1.0,0.0,?,0.0,0.0
4400000.0,10.421875,1.6266476854475004E-7,4400000.0,86.7,72.39495554134945,73.07692307692307,68.18181818181819,879000.0,1112.0,0.0,1.0,0.0,?,0.0,0.0
4500000.0,10.640625,1.6620689873687091E-7,4500000.0,87.3,73.73471650038881,73.7603305785124,70.3962703962704,899000.0,1112.0,0.0,1.0,0.0,?,0.0,0.0
4600000.0,10.875,1.694199616192943E-7,4600000.0,86.6,72.45394258086002,73.25349301397206,69.4760820045558,919000.0,1112.0,0.0,1.0,0.0,?,0.0,0.0
4700000.0,11.109375,1.7205094789258302E-7,4700000.0,87.6,74.02564757831058,75.73385518590999,69.82968369829685,939000.0,1112.0,0.0,1.0,0.0,?,0.0,0.0
4800000.0,11.34375,1.7409985755673706E-7,4800000.0,88.3,75.72976650790754,76.41129032258065,71.94244604316548,959000.0,1112.0,0.0,1.0,0.0,?,0.0,0.0
4900000.0,11.5625,1.7546890174142181E-7,4900000.0,88.9,77.16707121405358,78.61271676300578,74.18604651162791,979000.0,1112.0,0.0,1.0,0.0,?,0.0,0.0
5000000.0,11.796875,1.763992541883554E-7,5000000.0,88.3,75.80745213183904,75.5741127348643,72.27488151658768,999000.0,1112.0,0.0,1.0,0.0,?,0.0,0.0
5100000.0,12.046875,1.8299353541806331E-7,5100000.0,87.8,68.15885079550674,70.09803921568628,56.73758865248227,17613.0,1112.0,0.0,1.0,0.0,?,1.0,12.0
5200000.0,12.28125,1.8859359746177983E-7,5200000.0,89.2,72.61871561493803,74.40758293838863,63.139931740614344,37613.0,1112.0,0.0,1.0,0.0,?,0.0,0.0
5300000.0,12.5,1.9327705053405622E-7,5300000.0,87.4,68.18181818181819,70.62937062937064,58.00000000000001,57613.0,1112.0,0.0,1.0,0.0,?,0.0,0.0
5400000.0,12.71875,1.9741723210447357E-7,5400000.0,84.6,60.21802588411562,63.33333333333333,46.34146341463414,77613.0,1112.0,0.0,1.0,0.0,?,0.0,0.0
5500000.0,12.96875,2.0152798646854022E-7,5500000.0,87.6,68.57019745013055,70.61611374407583,58.803986710963464,97613.0,1112.0,0.0,1.0,0.0,?,0.0,0.0
5600000.0,13.21875,2.0501785911619657E-7,5600000.0,86.1,63.89872944305349,67.74941995359629,53.51170568561873,117613.0,1112.0,0.0,1.0,0.0,?,0.0,0.0
5700000.0,13.453125,2.0770753811423972E-7,5700000.0,87.7,67.96975094528295,68.38046272493573,56.993006993007,137613.0,1112.0,0.0,1.0,0.0,?,0.0,0.0
5800000.0,13.703125,2.0995564732907542E-7,5800000.0,87.2,66.34183026816093,66.83937823834198,55.400696864111495,157613.0,1112.0,0.0,1.0,0.0,?,0.0,0.0
5900000.0,13.9375,2.1148117310884922E-7,5900000.0,86.9,65.76810109646601,68.35748792270532,54.67128027681662,177613.0,1112.0,0.0,1.0,0.0,?,0.0,0.0
6000000.0,14.15625,2.123617256681124E-7,6000000.0,87.4,65.69094622191967,67.35751295336787,54.18181818181819,197613.0,1112.0,0.0,1.0,0.0,?,0.0,0.0
6100000.0,14.390625,2.1854968508705493E-7,6100000.0,86.4,66.92478306548891,70.4989154013015,57.23270440251571,217413.0,1112.0,0.0,1.0,0.0,?,0.0,0.0
6200000.0,14.625,2.241555678968628E-7,6200000.0,88.8,70.82117548978741,72.6829268292683,60.00000000000001,237413.0,1112.0,0.0,1.0,0.0,?,0.0,0.0
6300000.0,14.875,2.295142945109142E-7,6300000.0,90.10000000000001,74.4444903353709,76.42857142857143,66.21160409556315,257413.0,1112.0,0.0,1.0,0.0,?,0.0,0.0
6400000.0,15.125,2.3425213940855525E-7,6400000.0,87.6,69.57965958657778,69.75609756097562,60.383386581469644,277413.0,1112.0,0.0,1.0,0.0,?,0.0,0.0
6500000.0,15.359375,2.381117923909591E-7,6500000.0,87.9,68.61382029466694,69.67418546365916,57.3943661971831,297413.0,1112.0,0.0,1.0,0.0,?,0.0,0.0
6600000.0,15.609375,2.4160787385577953E-7,6600000.0,87.8,68.29439434496737,70.88305489260144,58.64406779661018,317413.0,1112.0,0.0,1.0,0.0,?,0.0,0.0
6700000.0,15.84375,2.44303373619914E-7,6700000.0,86.6,65.82818205928555,67.6328502415459,56.209150326797385,337413.0,1112.0,0.0,1.0,0.0,?,0.0,0.0
6800000.0,16.078125,2.4641679677491384E-7,6800000.0,87.3,67.07490329873174,68.40796019900498,55.59440559440559,357413.0,1112.0,0.0,1.0,0.0,?,0.0,0.0
6900000.0,16.296875,2.478460535510546E-7,6900000.0,87.0,66.96063232266755,69.62616822429906,56.52173913043479,377413.0,1112.0,0.0,1.0,0.0,?,0.0,0.0
7000000.0,16.546875,2.488586081502338E-7,7000000.0,87.1,64.24215544960639,65.13513513513513,51.13636363636363,397413.0,1112.0,0.0,1.0,0.0,?,0.0,0.0
7100000.0,16.78125,2.550523883352677E-7,7100000.0,88.6,71.4504665594807,72.98578199052133,62.12624584717609,417213.0,1112.0,0.0,1.0,0.0,?,0.0,0.0
7200000.0,17.015625,2.606640919111669E-7,7200000.0,88.3,68.53316120703565,70.96774193548387,58.06451612903226,437213.0,1112.0,0.0,1.0,0.0,?,0.0,0.0
7300000.0,17.25,2.6569371887793147E-7,7300000.0,86.4,66.16578764056126,67.61904761904762,56.12903225806451,457213.0,1112.0,0.0,1.0,0.0,?,0.0,0.0
7400000.0,17.5,2.7043777259273666E-7,7400000.0,87.3,66.32407377944654,65.67567567567568,54.48028673835126,477213.0,1112.0,0.0,1.0,0.0,?,0.0,0.0
7500000.0,17.75,2.745609445911315E-7,7500000.0,87.4,66.99030143618387,70.0,56.70103092783506,497213.0,1112.0,0.0,1.0,0.0,?,0.0,0.0
7600000.0,17.984375,2.7784434173049204E-7,7600000.0,86.3,66.63256856154706,67.68867924528303,58.48484848484847,517213.0,1112.0,0.0,1.0,0.0,?,0.0,0.0
7700000.0,18.21875,2.805456622607179E-7,7700000.0,88.8,71.7741935483871,74.6606334841629,62.66666666666667,537213.0,1112.0,0.0,1.0,0.0,?,0.0,0.0
7800000.0,18.453125,2.826649061818091E-7,7800000.0,88.0,66.82590233545648,69.6969696969697,55.223880597014926,557213.0,1112.0,0.0,1.0,0.0,?,0.0,0.0
7900000.0,18.703125,2.843045513145627E-7,7900000.0,86.8,65.89482169709434,67.64705882352942,55.85284280936455,577213.0,1112.0,0.0,1.0,0.0,?,0.0,0.0
8000000.0,18.96875,2.853869874444274E-7,8000000.0,86.7,66.3219520100477,69.28406466512702,57.234726688102896,597213.0,1112.0,0.0,1.0,0.0,?,0.0,0.0
8100000.0,19.203125,2.915865883955526E-7,8100000.0,87.4,68.88888888888889,69.19315403422983,59.35483870967742,617013.0,1112.0,0.0,1.0,0.0,?,0.0,0.0
8200000.0,19.453125,2.9757861436034253E-7,8200000.0,85.6,64.35855295725005,66.35514018691589,54.14012738853502,637013.0,1112.0,0.0,1.0,0.0,?,0.0,0.0
8300000.0,19.703125,3.0294975860872215E-7,8300000.0,86.6,64.9669539027859,66.41604010025063,52.81690140845071,657013.0,1112.0,0.0,1.0,0.0,?,0.0,0.0
8400000.0,19.9375,3.0740312973244335E-7,8400000.0,87.9,67.18519482773584,70.9832134292566,56.15942028985508,677013.0,1112.0,0.0,1.0,0.0,?,0.0,0.0
8500000.0,20.1875,3.115325105480023E-7,8500000.0,86.5,63.80580608491425,64.75195822454309,50.72992700729927,697013.0,1112.0,0.0,1.0,0.0,?,0.0,0.0
8600000.0,20.40625,3.146024472597574E-7,8600000.0,86.2,64.86761710794298,68.4931506849315,54.0,717013.0,1112.0,0.0,1.0,0.0,?,0.0,0.0
8700000.0,20.65625,3.174900646424957E-7,8700000.0,87.8,67.95545282622399,69.5,57.931034482758626,737013.0,1112.0,0.0,1.0,0.0,?,0.0,0.0
8800000.0,20.875,3.194734583505327E-7,8800000.0,86.7,66.5792198132457,69.06976744186046,56.53594771241831,757013.0,1112.0,0.0,1.0,0.0,?,0.0,0.0
8900000.0,21.109375,3.2101644642858054E-7,8900000.0,87.7,68.94880339291124,70.14563106796116,59.539473684210535,777013.0,1112.0,0.0,1.0,0.0,?,0.0,0.0
9000000.0,21.34375,3.219773578974937E-7,9000000.0,86.8,66.71508109416607,70.27027027027026,55.70469798657719,797013.0,1112.0,0.0,1.0,0.0,?,0.0,0.0
9100000.0,21.578125,3.2818277961471027E-7,9100000.0,86.1,64.43375466966891,66.50602409638554,52.721088435374156,816813.0,1112.0,0.0,1.0,0.0,?,0.0,0.0
9200000.0,21.828125,3.341810143966643E-7,9200000.0,86.9,67.17285621209844,67.25,55.442176870748305,836813.0,1112.0,0.0,1.0,0.0,?,0.0,0.0
9300000.0,22.078125,3.39558367462208E-7,9300000.0,85.5,63.530453329040824,65.39379474940334,51.01351351351352,856813.0,1112.0,0.0,1.0,0.0,?,0.0,0.0
9400000.0,22.3125,3.4401755935202056E-7,9400000.0,88.4,71.29906375566597,71.84466019417476,61.58940397350994,876813.0,1112.0,0.0,1.0,0.0,?,0.0,0.0
9500000.0,22.546875,3.4789467463269845E-7,9500000.0,86.7,66.05064325096997,66.66666666666666,54.91525423728814,896813.0,1112.0,0.0,1.0,0.0,?,0.0,0.0
9600000.0,22.78125,3.5118971330424166E-7,9600000.0,86.9,66.92921336968595,69.53488372093022,56.90789473684211,916813.0,1112.0,0.0,1.0,0.0,?,0.0,0.0
9700000.0,23.03125,3.540835395041441E-7,9700000.0,87.9,68.75516443563046,71.86046511627907,58.56164383561645,936813.0,1112.0,0.0,1.0,0.0,?,0.0,0.0
9800000.0,23.25,3.560723659271997E-7,9800000.0,88.3,69.77993594379586,70.8955223880597,58.65724381625442,956813.0,1112.0,0.0,1.0,0.0,?,0.0,0.0
9900000.0,23.484375,3.5762117477133887E-7,9900000.0,89.2,72.14843850736261,75.17241379310346,62.10526315789474,976813.0,1112.0,0.0,1.0,0.0,?,0.0,0.0
1.0E7,23.71875,3.585879070063434E-7,1.0E7,88.2,69.4013556755299,70.8641975308642,59.169550173010386,996813.0,1112.0,0.0,1.0,0.0,?,0.0,0.0
