learning evaluation instances,evaluation time (cpu seconds),model cost (RAM-Hours),classified instances,classifications correct (percent),Kappa Statistic (percent),Kappa Temporal Statistic (percent),Kappa M Statistic (percent),model training instances,model serialized size (bytes),labeling cost,newThreshold,maxPosterior,accuracyBaseLearner (percent),Change detected,Warning detected
100000.0,0.125,6.299362414413029E-10,100000.0,56.39999999999999,12.738567951838082,9.917355371900813,11.919191919191906,19968.0,5144.0,19968.0,1.0,0.0,0.0,0.0,0.0
200000.0,0.25,1.2598724828826057E-9,200000.0,57.49999999999999,13.498331026622148,9.57446808510637,11.45833333333332,39876.0,5144.0,39876.0,1.0,0.0,0.0,0.0,0.0
300000.0,0.390625,1.9685507545040712E-9,300000.0,55.50000000000001,10.740075098687385,12.055335968379458,9.183673469387763,59806.0,5144.0,59806.0,1.0,0.0,0.0,0.0,0.0
400000.0,0.53125,2.6772290261255368E-9,400000.0,57.599999999999994,14.459907116370823,15.199999999999992,11.482254697286,79806.0,5144.0,79806.0,1.0,0.0,0.0,0.0,0.0
500000.0,0.65625,3.3071652675668396E-9,500000.0,56.99999999999999,12.87080564110875,12.955465587044523,8.510638297872324,99682.0,5144.0,99682.0,1.0,0.0,0.0,0.0,0.0
600000.0,0.78125,3.9371015090081425E-9,600000.0,54.300000000000004,8.243986668272898,11.089494163424133,6.7346938775510266,119750.0,5144.0,119750.0,1.0,0.0,0.0,0.0,0.0
700000.0,0.921875,4.645779780629608E-9,700000.0,55.60000000000001,10.196717730484991,10.843373493975914,7.306889352818378,139626.0,5144.0,139626.0,1.0,0.0,0.0,0.0,0.0
800000.0,1.046875,5.275716022070911E-9,800000.0,54.50000000000001,9.287377587801856,13.001912045889114,9.000000000000007,159647.0,5144.0,159647.0,1.0,0.0,0.0,0.0,0.0
900000.0,1.1875,5.984394293692376E-9,900000.0,59.699999999999996,18.367512295513652,18.913480885311866,14.799154334038045,179718.0,5144.0,179718.0,1.0,0.0,0.0,0.0,0.0
1000000.0,1.3125,6.614330535133679E-9,1000000.0,55.50000000000001,9.666680199748285,10.101010101010111,2.1978021978022,199911.0,5144.0,199911.0,1.0,0.0,0.0,0.0,0.0
1100000.0,1.4375,7.244266776574982E-9,1100000.0,54.2,7.489324914457934,1.7167381974248945,3.983228511530402,219843.0,5144.0,219843.0,1.0,0.0,0.0,0.0,0.0
1200000.0,1.5625,7.874203018016285E-9,1200000.0,57.8,14.599447122487044,15.59999999999999,10.403397027600835,239740.0,5144.0,239740.0,1.0,0.0,0.0,0.0,0.0
1300000.0,1.6875,8.504139259457588E-9,1300000.0,57.4,13.776352861167766,18.546845124282978,9.745762711864392,259656.0,5144.0,259656.0,1.0,0.0,0.0,0.0,0.0
1400000.0,1.828125,9.212817531079054E-9,1400000.0,55.300000000000004,10.944821650569015,10.600000000000009,12.180746561886062,279837.0,5144.0,279837.0,1.0,0.0,0.0,0.0,0.0
1500000.0,1.953125,9.842753772520357E-9,1500000.0,55.900000000000006,10.739586285066592,15.839694656488563,6.170212765957453,299790.0,5144.0,299790.0,1.0,0.0,0.0,0.0,0.0
1600000.0,2.078125,1.047269001396166E-8,1600000.0,55.00000000000001,9.098254686489996,10.536779324055676,6.054279749478085,319560.0,5144.0,319560.0,1.0,0.0,0.0,0.0,0.0
1700000.0,2.21875,1.1181368285583126E-8,1700000.0,54.900000000000006,9.545279507091987,6.818181818181825,9.072580645161299,339484.0,5144.0,339484.0,1.0,0.0,0.0,0.0,0.0
1800000.0,2.34375,1.1811304527024429E-8,1800000.0,54.7,10.418364037620345,11.523437500000009,8.299595141700413,359564.0,5144.0,359564.0,1.0,0.0,0.0,0.0,0.0
1900000.0,2.46875,1.2441240768465732E-8,1900000.0,56.49999999999999,11.562357686552584,15.697674418604644,7.051282051282034,379667.0,5144.0,379667.0,1.0,0.0,0.0,0.0,0.0
2000000.0,2.609375,1.3149919040087198E-8,2000000.0,56.2,12.692306158979749,11.515151515151526,12.224448897795602,399603.0,5144.0,399603.0,1.0,0.0,0.0,0.0,0.0
2100000.0,2.734375,1.3779855281528501E-8,2100000.0,60.199999999999996,19.985203293875458,16.73640167364016,17.427385892116178,419498.0,5144.0,419498.0,1.0,0.0,0.0,0.0,0.0
2200000.0,2.859375,1.4409791522969804E-8,2200000.0,55.800000000000004,10.73772643738515,12.475247524752486,7.724425887265143,439444.0,5144.0,439444.0,1.0,0.0,0.0,0.0,0.0
2300000.0,3.0,1.511846979459127E-8,2300000.0,55.50000000000001,9.87086216115495,12.745098039215696,5.919661733615227,459746.0,5144.0,459746.0,1.0,0.0,0.0,0.0,0.0
2400000.0,3.125,1.574840603603257E-8,2400000.0,54.50000000000001,8.09937386386589,8.450704225352121,4.612159329140465,479709.0,5144.0,479709.0,1.0,0.0,0.0,0.0,0.0
2500000.0,3.25,1.637834227747387E-8,2500000.0,55.300000000000004,9.561769109375648,6.48535564853557,3.8709677419354875,499835.0,5144.0,499835.0,1.0,0.0,0.0,0.0,0.0
2600000.0,3.390625,1.7087020549095338E-8,2600000.0,57.8,13.948850544242926,17.898832684824896,8.459869848156167,519957.0,5144.0,519957.0,1.0,0.0,0.0,0.0,0.0
2700000.0,3.515625,1.7716956790536642E-8,2700000.0,57.9,15.043547749158497,12.108559498956147,12.108559498956147,539911.0,5144.0,539911.0,1.0,0.0,0.0,0.0,0.0
2800000.0,3.65625,1.842563506215811E-8,2800000.0,55.800000000000004,11.512220122361382,13.333333333333345,11.60000000000001,559947.0,5144.0,559947.0,1.0,0.0,0.0,0.0,0.0
2900000.0,3.78125,1.9055571303599413E-8,2900000.0,56.2,11.511218680426218,9.690721649484544,7.399577167019035,579897.0,5144.0,579897.0,1.0,0.0,0.0,0.0,0.0
3000000.0,3.90625,1.9685507545040714E-8,3000000.0,55.50000000000001,10.478627526715597,12.055335968379458,8.057851239669429,599997.0,5144.0,599997.0,1.0,0.0,0.0,0.0,0.0
3100000.0,4.046875,2.039418581666218E-8,3100000.0,55.300000000000004,10.242405744486042,10.420841683366742,8.401639344262303,619914.0,5144.0,619914.0,1.0,0.0,0.0,0.0,0.0
3200000.0,4.171875,2.1024122058103485E-8,3200000.0,57.3,13.053747851796334,12.857142857142845,12.320328542094444,639980.0,5144.0,639980.0,1.0,0.0,0.0,0.0,0.0
3300000.0,4.296875,2.1654058299544786E-8,3300000.0,58.3,16.144496907199894,18.554687499999993,14.197530864197521,659985.0,5144.0,659985.0,1.0,0.0,0.0,0.0,0.0
3400000.0,4.4375,2.2476823586556648E-8,3400000.0,54.400000000000006,8.731365987222391,10.412573673870343,8.617234468937882,679732.0,5144.0,679732.0,1.0,0.0,0.0,0.0,32.0
3500000.0,4.5625,2.320817050834497E-8,3500000.0,56.99999999999999,13.67957859574741,13.480885311871216,12.065439672801624,699529.0,5144.0,699529.0,1.0,0.0,0.0,0.0,44.0
3600000.0,4.703125,2.3996011198808753E-8,3600000.0,59.4,17.85367432826157,10.964912280701741,12.311015118790484,719393.0,5144.0,719393.0,1.0,0.0,0.0,0.0,4.0
3700000.0,4.828125,2.4696314034776558E-8,3700000.0,54.2,7.949319870083937,7.474747474747481,6.147540983606563,739655.0,5144.0,739655.0,1.0,0.0,0.0,0.0,0.0
3800000.0,4.96875,2.548415472524034E-8,3800000.0,56.699999999999996,13.020770559640027,13.39999999999999,11.632653061224477,759596.0,5144.0,759596.0,1.0,0.0,0.0,0.0,0.0
3900000.0,5.078125,2.609691970671217E-8,3900000.0,56.00000000000001,11.40356882533215,12.871287128712883,6.581740976645442,779558.0,5144.0,779558.0,1.0,0.0,0.0,0.0,0.0
4000000.0,5.21875,2.6884760397175954E-8,4000000.0,57.8,14.164836058904875,16.43564356435643,6.843267108167753,799506.0,5144.0,799506.0,1.0,0.0,0.0,0.0,0.0
4100000.0,5.34375,2.758506323314376E-8,4100000.0,55.7,10.558534694404964,9.959349593495944,7.51565762004176,819382.0,5144.0,819382.0,1.0,0.0,0.0,0.0,0.0
4200000.0,5.46875,2.8285366069111565E-8,4200000.0,58.199999999999996,15.706432526830763,17.063492063492056,15.725806451612895,839480.0,5144.0,839480.0,1.0,0.0,0.0,0.0,0.0
4300000.0,5.609375,2.9073206759575347E-8,4300000.0,55.300000000000004,8.760613977792305,10.600000000000009,1.1061946902654878,859382.0,5144.0,859382.0,1.0,0.0,0.0,0.0,0.0
4400000.0,5.734375,2.9773509595543152E-8,4400000.0,54.7,8.270627971586169,7.17213114754099,4.228329809725163,879284.0,5144.0,879284.0,1.0,0.0,0.0,0.0,0.0
4500000.0,5.859375,3.047381243151096E-8,4500000.0,59.099999999999994,17.56026767717487,18.199999999999996,14.791666666666659,899416.0,5144.0,899416.0,1.0,0.0,0.0,0.0,0.0
4600000.0,6.0,3.126165312197474E-8,4600000.0,56.3,13.2330516551242,13.121272365805158,15.47388781431334,919461.0,5144.0,919461.0,1.0,0.0,0.0,0.0,0.0
4700000.0,6.125,3.196195595794255E-8,4700000.0,55.900000000000006,11.500517752073021,14.70019342359769,10.183299389002046,939496.0,5144.0,939496.0,1.0,0.0,0.0,0.0,0.0
4800000.0,6.265625,3.274979664840633E-8,4800000.0,56.49999999999999,12.020969346892203,8.995815899581574,6.047516198704086,959513.0,5144.0,959513.0,1.0,0.0,0.0,0.0,0.0
4900000.0,6.390625,3.345009948437414E-8,4900000.0,55.400000000000006,10.884481511527078,11.155378486055787,11.155378486055787,979240.0,5144.0,979240.0,1.0,0.0,0.0,0.0,0.0
5000000.0,6.515625,3.4150402320341945E-8,5000000.0,55.300000000000004,10.189024978300722,8.401639344262303,8.588957055214731,999443.0,5144.0,999443.0,1.0,0.0,0.0,0.0,0.0
5100000.0,6.65625,3.495366804094779E-8,5100000.0,62.9,27.46823069403714,20.8955223880597,17.55555555555555,15613.0,5144.0,1019499.0,1.0,0.0,0.0,1.0,51.0
5200000.0,6.78125,3.5685014962736115E-8,5200000.0,62.9,27.46369274324102,24.59349593495935,15.489749430523908,35458.0,5144.0,1039344.0,1.0,0.0,0.0,0.0,108.0
5300000.0,6.921875,3.6507780249747977E-8,5300000.0,63.3,27.80706585884018,23.060796645702304,19.517543859649116,55350.0,5144.0,1059236.0,1.0,0.0,0.0,0.0,0.0
5400000.0,7.0625,3.733054553675984E-8,5400000.0,63.0,28.49771772444954,22.916666666666664,13.752913752913765,75311.0,5144.0,1079197.0,1.0,0.0,0.0,0.0,0.0
5500000.0,7.203125,3.81533108237717E-8,5500000.0,62.9,26.691432184634838,21.063829787234038,20.726495726495724,95382.0,5144.0,1099268.0,1.0,0.0,0.0,0.0,0.0
5600000.0,7.34375,3.897607611078356E-8,5600000.0,64.3,29.821112640062907,27.732793522267208,20.666666666666664,115052.0,5144.0,1118938.0,1.0,0.0,0.0,0.0,0.0
5700000.0,7.484375,3.979884139779542E-8,5700000.0,62.4,26.817780165282816,22.47422680412371,14.350797266514794,135050.0,5144.0,1138936.0,1.0,0.0,0.0,0.0,0.0
5800000.0,7.625,4.062160668480728E-8,5800000.0,63.0,27.970721071484196,21.610169491525422,15.909090909090901,155111.0,5144.0,1158997.0,1.0,0.0,0.0,0.0,0.0
5900000.0,7.765625,4.1444371971819144E-8,5900000.0,62.7,27.27286907556602,24.493927125506072,15.61085972850678,175115.0,5144.0,1179001.0,1.0,0.0,0.0,0.0,0.0
6000000.0,7.90625,4.2267137258831006E-8,6000000.0,64.0,29.419791474695035,27.710843373493976,20.529801324503307,195275.0,5144.0,1199161.0,1.0,0.0,0.0,0.0,0.0
6100000.0,8.03125,4.2970285802665694E-8,6100000.0,62.8,26.863793645800577,25.450901803607213,17.699115044247783,215322.0,5144.0,1219208.0,1.0,0.0,0.0,0.0,21.0
6200000.0,8.171875,4.376132791447972E-8,6200000.0,61.7,24.185438853477972,21.030927835051543,17.27861771058315,235253.0,5144.0,1239139.0,1.0,0.0,0.0,0.0,0.0
6300000.0,8.296875,4.446447645831441E-8,6300000.0,61.3,23.929708692062736,24.708171206225682,16.233766233766225,255406.0,5144.0,1259292.0,1.0,0.0,0.0,0.0,0.0
6400000.0,8.40625,4.507973143416976E-8,6400000.0,64.5,30.419443355546843,28.714859437751006,19.318181818181813,275563.0,5144.0,1279449.0,1.0,0.0,0.0,0.0,0.0
6500000.0,8.546875,4.5870773545983784E-8,6500000.0,64.0,29.639126899743573,26.53061224489796,18.918918918918912,295374.0,5144.0,1299260.0,1.0,0.0,0.0,0.0,0.0
6600000.0,8.671875,4.657392208981847E-8,6600000.0,61.8,26.049535196162328,13.963963963963952,6.601466992665042,315470.0,5144.0,1319356.0,1.0,0.0,0.0,0.0,0.0
6700000.0,8.8125,4.7364964201632497E-8,6700000.0,65.9,33.066384014446676,26.030368763557483,23.37078651685393,335303.0,5144.0,1339189.0,1.0,0.0,0.0,0.0,0.0
6800000.0,8.9375,4.8068112745467185E-8,6800000.0,61.8,25.870152451330462,21.88139059304703,11.981566820276507,355368.0,5144.0,1359254.0,1.0,0.0,0.0,0.0,0.0
6900000.0,9.0625,4.8771261289301874E-8,6900000.0,63.2,28.08707716960116,23.01255230125523,14.617169373549896,375427.0,5144.0,1379313.0,1.0,0.0,0.0,0.0,0.0
7000000.0,9.203125,4.95623034011159E-8,7000000.0,62.9,27.428504362114147,25.8,16.62921348314606,395655.0,5144.0,1399541.0,1.0,0.0,0.0,0.0,0.0
7100000.0,9.3125,5.017755837697125E-8,7100000.0,64.0,29.26974945773475,31.034482758620697,16.66666666666668,415490.0,5144.0,1419376.0,1.0,0.0,0.0,0.0,0.0
7200000.0,9.4375,5.088070692080594E-8,7200000.0,63.4,28.45274166748118,26.506024096385545,17.752808988764038,435419.0,5144.0,1439305.0,1.0,0.0,0.0,0.0,0.0
7300000.0,9.5625,5.158385546464063E-8,7300000.0,62.8,26.521421375945632,24.696356275303643,20.34261241970021,455298.0,5144.0,1459184.0,1.0,0.0,0.0,0.0,0.0
7400000.0,9.6875,5.228700400847532E-8,7400000.0,61.9,25.768616295834473,23.18548387096774,12.413793103448285,475185.0,5144.0,1479071.0,1.0,0.0,0.0,0.0,0.0
7500000.0,9.828125,5.307804612028934E-8,7500000.0,61.3,23.863859925241005,19.20668058455114,13.99999999999999,495152.0,5144.0,1499038.0,1.0,0.0,0.0,0.0,0.0
7600000.0,9.953125,5.378119466412403E-8,7600000.0,63.0,27.779794738465256,23.868312757201647,15.71753986332573,515213.0,5144.0,1519099.0,1.0,0.0,0.0,0.0,0.0
7700000.0,10.078125,5.448434320795872E-8,7700000.0,64.0,29.70864232242645,25.311203319502074,18.3673469387755,535307.0,5144.0,1539193.0,1.0,0.0,0.0,0.0,0.0
7800000.0,10.21875,5.527538531977274E-8,7800000.0,64.3,30.388731164009624,26.08695652173913,16.393442622950833,555370.0,5144.0,1559256.0,1.0,0.0,0.0,0.0,0.0
7900000.0,10.34375,5.597853386360743E-8,7900000.0,65.10000000000001,31.09085739558981,32.36434108527133,25.427350427350426,575446.0,5144.0,1579332.0,1.0,0.0,0.0,0.0,0.0
8000000.0,10.46875,5.668168240744212E-8,8000000.0,64.1,29.49448132291136,22.4622030237581,20.044543429844094,595607.0,5144.0,1599493.0,1.0,0.0,0.0,0.0,0.0
8100000.0,10.609375,5.7472724519256144E-8,8100000.0,62.7,26.74841517348646,27.1484375,19.088937093275483,615807.0,5144.0,1619693.0,1.0,0.0,0.0,0.0,0.0
8200000.0,10.734375,5.817587306309083E-8,8200000.0,64.5,30.551751660889092,28.714859437751006,19.86455981941309,635830.0,5144.0,1639716.0,1.0,0.0,0.0,0.0,0.0
8300000.0,10.875,5.8966915174904856E-8,8300000.0,64.3,30.850404437970695,28.6,16.588785046728987,655837.0,5144.0,1659723.0,1.0,0.0,0.0,0.0,0.0
8400000.0,11.0,5.967006371873954E-8,8400000.0,62.9,27.540760763419613,23.975409836065573,12.293144208037834,675626.0,5144.0,1679512.0,1.0,0.0,0.0,0.0,0.0
8500000.0,11.125,6.037321226257423E-8,8500000.0,63.9,29.34037972205911,29.35420743639922,19.77777777777777,695689.0,5144.0,1699575.0,1.0,0.0,0.0,0.0,0.0
8600000.0,11.25,6.107636080640891E-8,8600000.0,65.10000000000001,31.224480143778283,31.027667984189726,22.616407982261638,715711.0,5144.0,1719597.0,1.0,0.0,0.0,0.0,0.0
8700000.0,11.375,6.177950935024359E-8,8700000.0,66.7,34.42455081801928,33.13253012048193,27.292576419213976,736096.0,5144.0,1739982.0,1.0,0.0,0.0,0.0,0.0
8800000.0,11.515625,6.257055146205761E-8,8800000.0,63.1,27.362776671049836,21.822033898305083,16.51583710407239,756053.0,5144.0,1759939.0,1.0,0.0,0.0,0.0,0.0
8900000.0,11.640625,6.327370000589229E-8,8900000.0,62.8,27.410951579982594,26.627218934911244,14.874141876430217,776042.0,5144.0,1779928.0,1.0,0.0,0.0,0.0,0.0
9000000.0,11.78125,6.406474211770631E-8,9000000.0,63.5,28.10091873236995,26.411290322580644,19.956140350877188,795987.0,5144.0,1799873.0,1.0,0.0,0.0,0.0,0.0
9100000.0,11.921875,6.485578422952032E-8,9100000.0,59.5,20.530892879567993,20.275590551181097,11.378555798687076,816063.0,5144.0,1819949.0,1.0,0.0,0.0,0.0,0.0
9200000.0,12.046875,6.555893277335501E-8,9200000.0,63.9,28.948197134309556,28.230616302186885,21.52173913043478,835961.0,5144.0,1839847.0,1.0,0.0,0.0,0.0,0.0
9300000.0,12.1875,6.634997488516902E-8,9300000.0,61.0,22.454108739223113,20.89249492900608,20.081967213114748,855700.0,5144.0,1859586.0,1.0,0.0,0.0,0.0,0.0
9400000.0,12.3125,6.70531234290037E-8,9400000.0,61.7,25.297444899551387,25.048923679060664,14.888888888888879,875950.0,5144.0,1879836.0,1.0,0.0,0.0,0.0,0.0
9500000.0,12.453125,6.784416554081772E-8,9500000.0,62.0,25.637172020790285,19.83122362869198,12.844036697247715,895799.0,5144.0,1899685.0,1.0,0.0,0.0,0.0,0.0
9600000.0,12.578125,6.85473140846524E-8,9600000.0,63.3,27.676178464449002,25.557809330628807,20.21739130434782,915893.0,5144.0,1919779.0,1.0,0.0,0.0,0.0,0.0
9700000.0,12.703125,6.925046262848709E-8,9700000.0,64.4,30.664568425890952,24.093816631130064,15.035799522673043,935905.0,5144.0,1939791.0,1.0,0.0,0.0,0.0,0.0
9800000.0,12.84375,7.00415047403011E-8,9800000.0,64.8,31.07121596641289,29.74051896207585,20.36199095022624,955780.0,5144.0,1959666.0,1.0,0.0,0.0,0.0,0.0
9900000.0,12.96875,7.074465328413579E-8,9900000.0,64.3,30.076230619168125,27.732793522267208,19.230769230769226,975536.0,5144.0,1979422.0,1.0,0.0,0.0,0.0,0.0
1.0E7,13.109375,7.15356953959498E-8,1.0E7,64.3,30.333851113487526,26.84426229508197,18.67881548974942,995467.0,5144.0,1999353.0,1.0,0.0,0.0,0.0,0.0
