learning evaluation instances,evaluation time (cpu seconds),model cost (RAM-Hours),classified instances,classifications correct (percent),Kappa Statistic (percent),Kappa Temporal Statistic (percent),Kappa M Statistic (percent),model training instances,model serialized size (bytes),labeling cost,newThreshold,maxPosterior,accuracyBaseLearner (percent),Change detected,Warning detected,tree size (nodes),tree size (leaves),active learning leaves,tree depth,active leaf byte size estimate,inactive leaf byte size estimate,byte size estimate overhead
100000.0,0.3125,1.632660213443968E-8,100000.0,70.5,38.73567037713906,37.100213219616194,28.398058252427184,19800.0,151120.0,0.0,1.0,0.0,?,0.0,21.0,51.0,41.0,41.0,3.0,0.0,0.0,1.0
200000.0,0.703125,5.307503872447543E-8,200000.0,74.7,47.516906609135795,45.474137931034484,31.62162162162162,39600.0,310920.0,0.0,1.0,0.0,?,0.0,0.0,124.0,97.0,97.0,4.0,0.0,0.0,1.0
300000.0,1.109375,1.1981678350518146E-7,300000.0,81.8,61.19717378975689,58.73015873015871,52.97157622739017,59400.0,580088.0,0.0,1.0,0.0,?,0.0,0.0,226.0,172.0,172.0,4.0,0.0,0.0,1.0
400000.0,1.46875,1.898251098787619E-7,400000.0,83.2,64.52567876312865,65.36082474226804,55.905511811023615,79200.0,696240.0,0.0,1.0,0.0,?,0.0,0.0,269.0,204.0,204.0,4.0,0.0,0.0,1.0
500000.0,1.84375,2.753181939220263E-7,500000.0,87.7,73.67046554041904,74.26778242677824,67.71653543307087,99000.0,822488.0,0.0,1.0,0.0,?,0.0,0.0,329.0,243.0,243.0,5.0,0.0,0.0,1.0
600000.0,2.234375,3.7106817924521033E-7,600000.0,88.0,74.2600846843214,75.20661157024794,67.65498652291106,118800.0,886896.0,0.0,1.0,0.0,?,0.0,0.0,367.0,265.0,265.0,5.0,0.0,0.0,1.0
700000.0,2.609375,4.7184969945293335E-7,700000.0,87.6,73.31347626405885,73.44753747323341,65.84022038567493,138600.0,976336.0,0.0,1.0,0.0,?,0.0,0.0,408.0,290.0,290.0,5.0,0.0,0.0,1.0
800000.0,2.984375,5.809820787463752E-7,800000.0,90.8,80.78658067965382,80.12958963282938,76.53061224489797,158400.0,1060464.0,0.0,1.0,0.0,?,0.0,0.0,454.0,316.0,316.0,5.0,0.0,0.0,1.0
900000.0,3.34375,6.938543002535073E-7,900000.0,90.60000000000001,79.74836263357463,80.29350104821803,73.88888888888889,178200.0,1147736.0,0.0,1.0,0.0,?,0.0,0.0,493.0,340.0,340.0,6.0,0.0,0.0,1.0
1000000.0,3.71875,8.249107890555429E-7,1000000.0,90.10000000000001,79.43070849781842,78.93617021276597,74.61538461538461,198000.0,1282544.0,0.0,1.0,0.0,?,0.0,0.0,548.0,375.0,375.0,6.0,0.0,0.0,1.0
1100000.0,4.140625,9.84857583211528E-7,1100000.0,89.0,76.72804820255908,76.24190064794817,70.89947089947091,217820.0,1410544.0,0.0,1.0,0.0,?,0.0,0.0,600.0,410.0,410.0,6.0,0.0,0.0,1.0
1200000.0,4.53125,1.152950798213068E-6,1200000.0,91.0,81.13808597679567,80.89171974522293,76.80412371134021,237620.0,1606192.0,0.0,1.0,0.0,?,0.0,0.0,686.0,468.0,468.0,6.0,0.0,0.0,1.0
1300000.0,4.9375,1.3450423527198534E-6,1300000.0,93.0,85.44165848626525,84.9785407725322,82.41206030150755,257420.0,1768552.0,0.0,1.0,0.0,?,0.0,0.0,773.0,528.0,528.0,6.0,0.0,0.0,1.0
1400000.0,5.359375,1.563445063463102E-6,1400000.0,92.30000000000001,84.33303491495077,84.15637860082306,82.05128205128206,277220.0,1939808.0,0.0,1.0,0.0,?,0.0,0.0,838.0,571.0,571.0,6.0,0.0,0.0,1.0
1500000.0,5.765625,1.7894342373539179E-6,1500000.0,94.69999999999999,88.61439312567131,88.91213389121337,85.35911602209943,297020.0,2086776.0,0.0,1.0,0.0,?,0.0,0.0,897.0,605.0,605.0,6.0,0.0,0.0,1.0
1600000.0,6.1875,2.038720768824634E-6,1600000.0,93.60000000000001,86.68951633029967,86.80412371134022,83.91959798994976,316820.0,2218664.0,0.0,1.0,0.0,?,0.0,0.0,943.0,637.0,637.0,6.0,0.0,0.0,1.0
1700000.0,6.609375,2.3031890224148005E-6,1700000.0,94.19999999999999,87.5883792991286,87.16814159292035,84.15300546448086,336620.0,2355616.0,0.0,1.0,0.0,?,0.0,0.0,1009.0,676.0,676.0,6.0,0.0,0.0,1.0
1800000.0,7.046875,2.586586601359563E-6,1800000.0,95.0,89.16473076523005,89.42917547568709,85.87570621468925,356420.0,2434472.0,0.0,1.0,0.0,?,0.0,0.0,1041.0,695.0,695.0,7.0,0.0,0.0,1.0
1900000.0,7.484375,2.879057719837874E-6,1900000.0,94.5,88.43527116135108,88.51774530271398,85.82474226804122,376220.0,2512824.0,0.0,1.0,0.0,?,0.0,0.0,1072.0,715.0,715.0,7.0,0.0,0.0,1.0
2000000.0,7.921875,3.181360241594828E-6,2000000.0,94.69999999999999,89.01445117856284,88.11659192825111,86.51399491094146,396020.0,2597776.0,0.0,1.0,0.0,?,0.0,0.0,1108.0,736.0,736.0,7.0,0.0,0.0,1.0
2100000.0,8.375,3.500976923128797E-6,2100000.0,95.1,89.64890785415521,89.52991452991452,87.07124010554088,415840.0,2666968.0,0.0,1.0,0.0,?,0.0,0.0,1144.0,760.0,760.0,7.0,0.0,0.0,1.0
2200000.0,8.796875,3.808820652516766E-6,2200000.0,94.69999999999999,88.5613156645228,88.72340425531914,85.2367688022284,435640.0,2759176.0,0.0,1.0,0.0,?,0.0,0.0,1177.0,781.0,781.0,7.0,0.0,0.0,1.0
2300000.0,9.234375,4.1378494158076745E-6,2300000.0,94.69999999999999,88.83740522325189,88.84210526315789,86.05263157894736,455440.0,2843816.0,0.0,1.0,0.0,?,0.0,0.0,1218.0,809.0,809.0,7.0,0.0,0.0,1.0
2400000.0,9.71875,4.5157537614512775E-6,2400000.0,95.6,90.69165252785099,90.69767441860465,88.32891246684349,475240.0,2950640.0,0.0,1.0,0.0,?,0.0,0.0,1257.0,836.0,836.0,7.0,0.0,0.0,1.0
2500000.0,10.1875,4.891085490170452E-6,2500000.0,95.89999999999999,91.21152362170967,91.02844638949671,88.76712328767123,495040.0,3028088.0,0.0,1.0,0.0,?,0.0,0.0,1289.0,855.0,855.0,7.0,0.0,0.0,1.0
2600000.0,10.640625,5.2623622145296795E-6,2600000.0,95.39999999999999,90.28814647164137,89.82300884955751,87.83068783068782,514840.0,3098344.0,0.0,1.0,0.0,?,0.0,0.0,1318.0,871.0,871.0,7.0,0.0,0.0,1.0
2700000.0,11.09375,5.64426691400715E-6,2700000.0,95.0,89.44185417933643,89.36170212765956,86.9109947643979,534640.0,3187096.0,0.0,1.0,0.0,?,0.0,0.0,1357.0,895.0,895.0,7.0,0.0,0.0,1.0
2800000.0,11.5625,6.0535249778897395E-6,2800000.0,97.0,93.62700112164781,93.64406779661016,92.02127659574467,554440.0,3302096.0,0.0,1.0,0.0,?,0.0,0.0,1397.0,921.0,921.0,7.0,0.0,0.0,1.0
2900000.0,12.03125,6.470085192833923E-6,2900000.0,94.89999999999999,89.47906953716156,89.7590361445783,87.79904306220094,574240.0,3360504.0,0.0,1.0,0.0,?,0.0,0.0,1420.0,934.0,934.0,7.0,0.0,0.0,1.0
3000000.0,12.515625,6.911336321435455E-6,3000000.0,95.1,89.79600336523643,89.52991452991452,87.71929824561403,594040.0,3444912.0,0.0,1.0,0.0,?,0.0,0.0,1467.0,965.0,965.0,7.0,0.0,0.0,1.0
3100000.0,13.015625,7.377085566986352E-6,3100000.0,96.1,91.65825362331239,91.7372881355932,89.40217391304347,613860.0,3537680.0,0.0,1.0,0.0,?,0.0,0.0,1483.0,973.0,973.0,7.0,0.0,0.0,1.0
3200000.0,13.46875,7.807562166514496E-6,3200000.0,96.3,92.31037808000532,92.19409282700421,90.58524173027989,633660.0,3607552.0,0.0,1.0,0.0,?,0.0,0.0,1518.0,998.0,998.0,7.0,0.0,0.0,1.0
3300000.0,13.96875,8.29675901008563E-6,3300000.0,95.3,90.10859499957908,89.9357601713062,87.79220779220778,653460.0,3715296.0,0.0,1.0,0.0,?,0.0,0.0,1534.0,1009.0,1009.0,7.0,0.0,0.0,1.0
3400000.0,14.453125,8.77613088555841E-6,3400000.0,95.3,90.20874130244573,90.14675052410901,87.91773778920307,673260.0,3757168.0,0.0,1.0,0.0,?,0.0,0.0,1544.0,1014.0,1014.0,7.0,0.0,0.0,1.0
3500000.0,14.953125,9.280523809138685E-6,3500000.0,95.7,91.02543766644682,90.79229122055673,88.94601542416451,693060.0,3829216.0,0.0,1.0,0.0,?,0.0,0.0,1570.0,1030.0,1030.0,7.0,0.0,0.0,1.0
3600000.0,15.421875,9.757839240288983E-6,3600000.0,96.3,92.08535834074884,91.95652173913042,90.0537634408602,712860.0,3864272.0,0.0,1.0,0.0,?,0.0,0.0,1606.0,1054.0,1054.0,7.0,0.0,0.0,1.0
3700000.0,15.921875,1.0275166164824946E-5,3700000.0,96.8,93.29893453059036,93.31941544885177,91.83673469387755,732660.0,3925752.0,0.0,1.0,0.0,?,0.0,0.0,1633.0,1069.0,1069.0,7.0,0.0,0.0,1.0
3800000.0,16.4375,1.0820690497186862E-5,3800000.0,96.1,91.98408326687658,92.16867469879517,90.4645476772616,752460.0,4014048.0,0.0,1.0,0.0,?,0.0,0.0,1668.0,1091.0,1091.0,7.0,0.0,0.0,1.0
3900000.0,16.9375,1.1356768049558416E-5,3900000.0,96.5,92.57688229056204,92.20489977728285,90.66666666666666,772260.0,4067072.0,0.0,1.0,0.0,?,0.0,0.0,1690.0,1105.0,1105.0,7.0,0.0,0.0,1.0
4000000.0,17.453125,1.1923970273023262E-5,4000000.0,96.2,92.02809467266937,91.9831223628692,90.28132992327365,792060.0,4172840.0,0.0,1.0,0.0,?,0.0,0.0,1718.0,1122.0,1122.0,8.0,0.0,0.0,1.0
4100000.0,17.953125,1.2482152249301886E-5,4100000.0,97.0,93.66489846943946,93.71069182389937,92.18749999999999,811880.0,4249472.0,0.0,1.0,0.0,?,0.0,0.0,1746.0,1139.0,1139.0,8.0,0.0,0.0,1.0
4200000.0,18.484375,1.3081042335316951E-5,4200000.0,96.3,92.25656308598982,92.43353783231083,90.46391752577318,831680.0,4290168.0,0.0,1.0,0.0,?,0.0,0.0,1757.0,1146.0,1146.0,8.0,0.0,0.0,1.0
4300000.0,19.015625,1.3689695786322569E-5,4300000.0,97.6,95.08655846176524,94.98956158663883,94.3127962085308,851480.0,4359312.0,0.0,1.0,0.0,?,0.0,0.0,1801.0,1171.0,1171.0,8.0,0.0,0.0,1.0
4400000.0,19.53125,1.4286816359445865E-5,4400000.0,96.2,91.99973051723846,91.93205944798301,90.0523560209424,871280.0,4406360.0,0.0,1.0,0.0,?,0.0,0.0,1824.0,1184.0,1184.0,8.0,0.0,0.0,1.0
4500000.0,20.0625,1.4913388004060834E-5,4500000.0,96.8,92.98590166234129,92.93598233995584,91.01123595505616,891080.0,4487168.0,0.0,1.0,0.0,?,0.0,0.0,1853.0,1203.0,1203.0,8.0,0.0,0.0,1.0
4600000.0,20.59375,1.5547879188994152E-5,4600000.0,96.5,92.4799106183662,92.5053533190578,90.54054054054053,910880.0,4543056.0,0.0,1.0,0.0,?,0.0,0.0,1884.0,1223.0,1223.0,8.0,0.0,0.0,1.0
4700000.0,21.140625,1.622041874927365E-5,4700000.0,97.1,93.85515107852692,93.62637362637362,92.32804232804233,930680.0,4678072.0,0.0,1.0,0.0,?,0.0,0.0,1934.0,1257.0,1257.0,8.0,0.0,0.0,1.0
4800000.0,21.6875,1.690912403218034E-5,4800000.0,96.8,93.20894382098776,93.3609958506224,91.53439153439152,950480.0,4790352.0,0.0,1.0,0.0,?,0.0,0.0,1982.0,1287.0,1287.0,8.0,0.0,0.0,1.0
4900000.0,22.234375,1.7616595950029375E-5,4900000.0,96.2,91.84073107049608,92.11618257261411,89.56043956043955,970280.0,4921032.0,0.0,1.0,0.0,?,0.0,0.0,2021.0,1314.0,1314.0,8.0,0.0,0.0,1.0
5000000.0,22.796875,1.8356582958302977E-5,5000000.0,97.5,94.63450229643301,94.64668094218415,93.22493224932249,990080.0,5001576.0,0.0,1.0,0.0,?,0.0,0.0,2064.0,1343.0,1343.0,8.0,0.0,0.0,1.0
5100000.0,23.375,1.838776590173236E-5,5100000.0,78.5,53.90934504107429,53.76344086021506,41.57608695652175,19202.0,157704.0,0.0,1.0,0.0,?,1.0,14.0,56.0,45.0,45.0,3.0,0.0,0.0,1.0
5200000.0,23.765625,1.8421638718185325E-5,5200000.0,79.5,56.485192229316674,58.163265306122454,44.743935309973054,39002.0,282544.0,0.0,1.0,0.0,?,0.0,0.0,97.0,76.0,76.0,4.0,0.0,0.0,1.0
5300000.0,24.109375,1.8460103439994982E-5,5300000.0,86.0,71.12687675301105,71.77419354838709,64.28571428571428,58802.0,377848.0,0.0,1.0,0.0,?,0.0,0.0,146.0,102.0,102.0,4.0,0.0,0.0,1.0
5400000.0,24.453125,1.8510469623530904E-5,5400000.0,87.7,74.19414395891204,72.96703296703296,67.80104712041884,78602.0,509704.0,0.0,1.0,0.0,?,0.0,0.0,191.0,132.0,132.0,4.0,0.0,0.0,1.0
5500000.0,24.8125,1.8571500711712156E-5,5500000.0,89.60000000000001,77.93805685193043,77.82515991471216,71.8918918918919,98402.0,597944.0,0.0,1.0,0.0,?,0.0,0.0,226.0,154.0,154.0,5.0,0.0,0.0,1.0
5600000.0,25.15625,1.8632958041659243E-5,5600000.0,88.6,75.75757575757576,76.20041753653445,69.60000000000001,118202.0,630864.0,0.0,1.0,0.0,?,0.0,0.0,242.0,162.0,162.0,5.0,0.0,0.0,1.0
5700000.0,25.5,1.8703398559915106E-5,5700000.0,90.2,78.7584532685972,77.62557077625571,72.77777777777779,138002.0,729984.0,0.0,1.0,0.0,?,0.0,0.0,280.0,187.0,187.0,5.0,0.0,0.0,1.0
5800000.0,25.875,1.8792661948181272E-5,5800000.0,88.4,75.00646384555718,75.31914893617021,67.95580110497238,157802.0,856072.0,0.0,1.0,0.0,?,0.0,0.0,324.0,218.0,218.0,5.0,0.0,0.0,1.0
5900000.0,26.234375,1.8885558885004783E-5,5900000.0,91.0,80.2715511383315,79.86577181208054,74.5042492917847,177602.0,933360.0,0.0,1.0,0.0,?,0.0,0.0,355.0,238.0,238.0,6.0,0.0,0.0,1.0
6000000.0,26.59375,1.898731257016253E-5,6000000.0,93.30000000000001,85.83090132385908,86.21399176954733,82.4607329842932,197402.0,1026800.0,0.0,1.0,0.0,?,0.0,0.0,402.0,269.0,269.0,6.0,0.0,0.0,1.0
6100000.0,27.0,1.9108881404261206E-5,6100000.0,92.2,83.34472155790912,83.54430379746837,79.47368421052633,217222.0,1102560.0,0.0,1.0,0.0,?,0.0,0.0,434.0,288.0,288.0,6.0,0.0,0.0,1.0
6200000.0,27.375,1.9236138873060956E-5,6200000.0,93.0,85.27481404193735,85.53719008264464,81.86528497409327,237022.0,1255632.0,0.0,1.0,0.0,?,0.0,0.0,495.0,332.0,332.0,6.0,0.0,0.0,1.0
6300000.0,27.765625,1.93813378832096E-5,6300000.0,93.0,85.12966928384489,84.88120950323975,81.38297872340426,256822.0,1378848.0,0.0,1.0,0.0,?,0.0,0.0,558.0,377.0,377.0,6.0,0.0,0.0,1.0
6400000.0,28.171875,1.954371384474345E-5,6400000.0,93.8,87.11768617021276,87.16356107660455,84.34343434343432,276622.0,1485160.0,0.0,1.0,0.0,?,0.0,0.0,610.0,412.0,412.0,6.0,0.0,0.0,1.0
6500000.0,28.578125,1.9719073930496553E-5,6500000.0,93.2,85.6837282940057,85.83333333333334,82.19895287958117,296422.0,1606816.0,0.0,1.0,0.0,?,0.0,0.0,659.0,447.0,447.0,6.0,0.0,0.0,1.0
6600000.0,28.984375,1.990569791006338E-5,6600000.0,94.39999999999999,88.30365385499036,88.13559322033898,85.89420654911838,316222.0,1712016.0,0.0,1.0,0.0,?,0.0,0.0,706.0,475.0,475.0,6.0,0.0,0.0,1.0
6700000.0,29.375,2.0096930287157494E-5,6700000.0,94.6,88.28170774579117,88.84297520661157,84.87394957983192,336022.0,1826704.0,0.0,1.0,0.0,?,0.0,0.0,740.0,498.0,498.0,6.0,0.0,0.0,1.0
6800000.0,29.796875,2.0317113279209782E-5,6800000.0,94.69999999999999,88.86601403302382,88.42794759825327,86.44501278772377,355822.0,1949800.0,0.0,1.0,0.0,?,0.0,0.0,789.0,530.0,530.0,7.0,0.0,0.0,1.0
6900000.0,30.21875,2.0553269035493334E-5,6900000.0,95.0,89.14935265037911,88.88888888888887,86.07242339832868,375622.0,2094216.0,0.0,1.0,0.0,?,0.0,0.0,848.0,573.0,573.0,7.0,0.0,0.0,1.0
7000000.0,30.640625,2.0801740950749567E-5,7000000.0,95.5,90.62109212171737,90.83503054989815,88.7218045112782,395422.0,2205160.0,0.0,1.0,0.0,?,0.0,0.0,880.0,595.0,595.0,7.0,0.0,0.0,1.0
7100000.0,31.046875,2.1044164798998585E-5,7100000.0,95.39999999999999,90.4403665911594,89.9343544857768,88.52867830423939,415242.0,2248808.0,0.0,1.0,0.0,?,0.0,0.0,897.0,605.0,605.0,7.0,0.0,0.0,1.0
7200000.0,31.484375,2.1319791784561758E-5,7200000.0,96.39999999999999,92.44814392159495,92.8,90.9090909090909,435042.0,2375472.0,0.0,1.0,0.0,?,0.0,0.0,961.0,649.0,649.0,7.0,0.0,0.0,1.0
7300000.0,31.9375,2.1615063435294563E-5,7300000.0,95.19999999999999,89.45170860345016,88.88888888888889,86.08695652173913,454842.0,2457264.0,0.0,1.0,0.0,?,0.0,0.0,1003.0,676.0,676.0,7.0,0.0,0.0,1.0
7400000.0,32.359375,2.189969715093159E-5,7400000.0,95.39999999999999,90.11143977436885,89.91228070175438,87.36263736263736,474642.0,2544544.0,0.0,1.0,0.0,?,0.0,0.0,1041.0,701.0,701.0,8.0,0.0,0.0,1.0
7500000.0,32.78125,2.2195251787909204E-5,7500000.0,95.7,90.70768539248142,90.73275862068965,88.25136612021856,494442.0,2642744.0,0.0,1.0,0.0,?,0.0,0.0,1064.0,717.0,717.0,8.0,0.0,0.0,1.0
7600000.0,33.25,2.2534268727112148E-5,7600000.0,95.1,89.50749464668093,89.95901639344261,86.68478260869564,514242.0,2728440.0,0.0,1.0,0.0,?,0.0,0.0,1083.0,728.0,728.0,8.0,0.0,0.0,1.0
7700000.0,33.8125,2.295954204681847E-5,7700000.0,96.1,91.55178538935438,91.50326797385621,89.196675900277,534042.0,2853256.0,0.0,1.0,0.0,?,0.0,0.0,1128.0,758.0,758.0,8.0,0.0,0.0,1.0
7800000.0,34.359375,2.3387448713442106E-5,7800000.0,96.0,91.51161211462718,91.37931034482759,89.58333333333333,553842.0,2953464.0,0.0,1.0,0.0,?,0.0,0.0,1172.0,786.0,786.0,8.0,0.0,0.0,1.0
7900000.0,34.921875,2.3839723402892967E-5,7900000.0,97.3,94.27301188668199,94.30379746835442,92.85714285714285,573642.0,3035144.0,0.0,1.0,0.0,?,0.0,0.0,1200.0,806.0,806.0,8.0,0.0,0.0,1.0
8000000.0,35.515625,2.432768378639594E-5,8000000.0,95.7,90.83163469821152,90.73275862068965,88.59416445623341,593442.0,3102128.0,0.0,1.0,0.0,?,0.0,0.0,1229.0,825.0,825.0,8.0,0.0,0.0,1.0
8100000.0,36.09375,2.4815874769248898E-5,8100000.0,97.3,94.06217561885325,94.01330376940132,92.32954545454545,613262.0,3203064.0,0.0,1.0,0.0,?,0.0,0.0,1287.0,866.0,866.0,8.0,0.0,0.0,1.0
8200000.0,36.65625,2.530432551995748E-5,8200000.0,96.89999999999999,93.36154320564654,93.14159292035397,91.66666666666666,633062.0,3293696.0,0.0,1.0,0.0,?,0.0,0.0,1337.0,900.0,900.0,8.0,0.0,0.0,1.0
8300000.0,37.21875,2.5813212980412777E-5,8300000.0,96.7,92.87780031941986,93.02325581395348,91.08108108108107,652862.0,3432104.0,0.0,1.0,0.0,?,0.0,0.0,1380.0,929.0,929.0,8.0,0.0,0.0,1.0
8400000.0,37.78125,2.6342097100698287E-5,8400000.0,97.39999999999999,94.35096989501494,94.52631578947368,92.81767955801105,672662.0,3567528.0,0.0,1.0,0.0,?,0.0,0.0,1425.0,959.0,959.0,8.0,0.0,0.0,1.0
8500000.0,38.390625,2.6928627566020523E-5,8500000.0,96.6,92.75448795540173,92.41071428571428,91.005291005291,692462.0,3651792.0,0.0,1.0,0.0,?,0.0,0.0,1452.0,977.0,977.0,8.0,0.0,0.0,1.0
8600000.0,39.015625,2.755343247877641E-5,8600000.0,96.89999999999999,93.30158428335594,93.4322033898305,91.34078212290501,712262.0,3793432.0,0.0,1.0,0.0,?,0.0,0.0,1517.0,1020.0,1020.0,8.0,0.0,0.0,1.0
8700000.0,39.625,2.818265215157428E-5,8700000.0,96.5,92.37186919717192,92.20489977728285,90.25069637883007,732062.0,3918600.0,0.0,1.0,0.0,?,0.0,0.0,1559.0,1050.0,1050.0,8.0,0.0,0.0,1.0
8800000.0,40.1875,2.8769253824268365E-5,8800000.0,95.8,91.11340563917886,91.10169491525423,89.03394255874673,751862.0,3956680.0,0.0,1.0,0.0,?,0.0,0.0,1592.0,1071.0,1071.0,8.0,0.0,0.0,1.0
8900000.0,40.78125,2.9396050926556603E-5,8900000.0,96.1,91.81559485935415,91.68443496801704,89.8963730569948,771662.0,4004504.0,0.0,1.0,0.0,?,0.0,0.0,1614.0,1085.0,1085.0,8.0,0.0,0.0,1.0
9000000.0,41.390625,3.004897295290397E-5,9000000.0,97.2,94.07010826288057,93.91304347826086,92.74611398963731,791462.0,4063952.0,0.0,1.0,0.0,?,0.0,0.0,1654.0,1114.0,1114.0,8.0,0.0,0.0,1.0
9100000.0,42.03125,3.074621956329793E-5,9100000.0,97.0,93.6591139668583,93.5064935064935,92.10526315789474,811282.0,4142928.0,0.0,1.0,0.0,?,0.0,0.0,1686.0,1136.0,1136.0,8.0,0.0,0.0,1.0
9200000.0,42.609375,3.138452228288063E-5,9200000.0,97.8,95.2140619561434,95.34883720930232,93.82022471910112,831082.0,4201920.0,0.0,1.0,0.0,?,0.0,0.0,1709.0,1152.0,1152.0,8.0,0.0,0.0,1.0
9300000.0,43.21875,3.206962043704051E-5,9300000.0,97.2,94.16180150125103,94.21487603305785,92.96482412060301,850882.0,4278064.0,0.0,1.0,0.0,?,0.0,0.0,1740.0,1172.0,1172.0,8.0,0.0,0.0,1.0
9400000.0,43.859375,3.280541455347298E-5,9400000.0,97.39999999999999,94.3080318049669,94.62809917355372,92.61363636363636,870682.0,4370096.0,0.0,1.0,0.0,?,0.0,0.0,1780.0,1198.0,1198.0,8.0,0.0,0.0,1.0
9500000.0,44.53125,3.359449225374394E-5,9500000.0,97.7,95.10112972208495,95.1983298538622,93.89920424403182,890482.0,4468328.0,0.0,1.0,0.0,?,0.0,0.0,1826.0,1230.0,1230.0,8.0,0.0,0.0,1.0
9600000.0,45.203125,3.4402824433830876E-5,9600000.0,97.5,94.66382070437567,94.6351931330472,93.31550802139037,910282.0,4577264.0,0.0,1.0,0.0,?,0.0,0.0,1886.0,1272.0,1272.0,8.0,0.0,0.0,1.0
9700000.0,45.859375,3.520527311290304E-5,9700000.0,97.0,93.50570631938069,93.21266968325791,91.62011173184356,930082.0,4651624.0,0.0,1.0,0.0,?,0.0,0.0,1921.0,1297.0,1297.0,8.0,0.0,0.0,1.0
9800000.0,46.421875,3.590260903971891E-5,9800000.0,97.5,94.68071525230431,94.79166666666666,93.36870026525197,949882.0,4715320.0,0.0,1.0,0.0,?,0.0,0.0,1946.0,1314.0,1314.0,8.0,0.0,0.0,1.0
9900000.0,46.96875,3.6590613728751326E-5,9900000.0,98.2,96.1031538474861,96.12068965517241,95.02762430939225,969682.0,4784496.0,0.0,1.0,0.0,?,0.0,0.0,1973.0,1332.0,1332.0,8.0,0.0,0.0,1.0
1.0E7,47.484375,3.724181591274424E-5,1.0E7,97.89999999999999,95.42304171570551,95.52238805970148,94.08450704225352,989482.0,4801800.0,0.0,1.0,0.0,?,0.0,0.0,1985.0,1341.0,1341.0,8.0,0.0,0.0,1.0
