learning evaluation instances,evaluation time (cpu seconds),model cost (RAM-Hours),classified instances,classifications correct (percent),Kappa Statistic (percent),Kappa Temporal Statistic (percent),Kappa M Statistic (percent),model training instances,model serialized size (bytes),labeling cost,newThreshold,maxPosterior,accuracyBaseLearner (percent),Change detected,Warning detected,tree size (nodes),tree size (leaves),active learning leaves,tree depth,active leaf byte size estimate,inactive leaf byte size estimate,byte size estimate overhead
100000.0,0.234375,7.936129501710336E-9,100000.0,86.7,71.04667363288053,68.92523364485982,60.882352941176464,1390.0,1880.0,0.0,1.0,0.0,?,1.0,10.0,1.0,1.0,1.0,0.0,0.0,0.0,1.0
200000.0,0.515625,1.719813250626127E-8,200000.0,64.7,0.0,21.02908277404921,0.0,6968.0,5872.0,0.0,1.0,0.0,?,1.0,27.0,7.0,4.0,4.0,3.0,0.0,0.0,1.0
300000.0,0.71875,2.3779737400925824E-8,300000.0,66.5,6.273781279376875,27.48917748917749,3.7356321839080495,16968.0,13328.0,0.0,1.0,0.0,?,0.0,0.0,15.0,8.0,8.0,6.0,0.0,0.0,1.0
400000.0,0.9375,3.0644878279417755E-8,400000.0,67.30000000000001,11.553733135704158,30.866807610993664,8.913649025069645,26968.0,18920.0,0.0,1.0,0.0,?,0.0,0.0,21.0,11.0,11.0,6.0,0.0,0.0,1.0
500000.0,1.15625,3.738461398623056E-8,500000.0,65.9,6.136110897019472,27.13675213675214,4.481792717086839,36968.0,26208.0,0.0,1.0,0.0,?,0.0,0.0,29.0,15.0,15.0,7.0,0.0,0.0,1.0
600000.0,1.375,4.431540017119713E-8,600000.0,65.4,7.703798548868976,26.382978723404253,4.94505494505495,46968.0,39016.0,0.0,1.0,0.0,?,0.0,0.0,43.0,22.0,22.0,8.0,0.0,0.0,1.0
700000.0,1.59375,5.11320993407733E-8,700000.0,68.89999999999999,9.906256155923012,28.505747126436777,6.042296072507526,56968.0,46496.0,0.0,1.0,0.0,?,0.0,0.0,53.0,27.0,27.0,8.0,0.0,0.0,1.0
800000.0,1.8125,5.780709519361457E-8,800000.0,67.0,8.83977900552487,25.170068027210885,5.71428571428572,66968.0,53496.0,0.0,1.0,0.0,?,0.0,0.0,61.0,31.0,31.0,9.0,0.0,0.0,1.0
900000.0,2.03125,6.43345022884508E-8,900000.0,66.60000000000001,5.984878765530823,29.237288135593225,3.746397694524499,76968.0,60400.0,0.0,1.0,0.0,?,0.0,0.0,67.0,34.0,34.0,10.0,0.0,0.0,1.0
1000000.0,2.234375,7.018883479759097E-8,1000000.0,67.4,9.48668399191488,27.555555555555557,5.780346820809254,86968.0,65992.0,0.0,1.0,0.0,?,0.0,0.0,73.0,37.0,37.0,11.0,0.0,0.0,1.0
1100000.0,2.453125,8.180895949610406E-8,1100000.0,63.7,8.076132208299997,27.68924302788845,5.958549222797933,96868.0,73328.0,0.0,1.0,0.0,?,0.0,0.0,81.0,41.0,41.0,11.0,0.0,0.0,1.0
1200000.0,2.6875,9.426588399542704E-8,1200000.0,65.2,6.231306887687735,23.008849557522122,3.064066852367691,106868.0,82912.0,0.0,1.0,0.0,?,0.0,0.0,93.0,47.0,47.0,12.0,0.0,0.0,1.0
1300000.0,2.921875,1.065821399808758E-7,1300000.0,64.5,6.891595589546672,24.307036247334754,3.0054644808743194,116868.0,90104.0,0.0,1.0,0.0,?,0.0,0.0,99.0,50.0,50.0,12.0,0.0,0.0,1.0
1400000.0,3.15625,1.185763135759367E-7,1400000.0,62.5,5.956584543776581,18.47826086956521,3.1007751937984525,126868.0,94336.0,0.0,1.0,0.0,?,0.0,0.0,105.0,53.0,53.0,12.0,0.0,0.0,1.0
1500000.0,3.390625,1.3045358678532974E-7,1500000.0,65.60000000000001,3.5160544797720563,22.86995515695067,-0.5847953216374274,136868.0,101912.0,0.0,1.0,0.0,?,0.0,0.0,113.0,57.0,57.0,12.0,0.0,0.0,1.0
1600000.0,3.59375,1.4034196889648839E-7,1600000.0,64.9,3.7797295963683077,25.79281183932347,-1.4450867052023135,146868.0,103776.0,0.0,1.0,0.0,?,0.0,0.0,115.0,58.0,58.0,12.0,0.0,0.0,1.0
1700000.0,3.828125,1.513985140870015E-7,1700000.0,65.2,10.042187112250806,25.641025641025646,6.451612903225811,156868.0,107504.0,0.0,1.0,0.0,?,0.0,0.0,119.0,60.0,60.0,12.0,0.0,0.0,1.0
1800000.0,4.0625,1.6221640786776942E-7,1800000.0,65.8,4.957759004001799,22.62443438914027,-0.5882352941176476,166868.0,113096.0,0.0,1.0,0.0,?,0.0,0.0,125.0,63.0,63.0,12.0,0.0,0.0,1.0
1900000.0,4.265625,1.7137877875939013E-7,1900000.0,66.5,8.598806054851655,26.535087719298247,4.0114613180515795,176868.0,118568.0,0.0,1.0,0.0,?,0.0,0.0,131.0,66.0,66.0,12.0,0.0,0.0,1.0
2000000.0,4.515625,1.8254067981615666E-7,2000000.0,67.9,4.3162036485036515,21.70731707317075,-0.31250000000000033,186868.0,126288.0,0.0,1.0,0.0,?,0.0,0.0,141.0,71.0,71.0,13.0,0.0,0.0,1.0
2100000.0,4.75,1.9927053169036907E-7,2100000.0,64.2,5.190677966101711,24.312896405919663,1.6483516483516498,196768.0,142920.0,0.0,1.0,0.0,?,0.0,0.0,157.0,79.0,79.0,13.0,0.0,0.0,1.0
2200000.0,4.984375,2.1553278202190997E-7,2200000.0,69.0,7.296650717703311,29.38496583143506,3.1249999999999685,206768.0,144784.0,0.0,1.0,0.0,?,0.0,0.0,159.0,80.0,80.0,13.0,0.0,0.0,1.0
2300000.0,5.234375,2.3263445149900186E-7,2300000.0,64.4,5.584316388016625,22.10065645514223,2.1978021978021998,216768.0,150520.0,0.0,1.0,0.0,?,0.0,0.0,167.0,84.0,84.0,13.0,0.0,0.0,1.0
2400000.0,5.46875,2.4857607463167775E-7,2400000.0,67.2,8.379376421097318,24.77064220183488,3.244837758112098,226768.0,158504.0,0.0,1.0,0.0,?,0.0,0.0,179.0,90.0,90.0,13.0,0.0,0.0,1.0
2500000.0,5.703125,2.641883394163516E-7,2500000.0,67.30000000000001,3.578505378373257,26.185101580135438,-0.9259259259259269,236768.0,162616.0,0.0,1.0,0.0,?,0.0,0.0,185.0,93.0,93.0,13.0,0.0,0.0,1.0
2600000.0,5.9375,2.7980205939254827E-7,2600000.0,62.1,8.054342552159174,21.532091097308488,5.250000000000004,246768.0,172104.0,0.0,1.0,0.0,?,0.0,0.0,199.0,100.0,100.0,14.0,0.0,0.0,1.0
2700000.0,6.171875,2.952916030254629E-7,2700000.0,65.4,7.502954024156175,31.075697211155383,4.155124653739616,256768.0,179560.0,0.0,1.0,0.0,?,0.0,0.0,207.0,104.0,104.0,14.0,0.0,0.0,1.0
2800000.0,6.40625,3.1044984805501173E-7,2800000.0,68.2,6.31628564694795,27.397260273972606,0.6250000000000007,266768.0,183648.0,0.0,1.0,0.0,?,0.0,0.0,211.0,106.0,106.0,14.0,0.0,0.0,1.0
2900000.0,6.640625,3.252549666083522E-7,2900000.0,66.2,7.093851701996671,22.298850574712663,2.8735632183908075,276768.0,187376.0,0.0,1.0,0.0,?,0.0,0.0,215.0,108.0,108.0,14.0,0.0,0.0,1.0
3000000.0,6.875,3.395924836190211E-7,3000000.0,64.4,6.369011298840636,24.416135881104033,1.6574585635359134,286768.0,189240.0,0.0,1.0,0.0,?,0.0,0.0,217.0,109.0,109.0,14.0,0.0,0.0,1.0
3100000.0,7.09375,3.580750328385168E-7,3100000.0,64.0,4.363673072529541,20.35398230088495,0.8264462809917362,296668.0,192824.0,0.0,1.0,0.0,?,0.0,0.0,223.0,112.0,112.0,14.0,0.0,0.0,1.0
3200000.0,7.328125,3.778763089535965E-7,3200000.0,62.9,3.6843963529875965,21.398305084745758,0.5361930294906171,306668.0,202288.0,0.0,1.0,0.0,?,0.0,0.0,231.0,116.0,116.0,14.0,0.0,0.0,1.0
3300000.0,7.5625,3.9748841017070747E-7,3300000.0,66.7,7.628294036061048,26.813186813186814,3.478260869565221,316668.0,208672.0,0.0,1.0,0.0,?,0.0,0.0,243.0,122.0,122.0,15.0,0.0,0.0,1.0
3400000.0,7.796875,4.167493251669738E-7,3400000.0,67.60000000000001,8.059023836549372,26.69683257918552,3.5714285714285747,326668.0,212424.0,0.0,1.0,0.0,?,0.0,0.0,249.0,125.0,125.0,15.0,0.0,0.0,1.0
3500000.0,8.03125,4.36216877359483E-7,3500000.0,66.5,5.727278867151455,22.09302325581397,0.2976190476190479,336668.0,225256.0,0.0,1.0,0.0,?,0.0,0.0,265.0,133.0,133.0,15.0,0.0,0.0,1.0
3600000.0,8.28125,4.568399809714821E-7,3600000.0,63.6,4.8316251830161185,23.044397463002113,1.621621621621623,346668.0,232568.0,0.0,1.0,0.0,?,0.0,0.0,271.0,136.0,136.0,15.0,0.0,0.0,1.0
3700000.0,8.53125,4.774449755334192E-7,3700000.0,67.9,8.84825079509316,25.348837209302346,4.179104477611944,356668.0,241768.0,0.0,1.0,0.0,?,0.0,0.0,281.0,141.0,141.0,15.0,0.0,0.0,1.0
3800000.0,8.78125,4.984970049311717E-7,3800000.0,64.4,8.424437299035384,26.293995859213254,5.066666666666672,366668.0,258064.0,0.0,1.0,0.0,?,0.0,0.0,299.0,150.0,150.0,15.0,0.0,0.0,1.0
3900000.0,9.0,5.167201420085297E-7,3900000.0,64.4,4.498240192291214,20.712694877505562,0.5586592178770955,376668.0,264112.0,0.0,1.0,0.0,?,0.0,0.0,303.0,152.0,152.0,15.0,0.0,0.0,1.0
4000000.0,9.25,5.372128604600827E-7,4000000.0,63.9,6.4960629921259825,23.678646934460886,2.9569892473118307,386668.0,268488.0,0.0,1.0,0.0,?,0.0,0.0,311.0,156.0,156.0,15.0,0.0,0.0,1.0
4100000.0,9.5,5.637627974566485E-7,4100000.0,65.2,7.397551889302832,26.11464968152866,3.8674033149171305,396568.0,275560.0,0.0,1.0,0.0,?,0.0,0.0,317.0,159.0,159.0,16.0,0.0,0.0,1.0
4200000.0,9.75,5.899438272333807E-7,4200000.0,64.1,3.359534833638431,21.098901098901095,0.27777777777777807,406568.0,279408.0,0.0,1.0,0.0,?,0.0,0.0,321.0,161.0,161.0,16.0,0.0,0.0,1.0
4300000.0,10.0,6.160932955228619E-7,4300000.0,65.60000000000001,7.985962509629402,24.395604395604394,3.370786516853936,416568.0,288392.0,0.0,1.0,0.0,?,0.0,0.0,333.0,167.0,167.0,16.0,0.0,0.0,1.0
4400000.0,10.234375,6.403843225497338E-7,4400000.0,64.7,4.456185176363606,21.902654867256636,0.0,426568.0,294224.0,0.0,1.0,0.0,?,0.0,0.0,339.0,170.0,170.0,16.0,0.0,0.0,1.0
4500000.0,10.484375,6.659180831371082E-7,4500000.0,65.9,9.15291083664576,22.146118721461182,5.013927576601676,436568.0,297952.0,0.0,1.0,0.0,?,0.0,0.0,343.0,172.0,172.0,16.0,0.0,0.0,1.0
4600000.0,10.75,6.930284628955026E-7,4600000.0,62.7,1.4312291235043144,22.453222453222452,-2.472527472527475,446568.0,307152.0,0.0,1.0,0.0,?,0.0,0.0,353.0,177.0,177.0,16.0,0.0,0.0,1.0
4700000.0,11.0,7.179309937378598E-7,4700000.0,64.9,4.538630578098832,28.07377049180328,0.28409090909090934,456568.0,307272.0,0.0,1.0,0.0,?,0.0,0.0,353.0,177.0,177.0,16.0,0.0,0.0,1.0
4800000.0,11.25,7.42945283289171E-7,4800000.0,66.9,6.120596744001344,28.35497835497836,2.071005917159765,466568.0,318456.0,0.0,1.0,0.0,?,0.0,0.0,365.0,183.0,183.0,16.0,0.0,0.0,1.0
4900000.0,11.515625,7.69392677789761E-7,4900000.0,64.8,4.034896401308625,26.513569937369518,0.0,476568.0,326056.0,0.0,1.0,0.0,?,0.0,0.0,375.0,188.0,188.0,16.0,0.0,0.0,1.0
5000000.0,11.765625,7.941596494573687E-7,5000000.0,64.8,5.698288102445954,21.603563474387524,0.845070422535212,486568.0,332888.0,0.0,1.0,0.0,?,0.0,0.0,381.0,191.0,191.0,16.0,0.0,0.0,1.0
5100000.0,12.03125,8.033732754281826E-7,5100000.0,81.39999999999999,62.328656145694914,61.49068322981365,54.41176470588235,607.0,1880.0,0.0,1.0,0.0,?,3.0,8.0,1.0,1.0,1.0,0.0,0.0,0.0,1.0
5200000.0,12.265625,8.11246831694411E-7,5200000.0,80.5,61.44111365973266,59.20502092050211,56.47321428571429,10607.0,7304.0,0.0,1.0,0.0,?,0.0,5.0,7.0,4.0,4.0,3.0,0.0,0.0,1.0
5300000.0,12.484375,8.185864296845265E-7,5300000.0,77.7,56.194801521199366,55.666003976143145,46.77804295942722,20607.0,16624.0,0.0,1.0,0.0,?,0.0,0.0,17.0,9.0,9.0,5.0,0.0,0.0,1.0
5400000.0,12.6875,8.253084443923501E-7,5400000.0,76.0,53.069086215999526,52.94117647058824,44.57274826789839,30607.0,24344.0,0.0,1.0,0.0,?,0.0,0.0,27.0,14.0,14.0,6.0,0.0,0.0,1.0
5500000.0,12.90625,8.323333976376389E-7,5500000.0,74.9,51.03394459617636,48.033126293995856,39.66346153846154,40607.0,30080.0,0.0,1.0,0.0,?,0.0,0.0,35.0,18.0,18.0,7.0,0.0,0.0,1.0
5600000.0,13.140625,8.394997308237686E-7,5600000.0,77.10000000000001,54.91948501909524,52.88065843621399,46.744186046511636,50607.0,33688.0,0.0,1.0,0.0,?,0.0,0.0,39.0,20.0,20.0,7.0,0.0,0.0,1.0
5700000.0,13.359375,8.463698516910275E-7,5700000.0,80.0,60.32375813362959,56.33187772925765,49.74874371859298,60607.0,46328.0,0.0,1.0,0.0,?,0.0,0.0,53.0,27.0,27.0,9.0,0.0,0.0,1.0
5800000.0,13.59375,8.534716713863115E-7,5800000.0,76.9,54.61939225347133,51.059322033898304,45.77464788732396,70607.0,51584.0,0.0,1.0,0.0,?,0.0,0.0,59.0,30.0,30.0,9.0,0.0,0.0,1.0
5900000.0,13.8125,8.599773476210734E-7,5900000.0,76.9,54.48096476708443,53.6144578313253,44.33734939759037,80607.0,58920.0,0.0,1.0,0.0,?,0.0,0.0,67.0,34.0,34.0,10.0,0.0,0.0,1.0
6000000.0,14.03125,8.666686416189704E-7,6000000.0,78.0,56.868665085184375,54.82546201232034,45.67901234567902,90607.0,71632.0,0.0,1.0,0.0,?,0.0,0.0,81.0,41.0,41.0,10.0,0.0,0.0,1.0
6100000.0,14.25,8.785599493421615E-7,6100000.0,76.4,53.835380095224316,54.961832061068705,45.9954233409611,100507.0,76960.0,0.0,1.0,0.0,?,0.0,0.0,85.0,43.0,43.0,10.0,0.0,0.0,1.0
6200000.0,14.484375,8.913981340204677E-7,6200000.0,80.30000000000001,61.22230445805711,57.81584582441114,55.328798185941054,110507.0,88024.0,0.0,1.0,0.0,?,0.0,0.0,97.0,49.0,49.0,11.0,0.0,0.0,1.0
6300000.0,14.703125,9.029440116137267E-7,6300000.0,78.9,58.32905432627364,56.93877551020409,51.04408352668215,120507.0,89888.0,0.0,1.0,0.0,?,0.0,0.0,99.0,50.0,50.0,11.0,0.0,0.0,1.0
6400000.0,14.9375,9.150924355102083E-7,6400000.0,77.2,55.130652455416005,52.20125786163522,48.29931972789115,130507.0,95744.0,0.0,1.0,0.0,?,0.0,0.0,107.0,54.0,54.0,11.0,0.0,0.0,1.0
6500000.0,15.171875,9.272093302570284E-7,6500000.0,78.10000000000001,56.89010322753365,54.84536082474227,46.97336561743343,140507.0,104704.0,0.0,1.0,0.0,?,0.0,0.0,117.0,59.0,59.0,11.0,0.0,0.0,1.0
6600000.0,15.40625,9.392093246181806E-7,6600000.0,78.3,57.217775324316854,55.25773195876289,46.41975308641976,150507.0,112280.0,0.0,1.0,0.0,?,0.0,0.0,125.0,63.0,63.0,11.0,0.0,0.0,1.0
6700000.0,15.609375,9.495017002336681E-7,6700000.0,76.6,53.877993495614476,53.937007874015755,48.11529933481153,160507.0,119736.0,0.0,1.0,0.0,?,0.0,0.0,133.0,67.0,67.0,12.0,0.0,0.0,1.0
6800000.0,15.859375,9.620212626436518E-7,6800000.0,78.0,56.78767427334546,52.68817204301075,45.94594594594595,170507.0,126952.0,0.0,1.0,0.0,?,0.0,0.0,141.0,71.0,71.0,12.0,0.0,0.0,1.0
6900000.0,16.109375,9.743214468471706E-7,6900000.0,77.5,55.80574957377101,53.3195020746888,45.652173913043484,180507.0,133072.0,0.0,1.0,0.0,?,0.0,0.0,151.0,76.0,76.0,12.0,0.0,0.0,1.0
7000000.0,16.34375,9.858358923035363E-7,7000000.0,74.4,49.93879235158612,41.68564920273348,32.45382585751979,190507.0,142272.0,0.0,1.0,0.0,?,0.0,0.0,161.0,81.0,81.0,12.0,0.0,0.0,1.0
7100000.0,16.59375,1.0040960235831637E-6,7100000.0,77.60000000000001,56.17810470302841,56.756756756756765,48.858447488584474,200407.0,148128.0,0.0,1.0,0.0,?,0.0,0.0,169.0,85.0,85.0,13.0,0.0,0.0,1.0
7200000.0,16.84375,1.0223380458127292E-6,7200000.0,77.9,56.26291332536435,52.26781857451404,45.02487562189056,210407.0,157328.0,0.0,1.0,0.0,?,0.0,0.0,179.0,90.0,90.0,13.0,0.0,0.0,1.0
7300000.0,17.09375,1.0403255065385664E-6,7300000.0,77.4,55.573378624897785,51.50214592274678,47.6851851851852,220407.0,162920.0,0.0,1.0,0.0,?,0.0,0.0,185.0,93.0,93.0,13.0,0.0,0.0,1.0
7400000.0,17.3125,1.055865787849244E-6,7400000.0,76.1,53.15672700759685,50.311850311850314,38.56041131105399,230407.0,168920.0,0.0,1.0,0.0,?,0.0,0.0,195.0,98.0,98.0,14.0,0.0,0.0,1.0
7500000.0,17.5625,1.0734781325380832E-6,7500000.0,76.5,53.88431438730896,52.716297786720325,40.95477386934674,240407.0,176136.0,0.0,1.0,0.0,?,0.0,0.0,203.0,102.0,102.0,14.0,0.0,0.0,1.0
7600000.0,17.8125,1.0907314006342652E-6,7600000.0,77.9,56.192515065017446,55.71142284569138,52.473118279569896,250407.0,180128.0,0.0,1.0,0.0,?,0.0,0.0,209.0,105.0,105.0,14.0,0.0,0.0,1.0
7700000.0,18.046875,1.1068728700694107E-6,7700000.0,79.0,58.76871605781804,60.151802656546494,50.11876484560571,260407.0,189064.0,0.0,1.0,0.0,?,0.0,0.0,217.0,109.0,109.0,14.0,0.0,0.0,1.0
7800000.0,18.296875,1.1236961775769787E-6,7800000.0,77.7,55.82303858253367,51.939655172413794,40.37433155080215,270407.0,192528.0,0.0,1.0,0.0,?,0.0,0.0,219.0,110.0,110.0,14.0,0.0,0.0,1.0
7900000.0,18.53125,1.1391221778467294E-6,7900000.0,76.7,54.24015083074749,51.25523012552301,43.855421686747,280407.0,196376.0,0.0,1.0,0.0,?,0.0,0.0,223.0,112.0,112.0,14.0,0.0,0.0,1.0
8000000.0,18.78125,1.1552097405203511E-6,8000000.0,78.0,56.604071327126405,57.528957528957534,50.2262443438914,290407.0,200248.0,0.0,1.0,0.0,?,0.0,0.0,229.0,115.0,115.0,14.0,0.0,0.0,1.0
8100000.0,19.03125,1.1771454915611276E-6,8100000.0,78.0,56.7652549867348,53.68421052631579,48.23529411764707,300307.0,204120.0,0.0,1.0,0.0,?,0.0,0.0,235.0,118.0,118.0,15.0,0.0,0.0,1.0
8200000.0,19.28125,1.1990807252004738E-6,8200000.0,76.4,53.581501835104184,52.800000000000004,45.24361948955917,310307.0,213584.0,0.0,1.0,0.0,?,0.0,0.0,247.0,124.0,124.0,15.0,0.0,0.0,1.0
8300000.0,19.53125,1.2205425365310572E-6,8300000.0,77.4,55.49691826004766,54.158215010141994,45.278450363196136,320307.0,215832.0,0.0,1.0,0.0,?,0.0,0.0,251.0,126.0,126.0,15.0,0.0,0.0,1.0
8400000.0,19.78125,1.2419696819658077E-6,8400000.0,77.5,55.709358907733744,55.268389662027836,46.80851063829788,330307.0,224768.0,0.0,1.0,0.0,?,0.0,0.0,263.0,132.0,132.0,16.0,0.0,0.0,1.0
8500000.0,20.03125,1.2639597601567702E-6,8500000.0,77.0,54.715138532297956,50.108459869848154,43.34975369458129,340307.0,242856.0,0.0,1.0,0.0,?,0.0,0.0,277.0,139.0,139.0,16.0,0.0,0.0,1.0
8600000.0,20.28125,1.2855731701064438E-6,8600000.0,77.5,55.827960704553846,54.268292682926834,47.55244755244756,350307.0,246584.0,0.0,1.0,0.0,?,0.0,0.0,281.0,141.0,141.0,16.0,0.0,0.0,1.0
8700000.0,20.53125,1.3070561948956711E-6,8700000.0,75.5,51.752658526979125,49.1701244813278,38.75000000000001,360307.0,254064.0,0.0,1.0,0.0,?,0.0,0.0,291.0,146.0,146.0,16.0,0.0,0.0,1.0
8800000.0,20.796875,1.3299902073211137E-6,8800000.0,77.7,56.06465391556533,55.400000000000006,49.202733485193626,370307.0,265104.0,0.0,1.0,0.0,?,0.0,0.0,301.0,151.0,151.0,16.0,0.0,0.0,1.0
8900000.0,21.046875,1.3510939768619005E-6,8900000.0,77.8,56.62249455827242,55.864811133200796,46.762589928057565,380307.0,267232.0,0.0,1.0,0.0,?,0.0,0.0,305.0,153.0,153.0,16.0,0.0,0.0,1.0
9000000.0,21.3125,1.3736354756272498E-6,9000000.0,76.1,53.28783294634552,50.6198347107438,44.2890442890443,390307.0,278416.0,0.0,1.0,0.0,?,0.0,0.0,317.0,159.0,159.0,16.0,0.0,0.0,1.0
9100000.0,21.5625,1.4006893616169689E-6,9100000.0,76.7,54.185084393827374,52.15605749486654,46.064814814814824,400207.0,282144.0,0.0,1.0,0.0,?,0.0,0.0,321.0,161.0,161.0,16.0,0.0,0.0,1.0
9200000.0,21.828125,1.429516576334006E-6,9200000.0,75.3,51.846970843048425,49.48875255623722,41.46919431279621,410207.0,292800.0,0.0,1.0,0.0,?,0.0,0.0,333.0,167.0,167.0,17.0,0.0,0.0,1.0
9300000.0,22.09375,1.4584053618212539E-6,9300000.0,75.5,52.06304980746956,50.70422535211267,40.53398058252428,420207.0,303152.0,0.0,1.0,0.0,?,0.0,0.0,349.0,175.0,175.0,17.0,0.0,0.0,1.0
9400000.0,22.34375,1.485332484460539E-6,9400000.0,78.5,57.84346789436946,56.47773279352227,48.56459330143542,430207.0,308624.0,0.0,1.0,0.0,?,0.0,0.0,355.0,178.0,178.0,17.0,0.0,0.0,1.0
9500000.0,22.609375,1.5138941752310426E-6,9500000.0,76.4,53.605410080993956,51.34020618556702,45.11627906976745,440207.0,317416.0,0.0,1.0,0.0,?,0.0,0.0,361.0,181.0,181.0,17.0,0.0,0.0,1.0
9600000.0,22.875,1.5423525150658353E-6,9600000.0,77.5,55.75569276753058,55.1792828685259,48.747152619589976,450207.0,325400.0,0.0,1.0,0.0,?,0.0,0.0,373.0,187.0,187.0,17.0,0.0,0.0,1.0
9700000.0,23.140625,1.5707938129910161E-6,9700000.0,76.6,54.098746542694066,54.296875,43.06569343065694,460207.0,334624.0,0.0,1.0,0.0,?,0.0,0.0,385.0,193.0,193.0,17.0,0.0,0.0,1.0
9800000.0,23.390625,1.597075736046665E-6,9800000.0,78.4,57.74003075586652,56.451612903225815,48.20143884892087,470207.0,336680.0,0.0,1.0,0.0,?,0.0,0.0,387.0,194.0,194.0,17.0,0.0,0.0,1.0
9900000.0,23.65625,1.6248628445383572E-6,9900000.0,75.7,52.61125628924685,53.17919075144509,43.35664335664337,480207.0,344184.0,0.0,1.0,0.0,?,0.0,0.0,395.0,198.0,198.0,17.0,0.0,0.0,1.0
1.0E7,23.921875,1.652146941826989E-6,1.0E7,78.2,57.25574008352778,54.393305439330554,48.46335697399529,490207.0,346432.0,0.0,1.0,0.0,?,0.0,0.0,399.0,200.0,200.0,17.0,0.0,0.0,1.0
