learning evaluation instances,evaluation time (cpu seconds),model cost (RAM-Hours),classified instances,classifications correct (percent),Kappa Statistic (percent),Kappa Temporal Statistic (percent),Kappa M Statistic (percent),model training instances,model serialized size (bytes),labeling cost,newThreshold,maxPosterior,accuracyBaseLearner (percent),Change detected,Warning detected,tree size (nodes),tree size (leaves),active learning leaves,tree depth,active leaf byte size estimate,inactive leaf byte size estimate,byte size estimate overhead
100000.0,0.1875,2.949576204021772E-9,100000.0,86.4,63.84671005061461,66.66666666666666,51.77304964539007,19800.0,14760.0,0.0,1.0,0.0,?,0.0,7.0,15.0,8.0,8.0,4.0,0.0,0.0,1.0
200000.0,0.375,6.528959299127262E-9,200000.0,84.89999999999999,62.619321107458305,64.30260047281322,48.4641638225256,39600.0,26616.0,0.0,1.0,0.0,?,0.0,0.0,33.0,17.0,17.0,6.0,0.0,0.0,1.0
300000.0,0.53125,1.0286910562879512E-8,300000.0,80.30000000000001,52.782251879122576,54.18604651162793,34.55149501661132,59400.0,44608.0,0.0,1.0,0.0,?,0.0,0.0,49.0,25.0,25.0,7.0,0.0,0.0,1.0
400000.0,0.703125,1.4972368565698466E-8,400000.0,80.9,51.98109412711184,54.631828978622345,33.4494773519164,79200.0,55912.0,0.0,1.0,0.0,?,0.0,0.0,61.0,31.0,31.0,8.0,0.0,0.0,1.0
500000.0,0.859375,1.978420186787844E-8,500000.0,83.3,58.549274239987284,60.426540284360186,44.518272425249165,99000.0,68456.0,0.0,1.0,0.0,?,0.0,0.0,73.0,37.0,37.0,9.0,0.0,0.0,1.0
600000.0,1.015625,2.5092740543186666E-8,600000.0,81.39999999999999,54.41176470588235,56.94444444444444,37.999999999999986,118800.0,79640.0,0.0,1.0,0.0,?,0.0,0.0,85.0,43.0,43.0,10.0,0.0,0.0,1.0
700000.0,1.1875,3.208357763166229E-8,700000.0,80.9,51.87801707196632,50.89974293059127,33.4494773519164,138600.0,104256.0,0.0,1.0,0.0,?,0.0,0.0,113.0,57.0,57.0,11.0,0.0,0.0,1.0
800000.0,1.359375,3.9542177950756424E-8,800000.0,82.69999999999999,56.03557814485387,55.06493506493505,39.72125435540069,158400.0,113696.0,0.0,1.0,0.0,?,0.0,0.0,123.0,62.0,62.0,11.0,0.0,0.0,1.0
900000.0,1.53125,4.770971524218719E-8,900000.0,80.2,50.498267439360376,52.17391304347827,31.487889273356423,178200.0,128488.0,0.0,1.0,0.0,?,0.0,0.0,139.0,70.0,70.0,12.0,0.0,0.0,1.0
1000000.0,1.703125,5.648623401713041E-8,1000000.0,79.7,47.975397232188634,47.40932642487048,26.1818181818182,198000.0,141056.0,0.0,1.0,0.0,?,0.0,0.0,153.0,77.0,77.0,12.0,0.0,0.0,1.0
1100000.0,1.875,6.550926223604216E-8,1100000.0,79.3,54.02288638544369,55.00000000000001,34.70031545741325,217820.0,155152.0,0.0,1.0,0.0,?,0.0,0.0,167.0,84.0,84.0,12.0,0.0,0.0,1.0
1200000.0,2.0625,7.613604086347752E-8,1200000.0,84.8,63.26372776488787,62.926829268292686,45.714285714285715,237620.0,170136.0,0.0,1.0,0.0,?,0.0,0.0,187.0,94.0,94.0,13.0,0.0,0.0,1.0
1300000.0,2.265625,8.855306077748537E-8,1300000.0,84.7,63.10728305635664,63.48448687350835,47.781569965870304,257420.0,186192.0,0.0,1.0,0.0,?,0.0,0.0,201.0,101.0,101.0,13.0,0.0,0.0,1.0
1400000.0,2.46875,1.0175915021035406E-7,1400000.0,83.3,61.536335495283,59.26829268292683,46.64536741214055,277220.0,200080.0,0.0,1.0,0.0,?,0.0,0.0,215.0,108.0,108.0,14.0,0.0,0.0,1.0
1500000.0,2.640625,1.1365990050964885E-7,1500000.0,82.8,58.67748739903613,56.78391959798994,39.22261484098939,297020.0,215256.0,0.0,1.0,0.0,?,0.0,0.0,233.0,117.0,117.0,14.0,0.0,0.0,1.0
1600000.0,2.84375,1.2854796497979098E-7,1600000.0,84.3,62.51265496361101,62.52983293556086,46.95945945945946,316820.0,229784.0,0.0,1.0,0.0,?,0.0,0.0,247.0,124.0,124.0,14.0,0.0,0.0,1.0
1700000.0,3.03125,1.4296677869020236E-7,1700000.0,83.0,59.455849805388084,58.93719806763285,44.44444444444444,336620.0,242592.0,0.0,1.0,0.0,?,0.0,0.0,261.0,131.0,131.0,14.0,0.0,0.0,1.0
1800000.0,3.21875,1.5815897818861736E-7,1800000.0,84.1,61.82839583233303,60.447761194029844,44.4055944055944,356420.0,257384.0,0.0,1.0,0.0,?,0.0,0.0,277.0,139.0,139.0,14.0,0.0,0.0,1.0
1900000.0,3.4375,1.769896738955544E-7,1900000.0,83.5,60.52556029780474,61.44859813084111,44.81605351170568,376220.0,275736.0,0.0,1.0,0.0,?,0.0,0.0,297.0,149.0,149.0,15.0,0.0,0.0,1.0
2000000.0,3.625,1.936405573764609E-7,2000000.0,81.6,52.99407316574697,50.27027027027026,30.303030303030287,396020.0,285176.0,0.0,1.0,0.0,?,0.0,0.0,307.0,154.0,154.0,15.0,0.0,0.0,1.0
2100000.0,3.8125,2.1045907892079817E-7,2100000.0,85.6,65.38644590911056,65.95744680851064,52.159468438538205,415840.0,297200.0,0.0,1.0,0.0,?,0.0,0.0,325.0,163.0,163.0,15.0,0.0,0.0,1.0
2200000.0,3.984375,2.263182088629239E-7,2200000.0,85.0,61.08424482679894,62.77915632754342,46.0431654676259,435640.0,306088.0,0.0,1.0,0.0,?,0.0,0.0,329.0,165.0,165.0,16.0,0.0,0.0,1.0
2300000.0,4.171875,2.443610315418078E-7,2300000.0,83.2,59.94659546061415,59.90453460620524,45.80645161290322,455440.0,320232.0,0.0,1.0,0.0,?,0.0,0.0,345.0,173.0,173.0,16.0,0.0,0.0,1.0
2400000.0,4.375,2.647927612997591E-7,2400000.0,82.69999999999999,56.47316935711122,53.243243243243235,37.99283154121863,475240.0,335912.0,0.0,1.0,0.0,?,0.0,0.0,365.0,183.0,183.0,16.0,0.0,0.0,1.0
2500000.0,4.578125,2.865184473598169E-7,2500000.0,85.1,61.923745272411324,64.60807600950118,48.797250859106526,495040.0,359280.0,0.0,1.0,0.0,?,0.0,0.0,387.0,194.0,194.0,16.0,0.0,0.0,1.0
2600000.0,4.765625,3.0708903472663624E-7,2600000.0,85.2,64.74175719458738,65.01182033096926,55.15151515151514,514840.0,368840.0,0.0,1.0,0.0,?,0.0,0.0,397.0,199.0,199.0,16.0,0.0,0.0,1.0
2700000.0,4.96875,3.3028944421352607E-7,2700000.0,85.5,64.49559255631733,67.1945701357466,51.66666666666667,534640.0,385088.0,0.0,1.0,0.0,?,0.0,0.0,415.0,208.0,208.0,16.0,0.0,0.0,1.0
2800000.0,5.171875,3.541561697299281E-7,2800000.0,86.9,65.34098124708969,66.91919191919192,51.11940298507462,554440.0,396656.0,0.0,1.0,0.0,?,0.0,0.0,429.0,215.0,215.0,16.0,0.0,0.0,1.0
2900000.0,5.375,3.7847649461279305E-7,2900000.0,85.8,65.25959887069232,65.1105651105651,52.508361204013376,574240.0,404232.0,0.0,1.0,0.0,?,0.0,0.0,437.0,219.0,219.0,16.0,0.0,0.0,1.0
3000000.0,5.59375,4.055264354166057E-7,3000000.0,85.8,65.58410082404265,67.2055427251732,54.19354838709678,594040.0,418240.0,0.0,1.0,0.0,?,0.0,0.0,461.0,231.0,231.0,16.0,0.0,0.0,1.0
3100000.0,5.796875,4.3124791571042597E-7,3100000.0,84.5,63.008572465013266,62.00980392156863,49.83818770226537,613860.0,438216.0,0.0,1.0,0.0,?,0.0,0.0,479.0,240.0,240.0,16.0,0.0,0.0,1.0
3200000.0,5.984375,4.5542272144100724E-7,3200000.0,85.1,64.27235495535243,65.18691588785046,52.54777070063693,633660.0,446056.0,0.0,1.0,0.0,?,0.0,0.0,489.0,245.0,245.0,16.0,0.0,0.0,1.0
3300000.0,6.171875,4.804128224754498E-7,3300000.0,85.7,63.80479902804495,64.16040100250626,49.824561403508774,653460.0,461704.0,0.0,1.0,0.0,?,0.0,0.0,503.0,252.0,252.0,17.0,0.0,0.0,1.0
3400000.0,6.421875,5.148101869660118E-7,3400000.0,86.8,65.41333682693568,68.26923076923077,52.0,673260.0,477208.0,0.0,1.0,0.0,?,0.0,0.0,515.0,258.0,258.0,17.0,0.0,0.0,1.0
3500000.0,6.625,5.439368154232699E-7,3500000.0,85.1,61.53925577169289,60.994764397905755,45.421245421245416,693060.0,498408.0,0.0,1.0,0.0,?,0.0,0.0,539.0,270.0,270.0,17.0,0.0,0.0,1.0
3600000.0,6.84375,5.762745988451771E-7,3600000.0,83.8,60.526315789473685,63.09794988610478,46.0,712860.0,514392.0,0.0,1.0,0.0,?,0.0,0.0,555.0,278.0,278.0,17.0,0.0,0.0,1.0
3700000.0,7.046875,6.070285518136288E-7,3700000.0,85.1,62.07686434207177,62.74999999999999,48.62068965517241,732660.0,527080.0,0.0,1.0,0.0,?,0.0,0.0,569.0,285.0,285.0,17.0,0.0,0.0,1.0
3800000.0,7.25,6.382865507880018E-7,3800000.0,85.9,66.15295981564165,67.13286713286713,53.92156862745099,752460.0,535616.0,0.0,1.0,0.0,?,0.0,0.0,577.0,289.0,289.0,17.0,0.0,0.0,1.0
3900000.0,7.453125,6.701953114113873E-7,3900000.0,87.0,68.46129958854127,68.3698296836983,57.236842105263165,772260.0,546872.0,0.0,1.0,0.0,?,0.0,0.0,595.0,298.0,298.0,17.0,0.0,0.0,1.0
4000000.0,7.6875,7.083121130967305E-7,4000000.0,85.6,64.97373029772329,67.64044943820224,51.67785234899329,792060.0,567088.0,0.0,1.0,0.0,?,0.0,0.0,613.0,307.0,307.0,17.0,0.0,0.0,1.0
4100000.0,7.921875,7.468334580254222E-7,4100000.0,84.0,60.36169949213427,61.44578313253012,45.762711864406775,811880.0,582288.0,0.0,1.0,0.0,?,0.0,0.0,633.0,317.0,317.0,17.0,0.0,0.0,1.0
4200000.0,8.125,7.807365424620607E-7,4200000.0,85.39999999999999,64.26263536138798,63.591022443890274,50.34013605442177,831680.0,591080.0,0.0,1.0,0.0,?,0.0,0.0,639.0,320.0,320.0,17.0,0.0,0.0,1.0
4300000.0,8.34375,8.179411330881217E-7,4300000.0,84.0,61.45934201461654,61.813842482100235,46.127946127946124,851480.0,602240.0,0.0,1.0,0.0,?,0.0,0.0,649.0,325.0,325.0,17.0,0.0,0.0,1.0
4400000.0,8.5625,8.560579671110542E-7,4400000.0,87.0,68.6940104417516,68.44660194174757,56.95364238410596,871280.0,617200.0,0.0,1.0,0.0,?,0.0,0.0,667.0,334.0,334.0,17.0,0.0,0.0,1.0
4500000.0,8.78125,8.949009740414717E-7,4500000.0,85.2,64.41897141977921,62.81407035175879,49.65986394557823,891080.0,628912.0,0.0,1.0,0.0,?,0.0,0.0,683.0,342.0,342.0,18.0,0.0,0.0,1.0
4600000.0,9.0,9.344103940141696E-7,4600000.0,83.1,59.6520045075157,60.606060606060595,44.4078947368421,910880.0,639592.0,0.0,1.0,0.0,?,0.0,0.0,693.0,347.0,347.0,18.0,0.0,0.0,1.0
4700000.0,9.21875,9.7470665221206E-7,4700000.0,85.6,64.67540623282831,66.51162790697674,50.68493150684932,930680.0,652376.0,0.0,1.0,0.0,?,0.0,0.0,705.0,353.0,353.0,18.0,0.0,0.0,1.0
4800000.0,9.4375,1.0155914545369642E-6,4800000.0,87.9,70.21582450474578,69.90049751243781,57.24381625441697,950480.0,661696.0,0.0,1.0,0.0,?,0.0,0.0,715.0,358.0,358.0,18.0,0.0,0.0,1.0
4900000.0,9.640625,1.0545114572677344E-6,4900000.0,87.4,69.53165805815101,71.10091743119267,55.94405594405595,970280.0,678688.0,0.0,1.0,0.0,?,0.0,0.0,737.0,369.0,369.0,18.0,0.0,0.0,1.0
5000000.0,9.875,1.1008879260366985E-6,5000000.0,85.0,63.12122299858876,62.77915632754342,48.09688581314879,990080.0,701008.0,0.0,1.0,0.0,?,0.0,0.0,761.0,381.0,381.0,18.0,0.0,0.0,1.0
5100000.0,10.125,1.1044548914974757E-6,5100000.0,82.19999999999999,64.57358941188177,64.25702811244979,60.53215077605321,9800.0,9000.0,0.0,1.0,0.0,?,4.0,43.0,9.0,5.0,5.0,3.0,0.0,0.0,1.0
5200000.0,10.296875,1.1075449745274246E-6,5200000.0,87.9,75.81354441512754,76.08695652173914,75.20491803278688,29600.0,22216.0,0.0,1.0,0.0,?,0.0,0.0,23.0,12.0,12.0,5.0,0.0,0.0,1.0
5300000.0,10.484375,1.1116036006973843E-6,5300000.0,84.89999999999999,69.33586769340741,69.3711967545639,66.95842450765863,49400.0,35264.0,0.0,1.0,0.0,?,0.0,0.0,37.0,19.0,19.0,6.0,0.0,0.0,1.0
5400000.0,10.640625,1.1157625380696515E-6,5400000.0,86.2,72.23127724051336,73.5632183908046,70.57569296375266,69200.0,53280.0,0.0,1.0,0.0,?,0.0,0.0,57.0,29.0,29.0,7.0,0.0,0.0,1.0
5500000.0,10.828125,1.121357458436654E-6,5500000.0,86.6,72.99617512988034,72.59713701431492,71.05831533477321,89000.0,64632.0,0.0,1.0,0.0,?,0.0,0.0,69.0,35.0,35.0,8.0,0.0,0.0,1.0
5600000.0,11.03125,1.1282778965930136E-6,5600000.0,85.8,71.47219543555127,71.4859437751004,69.91525423728812,108800.0,79832.0,0.0,1.0,0.0,?,0.0,0.0,85.0,43.0,43.0,8.0,0.0,0.0,1.0
5700000.0,11.1875,1.1340863744003897E-6,5700000.0,88.7,77.10325822661696,76.0593220338983,73.5981308411215,128600.0,90728.0,0.0,1.0,0.0,?,0.0,0.0,97.0,49.0,49.0,9.0,0.0,0.0,1.0
5800000.0,11.359375,1.1414315021182919E-6,5800000.0,85.9,71.51860380559931,70.625,69.48051948051948,148400.0,110992.0,0.0,1.0,0.0,?,0.0,0.0,121.0,61.0,61.0,9.0,0.0,0.0,1.0
5900000.0,11.53125,1.149398772718591E-6,5900000.0,87.5,74.71253206450935,75.29644268774703,71.71945701357465,168200.0,123848.0,0.0,1.0,0.0,?,0.0,0.0,137.0,69.0,69.0,9.0,0.0,0.0,1.0
6000000.0,11.71875,1.1592059874803647E-6,6000000.0,88.0,75.79083279535183,75.95190380761522,73.09417040358744,188000.0,145616.0,0.0,1.0,0.0,?,0.0,0.0,157.0,79.0,79.0,10.0,0.0,0.0,1.0
6100000.0,11.890625,1.1679800162609245E-6,6100000.0,86.7,73.3334402669062,75.09363295880149,71.14967462039046,207820.0,149440.0,0.0,1.0,0.0,?,0.0,0.0,163.0,82.0,82.0,10.0,0.0,0.0,1.0
6200000.0,12.09375,1.1793687655073066E-6,6200000.0,88.8,77.58700046026695,76.42105263157895,76.2208067940552,227620.0,167648.0,0.0,1.0,0.0,?,0.0,0.0,181.0,91.0,91.0,11.0,0.0,0.0,1.0
6300000.0,12.28125,1.1902062558672489E-6,6300000.0,88.2,76.27015026223495,76.30522088353415,74.45887445887446,247420.0,173312.0,0.0,1.0,0.0,?,0.0,0.0,187.0,94.0,94.0,11.0,0.0,0.0,1.0
6400000.0,12.46875,1.2023305235844514E-6,6400000.0,87.1,74.1400048111619,73.18087318087318,72.61146496815286,267220.0,198544.0,0.0,1.0,0.0,?,0.0,0.0,215.0,108.0,108.0,11.0,0.0,0.0,1.0
6500000.0,12.671875,1.2163004592164518E-6,6500000.0,86.3,72.4341639302041,72.43460764587525,69.75717439293597,287020.0,213288.0,0.0,1.0,0.0,?,0.0,0.0,231.0,116.0,116.0,11.0,0.0,0.0,1.0
6600000.0,12.875,1.2306668213568623E-6,6600000.0,87.9,75.62096033268321,76.32093933463796,73.05122494432071,306820.0,219792.0,0.0,1.0,0.0,?,0.0,0.0,239.0,120.0,120.0,11.0,0.0,0.0,1.0
6700000.0,13.09375,1.2470020899652603E-6,6700000.0,86.5,72.9727565385909,74.03846153846155,71.81628392484342,326620.0,233912.0,0.0,1.0,0.0,?,0.0,0.0,253.0,127.0,127.0,11.0,0.0,0.0,1.0
6800000.0,13.28125,1.261612988956686E-6,6800000.0,86.5,72.90788681517158,71.45877378435517,70.0,346420.0,245360.0,0.0,1.0,0.0,?,0.0,0.0,267.0,134.0,134.0,11.0,0.0,0.0,1.0
6900000.0,13.5,1.2797827043363612E-6,6900000.0,87.2,74.25365779088338,73.55371900826447,71.61862527716187,366220.0,264024.0,0.0,1.0,0.0,?,0.0,0.0,285.0,143.0,143.0,11.0,0.0,0.0,1.0
7000000.0,13.6875,1.295678052378611E-6,7000000.0,86.8,73.01717089125101,71.24183006535947,67.56756756756756,386020.0,269616.0,0.0,1.0,0.0,?,0.0,0.0,291.0,146.0,146.0,12.0,0.0,0.0,1.0
7100000.0,13.890625,1.3135054743745255E-6,7100000.0,88.5,76.9736578645971,78.13688212927758,75.73839662447257,405840.0,289640.0,0.0,1.0,0.0,?,0.0,0.0,315.0,158.0,158.0,12.0,0.0,0.0,1.0
7200000.0,14.09375,1.3320685765292076E-6,7200000.0,88.9,77.54309298373391,77.30061349693251,75.0561797752809,425640.0,302520.0,0.0,1.0,0.0,?,0.0,0.0,327.0,164.0,164.0,12.0,0.0,0.0,1.0
7300000.0,14.28125,1.3499887750691003E-6,7300000.0,86.1,72.13781159548111,70.2991452991453,70.36247334754798,445440.0,317552.0,0.0,1.0,0.0,?,0.0,0.0,343.0,172.0,172.0,12.0,0.0,0.0,1.0
7400000.0,14.484375,1.3699803578977776E-6,7400000.0,87.9,75.38168560174485,75.55555555555556,71.72897196261682,465240.0,327472.0,0.0,1.0,0.0,?,0.0,0.0,353.0,177.0,177.0,12.0,0.0,0.0,1.0
7500000.0,14.671875,1.3889424735680215E-6,7500000.0,87.1,73.69623020080583,74.45544554455445,69.5754716981132,485040.0,336864.0,0.0,1.0,0.0,?,0.0,0.0,365.0,183.0,183.0,12.0,0.0,0.0,1.0
7600000.0,14.875,1.4110893890675565E-6,7600000.0,87.1,74.21402756900247,74.60629921259843,74.50592885375494,504840.0,366064.0,0.0,1.0,0.0,?,0.0,0.0,395.0,198.0,198.0,12.0,0.0,0.0,1.0
7700000.0,15.09375,1.4357530097994532E-6,7700000.0,88.7,77.30613818754368,78.79924953095686,75.05518763796908,524640.0,379304.0,0.0,1.0,0.0,?,0.0,0.0,409.0,205.0,205.0,12.0,0.0,0.0,1.0
7800000.0,15.296875,1.459123676694515E-6,7800000.0,87.2,73.78564026525656,73.66255144032921,68.55036855036856,544440.0,387168.0,0.0,1.0,0.0,?,0.0,0.0,417.0,209.0,209.0,12.0,0.0,0.0,1.0
7900000.0,15.5,1.4829496245106883E-6,7900000.0,87.7,75.28254264263782,74.48132780082987,73.66167023554604,564240.0,394768.0,0.0,1.0,0.0,?,0.0,0.0,427.0,214.0,214.0,12.0,0.0,0.0,1.0
8000000.0,15.71875,1.5096142952744325E-6,8000000.0,87.8,75.5233390980551,76.62835249042146,74.09766454352442,584040.0,411376.0,0.0,1.0,0.0,?,0.0,0.0,443.0,222.0,222.0,12.0,0.0,0.0,1.0
8100000.0,15.953125,1.538549323514517E-6,8100000.0,86.6,73.07193009955347,71.96652719665272,70.80610021786492,603860.0,425952.0,0.0,1.0,0.0,?,0.0,0.0,459.0,230.0,230.0,13.0,0.0,0.0,1.0
8200000.0,16.171875,1.5661737739315456E-6,8200000.0,86.5,72.8632306826405,73.4251968503937,70.90517241379311,623660.0,435800.0,0.0,1.0,0.0,?,0.0,0.0,469.0,235.0,235.0,13.0,0.0,0.0,1.0
8300000.0,16.390625,1.5954552024292442E-6,8300000.0,86.9,73.61148041609256,74.6615087040619,71.08167770419426,643460.0,463760.0,0.0,1.0,0.0,?,0.0,0.0,499.0,250.0,250.0,13.0,0.0,0.0,1.0
8400000.0,16.578125,1.6209641277479623E-6,8400000.0,88.2,76.20814246080391,76.44710578842316,74.235807860262,663260.0,471168.0,0.0,1.0,0.0,?,0.0,0.0,507.0,254.0,254.0,13.0,0.0,0.0,1.0
8500000.0,16.796875,1.6513148956518201E-6,8500000.0,87.2,74.02976837799672,72.93868921775898,70.50691244239631,683060.0,480512.0,0.0,1.0,0.0,?,0.0,0.0,519.0,260.0,260.0,13.0,0.0,0.0,1.0
8600000.0,16.984375,1.6778211122275221E-6,8600000.0,86.2,72.28470437017994,72.17741935483872,70.0,702860.0,489568.0,0.0,1.0,0.0,?,0.0,0.0,527.0,264.0,264.0,13.0,0.0,0.0,1.0
8700000.0,17.21875,1.7122921740843184E-6,8700000.0,87.3,74.05515832482125,74.2914979757085,70.46511627906978,722660.0,510408.0,0.0,1.0,0.0,?,0.0,0.0,551.0,276.0,276.0,13.0,0.0,0.0,1.0
8800000.0,17.421875,1.74355185461334E-6,8800000.0,88.8,77.46324698269098,77.60000000000001,75.59912854030502,742460.0,535472.0,0.0,1.0,0.0,?,0.0,0.0,577.0,289.0,289.0,13.0,0.0,0.0,1.0
8900000.0,17.625,1.7753555180711872E-6,8900000.0,87.0,73.93326916907283,74.75728155339806,71.73913043478261,762260.0,544744.0,0.0,1.0,0.0,?,0.0,0.0,587.0,294.0,294.0,13.0,0.0,0.0,1.0
9000000.0,17.84375,1.8102942138082445E-6,9000000.0,87.1,74.14643140587297,75.0965250965251,72.13822894168467,782060.0,555808.0,0.0,1.0,0.0,?,0.0,0.0,599.0,300.0,300.0,13.0,0.0,0.0,1.0
9100000.0,18.0625,1.8455964487252957E-6,9100000.0,86.2,72.30950747041331,72.23340040241449,69.80306345733041,801880.0,570768.0,0.0,1.0,0.0,?,0.0,0.0,617.0,309.0,309.0,13.0,0.0,0.0,1.0
9200000.0,18.28125,1.8819739084897762E-6,9200000.0,86.0,71.91676128043521,71.94388777555109,69.63123644251627,821680.0,588568.0,0.0,1.0,0.0,?,0.0,0.0,637.0,319.0,319.0,14.0,0.0,0.0,1.0
9300000.0,18.5,1.919232826266023E-6,9300000.0,85.0,69.84185066488666,70.35573122529644,66.13995485327312,841480.0,603000.0,0.0,1.0,0.0,?,0.0,0.0,651.0,326.0,326.0,14.0,0.0,0.0,1.0
9400000.0,18.71875,1.9569227394337447E-6,9400000.0,87.3,74.4569589702333,74.39516129032258,71.39639639639638,861280.0,609576.0,0.0,1.0,0.0,?,0.0,0.0,659.0,330.0,330.0,14.0,0.0,0.0,1.0
9500000.0,18.96875,2.0010617380547845E-6,9500000.0,88.9,77.67497988736926,77.62096774193549,76.12903225806453,881080.0,624896.0,0.0,1.0,0.0,?,0.0,0.0,673.0,337.0,337.0,14.0,0.0,0.0,1.0
9600000.0,19.21875,2.046445604517227E-6,9600000.0,86.3,72.52923531015897,72.2672064777328,71.39874739039665,900880.0,642936.0,0.0,1.0,0.0,?,0.0,0.0,695.0,348.0,348.0,14.0,0.0,0.0,1.0
9700000.0,19.421875,2.0843268268638175E-6,9700000.0,87.0,73.67056612333516,74.9034749034749,69.9074074074074,920680.0,660904.0,0.0,1.0,0.0,?,0.0,0.0,713.0,357.0,357.0,14.0,0.0,0.0,1.0
9800000.0,19.65625,2.1290293403176784E-6,9800000.0,89.60000000000001,79.08555616332572,79.52755905511812,77.4891774891775,940480.0,676128.0,0.0,1.0,0.0,?,0.0,0.0,731.0,366.0,366.0,15.0,0.0,0.0,1.0
9900000.0,19.875,2.171186303409436E-6,9900000.0,89.4,78.76611071269747,79.96219281663517,77.8705636743215,960280.0,682776.0,0.0,1.0,0.0,?,0.0,0.0,737.0,369.0,369.0,15.0,0.0,0.0,1.0
1.0E7,20.125,2.2203803140049165E-6,1.0E7,88.6,77.0146461062004,76.63934426229508,74.77876106194691,980080.0,697304.0,0.0,1.0,0.0,?,0.0,0.0,755.0,378.0,378.0,15.0,0.0,0.0,1.0
