learning evaluation instances,evaluation time (cpu seconds),model cost (RAM-Hours),classified instances,classifications correct (percent),Kappa Statistic (percent),Kappa Temporal Statistic (percent),Kappa M Statistic (percent),model training instances,model serialized size (bytes),labeling cost,newThreshold,maxPosterior,accuracyBaseLearner (percent),Change detected,Warning detected
100000.0,0.234375,6.113259587436914E-9,100000.0,87.4,73.73500706653381,73.85892116182573,69.04176904176904,19800.0,1112.0,0.0,1.0,0.0,?,0.0,10.0
200000.0,0.46875,1.1644442565739155E-8,200000.0,88.2,75.99049386333301,75.31380753138075,73.66071428571428,39800.0,1112.0,0.0,1.0,0.0,?,0.0,0.0
300000.0,0.6875,1.6263608510295552E-8,300000.0,86.8,72.50916361212929,73.80952380952381,68.57142857142857,59800.0,1112.0,0.0,1.0,0.0,?,0.0,0.0
400000.0,0.9375,2.0921773587663972E-8,400000.0,85.39999999999999,69.92134224980119,71.37254901960785,66.28175519630484,79800.0,1112.0,0.0,1.0,0.0,?,0.0,0.0
500000.0,1.1875,2.4959056948622072E-8,500000.0,87.3,73.53835896153686,73.65145228215766,69.39759036144578,99800.0,1112.0,0.0,1.0,0.0,?,0.0,0.0
600000.0,1.421875,2.8161933490385615E-8,600000.0,86.6,72.26821192052981,72.37113402061856,68.83720930232559,119800.0,1112.0,0.0,1.0,0.0,?,0.0,0.0
700000.0,1.65625,3.0782733423014484E-8,700000.0,88.1,74.81268255513694,73.96061269146608,70.10050251256281,139800.0,1112.0,0.0,1.0,0.0,?,0.0,0.0
800000.0,1.890625,3.282145674650868E-8,800000.0,86.3,71.52974621989841,70.91295116772824,67.84037558685446,159800.0,1112.0,0.0,1.0,0.0,?,0.0,0.0
900000.0,2.125,3.42781034608682E-8,900000.0,87.5,73.86249581799933,74.8995983935743,69.87951807228916,179800.0,1112.0,0.0,1.0,0.0,?,0.0,0.0
1000000.0,2.359375,3.5152673566093045E-8,1000000.0,87.6,73.87581743409964,74.48559670781893,69.30693069306932,199800.0,1112.0,0.0,1.0,0.0,?,0.0,0.0
1100000.0,2.59375,4.1271753919621306E-8,1100000.0,88.4,76.21868964979971,77.86259541984734,73.45537757437071,219600.0,1112.0,0.0,1.0,0.0,?,0.0,0.0
1200000.0,2.84375,4.717789124697447E-8,1200000.0,88.7,76.82716758264293,75.7510729613734,74.31818181818181,239600.0,1112.0,0.0,1.0,0.0,?,0.0,0.0
1300000.0,3.078125,5.213281838223338E-8,1300000.0,88.9,77.03954989243753,77.30061349693251,74.24593967517403,259600.0,1112.0,0.0,1.0,0.0,?,0.0,0.0
1400000.0,3.3125,5.650566890835762E-8,1400000.0,86.9,73.08292923481548,72.59414225941421,70.22727272727273,279600.0,1112.0,0.0,1.0,0.0,?,0.0,0.0
1500000.0,3.5625,6.054916108647982E-8,1500000.0,87.7,74.21080881612936,74.58677685950413,70.14563106796116,299600.0,1112.0,0.0,1.0,0.0,?,0.0,0.0
1600000.0,3.796875,6.375785839433471E-8,1600000.0,87.8,74.30540344728817,74.84536082474227,69.95073891625616,319600.0,1112.0,0.0,1.0,0.0,?,0.0,0.0
1700000.0,4.03125,6.638447909305493E-8,1700000.0,86.9,73.23340471092077,74.21259842519686,70.95343680709534,339600.0,1112.0,0.0,1.0,0.0,?,0.0,0.0
1800000.0,4.265625,6.842902318264047E-8,1800000.0,86.7,72.22454264472475,71.45922746781116,67.40196078431373,359600.0,1112.0,0.0,1.0,0.0,?,0.0,0.0
1900000.0,4.515625,6.99889884951214E-8,1900000.0,87.5,74.00750247448576,74.06639004149378,69.80676328502415,379600.0,1112.0,0.0,1.0,0.0,?,0.0,0.0
2000000.0,4.75,7.086937936643759E-8,2000000.0,86.3,70.48940203343098,68.86363636363636,63.94736842105263,399600.0,1112.0,0.0,1.0,0.0,?,0.0,0.0
2100000.0,4.984375,7.69942804860572E-8,2100000.0,88.3,76.01102262755165,77.41312741312741,73.2876712328767,419400.0,1112.0,0.0,1.0,0.0,?,0.0,0.0
2200000.0,5.21875,8.253710499654212E-8,2200000.0,87.6,73.62274570199659,73.2181425485961,69.07730673316709,439400.0,1112.0,0.0,1.0,0.0,?,0.0,0.0
2300000.0,5.453125,8.749785289789238E-8,2300000.0,85.1,69.25502236748709,68.02575107296137,65.50925925925925,459400.0,1112.0,0.0,1.0,0.0,?,0.0,0.0
2400000.0,5.703125,9.2168435609589E-8,2400000.0,87.2,72.74508133889788,73.44398340248962,67.17948717948718,479400.0,1112.0,0.0,1.0,0.0,?,0.0,0.0
2500000.0,5.953125,9.62181366048753E-8,2500000.0,86.2,70.74895395715781,72.23340040241449,65.23929471032746,499400.0,1112.0,0.0,1.0,0.0,?,0.0,0.0
2600000.0,6.171875,9.921835347389179E-8,2600000.0,87.5,74.658806166222,74.9498997995992,73.17596566523605,519400.0,1112.0,0.0,1.0,0.0,?,0.0,0.0
2700000.0,6.40625,1.0185079493870335E-7,2700000.0,89.2,77.65640516385304,79.50664136622392,74.28571428571429,539400.0,1112.0,0.0,1.0,0.0,?,0.0,0.0
2800000.0,6.640625,1.0390115979438023E-7,2800000.0,88.1,74.23952479499857,74.35344827586206,68.18181818181819,559400.0,1112.0,0.0,1.0,0.0,?,0.0,0.0
2900000.0,6.875,1.0536944804092244E-7,2900000.0,86.8,72.40860349909075,72.44258872651356,68.19277108433735,579400.0,1112.0,0.0,1.0,0.0,?,0.0,0.0
3000000.0,7.109375,1.0625565967832998E-7,3000000.0,87.3,73.97818265266815,75.52986512524085,71.26696832579185,599400.0,1112.0,0.0,1.0,0.0,?,0.0,0.0
3100000.0,7.359375,1.1279509635642166E-7,3100000.0,87.0,73.15114665256758,72.57383966244726,69.33962264150944,619200.0,1112.0,0.0,1.0,0.0,?,0.0,0.0
3200000.0,7.578125,1.1797383194789286E-7,3200000.0,86.0,71.14794099341762,72.0,67.51740139211137,639200.0,1112.0,0.0,1.0,0.0,?,0.0,0.0
3300000.0,7.8125,1.2294040061533445E-7,3300000.0,86.8,72.40387349266612,73.22515212981745,68.11594202898551,659200.0,1112.0,0.0,1.0,0.0,?,0.0,0.0
3400000.0,8.046875,1.2732489267364137E-7,3400000.0,88.1,75.08855078167522,76.29482071713147,71.80094786729858,679200.0,1112.0,0.0,1.0,0.0,?,0.0,0.0
3500000.0,8.28125,1.3112730812281362E-7,3500000.0,86.2,70.88423317931515,70.06507592190889,65.92592592592592,699200.0,1112.0,0.0,1.0,0.0,?,0.0,0.0
3600000.0,8.515625,1.343476469628512E-7,3600000.0,86.2,71.55167082397081,72.00811359026369,67.83216783216784,719200.0,1112.0,0.0,1.0,0.0,?,0.0,0.0
3700000.0,8.765625,1.3716179334248097E-7,3700000.0,87.0,72.19846022241232,73.02904564315352,67.5,739200.0,1112.0,0.0,1.0,0.0,?,0.0,0.0
3800000.0,9.0,1.392179789642492E-7,3800000.0,88.6,76.54176183715045,77.15430861723446,74.03189066059225,759200.0,1112.0,0.0,1.0,0.0,?,0.0,0.0
3900000.0,9.234375,1.4069208797688275E-7,3900000.0,88.3,75.6495533670216,76.73956262425448,72.00956937799043,779200.0,1112.0,0.0,1.0,0.0,?,0.0,0.0
4000000.0,9.46875,1.4158412038038163E-7,4000000.0,86.7,72.52611052353252,72.57731958762886,68.99766899766901,799200.0,1112.0,0.0,1.0,0.0,?,0.0,0.0
4100000.0,9.703125,1.4772066303218394E-7,4100000.0,85.7,70.54752764001252,70.63655030800821,66.97459584295612,819000.0,1112.0,0.0,1.0,0.0,?,0.0,0.0
4200000.0,9.9375,1.5327512907485158E-7,4200000.0,86.3,71.6132775268327,71.98364008179959,67.45843230403801,839000.0,1112.0,0.0,1.0,0.0,?,0.0,0.0
4300000.0,10.171875,1.5824751850838454E-7,4300000.0,85.6,70.12931517306328,71.0261569416499,65.13317191283294,859000.0,1112.0,0.0,1.0,0.0,?,0.0,0.0
4400000.0,10.390625,1.6234514381115626E-7,4400000.0,86.6,72.17792837685204,72.8744939271255,67.94258373205741,879000.0,1112.0,0.0,1.0,0.0,?,0.0,0.0
4500000.0,10.625,1.6615338002641988E-7,4500000.0,87.4,73.93387479157444,73.96694214876032,70.62937062937064,899000.0,1112.0,0.0,1.0,0.0,?,0.0,0.0
4600000.0,10.859375,1.6937953963254882E-7,4600000.0,86.6,72.45394258086002,73.25349301397206,69.4760820045558,919000.0,1112.0,0.0,1.0,0.0,?,0.0,0.0
4700000.0,11.109375,1.721998948293427E-7,4700000.0,87.8,74.42551746401755,76.1252446183953,70.31630170316302,939000.0,1112.0,0.0,1.0,0.0,?,0.0,0.0
4800000.0,11.34375,1.742619012172023E-7,4800000.0,88.4,75.9123208478863,76.61290322580645,72.18225419664269,959000.0,1112.0,0.0,1.0,0.0,?,0.0,0.0
4900000.0,11.5625,1.7564316901067887E-7,4900000.0,88.9,77.16707121405358,78.61271676300578,74.18604651162791,979000.0,1112.0,0.0,1.0,0.0,?,0.0,0.0
5000000.0,11.796875,1.76586618181318E-7,5000000.0,88.2,75.59280525540682,75.36534446764091,72.03791469194313,999000.0,1112.0,0.0,1.0,0.0,?,0.0,0.0
5100000.0,12.046875,1.8318710822819002E-7,5100000.0,87.9,68.59850726127081,70.34313725490196,57.0921985815603,17207.0,1112.0,0.0,1.0,0.0,?,1.0,19.0
5200000.0,12.28125,1.8879299103799788E-7,5200000.0,89.5,73.40721905360093,75.11848341232228,64.16382252559728,37207.0,1112.0,0.0,1.0,0.0,?,0.0,0.0
5300000.0,12.515625,1.9381679723867107E-7,5300000.0,87.4,68.11740890688259,70.62937062937064,58.00000000000001,57207.0,1112.0,0.0,1.0,0.0,?,0.0,0.0
5400000.0,12.734375,1.97962411524107E-7,5400000.0,84.5,59.915589990793514,63.095238095238095,45.99303135888502,77207.0,1112.0,0.0,1.0,0.0,?,0.0,0.0
5500000.0,12.984375,2.0207937470533775E-7,5500000.0,87.5,68.28473709315661,70.37914691943128,58.4717607973422,97207.0,1112.0,0.0,1.0,0.0,?,0.0,0.0
5600000.0,13.21875,2.0535695107860692E-7,5600000.0,86.1,63.89872944305349,67.74941995359629,53.51170568561873,117207.0,1112.0,0.0,1.0,0.0,?,0.0,0.0
5700000.0,13.453125,2.080524508427414E-7,5700000.0,87.8,68.19471093684825,68.63753213367609,57.34265734265735,137207.0,1112.0,0.0,1.0,0.0,?,0.0,0.0
5800000.0,13.6875,2.1016587399774122E-7,5800000.0,87.1,65.96449754100091,66.58031088082902,55.052264808362374,157207.0,1112.0,0.0,1.0,0.0,?,0.0,0.0
5900000.0,13.90625,2.1159513077388202E-7,5900000.0,86.9,65.76810109646601,68.35748792270532,54.67128027681662,177207.0,1112.0,0.0,1.0,0.0,?,0.0,0.0
6000000.0,14.140625,2.125444007106125E-7,6000000.0,87.4,65.69094622191967,67.35751295336787,54.18181818181819,197207.0,1112.0,0.0,1.0,0.0,?,0.0,0.0
6100000.0,14.375,2.1873818089564637E-7,6100000.0,86.4,66.92478306548891,70.4989154013015,57.23270440251571,217007.0,1112.0,0.0,1.0,0.0,?,0.0,0.0
6200000.0,14.609375,2.2434988447154557E-7,6200000.0,88.9,71.04851330203444,72.92682926829269,60.35714285714286,237007.0,1112.0,0.0,1.0,0.0,?,0.0,0.0
6300000.0,14.84375,2.293795114383101E-7,6300000.0,90.2,74.72963285766596,76.66666666666667,66.5529010238908,257007.0,1112.0,0.0,1.0,0.0,?,0.0,0.0
6400000.0,15.0625,2.3353055843876462E-7,6400000.0,87.6,69.52373462054592,69.75609756097562,60.383386581469644,277007.0,1112.0,0.0,1.0,0.0,?,0.0,0.0
6500000.0,15.296875,2.373960321872598E-7,6500000.0,87.9,68.61382029466694,69.67418546365916,57.3943661971831,297007.0,1112.0,0.0,1.0,0.0,?,0.0,0.0
6600000.0,15.546875,2.4089832246924434E-7,6600000.0,87.9,68.52073468963006,71.1217183770883,58.98305084745763,317007.0,1112.0,0.0,1.0,0.0,?,0.0,0.0
6700000.0,15.78125,2.435996429994702E-7,6700000.0,86.5,65.53907103546159,67.3913043478261,55.88235294117647,337007.0,1112.0,0.0,1.0,0.0,?,0.0,0.0
6800000.0,16.015625,2.457188869205614E-7,6800000.0,87.1,66.48201461280232,67.91044776119402,54.89510489510489,357007.0,1112.0,0.0,1.0,0.0,?,0.0,0.0
6900000.0,16.25,2.472560542325179E-7,6900000.0,86.9,66.67243326854387,69.39252336448598,56.18729096989967,377007.0,1112.0,0.0,1.0,0.0,?,0.0,0.0
7000000.0,16.484375,2.482111449353397E-7,7000000.0,87.2,64.47286615152322,65.4054054054054,51.515151515151516,397007.0,1112.0,0.0,1.0,0.0,?,0.0,0.0
7100000.0,16.734375,2.5482405261653997E-7,7100000.0,88.5,71.1712976425642,72.74881516587678,61.79401993355482,416807.0,1112.0,0.0,1.0,0.0,?,0.0,0.0
7200000.0,16.96875,2.604415769585305E-7,7200000.0,88.3,68.45817068173487,70.96774193548387,58.06451612903226,436807.0,1112.0,0.0,1.0,0.0,?,0.0,0.0
7300000.0,17.203125,2.654770246913864E-7,7300000.0,86.3,65.88475521689328,67.38095238095238,55.80645161290323,456807.0,1112.0,0.0,1.0,0.0,?,0.0,0.0
7400000.0,17.453125,2.7022728722335566E-7,7400000.0,87.3,66.32407377944654,65.67567567567568,54.48028673835126,476807.0,1112.0,0.0,1.0,0.0,?,0.0,0.0
7500000.0,17.6875,2.740985817379422E-7,7500000.0,87.4,66.91784598419409,70.0,56.70103092783506,496807.0,1112.0,0.0,1.0,0.0,?,0.0,0.0
7600000.0,17.921875,2.7738779964339403E-7,7600000.0,86.2,66.36115444617784,67.45283018867924,58.181818181818166,516807.0,1112.0,0.0,1.0,0.0,?,0.0,0.0
7700000.0,18.15625,2.800949409397112E-7,7700000.0,88.8,71.7741935483871,74.6606334841629,62.66666666666667,536807.0,1112.0,0.0,1.0,0.0,?,0.0,0.0
7800000.0,18.390625,2.822200056268937E-7,7800000.0,88.1,67.06010009300677,69.94949494949495,55.59701492537313,556807.0,1112.0,0.0,1.0,0.0,?,0.0,0.0
7900000.0,18.625,2.8376299370494153E-7,7900000.0,86.8,65.89482169709434,67.64705882352942,55.85284280936455,576807.0,1112.0,0.0,1.0,0.0,?,0.0,0.0
8000000.0,18.859375,2.847239051738547E-7,8000000.0,86.6,66.03622464756246,69.05311778290994,56.913183279742775,596807.0,1112.0,0.0,1.0,0.0,?,0.0,0.0
8100000.0,19.078125,2.9051563210992346E-7,8100000.0,87.3,68.61252533241067,68.94865525672373,59.03225806451614,616607.0,1112.0,0.0,1.0,0.0,?,0.0,0.0
8200000.0,19.328125,2.9651386689187746E-7,8200000.0,85.6,64.35855295725005,66.35514018691589,54.14012738853502,636607.0,1112.0,0.0,1.0,0.0,?,0.0,0.0
8300000.0,19.5625,3.015551353908247E-7,8300000.0,86.7,65.18907826960928,66.66666666666666,53.16901408450705,656607.0,1112.0,0.0,1.0,0.0,?,0.0,0.0
8400000.0,19.796875,3.0601432728063726E-7,8400000.0,87.9,67.18519482773584,70.9832134292566,56.15942028985508,676607.0,1112.0,0.0,1.0,0.0,?,0.0,0.0
8500000.0,20.046875,3.101499169133603E-7,8500000.0,86.5,63.80580608491425,64.75195822454309,50.72992700729927,696607.0,1112.0,0.0,1.0,0.0,?,0.0,0.0
8600000.0,20.28125,3.134449555849035E-7,8600000.0,86.2,64.86761710794298,68.4931506849315,54.0,716607.0,1112.0,0.0,1.0,0.0,?,0.0,0.0
8700000.0,20.515625,3.1615791764731206E-7,8700000.0,87.8,67.95545282622399,69.5,57.931034482758626,736607.0,1112.0,0.0,1.0,0.0,?,0.0,0.0
8800000.0,20.75,3.1828880310058593E-7,8800000.0,86.7,66.5792198132457,69.06976744186046,56.53594771241831,756607.0,1112.0,0.0,1.0,0.0,?,0.0,0.0
8900000.0,21.0,3.1994086586766773E-7,8900000.0,87.7,68.8872250440132,70.14563106796116,59.539473684210535,776607.0,1112.0,0.0,1.0,0.0,?,0.0,0.0
9000000.0,21.234375,3.2090759810267225E-7,9000000.0,86.7,66.42872287794191,70.04504504504504,55.369127516778526,796607.0,1112.0,0.0,1.0,0.0,?,0.0,0.0
9100000.0,21.46875,3.2711884058598015E-7,9100000.0,86.1,64.43375466966891,66.50602409638554,52.721088435374156,816407.0,1112.0,0.0,1.0,0.0,?,0.0,0.0
9200000.0,21.703125,3.327480064601534E-7,9200000.0,86.9,67.17285621209844,67.25,55.442176870748305,836407.0,1112.0,0.0,1.0,0.0,?,0.0,0.0
9300000.0,21.921875,3.374586231075227E-7,9300000.0,85.5,63.530453329040824,65.39379474940334,51.01351351351352,856407.0,1112.0,0.0,1.0,0.0,?,0.0,0.0
9400000.0,22.1875,3.425189707842138E-7,9400000.0,88.4,71.29906375566597,71.84466019417476,61.58940397350994,876407.0,1112.0,0.0,1.0,0.0,?,0.0,0.0
9500000.0,22.421875,3.46401906830983E-7,9500000.0,86.7,66.05064325096997,66.66666666666666,54.91525423728814,896407.0,1112.0,0.0,1.0,0.0,?,0.0,0.0
9600000.0,22.671875,3.4992282356445987E-7,9600000.0,86.9,66.92921336968595,69.53488372093022,56.90789473684211,916407.0,1112.0,0.0,1.0,0.0,?,0.0,0.0
9700000.0,22.90625,3.526416063929597E-7,9700000.0,87.9,68.75516443563046,71.86046511627907,58.56164383561645,936407.0,1112.0,0.0,1.0,0.0,?,0.0,74.0
9800000.0,23.125,3.546358655310339E-7,9800000.0,88.4,70.07177613688552,71.14427860696519,59.01060070671379,956407.0,1112.0,0.0,1.0,0.0,?,0.0,125.0
9900000.0,23.375,3.5628275428381225E-7,9900000.0,89.2,72.14843850736261,75.17241379310346,62.10526315789474,976407.0,1112.0,0.0,1.0,0.0,?,0.0,54.0
1.0E7,23.609375,3.572446358804073E-7,1.0E7,88.3,69.62742980561556,71.11111111111111,59.51557093425607,996407.0,1112.0,0.0,1.0,0.0,?,0.0,0.0
