learning evaluation instances,evaluation time (cpu seconds),model cost (RAM-Hours),classified instances,classifications correct (percent),Kappa Statistic (percent),Kappa Temporal Statistic (percent),Kappa M Statistic (percent),model training instances,model serialized size (bytes),labeling cost,newThreshold,maxPosterior,accuracyBaseLearner (percent),Change detected,Warning detected
100000.0,0.234375,6.711828367163738E-9,100000.0,87.4,73.75535828101762,73.85892116182573,69.04176904176904,19800.0,1112.0,0.0,1.0,0.0,?,0.0,2.0
200000.0,0.453125,1.2432930007990863E-8,200000.0,88.6,76.82399245356667,76.15062761506276,74.55357142857143,39800.0,1112.0,0.0,1.0,0.0,?,0.0,0.0
300000.0,0.6875,1.7980605156885253E-8,300000.0,86.8,72.49083027675893,73.80952380952381,68.57142857142857,59800.0,1112.0,0.0,1.0,0.0,?,0.0,0.0
400000.0,0.921875,2.2946203696644968E-8,400000.0,85.5,70.13560494966305,71.56862745098039,66.51270207852194,79800.0,1112.0,0.0,1.0,0.0,?,0.0,0.0
500000.0,1.15625,2.732972562727001E-8,500000.0,87.1,73.14066794369951,73.23651452282157,68.91566265060241,99800.0,1112.0,0.0,1.0,0.0,?,0.0,0.0
600000.0,1.40625,3.138460063685974E-8,600000.0,86.5,72.06935076757561,72.16494845360825,68.6046511627907,119800.0,1112.0,0.0,1.0,0.0,?,0.0,0.0
700000.0,1.640625,3.460396934921543E-8,700000.0,88.3,75.25736569190556,74.39824945295405,70.60301507537689,139800.0,1112.0,0.0,1.0,0.0,?,0.0,0.0
800000.0,1.875,3.7241261452436444E-8,800000.0,86.1,71.1318795430945,70.48832271762208,67.37089201877934,159800.0,1112.0,0.0,1.0,0.0,?,0.0,0.0
900000.0,2.109375,3.9296476946522786E-8,900000.0,87.6,74.08080934763069,75.1004016064257,70.12048192771084,179800.0,1112.0,0.0,1.0,0.0,?,0.0,0.0
1000000.0,2.34375,4.0769615831474454E-8,1000000.0,87.6,73.87581743409964,74.48559670781893,69.30693069306932,199800.0,1112.0,0.0,1.0,0.0,?,0.0,0.0
1100000.0,2.578125,4.748726496472954E-8,1100000.0,88.4,76.23096940761839,77.86259541984734,73.45537757437071,219600.0,1112.0,0.0,1.0,0.0,?,0.0,0.0
1200000.0,2.8125,5.3622837488849945E-8,1200000.0,88.5,76.40541649569143,75.32188841201717,73.86363636363636,239600.0,1112.0,0.0,1.0,0.0,?,0.0,0.0
1300000.0,3.0625,5.954656646483473E-8,1300000.0,89.0,77.25289405225217,77.50511247443764,74.47795823665894,259600.0,1112.0,0.0,1.0,0.0,?,0.0,0.0
1400000.0,3.296875,6.45179857706858E-8,1400000.0,87.1,73.50694159204798,73.01255230125523,70.68181818181817,279600.0,1112.0,0.0,1.0,0.0,?,0.0,0.0
1500000.0,3.53125,6.890732846740219E-8,1500000.0,87.5,73.8108008447588,74.17355371900827,69.66019417475728,299600.0,1112.0,0.0,1.0,0.0,?,0.0,0.0
1600000.0,3.765625,7.27145945549839E-8,1600000.0,88.0,74.74662446547022,75.25773195876289,70.44334975369459,319600.0,1112.0,0.0,1.0,0.0,?,0.0,0.0
1700000.0,4.0,7.593978403343094E-8,1700000.0,86.9,73.23340471092077,74.21259842519686,70.95343680709534,339600.0,1112.0,0.0,1.0,0.0,?,0.0,101.0
1800000.0,4.25,7.875910442736412E-8,1800000.0,86.9,72.64221869518002,71.88841201716738,67.8921568627451,359600.0,1112.0,0.0,1.0,0.0,?,0.0,0.0
1900000.0,4.484375,8.082014068754181E-8,1900000.0,87.5,74.02608196952947,74.06639004149378,69.80676328502415,379600.0,1112.0,0.0,1.0,0.0,?,0.0,0.0
2000000.0,4.71875,8.229910033858483E-8,2000000.0,86.3,70.48940203343098,68.86363636363636,63.94736842105263,399600.0,1112.0,0.0,1.0,0.0,?,0.0,0.0
2100000.0,4.96875,8.947080156455436E-8,2100000.0,88.2,75.79983593109107,77.22007722007721,73.0593607305936,419400.0,1112.0,0.0,1.0,0.0,?,0.0,0.0
2200000.0,5.1875,9.520276863541867E-8,2200000.0,87.6,73.62274570199659,73.2181425485961,69.07730673316709,439400.0,1112.0,0.0,1.0,0.0,?,0.0,0.0
2300000.0,5.4375,1.0113270642856756E-7,2300000.0,85.2,69.4527921799148,68.24034334763948,65.74074074074075,459400.0,1112.0,0.0,1.0,0.0,?,0.0,0.0
2400000.0,5.671875,1.0610994650050997E-7,2400000.0,87.2,72.74508133889788,73.44398340248962,67.17948717948718,479400.0,1112.0,0.0,1.0,0.0,?,0.0,0.0
2500000.0,5.90625,1.105051099633177E-7,2500000.0,86.2,70.74895395715781,72.23340040241449,65.23929471032746,499400.0,1112.0,0.0,1.0,0.0,?,0.0,0.0
2600000.0,6.140625,1.1431819681699075E-7,2600000.0,87.5,74.658806166222,74.9498997995992,73.17596566523605,519400.0,1112.0,0.0,1.0,0.0,?,0.0,28.0
2700000.0,6.390625,1.1776460774449836E-7,2700000.0,89.2,77.65640516385304,79.50664136622392,74.28571428571429,539400.0,1112.0,0.0,1.0,0.0,?,0.0,36.0
2800000.0,6.625,1.2041354137990207E-7,2800000.0,88.2,74.44205711117272,74.56896551724138,68.44919786096257,559400.0,1112.0,0.0,1.0,0.0,?,0.0,2.0
2900000.0,6.859375,1.224803984061711E-7,2900000.0,86.8,72.40860349909075,72.44258872651356,68.19277108433735,579400.0,1112.0,0.0,1.0,0.0,?,0.0,0.0
3000000.0,7.09375,1.2396517882330546E-7,3000000.0,87.3,73.97818265266815,75.52986512524085,71.26696832579185,599400.0,1112.0,0.0,1.0,0.0,?,0.0,0.0
3100000.0,7.328125,1.3069446948874322E-7,3100000.0,87.0,73.15114665256758,72.57383966244726,69.33962264150944,619200.0,1112.0,0.0,1.0,0.0,?,0.0,0.0
3200000.0,7.5625,1.3684168354504632E-7,3200000.0,86.0,71.14794099341762,72.0,67.51740139211137,639200.0,1112.0,0.0,1.0,0.0,?,0.0,0.0
3300000.0,7.796875,1.4240682099221473E-7,3300000.0,86.8,72.40387349266612,73.22515212981745,68.11594202898551,659200.0,1112.0,0.0,1.0,0.0,?,0.0,0.0
3400000.0,8.046875,1.477220858861174E-7,3400000.0,88.1,75.08855078167522,76.29482071713147,71.80094786729858,679200.0,1112.0,0.0,1.0,0.0,?,0.0,0.0
3500000.0,8.28125,1.5212307011501647E-7,3500000.0,86.5,71.55139714249589,70.71583514099783,66.66666666666666,699200.0,1112.0,0.0,1.0,0.0,?,0.0,0.0
3600000.0,8.5,1.5568738389346324E-7,3600000.0,86.2,71.56831639107162,72.00811359026369,67.83216783216784,719200.0,1112.0,0.0,1.0,0.0,?,0.0,0.0
3700000.0,8.75,1.5914000363813495E-7,3700000.0,87.2,72.64957264957265,73.44398340248962,68.0,739200.0,1112.0,0.0,1.0,0.0,?,0.0,0.0
3800000.0,8.984375,1.6179475803963E-7,3800000.0,88.7,76.75337178970236,77.35470941883767,74.25968109339408,759200.0,1112.0,0.0,1.0,0.0,?,0.0,0.0
3900000.0,9.21875,1.6386743583199037E-7,3900000.0,88.3,75.6495533670216,76.73956262425448,72.00956937799043,779200.0,1112.0,0.0,1.0,0.0,?,0.0,0.0
4000000.0,9.453125,1.6535803701521607E-7,4000000.0,86.8,72.75665501256908,72.78350515463917,69.23076923076923,799200.0,1112.0,0.0,1.0,0.0,?,0.0,0.0
4100000.0,9.6875,1.720931484467452E-7,4100000.0,85.7,70.54752764001252,70.63655030800821,66.97459584295612,819000.0,1112.0,0.0,1.0,0.0,?,0.0,0.0
4200000.0,9.90625,1.7783598094764668E-7,4200000.0,86.5,72.00935509554141,72.39263803680981,67.93349168646081,839000.0,1112.0,0.0,1.0,0.0,?,0.0,0.0
4300000.0,10.15625,1.8377833637512378E-7,4300000.0,85.6,70.15086251570189,71.0261569416499,65.13317191283294,859000.0,1112.0,0.0,1.0,0.0,?,0.0,0.0
4400000.0,10.390625,1.887672179792489E-7,4400000.0,86.5,71.96075336263262,72.67206477732793,67.70334928229666,879000.0,1112.0,0.0,1.0,0.0,?,0.0,0.0
4500000.0,10.625,1.9317402297423933E-7,4500000.0,87.4,73.93387479157444,73.96694214876032,70.62937062937064,899000.0,1112.0,0.0,1.0,0.0,?,0.0,0.0
4600000.0,10.859375,1.969987513600951E-7,4600000.0,86.6,72.45394258086002,73.25349301397206,69.4760820045558,919000.0,1112.0,0.0,1.0,0.0,?,0.0,0.0
4700000.0,11.09375,2.0024140313681618E-7,4700000.0,87.6,74.02564757831058,75.73385518590999,69.82968369829685,939000.0,1112.0,0.0,1.0,0.0,?,0.0,0.0
4800000.0,11.328125,2.029019783044026E-7,4800000.0,88.4,75.92891559764769,76.61290322580645,72.18225419664269,959000.0,1112.0,0.0,1.0,0.0,?,0.0,0.0
4900000.0,11.5625,2.0498047686285434E-7,4900000.0,88.9,77.16707121405358,78.61271676300578,74.18604651162791,979000.0,1112.0,0.0,1.0,0.0,?,0.0,0.0
5000000.0,11.796875,2.0652249481322029E-7,5000000.0,88.3,75.79183460650351,75.5741127348643,72.27488151658768,999000.0,1112.0,0.0,1.0,0.0,?,0.0,0.0
5100000.0,12.03125,2.1325227054249902E-7,5100000.0,87.6,67.26435616380493,69.6078431372549,56.02836879432624,18794.0,1112.0,0.0,1.0,0.0,?,1.0,1.0
5200000.0,12.265625,2.1939996966264307E-7,5200000.0,89.2,72.61871561493803,74.40758293838863,63.139931740614344,38794.0,1112.0,0.0,1.0,0.0,?,0.0,0.0
5300000.0,12.5,2.2496559217365245E-7,5300000.0,87.3,67.89686552072801,70.3962703962704,57.66666666666668,58794.0,1112.0,0.0,1.0,0.0,?,0.0,0.0
5400000.0,12.75,2.3028137446898547E-7,5400000.0,84.6,60.130275618886856,63.33333333333333,46.34146341463414,78794.0,1112.0,0.0,1.0,0.0,?,0.0,0.0
5500000.0,12.984375,2.346828437617255E-7,5500000.0,87.5,68.28473709315661,70.37914691943128,58.4717607973422,98794.0,1112.0,0.0,1.0,0.0,?,0.0,0.0
5600000.0,13.21875,2.3850223644533084E-7,5600000.0,86.0,63.601004612272696,67.51740139211137,53.17725752508361,118794.0,1112.0,0.0,1.0,0.0,?,0.0,0.0
5700000.0,13.453125,2.417395525198015E-7,5700000.0,87.7,67.89819290315171,68.38046272493573,56.993006993007,138794.0,1112.0,0.0,1.0,0.0,?,0.0,0.0
5800000.0,13.6875,2.4439479198513754E-7,5800000.0,87.2,66.26625413106615,66.83937823834198,55.400696864111495,158794.0,1112.0,0.0,1.0,0.0,?,0.0,0.0
5900000.0,13.9375,2.4660616569841897E-7,5900000.0,86.9,65.76810109646601,68.35748792270532,54.67128027681662,178794.0,1112.0,0.0,1.0,0.0,?,0.0,0.0
6000000.0,14.15625,2.479978461956812E-7,6000000.0,87.3,65.46097361979875,67.09844559585493,53.81818181818182,198794.0,1112.0,0.0,1.0,0.0,?,0.0,0.0
6100000.0,14.390625,2.5473344269105125E-7,6100000.0,86.4,66.92478306548891,70.4989154013015,57.23270440251571,218594.0,1112.0,0.0,1.0,0.0,?,0.0,0.0
6200000.0,14.609375,2.604767279182043E-7,6200000.0,88.8,70.82117548978741,72.6829268292683,60.00000000000001,238594.0,1112.0,0.0,1.0,0.0,?,0.0,0.0
6300000.0,14.84375,2.66048171195305E-7,6300000.0,90.2,74.72963285766596,76.66666666666667,66.5529010238908,258594.0,1112.0,0.0,1.0,0.0,?,0.0,0.0
6400000.0,15.0625,2.7070491341874E-7,6400000.0,87.6,69.57965958657778,69.75609756097562,60.383386581469644,278594.0,1112.0,0.0,1.0,0.0,?,0.0,0.0
6500000.0,15.296875,2.7511220347757134E-7,6500000.0,87.9,68.61382029466694,69.67418546365916,57.3943661971831,298594.0,1112.0,0.0,1.0,0.0,?,0.0,0.0
6600000.0,15.53125,2.78937416927268E-7,6600000.0,87.9,68.52073468963006,71.1217183770883,58.98305084745763,318594.0,1112.0,0.0,1.0,0.0,?,0.0,0.0
6700000.0,15.78125,2.8239676289053417E-7,6700000.0,86.6,65.82818205928555,67.6328502415459,56.209150326797385,338594.0,1112.0,0.0,1.0,0.0,?,0.0,0.0
6800000.0,16.015625,2.850578231219615E-7,6800000.0,87.1,66.48201461280232,67.91044776119402,54.89510489510489,358594.0,1112.0,0.0,1.0,0.0,?,0.0,0.0
6900000.0,16.25,2.8713680674425415E-7,6900000.0,87.0,66.96063232266755,69.62616822429906,56.52173913043479,378594.0,1112.0,0.0,1.0,0.0,?,0.0,0.0
7000000.0,16.484375,2.8863371375741213E-7,7000000.0,87.2,64.47286615152322,65.4054054054054,51.515151515151516,398594.0,1112.0,0.0,1.0,0.0,?,0.0,0.0
7100000.0,16.734375,2.958245588363043E-7,7100000.0,88.6,71.4504665594807,72.98578199052133,62.12624584717609,418394.0,1112.0,0.0,1.0,0.0,?,0.0,0.0
7200000.0,16.96875,3.0198389948863104E-7,7200000.0,88.3,68.53316120703565,70.96774193548387,58.06451612903226,438394.0,1112.0,0.0,1.0,0.0,?,0.0,0.0
7300000.0,17.1875,3.071893459289436E-7,7300000.0,86.3,65.94919719640106,67.38095238095238,55.80645161290323,458394.0,1112.0,0.0,1.0,0.0,?,0.0,0.0
7400000.0,17.4375,3.1251754585860483E-7,7400000.0,87.3,66.32407377944654,65.67567567567568,54.48028673835126,478394.0,1112.0,0.0,1.0,0.0,?,0.0,0.0
7500000.0,17.671875,3.1693065668352755E-7,7500000.0,87.4,66.99030143618387,70.0,56.70103092783506,498394.0,1112.0,0.0,1.0,0.0,?,0.0,0.0
7600000.0,17.90625,3.207616908993156E-7,7600000.0,86.2,66.36115444617784,67.45283018867924,58.181818181818166,518394.0,1112.0,0.0,1.0,0.0,?,0.0,0.0
7700000.0,18.171875,3.2444384285352273E-7,7700000.0,88.8,71.7741935483871,74.6606334841629,62.66666666666667,538394.0,1112.0,0.0,1.0,0.0,?,0.0,0.0
7800000.0,18.40625,3.271107238510414E-7,7800000.0,88.1,67.06010009300677,69.94949494949495,55.59701492537313,558394.0,1112.0,0.0,1.0,0.0,?,0.0,0.0
7900000.0,18.640625,3.2919552823942544E-7,7900000.0,86.9,66.11800246226426,67.8921568627451,56.18729096989967,578394.0,1112.0,0.0,1.0,0.0,?,0.0,0.0
8000000.0,18.890625,3.3079843787062474E-7,8000000.0,86.8,66.47891472946961,69.5150115473441,57.556270096463024,598394.0,1112.0,0.0,1.0,0.0,?,0.0,0.0
8100000.0,19.125,3.375456758981775E-7,8100000.0,87.4,68.88888888888889,69.19315403422983,59.35483870967742,618194.0,1112.0,0.0,1.0,0.0,?,0.0,0.0
8200000.0,19.359375,3.4371083731659563E-7,8200000.0,85.6,64.35855295725005,66.35514018691589,54.14012738853502,638194.0,1112.0,0.0,1.0,0.0,?,0.0,0.0
8300000.0,19.609375,3.4966612777983127E-7,8300000.0,86.7,65.18907826960928,66.66666666666666,53.16901408450705,658194.0,1112.0,0.0,1.0,0.0,?,0.0,0.0
8400000.0,19.84375,3.5466713597998003E-7,8400000.0,87.9,67.18519482773584,70.9832134292566,56.15942028985508,678194.0,1112.0,0.0,1.0,0.0,?,0.0,0.0
8500000.0,20.0625,3.587914721315932E-7,8500000.0,86.5,63.80580608491425,64.75195822454309,50.72992700729927,698194.0,1112.0,0.0,1.0,0.0,?,0.0,0.0
8600000.0,20.296875,3.626283271134726E-7,8600000.0,86.2,64.86761710794298,68.4931506849315,54.0,718194.0,1112.0,0.0,1.0,0.0,?,0.0,0.0
8700000.0,20.53125,3.658831054862173E-7,8700000.0,87.8,67.95545282622399,69.5,57.931034482758626,738194.0,1112.0,0.0,1.0,0.0,?,0.0,0.0
8800000.0,20.765625,3.685558072498274E-7,8800000.0,86.7,66.5792198132457,69.06976744186046,56.53594771241831,758194.0,1112.0,0.0,1.0,0.0,?,0.0,0.0
8900000.0,21.0,3.706464324043028E-7,8900000.0,87.8,69.17074354101807,70.3883495145631,59.86842105263158,778194.0,1112.0,0.0,1.0,0.0,?,0.0,0.0
9000000.0,21.234375,3.721549809496435E-7,9000000.0,86.8,66.71508109416607,70.27027027027026,55.70469798657719,798194.0,1112.0,0.0,1.0,0.0,?,0.0,0.0
9100000.0,21.46875,3.789080397432876E-7,9100000.0,86.1,64.43375466966891,66.50602409638554,52.721088435374156,817994.0,1112.0,0.0,1.0,0.0,?,0.0,0.0
9200000.0,21.703125,3.85079021927797E-7,9200000.0,86.9,67.17285621209844,67.25,55.442176870748305,837994.0,1112.0,0.0,1.0,0.0,?,0.0,0.0
9300000.0,21.9375,3.9066792750317176E-7,9300000.0,85.39999999999999,63.24121817595875,65.15513126491646,50.67567567567568,857994.0,1112.0,0.0,1.0,0.0,?,0.0,0.0
9400000.0,22.15625,3.953409678716625E-7,9400000.0,88.4,71.29906375566597,71.84466019417476,61.58940397350994,877994.0,1112.0,0.0,1.0,0.0,?,0.0,0.0
9500000.0,22.390625,3.997657202287679E-7,9500000.0,86.7,66.05064325096997,66.66666666666666,54.91525423728814,897994.0,1112.0,0.0,1.0,0.0,?,0.0,0.0
9600000.0,22.640625,4.038645743599367E-7,9600000.0,86.8,66.6437553066753,69.30232558139535,56.57894736842106,917994.0,1112.0,0.0,1.0,0.0,?,0.0,0.0
9700000.0,22.875,4.0712517349877274E-7,9700000.0,87.9,68.75516443563046,71.86046511627907,58.56164383561645,937994.0,1112.0,0.0,1.0,0.0,?,0.0,0.0
9800000.0,23.109375,4.098036960284741E-7,9800000.0,88.3,69.77993594379586,70.8955223880597,58.65724381625442,957994.0,1112.0,0.0,1.0,0.0,?,0.0,0.0
9900000.0,23.34375,4.119001419490408E-7,9900000.0,89.2,72.14843850736261,75.17241379310346,62.10526315789474,977994.0,1112.0,0.0,1.0,0.0,?,0.0,0.0
1.0E7,23.578125,4.1341451126047285E-7,1.0E7,88.3,69.62742980561556,71.11111111111111,59.51557093425607,997994.0,1112.0,0.0,1.0,0.0,?,0.0,0.0
