learning evaluation instances,evaluation time (cpu seconds),model cost (RAM-Hours),classified instances,classifications correct (percent),Kappa Statistic (percent),Kappa Temporal Statistic (percent),Kappa M Statistic (percent),model training instances,model serialized size (bytes),labeling cost,newThreshold,maxPosterior,accuracyBaseLearner (percent),Change detected,Warning detected
100000.0,0.421875,1.6257399693131447E-9,100000.0,63.7,27.227091569569307,26.666666666666668,25.766871165644172,19044.0,2904.0,0.0,1.0,0.0,?,0.0,0.0
200000.0,0.84375,3.218301571905613E-9,200000.0,65.7,30.96758092692627,26.07758620689655,27.176220806794056,38092.0,2904.0,0.0,1.0,0.0,?,0.0,0.0
300000.0,1.25,4.719929873115486E-9,300000.0,69.0,37.544323383405306,34.46088794926003,32.90043290043288,57140.0,2904.0,0.0,1.0,0.0,?,0.0,0.0
400000.0,1.65625,6.189608636001745E-9,400000.0,70.19999999999999,40.37901341272128,39.30753564154785,39.676113360323875,76188.0,2904.0,0.0,1.0,0.0,?,0.0,0.0
500000.0,2.0625,7.62733786056439E-9,500000.0,68.10000000000001,35.8148893360161,37.695312500000014,32.8421052631579,95236.0,2904.0,0.0,1.0,0.0,?,0.0,0.0
600000.0,2.46875,9.033117546803421E-9,600000.0,69.8,39.54196028187058,43.2330827067669,36.68763102725366,114284.0,2904.0,0.0,1.0,0.0,?,0.0,0.0
700000.0,2.875,1.0406947694718837E-8,700000.0,65.7,31.01367658889783,28.985507246376812,25.434782608695656,133332.0,2904.0,0.0,1.0,0.0,?,0.0,0.0
800000.0,3.28125,1.174882830431064E-8,800000.0,69.0,37.296466352474745,37.37373737373736,30.337078651685374,152380.0,2904.0,0.0,1.0,0.0,?,0.0,0.0
900000.0,3.6875,1.3058759375578827E-8,900000.0,66.5,32.929173206906505,37.5,27.48917748917749,171428.0,2904.0,0.0,1.0,0.0,?,0.0,0.0
1000000.0,4.109375,1.4385894044405884E-8,1000000.0,65.9,31.745396317053654,32.071713147410364,30.69105691056911,190476.0,2904.0,0.0,1.0,0.0,?,0.0,0.0
1100000.0,4.515625,1.5967396191424794E-8,1100000.0,67.2,34.21052631578948,34.530938123752506,31.092436974789923,209520.0,2904.0,0.0,1.0,0.0,?,0.0,0.0
1200000.0,4.921875,1.751694880012009E-8,1200000.0,67.5,34.70696485828397,36.39921722113504,30.40685224839401,228568.0,2904.0,0.0,1.0,0.0,?,0.0,0.0
1300000.0,5.3125,1.8976182521631323E-8,1300000.0,66.3,32.443810088925595,29.20168067226891,31.504065040650413,247616.0,2904.0,0.0,1.0,0.0,?,0.0,0.0
1400000.0,5.71875,2.046183605367939E-8,1400000.0,67.4,34.82997821002339,33.73983739837399,35.57312252964428,266664.0,2904.0,0.0,1.0,0.0,?,0.0,0.0
1500000.0,6.125,2.191554004740384E-8,1500000.0,65.9,31.864864648854297,29.253112033195023,31.526104417670687,285712.0,2904.0,0.0,1.0,0.0,?,0.0,0.0
1600000.0,6.515625,2.3282611639135413E-8,1600000.0,68.10000000000001,35.93708580012371,37.937743190661486,32.55813953488373,304760.0,2904.0,0.0,1.0,0.0,?,0.0,0.0
1700000.0,6.9375,2.4725870591484838E-8,1700000.0,67.2,34.29065965767036,35.049504950495056,32.23140495867769,323808.0,2904.0,0.0,1.0,0.0,?,0.0,0.0
1800000.0,7.34375,2.6083725970238448E-8,1800000.0,68.0,35.868401960823626,36.88362919132151,32.34672304439747,342856.0,2904.0,0.0,1.0,0.0,?,0.0,0.0
1900000.0,7.75,2.7409631810668443E-8,1900000.0,70.19999999999999,40.30998746109131,41.10671936758892,38.80903490759753,361904.0,2904.0,0.0,1.0,0.0,?,0.0,0.0
2000000.0,8.15625,2.8703588112774825E-8,2000000.0,68.89999999999999,37.81392967975172,38.53754940711461,34.24947145877377,380952.0,2904.0,0.0,1.0,0.0,?,0.0,0.0
2100000.0,8.5625,2.996559487655759E-8,2100000.0,67.0,34.016627809791935,35.166994106090385,33.06288032454362,400000.0,2904.0,0.0,1.0,0.0,?,0.0,0.0
2200000.0,8.96875,3.1531122254414696E-8,2200000.0,64.3,28.545694727993272,29.0258449304175,26.84426229508197,419044.0,2904.0,0.0,1.0,0.0,?,0.0,0.0
2300000.0,9.375,3.3064700093948185E-8,2300000.0,69.1,38.10294541841607,37.4493927125506,30.405405405405382,438092.0,2904.0,0.0,1.0,0.0,?,0.0,0.0
2400000.0,9.78125,3.456632839515806E-8,2400000.0,67.60000000000001,35.141887130869264,34.01221995926681,34.14634146341464,457140.0,2904.0,0.0,1.0,0.0,?,0.0,0.0
2500000.0,10.1875,3.603600715804432E-8,2500000.0,69.39999999999999,38.794858768136514,39.16500994035784,38.55421686746987,476188.0,2904.0,0.0,1.0,0.0,?,0.0,0.0
2600000.0,10.59375,3.747373638260697E-8,2600000.0,66.60000000000001,32.568027554238334,31.134020618556708,26.593406593406595,495236.0,2904.0,0.0,1.0,0.0,?,0.0,0.0
2700000.0,11.0,3.8879516068846003E-8,2700000.0,66.4,32.76127049180329,30.145530145530152,31.147540983606564,514284.0,2904.0,0.0,1.0,0.0,?,0.0,0.0
2800000.0,11.390625,4.020050659568775E-8,2800000.0,65.5,30.742917710541523,32.74853801169591,26.751592356687897,533332.0,2904.0,0.0,1.0,0.0,?,0.0,0.0
2900000.0,11.8125,4.1593997997956164E-8,2900000.0,68.30000000000001,36.61825394286447,37.84313725490197,35.56910569105692,552380.0,2904.0,0.0,1.0,0.0,?,0.0,0.0
3000000.0,12.21875,4.290392906922435E-8,3000000.0,67.4,34.55917777420909,35.57312252964428,28.193832599118945,571428.0,2904.0,0.0,1.0,0.0,?,0.0,0.0
3100000.0,12.625,4.418191060216892E-8,3100000.0,68.2,36.18942510283937,36.14457831325302,31.90578158458245,590476.0,2904.0,0.0,1.0,0.0,?,0.0,0.0
3200000.0,13.03125,4.576341274918783E-8,3200000.0,66.8,33.08852871348589,31.546391752577325,26.38580931263858,609520.0,2904.0,0.0,1.0,0.0,?,0.0,0.0
3300000.0,13.4375,4.731296535788312E-8,3300000.0,66.10000000000001,32.28234466888265,31.51515151515152,30.532786885245905,628568.0,2904.0,0.0,1.0,0.0,?,0.0,0.0
3400000.0,13.84375,4.88305684282548E-8,3400000.0,68.5,36.93340167216582,38.11394891944991,35.58282208588958,647616.0,2904.0,0.0,1.0,0.0,?,0.0,0.0
3500000.0,14.25,5.0316221960302865E-8,3500000.0,69.39999999999999,38.72720792301253,35.30655391120506,37.42331288343557,666664.0,2904.0,0.0,1.0,0.0,?,0.0,0.0
3600000.0,14.65625,5.1769925954027316E-8,3600000.0,66.5,32.944209582372544,36.67296786389415,30.641821946169777,685712.0,2904.0,0.0,1.0,0.0,?,0.0,0.0
3700000.0,15.0625,5.319168040942815E-8,3700000.0,67.0,33.36564090138116,31.958762886597945,29.184549356223176,704760.0,2904.0,0.0,1.0,0.0,?,0.0,0.0
3800000.0,15.484375,5.4634939361777575E-8,3800000.0,66.9,33.29625330495906,32.310838445807775,29.273504273504276,723808.0,2904.0,0.0,1.0,0.0,?,0.0,0.0
3900000.0,15.890625,5.5992794740531185E-8,3900000.0,70.19999999999999,40.4495459777465,41.56862745098039,41.910331384015585,742856.0,2904.0,0.0,1.0,0.0,?,0.0,0.0
4000000.0,16.296875,5.731870058096118E-8,4000000.0,68.5,36.90914917481173,36.23481781376519,35.71428571428573,761904.0,2904.0,0.0,1.0,0.0,?,0.0,0.0
4100000.0,16.703125,5.861265688306756E-8,4100000.0,67.5,34.54917471543995,32.57261410788382,27.61692650334076,780952.0,2904.0,0.0,1.0,0.0,?,0.0,0.0
4200000.0,17.109375,5.987466364685032E-8,4200000.0,65.2,30.21437022479796,26.42706131078224,27.650727650727653,800000.0,2904.0,0.0,1.0,0.0,?,0.0,0.0
4300000.0,17.515625,6.144019102470743E-8,4300000.0,68.60000000000001,37.0723827923028,33.049040511727085,35.523613963039026,819044.0,2904.0,0.0,1.0,0.0,?,0.0,0.0
4400000.0,17.921875,6.297376886424091E-8,4400000.0,66.4,32.58643382234921,31.845841784989865,30.290456431535272,838092.0,2904.0,0.0,1.0,0.0,?,0.0,0.0
4500000.0,18.328125,6.447539716545078E-8,4500000.0,67.7,35.488252071166656,36.914062500000014,37.76493256262044,857140.0,2904.0,0.0,1.0,0.0,?,0.0,0.0
4600000.0,18.734375,6.594507592833704E-8,4600000.0,65.9,31.49804337519788,32.34126984126985,27.60084925690022,876188.0,2904.0,0.0,1.0,0.0,?,0.0,0.0
4700000.0,19.140625,6.738280515289969E-8,4700000.0,66.4,32.34536082474227,30.72164948453609,28.051391862955033,895236.0,2904.0,0.0,1.0,0.0,?,0.0,0.0
4800000.0,19.5625,6.884265328860945E-8,4800000.0,67.0,33.48597965074092,34.26294820717132,27.312775330396477,914284.0,2904.0,0.0,1.0,0.0,?,0.0,0.0
4900000.0,19.96875,7.021648343652486E-8,4900000.0,67.7,35.23316062176167,36.79060665362036,32.28511530398323,933332.0,2904.0,0.0,1.0,0.0,?,0.0,0.0
5000000.0,20.375,7.1801348692841E-8,5000000.0,68.10000000000001,36.270357525292084,36.32734530938125,33.95445134575571,952380.0,2904.0,0.0,1.0,0.0,?,0.0,0.0
5100000.0,20.78125,7.335426441083352E-8,5100000.0,66.7,25.229699751214763,28.997867803837956,19.370460048426168,12160.0,2904.0,0.0,1.0,0.0,?,2.0,8.0
5200000.0,21.1875,7.516193565809065E-8,5200000.0,70.3,28.051628407252004,36.129032258064505,19.946091644204838,31208.0,2904.0,0.0,1.0,0.0,?,0.0,4.0
5300000.0,21.59375,7.727312751942211E-8,5300000.0,68.89999999999999,27.050787663842517,29.3181818181818,19.638242894056837,50252.0,2904.0,0.0,1.0,0.0,?,0.0,0.0
5400000.0,22.0,7.934732517848413E-8,5400000.0,68.60000000000001,25.862264364776564,35.257731958762896,17.801047120418865,69300.0,2904.0,0.0,1.0,0.0,?,0.0,41.0
5500000.0,22.40625,8.138957329922253E-8,5500000.0,68.60000000000001,25.11114079105534,34.44676409185804,17.801047120418865,88348.0,2904.0,0.0,1.0,0.0,?,0.0,0.0
5600000.0,22.796875,8.325383532792331E-8,5600000.0,69.39999999999999,25.46765393608729,36.64596273291924,17.29729729729728,107396.0,2904.0,0.0,1.0,0.0,?,0.0,123.0
5700000.0,23.21875,8.531351340934635E-8,5700000.0,70.19999999999999,27.38826808836212,36.05150214592273,17.906336088154255,126444.0,2904.0,0.0,1.0,0.0,?,0.0,26.0
5800000.0,23.625,8.726495757905974E-8,5800000.0,67.10000000000001,24.069680492600845,28.941684665226784,15.856777493606153,145492.0,2904.0,0.0,1.0,0.0,?,0.0,0.0
5900000.0,24.046875,8.925827892704142E-8,5900000.0,69.5,25.257555113363445,36.05870020964359,15.041782729804998,164540.0,2904.0,0.0,1.0,0.0,?,0.0,0.0
6000000.0,24.453125,9.114582402010758E-8,6000000.0,69.3,29.226796993867836,34.68085106382977,21.282051282051274,183588.0,2904.0,0.0,1.0,0.0,?,0.0,0.0
6100000.0,24.859375,9.300141957485013E-8,6100000.0,66.3,19.1559594292459,27.213822894168473,10.610079575596826,202636.0,2904.0,0.0,1.0,0.0,?,0.0,0.0
6200000.0,25.28125,9.48952058226698E-8,6200000.0,67.80000000000001,25.057719520369425,31.489361702127667,17.01030927835053,221684.0,2904.0,0.0,1.0,0.0,?,0.0,0.0
6300000.0,25.671875,9.638435181437267E-8,6300000.0,67.30000000000001,23.873466993211487,29.67741935483871,17.63224181360203,240732.0,2904.0,0.0,1.0,0.0,?,0.0,0.0
6400000.0,26.09375,9.854007253630294E-8,6400000.0,65.3,23.48198849804187,28.453608247422686,18.92523364485983,147526.0,2904.0,0.0,1.0,0.0,?,1.0,2.0
6500000.0,26.5,1.0058400221168995E-7,6500000.0,71.6,31.38240296891911,40.58577405857739,21.54696132596684,166574.0,2904.0,0.0,1.0,0.0,?,0.0,0.0
6600000.0,26.90625,1.0259598234875335E-7,6600000.0,70.1,31.638392244729975,38.35051546391752,25.062656641604004,185622.0,2904.0,0.0,1.0,0.0,?,0.0,0.0
6700000.0,27.328125,1.0467224961353674E-7,6700000.0,69.8,26.973763752871484,33.333333333333314,17.711171662125327,204670.0,2904.0,0.0,1.0,0.0,?,0.0,23.0
6800000.0,27.734375,1.0663966855241193E-7,6800000.0,70.3,26.74986435160065,37.20930232558138,16.33802816901407,223718.0,2904.0,0.0,1.0,0.0,?,0.0,0.0
6900000.0,28.140625,1.0857513795296352E-7,6900000.0,67.0,22.70974934537502,31.106471816283932,15.167095115681247,242766.0,2904.0,0.0,1.0,0.0,?,0.0,0.0
7000000.0,28.5625,1.1055187011758488E-7,7000000.0,69.3,29.41620070629781,31.16591928251119,21.882951653944012,261814.0,2904.0,0.0,1.0,0.0,?,0.0,0.0
7100000.0,28.984375,1.1249542391548556E-7,7100000.0,69.89999999999999,29.554390563564866,35.546038543897204,20.789473684210517,280862.0,2904.0,0.0,1.0,0.0,?,0.0,0.0
7200000.0,29.390625,1.143350447010663E-7,7200000.0,69.0,23.524768107361336,34.18259023354563,13.88888888888887,299910.0,2904.0,0.0,1.0,0.0,?,0.0,0.0
7300000.0,29.8125,1.1591450957995324E-7,7300000.0,67.30000000000001,22.412565842547355,31.157894736842113,14.173228346456707,116607.0,2904.0,0.0,1.0,0.0,?,1.0,0.0
7400000.0,30.21875,1.1773899637369648E-7,7400000.0,69.69999999999999,28.557281498457947,35.94080338266383,19.841269841269828,135651.0,2904.0,0.0,1.0,0.0,?,0.0,0.0
7500000.0,30.625,1.195315336291161E-7,7500000.0,70.0,27.06550490119806,34.35448577680524,17.582417582417566,154699.0,2904.0,0.0,1.0,0.0,?,0.0,0.0
7600000.0,31.03125,1.212921213462121E-7,7600000.0,70.1,29.092478585454234,33.84955752212388,20.899470899470888,173747.0,2904.0,0.0,1.0,0.0,?,0.0,0.0
7700000.0,31.453125,1.2330377810738154E-7,7700000.0,69.39999999999999,27.90126714701071,35.03184713375795,20.10443864229764,192795.0,2904.0,0.0,1.0,0.0,?,0.0,11.0
7800000.0,31.859375,1.2520897952425812E-7,7800000.0,70.8,30.417874027756593,38.13559322033897,22.340425531914885,211843.0,2904.0,0.0,1.0,0.0,?,0.0,0.0
7900000.0,32.265625,1.270822314028111E-7,7900000.0,67.0,26.780238652046396,33.6016096579477,20.863309352518,230891.0,2904.0,0.0,1.0,0.0,?,0.0,0.0
8000000.0,32.671875,1.2892353374304043E-7,8000000.0,67.10000000000001,24.779368055238017,29.700854700854705,17.543859649122822,249939.0,2904.0,0.0,1.0,0.0,?,0.0,0.0
8100000.0,33.078125,1.3073288654494616E-7,8100000.0,71.1,30.07229895181038,38.64118895966029,21.2534059945504,268987.0,2904.0,0.0,1.0,0.0,?,0.0,0.0
8200000.0,33.484375,1.325102898085283E-7,8200000.0,68.60000000000001,27.55495671754741,33.894736842105274,20.304568527918796,288035.0,2904.0,0.0,1.0,0.0,?,0.0,0.0
8300000.0,33.875,1.3418861069819994E-7,8300000.0,70.3,30.431931040944445,36.40256959314774,22.656249999999993,307083.0,2904.0,0.0,1.0,0.0,?,0.0,0.0
8400000.0,34.28125,1.356591302384105E-7,8400000.0,68.60000000000001,26.690324990661207,34.171907756813425,19.072164948453622,326131.0,2904.0,0.0,1.0,0.0,?,0.0,0.0
8500000.0,34.6875,1.3767615503941972E-7,8500000.0,69.3,28.133339575822824,34.2612419700214,21.282051282051274,345175.0,2904.0,0.0,1.0,0.0,?,0.0,0.0
8600000.0,35.09375,1.3966123030210535E-7,8600000.0,67.7,22.33560635934331,29.629629629629633,12.938005390835592,364223.0,2904.0,0.0,1.0,0.0,?,0.0,0.0
8700000.0,35.5,1.4161435602646735E-7,8700000.0,65.8,20.46807560648906,28.451882845188287,12.755102040816338,383271.0,2904.0,0.0,1.0,0.0,?,0.0,0.0
8800000.0,35.90625,1.4353553221250574E-7,8800000.0,66.4,24.209614551754026,32.3943661971831,17.647058823529427,402319.0,2904.0,0.0,1.0,0.0,?,0.0,0.0
8900000.0,36.3125,1.454247588602205E-7,8900000.0,68.10000000000001,24.297078199457054,28.953229398663698,15.159574468085118,421367.0,2904.0,0.0,1.0,0.0,?,0.0,0.0
9000000.0,36.71875,1.4728203596961167E-7,9000000.0,66.5,21.58019420021163,29.324894514767934,14.322250639386203,440415.0,2904.0,0.0,1.0,0.0,?,0.0,0.0
9100000.0,37.125,1.4910736354067922E-7,9100000.0,69.0,26.797360926792628,35.01048218029349,19.060052219321136,459463.0,2904.0,0.0,1.0,0.0,?,0.0,0.0
9200000.0,37.53125,1.5090074157342314E-7,9200000.0,67.4,23.56890989571612,33.19672131147542,15.979381443298982,478511.0,2904.0,0.0,1.0,0.0,?,0.0,0.0
9300000.0,37.9375,1.5266217006784345E-7,9300000.0,66.3,25.889110757294542,29.64509394572025,20.330969267139494,497559.0,2904.0,0.0,1.0,0.0,?,0.0,0.0
9400000.0,38.34375,1.5439164902394016E-7,9400000.0,69.8,28.376275945812612,35.74468085106381,20.94240837696334,516607.0,2904.0,0.0,1.0,0.0,?,0.0,0.0
9500000.0,38.734375,1.5634645630295079E-7,9500000.0,68.5,21.93695479777955,30.616740088105733,11.51685393258428,535651.0,2904.0,0.0,1.0,0.0,?,0.0,0.0
9600000.0,39.140625,1.583475063347982E-7,9600000.0,69.6,26.949417277423997,34.9036402569593,18.05929919137465,554699.0,2904.0,0.0,1.0,0.0,?,0.0,0.0
9700000.0,39.546875,1.60316606828322E-7,9700000.0,68.8,26.392873320247595,31.578947368421034,17.460317460317444,573747.0,2904.0,0.0,1.0,0.0,?,0.0,0.0
9800000.0,39.953125,1.6225375778352222E-7,9800000.0,69.1,27.64211650321745,35.8921161825726,18.253968253968242,592795.0,2904.0,0.0,1.0,0.0,?,0.0,0.0
9900000.0,40.375,1.6423223617797096E-7,9900000.0,70.89999999999999,29.642166344294008,39.50103950103949,20.273972602739715,611843.0,2904.0,0.0,1.0,0.0,?,0.0,0.0
1.0E7,40.78125,1.6610548805652393E-7,1.0E7,68.7,24.290068211504053,32.83261802575108,15.40540540540542,630891.0,2904.0,0.0,1.0,0.0,?,0.0,0.0
