learning evaluation instances,evaluation time (cpu seconds),model cost (RAM-Hours),classified instances,classifications correct (percent),Kappa Statistic (percent),Kappa Temporal Statistic (percent),Kappa M Statistic (percent),model training instances,model serialized size (bytes),labeling cost,newThreshold,maxPosterior,accuracyBaseLearner (percent),Change detected,Warning detected
100000.0,0.40625,1.616478483710024E-8,100000.0,66.60000000000001,25.83842546539719,28.784648187633266,18.932038834951474,29700.0,2904.0,0.0,1.0,0.0,?,0.0,0.0
200000.0,0.796875,3.0171811684138244E-8,200000.0,68.60000000000001,25.408589889775747,32.327586206896555,15.13513513513515,59700.0,2904.0,0.0,1.0,0.0,?,0.0,0.0
300000.0,1.21875,4.3854395496762464E-8,300000.0,67.30000000000001,24.812375836950928,25.850340136054424,15.503875968992261,89700.0,2904.0,0.0,1.0,0.0,?,0.0,50.0
400000.0,1.625,5.543274002977543E-8,400000.0,65.60000000000001,20.049457777281972,29.07216494845361,9.711286089238854,119700.0,2904.0,0.0,1.0,0.0,?,0.0,0.0
500000.0,2.046875,6.579748717033201E-8,500000.0,65.4,18.593981601298744,27.615062761506277,9.186351706036753,149700.0,2904.0,0.0,1.0,0.0,?,0.0,0.0
600000.0,2.453125,7.418087787098354E-8,600000.0,67.5,23.188912733151213,32.851239669421496,12.398921832884108,179700.0,2904.0,0.0,1.0,0.0,?,0.0,0.0
700000.0,2.875,8.122778833947248E-8,700000.0,69.3,26.132316991010747,34.2612419700214,15.426997245179047,209700.0,2904.0,0.0,1.0,0.0,?,0.0,0.0
800000.0,3.28125,8.641622520776259E-8,800000.0,66.4,23.552966872952325,27.429805615550755,14.285714285714299,239700.0,2904.0,0.0,1.0,0.0,?,0.0,0.0
900000.0,3.671875,8.986907131556007E-8,900000.0,68.2,23.247731222243672,33.33333333333334,11.666666666666679,269700.0,2904.0,0.0,1.0,0.0,?,0.0,0.0
1000000.0,4.09375,9.193922677594755E-8,1000000.0,68.89999999999999,29.166856466086628,33.829787234042534,20.256410256410245,299700.0,2904.0,0.0,1.0,0.0,?,0.0,0.0
1100000.0,4.5,1.0832597682666447E-7,1100000.0,65.0,17.617594998681888,24.406047516198704,7.407407407407414,329400.0,2904.0,0.0,1.0,0.0,?,0.0,0.0
1200000.0,4.921875,1.2368406815868285E-7,1200000.0,66.4,22.446266341679593,28.66242038216561,13.402061855670114,359400.0,2904.0,0.0,1.0,0.0,?,0.0,0.0
1300000.0,5.328125,1.3687586437703834E-7,1300000.0,68.30000000000001,27.589200054822076,31.974248927038634,20.351758793969864,389400.0,2904.0,0.0,1.0,0.0,?,0.0,0.0
1400000.0,5.71875,1.4802424832143717E-7,1400000.0,64.5,22.435566897684865,26.954732510288064,17.249417249417263,419400.0,2904.0,0.0,1.0,0.0,?,0.0,0.0
1500000.0,6.140625,1.5840558464535408E-7,1500000.0,68.8,26.480291062642547,34.72803347280333,13.812154696132579,449400.0,2904.0,0.0,1.0,0.0,?,0.0,0.0
1600000.0,6.546875,1.6680495011516744E-7,1600000.0,68.4,28.185735323527815,34.84536082474228,20.603015075376902,479400.0,2904.0,0.0,1.0,0.0,?,0.0,0.0
1700000.0,6.96875,1.738684497670167E-7,1700000.0,68.89999999999999,26.305413116214698,31.194690265486706,15.027322404371567,509400.0,2904.0,0.0,1.0,0.0,?,0.0,0.0
1800000.0,7.359375,1.7887269172610508E-7,1800000.0,68.7,23.941252515041665,33.826638477801275,11.581920903954813,539400.0,2904.0,0.0,1.0,0.0,?,0.0,0.0
1900000.0,7.765625,1.8247962644737628E-7,1900000.0,68.0,25.909461361784103,33.19415448851775,17.525773195876305,569400.0,2904.0,0.0,1.0,0.0,?,0.0,0.0
2000000.0,8.171875,1.8448908425246676E-7,2000000.0,69.89999999999999,31.40320331087793,32.51121076233182,23.409669211195922,599400.0,2904.0,0.0,1.0,0.0,?,0.0,0.0
2100000.0,8.578125,2.008918090723455E-7,2100000.0,68.8,27.53387559052922,33.333333333333314,17.67810026385223,629100.0,2904.0,0.0,1.0,0.0,?,0.0,0.0
2200000.0,9.0,2.1626648958772423E-7,2200000.0,66.9,19.991878329643132,29.574468085106385,7.799442896935941,659100.0,2904.0,0.0,1.0,0.0,?,0.0,0.0
2300000.0,9.421875,2.2998225176706913E-7,2300000.0,66.2,20.672174239579412,28.842105263157897,11.052631578947377,689100.0,2904.0,0.0,1.0,0.0,?,0.0,0.0
2400000.0,9.8125,2.4114599606643125E-7,2400000.0,68.0,25.90156949738109,32.34672304439747,15.119363395225477,719100.0,2904.0,0.0,1.0,0.0,?,0.0,0.0
2500000.0,10.234375,2.515439215737085E-7,2500000.0,69.6,27.023069352089674,33.4792122538293,16.71232876712327,749100.0,2904.0,0.0,1.0,0.0,?,0.0,0.0
2600000.0,10.625,2.596355948804154E-7,2600000.0,70.3,30.292817109006066,34.29203539823008,21.42857142857142,779100.0,2904.0,0.0,1.0,0.0,?,0.0,0.0
2700000.0,11.015625,2.6619123269079465E-7,2700000.0,69.39999999999999,29.171913191615417,34.89361702127658,19.89528795811517,809100.0,2904.0,0.0,1.0,0.0,?,0.0,0.0
2800000.0,11.4375,2.7161240318997045E-7,2800000.0,68.8,26.088769283250574,33.89830508474575,17.021276595744666,839100.0,2904.0,0.0,1.0,0.0,?,0.0,0.0
2900000.0,11.84375,2.7523531268040347E-7,2900000.0,66.5,26.304303828656412,32.73092369477912,19.856459330143554,869100.0,2904.0,0.0,1.0,0.0,?,0.0,0.0
3000000.0,12.25,2.772607452546558E-7,3000000.0,66.3,23.37495793580777,27.99145299145299,15.5388471177945,899100.0,2904.0,0.0,1.0,0.0,?,0.0,0.0
3100000.0,12.65625,2.9367944484369634E-7,3100000.0,67.9,23.57288432601284,31.991525423728824,12.771739130434796,928800.0,2904.0,0.0,1.0,0.0,?,0.0,0.0
3200000.0,13.0625,3.085006675165562E-7,3200000.0,67.60000000000001,25.981093195286554,31.645569620253173,17.55725190839696,958800.0,2904.0,0.0,1.0,0.0,?,0.0,0.0
3300000.0,13.484375,3.222330188792614E-7,3300000.0,67.7,25.613744184975378,30.835117773019277,16.10389610389612,988800.0,2904.0,0.0,1.0,0.0,?,0.0,0.0
3400000.0,13.890625,3.338592877197598E-7,3400000.0,68.5,27.244338916656673,33.962264150943405,19.02313624678665,1018800.0,2904.0,0.0,1.0,0.0,?,0.0,0.0
3500000.0,14.296875,3.4388807964407746E-7,3500000.0,67.0,23.58387017594235,29.33618843683084,15.167095115681247,1048800.0,2904.0,0.0,1.0,0.0,?,0.0,0.0
3600000.0,14.703125,3.523193946522144E-7,3600000.0,66.0,20.334408037789604,26.08695652173913,8.602150537634417,1078800.0,2904.0,0.0,1.0,0.0,?,0.0,0.0
3700000.0,15.09375,3.5889039281755694E-7,3700000.0,65.5,20.60789042508148,27.974947807933198,11.989795918367358,1108800.0,2904.0,0.0,1.0,0.0,?,0.0,0.0
3800000.0,15.484375,3.6392535548657187E-7,3800000.0,65.4,22.915487748909456,30.52208835341366,15.403422982885099,1138800.0,2904.0,0.0,1.0,0.0,?,0.0,0.0
3900000.0,15.890625,3.675642397461667E-7,3900000.0,65.3,18.640093786635408,22.717149220489976,7.466666666666673,1168800.0,2904.0,0.0,1.0,0.0,?,0.0,0.0
4000000.0,16.28125,3.695271314225264E-7,4000000.0,66.2,21.79582695128667,28.691983122362874,13.554987212276226,1198800.0,2904.0,0.0,1.0,0.0,?,0.0,0.0
4100000.0,16.671875,3.853297029207979E-7,4100000.0,66.7,22.588384073199315,30.188679245283023,13.28125000000001,1228500.0,2904.0,0.0,1.0,0.0,?,0.0,0.0
4200000.0,17.09375,4.007375618028973E-7,4200000.0,66.5,22.876454987476063,31.492842535787325,13.659793814433002,1258500.0,2904.0,0.0,1.0,0.0,?,0.0,0.0
4300000.0,17.5,4.1397728232873824E-7,4300000.0,65.9,25.65298914228406,28.810020876826727,19.194312796208546,1288500.0,2904.0,0.0,1.0,0.0,?,0.0,0.0
4400000.0,17.921875,4.2606730453877E-7,4400000.0,68.89999999999999,27.098667616806203,33.970276008492554,18.58638743455496,1318500.0,2904.0,0.0,1.0,0.0,?,0.0,0.0
4500000.0,18.328125,4.3611207123224945E-7,4500000.0,65.60000000000001,16.361938846961806,24.061810154525386,3.370786516853936,1348500.0,2904.0,0.0,1.0,0.0,?,0.0,0.0
4600000.0,18.75,4.4488425677021355E-7,4600000.0,69.39999999999999,27.932171455487502,34.47537473233403,17.29729729729728,1378500.0,2904.0,0.0,1.0,0.0,?,0.0,0.0
4700000.0,19.15625,4.517340696313316E-7,4700000.0,66.5,21.91069380600287,26.373626373626376,11.375661375661386,1408500.0,2904.0,0.0,1.0,0.0,?,0.0,0.0
4800000.0,19.5625,4.569864055762689E-7,4800000.0,67.60000000000001,24.859459359171797,32.78008298755187,14.285714285714299,1438500.0,2904.0,0.0,1.0,0.0,?,0.0,0.0
4900000.0,19.96875,4.6064126460502553E-7,4900000.0,69.0,25.71505252664672,35.68464730290455,14.835164835164818,1468500.0,2904.0,0.0,1.0,0.0,?,0.0,0.0
5000000.0,20.390625,4.6303010700891423E-7,5000000.0,67.0,21.15034478803779,29.33618843683084,10.569105691056919,1498500.0,2904.0,0.0,1.0,0.0,?,0.0,0.0
5100000.0,20.796875,4.797935253009201E-7,5100000.0,72.3,34.62417159148839,40.430107526881706,24.72826086956521,17701.0,2904.0,0.0,1.0,0.0,?,2.0,13.0
5200000.0,21.203125,4.949594666767452E-7,5200000.0,71.8,34.50968188426328,42.448979591836725,23.989218328840963,47701.0,2904.0,0.0,1.0,0.0,?,0.0,0.0
5300000.0,21.59375,5.079535185359419E-7,5300000.0,69.0,29.12017559904882,37.499999999999986,20.918367346938766,77701.0,2904.0,0.0,1.0,0.0,?,0.0,3.0
5400000.0,22.015625,5.203281762078404E-7,5400000.0,71.8,34.9402927225411,38.02197802197801,26.178010471204182,107701.0,2904.0,0.0,1.0,0.0,?,0.0,0.0
5500000.0,22.421875,5.306470363090436E-7,5500000.0,69.1,28.236332388870807,34.11513859275052,16.48648648648647,137701.0,2904.0,0.0,1.0,0.0,?,0.0,0.0
5600000.0,22.828125,5.393684194940659E-7,5600000.0,73.3,38.69115958668197,44.25887265135699,28.799999999999997,167701.0,2904.0,0.0,1.0,0.0,?,0.0,0.0
5700000.0,23.21875,5.462183293679521E-7,5700000.0,73.9,38.622895306180034,40.41095890410958,27.499999999999996,197701.0,2904.0,0.0,1.0,0.0,?,0.0,0.0
5800000.0,23.625,5.517447587206131E-7,5800000.0,71.7,33.70191631916787,39.78723404255318,21.823204419889493,227701.0,2904.0,0.0,1.0,0.0,?,0.0,0.0
5900000.0,24.03125,5.556737111570933E-7,5900000.0,74.1,37.72781042325853,42.05816554809842,26.62889518413597,257701.0,2904.0,0.0,1.0,0.0,?,0.0,0.0
6000000.0,24.4375,5.580051866773929E-7,6000000.0,72.5,36.03282562780873,43.4156378600823,28.010471204188477,287701.0,2904.0,0.0,1.0,0.0,?,0.0,0.0
6100000.0,24.84375,5.747299292124807E-7,6100000.0,70.89999999999999,33.318056828597605,38.60759493670885,23.421052631578938,317401.0,2904.0,0.0,1.0,0.0,?,0.0,0.0
6200000.0,25.25,5.898571948313877E-7,6200000.0,72.1,36.596096682998656,42.35537190082644,27.720207253886002,347401.0,2904.0,0.0,1.0,0.0,?,0.0,0.0
6300000.0,25.671875,6.039073600226804E-7,6300000.0,71.8,34.04804669959586,39.09287257019437,24.999999999999993,377401.0,2904.0,0.0,1.0,0.0,?,0.0,0.0
6400000.0,26.078125,6.158396718092261E-7,6400000.0,69.89999999999999,32.02348690153567,37.681159420289845,23.989898989898983,407401.0,2904.0,0.0,1.0,0.0,?,0.0,0.0
6500000.0,26.484375,6.26174506679591E-7,6500000.0,73.6,38.82658263045693,44.99999999999999,30.89005235602094,437401.0,2904.0,0.0,1.0,0.0,?,0.0,0.0
6600000.0,26.875,6.345758124047682E-7,6600000.0,70.89999999999999,34.9377548830221,38.34745762711863,26.700251889168758,467401.0,2904.0,0.0,1.0,0.0,?,0.0,0.0
6700000.0,27.296875,6.419903042519256E-7,6700000.0,71.89999999999999,32.53106932252548,41.942148760330575,21.288515406162453,497401.0,2904.0,0.0,1.0,0.0,?,0.0,0.0
6800000.0,27.71875,6.477458777630492E-7,6800000.0,70.5,32.86238381778623,35.58951965065501,24.552429667519174,527401.0,2904.0,0.0,1.0,0.0,?,0.0,0.0
6900000.0,28.125,6.516908049686913E-7,6900000.0,71.5,32.21967484469982,36.66666666666665,20.612813370473525,557401.0,2904.0,0.0,1.0,0.0,?,0.0,0.0
7000000.0,28.515625,6.539479687085579E-7,7000000.0,73.0,39.02907184181883,45.010183299389,32.33082706766917,587401.0,2904.0,0.0,1.0,0.0,?,0.0,0.0
7100000.0,28.921875,6.706886860128075E-7,7100000.0,70.7,34.674039061803256,35.88621444201311,26.93266832917705,617101.0,2904.0,0.0,1.0,0.0,?,0.0,0.0
7200000.0,29.34375,6.864143587234944E-7,7200000.0,71.39999999999999,35.38066661846575,42.8,27.777777777777775,647101.0,2904.0,0.0,1.0,0.0,?,0.0,0.0
7300000.0,29.765625,7.004811130981475E-7,7300000.0,74.4,37.528978257156105,40.74074074074075,25.797101449275356,677101.0,2904.0,0.0,1.0,0.0,?,0.0,0.0
7400000.0,30.171875,7.12429399653855E-7,7400000.0,72.0,33.937334843337105,38.596491228070164,23.076923076923066,707101.0,2904.0,0.0,1.0,0.0,?,0.0,0.0
7500000.0,30.578125,7.227802092933817E-7,7500000.0,70.89999999999999,30.426050781810343,37.284482758620676,20.491803278688515,737101.0,2904.0,0.0,1.0,0.0,?,0.0,0.0
7600000.0,30.984375,7.315335420167278E-7,7600000.0,71.2,33.23442136498515,40.98360655737704,21.7391304347826,767101.0,2904.0,0.0,1.0,0.0,?,0.0,0.0
7700000.0,31.390625,7.386893978238931E-7,7700000.0,70.7,30.227463232492575,36.16557734204792,18.836565096952896,797101.0,2904.0,0.0,1.0,0.0,?,0.0,0.0
7800000.0,31.796875,7.442477767148777E-7,7800000.0,70.1,31.013160566291965,35.56034482758619,22.135416666666657,827101.0,2904.0,0.0,1.0,0.0,?,0.0,0.0
7900000.0,32.21875,7.483610210733279E-7,7900000.0,73.3,38.18356933164167,43.67088607594936,29.36507936507936,857101.0,2904.0,0.0,1.0,0.0,?,0.0,0.0
8000000.0,32.609375,7.506335451681578E-7,8000000.0,70.89999999999999,32.26950684752958,37.284482758620676,22.81167108753315,887101.0,2904.0,0.0,1.0,0.0,?,0.0,0.0
8100000.0,33.03125,7.68034725398239E-7,8100000.0,73.5,36.151963146431264,41.241685144124155,24.715909090909083,916801.0,2904.0,0.0,1.0,0.0,?,0.0,0.0
8200000.0,33.46875,7.843600340291028E-7,8200000.0,73.5,38.96934188223156,41.371681415929196,28.76344086021505,946801.0,2904.0,0.0,1.0,0.0,?,0.0,0.0
8300000.0,33.859375,7.974001669531893E-7,8300000.0,71.3,33.103351825089725,39.32346723044397,22.43243243243242,976801.0,2904.0,0.0,1.0,0.0,?,0.0,0.0
8400000.0,34.296875,8.102847560722793E-7,8400000.0,73.2,36.68374000642612,43.57894736842105,25.966850828729278,1006801.0,2904.0,0.0,1.0,0.0,?,0.0,0.0
8500000.0,34.703125,8.206515404809679E-7,8500000.0,70.6,32.27678982769739,34.374999999999986,22.222222222222214,1036801.0,2904.0,0.0,1.0,0.0,?,0.0,0.0
8600000.0,35.140625,8.30095410088284E-7,8600000.0,74.6,39.18207068288477,46.186440677966104,29.050279329608937,1066801.0,2904.0,0.0,1.0,0.0,?,0.0,0.0
8700000.0,35.5625,8.375430803021622E-7,8700000.0,72.8,34.7424485976824,39.420935412026715,24.23398328690807,1096801.0,2904.0,0.0,1.0,0.0,?,0.0,0.0
8800000.0,36.03125,8.439750268331003E-7,8800000.0,73.1,38.352522733939566,43.008474576271176,29.765013054830288,1126801.0,2904.0,0.0,1.0,0.0,?,0.0,0.0
8900000.0,36.4375,8.479519035770661E-7,8900000.0,71.89999999999999,36.405196215996014,40.08528784648186,27.2020725388601,1156801.0,2904.0,0.0,1.0,0.0,?,0.0,0.0
9000000.0,36.84375,8.50331303404851E-7,9000000.0,74.0,40.38884812912693,43.47826086956521,32.64248704663213,1186801.0,2904.0,0.0,1.0,0.0,?,0.0,0.0
9100000.0,37.25,8.671039702474243E-7,9100000.0,72.0,35.73264781491001,39.393939393939384,26.315789473684205,1216501.0,2904.0,0.0,1.0,0.0,?,0.0,0.0
9200000.0,37.671875,8.828628213248319E-7,9200000.0,72.8,33.68182882109697,42.49471458773784,23.59550561797752,1246501.0,2904.0,0.0,1.0,0.0,?,0.0,0.0
9300000.0,38.09375,8.970308570294745E-7,9300000.0,70.89999999999999,34.38438573863789,39.87603305785123,26.88442211055276,1276501.0,2904.0,0.0,1.0,0.0,?,0.0,52.0
9400000.0,38.5,9.090766737548014E-7,9400000.0,73.2,35.0120276247381,44.628099173553714,23.863636363636353,1306501.0,2904.0,0.0,1.0,0.0,?,0.0,67.0
9500000.0,38.9375,9.203232992957865E-7,9500000.0,71.6,34.16263683275918,40.70981210855949,24.66843501326259,1336501.0,2904.0,0.0,1.0,0.0,?,0.0,33.0
9600000.0,39.359375,9.295093413028454E-7,9600000.0,72.7,35.864304844241886,41.41630901287553,27.005347593582883,1366501.0,2904.0,0.0,1.0,0.0,?,0.0,0.0
9700000.0,39.78125,9.370364649738704E-7,9700000.0,72.3,33.72000650836036,37.330316742081436,22.625698324022338,1396501.0,2904.0,0.0,1.0,0.0,?,0.0,0.0
9800000.0,40.203125,9.429046703088617E-7,9800000.0,70.89999999999999,32.731694236654974,39.374999999999986,22.81167108753315,1426501.0,2904.0,0.0,1.0,0.0,?,0.0,0.0
9900000.0,40.625,9.471139573078191E-7,9900000.0,72.5,35.32516156950546,40.732758620689644,24.03314917127071,1456501.0,2904.0,0.0,1.0,0.0,?,0.0,0.0
1.0E7,41.078125,9.498532421679963E-7,1.0E7,72.2,33.016890345276224,40.724946695095944,21.69014084507041,1486501.0,2904.0,0.0,1.0,0.0,?,0.0,0.0
