learning evaluation instances,evaluation time (cpu seconds),model cost (RAM-Hours),classified instances,classifications correct (percent),Kappa Statistic (percent),Kappa Temporal Statistic (percent),Kappa M Statistic (percent),model training instances,model serialized size (bytes),labeling cost,newThreshold,maxPosterior,accuracyBaseLearner (percent),Change detected,Warning detected
100000.0,0.109375,4.947618840055333E-9,100000.0,59.8,19.508239392907917,18.787878787878782,19.11468812877263,19800.0,9312.0,0.0,1.0,0.0,?,0.0,12.0
200000.0,0.21875,9.465826830516259E-9,200000.0,55.400000000000006,10.622675387969743,8.041237113402069,8.41889117043122,39800.0,9312.0,0.0,1.0,0.0,?,0.0,4.0
300000.0,0.34375,1.415115548297763E-8,300000.0,63.1,24.757142973662955,27.36220472440945,18.54304635761589,59800.0,9312.0,0.0,1.0,0.0,?,0.0,42.0
400000.0,0.484375,1.886917743831873E-8,400000.0,56.699999999999996,13.565953369530485,17.83681214421252,12.525252525252514,79800.0,9312.0,0.0,1.0,0.0,?,0.0,45.0
500000.0,0.609375,2.255824963665671E-8,500000.0,58.099999999999994,15.493525876326084,15.524193548387089,12.343096234309611,6398.0,9312.0,0.0,1.0,0.0,?,3.0,40.0
600000.0,0.71875,2.5367642390645214E-8,600000.0,54.50000000000001,7.605958704940146,6.9529652351738305,2.7777777777777803,26398.0,9312.0,0.0,1.0,0.0,?,0.0,32.0
700000.0,0.84375,2.805709502556258E-8,700000.0,55.1,9.712447214960811,12.64591439688717,7.422680412371141,46398.0,9312.0,0.0,1.0,0.0,?,0.0,45.0
800000.0,0.96875,3.025501630165511E-8,800000.0,61.9,22.76567795923,25.440313111545986,14.189189189189177,66398.0,9312.0,0.0,1.0,0.0,?,0.0,0.0
900000.0,1.0625,3.153480873960588E-8,900000.0,55.7,10.515174040916603,11.222444889779569,6.932773109243703,86398.0,9312.0,0.0,1.0,0.0,?,0.0,0.0
1000000.0,1.1875,3.27794178802934E-8,1000000.0,61.199999999999996,22.07427045048301,18.99791231732776,23.921568627450977,106398.0,9312.0,0.0,1.0,0.0,?,0.0,38.0
1100000.0,1.296875,3.773654397163127E-8,1100000.0,61.5,23.063395761892195,23.61111111111111,24.8046875,126198.0,9312.0,0.0,1.0,0.0,?,0.0,32.0
1200000.0,1.40625,4.2263580123997404E-8,1200000.0,55.00000000000001,9.647262914417905,10.358565737051801,8.536585365853666,146198.0,9312.0,0.0,1.0,0.0,?,0.0,0.0
1300000.0,1.515625,4.636754359429082E-8,1300000.0,54.7,9.949667231220648,7.739307535641555,2.7896995708154533,166198.0,9312.0,0.0,1.0,0.0,?,0.0,50.0
1400000.0,1.640625,5.05662562015156E-8,1400000.0,57.599999999999994,14.86627580114047,16.86274509803921,15.873015873015865,186198.0,9312.0,0.0,1.0,0.0,?,0.0,0.0
1500000.0,1.828125,5.612702807411552E-8,1500000.0,57.99999999999999,14.97734753616499,14.979757085020234,10.447761194029837,206198.0,9312.0,0.0,1.0,0.0,?,0.0,0.0
1600000.0,1.9375,5.891604814678431E-8,1600000.0,56.10000000000001,11.79638023595977,14.090019569471638,8.92116182572615,226198.0,9312.0,0.0,1.0,0.0,?,0.0,14.0
1700000.0,2.046875,6.129263460429178E-8,1700000.0,56.89999999999999,13.972055888223542,13.453815261044166,13.972055888223542,246198.0,9312.0,0.0,1.0,0.0,?,0.0,6.0
1800000.0,2.15625,6.323913112282753E-8,1800000.0,60.9,21.35012270185461,21.010101010101007,19.712525667351123,266198.0,9312.0,0.0,1.0,0.0,?,0.0,0.0
1900000.0,2.28125,6.497216721375783E-8,1900000.0,60.3,20.634920634920633,20.916334661354576,16.94560669456066,286198.0,9312.0,0.0,1.0,0.0,?,0.0,0.0
2000000.0,2.390625,6.605848385435012E-8,2000000.0,54.400000000000006,6.828871607733217,8.617234468937882,0.21881838074398272,306198.0,9312.0,0.0,1.0,0.0,?,0.0,0.0
2100000.0,2.5,7.10199108450777E-8,2100000.0,61.6,23.403746035545456,26.011560693641616,21.14989733059548,325998.0,9312.0,0.0,1.0,0.0,?,0.0,0.0
2200000.0,2.609375,7.555124789683356E-8,2200000.0,55.7,10.649455425574843,11.222444889779569,7.51565762004176,345998.0,9312.0,0.0,1.0,0.0,?,0.0,0.0
2300000.0,2.734375,8.023838745430113E-8,2300000.0,56.99999999999999,12.456788263509132,15.019762845849794,6.724511930585665,365998.0,9312.0,0.0,1.0,0.0,?,0.0,0.0
2400000.0,2.859375,8.443399565294385E-8,2400000.0,55.2,9.4056362636296,14.503816793893144,5.084745762711869,385998.0,9312.0,0.0,1.0,0.0,?,0.0,0.0
2500000.0,2.96875,8.76750628877845E-8,2500000.0,54.800000000000004,9.475075604333995,16.451016635859524,7.186858316221772,405998.0,9312.0,0.0,1.0,0.0,?,0.0,0.0
2600000.0,3.09375,9.088760836877756E-8,2600000.0,63.4,26.70148679825686,26.060606060606062,26.358148893360163,425998.0,9312.0,0.0,1.0,0.0,?,0.0,0.0
2700000.0,3.21875,9.360862249094578E-8,2700000.0,61.3,21.888245694770745,22.28915662650602,19.875776397515523,445998.0,9312.0,0.0,1.0,0.0,?,0.0,0.0
2800000.0,3.328125,9.555941990887125E-8,2800000.0,62.6,23.766816143497746,24.137931034482758,16.888888888888882,465998.0,9312.0,0.0,1.0,0.0,?,0.0,0.0
2900000.0,3.4375,9.708012738782498E-8,2900000.0,60.4,20.364233083432545,22.957198443579767,18.852459016393436,485998.0,9312.0,0.0,1.0,0.0,?,0.0,0.0
3000000.0,3.5625,9.83265474335187E-8,3000000.0,55.60000000000001,10.072306726348419,7.883817427385899,4.9250535331905825,505998.0,9312.0,0.0,1.0,0.0,?,0.0,0.0
3100000.0,3.671875,1.03292275323636E-7,3100000.0,60.3,20.231148832200095,22.460937499999996,17.805383022774322,525798.0,9312.0,0.0,1.0,0.0,?,0.0,0.0
3200000.0,3.8125,1.0912380983225173E-7,3200000.0,56.39999999999999,13.094782497767568,12.625250501001991,13.663366336633654,545798.0,9312.0,0.0,1.0,0.0,?,0.0,0.0
3300000.0,3.9375,1.1381586470330755E-7,3300000.0,62.0,24.745024259827705,21.810699588477362,21.161825726141075,565798.0,9312.0,0.0,1.0,0.0,?,0.0,0.0
3400000.0,4.046875,1.1749132277650965E-7,3400000.0,62.6,24.88602357855837,23.517382413087933,23.517382413087933,585798.0,9312.0,0.0,1.0,0.0,?,0.0,0.0
3500000.0,4.171875,1.2120031492991578E-7,3500000.0,63.4,25.913030804795,24.380165289256198,20.261437908496728,605798.0,9312.0,0.0,1.0,0.0,?,0.0,0.0
3600000.0,4.28125,1.2401559312517442E-7,3600000.0,53.0,5.246520329661477,4.27698574338086,2.286902286902289,625798.0,9312.0,0.0,1.0,0.0,?,0.0,0.0
3700000.0,4.390625,1.2640078138146134E-7,3700000.0,60.8,19.985956718934332,21.7564870259481,14.59694989106753,645798.0,9312.0,0.0,1.0,0.0,?,0.0,0.0
3800000.0,4.484375,1.2807657993916006E-7,3800000.0,52.5,4.728667244311808,4.040404040404044,3.4552845528455314,665798.0,9312.0,0.0,1.0,0.0,?,0.0,0.0
3900000.0,4.59375,1.296015883175035E-7,3900000.0,54.300000000000004,7.507852724976527,11.60541586073502,3.991596638655466,685798.0,9312.0,0.0,1.0,0.0,?,0.0,0.0
4000000.0,4.703125,1.3069650675687524E-7,4000000.0,60.099999999999994,18.780940594059405,25.97402597402597,11.725663716814145,705798.0,9312.0,0.0,1.0,0.0,?,0.0,0.0
4100000.0,4.84375,1.370865437719557E-7,4100000.0,57.9,14.645321914864276,17.612524461839524,8.874458874458858,725598.0,9312.0,0.0,1.0,0.0,?,0.0,0.0
4200000.0,4.96875,1.4227504531542461E-7,4200000.0,60.5,20.96395956556189,22.09072978303747,20.999999999999996,745598.0,9312.0,0.0,1.0,0.0,?,0.0,0.0
4300000.0,5.078125,1.4638489422698816E-7,4300000.0,59.599999999999994,18.7818891654236,19.038076152304605,17.043121149897324,765598.0,9312.0,0.0,1.0,0.0,?,0.0,0.0
4400000.0,5.1875,1.5006465319958E-7,4400000.0,62.5,25.159858542153955,27.042801556420237,28.97727272727273,785598.0,9312.0,0.0,1.0,0.0,?,0.0,0.0
4500000.0,5.3125,1.5377856066657439E-7,4500000.0,56.39999999999999,12.19413956298459,14.6771037181996,12.449799196787136,805598.0,9312.0,0.0,1.0,0.0,?,0.0,0.0
4600000.0,5.4375,1.5700093677474395E-7,4600000.0,60.099999999999994,20.024052916416114,20.359281437125745,19.55645161290322,825598.0,9312.0,0.0,1.0,0.0,?,0.0,0.0
4700000.0,5.5625,1.5973178152408868E-7,4700000.0,56.8,12.832929782082322,19.85157699443413,9.623430962343082,845598.0,9312.0,0.0,1.0,0.0,?,0.0,0.0
4800000.0,5.671875,1.6169118074079358E-7,4800000.0,62.5,24.751982534433495,26.18110236220473,23.78048780487805,865598.0,9312.0,0.0,1.0,0.0,?,0.0,0.0
4900000.0,5.796875,1.6343896277248863E-7,4900000.0,55.400000000000006,9.868764070375125,11.507936507936519,2.8322440087145995,885598.0,9312.0,0.0,1.0,0.0,?,0.0,0.0
5000000.0,5.921875,1.6476997795204326E-7,5000000.0,60.099999999999994,18.78027928184668,21.917808219178077,16.352201257861626,905598.0,9312.0,0.0,1.0,0.0,?,0.0,0.0
5100000.0,6.03125,1.6980972658428885E-7,5100000.0,50.7,1.7732616058975927,0.40404040404040437,-0.6122448979591842,925398.0,9312.0,0.0,1.0,0.0,?,0.0,0.0
5200000.0,6.15625,1.7508592767020072E-7,5200000.0,52.1,5.2550794354073105,-3.2327586206896584,-1.69851380042463,945398.0,9312.0,0.0,1.0,0.0,?,0.0,21.0
5300000.0,6.28125,1.7987059739728773E-7,5300000.0,50.3,2.132217995069187,-4.8523206751054895,-7.575757575757583,965398.0,9312.0,0.0,1.0,0.0,?,0.0,0.0
5400000.0,6.40625,1.841637357655499E-7,5400000.0,48.199999999999996,-3.4117905412149883,-5.498981670061105,-5.070993914807307,985398.0,9312.0,0.0,1.0,0.0,?,0.0,0.0
5500000.0,6.53125,1.8796534277498726E-7,5500000.0,51.0,2.825979176995545,4.2968750000000036,-3.157894736842108,1005398.0,9312.0,0.0,1.0,0.0,?,0.0,0.0
5600000.0,6.65625,1.9127541842559978E-7,5600000.0,49.3,-1.0072836810480748,4.519774011299439,-6.066945606694566,1025398.0,9312.0,0.0,1.0,0.0,?,0.0,0.0
5700000.0,6.78125,1.9409396271738747E-7,5700000.0,48.4,-1.5056673997631633,-6.832298136645969,-11.930585683297192,1045398.0,9312.0,0.0,1.0,0.0,?,0.0,0.0
5800000.0,6.9375,1.9700272888359102E-7,5800000.0,50.7,3.356073080843728,0.6048387096774198,-10.786516853932596,1065398.0,9312.0,0.0,1.0,0.0,?,0.0,0.0
5900000.0,7.0625,1.9883821045772903E-7,5900000.0,49.7,-0.1672773617970272,6.1567164179104426,-9.110629067245128,1085398.0,9312.0,0.0,1.0,0.0,?,0.0,0.0
6000000.0,7.1875,2.001821606730422E-7,6000000.0,48.1,-3.4854043707130424,-3.3864541832669355,-5.487804878048785,1105398.0,9312.0,0.0,1.0,0.0,?,0.0,0.0
6100000.0,7.296875,2.0523322746157652E-7,6100000.0,48.6,-1.8907271509053303,-2.5948103792415194,-7.756813417190783,1125198.0,9312.0,0.0,1.0,0.0,?,0.0,0.0
6200000.0,7.421875,2.1051434386107662E-7,6200000.0,51.5,4.238767306127928,4.901960784313729,-3.8543897216274123,1145198.0,9312.0,0.0,1.0,0.0,?,0.0,0.0
6300000.0,7.53125,2.1470523077166748E-7,6300000.0,48.6,-1.2305219871118247,-7.983193277310932,-4.6843177189409415,1165198.0,9312.0,0.0,1.0,0.0,?,0.0,0.0
6400000.0,7.65625,2.1896706635339398E-7,6400000.0,62.3,24.402236250030082,23.217922606924642,25.494071146245062,259073.0,9312.0,0.0,1.0,0.0,?,1.0,8.0
6500000.0,7.78125,2.2273737057629566E-7,6500000.0,59.5,18.85003486442947,16.149068322981357,18.674698795180717,279073.0,9312.0,0.0,1.0,0.0,?,0.0,0.0
6600000.0,7.90625,2.2601614344037248E-7,6600000.0,61.5,23.861281187210277,24.951267056530213,18.4322033898305,299073.0,9312.0,0.0,1.0,0.0,?,0.0,0.0
6700000.0,8.015625,2.2845497975746797E-7,6700000.0,62.5,25.405792488860605,25.595238095238095,22.52066115702479,319073.0,9312.0,0.0,1.0,0.0,?,0.0,0.0
6800000.0,8.140625,2.3075068990389513E-7,6800000.0,61.7,24.307103669623235,24.45759368836292,18.855932203389823,339073.0,9312.0,0.0,1.0,0.0,?,0.0,0.0
6900000.0,8.25,2.3232934634304715E-7,6900000.0,54.900000000000006,10.157214913503914,10.693069306930703,7.201646090534986,359073.0,9312.0,0.0,1.0,0.0,?,0.0,0.0
7000000.0,8.359375,2.3347791284322746E-7,7000000.0,61.199999999999996,22.149320813017916,23.320158102766797,17.79661016949152,379073.0,9312.0,0.0,1.0,0.0,?,0.0,0.0
7100000.0,8.484375,2.392192578150167E-7,7100000.0,62.4,25.041366798907518,26.27450980392157,23.732251521298174,398873.0,9312.0,0.0,1.0,0.0,?,0.0,0.0
7200000.0,8.59375,2.4381284472636056E-7,7200000.0,60.6,21.34315545706814,21.825396825396822,19.262295081967206,418873.0,9312.0,0.0,1.0,0.0,?,0.0,0.0
7300000.0,8.71875,2.4857112698050016E-7,7300000.0,56.699999999999996,15.092711699557615,12.34817813765181,2.477477477477455,438873.0,9312.0,0.0,1.0,0.0,?,0.0,0.0
7400000.0,8.828125,2.5230453401390054E-7,7400000.0,62.6,25.487023983615114,23.828920570264764,23.828920570264764,458873.0,9312.0,0.0,1.0,0.0,?,0.0,0.0
7500000.0,8.953125,2.5607975355039047E-7,7500000.0,55.800000000000004,11.820097037793682,12.12723658051691,11.066398390342062,478873.0,9312.0,0.0,1.0,0.0,?,0.0,0.0
7600000.0,9.078125,2.593634417280555E-7,7600000.0,54.300000000000004,9.717338222162528,5.773195876288665,-0.6607929515418508,498873.0,9312.0,0.0,1.0,0.0,?,0.0,0.0
7700000.0,9.203125,2.6215559854689575E-7,7700000.0,54.800000000000004,10.128087358680402,6.029106029106035,7.186858316221772,518873.0,9312.0,0.0,1.0,0.0,?,0.0,0.0
7800000.0,9.3125,2.6416864582440925E-7,7800000.0,61.1,23.03613542474556,24.171539961013643,17.584745762711858,538873.0,9312.0,0.0,1.0,0.0,?,0.0,0.0
7900000.0,9.421875,2.65751603162951E-7,7900000.0,63.6,27.10465288597485,28.62745098039216,26.16632860040568,558873.0,9312.0,0.0,1.0,0.0,?,0.0,0.0
8000000.0,9.546875,2.670691659053167E-7,8000000.0,60.5,22.429165062881456,22.09072978303747,12.80353200883001,578873.0,9312.0,0.0,1.0,0.0,?,0.0,0.0
8100000.0,9.65625,2.7209714365502203E-7,8100000.0,56.10000000000001,13.582677165354331,12.024048096192395,6.196581196581202,598673.0,9312.0,0.0,1.0,0.0,?,0.0,0.0
8200000.0,9.78125,2.773518725815747E-7,8200000.0,58.099999999999994,17.937107312410866,13.786008230452666,7.095343680709516,618673.0,9312.0,0.0,1.0,0.0,?,0.0,0.0
8300000.0,9.890625,2.8151967045333655E-7,8300000.0,60.699999999999996,20.861860652436572,20.606060606060602,19.46721311475409,638673.0,9312.0,0.0,1.0,0.0,?,0.0,0.0
8400000.0,10.0,2.8525737838612666E-7,8400000.0,61.8,23.950436389118934,24.95088408644401,21.721311475409834,658673.0,9312.0,0.0,1.0,0.0,?,0.0,0.0
8500000.0,10.125,2.890375132362048E-7,8500000.0,58.599999999999994,17.501285306062254,12.288135593220327,15.337423312883427,678673.0,9312.0,0.0,1.0,0.0,?,0.0,0.0
8600000.0,10.265625,2.927371921638648E-7,8600000.0,59.8,20.169986297833457,24.007561436672965,16.597510373443974,698673.0,9312.0,0.0,1.0,0.0,?,0.0,0.0
8700000.0,10.40625,2.958838983128469E-7,8700000.0,58.699999999999996,18.220412818603762,14.84536082474226,11.563169164882215,718673.0,9312.0,0.0,1.0,0.0,?,0.0,0.0
8800000.0,10.53125,2.9818943908645054E-7,8800000.0,60.8,22.322401664519965,19.836400817995905,16.417910447761187,738673.0,9312.0,0.0,1.0,0.0,?,0.0,0.0
8900000.0,10.640625,2.99776697324382E-7,8900000.0,56.89999999999999,13.5288263995891,15.324165029469539,15.984405458089663,758673.0,9312.0,0.0,1.0,0.0,?,0.0,0.0
9000000.0,10.765625,3.01099175380336E-7,9000000.0,62.0,24.41270662184473,23.076923076923077,22.448979591836732,778673.0,9312.0,0.0,1.0,0.0,?,0.0,0.0
9100000.0,10.875,3.0613145402943104E-7,9100000.0,59.9,21.170374214652476,16.804979253112027,10.690423162583505,798473.0,9312.0,0.0,1.0,0.0,?,0.0,0.0
9200000.0,10.984375,3.107336427395543E-7,9200000.0,59.8,20.339251743817364,15.010570824524303,16.249999999999993,818473.0,9312.0,0.0,1.0,0.0,?,0.0,0.0
9300000.0,11.125,3.160977697310349E-7,9300000.0,61.7,23.77138580834176,18.336886993603404,21.19341563786008,838473.0,9312.0,0.0,1.0,0.0,?,0.0,0.0
9400000.0,11.234375,3.1983977856321473E-7,9400000.0,55.2,11.0959409740551,9.127789046653152,6.860706860706866,858473.0,9312.0,0.0,1.0,0.0,?,0.0,0.0
9500000.0,11.359375,3.2362482872688114E-7,9500000.0,62.7,24.80990815923366,27.005870841487283,28.13102119460501,878473.0,9312.0,0.0,1.0,0.0,?,0.0,0.0
9600000.0,11.484375,3.269183475317227E-7,9600000.0,56.99999999999999,15.120410580339517,14.512922465208739,8.510638297872324,898473.0,9312.0,0.0,1.0,0.0,?,0.0,0.0
9700000.0,11.59375,3.2937008654698734E-7,9700000.0,60.0,20.834405367427312,17.525773195876283,14.346895074946456,918473.0,9312.0,0.0,1.0,0.0,?,0.0,0.0
9800000.0,11.703125,3.3139173562328025E-7,9800000.0,57.4,16.171105400076346,14.97005988023951,5.960264900662233,938473.0,9312.0,0.0,1.0,0.0,?,0.0,0.0
9900000.0,11.828125,3.3321066035164733E-7,9900000.0,60.8,22.492881999367285,23.28767123287671,17.647058823529406,958473.0,9312.0,0.0,1.0,0.0,?,0.0,0.0
1.0E7,11.9375,3.343721295499968E-7,1.0E7,54.6,8.753255941087572,9.741550695825058,6.004140786749488,978473.0,9312.0,0.0,1.0,0.0,?,0.0,0.0
