learning evaluation instances,evaluation time (cpu seconds),model cost (RAM-Hours),classified instances,classifications correct (percent),Kappa Statistic (percent),Kappa Temporal Statistic (percent),Kappa M Statistic (percent),model training instances,model serialized size (bytes),labeling cost,newThreshold,maxPosterior,accuracyBaseLearner (percent),Change detected,Warning detected,tree size (nodes),tree size (leaves),active learning leaves,tree depth,active leaf byte size estimate,inactive leaf byte size estimate,byte size estimate overhead
100000.0,0.296875,0.0,100000.0,65.8,30.202657197085653,25.327510917030565,4.201680672268911,5706.0,0.0,0.0,1.0,0.0,?,1.0,65.0,5.0,3.0,3.0,2.0,0.0,0.0,1.0
200000.0,0.5625,0.0,200000.0,65.10000000000001,21.627278198460402,25.902335456475583,7.915567282321907,2445.0,0.0,0.0,1.0,0.0,?,2.0,36.0,1.0,1.0,1.0,0.0,0.0,0.0,1.0
300000.0,0.75,0.0,300000.0,61.3,19.994376865764213,21.818181818181813,-1.3089005235602107,12445.0,0.0,0.0,1.0,0.0,?,0.0,0.0,27.0,23.0,23.0,4.0,0.0,0.0,1.0
400000.0,1.0,0.0,400000.0,60.6,14.905748397463581,20.081135902636913,-7.650273224043723,22445.0,0.0,0.0,1.0,0.0,?,0.0,0.0,51.0,44.0,44.0,4.0,0.0,0.0,1.0
500000.0,1.234375,0.0,500000.0,62.8,22.996352676704745,22.17573221757322,5.343511450381684,32445.0,0.0,0.0,1.0,0.0,?,0.0,0.0,55.0,46.0,46.0,6.0,0.0,0.0,1.0
600000.0,1.484375,0.0,600000.0,65.5,28.994228980233643,28.125000000000007,12.213740458015279,42445.0,0.0,0.0,1.0,0.0,?,0.0,0.0,59.0,48.0,48.0,6.0,0.0,0.0,1.0
700000.0,1.734375,0.0,700000.0,66.4,29.435780259659534,26.956521739130434,7.438016528925627,52445.0,0.0,0.0,1.0,0.0,?,0.0,0.0,82.0,63.0,63.0,6.0,0.0,0.0,1.0
800000.0,1.984375,0.0,800000.0,64.9,28.803245436105477,24.353448275862068,2.500000000000002,62445.0,0.0,0.0,1.0,0.0,?,0.0,0.0,92.0,68.0,68.0,6.0,0.0,0.0,1.0
900000.0,2.1875,0.0,900000.0,65.5,27.11678215311814,28.865979381443303,11.311053984575844,72445.0,0.0,0.0,1.0,0.0,?,0.0,0.0,104.0,74.0,74.0,6.0,0.0,0.0,1.0
1000000.0,2.453125,0.0,1000000.0,68.10000000000001,33.88655845340144,32.70042194092827,18.62244897959185,82445.0,0.0,0.0,1.0,0.0,?,0.0,0.0,112.0,78.0,78.0,7.0,0.0,0.0,1.0
1100000.0,2.703125,0.0,1100000.0,67.80000000000001,31.470406708238464,30.75268817204302,16.363636363636378,92345.0,0.0,0.0,1.0,0.0,?,0.0,0.0,133.0,92.0,92.0,8.0,0.0,0.0,1.0
1200000.0,2.9375,0.0,1200000.0,64.7,26.7306510801521,26.611226611226613,4.076086956521743,102345.0,0.0,0.0,1.0,0.0,?,0.0,0.0,147.0,99.0,99.0,8.0,0.0,0.0,1.0
1300000.0,3.1875,0.0,1300000.0,68.7,36.42139816048621,39.105058365758765,20.95959595959598,112345.0,0.0,0.0,1.0,0.0,?,0.0,0.0,153.0,102.0,102.0,8.0,0.0,0.0,1.0
1400000.0,3.421875,0.0,1400000.0,68.4,34.410441193563926,27.188940092165918,12.707182320442001,122345.0,0.0,0.0,1.0,0.0,?,0.0,0.0,159.0,105.0,105.0,8.0,0.0,0.0,1.0
1500000.0,3.6875,0.0,1500000.0,67.9,33.516146670422366,28.507795100222722,17.054263565891485,132345.0,0.0,0.0,1.0,0.0,?,0.0,0.0,167.0,109.0,109.0,10.0,0.0,0.0,1.0
1600000.0,3.953125,0.0,1600000.0,66.9,30.916741106834866,28.04347826086957,14.910025706940889,142345.0,0.0,0.0,1.0,0.0,?,0.0,0.0,182.0,120.0,120.0,10.0,0.0,0.0,1.0
1700000.0,4.203125,0.0,1700000.0,69.69999999999999,36.93596190349328,35.39445628997866,22.107969151670943,152345.0,0.0,0.0,1.0,0.0,?,0.0,0.0,188.0,123.0,123.0,10.0,0.0,0.0,1.0
1800000.0,4.40625,0.0,1800000.0,70.39999999999999,39.10467412771559,39.094650205761305,22.916666666666657,162345.0,0.0,0.0,1.0,0.0,?,0.0,0.0,196.0,127.0,127.0,10.0,0.0,0.0,1.0
1900000.0,4.671875,0.0,1900000.0,70.1,38.5330153770249,35.69892473118278,22.739018087855285,172345.0,0.0,0.0,1.0,0.0,?,0.0,0.0,206.0,132.0,132.0,10.0,0.0,0.0,1.0
2000000.0,4.9375,0.0,2000000.0,72.2,43.12020460358056,40.086206896551715,25.86666666666666,182345.0,0.0,0.0,1.0,0.0,?,0.0,0.0,208.0,133.0,133.0,10.0,0.0,0.0,1.0
2100000.0,5.171875,0.0,2100000.0,71.89999999999999,42.5635071826276,43.002028397565915,26.631853785900777,192245.0,0.0,0.0,1.0,0.0,?,0.0,0.0,214.0,136.0,136.0,10.0,0.0,0.0,1.0
2200000.0,5.453125,0.0,2200000.0,73.9,44.273635664873176,45.16806722689075,27.499999999999996,202245.0,0.0,0.0,1.0,0.0,?,0.0,0.0,228.0,143.0,143.0,10.0,0.0,0.0,1.0
2300000.0,5.71875,0.0,2300000.0,72.5,42.69639508230881,37.07093821510298,24.863387978142068,212245.0,0.0,0.0,1.0,0.0,?,0.0,0.0,234.0,146.0,146.0,11.0,0.0,0.0,1.0
2400000.0,5.984375,0.0,2400000.0,73.1,46.06667682511167,45.98393574297188,32.241813602015114,222245.0,0.0,0.0,1.0,0.0,?,0.0,0.0,240.0,149.0,149.0,11.0,0.0,0.0,1.0
2500000.0,6.25,0.0,2500000.0,72.2,44.4888178913738,42.91581108829568,30.5,232245.0,0.0,0.0,1.0,0.0,?,0.0,0.0,244.0,151.0,151.0,11.0,0.0,0.0,1.0
2600000.0,6.484375,0.0,2600000.0,74.4,47.978476094484094,44.82758620689655,36.94581280788178,242245.0,0.0,0.0,1.0,0.0,?,0.0,0.0,256.0,157.0,157.0,11.0,0.0,0.0,1.0
2700000.0,6.734375,0.0,2700000.0,70.39999999999999,39.30520867935515,33.18284424379231,19.78319783197831,252245.0,0.0,0.0,1.0,0.0,?,0.0,0.0,262.0,160.0,160.0,11.0,0.0,0.0,1.0
2800000.0,6.984375,0.0,2800000.0,74.4,48.45423098142339,44.226579520697165,30.99730458221024,262245.0,0.0,0.0,1.0,0.0,?,0.0,0.0,272.0,165.0,165.0,11.0,0.0,0.0,1.0
2900000.0,7.25,0.0,2900000.0,75.9,50.9584469496561,50.91649694501018,34.86486486486486,272245.0,0.0,0.0,1.0,0.0,?,0.0,0.0,286.0,172.0,172.0,11.0,0.0,0.0,1.0
3000000.0,7.5,0.0,3000000.0,73.1,45.758692724002486,42.02586206896551,30.490956072351416,282245.0,0.0,0.0,1.0,0.0,?,0.0,0.0,294.0,176.0,176.0,11.0,0.0,0.0,1.0
3100000.0,7.765625,0.0,3100000.0,76.1,50.82952039237632,49.57805907172996,39.64646464646465,292145.0,0.0,0.0,1.0,0.0,?,0.0,0.0,315.0,190.0,190.0,11.0,0.0,0.0,1.0
3200000.0,8.0625,0.0,3200000.0,72.89999999999999,43.364681295715776,43.42379958246346,27.733333333333327,302145.0,0.0,0.0,1.0,0.0,?,0.0,0.0,349.0,217.0,217.0,11.0,0.0,0.0,1.0
3300000.0,8.359375,0.0,3300000.0,74.2,46.34858447602531,46.47302904564315,31.926121372031663,312145.0,0.0,0.0,1.0,0.0,?,0.0,0.0,361.0,223.0,223.0,11.0,0.0,0.0,1.0
3400000.0,8.625,0.0,3400000.0,72.3,43.67308427482654,42.411642411642404,26.912928759894456,322145.0,0.0,0.0,1.0,0.0,?,0.0,0.0,374.0,231.0,231.0,11.0,0.0,0.0,1.0
3500000.0,8.875,0.0,3500000.0,75.3,48.6593223861983,45.232815964523276,37.468354430379755,332145.0,0.0,0.0,1.0,0.0,?,0.0,0.0,382.0,235.0,235.0,11.0,0.0,0.0,1.0
3600000.0,9.140625,0.0,3600000.0,72.1,41.93355033674378,38.54625550660792,26.77165354330708,342145.0,0.0,0.0,1.0,0.0,?,0.0,0.0,394.0,241.0,241.0,12.0,0.0,0.0,1.0
3700000.0,9.40625,0.0,3700000.0,75.7,48.11683320522675,47.17391304347826,32.5,352145.0,0.0,0.0,1.0,0.0,?,0.0,0.0,412.0,250.0,250.0,12.0,0.0,0.0,1.0
3800000.0,9.671875,0.0,3800000.0,77.0,51.75850728236795,48.54586129753915,37.50000000000001,362145.0,0.0,0.0,1.0,0.0,?,0.0,0.0,428.0,258.0,258.0,12.0,0.0,0.0,1.0
3900000.0,9.9375,0.0,3900000.0,77.2,52.635187070237045,52.0,37.534246575342465,372145.0,0.0,0.0,1.0,0.0,?,0.0,0.0,436.0,262.0,262.0,12.0,0.0,0.0,1.0
4000000.0,10.171875,0.0,4000000.0,74.8,47.57492417087247,47.16981132075471,35.21850899742931,382145.0,0.0,0.0,1.0,0.0,?,0.0,0.0,450.0,269.0,269.0,12.0,0.0,0.0,1.0
4100000.0,10.453125,0.0,4100000.0,77.10000000000001,52.041884816753935,51.276595744680854,38.93333333333334,392045.0,0.0,0.0,1.0,0.0,?,0.0,0.0,478.0,288.0,288.0,12.0,0.0,0.0,1.0
4200000.0,10.734375,0.0,4200000.0,75.6,49.55029463454978,47.97441364605544,37.59590792838875,402045.0,0.0,0.0,1.0,0.0,?,0.0,0.0,488.0,293.0,293.0,12.0,0.0,0.0,1.0
4300000.0,11.015625,0.0,4300000.0,76.3,51.069452473366916,49.46695095948827,38.44155844155844,412045.0,0.0,0.0,1.0,0.0,?,0.0,0.0,502.0,300.0,300.0,12.0,0.0,0.0,1.0
4400000.0,11.296875,0.0,4400000.0,75.8,49.80419487587947,49.159663865546214,38.88888888888889,422045.0,0.0,0.0,1.0,0.0,?,0.0,0.0,515.0,308.0,308.0,12.0,0.0,0.0,1.0
4500000.0,11.59375,0.0,4500000.0,76.0,47.919379199000055,47.826086956521735,28.143712574850294,432045.0,0.0,0.0,1.0,0.0,?,0.0,0.0,535.0,325.0,325.0,12.0,0.0,0.0,1.0
4600000.0,11.890625,0.0,4600000.0,79.2,55.74317423571866,54.18502202643172,43.16939890710383,442045.0,0.0,0.0,1.0,0.0,?,0.0,0.0,564.0,341.0,341.0,12.0,0.0,0.0,1.0
4700000.0,12.1875,0.0,4700000.0,78.5,54.44683627981084,54.44915254237288,42.81914893617022,452045.0,0.0,0.0,1.0,0.0,?,0.0,0.0,572.0,345.0,345.0,12.0,0.0,0.0,1.0
4800000.0,12.5,0.0,4800000.0,79.80000000000001,56.72071577936993,57.74058577405859,45.989304812834234,462045.0,0.0,0.0,1.0,0.0,?,0.0,0.0,586.0,352.0,352.0,13.0,0.0,0.0,1.0
4900000.0,12.765625,0.0,4900000.0,77.2,51.09479030818862,52.0,38.70967741935484,472045.0,0.0,0.0,1.0,0.0,?,0.0,0.0,596.0,357.0,357.0,13.0,0.0,0.0,1.0
5000000.0,13.0625,0.0,5000000.0,80.5,58.773784355179714,57.88336933045357,48.000000000000014,482045.0,0.0,0.0,1.0,0.0,?,0.0,0.0,602.0,360.0,360.0,13.0,0.0,0.0,1.0
5100000.0,13.375,0.0,5100000.0,94.39999999999999,88.53173432943412,88.3089770354906,87.03703703703702,4081.0,0.0,0.0,1.0,0.0,?,3.0,9.0,16.0,10.0,10.0,2.0,0.0,0.0,1.0
5200000.0,13.5625,0.0,5200000.0,97.0,93.92062771545295,94.16342412451361,93.36283185840706,14081.0,0.0,0.0,1.0,0.0,?,0.0,0.0,22.0,13.0,13.0,3.0,0.0,0.0,1.0
5300000.0,13.71875,0.0,5300000.0,96.39999999999999,92.72315653298836,92.5155925155925,92.17391304347825,24081.0,0.0,0.0,1.0,0.0,?,0.0,0.0,24.0,14.0,14.0,4.0,0.0,0.0,1.0
5400000.0,13.859375,0.0,5400000.0,96.5,92.93329026005492,93.08300395256917,92.39130434782608,34081.0,0.0,0.0,1.0,0.0,?,0.0,0.0,26.0,15.0,15.0,4.0,0.0,0.0,1.0
5500000.0,13.984375,0.0,5500000.0,95.6,91.10920722417325,90.8713692946058,90.49676025917925,44081.0,0.0,0.0,1.0,0.0,?,0.0,0.0,28.0,16.0,16.0,4.0,0.0,0.0,1.0
5600000.0,14.140625,0.0,5600000.0,97.2,94.32812601283463,94.48818897637796,93.80530973451326,54081.0,0.0,0.0,1.0,0.0,?,0.0,0.0,28.0,16.0,16.0,4.0,0.0,0.0,1.0
5700000.0,14.28125,0.0,5700000.0,96.5,92.84663178548071,92.85714285714285,91.91685912240185,64081.0,0.0,0.0,1.0,0.0,?,0.0,0.0,28.0,16.0,16.0,4.0,0.0,0.0,1.0
5800000.0,14.421875,0.0,5800000.0,96.7,93.25677387715068,93.38677354709418,92.51700680272108,74081.0,0.0,0.0,1.0,0.0,?,0.0,0.0,32.0,18.0,18.0,5.0,0.0,0.0,1.0
5900000.0,14.578125,0.0,5900000.0,95.7,91.38946069989666,90.98532494758909,91.39999999999999,84081.0,0.0,0.0,1.0,0.0,?,0.0,0.0,32.0,18.0,18.0,5.0,0.0,0.0,1.0
6000000.0,14.734375,0.0,6000000.0,96.2,92.30604137729958,92.60700389105058,91.68490153172866,94081.0,0.0,0.0,1.0,0.0,?,0.0,0.0,34.0,19.0,19.0,5.0,0.0,0.0,1.0
6100000.0,14.90625,0.0,6100000.0,95.89999999999999,91.75475006837523,92.08494208494209,91.31355932203388,103981.0,0.0,0.0,1.0,0.0,?,0.0,0.0,36.0,20.0,20.0,5.0,0.0,0.0,1.0
6200000.0,15.046875,0.0,6200000.0,95.89999999999999,91.70799187787692,91.68356997971601,91.12554112554112,113981.0,0.0,0.0,1.0,0.0,?,0.0,0.0,36.0,20.0,20.0,5.0,0.0,0.0,1.0
6300000.0,15.1875,0.0,6300000.0,95.3,90.57042886492039,90.87378640776699,90.2892561983471,123981.0,0.0,0.0,1.0,0.0,?,0.0,0.0,36.0,20.0,20.0,5.0,0.0,0.0,1.0
6400000.0,15.34375,0.0,6400000.0,95.7,91.39311449159327,91.87145557655954,91.34808853118712,133981.0,0.0,0.0,1.0,0.0,?,0.0,0.0,36.0,20.0,20.0,5.0,0.0,0.0,1.0
6500000.0,15.515625,0.0,6500000.0,95.5,90.96603228137798,90.48625792811839,90.56603773584905,143981.0,0.0,0.0,1.0,0.0,?,0.0,0.0,36.0,20.0,20.0,5.0,0.0,0.0,1.0
6600000.0,15.6875,0.0,6600000.0,95.6,91.17075754900229,91.47286821705426,90.8713692946058,153981.0,0.0,0.0,1.0,0.0,?,0.0,0.0,36.0,20.0,20.0,5.0,0.0,0.0,1.0
6700000.0,15.84375,0.0,6700000.0,97.5,94.94961738301294,94.71458773784354,94.4812362030905,163981.0,0.0,0.0,1.0,0.0,?,0.0,0.0,36.0,20.0,20.0,5.0,0.0,0.0,1.0
6800000.0,16.0,0.0,6800000.0,96.8,93.53702476935256,93.75,93.01310043668121,173981.0,0.0,0.0,1.0,0.0,?,0.0,0.0,36.0,20.0,20.0,5.0,0.0,0.0,1.0
6900000.0,16.171875,0.0,6900000.0,96.7,93.30764550801054,93.41317365269461,92.66666666666666,183981.0,0.0,0.0,1.0,0.0,?,0.0,0.0,36.0,20.0,20.0,5.0,0.0,0.0,1.0
7000000.0,16.34375,0.0,7000000.0,95.7,91.27094972067039,91.27789046653143,90.48672566371681,193981.0,0.0,0.0,1.0,0.0,?,0.0,0.0,38.0,21.0,21.0,5.0,0.0,0.0,1.0
7100000.0,16.484375,0.0,7100000.0,96.2,92.35458624227914,92.43027888446214,91.9661733615222,203881.0,0.0,0.0,1.0,0.0,?,0.0,0.0,38.0,21.0,21.0,5.0,0.0,0.0,1.0
7200000.0,16.65625,0.0,7200000.0,96.1,92.18843888955654,92.3076923076923,92.00819672131146,213881.0,0.0,0.0,1.0,0.0,?,0.0,0.0,38.0,21.0,21.0,5.0,0.0,0.0,1.0
7300000.0,16.8125,0.0,7300000.0,96.0,91.97045126063914,92.07920792079207,91.66666666666666,223881.0,0.0,0.0,1.0,0.0,?,0.0,0.0,38.0,21.0,21.0,5.0,0.0,0.0,1.0
7400000.0,16.984375,0.0,7400000.0,96.1,92.14741911841692,92.4124513618677,91.68443496801704,233881.0,0.0,0.0,1.0,0.0,?,0.0,0.0,38.0,21.0,21.0,5.0,0.0,0.0,1.0
7500000.0,17.125,0.0,7500000.0,96.0,91.92229245340172,92.17221135029354,91.36069114470841,243881.0,0.0,0.0,1.0,0.0,?,0.0,0.0,38.0,21.0,21.0,5.0,0.0,0.0,1.0
7600000.0,17.28125,0.0,7600000.0,96.39999999999999,92.76309176801688,93.09021113243762,92.42105263157893,253881.0,0.0,0.0,1.0,0.0,?,0.0,0.0,38.0,21.0,21.0,5.0,0.0,0.0,1.0
7700000.0,17.453125,0.0,7700000.0,95.7,91.32378815515487,91.80952380952381,90.73275862068965,263881.0,0.0,0.0,1.0,0.0,?,0.0,0.0,38.0,21.0,21.0,5.0,0.0,0.0,1.0
7800000.0,17.625,0.0,7800000.0,95.19999999999999,90.34174138402845,90.34205231388329,89.87341772151898,273881.0,0.0,0.0,1.0,0.0,?,0.0,0.0,38.0,21.0,21.0,5.0,0.0,0.0,1.0
7900000.0,17.78125,0.0,7900000.0,96.2,92.37563252153883,92.29208924949289,92.13250517598343,283881.0,0.0,0.0,1.0,0.0,?,0.0,0.0,38.0,21.0,21.0,5.0,0.0,0.0,1.0
8000000.0,17.953125,0.0,8000000.0,95.89999999999999,91.65540485533322,91.45833333333333,90.74492099322798,293881.0,0.0,0.0,1.0,0.0,?,0.0,0.0,38.0,21.0,21.0,5.0,0.0,0.0,1.0
8100000.0,18.09375,0.0,8100000.0,94.3,88.51760231420673,88.95348837209302,87.97468354430379,303781.0,0.0,0.0,1.0,0.0,?,0.0,0.0,38.0,21.0,21.0,5.0,0.0,0.0,1.0
8200000.0,18.265625,0.0,8200000.0,95.89999999999999,91.74399123654874,91.33192389006342,91.23931623931622,313781.0,0.0,0.0,1.0,0.0,?,0.0,0.0,38.0,21.0,21.0,5.0,0.0,0.0,1.0
8300000.0,18.421875,0.0,8300000.0,95.7,91.32560841779097,91.76245210727969,90.8119658119658,323781.0,0.0,0.0,1.0,0.0,?,0.0,0.0,38.0,21.0,21.0,5.0,0.0,0.0,1.0
8400000.0,18.578125,0.0,8400000.0,96.1,92.14817797463256,92.3679060665362,91.70212765957446,333781.0,0.0,0.0,1.0,0.0,?,0.0,0.0,40.0,22.0,22.0,6.0,0.0,0.0,1.0
8500000.0,18.75,0.0,8500000.0,97.2,94.35283487689179,94.331983805668,93.9655172413793,343781.0,0.0,0.0,1.0,0.0,?,0.0,0.0,40.0,22.0,22.0,6.0,0.0,0.0,1.0
8600000.0,18.890625,0.0,8600000.0,96.7,93.38141501335751,93.29268292682926,93.15352697095435,353781.0,0.0,0.0,1.0,0.0,?,0.0,0.0,40.0,22.0,22.0,6.0,0.0,0.0,1.0
8700000.0,19.078125,0.0,8700000.0,95.6,91.09023165397699,90.8902691511387,90.35087719298245,363781.0,0.0,0.0,1.0,0.0,?,0.0,0.0,40.0,22.0,22.0,6.0,0.0,0.0,1.0
8800000.0,19.203125,0.0,8800000.0,96.6,93.15754943670531,93.07535641547861,92.71948608137043,373781.0,0.0,0.0,1.0,0.0,?,0.0,0.0,42.0,23.0,23.0,6.0,0.0,0.0,1.0
8900000.0,19.34375,0.0,8900000.0,96.6,93.18323074763919,93.26732673267327,92.98969072164948,383781.0,0.0,0.0,1.0,0.0,?,0.0,0.0,44.0,24.0,24.0,6.0,0.0,0.0,1.0
9000000.0,19.546875,0.0,9000000.0,97.1,94.16188881015267,94.32485322896281,93.81663113006397,393781.0,0.0,0.0,1.0,0.0,?,0.0,0.0,44.0,24.0,24.0,6.0,0.0,0.0,1.0
9100000.0,19.703125,0.0,9100000.0,96.7,93.31198573223622,93.7381404174573,92.71523178807946,403681.0,0.0,0.0,1.0,0.0,?,0.0,0.0,44.0,24.0,24.0,6.0,0.0,0.0,1.0
9200000.0,19.859375,0.0,9200000.0,97.1,94.1715103425544,94.22310756972111,93.88185654008439,413681.0,0.0,0.0,1.0,0.0,?,0.0,0.0,44.0,24.0,24.0,6.0,0.0,0.0,1.0
9300000.0,19.984375,0.0,9300000.0,95.1,90.11259534283062,90.35433070866141,89.48497854077252,423681.0,0.0,0.0,1.0,0.0,?,0.0,0.0,44.0,24.0,24.0,6.0,0.0,0.0,1.0
9400000.0,20.140625,0.0,9400000.0,95.0,89.9454237601702,89.22413793103448,89.51781970649894,433681.0,0.0,0.0,1.0,0.0,?,0.0,0.0,44.0,24.0,24.0,6.0,0.0,0.0,1.0
9500000.0,20.296875,0.0,9500000.0,96.7,93.36704749193994,93.11064718162838,93.02325581395348,443681.0,0.0,0.0,1.0,0.0,?,0.0,0.0,44.0,24.0,24.0,6.0,0.0,0.0,1.0
9600000.0,20.4375,0.0,9600000.0,95.6,91.14142711609159,91.48936170212765,90.65817409766453,453681.0,0.0,0.0,1.0,0.0,?,0.0,0.0,44.0,24.0,24.0,6.0,0.0,0.0,1.0
9700000.0,20.609375,0.0,9700000.0,97.2,94.33163957325344,94.06779661016948,93.84615384615384,463681.0,0.0,0.0,1.0,0.0,?,0.0,0.0,44.0,24.0,24.0,6.0,0.0,0.0,1.0
9800000.0,20.75,0.0,9800000.0,96.7,93.34908056077327,93.54207436399217,92.93361884368308,473681.0,0.0,0.0,1.0,0.0,?,0.0,0.0,44.0,24.0,24.0,6.0,0.0,0.0,1.0
9900000.0,20.90625,0.0,9900000.0,95.5,90.90460752370865,90.9274193548387,90.25974025974025,483681.0,0.0,0.0,1.0,0.0,?,0.0,0.0,44.0,24.0,24.0,6.0,0.0,0.0,1.0
1.0E7,21.078125,0.0,1.0E7,96.39999999999999,92.77584241704258,92.71255060728745,92.46861924686192,493681.0,0.0,0.0,1.0,0.0,?,0.0,0.0,44.0,24.0,24.0,6.0,0.0,0.0,1.0
