learning evaluation instances,evaluation time (cpu seconds),model cost (RAM-Hours),classified instances,classifications correct (percent),Kappa Statistic (percent),Kappa Temporal Statistic (percent),Kappa M Statistic (percent),model training instances,model serialized size (bytes),labeling cost,newThreshold,maxPosterior,accuracyBaseLearner (percent),Change detected,Warning detected,tree size (nodes),tree size (leaves),active learning leaves,tree depth,active leaf byte size estimate,inactive leaf byte size estimate,byte size estimate overhead
100000.0,1.015625,1.422427077260282E-7,100000.0,94.3,88.58895410757613,88.48484848484847,88.34355828220858,59375.0,430512.0,0.0,1.0,0.0,?,2.0,22.0,148.0,109.0,109.0,4.0,0.0,0.0,1.0
200000.0,1.84375,3.1016301363706586E-7,200000.0,94.5,88.96158632039497,88.14655172413792,88.32271762208067,119375.0,687224.0,0.0,1.0,0.0,?,0.0,0.0,239.0,171.0,171.0,4.0,0.0,0.0,1.0
300000.0,2.640625,4.827189453256626E-7,300000.0,94.8,89.54277808166285,89.00634249471457,88.74458874458874,179375.0,755408.0,0.0,1.0,0.0,?,0.0,0.0,264.0,188.0,188.0,5.0,0.0,0.0,1.0
400000.0,3.484375,6.868182875526447E-7,400000.0,95.7,91.39903669210952,91.24236252545825,91.29554655870444,239375.0,868168.0,0.0,1.0,0.0,?,0.0,0.0,308.0,216.0,216.0,6.0,0.0,0.0,1.0
500000.0,4.3125,9.183102843558621E-7,500000.0,95.89999999999999,91.7736757624398,91.99218749999999,91.36842105263156,299375.0,1028160.0,0.0,1.0,0.0,?,0.0,0.0,377.0,258.0,258.0,7.0,0.0,0.0,1.0
600000.0,5.09375,1.1633936406320166E-6,600000.0,97.0,93.99663811734571,94.36090225563909,93.71069182389937,359075.0,1099080.0,0.0,1.0,0.0,?,0.0,0.0,406.0,274.0,274.0,8.0,0.0,0.0,1.0
700000.0,5.890625,1.4253189955424102E-6,700000.0,97.7,95.36813275334299,95.23809523809523,95.0,419075.0,1171880.0,0.0,1.0,0.0,?,0.0,0.0,436.0,292.0,292.0,8.0,0.0,0.0,1.0
800000.0,6.65625,1.6799501221006113E-6,800000.0,97.2,94.32888420796792,94.34343434343434,93.70786516853931,479075.0,1201944.0,0.0,1.0,0.0,?,0.0,0.0,450.0,299.0,299.0,8.0,0.0,0.0,1.0
900000.0,7.4375,1.9486221329619487E-6,900000.0,97.6,95.19846350832266,95.52238805970148,94.8051948051948,539075.0,1260568.0,0.0,1.0,0.0,?,0.0,0.0,481.0,316.0,316.0,8.0,0.0,0.0,1.0
1000000.0,8.21875,2.2185391410150463E-6,1000000.0,96.39999999999999,92.79861733452822,92.82868525896414,92.68292682926828,599075.0,1281816.0,0.0,1.0,0.0,?,0.0,0.0,489.0,320.0,320.0,8.0,0.0,0.0,1.0
1100000.0,8.984375,2.511853688499994E-6,1100000.0,97.5,94.98120964892557,95.00998003992015,94.74789915966386,658775.0,1365968.0,0.0,1.0,0.0,?,0.0,0.0,519.0,341.0,341.0,8.0,0.0,0.0,1.0
1200000.0,9.78125,2.8268376546394495E-6,1200000.0,97.5,94.981451444539,95.10763209393346,94.64668094218415,718775.0,1428000.0,0.0,1.0,0.0,?,0.0,0.0,551.0,363.0,363.0,8.0,0.0,0.0,1.0
1300000.0,10.578125,3.1575089734461573E-6,1300000.0,97.5,94.97471275458105,94.74789915966386,94.91869918699186,778775.0,1518848.0,0.0,1.0,0.0,?,0.0,0.0,582.0,380.0,380.0,8.0,0.0,0.0,1.0
1400000.0,11.375,3.489481524512586E-6,1400000.0,97.8,95.59991199823996,95.52845528455283,95.65217391304347,838775.0,1540208.0,0.0,1.0,0.0,?,0.0,0.0,600.0,389.0,389.0,8.0,0.0,0.0,1.0
1500000.0,12.171875,3.828976154586093E-6,1500000.0,98.0,96.00055992161097,95.85062240663899,95.98393574297188,898775.0,1591648.0,0.0,1.0,0.0,?,0.0,0.0,621.0,401.0,401.0,8.0,0.0,0.0,1.0
1600000.0,12.953125,4.177683699203448E-6,1600000.0,98.3,96.58894819214254,96.69260700389106,96.4059196617336,958475.0,1609256.0,0.0,1.0,0.0,?,0.0,0.0,633.0,407.0,407.0,8.0,0.0,0.0,1.0
1700000.0,13.8125,4.56957146525383E-6,1700000.0,97.8,95.59379606485932,95.64356435643563,95.45454545454545,1018475.0,1661568.0,0.0,1.0,0.0,?,0.0,0.0,654.0,419.0,419.0,8.0,3897.898305084746,0.0,1.0179397601737323
1800000.0,14.59375,4.9270311784413124E-6,1800000.0,97.89999999999999,95.7899970329503,95.85798816568047,95.56025369978857,1078475.0,1682576.0,0.0,1.0,0.0,?,0.0,0.0,664.0,424.0,424.0,8.0,3897.898305084746,0.0,1.0179397601737323
1900000.0,15.359375,5.279395263642072E-6,1900000.0,98.8,97.59837650251569,97.62845849802372,97.5359342915811,1138475.0,1708016.0,0.0,1.0,0.0,?,0.0,0.0,672.0,428.0,428.0,8.0,3897.898305084746,0.0,1.0179397601737323
2000000.0,16.15625,5.64972860350584E-6,2000000.0,98.4,96.79937267704469,96.83794466403161,96.61733615221986,1198475.0,1740416.0,0.0,1.0,0.0,?,0.0,0.0,690.0,437.0,437.0,8.0,3897.898305084746,0.0,1.0179397601737323
2100000.0,16.953125,6.0370637220330534E-6,2100000.0,98.3,96.59904773336534,96.66011787819254,96.55172413793103,1258175.0,1761824.0,0.0,1.0,0.0,?,0.0,0.0,698.0,441.0,441.0,8.0,3897.898305084746,0.0,1.0179397601737323
2200000.0,17.75,6.4248061971738936E-6,2200000.0,98.5,96.9998799951998,97.01789264413519,96.92622950819671,1318175.0,1778880.0,0.0,1.0,0.0,?,0.0,0.0,708.0,446.0,446.0,8.0,3897.898305084746,0.0,1.0179397601737323
2300000.0,18.53125,6.80272266941352E-6,2300000.0,98.4,96.75787835559589,96.76113360323886,96.39639639639638,1378175.0,1783064.0,0.0,1.0,0.0,?,0.0,0.0,708.0,446.0,446.0,8.0,3897.898305084746,0.0,1.0179397601737323
2400000.0,19.3125,7.180440265478359E-6,2400000.0,98.3,96.59858501136472,96.5376782077393,96.54471544715447,1438175.0,1797168.0,0.0,1.0,0.0,?,0.0,0.0,720.0,452.0,452.0,8.0,3897.898305084746,0.0,1.0179397601737323
2500000.0,20.078125,7.549294678028672E-6,2500000.0,98.8,97.59968315817687,97.61431411530815,97.59036144578313,1498175.0,1805704.0,0.0,1.0,0.0,?,0.0,0.0,726.0,455.0,455.0,8.0,3897.898305084746,0.0,1.0179397601737323
2600000.0,20.859375,7.94039195170626E-6,2600000.0,98.3,96.58467200797178,96.49484536082474,96.26373626373625,1557875.0,1817624.0,0.0,1.0,0.0,?,0.0,0.0,736.0,460.0,460.0,8.0,3897.898305084746,0.0,1.0179397601737323
2700000.0,21.65625,8.341375990615536E-6,2700000.0,97.5,94.99495491455386,94.80249480249479,94.87704918032787,1617875.0,1842696.0,0.0,1.0,0.0,?,0.0,0.0,744.0,464.0,464.0,8.0,3897.898305084746,0.0,1.0179397601737323
2800000.0,22.421875,8.72629765783333E-6,2800000.0,98.9,97.79180317337959,97.85575048732943,97.66454352441613,1677875.0,1856112.0,0.0,1.0,0.0,?,0.0,0.0,752.0,468.0,468.0,8.0,3897.898305084746,0.0,1.0179397601737323
2900000.0,23.21875,9.129392694578402E-6,2900000.0,99.1,98.2,98.23529411764706,98.17073170731707,1737875.0,1883064.0,0.0,1.0,0.0,?,0.0,0.0,772.0,478.0,478.0,8.0,3897.898305084746,0.0,1.0179397601737323
3000000.0,24.0,9.526034247957997E-6,3000000.0,98.5,96.97495260759085,97.03557312252964,96.69603524229075,1797875.0,1905344.0,0.0,1.0,0.0,?,0.0,0.0,776.0,480.0,480.0,8.0,3897.898305084746,0.0,1.0179397601737323
3100000.0,24.734375,9.914158047952999E-6,3100000.0,98.5,96.98727424641686,96.98795180722891,96.78800856531049,1857575.0,1924696.0,0.0,1.0,0.0,?,0.0,0.0,788.0,486.0,486.0,8.0,3897.898305084746,0.0,1.0179397601737323
3200000.0,25.5,1.0320578779404362E-5,3200000.0,98.2,96.36940131427673,96.28865979381443,96.0088691796009,1917575.0,1948776.0,0.0,1.0,0.0,?,0.0,0.0,792.0,488.0,488.0,8.0,3897.898305084746,0.0,1.0179397601737323
3300000.0,26.28125,1.0735350402279032E-5,3300000.0,98.6,97.19712986097764,97.17171717171716,97.1311475409836,1977575.0,1964144.0,0.0,1.0,0.0,?,0.0,0.0,804.0,494.0,494.0,8.0,3897.898305084746,0.0,1.0179397601737323
3400000.0,27.125,1.118423624171151E-5,3400000.0,98.4,96.79760460824697,96.8565815324165,96.7280163599182,2037575.0,1983552.0,0.0,1.0,0.0,?,0.0,0.0,811.0,499.0,499.0,8.0,3898.149494949495,0.0,1.0201991724641166
3500000.0,27.90625,1.1599790434249572E-5,3500000.0,98.6,97.1979040322161,97.04016913319239,97.13701431492842,2097575.0,1998256.0,0.0,1.0,0.0,?,0.0,0.0,819.0,503.0,503.0,9.0,3898.149494949495,0.0,1.0201991724641166
3600000.0,28.6875,1.2032304075546561E-5,3600000.0,99.4,98.7986160056385,98.86578449905483,98.75776397515527,2157275.0,2021280.0,0.0,1.0,0.0,?,0.0,0.0,828.0,509.0,509.0,9.0,3898.149494949495,0.0,1.0201991724641166
3700000.0,29.46875,1.2465622922819521E-5,3700000.0,98.3,96.5828046731151,96.49484536082474,96.3519313304721,2217275.0,2040328.0,0.0,1.0,0.0,?,0.0,0.0,842.0,516.0,516.0,9.0,3898.149494949495,0.0,1.0201991724641166
3800000.0,30.25,1.2901987971013618E-5,3800000.0,98.4,96.7876646321876,96.7280163599182,96.58119658119658,2277275.0,2070464.0,0.0,1.0,0.0,?,0.0,0.0,855.0,524.0,524.0,9.0,3898.149494949495,0.0,1.0201991724641166
3900000.0,31.0,1.3323265528823766E-5,3900000.0,98.9,97.79978877972285,97.84313725490196,97.85575048732943,2337275.0,2097760.0,0.0,1.0,0.0,?,0.0,0.0,864.0,530.0,530.0,9.0,3898.149494949495,0.0,1.0201991724641166
4000000.0,31.796875,1.377412354082076E-5,4000000.0,99.3,98.5984863652745,98.582995951417,98.57142857142857,2397275.0,2128632.0,0.0,1.0,0.0,?,0.0,0.0,878.0,540.0,540.0,9.0,3898.149494949495,0.0,1.0201991724641166
4100000.0,32.5625,1.422312725076659E-5,4100000.0,98.9,97.78327704200488,97.71784232365145,97.55011135857461,2456975.0,2147488.0,0.0,1.0,0.0,?,0.0,0.0,882.0,542.0,542.0,9.0,3898.149494949495,0.0,1.0201991724641166
4200000.0,33.328125,1.4676101822664754E-5,4200000.0,98.8,97.5965293884369,97.4630021141649,97.5051975051975,2516975.0,2182576.0,0.0,1.0,0.0,?,0.0,0.0,897.0,551.0,551.0,9.0,3898.149494949495,0.0,1.0201991724641166
4300000.0,34.09375,1.5128493283150924E-5,4300000.0,98.8,97.59862641430898,97.44136460554371,97.5359342915811,2576975.0,2194760.0,0.0,1.0,0.0,?,0.0,0.0,903.0,554.0,554.0,9.0,3898.149494949495,0.0,1.0201991724641166
4400000.0,34.890625,1.559865043317485E-5,4400000.0,99.6,99.19907733709233,99.18864097363083,99.1701244813278,2636975.0,2206488.0,0.0,1.0,0.0,?,0.0,0.0,911.0,558.0,558.0,9.0,3898.149494949495,0.0,1.0201991724641166
4500000.0,35.640625,1.6040485384615346E-5,4500000.0,99.2,98.39817391826682,98.4375,98.45857418111753,2696975.0,2218184.0,0.0,1.0,0.0,?,0.0,0.0,917.0,561.0,561.0,9.0,3898.149494949495,0.0,1.0201991724641166
4600000.0,36.421875,1.6514612652827055E-5,4600000.0,99.1,98.19455477720805,98.21428571428571,98.08917197452229,2756675.0,2226016.0,0.0,1.0,0.0,?,0.0,0.0,923.0,564.0,564.0,9.0,3898.149494949495,0.0,1.0201991724641166
4700000.0,37.203125,1.699001563894045E-5,4700000.0,98.7,97.39029188581523,97.31958762886597,97.21627408993577,2816675.0,2247416.0,0.0,1.0,0.0,?,0.0,0.0,931.0,568.0,568.0,9.0,3898.149494949495,0.0,1.0201991724641166
4800000.0,37.984375,1.746487373667252E-5,4800000.0,98.8,97.58130835093604,97.60956175298804,97.3568281938326,2876675.0,2259848.0,0.0,1.0,0.0,?,0.0,0.0,937.0,571.0,571.0,9.0,3898.149494949495,0.0,1.0201991724641166
4900000.0,38.765625,1.7939093167014006E-5,4900000.0,98.7,97.39472692730085,97.4559686888454,97.27463312368972,2936675.0,2271816.0,0.0,1.0,0.0,?,0.0,0.0,943.0,574.0,574.0,9.0,3898.149494949495,0.0,1.0201991724641166
5000000.0,39.515625,1.8395556091693126E-5,5000000.0,98.7,97.39937585020405,97.40518962075848,97.30848861283644,2996675.0,2290896.0,0.0,1.0,0.0,?,0.0,0.0,959.0,585.0,585.0,10.0,3898.149494949495,0.0,1.0201991724641166
5100000.0,40.734375,1.8575501776972993E-5,5100000.0,86.1,70.79758313234788,70.36247334754798,66.34382566585957,58919.0,456896.0,0.0,1.0,0.0,?,2.0,15.0,153.0,113.0,113.0,4.0,0.0,0.0,1.0
5200000.0,41.75,1.884081326554426E-5,5200000.0,88.9,76.25627818230045,76.12903225806453,70.08086253369272,118919.0,909728.0,0.0,1.0,0.0,?,0.0,0.0,309.0,224.0,224.0,5.0,0.0,0.0,1.0
5300000.0,42.65625,1.911154763850694E-5,5300000.0,92.5,84.2301804908409,82.95454545454545,80.6201550387597,178919.0,1069344.0,0.0,1.0,0.0,?,0.0,0.0,359.0,255.0,255.0,5.0,0.0,0.0,1.0
5400000.0,43.5625,1.9422138090400647E-5,5400000.0,93.60000000000001,86.41788764197554,86.80412371134022,83.24607329842934,238919.0,1253816.0,0.0,1.0,0.0,?,0.0,0.0,438.0,305.0,305.0,6.0,0.0,0.0,1.0
5500000.0,44.484375,1.9775091431155388E-5,5500000.0,94.3,87.89736969501371,88.10020876826721,85.0785340314136,298919.0,1423432.0,0.0,1.0,0.0,?,0.0,0.0,504.0,344.0,344.0,7.0,0.0,0.0,1.0
5600000.0,45.375,2.0164834018537984E-5,5600000.0,92.9,84.72789847278986,85.30020703933748,80.81081081081082,358619.0,1573584.0,0.0,1.0,0.0,?,0.0,0.0,566.0,381.0,381.0,7.0,0.0,0.0,1.0
5700000.0,46.296875,2.0592818133688223E-5,5700000.0,93.10000000000001,85.0710100651683,85.19313304721031,80.9917355371901,418619.0,1691192.0,0.0,1.0,0.0,?,0.0,0.0,615.0,407.0,407.0,7.0,0.0,0.0,1.0
5800000.0,47.25,2.1079285199650462E-5,5800000.0,94.0,87.48148302697739,87.04103671706262,84.65473145780051,478619.0,1884088.0,0.0,1.0,0.0,?,0.0,0.0,695.0,462.0,462.0,7.0,0.0,0.0,1.0
5900000.0,48.203125,2.159896678575832E-5,5900000.0,95.0,89.17584915463381,89.51781970649894,86.07242339832868,538619.0,2033352.0,0.0,1.0,0.0,?,0.0,0.0,748.0,493.0,493.0,7.0,0.0,0.0,1.0
6000000.0,49.125,2.2126422101993943E-5,6000000.0,94.5,88.50958927004552,88.29787234042553,85.89743589743588,598619.0,2152072.0,0.0,1.0,0.0,?,0.0,0.0,795.0,521.0,521.0,7.0,0.0,0.0,1.0
6100000.0,50.0625,2.2706403235335732E-5,6100000.0,93.30000000000001,85.63908227305464,85.52915766738663,82.22811671087534,658319.0,2270352.0,0.0,1.0,0.0,?,0.0,0.0,843.0,551.0,551.0,7.0,0.0,0.0,1.0
6200000.0,51.0,2.3317478901137497E-5,6200000.0,93.89999999999999,87.14945395712552,87.02127659574467,84.27835051546391,718319.0,2413152.0,0.0,1.0,0.0,?,0.0,0.0,899.0,585.0,585.0,7.0,0.0,0.0,1.0
6300000.0,51.96875,2.3967333028041243E-5,6300000.0,95.6,90.79417019905513,90.53763440860214,88.9168765743073,778319.0,2501384.0,0.0,1.0,0.0,?,0.0,0.0,932.0,603.0,603.0,7.0,0.0,0.0,1.0
6400000.0,52.9375,2.463247274540158E-5,6400000.0,94.8,89.36100563048316,89.27835051546391,87.85046728971962,838319.0,2577232.0,0.0,1.0,0.0,?,0.0,0.0,964.0,622.0,622.0,7.0,0.0,0.0,1.0
6500000.0,53.90625,2.531796651763014E-5,6500000.0,96.1,91.55178538935438,91.8410041841004,89.22651933701657,898319.0,2673232.0,0.0,1.0,0.0,?,0.0,0.0,1005.0,647.0,647.0,7.0,0.0,0.0,1.0
6600000.0,54.875,2.6040066311705033E-5,6600000.0,95.5,90.62898268235999,90.72164948453607,88.7218045112782,958019.0,2758120.0,0.0,1.0,0.0,?,0.0,0.0,1044.0,671.0,671.0,7.0,0.0,0.0,1.0
6700000.0,55.984375,2.6893122057016527E-5,6700000.0,97.1,93.7476284107765,93.59823399558498,92.09809264305177,1018019.0,2863952.0,0.0,1.0,0.0,?,0.0,0.0,1088.0,699.0,699.0,7.0,4017.8871201157745,0.0,1.0171678024463686
6800000.0,56.984375,2.7685325735041665E-5,6800000.0,96.3,91.93583540386207,92.17758985200845,89.57746478873239,1078019.0,2968656.0,0.0,1.0,0.0,?,0.0,0.0,1129.0,727.0,727.0,8.0,4017.8871201157745,0.0,1.0171678024463686
6900000.0,58.015625,2.852050399976886E-5,6900000.0,96.0,91.56954075073239,91.64926931106471,89.71722365038559,1138019.0,3051880.0,0.0,1.0,0.0,?,0.0,0.0,1166.0,753.0,753.0,8.0,4017.8871201157745,0.0,1.0171678024463686
7000000.0,59.0625,2.9395596874463892E-5,7000000.0,95.89999999999999,91.45626859824458,90.80717488789237,89.56743002544528,1198019.0,3167280.0,0.0,1.0,0.0,?,0.0,0.0,1197.0,773.0,773.0,8.0,4017.8871201157745,0.0,1.0171678024463686
7100000.0,60.109375,3.0324638549548886E-5,7100000.0,96.7,92.97872340425532,92.93361884368308,91.3157894736842,1257719.0,3305088.0,0.0,1.0,0.0,?,0.0,0.0,1251.0,812.0,812.0,8.0,4017.8871201157745,0.0,1.0171678024463686
7200000.0,61.140625,3.1254081598793466E-5,7200000.0,96.2,91.69289961525008,91.93205944798301,89.44444444444444,1317719.0,3373448.0,0.0,1.0,0.0,?,0.0,0.0,1274.0,825.0,825.0,8.0,4017.8871201157745,0.0,1.0171678024463686
7300000.0,62.1875,3.22095256867922E-5,7300000.0,94.69999999999999,88.81431767337806,88.84210526315789,86.08923884514435,1377719.0,3432416.0,0.0,1.0,0.0,?,0.0,0.0,1300.0,841.0,841.0,8.0,4017.8871201157745,0.0,1.0171678024463686
7400000.0,63.203125,3.3150412265159605E-5,7400000.0,97.3,94.27301188668199,94.29175475687103,92.85714285714285,1437719.0,3500464.0,0.0,1.0,0.0,?,0.0,0.0,1331.0,861.0,861.0,8.0,4017.8871201157745,0.0,1.0171678024463686
7500000.0,64.21875,3.4107221064106044E-5,7500000.0,96.8,93.15302978432042,92.99781181619255,91.2087912087912,1497719.0,3575960.0,0.0,1.0,0.0,?,0.0,0.0,1360.0,880.0,880.0,9.0,4017.8871201157745,0.0,1.0171678024463686
7600000.0,65.234375,3.510069616216545E-5,7600000.0,95.89999999999999,91.29445138057261,90.929203539823,89.15343915343914,1557419.0,3654400.0,0.0,1.0,0.0,?,0.0,0.0,1391.0,900.0,900.0,9.0,4017.8871201157745,0.0,1.0171678024463686
7700000.0,66.265625,3.6120969937959065E-5,7700000.0,96.89999999999999,93.43759790680541,93.41825902335455,91.9060052219321,1617419.0,3712496.0,0.0,1.0,0.0,?,0.0,0.0,1423.0,919.0,919.0,9.0,4017.8871201157745,0.0,1.0171678024463686
7800000.0,67.28125,3.714738038575484E-5,7800000.0,97.0,93.62027900646478,93.64406779661016,92.02127659574467,1677419.0,3809480.0,0.0,1.0,0.0,?,0.0,0.0,1465.0,946.0,946.0,9.0,4017.8871201157745,0.0,1.0171678024463686
7900000.0,68.3125,3.8208024084774984E-5,7900000.0,95.5,90.66529481073366,90.94567404426559,89.20863309352517,1737419.0,3893456.0,0.0,1.0,0.0,?,0.0,0.0,1491.0,962.0,962.0,9.0,4017.8871201157745,0.0,1.0171678024463686
8000000.0,69.359375,3.9298851495712165E-5,8000000.0,96.6,92.92265292273618,92.73504273504273,91.47869674185462,1797419.0,3960472.0,0.0,1.0,0.0,?,0.0,0.0,1519.0,979.0,979.0,9.0,4017.8871201157745,0.0,1.0171678024463686
8100000.0,70.40625,4.04171169632011E-5,8100000.0,97.7,95.0582269777835,95.11677282377919,93.73297002724796,1857119.0,4000672.0,0.0,1.0,0.0,?,0.0,0.0,1541.0,993.0,993.0,9.0,4017.8871201157745,0.0,1.0171678024463686
8200000.0,71.4375,4.152724183061057E-5,8200000.0,96.89999999999999,93.53978243654399,93.47368421052632,92.13197969543147,1917119.0,4047720.0,0.0,1.0,0.0,?,0.0,0.0,1554.0,1001.0,1001.0,9.0,4017.8871201157745,0.0,1.0171678024463686
8300000.0,72.453125,4.262056764370452E-5,8300000.0,96.2,91.95978198314093,91.86295503211991,90.10416666666666,1977119.0,4062920.0,0.0,1.0,0.0,?,0.0,0.0,1558.0,1003.0,1003.0,9.0,4017.8871201157745,0.0,1.0171678024463686
8400000.0,73.609375,4.3873185835157834E-5,8400000.0,96.7,93.0872100817804,93.0817610062893,91.49484536082474,2037119.0,4104344.0,0.0,1.0,0.0,?,0.0,0.0,1583.0,1017.0,1017.0,9.0,3969.990089197225,0.0,1.0172673077499177
8500000.0,74.625,4.498135977579902E-5,8500000.0,96.89999999999999,93.4996854686517,93.36188436830835,92.05128205128204,2097119.0,4149424.0,0.0,1.0,0.0,?,0.0,0.0,1598.0,1026.0,1026.0,9.0,3969.990089197225,0.0,1.0172673077499177
8600000.0,75.65625,4.613639418190966E-5,8600000.0,96.8,93.1360225824857,93.02832244008714,91.37466307277627,2156819.0,4200056.0,0.0,1.0,0.0,?,0.0,0.0,1624.0,1039.0,1039.0,9.0,3969.990089197225,0.0,1.0172673077499177
8700000.0,76.71875,4.7339062633303304E-5,8700000.0,97.39999999999999,94.52567039482548,94.56066945606693,93.36734693877551,2216819.0,4260936.0,0.0,1.0,0.0,?,0.0,0.0,1652.0,1056.0,1056.0,9.0,3969.990089197225,0.0,1.0172673077499177
8800000.0,77.765625,4.853478904503087E-5,8800000.0,96.8,93.39585259542993,93.56136820925552,92.15686274509804,2276819.0,4315576.0,0.0,1.0,0.0,?,0.0,0.0,1669.0,1066.0,1066.0,9.0,3969.990089197225,0.0,1.0172673077499177
8900000.0,78.8125,4.9731271606611295E-5,8900000.0,96.3,92.07735923394486,91.75946547884186,90.1595744680851,2336819.0,4333440.0,0.0,1.0,0.0,?,0.0,0.0,1681.0,1072.0,1072.0,9.0,3969.990089197225,0.0,1.0172673077499177
9000000.0,79.84375,5.0915929831616166E-5,9000000.0,96.3,92.20580056960851,92.19409282700421,90.53708439897697,2396819.0,4371096.0,0.0,1.0,0.0,?,0.0,0.0,1696.0,1081.0,1081.0,9.0,3969.990089197225,0.0,1.0172673077499177
9100000.0,80.859375,5.2108984447032624E-5,9100000.0,96.5,92.61279211130622,92.66247379454926,90.8616187989556,2456519.0,4410232.0,0.0,1.0,0.0,?,0.0,0.0,1713.0,1091.0,1091.0,9.0,3969.990089197225,0.0,1.0172673077499177
9200000.0,81.921875,5.336426732052738E-5,9200000.0,96.6,92.84752608549309,93.0327868852459,91.23711340206185,2516519.0,4451264.0,0.0,1.0,0.0,?,0.0,0.0,1742.0,1107.0,1107.0,9.0,3969.990089197225,0.0,1.0172673077499177
9300000.0,82.984375,5.4636840585670944E-5,9300000.0,97.2,94.26396417435909,94.15448851774529,93.38061465721039,2576519.0,4529000.0,0.0,1.0,0.0,?,0.0,0.0,1776.0,1127.0,1127.0,9.0,3969.990089197225,0.0,1.0172673077499177
9400000.0,84.0625,5.5941306183942484E-5,9400000.0,96.7,93.02814937506866,92.97872340425532,91.36125654450261,2636519.0,4591200.0,0.0,1.0,0.0,?,0.0,0.0,1804.0,1144.0,1144.0,9.0,3969.990089197225,0.0,1.0172673077499177
9500000.0,85.09375,5.720137282171183E-5,9500000.0,97.39999999999999,94.30823117338004,94.27312775330397,92.69662921348313,2696519.0,4652272.0,0.0,1.0,0.0,?,0.0,0.0,1825.0,1156.0,1156.0,9.0,3969.990089197225,0.0,1.0172673077499177
9600000.0,86.15625,5.852349736313852E-5,9600000.0,97.0,93.58631747728487,93.57601713062098,91.91374663072776,2756219.0,4678224.0,0.0,1.0,0.0,?,0.0,0.0,1838.0,1164.0,1164.0,9.0,3969.990089197225,0.0,1.0172673077499177
9700000.0,87.25,5.990557327297412E-5,9700000.0,97.2,94.0454924377754,93.85964912280701,92.59259259259258,2816219.0,4767456.0,0.0,1.0,0.0,?,0.0,0.0,1872.0,1184.0,1184.0,9.0,3969.990089197225,0.0,1.0172673077499177
9800000.0,88.359375,6.13203286128636E-5,9800000.0,97.3,94.24920127795527,94.39834024896265,92.85714285714285,2876219.0,4827432.0,0.0,1.0,0.0,?,0.0,0.0,1897.0,1198.0,1198.0,9.0,3969.990089197225,0.0,1.0172673077499177
9900000.0,89.421875,6.268770327248299E-5,9900000.0,97.0,93.50550949278028,93.76299376299376,91.78082191780821,2936219.0,4887480.0,0.0,1.0,0.0,?,0.0,0.0,1927.0,1216.0,1216.0,9.0,3969.990089197225,0.0,1.0172673077499177
1.0E7,90.5,6.408823945093899E-5,1.0E7,97.3,94.20526248014765,94.20600858369099,92.7027027027027,2996219.0,4949184.0,0.0,1.0,0.0,?,0.0,0.0,1948.0,1228.0,1228.0,9.0,3969.990089197225,0.0,1.0172673077499177
