learning evaluation instances,evaluation time (cpu seconds),model cost (RAM-Hours),classified instances,classifications correct (percent),Kappa Statistic (percent),Kappa Temporal Statistic (percent),Kappa M Statistic (percent),model training instances,model serialized size (bytes),labeling cost,newThreshold,maxPosterior,accuracyBaseLearner (percent),Change detected,Warning detected
100000.0,0.109375,1.0229349653753969E-9,100000.0,54.50000000000001,10.920552879909158,2.7777777777777803,-0.8869179600886926,5794.0,5144.0,0.0,1.0,0.0,?,1.0,1.0
200000.0,0.21875,1.7131161358621383E-9,200000.0,62.9,27.46369274324102,24.43991853360489,15.489749430523908,15754.0,5144.0,0.0,1.0,0.0,?,0.0,24.0
300000.0,0.328125,2.846289943489763E-9,300000.0,51.800000000000004,5.254260609753696,-1.0482180293501058,-5.93406593406594,25694.0,5144.0,0.0,1.0,0.0,?,0.0,0.0
400000.0,0.421875,3.4563062298629014E-9,400000.0,62.9,28.28478864309408,22.54697286012526,13.519813519813532,35654.0,5144.0,0.0,1.0,0.0,?,0.0,0.0
500000.0,0.53125,4.610984534439113E-9,500000.0,62.9,26.691432184634838,20.8955223880597,20.726495726495724,45594.0,5144.0,0.0,1.0,0.0,?,0.0,0.0
600000.0,0.640625,5.344174698823028E-9,600000.0,64.2,29.63836477987422,27.67676767676768,20.44444444444444,55554.0,5144.0,0.0,1.0,0.0,?,0.0,0.0
700000.0,0.75,6.520357500347826E-9,700000.0,62.4,26.768463695855406,22.633744855967073,14.545454545454534,65494.0,5144.0,0.0,1.0,0.0,?,0.0,0.0
800000.0,0.890625,7.490679207775327E-9,800000.0,52.1,6.247553433022783,-1.4830508474576285,-8.863636363636372,75454.0,5144.0,0.0,1.0,0.0,?,0.0,0.0
900000.0,1.015625,8.859464691744909E-9,900000.0,53.1,4.08605668943515,5.060728744939276,-6.108597285067879,85394.0,5144.0,0.0,1.0,0.0,?,0.0,0.0
1000000.0,1.125,9.635663850025997E-9,1000000.0,64.0,29.419791474695035,27.710843373493976,20.529801324503307,95354.0,5144.0,0.0,1.0,0.0,?,0.0,0.0
1100000.0,1.234375,1.0854855645447969E-8,1100000.0,53.900000000000006,6.219231363869391,7.429718875502014,-2.2172949002217317,105294.0,5144.0,0.0,1.0,0.0,?,0.0,0.0
1200000.0,1.34375,1.1652559300677643E-8,1200000.0,61.6,24.008549038233195,20.661157024793383,16.883116883116873,115254.0,5144.0,0.0,1.0,0.0,?,0.0,0.0
1300000.0,1.4375,1.2695640584246978E-8,1300000.0,54.900000000000006,8.450189595394498,12.25680933852141,2.380952380952383,125194.0,5144.0,0.0,1.0,0.0,?,0.0,18.0
1400000.0,1.53125,1.337744631908006E-8,1400000.0,55.900000000000006,9.919111038483546,11.267605633802827,-0.22727272727272751,135154.0,5144.0,0.0,1.0,0.0,?,0.0,0.0
1500000.0,1.640625,1.4615878980192872E-8,1500000.0,54.0,6.789002723382177,6.313645621181268,-3.603603603603607,145094.0,5144.0,0.0,1.0,0.0,?,0.0,0.0
1600000.0,1.75,1.5432823501113387E-8,1600000.0,54.800000000000004,9.43517201306379,-1.8018018018018036,-10.513447432762819,155054.0,5144.0,0.0,1.0,0.0,?,0.0,0.0
1700000.0,1.84375,1.6512769636594586E-8,1700000.0,65.8,32.892753987190765,25.813449023861175,22.972972972972972,164994.0,5144.0,0.0,1.0,0.0,?,0.0,0.0
1800000.0,1.953125,1.7351218654463687E-8,1800000.0,53.5,4.280809228565084,4.713114754098365,-7.390300230946862,174954.0,5144.0,0.0,1.0,0.0,?,0.0,0.0
1900000.0,2.0625,1.863266030947367E-8,1900000.0,55.50000000000001,8.681233890959259,6.903765690376576,-3.24825986078884,184894.0,5144.0,0.0,1.0,0.0,?,0.0,0.0
2000000.0,2.15625,1.9369763322174548E-8,2000000.0,52.2,3.0563611657574032,4.590818363273457,-7.415730337078659,194854.0,5144.0,0.0,1.0,0.0,?,0.0,0.0
2100000.0,2.265625,2.067270947413312E-8,2100000.0,63.9,29.092223322176668,30.84291187739464,16.435185185185198,204794.0,5144.0,0.0,1.0,0.0,?,0.0,0.0
2200000.0,2.375,2.1554167485899394E-8,2200000.0,63.3,28.272681077277873,26.305220883534137,17.52808988764044,214754.0,5144.0,0.0,1.0,0.0,?,0.0,0.0
2300000.0,2.484375,2.287861813480655E-8,2300000.0,54.50000000000001,7.51054989551741,8.080808080808088,2.5695931477516085,224694.0,5144.0,0.0,1.0,0.0,?,0.0,0.0
2400000.0,2.578125,2.365258599941929E-8,2400000.0,54.0,5.870797438048681,7.070707070707077,-5.747126436781588,234654.0,5144.0,0.0,1.0,0.0,?,0.0,0.0
2500000.0,2.6875,2.4998541145275035E-8,2500000.0,61.3,23.873445011841902,19.20668058455114,13.808463251670366,244594.0,5144.0,0.0,1.0,0.0,?,0.0,0.0
2600000.0,2.796875,2.592300815093848E-8,2600000.0,62.9,27.601845274800755,23.662551440329217,15.489749430523908,254554.0,5144.0,0.0,1.0,0.0,?,0.0,0.0
2700000.0,2.90625,2.7290467793742814E-8,2700000.0,54.300000000000004,6.43605303458386,5.1867219917012495,-3.6281179138322033,264494.0,5144.0,0.0,1.0,0.0,?,0.0,0.0
2800000.0,3.015625,2.8236439296354848E-8,2800000.0,52.2,1.061416436223945,0.8298755186721999,-12.206572769953034,274454.0,5144.0,0.0,1.0,0.0,?,0.0,0.0
2900000.0,3.109375,2.9426979987571634E-8,2900000.0,65.10000000000001,31.09085739558981,32.49516441005804,25.427350427350426,284394.0,5144.0,0.0,1.0,0.0,?,0.0,0.0
3000000.0,3.21875,3.039445598713225E-8,3000000.0,53.1,4.5001018122581975,-1.077586206896553,-4.222222222222227,294354.0,5144.0,0.0,1.0,0.0,?,0.0,0.0
3100000.0,3.328125,3.180492462383376E-8,3100000.0,53.400000000000006,5.278007016745068,8.984375000000009,-1.0845986984815628,304294.0,5144.0,0.0,1.0,0.0,?,0.0,0.0
3200000.0,3.4375,3.279390512034297E-8,3200000.0,64.5,30.551751660889092,28.714859437751006,19.86455981941309,314254.0,5144.0,0.0,1.0,0.0,?,0.0,0.0
3300000.0,3.53125,3.402131066347162E-8,3300000.0,64.3,30.850404437970695,28.45691382765531,16.588785046728987,324194.0,5144.0,0.0,1.0,0.0,?,0.0,0.0
3400000.0,3.640625,3.5031795656929415E-8,3400000.0,53.0,3.4118232148655383,3.4907597535934323,-11.111111111111093,334154.0,5144.0,0.0,1.0,0.0,?,0.0,0.0
3500000.0,3.75,3.648527328752809E-8,3500000.0,52.900000000000006,4.237150292778134,7.827788649706465,-4.899777282850784,344094.0,5144.0,0.0,1.0,0.0,?,0.0,0.0
3600000.0,3.859375,3.751726277793447E-8,3600000.0,55.900000000000006,11.730796944804748,12.845849802371553,2.2172949002217317,354054.0,5144.0,0.0,1.0,0.0,?,0.0,0.0
3700000.0,3.953125,3.878153317297498E-8,3700000.0,66.7,34.42455081801928,33.13253012048193,27.292576419213976,363994.0,5144.0,0.0,1.0,0.0,?,0.0,0.0
3800000.0,4.0625,3.983502716032995E-8,3800000.0,63.2,27.54308036417478,22.19873150105708,16.74208144796379,373954.0,5144.0,0.0,1.0,0.0,?,0.0,0.0
3900000.0,4.171875,4.13315137848258E-8,3900000.0,55.00000000000001,7.381489470304449,11.242603550295868,-2.739726027397263,383894.0,5144.0,0.0,1.0,0.0,?,0.0,0.0
4000000.0,4.28125,4.2406512269129354E-8,4000000.0,55.2,9.022971699645845,9.677419354838717,1.7543859649122824,393854.0,5144.0,0.0,1.0,0.0,?,0.0,0.0
4100000.0,4.390625,4.306002261324061E-8,4100000.0,59.5,20.530892879567993,20.275590551181097,11.378555798687076,403814.0,5144.0,0.0,1.0,0.0,?,0.0,0.0
4200000.0,4.484375,4.399988231145673E-8,4200000.0,63.9,28.964974419519873,28.08764940239044,21.350762527233112,413754.0,5144.0,0.0,1.0,0.0,?,0.0,0.0
4300000.0,4.59375,4.467489715251657E-8,4300000.0,55.400000000000006,10.347794274319675,9.533468559837736,8.41889117043122,423714.0,5144.0,0.0,1.0,0.0,?,0.0,0.0
4400000.0,4.703125,4.57929046307173E-8,4400000.0,61.7,25.27470812261971,25.1953125,15.07760532150775,433654.0,5144.0,0.0,1.0,0.0,?,0.0,0.0
4500000.0,4.8125,4.648942396872573E-8,4500000.0,62.0,25.637172020790285,19.83122362869198,12.844036697247715,443614.0,5144.0,0.0,1.0,0.0,?,0.0,0.0
4600000.0,4.921875,4.762893594387504E-8,4600000.0,63.3,27.690998218873634,25.557809330628807,20.04357298474945,453554.0,5144.0,0.0,1.0,0.0,?,0.0,0.0
4700000.0,5.046875,4.844953461239735E-8,4700000.0,52.900000000000006,3.4836065573770525,-0.4264392324093821,-12.142857142857126,463514.0,5144.0,0.0,1.0,0.0,?,0.0,0.0
4800000.0,5.15625,4.961055108449525E-8,4800000.0,64.9,31.242262305872025,29.940119760479046,20.76749435665914,473454.0,5144.0,0.0,1.0,0.0,?,0.0,0.0
4900000.0,5.265625,5.0350079416400854E-8,4900000.0,64.4,30.256249510226475,27.789046653144016,19.45701357466063,483414.0,5144.0,0.0,1.0,0.0,?,0.0,0.0
5000000.0,5.375,5.15980193287962E-8,5000000.0,64.3,30.367006834566045,26.69404517453799,18.67881548974942,493354.0,5144.0,0.0,1.0,0.0,?,0.0,0.0
5100000.0,5.484375,5.242447110099925E-8,5100000.0,48.0,1.8256650367209688,-10.638297872340436,-40.161725067385454,503314.0,5144.0,0.0,1.0,0.0,?,0.0,0.0
5200000.0,5.59375,5.369391551034318E-8,5200000.0,45.300000000000004,-4.7146477988866256,-12.09016393442623,-43.56955380577428,513254.0,5144.0,0.0,1.0,0.0,?,0.0,0.0
5300000.0,5.703125,5.4541871779494816E-8,5300000.0,45.800000000000004,-3.4094594852422104,-20.44444444444445,-45.3083109919571,523214.0,5144.0,0.0,1.0,0.0,?,0.0,0.0
5400000.0,5.8125,5.583282068578733E-8,5400000.0,47.199999999999996,1.0683864778471852,-17.073170731707336,-45.45454545454547,533154.0,5144.0,0.0,1.0,0.0,?,0.0,0.0
5500000.0,5.90625,5.657807277101609E-8,5500000.0,48.5,2.061463563061,-7.51565762004176,-41.48351648351649,543114.0,5144.0,0.0,1.0,0.0,?,0.0,0.0
5600000.0,6.03125,5.8078019517577353E-8,5600000.0,45.6,-4.8238227552479245,-9.236947791164656,-39.13043478260869,553054.0,5144.0,0.0,1.0,0.0,?,0.0,0.0
5700000.0,6.15625,5.909626553249028E-8,5700000.0,46.7,-0.8560464429794301,-19.239373601789715,-42.513368983957214,563014.0,5144.0,0.0,1.0,0.0,?,0.0,0.0
5800000.0,6.28125,6.062078884699278E-8,5800000.0,46.0,-2.043901554090825,-13.20754716981132,-45.16129032258064,572954.0,5144.0,0.0,1.0,0.0,?,0.0,0.0
5900000.0,6.40625,6.168767059635784E-8,5900000.0,47.9,0.65214904084512,-9.684210526315798,-33.58974358974359,582914.0,5144.0,0.0,1.0,0.0,?,0.0,5.0
6000000.0,6.515625,6.306418476419316E-8,6000000.0,48.699999999999996,2.173166843377898,-8.227848101265831,-32.90155440414508,592854.0,5144.0,0.0,1.0,0.0,?,0.0,0.0
6100000.0,6.625,6.401921079183617E-8,6100000.0,49.7,2.929483963101619,-3.7113402061855707,-26.065162907268164,602814.0,5144.0,0.0,1.0,0.0,?,0.0,0.0
6200000.0,6.703125,6.50177955523961E-8,6200000.0,49.9,2.9257895756636314,-10.10989010989012,-30.129870129870127,612754.0,5144.0,0.0,1.0,0.0,?,0.0,0.0
6300000.0,6.8125,6.59943260769877E-8,6300000.0,46.300000000000004,-0.29509543909453706,-18.02197802197803,-55.202312138728324,622714.0,5144.0,0.0,1.0,0.0,?,0.0,0.0
6400000.0,6.921875,6.741384923872019E-8,6400000.0,47.199999999999996,-1.0971336664943443,-13.548387096774206,-43.08943089430895,632654.0,5144.0,0.0,1.0,0.0,?,0.0,0.0
6500000.0,7.03125,6.841188426026038E-8,6500000.0,50.6,-3.263891501841613,-2.277432712215323,-25.699745547073782,642614.0,5144.0,0.0,1.0,0.0,?,0.0,0.0
6600000.0,7.140625,6.985291191894146E-8,6600000.0,51.0,-3.764315240224981,-6.290672451193065,-30.31914893617021,652554.0,5144.0,0.0,1.0,0.0,?,0.0,0.0
6700000.0,7.25,7.087245143743023E-8,6700000.0,49.3,-7.763201523563371,-12.416851441241697,-34.12698412698413,662514.0,5144.0,0.0,1.0,0.0,?,0.0,0.0
6800000.0,7.359375,7.23349835930599E-8,6800000.0,55.2,4.906243499450256,0.8849557522123902,-25.490196078431364,672454.0,5144.0,0.0,1.0,0.0,?,0.0,0.0
6900000.0,7.46875,7.337602760849726E-8,6900000.0,48.8,-7.900327072866431,-10.107526881720439,-34.031413612565444,682414.0,5144.0,0.0,1.0,0.0,?,0.0,0.0
7000000.0,7.59375,7.507206949715811E-8,7000000.0,50.7,-2.3203686023826258,-2.28215767634855,-23.55889724310776,692354.0,5144.0,0.0,1.0,0.0,?,0.0,0.0
7100000.0,7.71875,7.628641065417063E-8,7100000.0,52.0,-1.8468223791417566,-10.344827586206879,-32.59668508287293,702314.0,5144.0,0.0,1.0,0.0,?,0.0,0.0
7200000.0,7.84375,7.800702911077272E-8,7200000.0,49.7,-6.683521107642185,-6.342494714587745,-41.29213483146068,712254.0,5144.0,0.0,1.0,0.0,?,0.0,0.0
7300000.0,7.953125,7.909108212010726E-8,7300000.0,51.6,-1.238710001296856,-3.8626609442060125,-25.064599483204127,722214.0,5144.0,0.0,1.0,0.0,?,0.0,0.0
7400000.0,8.046875,8.03943516479598E-8,7400000.0,50.8,-3.247251986250485,-6.956521739130442,-29.815303430079155,732154.0,5144.0,0.0,1.0,0.0,?,0.0,8.0
7500000.0,8.171875,8.165034362011484E-8,7500000.0,50.3,-2.7657849899922136,-1.6359918200409014,-20.924574209245733,742114.0,5144.0,0.0,1.0,0.0,?,0.0,0.0
7600000.0,8.296875,8.341261289185946E-8,7600000.0,48.8,-9.917004074657706,-14.541387024608515,-41.82825484764543,752054.0,5144.0,0.0,1.0,0.0,?,0.0,0.0
7700000.0,8.421875,8.469318143195574E-8,7700000.0,51.4,-2.8702057404114845,-3.84615384615385,-31.351351351351347,762014.0,5144.0,0.0,1.0,0.0,?,0.0,0.0
7800000.0,8.546875,8.64800272716416E-8,7800000.0,50.7,-4.0523427606585045,-8.590308370044061,-33.60433604336043,771954.0,5144.0,0.0,1.0,0.0,?,0.0,0.0
7900000.0,8.671875,8.778517237967912E-8,7900000.0,49.8,-5.363019678957624,-10.572687224669613,-34.946236559139784,781914.0,5144.0,0.0,1.0,0.0,?,0.0,0.0
8000000.0,8.78125,8.937016698635284E-8,8000000.0,50.6,-4.15436773660329,-2.9166666666666696,-32.0855614973262,791854.0,5144.0,0.0,1.0,0.0,?,0.0,0.0
8100000.0,8.90625,9.06998886623316E-8,8100000.0,49.4,-6.345416638644158,-6.7510548523206815,-42.134831460674164,801814.0,5144.0,0.0,1.0,0.0,?,0.0,0.0
8200000.0,9.03125,9.154790960666204E-8,8200000.0,50.2,-3.6636136552872496,-10.91314031180402,-24.499999999999993,811774.0,5144.0,0.0,1.0,0.0,?,0.0,0.0
8300000.0,9.140625,9.273292057009205E-8,8300000.0,49.2,-6.015768802147032,-5.613305613305618,-32.637075718015666,821714.0,5144.0,0.0,1.0,0.0,?,0.0,0.0
8400000.0,9.265625,9.360551808236372E-8,8400000.0,52.400000000000006,-2.23587276359029,-3.478260869565221,-37.97101449275363,831674.0,5144.0,0.0,1.0,0.0,?,0.0,0.0
8500000.0,9.390625,9.498439289422497E-8,8500000.0,49.8,-4.827931840962252,-13.063063063063076,-36.41304347826087,841614.0,5144.0,0.0,1.0,0.0,?,0.0,0.0
8600000.0,9.515625,9.588156697443788E-8,8600000.0,53.1,0.9127017662469347,5.633802816901413,-22.135416666666657,851574.0,5144.0,0.0,1.0,0.0,?,0.0,0.0
8700000.0,9.625,9.710958693176506E-8,8700000.0,51.4,-3.1299734748010697,-4.068522483940047,-26.233766233766225,861514.0,5144.0,0.0,1.0,0.0,?,0.0,0.0
8800000.0,9.75,9.803133757991922E-8,8800000.0,51.300000000000004,-3.8290977315367507,-0.4123711340206189,-28.1578947368421,871474.0,5144.0,0.0,1.0,0.0,?,0.0,0.0
8900000.0,9.859375,9.928086203419499E-8,8900000.0,49.1,-6.34830427733297,-6.932773109243703,-29.8469387755102,881414.0,5144.0,0.0,1.0,0.0,?,0.0,0.0
9000000.0,9.984375,1.0022718925029039E-7,9000000.0,52.5,-1.0655500519157801,0.4192872117400423,-26.329787234042545,891374.0,5144.0,0.0,1.0,0.0,?,0.0,0.0
9100000.0,10.109375,1.0167979376597536E-7,9100000.0,49.9,-5.718506013926992,-3.5123966942148797,-41.12676056338029,901314.0,5144.0,0.0,1.0,0.0,?,0.0,0.0
9200000.0,10.234375,1.02650697550012E-7,9200000.0,51.4,-1.6328169438217128,-3.4042553191489398,-26.562499999999993,911274.0,5144.0,0.0,1.0,0.0,?,0.0,0.0
9300000.0,10.359375,1.0412787863363821E-7,9300000.0,50.3,-3.132574122646834,-0.6072874493927131,-20.338983050847446,921214.0,5144.0,0.0,1.0,0.0,?,0.0,0.0
9400000.0,10.46875,1.0499892394161886E-7,9400000.0,50.7,-2.66299051252364,1.7928286852589657,-22.332506203473937,931174.0,5144.0,0.0,1.0,0.0,?,0.0,0.0
9500000.0,10.59375,1.0650068159318632E-7,9500000.0,49.7,-5.013069220940824,-2.443991853360491,-26.700251889168758,941114.0,5144.0,0.0,1.0,0.0,?,0.0,0.0
9600000.0,10.71875,1.0752073851310544E-7,9600000.0,49.5,-6.564364876385342,-4.12371134020619,-28.498727735368952,951074.0,5144.0,0.0,1.0,0.0,?,0.0,0.0
9700000.0,10.828125,1.0885628095517555E-7,9700000.0,51.6,-3.028264654919165,-2.1097046413502127,-29.75871313672922,961014.0,5144.0,0.0,1.0,0.0,?,0.0,0.0
9800000.0,10.9375,1.0977033525705337E-7,9800000.0,48.6,-7.448209544912944,-7.983193277310932,-30.126582278481013,970974.0,5144.0,0.0,1.0,0.0,?,0.0,0.0
9900000.0,11.0625,1.1132124604450331E-7,9900000.0,47.099999999999994,-11.545014422833628,-16.519823788546272,-50.28409090909093,980914.0,5144.0,0.0,1.0,0.0,?,0.0,0.0
1.0E7,11.203125,1.1252410735728011E-7,1.0E7,50.7,-2.6091444936561308,-1.8595041322314068,-26.73521850899742,990874.0,5144.0,0.0,1.0,0.0,?,0.0,0.0
