learning evaluation instances,evaluation time (cpu seconds),model cost (RAM-Hours),classified instances,classifications correct (percent),Kappa Statistic (percent),Kappa Temporal Statistic (percent),Kappa M Statistic (percent),model training instances,model serialized size (bytes),labeling cost,newThreshold,maxPosterior,accuracyBaseLearner (percent),Change detected,Warning detected
100000.0,0.34375,1.3918357176913157E-8,100000.0,70.7,41.38593262382971,40.808080808080796,41.046277665995966,19800.0,2904.0,0.0,1.0,0.0,?,0.0,99.0
200000.0,0.671875,2.591379193796052E-8,200000.0,72.6,45.198246343883,43.50515463917525,43.737166324435314,39800.0,2904.0,0.0,1.0,0.0,?,0.0,0.0
300000.0,1.015625,3.712872664133708E-8,300000.0,69.89999999999999,39.228750252372286,40.748031496062985,33.55408388520969,59800.0,2904.0,0.0,1.0,0.0,?,0.0,0.0
400000.0,1.453125,4.9681920144293044E-8,400000.0,72.8,45.59891197823956,48.387096774193544,45.050505050505045,79800.0,2904.0,0.0,1.0,0.0,?,0.0,0.0
500000.0,1.8125,5.8580319293671185E-8,500000.0,74.0,47.95419969573224,47.58064516129032,45.60669456066945,99800.0,2904.0,0.0,1.0,0.0,?,0.0,0.0
600000.0,2.171875,6.606556578642793E-8,600000.0,67.5,35.063897125228785,33.53783231083845,30.555555555555564,119800.0,2904.0,0.0,1.0,0.0,?,0.0,0.0
700000.0,2.5,7.160965146289932E-8,700000.0,72.1,44.07921109596729,45.719844357976655,42.4742268041237,139800.0,2904.0,0.0,1.0,0.0,?,0.0,0.0
800000.0,2.84375,7.606602998243438E-8,800000.0,73.4,46.66174724886907,47.94520547945205,40.09009009009008,159800.0,2904.0,0.0,1.0,0.0,?,0.0,0.0
900000.0,3.171875,7.902957602507539E-8,900000.0,70.8,41.36357794627939,41.48296593186372,38.65546218487394,179800.0,2904.0,0.0,1.0,0.0,?,0.0,0.0
1000000.0,3.53125,8.086221189134652E-8,1000000.0,70.3,40.57385249509783,37.99582463465552,41.764705882352935,199800.0,2904.0,0.0,1.0,0.0,?,0.0,0.0
1100000.0,3.875,9.479408618062736E-8,1100000.0,71.8,43.599999999999994,44.047619047619044,44.92187499999999,219600.0,2904.0,0.0,1.0,0.0,?,0.0,0.0
1200000.0,4.21875,1.073742492331399E-7,1200000.0,72.8,45.61740243122201,45.81673306772908,44.71544715447154,239600.0,2904.0,0.0,1.0,0.0,?,0.0,0.0
1300000.0,4.546875,1.1809231687544122E-7,1300000.0,71.5,43.060583539114376,41.95519348268839,38.84120171673819,259600.0,2904.0,0.0,1.0,0.0,?,0.0,0.0
1400000.0,4.96875,1.3021377122236623E-7,1400000.0,70.3,40.59287114453734,41.764705882352935,41.07142857142856,279600.0,2904.0,0.0,1.0,0.0,?,0.0,0.0
1500000.0,5.328125,1.3912630189831058E-7,1500000.0,71.6,43.22112174271171,42.51012145748987,39.44562899786779,299600.0,2904.0,0.0,1.0,0.0,?,0.0,0.0
1600000.0,5.6875,1.4662567991763352E-7,1600000.0,69.6,39.13840806896579,40.50880626223091,36.929460580912846,319600.0,2904.0,0.0,1.0,0.0,?,0.0,0.0
1700000.0,6.125,1.5403499775048758E-7,1700000.0,69.8,39.60603939606038,39.357429718875494,39.720558882235515,339600.0,2904.0,0.0,1.0,0.0,?,0.0,0.0
1800000.0,6.453125,1.5830171630821293E-7,1800000.0,70.1,40.112804242977774,39.595959595959584,38.603696098562615,359600.0,2904.0,0.0,1.0,0.0,?,0.0,0.0
1900000.0,6.78125,1.612781650490231E-7,1900000.0,73.1,46.197417476038844,46.41434262948207,43.72384937238493,379600.0,2904.0,0.0,1.0,0.0,?,0.0,0.0
2000000.0,7.125,1.6304463820738927E-7,2000000.0,71.5,42.58523574300747,42.885771543086165,37.636761487964975,399600.0,2904.0,0.0,1.0,0.0,?,0.0,0.0
2100000.0,7.453125,1.7635614818169013E-7,2100000.0,72.2,44.42645300836801,46.435452793834294,42.91581108829568,419400.0,2904.0,0.0,1.0,0.0,?,0.0,0.0
2200000.0,7.796875,1.8894982834657035E-7,2200000.0,69.89999999999999,39.79999999999999,39.67935871743486,37.16075156576199,439400.0,2904.0,0.0,1.0,0.0,?,0.0,0.0
2300000.0,8.140625,2.0019179727468228E-7,2300000.0,72.6,44.8472429660106,45.8498023715415,40.5639913232104,459400.0,2904.0,0.0,1.0,0.0,?,0.0,0.0
2400000.0,8.5,2.1053161213381426E-7,2400000.0,67.7,35.18949548132335,38.35877862595421,31.567796610169495,479400.0,2904.0,0.0,1.0,0.0,?,0.0,0.0
2500000.0,8.828125,2.1868204284045435E-7,2500000.0,68.0,35.97925727935852,40.850277264325335,34.291581108829575,499400.0,2904.0,0.0,1.0,0.0,?,0.0,0.0
2600000.0,9.1875,2.2619555238634352E-7,2600000.0,73.1,46.17847138855542,45.656565656565654,45.87525150905432,519400.0,2904.0,0.0,1.0,0.0,?,0.0,0.0
2700000.0,9.546875,2.3229590927561128E-7,2700000.0,71.89999999999999,43.66208478355013,43.57429718875501,41.821946169772254,539400.0,2904.0,0.0,1.0,0.0,?,0.0,0.0
2800000.0,9.890625,2.367793220198817E-7,2800000.0,71.8,43.28238133547867,42.799188640973625,37.33333333333332,559400.0,2904.0,0.0,1.0,0.0,?,0.0,0.0
2900000.0,10.234375,2.399110235273838E-7,2900000.0,69.39999999999999,38.73530448153249,40.4669260700389,37.2950819672131,579400.0,2904.0,0.0,1.0,0.0,?,0.0,0.0
3000000.0,10.5625,2.416101051494479E-7,3000000.0,71.6,43.16248724157943,41.078838174273855,39.18629550321198,599400.0,2904.0,0.0,1.0,0.0,?,0.0,0.0
3100000.0,11.0,2.5937598871274126E-7,3100000.0,70.39999999999999,40.68302692910418,42.18749999999999,38.716356107660445,619200.0,2904.0,0.0,1.0,0.0,?,0.0,0.0
3200000.0,11.328125,2.714101315682961E-7,3200000.0,70.5,41.020760692236315,40.8817635270541,41.58415841584158,639200.0,2904.0,0.0,1.0,0.0,?,0.0,0.0
3300000.0,11.671875,2.8266561760877567E-7,3300000.0,72.89999999999999,45.82167133146741,44.23868312757201,43.7759336099585,659200.0,2904.0,0.0,1.0,0.0,?,0.0,0.0
3400000.0,12.0,2.921192208305001E-7,3400000.0,73.8,47.593082286861865,46.42126789366053,46.42126789366053,679200.0,2904.0,0.0,1.0,0.0,?,0.0,0.0
3500000.0,12.34375,3.006712843974431E-7,3500000.0,73.0,45.902407943930854,44.21487603305785,41.17647058823529,699200.0,2904.0,0.0,1.0,0.0,?,0.0,0.0
3600000.0,12.671875,3.0754434798533713E-7,3600000.0,71.39999999999999,42.7294426733736,41.751527494908345,40.54054054054053,719200.0,2904.0,0.0,1.0,0.0,?,0.0,0.0
3700000.0,13.0,3.13127141756316E-7,3700000.0,69.89999999999999,39.32234550380594,39.92015968063871,34.4226579520697,739200.0,2904.0,0.0,1.0,0.0,?,0.0,0.0
3800000.0,13.34375,3.1762407161295413E-7,3800000.0,70.7,41.36810424871128,40.808080808080796,40.44715447154471,759200.0,2904.0,0.0,1.0,0.0,?,0.0,0.0
3900000.0,13.6875,3.2076929023282394E-7,3900000.0,73.0,45.97925603431718,47.77562862669246,43.27731092436974,779200.0,2904.0,0.0,1.0,0.0,?,0.0,0.0
4000000.0,14.03125,3.2256279761592544E-7,4000000.0,74.0,47.55696120828761,51.76252319109462,42.477876106194685,799200.0,2904.0,0.0,1.0,0.0,?,0.0,0.0
4100000.0,14.375,3.3653522324230934E-7,4100000.0,69.3,38.34697598946073,39.92172211350293,33.549783549783534,819000.0,2904.0,0.0,1.0,0.0,?,0.0,0.0
4200000.0,14.796875,3.5202428181138304E-7,4200000.0,70.5,40.992919150298036,41.8145956607495,40.99999999999999,839000.0,2904.0,0.0,1.0,0.0,?,0.0,0.0
4300000.0,15.125,3.6278105754819183E-7,4300000.0,75.0,49.97658904367244,49.899799599198396,48.6652977412731,859000.0,2904.0,0.0,1.0,0.0,?,0.0,0.0
4400000.0,15.46875,3.726983494642708E-7,4400000.0,71.6,43.169993756703526,44.747081712062254,46.21212121212121,879000.0,2904.0,0.0,1.0,0.0,?,0.0,0.0
4500000.0,15.84375,3.8204261929624614E-7,4500000.0,70.19999999999999,40.374957482142484,41.68297455968688,40.16064257028111,899000.0,2904.0,0.0,1.0,0.0,?,0.0,0.0
4600000.0,16.1875,3.8925648873878854E-7,4600000.0,71.1,42.22080051181574,42.31536926147704,41.73387096774193,919000.0,2904.0,0.0,1.0,0.0,?,0.0,0.0
4700000.0,16.53125,3.951186469445626E-7,4700000.0,70.39999999999999,40.86622982259868,45.083487940630796,38.075313807531366,939000.0,2904.0,0.0,1.0,0.0,?,0.0,0.0
4800000.0,16.875,3.996290939135684E-7,4800000.0,72.0,43.978487739291886,44.881889763779526,43.08943089430894,959000.0,2904.0,0.0,1.0,0.0,?,0.0,0.0
4900000.0,17.21875,4.027878296458059E-7,4900000.0,72.1,43.85007365904314,44.64285714285714,39.21568627450979,979000.0,2904.0,0.0,1.0,0.0,?,0.0,0.0
5000000.0,17.5625,4.0480045653465724E-7,5000000.0,69.6,38.97738951695784,40.50880626223091,36.26834381551362,999000.0,2904.0,0.0,1.0,0.0,?,0.0,0.0
5100000.0,17.90625,4.1875153935203953E-7,5100000.0,65.0,29.893438025799224,29.292929292929298,28.571428571428577,13107.0,2904.0,0.0,1.0,0.0,?,1.0,3.0
5200000.0,18.28125,4.3249630834907296E-7,5200000.0,65.3,30.21141717080706,25.21551724137931,26.326963906581742,33107.0,2904.0,0.0,1.0,0.0,?,0.0,0.0
5300000.0,18.609375,4.43232711404562E-7,5300000.0,70.19999999999999,39.94357114066907,37.13080168776371,35.49783549783548,53107.0,2904.0,0.0,1.0,0.0,?,0.0,0.0
5400000.0,18.953125,4.531286605116394E-7,5400000.0,70.5,40.94567001641509,39.918533604887976,40.162271805273825,73107.0,2904.0,0.0,1.0,0.0,?,0.0,0.0
5500000.0,19.296875,4.616728983819485E-7,5500000.0,68.2,35.84182386764856,37.890625000000014,33.05263157894738,93107.0,2904.0,0.0,1.0,0.0,?,0.0,0.0
5600000.0,19.625,4.6853849198669197E-7,5600000.0,69.69999999999999,39.295101936145656,42.93785310734462,36.61087866108785,113107.0,2904.0,0.0,1.0,0.0,?,0.0,0.0
5700000.0,19.96875,4.7462190397911605E-7,5700000.0,67.7,34.769086605649846,33.12629399585922,29.934924078091115,133107.0,2904.0,0.0,1.0,0.0,?,0.0,62.0
5800000.0,20.328125,4.795686820418471E-7,5800000.0,68.2,35.30405061745978,35.88709677419356,28.539325842696634,153107.0,2904.0,0.0,1.0,0.0,?,0.0,0.0
5900000.0,20.6875,4.831023074479566E-7,5900000.0,66.5,32.85173663448896,37.5,27.331887201735363,173107.0,2904.0,0.0,1.0,0.0,?,0.0,0.0
6000000.0,21.03125,4.851305857300758E-7,6000000.0,65.7,31.279051129988787,31.673306772908372,30.284552845528463,193107.0,2904.0,0.0,1.0,0.0,?,0.0,0.0
6100000.0,21.375,4.992844252329733E-7,6100000.0,66.0,31.527540026180663,32.13572854291418,28.721174004192875,10066.0,2904.0,0.0,1.0,0.0,?,2.0,25.0
6200000.0,21.71875,5.120865534991026E-7,6200000.0,67.60000000000001,34.447191547734185,36.47058823529413,30.62098501070664,30066.0,2904.0,0.0,1.0,0.0,?,0.0,0.0
6300000.0,22.0625,5.235369705284635E-7,6300000.0,67.5,34.420275233060266,31.722689075630257,33.80855397148677,50066.0,2904.0,0.0,1.0,0.0,?,0.0,0.0
6400000.0,22.390625,5.331766442395747E-7,6400000.0,65.0,30.11740276335757,28.716904276985744,30.830039525691706,70066.0,2904.0,0.0,1.0,0.0,?,0.0,0.0
6500000.0,22.75,5.423770117987362E-7,6500000.0,64.9,29.97310648077952,27.32919254658385,29.51807228915663,90066.0,2904.0,0.0,1.0,0.0,?,0.0,20.0
6600000.0,23.09375,5.498114236009619E-7,6600000.0,68.7,36.69810862847251,38.986354775828474,33.68644067796611,110066.0,2904.0,0.0,1.0,0.0,?,0.0,32.0
6700000.0,23.4375,5.559083527057536E-7,6700000.0,67.7,35.02156559804301,35.912698412698425,33.26446280991736,130066.0,2904.0,0.0,1.0,0.0,?,0.0,20.0
6800000.0,23.78125,5.606535705737771E-7,6800000.0,67.9,35.50383360390915,36.68639053254439,31.991525423728824,150066.0,2904.0,0.0,1.0,0.0,?,0.0,0.0
6900000.0,24.125,5.640470772050322E-7,6900000.0,68.60000000000001,36.92448615552736,37.82178217821783,35.39094650205762,170066.0,2904.0,0.0,1.0,0.0,?,0.0,0.0
7000000.0,24.53125,5.664601081257894E-7,7000000.0,68.0,36.10555362541083,36.75889328063242,32.203389830508485,190066.0,2904.0,0.0,1.0,0.0,?,0.0,0.0
7100000.0,24.890625,5.813272178380027E-7,7100000.0,65.5,30.92263334935128,32.352941176470594,30.020283975659233,209866.0,2904.0,0.0,1.0,0.0,?,0.0,0.0
7200000.0,25.328125,5.976914609264997E-7,7200000.0,65.4,30.69882027760531,31.349206349206355,29.09836065573771,229866.0,2904.0,0.0,1.0,0.0,?,0.0,5.0
7300000.0,25.671875,6.091973692592648E-7,7300000.0,69.0,36.868686868686865,37.246963562753024,30.18018018018016,249866.0,2904.0,0.0,1.0,0.0,?,0.0,0.0
7400000.0,26.125,6.225824472494425E-7,7400000.0,68.89999999999999,37.6608590373714,36.65987780040732,36.65987780040732,269866.0,2904.0,0.0,1.0,0.0,?,0.0,0.0
7500000.0,26.578125,6.3418572406388E-7,7500000.0,70.19999999999999,40.3408180915468,40.755467196819076,40.04024144869214,289866.0,2904.0,0.0,1.0,0.0,?,0.0,0.0
7600000.0,27.046875,6.443458712763257E-7,7600000.0,67.7,34.33731510770308,33.40206185567011,28.854625550660796,309866.0,2904.0,0.0,1.0,0.0,?,0.0,0.0
7700000.0,27.4375,6.512766251237029E-7,7700000.0,65.9,31.572272522956407,29.10602910602911,29.979466119096514,329866.0,2904.0,0.0,1.0,0.0,?,0.0,0.0
7800000.0,27.78125,6.560239772726265E-7,7800000.0,63.9,27.36886156223341,29.629629629629633,23.51694915254237,349866.0,2904.0,0.0,1.0,0.0,?,0.0,0.0
7900000.0,28.125,6.594196181847818E-7,7900000.0,68.5,37.05589436580318,38.23529411764707,36.105476673428,369866.0,2904.0,0.0,1.0,0.0,?,0.0,0.0
8000000.0,28.46875,6.614635478601689E-7,8000000.0,69.0,36.920841760844525,38.85601577909269,31.56732891832228,389866.0,2904.0,0.0,1.0,0.0,?,0.0,0.0
8100000.0,28.796875,6.75039902691626E-7,8100000.0,68.7,36.678643102220505,37.2745490981964,33.119658119658126,409666.0,2904.0,0.0,1.0,0.0,?,0.0,0.0
8200000.0,29.140625,6.879110393735271E-7,8200000.0,67.5,33.77996202026131,33.12757201646092,27.937915742793795,429666.0,2904.0,0.0,1.0,0.0,?,0.0,0.0
8300000.0,29.46875,6.989068545711538E-7,8300000.0,65.0,30.345763629343942,29.292929292929298,28.278688524590166,449666.0,2904.0,0.0,1.0,0.0,?,0.0,0.0
8400000.0,29.796875,7.086123999518653E-7,8400000.0,67.10000000000001,33.892202092944764,35.36345776031435,32.58196721311476,469666.0,2904.0,0.0,1.0,0.0,?,0.0,0.0
8500000.0,30.203125,7.190313125546608E-7,8500000.0,68.5,36.721574929690654,33.26271186440678,35.58282208588958,489666.0,2904.0,0.0,1.0,0.0,?,0.0,0.0
8600000.0,30.546875,7.264956042894886E-7,8600000.0,65.5,30.698399434338253,34.782608695652186,28.423236514522827,509666.0,2904.0,0.0,1.0,0.0,?,0.0,0.0
8700000.0,30.90625,7.328860293556419E-7,8700000.0,66.8,32.648730672011496,31.546391752577325,28.90792291220557,529666.0,2904.0,0.0,1.0,0.0,?,0.0,0.0
8800000.0,31.21875,7.372140923204521E-7,8800000.0,65.2,29.49956848873817,28.834355828220865,25.79957356076759,549666.0,2904.0,0.0,1.0,0.0,?,0.0,0.0
8900000.0,31.5625,7.406232503449751E-7,8900000.0,70.1,40.30029550355401,41.25736738703339,41.715399610136444,569666.0,2904.0,0.0,1.0,0.0,?,0.0,0.0
9000000.0,31.890625,7.425871768241955E-7,9000000.0,68.5,36.66559433810521,36.23481781376519,35.71428571428573,589666.0,2904.0,0.0,1.0,0.0,?,0.0,0.0
9100000.0,32.234375,7.568235418552326E-7,9100000.0,66.7,32.357218886352,30.912863070539427,25.83518930957684,609466.0,2904.0,0.0,1.0,0.0,?,0.0,0.0
9200000.0,32.59375,7.70293861731059E-7,9200000.0,66.9,33.368226105161455,30.021141649048634,31.04166666666667,629466.0,2904.0,0.0,1.0,0.0,?,0.0,0.0
9300000.0,32.953125,7.823510289502641E-7,9300000.0,67.30000000000001,34.20576091942923,30.2771855010661,32.71604938271606,649466.0,2904.0,0.0,1.0,0.0,?,0.0,0.0
9400000.0,33.296875,7.925322602709963E-7,9400000.0,67.10000000000001,33.696090286174936,33.26572008113591,31.600831600831608,669466.0,2904.0,0.0,1.0,0.0,?,0.0,0.0
9500000.0,33.625,8.009604385329618E-7,9500000.0,68.89999999999999,38.05422545871742,39.13894324853228,40.07707129094412,689466.0,2904.0,0.0,1.0,0.0,?,0.0,0.0
9600000.0,33.96875,8.084382473801574E-7,9600000.0,66.0,31.05685781490795,32.40556660039762,27.659574468085108,709466.0,2904.0,0.0,1.0,0.0,?,0.0,0.0
9700000.0,34.3125,8.145643449905846E-7,9700000.0,67.7,34.62173715914245,33.40206185567011,30.835117773019277,729466.0,2904.0,0.0,1.0,0.0,?,0.0,0.0
9800000.0,34.65625,8.193387313642436E-7,9800000.0,67.60000000000001,33.89508905800503,35.32934131736528,28.47682119205298,749466.0,2904.0,0.0,1.0,0.0,?,0.0,0.0
9900000.0,35.140625,8.241615917844077E-7,9900000.0,68.8,37.06835344994512,38.94324853228962,34.453781512605026,769466.0,2904.0,0.0,1.0,0.0,?,0.0,0.0
1.0E7,35.46875,8.261384209617972E-7,1.0E7,66.4,33.044254559367445,33.20079522862824,30.43478260869566,789466.0,2904.0,0.0,1.0,0.0,?,0.0,0.0
