learning evaluation instances,evaluation time (cpu seconds),model cost (RAM-Hours),classified instances,classifications correct (percent),Kappa Statistic (percent),Kappa Temporal Statistic (percent),Kappa M Statistic (percent),model training instances,model serialized size (bytes),labeling cost,newThreshold,maxPosterior,accuracyBaseLearner (percent),Change detected,Warning detected,tree size (nodes),tree size (leaves),active learning leaves,tree depth,active leaf byte size estimate,inactive leaf byte size estimate,byte size estimate overhead
100000.0,0.328125,5.556988374640544E-9,100000.0,69.6,39.19318963723937,37.190082644628085,38.585858585858574,10000.0,21816.0,10000.0,1.0,0.5490022649809614,0.0,0.0,14.0,6.0,5.0,5.0,1.0,0.0,0.0,1.0
200000.0,0.65625,1.7679412849247457E-8,200000.0,69.39999999999999,38.359889611828436,34.89361702127658,36.249999999999986,20000.0,98952.0,20000.0,1.0,0.6401921017027788,0.0,0.0,0.0,30.0,23.0,23.0,3.0,0.0,0.0,1.0
300000.0,0.984375,3.499347561349472E-8,300000.0,75.0,49.95095193289424,50.59288537549407,48.97959183673469,30000.0,159968.0,30000.0,1.0,0.558974358974359,0.0,0.0,0.0,50.0,39.0,39.0,4.0,0.0,0.0,1.0
400000.0,1.3125,5.883766183008751E-8,400000.0,76.1,52.06309219129835,52.2,50.10438413361169,40000.0,236672.0,40000.0,1.0,0.7426608393999597,0.0,0.0,0.0,74.0,57.0,57.0,4.0,0.0,0.0,1.0
500000.0,1.609375,8.15654574479494E-8,500000.0,79.4,58.5513078470825,58.29959514170041,56.17021276595745,50000.0,251632.0,50000.0,1.0,0.6546369277881223,0.0,0.0,0.0,80.0,60.0,60.0,4.0,0.0,0.0,1.0
600000.0,1.9375,1.1139242107876475E-7,600000.0,80.80000000000001,61.54462425893287,62.64591439688717,60.81632653061225,60000.0,306936.0,60000.0,1.0,0.7481896494514171,0.0,0.0,0.0,97.0,73.0,73.0,4.0,0.0,0.0,1.0
700000.0,2.296875,1.529435717707707E-7,700000.0,79.60000000000001,59.09347942041075,59.03614457831326,57.41127348643007,70000.0,402184.0,70000.0,1.0,0.5052179595291383,0.0,0.0,0.0,132.0,98.0,98.0,5.0,0.0,0.0,1.0
800000.0,2.671875,2.085210225130949E-7,800000.0,83.5,67.01583240044778,68.4512428298279,67.0,80000.0,527776.0,80000.0,1.0,1.0,0.0,0.0,0.0,174.0,128.0,128.0,6.0,0.0,0.0,1.0
900000.0,3.09375,2.910050615254376E-7,900000.0,82.8,65.54376742844322,65.3923541247485,63.636363636363626,90000.0,710136.0,90000.0,1.0,0.6843630221788767,0.0,0.0,0.0,241.0,178.0,178.0,7.0,0.0,0.0,1.0
1000000.0,3.53125,3.930875876297554E-7,1000000.0,86.7,73.38083420062445,73.13131313131312,70.76923076923076,100000.0,855832.0,100000.0,1.0,0.5125740618269784,0.0,0.0,0.0,285.0,209.0,209.0,7.0,0.0,0.0,1.0
1100000.0,3.953125,5.058468862747154E-7,1100000.0,87.4,74.76982471035359,72.96137339055794,73.58490566037736,110000.0,986600.0,110000.0,1.0,0.757697023288051,0.0,0.0,0.0,339.0,245.0,245.0,7.0,0.0,0.0,1.0
1200000.0,4.359375,6.262251796821753E-7,1200000.0,89.1,78.13405230174206,78.2,76.85774946921444,120000.0,1098488.0,120000.0,1.0,0.9853308993192808,0.0,0.0,0.0,372.0,269.0,269.0,7.0,0.0,0.0,1.0
1300000.0,4.78125,7.602360953266423E-7,1300000.0,89.7,79.33287317206286,80.30592734225623,78.17796610169492,130000.0,1180664.0,130000.0,1.0,0.7497303128371089,0.0,0.0,0.0,399.0,287.0,287.0,8.0,0.0,0.0,1.0
1400000.0,5.21875,9.079923620447518E-7,1400000.0,88.8,77.61477424899567,77.60000000000001,77.99607072691552,140000.0,1258040.0,140000.0,1.0,0.0,0.0,0.0,0.0,425.0,306.0,306.0,8.0,0.0,0.0,1.0
1500000.0,5.65625,1.057283370755613E-6,1500000.0,87.4,74.73937449879712,75.95419847328245,73.19148936170212,150000.0,1271552.0,150000.0,1.0,0.5967069771506028,0.0,0.0,0.0,436.0,313.0,313.0,8.0,0.0,0.0,1.0
1600000.0,6.09375,1.2116105062887073E-6,1600000.0,90.0,79.9839871897518,80.11928429423459,79.12317327766179,160000.0,1315880.0,160000.0,1.0,0.7555104412494711,0.0,0.0,0.0,445.0,319.0,319.0,8.0,0.0,0.0,1.0
1700000.0,6.53125,1.369705229687194E-6,1700000.0,90.9,81.81600191831188,81.19834710743802,81.65322580645163,169999.0,1349080.0,169999.0,1.0,1.0,0.0,0.0,0.0,457.0,328.0,328.0,8.0,0.0,0.0,1.0
1800000.0,6.96875,1.5316001372411846E-6,1800000.0,90.5,80.93808690627158,81.44531250000001,80.76923076923077,180000.0,1382480.0,180000.0,1.0,0.5615620086390343,0.0,0.0,0.0,476.0,339.0,339.0,8.0,0.0,0.0,1.0
1900000.0,7.4375,1.7086067236959934E-6,1900000.0,91.5,82.9366608852059,83.52713178294574,81.83760683760684,190000.0,1411584.0,190000.0,1.0,0.7881816635668721,0.0,0.0,0.0,486.0,344.0,344.0,8.0,0.0,0.0,1.0
2000000.0,7.90625,1.89352761177967E-6,2000000.0,90.8,81.60463563182078,81.41414141414141,81.56312625250501,200000.0,1476640.0,200000.0,1.0,1.0,0.0,0.0,0.0,514.0,364.0,364.0,8.0,0.0,0.0,1.0
2100000.0,8.375,2.088868641294539E-6,2100000.0,90.60000000000001,81.18103047872256,80.33472803347281,80.49792531120332,210000.0,1562224.0,210000.0,1.0,0.9999999999999999,0.0,0.0,0.0,549.0,386.0,386.0,9.0,0.0,0.0,1.0
2200000.0,8.859375,2.297773381643411E-6,2200000.0,91.10000000000001,82.18503542976102,82.37623762376238,81.41962421711901,220000.0,1618248.0,220000.0,1.0,0.845110121011171,0.0,0.0,0.0,568.0,397.0,397.0,9.0,0.0,0.0,1.0
2300000.0,9.3125,2.4975873788611756E-6,2300000.0,90.8,81.57811480038286,81.9607843137255,80.54968287526427,230000.0,1655488.0,230000.0,1.0,0.8800124424536597,0.0,0.0,0.0,589.0,409.0,409.0,9.0,0.0,0.0,1.0
2400000.0,9.8125,2.7276799341456757E-6,2400000.0,91.7,83.37339743589745,83.29979879275655,82.59958071278827,240000.0,1729392.0,240000.0,1.0,0.5823716712564567,0.0,0.0,0.0,618.0,425.0,425.0,9.0,0.0,0.0,1.0
2500000.0,10.28125,2.947199455876317E-6,2500000.0,91.5,82.91388598536625,82.21757322175733,81.72043010752688,250000.0,1760664.0,250000.0,1.0,0.9716538685653979,0.0,0.0,0.0,633.0,434.0,434.0,9.0,0.0,0.0,1.0
2600000.0,10.78125,3.1912463277371394E-6,2600000.0,93.10000000000001,86.10898607677504,86.57587548638134,85.03253796095446,260000.0,1836832.0,260000.0,1.0,0.7112939721936714,0.0,0.0,0.0,668.0,456.0,456.0,9.0,0.0,0.0,1.0
2700000.0,11.28125,3.4441014415481025E-6,2700000.0,90.4,80.81128296561623,79.95824634655533,79.95824634655533,270000.0,1904600.0,270000.0,1.0,0.5796286676385403,0.0,0.0,0.0,693.0,470.0,470.0,9.0,0.0,0.0,1.0
2800000.0,11.765625,3.6956751137040558E-6,2800000.0,89.8,79.59804141197554,80.0,79.60000000000001,280000.0,1957216.0,280000.0,1.0,0.5947280517386767,0.0,0.0,0.0,717.0,485.0,485.0,9.0,0.0,0.0,1.0
2900000.0,12.265625,3.965505133641677E-6,2900000.0,93.30000000000001,86.57099334562656,86.1855670103093,85.83509513742072,290000.0,2035264.0,290000.0,1.0,1.0,0.0,0.0,0.0,744.0,500.0,500.0,9.0,0.0,0.0,1.0
3000000.0,12.765625,4.23980136272601E-6,3000000.0,93.10000000000001,86.18850883935436,86.36363636363637,85.74380165289257,300000.0,2069632.0,300000.0,1.0,0.6171214919980544,0.0,0.0,0.0,756.0,506.0,506.0,9.0,0.0,0.0,1.0
3100000.0,13.265625,4.521651652693335E-6,3100000.0,90.0,80.00767705201203,79.95991983967936,79.50819672131148,310000.0,2127752.0,310000.0,1.0,0.6923890503339272,0.0,0.0,0.0,781.0,520.0,520.0,9.0,0.0,0.0,1.0
3200000.0,13.765625,4.8073089823851165E-6,3200000.0,94.0,87.93397470961098,87.75510204081631,87.67967145790553,320000.0,2157016.0,320000.0,1.0,0.947762371508729,0.0,0.0,0.0,795.0,527.0,527.0,9.0,0.0,0.0,1.0
3300000.0,14.265625,5.096759899364164E-6,3300000.0,92.80000000000001,85.58708602908207,85.93750000000001,85.18518518518519,330000.0,2186240.0,330000.0,1.0,0.6014332350237686,0.0,0.0,0.0,804.0,533.0,533.0,9.0,0.0,0.0,1.0
3400000.0,14.765625,5.388502904679628E-6,3400000.0,93.10000000000001,86.20121429314221,86.44400785854617,86.17234468937876,340000.0,2203864.0,340000.0,1.0,1.0,0.0,0.0,0.0,812.0,537.0,537.0,9.0,0.0,0.0,1.0
3500000.0,15.265625,5.684404782692179E-6,3500000.0,92.5,84.99855986174674,84.90945674044266,84.66257668711657,350000.0,2235864.0,350000.0,1.0,1.0,0.0,0.0,0.0,829.0,547.0,547.0,9.0,0.0,0.0,1.0
3600000.0,15.78125,5.994631048654104E-6,3600000.0,93.89999999999999,87.75149592385847,86.62280701754385,86.82505399568034,360000.0,2273736.0,360000.0,1.0,1.0,0.0,0.0,0.0,841.0,553.0,553.0,9.0,0.0,0.0,1.0
3700000.0,16.3125,6.3241193290903355E-6,3700000.0,93.7,87.39818533868878,87.27272727272728,87.09016393442624,370000.0,2345168.0,370000.0,1.0,1.0,0.0,0.0,0.0,875.0,573.0,573.0,9.0,0.0,0.0,1.0
3800000.0,16.84375,6.659415052531082E-6,3800000.0,93.2,86.39020094468019,86.4,86.12244897959185,380000.0,2387192.0,380000.0,1.0,0.7188501467976919,0.0,0.0,0.0,893.0,582.0,582.0,9.0,0.0,0.0,1.0
3900000.0,17.34375,6.9785875772746925E-6,3900000.0,93.10000000000001,86.18120644075944,86.33663366336634,85.35031847133759,390000.0,2414856.0,390000.0,1.0,1.0,0.0,0.0,0.0,907.0,589.0,589.0,9.0,0.0,0.0,1.0
4000000.0,17.859375,7.311341178137811E-6,4000000.0,95.1,90.15661033837154,90.29702970297029,89.18322295805739,400000.0,2441760.0,400000.0,1.0,0.5314432088558562,0.0,0.0,0.0,917.0,594.0,594.0,9.0,0.0,0.0,1.0
4100000.0,18.375,7.646933372598143E-6,4100000.0,94.3,88.58849720518282,88.41463414634146,88.10020876826721,410000.0,2462928.0,410000.0,1.0,1.0,0.0,0.0,0.0,925.0,598.0,598.0,9.0,0.0,0.0,1.0
4200000.0,18.90625,7.9970797459181E-6,4200000.0,93.89999999999999,87.78504889985341,87.89682539682538,87.7016129032258,419999.0,2494664.0,419999.0,1.0,0.9999999999999999,0.0,0.0,0.0,946.0,610.0,610.0,9.0,0.0,0.0,1.0
4300000.0,19.453125,8.363208520070962E-6,4300000.0,94.19999999999999,88.33279691020276,88.39999999999999,87.16814159292035,430000.0,2534632.0,430000.0,1.0,1.0,0.0,0.0,0.0,958.0,616.0,616.0,9.0,0.0,0.0,1.0
4400000.0,19.984375,8.721339302913599E-6,4400000.0,94.3,88.58026670085908,88.31967213114753,87.94926004228329,440000.0,2552488.0,440000.0,1.0,0.6805648019337694,0.0,0.0,0.0,980.0,630.0,630.0,9.0,0.0,0.0,1.0
4500000.0,20.53125,9.096555424750682E-6,4500000.0,93.60000000000001,87.20204767237243,87.20000000000002,86.66666666666669,449999.0,2598552.0,449999.0,1.0,0.9863636363636363,0.0,0.0,0.0,994.0,637.0,637.0,9.0,0.0,0.0,1.0
4600000.0,21.078125,9.478140273131433E-6,4600000.0,95.1,90.18657523492136,90.25844930417493,90.52224371373306,460000.0,2643384.0,460000.0,1.0,0.0,0.0,0.0,0.0,1007.0,645.0,645.0,9.0,0.0,0.0,1.0
4700000.0,21.609375,9.851174480799174E-6,4700000.0,93.7,87.40181413876404,87.81431334622825,87.16904276985744,470000.0,2660368.0,470000.0,1.0,1.0,0.0,0.0,0.0,1023.0,653.0,653.0,9.0,0.0,0.0,1.0
4800000.0,22.171875,1.025159545760188E-5,4800000.0,94.1,88.1791006499491,87.65690376569036,87.25701943844491,480000.0,2697600.0,480000.0,1.0,0.5083831190947885,0.0,0.0,0.0,1031.0,657.0,657.0,9.0,0.0,0.0,1.0
4900000.0,22.734375,1.0657283063564038E-5,4900000.0,93.8,87.59746988385629,87.64940239043824,87.64940239043824,490000.0,2733632.0,490000.0,1.0,0.7703397388219331,0.0,0.0,0.0,1046.0,666.0,666.0,9.0,0.0,0.0,1.0
5000000.0,23.296875,1.106631761002872E-5,5000000.0,94.6,89.19857421179594,88.93442622950819,88.95705521472391,500000.0,2756504.0,500000.0,1.0,0.7358851695442801,0.0,0.0,0.0,1065.0,677.0,677.0,9.0,0.0,0.0,1.0
5100000.0,23.890625,1.1078941364151738E-5,5100000.0,77.0,53.34685598377283,50.95948827292111,48.888888888888886,7146.0,39016.0,510000.0,1.0,0.6150646654910649,0.0,2.0,21.0,11.0,9.0,9.0,2.0,0.0,0.0,1.0
5200000.0,24.234375,1.1095176838959259E-5,5200000.0,81.39999999999999,61.89820675753739,62.1951219512195,57.63097949886104,17146.0,139152.0,520000.0,1.0,0.5780908520239216,0.0,0.0,0.0,43.0,34.0,34.0,3.0,0.0,0.0,1.0
5300000.0,24.609375,1.1124496425812445E-5,5300000.0,88.1,75.92457716274177,75.05241090146751,73.90350877192982,27146.0,258424.0,530000.0,1.0,0.0,0.0,0.0,0.0,82.0,61.0,61.0,3.0,0.0,0.0,1.0
5400000.0,24.9375,1.1154125774434459E-5,5400000.0,89.3,78.10248853962017,77.70833333333333,75.05827505827507,37146.0,305120.0,540000.0,1.0,0.6581952514473691,0.0,0.0,0.0,99.0,74.0,74.0,4.0,0.0,0.0,1.0
5500000.0,25.328125,1.1200244027552093E-5,5500000.0,89.0,77.81828741046655,76.59574468085107,76.4957264957265,47146.0,412064.0,550000.0,1.0,0.6237607237356348,0.0,0.0,0.0,140.0,102.0,102.0,4.0,0.0,0.0,1.0
5600000.0,25.6875,1.1253122712433755E-5,5600000.0,89.0,77.68762677484787,77.7327935222672,75.55555555555556,57146.0,524056.0,560000.0,1.0,0.9122418288239388,0.0,0.0,0.0,181.0,130.0,130.0,5.0,0.0,0.0,1.0
5700000.0,26.0625,1.1318106521179695E-5,5700000.0,90.60000000000001,80.84002233971864,80.61855670103093,78.5876993166287,67146.0,624792.0,570000.0,1.0,0.6831830194165776,0.0,0.0,0.0,215.0,153.0,153.0,5.0,0.0,0.0,1.0
5800000.0,26.4375,1.1388208723575294E-5,5800000.0,92.7,85.21189530832186,84.53389830508475,83.40909090909092,77146.0,677376.0,580000.0,1.0,0.9326135186021404,0.0,0.0,0.0,233.0,165.0,165.0,5.0,0.0,0.0,1.0
5900000.0,26.828125,1.1468451217903449E-5,5900000.0,92.9,85.57579008101938,85.62753036437249,83.93665158371041,87146.0,748552.0,590000.0,1.0,0.5739972538297423,0.0,0.0,0.0,260.0,183.0,183.0,6.0,0.0,0.0,1.0
6000000.0,27.1875,1.1543627220412926E-5,6000000.0,94.8,89.49931947512752,89.5582329317269,88.52097130242824,97146.0,763016.0,600000.0,1.0,1.0,0.0,0.0,0.0,270.0,188.0,188.0,6.0,0.0,0.0,1.0
6100000.0,27.578125,1.1633915386887062E-5,6100000.0,95.3,90.50336221388852,90.58116232464928,89.60176991150442,107146.0,847552.0,610000.0,1.0,1.0,0.0,0.0,0.0,299.0,207.0,207.0,6.0,0.0,0.0,1.0
6200000.0,27.953125,1.1722940511794556E-5,6200000.0,95.19999999999999,90.33563533130649,90.10309278350515,89.6328293736501,117145.0,871640.0,619999.0,1.0,1.0,0.0,0.0,0.0,309.0,212.0,212.0,6.0,0.0,0.0,1.0
6300000.0,28.328125,1.1816089843503305E-5,6300000.0,94.8,89.54916714901279,89.88326848249027,88.74458874458874,127145.0,913920.0,629999.0,1.0,1.0,0.0,0.0,0.0,334.0,226.0,226.0,6.0,0.0,0.0,1.0
6400000.0,28.703125,1.1916440627020269E-5,6400000.0,94.89999999999999,89.64340833401022,89.7590361445783,88.40909090909089,137146.0,987888.0,640000.0,1.0,1.0,0.0,0.0,0.0,357.0,242.0,242.0,6.0,0.0,0.0,1.0
6500000.0,29.078125,1.2018620683294206E-5,6500000.0,95.8,91.48943068343924,91.42857142857143,90.54054054054052,147146.0,1006648.0,650000.0,1.0,1.0,0.0,0.0,0.0,365.0,246.0,246.0,6.0,0.0,0.0,1.0
6600000.0,29.484375,1.2133236288920876E-5,6600000.0,94.89999999999999,89.46246156897747,88.5135135135135,87.53056234718825,157146.0,1043728.0,660000.0,1.0,0.5613684180345236,0.0,0.0,0.0,385.0,256.0,256.0,6.0,0.0,0.0,1.0
6700000.0,29.875,1.2247086431468944E-5,6700000.0,94.5,88.84788515349365,88.0694143167028,87.64044943820224,167146.0,1079552.0,670000.0,1.0,0.5487008381784686,0.0,0.0,0.0,405.0,266.0,266.0,7.0,0.0,0.0,1.0
6800000.0,30.28125,1.2371089315921486E-5,6800000.0,95.19999999999999,90.26116314174875,90.18404907975459,88.9400921658986,177146.0,1132544.0,680000.0,1.0,0.9751027322238428,0.0,0.0,0.0,434.0,282.0,282.0,7.0,0.0,0.0,1.0
6900000.0,30.671875,1.2494158905206458E-5,6900000.0,96.7,93.28509453772962,93.09623430962343,92.34338747099767,187146.0,1170272.0,690000.0,1.0,1.0,0.0,0.0,0.0,452.0,291.0,291.0,7.0,0.0,0.0,1.0
7000000.0,31.078125,1.263089368068096E-5,7000000.0,94.1,88.04215646534252,88.19999999999999,86.74157303370785,197146.0,1253136.0,700000.0,1.0,0.0,0.0,0.0,0.0,481.0,310.0,310.0,7.0,0.0,0.0,1.0
7100000.0,31.5,1.2777796138026239E-5,7100000.0,95.5,90.86835825256902,91.37931034482759,89.58333333333333,207146.0,1297912.0,710000.0,1.0,0.0,0.0,0.0,0.0,498.0,320.0,320.0,7.0,0.0,0.0,1.0
7200000.0,31.9375,1.2931692278167858E-5,7200000.0,95.89999999999999,91.67546495573782,91.76706827309236,90.78651685393257,217146.0,1311560.0,720000.0,1.0,0.636935387897048,0.0,0.0,0.0,504.0,323.0,323.0,7.0,0.0,0.0,1.0
7300000.0,32.34375,1.3076918063840522E-5,7300000.0,95.7,91.36580860206416,91.29554655870444,90.79229122055673,227146.0,1333536.0,730000.0,1.0,0.0,0.0,0.0,0.0,514.0,328.0,328.0,7.0,0.0,0.0,1.0
7400000.0,32.734375,1.3219065213989883E-5,7400000.0,96.2,92.27343892966795,92.33870967741935,91.26436781609195,237146.0,1358208.0,740000.0,1.0,0.0,0.0,0.0,0.0,524.0,333.0,333.0,7.0,0.0,0.0,1.0
7500000.0,33.140625,1.3369572762813837E-5,7500000.0,96.6,93.1340872374798,92.901878914405,92.44444444444444,247146.0,1383568.0,750000.0,1.0,0.6627658132531954,0.0,0.0,0.0,533.0,339.0,339.0,7.0,0.0,0.0,1.0
7600000.0,33.546875,1.3521145576507685E-5,7600000.0,96.8,93.50651985990316,93.4156378600823,92.71070615034168,257145.0,1393656.0,759999.0,1.0,0.0,0.0,0.0,0.0,537.0,341.0,341.0,7.0,0.0,0.0,1.0
7700000.0,33.953125,1.3673656697695457E-5,7700000.0,96.39999999999999,92.69483484239105,92.5311203319502,91.83673469387755,267146.0,1402520.0,770000.0,1.0,0.0,0.0,0.0,0.0,545.0,345.0,345.0,7.0,0.0,0.0,1.0
7800000.0,34.375,1.3833754540731512E-5,7800000.0,96.1,92.05618517643416,91.92546583850931,90.86651053864168,277146.0,1418200.0,780000.0,1.0,0.9999999999999999,0.0,0.0,0.0,551.0,348.0,348.0,7.0,0.0,0.0,1.0
7900000.0,34.796875,1.3997997060262912E-5,7900000.0,96.39999999999999,92.77781344289657,93.02325581395348,92.3076923076923,287146.0,1455984.0,790000.0,1.0,0.9999573190003429,0.0,0.0,0.0,570.0,359.0,359.0,7.0,0.0,0.0,1.0
8000000.0,35.21875,1.416612843361994E-5,8000000.0,97.2,94.3504420779074,93.9524838012959,93.76391982182626,297146.0,1491464.0,800000.0,1.0,0.9999999999976669,0.0,0.0,0.0,583.0,367.0,367.0,7.0,0.0,0.0,1.0
8100000.0,35.640625,1.4335201897968852E-5,8100000.0,96.5,92.95825654479756,93.16406249999999,92.40780911062906,307146.0,1500032.0,810000.0,1.0,0.5876527031766408,0.0,0.0,0.0,591.0,371.0,371.0,7.0,0.0,0.0,1.0
8200000.0,36.0625,1.4505529155333841E-5,8200000.0,97.0,93.92941119335634,93.97590361445782,93.22799097065462,317146.0,1511456.0,820000.0,1.0,1.0,0.0,0.0,0.0,595.0,373.0,373.0,7.0,0.0,0.0,1.0
8300000.0,36.484375,1.4676483309206868E-5,8300000.0,97.2,94.28141951506437,94.39999999999999,93.45794392523365,327146.0,1517120.0,830000.0,1.0,0.0,0.0,0.0,0.0,607.0,379.0,379.0,7.0,0.0,0.0,1.0
8400000.0,36.90625,1.4851023346030469E-5,8400000.0,96.89999999999999,93.65139177875714,93.64754098360655,92.67139479905437,337145.0,1549832.0,839999.0,1.0,1.0,0.0,0.0,0.0,611.0,381.0,381.0,7.0,0.0,0.0,1.0
8500000.0,37.328125,1.5026107333445307E-5,8500000.0,98.0,95.95959595959596,96.08610567514677,95.55555555555554,347145.0,1554792.0,849999.0,1.0,1.0,0.0,0.0,0.0,613.0,382.0,382.0,7.0,0.0,0.0,1.0
8600000.0,37.75,1.5203097330716755E-5,8600000.0,96.7,93.334679862654,93.4782608695652,92.68292682926828,357146.0,1572152.0,860000.0,1.0,1.0,0.0,0.0,0.0,623.0,387.0,387.0,7.0,0.0,0.0,1.0
8700000.0,38.1875,1.538878119188465E-5,8700000.0,97.5,94.96361717043925,94.97991967871485,94.5414847161572,367146.0,1590920.0,870000.0,1.0,0.0,0.0,0.0,0.0,635.0,393.0,393.0,7.0,0.0,0.0,1.0
8800000.0,38.625,1.5576905247548395E-5,8800000.0,97.3,94.52248216763638,94.27966101694915,93.89140271493211,377144.0,1612376.0,879998.0,1.0,0.8624150881922568,0.0,0.0,0.0,641.0,396.0,396.0,7.0,0.0,0.0,1.0
8900000.0,39.046875,1.5760105711201004E-5,8900000.0,97.3,94.50021184369194,94.67455621301775,93.82151029748283,387146.0,1628728.0,890000.0,1.0,0.6780912488080998,0.0,0.0,0.0,649.0,400.0,400.0,7.0,0.0,0.0,1.0
9000000.0,39.5,1.5958230748462186E-5,9000000.0,97.1,94.14538818095191,94.15322580645162,93.64035087719299,397146.0,1640192.0,900000.0,1.0,0.9999999999999999,0.0,0.0,0.0,659.0,405.0,405.0,7.0,0.0,0.0,1.0
9100000.0,39.921875,1.6144550851701455E-5,9100000.0,97.7,95.36009683276174,95.47244094488188,94.9671772428884,407146.0,1657120.0,910000.0,1.0,1.0,0.0,0.0,0.0,669.0,410.0,410.0,7.0,0.0,0.0,1.0
9200000.0,40.359375,1.6341153564604214E-5,9200000.0,97.39999999999999,94.76650563607085,94.83101391650099,94.34782608695652,417146.0,1686816.0,920000.0,1.0,1.0,0.0,0.0,0.0,683.0,417.0,417.0,8.0,0.0,0.0,1.0
9300000.0,40.796875,1.6541153535298597E-5,9300000.0,96.3,92.59466816107597,92.49492900608519,92.41803278688523,427146.0,1716696.0,930000.0,1.0,0.8507568273682121,0.0,0.0,0.0,696.0,425.0,425.0,8.0,0.0,0.0,1.0
9400000.0,41.25,1.675045796825241E-5,9400000.0,97.2,94.34343434343434,94.52054794520548,93.77777777777777,437146.0,1735040.0,940000.0,1.0,0.0,0.0,0.0,0.0,704.0,429.0,429.0,8.0,0.0,0.0,1.0
9500000.0,41.6875,1.695662044868288E-5,9500000.0,96.2,92.2814429639259,91.9831223628692,91.28440366972477,447146.0,1770872.0,950000.0,1.0,0.9999999999999999,0.0,0.0,0.0,723.0,440.0,440.0,8.0,0.0,0.0,1.0
9600000.0,42.140625,1.7171753247061545E-5,9600000.0,98.8,97.58298420883015,97.56592292089249,97.39130434782608,457146.0,1784536.0,960000.0,1.0,0.0,0.0,0.0,0.0,723.0,440.0,440.0,8.0,0.0,0.0,1.0
9700000.0,42.578125,1.7381276767183517E-5,9700000.0,97.39999999999999,94.64917082727935,94.45628997867803,93.79474940334129,467145.0,1800424.0,969999.0,1.0,0.0,0.0,0.0,0.0,731.0,444.0,444.0,8.0,0.0,0.0,1.0
9800000.0,43.015625,1.7591752823338747E-5,9800000.0,97.89999999999999,95.73970835260607,95.80838323353294,95.24886877828054,477144.0,1808784.0,979998.0,1.0,0.9999999999998668,0.0,0.0,0.0,737.0,447.0,447.0,8.0,0.0,0.0,1.0
9900000.0,43.46875,1.7812411080942393E-5,9900000.0,97.7,95.33176913771688,95.34412955465586,94.79638009049773,487146.0,1831392.0,990000.0,1.0,0.9999999999999999,0.0,0.0,0.0,745.0,451.0,451.0,8.0,0.0,0.0,1.0
1.0E7,43.921875,1.803483707287039E-5,1.0E7,97.5,94.92822422929295,94.87704918032787,94.30523917995444,497146.0,1846400.0,1000000.0,1.0,0.9947851836783189,0.0,0.0,0.0,751.0,454.0,454.0,8.0,0.0,0.0,1.0
