learning evaluation instances,evaluation time (cpu seconds),model cost (RAM-Hours),classified instances,classifications correct (percent),Kappa Statistic (percent),Kappa Temporal Statistic (percent),Kappa M Statistic (percent),model training instances,model serialized size (bytes),labeling cost,newThreshold,maxPosterior,accuracyBaseLearner (percent),Change detected,Warning detected
100000.0,0.359375,2.308645182185703E-9,100000.0,87.8,73.3839474660209,71.6279069767442,61.75548589341693,18400.0,3024.0,20000.0,0.8359475053291915,0.8412282193278752,0.0,1.0,36.0
200000.0,0.71875,4.672328941524029E-9,200000.0,89.60000000000001,76.73700739494745,76.09195402298852,68.19571865443426,38400.0,3024.0,40000.0,0.8276016854420425,0.7129336237140378,0.0,0.0,5.0
300000.0,1.0625,6.9332438417606896E-9,300000.0,90.0,77.87845538526884,77.11670480549199,70.41420118343196,58400.0,3024.0,60000.0,0.795242543125903,0.7870256462547752,0.0,0.0,0.0
400000.0,1.390625,9.091389882895684E-9,400000.0,90.10000000000001,78.19229549219328,76.97674418604652,70.18072289156628,78400.0,3024.0,80000.0,0.8031279004167451,0.7883635959303831,0.0,0.0,0.0
500000.0,1.734375,1.1352304783132344E-8,500000.0,88.6,74.83488150319641,72.85714285714286,64.59627329192547,98400.0,3024.0,100000.0,0.7951097404718924,0.797225426697091,0.0,0.0,0.0
600000.0,2.0625,1.3510450824267336E-8,600000.0,91.10000000000001,80.18611692417295,79.10798122065728,73.43283582089552,118400.0,3024.0,120000.0,0.7716612402217454,0.5974623852467573,0.0,0.0,0.0
700000.0,2.40625,1.5771365724503997E-8,700000.0,89.60000000000001,77.44973893736233,75.87006960556846,69.94219653179191,138400.0,3024.0,140000.0,0.8608461319509109,0.7441245636590952,0.0,0.0,0.0
800000.0,2.734375,1.792951176563899E-8,800000.0,89.7,77.64679329143374,77.11111111111111,70.40229885057472,158400.0,3024.0,160000.0,0.8189971634988514,0.5843594698528491,0.0,0.0,0.0
900000.0,3.078125,2.019042666587565E-8,900000.0,90.2,78.17021883241857,77.36720554272519,70.48192771084338,178400.0,3024.0,180000.0,0.9046068449380272,0.5395077097230548,0.0,0.0,0.0
1000000.0,3.421875,2.245134156611231E-8,1000000.0,91.4,80.62583072382799,79.76470588235294,73.04075235109718,198400.0,3024.0,200000.0,0.877929176749463,0.7460573749066953,0.0,0.0,0.0
1100000.0,3.765625,2.471225646634897E-8,1100000.0,90.4,78.45649783442921,77.46478873239437,69.52380952380953,218400.0,3024.0,220000.0,0.8352497372337647,0.7844064732725066,0.0,0.0,0.0
1200000.0,4.109375,2.697317136658563E-8,1200000.0,90.9,80.0669400343462,80.38793103448276,73.85057471264368,238400.0,3024.0,240000.0,0.8187236471579711,0.5890144131686154,0.0,0.0,0.0
1300000.0,4.46875,2.9336855125923955E-8,1300000.0,90.10000000000001,77.86462991449935,77.9510022271715,70.18072289156628,258400.0,3024.0,260000.0,0.8434613560569522,0.7283007178750036,0.0,0.0,0.0
1400000.0,4.78125,3.139223230795728E-8,1400000.0,90.9,79.6606229660623,80.0875273522976,72.17125382262998,278400.0,3024.0,280000.0,0.8603430832096189,0.6806591565675639,0.0,0.0,0.0
1500000.0,5.125,3.3653147208193936E-8,1500000.0,87.7,72.36576050325769,68.86075949367088,61.198738170347,298400.0,3024.0,300000.0,0.8104144255930944,0.814233334395478,0.0,0.0,0.0
1600000.0,5.484375,3.601683096753226E-8,1600000.0,92.30000000000001,82.97861052408196,82.96460176991151,77.21893491124261,318400.0,3024.0,320000.0,0.8184502221619314,0.801992653775204,0.0,0.0,0.0
1700000.0,5.890625,3.868882130417559E-8,1700000.0,90.5,77.66702712868495,77.59433962264151,67.79661016949153,338400.0,3024.0,340000.0,0.818381880181987,0.7816729698222861,0.0,0.0,0.0
1800000.0,6.234375,4.0949736204412246E-8,1800000.0,91.2,80.74693154221455,79.67667436489609,74.19354838709678,358400.0,3024.0,360000.0,0.8686563163688182,0.7280596504333163,0.0,0.0,0.0
1900000.0,6.5625,4.310788224554724E-8,1900000.0,89.9,78.40532982117048,77.9475982532751,72.09944751381217,378400.0,3024.0,380000.0,0.8430388615511036,0.533594520934088,0.0,0.0,0.0
2000000.0,6.90625,4.53687971457839E-8,2000000.0,89.1,75.31076722357119,73.79807692307693,65.50632911392404,398400.0,3024.0,400000.0,0.8771963664166208,0.6367443999956754,0.0,0.0,0.0
2100000.0,7.234375,4.7526943186918894E-8,2100000.0,91.9,81.89264349521162,81.16279069767442,75.37993920972646,418400.0,3024.0,420000.0,0.842898077083251,0.6006222011818254,0.0,0.0,0.0
2200000.0,7.5625,4.968508922805389E-8,2200000.0,89.9,76.9807914961118,76.12293144208039,67.52411575562702,438400.0,3024.0,440000.0,0.8019216310879455,0.710524086333733,0.0,0.0,0.0
2300000.0,7.90625,5.194600412829055E-8,2300000.0,89.7,77.36582107132183,77.06013363028953,69.34523809523809,458400.0,3024.0,460000.0,0.8427573161259053,0.7982680140316896,0.0,0.0,0.0
2400000.0,8.25,5.4206919028527204E-8,2400000.0,91.5,80.73820271568681,80.50458715596332,73.5202492211838,478400.0,3024.0,480000.0,0.8511138139070703,0.7921953643971632,0.0,0.0,0.0
2500000.0,8.578125,5.63650650696622E-8,2500000.0,90.60000000000001,79.15696578638108,78.82882882882883,71.6012084592145,498400.0,3024.0,500000.0,0.894454477494127,0.6368313332538695,0.0,0.0,0.0
2600000.0,8.90625,5.8523211110797195E-8,2600000.0,90.2,77.8102824434049,78.50877192982456,69.47040498442368,518400.0,3024.0,520000.0,0.9214803910175272,0.810856064701895,0.0,0.0,0.0
2700000.0,9.234375,6.068135715193219E-8,2700000.0,90.10000000000001,77.59106177623657,74.74489795918367,68.16720257234728,538400.0,3024.0,540000.0,0.8943051068027364,0.8001331378993373,0.0,0.0,0.0
2800000.0,9.578125,6.294227205216885E-8,2800000.0,89.3,75.62064817177647,74.88262910798123,64.21404682274249,558400.0,3024.0,560000.0,0.8853766641697276,0.7462743820917126,0.0,0.0,0.0
2900000.0,9.90625,6.510041809330384E-8,2900000.0,89.2,76.456636612546,76.31578947368422,68.78612716763006,578400.0,3024.0,580000.0,0.8853027337185163,0.7306755450198555,0.0,0.0,0.0
3000000.0,10.25,6.736133299354051E-8,3000000.0,90.2,78.16749541071843,79.23728813559322,70.65868263473054,598400.0,3024.0,600000.0,0.817493953576396,0.7673646084881591,0.0,0.0,0.0
3100000.0,10.609375,6.972501675287883E-8,3100000.0,90.4,78.06366108356374,77.46478873239437,69.13183279742766,618400.0,3024.0,620000.0,0.850616452396258,0.7798096767077224,0.0,0.0,0.0
3200000.0,10.953125,7.19859316531155E-8,3200000.0,89.5,76.85777005880331,75.58139534883722,67.79141104294479,638400.0,3024.0,640000.0,0.893931789196735,0.7426592093229436,0.0,0.0,0.0
3300000.0,11.296875,7.424684655335216E-8,3300000.0,89.7,76.6755133651573,76.95749440715885,67.19745222929936,658400.0,3024.0,660000.0,0.8589791465228807,0.67864960341158,0.0,0.0,0.0
3400000.0,11.625,7.640499259448715E-8,3400000.0,90.60000000000001,78.75043516396074,79.01785714285715,70.7165109034268,678400.0,3024.0,680000.0,0.8253931486474906,0.6789957584946629,0.0,0.0,0.0
3500000.0,11.9375,7.846036977652048E-8,3500000.0,88.8,75.28630375780578,75.22123893805309,67.53623188405797,698400.0,3024.0,700000.0,0.8335774691906406,0.591640057443024,0.0,0.0,0.0
3600000.0,12.28125,8.072128467675714E-8,3600000.0,89.9,75.83801421968748,75.544794188862,65.64625850340137,718400.0,3024.0,720000.0,0.902569579791047,0.7889920645448518,0.0,0.0,0.0
3700000.0,12.6875,8.339327501340046E-8,3700000.0,89.0,74.89398414212745,75.16930022573364,63.6963696369637,738400.0,3024.0,740000.0,0.833438264741379,0.799406196049206,0.0,0.0,0.0
3800000.0,13.03125,8.565418991363712E-8,3800000.0,89.9,78.01614181112166,76.40186915887851,71.38810198300284,758400.0,3024.0,760000.0,0.8088594218917482,0.6556646907708481,0.0,0.0,0.0
3900000.0,13.375,8.791510481387379E-8,3900000.0,88.1,73.54779624245333,73.31838565022422,64.37125748502994,778400.0,3024.0,780000.0,0.8332990835387762,0.5895036556044669,0.0,0.0,0.0
4000000.0,13.6875,8.997048199590712E-8,4000000.0,90.60000000000001,79.13012588530451,78.82882882882883,71.42857142857143,798400.0,3024.0,800000.0,0.8584771887833678,0.5953520134120244,0.0,0.0,0.0
4100000.0,14.03125,9.223139689614378E-8,4100000.0,91.2,80.22294138798995,79.72350230414747,73.17073170731709,818400.0,3024.0,820000.0,0.9112147403964812,0.8401803879872504,0.0,0.0,0.0
4200000.0,14.359375,9.438954293727877E-8,4200000.0,90.2,78.2113763295507,76.66666666666667,70.1219512195122,838400.0,3024.0,840000.0,0.8166751841131815,0.8175355814294002,0.0,0.0,0.0
4300000.0,14.6875,9.654768897841376E-8,4300000.0,88.5,74.64503042596348,73.1934731934732,64.9390243902439,858400.0,3024.0,860000.0,0.833020790858003,0.7929985073484318,0.0,0.0,0.0
4400000.0,15.03125,9.880860387865042E-8,4400000.0,90.7,78.93487478708369,77.53623188405798,70.56962025316456,878400.0,3024.0,880000.0,0.7925245168984315,0.7442319131321554,0.0,0.0,0.0
4500000.0,15.359375,1.0096674991978541E-7,4500000.0,90.60000000000001,79.51971554192141,79.82832618025752,72.43401759530792,898400.0,3024.0,900000.0,0.8003829231563786,0.6625394533421025,0.0,0.0,0.0
4600000.0,15.671875,1.0302212710181874E-7,4600000.0,90.60000000000001,78.65722135186068,79.06458797327394,70.15873015873017,918400.0,3024.0,920000.0,0.8083192507247761,0.7963346975494878,0.0,0.0,0.0
4700000.0,16.0,1.0518027314295373E-7,4700000.0,90.2,77.42143581236752,75.25252525252526,67.97385620915034,938400.0,3024.0,940000.0,0.8665552796143717,0.7901046379777964,0.0,0.0,0.0
4800000.0,16.34375,1.0744118804319039E-7,4800000.0,90.4,78.13650111139452,76.81159420289856,69.23076923076924,958400.0,3024.0,960000.0,0.8838992274883389,0.8058359622087935,0.0,0.0,0.0
4900000.0,16.65625,1.0949656522522372E-7,4900000.0,88.0,73.55838089152326,73.2739420935412,63.525835866261396,978400.0,3024.0,980000.0,0.849338856964037,0.5974870198211872,0.0,0.0,0.0
5000000.0,17.0,1.1175748012546038E-7,5000000.0,89.60000000000001,77.17536343844371,76.7337807606264,69.94219653179191,998400.0,3024.0,1000000.0,0.8325340022848475,0.7832894154912883,0.0,0.0,0.0
5100000.0,17.328125,1.138619781057868E-7,5100000.0,65.0,30.516677982521973,23.580786026200872,1.960784313725492,19085.0,3024.0,1020000.0,0.6427025096622345,0.6453469037089439,0.0,1.0,9.0
5200000.0,17.640625,1.1586626189657386E-7,5200000.0,71.8,42.05757258213646,40.254237288135585,25.59366754617414,39085.0,3024.0,1040000.0,0.5817816139385726,0.5229787781650623,0.0,0.0,0.0
5300000.0,17.984375,1.1807097406643963E-7,5300000.0,68.4,33.86575585581062,36.290322580645174,17.27748691099478,59085.0,3024.0,1060000.0,0.5993601268572616,0.5112799876164154,0.0,0.0,0.0
5400000.0,18.3125,1.2017547204676606E-7,5400000.0,70.3,37.342300908853076,39.87854251012145,18.852459016393432,79085.0,3024.0,1080000.0,0.564577204617444,0.5677796659587045,0.0,0.0,0.0
5500000.0,18.65625,1.2238018421663182E-7,5500000.0,69.3,37.875378413818765,35.639412997903555,21.683673469387745,99085.0,3024.0,1100000.0,0.5701753620791606,0.5668257195944745,0.0,0.0,0.0
5600000.0,18.984375,1.2448468219695825E-7,5600000.0,68.5,35.75099942889777,34.237995824634666,19.64285714285716,119085.0,3024.0,1120000.0,0.5992099966365152,0.5241679280794359,0.0,0.0,0.0
5700000.0,19.328125,1.26689394366824E-7,5700000.0,66.60000000000001,31.614551768193806,27.233115468409586,7.734806629834261,139085.0,3024.0,1140000.0,0.587354143306328,0.5682110314950479,0.0,0.0,0.0
5800000.0,19.65625,1.2879389234715043E-7,5800000.0,68.5,35.09651045873375,31.96544276457884,12.256267409470764,159085.0,3024.0,1160000.0,0.5423664047033593,0.5416130669609017,0.0,0.0,0.0
5900000.0,20.0,1.309986045170162E-7,5900000.0,69.89999999999999,38.9323508407453,38.06584362139917,22.62210796915166,179085.0,3024.0,1180000.0,0.5699849434969817,0.5486756959659314,0.0,0.0,0.0
6000000.0,20.328125,1.3310310249734262E-7,6000000.0,69.3,38.222912658869724,35.36842105263157,21.48337595907927,199085.0,3024.0,1200000.0,0.5756367222765724,0.5462681542637163,0.0,0.0,0.0
6100000.0,20.671875,1.3530781466720838E-7,6100000.0,69.1,37.393629953805,33.690987124463504,19.740259740259727,219085.0,3024.0,1220000.0,0.5586606784184164,0.553819974581437,0.0,0.0,0.0
6200000.0,21.0,1.374123126475348E-7,6200000.0,72.5,43.153159857448784,42.827442827442816,25.47425474254742,239085.0,3024.0,1240000.0,0.5586140293054419,0.5303235810936475,0.0,0.0,0.0
6300000.0,21.328125,1.3951681062786123E-7,6300000.0,70.1,38.747582680520495,41.82879377431906,24.494949494949488,259085.0,3024.0,1260000.0,0.5641530579286279,0.5578477202418108,0.0,0.0,0.0
6400000.0,21.65625,1.4162130860818766E-7,6400000.0,70.3,38.23052285678632,31.72413793103448,18.18181818181817,279085.0,3024.0,1280000.0,0.5811989245894493,0.5460550625277671,0.0,0.0,0.0
6500000.0,21.984375,1.4372580658851408E-7,6500000.0,71.3,40.99991776992023,36.222222222222214,25.83979328165374,299085.0,3024.0,1300000.0,0.5640588463902598,0.516416968279468,0.0,0.0,0.0
6600000.0,22.3125,1.458303045688405E-7,6600000.0,67.7,34.58678288482414,29.78260869565218,16.966580976863767,319085.0,3024.0,1320000.0,0.5869128851169795,0.5351327936874354,0.0,0.0,0.0
6700000.0,22.65625,1.4803501673870627E-7,6700000.0,71.5,41.225479682576335,39.10256410256409,26.73521850899742,339085.0,3024.0,1340000.0,0.5419589441952057,0.5120573541277974,0.0,0.0,0.0
6800000.0,22.984375,1.501395147190327E-7,6800000.0,69.8,38.12312269242273,37.731958762886585,21.148825065274142,359085.0,3024.0,1360000.0,0.563917558581267,0.5629300468887292,0.0,0.0,0.0
6900000.0,23.328125,1.5234422688889845E-7,6900000.0,68.30000000000001,35.33198965311835,31.82795698924732,17.8756476683938,379085.0,3024.0,1380000.0,0.5752042669671354,0.5123825096249589,0.0,0.0,0.0
7000000.0,23.65625,1.5444872486922488E-7,7000000.0,70.89999999999999,39.813857290589446,37.284482758620676,22.399999999999988,399085.0,3024.0,1400000.0,0.563823386370449,0.5515749327713817,0.0,0.0,0.0
7100000.0,23.984375,1.565532228495513E-7,7100000.0,71.89999999999999,42.328216074213934,43.002028397565915,26.822916666666664,419085.0,3024.0,1420000.0,0.5526676856804399,0.5385311372184529,0.0,0.0,0.0
7200000.0,24.328125,1.5875793501941707E-7,7200000.0,71.1,39.46883378016085,39.157894736842096,19.49860724233982,439085.0,3024.0,1440000.0,0.5637292298860646,0.5027869786267402,0.0,0.0,0.0
7300000.0,24.640625,1.6076221881020413E-7,7300000.0,71.5,41.973629559651094,34.633027522935784,22.131147540983594,459085.0,3024.0,1460000.0,0.5581011460796521,0.5029361488412939,0.0,0.0,0.0
7400000.0,24.984375,1.629669309800699E-7,7400000.0,72.3,43.876227834149184,44.265593561368206,30.05050505050505,479085.0,3024.0,1480000.0,0.5580545436885642,0.5340736814422691,0.0,0.0,0.0
7500000.0,25.328125,1.6517164314993565E-7,7500000.0,66.7,33.07555026769781,31.622176591375776,16.54135338345866,499085.0,3024.0,1500000.0,0.5524831140483881,0.5499215388983131,0.0,0.0,0.0
7600000.0,25.671875,1.673763553198014E-7,7600000.0,67.9,34.94386121357059,30.818965517241388,20.93596059113302,519085.0,3024.0,1520000.0,0.5579613505802219,0.5523275448952175,0.0,0.0,0.0
7700000.0,26.0,1.6948085330012784E-7,7700000.0,70.5,38.21575477309474,33.558558558558545,20.054200542005407,539085.0,3024.0,1540000.0,0.5523908513488165,0.5085701593636375,0.0,0.0,0.0
7800000.0,26.34375,1.716855654699936E-7,7800000.0,71.8,42.13699169809461,38.69565217391303,23.989218328840963,559085.0,3024.0,1560000.0,0.5747721365459155,0.5643605200969735,0.0,0.0,0.0
7900000.0,26.671875,1.7379006345032002E-7,7900000.0,70.39999999999999,38.82780854757377,39.83739837398373,19.999999999999986,579085.0,3024.0,1580000.0,0.5633998059983366,0.5645128179033987,0.0,0.0,0.0
8000000.0,27.015625,1.7599477562018578E-7,8000000.0,69.39999999999999,37.239780954529586,34.05172413793102,20.930232558139526,599085.0,3024.0,1600000.0,0.5746761516595031,0.5553278071822435,0.0,0.0,0.0
8100000.0,27.359375,1.7819948779005154E-7,8100000.0,68.60000000000001,36.13732508948911,33.75527426160338,20.707070707070724,619085.0,3024.0,1620000.0,0.5577284358914334,0.5440807042616397,0.0,0.0,0.0
8200000.0,27.71875,1.8050441414945667E-7,8200000.0,68.2,34.80266529984625,33.47280334728035,15.200000000000014,639085.0,3024.0,1640000.0,0.5745801828022097,0.5240983605327415,0.0,0.0,0.0
8300000.0,28.046875,1.826089121297831E-7,8300000.0,69.39999999999999,37.12630216359488,36.51452282157675,19.26121372031661,659085.0,3024.0,1660000.0,0.5745322043836495,0.5676980224378846,0.0,0.0,0.0
8400000.0,28.375,1.8471341011010952E-7,8400000.0,70.0,37.739960568641685,37.75933609958505,20.84432717678099,679085.0,3024.0,1680000.0,0.5802290722710928,0.5175269396470042,0.0,0.0,0.0
8500000.0,28.71875,1.8691812227997528E-7,8500000.0,68.8,36.382617773717854,30.82039911308202,21.2121212121212,699085.0,3024.0,1700000.0,0.5520219546002381,0.5004693562831245,0.0,0.0,0.0
8600000.0,29.0625,1.8912283444984104E-7,8600000.0,69.89999999999999,38.211796004499654,33.700440528634346,20.99737532808398,719085.0,3024.0,1720000.0,0.5630705746145784,0.5558234693240994,0.0,0.0,0.0
8700000.0,29.390625,1.9122733243016746E-7,8700000.0,68.89999999999999,36.38520700376369,32.53796095444684,13.850415512465355,739085.0,3024.0,1740000.0,0.5630235572677948,0.5233129189859277,0.0,0.0,0.0
8800000.0,29.71875,1.933318304104939E-7,8800000.0,67.60000000000001,33.98936495324247,27.516778523489936,12.195121951219523,759085.0,3024.0,1760000.0,0.5629765438470385,0.5597567402668783,0.0,0.0,0.0
8900000.0,30.0625,1.9553654258035965E-7,8900000.0,69.5,37.76577076582788,35.78947368421051,16.66666666666665,779085.0,3024.0,1780000.0,0.5518375986197256,0.5496322136017673,0.0,0.0,0.0
9000000.0,30.40625,1.9781310887386417E-7,9000000.0,70.0,39.127329394195165,37.1069182389937,22.68041237113401,799085.0,3024.0,1800000.0,0.5628825287822943,0.5329150675428131,0.0,0.0,43.0
9100000.0,30.734375,1.999861948813003E-7,9100000.0,69.3,37.94319073069366,34.81953290870487,17.914438502673782,819085.0,3024.0,1820000.0,0.5572628981560982,0.5450503416812573,0.0,0.0,0.0
9200000.0,31.0625,2.0215928088873642E-7,9200000.0,69.0,37.591850703601544,33.76068376068375,20.7161125319693,839085.0,3024.0,1840000.0,0.5741005788590352,0.5630095388736492,0.0,0.0,0.0
9300000.0,31.390625,2.0433236689617254E-7,9300000.0,71.39999999999999,42.264211886304906,39.019189765458414,25.520833333333325,859085.0,3024.0,1860000.0,0.5627415356222151,0.5352929766306516,0.0,0.0,0.0
9400000.0,31.734375,2.0660893318967706E-7,9400000.0,69.6,38.483455287185116,36.13445378151259,23.232323232323225,879085.0,3024.0,1880000.0,0.5571233126245105,0.5415224029770853,0.0,0.0,0.0
9500000.0,32.09375,2.0898897976924993E-7,9500000.0,68.0,34.34335144362556,30.43478260869566,4.19161676646707,899085.0,3024.0,1900000.0,0.573956775755057,0.5707424102604531,0.0,0.0,0.0
9600000.0,32.421875,2.1116206577668606E-7,9600000.0,70.1,38.63293051359516,34.28571428571427,18.52861035422342,919085.0,3024.0,1920000.0,0.5570302750284093,0.557390917789113,0.0,0.0,99.0
9700000.0,32.765625,2.1343863207019057E-7,9700000.0,67.9,34.928563319981194,31.991525423728824,14.6276595744681,939085.0,3024.0,1940000.0,0.5853955316642806,0.5893223310824436,0.0,0.0,18.0
9800000.0,33.109375,2.157151983636951E-7,9800000.0,70.0,39.5736315441757,37.23849372384936,19.78609625668448,959085.0,3024.0,1960000.0,0.5681316917539349,0.541272240975786,0.0,0.0,0.0
9900000.0,33.5,2.1830220551540475E-7,9900000.0,67.7,33.80713489409142,31.85654008438819,13.172043010752699,979084.0,3024.0,1979999.0,0.5681410659018958,0.6283432433281663,0.0,0.0,0.0
1.0E7,33.84375,2.2057877180890926E-7,1.0E7,69.19999999999999,37.58207551758239,33.333333333333314,17.6470588235294,999085.0,3024.0,2000000.0,0.5568442464444524,0.5444017952873845,0.0,0.0,0.0
