learning evaluation instances,evaluation time (cpu seconds),model cost (RAM-Hours),classified instances,classifications correct (percent),Kappa Statistic (percent),Kappa Temporal Statistic (percent),Kappa M Statistic (percent),model training instances,model serialized size (bytes),labeling cost,newThreshold,maxPosterior,accuracyBaseLearner (percent),Change detected,Warning detected
100000.0,0.34375,2.113649518125587E-9,100000.0,73.6,45.93155426301021,44.76987447698744,38.74709976798144,19869.0,3024.0,20000.0,0.7345158078878569,0.5929853506427382,0.0,1.0,4.0
200000.0,0.703125,4.323374014347792E-9,200000.0,83.6,66.7919393507419,68.15533980582524,63.71681415929202,39869.0,3024.0,40000.0,0.749217009512621,0.6290304551262421,0.0,0.0,0.0
300000.0,1.03125,6.340948554376761E-9,300000.0,84.5,68.65038913968576,67.77546777546777,66.2309368191721,59869.0,3024.0,60000.0,0.7343931463809507,0.6211171522016913,0.0,0.0,0.0
400000.0,1.375,8.454598072502349E-9,400000.0,81.89999999999999,63.431388395021806,64.2292490118577,60.65217391304346,79869.0,3024.0,80000.0,0.8031279004167621,0.786999226205557,0.0,0.0,0.0
500000.0,1.71875,1.0568247590627936E-8,500000.0,82.19999999999999,64.02194257255238,62.99376299376298,61.555075593952466,99869.0,3024.0,100000.0,0.8030608378766272,0.7977628475547296,0.0,0.0,0.0
600000.0,2.046875,1.2585822130656906E-8,600000.0,82.1,63.676948051948045,64.76377952755905,60.398230088495566,119869.0,3024.0,120000.0,0.7950433474617141,0.5850288092302887,0.0,0.0,0.0
700000.0,2.375,1.4603396670685875E-8,700000.0,84.6,68.58540486069464,68.50715746421268,64.43418013856814,139869.0,3024.0,140000.0,0.8355287745531838,0.8211160792581175,0.0,0.0,0.0
800000.0,2.703125,1.6620971210714846E-8,800000.0,82.0,63.44019628552393,63.85542168674698,59.2760180995475,159869.0,3024.0,160000.0,0.8354590064851931,0.599758716712779,0.0,0.0,0.0
900000.0,3.03125,1.8638545750743816E-8,900000.0,82.89999999999999,65.74107464839523,64.07563025210084,65.73146292585169,179869.0,3024.0,180000.0,0.8437431366853763,0.8160186941683233,0.0,0.0,0.0
1000000.0,3.359375,2.0656120290772787E-8,1000000.0,83.6,66.8752449010095,68.09338521400777,64.11378555798686,199868.0,3024.0,199999.0,0.8780169784473206,0.939205997465944,0.0,0.0,0.0
1100000.0,3.734375,2.296191976509161E-8,1100000.0,82.69999999999999,65.13052872599448,66.53771760154739,63.34745762711863,219869.0,3024.0,220000.0,0.8866344268578266,0.5925649748159043,0.0,0.0,0.0
1200000.0,4.125,2.536379421750705E-8,1200000.0,82.8,65.32803309157028,65.1821862348178,62.85097192224621,239869.0,3024.0,240000.0,0.8435317923904987,0.847928828426081,0.0,0.0,0.0
1300000.0,4.453125,2.7381368757536022E-8,1300000.0,80.30000000000001,60.433186313497714,61.74757281553399,59.21325051759835,259869.0,3024.0,260000.0,0.8777092693928918,0.5619552672457545,0.0,0.0,0.0
1400000.0,4.796875,2.9495018275661608E-8,1400000.0,82.1,64.1684682520618,66.09848484848484,64.05622489959838,279868.0,3024.0,279999.0,0.9133628555427468,0.9431251598487422,0.0,0.0,0.0
1500000.0,5.125,3.151259281569058E-8,1500000.0,82.89999999999999,65.6904840250078,63.77118644067795,64.22594142259413,299869.0,3024.0,300000.0,0.8185185698490226,0.5984078179017849,0.0,0.0,0.0
1600000.0,5.453125,3.3530167355719546E-8,1600000.0,83.0,65.95096939593013,67.05426356589147,64.73029045643153,319869.0,3024.0,320000.0,0.8432500823436644,0.847964276758052,0.0,0.0,0.0
1700000.0,5.796875,3.564381687384513E-8,1700000.0,81.3,62.302339270882875,60.465116279069754,58.81057268722465,339869.0,3024.0,340000.0,0.8516114662287196,0.7833733332416252,0.0,0.0,0.0
1800000.0,6.125,3.76613914138741E-8,1800000.0,83.5,66.62432338401042,67.77343749999999,63.973799126637545,359868.0,3024.0,359999.0,0.8687431906878854,0.9027938802083002,0.0,0.0,0.0
1900000.0,6.484375,3.9871115910096304E-8,1900000.0,82.5,64.55538272085033,64.99999999999999,61.19733924611972,379869.0,3024.0,380000.0,0.8346919421298035,0.6407261162302746,0.0,0.0,0.0
2000000.0,6.890625,4.2369065340608364E-8,2000000.0,82.5,64.70948850940945,64.50304259634888,61.19733924611972,399869.0,3024.0,400000.0,0.8685112538778355,0.7502598106159727,0.0,0.0,0.0
2100000.0,7.21875,4.438663988063733E-8,2100000.0,82.39999999999999,64.62041321749197,65.00994035785287,62.790697674418595,419869.0,3024.0,420000.0,0.8947532937267049,0.6281779620456802,0.0,0.0,0.0
2200000.0,7.546875,4.64042144206663E-8,2200000.0,83.1,66.16426946855879,66.66666666666666,65.29774127310061,439869.0,3024.0,440000.0,0.8512559706026702,0.7075862183684236,0.0,0.0,0.0
2300000.0,7.921875,4.871001389498512E-8,2300000.0,81.10000000000001,62.07895602764023,62.57425742574259,60.5427974947808,459869.0,3024.0,460000.0,0.8857464090436215,0.6665083873743824,0.0,0.0,0.0
2400000.0,8.265625,5.082366341311071E-8,2400000.0,84.7,69.27809548287604,70.29126213592232,67.3773987206823,479869.0,3024.0,480000.0,0.8596249520461237,0.8423260264148423,0.0,0.0,0.0
2500000.0,8.59375,5.2841237953139675E-8,2500000.0,82.8,65.35052377115228,66.34050880626222,62.931034482758605,499869.0,3024.0,500000.0,0.8510427444618694,0.5400919500743079,0.0,0.0,0.0
2600000.0,8.921875,5.485881249316864E-8,2600000.0,82.3,64.46011501268994,66.02687140115162,62.815126050420155,519869.0,3024.0,520000.0,0.9033235869204095,0.7018138764328227,0.0,0.0,0.0
2700000.0,9.265625,5.697246201129423E-8,2700000.0,83.2,66.13927239746043,68.0,63.870967741935466,539868.0,3024.0,539999.0,0.9033384917199258,0.9330787433450821,0.0,0.0,0.0
2800000.0,9.609375,5.9086111529419815E-8,2800000.0,82.0,63.78633940247459,63.78269617706236,62.10526315789473,559869.0,3024.0,560000.0,0.8679312461226658,0.7598916688328469,0.0,0.0,0.0
2900000.0,9.953125,6.11997610475454E-8,2900000.0,82.1,64.10120652034398,63.7651821862348,63.01652892561982,579869.0,3024.0,580000.0,0.8765373601173447,0.6899525999120525,0.0,0.0,0.0
3000000.0,10.3125,6.34094855437676E-8,3000000.0,84.3,68.3109962861295,67.29166666666666,64.55981941309254,599869.0,3024.0,600000.0,0.8677863047158271,0.8738711672824658,0.0,0.0,0.0
3100000.0,10.640625,6.542706008379657E-8,3100000.0,82.5,64.88679502716758,66.15087040618954,63.080168776371295,619869.0,3024.0,620000.0,0.8851548913355172,0.8349886089394131,0.0,0.0,0.0
3200000.0,10.984375,6.754070960192217E-8,3200000.0,83.5,66.78583506449586,65.04237288135593,64.818763326226,639869.0,3024.0,640000.0,0.8763178013888185,0.7764652808138279,0.0,0.0,0.0
3300000.0,11.296875,6.946220916385452E-8,3300000.0,82.1,64.01113041240428,65.70881226053639,61.75213675213674,659869.0,3024.0,660000.0,0.9027957158218546,0.7871101566649218,0.0,0.0,0.0
3400000.0,11.640625,7.157585868198011E-8,3400000.0,83.0,65.86879966591577,66.66666666666666,63.75266524520254,679869.0,3024.0,680000.0,0.8674964945121798,0.8651560277772806,0.0,0.0,0.0
3500000.0,11.96875,7.359343322200908E-8,3500000.0,83.1,65.91037454210975,65.85858585858585,63.57758620689654,699869.0,3024.0,700000.0,0.8760982976562737,0.8314681354982669,0.0,0.0,0.0
3600000.0,12.3125,7.570708274013467E-8,3600000.0,82.89999999999999,65.69874268841619,65.24390243902438,64.52282157676348,719869.0,3024.0,720000.0,0.8847853933840039,0.8765896585545913,0.0,0.0,0.0
3700000.0,12.640625,7.772465728016364E-8,3700000.0,82.8,65.20542957133898,64.38923395445134,62.19780219780219,739869.0,3024.0,740000.0,0.8501903738626689,0.5124025266036786,0.0,0.0,0.0
3800000.0,12.984375,7.983830679828923E-8,3800000.0,84.5,68.77216169170265,68.43177189409369,66.88034188034187,759869.0,3024.0,760000.0,0.8758788489059173,0.5473085771051426,0.0,0.0,0.0
3900000.0,13.3125,8.18558813383182E-8,3900000.0,83.5,66.93015649050794,67.39130434782608,65.9090909090909,779869.0,3024.0,780000.0,0.8934094063402753,0.8472411859297898,0.0,0.0,0.0
4000000.0,13.640625,8.387345587834717E-8,4000000.0,82.3,64.43240549469097,65.42968749999999,62.340425531914875,799869.0,3024.0,800000.0,0.8499774146369848,0.780779133653261,0.0,0.0,0.0
4100000.0,13.96875,8.589103041837614E-8,4100000.0,81.89999999999999,63.42784171731539,65.65464895635674,59.95575221238937,819869.0,3024.0,820000.0,0.9203268878004295,0.8181383373377354,0.0,0.0,0.0
4200000.0,14.3125,8.800467993650173E-8,4200000.0,83.6,67.03544092107802,67.39562624254472,65.40084388185653,839869.0,3024.0,840000.0,0.8330903553138368,0.6737677535349872,0.0,0.0,0.0
4300000.0,14.640625,9.00222544765307E-8,4300000.0,83.3,66.39433331991789,67.12598425196849,64.16309012875536,859869.0,3024.0,860000.0,0.9110625708012482,0.6349566229108079,0.0,0.0,0.0
4400000.0,14.96875,9.203982901655966E-8,4400000.0,81.39999999999999,62.693602153341324,59.91379310344826,61.006289308176086,879869.0,3024.0,880000.0,0.8581904874980955,0.780566135808545,0.0,0.0,0.0
4500000.0,15.3125,9.415347853468526E-8,4500000.0,81.6,63.00763972657819,61.66666666666666,61.181434599156105,899869.0,3024.0,900000.0,0.8841206857198018,0.6912527430455753,0.0,0.0,0.0
4600000.0,15.640625,9.617105307471422E-8,4600000.0,82.6,65.0068377443488,66.34429400386847,62.97872340425531,919868.0,3024.0,919999.0,0.9479126829488559,0.974576277411191,0.0,0.0,0.0
4700000.0,15.984375,9.828470259283982E-8,4700000.0,84.39999999999999,68.43063847010016,66.94915254237287,65.71428571428571,939869.0,3024.0,940000.0,0.8665552796143421,0.7550987978748439,0.0,0.0,0.0
4800000.0,16.3125,1.0030227713286878E-7,4800000.0,81.3,62.42203073757313,63.33333333333332,60.04273504273503,959869.0,3024.0,960000.0,0.8927382197631898,0.6243191963799468,0.0,0.0,0.0
4900000.0,16.640625,1.0231985167289775E-7,4900000.0,84.0,67.64591691471463,67.67676767676767,65.36796536796537,979869.0,3024.0,980000.0,0.9015903113557134,0.6588926452495872,0.0,0.0,0.0
5000000.0,16.984375,1.0443350119102334E-7,5000000.0,82.0,63.83799421407906,63.636363636363626,62.499999999999986,999869.0,3024.0,1000000.0,0.9105301773078583,0.7536421246363604,0.0,0.0,0.0
5100000.0,17.328125,1.0654501642824876E-7,5100000.0,73.8,46.48692810457516,42.5438596491228,29.189189189189186,19484.0,3024.0,1020000.0,0.6300387311657627,0.6235610708537735,0.0,1.0,66.0
5200000.0,17.671875,1.0865653166547419E-7,5200000.0,78.9,56.7040940280377,54.52586206896552,45.478036175710606,39484.0,3024.0,1040000.0,0.6054042804087164,0.5979709069725532,0.0,0.0,0.0
5300000.0,18.015625,1.107680469026996E-7,5300000.0,76.7,52.59139889963214,52.05761316872428,41.161616161616166,59484.0,3024.0,1060000.0,0.6490211324534495,0.5689168182363695,0.0,0.0,0.0
5400000.0,18.328125,1.1268760620926818E-7,5400000.0,80.10000000000001,56.90588591970203,57.56929637526653,46.216216216216225,79484.0,3024.0,1080000.0,0.5875013030794771,0.5910020636651087,0.0,0.0,0.0
5500000.0,18.65625,1.1470314348116517E-7,5500000.0,76.6,51.4105476488104,52.53549695740365,42.50614250614252,99484.0,3024.0,1100000.0,0.587452245725486,0.5890997144033162,0.0,0.0,0.0
5600000.0,19.03125,1.1700661464904745E-7,5600000.0,76.9,51.525580224115494,49.45295404814004,40.00000000000001,119483.0,3024.0,1119999.0,0.6554126898355513,0.7227779491473155,0.0,0.0,0.0
5700000.0,19.34375,1.1892617395561603E-7,5700000.0,75.3,48.37388178245966,44.618834080717484,31.38888888888889,139484.0,3024.0,1140000.0,0.668463803731542,0.5290155265997117,0.0,0.0,0.0
5800000.0,19.6875,1.210398234737416E-7,5800000.0,77.0,52.64761591040106,52.38095238095239,42.21105527638191,159484.0,3024.0,1160000.0,0.6051010300221807,0.5374491190113875,0.0,0.0,39.0
5900000.0,20.03125,1.231534729918672E-7,5900000.0,75.5,49.83332377777596,49.27536231884058,38.44221105527639,179484.0,3024.0,1180000.0,0.6486960341420082,0.5806380791955353,0.0,0.0,0.0
6000000.0,20.359375,1.2517104753189618E-7,6000000.0,73.7,47.74239184860792,43.8034188034188,35.696821515892424,40850.0,3024.0,1200000.0,0.6233320847229195,0.6139598010239494,0.0,1.0,24.0
6100000.0,20.703125,1.2728469705002177E-7,6100000.0,74.6,48.96318919787815,43.42984409799554,33.85416666666667,14704.0,3024.0,1220000.0,0.5989598631644394,0.5850886257880529,0.0,4.0,22.0
6200000.0,21.03125,1.2930227159005075E-7,6200000.0,77.0,51.71820223775636,50.43103448275862,36.28808864265928,34704.0,3024.0,1240000.0,0.6109479369661946,0.5656635842449048,0.0,0.0,0.0
6300000.0,21.359375,1.3131984613007973E-7,6300000.0,80.4,58.76861197477313,59.25155925155926,49.35400516795867,54704.0,3024.0,1260000.0,0.6294077094053745,0.6064424593034602,0.0,0.0,0.0
6400000.0,21.6875,1.3333742067010872E-7,6400000.0,80.4,58.358297109300985,54.9425287356322,46.00550964187329,74704.0,3024.0,1280000.0,0.635648704323421,0.5727802299238438,0.0,0.0,0.0
6500000.0,22.015625,1.353549952101377E-7,6500000.0,81.5,61.253947908550934,58.333333333333314,49.86449864498643,94704.0,3024.0,1300000.0,0.6355956265798746,0.5341073953396317,0.0,0.0,0.0
6600000.0,22.328125,1.3727649477207004E-7,6600000.0,79.5,57.48087676506215,56.75105485232068,46.61458333333334,114704.0,3024.0,1320000.0,0.6418979788010929,0.5581455689757691,0.0,0.0,0.0
6700000.0,22.671875,1.3939014429019563E-7,6700000.0,81.39999999999999,61.842709906124846,59.740259740259724,53.73134328358208,134704.0,3024.0,1340000.0,0.5927325156658264,0.597855307472128,0.0,0.0,0.0
6800000.0,22.984375,1.4131164385212797E-7,6800000.0,80.9,60.65425181278841,57.07865168539327,50.77319587628868,154704.0,3024.0,1360000.0,0.6045959502288125,0.5884025400010745,0.0,0.0,0.0
6900000.0,23.328125,1.4342529337025357E-7,6900000.0,81.5,61.7135761589404,61.052631578947356,52.319587628865975,174704.0,3024.0,1380000.0,0.6045454654428244,0.5089650477931351,0.0,0.0,0.0
7000000.0,23.65625,1.4544286791028255E-7,7000000.0,82.69999999999999,63.57005079135114,63.73165618448636,52.2099447513812,194704.0,3024.0,1400000.0,0.616645334068342,0.581015448823584,0.0,0.0,0.0
7100000.0,23.96875,1.473643674722149E-7,7100000.0,81.3,60.887170992085395,61.914460285132364,50.918635170603665,214704.0,3024.0,1420000.0,0.6044445085172062,0.5236539157344859,0.0,0.0,0.0
7200000.0,24.3125,1.4947801699034048E-7,7200000.0,80.7,59.39885054569629,60.85192697768763,48.94179894179895,234704.0,3024.0,1440000.0,0.6043940363768638,0.5151616534385184,0.0,0.0,0.0
7300000.0,24.640625,1.5149559153036946E-7,7300000.0,80.4,59.00181981718159,58.909853249475894,47.16981132075473,254704.0,3024.0,1460000.0,0.6164908741769103,0.5941935032289023,0.0,0.0,0.0
7400000.0,24.96875,1.5351316607039844E-7,7400000.0,81.0,60.8279729506845,60.167714884696025,51.2820512820513,274704.0,3024.0,1480000.0,0.5749641544168538,0.5552457301235199,0.0,0.0,0.0
7500000.0,25.28125,1.5543466563233079E-7,7500000.0,81.10000000000001,61.293335080935854,59.78723404255321,53.217821782178234,294704.0,3024.0,1500000.0,0.5923366780134296,0.5834978976213302,0.0,0.0,0.0
7600000.0,25.609375,1.5745224017235977E-7,7600000.0,80.0,58.90591097376554,58.93223819301849,49.49494949494951,314704.0,3024.0,1520000.0,0.6224998175049686,0.6177559600760346,0.0,0.0,0.0
7700000.0,25.9375,1.5946981471238875E-7,7700000.0,79.7,56.68021032504781,56.06060606060607,42.97752808988765,334704.0,3024.0,1540000.0,0.6286723160928962,0.6118726622412405,0.0,0.0,0.0
7800000.0,26.28125,1.6158346423051434E-7,7800000.0,82.0,62.40208877284594,61.29032258064515,51.99999999999999,354704.0,3024.0,1560000.0,0.6040912920272029,0.587491629667923,0.0,0.0,0.0
7900000.0,26.609375,1.6360103877054332E-7,7900000.0,81.6,61.15504625505089,62.753036437246955,51.19363395225462,374704.0,3024.0,1580000.0,0.616182070453606,0.6061263864126465,0.0,0.0,0.0
8000000.0,26.953125,1.657146882886689E-7,8000000.0,80.60000000000001,59.97375598846255,58.81104033970277,50.128534704370196,394704.0,3024.0,1600000.0,0.628514843632919,0.5937632743295583,0.0,0.0,0.0
8100000.0,27.265625,1.6763618785060126E-7,8100000.0,79.80000000000001,57.86628176194033,54.50450450450452,45.84450402144773,414704.0,3024.0,1620000.0,0.5861781913484492,0.5836791426672867,0.0,0.0,0.0
8200000.0,27.59375,1.6965376239063024E-7,8200000.0,79.3,56.89511561271408,58.68263473053893,47.85894206549119,434704.0,3024.0,1640000.0,0.6099284421805502,0.5376727568934176,0.0,0.0,0.0
8300000.0,27.921875,1.7167133693065922E-7,8300000.0,79.4,57.7146188362899,57.08333333333334,49.3857493857494,454704.0,3024.0,1660000.0,0.6159762872436735,0.5807063222065538,0.0,0.0,0.0
8400000.0,28.25,1.736889114706882E-7,8400000.0,80.4,59.15934938343121,56.152125279642064,48.2849604221636,474704.0,3024.0,1680000.0,0.5978105933899609,0.560501511491459,0.0,0.0,0.0
8500000.0,28.578125,1.7570648601071718E-7,8500000.0,79.7,58.17020399752732,55.9652928416486,48.60759493670888,494704.0,3024.0,1700000.0,0.6158734214117809,0.5117423055865657,0.0,0.0,0.0
8600000.0,28.90625,1.7772406055074616E-7,8600000.0,80.5,59.91580262952336,60.365853658536594,51.49253731343285,514704.0,3024.0,1720000.0,0.6219802148872304,0.5608192947729369,0.0,0.0,0.0
8700000.0,29.234375,1.7974163509077514E-7,8700000.0,80.7,59.76316557561607,58.49462365591399,50.12919896640828,534704.0,3024.0,1740000.0,0.6219282784856931,0.5252101730200559,0.0,0.0,0.0
8800000.0,29.5625,1.8175920963080412E-7,8800000.0,80.5,59.66340664250609,56.85840707964602,50.12787723785168,554704.0,3024.0,1760000.0,0.5858356490631352,0.5888632673731357,0.0,0.0,0.0
8900000.0,29.90625,1.838728591489297E-7,8900000.0,81.10000000000001,60.697382320892366,59.52890792291221,50.523560209424105,574704.0,3024.0,1780000.0,0.6156677412797981,0.522060799038866,0.0,0.0,0.0
9000000.0,30.234375,1.858904336889587E-7,9000000.0,80.4,58.79184414907262,58.29787234042554,46.88346883468836,594704.0,3024.0,1800000.0,0.6034862581908728,0.5937030191459992,0.0,0.0,0.0
9100000.0,30.5625,1.8790800822898767E-7,9100000.0,81.5,61.30419504359029,59.869848156182194,49.7282608695652,614704.0,3024.0,1820000.0,0.6217205762437146,0.6098500823430509,0.0,0.0,0.0
9200000.0,30.890625,1.8992558276901666E-7,9200000.0,80.5,59.569068471337594,57.974137931034484,49.742268041237125,634704.0,3024.0,1840000.0,0.6094193329305438,0.5939855547698799,0.0,0.0,0.0
9300000.0,31.21875,1.9194315730904564E-7,9300000.0,81.89999999999999,62.66039526344019,61.571125265392766,53.7084398976982,654704.0,3024.0,1860000.0,0.5914470095476322,0.5165633565754211,0.0,0.0,0.0
9400000.0,31.5625,1.9405680682717123E-7,9400000.0,81.6,62.23053332950164,61.42557651991613,54.79115479115478,674704.0,3024.0,1880000.0,0.615410737707385,0.529611490704255,0.0,0.0,0.0
9500000.0,31.890625,1.960743813672002E-7,9500000.0,78.2,54.24474444220566,54.00843881856541,41.3978494623656,694703.0,3024.0,1899999.0,0.6532816779137423,0.9619645010420369,0.0,0.0,0.0
9600000.0,32.21875,1.980919559072292E-7,9600000.0,82.89999999999999,63.97117694155323,61.999999999999986,52.367688022284106,714704.0,3024.0,1920000.0,0.6214610459834254,0.5580028906445227,0.0,0.0,0.0
9700000.0,32.546875,2.0010953044725817E-7,9700000.0,80.5,59.30615958663407,58.15450643776825,48.548812664907665,734704.0,3024.0,1940000.0,0.6214091529333833,0.5987294752548189,0.0,0.0,0.0
9800000.0,32.875,2.0212710498728715E-7,9800000.0,80.0,57.94078061911172,57.08154506437769,45.054945054945065,754704.0,3024.0,1960000.0,0.6275708368586635,0.5225618349178967,0.0,0.0,0.0
9900000.0,33.203125,2.0414467952731613E-7,9900000.0,81.0,59.36698032506417,59.40170940170941,43.78698224852072,774704.0,3024.0,1980000.0,0.6030328805197678,0.5529116575842922,0.0,0.0,0.0
1.0E7,33.5625,2.0635440402353834E-7,1.0E7,80.60000000000001,59.184016965983886,59.243697478991606,48.128342245989316,794704.0,3024.0,2000000.0,0.5911013883469711,0.501271511137335,0.0,0.0,0.0
