learning evaluation instances,evaluation time (cpu seconds),model cost (RAM-Hours),classified instances,classifications correct (percent),Kappa Statistic (percent),Kappa Temporal Statistic (percent),Kappa M Statistic (percent),model training instances,model serialized size (bytes),labeling cost,newThreshold,maxPosterior,accuracyBaseLearner (percent),Change detected,Warning detected
100000.0,0.296875,1.1133185277382534E-9,100000.0,62.8,25.576184379001273,23.140495867768593,24.848484848484848,20000.0,2904.0,20000.0,1.0,0.5358334127184251,0.0,0.0,12.0
200000.0,0.59375,2.223564984483851E-9,200000.0,61.8,22.898375214451498,18.723404255319142,20.416666666666664,40000.0,2904.0,40000.0,1.0,0.5214556935100327,0.0,0.0,27.0
300000.0,0.890625,3.333811441229449E-9,300000.0,61.0,21.866548064093465,22.92490118577075,20.40816326530612,60000.0,2904.0,60000.0,1.0,0.5120770518652907,0.0,0.0,0.0
400000.0,1.1875,4.444057897975047E-9,400000.0,60.4,20.418966009252294,20.799999999999997,17.327766179540703,80000.0,2904.0,80000.0,1.0,0.5622903118663236,0.0,0.0,0.0
500000.0,1.484375,5.554304354720645E-9,500000.0,62.0,23.3932747359084,23.076923076923077,19.14893617021276,100000.0,2904.0,100000.0,1.0,0.6192045019880573,0.0,0.0,0.0
600000.0,1.78125,6.664550811466243E-9,600000.0,61.199999999999996,22.188352318305785,24.5136186770428,20.81632653061224,120000.0,2904.0,120000.0,1.0,0.5596505461239696,0.0,0.0,0.0
700000.0,2.0625,7.716363244172599E-9,700000.0,61.8,22.920155773926023,23.29317269076305,20.250521920668056,140000.0,2904.0,140000.0,1.0,0.6561558231441689,0.0,0.0,0.0
800000.0,2.359375,8.826609700918197E-9,800000.0,60.6,21.320851172598886,24.665391969407267,21.199999999999996,160000.0,2904.0,160000.0,1.0,0.5249197841386334,0.0,0.0,0.0
900000.0,2.65625,9.936856157663795E-9,900000.0,61.199999999999996,21.740112629693577,21.931589537223335,17.970401691331915,180000.0,2904.0,180000.0,1.0,0.5208532937530247,0.0,0.0,0.0
1000000.0,2.9375,1.098866859037015E-8,1000000.0,60.699999999999996,20.570758721047735,20.606060606060602,13.626373626373613,200000.0,2904.0,200000.0,1.0,0.6350954798569477,0.0,0.0,0.0
1100000.0,3.21875,1.2040481023076506E-8,1100000.0,61.199999999999996,22.149320813017916,16.738197424892697,18.65828092243186,220000.0,2904.0,220000.0,1.0,0.6751706003088436,0.0,0.0,0.0
1200000.0,3.515625,1.3150727479822104E-8,1200000.0,64.7,28.688597448142676,29.400000000000006,25.05307855626327,240000.0,2904.0,240000.0,1.0,0.59951143315293,0.0,0.0,0.0
1300000.0,3.78125,1.4144105888489219E-8,1300000.0,63.0,25.58326629123089,29.254302103250478,21.610169491525422,260000.0,2904.0,260000.0,1.0,0.6158070079767438,0.0,0.0,0.0
1400000.0,4.078125,1.525435234523482E-8,1400000.0,61.0,22.147297313482888,21.999999999999996,23.379174852652255,280000.0,2904.0,280000.0,1.0,0.6256057296078124,0.0,0.0,0.0
1500000.0,4.359375,1.6306164777941174E-8,1500000.0,63.0,25.53534052487522,29.38931297709924,21.276595744680847,300000.0,2904.0,300000.0,1.0,0.5026234354997784,0.0,0.0,0.0
1600000.0,4.65625,1.7416411234686774E-8,1600000.0,61.199999999999996,21.874999999999993,22.862823061630216,18.99791231732776,320000.0,2904.0,320000.0,1.0,0.5380245571008552,0.0,0.0,0.0
1700000.0,4.921875,1.840978964335389E-8,1700000.0,60.9,21.613754280169687,19.214876033057845,21.169354838709676,340000.0,2904.0,340000.0,1.0,0.596704238354121,0.0,0.0,0.0
1800000.0,5.21875,1.9520036100099485E-8,1800000.0,60.0,20.525485489940504,21.874999999999996,19.028340080971653,360000.0,2904.0,360000.0,1.0,0.593690068109239,0.0,0.0,0.0
1900000.0,5.5,2.057184853280584E-8,1900000.0,61.9,22.96182465221611,26.16279069767442,18.589743589743584,380000.0,2904.0,380000.0,1.0,0.5694247407158506,0.0,0.0,0.0
2000000.0,5.796875,2.168209498955144E-8,2000000.0,61.7,23.488141660806754,22.626262626262626,23.24649298597194,400000.0,2904.0,400000.0,1.0,0.5426812469668341,0.0,0.0,0.0
2100000.0,6.078125,2.2733907422257796E-8,2100000.0,64.1,27.94579275684616,24.89539748953975,25.518672199170123,420000.0,2904.0,420000.0,1.0,0.5242326165227507,0.0,0.0,0.0
2200000.0,6.375,2.3844153879003396E-8,2200000.0,59.699999999999996,18.82724504100936,20.198019801980195,15.866388308977028,440000.0,2904.0,440000.0,1.0,0.5202276693071033,0.0,0.0,0.0
2300000.0,6.65625,2.489596631170975E-8,2300000.0,64.7,28.924075610286483,30.784313725490204,25.36997885835095,460000.0,2904.0,460000.0,1.0,0.5800102151059199,0.0,0.0,0.0
2400000.0,6.953125,2.600621276845535E-8,2400000.0,61.7,22.813381700927042,22.93762575452716,19.706498951781963,480000.0,2904.0,480000.0,1.0,0.6445246946299338,0.0,0.0,0.0
2500000.0,7.234375,2.7058025201161707E-8,2500000.0,63.7,26.826318335752298,24.05857740585774,21.93548387096774,500000.0,2904.0,500000.0,1.0,0.6437599952554535,0.0,0.0,0.0
2600000.0,7.53125,2.8168271657907307E-8,2600000.0,64.9,29.047334120348665,31.712062256809343,23.86117136659436,520000.0,2904.0,520000.0,1.0,0.5617993504038723,0.0,0.0,0.0
2700000.0,7.8125,2.9220084090613662E-8,2700000.0,62.3,24.218059017447928,21.294363256784965,21.294363256784965,540000.0,2904.0,540000.0,1.0,0.5592228919138625,0.0,0.0,0.0
2800000.0,8.109375,3.033033054735926E-8,2800000.0,62.9,25.76258434250864,27.254901960784316,25.8,560000.0,2904.0,560000.0,1.0,0.6457296050199575,0.0,0.0,0.0
2900000.0,8.390625,3.138214298006562E-8,2900000.0,60.9,21.221450331232568,19.381443298969067,17.336152219873142,580000.0,2904.0,580000.0,1.0,0.5803611436753671,0.0,0.0,0.0
3000000.0,8.671875,3.243395541277198E-8,3000000.0,60.0,19.61931708571797,20.94861660079051,17.355371900826437,600000.0,2904.0,600000.0,1.0,0.5435643513530993,0.0,0.0,0.0
3100000.0,8.96875,3.3544201869517576E-8,3100000.0,63.1,26.04736175466162,26.052104208416832,24.385245901639344,620000.0,2904.0,620000.0,1.0,0.5740143460809763,0.0,0.0,0.0
3200000.0,9.25,3.4596014302223935E-8,3200000.0,61.0,21.233762037096877,20.40816326530612,19.917864476386033,640000.0,2904.0,640000.0,1.0,0.594502543392222,0.0,0.0,0.0
3300000.0,9.546875,3.570626075896953E-8,3300000.0,62.8,25.36594761171032,27.34375,23.456790123456788,660000.0,2904.0,660000.0,1.0,0.6431433086647615,0.0,0.0,0.0
3400000.0,9.828125,3.675807319167589E-8,3400000.0,59.9,19.759558817644102,21.218074656188602,19.639278557114224,680000.0,2904.0,680000.0,1.0,0.5903433015260534,0.0,0.0,0.0
3500000.0,10.125,3.786831964842149E-8,3500000.0,61.3,22.478446203647316,22.132796780684103,20.85889570552147,700000.0,2904.0,700000.0,1.0,0.5138928407564911,0.0,0.0,0.0
3600000.0,10.390625,3.88616980570886E-8,3600000.0,63.800000000000004,27.14538721622927,20.614035087719294,21.81425485961123,720000.0,2904.0,720000.0,1.0,0.5328571707674816,0.0,0.0,0.0
3700000.0,10.6875,3.99719445138342E-8,3700000.0,60.8,21.403823944565627,20.808080808080803,19.672131147540977,740000.0,2904.0,740000.0,1.0,0.5296517074291696,0.0,0.0,0.0
3800000.0,10.96875,4.102375694654056E-8,3800000.0,62.5,24.792427098792675,25.0,23.46938775510204,760000.0,2904.0,760000.0,1.0,0.5379335546283026,0.0,0.0,0.0
3900000.0,11.265625,4.2134003403286153E-8,3900000.0,60.0,19.710637136238986,20.79207920792079,15.074309978768568,780000.0,2904.0,780000.0,1.0,0.5071075001424681,0.0,0.0,0.0
4000000.0,11.546875,4.318581583599251E-8,4000000.0,64.2,27.895847767590993,29.108910891089113,20.971302428256067,800000.0,2904.0,800000.0,1.0,0.5527309841044556,0.0,0.0,0.0
4100000.0,11.84375,4.429606229273811E-8,4100000.0,61.0,21.69083541823117,20.731707317073166,18.580375782880996,820000.0,2904.0,820000.0,1.0,0.5229528355317744,0.0,0.0,0.0
4200000.0,12.125,4.534787472544447E-8,4200000.0,64.3,28.25851051002773,29.166666666666668,28.0241935483871,840000.0,2904.0,840000.0,1.0,0.5485261745951814,0.0,0.0,0.0
4300000.0,12.421875,4.6458121182190064E-8,4300000.0,61.7,22.822091823574933,23.4,15.265486725663708,860000.0,2904.0,860000.0,1.0,0.6199585263242058,0.0,0.0,0.0
4400000.0,12.703125,4.750993361489642E-8,4400000.0,64.5,28.505832312947092,27.25409836065574,24.947145877378436,880000.0,2904.0,880000.0,1.0,0.5268182489938513,0.0,0.0,0.0
4500000.0,13.0,4.862018007164202E-8,4500000.0,63.0,25.57129063405214,26.0,22.916666666666664,900000.0,2904.0,900000.0,1.0,0.5675063910049097,0.0,0.0,0.0
4600000.0,13.296875,4.9730426528387616E-8,4600000.0,61.7,23.643729216341434,23.856858846918488,25.918762088974855,920000.0,2904.0,920000.0,1.0,0.582983809143532,0.0,0.0,0.0
4700000.0,13.578125,5.0782238961093975E-8,4700000.0,59.8,19.405606322449735,22.24371373307543,18.12627291242362,940000.0,2904.0,940000.0,1.0,0.5533732216334535,0.0,0.0,0.0
4800000.0,13.859375,5.1834051393800334E-8,4800000.0,61.7,22.846345374406756,19.874476987447697,17.27861771058315,960000.0,2904.0,960000.0,1.0,0.59203836140666,0.0,0.0,0.0
4900000.0,14.15625,5.294429785054593E-8,4900000.0,61.1,22.26156883748071,22.509960159362546,22.509960159362546,980000.0,2904.0,980000.0,1.0,0.5688009174640035,0.0,0.0,0.0
5000000.0,14.4375,5.399611028325229E-8,5000000.0,61.7,23.163343096737954,21.516393442622945,21.67689161554192,1000000.0,2904.0,1000000.0,1.0,0.5122321223242207,0.0,0.0,0.0
5100000.0,14.734375,5.5059661260909526E-8,5100000.0,68.5,36.37648959806099,32.835820895522396,30.000000000000004,18792.0,2904.0,1020000.0,1.0,0.5192755436837106,0.0,1.0,11.0
5200000.0,15.03125,5.6123212238566764E-8,5200000.0,67.80000000000001,34.626988090742614,34.55284552845529,26.65148063781321,38792.0,2904.0,1040000.0,1.0,0.7057371807667351,0.0,0.0,0.0
5300000.0,15.328125,5.7186763216224E-8,5300000.0,68.2,35.65253990351928,33.33333333333334,30.263157894736846,58792.0,2904.0,1060000.0,1.0,0.6821681657573032,0.0,0.0,0.0
5400000.0,15.625,5.825031419388124E-8,5400000.0,69.19999999999999,37.45862725747956,35.83333333333332,28.2051282051282,78792.0,2904.0,1080000.0,1.0,0.5241251592526278,0.0,0.0,0.0
5500000.0,15.921875,5.9313865171538476E-8,5500000.0,65.9,31.049822064056947,27.4468085106383,27.13675213675214,98792.0,2904.0,1100000.0,1.0,0.5061649084356437,0.0,0.0,0.0
5600000.0,16.21875,6.037741614919572E-8,5600000.0,68.89999999999999,36.69855485446772,37.04453441295546,30.88888888888887,118792.0,2904.0,1120000.0,1.0,0.5796736889497563,0.0,0.0,0.0
5700000.0,16.515625,6.144096712685296E-8,5700000.0,66.5,32.03820467252558,30.9278350515464,23.69020501138952,138792.0,2904.0,1140000.0,1.0,0.5825020012299954,0.0,0.0,0.0
5800000.0,16.796875,6.244854173726508E-8,5800000.0,67.0,32.87225386493085,30.08474576271187,25.0,158792.0,2904.0,1160000.0,1.0,0.527875023087358,0.0,0.0,0.0
5900000.0,17.09375,6.351209271492233E-8,5900000.0,64.9,28.992790037142235,28.947368421052634,20.588235294117645,178792.0,2904.0,1180000.0,1.0,0.6364249097181123,0.0,0.0,0.0
6000000.0,17.390625,6.457564369257957E-8,6000000.0,67.30000000000001,34.05449881419099,34.33734939759037,27.814569536423843,198792.0,2904.0,1200000.0,1.0,0.6667194641339265,0.0,0.0,0.0
6100000.0,17.6875,6.563919467023681E-8,6100000.0,66.10000000000001,31.262976901116012,32.06412825651303,25.0,218792.0,2904.0,1220000.0,1.0,0.5113890258800223,0.0,0.0,0.0
6200000.0,17.984375,6.675251319797507E-8,6200000.0,66.3,31.874049875473048,30.515463917525775,27.213822894168473,238792.0,2904.0,1240000.0,1.0,0.5571059738487518,0.0,0.0,11.0
6300000.0,18.28125,6.786583172571333E-8,6300000.0,66.8,33.09149536477227,35.408560311284056,28.13852813852814,258792.0,2904.0,1260000.0,1.0,0.5449208714027466,0.0,0.0,35.0
6400000.0,18.578125,6.89791502534516E-8,6400000.0,70.5,39.94788697988763,40.76305220883533,32.95454545454544,278792.0,2904.0,1280000.0,1.0,0.5905647988041376,0.0,0.0,49.0
6500000.0,18.875,7.009246878118985E-8,6500000.0,68.10000000000001,35.227900328124505,34.89795918367348,28.153153153153156,298792.0,2904.0,1300000.0,1.0,0.5065398732984031,0.0,0.0,0.0
6600000.0,19.171875,7.120578730892811E-8,6600000.0,67.2,32.40709066105041,26.126126126126124,19.804400977995126,318792.0,2904.0,1320000.0,1.0,0.540891242596158,0.0,0.0,0.0
6700000.0,19.46875,7.231910583666637E-8,6700000.0,68.8,36.553126588713766,32.32104121475052,29.88764044943818,338792.0,2904.0,1340000.0,1.0,0.5593191327586873,0.0,0.0,0.0
6800000.0,19.75,7.33738286524184E-8,6800000.0,68.5,35.86559056593019,35.58282208588958,27.419354838709697,358792.0,2904.0,1360000.0,1.0,0.5754300144661315,0.0,0.0,0.0
6900000.0,20.046875,7.448714718015666E-8,6900000.0,69.89999999999999,38.544839808243566,37.02928870292886,30.16241299303944,378792.0,2904.0,1380000.0,1.0,0.5494729124381558,0.0,0.0,0.0
7000000.0,20.34375,7.560046570789492E-8,7000000.0,69.1,37.7066365615676,38.19999999999999,30.561797752808967,398792.0,2904.0,1400000.0,1.0,0.5239212882181165,0.0,0.0,0.0
7100000.0,20.625,7.665518852364694E-8,7100000.0,68.60000000000001,36.12277446863914,39.846743295019174,27.314814814814838,418792.0,2904.0,1420000.0,1.0,0.5365647559420884,0.0,0.0,0.0
7200000.0,20.921875,7.77685070513852E-8,7200000.0,67.30000000000001,33.75471010088732,34.33734939759037,26.516853932584272,438792.0,2904.0,1440000.0,1.0,0.6594360479288964,0.0,0.0,0.0
7300000.0,21.203125,7.882322986713722E-8,7300000.0,64.2,27.991278496747523,27.53036437246964,23.340471092077088,458792.0,2904.0,1460000.0,1.0,0.5901560467355577,0.0,0.0,0.0
7400000.0,21.5,7.993654839487548E-8,7400000.0,67.0,32.79433028531864,33.46774193548388,24.137931034482776,478792.0,2904.0,1480000.0,1.0,0.6649973430278632,0.0,0.0,0.0
7500000.0,21.78125,8.09912712106275E-8,7500000.0,65.7,30.440073007503553,28.39248434237996,23.777777777777775,498792.0,2904.0,1500000.0,1.0,0.5404489944066574,0.0,0.0,0.0
7600000.0,22.0625,8.204599402637953E-8,7600000.0,65.8,30.635275410407942,29.629629629629633,22.095671981776764,518792.0,2904.0,1520000.0,1.0,0.5402476035671944,0.0,0.0,0.0
7700000.0,22.34375,8.310071684213155E-8,7700000.0,68.8,36.65823463251623,35.26970954356845,29.251700680272087,538792.0,2904.0,1540000.0,1.0,0.742766939102516,0.0,0.0,0.0
7800000.0,22.640625,8.421403536986981E-8,7800000.0,69.6,37.72712188686821,37.06004140786748,28.805620608899297,558792.0,2904.0,1560000.0,1.0,0.6203428150144985,0.0,0.0,0.0
7900000.0,22.921875,8.526875818562183E-8,7900000.0,68.10000000000001,35.71451602502097,38.17829457364342,31.837606837606845,578792.0,2904.0,1580000.0,1.0,0.817172879125719,0.0,0.0,0.0
8000000.0,23.21875,8.63820767133601E-8,8000000.0,66.4,31.89695360479965,27.429805615550755,25.16703786191537,598792.0,2904.0,1600000.0,1.0,0.5965572189815402,0.0,0.0,0.0
8100000.0,23.53125,8.755399095308458E-8,8100000.0,66.9,33.153460267709285,35.351562500000014,28.19956616052061,618792.0,2904.0,1620000.0,1.0,0.6023213141683935,0.0,0.0,0.0
8200000.0,23.8125,8.86087137688366E-8,8200000.0,67.4,33.97200899276934,34.53815261044178,26.410835214446955,638792.0,2904.0,1640000.0,1.0,0.5896437266139997,0.0,0.0,0.0
8300000.0,24.09375,8.966343658458862E-8,8300000.0,68.7,36.76256667205431,37.40000000000001,26.869158878504695,658792.0,2904.0,1660000.0,1.0,0.5172982863871058,0.0,0.0,0.0
8400000.0,24.390625,9.077675511232688E-8,8400000.0,68.60000000000001,35.5116962066912,35.655737704918046,25.768321513002384,678792.0,2904.0,1680000.0,1.0,0.5729122572254856,0.0,0.0,0.0
8500000.0,24.6875,9.189007364006514E-8,8500000.0,68.5,36.273518106413114,38.356164383561655,30.000000000000004,698792.0,2904.0,1700000.0,1.0,0.5033647595491441,0.0,0.0,0.0
8600000.0,24.984375,9.30033921678034E-8,8600000.0,70.0,39.032073194028385,40.711462450592876,33.481152993348104,718792.0,2904.0,1720000.0,1.0,0.5137250583299037,0.0,0.0,0.0
8700000.0,25.265625,9.405811498355543E-8,8700000.0,68.60000000000001,36.77512886597939,36.947791164658646,31.441048034934504,738792.0,2904.0,1740000.0,1.0,0.6588248161217047,0.0,0.0,0.0
8800000.0,25.546875,9.511283779930745E-8,8800000.0,68.0,34.8512980878856,32.203389830508485,27.601809954751133,758792.0,2904.0,1760000.0,1.0,0.5335058533928831,0.0,0.0,0.0
8900000.0,25.84375,9.622615632704571E-8,8900000.0,68.2,35.20808798660154,37.27810650887575,27.231121281464553,778792.0,2904.0,1780000.0,1.0,0.6785768250126507,0.0,0.0,0.0
9000000.0,26.125,9.728087914279773E-8,9000000.0,66.5,32.20050839499377,32.45967741935484,26.535087719298247,798792.0,2904.0,1800000.0,1.0,0.5398993784320583,0.0,0.0,0.0
9100000.0,26.421875,9.839419767053599E-8,9100000.0,64.2,27.665954102229424,29.527559055118115,21.663019693654263,818792.0,2904.0,1820000.0,1.0,0.5442724370950742,0.0,0.0,0.0
9200000.0,26.71875,9.950751619827425E-8,9200000.0,65.9,31.150056533677915,32.20675944333997,25.869565217391305,838792.0,2904.0,1840000.0,1.0,0.6180517734958179,0.0,0.0,0.0
9300000.0,27.0,1.0056223901402627E-7,9300000.0,65.4,30.666880410387943,29.817444219066942,29.09836065573771,858792.0,2904.0,1860000.0,1.0,0.6842997301835853,0.0,0.0,0.0
9400000.0,27.3125,1.0173415325375076E-7,9400000.0,65.3,30.16703562084927,32.09393346379648,22.888888888888886,878792.0,2904.0,1880000.0,1.0,0.5730386433272024,0.0,0.0,0.0
9500000.0,27.609375,1.0284747178148902E-7,9500000.0,66.3,31.13679461191396,28.902953586497894,22.70642201834864,898792.0,2904.0,1900000.0,1.0,0.6234625657854532,0.0,0.0,0.0
9600000.0,27.90625,1.0396079030922728E-7,9600000.0,67.2,33.80690991281886,33.4685598377282,28.695652173913043,918792.0,2904.0,1920000.0,1.0,0.532966837467052,0.0,0.0,0.0
9700000.0,28.203125,1.0507410883696554E-7,9700000.0,66.5,31.581269198091643,28.571428571428577,20.04773269689739,938792.0,2904.0,1940000.0,1.0,0.5134374291788004,0.0,0.0,0.0
9800000.0,28.5,1.061874273647038E-7,9800000.0,68.5,36.00526585240987,37.12574850299402,28.73303167420815,958792.0,2904.0,1960000.0,1.0,0.5653456341568625,0.0,0.0,0.0
9900000.0,28.796875,1.0730074589244206E-7,9900000.0,66.60000000000001,32.511073033526245,32.38866396761134,24.43438914027149,978792.0,2904.0,1980000.0,1.0,0.7817053682163927,0.0,0.0,0.0
1.0E7,29.078125,1.0835546870819408E-7,1.0E7,69.1,37.374851037267014,36.680327868852444,29.612756264236882,998792.0,2904.0,2000000.0,1.0,0.526086989108041,0.0,0.0,0.0
