learning evaluation instances,evaluation time (cpu seconds),model cost (RAM-Hours),classified instances,classifications correct (percent),Kappa Statistic (percent),Kappa Temporal Statistic (percent),Kappa M Statistic (percent),model training instances,model serialized size (bytes),labeling cost,newThreshold,maxPosterior,accuracyBaseLearner (percent),Change detected,Warning detected
100000.0,0.359375,1.540633901539776E-8,100000.0,60.9,21.73112338858195,21.010101010101007,20.04089979550102,9900.0,2904.0,0.0,1.0,0.0,?,0.0,6.0
200000.0,0.75,3.0616324187980756E-8,200000.0,62.5,24.580061784013385,19.181034482758616,20.382165605095537,19900.0,2904.0,0.0,1.0,0.0,?,0.0,0.0
300000.0,1.109375,4.319635789013571E-8,300000.0,65.9,31.161731575164925,27.906976744186053,26.190476190476193,29900.0,2904.0,0.0,1.0,0.0,?,0.0,0.0
400000.0,1.484375,5.4848755502866376E-8,400000.0,66.60000000000001,33.15936089142198,31.975560081466405,32.38866396761134,39900.0,2904.0,0.0,1.0,0.0,?,0.0,0.0
500000.0,1.859375,6.502655903912253E-8,500000.0,66.2,31.985109165912068,33.98437500000001,28.842105263157897,49900.0,2904.0,0.0,1.0,0.0,?,0.0,0.0
600000.0,2.21875,7.336713477141327E-8,600000.0,68.5,36.95208358352348,40.789473684210535,33.962264150943405,59900.0,2904.0,0.0,1.0,0.0,?,0.0,0.0
700000.0,2.59375,8.059575015472041E-8,700000.0,64.2,27.822580645161292,25.87991718426501,22.173913043478258,69900.0,2904.0,0.0,1.0,0.0,?,0.0,0.0
800000.0,2.96875,8.634977146155304E-8,800000.0,66.9,33.33064776023203,33.13131313131314,25.617977528089884,79900.0,2904.0,0.0,1.0,0.0,?,0.0,0.0
900000.0,3.34375,9.062919869191116E-8,900000.0,63.9,27.76995230015687,32.64925373134328,21.86147186147186,89900.0,2904.0,0.0,1.0,0.0,?,0.0,0.0
1000000.0,3.71875,9.343403184579478E-8,1000000.0,62.5,24.99279930873363,25.298804780876495,23.78048780487805,99900.0,2904.0,0.0,1.0,0.0,?,0.0,0.0
1100000.0,4.09375,1.0952495762871371E-7,1100000.0,65.2,30.225843705889904,30.53892215568863,26.890756302521012,109800.0,2904.0,0.0,1.0,0.0,?,0.0,0.0
1200000.0,4.46875,1.2414128933515814E-7,1200000.0,65.3,30.287128633306263,32.09393346379648,25.69593147751606,119800.0,2904.0,0.0,1.0,0.0,?,0.0,0.0
1300000.0,4.84375,1.3728302696512807E-7,1300000.0,62.5,24.805697923434142,21.21848739495798,23.78048780487805,129800.0,2904.0,0.0,1.0,0.0,?,0.0,0.0
1400000.0,5.21875,1.4895017051862348E-7,1400000.0,65.10000000000001,30.222328854766484,29.06504065040651,31.027667984189726,139800.0,2904.0,0.0,1.0,0.0,?,0.0,0.0
1500000.0,5.578125,1.5871803043410185E-7,1500000.0,63.9,27.900938685839826,25.103734439834025,27.510040160642575,149800.0,2904.0,0.0,1.0,0.0,?,0.0,0.0
1600000.0,5.953125,1.6743598583464826E-7,1600000.0,64.5,28.599012051682248,30.93385214007783,24.947145877378436,159800.0,2904.0,0.0,1.0,0.0,?,0.0,0.0
1700000.0,6.328125,1.7467934715872014E-7,1700000.0,65.7,31.325281906714515,32.079207920792086,29.13223140495868,169800.0,2904.0,0.0,1.0,0.0,?,0.0,0.0
1800000.0,6.703125,1.8044811440631751E-7,1800000.0,65.4,30.61265416624888,31.75542406311638,26.84989429175476,179800.0,2904.0,0.0,1.0,0.0,?,0.0,0.0
1900000.0,7.078125,1.847422875774404E-7,1900000.0,66.7,33.2750909702964,34.18972332015811,31.622176591375776,189800.0,2904.0,0.0,1.0,0.0,?,0.0,0.0
2000000.0,7.453125,1.8756186667208876E-7,2000000.0,66.10000000000001,32.22656718566322,33.00395256916997,28.329809725158565,199800.0,2904.0,0.0,1.0,0.0,?,0.0,0.0
2100000.0,7.828125,2.0366753839577242E-7,2100000.0,65.10000000000001,30.23906612297113,31.434184675834974,29.208924949290065,209700.0,2904.0,0.0,1.0,0.0,?,0.0,0.0
2200000.0,8.203125,2.182986160429816E-7,2200000.0,61.6,23.15850559302023,23.658051689860834,21.31147540983606,219700.0,2904.0,0.0,1.0,0.0,?,0.0,0.0
2300000.0,8.578125,2.3145509961371626E-7,2300000.0,67.80000000000001,35.07645654558359,34.817813765182194,27.47747747747748,229700.0,2904.0,0.0,1.0,0.0,?,0.0,0.0
2400000.0,8.953125,2.431369891079764E-7,2400000.0,63.4,26.71557634394823,25.45824847250509,25.609756097560975,239700.0,2904.0,0.0,1.0,0.0,?,0.0,0.0
2500000.0,9.328125,2.53344284525762E-7,2500000.0,66.7,33.39520445472075,33.797216699801204,33.13253012048193,249700.0,2904.0,0.0,1.0,0.0,?,0.0,0.0
2600000.0,9.6875,2.617131233111852E-7,2600000.0,63.5,26.358434682957927,24.742268041237114,19.780219780219774,259700.0,2904.0,0.0,1.0,0.0,?,0.0,0.0
2700000.0,10.0625,2.6897123057602186E-7,2700000.0,64.1,28.1827638633272,25.363825363825367,26.434426229508194,269700.0,2904.0,0.0,1.0,0.0,?,0.0,0.0
2800000.0,10.4375,2.7475474376438397E-7,2800000.0,63.800000000000004,27.490655909110938,29.434697855750493,23.14225053078556,279700.0,2904.0,0.0,1.0,0.0,?,0.0,0.0
2900000.0,10.796875,2.788841245799429E-7,2900000.0,65.8,31.615591645104914,32.94117647058824,30.487804878048784,289700.0,2904.0,0.0,1.0,0.0,?,0.0,0.0
3000000.0,11.171875,2.8171844961535604E-7,3000000.0,65.4,30.46735583029213,31.6205533596838,23.788546255506606,299700.0,2904.0,0.0,1.0,0.0,?,0.0,0.0
3100000.0,11.546875,2.9783886727980446E-7,3100000.0,67.0,33.83405581197645,33.73493975903615,29.33618843683084,309600.0,2904.0,0.0,1.0,0.0,?,0.0,0.0
3200000.0,11.9375,3.130949335172773E-7,3200000.0,61.6,22.730510582298045,20.824742268041234,14.855875831485577,319600.0,2904.0,0.0,1.0,0.0,?,0.0,0.0
3300000.0,12.3125,3.262661630287767E-7,3300000.0,64.7,29.467710997442463,28.68686868686869,27.66393442622951,329600.0,2904.0,0.0,1.0,0.0,?,0.0,0.0
3400000.0,12.6875,3.379627984638016E-7,3400000.0,65.9,31.691799810900473,33.00589390962673,30.26584867075665,339600.0,2904.0,0.0,1.0,0.0,?,0.0,0.0
3500000.0,13.046875,3.4775892143241237E-7,3500000.0,67.2,34.339329540495434,30.655391120507403,32.924335378323114,349600.0,2904.0,0.0,1.0,0.0,?,0.0,0.0
3600000.0,13.421875,3.5650636871448824E-7,3600000.0,63.6,27.1533781620237,31.190926275992442,24.63768115942029,359600.0,2904.0,0.0,1.0,0.0,?,0.0,0.0
3700000.0,13.796875,3.637792219200896E-7,3700000.0,65.5,30.269785190515076,28.865979381443303,25.965665236051507,369600.0,2904.0,0.0,1.0,0.0,?,0.0,0.0
3800000.0,14.171875,3.696450019358761E-7,3800000.0,64.3,28.278688524590162,26.993865030674847,23.717948717948715,379600.0,2904.0,0.0,1.0,0.0,?,0.0,29.0
3900000.0,14.546875,3.740361878751881E-7,3900000.0,68.60000000000001,37.22008957133719,38.43137254901962,38.79142300194933,389600.0,2904.0,0.0,1.0,0.0,?,0.0,0.0
4000000.0,14.921875,3.7695277973802554E-7,4000000.0,66.5,32.84689091127772,32.18623481781377,31.6326530612245,399600.0,2904.0,0.0,1.0,0.0,?,0.0,4.0
4100000.0,15.296875,3.931554642298983E-7,4100000.0,65.0,29.711818455668244,27.385892116182575,22.048997772828503,409500.0,2904.0,0.0,1.0,0.0,?,0.0,27.0
4200000.0,15.671875,4.078835546452966E-7,4200000.0,62.3,24.53117242925548,20.295983086680756,21.621621621621617,419500.0,2904.0,0.0,1.0,0.0,?,0.0,7.0
4300000.0,16.03125,4.205245770410531E-7,4300000.0,66.0,31.876014346109933,27.50533049040512,30.18480492813142,429500.0,2904.0,0.0,1.0,0.0,?,0.0,98.0
4400000.0,16.40625,4.3228718115844657E-7,4400000.0,65.0,29.787677938084776,29.00608519269777,27.385892116182575,439500.0,2904.0,0.0,1.0,0.0,?,0.0,21.0
4500000.0,16.796875,4.4300385828440386E-7,4500000.0,64.3,28.654222790679096,30.273437500000007,31.213872832369947,449500.0,2904.0,0.0,1.0,0.0,?,0.0,0.0
4600000.0,17.171875,4.518335723939041E-7,4600000.0,63.9,27.463430316669353,28.373015873015877,23.354564755838638,459500.0,2904.0,0.0,1.0,0.0,?,0.0,29.0
4700000.0,17.53125,4.588822290922205E-7,4700000.0,64.1,27.722971612643438,25.979381443298973,23.12633832976445,469500.0,2904.0,0.0,1.0,0.0,?,0.0,0.0
4800000.0,17.90625,4.647503374144435E-7,4800000.0,65.0,29.40246244211002,30.2788844621514,22.907488986784138,479500.0,2904.0,0.0,1.0,0.0,?,0.0,52.0
4900000.0,18.28125,4.6915626929452026E-7,4900000.0,65.7,31.33682988349282,32.876712328767134,28.09224318658281,489500.0,2904.0,0.0,1.0,0.0,?,0.0,1.0
5000000.0,18.640625,4.7218041597969007E-7,5000000.0,64.1,28.258541030519098,28.343313373253498,25.672877846790893,499500.0,2904.0,0.0,1.0,0.0,?,0.0,0.0
5100000.0,19.015625,4.885499624328482E-7,5100000.0,65.60000000000001,22.729621060670745,26.652452025586353,16.707021791767566,9174.0,2904.0,0.0,1.0,0.0,?,1.0,24.0
5200000.0,19.390625,5.035139879004824E-7,5200000.0,68.89999999999999,26.137389206083796,33.11827956989246,16.17250673854446,19174.0,2904.0,0.0,1.0,0.0,?,0.0,11.0
5300000.0,19.765625,5.17003419291642E-7,5300000.0,68.10000000000001,26.72797934601851,27.500000000000004,17.571059431524564,29174.0,2904.0,0.0,1.0,0.0,?,0.0,0.0
5400000.0,20.140625,5.290182566063272E-7,5400000.0,66.3,21.61113540571471,30.515463917525775,11.780104712041894,39174.0,2904.0,0.0,1.0,0.0,?,0.0,0.0
5500000.0,20.5,5.391193230429458E-7,5500000.0,65.5,18.949396231734262,27.974947807933198,9.685863874345559,49174.0,2904.0,0.0,1.0,0.0,?,0.0,0.0
5600000.0,20.859375,5.47807236822943E-7,5600000.0,67.30000000000001,22.654808647523534,32.298136645962735,11.621621621621632,59174.0,2904.0,0.0,1.0,0.0,?,0.0,0.0
5700000.0,21.234375,5.553982919082047E-7,5700000.0,68.60000000000001,24.39819518748767,32.61802575107297,13.498622589531692,69174.0,2904.0,0.0,1.0,0.0,?,0.0,0.0
5800000.0,21.625,5.617696054590247E-7,5800000.0,65.9,22.23914768632961,26.34989200863931,12.787723785166252,79174.0,2904.0,0.0,1.0,0.0,?,0.0,0.0
5900000.0,22.0,5.664114723913373E-7,5900000.0,68.2,23.186550399768116,33.33333333333334,11.420612813370484,89174.0,2904.0,0.0,1.0,0.0,?,0.0,0.0
6000000.0,22.359375,5.694467755448488E-7,6000000.0,68.8,28.974685849572012,33.61702127659573,19.999999999999986,99174.0,2904.0,0.0,1.0,0.0,?,0.0,0.0
6100000.0,22.71875,5.852145841345192E-7,6100000.0,65.3,18.110161891726065,25.05399568034557,7.957559681697619,109074.0,2904.0,0.0,1.0,0.0,?,0.0,0.0
6200000.0,23.078125,5.995692400675682E-7,6200000.0,66.5,22.63708247117943,28.723404255319153,13.659793814433002,119074.0,2904.0,0.0,1.0,0.0,?,0.0,0.0
6300000.0,23.453125,6.130734173994926E-7,6300000.0,68.4,27.648720801908617,32.043010752688176,20.403022670025205,129074.0,2904.0,0.0,1.0,0.0,?,0.0,0.0
6400000.0,23.828125,6.251030006549425E-7,6400000.0,64.60000000000001,22.553206384766185,27.01030927835052,17.28971962616824,139074.0,2904.0,0.0,1.0,0.0,?,0.0,0.0
6500000.0,24.203125,6.35657989833918E-7,6500000.0,69.0,27.046464342194426,35.14644351464434,14.364640883977883,149074.0,2904.0,0.0,1.0,0.0,?,0.0,0.0
6600000.0,24.546875,6.439816853445438E-7,6600000.0,68.5,28.508529045963353,35.05154639175259,21.052631578947388,159074.0,2904.0,0.0,1.0,0.0,?,0.0,0.0
6700000.0,24.921875,6.515874863705702E-7,6700000.0,68.89999999999999,26.08121084205619,31.346578366445897,15.258855585831046,169074.0,2904.0,0.0,1.0,0.0,?,0.0,0.0
6800000.0,25.28125,6.574632263638908E-7,6800000.0,68.60000000000001,23.91752077730127,33.61522198731502,11.549295774647899,179074.0,2904.0,0.0,1.0,0.0,?,0.0,0.0
6900000.0,25.65625,6.621198392369682E-7,6900000.0,68.2,26.51374747535438,33.61169102296452,18.25192802056557,189074.0,2904.0,0.0,1.0,0.0,?,0.0,0.0
7000000.0,26.015625,6.65169273917046E-7,7000000.0,70.0,31.59773998932924,32.735426008968595,23.664122137404572,199074.0,2904.0,0.0,1.0,0.0,?,0.0,0.0
7100000.0,26.375,6.809512140332825E-7,7100000.0,68.8,27.670623145400576,33.19057815845823,17.89473684210525,208974.0,2904.0,0.0,1.0,0.0,?,0.0,45.0
7200000.0,26.765625,6.96558143115706E-7,7200000.0,66.9,19.839194032742423,29.723991507431002,8.055555555555562,218974.0,2904.0,0.0,1.0,0.0,?,0.0,1.0
7300000.0,27.140625,7.10066200958358E-7,7300000.0,66.4,21.299310900513913,29.263157894736846,11.811023622047255,228974.0,2904.0,0.0,1.0,0.0,?,0.0,0.0
7400000.0,27.515625,7.220996647245356E-7,7400000.0,67.80000000000001,25.659826755074533,31.923890063424953,14.814814814814827,238974.0,2904.0,0.0,1.0,0.0,?,0.0,0.0
7500000.0,27.890625,7.326725042528577E-7,7500000.0,69.69999999999999,27.345098791482812,33.69803063457329,16.758241758241745,248974.0,2904.0,0.0,1.0,0.0,?,0.0,6.0
7600000.0,28.25,7.413916561442118E-7,7600000.0,70.89999999999999,31.70104302599584,35.61946902654866,23.015873015873005,258974.0,2904.0,0.0,1.0,0.0,?,0.0,0.0
7700000.0,28.625,7.49015307519585E-7,7700000.0,69.39999999999999,29.380812812997608,35.03184713375795,20.10443864229764,268974.0,2904.0,0.0,1.0,0.0,?,0.0,40.0
7800000.0,29.0,7.551643648184837E-7,7800000.0,69.19999999999999,27.03634916423454,34.745762711864394,18.08510638297871,278974.0,2904.0,0.0,1.0,0.0,?,0.0,36.0
7900000.0,29.359375,7.596440587399735E-7,7900000.0,67.0,27.368768570485326,33.6016096579477,20.863309352518,288974.0,2904.0,0.0,1.0,0.0,?,0.0,0.0
8000000.0,29.75,7.629036877511277E-7,8000000.0,66.0,22.6573127510794,27.350427350427353,14.786967418546379,298974.0,2904.0,0.0,1.0,0.0,?,0.0,31.0
8100000.0,30.109375,7.78702734452155E-7,8100000.0,68.10000000000001,24.08376963350785,32.27176220806795,13.079019073569494,308874.0,2904.0,0.0,1.0,0.0,?,0.0,34.0
8200000.0,30.453125,7.924631548424563E-7,8200000.0,67.2,25.20295539542097,30.947368421052634,16.75126903553301,318874.0,2904.0,0.0,1.0,0.0,?,0.0,0.0
8300000.0,30.828125,8.059999284644923E-7,8300000.0,68.0,26.207430911707206,31.47751605995718,16.666666666666682,328874.0,2904.0,0.0,1.0,0.0,?,0.0,0.0
8400000.0,31.21875,8.185646988244521E-7,8400000.0,68.2,26.524953789279117,33.33333333333334,18.04123711340208,338874.0,2904.0,0.0,1.0,0.0,?,0.0,0.0
8500000.0,31.578125,8.287111348989938E-7,8500000.0,67.2,24.270410048023646,29.764453961456105,15.89743589743591,348874.0,2904.0,0.0,1.0,0.0,?,0.0,0.0
8600000.0,31.953125,8.378194696787332E-7,8600000.0,66.2,20.840495941318924,26.361655773420477,8.894878706199469,358874.0,2904.0,0.0,1.0,0.0,?,0.0,14.0
8700000.0,32.328125,8.453965549253756E-7,8700000.0,65.8,21.4154411764706,28.451882845188287,12.755102040816338,368874.0,2904.0,0.0,1.0,0.0,?,0.0,77.0
8800000.0,32.703125,8.515425078156923E-7,8800000.0,64.8,21.64125943866649,29.175050301810867,13.725490196078443,378874.0,2904.0,0.0,1.0,0.0,?,0.0,6.0
8900000.0,33.125,8.567401608969603E-7,8900000.0,65.4,19.080227510851667,22.939866369710465,7.978723404255327,388874.0,2904.0,0.0,1.0,0.0,?,0.0,51.0
9000000.0,33.484375,8.598044708681604E-7,9000000.0,65.9,20.98213871921549,28.059071729957807,12.787723785166252,398874.0,2904.0,0.0,1.0,0.0,?,0.0,62.0
9100000.0,33.859375,8.763051785839101E-7,9100000.0,66.9,23.07120213448363,30.607966457023068,13.57702349869453,408774.0,2904.0,0.0,1.0,0.0,?,0.0,6.0
9200000.0,34.234375,8.913312922231854E-7,9200000.0,66.60000000000001,23.067000810790894,31.557377049180335,13.917525773195887,418774.0,2904.0,0.0,1.0,0.0,?,0.0,51.0
9300000.0,34.609375,9.048828117859861E-7,9300000.0,65.60000000000001,25.235919793790245,28.18371607515658,18.676122931442094,428774.0,2904.0,0.0,1.0,0.0,?,0.0,47.0
9400000.0,35.0,9.174605171817046E-7,9400000.0,69.1,27.88663498968474,34.25531914893615,19.109947643979044,438774.0,2904.0,0.0,1.0,0.0,?,0.0,69.0
9500000.0,35.375,9.280628485915563E-7,9500000.0,65.5,16.177499611257964,24.008810572687224,3.089887640449441,448774.0,2904.0,0.0,1.0,0.0,?,0.0,36.0
9600000.0,35.75,9.371905859249336E-7,9600000.0,69.19999999999999,27.779210729945824,34.047109207708765,16.981132075471685,458774.0,2904.0,0.0,1.0,0.0,?,0.0,0.0
9700000.0,36.125,9.448437291818362E-7,9700000.0,66.5,21.91069380600287,26.535087719298247,11.375661375661386,468774.0,2904.0,0.0,1.0,0.0,?,0.0,0.0
9800000.0,36.515625,9.51279717911449E-7,9800000.0,67.30000000000001,24.2066030651128,32.157676348547724,13.492063492063505,478774.0,2904.0,0.0,1.0,0.0,?,0.0,0.0
9900000.0,36.890625,9.559836730154027E-7,9900000.0,68.89999999999999,25.583843797856026,35.343035343035325,14.79452054794519,488774.0,2904.0,0.0,1.0,0.0,?,0.0,0.0
1.0E7,37.25,9.590784773334036E-7,1.0E7,67.10000000000001,21.50594073579234,29.399141630901294,11.081081081081091,498774.0,2904.0,0.0,1.0,0.0,?,0.0,0.0
