learning evaluation instances,evaluation time (cpu seconds),model cost (RAM-Hours),classified instances,classifications correct (percent),Kappa Statistic (percent),Kappa Temporal Statistic (percent),Kappa M Statistic (percent),model training instances,model serialized size (bytes),labeling cost,newThreshold,maxPosterior,accuracyBaseLearner (percent),Change detected,Warning detected
100000.0,0.125,1.2464200456937155E-9,100000.0,65.10000000000001,27.60237314857073,26.98744769874477,19.025522041763356,19842.0,5264.0,0.0,1.0,0.0,?,1.0,2.0
200000.0,0.25,2.0364920298258462E-9,200000.0,68.10000000000001,34.81068532566049,38.05825242718448,29.424778761061955,39762.0,5264.0,0.0,1.0,0.0,?,0.0,0.0
300000.0,0.359375,3.1474822511275608E-9,300000.0,66.10000000000001,30.838909743757135,29.521829521829524,26.143790849673206,59642.0,5264.0,0.0,1.0,0.0,?,0.0,0.0
400000.0,0.484375,3.960837299625079E-9,400000.0,66.5,32.032137639993515,33.79446640316207,27.173913043478265,79562.0,5264.0,0.0,1.0,0.0,?,0.0,0.0
500000.0,0.609375,5.290817676319017E-9,500000.0,64.9,28.80959914328134,27.027027027027028,24.19006479481641,99442.0,5264.0,0.0,1.0,0.0,?,0.0,2.0
600000.0,0.703125,5.946041912668282E-9,600000.0,66.3,31.13229139419305,33.66141732283465,25.442477876106196,119362.0,5264.0,0.0,1.0,0.0,?,0.0,0.0
700000.0,0.828125,7.299305353727606E-9,700000.0,68.2,34.738440700227805,34.96932515337424,26.558891454965377,139242.0,5264.0,0.0,1.0,0.0,?,0.0,0.0
800000.0,0.953125,8.196220733225346E-9,800000.0,65.7,29.620236541665644,31.124497991967875,22.398190045248867,159162.0,5264.0,0.0,1.0,0.0,?,0.0,0.0
900000.0,1.0625,9.400698925471969E-9,900000.0,66.10000000000001,31.97415419191717,28.78151260504202,32.06412825651303,179042.0,5264.0,0.0,1.0,0.0,?,0.0,0.0
1000000.0,1.1875,1.0320897369335097E-8,1000000.0,67.80000000000001,34.64450262842762,37.35408560311285,29.540481400437642,198962.0,5264.0,0.0,1.0,0.0,?,0.0,0.0
1100000.0,1.3125,1.1720726939125195E-8,1100000.0,65.9,30.97277776878108,34.042553191489375,27.7542372881356,218842.0,5264.0,0.0,1.0,0.0,?,0.0,0.0
1200000.0,1.4375,1.2664208447353708E-8,1200000.0,67.0,32.978321533456004,33.198380566801625,28.725701943844495,238762.0,5264.0,0.0,1.0,0.0,?,0.0,0.0
1300000.0,1.5625,1.4087321081509193E-8,1300000.0,64.4,28.238827632082895,30.873786407766996,26.293995859213254,258642.0,5264.0,0.0,1.0,0.0,?,0.0,0.0
1400000.0,1.671875,1.4933240082528858E-8,1400000.0,66.2,32.28732611064812,35.98484848484849,32.12851405622491,278562.0,5264.0,0.0,1.0,0.0,?,0.0,0.0
1500000.0,1.796875,1.637963578104973E-8,1500000.0,63.5,26.38457504739624,22.669491525423727,23.640167364016733,298442.0,5264.0,0.0,1.0,0.0,?,0.0,0.0
1600000.0,1.9375,1.749343937262893E-8,1600000.0,67.0,33.66567500201014,36.04651162790699,31.535269709543574,318362.0,5264.0,0.0,1.0,0.0,?,0.0,0.0
1700000.0,2.0625,1.8963118135515187E-8,1700000.0,65.2,28.894846102293343,26.42706131078224,23.348017621145374,338242.0,5264.0,0.0,1.0,0.0,?,0.0,0.0
1800000.0,2.203125,2.0103115174505445E-8,1800000.0,69.1,36.93929029150782,39.648437499999986,32.53275109170304,358162.0,5264.0,0.0,1.0,0.0,?,0.0,0.0
1900000.0,2.3125,2.1409456773350636E-8,1900000.0,68.2,35.219175124163264,36.40000000000001,29.490022172949004,378042.0,5264.0,0.0,1.0,0.0,?,0.0,0.0
2000000.0,2.4375,2.2446070539040697E-8,2000000.0,65.2,29.07945953657095,29.41176470588236,22.83813747228381,397962.0,5264.0,0.0,1.0,0.0,?,0.0,0.0
2100000.0,2.5625,2.396231543065773E-8,2100000.0,66.10000000000001,31.384852042262075,32.60437375745527,28.329809725158565,417842.0,5264.0,0.0,1.0,0.0,?,0.0,0.0
2200000.0,2.671875,2.487953881629639E-8,2200000.0,64.3,28.322464582864864,29.585798816568055,26.69404517453799,437762.0,5264.0,0.0,1.0,0.0,?,0.0,51.0
2300000.0,2.78125,2.6219155794630448E-8,2300000.0,66.5,32.52388855766288,33.66336633663367,30.06263048016702,457642.0,5264.0,0.0,1.0,0.0,?,0.0,27.0
2400000.0,2.890625,2.7159468219098117E-8,2400000.0,66.8,32.875864829783715,35.53398058252428,29.21108742004265,477562.0,5264.0,0.0,1.0,0.0,?,0.0,0.0
2500000.0,3.0,2.8519457878751885E-8,2500000.0,66.60000000000001,32.224025974025984,34.63796477495109,28.01724137931035,497442.0,5264.0,0.0,1.0,0.0,?,0.0,0.0
2600000.0,3.125,2.9617383713937465E-8,2600000.0,65.3,30.042579271636406,33.39731285988484,27.100840336134457,517362.0,5264.0,0.0,1.0,0.0,?,0.0,0.0
2700000.0,3.25,3.119494067505002E-8,2700000.0,66.8,32.68587417124551,36.76190476190477,28.60215053763441,537242.0,5264.0,0.0,1.0,0.0,?,0.0,0.0
2800000.0,3.375,3.231614957460099E-8,2800000.0,64.9,29.04790782292299,29.376257545271635,26.105263157894736,557162.0,5264.0,0.0,1.0,0.0,?,0.0,0.0
2900000.0,3.484375,3.3716884596894185E-8,2900000.0,66.2,31.964573268921104,31.578947368421055,30.165289256198353,577042.0,5264.0,0.0,1.0,0.0,?,0.0,0.0
3000000.0,3.609375,3.486137656081054E-8,3000000.0,66.7,31.65473532116118,30.625000000000007,24.830699774266364,596962.0,5264.0,0.0,1.0,0.0,?,0.0,0.0
3100000.0,3.71875,3.628248426442345E-8,3100000.0,66.9,33.195553366863386,35.976789168278536,30.16877637130802,616842.0,5264.0,0.0,1.0,0.0,?,0.0,0.0
3200000.0,3.828125,3.730428741416998E-8,3200000.0,67.30000000000001,33.62885744209271,30.720338983050855,30.2771855010661,636762.0,5264.0,0.0,1.0,0.0,?,0.0,0.0
3300000.0,3.9375,3.87457677991026E-8,3300000.0,67.4,34.005959707197,37.54789272030653,30.341880341880344,656642.0,5264.0,0.0,1.0,0.0,?,0.0,0.0
3400000.0,4.0625,3.9936825891749725E-8,3400000.0,66.8,32.84219128647662,34.90196078431374,29.21108742004265,676562.0,5264.0,0.0,1.0,0.0,?,0.0,0.0
3500000.0,4.15625,4.11898428056803E-8,3500000.0,68.30000000000001,35.87046238003529,35.95959595959597,31.681034482758623,696442.0,5264.0,0.0,1.0,0.0,?,0.0,0.0
3600000.0,4.28125,4.240418396269282E-8,3600000.0,65.0,29.45141419679428,28.86178861788618,27.385892116182575,716362.0,5264.0,0.0,1.0,0.0,?,0.0,0.0
3700000.0,4.390625,4.388640971026487E-8,3700000.0,65.4,29.466924880236476,28.364389233954455,23.956043956043953,736242.0,5264.0,0.0,1.0,0.0,?,0.0,0.0
3800000.0,4.5,4.496933090397053E-8,3800000.0,69.6,38.44359489405817,38.08553971486761,35.04273504273503,756162.0,5264.0,0.0,1.0,0.0,?,0.0,0.0
3900000.0,4.625,4.668658625127541E-8,3900000.0,68.30000000000001,36.310595345248814,37.35177865612649,34.50413223140497,776042.0,5264.0,0.0,1.0,0.0,?,0.0,0.0
4000000.0,4.71875,4.7632266715582875E-8,4000000.0,66.5,32.27781057193916,34.57031250000001,28.723404255319153,795962.0,5264.0,0.0,1.0,0.0,?,0.0,0.0
4100000.0,4.828125,4.8336256036741866E-8,4100000.0,67.10000000000001,32.977509778357245,37.57115749525618,27.212389380530976,815882.0,5264.0,0.0,1.0,0.0,?,0.0,0.0
4200000.0,4.953125,4.962044638685054E-8,4200000.0,69.1,37.58332323354743,38.56858846918488,34.810126582278464,835762.0,5264.0,0.0,1.0,0.0,?,0.0,0.0
4300000.0,5.078125,5.042293600531088E-8,4300000.0,66.2,31.411224208185207,33.464566929133866,27.467811158798284,855682.0,5264.0,0.0,1.0,0.0,?,0.0,5.0
4400000.0,5.203125,5.1705056749698184E-8,4400000.0,64.7,28.664963786859797,23.92241379310345,25.995807127882603,875562.0,5264.0,0.0,1.0,0.0,?,0.0,0.0
4500000.0,5.3125,5.244933870724505E-8,4500000.0,66.60000000000001,32.653686706563654,30.41666666666667,29.53586497890296,895482.0,5264.0,0.0,1.0,0.0,?,0.0,9.0
4600000.0,5.4375,5.3788632309685146E-8,4600000.0,67.10000000000001,33.27925370107484,36.363636363636374,30.000000000000004,915362.0,5264.0,0.0,1.0,0.0,?,0.0,16.0
4700000.0,5.5625,5.4671577850563654E-8,4700000.0,67.2,33.11173195750148,30.508474576271194,27.912087912087912,935282.0,5264.0,0.0,1.0,0.0,?,0.0,0.0
4800000.0,5.671875,5.586383243401845E-8,4800000.0,64.7,28.567959593343257,30.784313725490204,24.57264957264957,955162.0,5264.0,0.0,1.0,0.0,?,0.0,0.0
4900000.0,5.796875,5.6754280295636915E-8,4900000.0,67.5,33.63825703434476,34.34343434343435,29.65367965367966,975082.0,5264.0,0.0,1.0,0.0,?,0.0,56.0
5000000.0,5.90625,5.804681374380985E-8,5000000.0,69.69999999999999,38.965433889291745,38.787878787878775,36.874999999999986,994962.0,5264.0,0.0,1.0,0.0,?,0.0,0.0
5100000.0,6.03125,5.903737878219948E-8,5100000.0,67.30000000000001,39.36134703111672,28.28947368421053,11.621621621621632,19530.0,5168.0,0.0,1.0,0.0,?,1.0,4.0
5200000.0,6.140625,6.033308131413326E-8,5200000.0,63.3,33.72915267214168,20.9051724137931,5.167958656330754,9298.0,5168.0,0.0,1.0,0.0,?,3.0,32.0
5300000.0,6.25,6.122947929220067E-8,5300000.0,44.1,4.794669864021575,-15.020576131687244,-41.16161616161615,29218.0,5168.0,0.0,1.0,0.0,?,0.0,0.0
5400000.0,6.359375,6.254555450545416E-8,5400000.0,53.800000000000004,20.212765957446816,1.4925373134328372,-24.86486486486486,49098.0,5168.0,0.0,1.0,0.0,?,0.0,0.0
5500000.0,6.46875,6.346232516484127E-8,5500000.0,46.1,6.405412163476237,-9.330628803245434,-32.43243243243242,69018.0,5168.0,0.0,1.0,0.0,?,0.0,0.0
5600000.0,6.578125,6.479877305941448E-8,5600000.0,62.5,32.400764322024735,17.943107221006557,2.5974025974025996,88898.0,5168.0,0.0,1.0,0.0,?,0.0,0.0
5700000.0,6.6875,6.57359164001213E-8,5700000.0,41.6,5.5260773909667344,-30.941704035874455,-62.222222222222236,108818.0,5168.0,0.0,1.0,0.0,?,0.0,0.0
5800000.0,6.796875,6.709273697601423E-8,5800000.0,64.60000000000001,35.41843019352579,26.70807453416149,11.055276381909557,128698.0,5168.0,0.0,1.0,0.0,?,0.0,0.0
5900000.0,6.90625,6.805025299804077E-8,5900000.0,62.9,32.19087446355853,23.188405797101446,6.783919597989955,148618.0,5168.0,0.0,1.0,0.0,?,0.0,0.0
6000000.0,7.015625,6.942744625525341E-8,6000000.0,65.5,36.458471467091016,26.282051282051285,15.647921760391212,168498.0,5168.0,0.0,1.0,0.0,?,0.0,0.0
6100000.0,7.125,7.040533495859966E-8,6100000.0,43.6,5.376748181354525,-25.612472160356358,-46.875,188418.0,5168.0,0.0,1.0,0.0,?,0.0,0.0
6200000.0,7.234375,7.180290089713201E-8,6200000.0,43.4,7.689196374109914,-21.982758620689662,-56.78670360110804,208298.0,5168.0,0.0,1.0,0.0,?,0.0,0.0
6300000.0,7.34375,7.280116228179798E-8,6300000.0,64.1,34.80124367989772,25.363825363825367,7.235142118863055,228218.0,5168.0,0.0,1.0,0.0,?,0.0,0.0
6400000.0,7.453125,7.421910090165005E-8,6400000.0,63.7,34.7643248916333,16.55172413793105,0.0,248098.0,5168.0,0.0,1.0,0.0,?,0.0,0.0
6500000.0,7.578125,7.538325411991939E-8,6500000.0,62.6,32.90011446451063,15.765765765765757,-1.3550135501355027,268018.0,5168.0,0.0,1.0,0.0,?,0.0,0.0
6600000.0,7.6875,7.682156542109118E-8,6600000.0,44.1,6.6154360173738675,-17.932489451476798,-45.572916666666664,287898.0,5168.0,0.0,1.0,0.0,?,0.0,0.0
6700000.0,7.796875,7.786057216839656E-8,6700000.0,65.2,36.339289634280206,24.675324675324674,13.432835820895534,307818.0,5168.0,0.0,1.0,0.0,?,0.0,0.0
6800000.0,7.90625,7.931925615088805E-8,6800000.0,63.7,34.42160943461673,18.426966292134825,6.44329896907217,327698.0,5168.0,0.0,1.0,0.0,?,0.0,0.0
6900000.0,8.015625,8.037863557951316E-8,6900000.0,64.2,34.92991333682313,24.63157894736842,7.731958762886605,347618.0,5168.0,0.0,1.0,0.0,?,0.0,0.0
7000000.0,8.125,8.185769224332437E-8,7000000.0,43.1,6.740269191180809,-19.287211740041936,-57.182320441988956,367498.0,5168.0,0.0,1.0,0.0,?,0.0,0.0
7100000.0,8.234375,8.293744435326919E-8,7100000.0,64.4,35.24235004784063,27.4949083503055,6.561679790026252,387418.0,5168.0,0.0,1.0,0.0,?,0.0,0.0
7200000.0,8.328125,8.422266950623855E-8,7200000.0,44.3,6.831882564682424,-12.981744421906694,-47.354497354497354,407298.0,5168.0,0.0,1.0,0.0,?,0.0,0.0
7300000.0,8.4375,8.532279429750309E-8,7300000.0,62.1,31.927581004382503,20.54507337526205,-2.156334231805932,427218.0,5168.0,0.0,1.0,0.0,?,0.0,0.0
7400000.0,8.546875,8.684259632395372E-8,7400000.0,61.5,30.492868748871626,19.287211740041922,1.2820512820512833,447098.0,5168.0,0.0,1.0,0.0,?,0.0,0.0
7500000.0,8.65625,8.796309379653796E-8,7500000.0,64.0,34.07559331966012,23.404255319148934,10.891089108910899,467018.0,5168.0,0.0,1.0,0.0,?,0.0,0.0
7600000.0,8.78125,8.972329346256122E-8,7600000.0,45.1,6.298642781069935,-12.73100616016427,-38.636363636363626,486898.0,5168.0,0.0,1.0,0.0,?,0.0,0.0
7700000.0,8.890625,9.086416361646517E-8,7700000.0,61.4,31.201163520219016,16.45021645021644,-8.42696629213484,506818.0,5168.0,0.0,1.0,0.0,?,0.0,0.0
7800000.0,8.984375,9.220177566425666E-8,7800000.0,63.3,34.111310592459596,21.0752688172043,2.1333333333333355,526698.0,5168.0,0.0,1.0,0.0,?,0.0,0.0
7900000.0,9.09375,9.336301849948033E-8,7900000.0,62.6,32.892890593879976,24.291497975708502,0.795755968169762,546618.0,5168.0,0.0,1.0,0.0,?,0.0,0.0
8000000.0,9.21875,9.516978429423436E-8,8000000.0,64.1,34.85282909302072,23.779193205944797,7.712082262210804,566498.0,5168.0,0.0,1.0,0.0,?,0.0,0.0
8100000.0,9.328125,9.635139981077775E-8,8100000.0,62.0,31.733501963560055,14.414414414414404,-1.8766756032171599,586418.0,5168.0,0.0,1.0,0.0,?,0.0,0.0
8200000.0,9.4375,9.713371077345475E-8,8200000.0,64.9,35.876356461690236,29.940119760479046,11.586901763224192,606338.0,5168.0,0.0,1.0,0.0,?,0.0,0.0
8300000.0,9.546875,9.833569897131786E-8,8300000.0,65.3,36.37510451351709,27.708333333333336,14.742014742014753,626218.0,5168.0,0.0,1.0,0.0,?,0.0,0.0
8400000.0,9.671875,9.92530517073141E-8,8400000.0,65.10000000000001,36.58419583672521,21.923937360178968,7.915567282321907,646138.0,5168.0,0.0,1.0,0.0,?,0.0,0.0
8500000.0,9.78125,1.0047541258649692E-7,8500000.0,65.0,35.89626183629737,24.07809110629067,11.392405063291148,666018.0,5168.0,0.0,1.0,0.0,?,0.0,0.0
8600000.0,9.890625,1.0129846891181335E-7,8600000.0,63.9,34.079338529074484,26.626016260162604,10.199004975124387,685938.0,5168.0,0.0,1.0,0.0,?,0.0,0.0
8700000.0,10.0,1.0254120247231588E-7,8700000.0,45.5,7.971523518763673,-17.20430107526882,-40.82687338501291,705818.0,5168.0,0.0,1.0,0.0,?,0.0,0.0
8800000.0,10.109375,1.0338463147895202E-7,8800000.0,65.5,36.686559933052926,23.672566371681413,11.764705882352951,725738.0,5168.0,0.0,1.0,0.0,?,0.0,0.0
8900000.0,10.203125,1.0446729397194251E-7,8900000.0,61.8,31.140401476695896,18.20128479657387,0.0,745618.0,5168.0,0.0,1.0,0.0,?,0.0,0.0
9000000.0,10.3125,1.0533109565989836E-7,9000000.0,61.9,31.932196606971857,18.93617021276595,-3.2520325203252063,765538.0,5168.0,0.0,1.0,0.0,?,0.0,0.0
9100000.0,10.421875,1.0661457458304031E-7,9100000.0,43.7,7.074855082988915,-22.12581344902387,-52.989130434782616,785418.0,5168.0,0.0,1.0,0.0,?,0.0,0.0
9200000.0,10.546875,1.076250595764981E-7,9200000.0,64.7,35.65533131124592,23.92241379310345,9.02061855670104,805338.0,5168.0,0.0,1.0,0.0,?,0.0,0.0
9300000.0,10.671875,1.0911517569588286E-7,9300000.0,45.6,7.4600155821003185,-15.498938428874737,-39.13043478260869,825218.0,5168.0,0.0,1.0,0.0,?,0.0,0.0
9400000.0,10.78125,1.1001972274647814E-7,9400000.0,52.6,16.203783911833668,0.6289308176100634,-16.46191646191645,845138.0,5168.0,0.0,1.0,0.0,?,0.0,0.0
9500000.0,10.890625,1.1134394703225953E-7,9500000.0,47.0,11.340399336223966,-11.814345991561193,-42.4731182795699,865018.0,5168.0,0.0,1.0,0.0,?,0.0,0.0
9600000.0,11.0,1.1226886676417453E-7,9600000.0,42.9,7.162925001951039,-26.8888888888889,-59.05292479108636,884938.0,5168.0,0.0,1.0,0.0,?,0.0,0.0
9700000.0,11.125,1.1380554901229008E-7,9700000.0,62.7,33.16370412844037,19.957081545064373,1.5831134564643814,904818.0,5168.0,0.0,1.0,0.0,?,0.0,0.0
9800000.0,11.234375,1.1475084142552479E-7,9800000.0,63.4,34.6876427592508,21.459227467811157,-0.5494505494505499,924738.0,5168.0,0.0,1.0,0.0,?,0.0,0.0
9900000.0,11.34375,1.161158110739456E-7,9900000.0,41.199999999999996,6.318110557375364,-25.641025641025657,-73.96449704142015,944618.0,5168.0,0.0,1.0,0.0,?,0.0,0.0
1.0E7,11.453125,1.1708147616850002E-7,1.0E7,62.8,33.26827588186332,21.848739495798316,0.5347593582887705,964538.0,5168.0,0.0,1.0,0.0,?,0.0,0.0
