learning evaluation instances,evaluation time (cpu seconds),model cost (RAM-Hours),classified instances,classifications correct (percent),Kappa Statistic (percent),Kappa Temporal Statistic (percent),Kappa M Statistic (percent),model training instances,model serialized size (bytes),labeling cost,newThreshold,maxPosterior,accuracyBaseLearner (percent),Change detected,Warning detected
100000.0,0.265625,1.4947403946684467E-9,100000.0,60.5,19.984118366784692,20.2020202020202,12.995594713656375,10000.0,2904.0,10000.0,0.5159534378350822,0.5178048226423709,0.0,0.0,0.0
200000.0,0.53125,3.175842317028178E-9,200000.0,62.5,24.236301923387742,23.78048780487805,21.71189979123173,20000.0,2904.0,20000.0,0.5504036524624092,0.552029468665081,0.0,0.0,26.0
300000.0,0.765625,4.659167542639706E-9,300000.0,61.3,21.08611605030912,21.818181818181813,15.131578947368412,30000.0,2904.0,30000.0,0.5422269678969996,0.5211255180765122,0.0,0.0,0.0
400000.0,1.046875,6.439157813373539E-9,400000.0,60.4,19.1675069707819,19.18367346938775,11.804008908685956,40000.0,2904.0,40000.0,0.5236464606334891,0.5200399930033468,0.0,0.0,0.0
500000.0,1.296875,8.021371387359169E-9,500000.0,62.3,22.820550614978956,22.903885480572594,17.324561403508763,50000.0,2904.0,50000.0,0.5476035079369527,0.5157186126671377,0.0,0.0,0.0
600000.0,1.5625,9.702473309718899E-9,600000.0,64.0,26.84265073462172,24.528301886792452,22.58064516129032,60000.0,2904.0,60000.0,0.555814854395728,0.5475541203044635,0.0,0.0,0.0
700000.0,1.8125,1.1284686883704528E-8,700000.0,63.7,25.19597418333787,24.532224532224532,17.873303167420808,70000.0,2904.0,70000.0,0.5209824416658547,0.5007693999120688,0.0,0.0,0.0
800000.0,2.109375,1.3163565502812464E-8,800000.0,61.7,21.47777595538789,21.19341563786008,14.699331848552328,80000.0,2904.0,80000.0,0.5235590135516823,0.5160947822627043,0.0,0.0,0.0
900000.0,2.375,1.4844667425172196E-8,900000.0,62.8,24.770671886880983,27.201565557729946,21.51898734177215,90000.0,2904.0,90000.0,0.542091148627854,0.5071587183589199,0.0,0.0,0.0
1000000.0,2.640625,1.6525769347531928E-8,1000000.0,65.0,28.85369066397801,27.983539094650205,24.24242424242424,100000.0,2904.0,100000.0,0.5612792556605624,0.518216359001109,0.0,0.0,0.0
1100000.0,2.90625,1.820687126989166E-8,1100000.0,62.1,22.835735809104982,24.2,15.401785714285705,110000.0,2904.0,110000.0,0.5366790921769218,0.5200765641333164,0.0,0.0,0.0
1200000.0,3.171875,1.9887973192251393E-8,1200000.0,62.8,24.018676699469353,20.85106382978723,18.599562363238505,120000.0,2904.0,120000.0,0.544726626385845,0.5370367585878749,0.0,0.0,0.0
1300000.0,3.4375,2.1569075114611125E-8,1300000.0,62.1,23.73631680618159,21.694214876033055,21.205821205821202,130000.0,2904.0,130000.0,0.5584237821767811,0.5039653320985031,0.0,0.0,0.0
1400000.0,3.6875,2.3151288688596754E-8,1400000.0,61.9,23.034656625483812,24.85207100591716,20.292887029288696,140000.0,2904.0,140000.0,0.5392882582077371,0.5144104787269445,0.0,0.0,0.0
1500000.0,3.953125,2.4832390610956486E-8,1500000.0,61.5,22.031948674745642,23.45924453280318,17.73504273504273,150000.0,2904.0,150000.0,0.5260165363124817,0.500596332588116,0.0,0.0,0.0
1600000.0,4.21875,2.6513492533316218E-8,1600000.0,61.0,19.5116212836039,21.999999999999996,11.564625850340123,160000.0,2904.0,160000.0,0.5339041848759031,0.5300223100614335,0.0,0.0,0.0
1700000.0,4.46875,2.8095706107301847E-8,1700000.0,63.0,25.269433986653528,24.643584521384927,21.940928270042193,170000.0,2904.0,170000.0,0.5156088746600022,0.5068777412881371,0.0,0.0,0.0
1800000.0,4.71875,2.9677919681287476E-8,1800000.0,61.4,21.758448465979114,23.564356435643564,17.521367521367516,180000.0,2904.0,180000.0,0.5391981990017926,0.5047709382064862,0.0,0.0,0.0
1900000.0,5.0,3.145790995202131E-8,1900000.0,61.4,21.848109979550923,23.260437375745525,16.98924731182795,190000.0,2904.0,190000.0,0.520721478650007,0.5215638550277094,0.0,0.0,0.0
2000000.0,5.265625,3.313901187438104E-8,2000000.0,61.7,22.843858532300814,21.030927835051543,20.703933747412005,200000.0,2904.0,200000.0,0.5285297275157382,0.5182521458013923,0.0,0.0,0.0
2100000.0,5.515625,3.4721225448366666E-8,2100000.0,62.2,22.88704379934311,24.550898203592812,16.923076923076916,210000.0,2904.0,210000.0,0.5527101863468108,0.5067500048830017,0.0,0.0,0.0
2200000.0,5.78125,3.6402327370726395E-8,2200000.0,63.1,24.91942572516848,26.930693069306933,19.607843137254896,220000.0,2904.0,220000.0,0.5129429112348741,0.51115086306991,0.0,0.0,0.0
2300000.0,6.046875,3.8083429293086124E-8,2300000.0,64.2,26.926845199216203,23.991507430997878,21.834061135371176,230000.0,2904.0,230000.0,0.5310992738822958,0.5195733139124982,0.0,0.0,0.0
2400000.0,6.3125,3.976453121544585E-8,2400000.0,61.7,21.71083293132629,21.516393442622945,13.348416289592748,240000.0,2904.0,240000.0,0.528441464945869,0.5126600287784395,0.0,0.0,0.0
2500000.0,6.5625,4.134674478943148E-8,2500000.0,61.4,20.85752714627824,22.954091816367264,13.839285714285705,250000.0,2904.0,250000.0,0.5581440645842584,0.5300679322546693,0.0,0.0,0.0
2600000.0,6.8125,4.292895836341711E-8,2600000.0,61.8,22.764622153209114,25.680933852140083,19.409282700421937,260000.0,2904.0,260000.0,0.5390181257060924,0.5177337937968667,0.0,0.0,0.0
2700000.0,7.078125,4.461006028577684E-8,2700000.0,62.1,23.148050515455562,24.95049504950495,19.532908704883223,270000.0,2904.0,270000.0,0.5363206880294558,0.5041852763995581,0.0,0.0,0.0
2800000.0,7.34375,4.629116220813657E-8,2800000.0,63.6,26.58537274058417,25.865580448065174,23.68972746331237,280000.0,2904.0,280000.0,0.5498064764268046,0.5203236860537774,0.0,0.0,0.0
2900000.0,7.578125,4.77744874337481E-8,2900000.0,59.599999999999994,18.34028653665792,16.528925619834702,14.40677966101694,290000.0,2904.0,290000.0,0.525709150420075,0.5055129682300481,0.0,0.0,0.0
3000000.0,7.84375,4.9455589356107826E-8,3000000.0,59.9,18.149902024820378,17.48971193415637,11.868131868131854,300000.0,2904.0,300000.0,0.5283090987268904,0.5240400022325071,0.0,0.0,0.0
3100000.0,8.109375,5.1136691278467555E-8,3100000.0,63.4,25.46310627413285,25.30612244897959,20.779220779220775,310000.0,2904.0,310000.0,0.541593435641062,0.5357752647884828,0.0,0.0,0.0
3200000.0,8.375,5.2817793200827284E-8,3200000.0,60.8,20.440015424894963,24.760076775431862,17.124735729386884,320000.0,2904.0,320000.0,0.5282649840222243,0.5118024199541498,0.0,0.0,0.0
3300000.0,8.640625,5.449889512318701E-8,3300000.0,61.4,22.723341554822373,23.41269841269841,22.334004024144864,330000.0,2904.0,330000.0,0.5415482116717643,0.5225338798293612,0.0,0.0,0.0
3400000.0,8.875,5.598222034879854E-8,3400000.0,61.4,21.255023562292173,21.224489795918362,15.164835164835155,340000.0,2904.0,340000.0,0.5719875143820888,0.5418736075466934,0.0,0.0,0.0
3500000.0,9.140625,5.766332227115827E-8,3500000.0,63.6,25.90632442445091,26.907630522088354,21.382289416846646,350000.0,2904.0,350000.0,0.5203737312897269,0.5161757969366677,0.0,0.0,0.0
3600000.0,9.40625,5.9344424193518E-8,3600000.0,61.4,21.514405969785074,25.1937984496124,15.164835164835155,360000.0,2904.0,360000.0,0.5441810498399392,0.5086542892708132,0.0,0.0,0.0
3700000.0,9.671875,6.102552611587773E-8,3700000.0,60.8,19.496607357024335,23.883495145631066,13.656387665198228,370000.0,2904.0,370000.0,0.5360968069917827,0.5137928243597453,0.0,0.0,0.0
3800000.0,9.9375,6.270662803823746E-8,3800000.0,60.4,19.16387686780435,16.101694915254228,12.77533039647576,380000.0,2904.0,380000.0,0.5334139886290298,0.52225463501001,0.0,0.0,0.0
3900000.0,10.203125,6.438772996059719E-8,3900000.0,59.8,17.84013570684052,18.787878787878782,10.467706013363015,390000.0,2904.0,390000.0,0.5414125624202927,0.5119810834039861,0.0,0.0,0.0
4000000.0,10.453125,6.596994353458281E-8,4000000.0,59.199999999999996,15.902644944264887,19.04761904761904,7.692307692307675,400000.0,2904.0,400000.0,0.538703142133993,0.5158758193734295,0.0,0.0,0.0
4100000.0,10.71875,6.765104545694254E-8,4100000.0,60.199999999999996,19.915649850294574,23.0174081237911,18.442622950819665,410000.0,2904.0,410000.0,0.5522488373606661,0.5463646350298026,0.0,0.0,0.0
4200000.0,10.96875,6.923325903092817E-8,4200000.0,62.0,22.922143251225133,22.920892494929003,17.74891774891774,420000.0,2904.0,420000.0,0.5280444657475851,0.5030841223291806,0.0,0.0,0.0
4300000.0,11.21875,7.08154726049138E-8,4300000.0,65.60000000000001,29.943466006288805,31.610337972167002,25.541125541125542,430000.0,2904.0,430000.0,0.5413221484631751,0.5101486430282937,0.0,0.0,0.0
4400000.0,11.484375,7.249657452727353E-8,4400000.0,63.3,25.105709108125318,24.795081967213115,19.69365426695842,440000.0,2904.0,440000.0,0.5604830356131957,0.5489402907668584,0.0,0.0,0.0
4500000.0,11.734375,7.407878810125916E-8,4500000.0,60.199999999999996,17.518765517041285,21.031746031746028,7.226107226107231,450000.0,2904.0,450000.0,0.5466897166182861,0.5519955785235655,0.0,0.0,0.0
4600000.0,12.0,7.575989002361889E-8,4600000.0,60.6,20.45160873497867,23.643410852713174,17.226890756302513,460000.0,2904.0,460000.0,0.5227289942719565,0.5084343283784454,0.0,0.0,0.0
4700000.0,12.265625,7.744099194597862E-8,4700000.0,62.7,24.271955042310253,23.565573770491802,20.806794055201692,470000.0,2904.0,470000.0,0.5521105077719197,0.5329530945603547,0.0,0.0,0.0
4800000.0,12.53125,7.912209386833835E-8,4800000.0,60.0,19.414303155332952,19.51710261569416,16.142557651991606,480000.0,2904.0,480000.0,0.538523234169948,0.5082894769275291,0.0,0.0,0.0
4900000.0,12.796875,8.080319579069807E-8,4900000.0,60.6,20.136861905688523,21.357285429141715,15.811965811965804,490000.0,2904.0,490000.0,0.5520644056092915,0.5256130596476863,0.0,0.0,0.0
5000000.0,13.046875,8.23854093646837E-8,5000000.0,59.8,17.622950819672127,20.86614173228346,10.666666666666652,500000.0,2904.0,500000.0,0.5331467985818603,0.5102460313288208,0.0,0.0,0.0
5100000.0,13.3125,8.406761076508292E-8,5100000.0,62.3,24.633161408980047,22.107438016528924,23.838383838383837,6362.0,2904.0,510000.0,0.5631138752729322,0.5399664672944797,0.0,1.0,10.0
5200000.0,13.578125,8.573771790704788E-8,5200000.0,62.4,24.264397821392894,19.82942430703624,21.666666666666664,16362.0,2904.0,520000.0,0.5772733785981548,0.5006212475193073,0.0,0.0,7.0
5300000.0,13.84375,8.740782504901284E-8,5300000.0,62.9,25.73345717763116,26.679841897233203,24.285714285714285,26362.0,2904.0,530000.0,0.5630668543104747,0.5198902864689607,0.0,0.0,0.0
5400000.0,14.09375,8.897969059439164E-8,5400000.0,62.5,24.810522516742182,25.0,21.71189979123173,36362.0,2904.0,540000.0,0.5888274013165816,0.558285767740553,0.0,0.0,0.0
5500000.0,14.34375,9.055155613977044E-8,5500000.0,62.2,23.943661971830984,23.481781376518217,19.57446808510638,46362.0,2904.0,550000.0,0.5858807003772436,0.5278193448478763,0.0,0.0,0.0
5600000.0,14.609375,9.22216632817354E-8,5600000.0,62.7,25.26188396156096,27.290448343079927,23.721881390593047,56362.0,2904.0,560000.0,0.5771769760132818,0.548055989365277,0.0,0.0,0.0
5700000.0,14.875,9.389177042370036E-8,5700000.0,63.2,25.84562186909334,26.104417670682732,23.173277661795407,66362.0,2904.0,570000.0,0.5800314637092263,0.5791577763735831,0.0,0.0,0.0
5800000.0,15.140625,9.556187756566533E-8,5800000.0,61.199999999999996,22.54777883797714,25.812619502868067,22.4,76362.0,2904.0,580000.0,0.571414634413947,0.5385577596166825,0.0,0.0,0.0
5900000.0,15.390625,9.713374311104412E-8,5900000.0,63.1,25.57482855990319,25.75452716297787,21.98731501057082,86362.0,2904.0,590000.0,0.5356045976213173,0.5158321985175648,0.0,0.0,0.0
6000000.0,15.65625,9.880385025300909E-8,6000000.0,62.5,24.318869828456098,24.089068825910932,17.582417582417577,96362.0,2904.0,600000.0,0.554563103718267,0.554351173606887,0.0,0.0,0.0
6100000.0,15.921875,1.0047395739497405E-7,6100000.0,62.7,25.182730649807038,19.784946236559133,21.966527196652716,106362.0,2904.0,610000.0,0.5517878734640352,0.5158122145081377,0.0,0.0,0.0
6200000.0,16.1875,1.0214406453693901E-7,6200000.0,65.7,30.903054769905157,31.400000000000006,27.176220806794056,116362.0,2904.0,620000.0,0.582802726343714,0.5221785260713097,0.0,0.0,0.0
6300000.0,16.453125,1.0381417167890398E-7,6300000.0,66.7,33.0023016626696,36.20689655172415,29.449152542372886,126362.0,2904.0,630000.0,0.5741447277351367,0.5548583876950469,0.0,0.0,0.0
6400000.0,16.703125,1.0538603722428277E-7,6400000.0,62.9,25.88478780275365,25.8,26.968503937007878,136362.0,2904.0,640000.0,0.565615350590593,0.5186449849045293,0.0,0.0,0.0
6500000.0,16.96875,1.0705614436624774E-7,6500000.0,63.9,27.240625932166505,30.975143403441685,23.027718550106606,146362.0,2904.0,650000.0,0.5572126841358155,0.5340936715109748,0.0,0.0,0.0
6600000.0,17.234375,1.087262515082127E-7,6600000.0,63.2,26.01200696452195,26.838966202783304,23.333333333333332,156362.0,2904.0,660000.0,0.5489348459825979,0.5337786574951209,0.0,0.0,0.0
6700000.0,17.5,1.1039635865017767E-7,6700000.0,62.4,24.703922204733235,22.314049586776857,24.193548387096772,166362.0,2904.0,670000.0,0.5683651956670749,0.5055771591995786,0.0,0.0,0.0
6800000.0,17.75,1.1196822419555646E-7,6800000.0,62.3,25.04076032926393,26.22309197651663,23.684210526315788,176362.0,2904.0,680000.0,0.5543778990830462,0.5042774940450716,0.0,0.0,0.0
6900000.0,18.015625,1.1363833133752143E-7,6900000.0,64.60000000000001,28.393423522558102,31.39534883720931,24.358974358974358,186362.0,2904.0,690000.0,0.5740009135725754,0.5391931946901056,0.0,0.0,0.0
7000000.0,18.28125,1.1530843847948639E-7,7000000.0,63.4,26.8748801227543,26.060606060606062,26.65330661322645,196362.0,2904.0,700000.0,0.5488431758310911,0.5218562066758452,0.0,0.0,0.0
7100000.0,18.546875,1.1697854562145135E-7,7100000.0,63.7,27.201989411198458,23.89937106918239,24.84472049689441,206362.0,2904.0,710000.0,0.5739529835239913,0.5642896160515393,0.0,0.0,0.0
7200000.0,18.8125,1.1864865276341632E-7,7200000.0,61.6,22.710292412727046,23.96039603960396,19.665271966527193,216362.0,2904.0,720000.0,0.5767915266357353,0.5026461439647751,0.0,0.0,0.0
7300000.0,19.078125,1.203187599053813E-7,7300000.0,65.7,31.10623699454474,32.876712328767134,27.637130801687764,226362.0,2904.0,730000.0,0.5739050574776436,0.5445345300356449,0.0,0.0,0.0
7400000.0,19.328125,1.2189062545076008E-7,7400000.0,62.3,23.99132251066541,24.14486921529175,20.964360587002094,236362.0,2904.0,740000.0,0.56537924082564,0.5371525720607863,0.0,0.0,0.0
7500000.0,19.609375,1.2365897418931122E-7,7500000.0,64.60000000000001,28.7347806480706,26.096033402922757,24.034334763948497,246362.0,2904.0,750000.0,0.5569800819694393,0.5499760420748244,0.0,0.0,0.0
7600000.0,19.875,1.253290813312762E-7,7600000.0,64.9,29.09205507789774,31.712062256809343,23.86117136659436,256362.0,2904.0,760000.0,0.5766952045184088,0.5179780291600349,0.0,0.0,0.0
7700000.0,20.140625,1.2699918847324118E-7,7700000.0,62.4,24.347294208543925,21.50313152400835,21.33891213389121,266362.0,2904.0,770000.0,0.568127938010208,0.5408296202968207,0.0,0.0,0.0
7800000.0,20.40625,1.2866929561520615E-7,7800000.0,63.0,25.95824044761245,27.59295499021527,26.0,276362.0,2904.0,780000.0,0.5882376551867529,0.5330849594695439,0.0,0.0,0.0
7900000.0,20.671875,1.3033940275717113E-7,7900000.0,61.9,23.236246997952964,21.604938271604933,19.450317124735726,286362.0,2904.0,790000.0,0.5405091019928631,0.5256158298201229,0.0,0.0,0.0
8000000.0,20.921875,1.3191126830254991E-7,8000000.0,61.1,21.844863057734333,23.122529644268774,19.628099173553714,296362.0,2904.0,800000.0,0.5708899985015156,0.5081348182670724,0.0,0.0,0.0
8100000.0,21.1875,1.335813754445149E-7,8100000.0,63.800000000000004,27.443568333326652,27.45490981963928,25.971370143149286,306362.0,2904.0,810000.0,0.5568405672788169,0.5566623578571556,0.0,0.0,0.0
8200000.0,21.46875,1.3534972418306604E-7,8200000.0,62.3,23.878981714802617,22.903885480572594,22.587268993839835,316362.0,2904.0,820000.0,0.5708423282195882,0.5483516380358164,0.0,0.0,0.0
8300000.0,21.75,1.3711807292161718E-7,8300000.0,64.2,28.150538670263163,30.078125000000007,26.337448559670783,326362.0,2904.0,830000.0,0.5567940701482023,0.5119600958315079,0.0,0.0,0.0
8400000.0,22.015625,1.3878818006358216E-7,8400000.0,62.2,24.34098596905586,25.736738703339885,24.096385542168676,336362.0,2904.0,840000.0,0.5822676346227739,0.5874831901708307,0.0,0.0,0.0
8500000.0,22.28125,1.4045828720554714E-7,8500000.0,63.9,27.714413866017363,27.510040160642575,26.1758691206544,346362.0,2904.0,850000.0,0.5736175852278317,0.5354684664003226,0.0,0.0,0.0
8600000.0,22.53125,1.4203015275092592E-7,8600000.0,64.3,28.065961699658278,21.538461538461533,23.060344827586203,356362.0,2904.0,860000.0,0.5430461864211108,0.5238200706686862,0.0,0.0,0.0
8700000.0,22.796875,1.437002598928909E-7,8700000.0,61.9,23.532056325364078,23.18548387096774,21.92622950819672,366362.0,2904.0,870000.0,0.5909494222792785,0.5009172890709178,0.0,0.0,0.0
8800000.0,23.03125,1.451738838416835E-7,8800000.0,63.2,26.187419768934532,26.400000000000002,24.897959183673468,376362.0,2904.0,880000.0,0.5706993412558106,0.5355760557521079,0.0,0.0,0.0
8900000.0,23.296875,1.468439909836485E-7,8900000.0,60.5,20.730483644390922,21.93675889328063,16.13588110403396,386362.0,2904.0,890000.0,0.5909000770015072,0.5567114514566676,0.0,0.0,0.0
9000000.0,23.5625,1.4851409812561346E-7,9000000.0,63.0,25.273056291604735,26.877470355731226,18.322295805739508,396362.0,2904.0,900000.0,0.5706516868941011,0.531165277070297,0.0,0.0,0.0
9100000.0,23.828125,1.5018420526757844E-7,9100000.0,61.5,22.746608877116945,21.90669371196754,19.791666666666664,406362.0,2904.0,910000.0,0.5510971489588258,0.5504739427763101,0.0,0.0,0.0
9200000.0,24.09375,1.5185431240954342E-7,9200000.0,64.0,27.703875072296118,28.712871287128717,27.56539235412475,416362.0,2904.0,920000.0,0.5649544915956511,0.5660225947264192,0.0,0.0,0.0
9300000.0,24.359375,1.535244195515084E-7,9300000.0,62.3,23.942866365397013,24.6,16.592920353982294,426362.0,2904.0,930000.0,0.5791602772344379,0.5780259267335578,0.0,0.0,0.0
9400000.0,24.625,1.5519452669347337E-7,9400000.0,63.800000000000004,27.114876618774563,25.971370143149286,23.628691983122362,436362.0,2904.0,940000.0,0.5705563901080041,0.5556683457715009,0.0,0.0,0.0
9500000.0,24.890625,1.5686463383543835E-7,9500000.0,65.4,30.387896346370525,30.800000000000004,27.916666666666668,446362.0,2904.0,950000.0,0.5677011237822135,0.5228083191172004,0.0,0.0,0.0
9600000.0,25.15625,1.5853474097740333E-7,9600000.0,62.2,24.64625603527672,25.0,27.027027027027028,456362.0,2904.0,960000.0,0.5482476928788264,0.5409616592752318,0.0,0.0,0.0
9700000.0,25.40625,1.601066065227821E-7,9700000.0,62.7,25.211533063319557,27.852998065764023,23.877551020408163,466362.0,2904.0,970000.0,0.5564686989282789,0.5046531993438864,0.0,0.0,0.0
9800000.0,25.671875,1.617767136647471E-7,9800000.0,62.7,24.843844448922017,22.129436325678494,19.438444924406042,476362.0,2904.0,980000.0,0.5936241178201608,0.588937279836998,0.0,0.0,0.0
9900000.0,25.9375,1.6344682080671206E-7,9900000.0,62.9,25.836191938334096,25.94810379241517,26.095617529880478,486362.0,2904.0,990000.0,0.5790152067561427,0.5475104283830095,0.0,0.0,0.0
1.0E7,26.203125,1.6511692794867704E-7,1.0E7,63.4,26.61771841253675,24.536082474226802,25.45824847250509,496362.0,2904.0,1000000.0,0.5591740758427473,0.5499773848173994,0.0,0.0,0.0
