learning evaluation instances,evaluation time (cpu seconds),model cost (RAM-Hours),classified instances,classifications correct (percent),Kappa Statistic (percent),Kappa Temporal Statistic (percent),Kappa M Statistic (percent),model training instances,model serialized size (bytes),labeling cost,newThreshold,maxPosterior,accuracyBaseLearner (percent),Change detected,Warning detected
100000.0,0.265625,1.4947403946684467E-9,100000.0,66.0,31.819184477233627,32.00000000000001,29.606625258799173,10000.0,2904.0,10000.0,0.5813892481352072,0.5184285062312575,0.0,0.0,0.0
200000.0,0.53125,2.9894807893368935E-9,200000.0,66.0,32.03670018190178,33.463796477495116,28.118393234672308,20000.0,2904.0,20000.0,0.5670814335356693,0.5719157887851609,0.0,0.0,0.0
300000.0,0.796875,4.48422118400534E-9,300000.0,66.7,33.02493966210781,34.44881889763781,29.299363057324847,30000.0,2904.0,30000.0,0.5813407011481596,0.527353031155953,0.0,0.0,0.0
400000.0,1.0625,5.978961578673787E-9,400000.0,68.60000000000001,36.96171528377266,38.55185909980432,33.61522198731502,40000.0,2904.0,40000.0,0.5670340812753792,0.5484781916735086,0.0,0.0,0.0
500000.0,1.328125,7.473701973342234E-9,500000.0,65.0,30.006719354941936,33.07839388145316,30.13972055888224,50000.0,2904.0,50000.0,0.5755367903117579,0.5313518445421684,0.0,0.0,0.0
600000.0,1.578125,8.880516462441949E-9,600000.0,65.9,31.647437079561584,34.79923518164437,29.253112033195023,60000.0,2904.0,60000.0,0.5726566002987715,0.526881989872367,0.0,0.0,0.0
700000.0,1.84375,1.0375256857110395E-8,700000.0,65.10000000000001,30.15306285824074,29.352226720647778,29.208924949290065,70000.0,2904.0,70000.0,0.5697908237770787,0.5567918833675931,0.0,0.0,0.0
800000.0,2.109375,1.1869997251778842E-8,800000.0,66.8,33.25157321216752,31.546391752577325,29.511677282377924,80000.0,2904.0,80000.0,0.5783348703276402,0.5373107052535495,0.0,0.0,0.0
900000.0,2.375,1.3364737646447288E-8,900000.0,68.7,37.03480185073427,39.105058365758765,29.185520361990953,90000.0,2904.0,90000.0,0.5697432452781142,0.5489494228338945,0.0,0.0,0.0
1000000.0,2.625,1.4771552135547003E-8,1000000.0,63.7,27.363391149139165,26.518218623481783,26.069246435845216,100000.0,2904.0,100000.0,0.5958092399980032,0.5008309420779918,0.0,0.0,0.0
1100000.0,2.890625,1.626629253021545E-8,1100000.0,67.9,35.42027119462439,34.3558282208589,28.824833702882486,110000.0,2904.0,110000.0,0.5869580192715008,0.5496890583349605,0.0,0.0,0.0
1200000.0,3.140625,1.7673107019315163E-8,1200000.0,67.4,34.821899841653206,35.70019723865879,30.490405117270797,120000.0,2904.0,120000.0,0.5725131588885654,0.5619390669025832,0.0,0.0,0.0
1300000.0,3.390625,1.9079921508414878E-8,1300000.0,65.8,31.559757137196677,33.84912959381045,29.774127310061605,130000.0,2904.0,130000.0,0.5927780973554481,0.533648438773545,0.0,0.0,0.0
1400000.0,3.65625,2.0574661903083326E-8,1400000.0,68.60000000000001,36.88492956840548,35.91836734693879,33.75527426160338,140000.0,2904.0,140000.0,0.5611855240368604,0.5148993775324178,0.0,0.0,0.0
1500000.0,3.921875,2.2069402297751774E-8,1500000.0,67.0,33.99128684986419,32.51533742331289,29.33618843683084,150000.0,2904.0,150000.0,0.6106888686700115,0.5932694715924671,0.0,0.0,0.0
1600000.0,4.171875,2.347621678685149E-8,1600000.0,67.0,33.89846804692008,35.92233009708739,30.526315789473692,160000.0,2904.0,160000.0,0.5956599992181659,0.5271978738349351,0.0,0.0,0.0
1700000.0,4.421875,2.4883031275951203E-8,1700000.0,67.10000000000001,34.11039013057759,34.20000000000001,31.45833333333334,170000.0,2904.0,170000.0,0.5926791055381053,0.5470107568517756,0.0,0.0,0.0
1800000.0,4.671875,2.6289845765050917E-8,1800000.0,65.3,30.474854738529356,32.09393346379648,26.170212765957444,180000.0,2904.0,180000.0,0.5667027261466805,0.5182846776724694,0.0,0.0,0.0
1900000.0,4.9375,2.7784586159719365E-8,1900000.0,65.10000000000001,30.192181524330735,25.10729613733906,30.61630218687873,190000.0,2904.0,190000.0,0.5867619958701453,0.5285239558617881,0.0,0.0,0.0
2000000.0,5.1875,2.919140064881908E-8,2000000.0,64.8,29.18302967874847,25.423728813559322,24.786324786324787,200000.0,2904.0,200000.0,0.561044955949603,0.5502115129022812,0.0,0.0,0.0
2100000.0,5.453125,3.068614104348753E-8,2100000.0,66.4,32.659932659932664,32.93413173652696,29.113924050632917,210000.0,2904.0,210000.0,0.5751524362803216,0.5776305872661398,0.0,0.0,0.0
2200000.0,5.71875,3.2180881438155976E-8,2200000.0,68.10000000000001,36.21224724852829,33.95445134575571,34.76482617586913,220000.0,2904.0,220000.0,0.5837768805222823,0.5005205582447638,0.0,0.0,0.0
2300000.0,5.984375,3.3675621832824424E-8,2300000.0,66.9,33.30055455248905,30.46218487394958,26.769911504424783,230000.0,2904.0,230000.0,0.5751044100776227,0.5241541258010901,0.0,0.0,0.0
2400000.0,6.25,3.517036222749287E-8,2400000.0,67.2,33.972936956232914,34.92063492063493,29.764453961456105,240000.0,2904.0,240000.0,0.5837281341638776,0.5802762141791359,0.0,0.0,0.0
2500000.0,6.5,3.657717671659259E-8,2500000.0,66.3,32.48765946535034,35.1923076923077,30.800821355236145,250000.0,2904.0,250000.0,0.586615021281688,0.5278146128926753,0.0,0.0,0.0
2600000.0,6.765625,3.8071917111261035E-8,2600000.0,66.8,33.39539064004623,31.967213114754106,30.252100840336137,260000.0,2904.0,260000.0,0.5954113476525841,0.5633151188993257,0.0,0.0,0.0
2700000.0,7.03125,3.956665750592948E-8,2700000.0,67.80000000000001,35.506096877053004,32.49475890985325,33.744855967078195,270000.0,2904.0,270000.0,0.5750083697026912,0.5131114197706295,0.0,0.0,0.0
2800000.0,7.296875,4.106139790059793E-8,2800000.0,68.60000000000001,37.09431845500443,42.066420664206646,35.91836734693879,280000.0,2904.0,280000.0,0.5721308240936613,0.506323795103737,0.0,0.0,0.0
2900000.0,7.546875,4.2468212389697646E-8,2900000.0,68.10000000000001,36.061893690371214,37.695312500000014,31.250000000000007,290000.0,2904.0,290000.0,0.58651705867595,0.5846720956233374,0.0,0.0,0.0
3000000.0,7.8125,4.3962952784366094E-8,3000000.0,66.10000000000001,32.20759274961204,32.33532934131737,32.87128712871288,300000.0,2904.0,300000.0,0.5664188615848539,0.5448418404571507,0.0,0.0,0.0
3100000.0,8.0625,4.536976727346581E-8,3100000.0,70.1,40.212914010573705,40.319361277445104,38.979591836734684,310000.0,2904.0,310000.0,0.5923327643431164,0.5498364275063692,0.0,0.0,0.0
3200000.0,8.3125,4.677658176256552E-8,3200000.0,68.7,37.09048518712064,36.63967611336034,31.808278867102402,320000.0,2904.0,320000.0,0.5720352802969447,0.5081132902968725,0.0,0.0,0.0
3300000.0,8.578125,4.827132215723397E-8,3300000.0,68.2,36.07089295694234,35.23421588594706,31.01952277657267,330000.0,2904.0,330000.0,0.5691726130806665,0.5714388920400485,0.0,0.0,0.0
3400000.0,8.84375,4.976606255190242E-8,3400000.0,64.1,27.966611822304277,23.779193205944797,22.79569892473118,340000.0,2904.0,340000.0,0.5777073895258732,0.5028313696845923,0.0,0.0,0.0
3500000.0,9.09375,5.1172877041002133E-8,3500000.0,65.3,29.834919967323703,28.30578512396695,23.399558498896244,350000.0,2904.0,350000.0,0.6101791246895518,0.5155887572414561,0.0,0.0,0.0
3600000.0,9.375,5.2755543341239315E-8,3600000.0,67.2,34.17250016055489,31.808731808731817,31.524008350730693,360000.0,2904.0,360000.0,0.5834357414800568,0.5207006409658838,0.0,0.0,0.0
3700000.0,9.625,5.416235783033903E-8,3700000.0,65.7,31.375295106238255,30.98591549295775,30.425963488843816,370000.0,2904.0,370000.0,0.5863211825399783,0.5154973004877986,0.0,0.0,0.0
3800000.0,9.890625,5.565709822500748E-8,3800000.0,68.4,36.788621951951356,36.16161616161617,36.4185110663984,380000.0,2904.0,380000.0,0.571891994517544,0.5298106481226286,0.0,0.0,0.0
3900000.0,10.15625,5.7151838619675926E-8,3900000.0,66.2,32.00399124501095,30.87934560327199,24.553571428571427,390000.0,2904.0,390000.0,0.5862722237280519,0.5844354902495906,0.0,0.0,0.0
4000000.0,10.421875,5.8646579014344374E-8,4000000.0,68.10000000000001,36.100316493730226,36.32734530938125,34.49691991786448,400000.0,2904.0,400000.0,0.5718442405672655,0.5167145773358708,0.0,0.0,0.0
4100000.0,10.6875,6.014131940901282E-8,4100000.0,66.60000000000001,32.80867773915283,33.730158730158735,25.44642857142857,410000.0,2904.0,410000.0,0.5522488373606129,0.5541960873193796,0.0,0.0,0.0
4200000.0,10.9375,6.154813389811254E-8,4200000.0,65.3,30.05442451118726,31.960784313725497,24.728850325379607,420000.0,2904.0,420000.0,0.5661351392123802,0.5581379652842512,0.0,0.0,0.0
4300000.0,11.203125,6.304287429278099E-8,4300000.0,67.0,33.95059504509374,30.08474576271187,31.677018633540378,430000.0,2904.0,430000.0,0.546735369947744,0.5243149092246088,0.0,0.0,0.0
4400000.0,11.46875,6.453761468744943E-8,4400000.0,66.7,33.322654278963604,36.20689655172415,29.299363057324847,440000.0,2904.0,440000.0,0.5890733033399583,0.5357881750427251,0.0,0.0,0.0
4500000.0,11.734375,6.603235508211788E-8,4500000.0,67.60000000000001,34.88745980707397,28.63436123348018,31.06382978723405,450000.0,2904.0,450000.0,0.5803221503165938,0.5547843836131409,0.0,0.0,0.0
4600000.0,11.96875,6.735124366564886E-8,4600000.0,67.9,35.80000000000001,38.74045801526719,34.88843813387425,460000.0,2904.0,460000.0,0.5604362343302408,0.537569327582514,0.0,0.0,0.0
4700000.0,12.234375,6.884598406031731E-8,4700000.0,70.19999999999999,40.40500597949771,40.28056112224448,38.30227743271221,470000.0,2904.0,470000.0,0.5860764293583595,0.5213290128836253,0.0,0.0,0.0
4800000.0,12.484375,7.025279854941702E-8,4800000.0,68.30000000000001,36.51670992341954,36.472945891783574,30.936819172113296,480000.0,2904.0,480000.0,0.5831434952573684,0.5078574356766664,0.0,0.0,0.0
4900000.0,12.734375,7.165961303851674E-8,4900000.0,66.10000000000001,32.04833187674891,33.65949119373778,29.668049792531125,490000.0,2904.0,490000.0,0.5860274909837391,0.5145944803617449,0.0,0.0,0.0
5000000.0,13.0,7.315435343318519E-8,5000000.0,66.7,33.14273323749789,33.92857142857144,29.746835443037977,500000.0,2904.0,500000.0,0.5889257498055932,0.5520326380694955,0.0,0.0,0.0
5100000.0,13.265625,7.479092649494612E-8,5100000.0,70.3,37.7274938356509,37.07627118644067,27.027027027027025,8162.0,2904.0,510000.0,0.6408761175667723,0.6054576624439496,0.0,1.0,16.0
5200000.0,13.53125,7.642749955670705E-8,5200000.0,71.8,39.91178538705759,44.268774703557305,29.675810473815456,18162.0,2904.0,520000.0,0.6768984360270439,0.5288652442346645,0.0,0.0,0.0
5300000.0,13.78125,7.796780361483499E-8,5300000.0,70.6,38.72421310634892,38.74999999999999,28.11735941320293,28162.0,2904.0,530000.0,0.6344778250746096,0.5096441784042084,0.0,0.0,0.0
5400000.0,14.0625,7.970064568022891E-8,5400000.0,73.1,43.44747552894479,46.30738522954091,32.07070707070707,38162.0,2904.0,540000.0,0.656936093298001,0.5397027659671333,0.0,0.0,0.0
5500000.0,14.3125,8.124094973835684E-8,5500000.0,70.0,37.29332926436714,37.499999999999986,25.187032418952608,48162.0,2904.0,550000.0,0.6281434109915424,0.578301042483821,0.0,0.0,0.0
5600000.0,14.578125,8.287752280011777E-8,5600000.0,71.1,39.68762782466421,41.851106639839024,30.861244019138756,58162.0,2904.0,560000.0,0.631249958398108,0.5063054203526333,0.0,0.0,0.0
5700000.0,14.828125,8.44178268582457E-8,5700000.0,73.7,44.72932078009415,47.08249496981891,37.38095238095239,68162.0,2904.0,570000.0,0.6343718695522224,0.5748418887577775,0.0,0.0,0.0
5800000.0,15.078125,8.595813091637363E-8,5800000.0,69.8,36.71071768369608,37.731958762886585,21.963824289405675,78162.0,2904.0,580000.0,0.6503231557676478,0.5486393881438919,0.0,0.0,0.0
5900000.0,15.34375,8.759470397813457E-8,5900000.0,70.39999999999999,38.66454479145945,39.714867617107934,31.48148148148148,88162.0,2904.0,590000.0,0.7006826897684096,0.6177609747492039,0.0,0.0,0.0
6000000.0,15.59375,8.91350080362625E-8,6000000.0,67.5,32.35085966446029,34.21052631578948,20.92457420924576,98162.0,2904.0,600000.0,0.6438305472104288,0.5550264691087425,0.0,0.0,0.0
6100000.0,15.859375,9.077158109802343E-8,6100000.0,68.8,34.69114353295794,34.72803347280333,24.81927710843373,108162.0,2904.0,610000.0,0.6034822708533277,0.5361997341298289,0.0,0.0,0.0
6200000.0,16.125,9.240815415978437E-8,6200000.0,70.39999999999999,38.310971060342695,40.44265593561367,30.023640661938533,118162.0,2904.0,620000.0,0.6186568378389509,0.5201227593263996,0.0,0.0,0.0
6300000.0,16.375,9.39484582179123E-8,6300000.0,70.0,37.62578799421167,38.90020366598777,28.90995260663507,128162.0,2904.0,630000.0,0.6534302566314584,0.6493217681742617,0.0,0.0,0.0
6400000.0,16.65625,9.568130028330622E-8,6400000.0,71.8,40.88174252112115,42.68292682926828,30.37037037037037,138162.0,2904.0,640000.0,0.624791230734492,0.52109127837182,0.0,0.0,0.0
6500000.0,16.90625,9.722160434143415E-8,6500000.0,70.3,36.435236709185844,39.014373716632434,24.810126582278475,148162.0,2904.0,650000.0,0.6469066278199718,0.5622897620966366,0.0,0.0,0.0
6600000.0,17.171875,9.885817740319509E-8,6600000.0,70.7,38.337598491480904,35.60439560439559,27.295285359801486,158162.0,2904.0,660000.0,0.637296314706507,0.6312691798065784,0.0,0.0,0.0
6700000.0,17.4375,1.0049475046495602E-7,6700000.0,71.8,40.875545119087555,39.22413793103448,30.198019801980198,168162.0,2904.0,670000.0,0.6468526100207406,0.6146025070842542,0.0,0.0,0.0
6800000.0,17.6875,1.0203505452308395E-7,6800000.0,70.1,37.26395300041963,38.979591836734684,25.249999999999993,178162.0,2904.0,680000.0,0.5943681440336372,0.5750618809897786,0.0,0.0,0.0
6900000.0,17.953125,1.0367162758484488E-7,6900000.0,72.1,40.19959189972393,38.68131868131867,27.90697674418604,188162.0,2904.0,690000.0,0.6532665826993893,0.5925416981504761,0.0,0.0,0.0
7000000.0,18.203125,1.0521193164297281E-7,7000000.0,68.8,33.79956545355785,34.31578947368419,21.2121212121212,198162.0,2904.0,700000.0,0.6123269585578902,0.5504521515534804,0.0,0.0,0.0
7100000.0,18.46875,1.0684850470473375E-7,7100000.0,70.19999999999999,38.21119331188004,40.873015873015866,28.70813397129186,208162.0,2904.0,710000.0,0.6153552840832299,0.520101138484308,0.0,0.0,0.0
7200000.0,18.71875,1.0838880876286168E-7,7200000.0,73.0,42.95228275384122,46.85039370078739,31.472081218274113,218162.0,2904.0,720000.0,0.6245825723668291,0.6274250336196966,0.0,0.0,0.0
7300000.0,18.984375,1.1001933469540548E-7,7300000.0,66.7,30.198629964701063,32.86290322580646,17.164179104477626,228162.0,2904.0,730000.0,0.6466905836849879,0.5457016049960983,0.0,0.0,27.0
7400000.0,19.25,1.1164986062794928E-7,7400000.0,70.6,38.18334735071488,38.74999999999999,26.499999999999996,238162.0,2904.0,740000.0,0.6307757228506888,0.5654018874237405,0.0,0.0,0.0
7500000.0,19.5,1.1318447327034345E-7,7500000.0,70.5,39.39418841627769,42.043222003929266,31.554524361948953,248162.0,2904.0,750000.0,0.6402342415106955,0.6158575477482547,0.0,0.0,0.0
7600000.0,19.765625,1.1481499920288726E-7,7600000.0,70.1,37.358585435347344,37.9668049792531,28.124999999999993,258162.0,2904.0,760000.0,0.64983459120827,0.5222214142442021,0.0,0.0,0.0
7700000.0,20.015625,1.1634961184528143E-7,7700000.0,69.8,37.54110498471617,37.9876796714579,30.254041570438794,268162.0,2904.0,770000.0,0.5971081725911801,0.534233553125252,0.0,0.0,0.0
7800000.0,20.28125,1.1803016402862142E-7,7800000.0,72.39999999999999,42.721476955771024,46.09374999999999,35.51401869158879,278162.0,2904.0,780000.0,0.6562781322083263,0.5634683230546158,0.0,0.0,11.0
7900000.0,20.546875,1.1971236542902063E-7,7900000.0,71.6,39.928252335183416,41.322314049586765,30.392156862745097,288162.0,2904.0,790000.0,0.6529938839136116,0.5875950259659365,0.0,0.0,26.0
8000000.0,20.8125,1.2139456682941985E-7,8000000.0,71.89999999999999,40.456009493134424,39.569892473118266,29.040404040404038,298162.0,2904.0,800000.0,0.6432931397633527,0.5441485012550643,0.0,0.0,0.0
8100000.0,21.109375,1.2327467427692485E-7,8100000.0,70.5,38.86263781812153,38.1551362683438,30.424528301886788,308162.0,2904.0,810000.0,0.633736507892534,0.5647771077593525,0.0,0.0,0.0
8200000.0,21.359375,1.2485792265377116E-7,8200000.0,71.3,39.67394502972162,39.70588235294117,30.676328502415455,318162.0,2904.0,820000.0,0.6368707165311903,0.5763462413866316,0.0,0.0,0.0
8300000.0,21.609375,1.2644117103061746E-7,8300000.0,73.2,42.86299056812949,42.97872340425531,31.979695431472084,328162.0,2904.0,830000.0,0.6089574744389363,0.5986544093668915,0.0,0.0,0.0
8400000.0,21.875,1.2812337243101667E-7,8400000.0,72.39999999999999,40.731833018381714,38.53006681514476,25.405405405405396,338162.0,2904.0,840000.0,0.6561137449285346,0.5570127383400071,0.0,0.0,0.0
8500000.0,22.140625,1.298055738314159E-7,8500000.0,71.39999999999999,40.024074252712545,40.41666666666666,30.750605326876514,348162.0,2904.0,850000.0,0.6399669829291389,0.5227262532338078,0.0,0.0,0.0
8600000.0,22.390625,1.313888222082622E-7,8600000.0,69.8,37.16711051930757,34.773218142548586,26.699029126213585,358162.0,2904.0,860000.0,0.588041204431728,0.5294112535472134,0.0,0.0,0.0
8700000.0,22.65625,1.330710236086614E-7,8700000.0,72.3,42.723625987345436,43.81338742393508,36.61327231121282,368162.0,2904.0,870000.0,0.6335777669326786,0.5731900379600968,0.0,0.0,0.0
8800000.0,22.90625,1.346542719855077E-7,8800000.0,70.39999999999999,38.629955216453794,37.815126050420155,31.48148148148148,378162.0,2904.0,880000.0,0.6691898602284234,0.5487623795118278,0.0,0.0,0.0
8900000.0,23.15625,1.36237520362354E-7,8900000.0,69.8,37.91399237698953,40.07936507936507,29.274004683840747,388162.0,2904.0,890000.0,0.6272523387286262,0.5232302221890898,0.0,0.0,0.0
9000000.0,23.40625,1.378207687392003E-7,9000000.0,73.5,44.93025884856445,45.47325102880658,35.83535108958838,398162.0,2904.0,900000.0,0.6057582646123801,0.6057733408107236,0.0,0.0,0.0
9100000.0,23.65625,1.3940401711604661E-7,9100000.0,72.0,40.52802616766847,42.62295081967212,29.113924050632907,408162.0,2904.0,910000.0,0.6148416450307101,0.5897716770403028,0.0,0.0,0.0
9200000.0,23.921875,1.4108621851644583E-7,9200000.0,71.1,38.64379431871257,39.02953586497889,26.835443037974677,418162.0,2904.0,920000.0,0.6303018435795109,0.519785033659343,0.0,0.0,0.0
9300000.0,24.1875,1.4276841991684504E-7,9300000.0,70.8,38.39792409442839,38.65546218487394,24.547803617571052,428162.0,2904.0,930000.0,0.6723871020524904,0.556850560508402,0.0,0.0,0.0
9400000.0,24.4375,1.4435166829369134E-7,9400000.0,73.7,44.962959862721306,47.4,35.85365853658537,438162.0,2904.0,940000.0,0.6178308129672484,0.6125819976646587,0.0,0.0,0.0
9500000.0,24.703125,1.4603386969409056E-7,9500000.0,71.6,40.14222544461259,39.95771670190274,29.177057356608476,448162.0,2904.0,950000.0,0.6147389686800138,0.5549886366302587,0.0,0.0,0.0
9600000.0,24.96875,1.4771607109448977E-7,9600000.0,72.6,43.170740812948765,42.79749478079331,34.91686460807601,458162.0,2904.0,960000.0,0.6557850938878791,0.5562318300953759,0.0,0.0,0.0
9700000.0,25.21875,1.4929931947133607E-7,9700000.0,71.2,39.95797057940557,41.22448979591836,31.100478468899517,468162.0,2904.0,970000.0,0.6590283460609296,0.5189295412011254,0.0,0.0,0.0
9800000.0,25.484375,1.509815208717353E-7,9800000.0,73.2,42.05154817505621,40.96916299559471,25.555555555555546,478162.0,2904.0,980000.0,0.6301439629486815,0.5450071600768169,0.0,0.0,0.0
9900000.0,25.75,1.526637222721345E-7,9900000.0,68.30000000000001,33.63257991307334,31.533477321814264,24.343675417661117,488162.0,2904.0,990000.0,0.6459889384155356,0.5107297083335872,0.0,0.0,0.0
1.0E7,26.03125,1.544448766960866E-7,1.0E7,71.5,40.02323310549177,39.74630021141648,30.8252427184466,498162.0,2904.0,1000000.0,0.6491837427009755,0.6449444689423618,0.0,0.0,0.0
