learning evaluation instances,evaluation time (cpu seconds),model cost (RAM-Hours),classified instances,classifications correct (percent),Kappa Statistic (percent),Kappa Temporal Statistic (percent),Kappa M Statistic (percent),model training instances,model serialized size (bytes),labeling cost,newThreshold,maxPosterior,accuracyBaseLearner (percent),Change detected,Warning detected,tree size (nodes),tree size (leaves),active learning leaves,tree depth,active leaf byte size estimate,inactive leaf byte size estimate,byte size estimate overhead
100000.0,0.375,3.3561761180559796E-8,100000.0,83.8,67.11661422916877,65.38461538461537,64.07982261640797,29700.0,160416.0,0.0,1.0,0.0,?,0.0,3.0,66.0,50.0,50.0,3.0,0.0,0.0,1.0
200000.0,0.796875,9.939026009912293E-8,200000.0,85.0,69.37988135724696,69.45010183299388,65.83143507972665,59700.0,431952.0,0.0,1.0,0.0,?,0.0,0.0,166.0,121.0,121.0,4.0,0.0,0.0,1.0
300000.0,1.28125,2.0643550669774412E-7,300000.0,87.8,75.16640543896432,74.42348008385744,73.18681318681318,89700.0,697368.0,0.0,1.0,0.0,?,0.0,0.0,269.0,192.0,192.0,5.0,0.0,0.0,1.0
400000.0,1.671875,3.073683991614315E-7,400000.0,91.0,81.39227159013377,81.21085594989562,79.02097902097903,119700.0,856552.0,0.0,1.0,0.0,?,0.0,0.0,361.0,253.0,253.0,6.0,0.0,0.0,1.0
500000.0,2.046875,4.118589115225606E-7,500000.0,91.0,81.81847566099943,80.81023454157783,80.76923076923077,149700.0,949568.0,0.0,1.0,0.0,?,0.0,0.0,413.0,282.0,282.0,6.0,0.0,0.0,1.0
600000.0,2.453125,5.343240142489472E-7,600000.0,92.7,85.14146142886221,85.25252525252526,83.77777777777779,179700.0,1052480.0,0.0,1.0,0.0,?,0.0,0.0,466.0,313.0,313.0,6.0,0.0,0.0,1.0
700000.0,2.828125,6.564770592376589E-7,700000.0,93.60000000000001,86.98128559804721,86.83127572016463,85.45454545454547,209700.0,1161056.0,0.0,1.0,0.0,?,0.0,0.0,533.0,354.0,354.0,7.0,0.0,0.0,1.0
800000.0,3.21875,7.90888249563674E-7,800000.0,93.30000000000001,86.32764672271652,85.80508474576273,84.77272727272728,239700.0,1246832.0,0.0,1.0,0.0,?,0.0,0.0,576.0,380.0,380.0,7.0,0.0,0.0,1.0
900000.0,3.59375,9.234270934636393E-7,900000.0,93.7,87.1647556413955,87.24696356275304,85.74660633484163,269700.0,1297864.0,0.0,1.0,0.0,?,0.0,0.0,611.0,399.0,399.0,7.0,0.0,0.0,1.0
1000000.0,4.0,1.0694457321531242E-6,1000000.0,95.19999999999999,90.29232244051013,90.36144578313252,89.40397350993376,299700.0,1335952.0,0.0,1.0,0.0,?,0.0,0.0,645.0,416.0,416.0,7.0,0.0,0.0,1.0
1100000.0,4.359375,1.2156244742477104E-6,1100000.0,96.1,92.09149531573183,92.16867469879517,91.35254988913525,329400.0,1381688.0,0.0,1.0,0.0,?,0.0,0.0,676.0,433.0,433.0,7.0,0.0,0.0,1.0
1200000.0,4.734375,1.370617505421655E-6,1200000.0,95.3,90.51493796365808,90.2892561983471,89.82683982683982,359400.0,1422032.0,0.0,1.0,0.0,?,0.0,0.0,712.0,454.0,454.0,7.0,0.0,0.0,1.0
1300000.0,5.109375,1.5305023084187673E-6,1300000.0,94.89999999999999,89.72346033255687,90.07782101167314,88.96103896103895,389400.0,1487336.0,0.0,1.0,0.0,?,0.0,0.0,750.0,476.0,476.0,7.0,0.0,0.0,1.0
1400000.0,5.46875,1.6874113417644467E-6,1400000.0,95.89999999999999,91.65784975990884,91.75050301810865,90.68181818181817,419400.0,1541904.0,0.0,1.0,0.0,?,0.0,0.0,779.0,492.0,492.0,7.0,0.0,0.0,1.0
1500000.0,5.84375,1.8535422148286468E-6,1500000.0,95.89999999999999,91.67505928982163,91.64969450101832,90.76576576576576,449400.0,1581576.0,0.0,1.0,0.0,?,0.0,0.0,805.0,505.0,505.0,7.0,0.0,0.0,1.0
1600000.0,6.1875,2.0067380521342985E-6,1600000.0,95.6,90.85721884909009,90.09009009009009,89.24205378973105,479400.0,1606896.0,0.0,1.0,0.0,?,0.0,0.0,818.0,513.0,513.0,7.0,0.0,0.0,1.0
1700000.0,6.5625,2.176104495043142E-6,1700000.0,95.8,91.45062532569045,90.88937093275487,90.54054054054052,509400.0,1644976.0,0.0,1.0,0.0,?,0.0,0.0,844.0,526.0,526.0,7.0,0.0,0.0,1.0
1800000.0,6.96875,2.3618666778525547E-6,1800000.0,94.89999999999999,89.5879268949973,89.54918032786884,88.22170900692839,539400.0,1682768.0,0.0,1.0,0.0,?,0.0,0.0,869.0,540.0,540.0,8.0,0.0,0.0,1.0
1900000.0,7.328125,2.526957865080072E-6,1900000.0,96.7,93.25478909973917,93.09623430962343,92.34338747099767,569400.0,1706048.0,0.0,1.0,0.0,?,0.0,0.0,888.0,551.0,551.0,8.0,0.0,0.0,1.0
2000000.0,7.703125,2.7003282189576168E-6,2000000.0,97.0,93.92380450853705,94.01197604790418,93.25842696629213,599400.0,1732472.0,0.0,1.0,0.0,?,0.0,0.0,907.0,562.0,562.0,9.0,0.0,0.0,1.0
2100000.0,8.09375,2.8982746880501515E-6,2100000.0,95.89999999999999,91.62923642302981,92.14559386973178,90.50925925925925,629100.0,1767064.0,0.0,1.0,0.0,?,0.0,0.0,917.0,567.0,567.0,9.0,0.0,0.0,1.0
2200000.0,8.46875,3.0924958021690456E-6,2200000.0,96.8,93.49553834583409,93.57429718875501,92.80898876404494,659100.0,1825160.0,0.0,1.0,0.0,?,0.0,0.0,948.0,584.0,584.0,9.0,0.0,0.0,1.0
2300000.0,8.84375,3.2882341959824174E-6,2300000.0,97.1,94.16611680641164,94.14141414141413,93.79014989293361,689100.0,1855840.0,0.0,1.0,0.0,?,0.0,0.0,964.0,592.0,592.0,9.0,0.0,0.0,1.0
2400000.0,9.21875,3.482941926146548E-6,2400000.0,97.39999999999999,94.70220266112435,94.74747474747474,94.02298850574712,719100.0,1860392.0,0.0,1.0,0.0,?,0.0,0.0,981.0,602.0,602.0,9.0,0.0,0.0,1.0
2500000.0,9.59375,3.6800547968596233E-6,2500000.0,97.2,94.33879100838263,94.15448851774529,93.76391982182626,749100.0,1900216.0,0.0,1.0,0.0,?,0.0,0.0,994.0,610.0,610.0,10.0,0.0,0.0,1.0
2600000.0,10.015625,3.9024720899760735E-6,2600000.0,96.8,93.48069675053479,93.4156378600823,92.71070615034168,779100.0,1921432.0,0.0,1.0,0.0,?,0.0,0.0,1005.0,617.0,617.0,10.0,0.0,0.0,1.0
2700000.0,10.390625,4.101179074496032E-6,2700000.0,96.3,92.49011536806553,92.32365145228215,91.60997732426303,809100.0,1946856.0,0.0,1.0,0.0,?,0.0,0.0,1020.0,626.0,626.0,10.0,0.0,0.0,1.0
2800000.0,10.765625,4.304450315733752E-6,2800000.0,96.89999999999999,93.64384190799562,93.56846473029044,92.72300469483568,839100.0,2008816.0,0.0,1.0,0.0,?,0.0,0.0,1050.0,644.0,644.0,10.0,0.0,0.0,1.0
2900000.0,11.171875,4.526062402874232E-6,2900000.0,97.6,95.17653868415975,95.35783365570599,94.87179487179486,869100.0,2037160.0,0.0,1.0,0.0,?,0.0,0.0,1070.0,654.0,654.0,10.0,0.0,0.0,1.0
3000000.0,11.546875,4.731296406437954E-6,3000000.0,97.8,95.54836098745447,95.25862068965517,95.1111111111111,899100.0,2059048.0,0.0,1.0,0.0,?,0.0,0.0,1098.0,668.0,668.0,10.0,0.0,0.0,1.0
3100000.0,11.921875,4.952527427424988E-6,3100000.0,96.5,92.94053103342557,93.16406249999999,92.40780911062906,928800.0,2086808.0,0.0,1.0,0.0,?,0.0,0.0,1116.0,677.0,677.0,10.0,0.0,0.0,1.0
3200000.0,12.328125,5.193701880570088E-6,3200000.0,97.89999999999999,95.74764500530532,95.78313253012047,95.25959367945823,958800.0,2116216.0,0.0,1.0,0.0,?,0.0,0.0,1129.0,685.0,685.0,10.0,0.0,0.0,1.0
3300000.0,12.6875,5.407696331126823E-6,3300000.0,98.1,96.12295536909464,96.19238476953907,95.5607476635514,988800.0,2138192.0,0.0,1.0,0.0,?,0.0,0.0,1153.0,697.0,697.0,10.0,0.0,0.0,1.0
3400000.0,13.15625,5.687051388021146E-6,3400000.0,97.89999999999999,95.69932991464194,95.68788501026694,95.0354609929078,1018800.0,2155184.0,0.0,1.0,0.0,?,0.0,0.0,1167.0,704.0,704.0,10.0,2983.634807417974,0.0,1.0276085235292094
3500000.0,13.546875,5.919903859547858E-6,3500000.0,98.1,96.159257402526,96.28180039138942,95.7683741648107,1048800.0,2170848.0,0.0,1.0,0.0,?,0.0,0.0,1175.0,708.0,708.0,10.0,2983.634807417974,0.0,1.0276085235292094
3600000.0,13.921875,6.143404203208371E-6,3600000.0,97.5,94.93648324583576,95.0592885375494,94.45676274944567,1078800.0,2185592.0,0.0,1.0,0.0,?,0.0,0.0,1186.0,715.0,715.0,10.0,2983.634807417974,0.0,1.0276085235292094
3700000.0,14.3125,6.3762906292039495E-6,3700000.0,97.0,93.94506967206496,93.97590361445782,93.44978165938865,1108800.0,2201488.0,0.0,1.0,0.0,?,0.0,0.0,1193.0,720.0,720.0,10.0,2983.634807417974,0.0,1.0276085235292094
3800000.0,14.6875,6.601240731672281E-6,3800000.0,97.0,93.91243648642067,93.65750528541226,93.21266968325791,1138800.0,2230792.0,0.0,1.0,0.0,?,0.0,0.0,1204.0,727.0,727.0,10.0,2983.634807417974,0.0,1.0276085235292094
3900000.0,15.078125,6.834467510796256E-6,3900000.0,96.3,92.46736536942483,92.70216962524654,91.5525114155251,1168800.0,2235104.0,0.0,1.0,0.0,?,0.0,0.0,1210.0,730.0,730.0,10.0,2983.634807417974,0.0,1.0276085235292094
4000000.0,15.4375,7.0491075489877E-6,4000000.0,96.7,93.33785551625563,93.34677419354837,92.76315789473684,1198800.0,2251032.0,0.0,1.0,0.0,?,0.0,0.0,1215.0,734.0,734.0,10.0,2983.634807417974,0.0,1.0276085235292094
4100000.0,15.796875,7.276976183574233E-6,4100000.0,97.8,95.55797847638661,95.66929133858267,95.18599562363238,1228500.0,2256336.0,0.0,1.0,0.0,?,0.0,0.0,1219.0,736.0,736.0,10.0,2983.634807417974,0.0,1.0276085235292094
4200000.0,16.234375,7.554812473244965E-6,4200000.0,96.89999999999999,93.74873966525509,93.82470119521912,93.24618736383442,1258500.0,2275248.0,0.0,1.0,0.0,?,0.0,0.0,1234.0,745.0,745.0,10.0,2983.634807417974,0.0,1.0276085235292094
4300000.0,16.609375,7.792583007055025E-6,4300000.0,96.7,93.3896879131445,93.30628803245435,93.22381930184804,1288500.0,2286512.0,0.0,1.0,0.0,?,0.0,0.0,1240.0,748.0,748.0,10.0,2983.634807417974,0.0,1.0276085235292094
4400000.0,16.984375,8.029744300680856E-6,4400000.0,97.0,93.93941842659221,94.140625,93.3481152993348,1318500.0,2295384.0,0.0,1.0,0.0,?,0.0,0.0,1244.0,750.0,750.0,10.0,2983.634807417974,0.0,1.0276085235292094
4500000.0,17.390625,8.285534826831684E-6,4500000.0,95.8,91.46896327591809,91.13924050632912,90.36697247706421,1348500.0,2299776.0,0.0,1.0,0.0,?,0.0,0.0,1255.0,757.0,757.0,10.0,2983.634807417974,0.0,1.0276085235292094
4600000.0,17.78125,8.531795271361867E-6,4600000.0,97.8,95.56728657492293,95.53752535496956,95.2069716775599,1378500.0,2317896.0,0.0,1.0,0.0,?,0.0,0.0,1267.0,763.0,763.0,10.0,2983.634807417974,0.0,1.0276085235292094
4700000.0,18.171875,8.777086396649892E-6,4700000.0,98.0,95.89490968801313,95.73560767590618,95.23809523809523,1408500.0,2323488.0,0.0,1.0,0.0,?,0.0,0.0,1267.0,763.0,763.0,10.0,2983.634807417974,0.0,1.0276085235292094
4800000.0,18.5625,9.02379067459454E-6,4800000.0,97.89999999999999,95.7456808531328,95.80838323353294,95.25959367945823,1438500.0,2352544.0,0.0,1.0,0.0,?,0.0,0.0,1289.0,777.0,777.0,10.0,2983.634807417974,0.0,1.0276085235292094
4900000.0,18.9375,9.261974870848157E-6,4900000.0,97.2,94.3129194221926,94.32048681541582,93.66515837104072,1468500.0,2381544.0,0.0,1.0,0.0,?,0.0,0.0,1296.0,782.0,782.0,10.0,2983.634807417974,0.0,1.0276085235292094
5000000.0,19.359375,9.530071790019669E-6,5000000.0,97.7,95.32702685131005,95.27720739219711,94.76082004555808,1498500.0,2395784.0,0.0,1.0,0.0,?,0.0,0.0,1305.0,788.0,788.0,10.0,2983.634807417974,0.0,1.0276085235292094
5100000.0,19.796875,9.562464353318014E-6,5100000.0,80.10000000000001,56.56956290211347,57.65957446808512,46.36118598382751,29134.0,98144.0,0.0,1.0,0.0,?,1.0,17.0,36.0,23.0,23.0,6.0,0.0,0.0,1.0
5200000.0,20.125,9.595352651861804E-6,5200000.0,83.5,63.945144175720436,66.18852459016392,56.692913385826756,59134.0,214144.0,0.0,1.0,0.0,?,0.0,0.0,89.0,57.0,57.0,10.0,0.0,0.0,1.0
5300000.0,20.46875,9.640223062079811E-6,5300000.0,84.6,65.92875126660974,65.77777777777777,58.71313672922251,89134.0,346032.0,0.0,1.0,0.0,?,0.0,0.0,137.0,90.0,90.0,12.0,0.0,0.0,1.0
5400000.0,20.875,9.707917407568956E-6,5400000.0,86.6,70.35726136489326,70.28824833702882,63.085399449035805,119134.0,500064.0,0.0,1.0,0.0,?,0.0,0.0,207.0,131.0,131.0,13.0,0.0,0.0,1.0
5500000.0,21.234375,9.776933552024677E-6,5500000.0,89.0,75.67060655389625,77.03549060542798,69.78021978021978,149134.0,613056.0,0.0,1.0,0.0,?,0.0,0.0,253.0,160.0,160.0,14.0,0.0,0.0,1.0
5600000.0,21.65625,9.872416525872215E-6,5600000.0,87.4,72.82104600145817,74.69879518072288,67.77493606138107,179134.0,760296.0,0.0,1.0,0.0,?,0.0,0.0,308.0,198.0,198.0,14.0,0.0,0.0,1.0
5700000.0,22.078125,9.990748043896422E-6,5700000.0,89.1,76.03826842415342,75.6152125279642,70.85561497326204,209134.0,984168.0,0.0,1.0,0.0,?,0.0,0.0,387.0,254.0,254.0,14.0,0.0,0.0,1.0
5800000.0,22.46875,1.0107757568928516E-5,5800000.0,88.5,74.67941943211443,75.8909853249476,69.08602150537635,239134.0,1072696.0,0.0,1.0,0.0,?,0.0,0.0,422.0,276.0,276.0,14.0,0.0,0.0,1.0
5900000.0,22.890625,1.024231942008353E-5,5900000.0,87.1,71.99426859450307,72.84210526315789,66.92307692307692,269134.0,1162608.0,0.0,1.0,0.0,?,0.0,0.0,453.0,296.0,296.0,14.0,0.0,0.0,1.0
6000000.0,23.328125,1.0399180011720292E-5,6000000.0,89.60000000000001,77.42977186707873,78.05907172995781,73.05699481865285,299134.0,1330128.0,0.0,1.0,0.0,?,0.0,0.0,525.0,341.0,341.0,15.0,0.0,0.0,1.0
6100000.0,23.75,1.0577730265342526E-5,6100000.0,88.9,76.05901130187215,77.11340206185568,72.18045112781955,328834.0,1442832.0,0.0,1.0,0.0,?,0.0,0.0,581.0,378.0,378.0,16.0,0.0,0.0,1.0
6200000.0,24.171875,1.0769681086660259E-5,6200000.0,87.8,73.54325244508057,73.18681318681318,68.31168831168831,358834.0,1580304.0,0.0,1.0,0.0,?,0.0,0.0,628.0,409.0,409.0,16.0,0.0,0.0,1.0
6300000.0,24.609375,1.0974845758432315E-5,6300000.0,90.10000000000001,77.59106177623657,78.24175824175825,71.38728323699422,388834.0,1649120.0,0.0,1.0,0.0,?,0.0,0.0,659.0,426.0,426.0,16.0,0.0,0.0,1.0
6400000.0,25.09375,1.1209973987812797E-5,6400000.0,91.3,80.78791626181435,81.29032258064517,76.42276422764228,418834.0,1727672.0,0.0,1.0,0.0,?,0.0,0.0,691.0,445.0,445.0,16.0,0.0,0.0,1.0
6500000.0,25.53125,1.1430574813857675E-5,6500000.0,91.4,81.64518869172882,82.19461697722568,78.11704834605598,448834.0,1815176.0,0.0,1.0,0.0,?,0.0,0.0,736.0,472.0,472.0,17.0,0.0,0.0,1.0
6600000.0,26.0,1.167584831515948E-5,6600000.0,91.2,80.73757573634995,80.91106290672452,76.59574468085107,478834.0,1903504.0,0.0,1.0,0.0,?,0.0,0.0,779.0,498.0,498.0,17.0,0.0,0.0,1.0
6700000.0,26.421875,1.1903536603009949E-5,6700000.0,92.4,83.54750441619619,83.14855875831486,79.8941798941799,508834.0,1982040.0,0.0,1.0,0.0,?,0.0,0.0,804.0,515.0,515.0,17.0,0.0,0.0,1.0
6800000.0,26.859375,1.214634817895583E-5,6800000.0,90.60000000000001,78.97515041714198,79.20353982300885,73.66946778711485,538834.0,2056024.0,0.0,1.0,0.0,?,0.0,0.0,836.0,534.0,534.0,17.0,0.0,0.0,1.0
6900000.0,27.296875,1.2395008072619222E-5,6900000.0,91.3,81.20739262292959,81.29032258064517,77.22513089005236,568834.0,2122608.0,0.0,1.0,0.0,?,0.0,0.0,873.0,557.0,557.0,17.0,0.0,0.0,1.0
7000000.0,27.78125,1.2681116673371029E-5,7000000.0,92.0,83.07702070949591,83.40248962655602,79.94987468671681,598834.0,2223672.0,0.0,1.0,0.0,?,0.0,0.0,915.0,584.0,584.0,17.0,0.0,0.0,1.0
7100000.0,28.28125,1.300974936586701E-5,7100000.0,89.4,76.60457314381567,75.63218390804597,70.7182320441989,628534.0,2343696.0,0.0,1.0,0.0,?,0.0,0.0,960.0,614.0,614.0,17.0,0.0,0.0,1.0
7200000.0,28.734375,1.3313195732836092E-5,7200000.0,91.5,81.0213632466419,82.02959830866808,76.12359550561798,658534.0,2406600.0,0.0,1.0,0.0,?,0.0,0.0,988.0,631.0,631.0,17.0,0.0,0.0,1.0
7300000.0,29.234375,1.3659082728231117E-5,7300000.0,91.3,81.22523673465865,81.3304721030043,77.51937984496125,688534.0,2506776.0,0.0,1.0,0.0,?,0.0,0.0,1033.0,658.0,658.0,17.0,0.0,0.0,1.0
7400000.0,29.71875,1.4001362465528976E-5,7400000.0,92.30000000000001,83.34227514234784,83.2608695652174,79.68337730870714,718534.0,2579144.0,0.0,1.0,0.0,?,0.0,0.0,1078.0,685.0,685.0,17.0,0.0,0.0,1.0
7500000.0,30.203125,1.4354212196647291E-5,7500000.0,91.7,82.62042163275905,83.02658486707567,79.80535279805355,748534.0,2678312.0,0.0,1.0,0.0,?,0.0,0.0,1118.0,711.0,711.0,17.0,0.0,0.0,1.0
7600000.0,30.703125,1.472914196913027E-5,7600000.0,91.3,80.64102678213813,80.53691275167786,75.90027700831025,778534.0,2775728.0,0.0,1.0,0.0,?,0.0,0.0,1162.0,736.0,736.0,17.0,0.0,0.0,1.0
7700000.0,31.21875,1.512841043424689E-5,7700000.0,91.3,80.98859315589354,81.41025641025642,76.4864864864865,808534.0,2885168.0,0.0,1.0,0.0,?,0.0,0.0,1209.0,767.0,767.0,17.0,0.0,0.0,1.0
7800000.0,31.71875,1.5519319632504548E-5,7800000.0,93.30000000000001,85.35698362604796,85.24229074889868,81.84281842818429,838534.0,2929080.0,0.0,1.0,0.0,?,0.0,0.0,1237.0,784.0,784.0,17.0,0.0,0.0,1.0
7900000.0,32.265625,1.59582343379346E-5,7900000.0,92.60000000000001,83.96880415944543,83.70044052863437,80.10752688172043,868534.0,3024168.0,0.0,1.0,0.0,?,0.0,0.0,1272.0,806.0,806.0,17.0,0.0,0.0,1.0
8000000.0,32.75,1.635263324715197E-5,8000000.0,90.5,79.23097776184272,80.20833333333334,74.59893048128343,898534.0,3084152.0,0.0,1.0,0.0,?,0.0,0.0,1302.0,824.0,824.0,17.0,0.0,0.0,1.0
8100000.0,33.234375,1.677153040266906E-5,8100000.0,91.4,80.90857427008596,81.8565400843882,75.84269662921349,928234.0,3142496.0,0.0,1.0,0.0,?,0.0,0.0,1320.0,836.0,836.0,17.0,0.0,0.0,1.0
8200000.0,33.71875,1.7193666523477683E-5,8200000.0,92.30000000000001,83.72093023255815,82.85077951002228,80.75000000000001,958234.0,3183432.0,0.0,1.0,0.0,?,0.0,0.0,1341.0,851.0,851.0,17.0,0.0,0.0,1.0
8300000.0,34.265625,1.7675302741635176E-5,8300000.0,91.9,82.47102308631182,83.16008316008316,78.85117493472585,988234.0,3234000.0,0.0,1.0,0.0,?,0.0,0.0,1370.0,870.0,870.0,17.0,0.0,0.0,1.0
8400000.0,34.859375,1.8206801744074455E-5,8400000.0,92.2,82.35413885935344,83.04347826086958,77.3913043478261,1018234.0,3304736.0,0.0,1.0,0.0,?,0.0,0.0,1400.0,888.0,888.0,18.0,3638.510783200908,0.0,1.019586164900135
8500000.0,35.390625,1.8685447414302162E-5,8500000.0,91.8,81.96184710685627,81.53153153153154,77.71739130434784,1048234.0,3342280.0,0.0,1.0,0.0,?,0.0,0.0,1417.0,898.0,898.0,18.0,3638.510783200908,0.0,1.019586164900135
8600000.0,35.90625,1.9154812067022754E-5,8600000.0,90.10000000000001,78.5152520009028,80.08048289738431,74.21875000000001,1078234.0,3393232.0,0.0,1.0,0.0,?,0.0,0.0,1439.0,912.0,912.0,18.0,3638.510783200908,0.0,1.019586164900135
8700000.0,36.421875,1.962781780295902E-5,8700000.0,92.5,83.84038610704128,83.94004282655247,80.51948051948054,1108234.0,3435456.0,0.0,1.0,0.0,?,0.0,0.0,1467.0,926.0,926.0,18.0,3638.510783200908,0.0,1.019586164900135
8800000.0,36.953125,2.0122791821550993E-5,8800000.0,91.9,82.49783923941229,83.29896907216495,78.6842105263158,1138234.0,3505928.0,0.0,1.0,0.0,?,0.0,0.0,1498.0,946.0,946.0,18.0,3638.510783200908,0.0,1.019586164900135
8900000.0,37.5,2.0632953189002973E-5,8900000.0,92.7,84.49579474980887,84.6638655462185,81.37755102040818,1168234.0,3525496.0,0.0,1.0,0.0,?,0.0,0.0,1506.0,950.0,950.0,18.0,3638.510783200908,0.0,1.019586164900135
9000000.0,38.015625,2.111930991911019E-5,9000000.0,92.7,84.13291832582728,84.69601677148847,80.58510638297874,1198234.0,3580560.0,0.0,1.0,0.0,?,0.0,0.0,1528.0,964.0,964.0,18.0,3638.510783200908,0.0,1.019586164900135
9100000.0,38.5625,2.166280212501685E-5,9100000.0,93.60000000000001,85.73561860610249,86.77685950413225,81.9718309859155,1227934.0,3638904.0,0.0,1.0,0.0,?,0.0,0.0,1557.0,983.0,983.0,18.0,3638.510783200908,0.0,1.019586164900135
9200000.0,39.09375,2.2194028133526444E-5,9200000.0,91.8,82.26704958305942,82.55319148936171,78.64583333333334,1257934.0,3677672.0,0.0,1.0,0.0,?,0.0,0.0,1574.0,993.0,993.0,18.0,3638.510783200908,0.0,1.019586164900135
9300000.0,39.640625,2.2746218342540993E-5,9300000.0,91.9,83.08171739366547,83.60323886639677,80.38740920096853,1287934.0,3730368.0,0.0,1.0,0.0,?,0.0,0.0,1606.0,1012.0,1012.0,18.0,3638.510783200908,0.0,1.019586164900135
9400000.0,40.1875,2.3304277015591248E-5,9400000.0,92.80000000000001,84.80403537282878,85.6573705179283,82.13399503722086,1317934.0,3786792.0,0.0,1.0,0.0,?,0.0,0.0,1640.0,1032.0,1032.0,18.0,3638.510783200908,0.0,1.019586164900135
9500000.0,40.75,2.3887400198469145E-5,9500000.0,92.0,82.93857460321523,83.70672097759675,79.84886649874056,1347934.0,3864368.0,0.0,1.0,0.0,?,0.0,0.0,1671.0,1052.0,1052.0,18.0,3638.510783200908,0.0,1.019586164900135
9600000.0,41.28125,2.4445662371969472E-5,9600000.0,94.1,87.5386513018941,87.83505154639174,84.98727735368955,1377934.0,3934112.0,0.0,1.0,0.0,?,0.0,0.0,1702.0,1072.0,1072.0,18.0,3638.510783200908,0.0,1.019586164900135
9700000.0,41.84375,2.5036766989311823E-5,9700000.0,92.10000000000001,82.84011329869499,83.33333333333334,78.82037533512064,1407934.0,3949264.0,0.0,1.0,0.0,?,0.0,0.0,1708.0,1075.0,1075.0,18.0,3638.510783200908,0.0,1.019586164900135
9800000.0,42.375,2.559828581676508E-5,9800000.0,91.60000000000001,82.1105313598126,82.3529411764706,78.73417721518989,1437934.0,3987944.0,0.0,1.0,0.0,?,0.0,0.0,1727.0,1086.0,1086.0,18.0,3638.510783200908,0.0,1.019586164900135
9900000.0,42.921875,2.617812401796174E-5,9900000.0,92.9,84.32449617606021,84.36123348017622,79.82954545454547,1467934.0,4015744.0,0.0,1.0,0.0,?,0.0,0.0,1759.0,1105.0,1105.0,18.0,3638.510783200908,0.0,1.019586164900135
1.0E7,43.53125,2.683366548606298E-5,1.0E7,91.9,82.7098933563299,83.26446280991736,79.17737789203085,1497934.0,4090464.0,0.0,1.0,0.0,?,0.0,0.0,1789.0,1123.0,1123.0,18.0,3638.510783200908,0.0,1.019586164900135
