learning evaluation instances,evaluation time (cpu seconds),model cost (RAM-Hours),classified instances,classifications correct (percent),Kappa Statistic (percent),Kappa Temporal Statistic (percent),Kappa M Statistic (percent),model training instances,model serialized size (bytes),labeling cost,newThreshold,maxPosterior,accuracyBaseLearner (percent),Change detected,Warning detected
100000.0,0.453125,1.7564808432426718E-8,100000.0,95.3,89.26293473691904,89.06976744186046,85.26645768025077,29700.0,3024.0,0.0,1.0,0.0,?,0.0,6.0
200000.0,0.90625,3.344159469836288E-8,200000.0,95.8,90.47260420022049,90.34482758620689,87.15596330275228,59700.0,3024.0,0.0,1.0,0.0,?,0.0,0.0
300000.0,1.34375,4.7141091070241396E-8,300000.0,94.89999999999999,88.54560645398927,88.3295194508009,84.91124260355029,89700.0,3024.0,0.0,1.0,0.0,?,0.0,0.0
400000.0,1.796875,5.964183300319645E-8,400000.0,95.3,89.50705483121985,89.06976744186046,85.84337349397589,119700.0,3024.0,0.0,1.0,0.0,?,0.0,0.0
500000.0,2.234375,7.00817003639208E-8,500000.0,93.60000000000001,85.41370382525618,84.76190476190477,80.12422360248449,149700.0,3024.0,0.0,1.0,0.0,?,0.0,0.0
600000.0,2.6875,7.920639796389475E-8,600000.0,95.7,90.25517835289851,89.90610328638496,87.1641791044776,179700.0,3024.0,0.0,1.0,0.0,?,0.0,0.0
700000.0,3.125,8.638663631346492E-8,700000.0,94.5,87.78895766542631,87.23897911832945,84.10404624277456,209700.0,3024.0,0.0,1.0,0.0,?,0.0,0.0
800000.0,3.578125,9.213528958045776E-8,800000.0,94.8,88.46372284537838,88.44444444444444,85.0574712643678,239700.0,3024.0,0.0,1.0,0.0,?,0.0,0.0
900000.0,4.015625,9.605589891887375E-8,900000.0,95.3,89.4754756189316,89.14549653579675,85.84337349397589,269700.0,3024.0,0.0,1.0,0.0,?,0.0,0.0
1000000.0,4.453125,9.834669375171266E-8,1000000.0,95.3,89.19142673167141,88.94117647058822,85.26645768025077,299700.0,3024.0,0.0,1.0,0.0,?,0.0,0.0
1100000.0,4.90625,1.1592838240580429E-7,1100000.0,94.5,87.26616040007407,87.08920187793426,82.53968253968253,329400.0,3024.0,0.0,1.0,0.0,?,0.0,0.0
1200000.0,5.359375,1.3182204889340534E-7,1200000.0,95.89999999999999,90.89795048485063,91.16379310344827,88.21839080459769,359400.0,3024.0,0.0,1.0,0.0,?,0.0,0.0
1300000.0,5.796875,1.4553784341033963E-7,1300000.0,95.6,90.01959788052551,90.20044543429843,86.74698795180721,389400.0,3024.0,0.0,1.0,0.0,?,0.0,0.0
1400000.0,6.25,1.5805546556495958E-7,1400000.0,94.8,88.09202119620227,88.6214442013129,84.09785932721711,419400.0,3024.0,0.0,1.0,0.0,?,0.0,0.0
1500000.0,6.703125,1.6888506555308897E-7,1500000.0,93.89999999999999,86.1125023904709,84.55696202531644,80.75709779179809,449400.0,3024.0,0.0,1.0,0.0,?,0.0,0.0
1600000.0,7.15625,1.780266433747278E-7,1600000.0,95.39999999999999,89.61569024055478,89.82300884955751,86.39053254437869,479400.0,3024.0,0.0,1.0,0.0,?,0.0,0.0
1700000.0,7.609375,1.854801990298761E-7,1700000.0,95.1,88.27751196172248,88.44339622641509,83.38983050847456,509400.0,3024.0,0.0,1.0,0.0,?,0.0,0.0
1800000.0,8.046875,1.9104692101892495E-7,1800000.0,94.69999999999999,88.11499304839215,87.75981524249423,84.45747800586508,539400.0,3024.0,0.0,1.0,0.0,?,0.0,0.0
1900000.0,8.5,1.9512443234109212E-7,1900000.0,95.19999999999999,89.58351417510112,89.51965065502182,86.7403314917127,569400.0,3024.0,0.0,1.0,0.0,?,0.0,0.0
2000000.0,8.9375,1.974315253189868E-7,2000000.0,94.6,87.508327781479,87.01923076923076,82.91139240506328,599400.0,3024.0,0.0,1.0,0.0,?,0.0,0.0
2100000.0,9.375,2.1442324699213102E-7,2100000.0,94.89999999999999,88.4220371766116,88.13953488372091,84.49848024316108,629100.0,3024.0,0.0,1.0,0.0,?,0.0,0.0
2200000.0,9.828125,2.3033379370139698E-7,2200000.0,95.1,88.59648306228647,88.4160756501182,84.24437299035368,659100.0,3024.0,0.0,1.0,0.0,?,0.0,0.0
2300000.0,10.28125,2.445563182441724E-7,2300000.0,94.69999999999999,88.20019592127525,88.19599109131401,84.22619047619047,689100.0,3024.0,0.0,1.0,0.0,?,0.0,0.0
2400000.0,10.734375,2.5709082062045724E-7,2400000.0,95.7,90.07872417007373,90.13761467889907,86.6043613707165,719100.0,3024.0,0.0,1.0,0.0,?,0.0,0.0
2500000.0,11.1875,2.6793730083025153E-7,2500000.0,94.89999999999999,88.47561802322953,88.5135135135135,84.59214501510573,749100.0,3024.0,0.0,1.0,0.0,?,0.0,0.0
2600000.0,11.640625,2.7709575887355527E-7,2600000.0,95.5,89.70232864674867,90.13157894736841,85.98130841121494,779100.0,3024.0,0.0,1.0,0.0,?,0.0,0.0
2700000.0,12.078125,2.8430859351323697E-7,2700000.0,94.69999999999999,87.6655837204323,86.47959183673468,82.95819935691317,809100.0,3024.0,0.0,1.0,0.0,?,0.0,0.0
2800000.0,12.53125,2.900910072235596E-7,2800000.0,94.89999999999999,88.00643419530228,88.0281690140845,82.94314381270902,839100.0,3024.0,0.0,1.0,0.0,?,0.0,0.0
2900000.0,12.96875,2.940442128520871E-7,2900000.0,94.8,88.41540572813629,88.59649122807016,84.97109826589593,869100.0,3024.0,0.0,1.0,0.0,?,0.0,0.0
3000000.0,13.421875,2.9645058222942865E-7,3000000.0,93.89999999999999,86.19597193935277,87.07627118644066,81.73652694610777,899100.0,3024.0,0.0,1.0,0.0,?,0.0,0.0
3100000.0,13.875,3.1406603132685006E-7,3100000.0,95.0,88.41471609103252,88.26291079812205,83.92282958199355,928800.0,3024.0,0.0,1.0,0.0,?,0.0,0.0
3200000.0,14.328125,3.2999345825778093E-7,3200000.0,95.39999999999999,89.56537519281372,89.30232558139534,85.88957055214722,958800.0,3024.0,0.0,1.0,0.0,?,0.0,0.0
3300000.0,14.78125,3.4430413506925087E-7,3300000.0,94.6,87.48702358000888,87.9194630872483,82.80254777070061,988800.0,3024.0,0.0,1.0,0.0,?,0.0,35.0
3400000.0,15.234375,3.569174118133053E-7,3400000.0,95.39999999999999,89.48210815136616,89.73214285714285,85.66978193146416,1018800.0,3024.0,0.0,1.0,0.0,?,0.0,55.0
3500000.0,15.703125,3.682407421163385E-7,3500000.0,94.89999999999999,88.59825620389,88.71681415929203,85.21739130434781,1048800.0,3024.0,0.0,1.0,0.0,?,0.0,11.0
3600000.0,16.171875,3.778100815705125E-7,3600000.0,96.5,91.5268188288611,91.52542372881355,88.09523809523809,1078800.0,3024.0,0.0,1.0,0.0,?,0.0,19.0
3700000.0,16.609375,3.8511165055549785E-7,3700000.0,94.19999999999999,86.47028361084801,86.90744920993227,80.85808580858085,1108800.0,3024.0,0.0,1.0,0.0,?,0.0,0.0
3800000.0,17.046875,3.907834050349061E-7,3800000.0,95.5,90.1926597506756,89.48598130841121,87.25212464589234,1138800.0,3024.0,0.0,1.0,0.0,?,0.0,0.0
3900000.0,17.484375,3.9482534500873725E-7,3900000.0,95.8,90.60150375939848,90.5829596412556,87.4251497005988,1168800.0,3024.0,0.0,1.0,0.0,?,0.0,0.0
4000000.0,17.921875,3.972374704769913E-7,4000000.0,95.1,88.89332148620957,88.96396396396395,85.10638297872339,1198800.0,3024.0,0.0,1.0,0.0,?,0.0,0.0
4100000.0,18.375,4.1494482300347724E-7,4100000.0,95.39999999999999,89.5488749136646,89.40092165898616,85.97560975609755,1228500.0,3024.0,0.0,1.0,0.0,?,0.0,0.0
4200000.0,18.828125,4.309641533634726E-7,4200000.0,94.6,87.80752140457352,87.14285714285714,83.53658536585364,1258500.0,3024.0,0.0,1.0,0.0,?,0.0,0.0
4300000.0,19.28125,4.4530202608762486E-7,4300000.0,94.1,86.64747524125069,86.24708624708623,82.01219512195121,1288500.0,3024.0,0.0,1.0,0.0,?,0.0,5.0
4400000.0,19.71875,4.5751386399691274E-7,4400000.0,94.8,88.01180376244928,87.43961352657004,83.54430379746833,1318500.0,3024.0,0.0,1.0,0.0,?,0.0,93.0
4500000.0,20.171875,4.6847663017817637E-7,4500000.0,95.0,88.8907157489657,89.27038626609442,85.33724340175952,1348500.0,3024.0,0.0,1.0,0.0,?,0.0,12.0
4600000.0,20.640625,4.780711929520796E-7,4600000.0,96.5,91.91050709564091,92.20489977728285,88.88888888888887,1378500.0,3024.0,0.0,1.0,0.0,?,0.0,0.0
4700000.0,21.09375,4.856579148003621E-7,4700000.0,95.6,89.75276209639856,88.88888888888889,85.62091503267972,1408500.0,3024.0,0.0,1.0,0.0,?,0.0,0.0
4800000.0,21.53125,4.91353211044851E-7,4800000.0,96.0,90.65001121998652,90.33816425120771,87.17948717948717,1438500.0,3024.0,0.0,1.0,0.0,?,0.0,0.0
4900000.0,21.984375,4.955638885601525E-7,4900000.0,93.7,85.71998476798377,85.96881959910915,80.85106382978725,1468500.0,3024.0,0.0,1.0,0.0,?,0.0,0.0
5000000.0,22.453125,4.985751648847425E-7,5000000.0,95.39999999999999,89.87711700292242,89.70917225950782,86.70520231213872,1498500.0,3024.0,0.0,1.0,0.0,?,0.0,0.0
5100000.0,22.921875,5.172161682922805E-7,5100000.0,48.0,2.7321055132190826,-13.537117903930143,-45.65826330532214,190987.0,3024.0,0.0,1.0,0.0,?,1.0,19.0
5200000.0,23.359375,5.329846236337388E-7,5200000.0,50.9,4.120289006053496,-4.025423728813563,-29.551451187335086,220987.0,3024.0,0.0,1.0,0.0,?,0.0,0.0
5300000.0,23.796875,5.4712326446962E-7,5300000.0,55.400000000000006,9.777964785085459,10.080645161290331,-16.753926701570666,250987.0,3024.0,0.0,1.0,0.0,?,0.0,0.0
5400000.0,24.21875,5.591853470024133E-7,5400000.0,56.89999999999999,9.887683674408102,12.753036437246953,-17.759562841530073,280987.0,3024.0,0.0,1.0,0.0,?,0.0,0.0
5500000.0,24.671875,5.704528949637378E-7,5500000.0,63.7,21.827892152640192,23.89937106918239,7.397959183673477,310987.0,3024.0,0.0,1.0,0.0,?,0.0,0.0
5600000.0,25.109375,5.797020922828877E-7,5600000.0,62.4,18.535722952126733,21.50313152400835,4.081632653061227,340987.0,3024.0,0.0,1.0,0.0,?,0.0,0.0
5700000.0,25.546875,5.873214750964606E-7,5700000.0,68.5,28.336776201439655,31.37254901960785,12.983425414364651,370987.0,3024.0,0.0,1.0,0.0,?,0.0,0.0
5800000.0,25.984375,5.933110434044564E-7,5800000.0,68.0,25.24936345161065,30.885529157667392,10.863509749303631,400987.0,3024.0,0.0,1.0,0.0,?,0.0,0.0
5900000.0,26.421875,5.97670797206875E-7,5900000.0,68.4,29.716240441631136,34.979423868312765,18.76606683804629,430987.0,3024.0,0.0,1.0,0.0,?,0.0,0.0
6000000.0,26.859375,6.004007365037166E-7,6000000.0,71.89999999999999,37.23195139385274,40.84210526315788,28.132992327365724,460987.0,3024.0,0.0,1.0,0.0,?,0.0,0.0
6100000.0,27.28125,6.171933556389475E-7,6100000.0,70.7,33.369718470005,37.124463519313295,23.896103896103888,490687.0,3024.0,0.0,1.0,0.0,?,0.0,0.0
6200000.0,27.71875,6.329781091254616E-7,6200000.0,69.39999999999999,28.758014723343607,36.382536382536365,17.0731707317073,520687.0,3024.0,0.0,1.0,0.0,?,0.0,0.0
6300000.0,28.15625,6.471330481063986E-7,6300000.0,69.5,32.265572255978384,40.66147859922179,22.979797979797972,550687.0,3024.0,0.0,1.0,0.0,?,0.0,0.0
6400000.0,28.609375,6.601054984558785E-7,6400000.0,70.1,29.905665685189682,31.264367816091955,17.630853994490344,580687.0,3024.0,0.0,1.0,0.0,?,0.0,0.0
6500000.0,29.0625,6.713899266388679E-7,6500000.0,69.3,30.988904274641676,31.77777777777776,20.671834625322987,610687.0,3024.0,0.0,1.0,0.0,?,0.0,0.0
6600000.0,29.515625,6.809863326553666E-7,6600000.0,65.2,21.826914005112716,24.34782608695652,10.539845758354764,640687.0,3024.0,0.0,1.0,0.0,?,0.0,0.0
6700000.0,29.9375,6.883493107226157E-7,6700000.0,69.39999999999999,31.124206015152655,34.615384615384606,21.33676092544986,670687.0,3024.0,0.0,1.0,0.0,?,0.0,0.0
6800000.0,30.390625,6.945696724061334E-7,6800000.0,68.89999999999999,29.632914600152038,35.8762886597938,18.79895561357701,700687.0,3024.0,0.0,1.0,0.0,?,0.0,0.0
6900000.0,30.828125,6.989457243536079E-7,6900000.0,67.5,26.974825413659538,30.107526881720435,15.80310880829017,730687.0,3024.0,0.0,1.0,0.0,?,0.0,0.0
7000000.0,31.28125,7.017900417041445E-7,7000000.0,68.10000000000001,27.25199543899659,31.250000000000007,14.933333333333346,760687.0,3024.0,0.0,1.0,0.0,?,0.0,0.0
7100000.0,31.703125,7.185983769078219E-7,7100000.0,68.89999999999999,29.968835005674542,36.91683569979715,19.010416666666654,790387.0,3024.0,0.0,1.0,0.0,?,0.0,0.0
7200000.0,32.140625,7.343994285393917E-7,7200000.0,70.3,30.940511179731377,37.4736842105263,17.27019498607241,820387.0,3024.0,0.0,1.0,0.0,?,0.0,0.0
7300000.0,32.59375,7.490767812770271E-7,7300000.0,69.1,29.63904145148508,29.128440366972473,15.573770491803263,850387.0,3024.0,0.0,1.0,0.0,?,0.0,0.0
7400000.0,33.03125,7.616182038974427E-7,7400000.0,67.30000000000001,28.110380245523952,34.205231388329985,17.42424242424244,880387.0,3024.0,0.0,1.0,0.0,?,0.0,0.0
7500000.0,33.46875,7.725298120122813E-7,7500000.0,64.9,23.156410638130197,27.926078028747437,12.030075187969935,910387.0,3024.0,0.0,1.0,0.0,?,0.0,0.0
7600000.0,33.890625,7.814801129926406E-7,7600000.0,66.10000000000001,26.53751137693408,26.939655172413797,16.502463054187206,940387.0,3024.0,0.0,1.0,0.0,?,0.0,0.0
7700000.0,34.34375,7.894053770643138E-7,7700000.0,68.2,27.468467030084632,28.378378378378383,13.821138211382126,970387.0,3024.0,0.0,1.0,0.0,?,0.0,0.0
7800000.0,34.78125,7.954275416624211E-7,7800000.0,68.30000000000001,28.062451776880152,31.086956521739133,14.55525606469004,1000387.0,3024.0,0.0,1.0,0.0,?,0.0,0.0
7900000.0,35.234375,7.999767614011131E-7,7900000.0,67.5,26.473915207456685,33.94308943089432,12.162162162162172,1030387.0,3024.0,0.0,1.0,0.0,?,0.0,0.0
8000000.0,35.703125,8.02936620958563E-7,8000000.0,65.0,22.3095807824979,24.568965517241377,9.560723514211894,1060387.0,3024.0,0.0,1.0,0.0,?,0.0,0.0
8100000.0,36.15625,8.210068982508443E-7,8100000.0,67.7,29.119412941961315,31.85654008438819,18.43434343434345,1090087.0,3024.0,0.0,1.0,0.0,?,0.0,0.0
8200000.0,36.59375,8.3682424802747E-7,8200000.0,65.9,23.024830699774284,28.661087866108794,9.066666666666674,1120087.0,3024.0,0.0,1.0,0.0,?,0.0,0.0
8300000.0,37.03125,8.510289868960774E-7,8300000.0,71.0,35.33338982370544,39.834024896265554,23.482849604221627,1150087.0,3024.0,0.0,1.0,0.0,?,0.0,30.0
8400000.0,37.5,8.645874913781877E-7,8400000.0,67.80000000000001,28.275173854741652,33.19502074688798,15.039577836411622,1180087.0,3024.0,0.0,1.0,0.0,?,0.0,26.0
8500000.0,37.96875,8.76399766032894E-7,8500000.0,66.9,27.825070648571337,26.607538802660756,16.41414141414143,1210087.0,3024.0,0.0,1.0,0.0,?,0.0,0.0
8600000.0,38.421875,8.861302760326196E-7,8600000.0,69.1,31.912530738517663,31.93832599118941,18.89763779527558,1240087.0,3024.0,0.0,1.0,0.0,?,0.0,0.0
8700000.0,38.875,8.941727638658546E-7,8700000.0,68.60000000000001,28.402369562342393,31.887201735357923,13.019390581717463,1270087.0,3024.0,0.0,1.0,0.0,?,0.0,0.0
8800000.0,39.34375,9.007463490383488E-7,8800000.0,66.3,24.709562109025924,24.60850111856823,8.672086720867217,1300087.0,3024.0,0.0,1.0,0.0,?,0.0,0.0
8900000.0,39.796875,9.053011955175958E-7,8900000.0,67.0,25.718504645969897,30.526315789473692,9.836065573770501,1330087.0,3024.0,0.0,1.0,0.0,?,0.0,16.0
9000000.0,40.25,9.081680198303523E-7,9000000.0,66.2,25.30584824269855,29.140461215932916,12.88659793814434,1360087.0,3024.0,0.0,1.0,0.0,?,0.0,0.0
9100000.0,40.703125,9.262439238631886E-7,9100000.0,68.8,30.604982206405683,33.75796178343948,16.577540106951858,1389787.0,3024.0,0.0,1.0,0.0,?,0.0,0.0
9200000.0,41.15625,9.426318057295344E-7,9200000.0,69.19999999999999,32.41849626765785,34.18803418803417,21.22762148337595,1419787.0,3024.0,0.0,1.0,0.0,?,0.0,0.0
9300000.0,41.609375,9.573316654293897E-7,9300000.0,71.7,38.27322061107329,39.65884861407248,26.302083333333325,1449787.0,3024.0,0.0,1.0,0.0,?,0.0,0.0
9400000.0,42.0625,9.703435029627545E-7,9400000.0,68.4,31.437894883010493,33.61344537815127,20.20202020202022,1479787.0,3024.0,0.0,1.0,0.0,?,0.0,0.0
9500000.0,42.5,9.812768419376674E-7,9500000.0,69.5,29.27962603993729,33.695652173913025,8.682634730538897,1509787.0,3024.0,0.0,1.0,0.0,?,0.0,0.0
9600000.0,42.921875,9.902480976759555E-7,9600000.0,70.0,32.655397669876756,34.06593406593405,18.25613079019072,1539787.0,3024.0,0.0,1.0,0.0,?,0.0,0.0
9700000.0,43.375,9.981958687098486E-7,9700000.0,67.2,27.811817733643224,30.508474576271194,12.765957446808521,1569787.0,3024.0,0.0,1.0,0.0,?,0.0,0.0
9800000.0,43.8125,1.0042397641680303E-6,9800000.0,70.3,34.346069164316084,37.866108786610866,20.588235294117634,1599787.0,3024.0,0.0,1.0,0.0,?,0.0,0.0
9900000.0,44.25,1.0086538451206348E-6,9900000.0,68.4,29.267244466728766,33.33333333333334,15.05376344086023,1629787.0,3024.0,0.0,1.0,0.0,?,0.0,0.0
1.0E7,44.71875,1.01163698774245E-6,1.0E7,69.89999999999999,32.63627167500693,34.84848484848484,19.518716577540093,1659787.0,3024.0,0.0,1.0,0.0,?,0.0,0.0
