learning evaluation instances,evaluation time (cpu seconds),model cost (RAM-Hours),classified instances,classifications correct (percent),Kappa Statistic (percent),Kappa Temporal Statistic (percent),Kappa M Statistic (percent),model training instances,model serialized size (bytes),labeling cost,newThreshold,maxPosterior,accuracyBaseLearner (percent),Change detected,Warning detected
100000.0,0.25,7.678237226274278E-10,100000.0,72.7,43.55072164095777,41.03671706263498,39.99999999999999,19968.0,2904.0,19968.0,1.0,0.0,0.0,0.0,0.0
200000.0,0.515625,1.58363642791907E-9,200000.0,73.7,45.04346372450685,42.57641921397379,39.26096997690532,39876.0,2904.0,39876.0,1.0,0.0,0.0,0.0,0.0
300000.0,0.765625,2.3514601505464977E-9,300000.0,74.4,46.07892697064671,46.21848739495798,39.62264150943396,59806.0,2904.0,59806.0,1.0,0.0,0.0,0.0,0.0
400000.0,1.015625,3.1192838731739256E-9,400000.0,73.1,43.672471124289096,46.09218436873747,37.2960372960373,79806.0,2904.0,79806.0,1.0,0.0,0.0,0.0,0.0
500000.0,1.265625,3.8871075958013535E-9,500000.0,76.1,48.882691123126406,49.25690021231423,40.84158415841585,99682.0,2904.0,99682.0,1.0,0.0,0.0,0.0,0.0
600000.0,1.53125,4.702920301092995E-9,600000.0,74.6,46.661290796762714,51.526717557251914,40.515222482435604,119750.0,2904.0,119750.0,1.0,0.0,0.0,0.0,0.0
700000.0,1.78125,5.470744023720423E-9,700000.0,76.3,50.166112956810636,50.314465408805034,44.3661971830986,139626.0,2904.0,139626.0,1.0,0.0,0.0,0.0,0.0
800000.0,2.046875,6.286556729012065E-9,800000.0,72.6,42.76092869348687,43.38842975206611,36.720554272517326,159647.0,2904.0,159647.0,1.0,0.0,0.0,0.0,0.0
900000.0,2.28125,7.006391468975278E-9,900000.0,72.5,42.70355862988581,46.1839530332681,37.499999999999986,179718.0,2904.0,179718.0,1.0,0.0,0.0,0.0,0.0
1000000.0,2.546875,7.994272487445009E-9,1000000.0,72.7,42.74520989228549,44.17177914110429,36.21495327102804,199911.0,2904.0,199911.0,1.0,0.0,0.0,0.0,9.0
1100000.0,2.8125,8.98215350591474E-9,1100000.0,71.6,40.203224814819485,41.20082815734989,34.41108545034643,219843.0,2904.0,219843.0,1.0,0.0,0.0,0.0,0.0
1200000.0,3.078125,9.970034524384471E-9,1200000.0,74.6,45.94571587876518,49.90138067061144,38.49878934624697,239740.0,2904.0,239740.0,1.0,0.0,0.0,0.0,0.0
1300000.0,3.328125,1.0899804894708923E-8,1300000.0,73.8,44.53265586958823,46.42126789366053,37.76722090261283,259656.0,2904.0,259656.0,1.0,0.0,0.0,0.0,0.0
1400000.0,3.59375,1.1887685913178654E-8,1400000.0,73.8,44.27334138746618,46.639511201629325,37.32057416267943,279837.0,2904.0,279837.0,1.0,0.0,0.0,0.0,0.0
1500000.0,3.859375,1.2875566931648385E-8,1500000.0,73.2,43.6034056809047,45.194274028629856,36.643026004728135,299790.0,2904.0,299790.0,1.0,0.0,0.0,0.0,0.0
1600000.0,4.125,1.3863447950118116E-8,1600000.0,74.4,45.73028801105745,45.87737843551797,39.19239904988124,319560.0,2904.0,319560.0,1.0,0.0,0.0,0.0,0.0
1700000.0,4.375,1.4793218320442568E-8,1700000.0,72.8,42.363112391930834,43.56846473029045,35.54502369668246,339484.0,2904.0,339484.0,1.0,0.0,0.0,0.0,0.0
1800000.0,4.640625,1.57810993389123E-8,1800000.0,75.0,48.32575444398512,49.08350305498981,43.94618834080717,359564.0,2904.0,359564.0,1.0,0.0,0.0,0.0,0.0
1900000.0,4.890625,1.6710869709236755E-8,1900000.0,73.1,43.52298971236616,44.07484407484407,36.705882352941174,379667.0,2904.0,379667.0,1.0,0.0,0.0,0.0,0.0
2000000.0,5.15625,1.7698750727706488E-8,2000000.0,72.2,41.664043647046476,44.28857715430861,35.79676674364896,399603.0,2904.0,399603.0,1.0,0.0,0.0,0.0,0.0
2100000.0,5.390625,1.8570410449885663E-8,2100000.0,70.89999999999999,38.02497742490587,41.683366733466926,30.548926014319804,419498.0,2904.0,419498.0,1.0,0.0,0.0,0.0,0.0
2200000.0,5.65625,1.9558291468355396E-8,2200000.0,74.2,45.45108569253864,44.15584415584415,37.83132530120482,439444.0,2904.0,439444.0,1.0,0.0,0.0,0.0,0.0
2300000.0,5.90625,2.048806183867985E-8,2300000.0,72.1,41.57802160985006,40.88983050847457,35.41666666666667,459746.0,2904.0,459746.0,1.0,0.0,0.0,0.0,0.0
2400000.0,6.171875,2.1475942857149582E-8,2400000.0,72.39999999999999,41.702293043140294,43.326488706365495,33.97129186602871,479709.0,2904.0,479709.0,1.0,0.0,0.0,0.0,0.0
2500000.0,6.40625,2.2347602579328758E-8,2500000.0,73.1,43.19381678422098,43.95833333333333,37.441860465116285,499835.0,2904.0,499835.0,1.0,0.0,0.0,0.0,0.0
2600000.0,6.671875,2.333548359779849E-8,2600000.0,75.8,49.47639169575603,50.20576131687243,43.19248826291081,519957.0,2904.0,519957.0,1.0,0.0,0.0,0.0,0.0
2700000.0,6.921875,2.4265253968122945E-8,2700000.0,74.3,46.094923274408295,48.6,39.67136150234742,539911.0,2904.0,539911.0,1.0,0.0,0.0,0.0,0.0
2800000.0,7.203125,2.5311245634737952E-8,2800000.0,73.3,43.077644651004135,45.51020408163265,35.66265060240964,559947.0,2904.0,559947.0,1.0,0.0,0.0,0.0,0.0
2900000.0,7.46875,2.6299126653207685E-8,2900000.0,72.3,41.674387265223615,44.37751004016064,34.66981132075472,579897.0,2904.0,579897.0,1.0,0.0,0.0,0.0,0.0
3000000.0,7.71875,2.722889702353214E-8,3000000.0,73.1,42.52235004529836,44.1908713692946,33.90663390663391,599997.0,2904.0,599997.0,1.0,0.0,0.0,0.0,0.0
3100000.0,7.984375,2.821677804200187E-8,3100000.0,72.8,42.89169578070411,44.147843942505126,35.54502369668246,619914.0,2904.0,619914.0,1.0,0.0,0.0,0.0,0.0
3200000.0,8.234375,2.9146548412326326E-8,3200000.0,76.3,50.09307536156198,50.0,43.83886255924171,639980.0,2904.0,639980.0,1.0,0.0,0.0,0.0,0.0
3300000.0,8.484375,3.007631878265078E-8,3300000.0,76.2,49.32547523335831,50.82644628099173,41.0891089108911,659985.0,2904.0,659985.0,1.0,0.0,0.0,0.0,0.0
3400000.0,8.734375,3.1006089152975234E-8,3400000.0,73.5,44.86380319082533,44.67640918580375,40.04524886877827,679732.0,2904.0,679732.0,1.0,0.0,0.0,0.0,0.0
3500000.0,8.984375,3.193585952329969E-8,3500000.0,74.1,45.36003307933132,48.81422924901186,39.344262295081975,699529.0,2904.0,699529.0,1.0,0.0,0.0,0.0,0.0
3600000.0,9.234375,3.286562989362414E-8,3600000.0,73.6,43.817594456669326,46.45030425963488,36.07748184019371,719393.0,2904.0,719393.0,1.0,0.0,0.0,0.0,0.0
3700000.0,9.5,3.3853510912093875E-8,3700000.0,74.1,45.387684184779395,43.57298474945533,38.038277511961724,739655.0,2904.0,739655.0,1.0,0.0,0.0,0.0,0.0
3800000.0,9.75,3.478328128241833E-8,3800000.0,74.7,45.30912235192391,51.252408477842,36.75000000000001,759596.0,2904.0,759596.0,1.0,0.0,0.0,0.0,0.0
3900000.0,10.015625,3.577116230088806E-8,3900000.0,71.39999999999999,40.03262560648821,40.9090909090909,31.414868105515588,779558.0,2904.0,779558.0,1.0,0.0,0.0,0.0,0.0
4000000.0,10.25,3.664282202306724E-8,4000000.0,75.8,48.14878299622901,52.734375,38.88888888888889,799506.0,2904.0,799506.0,1.0,0.0,0.0,0.0,0.0
4100000.0,10.515625,3.763070304153697E-8,4100000.0,71.8,40.891655662453616,45.559845559845556,33.0166270783848,819382.0,2904.0,819382.0,1.0,0.0,0.0,0.0,0.0
4200000.0,10.78125,3.86185840600067E-8,4200000.0,73.2,42.42230233447485,43.220338983050844,32.83208020050125,839480.0,2904.0,839480.0,1.0,0.0,0.0,0.0,0.0
4300000.0,11.03125,3.9548354430331156E-8,4300000.0,76.8,51.523864049512525,54.1501976284585,44.36450839328538,859382.0,2904.0,859382.0,1.0,0.0,0.0,0.0,0.0
4400000.0,11.28125,4.047812480065561E-8,4400000.0,75.2,48.04650675604903,47.346072186836516,41.64705882352942,879284.0,2904.0,879284.0,1.0,0.0,0.0,0.0,0.0
4500000.0,11.546875,4.146600581912534E-8,4500000.0,73.9,44.75722812513228,46.51639344262295,37.70883054892602,899416.0,2904.0,899416.0,1.0,0.0,0.0,0.0,0.0
4600000.0,11.796875,4.23957761894498E-8,4600000.0,74.8,47.142108023072886,48.676171079429736,40.70588235294118,919461.0,2904.0,919461.0,1.0,0.0,0.0,0.0,0.0
4700000.0,12.046875,4.332554655977425E-8,4700000.0,75.7,48.68567760245971,51.976284584980235,41.162227602905574,939496.0,2904.0,939496.0,1.0,0.0,0.0,0.0,0.0
4800000.0,12.3125,4.4313427578243984E-8,4800000.0,75.4,48.3095543274989,48.319327731092436,42.388758782201414,959513.0,2904.0,959513.0,1.0,0.0,0.0,0.0,0.0
4900000.0,12.5625,4.524319794856844E-8,4900000.0,72.2,41.63783547747808,43.26530612244897,35.64814814814815,979240.0,2904.0,979240.0,1.0,0.0,0.0,0.0,0.0
5000000.0,12.828125,4.623107896703817E-8,5000000.0,73.2,43.620727376765004,46.29258517034068,36.492890995260666,999443.0,2904.0,999443.0,1.0,0.0,0.0,0.0,0.0
5100000.0,13.09375,4.723435267806057E-8,5100000.0,70.39999999999999,40.784840919275325,40.20202020202019,40.32258064516128,19485.0,2904.0,1019499.0,1.0,0.0,0.0,1.0,29.0
5200000.0,13.359375,4.8237626389082974E-8,5200000.0,68.7,37.389481432880736,35.463917525773205,35.860655737704924,39330.0,2904.0,1039344.0,1.0,0.0,0.0,0.0,0.0
5300000.0,13.625,4.9240900100105376E-8,5300000.0,67.7,34.73587223587224,36.291913214990146,28.539823008849563,59222.0,2904.0,1059236.0,1.0,0.0,0.0,0.0,0.0
5400000.0,13.890625,5.024417381112778E-8,5400000.0,68.7,37.44103867862683,40.60721062618597,36.89516129032259,79183.0,2904.0,1079197.0,1.0,0.0,0.0,0.0,0.0
5500000.0,14.140625,5.11884314215018E-8,5500000.0,70.3,40.43751353692873,40.12096774193547,37.866108786610866,99254.0,2904.0,1099268.0,1.0,0.0,0.0,0.0,0.0
5600000.0,14.421875,5.225072123317258E-8,5600000.0,67.0,33.46344925479063,32.51533742331289,29.487179487179493,118924.0,2904.0,1118938.0,1.0,0.0,0.0,0.0,0.0
5700000.0,14.6875,5.3253994944194985E-8,5700000.0,69.0,37.78398599938988,39.57115009746588,36.21399176954731,138922.0,2904.0,1138936.0,1.0,0.0,0.0,0.0,0.0
5800000.0,14.953125,5.4257268655217387E-8,5800000.0,70.19999999999999,40.005234442632506,41.68297455968688,33.03370786516852,158983.0,2904.0,1158997.0,1.0,0.0,0.0,0.0,0.0
5900000.0,15.21875,5.526054236623979E-8,5900000.0,68.30000000000001,36.22654263366273,36.345381526104426,33.40336134453782,178987.0,2904.0,1179001.0,1.0,0.0,0.0,0.0,0.0
6000000.0,15.46875,5.620479997661381E-8,6000000.0,68.2,36.3635999791881,33.47280334728035,37.64705882352942,199147.0,2904.0,1199161.0,1.0,0.0,0.0,0.0,0.0
6100000.0,15.75,5.726708978828459E-8,6100000.0,67.9,35.818997576717294,36.30952380952382,37.426900584795334,219194.0,2904.0,1219208.0,1.0,0.0,0.0,0.0,0.0
6200000.0,16.015625,5.8270363499306995E-8,6200000.0,69.89999999999999,39.721879555904444,40.159045725646116,38.696537678207726,239125.0,2904.0,1239139.0,1.0,0.0,0.0,0.0,0.0
6300000.0,16.28125,5.92736372103294E-8,6300000.0,67.80000000000001,35.86551676061108,34.41955193482689,30.90128755364808,259278.0,2904.0,1259292.0,1.0,0.0,0.0,0.0,0.0
6400000.0,16.546875,6.02769109213518E-8,6400000.0,67.80000000000001,35.5001542387616,36.98630136986302,36.237623762376245,279435.0,2904.0,1279449.0,1.0,0.0,0.0,0.0,0.0
6500000.0,16.796875,6.122116853172582E-8,6500000.0,68.2,36.17123771597406,35.49695740365112,32.05128205128206,299246.0,2904.0,1299260.0,1.0,0.0,0.0,0.0,0.0
6600000.0,17.078125,6.22834583433966E-8,6600000.0,67.7,35.31616975600379,36.79060665362036,32.848232848232854,319342.0,2904.0,1319356.0,1.0,0.0,0.0,0.0,0.0
6700000.0,17.34375,6.3286732054419E-8,6700000.0,69.69999999999999,39.42665227299987,39.15662650602409,39.39999999999999,339175.0,2904.0,1339189.0,1.0,0.0,0.0,0.0,0.0
6800000.0,17.609375,6.429000576544141E-8,6800000.0,68.2,36.22141997593261,35.757575757575765,34.56790123456791,359240.0,2904.0,1359254.0,1.0,0.0,0.0,0.0,0.0
6900000.0,17.875,6.529327947646381E-8,6900000.0,71.0,42.0020879248347,42.23107569721115,39.20335429769391,379299.0,2904.0,1379313.0,1.0,0.0,0.0,0.0,0.0
7000000.0,18.140625,6.629655318748621E-8,7000000.0,68.5,36.369292426531786,36.87374749498999,31.222707423580793,399527.0,2904.0,1399541.0,1.0,0.0,0.0,0.0,0.0
7100000.0,18.40625,6.729982689850861E-8,7100000.0,70.8,41.67349140083495,43.62934362934362,40.163934426229496,419362.0,2904.0,1419376.0,1.0,0.0,0.0,0.0,0.0
7200000.0,18.671875,6.830310060953102E-8,7200000.0,67.4,34.69577445603184,34.53815261044178,31.941544885177457,439291.0,2904.0,1439305.0,1.0,0.0,0.0,0.0,0.0
7300000.0,18.9375,6.930637432055342E-8,7300000.0,69.3,38.0198659452475,39.32806324110671,33.405639913232086,459170.0,2904.0,1459184.0,1.0,0.0,0.0,0.0,0.0
7400000.0,19.21875,7.03686641322242E-8,7400000.0,67.5,34.666538010003066,37.85850860420651,30.997876857749475,479057.0,2904.0,1479071.0,1.0,0.0,0.0,0.0,0.0
7500000.0,19.484375,7.13719378432466E-8,7500000.0,67.30000000000001,34.56387926135227,39.44444444444445,32.85420944558523,499024.0,2904.0,1499038.0,1.0,0.0,0.0,0.0,0.0
7600000.0,19.765625,7.243422765491738E-8,7600000.0,73.3,46.56494660497286,45.95141700404858,46.27766599597585,519085.0,2904.0,1519099.0,1.0,0.0,0.0,0.0,0.0
7700000.0,20.03125,7.343750136593978E-8,7700000.0,69.1,37.97223404340739,38.07615230460921,35.8921161825726,539179.0,2904.0,1539193.0,1.0,0.0,0.0,0.0,0.0
7800000.0,20.296875,7.444077507696218E-8,7800000.0,69.3,38.04138109192478,37.72819472616632,31.929046563192887,559242.0,2904.0,1559256.0,1.0,0.0,0.0,0.0,0.0
7900000.0,20.546875,7.538451528590587E-8,7900000.0,68.4,36.65176513040515,38.401559454191045,35.11293634496921,579318.0,2904.0,1579332.0,1.0,0.0,0.0,0.0,27.0
8000000.0,20.828125,7.644680509757665E-8,8000000.0,68.60000000000001,36.891779450837895,34.854771784232376,32.762312633832984,599479.0,2904.0,1599493.0,1.0,0.0,0.0,0.0,52.0
8100000.0,21.09375,7.745007880859905E-8,8100000.0,70.39999999999999,40.663288216049764,42.30019493177387,38.58921161825725,619679.0,2904.0,1619693.0,1.0,0.0,0.0,0.0,24.0
8200000.0,21.359375,7.840442574686475E-8,8200000.0,69.0,38.063423054791876,37.999999999999986,38.49206349206348,639702.0,2904.0,1639716.0,1.0,0.0,0.0,0.0,52.0
8300000.0,21.609375,7.934868335723877E-8,8300000.0,71.8,43.858699114480466,42.094455852156045,41.614906832298125,659709.0,2904.0,1659723.0,1.0,0.0,0.0,0.0,41.0
8400000.0,21.890625,8.041097316890955E-8,8400000.0,71.6,43.18750125027505,41.80327868852458,41.92229038854805,679498.0,2904.0,1679512.0,1.0,0.0,0.0,0.0,57.0
8500000.0,22.15625,8.141424687993195E-8,8500000.0,70.7,41.07141420561047,39.462809917355365,36.16557734204792,699561.0,2904.0,1699575.0,1.0,0.0,0.0,0.0,7.0
8600000.0,22.421875,8.241752059095436E-8,8600000.0,68.10000000000001,36.09365984999039,35.03054989816701,33.817427385892124,719583.0,2904.0,1719597.0,1.0,0.0,0.0,0.0,0.0
8700000.0,22.6875,8.342079430197676E-8,8700000.0,70.0,39.34001941119378,40.11976047904191,34.782608695652165,739968.0,2904.0,1739982.0,1.0,0.0,0.0,0.0,0.0
8800000.0,22.953125,8.442406801299916E-8,8800000.0,69.89999999999999,39.729121446821445,39.19191919191918,38.94523326572007,759925.0,2904.0,1759939.0,1.0,0.0,0.0,0.0,0.0
8900000.0,23.203125,8.536832562337318E-8,8900000.0,70.89999999999999,41.58972300281011,43.713733075435194,38.73684210526315,779914.0,2904.0,1779928.0,1.0,0.0,0.0,0.0,0.0
9000000.0,23.46875,8.637159933439559E-8,9000000.0,70.0,39.394918869998044,44.23791821561337,33.62831858407078,799859.0,2904.0,1799873.0,1.0,0.0,0.0,0.0,0.0
9100000.0,23.734375,8.737487304541799E-8,9100000.0,66.7,32.855322375106866,34.83365949119375,27.765726681127983,819935.0,2904.0,1819949.0,1.0,0.0,0.0,0.0,0.0
9200000.0,24.015625,8.843716285708877E-8,9200000.0,68.7,37.40000000000001,38.26429980276135,37.40000000000001,839833.0,2904.0,1839847.0,1.0,0.0,0.0,0.0,0.0
9300000.0,24.28125,8.944043656811117E-8,9300000.0,71.8,43.52070306710621,43.599999999999994,42.094455852156045,859572.0,2904.0,1859586.0,1.0,0.0,0.0,0.0,0.0
9400000.0,24.546875,9.044371027913357E-8,9400000.0,69.89999999999999,39.82022040594359,41.55339805825242,42.992424242424235,879822.0,2904.0,1879836.0,1.0,0.0,0.0,0.0,0.0
9500000.0,24.796875,9.13879678895076E-8,9500000.0,67.9,35.622317596566525,37.058823529411775,35.671342685370746,899671.0,2904.0,1899685.0,1.0,0.0,0.0,0.0,0.0
9600000.0,25.0625,9.239124160053E-8,9600000.0,68.8,37.57602919521095,37.72455089820358,36.969696969696955,919765.0,2904.0,1919779.0,1.0,0.0,0.0,0.0,0.0
9700000.0,25.328125,9.33945153115524E-8,9700000.0,68.30000000000001,36.46275956065102,41.2962962962963,33.68200836820085,939777.0,2904.0,1939791.0,1.0,0.0,0.0,0.0,0.0
9800000.0,25.59375,9.43977890225748E-8,9800000.0,69.19999999999999,38.30152924066809,39.250493096646935,37.525354969574025,959652.0,2904.0,1959666.0,1.0,0.0,0.0,0.0,0.0
9900000.0,25.84375,9.534204663294883E-8,9900000.0,70.7,41.0325146311815,41.86507936507936,36.16557734204792,979408.0,2904.0,1979422.0,1.0,0.0,0.0,0.0,0.0
1.0E7,26.109375,9.634532034397123E-8,1.0E7,68.89999999999999,37.24271531197029,38.899803536345765,34.800838574423466,999339.0,2904.0,1999353.0,1.0,0.0,0.0,0.0,0.0
