learning evaluation instances,evaluation time (cpu seconds),model cost (RAM-Hours),classified instances,classifications correct (percent),Kappa Statistic (percent),Kappa Temporal Statistic (percent),Kappa M Statistic (percent),model training instances,model serialized size (bytes),labeling cost,newThreshold,maxPosterior,accuracyBaseLearner (percent),Change detected,Warning detected
100000.0,0.265625,1.0038234500421418E-9,100000.0,70.39999999999999,32.55160030442925,37.15498938428873,20.21563342318058,19968.0,2904.0,19968.0,1.0,0.0,0.0,0.0,34.0
200000.0,0.53125,2.0076469000842835E-9,200000.0,69.6,31.61562582949795,37.57700205338808,20.209973753280828,39876.0,2904.0,39876.0,1.0,0.0,0.0,0.0,0.0
300000.0,0.78125,2.9524219118886523E-9,300000.0,71.2,34.44026096418343,35.999999999999986,22.788203753351198,59806.0,2904.0,59806.0,1.0,0.0,0.0,0.0,0.0
400000.0,1.03125,3.897196923693021E-9,400000.0,70.6,31.611366470029946,34.66666666666665,18.784530386740318,79806.0,2904.0,79806.0,1.0,0.0,0.0,0.0,0.0
500000.0,1.28125,4.8419719354973895E-9,500000.0,70.5,31.44955151740482,38.41336116910228,19.17808219178081,99682.0,2904.0,99682.0,1.0,0.0,0.0,0.0,0.0
600000.0,1.546875,5.845795385539531E-9,600000.0,70.1,33.91914709288447,40.08016032064127,23.529411764705873,119750.0,2904.0,119750.0,1.0,0.0,0.0,0.0,0.0
700000.0,1.796875,6.7905703973439E-9,700000.0,67.30000000000001,25.085910652920973,26.845637583892618,12.332439678284194,139626.0,2904.0,139626.0,1.0,0.0,0.0,0.0,0.0
800000.0,2.0625,7.79439384738604E-9,800000.0,69.1,29.047072330654405,35.084033613445364,16.71159029649594,159647.0,2904.0,159647.0,1.0,0.0,0.0,0.0,0.0
900000.0,2.328125,8.798217297428182E-9,900000.0,69.5,32.13535547723308,35.92436974789915,21.994884910485922,179718.0,2904.0,179718.0,1.0,0.0,0.0,0.0,0.0
1000000.0,2.578125,9.74299230923255E-9,1000000.0,69.19999999999999,31.66974300724123,35.157894736842096,20.207253886010353,199911.0,2904.0,199911.0,1.0,0.0,0.0,0.0,0.0
1100000.0,2.828125,1.068776732103692E-8,1100000.0,70.0,34.0241735428139,38.1443298969072,24.62311557788944,219843.0,2904.0,219843.0,1.0,0.0,0.0,0.0,0.0
1200000.0,3.078125,1.1632542332841289E-8,1200000.0,69.5,31.463138404012426,32.96703296703295,20.572916666666654,239740.0,2904.0,239740.0,1.0,0.0,0.0,0.0,0.0
1300000.0,3.34375,1.2636365782883432E-8,1300000.0,70.19999999999999,29.276292368959407,34.64912280701753,14.121037463976926,259656.0,2904.0,259656.0,1.0,0.0,0.0,0.0,0.0
1400000.0,3.59375,1.3581140794687801E-8,1400000.0,69.19999999999999,29.118491788791506,33.6206896551724,16.30434782608694,279837.0,2904.0,279837.0,1.0,0.0,0.0,0.0,0.0
1500000.0,3.859375,1.4584964244729944E-8,1500000.0,70.0,33.50828043547643,37.888198757763966,23.469387755102034,299790.0,2904.0,299790.0,1.0,0.0,0.0,0.0,0.0
1600000.0,4.109375,1.552973925653431E-8,1600000.0,71.6,34.67510063254743,38.260869565217384,24.26666666666666,319560.0,2904.0,319560.0,1.0,0.0,0.0,0.0,0.0
1700000.0,4.375,1.6533562706576452E-8,1700000.0,70.3,33.15929243372191,34.14634146341462,21.63588390501318,339484.0,2904.0,339484.0,1.0,0.0,0.0,0.0,0.0
1800000.0,4.609375,1.7419289280143046E-8,1800000.0,70.8,31.718587042432677,35.25498891352549,18.20728291316525,359564.0,2904.0,359564.0,1.0,0.0,0.0,0.0,0.0
1900000.0,4.875,1.8423112730185187E-8,1900000.0,70.89999999999999,34.36425806800854,37.284482758620676,23.622047244094478,379667.0,2904.0,379667.0,1.0,0.0,0.0,0.0,0.0
2000000.0,5.140625,1.9426936180227328E-8,2000000.0,67.4,27.896205924897053,32.22453222453223,18.295739348370944,399603.0,2904.0,399603.0,1.0,0.0,0.0,0.0,0.0
2100000.0,5.40625,2.043075963026947E-8,2100000.0,69.3,29.568417285332792,29.42528735632184,15.426997245179047,419498.0,2904.0,419498.0,1.0,0.0,0.0,0.0,0.0
2200000.0,5.640625,2.1316486203836063E-8,2200000.0,72.7,36.03321586563693,42.283298097251574,23.529411764705873,439444.0,2904.0,439444.0,1.0,0.0,0.0,0.0,0.0
2300000.0,5.90625,2.2320309653878204E-8,2300000.0,69.6,31.419392971390153,34.76394849785407,21.4470284237726,459746.0,2904.0,459746.0,1.0,0.0,0.0,0.0,0.0
2400000.0,6.140625,2.3206036227444798E-8,2400000.0,69.1,30.07784214337435,32.67973856209149,18.469656992084417,479709.0,2904.0,479709.0,1.0,0.0,0.0,0.0,0.0
2500000.0,6.40625,2.420985967748694E-8,2500000.0,68.60000000000001,31.638073674126993,35.78732106339469,23.41463414634148,499835.0,2904.0,499835.0,1.0,0.0,0.0,0.0,0.0
2600000.0,6.65625,2.5154634689291307E-8,2600000.0,70.8,32.44493799740883,34.821428571428555,18.888888888888875,519957.0,2904.0,519957.0,1.0,0.0,0.0,0.0,0.0
2700000.0,6.921875,2.6158458139333448E-8,2700000.0,69.8,30.657604702424678,35.47008547008546,18.378378378378365,539911.0,2904.0,539911.0,1.0,0.0,0.0,0.0,0.0
2800000.0,7.171875,2.7103233151137815E-8,2800000.0,69.89999999999999,31.386941179688698,33.700440528634346,18.428184281842803,559947.0,2904.0,559947.0,1.0,0.0,0.0,0.0,0.0
2900000.0,7.4375,2.8107056601179956E-8,2900000.0,71.39999999999999,35.31519143084605,36.86534216335539,23.118279569892465,579897.0,2904.0,579897.0,1.0,0.0,0.0,0.0,0.0
3000000.0,7.6875,2.9051831612984324E-8,3000000.0,71.1,33.98148740394192,39.916839916839905,22.72727272727272,599997.0,2904.0,599997.0,1.0,0.0,0.0,0.0,0.0
3100000.0,7.9375,2.9996606624788695E-8,3100000.0,67.9,24.848291878933175,32.42105263157896,9.831460674157313,619914.0,2904.0,619914.0,1.0,0.0,0.0,0.0,0.0
3200000.0,8.1875,3.094138163659306E-8,3200000.0,68.7,29.862773042207834,30.289532293986642,21.553884711779467,639980.0,2904.0,639980.0,1.0,0.0,0.0,0.0,0.0
3300000.0,8.4375,3.188615664839743E-8,3300000.0,70.1,32.667969770395516,37.70833333333332,21.727748691099467,659985.0,2904.0,659985.0,1.0,0.0,0.0,0.0,0.0
3400000.0,8.703125,3.2889980098439574E-8,3400000.0,70.6,30.76977417759671,36.08695652173912,14.782608695652154,679732.0,2904.0,679732.0,1.0,0.0,0.0,0.0,0.0
3500000.0,8.953125,3.383475511024394E-8,3500000.0,68.30000000000001,27.00292909382312,28.764044943820227,13.858695652173925,699529.0,2904.0,699529.0,1.0,0.0,0.0,0.0,21.0
3600000.0,9.21875,3.4835829865187395E-8,3600000.0,68.7,29.995795274604358,36.89516129032259,18.27676240208879,719393.0,2904.0,719393.0,1.0,0.0,0.0,0.0,21.0
3700000.0,9.46875,3.577801786984005E-8,3700000.0,68.89999999999999,29.67492176052387,33.54700854700853,19.010416666666654,739655.0,2904.0,739655.0,1.0,0.0,0.0,0.0,0.0
3800000.0,9.71875,3.672020587449271E-8,3800000.0,68.60000000000001,29.217743353455937,35.12396694214877,17.150395778364132,759596.0,2904.0,759596.0,1.0,0.0,0.0,0.0,0.0
3900000.0,9.96875,3.7662393879145375E-8,3900000.0,68.2,29.247801787049237,33.33333333333334,18.877551020408177,779558.0,2904.0,779558.0,1.0,0.0,0.0,0.0,0.0
4000000.0,10.21875,3.860458188379804E-8,4000000.0,70.0,31.62393162393161,37.23849372384936,19.999999999999986,799506.0,2904.0,799506.0,1.0,0.0,0.0,0.0,0.0
4100000.0,10.46875,3.95467698884507E-8,4100000.0,72.3,35.90040264729022,42.76859504132231,21.97183098591548,819382.0,2904.0,819382.0,1.0,0.0,0.0,0.0,0.0
4200000.0,10.71875,4.048895789310336E-8,4200000.0,69.39999999999999,31.20256124321017,34.89361702127658,20.31249999999999,839480.0,2904.0,839480.0,1.0,0.0,0.0,0.0,0.0
4300000.0,10.984375,4.1490032648046816E-8,4300000.0,69.3,33.358803150153236,37.85425101214574,25.665859564164645,859382.0,2904.0,859382.0,1.0,0.0,0.0,0.0,0.0
4400000.0,11.234375,4.243222065269947E-8,4400000.0,68.60000000000001,31.368220426041617,37.574552683896634,22.084367245657585,879284.0,2904.0,879284.0,1.0,0.0,0.0,0.0,0.0
4500000.0,11.5,4.3433295407642925E-8,4500000.0,69.19999999999999,31.186101379852705,37.27087576374744,22.222222222222214,899416.0,2904.0,899416.0,1.0,0.0,0.0,0.0,0.0
4600000.0,11.75,4.437548341229558E-8,4600000.0,69.1,31.360789017726237,36.28865979381442,21.573604060913695,919461.0,2904.0,919461.0,1.0,0.0,0.0,0.0,0.0
4700000.0,12.015625,4.5376558167239033E-8,4700000.0,71.39999999999999,35.34414548019405,39.66244725738396,23.324396782841813,939496.0,2904.0,939496.0,1.0,0.0,0.0,0.0,0.0
4800000.0,12.265625,4.631874617189169E-8,4800000.0,70.0,33.18039067198252,37.1069182389937,24.0506329113924,959513.0,2904.0,959513.0,1.0,0.0,0.0,0.0,0.0
4900000.0,12.515625,4.726093417654435E-8,4900000.0,71.5,33.42241492085443,37.08609271523178,19.034090909090896,979240.0,2904.0,979240.0,1.0,0.0,0.0,0.0,0.0
5000000.0,12.765625,4.8203122181197014E-8,5000000.0,68.2,28.779076278057257,34.16149068322982,18.25192802056557,999443.0,2904.0,999443.0,1.0,0.0,0.0,0.0,0.0
5100000.0,13.03125,4.9154170685344276E-8,5100000.0,63.3,26.34958860124423,26.6,24.016563146997928,17490.0,2904.0,1019499.0,1.0,0.0,0.0,1.0,13.0
5200000.0,13.28125,5.00539317727089E-8,5200000.0,65.4,30.699097886522793,32.289628180039145,27.004219409282705,37335.0,2904.0,1039344.0,1.0,0.0,0.0,0.0,5.0
5300000.0,13.546875,5.1009927928033806E-8,5300000.0,66.2,32.178631051752916,33.59528487229863,28.23779193205945,57227.0,2904.0,1059236.0,1.0,0.0,0.0,0.0,0.0
5400000.0,13.8125,5.1965924083358715E-8,5400000.0,64.2,28.097145175479117,29.803921568627455,24.312896405919663,77188.0,2904.0,1079197.0,1.0,0.0,0.0,0.0,0.0
5500000.0,14.0625,5.2865685170723336E-8,5500000.0,61.9,23.804876487904778,27.15105162523901,23.952095808383234,97259.0,2904.0,1099268.0,1.0,0.0,0.0,0.0,0.0
5600000.0,14.328125,5.3821681326048245E-8,5600000.0,64.4,28.555660358425822,31.931166347992356,25.987525987525988,116929.0,2904.0,1118938.0,1.0,0.0,0.0,0.0,0.0
5700000.0,14.578125,5.4721442413412866E-8,5700000.0,62.5,24.939951961569264,24.242424242424242,23.78048780487805,136927.0,2904.0,1138936.0,1.0,0.0,0.0,0.0,0.0
5800000.0,14.84375,5.5677438568737775E-8,5800000.0,66.3,32.19752450546443,30.515463917525775,28.60169491525424,156988.0,2904.0,1158997.0,1.0,0.0,0.0,0.0,0.0
5900000.0,15.109375,5.6633434724062684E-8,5900000.0,65.8,31.302402005487778,33.59223300970874,22.79909706546275,176992.0,2904.0,1179001.0,1.0,0.0,0.0,0.0,0.0
6000000.0,15.359375,5.7533195811427304E-8,6000000.0,63.4,26.771001316521335,25.910931174089068,25.45824847250509,197152.0,2904.0,1199161.0,1.0,0.0,0.0,0.0,0.0
6100000.0,15.625,5.848919196675221E-8,6100000.0,65.3,29.79971677119158,29.03885480572598,22.888888888888886,217199.0,2904.0,1219208.0,1.0,0.0,0.0,0.0,0.0
6200000.0,15.890625,5.944518812207712E-8,6200000.0,66.60000000000001,33.1933193319332,34.122287968441825,28.936170212765962,237130.0,2904.0,1239139.0,1.0,0.0,0.0,0.0,0.0
6300000.0,16.140625,6.034494920944174E-8,6300000.0,63.2,26.360234526644387,28.95752895752896,24.435318275154003,257283.0,2904.0,1259292.0,1.0,0.0,0.0,0.0,0.0
6400000.0,16.390625,6.124471029680635E-8,6400000.0,67.10000000000001,33.90442056878361,32.85714285714286,30.590717299578063,277440.0,2904.0,1279449.0,1.0,0.0,0.0,0.0,0.0
6500000.0,16.640625,6.214447138417096E-8,6500000.0,65.60000000000001,31.14712098891949,29.65235173824131,26.495726495726498,297251.0,2904.0,1299260.0,1.0,0.0,0.0,0.0,0.0
6600000.0,16.890625,6.304423247153558E-8,6600000.0,65.4,30.64019500930143,32.94573643410853,27.3109243697479,317347.0,2904.0,1319356.0,1.0,0.0,0.0,0.0,0.0
6700000.0,17.15625,6.40002286268605E-8,6700000.0,65.3,30.473183085948776,30.460921843687377,27.85862785862786,337180.0,2904.0,1339189.0,1.0,0.0,0.0,0.0,0.0
6800000.0,17.421875,6.495622478218541E-8,6800000.0,63.3,26.37795591503977,28.180039138943254,22.08067940552017,357245.0,2904.0,1359254.0,1.0,0.0,0.0,0.0,0.0
6900000.0,17.6875,6.591222093751033E-8,6900000.0,63.3,26.6,21.41327623126338,27.037773359840955,377304.0,2904.0,1379313.0,1.0,0.0,0.0,0.0,0.0
7000000.0,17.953125,6.686821709283524E-8,7000000.0,63.1,25.758112284316255,21.98731501057082,21.32196162046908,397532.0,2904.0,1399541.0,1.0,0.0,0.0,0.0,0.0
7100000.0,18.203125,6.776797818019986E-8,7100000.0,64.3,28.39951865222624,28.742514970059887,24.842105263157897,417367.0,2904.0,1419376.0,1.0,0.0,0.0,0.0,0.0
7200000.0,18.46875,6.872397433552477E-8,7200000.0,66.4,32.72330456720663,30.43478260869566,31.288343558282218,437296.0,2904.0,1439305.0,1.0,0.0,0.0,0.0,0.0
7300000.0,18.703125,6.95675003549291E-8,7300000.0,64.9,29.41261643901732,26.41509433962264,22.172949002217294,457175.0,2904.0,1459184.0,1.0,0.0,0.0,0.0,0.0
7400000.0,18.96875,7.052349651025401E-8,7400000.0,66.10000000000001,31.85820073488619,32.73809523809524,27.40899357601713,477062.0,2904.0,1479071.0,1.0,0.0,0.0,0.0,0.0
7500000.0,19.21875,7.142325759761864E-8,7500000.0,63.7,27.377341730619946,30.192307692307697,25.46201232032854,497029.0,2904.0,1499038.0,1.0,0.0,0.0,0.0,0.0
7600000.0,19.484375,7.237925375294356E-8,7600000.0,64.5,28.914697637164593,27.104722792607806,25.263157894736842,517090.0,2904.0,1519099.0,1.0,0.0,0.0,0.0,0.0
7700000.0,19.75,7.333524990826847E-8,7700000.0,64.9,29.725227642211323,26.260504201680675,27.77777777777778,537184.0,2904.0,1539193.0,1.0,0.0,0.0,0.0,0.0
7800000.0,20.0,7.423501099563308E-8,7800000.0,67.2,34.352733968457294,39.483394833948346,33.061224489795926,557247.0,2904.0,1559256.0,1.0,0.0,0.0,0.0,0.0
7900000.0,20.265625,7.5191007150958E-8,7900000.0,67.2,34.11723115612209,36.062378167641334,29.157667386609077,577323.0,2904.0,1579332.0,1.0,0.0,0.0,0.0,0.0
8000000.0,20.53125,7.614700330628292E-8,8000000.0,63.6,27.206988129139614,27.200000000000003,27.77777777777778,597484.0,2904.0,1599493.0,1.0,0.0,0.0,0.0,0.0
8100000.0,20.78125,7.704676439364753E-8,8100000.0,69.19999999999999,38.402710280747634,38.52295409181636,37.14285714285713,617684.0,2904.0,1619693.0,1.0,0.0,0.0,0.0,0.0
8200000.0,21.046875,7.800276054897245E-8,8200000.0,66.4,32.550707414604375,31.845841784989865,26.637554585152838,637707.0,2904.0,1639716.0,1.0,0.0,0.0,0.0,0.0
8300000.0,21.3125,7.895875670429736E-8,8300000.0,64.4,28.669893886448882,27.4949083503055,22.943722943722943,657714.0,2904.0,1659723.0,1.0,0.0,0.0,0.0,0.0
8400000.0,21.5625,7.985851779166198E-8,8400000.0,63.4,26.605357407845602,22.292993630573246,21.459227467811157,677503.0,2904.0,1679512.0,1.0,0.0,0.0,0.0,0.0
8500000.0,21.828125,8.081451394698689E-8,8500000.0,63.3,25.902894430805006,24.016563146997928,18.80530973451327,697566.0,2904.0,1699575.0,1.0,0.0,0.0,0.0,0.0
8600000.0,22.09375,8.177051010231181E-8,8600000.0,64.8,29.427237878326146,26.970954356846477,26.666666666666668,717588.0,2904.0,1719597.0,1.0,0.0,0.0,0.0,0.0
8700000.0,22.359375,8.272650625763672E-8,8700000.0,63.5,26.959097094372858,26.706827309236946,25.963488843813387,737973.0,2904.0,1739982.0,1.0,0.0,0.0,0.0,0.0
8800000.0,22.625,8.368250241296164E-8,8800000.0,65.5,30.985092780040496,30.161943319838063,30.583501006036222,757930.0,2904.0,1759939.0,1.0,0.0,0.0,0.0,0.0
8900000.0,22.859375,8.452602843236596E-8,8900000.0,63.3,25.9961284078077,24.948875255623722,18.26280623608017,777919.0,2904.0,1779928.0,1.0,0.0,0.0,0.0,0.0
9000000.0,23.125,8.548202458769088E-8,9000000.0,65.60000000000001,31.110443576649644,31.474103585657375,29.36344969199179,797864.0,2904.0,1799873.0,1.0,0.0,0.0,0.0,0.0
9100000.0,23.375,8.638178567505551E-8,9100000.0,62.0,23.453457687891532,24.752475247524753,15.367483296213798,817940.0,2904.0,1819949.0,1.0,0.0,0.0,0.0,0.0
9200000.0,23.640625,8.733778183038042E-8,9200000.0,64.3,28.086248156832394,30.136986301369866,22.727272727272723,837838.0,2904.0,1839847.0,1.0,0.0,0.0,0.0,0.0
9300000.0,23.890625,8.823754291774504E-8,9300000.0,65.2,30.281478513472905,26.27118644067797,27.950310559006216,857577.0,2904.0,1859586.0,1.0,0.0,0.0,0.0,0.0
9400000.0,24.15625,8.919353907306995E-8,9400000.0,63.800000000000004,27.547834440797374,30.51823416506718,22.978723404255316,877827.0,2904.0,1879836.0,1.0,0.0,0.0,0.0,0.0
9500000.0,24.40625,9.009330016043457E-8,9500000.0,65.9,31.68906303837432,24.724061810154524,27.60084925690022,897676.0,2904.0,1899685.0,1.0,0.0,0.0,0.0,0.0
9600000.0,24.671875,9.104929631575948E-8,9600000.0,65.9,31.780352741589578,35.04761904761906,30.69105691056911,917770.0,2904.0,1919779.0,1.0,0.0,0.0,0.0,0.0
9700000.0,24.9375,9.20052924710844E-8,9700000.0,67.60000000000001,35.20207353364693,35.07014028056113,32.78008298755187,937782.0,2904.0,1939791.0,1.0,0.0,0.0,0.0,0.0
9800000.0,25.1875,9.290505355844901E-8,9800000.0,65.9,31.70165037654222,31.663326653306616,25.869565217391305,957657.0,2904.0,1959666.0,1.0,0.0,0.0,0.0,0.0
9900000.0,25.453125,9.386104971377393E-8,9900000.0,65.60000000000001,31.061019014332896,32.81250000000001,28.630705394190876,977413.0,2904.0,1979422.0,1.0,0.0,0.0,0.0,0.0
1.0E7,25.703125,9.476081080113854E-8,1.0E7,64.3,28.44257366205653,29.30693069306931,24.842105263157897,997344.0,2904.0,1999353.0,1.0,0.0,0.0,0.0,0.0
