learning evaluation instances,evaluation time (cpu seconds),model cost (RAM-Hours),classified instances,classifications correct (percent),Kappa Statistic (percent),Kappa Temporal Statistic (percent),Kappa M Statistic (percent),model training instances,model serialized size (bytes),labeling cost,newThreshold,maxPosterior,accuracyBaseLearner (percent),Change detected,Warning detected
100000.0,0.140625,6.129848770797253E-9,100000.0,59.5,13.661519045629339,12.903225806451601,-9.756097560975618,5146.0,9208.0,0.0,1.0,0.0,?,6.0,47.0
200000.0,0.3125,1.294603053894308E-8,200000.0,58.4,10.371484343018674,15.102040816326523,-12.129380053908367,25146.0,9208.0,0.0,1.0,0.0,?,0.0,0.0
300000.0,0.484375,1.908635668870476E-8,300000.0,57.49999999999999,11.122078530440167,14.141414141414133,-8.418367346938782,45146.0,9208.0,0.0,1.0,0.0,?,0.0,0.0
400000.0,0.671875,2.5047597268389335E-8,400000.0,54.900000000000006,5.856517818376156,0.87912087912088,-18.372703412073477,65146.0,9208.0,0.0,1.0,0.0,?,0.0,0.0
500000.0,0.8125,2.8965554924474827E-8,500000.0,59.599999999999994,14.850208026843264,13.859275053304893,-8.894878706199469,85146.0,9208.0,0.0,1.0,0.0,?,0.0,0.0
600000.0,0.984375,3.3078314219084054E-8,600000.0,60.3,8.146927896495242,16.94560669456066,-6.149732620320861,105146.0,9208.0,0.0,1.0,0.0,?,0.0,0.0
700000.0,1.15625,3.651521789530913E-8,700000.0,57.9,11.695612047990608,3.8812785388127637,-16.94444444444446,125146.0,9208.0,0.0,1.0,0.0,?,0.0,0.0
800000.0,1.34375,3.952727032204469E-8,800000.0,58.9,12.94659877489811,12.553191489361689,-13.535911602209957,145146.0,9208.0,0.0,1.0,0.0,?,0.0,0.0
900000.0,1.5,4.142289981245995E-8,900000.0,66.5,18.130541462603972,24.887892376681613,5.367231638418084,165146.0,9208.0,0.0,1.0,0.0,?,0.0,0.0
1000000.0,1.671875,4.283223663353258E-8,1000000.0,59.699999999999996,14.001348663713264,17.24845995893223,-5.497382198952884,185146.0,9208.0,0.0,1.0,0.0,?,0.0,0.0
1100000.0,1.828125,4.9649323854181505E-8,1100000.0,59.8,6.074766355140167,15.189873417721511,-5.789473684210531,204946.0,9208.0,0.0,1.0,0.0,?,0.0,0.0
1200000.0,2.0,5.647226417851117E-8,1200000.0,65.0,20.005119672340978,27.685950413223143,9.32642487046633,224946.0,9208.0,0.0,1.0,0.0,?,0.0,0.0
1300000.0,2.171875,6.26193488844567E-8,1300000.0,56.599999999999994,8.47164519054346,6.263498920086374,-15.119363395225477,244946.0,9208.0,0.0,1.0,0.0,?,0.0,0.0
1400000.0,2.328125,6.759319350951249E-8,1400000.0,58.4,5.377557194262591,13.871635610766036,-4.785894206549123,264946.0,9208.0,0.0,1.0,0.0,?,0.0,0.0
1500000.0,2.5,7.23885669786897E-8,1500000.0,56.699999999999996,9.064944010887,9.60334029227556,-13.350785340314147,284946.0,9208.0,0.0,1.0,0.0,?,0.0,0.0
1600000.0,2.671875,7.650808482948277E-8,1600000.0,61.7,11.934587863068643,18.683651804670905,3.526448362720406,304946.0,9208.0,0.0,1.0,0.0,?,0.0,0.0
1700000.0,2.84375,7.995174706189169E-8,1700000.0,64.7,14.063412924083677,27.066115702479344,1.1204481792717098,324946.0,9208.0,0.0,1.0,0.0,?,0.0,0.0
1800000.0,3.0,8.24679348928233E-8,1800000.0,53.800000000000004,4.043865661411946,-1.0940919037199135,-18.15856777493605,344946.0,9208.0,0.0,1.0,0.0,?,0.0,0.0
1900000.0,3.15625,8.436970852522387E-8,1900000.0,66.10000000000001,18.50256272177401,24.666666666666668,5.571030640668529,364946.0,9208.0,0.0,1.0,0.0,?,0.0,0.0
2000000.0,3.328125,8.578580390248034E-8,2000000.0,59.699999999999996,16.355334163553337,17.922606924643578,-0.7500000000000007,384946.0,9208.0,0.0,1.0,0.0,?,0.0,0.0
2100000.0,3.484375,9.260903526511458E-8,2100000.0,59.5,15.378186376932721,11.572052401746712,-1.250000000000001,404746.0,9208.0,0.0,1.0,0.0,?,0.0,0.0
2200000.0,3.65625,9.943873414562808E-8,2200000.0,61.1,18.646478166304167,22.199999999999996,1.767676767676769,424746.0,9208.0,0.0,1.0,0.0,?,0.0,0.0
2300000.0,3.828125,1.0559257740775744E-7,2300000.0,57.99999999999999,8.69763700789113,2.77777777777778,-21.73913043478263,444746.0,9208.0,0.0,1.0,0.0,?,0.0,0.0
2400000.0,4.0,1.1107056505150265E-7,2400000.0,60.3,6.1518968190929915,13.129102844638938,-9.065934065934075,464746.0,9208.0,0.0,1.0,0.0,?,0.0,0.0
2500000.0,4.15625,1.154361396200127E-7,2500000.0,57.599999999999994,11.00214938205266,8.620689655172399,-15.84699453551914,484746.0,9208.0,0.0,1.0,0.0,?,0.0,0.0
2600000.0,4.328125,1.1956241602698962E-7,2600000.0,59.4,13.889643002579067,16.803278688524586,-10.326086956521749,504746.0,9208.0,0.0,1.0,0.0,?,0.0,0.0
2700000.0,4.5,1.2301283681558238E-7,2700000.0,58.8,12.887565757201576,10.23965141612199,-13.812154696132609,524746.0,9208.0,0.0,1.0,0.0,?,0.0,0.0
2800000.0,4.65625,1.255351687884993E-7,2800000.0,55.300000000000004,8.34604596230502,3.4557235421166337,-16.406249999999986,544746.0,9208.0,0.0,1.0,0.0,?,0.0,0.0
2900000.0,4.8125,1.274430865628852E-7,2900000.0,65.0,19.377130747258818,26.160337552742618,7.407407407407414,564746.0,9208.0,0.0,1.0,0.0,?,0.0,0.0
3000000.0,4.984375,1.288659404963255E-7,3000000.0,58.599999999999994,13.497340147681339,10.775862068965504,-9.814323607427063,584746.0,9208.0,0.0,1.0,0.0,?,0.0,0.0
3100000.0,5.140625,1.3569531600094506E-7,3100000.0,57.99999999999999,10.36022384332674,7.079646017699097,-18.98016997167141,604546.0,9208.0,0.0,1.0,0.0,?,0.0,0.0
3200000.0,5.3125,1.425317734376424E-7,3200000.0,60.8,16.920990166158024,13.274336283185828,-5.37634408602151,624546.0,9208.0,0.0,1.0,0.0,?,0.0,0.0
3300000.0,5.484375,1.486923752559556E-7,3300000.0,64.7,16.97633943271086,25.52742616033755,4.851752021563346,644546.0,9208.0,0.0,1.0,0.0,?,0.0,0.0
3400000.0,5.640625,1.53678508164982E-7,3400000.0,56.8,9.102003543338547,9.052631578947354,-19.66759002770085,664546.0,9208.0,0.0,1.0,0.0,?,0.0,0.0
3500000.0,5.8125,1.584873987465269E-7,3500000.0,60.6,16.815863257102308,12.053571428571416,-4.232804232804237,684546.0,9208.0,0.0,1.0,0.0,?,0.0,0.0
3600000.0,5.96875,1.6224470325849123E-7,3600000.0,60.4,16.232315711094568,15.923566878980882,-10.614525139664813,704546.0,9208.0,0.0,1.0,0.0,?,0.0,0.0
3700000.0,6.140625,1.6570188260326783E-7,3700000.0,58.3,13.247898810019132,7.333333333333315,-15.83333333333335,724546.0,9208.0,0.0,1.0,0.0,?,0.0,0.0
3800000.0,6.3125,1.684832063296603E-7,3800000.0,58.9,13.848759505982377,13.107822410147978,-7.3107049608355155,744546.0,9208.0,0.0,1.0,0.0,?,0.0,0.0
3900000.0,6.453125,1.7020586205439435E-7,3900000.0,61.9,19.97143337254244,18.589743589743584,1.0389610389610398,764546.0,9208.0,0.0,1.0,0.0,?,0.0,0.0
4000000.0,6.625,1.7163547454401852E-7,4000000.0,57.3,10.13326374098175,7.173913043478243,-10.621761658031097,784546.0,9208.0,0.0,1.0,0.0,?,0.0,0.0
4100000.0,6.796875,1.7915454615528386E-7,4100000.0,59.9,15.713805279973084,13.390928725701933,-5.5263157894736885,804346.0,9208.0,0.0,1.0,0.0,?,0.0,0.0
4200000.0,6.9375,1.847535410585503E-7,4200000.0,61.3,6.818838485986686,18.181818181818176,-9.014084507042263,824346.0,9208.0,0.0,1.0,0.0,?,0.0,0.0
4300000.0,7.09375,1.9036023230809305E-7,4300000.0,63.2,22.677379771730184,23.809523809523807,7.537688442211062,844346.0,9208.0,0.0,1.0,0.0,?,0.0,0.0
4400000.0,7.25,1.953525093591048E-7,4400000.0,60.5,16.71024442907508,18.55670103092783,-12.215909090909102,864346.0,9208.0,0.0,1.0,0.0,?,0.0,0.0
4500000.0,7.421875,2.0016815849683354E-7,4500000.0,59.099999999999994,13.705797957633559,14.435146443514634,-8.776595744680858,884346.0,9208.0,0.0,1.0,0.0,?,0.0,0.0
4600000.0,7.578125,2.0393160715078317E-7,4600000.0,57.3,9.635749536539304,8.369098712446336,-14.171122994652418,904346.0,9208.0,0.0,1.0,0.0,?,0.0,0.0
4700000.0,7.734375,2.0708064160620176E-7,4700000.0,60.3,15.051140497282484,9.977324263038534,-10.893854748603363,924346.0,9208.0,0.0,1.0,0.0,?,0.0,0.0
4800000.0,7.90625,2.0986872388877805E-7,4800000.0,61.3,9.614917509015148,19.542619542619537,-2.6525198938992065,944346.0,9208.0,0.0,1.0,0.0,?,0.0,0.0
4900000.0,8.0625,2.1178892994713456E-7,4900000.0,59.8,13.794582354051213,13.174946004319644,-11.049723756906088,964346.0,9208.0,0.0,1.0,0.0,?,0.0,0.0
5000000.0,8.234375,2.1332810218963362E-7,5000000.0,65.9,16.966981591506762,27.4468085106383,3.9436619718309895,984346.0,9208.0,0.0,1.0,0.0,?,0.0,0.0
5100000.0,8.40625,2.2095673355377386E-7,5100000.0,46.9,-0.5918056513272297,-7.489878542510128,-16.960352422907505,1004146.0,9208.0,0.0,1.0,0.0,?,0.0,0.0
5200000.0,8.5625,2.272774387771885E-7,5200000.0,48.8,0.21671681816055788,-4.27698574338086,-7.112970711297077,1024146.0,9208.0,0.0,1.0,0.0,?,0.0,0.0
5300000.0,8.71875,2.3298372980207208E-7,5300000.0,47.199999999999996,-0.3374988598011704,-6.882591093117416,-15.789473684210542,1044146.0,9208.0,0.0,1.0,0.0,?,0.0,0.0
5400000.0,8.890625,2.3858479431105986E-7,5400000.0,47.0,-0.15117157974302317,-8.384458077709619,-17.777777777777796,1064146.0,9208.0,0.0,1.0,0.0,?,0.0,0.0
5500000.0,9.046875,2.430622569388814E-7,5500000.0,46.0,-2.2417449257800595,-10.20408163265306,-18.421052631578952,1084146.0,9208.0,0.0,1.0,0.0,?,0.0,0.0
5600000.0,9.21875,2.4731161021110086E-7,5600000.0,46.9,-1.7880967351132735,-11.320754716981142,-14.439655172413806,1104146.0,9208.0,0.0,1.0,0.0,?,0.0,0.0
5700000.0,9.390625,2.508851078649362E-7,5700000.0,46.6,-0.283573400439447,-11.018711018711018,-20.54176072234764,1124146.0,9208.0,0.0,1.0,0.0,?,0.0,0.0
5800000.0,9.5625,2.537827499003874E-7,5800000.0,48.6,3.2015065913370826,-5.54414784394251,-14.222222222222236,1144146.0,9208.0,0.0,1.0,0.0,?,0.0,0.0
5900000.0,9.71875,2.558025557340847E-7,5900000.0,49.8,2.6769650722749523,1.5686274509803935,-5.907172995780597,1164146.0,9208.0,0.0,1.0,0.0,?,0.0,0.0
6000000.0,9.890625,2.573484865327676E-7,6000000.0,46.800000000000004,-1.7188963882143742,-9.240246406570838,-15.401301518438181,1184146.0,9208.0,0.0,1.0,0.0,?,0.0,0.0
6100000.0,10.0625,2.649838764530917E-7,6100000.0,47.3,0.45936022000935617,-5.400000000000005,-17.63392857142859,1203946.0,9208.0,0.0,1.0,0.0,?,0.0,0.0
6200000.0,10.234375,2.7194341075503164E-7,6200000.0,48.8,2.310956436792128,-9.168443496801714,-12.280701754385976,1223946.0,9208.0,0.0,1.0,0.0,?,0.0,0.0
6300000.0,10.390625,2.776558459219005E-7,6300000.0,49.0,0.295984078637136,-5.371900826446286,-6.029106029106035,1243946.0,9208.0,0.0,1.0,0.0,?,0.0,0.0
6400000.0,10.5625,2.8326366898707214E-7,6400000.0,46.7,-4.06497715646843,-5.1282051282051215,-11.27348643006263,1263946.0,9208.0,0.0,1.0,0.0,?,0.0,0.0
6500000.0,10.734375,2.8819563643385964E-7,6500000.0,49.0,1.497622423003961,-1.3916500994035799,-9.207708779443264,1283946.0,9208.0,0.0,1.0,0.0,?,0.0,0.0
6600000.0,10.90625,2.92451748262263E-7,6600000.0,45.6,-2.214522729578707,-8.799999999999997,-23.356009070294796,1303946.0,9208.0,0.0,1.0,0.0,?,0.0,0.0
6700000.0,11.078125,2.9603200447228217E-7,6700000.0,47.699999999999996,-1.4352211016291732,-6.51731160896131,-10.105263157894747,1323946.0,9208.0,0.0,1.0,0.0,?,0.0,0.0
6800000.0,11.234375,2.9867236864649586E-7,6800000.0,47.4,-1.1600713890085617,-4.365079365079369,-12.393162393162404,1343946.0,9208.0,0.0,1.0,0.0,?,0.0,0.0
6900000.0,11.390625,3.006983186221785E-7,6900000.0,49.4,2.8399162810345766,-0.7968127490039847,-8.817204301075279,1363946.0,9208.0,0.0,1.0,0.0,?,0.0,0.0
7000000.0,11.5625,3.0225100797704525E-7,7000000.0,49.6,1.0239309995404673,-3.703703703703707,-4.347826086956526,1383946.0,9208.0,0.0,1.0,0.0,?,0.0,0.0
7100000.0,11.71875,3.0919841568296156E-7,7100000.0,50.5,6.260652198613791,1.1976047904191627,-9.030837004405296,1403746.0,9208.0,0.0,1.0,0.0,?,0.0,0.0
7200000.0,11.890625,3.1616470854108536E-7,7200000.0,50.3,5.716215293323114,1.5841584158415856,-8.51528384279477,1423746.0,9208.0,0.0,1.0,0.0,?,0.0,0.0
7300000.0,12.03125,3.2131142991905415E-7,7300000.0,47.099999999999994,-0.6430501122484018,-12.553191489361716,-15.50218340611355,1443746.0,9208.0,0.0,1.0,0.0,?,0.0,0.0
7400000.0,12.1875,3.264155950293773E-7,7400000.0,46.2,-1.0780405138822649,-10.472279260780287,-21.444695259593686,1463746.0,9208.0,0.0,1.0,0.0,?,0.0,0.0
7500000.0,12.359375,3.3135432103234863E-7,7500000.0,45.2,-2.628257229861076,-9.381237524950096,-22.048997772828518,1483746.0,9208.0,0.0,1.0,0.0,?,0.0,0.0
7600000.0,12.53125,3.3561719141693583E-7,7600000.0,45.800000000000004,-5.009047827552667,-5.65302144249512,-14.587737843551798,1503746.0,9208.0,0.0,1.0,0.0,?,0.0,0.0
7700000.0,12.703125,3.392042061831389E-7,7700000.0,48.1,-0.2046569100668041,-2.7722772277227747,-10.425531914893627,1523746.0,9208.0,0.0,1.0,0.0,?,0.0,0.0
7800000.0,12.859375,3.4185071449933784E-7,7800000.0,49.8,2.235344065373782,-2.448979591836737,-5.241090146750529,1543746.0,9208.0,0.0,1.0,0.0,?,0.0,0.0
7900000.0,13.03125,3.4408601802877256E-7,7900000.0,49.8,2.4344736709126527,-3.933747412008285,-6.131078224101485,1563746.0,9208.0,0.0,1.0,0.0,?,0.0,0.0
8000000.0,13.203125,3.456454659398231E-7,8000000.0,46.6,-1.3455808392325037,-9.87654320987654,-17.36263736263737,1583746.0,9208.0,0.0,1.0,0.0,?,0.0,0.0
8100000.0,13.375,3.532943729725149E-7,8100000.0,46.0,-3.3061803878955915,-10.429447852760735,-16.630669546436287,1603546.0,9208.0,0.0,1.0,0.0,?,0.0,0.0
8200000.0,13.53125,3.596335106218855E-7,8200000.0,48.199999999999996,-0.5696357360027632,0.3846153846153849,-9.513742071881616,1623546.0,9208.0,0.0,1.0,0.0,?,0.0,0.0
8300000.0,13.703125,3.6593070641780897E-7,8300000.0,50.3,0.9447124008450526,1.1928429423459255,-0.2016129032258066,1643546.0,9208.0,0.0,1.0,0.0,?,0.0,0.0
8400000.0,13.875,3.715520465953483E-7,8400000.0,46.400000000000006,-1.8992034371970112,-9.387755102040813,-17.80219780219781,1663546.0,9208.0,0.0,1.0,0.0,?,0.0,0.0
8500000.0,14.046875,3.764975311545035E-7,8500000.0,46.300000000000004,-2.2467631378522537,-7.831325301204815,-15.98272138228942,1683546.0,9208.0,0.0,1.0,0.0,?,0.0,0.0
8600000.0,14.21875,3.807671600952745E-7,8600000.0,47.9,1.3369692837934999,-1.1650485436893214,-14.757709251101335,1703546.0,9208.0,0.0,1.0,0.0,?,0.0,0.0
8700000.0,14.375,3.840342267519898E-7,8700000.0,48.1,1.8183469160745414,-0.5813953488372098,-14.317180616740103,1723546.0,9208.0,0.0,1.0,0.0,?,0.0,0.0
8800000.0,14.53125,3.866868792101741E-7,8800000.0,46.5,-1.7040658814225698,-13.347457627118645,-17.841409691629963,1743546.0,9208.0,0.0,1.0,0.0,?,0.0,0.0
8900000.0,14.6875,3.8872511746982735E-7,8900000.0,46.400000000000006,-1.0371386885530318,-8.064516129032254,-19.376391982182632,1763546.0,9208.0,0.0,1.0,0.0,?,0.0,0.0
9000000.0,14.859375,3.9029132393706177E-7,9000000.0,46.7,0.01125576858139881,-5.753968253968248,-20.588235294117656,1783546.0,9208.0,0.0,1.0,0.0,?,0.0,0.0
9100000.0,15.015625,3.972510199269487E-7,9100000.0,51.5,4.130493223903732,6.189555125725344,0.8179959100204507,1803346.0,9208.0,0.0,1.0,0.0,?,0.0,0.0
9200000.0,15.1875,4.0423082989744015E-7,9200000.0,46.9,-1.8005858805846666,-7.707910750507106,-14.686825053995694,1823346.0,9208.0,0.0,1.0,0.0,?,0.0,0.0
9300000.0,15.359375,4.1053478424954745E-7,9300000.0,49.8,3.701174385279694,0.19880715705765428,-8.893709327548816,1843346.0,9208.0,0.0,1.0,0.0,?,0.0,0.0
9400000.0,15.53125,4.161628829832706E-7,9400000.0,47.9,0.8155588215136869,-6.76229508196722,-14.004376367614894,1863346.0,9208.0,0.0,1.0,0.0,?,0.0,0.0
9500000.0,15.703125,4.211151260986096E-7,9500000.0,46.9,2.444222346335868,-5.357142857142862,-23.776223776223766,1883346.0,9208.0,0.0,1.0,0.0,?,0.0,0.0
9600000.0,15.859375,4.2500275109584134E-7,9600000.0,48.1,-1.0301572099324945,-0.7766990291262142,-8.805031446540887,1903346.0,9208.0,0.0,1.0,0.0,?,0.0,0.0
9700000.0,16.03125,4.2860328297441205E-7,9700000.0,49.4,1.9197370053343303,-3.688524590163938,-7.430997876857756,1923346.0,9208.0,0.0,1.0,0.0,?,0.0,0.0
9800000.0,16.1875,4.3126207957458166E-7,9800000.0,50.9,4.28327472064752,1.4056224899598406,-2.9350104821802963,1943346.0,9208.0,0.0,1.0,0.0,?,0.0,0.0
9900000.0,16.34375,4.333064619762202E-7,9900000.0,50.6,5.064264190394193,1.200000000000001,-5.555555555555561,1963346.0,9208.0,0.0,1.0,0.0,?,0.0,0.0
1.0E7,16.515625,4.348794269996385E-7,1.0E7,47.5,1.2073403886973526,-3.3464566929133888,-16.926503340757254,1983346.0,9208.0,0.0,1.0,0.0,?,0.0,0.0
