learning evaluation instances,evaluation time (cpu seconds),model cost (RAM-Hours),classified instances,classifications correct (percent),Kappa Statistic (percent),Kappa Temporal Statistic (percent),Kappa M Statistic (percent),model training instances,model serialized size (bytes),labeling cost,newThreshold,maxPosterior,accuracyBaseLearner (percent),Change detected,Warning detected
100000.0,0.125,7.74808641937044E-10,100000.0,55.7,5.91283663240166,4.319654427645792,2.63736263736264,29700.0,5144.0,0.0,1.0,0.0,?,0.0,5.0
200000.0,0.234375,1.4957751975291305E-9,200000.0,58.599999999999994,10.091862662062677,9.606986899563303,4.387990762124715,59400.0,5144.0,0.0,1.0,0.0,?,0.0,0.0
300000.0,0.34375,2.2597507470183903E-9,300000.0,70.0,34.11111501563763,36.97478991596637,29.245283018867923,89100.0,5144.0,0.0,1.0,0.0,?,0.0,0.0
400000.0,0.453125,3.066735290404823E-9,400000.0,62.3,17.06265399507217,24.448897795591183,12.121212121212132,118800.0,5144.0,0.0,1.0,0.0,?,0.0,0.0
500000.0,0.5625,3.916728827688429E-9,500000.0,72.1,37.125910434845316,40.764331210191074,30.94059405940594,148500.0,5144.0,0.0,1.0,0.0,?,0.0,0.0
600000.0,0.671875,4.8097313588692085E-9,600000.0,64.1,21.356781717970964,31.488549618320615,15.92505854800938,178200.0,5144.0,0.0,1.0,0.0,?,0.0,0.0
700000.0,0.78125,5.74574288394716E-9,700000.0,59.8,11.936348819684193,15.723270440251563,5.6338028169014125,207900.0,5144.0,0.0,1.0,0.0,?,0.0,0.0
800000.0,0.875,6.5849033287829824E-9,800000.0,67.0,28.292358572974486,31.818181818181824,23.787528868360294,237600.0,5144.0,0.0,1.0,0.0,?,0.0,0.0
900000.0,0.984375,7.60693284165528E-9,900000.0,68.60000000000001,32.2925651198896,38.55185909980432,28.636363636363637,267300.0,5144.0,0.0,1.0,0.0,?,0.0,0.0
1000000.0,1.109375,8.824119706534677E-9,1000000.0,68.2,30.516710949517574,34.96932515337424,25.70093457943927,297000.0,5144.0,0.0,1.0,0.0,?,0.0,0.0
1100000.0,1.203125,9.401539702796273E-9,1100000.0,68.5,31.651304483674448,34.782608695652186,27.25173210161665,326730.0,5144.0,0.0,1.0,0.0,?,0.0,0.0
1200000.0,1.3125,1.0118205358998643E-8,1200000.0,71.3,35.6588799713043,43.39250493096646,30.508474576271183,356430.0,5144.0,0.0,1.0,0.0,?,0.0,0.0
1300000.0,1.421875,1.0877880009098186E-8,1300000.0,66.5,25.462798148807426,31.492842535787325,20.42755344418054,386130.0,5144.0,0.0,1.0,0.0,?,0.0,0.0
1400000.0,1.53125,1.16805636530949E-8,1400000.0,67.60000000000001,27.812633680308014,34.01221995926681,22.48803827751198,415830.0,5144.0,0.0,1.0,0.0,?,0.0,0.0
1500000.0,1.640625,1.252625629098879E-8,1500000.0,59.199999999999996,10.123052115412563,16.564417177914102,3.5460992907801447,445530.0,5144.0,0.0,1.0,0.0,?,0.0,0.0
1600000.0,1.75,1.3414957922779852E-8,1600000.0,68.2,29.8127899636704,32.76955602536999,24.465558194774367,475230.0,5144.0,0.0,1.0,0.0,?,0.0,0.0
1700000.0,1.875,1.4479770066423549E-8,1700000.0,60.9,14.402304789092524,18.879668049792524,7.345971563981049,504930.0,5144.0,0.0,1.0,0.0,?,0.0,0.0
1800000.0,2.0,1.5593735345949728E-8,1800000.0,59.199999999999996,12.177985948477744,16.904276985743376,8.520179372197292,534630.0,5144.0,0.0,1.0,0.0,?,0.0,0.0
1900000.0,2.140625,1.6902243563284476E-8,1900000.0,69.39999999999999,32.59169512060798,36.382536382536365,27.999999999999996,564330.0,5144.0,0.0,1.0,0.0,?,0.0,0.0
2000000.0,2.265625,1.8114515114575624E-8,2000000.0,68.30000000000001,30.895868575713724,36.472945891783574,26.78983833718247,594030.0,5144.0,0.0,1.0,0.0,?,0.0,0.0
2100000.0,2.375,1.8783870877491103E-8,2100000.0,65.8,23.43889214733761,31.46292585170341,18.377088305489274,623760.0,5144.0,0.0,1.0,0.0,?,0.0,0.0
2200000.0,2.46875,1.9394469240473377E-8,2200000.0,59.8,10.70436926630977,12.987012987012974,3.1325301204819302,653460.0,5144.0,0.0,1.0,0.0,?,0.0,0.0
2300000.0,2.578125,2.0149842991183202E-8,2300000.0,67.10000000000001,28.16217443708842,30.29661016949153,23.84259259259261,683160.0,5144.0,0.0,1.0,0.0,?,0.0,0.0
2400000.0,2.703125,2.10622804135912E-8,2400000.0,68.30000000000001,29.654976522071046,34.9075975359343,24.16267942583734,712860.0,5144.0,0.0,1.0,0.0,?,0.0,0.0
2500000.0,2.8125,2.190367215209537E-8,2500000.0,66.60000000000001,26.4900079232327,30.41666666666667,22.325581395348852,742560.0,5144.0,0.0,1.0,0.0,?,0.0,0.0
2600000.0,2.921875,2.2788072884496713E-8,2600000.0,70.39999999999999,35.53333101021012,39.094650205761305,30.516431924882625,772260.0,5144.0,0.0,1.0,0.0,?,0.0,0.0
2700000.0,3.015625,2.35829955070383E-8,2700000.0,60.3,13.003462330718312,20.599999999999994,6.807511737089207,801960.0,5144.0,0.0,1.0,0.0,?,0.0,0.0
2800000.0,3.125,2.4553414227233993E-8,2800000.0,68.89999999999999,30.418829425451932,36.530612244897945,25.060240963855414,831660.0,5144.0,0.0,1.0,0.0,?,0.0,0.0
2900000.0,3.234375,2.5566841941326857E-8,2900000.0,67.30000000000001,27.868071364286113,34.33734939759037,22.877358490566056,861360.0,5144.0,0.0,1.0,0.0,?,0.0,0.0
3000000.0,3.34375,2.6623278649316894E-8,3000000.0,68.89999999999999,29.751170060897365,35.4771784232365,23.58722358722358,891060.0,5144.0,0.0,1.0,0.0,?,0.0,0.0
3100000.0,3.453125,2.7288333512842655E-8,3100000.0,67.7,28.802560462717253,33.67556468172486,23.459715639810444,920790.0,5144.0,0.0,1.0,0.0,?,0.0,0.0
3200000.0,3.5625,2.799639737026559E-8,3200000.0,60.0,11.556082288221035,15.611814345991554,5.213270142180098,950490.0,5144.0,0.0,1.0,0.0,?,0.0,0.0
3300000.0,3.671875,2.8747470221585695E-8,3300000.0,70.19999999999999,32.6985618269856,38.42975206611569,26.237623762376234,980190.0,5144.0,0.0,1.0,0.0,?,0.0,0.0
3400000.0,3.78125,2.9541552066802977E-8,3400000.0,68.4,31.868359321098396,34.02922755741128,28.506787330316747,1009890.0,5144.0,0.0,1.0,0.0,?,0.0,0.0
3500000.0,3.890625,3.037864290591743E-8,3500000.0,68.60000000000001,30.927376956141106,37.94466403162057,26.463700234192057,1039590.0,5144.0,0.0,1.0,0.0,?,0.0,0.0
3600000.0,4.0,3.1258742738929056E-8,3600000.0,69.1,30.78081037974229,37.322515212981735,25.181598062953984,1069290.0,5144.0,0.0,1.0,0.0,?,0.0,0.0
3700000.0,4.109375,3.218185156583786E-8,3700000.0,61.8,15.934578616573658,16.775599128540296,8.612440191387567,1098990.0,5144.0,0.0,1.0,0.0,?,0.0,0.0
3800000.0,4.21875,3.314796938664383E-8,3800000.0,69.39999999999999,30.39126478616923,41.04046242774565,23.499999999999993,1128690.0,5144.0,0.0,1.0,0.0,?,0.0,0.0
3900000.0,4.328125,3.415709620134698E-8,3900000.0,66.0,24.394376720583868,29.752066115702487,18.46522781774582,1158390.0,5144.0,0.0,1.0,0.0,?,0.0,0.0
4000000.0,4.4375,3.52092320099473E-8,4000000.0,67.30000000000001,25.522029080572878,36.132812500000014,17.42424242424244,1188090.0,5144.0,0.0,1.0,0.0,?,0.0,0.0
4100000.0,4.546875,3.5869985974083345E-8,4100000.0,66.8,26.722787006096137,35.90733590733592,21.140142517814745,1217820.0,5144.0,0.0,1.0,0.0,?,0.0,0.0
4200000.0,4.65625,3.657374893211656E-8,4200000.0,61.4,11.869329156639704,18.22033898305084,3.258145363408524,1247520.0,5144.0,0.0,1.0,0.0,?,0.0,0.0
4300000.0,4.765625,3.732052088404695E-8,4300000.0,72.0,38.4184990828755,44.66403162055336,32.853717026378895,1277220.0,5144.0,0.0,1.0,0.0,?,0.0,0.0
4400000.0,4.875,3.8110301829874517E-8,4400000.0,71.0,36.86731250680309,38.42887473460721,31.76470588235294,1306920.0,5144.0,0.0,1.0,0.0,?,0.0,0.0
4500000.0,5.015625,3.918103175237775E-8,4500000.0,61.3,14.573308021720887,20.696721311475404,7.637231503579958,1336620.0,5144.0,0.0,1.0,0.0,?,0.0,0.0
4600000.0,5.109375,3.99317165526251E-8,4600000.0,68.8,31.76599234554401,36.45621181262728,26.58823529411764,1366320.0,5144.0,0.0,1.0,0.0,?,0.0,0.0
4700000.0,5.21875,4.085052448014418E-8,4700000.0,70.3,33.72725081892588,41.30434782608695,28.087167070217912,1396020.0,5144.0,0.0,1.0,0.0,?,0.0,0.0
4800000.0,5.328125,4.181234140156044E-8,4800000.0,62.4,17.341927427970965,21.008403361344534,11.943793911007035,1425720.0,5144.0,0.0,1.0,0.0,?,0.0,0.0
4900000.0,5.4375,4.2817167316873863E-8,4900000.0,60.6,14.451971512940759,19.591836734693874,8.796296296296303,1455420.0,5144.0,0.0,1.0,0.0,?,0.0,0.0
5000000.0,5.546875,4.392725208567248E-8,5000000.0,68.2,29.58993888938094,36.27254509018037,24.644549763033194,1485120.0,5144.0,0.0,1.0,0.0,?,0.0,0.0
5100000.0,5.65625,4.464595501000682E-8,5100000.0,50.4,0.33436213991769526,-0.20202020202020218,0.0,1514850.0,5144.0,0.0,1.0,0.0,?,0.0,0.0
5200000.0,5.765625,4.540766692823833E-8,5200000.0,49.1,-2.1628825588490335,-4.948453608247427,-4.303278688524594,1544550.0,5144.0,0.0,1.0,0.0,?,0.0,0.0
5300000.0,5.875,4.621238784036702E-8,5300000.0,54.50000000000001,3.5362957937584865,10.256410256410266,-0.6637168141592927,1574250.0,5144.0,0.0,1.0,0.0,?,0.0,0.0
5400000.0,5.984375,4.706011774639288E-8,5400000.0,48.1,-3.318946982847865,1.5180265654648968,-4.6370967741935525,1603950.0,5144.0,0.0,1.0,0.0,?,0.0,0.0
5500000.0,6.09375,4.7950856646315915E-8,5500000.0,51.800000000000004,1.0575754589943274,2.822580645161293,-0.8368200836820092,1633650.0,5144.0,0.0,1.0,0.0,?,0.0,0.0
5600000.0,6.21875,4.901799709639615E-8,5600000.0,53.0,0.8003512089693404,3.8854805725971406,-0.4273504273504277,1663350.0,5144.0,0.0,1.0,0.0,?,0.0,0.0
5700000.0,6.34375,5.0134290682358874E-8,5700000.0,50.8,-0.04717671747653568,4.093567251461992,-1.234567901234569,1693050.0,5144.0,0.0,1.0,0.0,?,0.0,0.0
5800000.0,6.453125,5.115405656397342E-8,5800000.0,54.2,4.426034515139491,10.371819960861066,-2.9213483146067443,1722750.0,5144.0,0.0,1.0,0.0,?,0.0,0.0
5900000.0,6.5625,5.221683143948515E-8,5900000.0,51.2,-0.5141049301344693,2.008032128514058,-2.521008403361347,1752450.0,5144.0,0.0,1.0,0.0,?,0.0,0.0
6000000.0,6.671875,5.332261530889405E-8,6000000.0,51.9,2.5392477083552816,-0.6276150627615069,5.686274509803926,1782150.0,5144.0,0.0,1.0,0.0,?,0.0,0.0
6100000.0,6.78125,5.403701733383867E-8,6100000.0,50.3,0.832448740153072,1.38888888888889,3.1189083820662793,1811880.0,5144.0,0.0,1.0,0.0,?,0.0,0.0
6200000.0,6.890625,5.479442835268047E-8,6200000.0,48.5,-4.162452975203277,-2.385685884691851,-4.887983706720982,1841580.0,5144.0,0.0,1.0,0.0,?,0.0,0.0
6300000.0,7.0,5.559484836541944E-8,6300000.0,47.5,-3.0219780219780157,-6.924643584521391,-12.660944206008596,1871280.0,5144.0,0.0,1.0,0.0,?,0.0,0.0
6400000.0,7.109375,5.643827737205558E-8,6400000.0,49.9,-1.3382310107123343,1.9569471624266161,0.7920792079207928,1900980.0,5144.0,0.0,1.0,0.0,?,0.0,0.0
6500000.0,7.203125,5.7198081372512705E-8,6500000.0,52.5,1.272031925507153,3.651115618661261,-1.495726495726497,1930680.0,5144.0,0.0,1.0,0.0,?,0.0,0.0
6600000.0,7.328125,5.8260306509004695E-8,6600000.0,49.5,-2.4606794461848165,1.1741682974559697,-4.989604989604994,1960380.0,5144.0,0.0,1.0,0.0,?,0.0,0.0
6700000.0,7.4375,5.923276249733236E-8,6700000.0,50.6,1.7755950132225147,0.8032128514056233,1.200000000000001,1990080.0,5144.0,0.0,1.0,0.0,?,0.0,0.0
6800000.0,7.546875,6.024822747955719E-8,6800000.0,50.9,0.21866540940829585,0.8080808080808087,-1.0288065843621408,2019780.0,5144.0,0.0,1.0,0.0,?,0.0,0.0
6900000.0,7.65625,6.13067014556792E-8,6900000.0,49.2,-1.4753882232618352,-1.195219123505977,-6.498951781970656,2049480.0,5144.0,0.0,1.0,0.0,?,0.0,0.0
7000000.0,7.765625,6.240818442569838E-8,7000000.0,52.400000000000006,-0.39483008807747794,4.609218436873752,-3.9301310043668156,2079180.0,5144.0,0.0,1.0,0.0,?,0.0,0.0
7100000.0,7.875,6.311828555125329E-8,7100000.0,49.9,0.7173714874559097,3.281853281853285,-2.6639344262295106,2108910.0,5144.0,0.0,1.0,0.0,?,0.0,0.0
7200000.0,7.984375,6.387139567070536E-8,7200000.0,53.900000000000006,5.4490860761986095,7.429718875502014,3.75782881002088,2138610.0,5144.0,0.0,1.0,0.0,?,0.0,0.0
7300000.0,8.109375,6.478124608596165E-8,7300000.0,52.1,-0.6353261508983703,5.335968379446645,-3.904555314533626,2168310.0,5144.0,0.0,1.0,0.0,?,0.0,0.0
7400000.0,8.234375,6.574024963710042E-8,7400000.0,53.800000000000004,4.25703876553752,11.663479923518175,1.9108280254777086,2198010.0,5144.0,0.0,1.0,0.0,?,0.0,0.0
7500000.0,8.34375,6.662238673824402E-8,7500000.0,48.4,-3.6040558176889914,4.4444444444444375,-5.954825462012326,2227710.0,5144.0,0.0,1.0,0.0,?,0.0,0.0
7600000.0,8.4375,6.741536910542181E-8,7600000.0,51.800000000000004,3.172409359732584,2.4291497975708523,3.0181086519114717,2257410.0,5144.0,0.0,1.0,0.0,?,0.0,0.0
7700000.0,8.546875,6.838352419435976E-8,7700000.0,48.699999999999996,-4.795679067829168,-2.805611222444892,-6.43153526970955,2287110.0,5144.0,0.0,1.0,0.0,?,0.0,0.0
7800000.0,8.65625,6.939468827719488E-8,7800000.0,54.300000000000004,2.646647806673709,7.302231237322522,-1.330376940133039,2316810.0,5144.0,0.0,1.0,0.0,?,0.0,0.0
7900000.0,8.78125,7.059945750774606E-8,7900000.0,49.2,-3.2482551451369774,0.9746588693957123,-4.312114989733064,2346510.0,5144.0,0.0,1.0,0.0,?,0.0,0.0
8000000.0,8.890625,7.169663957837553E-8,8000000.0,51.300000000000004,-1.5277106022448677,-1.03734439834025,-4.282655246252681,2376210.0,5144.0,0.0,1.0,0.0,?,0.0,0.0
8100000.0,9.0,7.240243980454073E-8,8100000.0,51.2,0.25997808989681404,4.873294346978561,-1.2448132780082999,2405940.0,5144.0,0.0,1.0,0.0,?,0.0,0.0
8200000.0,9.109375,7.315124902460309E-8,8200000.0,49.8,0.5672814857070375,-0.40000000000000036,0.39682539682539714,2435640.0,5144.0,0.0,1.0,0.0,?,0.0,0.0
8300000.0,9.21875,7.394306723856261E-8,8300000.0,48.6,0.05910900945743587,-5.54414784394251,-6.418219461697729,2465340.0,5144.0,0.0,1.0,0.0,?,0.0,0.0
8400000.0,9.34375,7.489715547611314E-8,8400000.0,51.800000000000004,2.2625608831246784,1.2295081967213126,1.4314928425357885,2495040.0,5144.0,0.0,1.0,0.0,?,0.0,0.0
8500000.0,9.46875,7.590039684954614E-8,8500000.0,53.6,2.212443466568881,4.132231404958682,-1.0893246187363845,2524740.0,5144.0,0.0,1.0,0.0,?,0.0,0.0
8600000.0,9.578125,7.682124204519719E-8,8600000.0,51.2,0.8061532707544882,0.6109979633401228,-1.2448132780082999,2554440.0,5144.0,0.0,1.0,0.0,?,0.0,0.0
8700000.0,9.6875,7.778509623474542E-8,8700000.0,52.800000000000004,1.1394101876675604,5.78842315369262,-2.6086956521739157,2584140.0,5144.0,0.0,1.0,0.0,?,0.0,0.0
8800000.0,9.796875,7.88073521107435E-8,8800000.0,52.300000000000004,3.7864179501867814,3.63636363636364,3.245436105476676,2613840.0,5144.0,0.0,1.0,0.0,?,0.0,5.0
8900000.0,9.921875,8.002479767633807E-8,8900000.0,52.5,2.0416580738296597,8.123791102514513,0.0,2643540.0,5144.0,0.0,1.0,0.0,?,0.0,0.0
9000000.0,10.03125,8.113307154013049E-8,9000000.0,55.60000000000001,5.925825479693538,17.47211895910781,1.7699115044247804,2673240.0,5144.0,0.0,1.0,0.0,?,0.0,0.0
9100000.0,10.15625,8.195237670507694E-8,9100000.0,53.300000000000004,2.0463297787547483,8.610567514677111,-1.3015184381778755,2702970.0,5144.0,0.0,1.0,0.0,?,0.0,0.0
9200000.0,10.265625,8.271227771830226E-8,9200000.0,51.5,3.0000000000000027,4.339250493096651,3.0000000000000027,2732670.0,5144.0,0.0,1.0,0.0,?,0.0,0.0
9300000.0,10.390625,8.362988915501368E-8,9300000.0,51.300000000000004,1.1921862699745966,2.6000000000000023,0.0,2762370.0,5144.0,0.0,1.0,0.0,?,0.0,0.0
9400000.0,10.5,8.447580815603334E-8,9400000.0,50.0,0.7530855865691065,2.9126213592233037,5.303030303030307,2792070.0,5144.0,0.0,1.0,0.0,?,0.0,0.0
9500000.0,10.625,8.549172586450973E-8,9500000.0,51.7,1.5571498451002732,5.294117647058829,3.206412825651305,2821770.0,5144.0,0.0,1.0,0.0,?,0.0,0.0
9600000.0,10.734375,8.642366285332374E-8,9600000.0,49.3,-2.0983527326916076,-1.1976047904191627,-2.4242424242424265,2851470.0,5144.0,0.0,1.0,0.0,?,0.0,0.0
9700000.0,10.859375,8.753788683356509E-8,9700000.0,50.4,-1.6226848057695538,8.148148148148145,-3.765690376569041,2881170.0,5144.0,0.0,1.0,0.0,?,0.0,0.0
9800000.0,10.96875,8.855584181017344E-8,9800000.0,50.2,-0.4579105561495157,1.7751479289940844,-1.0141987829614614,2910870.0,5144.0,0.0,1.0,0.0,?,0.0,0.0
9900000.0,11.109375,8.991993834368055E-8,9900000.0,52.7,0.12584565748022383,6.150793650793656,-3.0501089324618764,2940570.0,5144.0,0.0,1.0,0.0,?,0.0,0.0
1.0E7,11.21875,9.102391130808325E-8,1.0E7,51.300000000000004,-2.0835953548819983,4.3222003929273125,-2.0964360587002115,2970270.0,5144.0,0.0,1.0,0.0,?,0.0,0.0
