learning evaluation instances,evaluation time (cpu seconds),model cost (RAM-Hours),classified instances,classifications correct (percent),Kappa Statistic (percent),Kappa Temporal Statistic (percent),Kappa M Statistic (percent),model training instances,model serialized size (bytes),labeling cost,newThreshold,maxPosterior,accuracyBaseLearner (percent),Change detected,Warning detected
100000.0,0.125,8.174942599402534E-10,100000.0,65.10000000000001,27.60237314857073,26.98744769874477,19.025522041763356,29660.0,5264.0,0.0,1.0,0.0,?,1.0,8.0
200000.0,0.234375,1.5735471000274021E-9,200000.0,68.10000000000001,34.81068532566049,38.05825242718448,29.424778761061955,59360.0,5264.0,0.0,1.0,0.0,?,0.0,0.0
300000.0,0.359375,2.4841736174292034E-9,300000.0,66.10000000000001,30.838909743757135,29.521829521829524,26.143790849673206,89060.0,5264.0,0.0,1.0,0.0,?,0.0,0.0
400000.0,0.46875,3.3017972277270423E-9,400000.0,55.60000000000001,10.599226804123717,12.252964426877481,3.478260869565221,23089.0,5168.0,0.0,1.0,0.0,?,1.0,45.0
500000.0,0.578125,4.158581658783886E-9,500000.0,64.9,28.80959914328134,27.027027027027028,24.19006479481641,52789.0,5264.0,0.0,1.0,0.0,?,0.0,56.0
600000.0,0.71875,5.312548536393378E-9,600000.0,66.3,31.13229139419305,33.66141732283465,25.442477876106196,82489.0,5264.0,0.0,1.0,0.0,?,0.0,0.0
700000.0,0.828125,6.250823692729076E-9,700000.0,68.2,34.738440700227805,34.96932515337424,26.558891454965377,112189.0,5264.0,0.0,1.0,0.0,?,0.0,0.0
800000.0,0.953125,7.3697042858435045E-9,800000.0,65.7,29.620236541665644,31.124497991967875,22.398190045248867,141889.0,5264.0,0.0,1.0,0.0,?,0.0,0.0
900000.0,1.0625,8.389470167458057E-9,900000.0,66.10000000000001,31.97415419191717,28.78151260504202,32.06412825651303,171589.0,5264.0,0.0,1.0,0.0,?,0.0,0.0
1000000.0,1.171875,9.449981411712036E-9,1000000.0,67.80000000000001,34.64450262842762,37.35408560311285,29.540481400437642,201289.0,5264.0,0.0,1.0,0.0,?,0.0,0.0
1100000.0,1.296875,1.023824249083797E-8,1100000.0,65.9,30.97277776878108,34.042553191489375,27.7542372881356,231019.0,5264.0,0.0,1.0,0.0,?,0.0,0.0
1200000.0,1.40625,1.096871629771259E-8,1200000.0,67.0,32.978321533456004,33.198380566801625,28.725701943844495,260719.0,5264.0,0.0,1.0,0.0,?,0.0,0.0
1300000.0,1.53125,1.1850109634300072E-8,1300000.0,64.4,28.238827632082895,30.873786407766996,26.293995859213254,290419.0,5264.0,0.0,1.0,0.0,?,0.0,0.0
1400000.0,1.640625,1.2662074166453546E-8,1400000.0,66.2,32.28732611064812,35.98484848484849,32.12851405622491,320119.0,5264.0,0.0,1.0,0.0,?,0.0,0.0
1500000.0,1.765625,1.3636599760502576E-8,1500000.0,63.5,26.38457504739624,22.669491525423727,23.640167364016733,349819.0,5264.0,0.0,1.0,0.0,?,0.0,0.0
1600000.0,1.859375,1.4402418552587428E-8,1600000.0,67.0,33.66567500201014,36.04651162790699,31.535269709543574,379519.0,5264.0,0.0,1.0,0.0,?,0.0,0.0
1700000.0,2.0,1.560353363553683E-8,1700000.0,65.2,28.894846102293343,26.42706131078224,23.348017621145374,409219.0,5264.0,0.0,1.0,0.0,?,0.0,0.0
1800000.0,2.125,1.6717757615778182E-8,1800000.0,69.1,36.93929029150782,39.648437499999986,32.53275109170304,438919.0,5264.0,0.0,1.0,0.0,?,0.0,0.0
1900000.0,2.25,1.7878547724750307E-8,1900000.0,68.2,35.219175124163264,36.40000000000001,29.490022172949004,468619.0,5264.0,0.0,1.0,0.0,?,0.0,0.0
2000000.0,2.375,1.9085903962453205E-8,2000000.0,65.2,29.07945953657095,29.41176470588236,22.83813747228381,498319.0,5264.0,0.0,1.0,0.0,?,0.0,0.0
2100000.0,2.484375,1.9771557870424455E-8,2100000.0,66.10000000000001,31.384852042262075,32.60437375745527,28.329809725158565,528049.0,5264.0,0.0,1.0,0.0,?,0.0,0.0
2200000.0,2.625,2.070549978978104E-8,2200000.0,64.3,28.322464582864864,29.585798816568055,26.69404517453799,557749.0,5264.0,0.0,1.0,0.0,?,0.0,0.0
2300000.0,2.734375,2.1472644423031146E-8,2300000.0,66.5,32.52388855766288,33.66336633663367,30.06263048016702,587449.0,5264.0,0.0,1.0,0.0,?,0.0,0.0
2400000.0,2.859375,2.2395947275476324E-8,2400000.0,66.8,32.875864829783715,35.53398058252428,29.21108742004265,617149.0,5264.0,0.0,1.0,0.0,?,0.0,0.0
2500000.0,2.96875,2.3244582634005282E-8,2500000.0,66.60000000000001,32.224025974025984,34.63796477495109,28.01724137931035,646849.0,5264.0,0.0,1.0,0.0,?,0.0,0.0
2600000.0,3.078125,2.4133963355173668E-8,2600000.0,65.3,30.042579271636406,33.39731285988484,27.100840336134457,676549.0,5264.0,0.0,1.0,0.0,?,0.0,0.0
2700000.0,3.203125,2.519696459381117E-8,2700000.0,66.8,32.68587417124551,36.76190476190477,28.60215053763441,706249.0,5264.0,0.0,1.0,0.0,?,0.0,0.0
2800000.0,3.328125,2.6306531961179443E-8,2800000.0,64.9,29.04790782292299,29.376257545271635,26.105263157894736,735949.0,5264.0,0.0,1.0,0.0,?,0.0,0.0
2900000.0,3.453125,2.746266545727849E-8,2900000.0,66.2,31.964573268921104,31.578947368421055,30.165289256198353,765649.0,5264.0,0.0,1.0,0.0,?,0.0,0.0
3000000.0,3.578125,2.8665365082108313E-8,3000000.0,66.7,31.65473532116118,30.625000000000007,24.830699774266364,795349.0,5264.0,0.0,1.0,0.0,?,0.0,0.0
3100000.0,3.703125,2.944431293548809E-8,3100000.0,66.9,33.195553366863386,35.976789168278536,30.16877637130802,825079.0,5264.0,0.0,1.0,0.0,?,0.0,0.0
3200000.0,3.828125,3.026982691759864E-8,3200000.0,67.30000000000001,33.62885744209271,30.720338983050855,30.2771855010661,854779.0,5264.0,0.0,1.0,0.0,?,0.0,0.0
3300000.0,3.953125,3.1141907028439974E-8,3300000.0,67.4,34.005959707197,37.54789272030653,30.341880341880344,884479.0,5264.0,0.0,1.0,0.0,?,0.0,0.0
3400000.0,4.0625,3.1945722488065563E-8,3400000.0,66.8,32.84219128647662,34.90196078431374,29.21108742004265,914179.0,5264.0,0.0,1.0,0.0,?,0.0,0.0
3500000.0,4.1875,3.2910934856368436E-8,3500000.0,68.30000000000001,35.87046238003529,35.95959595959597,31.681034482758623,943879.0,5264.0,0.0,1.0,0.0,?,0.0,0.0
3600000.0,4.3125,3.392271335340209E-8,3600000.0,65.0,29.45141419679428,28.86178861788618,27.385892116182575,973579.0,5264.0,0.0,1.0,0.0,?,0.0,0.0
3700000.0,4.4375,3.498105797916651E-8,3700000.0,65.4,29.466924880236476,28.364389233954455,23.956043956043953,1003279.0,5264.0,0.0,1.0,0.0,?,0.0,0.0
3800000.0,4.5625,3.608596873366171E-8,3800000.0,69.6,38.44359489405817,38.08553971486761,35.04273504273503,1032979.0,5264.0,0.0,1.0,0.0,?,0.0,0.0
3900000.0,4.703125,3.7381380227290926E-8,3900000.0,68.30000000000001,36.310595345248814,37.35177865612649,34.50413223140497,1062679.0,5264.0,0.0,1.0,0.0,?,0.0,0.0
4000000.0,4.828125,3.857942323924767E-8,4000000.0,66.5,32.27781057193916,34.57031250000001,28.723404255319153,1092379.0,5264.0,0.0,1.0,0.0,?,0.0,0.0
4100000.0,4.953125,3.935371447975437E-8,4100000.0,67.10000000000001,32.977509778357245,37.57115749525618,27.212389380530976,1122109.0,5264.0,0.0,1.0,0.0,?,0.0,0.0
4200000.0,5.078125,4.017457184899184E-8,4200000.0,69.1,37.58332323354743,38.56858846918488,34.810126582278464,1151809.0,5264.0,0.0,1.0,0.0,?,0.0,0.0
4300000.0,5.203125,4.1041995346960094E-8,4300000.0,66.2,31.411224208185207,33.464566929133866,27.467811158798284,1181509.0,5264.0,0.0,1.0,0.0,?,0.0,0.0
4400000.0,5.328125,4.1955984973659115E-8,4400000.0,64.7,28.664963786859797,23.92241379310345,25.995807127882603,1211209.0,5264.0,0.0,1.0,0.0,?,0.0,0.0
4500000.0,5.453125,4.2916540729088915E-8,4500000.0,66.60000000000001,32.653686706563654,30.41666666666667,29.53586497890296,1240909.0,5264.0,0.0,1.0,0.0,?,0.0,0.0
4600000.0,5.546875,4.3671882142209345E-8,4600000.0,67.10000000000001,33.27925370107484,36.363636363636374,30.000000000000004,1270609.0,5264.0,0.0,1.0,0.0,?,0.0,0.0
4700000.0,5.671875,4.472557015510069E-8,4700000.0,67.2,33.11173195750148,30.508474576271194,27.912087912087912,1300309.0,5264.0,0.0,1.0,0.0,?,0.0,0.0
4800000.0,5.796875,4.582582429672281E-8,4800000.0,64.7,28.567959593343257,30.784313725490204,24.57264957264957,1330009.0,5264.0,0.0,1.0,0.0,?,0.0,0.0
4900000.0,5.921875,4.69726445670757E-8,4900000.0,67.5,33.63825703434476,34.34343434343435,29.65367965367966,1359709.0,5264.0,0.0,1.0,0.0,?,0.0,0.0
5000000.0,6.046875,4.8273133062240144E-8,5000000.0,69.69999999999999,38.965433889291745,38.787878787878775,36.874999999999986,1389409.0,5264.0,0.0,1.0,0.0,?,0.0,0.0
5100000.0,6.171875,4.918375957964194E-8,5100000.0,62.6,33.12830782434559,17.98245614035087,-1.081081081081082,27022.0,5168.0,0.0,1.0,0.0,?,1.0,8.0
5200000.0,6.296875,5.014095222577452E-8,5200000.0,63.3,33.72915267214168,20.9051724137931,5.167958656330754,56722.0,5168.0,0.0,1.0,0.0,?,0.0,0.0
5300000.0,6.421875,5.1144711000637865E-8,5300000.0,44.1,4.794669864021575,-15.020576131687244,-41.16161616161615,86422.0,5168.0,0.0,1.0,0.0,?,0.0,0.0
5400000.0,6.546875,5.219503590423199E-8,5400000.0,61.8,31.570650616222405,18.550106609808097,-3.243243243243246,116122.0,5168.0,0.0,1.0,0.0,?,0.0,0.0
5500000.0,6.671875,5.3291926936556886E-8,5500000.0,64.1,34.17481994337935,27.180527383367142,11.793611793611804,145822.0,5168.0,0.0,1.0,0.0,?,0.0,0.0
5600000.0,6.796875,5.4435384097612554E-8,5600000.0,62.5,32.400764322024735,17.943107221006557,2.5974025974025996,175522.0,5168.0,0.0,1.0,0.0,?,0.0,0.0
5700000.0,6.921875,5.5625407387399E-8,5700000.0,61.1,30.76813554495622,12.780269058295952,-8.055555555555562,205222.0,5168.0,0.0,1.0,0.0,?,0.0,0.0
5800000.0,7.046875,5.6861996805916216E-8,5800000.0,64.60000000000001,35.41843019352579,26.70807453416149,11.055276381909557,234922.0,5168.0,0.0,1.0,0.0,?,0.0,0.0
5900000.0,7.171875,5.814515235316421E-8,5900000.0,62.9,32.19087446355853,23.188405797101446,6.783919597989955,264622.0,5168.0,0.0,1.0,0.0,?,0.0,0.0
6000000.0,7.296875,5.947487402914298E-8,6000000.0,65.5,36.458471467091016,26.282051282051285,15.647921760391212,294322.0,5168.0,0.0,1.0,0.0,?,0.0,0.0
6100000.0,7.421875,6.03808439336717E-8,6100000.0,62.7,32.73461732669696,16.92650334075723,2.8645833333333357,324052.0,5168.0,0.0,1.0,0.0,?,0.0,0.0
6200000.0,7.546875,6.13333799669312E-8,6200000.0,61.7,31.88350122360708,17.456896551724128,-6.09418282548477,353752.0,5168.0,0.0,1.0,0.0,?,0.0,0.0
6300000.0,7.65625,6.220759435867268E-8,6300000.0,64.1,34.80124367989772,25.363825363825367,7.235142118863055,383452.0,5168.0,0.0,1.0,0.0,?,0.0,0.0
6400000.0,7.78125,6.325326264939373E-8,6400000.0,63.7,34.7643248916333,16.55172413793105,0.0,413152.0,5168.0,0.0,1.0,0.0,?,0.0,0.0
6500000.0,7.90625,6.434549706884556E-8,6500000.0,62.6,32.90011446451063,15.765765765765757,-1.3550135501355027,442852.0,5168.0,0.0,1.0,0.0,?,0.0,0.0
6600000.0,8.046875,6.562664768555097E-8,6600000.0,61.4,30.361111912940565,18.565400843881854,-0.5208333333333338,472552.0,5168.0,0.0,1.0,0.0,?,0.0,0.0
6700000.0,8.1875,6.696018519707852E-8,6700000.0,65.2,36.339289634280206,24.675324675324674,13.432835820895534,502252.0,5168.0,0.0,1.0,0.0,?,0.0,0.0
6800000.0,8.3125,6.819211800272265E-8,6800000.0,46.300000000000004,8.88668693669237,-20.674157303370794,-38.40206185567009,531952.0,5168.0,0.0,1.0,0.0,?,0.0,0.0
6900000.0,8.421875,6.93108045703007E-8,6900000.0,64.2,34.92991333682313,24.63157894736842,7.731958762886605,561652.0,5168.0,0.0,1.0,0.0,?,0.0,0.0
7000000.0,8.546875,7.063586963340639E-8,7000000.0,63.2,34.0454512868306,22.851153039832283,-1.6574585635359134,591352.0,5168.0,0.0,1.0,0.0,?,0.0,0.0
7100000.0,8.6875,7.1649847086519E-8,7100000.0,60.699999999999996,29.878027021047288,19.959266802443988,-3.1496062992126013,621082.0,5168.0,0.0,1.0,0.0,?,0.0,0.0
7200000.0,8.8125,7.259772650690542E-8,7200000.0,64.7,35.934199159340544,28.397565922920897,6.613756613756619,650782.0,5168.0,0.0,1.0,0.0,?,0.0,0.0
7300000.0,8.921875,7.346786636238297E-8,7300000.0,62.1,31.927581004382503,20.54507337526205,-2.156334231805932,680482.0,5168.0,0.0,1.0,0.0,?,0.0,0.0
7400000.0,9.046875,7.450887804023093E-8,7400000.0,61.5,30.492868748871626,19.287211740041922,1.2820512820512833,710182.0,5168.0,0.0,1.0,0.0,?,0.0,0.0
7500000.0,9.171875,7.559645584680967E-8,7500000.0,64.0,34.07559331966012,23.404255319148934,10.891089108910899,739882.0,5168.0,0.0,1.0,0.0,?,0.0,0.0
7600000.0,9.296875,7.673059978211919E-8,7600000.0,63.0,32.71748617980797,24.024640657084188,6.565656565656572,769582.0,5168.0,0.0,1.0,0.0,?,0.0,0.0
7700000.0,9.421875,7.791130984615948E-8,7700000.0,61.4,31.201163520219016,16.45021645021644,-8.42696629213484,799282.0,5168.0,0.0,1.0,0.0,?,0.0,0.0
7800000.0,9.546875,7.913858603893055E-8,7800000.0,63.3,34.111310592459596,21.0752688172043,2.1333333333333355,828982.0,5168.0,0.0,1.0,0.0,?,0.0,0.0
7900000.0,9.671875,8.041242836043238E-8,7900000.0,62.6,32.892890593879976,24.291497975708502,0.795755968169762,858682.0,5168.0,0.0,1.0,0.0,?,0.0,0.0
8000000.0,9.796875,8.173283681066499E-8,8000000.0,64.1,34.85282909302072,23.779193205944797,7.712082262210804,888382.0,5168.0,0.0,1.0,0.0,?,0.0,0.0
8100000.0,9.921875,8.262949348944755E-8,8100000.0,49.1,14.233527445271216,-14.639639639639654,-36.46112600536193,918112.0,5168.0,0.0,1.0,0.0,?,0.0,0.0
8200000.0,10.046875,8.357271629696089E-8,8200000.0,64.9,35.876356461690236,29.940119760479046,11.586901763224192,947812.0,5168.0,0.0,1.0,0.0,?,0.0,0.0
8300000.0,10.171875,8.456250523320501E-8,8300000.0,45.300000000000004,5.016253160336737,-13.958333333333334,-34.39803439803438,977512.0,5168.0,0.0,1.0,0.0,?,0.0,0.0
8400000.0,10.265625,8.533977153193617E-8,8400000.0,65.10000000000001,36.58419583672521,21.923937360178968,7.915567282321907,1007212.0,5168.0,0.0,1.0,0.0,?,0.0,0.0
8500000.0,10.390625,8.642269272564184E-8,8500000.0,65.0,35.89626183629737,24.07809110629067,11.392405063291148,1036912.0,5168.0,0.0,1.0,0.0,?,0.0,0.0
8600000.0,10.515625,8.755218004807827E-8,8600000.0,63.9,34.079338529074484,26.626016260162604,10.199004975124387,1066612.0,5168.0,0.0,1.0,0.0,?,0.0,0.0
8700000.0,10.625,8.858122681784958E-8,8700000.0,64.0,34.53902746815141,22.58064516129032,6.976744186046517,1096312.0,5168.0,0.0,1.0,0.0,?,0.0,0.0
8800000.0,10.734375,8.965101895026032E-8,8800000.0,63.9,34.11927877947296,20.132743362831853,7.672634271099751,1126012.0,5168.0,0.0,1.0,0.0,?,0.0,0.0
8900000.0,10.859375,9.092020465888908E-8,8900000.0,61.8,31.140401476695896,18.20128479657387,0.0,1155712.0,5168.0,0.0,1.0,0.0,?,0.0,0.0
9000000.0,11.0,9.240042547591856E-8,9000000.0,61.9,31.932196606971857,18.93617021276595,-3.2520325203252063,1185412.0,5168.0,0.0,1.0,0.0,?,0.0,0.0
9100000.0,11.125,9.329242554182806E-8,9100000.0,61.8,31.87330574975032,17.13665943600867,-3.80434782608696,1215142.0,5168.0,0.0,1.0,0.0,?,0.0,0.0
9200000.0,11.265625,9.434831251079836E-8,9200000.0,64.7,35.65533131124592,23.92241379310345,9.02061855670104,1244842.0,5168.0,0.0,1.0,0.0,?,0.0,0.0
9300000.0,11.375,9.521030329374803E-8,9300000.0,65.9,37.66999093381687,27.60084925690022,12.787723785166252,1274542.0,5168.0,0.0,1.0,0.0,?,0.0,0.0
9400000.0,11.484375,9.611303943933711E-8,9400000.0,65.5,36.5687557915484,27.672955974842772,15.233415233415245,1304242.0,5168.0,0.0,1.0,0.0,?,0.0,0.0
9500000.0,11.625,9.732608709277376E-8,9500000.0,62.1,31.96766040553737,20.042194092827,-1.8817204301075288,1333942.0,5168.0,0.0,1.0,0.0,?,0.0,0.0
9600000.0,11.859375,9.943514467320507E-8,9600000.0,63.1,34.015235506598486,17.999999999999993,-2.7855153203342646,1363642.0,5168.0,0.0,1.0,0.0,?,0.0,0.0
9700000.0,12.078125,1.0148508914021981E-7,9700000.0,62.7,33.16370412844037,19.957081545064373,1.5831134564643814,1393342.0,5168.0,0.0,1.0,0.0,?,0.0,0.0
9800000.0,12.28125,1.0346427896163528E-7,9800000.0,47.5,12.632798146816834,-12.660944206008596,-44.23076923076924,1423042.0,5168.0,0.0,1.0,0.0,?,0.0,0.0
9900000.0,12.46875,1.053610726052688E-7,9900000.0,59.199999999999996,29.1440321213721,12.820512820512809,-20.710059171597653,1452742.0,5168.0,0.0,1.0,0.0,?,0.0,0.0
1.0E7,12.65625,1.0732771544199849E-7,1.0E7,62.8,33.26827588186332,21.848739495798316,0.5347593582887705,1482442.0,5168.0,0.0,1.0,0.0,?,0.0,0.0
