learning evaluation instances,evaluation time (cpu seconds),model cost (RAM-Hours),classified instances,classifications correct (percent),Kappa Statistic (percent),Kappa Temporal Statistic (percent),Kappa M Statistic (percent),model training instances,model serialized size (bytes),labeling cost,newThreshold,maxPosterior,accuracyBaseLearner (percent),Change detected,Warning detected
100000.0,0.15625,6.7744016026457155E-9,100000.0,57.599999999999994,15.575183882824708,14.343434343434334,13.292433537832299,19800.0,9208.0,0.0,1.0,0.0,?,0.0,9.0
200000.0,0.3125,1.2959935702383519E-8,200000.0,60.199999999999996,21.26763070958042,14.224137931034472,15.498938428874725,39800.0,9208.0,0.0,1.0,0.0,?,0.0,42.0
300000.0,0.4375,1.7416831623348925E-8,300000.0,62.1,25.32372853303489,19.87315010570824,17.96536796536796,59800.0,9208.0,0.0,1.0,0.0,?,0.0,0.0
400000.0,0.59375,2.237353732602464E-8,400000.0,64.5,29.130400063882465,27.698574338085542,28.137651821862352,79800.0,9208.0,0.0,1.0,0.0,?,0.0,0.0
500000.0,0.734375,2.628072656484114E-8,500000.0,61.1,22.817460317460316,24.0234375,18.10526315789473,99800.0,9208.0,0.0,1.0,0.0,?,0.0,103.0
600000.0,0.890625,3.000763374277287E-8,600000.0,63.9,28.090514322138567,32.14285714285714,24.31865828092243,119800.0,9208.0,0.0,1.0,0.0,?,0.0,0.0
700000.0,1.03125,3.280887742423349E-8,700000.0,60.699999999999996,22.674327089563974,18.6335403726708,14.565217391304339,139800.0,9208.0,0.0,1.0,0.0,?,0.0,0.0
800000.0,1.1875,3.530695620510313E-8,800000.0,60.5,22.767089003597675,20.2020202020202,11.235955056179762,159800.0,9208.0,0.0,1.0,0.0,?,0.0,0.0
900000.0,1.328125,3.700225432920787E-8,900000.0,61.199999999999996,22.642592828888606,27.611940298507452,16.01731601731601,179800.0,9208.0,0.0,1.0,0.0,?,0.0,0.0
1000000.0,1.46875,3.814457967463467E-8,1000000.0,61.199999999999996,22.62284620293554,22.709163346613543,21.138211382113816,199800.0,9208.0,0.0,1.0,0.0,?,0.0,0.0
1100000.0,1.625,4.494970198720694E-8,1100000.0,61.199999999999996,23.19630075378475,22.554890219560875,18.487394957983184,219600.0,9208.0,0.0,1.0,0.0,?,0.0,0.0
1200000.0,1.765625,5.052133928984404E-8,1200000.0,61.9,24.733901747121713,25.440313111545986,18.415417558886503,239600.0,9208.0,0.0,1.0,0.0,?,0.0,0.0
1300000.0,1.921875,5.607887740350432E-8,1300000.0,60.6,22.79596187609731,17.226890756302513,19.918699186991866,259600.0,9208.0,0.0,1.0,0.0,?,0.0,17.0
1400000.0,2.046875,6.005174428638484E-8,1400000.0,62.4,24.635705838728423,23.57723577235772,25.691699604743086,279600.0,9208.0,0.0,1.0,0.0,?,0.0,44.0
1500000.0,2.1875,6.39682467509475E-8,1500000.0,59.5,18.822708796010485,15.975103734439825,18.674698795180717,299600.0,9208.0,0.0,1.0,0.0,?,0.0,0.0
1600000.0,2.34375,6.77177902414567E-8,1600000.0,61.5,23.838989689579584,25.09727626459144,18.60465116279069,319600.0,9208.0,0.0,1.0,0.0,?,0.0,15.0
1700000.0,2.5,7.085291953343484E-8,1700000.0,62.6,25.599974536889686,25.940594059405942,22.727272727272727,339600.0,9208.0,0.0,1.0,0.0,?,0.0,39.0
1800000.0,2.65625,7.337363462688195E-8,1800000.0,61.8,24.472792410899636,24.65483234714004,19.238900634249468,359600.0,9208.0,0.0,1.0,0.0,?,0.0,0.0
1900000.0,2.8125,7.527993552179801E-8,1900000.0,62.3,25.013326544088976,25.494071146245062,22.587268993839835,379600.0,9208.0,0.0,1.0,0.0,?,0.0,0.0
2000000.0,2.953125,7.644263354854452E-8,2000000.0,61.5,22.749089041205842,23.913043478260867,18.60465116279069,399600.0,9208.0,0.0,1.0,0.0,?,0.0,0.0
2100000.0,3.109375,8.327039217369424E-8,2100000.0,62.4,25.041366798907518,26.129666011787823,23.732251521298174,419400.0,9208.0,0.0,1.0,0.0,?,0.0,0.0
2200000.0,3.265625,8.948373660031293E-8,2200000.0,60.5,21.14509302882696,21.471172962226635,19.05737704918032,439400.0,9208.0,0.0,1.0,0.0,?,0.0,0.0
2300000.0,3.421875,9.508266682840056E-8,2300000.0,60.4,22.940407248271992,19.838056680161937,10.810810810810796,459400.0,9208.0,0.0,1.0,0.0,?,0.0,92.0
2400000.0,3.578125,1.0006718285795716E-7,2400000.0,62.7,25.654558790700648,24.032586558044805,24.186991869918696,479400.0,9208.0,0.0,1.0,0.0,?,0.0,0.0
2500000.0,3.734375,1.0443728468898271E-7,2500000.0,63.6,27.29161256816412,27.634194831013918,26.907630522088354,499400.0,9208.0,0.0,1.0,0.0,?,0.0,0.0
2600000.0,3.890625,1.081929723214772E-7,2600000.0,59.199999999999996,19.157654462378588,15.876288659793806,10.329670329670314,519400.0,9208.0,0.0,1.0,0.0,?,0.0,0.0
2700000.0,4.03125,1.1102011841204431E-7,2700000.0,59.4,19.241908277903303,15.592515592515586,16.803278688524586,539400.0,9208.0,0.0,1.0,0.0,?,0.0,0.0
2800000.0,4.171875,1.1329429172393348E-7,2800000.0,61.0,22.86789049613746,23.976608187134502,17.197452229299355,559400.0,9208.0,0.0,1.0,0.0,?,0.0,0.0
2900000.0,4.34375,1.1539798126452498E-7,2900000.0,63.7,27.305788301638927,28.82352941176471,26.21951219512195,579400.0,9208.0,0.0,1.0,0.0,?,0.0,0.0
3000000.0,4.484375,1.1656620901905827E-7,3000000.0,60.6,22.59575337513948,22.134387351778653,13.215859030836993,599400.0,9208.0,0.0,1.0,0.0,?,0.0,0.0
3100000.0,4.640625,1.234001117861933E-7,3100000.0,62.2,25.35574504050141,24.096385542168676,19.057815845824404,619200.0,9208.0,0.0,1.0,0.0,?,0.0,0.0
3200000.0,4.78125,1.289976514979369E-7,3200000.0,57.99999999999999,17.725461618927838,13.402061855670091,6.873614190687344,639200.0,9208.0,0.0,1.0,0.0,?,0.0,0.0
3300000.0,4.9375,1.3460272586800984E-7,3300000.0,60.699999999999996,20.888624065962375,20.606060606060602,19.46721311475409,659200.0,9208.0,0.0,1.0,0.0,?,0.0,0.0
3400000.0,5.09375,1.39555551059958E-7,3400000.0,61.8,23.924689425531824,24.95088408644401,21.88139059304703,679200.0,9208.0,0.0,1.0,0.0,?,0.0,48.0
3500000.0,5.234375,1.4345779264759684E-7,3500000.0,61.5,23.40442463791182,18.60465116279069,21.267893660531694,699200.0,9208.0,0.0,1.0,0.0,?,0.0,88.0
3600000.0,5.390625,1.4718017256301307E-7,3600000.0,59.8,20.131604043486547,24.007561436672965,16.770186335403718,719200.0,9208.0,0.0,1.0,0.0,?,0.0,77.0
3700000.0,5.53125,1.4997734170820974E-7,3700000.0,58.699999999999996,18.25602292789904,14.84536082474226,11.373390557939901,739200.0,9208.0,0.0,1.0,0.0,?,0.0,0.0
3800000.0,5.671875,1.5222153807472847E-7,3800000.0,60.8,22.335636847777845,19.836400817995905,16.23931623931623,759200.0,9208.0,0.0,1.0,0.0,?,0.0,0.0
3900000.0,5.828125,1.5410067539455157E-7,3900000.0,65.8,31.358381502890182,32.94117647058824,33.33333333333334,779200.0,9208.0,0.0,1.0,0.0,?,0.0,0.0
4000000.0,5.96875,1.552418365867601E-7,4000000.0,62.0,24.41270662184473,23.076923076923077,22.448979591836732,799200.0,9208.0,0.0,1.0,0.0,?,0.0,15.0
4100000.0,6.109375,1.6136528251485686E-7,4100000.0,60.0,21.354279310277015,17.012448132780076,10.913140311803996,819000.0,9208.0,0.0,1.0,0.0,?,0.0,0.0
4200000.0,6.265625,1.6755469712532224E-7,4200000.0,59.699999999999996,20.104359962569973,14.799154334038045,16.21621621621621,839000.0,9208.0,0.0,1.0,0.0,?,0.0,0.0
4300000.0,6.40625,1.7257219749606312E-7,4300000.0,61.7,23.741030113333174,18.336886993603404,21.35523613963039,859000.0,9208.0,0.0,1.0,0.0,?,0.0,0.0
4400000.0,6.5625,1.775327837094664E-7,4400000.0,62.3,25.03718314788156,23.52941176470588,21.784232365145225,879000.0,9208.0,0.0,1.0,0.0,?,0.0,0.0
4500000.0,6.703125,1.814443385228514E-7,4500000.0,62.8,24.978522076884918,27.34375,28.32369942196532,899000.0,9208.0,0.0,1.0,0.0,?,0.0,0.0
4600000.0,6.84375,1.8480292055755845E-7,4600000.0,61.199999999999996,23.140008002947614,23.015873015873016,17.622080679405514,919000.0,9208.0,0.0,1.0,0.0,?,0.0,0.0
4700000.0,7.0,1.879202641753686E-7,4700000.0,59.9,20.609780241536324,17.319587628865975,14.132762312633822,939000.0,9208.0,0.0,1.0,0.0,?,0.0,0.0
4800000.0,7.140625,1.9017290065271978E-7,4800000.0,59.5,20.333928697882644,19.32270916334661,10.792951541850208,959000.0,9208.0,0.0,1.0,0.0,?,0.0,0.0
4900000.0,7.265625,1.9168371282931823E-7,4900000.0,60.9,22.653900933692032,23.483365949119374,18.029350104821795,979000.0,9208.0,0.0,1.0,0.0,?,0.0,0.0
5000000.0,7.40625,1.929145138193335E-7,5000000.0,62.2,24.01338007783603,24.550898203592812,21.739130434782606,999000.0,9208.0,0.0,1.0,0.0,?,0.0,0.0
5100000.0,7.578125,2.0050828526210446E-7,5100000.0,54.2,5.063159945774079,2.3454157782516014,-10.89588377723969,1018800.0,9208.0,0.0,1.0,0.0,?,0.0,0.0
5200000.0,7.734375,2.0683351774803457E-7,5200000.0,57.199999999999996,9.987591747460499,7.956989247311812,-15.363881401617263,1038800.0,9208.0,0.0,1.0,0.0,?,0.0,12.0
5300000.0,7.890625,2.1254433603543367E-7,5300000.0,56.00000000000001,7.87771184985743,0.0,-13.69509043927647,1058800.0,9208.0,0.0,1.0,0.0,?,0.0,0.0
5400000.0,8.046875,2.176407401243017E-7,5400000.0,59.8,15.027816764462168,17.113402061855663,-5.235602094240843,1078800.0,9208.0,0.0,1.0,0.0,?,0.0,0.0
5500000.0,8.21875,2.2255990188568824E-7,5500000.0,62.2,11.832210632382303,21.08559498956158,1.0471204188481684,18046.0,9208.0,0.0,1.0,0.0,?,2.0,31.0
5600000.0,8.390625,2.2681423514667478E-7,5600000.0,61.8,9.142802778042057,20.910973084886127,-3.243243243243246,38046.0,9208.0,0.0,1.0,0.0,?,0.0,27.0
5700000.0,8.5625,2.3039271278927716E-7,5700000.0,65.4,16.25155515537032,25.75107296137339,4.683195592286506,58046.0,9208.0,0.0,1.0,0.0,?,0.0,0.0
5800000.0,8.703125,2.3276758535454664E-7,5800000.0,61.3,10.95260009203865,16.414686825053987,1.0230179028133002,78046.0,9208.0,0.0,1.0,0.0,?,0.0,0.0
5900000.0,8.859375,2.3479191845075946E-7,5900000.0,62.7,9.46953516368295,21.802935010482177,-3.8997214484679703,98046.0,9208.0,0.0,1.0,0.0,?,0.0,0.0
6000000.0,9.015625,2.3620183734844122E-7,6000000.0,60.4,9.489851892484914,15.744680851063823,-1.5384615384615397,118046.0,9208.0,0.0,1.0,0.0,?,0.0,0.0
6100000.0,9.171875,2.431476281748877E-7,6100000.0,61.6,8.902416458296772,17.062634989200856,-1.8567639257294446,137846.0,9208.0,0.0,1.0,0.0,?,0.0,0.0
6200000.0,9.34375,2.501121424655947E-7,6200000.0,60.3,8.508480825958692,15.531914893617014,-2.3195876288659814,157846.0,9208.0,0.0,1.0,0.0,?,0.0,0.0
6300000.0,9.484375,2.5525740865204066E-7,6300000.0,60.099999999999994,8.429111739433772,14.193548387096763,-0.5037783375314866,177846.0,9208.0,0.0,1.0,0.0,?,0.0,0.0
6400000.0,9.65625,2.6087021170597936E-7,6400000.0,59.8,11.82973048848961,17.113402061855663,6.074766355140191,197846.0,9208.0,0.0,1.0,0.0,?,0.0,0.0
6500000.0,9.8125,2.653583457383017E-7,6500000.0,64.2,14.641590050738165,25.10460251046025,1.1049723756906087,217846.0,9208.0,0.0,1.0,0.0,?,0.0,0.0
6600000.0,9.984375,2.6961943755547205E-7,6600000.0,61.5,12.461005356931716,20.618556701030926,3.5087719298245648,237846.0,9208.0,0.0,1.0,0.0,?,0.0,0.0
6700000.0,10.140625,2.7287874319073227E-7,6700000.0,60.0,4.746936423342691,11.699779249448111,-8.991825613079026,257846.0,9208.0,0.0,1.0,0.0,?,0.0,0.0
6800000.0,10.296875,2.7552363462746144E-7,6800000.0,62.4,10.65275764560512,20.507399577167014,-5.915492957746484,277846.0,9208.0,0.0,1.0,0.0,?,0.0,0.0
6900000.0,10.453125,2.7755411186565955E-7,6900000.0,59.8,7.576433369965543,16.07515657620041,-3.341902313624682,297846.0,9208.0,0.0,1.0,0.0,?,0.0,0.0
7000000.0,10.625,2.7911178120929334E-7,7000000.0,61.6,12.44510718634144,13.90134529147981,2.2900763358778646,317846.0,9208.0,0.0,1.0,0.0,?,0.0,0.0
7100000.0,10.765625,2.8536852268088193E-7,7100000.0,63.0,13.259564891222794,20.770877944325477,2.6315789473684235,337646.0,9208.0,0.0,1.0,0.0,?,0.0,0.0
7200000.0,10.921875,2.917060434507827E-7,7200000.0,61.199999999999996,6.856155175724968,17.622080679405514,-7.777777777777785,357646.0,9208.0,0.0,1.0,0.0,?,0.0,0.0
7300000.0,11.078125,2.9742915002215237E-7,7300000.0,59.8,15.454924014587167,15.36842105263157,-5.511811023622052,377646.0,9208.0,0.0,1.0,0.0,?,0.0,0.0
7400000.0,11.234375,3.02537842394991E-7,7400000.0,61.8,20.57683671262954,19.238900634249468,-1.0582010582010593,397646.0,9208.0,0.0,1.0,0.0,?,0.0,0.0
7500000.0,11.375,3.0658269275186785E-7,7500000.0,63.2,20.798898071625334,19.474835886214436,-1.0989010989010999,417646.0,9208.0,0.0,1.0,0.0,?,0.0,0.0
7600000.0,11.515625,3.1007457033006675E-7,7600000.0,62.4,11.395984541427081,16.81415929203539,0.5291005291005296,437646.0,9208.0,0.0,1.0,0.0,?,0.0,0.0
7700000.0,11.6875,3.136665650850368E-7,7700000.0,60.5,8.096789204281048,16.13588110403396,-3.1331592689295062,457646.0,9208.0,0.0,1.0,0.0,?,0.0,0.0
7800000.0,11.859375,3.1658270422162274E-7,7800000.0,63.0,22.300248639204366,21.610169491525422,1.5957446808510651,477646.0,9208.0,0.0,1.0,0.0,?,0.0,0.0
7900000.0,12.015625,3.186193256018062E-7,7900000.0,60.5,11.74052160234525,20.523138832997983,5.275779376498805,497646.0,9208.0,0.0,1.0,0.0,?,0.0,0.0
8000000.0,12.15625,3.198993120652933E-7,8000000.0,61.4,12.594934129187394,17.521367521367516,3.258145363408524,517646.0,9208.0,0.0,1.0,0.0,?,0.0,0.0
8100000.0,12.3125,3.2685739117571044E-7,8100000.0,64.60000000000001,16.44203579302173,24.840764331210192,3.542234332425071,537446.0,9208.0,0.0,1.0,0.0,?,0.0,0.0
8200000.0,12.46875,3.332010560875965E-7,8200000.0,62.6,14.547880604653704,21.26315789473684,5.076142131979699,557446.0,9208.0,0.0,1.0,0.0,?,0.0,0.0
8300000.0,12.625,3.389303068009515E-7,8300000.0,62.2,21.181690798692202,19.057815845824404,1.5625000000000013,577446.0,9208.0,0.0,1.0,0.0,?,0.0,0.0
8400000.0,12.796875,3.445566269672579E-7,8400000.0,62.8,13.600891861761417,22.0125786163522,4.123711340206189,597446.0,9208.0,0.0,1.0,0.0,?,0.0,0.0
8500000.0,12.9375,3.486070070519215E-7,8500000.0,61.3,19.29766025774702,17.1306209850107,0.7692307692307698,617446.0,9208.0,0.0,1.0,0.0,?,0.0,0.0
8600000.0,13.09375,3.524930151696834E-7,8600000.0,63.4,12.700419324215382,20.261437908496728,1.3477088948787075,637446.0,9208.0,0.0,1.0,0.0,?,0.0,0.0
8700000.0,13.25,3.557646090889142E-7,8700000.0,60.099999999999994,7.537865445579429,16.52719665271966,-1.7857142857142874,657446.0,9208.0,0.0,1.0,0.0,?,0.0,0.0
8800000.0,13.421875,3.58687506781684E-7,8800000.0,62.0,14.709473533002951,23.541247484909455,6.8627450980392215,677446.0,9208.0,0.0,1.0,0.0,?,0.0,0.0
8900000.0,13.5625,3.6052599575163585E-7,8900000.0,62.3,11.676506419267172,16.035634743875267,-0.2659574468085109,697446.0,9208.0,0.0,1.0,0.0,?,0.0,0.0
9000000.0,13.71875,3.6195434707527357E-7,9000000.0,60.4,9.109688080975005,16.455696202531637,-1.278772378516625,717446.0,9208.0,0.0,1.0,0.0,?,0.0,0.0
9100000.0,13.875,3.6891857032767596E-7,9100000.0,55.7,8.752358432270785,7.127882599580719,-15.665796344647504,737246.0,9208.0,0.0,1.0,0.0,?,0.0,0.0
9200000.0,14.03125,3.752683793815473E-7,9200000.0,61.7,10.999776918500878,21.516393442622945,1.2886597938144342,757246.0,9208.0,0.0,1.0,0.0,?,0.0,0.0
9300000.0,14.1875,3.8100377423688766E-7,9300000.0,61.7,16.170548065137464,20.041753653444673,9.45626477541372,777246.0,9208.0,0.0,1.0,0.0,?,0.0,0.0
9400000.0,14.359375,3.866368529593779E-7,9400000.0,63.0,22.02515426374887,21.276595744680847,3.141361256544505,797246.0,9208.0,0.0,1.0,0.0,?,0.0,0.0
9500000.0,14.515625,3.911434194176561E-7,9500000.0,63.2,12.005509220292302,18.942731277533035,-3.370786516853936,817246.0,9208.0,0.0,1.0,0.0,?,0.0,0.0
9600000.0,14.640625,3.9425714122545385E-7,9600000.0,62.3,11.007667031763418,19.27194860813704,-1.617250673854449,837246.0,9208.0,0.0,1.0,0.0,?,0.0,0.0
9700000.0,14.796875,3.9753487928667E-7,9700000.0,61.4,10.073618488491274,15.350877192982445,-2.1164021164021185,857246.0,9208.0,0.0,1.0,0.0,?,0.0,0.0
9800000.0,14.953125,4.001982031493551E-7,9800000.0,63.7,14.606720427578038,24.688796680497923,3.9682539682539715,877246.0,9208.0,0.0,1.0,0.0,?,0.0,0.0
9900000.0,15.125,4.0245200377992456E-7,9900000.0,62.8,10.233826403802986,22.66112266112266,-1.917808219178084,897246.0,9208.0,0.0,1.0,0.0,?,0.0,0.0
1.0E7,15.28125,4.0388649924554755E-7,1.0E7,64.7,15.67531412737091,24.248927038626608,4.594594594594599,917246.0,9208.0,0.0,1.0,0.0,?,0.0,0.0
