learning evaluation instances,evaluation time (cpu seconds),model cost (RAM-Hours),classified instances,classifications correct (percent),Kappa Statistic (percent),Kappa Temporal Statistic (percent),Kappa M Statistic (percent),model training instances,model serialized size (bytes),labeling cost,newThreshold,maxPosterior,accuracyBaseLearner (percent),Change detected,Warning detected,tree size (nodes),tree size (leaves),active learning leaves,tree depth,active leaf byte size estimate,inactive leaf byte size estimate,byte size estimate overhead
100000.0,0.296875,1.1002315053095421E-8,100000.0,77.0,53.53554127054032,50.85470085470085,49.00221729490022,9950.0,52032.0,0.0,1.0,0.0,?,0.0,10.0,21.0,17.0,17.0,2.0,0.0,0.0,1.0
200000.0,0.625,2.66526088428994E-8,200000.0,76.1,51.02900558146396,51.32382892057027,45.55808656036446,19950.0,123320.0,0.0,1.0,0.0,?,0.0,0.0,42.0,32.0,32.0,3.0,0.0,0.0,1.0
300000.0,1.0,5.704632106547555E-8,300000.0,76.9,53.26157332470055,51.57232704402516,49.230769230769226,29900.0,206272.0,0.0,1.0,0.0,?,0.0,0.0,73.0,55.0,55.0,4.0,0.0,0.0,1.0
400000.0,1.328125,9.074477323641381E-8,400000.0,84.6,68.10392321744425,67.84968684759916,64.1025641025641,39900.0,319992.0,0.0,1.0,0.0,?,0.0,0.0,130.0,94.0,94.0,4.0,0.0,0.0,1.0
500000.0,1.640625,1.231088794560896E-7,500000.0,83.39999999999999,66.35207887397029,64.60554371002131,64.52991452991452,49900.0,353600.0,0.0,1.0,0.0,?,0.0,0.0,143.0,102.0,102.0,4.0,0.0,0.0,1.0
600000.0,1.984375,1.7053402391158873E-7,600000.0,84.1,67.50459840588596,67.87878787878788,64.66666666666666,59850.0,440560.0,0.0,1.0,0.0,?,0.0,0.0,185.0,132.0,132.0,5.0,0.0,0.0,1.0
700000.0,2.28125,2.1279834780014225E-7,700000.0,86.2,71.74909924664264,71.60493827160494,68.63636363636363,69850.0,487736.0,0.0,1.0,0.0,?,0.0,0.0,217.0,151.0,151.0,5.0,0.0,0.0,1.0
800000.0,2.5625,2.58646193995244E-7,800000.0,88.1,75.62074899614849,74.78813559322035,72.95454545454545,79800.0,521720.0,0.0,1.0,0.0,?,0.0,0.0,233.0,162.0,162.0,5.0,0.0,0.0,1.0
900000.0,2.859375,3.073446633708146E-7,900000.0,87.8,75.05602172170698,75.30364372469636,72.39819004524887,89800.0,555928.0,0.0,1.0,0.0,?,0.0,0.0,259.0,178.0,178.0,5.0,0.0,0.0,1.0
1000000.0,3.171875,3.579833881101674E-7,1000000.0,88.7,77.03737421358086,77.30923694779118,75.05518763796908,99800.0,578456.0,0.0,1.0,0.0,?,0.0,0.0,277.0,187.0,187.0,5.0,0.0,0.0,1.0
1100000.0,3.46875,4.1451993941639856E-7,1100000.0,92.7,85.19690148842115,85.3413654618474,83.81374722838139,109750.0,642256.0,0.0,1.0,0.0,?,0.0,0.0,309.0,209.0,209.0,5.0,0.0,0.0,1.0
1200000.0,3.78125,4.774249585655828E-7,1200000.0,91.5,82.81453445584751,82.43801652892563,81.60173160173161,119750.0,714328.0,0.0,1.0,0.0,?,0.0,0.0,341.0,228.0,228.0,6.0,0.0,0.0,1.0
1300000.0,4.078125,5.441239207155175E-7,1300000.0,92.9,85.66710540128068,86.18677042801556,84.63203463203463,129700.0,758792.0,0.0,1.0,0.0,?,0.0,0.0,364.0,244.0,244.0,6.0,0.0,0.0,1.0
1400000.0,4.375,6.096567247166402E-7,1400000.0,92.60000000000001,84.85096626269244,85.11066398390344,83.18181818181819,139700.0,773888.0,0.0,1.0,0.0,?,0.0,0.0,389.0,258.0,258.0,6.0,0.0,0.0,1.0
1500000.0,4.6875,6.799120779356195E-7,1500000.0,94.5,88.80694213799615,88.79837067209775,87.6126126126126,149700.0,819832.0,0.0,1.0,0.0,?,0.0,0.0,419.0,276.0,276.0,6.0,0.0,0.0,1.0
1600000.0,4.984375,7.519613589263624E-7,1600000.0,94.19999999999999,87.91157945635454,86.93693693693693,85.81907090464547,159650.0,843064.0,0.0,1.0,0.0,?,0.0,0.0,434.0,285.0,285.0,6.0,0.0,0.0,1.0
1700000.0,5.28125,8.242256848865913E-7,1700000.0,93.89999999999999,87.54614052853363,86.76789587852494,86.26126126126124,169650.0,876088.0,0.0,1.0,0.0,?,0.0,0.0,457.0,298.0,298.0,6.0,0.0,0.0,1.0
1800000.0,5.578125,9.026464411161012E-7,1800000.0,93.30000000000001,86.29139181248262,86.2704918032787,84.52655889145498,179600.0,910392.0,0.0,1.0,0.0,?,0.0,0.0,484.0,316.0,316.0,6.0,0.0,0.0,1.0
1900000.0,5.890625,9.841287586217124E-7,1900000.0,96.1,92.02388743455496,91.8410041841004,90.95127610208816,189600.0,927496.0,0.0,1.0,0.0,?,0.0,0.0,496.0,322.0,322.0,6.0,0.0,0.0,1.0
2000000.0,6.203125,1.0645342344004245E-6,2000000.0,95.3,90.45724031511409,90.61876247504989,89.438202247191,199600.0,944472.0,0.0,1.0,0.0,?,0.0,0.0,506.0,327.0,327.0,6.0,0.0,0.0,1.0
2100000.0,6.484375,1.1410959349531264E-6,2100000.0,94.39999999999999,88.51253774451882,89.27203065134098,87.03703703703702,209550.0,956328.0,0.0,1.0,0.0,?,0.0,0.0,512.0,330.0,330.0,6.0,0.0,0.0,1.0
2200000.0,6.78125,1.2210594852351477E-6,2200000.0,93.7,87.13392966548219,87.34939759036145,85.84269662921349,219550.0,975576.0,0.0,1.0,0.0,?,0.0,0.0,519.0,335.0,335.0,6.0,0.0,0.0,1.0
2300000.0,7.078125,1.3051494412745036E-6,2300000.0,94.5,88.9121845012499,88.88888888888889,88.22269807280513,229500.0,983504.0,0.0,1.0,0.0,?,0.0,0.0,523.0,337.0,337.0,6.0,0.0,0.0,1.0
2400000.0,7.359375,1.3828881007308759E-6,2400000.0,93.89999999999999,87.48101629520173,87.67676767676767,85.97701149425286,239500.0,987408.0,0.0,1.0,0.0,?,0.0,0.0,527.0,339.0,339.0,6.0,0.0,0.0,1.0
2500000.0,7.640625,1.4586476997161903E-6,2500000.0,95.1,90.05391185736092,89.77035490605428,89.08685968819599,249500.0,990568.0,0.0,1.0,0.0,?,0.0,0.0,533.0,342.0,342.0,6.0,0.0,0.0,1.0
2600000.0,7.9375,1.5421170974150297E-6,2600000.0,95.19999999999999,90.20644008177622,90.12345679012344,89.06605922551252,259450.0,990392.0,0.0,1.0,0.0,?,0.0,0.0,535.0,343.0,343.0,6.0,0.0,0.0,1.0
2700000.0,8.21875,1.6190204769372937E-6,2700000.0,95.19999999999999,90.22701822253893,90.0414937759336,89.11564625850339,269450.0,990928.0,0.0,1.0,0.0,?,0.0,0.0,535.0,343.0,343.0,6.0,0.0,0.0,1.0
2800000.0,8.515625,1.7048676575844484E-6,2800000.0,95.5,90.75648894476078,90.66390041493774,89.43661971830986,279400.0,1005912.0,0.0,1.0,0.0,?,0.0,0.0,541.0,346.0,346.0,7.0,0.0,0.0,1.0
2900000.0,8.796875,1.784003882979353E-6,2900000.0,93.60000000000001,87.10758718494166,87.62088974854933,86.32478632478634,289400.0,1006168.0,0.0,1.0,0.0,?,0.0,0.0,543.0,347.0,347.0,7.0,0.0,0.0,1.0
3000000.0,9.09375,1.8651802868892745E-6,3000000.0,94.8,89.43089430894308,88.79310344827586,88.44444444444444,299400.0,1005880.0,0.0,1.0,0.0,?,0.0,0.0,545.0,348.0,348.0,7.0,0.0,0.0,1.0
3100000.0,9.375,1.9454503975187736E-6,3100000.0,94.6,89.09623981810911,89.45312499999999,88.28633405639911,309350.0,1006392.0,0.0,1.0,0.0,?,0.0,0.0,545.0,348.0,348.0,7.0,0.0,0.0,1.0
3200000.0,9.671875,2.0280897216353975E-6,3200000.0,95.5,90.84979015518755,90.96385542168673,89.84198645598192,319350.0,1009536.0,0.0,1.0,0.0,?,0.0,0.0,551.0,351.0,351.0,7.0,0.0,0.0,1.0
3300000.0,10.0,2.1236749469406073E-6,3300000.0,95.5,90.7795954496279,90.9819639278557,89.48598130841121,329300.0,1013792.0,0.0,1.0,0.0,?,0.0,0.0,553.0,352.0,352.0,7.0,0.0,0.0,1.0
3400000.0,10.3125,2.2122534250633584E-6,3400000.0,94.89999999999999,89.46246156897747,89.5277207392197,87.94326241134752,339300.0,1013824.0,0.0,1.0,0.0,?,0.0,0.0,553.0,352.0,352.0,7.0,0.0,0.0,1.0
3500000.0,10.578125,2.2849679549431633E-6,3500000.0,95.1,90.0621420342998,90.41095890410958,89.08685968819599,349300.0,1006736.0,0.0,1.0,0.0,?,0.0,0.0,557.0,354.0,354.0,7.0,0.0,0.0,1.0
3600000.0,10.875,2.3707082275197736E-6,3600000.0,95.0,89.834629756885,90.1185770750988,88.91352549889135,359250.0,1019144.0,0.0,1.0,0.0,?,0.0,0.0,559.0,355.0,355.0,7.0,0.0,0.0,1.0
3700000.0,11.140625,2.445854802822901E-6,3700000.0,94.8,89.46907959755683,89.5582329317269,88.64628820960696,369250.0,1026672.0,0.0,1.0,0.0,?,0.0,0.0,563.0,357.0,357.0,7.0,0.0,0.0,1.0
3800000.0,11.4375,2.533945824123091E-6,3800000.0,95.3,90.41997211600395,90.06342494714586,89.36651583710406,379200.0,1034304.0,0.0,1.0,0.0,?,0.0,0.0,567.0,359.0,359.0,7.0,0.0,0.0,1.0
3900000.0,11.703125,2.611744340457436E-6,3900000.0,95.1,89.97881234610318,90.3353057199211,88.81278538812785,389200.0,1049816.0,0.0,1.0,0.0,?,0.0,0.0,574.0,364.0,364.0,7.0,0.0,0.0,1.0
4000000.0,12.0,2.696606000730147E-6,4000000.0,93.7,87.23145520875558,87.2983870967742,86.1842105263158,399200.0,1052968.0,0.0,1.0,0.0,?,0.0,0.0,580.0,367.0,367.0,7.0,0.0,0.0,1.0
4100000.0,12.28125,2.780659027242412E-6,4100000.0,96.1,92.11043768864145,92.32283464566929,91.46608315098467,409150.0,1057456.0,0.0,1.0,0.0,?,0.0,0.0,584.0,369.0,369.0,7.0,0.0,0.0,1.0
4200000.0,12.578125,2.86729941661987E-6,4200000.0,94.8,89.4704869899767,89.6414342629482,88.6710239651416,419150.0,1060720.0,0.0,1.0,0.0,?,0.0,0.0,586.0,370.0,370.0,7.0,0.0,0.0,1.0
4300000.0,12.921875,2.9717817152332927E-6,4300000.0,93.8,87.56832408978075,87.42393509127788,87.26899383983572,429100.0,1061768.0,0.0,1.0,0.0,?,0.0,0.0,586.0,370.0,370.0,7.0,0.0,0.0,1.0
4400000.0,13.28125,3.078532754443586E-6,4400000.0,95.3,90.45786028683264,90.82031249999999,89.57871396895786,439100.0,1065464.0,0.0,1.0,0.0,?,0.0,0.0,588.0,371.0,371.0,7.0,0.0,0.0,1.0
4500000.0,13.640625,3.1831038197399015E-6,4500000.0,93.5,86.68294761686226,86.28691983122364,85.09174311926607,449100.0,1072352.0,0.0,1.0,0.0,?,0.0,0.0,596.0,375.0,375.0,7.0,0.0,0.0,1.0
4600000.0,13.984375,3.287548412724088E-6,4600000.0,95.5,90.8954801116821,90.87221095334684,90.19607843137254,459050.0,1076248.0,0.0,1.0,0.0,?,0.0,0.0,606.0,380.0,380.0,7.0,0.0,0.0,1.0
4700000.0,14.328125,3.389800387796843E-6,4700000.0,96.0,91.73006946741647,91.47121535181236,90.47619047619047,469050.0,1081976.0,0.0,1.0,0.0,?,0.0,0.0,606.0,380.0,380.0,7.0,0.0,0.0,1.0
4800000.0,14.671875,3.496426215860993E-6,4800000.0,95.1,90.00864558015105,90.2195608782435,88.93905191873588,479000.0,1085376.0,0.0,1.0,0.0,?,0.0,0.0,610.0,382.0,382.0,7.0,0.0,0.0,1.0
4900000.0,15.046875,3.611564849658559E-6,4900000.0,94.69999999999999,89.17138630772877,89.2494929006085,88.00904977375565,489000.0,1103552.0,0.0,1.0,0.0,?,0.0,0.0,626.0,393.0,393.0,7.0,0.0,0.0,1.0
5000000.0,15.390625,3.714708242720614E-6,5000000.0,94.89999999999999,89.56056102773205,89.5277207392197,88.38268792710706,499000.0,1104752.0,0.0,1.0,0.0,?,0.0,0.0,628.0,394.0,394.0,7.0,0.0,0.0,1.0
5100000.0,15.828125,3.7300176336430015E-6,5100000.0,68.60000000000001,31.663960791653434,33.19148936170214,15.363881401617263,9494.0,38072.0,0.0,1.0,0.0,?,1.0,15.0,13.0,10.0,10.0,2.0,0.0,0.0,1.0
5200000.0,16.1875,3.7420911636824413E-6,5200000.0,77.3,52.52079045563308,53.48360655737705,40.41994750656169,19494.0,62992.0,0.0,1.0,0.0,?,0.0,0.0,20.0,15.0,15.0,4.0,0.0,0.0,1.0
5300000.0,16.5,3.7577638997592865E-6,5300000.0,78.3,53.12324482195474,51.77777777777778,41.8230563002681,29444.0,81144.0,0.0,1.0,0.0,?,0.0,0.0,28.0,19.0,19.0,4.0,0.0,0.0,1.0
5400000.0,16.84375,3.7788669578731066E-6,5400000.0,76.7,49.04386164424305,48.3370288248337,35.81267217630854,39444.0,154720.0,0.0,1.0,0.0,?,0.0,0.0,55.0,37.0,37.0,6.0,0.0,0.0,1.0
5500000.0,17.1875,3.801356587145064E-6,5500000.0,82.69999999999999,60.229153639607155,63.88308977035489,52.47252747252746,49444.0,200528.0,0.0,1.0,0.0,?,0.0,0.0,79.0,52.0,52.0,6.0,0.0,0.0,1.0
5600000.0,17.53125,3.830556395567126E-6,5600000.0,80.0,55.56325792418204,59.83935742971889,48.84910485933505,59394.0,230120.0,0.0,1.0,0.0,?,0.0,0.0,90.0,59.0,59.0,6.0,0.0,0.0,1.0
5700000.0,17.875,3.861275811990103E-6,5700000.0,80.30000000000001,53.88274512374408,55.92841163310962,47.32620320855616,69394.0,277392.0,0.0,1.0,0.0,?,0.0,0.0,107.0,69.0,69.0,6.0,0.0,0.0,1.0
5800000.0,18.21875,3.898496959461935E-6,5800000.0,81.6,57.64896516167045,61.42557651991613,50.53763440860214,79344.0,304640.0,0.0,1.0,0.0,?,0.0,0.0,118.0,76.0,76.0,6.0,0.0,0.0,1.0
5900000.0,18.546875,3.933276521921573E-6,5900000.0,79.0,52.002194185408676,55.789473684210535,46.15384615384617,89344.0,326056.0,0.0,1.0,0.0,?,0.0,0.0,132.0,83.0,83.0,7.0,0.0,0.0,1.0
6000000.0,18.890625,3.970594423460879E-6,6000000.0,83.0,62.054926609763925,64.1350210970464,55.95854922279791,99344.0,366224.0,0.0,1.0,0.0,?,0.0,0.0,145.0,91.0,91.0,7.0,0.0,0.0,1.0
6100000.0,19.21875,4.013401501449861E-6,6100000.0,80.7,56.98608399525733,60.206185567010316,51.62907268170428,109294.0,404936.0,0.0,1.0,0.0,?,0.0,0.0,162.0,101.0,101.0,7.0,0.0,0.0,1.0
6200000.0,19.578125,4.060736165330229E-6,6200000.0,81.0,57.5257639773769,58.24175824175825,50.649350649350666,119294.0,440080.0,0.0,1.0,0.0,?,0.0,0.0,178.0,112.0,112.0,7.0,0.0,0.0,1.0
6300000.0,19.9375,4.115933164333305E-6,6300000.0,83.1,60.87347082411119,62.85714285714285,51.15606936416184,129244.0,478696.0,0.0,1.0,0.0,?,0.0,0.0,199.0,124.0,124.0,7.0,0.0,0.0,1.0
6400000.0,20.3125,4.178642217690747E-6,6400000.0,84.0,64.06448627937166,65.59139784946235,56.63956639566394,139244.0,561504.0,0.0,1.0,0.0,?,0.0,0.0,228.0,143.0,143.0,8.0,0.0,0.0,1.0
6500000.0,20.6875,4.244451023017368E-6,6500000.0,84.89999999999999,67.55005028667703,68.73706004140786,61.57760814249363,149244.0,623608.0,0.0,1.0,0.0,?,0.0,0.0,252.0,158.0,158.0,9.0,0.0,0.0,1.0
6600000.0,21.09375,4.325838268010154E-6,6600000.0,83.2,62.45172364468602,63.557483731019516,55.3191489361702,159194.0,673752.0,0.0,1.0,0.0,?,0.0,0.0,275.0,174.0,174.0,9.0,0.0,0.0,1.0
6700000.0,21.453125,4.396169388201089E-6,6700000.0,86.2,69.77449142296437,69.40133037694012,63.49206349206349,169194.0,686192.0,0.0,1.0,0.0,?,0.0,0.0,275.0,174.0,174.0,9.0,0.0,0.0,1.0
6800000.0,21.828125,4.476637210852157E-6,6800000.0,85.1,66.48039665613837,67.03539823008849,58.26330532212884,179144.0,713264.0,0.0,1.0,0.0,?,0.0,0.0,287.0,180.0,180.0,9.0,0.0,0.0,1.0
6900000.0,22.203125,4.558914127604416E-6,6900000.0,83.8,64.29704855601396,65.16129032258064,57.59162303664921,189144.0,762072.0,0.0,1.0,0.0,?,0.0,0.0,310.0,193.0,193.0,9.0,0.0,0.0,1.0
7000000.0,22.59375,4.6500834933896046E-6,7000000.0,83.0,63.69739859829249,64.73029045643153,57.39348370927318,199144.0,846256.0,0.0,1.0,0.0,?,0.0,0.0,342.0,215.0,215.0,10.0,0.0,0.0,1.0
7100000.0,22.953125,4.742412194092242E-6,7100000.0,87.8,72.46944559781922,71.95402298850576,66.29834254143645,209094.0,891256.0,0.0,1.0,0.0,?,0.0,0.0,362.0,228.0,228.0,10.0,0.0,0.0,1.0
7200000.0,23.40625,4.858205825763032E-6,7200000.0,85.7,67.40042311059236,69.76744186046511,59.8314606741573,219094.0,916216.0,0.0,1.0,0.0,?,0.0,0.0,374.0,234.0,234.0,10.0,0.0,0.0,1.0
7300000.0,23.78125,4.961974563128834E-6,7300000.0,88.1,74.0921362013411,74.46351931330472,69.25064599483204,229044.0,952200.0,0.0,1.0,0.0,?,0.0,0.0,386.0,243.0,243.0,10.0,0.0,0.0,1.0
7400000.0,24.1875,5.07704839239725E-6,7400000.0,85.3,67.96408490607156,68.04347826086956,61.21372031662269,239044.0,1007632.0,0.0,1.0,0.0,?,0.0,0.0,416.0,261.0,261.0,10.0,0.0,0.0,1.0
7500000.0,24.5625,5.183588590524679E-6,7500000.0,87.0,72.46077779237122,73.41513292433538,68.3698296836983,249044.0,1041216.0,0.0,1.0,0.0,?,0.0,0.0,430.0,271.0,271.0,11.0,0.0,0.0,1.0
7600000.0,24.9375,5.296499035062477E-6,7600000.0,87.5,72.15092859943678,72.03579418344519,65.37396121883657,258994.0,1061016.0,0.0,1.0,0.0,?,0.0,0.0,438.0,275.0,275.0,11.0,0.0,0.0,1.0
7700000.0,25.3125,5.406900341363832E-6,7700000.0,87.1,71.68195987180049,72.43589743589743,65.13513513513513,268994.0,1065528.0,0.0,1.0,0.0,?,0.0,0.0,440.0,276.0,276.0,11.0,0.0,0.0,1.0
7800000.0,25.640625,5.5088038142356625E-6,7800000.0,87.8,73.26003954007268,73.12775330396477,66.93766937669376,278944.0,1082128.0,0.0,1.0,0.0,?,0.0,0.0,452.0,282.0,282.0,11.0,0.0,0.0,1.0
7900000.0,26.0,5.618883199834577E-6,7900000.0,86.9,71.02590416873097,71.1453744493392,64.78494623655914,288944.0,1096016.0,0.0,1.0,0.0,?,0.0,0.0,467.0,291.0,291.0,12.0,0.0,0.0,1.0
8000000.0,26.328125,5.717828559378784E-6,8000000.0,86.5,70.25671757541573,71.875,63.903743315508024,298944.0,1107952.0,0.0,1.0,0.0,?,0.0,0.0,471.0,293.0,293.0,12.0,0.0,0.0,1.0
8100000.0,26.65625,5.822891156033925E-6,8100000.0,87.0,70.72915916132287,72.57383966244726,63.48314606741573,308894.0,1134152.0,0.0,1.0,0.0,?,0.0,0.0,486.0,302.0,302.0,12.0,0.0,0.0,1.0
8200000.0,26.984375,5.92734868405387E-6,8200000.0,85.5,69.05676483141272,67.70601336302894,63.74999999999999,318894.0,1157320.0,0.0,1.0,0.0,?,0.0,0.0,499.0,310.0,310.0,12.0,0.0,0.0,1.0
8300000.0,27.34375,6.051678598547977E-6,8300000.0,85.1,67.35863440794259,69.02286902286902,61.09660574412532,328844.0,1218104.0,0.0,1.0,0.0,?,0.0,0.0,517.0,322.0,322.0,13.0,0.0,0.0,1.0
8400000.0,27.703125,6.175922236353575E-6,8400000.0,87.4,71.33431919008076,72.60869565217392,63.47826086956522,338844.0,1247496.0,0.0,1.0,0.0,?,0.0,0.0,531.0,332.0,332.0,13.0,0.0,0.0,1.0
8500000.0,28.015625,6.282082015079344E-6,8500000.0,88.0,73.41745232863117,72.97297297297297,67.3913043478261,348844.0,1254632.0,0.0,1.0,0.0,?,0.0,0.0,535.0,334.0,334.0,13.0,0.0,0.0,1.0
8600000.0,28.359375,6.404691472804796E-6,8600000.0,87.8,73.21365839949414,75.45271629778672,68.22916666666666,358794.0,1274352.0,0.0,1.0,0.0,?,0.0,0.0,547.0,340.0,340.0,13.0,0.0,0.0,1.0
8700000.0,28.6875,6.521282290729385E-6,8700000.0,87.7,73.17924116877454,73.66167023554604,68.05194805194805,368794.0,1299416.0,0.0,1.0,0.0,?,0.0,0.0,556.0,346.0,346.0,13.0,0.0,0.0,1.0
8800000.0,29.03125,6.6478721823336365E-6,8800000.0,88.1,74.09890301236287,75.4639175257732,68.6842105263158,378744.0,1303672.0,0.0,1.0,0.0,?,0.0,0.0,563.0,351.0,351.0,13.0,0.0,0.0,1.0
8900000.0,29.359375,6.766137634662706E-6,8900000.0,87.6,73.15924361016832,73.94957983193278,68.36734693877551,388744.0,1303792.0,0.0,1.0,0.0,?,0.0,0.0,563.0,351.0,351.0,13.0,0.0,0.0,1.0
9000000.0,29.6875,6.882517255790948E-6,9000000.0,88.2,73.85864171274635,75.26205450733752,68.61702127659575,398744.0,1311928.0,0.0,1.0,0.0,?,0.0,0.0,567.0,353.0,353.0,13.0,0.0,0.0,1.0
9100000.0,30.03125,7.009627200507872E-6,9100000.0,89.0,75.1944976885782,77.27272727272727,69.01408450704226,408694.0,1324488.0,0.0,1.0,0.0,?,0.0,0.0,574.0,358.0,358.0,13.0,0.0,0.0,1.0
9200000.0,30.421875,7.156068782529072E-6,9200000.0,87.5,72.51297387633038,73.40425531914893,67.44791666666666,418694.0,1374512.0,0.0,1.0,0.0,?,0.0,0.0,597.0,374.0,374.0,13.0,0.0,0.0,1.0
9300000.0,30.765625,7.290868541329274E-6,9300000.0,86.4,71.01461630598335,72.46963562753037,67.07021791767555,428644.0,1395392.0,0.0,1.0,0.0,?,0.0,0.0,604.0,379.0,379.0,13.0,0.0,0.0,1.0
9400000.0,31.09375,7.417653169896871E-6,9400000.0,88.6,75.62029247094752,77.29083665338645,71.712158808933,438644.0,1403528.0,0.0,1.0,0.0,?,0.0,0.0,613.0,385.0,385.0,13.0,0.0,0.0,1.0
9500000.0,31.453125,7.5548903744978244E-6,9500000.0,85.9,69.37764959343943,71.28309572301426,64.48362720403023,448644.0,1416408.0,0.0,1.0,0.0,?,0.0,0.0,619.0,388.0,388.0,13.0,0.0,0.0,1.0
9600000.0,31.796875,7.690838376422312E-6,9600000.0,89.9,78.33492067577887,79.17525773195877,74.30025445292621,458594.0,1423192.0,0.0,1.0,0.0,?,0.0,0.0,627.0,392.0,392.0,13.0,0.0,0.0,1.0
9700000.0,32.140625,7.826565835987117E-6,9700000.0,87.3,71.91806265588792,73.20675105485232,65.95174262734585,468594.0,1451000.0,0.0,1.0,0.0,?,0.0,0.0,638.0,399.0,399.0,13.0,0.0,0.0,1.0
9800000.0,32.5,7.975624434442986E-6,9800000.0,87.5,73.12637055510169,73.73949579831933,68.35443037974683,478544.0,1482192.0,0.0,1.0,0.0,?,0.0,0.0,647.0,405.0,405.0,13.0,0.0,0.0,1.0
9900000.0,32.84375,8.117776790944241E-6,9900000.0,88.2,73.01302693208432,74.00881057268722,66.47727272727273,488544.0,1507752.0,0.0,1.0,0.0,?,0.0,0.0,659.0,414.0,414.0,13.0,0.0,0.0,1.0
1.0E7,33.234375,8.27928283898574E-6,1.0E7,87.4,72.49160557328804,73.96694214876032,67.60925449871465,498544.0,1537696.0,0.0,1.0,0.0,?,0.0,0.0,669.0,419.0,419.0,13.0,0.0,0.0,1.0
