learning evaluation instances,evaluation time (cpu seconds),model cost (RAM-Hours),classified instances,classifications correct (percent),Kappa Statistic (percent),Kappa Temporal Statistic (percent),Kappa M Statistic (percent),model training instances,model serialized size (bytes),labeling cost,newThreshold,maxPosterior,accuracyBaseLearner (percent),Change detected,Warning detected,tree size (nodes),tree size (leaves),active learning leaves,tree depth,active leaf byte size estimate,inactive leaf byte size estimate,byte size estimate overhead
100000.0,0.484375,1.5600364551775984E-8,100000.0,89.8,73.8547348562523,75.00000000000001,63.82978723404257,49816.0,41024.0,0.0,1.0,0.0,?,12.0,81.0,43.0,22.0,22.0,7.0,0.0,0.0,1.0
200000.0,0.90625,3.2055088215404085E-8,200000.0,91.8,79.63795286931044,80.6146572104019,72.01365187713313,109816.0,76440.0,0.0,1.0,0.0,?,0.0,0.0,81.0,41.0,41.0,8.0,0.0,0.0,1.0
300000.0,1.34375,5.4229620016283455E-8,300000.0,89.7,74.23093088885776,76.046511627907,65.78073089700997,169816.0,130496.0,0.0,1.0,0.0,?,0.0,0.0,139.0,70.0,70.0,9.0,0.0,0.0,1.0
400000.0,1.8125,8.299099540130959E-8,400000.0,88.7,71.03247439065656,73.15914489311164,60.62717770034845,229816.0,180704.0,0.0,1.0,0.0,?,0.0,0.0,193.0,97.0,97.0,9.0,0.0,0.0,1.0
500000.0,2.265625,1.1362672214292817E-7,500000.0,88.9,72.11839884253678,73.69668246445498,63.12292358803988,289816.0,214040.0,0.0,1.0,0.0,?,0.0,0.0,229.0,115.0,115.0,9.0,0.0,0.0,1.0
600000.0,2.71875,1.5231619019889167E-7,600000.0,88.8,71.4867617107943,74.07407407407408,62.66666666666667,349516.0,243960.0,0.0,1.0,0.0,?,0.0,0.0,261.0,131.0,131.0,10.0,0.0,0.0,1.0
700000.0,3.21875,1.9794892674932875E-7,700000.0,90.8,76.54389605886463,76.3496143958869,67.94425087108016,409516.0,275888.0,0.0,1.0,0.0,?,0.0,0.0,295.0,148.0,148.0,10.0,0.0,0.0,1.0
800000.0,3.71875,2.464801461125413E-7,800000.0,89.3,72.26772273943064,72.20779220779221,62.71777003484321,469516.0,307480.0,0.0,1.0,0.0,?,0.0,0.0,331.0,166.0,166.0,11.0,0.0,0.0,1.0
900000.0,4.21875,2.981550965665115E-7,900000.0,89.3,72.40475772924684,74.15458937198068,62.97577854671281,529516.0,340960.0,0.0,1.0,0.0,?,0.0,0.0,365.0,183.0,183.0,11.0,0.0,0.0,1.0
1000000.0,4.75,3.579535081775652E-7,1000000.0,89.9,73.2521186440678,73.83419689119172,63.27272727272728,589516.0,385576.0,0.0,1.0,0.0,?,0.0,0.0,417.0,209.0,209.0,12.0,0.0,0.0,1.0
1100000.0,5.265625,4.279643245455291E-7,1100000.0,89.0,73.52294116797528,76.08695652173914,65.29968454258675,649216.0,436192.0,0.0,1.0,0.0,?,0.0,0.0,467.0,234.0,234.0,12.0,0.0,0.0,1.0
1200000.0,5.78125,5.019673133372432E-7,1200000.0,91.60000000000001,78.36389861941068,79.51219512195124,70.00000000000001,709216.0,475216.0,0.0,1.0,0.0,?,0.0,0.0,509.0,255.0,255.0,12.0,0.0,0.0,1.0
1300000.0,6.3125,5.825293677238127E-7,1300000.0,91.60000000000001,78.5231055589362,79.95226730310263,71.33105802047783,769216.0,515696.0,0.0,1.0,0.0,?,0.0,0.0,553.0,277.0,277.0,12.0,0.0,0.0,1.0
1400000.0,6.84375,6.674739415757358E-7,1400000.0,89.5,74.31154952733252,74.39024390243904,66.45367412140575,829216.0,556656.0,0.0,1.0,0.0,?,0.0,0.0,597.0,299.0,299.0,12.0,0.0,0.0,1.0
1500000.0,7.375,7.560522903481292E-7,1500000.0,89.8,73.8594252148909,74.37185929648243,63.95759717314489,889216.0,592240.0,0.0,1.0,0.0,?,0.0,0.0,635.0,318.0,318.0,12.0,0.0,0.0,1.0
1600000.0,7.921875,8.582710870541633E-7,1600000.0,90.60000000000001,76.28466475598434,77.5656324582339,68.24324324324326,948916.0,631336.0,0.0,1.0,0.0,?,0.0,0.0,677.0,339.0,339.0,13.0,0.0,0.0,1.0
1700000.0,8.484375,9.664756362326443E-7,1700000.0,89.4,73.33789439793948,74.3961352657005,65.35947712418302,1008916.0,661616.0,0.0,1.0,0.0,?,0.0,0.0,709.0,355.0,355.0,13.0,1735.659090909091,0.0,1.0737733897261978
1800000.0,9.015625,1.0753085694482756E-6,1800000.0,89.1,72.23439267191752,72.88557213930349,61.888111888111894,1068916.0,718776.0,0.0,1.0,0.0,?,0.0,0.0,773.0,387.0,387.0,13.0,1735.659090909091,0.0,1.0737733897261978
1900000.0,9.578125,1.1958123973777725E-6,1900000.0,90.2,75.6895003448122,77.10280373831776,67.22408026755853,1128916.0,764016.0,0.0,1.0,0.0,?,0.0,0.0,819.0,410.0,410.0,13.0,1735.659090909091,0.0,1.0737733897261978
2000000.0,10.109375,1.3124395304152536E-6,2000000.0,89.3,70.94854362605618,71.0810810810811,59.46969696969697,1188916.0,793720.0,0.0,1.0,0.0,?,0.0,0.0,855.0,428.0,428.0,13.0,1735.659090909091,0.0,1.0737733897261978
2100000.0,10.671875,1.447554645387249E-6,2100000.0,91.0,77.63919600486969,78.72340425531917,70.0996677740864,1248616.0,834608.0,0.0,1.0,0.0,?,0.0,0.0,897.0,449.0,449.0,13.0,1735.659090909091,0.0,1.0737733897261978
2200000.0,11.234375,1.5869538442024757E-6,2200000.0,90.4,74.62626604360054,76.1786600496278,65.46762589928059,1308616.0,873152.0,0.0,1.0,0.0,?,0.0,0.0,937.0,469.0,469.0,13.0,1735.659090909091,0.0,1.0737733897261978
2300000.0,11.8125,1.7346438835375014E-6,2300000.0,88.5,71.73752764807078,72.55369928400955,62.90322580645162,1368616.0,911792.0,0.0,1.0,0.0,?,0.0,0.0,979.0,490.0,490.0,14.0,1735.659090909091,0.0,1.0737733897261978
2400000.0,12.390625,1.886780082713813E-6,2400000.0,89.4,72.31436257737614,71.35135135135135,62.00716845878137,1428616.0,950608.0,0.0,1.0,0.0,?,0.0,0.0,1027.0,514.0,514.0,14.0,1735.659090909091,0.0,1.0737733897261978
2500000.0,12.984375,2.0481461413308154E-6,2500000.0,89.1,72.08592413517584,74.10926365795724,62.54295532646049,1488616.0,993000.0,0.0,1.0,0.0,?,0.0,0.0,1067.0,534.0,534.0,15.0,1735.659090909091,0.0,1.0737733897261978
2600000.0,13.5625,2.2172126854355967E-6,2600000.0,89.1,73.7993365703572,74.23167848699764,66.96969696969697,1548316.0,1033960.0,0.0,1.0,0.0,?,0.0,0.0,1109.0,555.0,555.0,15.0,1735.659090909091,0.0,1.0737733897261978
2700000.0,14.15625,2.3934475676570503E-6,2700000.0,90.9,77.363184079602,79.41176470588236,69.66666666666667,1608316.0,1060128.0,0.0,1.0,0.0,?,0.0,0.0,1141.0,571.0,571.0,15.0,1735.659090909091,0.0,1.0737733897261978
2800000.0,14.78125,2.5838590550443364E-6,2800000.0,90.5,74.23295577832748,76.01010101010101,64.55223880597016,1668316.0,1099536.0,0.0,1.0,0.0,?,0.0,0.0,1183.0,592.0,592.0,15.0,1735.659090909091,0.0,1.0737733897261978
2900000.0,15.390625,2.7753582819261483E-6,2900000.0,89.60000000000001,73.6224047236186,74.44717444717446,65.21739130434784,1728316.0,1145632.0,0.0,1.0,0.0,?,0.0,0.0,1233.0,617.0,617.0,15.0,1735.659090909091,0.0,1.0737733897261978
3000000.0,15.96875,2.961671044532623E-6,3000000.0,89.9,75.03830754782265,76.67436489607391,67.4193548387097,1788316.0,1185704.0,0.0,1.0,0.0,?,0.0,0.0,1273.0,637.0,637.0,15.0,1735.659090909091,0.0,1.0737733897261978
3100000.0,16.578125,3.1717018444194558E-6,3100000.0,88.7,72.37731126125688,72.30392156862746,63.43042071197412,1848016.0,1233168.0,0.0,1.0,0.0,?,0.0,0.0,1325.0,663.0,663.0,15.0,1735.659090909091,0.0,1.0737733897261978
3200000.0,17.203125,3.3938468550331887E-6,3200000.0,88.3,71.22677238163628,72.66355140186917,62.738853503184714,1908016.0,1283736.0,0.0,1.0,0.0,?,0.0,0.0,1379.0,690.0,690.0,16.0,1735.659090909091,0.0,1.0737733897261978
3300000.0,17.8125,3.613350272644311E-6,3300000.0,89.3,72.37569060773481,73.18295739348372,62.4561403508772,1968016.0,1311456.0,0.0,1.0,0.0,?,0.0,0.0,1407.0,704.0,704.0,16.0,1735.659090909091,0.0,1.0737733897261978
3400000.0,18.484375,3.858697147936457E-6,3400000.0,90.7,75.1933849026407,77.64423076923079,66.1818181818182,2028016.0,1339848.0,0.0,1.0,0.0,?,0.0,0.0,1439.0,720.0,720.0,16.0,1733.0112359550562,0.0,1.0738728458615905
3500000.0,19.109375,4.092142205788858E-6,3500000.0,88.9,70.44759906710259,70.94240837696336,59.34065934065935,2088016.0,1381168.0,0.0,1.0,0.0,?,0.0,0.0,1485.0,743.0,743.0,16.0,1733.0112359550562,0.0,1.0738728458615905
3600000.0,19.75,4.343953914940358E-6,3600000.0,88.3,70.72072072072073,73.34851936218678,61.00000000000001,2147716.0,1417896.0,0.0,1.0,0.0,?,0.0,0.0,1525.0,763.0,763.0,16.0,1733.0112359550562,0.0,1.0738728458615905
3700000.0,20.40625,4.6069109036276744E-6,3700000.0,89.7,73.27035864431411,74.25,64.48275862068967,2207716.0,1456464.0,0.0,1.0,0.0,?,0.0,0.0,1567.0,784.0,784.0,16.0,1733.0112359550562,0.0,1.0738728458615905
3800000.0,21.046875,4.869239184901947E-6,3800000.0,90.3,76.18275926417004,77.3892773892774,68.30065359477125,2267716.0,1499504.0,0.0,1.0,0.0,?,0.0,0.0,1611.0,806.0,806.0,16.0,1733.0112359550562,0.0,1.0738728458615905
3900000.0,21.703125,5.140235233638022E-6,3900000.0,91.2,78.44574205431674,78.5888077858881,71.05263157894738,2327716.0,1522184.0,0.0,1.0,0.0,?,0.0,0.0,1635.0,818.0,818.0,16.0,1733.0112359550562,0.0,1.0738728458615905
4000000.0,22.34375,5.409724383045816E-6,4000000.0,89.60000000000001,74.14427494580242,76.62921348314606,65.1006711409396,2387716.0,1561112.0,0.0,1.0,0.0,?,0.0,0.0,1679.0,840.0,840.0,16.0,1733.0112359550562,0.0,1.0738728458615905
4100000.0,22.984375,5.6914881699615054E-6,4100000.0,88.5,70.76766649720388,72.28915662650603,61.016949152542374,2447416.0,1596240.0,0.0,1.0,0.0,?,0.0,0.0,1713.0,857.0,857.0,16.0,1733.0112359550562,0.0,1.0738728458615905
4200000.0,23.640625,5.985148147576385E-6,4200000.0,88.4,70.78085642317382,71.07231920199501,60.54421768707484,2507416.0,1634928.0,0.0,1.0,0.0,?,0.0,0.0,1755.0,878.0,878.0,16.0,1733.0112359550562,0.0,1.0738728458615905
4300000.0,24.28125,6.275950193715592E-6,4300000.0,87.8,69.72449288525583,70.88305489260144,58.922558922558935,2567416.0,1669032.0,0.0,1.0,0.0,?,0.0,0.0,1793.0,897.0,897.0,16.0,1733.0112359550562,0.0,1.0738728458615905
4400000.0,25.0,6.608897884790268E-6,4400000.0,89.8,75.0562457204343,75.24271844660196,66.22516556291393,2627416.0,1713984.0,0.0,1.0,0.0,?,0.0,0.0,1843.0,922.0,922.0,16.0,1733.0112359550562,0.0,1.0738728458615905
4500000.0,25.671875,6.926391700593133E-6,4500000.0,90.5,76.0456695613584,76.13065326633168,67.68707482993199,2687416.0,1759016.0,0.0,1.0,0.0,?,0.0,0.0,1889.0,945.0,945.0,16.0,1733.0112359550562,0.0,1.0738728458615905
4600000.0,26.34375,7.257559854123327E-6,4600000.0,89.2,73.02912854117555,74.82517482517483,64.47368421052633,2747116.0,1798784.0,0.0,1.0,0.0,?,0.0,0.0,1931.0,966.0,966.0,17.0,1733.0112359550562,0.0,1.0738728458615905
4700000.0,27.03125,7.600171698464288E-6,4700000.0,90.10000000000001,74.76138032305434,76.97674418604652,66.09589041095892,2807116.0,1829016.0,0.0,1.0,0.0,?,0.0,0.0,1969.0,985.0,985.0,17.0,1733.0112359550562,0.0,1.0738728458615905
4800000.0,27.71875,7.947298258336054E-6,4800000.0,91.4,78.15429166560826,78.60696517412936,69.61130742049471,2867116.0,1863560.0,0.0,1.0,0.0,?,0.0,0.0,2007.0,1004.0,1004.0,17.0,1733.0112359550562,0.0,1.0738728458615905
4900000.0,28.40625,8.301186220099529E-6,4900000.0,91.60000000000001,78.67240818979526,80.73394495412846,70.62937062937064,2927116.0,1910584.0,0.0,1.0,0.0,?,0.0,0.0,2051.0,1026.0,1026.0,17.0,1733.0112359550562,0.0,1.0738728458615905
5000000.0,29.109375,8.668168059860667E-6,5000000.0,90.2,75.0248477280257,75.68238213399503,66.08996539792389,2987116.0,1946840.0,0.0,1.0,0.0,?,0.0,0.0,2089.0,1045.0,1045.0,17.0,1733.0112359550562,0.0,1.0738728458615905
5100000.0,29.875,8.687802118300979E-6,5100000.0,88.0,75.70958378371813,75.90361445783132,73.39246119733924,16799.0,15024.0,0.0,1.0,0.0,?,26.0,134.0,17.0,9.0,9.0,4.0,0.0,0.0,1.0
5200000.0,30.34375,8.704598908985243E-6,5200000.0,91.5,82.99659931986399,83.201581027668,82.58196721311477,76799.0,63392.0,0.0,1.0,0.0,?,0.0,0.0,67.0,34.0,34.0,7.0,0.0,0.0,1.0
5300000.0,30.828125,8.725247688643223E-6,5300000.0,89.4,78.64203650196856,78.49898580121705,76.80525164113786,136799.0,98808.0,0.0,1.0,0.0,?,0.0,0.0,105.0,53.0,53.0,8.0,0.0,0.0,1.0
5400000.0,31.265625,8.746619989526358E-6,5400000.0,89.2,78.2733772425697,79.3103448275862,76.97228144989339,196799.0,132024.0,0.0,1.0,0.0,?,0.0,0.0,141.0,71.0,71.0,9.0,0.0,0.0,1.0
5500000.0,31.734375,8.773617672785707E-6,5500000.0,89.1,78.05056826877382,77.70961145194273,76.45788336933046,256799.0,174872.0,0.0,1.0,0.0,?,0.0,0.0,187.0,94.0,94.0,10.0,0.0,0.0,1.0
5600000.0,32.265625,8.81732632276706E-6,5600000.0,88.7,77.27016719501795,77.30923694779118,76.0593220338983,316499.0,231152.0,0.0,1.0,0.0,?,0.0,0.0,247.0,124.0,124.0,11.0,0.0,0.0,1.0
5700000.0,32.765625,8.862823500142747E-6,5700000.0,90.60000000000001,80.86942364050799,80.08474576271188,78.0373831775701,376499.0,273904.0,0.0,1.0,0.0,?,0.0,0.0,293.0,147.0,147.0,12.0,0.0,0.0,1.0
5800000.0,33.265625,8.912896575768379E-6,5800000.0,89.7,79.21358745227197,78.54166666666667,77.7056277056277,436499.0,318304.0,0.0,1.0,0.0,?,0.0,0.0,341.0,171.0,171.0,12.0,0.0,0.0,1.0
5900000.0,33.78125,8.967289791649418E-6,5900000.0,89.2,78.03306430617027,78.65612648221344,75.56561085972851,496499.0,348176.0,0.0,1.0,0.0,?,0.0,0.0,373.0,187.0,187.0,13.0,0.0,0.0,1.0
6000000.0,34.296875,9.025491631796794E-6,6000000.0,90.4,80.5564107134177,80.7615230460922,78.47533632286996,556499.0,385840.0,0.0,1.0,0.0,?,0.0,0.0,415.0,208.0,208.0,13.0,0.0,0.0,1.0
6100000.0,34.8125,9.092563543365236E-6,6100000.0,89.2,78.26095708149323,79.7752808988764,76.57266811279827,616199.0,413488.0,0.0,1.0,0.0,?,0.0,0.0,443.0,222.0,222.0,14.0,0.0,0.0,1.0
6200000.0,35.34375,9.16580417348693E-6,6200000.0,91.4,82.73390538983229,81.89473684210526,81.74097664543525,676199.0,452680.0,0.0,1.0,0.0,?,0.0,0.0,485.0,243.0,243.0,14.0,0.0,0.0,1.0
6300000.0,35.875,9.243695595715611E-6,6300000.0,91.3,82.45868718395394,82.53012048192771,81.16883116883118,736199.0,495552.0,0.0,1.0,0.0,?,0.0,0.0,535.0,268.0,268.0,15.0,0.0,0.0,1.0
6400000.0,36.40625,9.32499430038863E-6,6400000.0,89.3,78.49021405252408,77.75467775467776,77.2823779193206,796199.0,529512.0,0.0,1.0,0.0,?,0.0,0.0,571.0,286.0,286.0,15.0,0.0,0.0,1.0
6500000.0,36.9375,9.411894845672782E-6,6500000.0,89.5,78.78462147723691,78.87323943661973,76.82119205298014,856199.0,579240.0,0.0,1.0,0.0,?,0.0,0.0,621.0,311.0,311.0,16.0,0.0,0.0,1.0
6600000.0,37.46875,9.510986403458651E-6,6600000.0,90.5,80.76455819227343,81.40900195694717,78.84187082405344,915899.0,628896.0,0.0,1.0,0.0,?,0.0,0.0,675.0,338.0,338.0,16.0,0.0,0.0,1.0
6700000.0,38.03125,9.620380717226204E-6,6700000.0,88.7,77.30850790386839,78.26923076923077,76.40918580375782,975899.0,668736.0,0.0,1.0,0.0,?,0.0,0.0,717.0,359.0,359.0,16.0,0.0,0.0,1.0
6800000.0,38.609375,9.73642955715251E-6,6800000.0,89.1,78.02862326143922,76.95560253699789,75.77777777777777,1035899.0,702072.0,0.0,1.0,0.0,?,0.0,0.0,755.0,378.0,378.0,17.0,1729.1739130434783,0.0,1.0740489301249654
6900000.0,39.171875,9.853153379582285E-6,6900000.0,90.0,79.79806142197405,79.33884297520662,77.8270509977827,1095899.0,737416.0,0.0,1.0,0.0,?,0.0,0.0,791.0,396.0,396.0,17.0,1729.1739130434783,0.0,1.0740489301249654
7000000.0,39.75,9.977885153299821E-6,7000000.0,89.0,77.31397459165154,76.03485838779956,72.97297297297298,1155899.0,778352.0,0.0,1.0,0.0,?,0.0,0.0,835.0,418.0,418.0,17.0,1729.1739130434783,0.0,1.0740489301249654
7100000.0,40.328125,1.0115808238171873E-5,7100000.0,90.8,81.54626271703201,82.50950570342206,80.59071729957806,1215599.0,827416.0,0.0,1.0,0.0,?,0.0,0.0,891.0,446.0,446.0,17.0,1729.1739130434783,0.0,1.0740489301249654
7200000.0,40.90625,1.0259789156003135E-5,7200000.0,90.60000000000001,80.91021709550985,80.77709611451944,78.87640449438203,1275599.0,876880.0,0.0,1.0,0.0,?,0.0,0.0,943.0,472.0,472.0,17.0,1729.1739130434783,0.0,1.0740489301249654
7300000.0,41.5,1.0413505757848426E-5,7300000.0,88.3,76.48335745296671,75.0,75.05330490405117,1335599.0,923936.0,0.0,1.0,0.0,?,0.0,0.0,991.0,496.0,496.0,18.0,1729.1739130434783,0.0,1.0740489301249654
7400000.0,42.09375,1.0570105191113224E-5,7400000.0,89.3,78.16611707858566,78.3838383838384,75.00000000000001,1395599.0,951944.0,0.0,1.0,0.0,?,0.0,0.0,1021.0,511.0,511.0,18.0,1729.1739130434783,0.0,1.0740489301249654
7500000.0,42.671875,1.0727291777988693E-5,7500000.0,88.7,76.90144069598207,77.62376237623762,73.34905660377359,1455599.0,992496.0,0.0,1.0,0.0,?,0.0,0.0,1065.0,533.0,533.0,18.0,1729.1739130434783,0.0,1.0740489301249654
7600000.0,43.25,1.0896108255514672E-5,7600000.0,89.3,78.61710631494803,78.93700787401575,78.85375494071147,1515299.0,1031352.0,0.0,1.0,0.0,?,0.0,0.0,1107.0,554.0,554.0,18.0,1729.1739130434783,0.0,1.0740489301249654
7700000.0,43.828125,1.1067835795175701E-5,7700000.0,90.8,81.44300784638038,82.7392120075047,79.69094922737308,1575299.0,1060056.0,0.0,1.0,0.0,?,0.0,0.0,1137.0,569.0,569.0,18.0,1729.1739130434783,0.0,1.0740489301249654
7800000.0,44.421875,1.12485276379933E-5,7800000.0,90.60000000000001,80.58613354261757,80.65843621399178,76.90417690417691,1635299.0,1097312.0,0.0,1.0,0.0,?,0.0,0.0,1179.0,590.0,590.0,18.0,1729.1739130434783,0.0,1.0740489301249654
7900000.0,45.03125,1.1438397438420607E-5,7900000.0,89.9,79.67659629268921,79.04564315352698,78.37259100642399,1695299.0,1134496.0,0.0,1.0,0.0,?,0.0,0.0,1217.0,609.0,609.0,18.0,1729.1739130434783,0.0,1.0740489301249654
8000000.0,45.640625,1.1631492040275289E-5,8000000.0,89.7,79.33287317206286,80.26819923371647,78.13163481953292,1755299.0,1164168.0,0.0,1.0,0.0,?,0.0,0.0,1249.0,625.0,625.0,18.0,1729.1739130434783,0.0,1.0740489301249654
8100000.0,46.25,1.1836542495681596E-5,8100000.0,88.7,77.23573304968654,76.35983263598327,75.38126361655773,1814999.0,1201024.0,0.0,1.0,0.0,?,0.0,0.0,1291.0,646.0,646.0,18.0,1729.1739130434783,0.0,1.0740489301249654
8200000.0,46.859375,1.2046125581643235E-5,8200000.0,88.3,76.42687899937138,76.96850393700787,74.78448275862068,1874999.0,1238904.0,0.0,1.0,0.0,?,0.0,0.0,1329.0,665.0,665.0,18.0,1729.1739130434783,0.0,1.0740489301249654
8300000.0,47.484375,1.2266741671030308E-5,8300000.0,89.1,78.0098290012024,78.91682785299807,75.93818984547461,1934999.0,1282920.0,0.0,1.0,0.0,?,0.0,0.0,1379.0,690.0,690.0,18.0,1729.1739130434783,0.0,1.0740489301249654
8400000.0,48.109375,1.2490297894045298E-5,8400000.0,90.5,80.77063209968505,81.03792415169661,79.25764192139738,1994999.0,1310360.0,0.0,1.0,0.0,?,0.0,0.0,1409.0,705.0,705.0,18.0,1729.1739130434783,0.0,1.0740489301249654
8500000.0,48.78125,1.2736714076406014E-5,8500000.0,89.0,77.62189961591042,76.74418604651163,74.65437788018434,2054999.0,1354448.0,0.0,1.0,0.0,?,0.0,0.0,1455.0,728.0,728.0,18.0,1732.2824858757062,0.0,1.0739039965559303
8600000.0,49.4375,1.298963548227524E-5,8600000.0,88.5,76.81825512014191,76.81451612903226,75.0,2114699.0,1387688.0,0.0,1.0,0.0,?,0.0,0.0,1491.0,746.0,746.0,18.0,1732.2824858757062,0.0,1.0739039965559303
8700000.0,50.09375,1.3248949835542591E-5,8700000.0,89.7,78.78825322294988,79.14979757085021,76.046511627907,2174699.0,1434336.0,0.0,1.0,0.0,?,0.0,0.0,1543.0,772.0,772.0,18.0,1732.2824858757062,0.0,1.0739039965559303
8800000.0,50.734375,1.3507533941366194E-5,8800000.0,90.4,80.60598224639291,80.80000000000001,79.08496732026144,2234699.0,1476256.0,0.0,1.0,0.0,?,0.0,0.0,1587.0,794.0,794.0,18.0,1732.2824858757062,0.0,1.0739039965559303
8900000.0,51.421875,1.379073309686242E-5,8900000.0,91.0,81.8840579710145,82.5242718446602,80.43478260869566,2294699.0,1517328.0,0.0,1.0,0.0,?,0.0,0.0,1631.0,816.0,816.0,18.0,1732.2824858757062,0.0,1.0739039965559303
9000000.0,52.078125,1.406554970243532E-5,9000000.0,89.60000000000001,79.0667809942474,79.92277992277992,77.5377969762419,2354699.0,1552920.0,0.0,1.0,0.0,?,0.0,0.0,1673.0,837.0,837.0,19.0,1732.2824858757062,0.0,1.0739039965559303
9100000.0,52.734375,1.4352536947828615E-5,9100000.0,88.5,76.8246086381737,76.86116700201208,74.83588621444201,2414399.0,1585704.0,0.0,1.0,0.0,?,0.0,0.0,1703.0,852.0,852.0,19.0,1732.2824858757062,0.0,1.0739039965559303
9200000.0,53.40625,1.4651816390040849E-5,9200000.0,88.8,77.44164031501137,77.55511022044088,75.70498915401302,2474399.0,1626184.0,0.0,1.0,0.0,?,0.0,0.0,1747.0,874.0,874.0,19.0,1732.2824858757062,0.0,1.0739039965559303
9300000.0,54.09375,1.4964064531442192E-5,9300000.0,87.9,75.55476540655859,76.08695652173914,72.686230248307,2534399.0,1669008.0,0.0,1.0,0.0,?,0.0,0.0,1795.0,898.0,898.0,19.0,1732.2824858757062,0.0,1.0739039965559303
9400000.0,54.765625,1.5274146895131302E-5,9400000.0,89.9,79.55730431684964,79.63709677419355,77.25225225225225,2594399.0,1706504.0,0.0,1.0,0.0,?,0.0,0.0,1833.0,917.0,917.0,19.0,1732.2824858757062,0.0,1.0739039965559303
9500000.0,55.453125,1.5598695608787238E-5,9500000.0,90.3,80.45221877393092,80.44354838709677,79.13978494623656,2654399.0,1756256.0,0.0,1.0,0.0,?,0.0,0.0,1885.0,943.0,943.0,19.0,1732.2824858757062,0.0,1.0739039965559303
9600000.0,56.140625,1.593732630782243E-5,9600000.0,88.9,77.70260497854629,77.53036437246963,76.82672233820459,2714099.0,1796504.0,0.0,1.0,0.0,?,0.0,0.0,1933.0,967.0,967.0,19.0,1732.2824858757062,0.0,1.0739039965559303
9700000.0,56.828125,1.628338003582838E-5,9700000.0,89.9,79.36788089751762,80.5019305019305,76.62037037037038,2774099.0,1847184.0,0.0,1.0,0.0,?,0.0,0.0,1985.0,993.0,993.0,19.0,1732.2824858757062,0.0,1.0739039965559303
9800000.0,57.53125,1.66399805392656E-5,9800000.0,91.10000000000001,82.0993266128708,82.48031496062993,80.73593073593074,2834099.0,1871208.0,0.0,1.0,0.0,?,0.0,0.0,2017.0,1009.0,1009.0,19.0,1732.2824858757062,0.0,1.0739039965559303
9900000.0,58.21875,1.6994100426220227E-5,9900000.0,91.60000000000001,83.15330095023405,84.12098298676749,82.46346555323592,2894099.0,1910920.0,0.0,1.0,0.0,?,0.0,0.0,2053.0,1027.0,1027.0,20.0,1732.2824858757062,0.0,1.0739039965559303
1.0E7,58.921875,1.7360172771279593E-5,1.0E7,90.2,80.2253502937948,79.91803278688525,78.31858407079646,2954099.0,1941576.0,0.0,1.0,0.0,?,0.0,0.0,2087.0,1044.0,1044.0,20.0,1732.2824858757062,0.0,1.0739039965559303
