learning evaluation instances,evaluation time (cpu seconds),model cost (RAM-Hours),classified instances,classifications correct (percent),Kappa Statistic (percent),Kappa Temporal Statistic (percent),Kappa M Statistic (percent),model training instances,model serialized size (bytes),labeling cost,newThreshold,maxPosterior,accuracyBaseLearner (percent),Change detected,Warning detected
100000.0,0.765625,1.5951583110209967E-8,100000.0,65.2,30.37994942543453,28.09917355371901,29.6969696969697,58698.0,2904.0,0.0,1.0,0.0,?,2.0,100.0
200000.0,1.5,2.8364334462417496E-8,200000.0,61.7,22.685615083370347,18.510638297872333,20.20833333333333,118698.0,2904.0,0.0,1.0,0.0,?,0.0,0.0
300000.0,2.28125,3.849731809977028E-8,300000.0,61.5,22.88772452691117,23.913043478260867,21.428571428571423,178698.0,2904.0,0.0,1.0,0.0,?,0.0,36.0
400000.0,3.046875,4.5391659821487136E-8,400000.0,61.7,23.16765900081848,23.4,20.041753653444673,238698.0,2904.0,0.0,1.0,0.0,?,0.0,9.0
500000.0,3.78125,4.911685310718086E-8,500000.0,62.3,23.97047553745008,23.684210526315788,19.787234042553187,298698.0,2904.0,0.0,1.0,0.0,?,0.0,0.0
600000.0,4.515625,6.439303332525823E-8,600000.0,62.2,24.21204587376694,26.459143968871597,22.857142857142858,358398.0,2904.0,0.0,1.0,0.0,?,0.0,0.0
700000.0,5.265625,7.70450505014095E-8,700000.0,61.6,22.647704610921988,22.89156626506024,19.83298538622129,418398.0,2904.0,0.0,1.0,0.0,?,0.0,0.0
800000.0,6.015625,8.674787952461176E-8,800000.0,61.0,22.119624257141027,25.430210325047803,21.999999999999996,478398.0,2904.0,0.0,1.0,0.0,?,0.0,0.0
900000.0,6.75,9.33608195434014E-8,900000.0,63.6,26.78177751315515,26.760563380281692,23.044397463002113,538398.0,2904.0,0.0,1.0,0.0,?,0.0,0.0
1000000.0,7.484375,9.69705029597713E-8,1000000.0,62.4,24.07568200634048,24.04040404040404,17.362637362637358,598398.0,2904.0,0.0,1.0,0.0,?,0.0,35.0
1100000.0,8.234375,1.1248323264428311E-7,1100000.0,61.5,22.914898047444375,17.381974248927033,19.287211740041922,658098.0,2904.0,0.0,1.0,0.0,?,0.0,0.0
1200000.0,8.96875,1.247850337272717E-7,1200000.0,64.7,28.83867950392699,29.400000000000006,25.05307855626327,718098.0,2904.0,0.0,1.0,0.0,?,0.0,0.0
1300000.0,9.71875,1.3439938710588548E-7,1300000.0,63.1,25.89290017833903,29.445506692160617,21.822033898305083,778098.0,2904.0,0.0,1.0,0.0,?,0.0,0.0
1400000.0,10.46875,1.4106455233155026E-7,1400000.0,62.3,24.73247085130171,24.6,25.93320235756385,838098.0,2904.0,0.0,1.0,0.0,?,0.0,0.0
1500000.0,11.203125,1.4470311321525112E-7,1500000.0,62.8,25.2231245477205,29.007633587786263,20.85106382978723,898098.0,2904.0,0.0,1.0,0.0,?,0.0,0.0
1600000.0,11.953125,1.6021584289976294E-7,1600000.0,61.8,23.21916706866055,24.055666003976143,20.250521920668056,957798.0,2904.0,0.0,1.0,0.0,?,0.0,0.0
1700000.0,12.703125,1.7277938443132575E-7,1700000.0,61.5,22.871040379514536,20.45454545454545,22.379032258064512,1017798.0,2904.0,0.0,1.0,0.0,?,0.0,0.0
1800000.0,13.453125,1.8239373780993953E-7,1800000.0,62.0,24.359745052530165,25.78125,23.076923076923077,1077798.0,2904.0,0.0,1.0,0.0,?,0.0,0.0
1900000.0,14.15625,1.8864233020900025E-7,1900000.0,64.3,27.907915993537962,30.813953488372096,23.717948717948715,1137798.0,2904.0,0.0,1.0,0.0,?,0.0,0.0
2000000.0,14.890625,1.9228089109270111E-7,2000000.0,62.2,24.429925749403242,23.636363636363637,24.248496993987974,1197798.0,2904.0,0.0,1.0,0.0,?,0.0,0.0
2100000.0,15.640625,2.0782311265874242E-7,2100000.0,64.7,29.18074358213028,26.15062761506276,26.763485477178424,1257498.0,2904.0,0.0,1.0,0.0,?,0.0,0.0
2200000.0,16.375,2.2015379120906196E-7,2200000.0,61.199999999999996,22.01349890055113,23.168316831683168,18.99791231732776,1317498.0,2904.0,0.0,1.0,0.0,?,0.0,0.0
2300000.0,17.109375,2.295967230262856E-7,2300000.0,65.60000000000001,30.848989470552524,32.54901960784314,27.272727272727277,1377498.0,2904.0,0.0,1.0,0.0,?,0.0,0.0
2400000.0,17.828125,2.3601243608734675E-7,2400000.0,62.7,24.9194847020934,24.949698189134807,21.802935010482177,1437498.0,2904.0,0.0,1.0,0.0,?,0.0,0.0
2500000.0,18.59375,2.3983593564480545E-7,2500000.0,65.2,30.057280675309013,27.196652719665277,25.161290322580644,1497498.0,2904.0,0.0,1.0,0.0,?,0.0,0.0
2600000.0,19.328125,2.550543609282209E-7,2600000.0,65.4,30.179153028731477,32.68482490272374,24.945770065075923,1557198.0,2904.0,0.0,1.0,0.0,?,0.0,0.0
2700000.0,20.0625,2.6738503947854044E-7,2700000.0,62.8,25.35546450170759,22.338204592901874,22.338204592901874,1617198.0,2904.0,0.0,1.0,0.0,?,0.0,0.0
2800000.0,20.8125,2.7702888473868374E-7,2800000.0,63.1,26.173422432075537,27.647058823529413,26.200000000000003,1677198.0,2904.0,0.0,1.0,0.0,?,0.0,0.0
2900000.0,21.546875,2.8358406982281145E-7,2900000.0,61.199999999999996,22.004092774925514,19.999999999999996,17.970401691331915,1737198.0,2904.0,0.0,1.0,0.0,?,0.0,0.0
3000000.0,22.296875,2.873295387770567E-7,3000000.0,62.1,23.912694333804442,25.09881422924901,21.694214876033055,1797198.0,2904.0,0.0,1.0,0.0,?,0.0,0.0
3100000.0,23.046875,3.029012522246275E-7,3100000.0,64.9,29.681865534097295,29.659318637274552,28.07377049180328,1856898.0,2904.0,0.0,1.0,0.0,?,0.0,0.0
3200000.0,23.78125,3.15260808242278E-7,3200000.0,63.1,25.555008594462425,24.693877551020407,24.229979466119094,1916898.0,2904.0,0.0,1.0,0.0,?,0.0,0.0
3300000.0,24.53125,3.2493414538395076E-7,3300000.0,64.4,28.592060078949906,30.468750000000007,26.74897119341564,1976898.0,2904.0,0.0,1.0,0.0,?,0.0,0.0
3400000.0,25.28125,3.3165829437267454E-7,3400000.0,61.3,22.569647301742286,23.968565815324165,22.444889779559116,2036898.0,2904.0,0.0,1.0,0.0,?,0.0,0.0
3500000.0,26.015625,3.353546101910373E-7,3500000.0,62.7,25.3211391229138,24.949698189134807,23.721881390593047,2096898.0,2904.0,0.0,1.0,0.0,?,0.0,0.0
3600000.0,26.75,3.506019129417837E-7,3600000.0,63.7,27.058634409034283,20.39473684210526,21.59827213822894,2156598.0,2904.0,0.0,1.0,0.0,?,0.0,0.0
3700000.0,27.515625,3.634874075133768E-7,3700000.0,63.0,25.81483382522777,25.252525252525253,24.18032786885246,2216598.0,2904.0,0.0,1.0,0.0,?,0.0,0.0
3800000.0,28.265625,3.731607446550496E-7,3800000.0,64.0,27.84414334963522,28.000000000000004,26.53061224489796,2276598.0,2904.0,0.0,1.0,0.0,?,0.0,0.0
3900000.0,28.984375,3.796047207692432E-7,3900000.0,60.9,21.586715867158667,22.574257425742573,16.985138004246277,2336598.0,2904.0,0.0,1.0,0.0,?,0.0,0.0
4000000.0,29.71875,3.8330103658760597E-7,4000000.0,64.7,29.044085131017177,30.099009900990104,22.075055187637965,2396598.0,2904.0,0.0,1.0,0.0,?,0.0,0.0
4100000.0,30.453125,3.9857721680568337E-7,4100000.0,60.9,21.576021116308176,20.52845528455284,18.371607515657615,2456298.0,2904.0,0.0,1.0,0.0,?,0.0,0.0
4200000.0,31.21875,4.1149281767300446E-7,4200000.0,63.800000000000004,27.318285675277377,28.17460317460318,27.016129032258068,2516298.0,2904.0,0.0,1.0,0.0,?,0.0,0.0
4300000.0,31.953125,4.2099350442489E-7,4300000.0,62.9,25.38454112498391,25.8,17.920353982300878,2576298.0,2904.0,0.0,1.0,0.0,?,0.0,0.0
4400000.0,32.671875,4.27465743592216E-7,4400000.0,65.10000000000001,29.80578931278058,28.48360655737705,26.215644820295985,2636298.0,2904.0,0.0,1.0,0.0,?,0.0,0.0
4500000.0,33.421875,4.3127019630952023E-7,4500000.0,63.6,26.931106471816275,27.200000000000003,24.166666666666668,2696298.0,2904.0,0.0,1.0,0.0,?,0.0,0.0
4600000.0,34.171875,4.468714016386205E-7,4600000.0,63.1,26.34554121056792,26.640159045725646,28.62669245647969,2755998.0,2904.0,0.0,1.0,0.0,?,0.0,0.0
4700000.0,34.90625,4.59259835123602E-7,4700000.0,61.8,23.442904840733185,26.11218568665377,22.199592668024437,2815998.0,2904.0,0.0,1.0,0.0,?,0.0,0.0
4800000.0,35.625,4.685583796041708E-7,4800000.0,63.0,25.519751356748316,22.594142259414223,20.08639308855291,2875998.0,2904.0,0.0,1.0,0.0,?,0.0,0.0
4900000.0,36.375,4.7531202047442406E-7,4900000.0,62.1,24.24363566585646,24.50199203187251,24.50199203187251,2935998.0,2904.0,0.0,1.0,0.0,?,0.0,0.0
5000000.0,37.109375,4.794764552368887E-7,5000000.0,63.3,26.366729800006418,24.795081967213115,24.948875255623722,2995998.0,2904.0,0.0,1.0,0.0,?,0.0,0.0
5100000.0,37.859375,4.956737070137429E-7,5100000.0,68.0,35.535858178888,31.76972281449894,28.888888888888893,52172.0,2904.0,0.0,1.0,0.0,?,2.0,66.0
5200000.0,38.609375,5.089435014977224E-7,5200000.0,66.60000000000001,32.224301037739295,32.11382113821139,23.91799544419134,112172.0,2904.0,0.0,1.0,0.0,?,0.0,1.0
5300000.0,39.375,5.194822895444103E-7,5300000.0,67.80000000000001,34.86633439057545,32.49475890985325,29.385964912280706,172172.0,2904.0,0.0,1.0,0.0,?,0.0,28.0
5400000.0,40.125,5.268521555182007E-7,5400000.0,68.5,36.09251369446137,34.375000000000014,26.573426573426595,232172.0,2904.0,0.0,1.0,0.0,?,0.0,50.0
5500000.0,40.84375,5.310886384298405E-7,5500000.0,65.5,30.331179321486267,26.595744680851062,26.282051282051285,292172.0,2904.0,0.0,1.0,0.0,?,0.0,0.0
5600000.0,41.59375,5.47306068862478E-7,5600000.0,67.4,33.76676147907355,34.00809716599191,27.555555555555557,351872.0,2904.0,0.0,1.0,0.0,?,0.0,0.0
5700000.0,42.34375,5.605743111421665E-7,5700000.0,66.4,31.88590889740316,30.72164948453609,23.462414578587698,411872.0,2904.0,0.0,1.0,0.0,?,0.0,0.0
5800000.0,43.078125,5.706783849745989E-7,5800000.0,68.10000000000001,35.37800826513249,32.415254237288146,27.500000000000004,471872.0,2904.0,0.0,1.0,0.0,?,0.0,0.0
5900000.0,43.8125,5.778947120739354E-7,5900000.0,64.9,28.992790037142235,28.947368421052634,20.588235294117645,531872.0,2904.0,0.0,1.0,0.0,?,0.0,0.0
6000000.0,44.546875,5.82223292440176E-7,6000000.0,67.7,34.98442041529458,35.14056224899599,28.697571743929362,591872.0,2904.0,0.0,1.0,0.0,?,0.0,0.0
6100000.0,45.28125,5.981317372061313E-7,6100000.0,65.10000000000001,29.537084894689237,30.060120240480963,22.787610619469024,651572.0,2904.0,0.0,1.0,0.0,?,0.0,0.0
6200000.0,46.015625,6.111569948390954E-7,6200000.0,65.9,31.04480267893975,29.69072164948454,26.34989200863931,711572.0,2904.0,0.0,1.0,0.0,?,0.0,15.0
6300000.0,46.78125,6.217258891815113E-7,6300000.0,67.2,33.93809516136829,36.18677042801558,29.00432900432901,771572.0,2904.0,0.0,1.0,0.0,?,0.0,21.0
6400000.0,47.515625,6.28949815614356E-7,6400000.0,70.6,40.166069684141966,40.96385542168674,33.181818181818166,831572.0,2904.0,0.0,1.0,0.0,?,0.0,83.0
6500000.0,48.265625,6.334046419296E-7,6500000.0,68.7,36.5615980802283,36.12244897959185,29.50450450450451,891572.0,2904.0,0.0,1.0,0.0,?,0.0,58.0
6600000.0,49.015625,6.496562208566401E-7,6600000.0,67.5,33.4000016393846,26.801801801801805,20.537897310513465,951272.0,2904.0,0.0,1.0,0.0,?,0.0,0.0
6700000.0,49.78125,6.632357447718581E-7,6700000.0,68.30000000000001,35.550766478266176,31.236442516268987,28.764044943820227,1011272.0,2904.0,0.0,1.0,0.0,?,0.0,65.0
6800000.0,50.53125,6.73458562232554E-7,6800000.0,67.2,33.805841230888454,32.924335378323114,24.423963133640573,1071272.0,2904.0,0.0,1.0,0.0,?,0.0,37.0
6900000.0,51.28125,6.807321915403008E-7,6900000.0,69.19999999999999,37.34514282459486,35.564853556485346,28.538283062645007,1131272.0,2904.0,0.0,1.0,0.0,?,0.0,0.0
7000000.0,52.0,6.848764476469821E-7,7000000.0,68.30000000000001,36.17877994765452,36.60000000000001,28.764044943820227,1191272.0,2904.0,0.0,1.0,0.0,?,0.0,0.0
7100000.0,52.71875,7.00354188059767E-7,7100000.0,68.2,35.4875357050117,39.080459770114956,26.38888888888891,1250972.0,2904.0,0.0,1.0,0.0,?,0.0,0.0
7200000.0,53.46875,7.135556855549414E-7,7200000.0,67.30000000000001,33.75471010088732,34.33734939759037,26.516853932584272,1310972.0,2904.0,0.0,1.0,0.0,?,0.0,0.0
7300000.0,54.203125,7.235944051192038E-7,7300000.0,64.8,29.198128577807626,28.744939271255067,24.62526766595289,1370972.0,2904.0,0.0,1.0,0.0,?,0.0,0.0
7400000.0,54.953125,7.308975263084802E-7,7400000.0,66.8,32.707704157123466,33.06451612903227,23.678160919540247,1430972.0,2904.0,0.0,1.0,0.0,?,0.0,0.0
7500000.0,55.6875,7.351607524065507E-7,7500000.0,66.0,31.062449310624494,29.018789144050107,24.444444444444443,1490972.0,2904.0,0.0,1.0,0.0,?,0.0,0.0
7600000.0,56.4375,7.513114380546742E-7,7600000.0,67.4,33.74926331619486,32.921810699588484,25.740318906605925,1550672.0,2904.0,0.0,1.0,0.0,?,0.0,0.0
7700000.0,57.1875,7.645129355498485E-7,7700000.0,67.7,34.472125294165394,32.98755186721992,26.75736961451247,1610672.0,2904.0,0.0,1.0,0.0,?,0.0,0.0
7800000.0,57.921875,7.745516551141109E-7,7800000.0,69.39999999999999,37.429710663531324,36.64596273291924,28.337236533957842,1670672.0,2904.0,0.0,1.0,0.0,?,0.0,0.0
7900000.0,58.65625,7.817026279452774E-7,7900000.0,67.7,34.87483063423447,37.403100775193806,30.98290598290599,1730672.0,2904.0,0.0,1.0,0.0,?,0.0,0.0
8000000.0,59.421875,7.861472679198616E-7,8000000.0,66.0,31.285090077162803,26.565874730021598,24.276169265033406,1790672.0,2904.0,0.0,1.0,0.0,?,0.0,0.0
8100000.0,60.1875,8.026645324813823E-7,8100000.0,66.3,31.81284751167478,34.17968750000001,26.89804772234273,1850372.0,2904.0,0.0,1.0,0.0,?,0.0,0.0
8200000.0,60.90625,8.153442306340569E-7,8200000.0,67.4,33.97200899276934,34.53815261044178,26.410835214446955,1910372.0,2904.0,0.0,1.0,0.0,?,0.0,0.0
8300000.0,61.65625,8.256260318578117E-7,8300000.0,67.60000000000001,34.74898498421087,35.20000000000001,24.299065420560765,1970372.0,2904.0,0.0,1.0,0.0,?,0.0,0.0
8400000.0,62.40625,8.329586449286176E-7,8400000.0,68.89999999999999,36.26892464568801,36.270491803278674,26.477541371158388,2030372.0,2904.0,0.0,1.0,0.0,?,0.0,0.0
8500000.0,63.15625,8.373420698464745E-7,8500000.0,68.0,35.40573274121922,37.37769080234835,28.888888888888893,2090372.0,2904.0,0.0,1.0,0.0,?,0.0,0.0
8600000.0,63.90625,8.535222473761274E-7,8600000.0,69.8,38.6744751794076,40.31620553359683,33.037694013303756,2150072.0,2904.0,0.0,1.0,0.0,?,0.0,0.0
8700000.0,64.671875,8.671287085033126E-7,8700000.0,69.19999999999999,37.962261718687046,38.15261044176706,32.75109170305675,2210072.0,2904.0,0.0,1.0,0.0,?,0.0,2.0
8800000.0,65.453125,8.779472490358684E-7,8800000.0,66.7,32.25263055101194,29.449152542372886,24.660633484162894,2270072.0,2904.0,0.0,1.0,0.0,?,0.0,28.0
8900000.0,66.1875,8.85228930403375E-7,8900000.0,68.89999999999999,36.84509787994475,38.65877712031558,28.832951945080087,2330072.0,2904.0,0.0,1.0,0.0,?,0.0,0.0
9000000.0,66.9375,8.897163530087306E-7,9000000.0,66.3,31.722774202959634,32.05645161290323,26.096491228070178,2390072.0,2904.0,0.0,1.0,0.0,?,0.0,0.0
9100000.0,67.671875,9.056901520428559E-7,9100000.0,65.4,30.187605676998636,31.889763779527563,24.288840262582056,2449772.0,2904.0,0.0,1.0,0.0,?,0.0,0.0
9200000.0,68.40625,9.187762043438853E-7,9200000.0,65.5,30.38740920096852,31.41153081510935,25.0,2509772.0,2904.0,0.0,1.0,0.0,?,0.0,0.0
9300000.0,69.15625,9.291914951366683E-7,9300000.0,65.5,30.91045995610312,30.020283975659233,29.303278688524593,2569772.0,2904.0,0.0,1.0,0.0,?,0.0,0.0
9400000.0,69.875,9.363465101665093E-7,9400000.0,66.10000000000001,31.667002620439433,33.65949119373778,24.666666666666668,2629772.0,2904.0,0.0,1.0,0.0,?,0.0,0.0
9500000.0,70.640625,9.409575270385378E-7,9500000.0,65.3,29.352075053749445,26.79324894514768,20.412844036697265,2689772.0,2904.0,0.0,1.0,0.0,?,0.0,0.0
9600000.0,71.359375,9.565914580081072E-7,9600000.0,67.5,34.46523632844007,34.077079107505085,29.347826086956523,2749472.0,2904.0,0.0,1.0,0.0,?,0.0,0.0
9700000.0,72.109375,9.699559369538392E-7,9700000.0,67.30000000000001,32.99345098071361,30.2771855010661,21.95704057279238,2809472.0,2904.0,0.0,1.0,0.0,?,0.0,0.0
9800000.0,72.84375,9.801542425217727E-7,9800000.0,69.6,38.283635418696804,39.32135728542913,31.22171945701356,2869472.0,2904.0,0.0,1.0,0.0,?,0.0,0.0
9900000.0,73.578125,9.874648013566102E-7,9900000.0,67.4,34.18927648578813,34.00809716599191,26.244343891402718,2929472.0,2904.0,0.0,1.0,0.0,?,0.0,0.0
1.0E7,74.3125,9.918876134583518E-7,1.0E7,68.60000000000001,36.251162299668266,35.655737704918046,28.473804100227795,2989472.0,2904.0,0.0,1.0,0.0,?,0.0,0.0
