learning evaluation instances,evaluation time (cpu seconds),model cost (RAM-Hours),classified instances,classifications correct (percent),Kappa Statistic (percent),Kappa Temporal Statistic (percent),Kappa M Statistic (percent),model training instances,model serialized size (bytes),labeling cost,newThreshold,maxPosterior,accuracyBaseLearner (percent),Change detected,Warning detected,tree size (nodes),tree size (leaves),active learning leaves,tree depth,active leaf byte size estimate,inactive leaf byte size estimate,byte size estimate overhead
100000.0,0.390625,1.514126779511571E-8,100000.0,91.0,81.17068149580106,80.34934497816595,74.78991596638657,25791.0,88904.0,0.0,1.0,0.0,?,1.0,7.0,39.0,20.0,20.0,9.0,0.0,0.0,1.0
200000.0,0.65625,2.863846020773053E-8,200000.0,93.10000000000001,85.51284527718758,85.35031847133759,81.79419525065964,55491.0,133808.0,0.0,1.0,0.0,?,0.0,0.0,59.0,30.0,30.0,10.0,0.0,0.0,1.0
300000.0,0.90625,4.412376761643423E-8,300000.0,92.60000000000001,84.34273333559025,85.05050505050505,80.62827225130891,85191.0,175168.0,0.0,1.0,0.0,?,0.0,0.0,77.0,39.0,39.0,11.0,0.0,0.0,1.0
400000.0,1.15625,6.150121205589837E-8,400000.0,94.0,87.1751025991792,87.82961460446246,83.60655737704916,114891.0,202840.0,0.0,1.0,0.0,?,0.0,0.0,89.0,45.0,45.0,11.0,0.0,0.0,1.0
500000.0,1.421875,8.723834374298652E-8,500000.0,92.4,84.01312606491513,84.10041841004184,80.66157760814251,144591.0,306984.0,0.0,1.0,0.0,?,0.0,0.0,123.0,71.0,71.0,11.0,0.0,0.0,1.0
600000.0,1.6875,1.1491000704053376E-7,600000.0,93.4,86.1291502213031,86.25000000000001,83.20610687022902,174291.0,333552.0,0.0,1.0,0.0,?,0.0,0.0,135.0,77.0,77.0,12.0,0.0,0.0,1.0
700000.0,1.921875,1.4106270908895466E-7,700000.0,95.1,89.38566848626634,89.34782608695652,86.50137741046831,203991.0,360600.0,0.0,1.0,0.0,?,0.0,0.0,149.0,84.0,84.0,12.0,0.0,0.0,1.0
800000.0,2.234375,1.824464157430662E-7,800000.0,94.39999999999999,87.89136827538488,87.9310344827586,84.44444444444443,233691.0,439584.0,0.0,1.0,0.0,?,0.0,0.0,177.0,107.0,107.0,12.0,0.0,0.0,1.0
900000.0,2.53125,2.2551255016070274E-7,900000.0,93.10000000000001,85.49139997476767,85.77319587628867,82.26221079691518,263391.0,486800.0,0.0,1.0,0.0,?,0.0,0.0,189.0,113.0,113.0,12.0,0.0,0.0,1.0
1000000.0,2.796875,2.667457253361742E-7,1000000.0,94.5,88.44596070786346,88.39662447257382,85.96938775510203,293091.0,524472.0,0.0,1.0,0.0,?,0.0,0.0,203.0,120.0,120.0,12.0,0.0,0.0,1.0
1100000.0,3.046875,3.072049649846223E-7,1100000.0,93.5,86.22706276221554,86.0215053763441,83.11688311688313,322821.0,562896.0,0.0,1.0,0.0,?,0.0,0.0,221.0,129.0,129.0,13.0,0.0,0.0,1.0
1200000.0,3.359375,3.660212193305294E-7,1200000.0,94.39999999999999,87.98819411078316,88.35758835758834,84.78260869565216,352521.0,663240.0,0.0,1.0,0.0,?,0.0,0.0,247.0,151.0,151.0,13.0,0.0,0.0,1.0
1300000.0,3.640625,4.260240045065681E-7,1300000.0,93.8,87.00536552649227,87.93774319066146,84.34343434343432,382221.0,758744.0,0.0,1.0,0.0,?,0.0,0.0,277.0,175.0,175.0,14.0,0.0,0.0,1.0
1400000.0,3.9375,4.960684519675043E-7,1400000.0,93.7,86.48219511985789,85.48387096774195,82.59668508287294,411921.0,844512.0,0.0,1.0,0.0,?,0.0,0.0,303.0,197.0,197.0,14.0,0.0,0.0,1.0
1500000.0,4.21875,5.695468927216199E-7,1500000.0,92.4,83.93594670116212,83.07349665924278,80.36175710594317,441621.0,940808.0,0.0,1.0,0.0,?,0.0,0.0,323.0,216.0,216.0,14.0,0.0,0.0,1.0
1600000.0,4.546875,6.698735200593042E-7,1600000.0,93.2,85.64134616602828,85.21739130434783,82.51928020565555,471321.0,1111112.0,0.0,1.0,0.0,?,0.0,0.0,371.0,258.0,258.0,14.0,0.0,0.0,1.0
1700000.0,4.84375,7.691462653585607E-7,1700000.0,94.1,87.66320121109726,87.42004264392322,84.83290488431875,501021.0,1220152.0,0.0,1.0,0.0,?,0.0,0.0,399.0,281.0,281.0,14.0,0.0,0.0,1.0
1800000.0,5.140625,8.849498246692949E-7,1800000.0,92.4,83.98246501433148,84.36213991769547,80.20833333333334,530721.0,1433744.0,0.0,1.0,0.0,?,0.0,0.0,459.0,338.0,338.0,14.0,0.0,0.0,1.0
1900000.0,5.515625,1.0537504891140594E-6,1900000.0,93.89999999999999,87.19821362613746,86.8817204301075,84.2377260981912,560421.0,1664248.0,0.0,1.0,0.0,?,0.0,0.0,528.0,401.0,401.0,14.0,0.0,0.0,1.0
2000000.0,5.828125,1.2024710627479686E-6,2000000.0,95.1,89.58554729011688,89.43965517241378,86.93333333333332,590121.0,1762120.0,0.0,1.0,0.0,?,0.0,0.0,532.0,403.0,403.0,14.0,0.0,0.0,1.0
2100000.0,6.140625,1.3603295923935043E-6,2100000.0,94.3,87.87357886854107,88.43813387423934,85.11749347258485,619851.0,1888192.0,0.0,1.0,0.0,?,0.0,0.0,572.0,441.0,441.0,14.0,0.0,0.0,1.0
2200000.0,6.53125,1.5840337598799831E-6,2200000.0,94.19999999999999,87.41319444444443,87.81512605042016,83.88888888888889,649551.0,2147472.0,0.0,1.0,0.0,?,0.0,0.0,643.0,505.0,505.0,15.0,0.0,0.0,1.0
2300000.0,6.921875,1.8310775825132926E-6,2300000.0,93.10000000000001,85.17493575805496,84.2105263157895,81.14754098360658,679251.0,2376520.0,0.0,1.0,0.0,?,0.0,0.0,693.0,548.0,548.0,15.0,0.0,0.0,1.0
2400000.0,7.328125,2.098878612741828E-6,2400000.0,94.0,87.45740744611909,87.95180722891565,84.8866498740554,708951.0,2478392.0,0.0,1.0,0.0,?,0.0,0.0,719.0,570.0,570.0,15.0,0.0,0.0,1.0
2500000.0,7.734375,2.377714845351875E-6,2500000.0,92.7,84.83589530535937,85.01026694045176,81.75000000000001,738651.0,2581752.0,0.0,1.0,0.0,?,0.0,0.0,745.0,592.0,592.0,15.0,0.0,0.0,1.0
2600000.0,8.09375,2.638704803151389E-6,2600000.0,94.5,88.5028638321,88.14655172413792,86.45320197044335,768351.0,2734224.0,0.0,1.0,0.0,?,0.0,0.0,785.0,630.0,630.0,15.0,0.0,0.0,1.0
2700000.0,8.5,2.9430216333518427E-6,2700000.0,92.80000000000001,84.45119185933513,83.74717832957111,80.48780487804879,798051.0,2820992.0,0.0,1.0,0.0,?,0.0,0.0,811.0,652.0,652.0,15.0,0.0,0.0,1.0
2800000.0,8.890625,3.243709474595057E-6,2800000.0,94.39999999999999,88.01457085742904,87.7995642701525,84.90566037735847,827751.0,2899576.0,0.0,1.0,0.0,?,0.0,0.0,859.0,694.0,694.0,15.0,0.0,0.0,1.0
2900000.0,9.296875,3.574468751644923E-6,2900000.0,94.8,88.87081585480693,89.40936863543787,85.94594594594594,857451.0,3069384.0,0.0,1.0,0.0,?,0.0,0.0,881.0,714.0,714.0,15.0,0.0,0.0,1.0
3000000.0,9.75,3.951064621408781E-6,3000000.0,91.7,82.54806640986394,82.11206896551725,78.5529715762274,887151.0,3133360.0,0.0,1.0,0.0,?,0.0,0.0,905.0,735.0,735.0,15.0,0.0,0.0,1.0
3100000.0,10.1875,4.344133323886329E-6,3100000.0,94.19999999999999,87.8648901981789,87.76371308016877,85.35353535353534,916881.0,3406536.0,0.0,1.0,0.0,?,0.0,0.0,989.0,813.0,813.0,15.0,0.0,0.0,1.0
3200000.0,10.65625,4.796961762218012E-6,3200000.0,93.60000000000001,86.4478560084701,86.63883089770356,82.93333333333335,946581.0,3665832.0,0.0,1.0,0.0,?,0.0,0.0,1038.0,857.0,857.0,15.0,0.0,0.0,1.0
3300000.0,11.0625,5.203322895492116E-6,3300000.0,93.30000000000001,85.80291908935263,86.09958506224066,82.32189973614777,976281.0,3796480.0,0.0,1.0,0.0,?,0.0,0.0,1060.0,877.0,877.0,15.0,0.0,0.0,1.0
3400000.0,11.609375,5.764233743927131E-6,3400000.0,93.30000000000001,85.84646584139593,86.07068607068608,82.32189973614777,1005981.0,3893112.0,0.0,1.0,0.0,?,0.0,0.0,1091.0,905.0,905.0,15.0,4257.334806629834,0.0,1.0060380680673822
3500000.0,12.015625,6.190468330815848E-6,3500000.0,94.1,87.65018629379998,86.91796008869179,85.06329113924049,1035681.0,3982488.0,0.0,1.0,0.0,?,0.0,0.0,1111.0,924.0,924.0,15.0,4257.334806629834,0.0,1.0060380680673822
3600000.0,12.5,6.719319887148837E-6,3600000.0,94.39999999999999,88.10348270543797,87.66519823788545,85.3018372703412,1065381.0,4145600.0,0.0,1.0,0.0,?,0.0,0.0,1157.0,965.0,965.0,15.0,4257.334806629834,0.0,1.0060380680673822
3700000.0,12.953125,7.2297749769253035E-6,3700000.0,92.80000000000001,84.33693003828752,84.34782608695653,80.00000000000001,1095081.0,4278248.0,0.0,1.0,0.0,?,0.0,0.0,1199.0,1004.0,1004.0,15.0,4257.334806629834,0.0,1.0060380680673822
3800000.0,13.40625,7.751719870915015E-6,3800000.0,94.8,88.79542163690269,88.3668903803132,85.8695652173913,1124781.0,4374480.0,0.0,1.0,0.0,?,0.0,0.0,1201.0,1005.0,1005.0,15.0,4257.334806629834,0.0,1.0060380680673822
3900000.0,13.859375,8.275078014574116E-6,3900000.0,93.60000000000001,86.12887145365093,86.5263157894737,82.46575342465755,1154481.0,4385096.0,0.0,1.0,0.0,?,0.0,0.0,1201.0,1005.0,1005.0,15.0,4257.334806629834,0.0,1.0060380680673822
4000000.0,14.296875,8.781562792137264E-6,4000000.0,93.0,85.2466963137817,85.32494758909854,82.00514138817482,1184181.0,4394000.0,0.0,1.0,0.0,?,0.0,0.0,1203.0,1006.0,1006.0,15.0,4257.334806629834,0.0,1.0060380680673822
4100000.0,14.828125,9.415565808821054E-6,4100000.0,94.69999999999999,88.74734607218683,88.72340425531914,85.86666666666666,1213911.0,4545080.0,0.0,1.0,0.0,?,0.0,0.0,1245.0,1045.0,1045.0,15.0,4257.334806629834,0.0,1.0060380680673822
4200000.0,15.28125,9.959738203583077E-6,4200000.0,94.89999999999999,89.27634234961647,89.12579957356076,86.95652173913042,1243611.0,4572616.0,0.0,1.0,0.0,?,0.0,0.0,1247.0,1046.0,1046.0,15.0,4257.334806629834,0.0,1.0060380680673822
4300000.0,15.78125,1.0585538337990227E-5,4300000.0,93.30000000000001,85.92673500252059,85.71428571428572,82.59740259740262,1273311.0,4766888.0,0.0,1.0,0.0,?,0.0,0.0,1307.0,1103.0,1103.0,15.0,4257.334806629834,0.0,1.0060380680673822
4400000.0,16.265625,1.1199686656861254E-5,4400000.0,93.7,86.80152850869844,86.76470588235296,84.09090909090911,1303011.0,4828304.0,0.0,1.0,0.0,?,0.0,0.0,1315.0,1107.0,1107.0,15.0,4257.334806629834,0.0,1.0060380680673822
4500000.0,16.75,1.1816260941688797E-5,4500000.0,93.60000000000001,85.5712868608531,86.08695652173914,80.83832335329343,1332711.0,4846184.0,0.0,1.0,0.0,?,0.0,0.0,1317.0,1108.0,1108.0,15.0,4257.334806629834,0.0,1.0060380680673822
4600000.0,17.21875,1.2414643456900697E-5,4600000.0,94.39999999999999,87.93332299046732,87.66519823788545,84.69945355191255,1362411.0,4858696.0,0.0,1.0,0.0,?,0.0,0.0,1321.0,1110.0,1110.0,15.0,4257.334806629834,0.0,1.0060380680673822
4700000.0,17.703125,1.3050038024731393E-5,4700000.0,93.7,86.59551651943012,86.65254237288137,83.24468085106385,1392111.0,4993336.0,0.0,1.0,0.0,?,0.0,0.0,1361.0,1148.0,1148.0,15.0,4257.334806629834,0.0,1.0060380680673822
4800000.0,18.1875,1.3693337031226189E-5,4800000.0,95.5,90.36377808423342,90.5857740585774,87.96791443850266,1421811.0,5054960.0,0.0,1.0,0.0,?,0.0,0.0,1381.0,1167.0,1167.0,15.0,4257.334806629834,0.0,1.0060380680673822
4900000.0,18.6875,1.4376099958705403E-5,4900000.0,93.5,86.11111111111113,86.31578947368422,82.52688172043013,1451511.0,5198056.0,0.0,1.0,0.0,?,0.0,0.0,1421.0,1205.0,1205.0,15.0,4257.334806629834,0.0,1.0060380680673822
5000000.0,19.21875,1.5121606540762714E-5,5000000.0,94.6,88.51674641148325,88.33693304535636,85.6,1481211.0,5339144.0,0.0,1.0,0.0,?,0.0,0.0,1441.0,1224.0,1224.0,15.0,4257.334806629834,0.0,1.0060380680673822
5100000.0,19.890625,1.5144689112073844E-5,5100000.0,97.8,95.51210914550558,95.40709812108558,94.9074074074074,25128.0,78168.0,0.0,1.0,0.0,?,4.0,27.0,32.0,18.0,18.0,4.0,0.0,0.0,1.0
5200000.0,20.140625,1.5154833284517128E-5,5200000.0,97.7,95.35811159907,95.52529182879377,94.91150442477876,54828.0,100656.0,0.0,1.0,0.0,?,0.0,0.0,42.0,23.0,23.0,4.0,0.0,0.0,1.0
5300000.0,20.390625,1.5166168515053059E-5,5300000.0,97.39999999999999,94.76481958762886,94.5945945945946,94.34782608695652,84528.0,117536.0,0.0,1.0,0.0,?,0.0,0.0,50.0,27.0,27.0,5.0,0.0,0.0,1.0
5400000.0,20.640625,1.5178119970692527E-5,5400000.0,97.6,95.16908212560385,95.25691699604742,94.78260869565217,114228.0,125576.0,0.0,1.0,0.0,?,0.0,0.0,54.0,29.0,29.0,5.0,0.0,0.0,1.0
5500000.0,20.90625,1.5191274125956825E-5,5500000.0,97.6,95.17357047190414,95.0207468879668,94.81641468682504,143928.0,130744.0,0.0,1.0,0.0,?,0.0,0.0,56.0,30.0,30.0,5.0,0.0,0.0,1.0
5600000.0,21.171875,1.52048565279175E-5,5600000.0,97.5,94.95642349903163,95.07874015748031,94.46902654867256,173628.0,135512.0,0.0,1.0,0.0,?,0.0,0.0,58.0,31.0,31.0,5.0,0.0,0.0,1.0
5700000.0,21.390625,1.5216137560653603E-5,5700000.0,97.39999999999999,94.71069538080958,94.6938775510204,93.99538106235565,203328.0,135752.0,0.0,1.0,0.0,?,0.0,0.0,60.0,32.0,32.0,5.0,0.0,0.0,1.0
5800000.0,21.625,1.522874534000746E-5,5800000.0,97.39999999999999,94.72909579665661,94.78957915831663,94.10430839002267,233028.0,142864.0,0.0,1.0,0.0,?,0.0,0.0,62.0,33.0,33.0,5.0,0.0,0.0,1.0
5900000.0,21.859375,1.524144188604421E-5,5900000.0,97.2,94.39697436615772,94.12997903563941,94.39999999999999,262728.0,142888.0,0.0,1.0,0.0,?,0.0,0.0,62.0,33.0,33.0,5.0,0.0,0.0,1.0
6000000.0,22.109375,1.5255114736242426E-5,6000000.0,97.3,94.56070654407439,94.74708171206225,94.09190371991247,292428.0,143456.0,0.0,1.0,0.0,?,0.0,0.0,62.0,33.0,33.0,5.0,0.0,0.0,1.0
6100000.0,22.34375,1.52690127854132E-5,6100000.0,97.2,94.38112056509873,94.5945945945946,94.06779661016948,322158.0,174200.0,0.0,1.0,0.0,?,0.0,0.0,76.0,40.0,40.0,5.0,0.0,0.0,1.0
6200000.0,22.59375,1.5289405645388697E-5,6200000.0,98.0,95.97553122987765,95.94320486815415,95.67099567099567,351858.0,258728.0,0.0,1.0,0.0,?,0.0,0.0,100.0,61.0,61.0,6.0,0.0,0.0,1.0
6300000.0,22.859375,1.5322932578985478E-5,6300000.0,97.1,94.19219430915149,94.36893203883496,94.0082644628099,381558.0,429616.0,0.0,1.0,0.0,?,0.0,0.0,148.0,103.0,103.0,6.0,0.0,0.0,1.0
6400000.0,23.125,1.535790037855299E-5,6400000.0,97.6,95.19855956787036,95.46313799621929,95.17102615694164,411258.0,449072.0,0.0,1.0,0.0,?,0.0,0.0,154.0,106.0,106.0,6.0,0.0,0.0,1.0
6500000.0,23.359375,1.5389210764422185E-5,6500000.0,96.6,93.18691888425778,92.81183932346723,92.87211740041928,440958.0,455144.0,0.0,1.0,0.0,?,0.0,0.0,154.0,106.0,106.0,6.0,0.0,0.0,1.0
6600000.0,23.609375,1.542327802680019E-5,6600000.0,97.6,95.1930780323666,95.34883720930232,95.0207468879668,470658.0,464016.0,0.0,1.0,0.0,?,0.0,0.0,156.0,107.0,107.0,7.0,0.0,0.0,1.0
6700000.0,23.875,1.5459963760804383E-5,6700000.0,97.39999999999999,94.76488283405081,94.50317124735729,94.26048565121413,500358.0,469680.0,0.0,1.0,0.0,?,0.0,0.0,156.0,107.0,107.0,7.0,0.0,0.0,1.0
6800000.0,24.125,1.5494601199558623E-5,6800000.0,97.39999999999999,94.76835903544637,94.921875,94.32314410480349,530058.0,469936.0,0.0,1.0,0.0,?,0.0,0.0,156.0,107.0,107.0,7.0,0.0,0.0,1.0
6900000.0,24.375,1.55293416011975E-5,6900000.0,97.2,94.34800161485668,94.41117764471058,93.77777777777777,559758.0,470088.0,0.0,1.0,0.0,?,0.0,0.0,156.0,107.0,107.0,7.0,0.0,0.0,1.0
7000000.0,24.625,1.5564180309108145E-5,7000000.0,97.39999999999999,94.75975491776846,94.7261663286004,94.24778761061945,589458.0,470168.0,0.0,1.0,0.0,?,0.0,0.0,156.0,107.0,107.0,7.0,0.0,0.0,1.0
7100000.0,24.875,1.559817306568018E-5,7100000.0,97.7,95.38704682749159,95.41832669322709,95.13742071881607,619188.0,470192.0,0.0,1.0,0.0,?,0.0,0.0,156.0,107.0,107.0,7.0,0.0,0.0,1.0
7200000.0,25.125,1.564219150976795E-5,7200000.0,97.2,94.39641370477105,94.47731755424063,94.26229508196721,648888.0,623648.0,0.0,1.0,0.0,?,0.0,0.0,205.0,153.0,153.0,7.0,0.0,0.0,1.0
7300000.0,25.390625,1.5696069232136422E-5,7300000.0,96.8,93.58768836165437,93.66336633663366,93.33333333333333,678588.0,725488.0,0.0,1.0,0.0,?,0.0,0.0,225.0,172.0,172.0,7.0,0.0,0.0,1.0
7400000.0,25.6875,1.5763914691180814E-5,7400000.0,97.5,94.97757991674835,95.13618677042801,94.66950959488273,708288.0,823224.0,0.0,1.0,0.0,?,0.0,0.0,245.0,191.0,191.0,7.0,0.0,0.0,1.0
7500000.0,25.984375,1.5844812151044603E-5,7500000.0,97.3,94.57107468592662,94.71624266144813,94.16846652267819,737988.0,991576.0,0.0,1.0,0.0,?,0.0,0.0,294.0,237.0,237.0,7.0,0.0,0.0,1.0
7600000.0,26.296875,1.5942846787058642E-5,7600000.0,97.39999999999999,94.78382987260507,95.00959692898272,94.52631578947368,767688.0,1149304.0,0.0,1.0,0.0,?,0.0,0.0,334.0,275.0,275.0,7.0,0.0,0.0,1.0
7700000.0,26.59375,1.6045399889763856E-5,7700000.0,97.5,94.97903243946722,95.23809523809523,94.61206896551724,797388.0,1270280.0,0.0,1.0,0.0,?,0.0,0.0,354.0,294.0,294.0,7.0,0.0,0.0,1.0
7800000.0,26.90625,1.6166731171930826E-5,7800000.0,97.2,94.37543188648014,94.36619718309859,94.0928270042194,827088.0,1434160.0,0.0,1.0,0.0,?,0.0,0.0,394.0,332.0,332.0,7.0,0.0,0.0,1.0
7900000.0,27.265625,1.631453801463875E-5,7900000.0,97.39999999999999,94.79256378107938,94.7261663286004,94.61697722567287,856788.0,1521640.0,0.0,1.0,0.0,?,0.0,0.0,414.0,351.0,351.0,7.0,0.0,0.0,1.0
8000000.0,27.578125,1.6453772679799128E-5,8000000.0,96.5,92.91927978960145,92.70833333333333,92.09932279909707,886488.0,1652544.0,0.0,1.0,0.0,?,0.0,0.0,454.0,389.0,389.0,7.0,0.0,0.0,1.0
8100000.0,27.90625,1.6607264535398112E-5,8100000.0,96.0,91.96658097686374,92.24806201550388,91.56118143459915,916218.0,1751432.0,0.0,1.0,0.0,?,0.0,0.0,474.0,408.0,408.0,7.0,0.0,0.0,1.0
8200000.0,28.234375,1.6767326580722704E-5,8200000.0,97.2,94.38274378891956,94.08033826638477,94.01709401709401,945918.0,1827328.0,0.0,1.0,0.0,?,0.0,0.0,494.0,427.0,427.0,7.0,0.0,0.0,1.0
8300000.0,28.5625,1.694214863366343E-5,8300000.0,97.6,95.17653868415975,95.40229885057471,94.87179487179486,975618.0,1999512.0,0.0,1.0,0.0,?,0.0,0.0,534.0,465.0,465.0,7.0,0.0,0.0,1.0
8400000.0,28.9375,1.715003302605408E-5,8400000.0,97.2,94.37570303712035,94.52054794520548,94.04255319148935,1005318.0,2081344.0,0.0,1.0,0.0,?,0.0,0.0,554.0,484.0,484.0,7.0,4278.842975206611,0.0,1.0042028817553212
8500000.0,29.328125,1.7377477844193986E-5,8500000.0,97.8,95.57963093936861,95.54655870445343,95.25862068965517,1035018.0,2187768.0,0.0,1.0,0.0,?,0.0,0.0,594.0,522.0,522.0,7.0,4278.842975206611,0.0,1.0042028817553212
8600000.0,29.640625,1.7564557913121656E-5,8600000.0,98.1,96.19479447884706,96.13821138211381,96.05809128630705,1064718.0,2249704.0,0.0,1.0,0.0,?,0.0,0.0,616.0,542.0,542.0,7.0,4278.842975206611,0.0,1.0042028817553212
8700000.0,29.984375,1.7780578443004432E-5,8700000.0,96.3,92.54621347644603,92.33954451345755,91.8859649122807,1094418.0,2363104.0,0.0,1.0,0.0,?,0.0,0.0,636.0,561.0,561.0,7.0,4278.842975206611,0.0,1.0042028817553212
8800000.0,30.328125,1.800206700055342E-5,8800000.0,97.39999999999999,94.78001790855394,94.70468431771893,94.43254817987152,1124118.0,2422960.0,0.0,1.0,0.0,?,0.0,0.0,636.0,561.0,561.0,7.0,4278.842975206611,0.0,1.0042028817553212
8900000.0,30.65625,1.821484132152464E-5,8900000.0,97.7,95.39668561364182,95.44554455445544,95.25773195876288,1153818.0,2439552.0,0.0,1.0,0.0,?,0.0,0.0,658.0,581.0,581.0,8.0,4278.842975206611,0.0,1.0042028817553212
9000000.0,31.03125,1.8464655408428767E-5,9000000.0,97.8,95.58530790470687,95.69471624266144,95.30916844349679,1183518.0,2506336.0,0.0,1.0,0.0,?,0.0,0.0,658.0,581.0,581.0,8.0,4278.842975206611,0.0,1.0042028817553212
9100000.0,31.421875,1.872419205028563E-5,9100000.0,97.2,94.35436065150678,94.68690702087285,93.81898454746135,1213248.0,2512648.0,0.0,1.0,0.0,?,0.0,0.0,658.0,581.0,581.0,8.0,4278.842975206611,0.0,1.0042028817553212
9200000.0,31.828125,1.899471215438097E-5,9200000.0,97.2,94.38481654393479,94.42231075697211,94.0928270042194,1242948.0,2516936.0,0.0,1.0,0.0,?,0.0,0.0,658.0,581.0,581.0,8.0,4278.842975206611,0.0,1.0042028817553212
9300000.0,32.234375,1.9265491217892194E-5,9300000.0,96.6,93.16654339646911,93.30708661417322,92.7038626609442,1272648.0,2517960.0,0.0,1.0,0.0,?,0.0,0.0,658.0,581.0,581.0,8.0,4278.842975206611,0.0,1.0042028817553212
9400000.0,32.578125,1.949489084331111E-5,9400000.0,95.8,91.5790824407829,90.94827586206897,91.1949685534591,1302348.0,2519656.0,0.0,1.0,0.0,?,0.0,0.0,658.0,581.0,581.0,8.0,4278.842975206611,0.0,1.0042028817553212
9500000.0,32.921875,1.9724599939460547E-5,9500000.0,97.5,94.98374734138608,94.78079331941545,94.71458773784354,1332048.0,2521696.0,0.0,1.0,0.0,?,0.0,0.0,658.0,581.0,581.0,8.0,4278.842975206611,0.0,1.0042028817553212
9600000.0,33.28125,1.9965029269870777E-5,9600000.0,98.3,96.58971457917077,96.71179883945841,96.39065817409767,1361748.0,2523256.0,0.0,1.0,0.0,?,0.0,0.0,658.0,581.0,581.0,8.0,4278.842975206611,0.0,1.0042028817553212
9700000.0,33.609375,2.0184881060332468E-5,9700000.0,98.1,96.1682733029484,95.97457627118644,95.82417582417581,1391448.0,2525696.0,0.0,1.0,0.0,?,0.0,0.0,658.0,581.0,581.0,8.0,4278.842975206611,0.0,1.0042028817553212
9800000.0,33.96875,2.042598201013687E-5,9800000.0,97.7,95.38660269422402,95.49902152641879,95.07494646680942,1421148.0,2527600.0,0.0,1.0,0.0,?,0.0,0.0,658.0,581.0,581.0,8.0,4278.842975206611,0.0,1.0042028817553212
9900000.0,34.34375,2.0677895453344614E-5,9900000.0,97.2,94.36401990306113,94.35483870967741,93.93939393939394,1450848.0,2529560.0,0.0,1.0,0.0,?,0.0,0.0,658.0,581.0,581.0,8.0,4278.842975206611,0.0,1.0042028817553212
1.0E7,34.6875,2.0909209528730974E-5,1.0E7,97.6,95.18984094407388,95.1417004048583,94.97907949790795,1480548.0,2532544.0,0.0,1.0,0.0,?,0.0,0.0,658.0,581.0,581.0,8.0,4278.842975206611,0.0,1.0042028817553212
