learning evaluation instances,evaluation time (cpu seconds),model cost (RAM-Hours),classified instances,classifications correct (percent),Kappa Statistic (percent),Kappa Temporal Statistic (percent),Kappa M Statistic (percent),model training instances,model serialized size (bytes),labeling cost,newThreshold,maxPosterior,accuracyBaseLearner (percent),Change detected,Warning detected
100000.0,0.40625,1.74108168317212E-8,100000.0,62.1,24.18605023324292,21.694214876033055,23.434343434343432,19800.0,2904.0,0.0,1.0,0.0,?,0.0,5.0
200000.0,0.796875,3.261595136589474E-8,200000.0,61.199999999999996,21.509922521392596,17.44680851063829,19.16666666666666,39800.0,2904.0,0.0,1.0,0.0,?,0.0,0.0
300000.0,1.1875,4.6285050403740666E-8,300000.0,60.8,21.46586369519138,22.5296442687747,19.999999999999996,59800.0,2904.0,0.0,1.0,0.0,?,0.0,0.0
400000.0,1.5625,5.793279140359825E-8,400000.0,60.8,21.2759719003418,21.599999999999998,18.16283924843423,79800.0,2904.0,0.0,1.0,0.0,?,0.0,0.0
500000.0,1.953125,6.852981944878896E-8,500000.0,62.9,25.234774898230622,24.898785425101213,21.063829787234038,99800.0,2904.0,0.0,1.0,0.0,?,0.0,0.0
600000.0,2.34375,7.759081199765205E-8,600000.0,61.1,21.990935707696625,24.31906614785992,20.61224489795918,119800.0,2904.0,0.0,1.0,0.0,?,0.0,0.0
700000.0,2.71875,8.481477076808611E-8,700000.0,61.8,22.933218203900136,23.29317269076305,20.250521920668056,139800.0,2904.0,0.0,1.0,0.0,?,0.0,0.0
800000.0,3.109375,9.080369232429398E-8,800000.0,60.4,20.94167252283907,24.282982791586996,20.799999999999997,159800.0,2904.0,0.0,1.0,0.0,?,0.0,0.0
900000.0,3.5,9.525657838417424E-8,900000.0,60.6,20.50810252437213,20.72434607645875,16.70190274841437,179800.0,2904.0,0.0,1.0,0.0,?,0.0,0.0
1000000.0,3.890625,9.817342894772688E-8,1000000.0,60.199999999999996,19.51628885159046,19.59595959595959,12.527472527472517,199800.0,2904.0,0.0,1.0,0.0,?,0.0,0.0
1100000.0,4.28125,1.1492995933319131E-7,1100000.0,61.3,22.357133112375507,16.952789699570808,18.86792452830188,219600.0,2904.0,0.0,1.0,0.0,?,0.0,0.0
1200000.0,4.671875,1.3015045422232814E-7,1200000.0,64.8,28.86560854259374,29.600000000000005,25.265392781316347,239600.0,2904.0,0.0,1.0,0.0,?,0.0,0.0
1300000.0,5.0625,1.4383491361513734E-7,1300000.0,63.2,26.018849110617904,29.63671128107075,22.033898305084744,259600.0,2904.0,0.0,1.0,0.0,?,0.0,0.0
1400000.0,5.453125,1.5598333751161894E-7,1400000.0,60.3,20.774296547595288,20.599999999999994,22.003929273084477,279600.0,2904.0,0.0,1.0,0.0,?,0.0,0.0
1500000.0,5.84375,1.6659572591177292E-7,1500000.0,61.8,23.101699009582088,27.099236641221374,18.723404255319142,299600.0,2904.0,0.0,1.0,0.0,?,0.0,0.0
1600000.0,6.234375,1.756720788155993E-7,1600000.0,61.4,22.302737520128826,23.260437375745525,19.415448851774524,319600.0,2904.0,0.0,1.0,0.0,?,0.0,0.0
1700000.0,6.578125,1.8230755813419821E-7,1700000.0,60.099999999999994,19.981710105166886,17.561983471074374,19.55645161290322,339600.0,2904.0,0.0,1.0,0.0,?,0.0,0.0
1800000.0,6.984375,1.885520113218162E-7,1800000.0,59.8,20.16491307508072,21.484374999999996,18.623481781376512,359600.0,2904.0,0.0,1.0,0.0,?,0.0,0.0
1900000.0,7.34375,1.9266279802347225E-7,1900000.0,61.7,22.5774629665567,25.775193798449614,18.162393162393155,379600.0,2904.0,0.0,1.0,0.0,?,0.0,0.0
2000000.0,7.75,1.957122973787288E-7,2000000.0,60.9,21.889982739883653,21.010101010101007,21.643286573146288,399600.0,2904.0,0.0,1.0,0.0,?,0.0,0.0
2100000.0,8.125,2.118133124895394E-7,2100000.0,64.2,28.130922172614277,25.10460251046025,25.72614107883818,419400.0,2904.0,0.0,1.0,0.0,?,0.0,0.0
2200000.0,8.515625,2.270491677336395E-7,2200000.0,59.9,19.216419413845625,20.59405940594059,16.28392484342379,439400.0,2904.0,0.0,1.0,0.0,?,0.0,0.0
2300000.0,8.890625,2.402009946915011E-7,2300000.0,64.4,28.28104161714164,30.196078431372552,24.735729386892178,459400.0,2904.0,0.0,1.0,0.0,?,0.0,0.0
2400000.0,9.25,2.5139167620283037E-7,2400000.0,61.6,22.6040511941953,22.736418511066397,19.496855345911946,479400.0,2904.0,0.0,1.0,0.0,?,0.0,0.0
2500000.0,9.625,2.615943150077429E-7,2500000.0,63.5,26.423157555233022,23.640167364016733,21.50537634408602,499400.0,2904.0,0.0,1.0,0.0,?,0.0,0.0
2600000.0,10.015625,2.7068602826653256E-7,2600000.0,64.3,27.83446803693582,30.544747081712064,22.559652928416483,519400.0,2904.0,0.0,1.0,0.0,?,0.0,0.0
2700000.0,10.40625,2.782417060289946E-7,2700000.0,62.2,23.98495786997003,21.08559498956158,21.08559498956158,539400.0,2904.0,0.0,1.0,0.0,?,0.0,0.0
2800000.0,10.796875,2.8426134829512904E-7,2800000.0,62.6,25.162880788871277,26.666666666666668,25.2,559400.0,2904.0,0.0,1.0,0.0,?,0.0,0.0
2900000.0,11.1875,2.8874495506493583E-7,2900000.0,61.0,21.41437995945788,19.587628865979376,17.5475687103594,579400.0,2904.0,0.0,1.0,0.0,?,0.0,0.0
3000000.0,11.5625,2.915746234874759E-7,3000000.0,60.4,20.43335690863499,21.739130434782606,18.181818181818176,599400.0,2904.0,0.0,1.0,0.0,?,0.0,0.0
3100000.0,11.953125,3.0836187458286683E-7,3100000.0,63.0,25.84338122113904,25.851703406813627,24.18032786885246,619200.0,2904.0,0.0,1.0,0.0,?,0.0,0.0
3200000.0,12.328125,3.230030415579677E-7,3200000.0,61.0,21.209574450891335,20.40816326530612,19.917864476386033,639200.0,2904.0,0.0,1.0,0.0,?,0.0,0.0
3300000.0,12.75,3.3781543606892233E-7,3300000.0,62.9,25.562395165367846,27.5390625,23.662551440329217,659200.0,2904.0,0.0,1.0,0.0,?,0.0,0.0
3400000.0,13.15625,3.504817464595868E-7,3400000.0,59.8,19.556238593795012,21.021611001964633,19.438877755511015,679200.0,2904.0,0.0,1.0,0.0,?,0.0,0.0
3500000.0,13.5625,3.615505799340706E-7,3500000.0,61.3,22.473476713997233,22.132796780684103,20.85889570552147,699200.0,2904.0,0.0,1.0,0.0,?,0.0,0.0
3600000.0,13.9375,3.702933706032734E-7,3600000.0,63.800000000000004,27.092564247160233,20.614035087719294,21.81425485961123,719200.0,2904.0,0.0,1.0,0.0,?,0.0,0.0
3700000.0,14.328125,3.778644087206987E-7,3700000.0,60.5,20.806133414598936,20.2020202020202,19.05737704918032,739200.0,2904.0,0.0,1.0,0.0,?,0.0,0.0
3800000.0,14.703125,3.836580112369525E-7,3800000.0,62.4,24.588848776574416,24.8,23.26530612244898,759200.0,2904.0,0.0,1.0,0.0,?,0.0,0.0
3900000.0,15.09375,3.881569783617226E-7,3900000.0,59.5,18.71256763917211,19.8019801980198,14.012738853503173,779200.0,2904.0,0.0,1.0,0.0,?,0.0,0.0
4000000.0,15.46875,3.910013927250274E-7,4000000.0,63.7,26.877613672073274,28.118811881188122,19.86754966887417,799200.0,2904.0,0.0,1.0,0.0,?,0.0,0.0
4100000.0,15.828125,4.0645979525935333E-7,4100000.0,60.699999999999996,21.04184581260597,20.12195121951219,17.954070981210847,819000.0,2904.0,0.0,1.0,0.0,?,0.0,0.0
4200000.0,16.203125,4.211157081752189E-7,4200000.0,64.5,28.640921115050944,29.56349206349207,28.42741935483871,839000.0,2904.0,0.0,1.0,0.0,?,0.0,0.0
4300000.0,16.59375,4.3484624863291795E-7,4300000.0,61.199999999999996,21.799419542083186,22.4,14.159292035398218,859000.0,2904.0,0.0,1.0,0.0,?,0.0,0.0
4400000.0,16.96875,4.465529733958345E-7,4400000.0,63.800000000000004,27.05642447518911,25.81967213114754,23.46723044397463,879000.0,2904.0,0.0,1.0,0.0,?,0.0,0.0
4500000.0,17.375,4.576377816394801E-7,4500000.0,62.1,23.717897109733507,24.2,21.041666666666664,899000.0,2904.0,0.0,1.0,0.0,?,0.0,0.0
4600000.0,17.75,4.663953182494476E-7,4600000.0,60.9,22.072434768050886,22.266401590457257,24.37137330754352,919000.0,2904.0,0.0,1.0,0.0,?,0.0,0.0
4700000.0,18.140625,4.739817167218362E-7,4700000.0,59.699999999999996,19.202207002742707,22.050290135396516,17.922606924643578,939000.0,2904.0,0.0,1.0,0.0,?,0.0,0.0
4800000.0,18.53125,4.800320796978972E-7,4800000.0,61.5,22.42720246298669,19.45606694560669,16.846652267818566,959000.0,2904.0,0.0,1.0,0.0,?,0.0,0.0
4900000.0,18.9375,4.847269802768199E-7,4900000.0,61.3,22.661252288187754,22.90836653386454,22.90836653386454,979000.0,2904.0,0.0,1.0,0.0,?,0.0,0.0
5000000.0,19.328125,4.879389113436144E-7,5000000.0,61.4,22.551234565424142,20.90163934426229,21.06339468302658,999000.0,2904.0,0.0,1.0,0.0,?,0.0,0.0
5100000.0,19.71875,5.050543889713785E-7,5100000.0,68.2,35.70562070359887,32.19616204690832,29.33333333333334,14081.0,2904.0,0.0,1.0,0.0,?,2.0,28.0
5200000.0,20.109375,5.206451492591038E-7,5200000.0,67.7,34.310072726681106,34.34959349593497,26.42369020501139,34081.0,2904.0,0.0,1.0,0.0,?,0.0,6.0
5300000.0,20.515625,5.352620630421574E-7,5300000.0,68.8,36.889119036830856,34.591194968553445,31.578947368421034,54081.0,2904.0,0.0,1.0,0.0,?,0.0,0.0
5400000.0,20.921875,5.482814999090302E-7,5400000.0,69.1,37.27365737207074,35.624999999999986,27.97202797202797,74081.0,2904.0,0.0,1.0,0.0,?,0.0,0.0
5500000.0,21.328125,5.597034598597223E-7,5500000.0,66.0,31.36748272075447,27.659574468085108,27.350427350427353,60841.0,2904.0,0.0,1.0,0.0,?,1.0,21.0
5600000.0,21.71875,5.690797439052001E-7,5600000.0,69.19999999999999,37.39837398373982,37.651821862348164,31.555555555555536,80841.0,2904.0,0.0,1.0,0.0,?,0.0,1.0
5700000.0,22.125,5.772336023963161E-7,5700000.0,66.60000000000001,32.32482463214287,31.134020618556708,23.91799544419134,100841.0,2904.0,0.0,1.0,0.0,?,0.0,0.0
5800000.0,22.515625,5.835378154491385E-7,5800000.0,67.30000000000001,33.531181396861534,30.720338983050855,25.681818181818183,120841.0,2904.0,0.0,1.0,0.0,?,0.0,0.0
5900000.0,22.90625,5.883059930056334E-7,5900000.0,64.8,28.7403232598063,28.744939271255067,20.36199095022624,140841.0,2904.0,0.0,1.0,0.0,?,0.0,0.0
6000000.0,23.3125,5.916674207482074E-7,6000000.0,67.4,34.3184226750535,34.53815261044178,28.035320088300224,160841.0,2904.0,0.0,1.0,0.0,?,0.0,0.0
6100000.0,23.6875,6.080563697550032E-7,6100000.0,65.60000000000001,30.262731106065534,31.062124248496996,23.89380530973451,180641.0,2904.0,0.0,1.0,0.0,?,0.0,0.0
6200000.0,24.0625,6.229707246853246E-7,6200000.0,65.9,31.04480267893975,29.69072164948454,26.34989200863931,200641.0,2904.0,0.0,1.0,0.0,?,0.0,0.0
6300000.0,24.46875,6.375304656103254E-7,6300000.0,66.3,32.135808933102425,34.43579766536966,27.056277056277057,220641.0,2904.0,0.0,1.0,0.0,?,0.0,0.0
6400000.0,24.875,6.504927296191455E-7,6400000.0,70.1,39.19303668754576,39.95983935742971,32.045454545454525,240641.0,2904.0,0.0,1.0,0.0,?,0.0,0.0
6500000.0,25.25,6.609833023200433E-7,6500000.0,67.5,34.009616321756944,33.67346938775511,26.801801801801805,260641.0,2904.0,0.0,1.0,0.0,?,0.0,0.0
6600000.0,25.671875,6.711262782725196E-7,6600000.0,67.30000000000001,32.53725923847565,26.351351351351354,20.04889975550124,280641.0,2904.0,0.0,1.0,0.0,?,0.0,0.0
6700000.0,26.046875,6.786676628204684E-7,6700000.0,68.89999999999999,36.68566775244298,32.53796095444684,30.11235955056178,300641.0,2904.0,0.0,1.0,0.0,?,0.0,0.0
6800000.0,26.453125,6.852400191645655E-7,6800000.0,67.7,34.307400688246936,33.946830265848675,25.576036866359463,320641.0,2904.0,0.0,1.0,0.0,?,0.0,0.0
6900000.0,26.84375,6.900235570760236E-7,6900000.0,69.69999999999999,38.13649987341463,36.61087866108785,29.698375870069604,340641.0,2904.0,0.0,1.0,0.0,?,0.0,0.0
7000000.0,27.21875,6.931411593945489E-7,7000000.0,68.7,36.92822310885423,37.40000000000001,29.662921348314615,360641.0,2904.0,0.0,1.0,0.0,?,0.0,0.0
7100000.0,27.625,7.109118289210729E-7,7100000.0,68.30000000000001,35.494636083934324,39.272030651341005,26.620370370370388,380441.0,2904.0,0.0,1.0,0.0,?,0.0,0.0
7200000.0,27.984375,7.252188839225304E-7,7200000.0,66.3,31.75927425886927,32.32931726907631,24.269662921348313,400441.0,2904.0,0.0,1.0,0.0,?,0.0,0.0
7300000.0,28.390625,7.39794599616693E-7,7300000.0,64.5,28.56625429608583,28.137651821862352,23.982869379014986,420441.0,2904.0,0.0,1.0,0.0,?,0.0,0.0
7400000.0,28.796875,7.527728383946749E-7,7400000.0,67.60000000000001,33.946300788974746,34.67741935483872,25.517241379310363,440441.0,2904.0,0.0,1.0,0.0,?,0.0,0.0
7500000.0,29.1875,7.637158786464067E-7,7500000.0,65.3,29.62887852362604,27.55741127348643,22.888888888888886,460441.0,2904.0,0.0,1.0,0.0,?,0.0,0.0
7600000.0,29.578125,7.73122883401811E-7,7600000.0,66.10000000000001,31.22672054921245,30.246913580246922,22.77904328018223,480441.0,2904.0,0.0,1.0,0.0,?,0.0,0.0
7700000.0,29.953125,7.806790138905246E-7,7700000.0,68.89999999999999,36.876375120767044,35.4771784232365,29.4784580498866,500441.0,2904.0,0.0,1.0,0.0,?,0.0,0.0
7800000.0,30.34375,7.870139476532737E-7,7800000.0,69.19999999999999,37.02075452407728,36.231884057971,27.86885245901639,520441.0,2904.0,0.0,1.0,0.0,?,0.0,0.0
7900000.0,30.734375,7.918128459196951E-7,7900000.0,68.30000000000001,36.10107721086241,38.56589147286823,32.264957264957275,540441.0,2904.0,0.0,1.0,0.0,?,0.0,0.0
8000000.0,31.125,7.950757086897889E-7,8000000.0,66.60000000000001,32.24629890336376,27.861771058315338,25.612472160356347,560441.0,2904.0,0.0,1.0,0.0,?,0.0,0.0
8100000.0,31.515625,8.121782512817945E-7,8100000.0,66.8,32.962067029856115,35.156250000000014,27.9826464208243,580241.0,2904.0,0.0,1.0,0.0,?,0.0,0.0
8200000.0,31.90625,8.277447583774725E-7,8200000.0,67.4,33.94150378316602,34.53815261044178,26.410835214446955,600241.0,2904.0,0.0,1.0,0.0,?,0.0,0.0
8300000.0,32.296875,8.417752299768228E-7,8300000.0,68.4,36.10068590656142,36.80000000000001,26.16822429906544,620241.0,2904.0,0.0,1.0,0.0,?,0.0,0.0
8400000.0,32.703125,8.547694435239665E-7,8400000.0,69.0,36.333203261383005,36.47540983606556,26.71394799054373,640241.0,2904.0,0.0,1.0,0.0,?,0.0,0.0
8500000.0,33.09375,8.657278441306616E-7,8500000.0,68.4,36.10998786898504,38.16046966731899,29.777777777777782,660241.0,2904.0,0.0,1.0,0.0,?,0.0,0.0
8600000.0,33.484375,8.751502092410292E-7,8600000.0,69.6,38.268345875959966,39.92094861660078,32.59423503325941,680241.0,2904.0,0.0,1.0,0.0,?,0.0,0.0
8700000.0,33.890625,8.833519920396307E-7,8700000.0,68.5,36.60594253882131,36.74698795180724,31.222707423580793,700241.0,2904.0,0.0,1.0,0.0,?,0.0,0.0
8800000.0,34.265625,8.894482743926345E-7,8800000.0,67.80000000000001,34.44411870093489,31.779661016949156,27.14932126696833,720241.0,2904.0,0.0,1.0,0.0,?,0.0,0.0
8900000.0,34.671875,8.944551033588746E-7,8900000.0,67.60000000000001,34.0533191127322,36.09467455621303,25.858123569794074,740241.0,2904.0,0.0,1.0,0.0,?,0.0,0.0
9000000.0,35.0625,8.977333264839317E-7,9000000.0,65.9,31.01076313020961,31.250000000000007,25.219298245614034,760241.0,2904.0,0.0,1.0,0.0,?,0.0,0.0
9100000.0,35.453125,9.148512294309006E-7,9100000.0,63.7,26.6429552986824,28.543307086614178,20.56892778993435,780041.0,2904.0,0.0,1.0,0.0,?,0.0,0.0
9200000.0,35.828125,9.298098221835163E-7,9200000.0,66.3,31.95768050395736,33.00198807157058,26.73913043478261,800041.0,2904.0,0.0,1.0,0.0,?,0.0,0.0
9300000.0,36.203125,9.432938208596574E-7,9300000.0,65.60000000000001,31.100785130588044,30.223123732251526,29.50819672131148,820041.0,2904.0,0.0,1.0,0.0,?,0.0,0.0
9400000.0,36.59375,9.558036173176434E-7,9400000.0,65.5,30.541574390980465,32.4853228962818,23.333333333333332,840041.0,2904.0,0.0,1.0,0.0,?,0.0,0.0
9500000.0,36.984375,9.667773782793018E-7,9500000.0,66.4,31.35909001765053,29.113924050632917,22.93577981651378,860041.0,2904.0,0.0,1.0,0.0,?,0.0,0.0
9600000.0,37.375,9.762151037446327E-7,9600000.0,67.2,33.764135702746366,33.4685598377282,28.695652173913043,880041.0,2904.0,0.0,1.0,0.0,?,0.0,0.0
9700000.0,37.765625,9.84116793713636E-7,9700000.0,66.8,32.17153247390036,29.21108742004265,20.76372315035801,900041.0,2904.0,0.0,1.0,0.0,?,0.0,0.0
9800000.0,38.15625,9.904824481863114E-7,9800000.0,68.8,36.65952056129409,37.72455089820358,29.41176470588233,920041.0,2904.0,0.0,1.0,0.0,?,0.0,0.0
9900000.0,38.546875,9.953120671626594E-7,9900000.0,67.0,33.28805007035079,33.198380566801625,25.339366515837103,940041.0,2904.0,0.0,1.0,0.0,?,0.0,0.0
1.0E7,38.9375,9.986056506426797E-7,1.0E7,69.1,37.281805634488904,36.680327868852444,29.612756264236882,960041.0,2904.0,0.0,1.0,0.0,?,0.0,0.0
