learning evaluation instances,evaluation time (cpu seconds),model cost (RAM-Hours),classified instances,classifications correct (percent),Kappa Statistic (percent),Kappa Temporal Statistic (percent),Kappa M Statistic (percent),model training instances,model serialized size (bytes),labeling cost,newThreshold,maxPosterior,accuracyBaseLearner (percent),Change detected,Warning detected
100000.0,0.125,5.307503872447544E-9,100000.0,67.30000000000001,30.971882124461704,29.373650107991367,28.13186813186814,29464.0,5144.0,0.0,1.0,0.0,?,1.0,6.0
200000.0,0.265625,1.072547295027309E-8,200000.0,69.5,33.744047825935844,33.40611353711789,29.561200923787528,59464.0,5144.0,0.0,1.0,0.0,?,0.0,0.0
300000.0,0.390625,1.504991410507096E-8,300000.0,70.0,34.11111501563763,36.97478991596637,29.245283018867923,89464.0,5144.0,0.0,1.0,0.0,?,0.0,0.0
400000.0,0.53125,1.9361937625540626E-8,400000.0,69.5,33.48395763909486,38.87775551102203,28.904428904428904,119464.0,5144.0,0.0,1.0,0.0,?,0.0,0.0
500000.0,0.671875,2.312098836733235E-8,500000.0,72.1,37.125910434845316,40.764331210191074,30.94059405940594,149464.0,5144.0,0.0,1.0,0.0,?,0.0,0.0
600000.0,0.78125,2.5614604560865292E-8,600000.0,59.9,12.658999825753606,23.47328244274809,6.088992974238881,179464.0,5144.0,0.0,1.0,0.0,?,0.0,0.0
700000.0,0.921875,2.8267709745301136E-8,700000.0,59.8,11.936348819684193,15.723270440251563,5.6338028169014125,209464.0,5144.0,0.0,1.0,0.0,?,0.0,0.0
800000.0,1.046875,3.013449410597483E-8,800000.0,67.0,28.292358572974486,31.818181818181824,23.787528868360294,239464.0,5144.0,0.0,1.0,0.0,?,0.0,0.0
900000.0,1.1875,3.1681653733054795E-8,900000.0,58.5,10.39813455393382,18.78669275929549,5.681818181818162,269464.0,5144.0,0.0,1.0,0.0,?,0.0,0.0
1000000.0,1.3125,3.2565375376078815E-8,1000000.0,68.2,30.516710949517574,34.96932515337424,25.70093457943927,299464.0,5144.0,0.0,1.0,0.0,?,0.0,0.0
1100000.0,1.421875,3.7213742163860134E-8,1100000.0,68.5,31.651304483674448,34.782608695652186,27.25173210161665,329164.0,5144.0,0.0,1.0,0.0,?,0.0,0.0
1200000.0,1.546875,4.203462999107109E-8,1200000.0,69.69999999999999,32.23053249355854,40.23668639053253,26.634382566585952,359164.0,5144.0,0.0,1.0,0.0,?,0.0,0.0
1300000.0,1.6875,4.690515601800547E-8,1300000.0,68.30000000000001,29.467782128871505,35.17382413087935,24.703087885985767,389164.0,5144.0,0.0,1.0,0.0,?,0.0,0.0
1400000.0,1.8125,5.074298112756675E-8,1400000.0,67.60000000000001,27.812633680308014,34.01221995926681,22.48803827751198,419164.0,5144.0,0.0,1.0,0.0,?,0.0,0.0
1500000.0,1.9375,5.4089274878303203E-8,1500000.0,63.1,18.465291403722752,24.539877300613497,12.765957446808521,449164.0,5144.0,0.0,1.0,0.0,?,0.0,0.0
1600000.0,2.0625,5.694403727021482E-8,1600000.0,69.5,32.65859452966995,35.517970401691315,27.55344418052256,479164.0,5144.0,0.0,1.0,0.0,?,0.0,0.0
1700000.0,2.203125,5.960267218243744E-8,1700000.0,62.9,18.61393610206822,23.029045643153527,12.085308056872048,509164.0,5144.0,0.0,1.0,0.0,?,0.0,0.0
1800000.0,2.34375,6.170833431598213E-8,1800000.0,67.5,30.512199919607973,33.80855397148677,27.130044843049326,539164.0,5144.0,0.0,1.0,0.0,?,0.0,0.0
1900000.0,2.46875,6.308850263141924E-8,1900000.0,69.39999999999999,32.59169512060798,36.382536382536365,27.999999999999996,569164.0,5144.0,0.0,1.0,0.0,?,0.0,0.0
2000000.0,2.59375,6.39771395880315E-8,2000000.0,61.1,15.299261426978816,22.0440881763527,10.16166281755197,599164.0,5144.0,0.0,1.0,0.0,?,0.0,0.0
2100000.0,2.734375,6.995914090010855E-8,2100000.0,65.8,23.43889214733761,31.46292585170341,18.377088305489274,628864.0,5144.0,0.0,1.0,0.0,?,0.0,0.0
2200000.0,2.859375,7.478494404090776E-8,2200000.0,69.1,31.284468955701815,33.1168831168831,25.54216867469879,658864.0,5144.0,0.0,1.0,0.0,?,0.0,0.0
2300000.0,2.984375,7.911921582288213E-8,2300000.0,67.10000000000001,28.16217443708842,30.29661016949153,23.84259259259261,688864.0,5144.0,0.0,1.0,0.0,?,0.0,0.0
2400000.0,3.125,8.344229879892535E-8,2400000.0,68.30000000000001,29.654976522071046,34.9075975359343,24.16267942583734,718864.0,5144.0,0.0,1.0,0.0,?,0.0,0.0
2500000.0,3.265625,8.721240899629063E-8,2500000.0,66.60000000000001,26.4900079232327,30.41666666666667,22.325581395348852,748864.0,5144.0,0.0,1.0,0.0,?,0.0,0.0
2600000.0,3.390625,9.00720867017905E-8,2600000.0,61.9,16.5096200201604,21.604938271604933,10.563380281690149,778864.0,5144.0,0.0,1.0,0.0,?,0.0,0.0
2700000.0,3.515625,9.244023304846552E-8,2700000.0,68.7,31.49965421550692,37.40000000000001,26.525821596244153,808864.0,5144.0,0.0,1.0,0.0,?,0.0,0.0
2800000.0,3.609375,9.384769428935316E-8,2800000.0,68.89999999999999,30.418829425451932,36.530612244897945,25.060240963855414,838864.0,5144.0,0.0,1.0,0.0,?,0.0,0.0
2900000.0,3.75,9.540591337200668E-8,2900000.0,67.30000000000001,27.868071364286113,34.33734939759037,22.877358490566056,868864.0,5144.0,0.0,1.0,0.0,?,0.0,0.0
3000000.0,3.859375,9.618777160843213E-8,3000000.0,68.89999999999999,29.751170060897365,35.4771784232365,23.58722358722358,898864.0,5144.0,0.0,1.0,0.0,?,0.0,0.0
3100000.0,3.984375,1.0151002142164442E-7,3100000.0,67.7,28.802560462717253,33.67556468172486,23.459715639810444,928564.0,5144.0,0.0,1.0,0.0,?,0.0,0.0
3200000.0,4.125,1.0694457968283031E-7,3200000.0,70.5,34.840037814866186,37.76371308016876,30.09478672985782,958564.0,5144.0,0.0,1.0,0.0,?,0.0,0.0
3300000.0,4.25,1.1128376677839292E-7,3300000.0,70.19999999999999,32.6985618269856,38.42975206611569,26.237623762376234,988564.0,5144.0,0.0,1.0,0.0,?,0.0,0.0
3400000.0,4.359375,1.1465046554803849E-7,3400000.0,68.4,31.868359321098396,34.02922755741128,28.506787330316747,1018564.0,5144.0,0.0,1.0,0.0,?,0.0,0.0
3500000.0,4.5,1.1842610547319055E-7,3500000.0,68.60000000000001,30.927376956141106,37.94466403162057,26.463700234192057,1048564.0,5144.0,0.0,1.0,0.0,?,0.0,0.0
3600000.0,4.640625,1.2164877261966466E-7,3600000.0,69.1,30.78081037974229,37.322515212981735,25.181598062953984,1078564.0,5144.0,0.0,1.0,0.0,?,0.0,0.0
3700000.0,4.765625,1.2402183427992793E-7,3700000.0,61.8,15.934578616573658,16.775599128540296,8.612440191387567,1108564.0,5144.0,0.0,1.0,0.0,?,0.0,0.0
3800000.0,4.90625,1.2613855586904616E-7,3800000.0,69.39999999999999,30.39126478616923,41.04046242774565,23.499999999999993,1138564.0,5144.0,0.0,1.0,0.0,?,0.0,0.0
3900000.0,5.03125,1.2752855481165977E-7,3900000.0,66.0,24.394376720583868,29.752066115702487,18.46522781774582,1168564.0,5144.0,0.0,1.0,0.0,?,0.0,0.0
4000000.0,5.171875,1.2853933084342212E-7,4000000.0,71.0,33.98047643330661,43.35937499999999,26.76767676767676,1198564.0,5144.0,0.0,1.0,0.0,?,0.0,0.0
4100000.0,5.3125,1.3453239161107272E-7,4100000.0,66.5,25.931494370793583,35.328185328185334,20.42755344418054,1228264.0,5144.0,0.0,1.0,0.0,?,0.0,0.0
4200000.0,5.4375,1.3936802537904843E-7,4200000.0,62.2,13.695871557538366,19.91525423728813,5.263157894736847,1258264.0,5144.0,0.0,1.0,0.0,?,0.0,0.0
4300000.0,5.5625,1.437121277881993E-7,4300000.0,63.7,19.665383083255886,28.260869565217394,12.949640287769796,1288264.0,5144.0,0.0,1.0,0.0,?,0.0,0.0
4400000.0,5.671875,1.4708312745723458E-7,4400000.0,67.0,27.87673478308383,29.93630573248408,22.352941176470605,1318264.0,5144.0,0.0,1.0,0.0,?,0.0,0.0
4500000.0,5.796875,1.5044416714873577E-7,4500000.0,68.7,30.36025773379375,35.860655737704924,25.29832935560861,1348264.0,5144.0,0.0,1.0,0.0,?,0.0,0.0
4600000.0,5.890625,1.5259629839824304E-7,4600000.0,68.8,31.76599234554401,36.45621181262728,26.58823529411764,1378264.0,5144.0,0.0,1.0,0.0,?,0.0,0.0
4700000.0,6.015625,1.5497427537209457E-7,4700000.0,70.3,33.72725081892588,41.30434782608695,28.087167070217912,1408264.0,5144.0,0.0,1.0,0.0,?,0.0,0.0
4800000.0,6.125,1.5662491528524292E-7,4800000.0,68.60000000000001,31.060223505390056,34.03361344537816,26.463700234192057,1438264.0,5144.0,0.0,1.0,0.0,?,0.0,0.0
4900000.0,6.25,1.5801982954144476E-7,4900000.0,67.0,27.664574053940328,32.653061224489804,23.61111111111113,1468264.0,5144.0,0.0,1.0,0.0,?,0.0,0.0
5000000.0,6.390625,1.5912024537101388E-7,5000000.0,68.30000000000001,29.83558951385139,36.472945891783574,24.881516587677748,1498264.0,5144.0,0.0,1.0,0.0,?,0.0,0.0
5100000.0,6.5,1.6385123469970293E-7,5100000.0,51.2,1.891405043746778,1.4141414141414155,1.6129032258064528,1527964.0,5144.0,0.0,1.0,0.0,?,0.0,0.0
5200000.0,6.625,1.6876654828795128E-7,5200000.0,49.8,-0.7566786423940853,-3.5051546391752613,-2.868852459016396,1557964.0,5144.0,0.0,1.0,0.0,?,0.0,0.0
5300000.0,6.75,1.731903305173748E-7,5300000.0,55.7,5.927222071215015,12.623274161735711,1.991150442477878,1587964.0,5144.0,0.0,1.0,0.0,?,0.0,0.0
5400000.0,6.859375,1.7663105002914866E-7,5400000.0,50.4,1.3053167780961499,5.8823529411764754,0.0,1617964.0,5144.0,0.0,1.0,0.0,?,0.0,0.0
5500000.0,6.96875,1.7964167960195078E-7,5500000.0,52.1,1.55781166509105,3.427419354838713,-0.2092050209205023,1647964.0,5144.0,0.0,1.0,0.0,?,0.0,0.0
5600000.0,7.09375,1.825908677548998E-7,5600000.0,53.6,2.619207521826739,5.112474437627816,0.8547008547008554,1677964.0,5144.0,0.0,1.0,0.0,?,0.0,0.0
5700000.0,7.203125,1.8474131744975844E-7,5700000.0,52.0,2.392998324413138,6.432748538011701,1.234567901234569,1707964.0,5144.0,0.0,1.0,0.0,?,0.0,0.0
5800000.0,7.296875,1.8621591152623296E-7,5800000.0,52.900000000000006,1.670146137787058,7.827788649706465,-5.8426966292134885,1737964.0,5144.0,0.0,1.0,0.0,?,0.0,0.0
5900000.0,7.421875,1.8769050560270747E-7,5900000.0,52.5,2.115137327310505,4.6184738955823335,0.21008403361344558,1767964.0,5144.0,0.0,1.0,0.0,?,0.0,0.0
6000000.0,7.546875,1.8867356832035713E-7,6000000.0,51.800000000000004,2.2538398828668558,-0.8368200836820092,5.490196078431377,1797964.0,5144.0,0.0,1.0,0.0,?,0.0,0.0
6100000.0,7.65625,1.9340885854843588E-7,6100000.0,51.7,3.6535837675238767,4.1666666666666705,5.8479532163742745,1827664.0,5144.0,0.0,1.0,0.0,?,0.0,0.0
6200000.0,7.765625,1.9771405883754291E-7,6200000.0,48.9,-3.2631978854283807,-1.5904572564612343,-4.073319755600818,1857664.0,5144.0,0.0,1.0,0.0,?,0.0,0.0
6300000.0,7.890625,2.0214275638055467E-7,6300000.0,50.8,3.334184726015283,-0.20366598778004094,-5.5793991416309066,1887664.0,5144.0,0.0,1.0,0.0,?,0.0,0.0
6400000.0,8.0,2.0558777679171824E-7,6400000.0,53.6,6.14241270637544,9.197651663405097,8.118811881188126,1917664.0,5144.0,0.0,1.0,0.0,?,0.0,0.0
6500000.0,8.140625,2.094623697404232E-7,6500000.0,53.7,3.7149797032009033,6.085192697768768,1.0683760683760695,1947664.0,5144.0,0.0,1.0,0.0,?,0.0,7.0
6600000.0,8.25,2.1205830206680627E-7,6600000.0,50.9,0.3507005893718141,3.9138943248532323,-2.079002079002081,1977664.0,5144.0,0.0,1.0,0.0,?,0.0,14.0
6700000.0,8.359375,2.142241444542176E-7,6700000.0,52.400000000000006,5.32450225749349,4.417670682730928,4.800000000000004,2007664.0,5144.0,0.0,1.0,0.0,?,0.0,0.0
6800000.0,8.484375,2.1620786153814856E-7,6800000.0,53.2,4.648585213195996,5.4545454545454595,3.703703703703707,2037664.0,5144.0,0.0,1.0,0.0,?,0.0,0.0
6900000.0,8.609375,2.177000472632547E-7,6900000.0,51.9,3.913766100936502,4.183266932270921,-0.8385744234800846,2067664.0,5144.0,0.0,1.0,0.0,?,0.0,0.0
7000000.0,8.71875,2.1857561983375084E-7,7000000.0,53.300000000000004,1.5905661808710603,6.41282565130261,-1.9650655021834078,2097664.0,5144.0,0.0,1.0,0.0,?,0.0,0.0
7100000.0,8.84375,2.240049717430439E-7,7100000.0,52.300000000000004,5.420946187096012,7.915057915057922,2.25409836065574,2127364.0,5144.0,0.0,1.0,0.0,?,0.0,0.0
7200000.0,8.96875,2.2894279229351214E-7,7200000.0,53.400000000000006,4.448281094292731,6.425702811244986,2.7139874739039693,2157364.0,5144.0,0.0,1.0,0.0,?,0.0,0.0
7300000.0,9.09375,2.3338908148515554E-7,7300000.0,55.2,6.04696812727281,11.462450592885386,2.8199566160520635,2187364.0,5144.0,0.0,1.0,0.0,?,0.0,0.0
7400000.0,9.21875,2.373438393179741E-7,7400000.0,53.5,3.6005705187740586,11.089866156787773,1.2738853503184726,2217364.0,5144.0,0.0,1.0,0.0,?,0.0,0.0
7500000.0,9.34375,2.4080706579196786E-7,7500000.0,51.2,2.0461908413188508,9.629629629629626,-0.20533880903490778,2247364.0,5144.0,0.0,1.0,0.0,?,0.0,0.0
7600000.0,9.453125,2.4340729901774066E-7,7600000.0,49.3,-1.8808777429467156,-2.6315789473684235,-2.0120724346076475,2277364.0,5144.0,0.0,1.0,0.0,?,0.0,0.0
7700000.0,9.578125,2.458874627740847E-7,7700000.0,53.900000000000006,5.799174465650429,7.6152304609218495,4.35684647302905,2307364.0,5144.0,0.0,1.0,0.0,?,0.0,0.0
7800000.0,9.703125,2.4787609517160394E-7,7800000.0,55.1,4.748570167846187,8.92494929006086,0.4434589800443463,2337364.0,5144.0,0.0,1.0,0.0,?,0.0,0.0
7900000.0,9.8125,2.4918605858046153E-7,7900000.0,51.9,2.234182669636905,6.237816764132559,1.2320328542094467,2367364.0,5144.0,0.0,1.0,0.0,?,0.0,0.0
8000000.0,9.9375,2.501916282603311E-7,8000000.0,52.300000000000004,0.7482376049738332,1.03734439834025,-2.1413276231263403,2397364.0,5144.0,0.0,1.0,0.0,?,0.0,0.0
8100000.0,10.0625,2.556258954832124E-7,8100000.0,54.0,6.079513900231948,10.331384015594551,4.5643153526971,2427064.0,5144.0,0.0,1.0,0.0,?,0.0,0.0
8200000.0,10.1875,2.6056863134726886E-7,8200000.0,50.1,1.1646331801616219,0.20000000000000018,0.9920634920634929,2457064.0,5144.0,0.0,1.0,0.0,?,0.0,0.0
8300000.0,10.296875,2.6446343528934655E-7,8300000.0,49.3,1.3925626264197914,-4.106776180698156,-4.968944099378887,2487064.0,5144.0,0.0,1.0,0.0,?,0.0,0.0
8400000.0,10.421875,2.6842310843575336E-7,8400000.0,52.5,3.7807091463019407,2.6639344262295106,2.862985685071577,2517064.0,5144.0,0.0,1.0,0.0,?,0.0,0.0
8500000.0,10.53125,2.714577324998876E-7,8500000.0,54.1,3.1825315131368,5.165289256198352,0.0,2547064.0,5144.0,0.0,1.0,0.0,?,0.0,0.0
8600000.0,10.65625,2.7443434292864476E-7,8600000.0,53.300000000000004,4.969272719873021,4.887983706720982,3.1120331950207496,2577064.0,5144.0,0.0,1.0,0.0,?,0.0,0.0
8700000.0,10.78125,2.769194219985771E-7,8700000.0,50.8,-2.980576021433362,1.7964071856287442,-6.956521739130442,2607064.0,5144.0,0.0,1.0,0.0,?,0.0,0.0
8800000.0,10.90625,2.7891296970968457E-7,8800000.0,51.7,2.587187492436884,2.4242424242424265,2.0283975659229228,2637064.0,5144.0,0.0,1.0,0.0,?,0.0,0.0
8900000.0,11.046875,2.806027381060025E-7,8900000.0,53.6,4.41858069832114,10.251450676982602,2.315789473684213,2667064.0,5144.0,0.0,1.0,0.0,?,0.0,0.0
9000000.0,11.171875,2.816132230994603E-7,9000000.0,53.300000000000004,0.7902787219578403,13.197026022304833,-3.3185840707964633,2697064.0,5144.0,0.0,1.0,0.0,?,0.0,0.0
9100000.0,11.296875,2.8705240563592985E-7,9100000.0,55.400000000000006,6.74099506940059,12.720156555773004,3.253796095444689,2726764.0,5144.0,0.0,1.0,0.0,?,0.0,0.0
9200000.0,11.40625,2.91381600416369E-7,9200000.0,51.300000000000004,2.6000000000000023,3.9447731755424096,2.6000000000000023,2756764.0,5144.0,0.0,1.0,0.0,?,0.0,0.0
9300000.0,11.53125,2.958377202351889E-7,9300000.0,52.2,2.8798758162763614,4.400000000000004,1.84804928131417,2786764.0,5144.0,0.0,1.0,0.0,?,0.0,0.0
9400000.0,11.65625,2.9980230869518395E-7,9400000.0,49.0,-1.1362960318876818,0.9708737864077678,3.409090909090912,2816764.0,5144.0,0.0,1.0,0.0,?,0.0,0.0
9500000.0,11.78125,3.032753657963542E-7,9500000.0,54.1,6.5743944636678195,10.000000000000009,8.016032064128263,2846764.0,5144.0,0.0,1.0,0.0,?,0.0,0.0
9600000.0,11.890625,3.058842008209064E-7,9600000.0,53.5,6.318749949633748,7.185628742514977,6.060606060606066,2876764.0,5144.0,0.0,1.0,0.0,?,0.0,0.0
9700000.0,12.0,3.080629459064869E-7,9700000.0,53.400000000000006,4.633267845448591,13.703703703703704,2.5104602510460277,2906764.0,5144.0,0.0,1.0,0.0,?,0.0,0.0
9800000.0,12.125,3.100614089311826E-7,9800000.0,51.0,1.1447039788247837,3.3530571992110487,0.6085192697768768,2936764.0,5144.0,0.0,1.0,0.0,?,0.0,0.0
9900000.0,12.25,3.1156834059705345E-7,9900000.0,51.6,-1.616201485612066,3.9682539682539715,-5.446623093681922,2966764.0,5144.0,0.0,1.0,0.0,?,0.0,0.0
1.0E7,12.375,3.125837409040995E-7,1.0E7,52.800000000000004,1.3514021894972628,7.269155206286844,1.0482180293501058,2996764.0,5144.0,0.0,1.0,0.0,?,0.0,0.0
