learning evaluation instances,evaluation time (cpu seconds),model cost (RAM-Hours),classified instances,classifications correct (percent),Kappa Statistic (percent),Kappa Temporal Statistic (percent),Kappa M Statistic (percent),model training instances,model serialized size (bytes),labeling cost,newThreshold,maxPosterior,accuracyBaseLearner (percent),Change detected,Warning detected
100000.0,0.109375,4.623466843946113E-9,100000.0,59.8,10.10733452593918,14.285714285714276,2.4271844660194195,29509.0,5144.0,0.0,1.0,0.0,?,1.0,8.0
200000.0,0.234375,9.44487207258741E-9,200000.0,62.0,10.613473842679701,18.103448275862064,-2.7027027027027053,59509.0,5144.0,0.0,1.0,0.0,?,0.0,66.0
300000.0,0.375,1.4290077767024437E-8,300000.0,63.0,22.752838311251782,16.099773242630377,4.392764857881141,89509.0,5144.0,0.0,1.0,0.0,?,0.0,16.0
400000.0,0.484375,1.7628481145948173E-8,400000.0,58.5,13.198801934307166,14.432989690721639,-8.923884514435704,119509.0,5144.0,0.0,1.0,0.0,?,0.0,0.0
500000.0,0.578125,2.0120351109653713E-8,500000.0,60.099999999999994,15.959660637105802,16.52719665271966,-4.724409448818902,149509.0,5144.0,0.0,1.0,0.0,?,0.0,101.0
600000.0,0.6875,2.259744279500511E-8,600000.0,61.8,9.21923791689045,21.074380165289252,-2.9649595687331565,179509.0,5144.0,0.0,1.0,0.0,?,0.0,0.0
700000.0,0.8125,2.4936873362296158E-8,700000.0,65.4,16.25155515537032,25.910064239828696,4.683195592286506,209509.0,5144.0,0.0,1.0,0.0,?,0.0,0.0
800000.0,0.921875,2.655378516970409E-8,800000.0,60.4,17.521994134897355,14.470842332613381,-1.0204081632653068,239509.0,5144.0,0.0,1.0,0.0,?,0.0,0.0
900000.0,1.03125,2.7740607038140296E-8,900000.0,62.6,9.364094610314076,21.593291404612156,-3.8888888888888924,269509.0,5144.0,0.0,1.0,0.0,?,0.0,0.0
1000000.0,1.140625,2.8497338967604768E-8,1000000.0,61.6,19.959979989994988,18.297872340425524,1.5384615384615397,299509.0,5144.0,0.0,1.0,0.0,?,0.0,0.0
1100000.0,1.25,3.312918124720454E-8,1100000.0,59.099999999999994,13.604447786668473,11.663066954643615,-8.20105820105821,329209.0,5144.0,0.0,1.0,0.0,?,0.0,0.0
1200000.0,1.375,3.7931183922208014E-8,1200000.0,60.3,8.508480825958692,15.711252653927804,-2.3195876288659814,359209.0,5144.0,0.0,1.0,0.0,?,0.0,0.0
1300000.0,1.5,4.224165523838665E-8,1300000.0,60.0,8.330888823701953,14.163090128755353,-0.5025125628140708,389209.0,5144.0,0.0,1.0,0.0,?,0.0,0.0
1400000.0,1.609375,4.558322770107123E-8,1400000.0,60.6,16.9298626601841,18.930041152263367,8.158508158508166,419209.0,5144.0,0.0,1.0,0.0,?,0.0,0.0
1500000.0,1.71875,4.849471022478408E-8,1500000.0,62.7,16.813117210986917,21.966527196652716,-3.038674033149174,449209.0,5144.0,0.0,1.0,0.0,?,0.0,0.0
1600000.0,1.828125,5.100439820024702E-8,1600000.0,62.5,18.517230889574567,22.680412371134018,5.778894472361814,479209.0,5144.0,0.0,1.0,0.0,?,0.0,97.0
1700000.0,1.9375,5.307358353295259E-8,1700000.0,63.0,18.963432796593835,18.141592920353975,-1.092896174863389,509209.0,5144.0,0.0,1.0,0.0,?,0.0,54.0
1800000.0,2.046875,5.469547532912757E-8,1800000.0,60.8,9.435357175861746,17.124735729386884,-10.734463276836168,539209.0,5144.0,0.0,1.0,0.0,?,0.0,56.0
1900000.0,2.171875,5.608107635958327E-8,1900000.0,59.9,7.681965522322076,16.28392484342379,-3.3505154639175285,569209.0,5144.0,0.0,1.0,0.0,?,0.0,13.0
2000000.0,2.296875,5.697514603121413E-8,2000000.0,61.0,19.41316251678892,12.55605381165918,0.7633587786259549,599209.0,5144.0,0.0,1.0,0.0,?,0.0,0.0
2100000.0,2.421875,6.229791324585676E-8,2100000.0,59.699999999999996,16.48983787009714,13.888888888888879,-6.332453825857526,628909.0,5144.0,0.0,1.0,0.0,?,0.0,0.0
2200000.0,2.53125,6.652230189906226E-8,2200000.0,61.4,16.43755547377307,17.872340425531906,-7.520891364902514,658909.0,5144.0,0.0,1.0,0.0,?,0.0,26.0
2300000.0,2.65625,7.087002611822552E-8,2300000.0,60.099999999999994,7.450361848209298,15.999999999999993,-5.000000000000004,688909.0,5144.0,0.0,1.0,0.0,?,0.0,46.0
2400000.0,2.765625,7.423717761412263E-8,2400000.0,61.8,20.5103981555083,19.238900634249468,-1.3262599469496033,718909.0,5144.0,0.0,1.0,0.0,?,0.0,39.0
2500000.0,2.890625,7.760183911563622E-8,2500000.0,63.2,20.889137304641313,19.474835886214436,-0.8219178082191789,748909.0,5144.0,0.0,1.0,0.0,?,0.0,139.0
2600000.0,3.015625,8.047496925832496E-8,2600000.0,62.4,11.395984541427081,16.81415929203539,0.5291005291005296,778909.0,5144.0,0.0,1.0,0.0,?,0.0,0.0
2700000.0,3.140625,8.285656804218888E-8,2700000.0,60.6,8.201304753028893,16.17021276595744,-3.141361256544505,808909.0,5144.0,0.0,1.0,0.0,?,0.0,0.0
2800000.0,3.28125,8.498289389535784E-8,2800000.0,63.0,22.300248639204366,21.610169491525422,1.5957446808510651,838909.0,5144.0,0.0,1.0,0.0,?,0.0,0.0
2900000.0,3.421875,8.655624696984886E-8,2900000.0,60.4,11.641854985541395,20.48192771084337,5.263157894736846,868909.0,5144.0,0.0,1.0,0.0,?,0.0,0.0
3000000.0,3.53125,8.734987608881459E-8,3000000.0,59.9,16.423509795748224,14.316239316239306,-0.5012531328320806,898909.0,5144.0,0.0,1.0,0.0,?,0.0,0.0
3100000.0,3.65625,9.268557833921578E-8,3100000.0,64.5,16.319372418865143,24.78813559322034,3.532608695652177,928609.0,5144.0,0.0,1.0,0.0,?,0.0,0.0
3200000.0,3.78125,9.752974923079212E-8,3200000.0,62.6,14.474797506505855,21.097046413502106,4.834605597964381,958609.0,5144.0,0.0,1.0,0.0,?,0.0,0.0
3300000.0,3.890625,1.0133830882194969E-7,3300000.0,62.1,21.00216775054193,18.843683083511774,1.5584415584415598,988609.0,5144.0,0.0,1.0,0.0,?,0.0,0.0
3400000.0,4.015625,1.0519941699587636E-7,3400000.0,59.0,14.783946126826434,14.046121593291394,-5.398457583547563,1018609.0,5144.0,0.0,1.0,0.0,?,0.0,0.0
3500000.0,4.140625,1.085689938109782E-7,3500000.0,61.199999999999996,19.05773186413382,16.916488222698064,0.25706940874036016,1048609.0,5144.0,0.0,1.0,0.0,?,0.0,0.0
3600000.0,4.234375,1.1072752790318594E-7,3600000.0,63.3,12.592409115158912,20.21739130434782,1.3440860215053776,1078609.0,5144.0,0.0,1.0,0.0,?,0.0,0.0
3700000.0,4.359375,1.131140420006381E-7,3700000.0,60.099999999999994,16.028285209192696,16.701461377870555,-1.7857142857142874,1108609.0,5144.0,0.0,1.0,0.0,?,0.0,0.0
3800000.0,4.484375,1.1500902473926544E-7,3800000.0,59.8,17.281567781787952,19.277108433734934,1.7114914425427885,1138609.0,5144.0,0.0,1.0,0.0,?,0.0,0.0
3900000.0,4.609375,1.1641247611906793E-7,3900000.0,62.3,11.606096131301287,16.035634743875267,-0.5333333333333339,1168609.0,5144.0,0.0,1.0,0.0,?,0.0,0.0
4000000.0,4.75,1.1743838614266779E-7,4000000.0,59.3,15.121332699350171,14.135021097046405,-4.092071611253201,1198609.0,5144.0,0.0,1.0,0.0,?,0.0,0.0
4100000.0,4.859375,1.2211142651115853E-7,4100000.0,63.9,16.079299250525377,24.31865828092243,5.989583333333338,1228309.0,5144.0,0.0,1.0,0.0,?,0.0,0.0
4200000.0,4.984375,1.2696051271632314E-7,4200000.0,61.7,10.999776918500878,21.67689161554192,1.2886597938144342,1258309.0,5144.0,0.0,1.0,0.0,?,0.0,0.0
4300000.0,5.09375,1.307733732068704E-7,4300000.0,60.8,20.205836373110998,18.16283924843423,7.109004739336498,1288309.0,5144.0,0.0,1.0,0.0,?,0.0,0.0
4400000.0,5.21875,1.3463939669438533E-7,4400000.0,62.7,13.332403922115338,20.806794055201692,2.356020942408379,1318309.0,5144.0,0.0,1.0,0.0,?,0.0,0.0
4500000.0,5.34375,1.380138888230754E-7,4500000.0,63.1,21.2561458617864,18.54304635761589,-3.6516853932584303,1348309.0,5144.0,0.0,1.0,0.0,?,0.0,0.0
4600000.0,5.46875,1.4089684959294067E-7,4600000.0,62.3,10.828326789346692,19.27194860813704,-1.8918918918918937,1378309.0,5144.0,0.0,1.0,0.0,?,0.0,0.0
4700000.0,5.578125,1.4298935032760104E-7,4700000.0,58.3,12.902174730351804,8.351648351648336,-10.317460317460327,1408309.0,5144.0,0.0,1.0,0.0,?,0.0,0.0
4800000.0,5.703125,1.448892483798166E-7,4800000.0,63.7,14.606720427578038,24.688796680497923,3.9682539682539715,1438309.0,5144.0,0.0,1.0,0.0,?,0.0,0.0
4900000.0,5.84375,1.4647366090988118E-7,4900000.0,60.8,16.609938733832546,18.672199170124475,-7.6923076923077,1468309.0,5144.0,0.0,1.0,0.0,?,0.0,0.0
5000000.0,5.96875,1.474652607511315E-7,5000000.0,60.6,16.333629209331548,15.63169164882226,-6.775067750677513,1498309.0,5144.0,0.0,1.0,0.0,?,0.0,0.0
5100000.0,6.09375,1.5285399664814271E-7,5100000.0,60.5,15.32181995918297,15.053763440860205,-7.336956521739137,793052.0,5144.0,0.0,1.0,0.0,?,1.0,20.0
5200000.0,6.203125,1.571596496635013E-7,5200000.0,58.4,12.034002241441291,15.102040816326523,-12.129380053908367,823052.0,5144.0,0.0,1.0,0.0,?,0.0,18.0
5300000.0,6.328125,1.615888646079434E-7,5300000.0,58.599999999999994,13.772993868301779,16.53225806451612,-5.612244897959188,853052.0,5144.0,0.0,1.0,0.0,?,0.0,0.0
5400000.0,6.4375,1.6503433774535853E-7,5400000.0,58.099999999999994,12.439083515142398,7.912087912087895,-9.685863874345559,883052.0,5144.0,0.0,1.0,0.0,?,0.0,0.0
5500000.0,6.546875,1.6804972094380192E-7,5500000.0,59.8,14.90982981965963,14.285714285714276,-8.648648648648656,913052.0,5144.0,0.0,1.0,0.0,?,0.0,0.0
5600000.0,6.65625,1.7063501420327358E-7,5600000.0,57.199999999999996,10.60052219321148,10.647181628392472,-14.133333333333345,943052.0,5144.0,0.0,1.0,0.0,?,0.0,0.0
5700000.0,6.78125,1.7309810371241634E-7,5700000.0,66.10000000000001,19.32413136601617,22.602739726027394,5.833333333333339,973052.0,5144.0,0.0,1.0,0.0,?,0.0,0.0
5800000.0,6.890625,1.7482321709394453E-7,5800000.0,64.60000000000001,14.583534407875698,24.680851063829788,2.2099447513812174,1003052.0,5144.0,0.0,1.0,0.0,?,0.0,0.0
5900000.0,7.0,1.76118240536501E-7,5900000.0,65.7,16.468594139650854,23.2662192393736,2.8328611898017027,1033052.0,5144.0,0.0,1.0,0.0,?,0.0,0.0
6000000.0,7.109375,1.7698317404008571E-7,6000000.0,65.10000000000001,18.90887123007575,28.189300411522638,8.63874345549739,1063052.0,5144.0,0.0,1.0,0.0,?,0.0,0.0
6100000.0,7.21875,1.8172321789380575E-7,6100000.0,65.3,19.69079800037031,26.79324894514768,8.684210526315796,1092752.0,5144.0,0.0,1.0,0.0,?,0.0,0.0
6200000.0,7.328125,1.8603317180855403E-7,6200000.0,65.0,20.005119672340978,27.685950413223143,9.32642487046633,1122752.0,5144.0,0.0,1.0,0.0,?,0.0,0.0
6300000.0,7.453125,1.904673020665844E-7,6300000.0,64.5,16.442276912648033,23.326133909287254,5.585106382978728,1152752.0,5144.0,0.0,1.0,0.0,?,0.0,0.0
6400000.0,7.5625,1.9391707610338925E-7,6400000.0,64.60000000000001,19.486899563318776,26.70807453416149,10.606060606060614,1182752.0,5144.0,0.0,1.0,0.0,?,0.0,0.0
6500000.0,7.6875,1.9736814364376993E-7,6500000.0,65.3,20.506922999386056,27.708333333333336,9.162303664921474,1212752.0,5144.0,0.0,1.0,0.0,?,0.0,0.0
6600000.0,7.796875,1.9995773780263132E-7,6600000.0,61.8,12.12289911616801,19.067796610169484,3.7783375314861494,1242752.0,5144.0,0.0,1.0,0.0,?,0.0,0.0
6700000.0,7.9375,2.027342432282037E-7,6700000.0,64.7,14.063412924083677,27.066115702479344,1.1204481792717098,1272752.0,5144.0,0.0,1.0,0.0,?,0.0,0.0
6800000.0,8.0625,2.047107166921099E-7,6800000.0,62.5,14.05863263846872,18.122270742358072,4.092071611253201,1302752.0,5144.0,0.0,1.0,0.0,?,0.0,0.0
6900000.0,8.171875,2.0601004103405606E-7,6900000.0,63.3,12.834885046551392,18.44444444444444,-2.2284122562674114,1332752.0,5144.0,0.0,1.0,0.0,?,0.0,0.0
7000000.0,8.265625,2.0675509909374846E-7,7000000.0,64.2,19.597177366830028,27.08757637474542,10.275689223057654,1362752.0,5144.0,0.0,1.0,0.0,?,0.0,0.0
7100000.0,8.375,2.114994438468582E-7,7100000.0,59.0,7.815036491755058,10.284463894967164,-2.2443890274314233,1392452.0,5144.0,0.0,1.0,0.0,?,0.0,0.0
7200000.0,8.484375,2.158136986609962E-7,7200000.0,65.5,20.28945325496285,31.000000000000007,12.87878787878789,1422452.0,5144.0,0.0,1.0,0.0,?,0.0,0.0
7300000.0,8.609375,2.202527442326148E-7,7300000.0,68.0,21.07534837834506,25.925925925925945,7.24637681159421,1452452.0,5144.0,0.0,1.0,0.0,?,0.0,0.0
7400000.0,8.71875,2.2370681916880936E-7,7400000.0,60.3,6.1518968190929915,12.938596491228058,-9.065934065934075,1482452.0,5144.0,0.0,1.0,0.0,?,0.0,0.0
7500000.0,8.828125,2.267308041660322E-7,7500000.0,64.1,12.600181129429643,22.629310344827584,1.9125683060109306,1512452.0,5144.0,0.0,1.0,0.0,?,0.0,0.0
7600000.0,8.953125,2.296952556611763E-7,7600000.0,65.9,19.01468660346169,30.122950819672134,7.336956521739137,1542452.0,5144.0,0.0,1.0,0.0,?,0.0,0.0
7700000.0,9.078125,2.3216817579749557E-7,7700000.0,59.5,2.784445511281792,11.764705882352928,-12.18836565096954,1572452.0,5144.0,0.0,1.0,0.0,?,0.0,0.0
7800000.0,9.171875,2.336542173806164E-7,7800000.0,63.3,15.051015684313828,20.9051724137931,4.4270833333333375,1602452.0,5144.0,0.0,1.0,0.0,?,0.0,0.0
7900000.0,9.28125,2.349578426219523E-7,7900000.0,61.0,8.51770534256601,17.721518987341767,-3.174603174603177,1632452.0,5144.0,0.0,1.0,0.0,?,0.0,0.0
8000000.0,9.390625,2.3583137792431645E-7,8000000.0,61.8,10.422421596169265,17.67241379310344,-1.3262599469496033,1662452.0,5144.0,0.0,1.0,0.0,?,0.0,0.0
8100000.0,9.5,2.405800235768159E-7,8100000.0,65.5,15.67431219569425,23.50332594235033,1.9886363636363658,1692152.0,5144.0,0.0,1.0,0.0,?,0.0,0.0
8200000.0,9.609375,2.4489857929034363E-7,8200000.0,64.2,16.016064859995495,20.796460176991147,3.7634408602150575,1722152.0,5144.0,0.0,1.0,0.0,?,0.0,0.0
8300000.0,9.734375,2.493425401755505E-7,8300000.0,64.8,17.098445595854923,25.581395348837212,4.864864864864869,1752152.0,5144.0,0.0,1.0,0.0,?,0.0,0.0
8400000.0,9.84375,2.5280091601113475E-7,8400000.0,65.3,16.881449472544528,26.94736842105263,4.143646408839783,1782152.0,5144.0,0.0,1.0,0.0,?,0.0,0.0
8500000.0,9.953125,2.558292019077473E-7,8500000.0,66.0,21.23795404002965,24.107142857142858,10.052910052910063,1812152.0,5144.0,0.0,1.0,0.0,?,0.0,0.0
8600000.0,10.0625,2.584273978653881E-7,8600000.0,67.9,22.347476897769614,31.991525423728824,10.335195530726267,1842152.0,5144.0,0.0,1.0,0.0,?,0.0,0.0
8700000.0,10.171875,2.6059550388405716E-7,8700000.0,64.2,13.169600628671486,20.267260579064583,0.2785515320334264,1872152.0,5144.0,0.0,1.0,0.0,?,0.0,0.0
8800000.0,10.296875,2.6258180797513985E-7,8800000.0,64.2,17.469304575151348,24.152542372881356,6.52741514360314,1902152.0,5144.0,0.0,1.0,0.0,?,0.0,0.0
8900000.0,10.40625,2.638897341158655E-7,8900000.0,64.5,17.791342849467846,24.307036247334754,8.031088082901562,1932152.0,5144.0,0.0,1.0,0.0,?,0.0,0.0
9000000.0,10.515625,2.6476757031761934E-7,9000000.0,64.8,19.12656692276587,23.478260869565215,8.808290155440423,1962152.0,5144.0,0.0,1.0,0.0,?,0.0,0.0
9100000.0,10.609375,2.688415245049529E-7,9100000.0,64.0,17.370547190598597,22.077922077922075,5.263157894736847,1991852.0,5144.0,0.0,1.0,0.0,?,0.0,0.0
9200000.0,10.734375,2.7378193206257284E-7,9200000.0,67.60000000000001,22.097407093944756,31.501057082452437,8.988764044943828,2021852.0,5144.0,0.0,1.0,0.0,?,0.0,0.0
9300000.0,10.859375,2.7823080826136794E-7,9300000.0,59.599999999999994,7.6731813444978565,16.528925619834702,-1.5075376884422125,2051852.0,5144.0,0.0,1.0,0.0,?,0.0,0.0
9400000.0,11.0,2.826828212063345E-7,9400000.0,65.4,16.217891596606083,28.512396694214882,1.7045454545454561,2081852.0,5144.0,0.0,1.0,0.0,?,0.0,0.0
9500000.0,11.125,2.861486346874799E-7,9500000.0,66.3,20.37765092806111,29.64509394572025,10.610079575596826,2111852.0,5144.0,0.0,1.0,0.0,?,0.0,0.0
9600000.0,11.21875,2.883793462792204E-7,9600000.0,60.3,6.400596018370934,14.80686695278969,-6.149732620320861,2141852.0,5144.0,0.0,1.0,0.0,?,0.0,0.0
9700000.0,11.328125,2.905517531972792E-7,9700000.0,59.3,0.17169487368163694,7.9185520361990775,-13.68715083798884,2171852.0,5144.0,0.0,1.0,0.0,?,0.0,0.0
9800000.0,11.4375,2.9229407017636626E-7,9800000.0,62.3,12.453440092144499,21.45833333333333,0.0,2201852.0,5144.0,0.0,1.0,0.0,?,0.0,0.0
9900000.0,11.546875,2.936062972164816E-7,9900000.0,67.2,20.433154146208928,29.31034482758621,9.392265193370175,2231852.0,5144.0,0.0,1.0,0.0,?,0.0,0.0
1.0E7,11.65625,2.944884343176252E-7,1.0E7,62.1,8.872325078143769,19.18976545842217,-6.760563380281696,2261852.0,5144.0,0.0,1.0,0.0,?,0.0,0.0
