learning evaluation instances,evaluation time (cpu seconds),model cost (RAM-Hours),classified instances,classifications correct (percent),Kappa Statistic (percent),Kappa Temporal Statistic (percent),Kappa M Statistic (percent),model training instances,model serialized size (bytes),labeling cost,newThreshold,maxPosterior,accuracyBaseLearner (percent),Change detected,Warning detected,tree size (nodes),tree size (leaves),active learning leaves,tree depth,active leaf byte size estimate,inactive leaf byte size estimate,byte size estimate overhead
100000.0,0.328125,2.192915417253971E-8,100000.0,78.4,51.883451025818104,53.5483870967742,41.46341463414635,9900.0,61368.0,0.0,1.0,0.0,?,0.0,5.0,26.0,21.0,21.0,3.0,0.0,0.0,1.0
200000.0,0.59375,4.042347427457571E-8,200000.0,79.60000000000001,54.583301793959585,58.36734693877552,45.0134770889488,19900.0,87344.0,0.0,1.0,0.0,?,0.0,0.0,41.0,33.0,33.0,3.0,0.0,0.0,1.0
300000.0,0.859375,6.19660972410606E-8,300000.0,79.9,57.15308924094886,59.3939393939394,48.72448979591838,29900.0,146744.0,0.0,1.0,0.0,?,0.0,0.0,69.0,53.0,53.0,4.0,0.0,0.0,1.0
400000.0,1.140625,8.974512133540378E-8,400000.0,82.5,62.07557146696022,61.53846153846153,54.06824146981626,39900.0,230008.0,0.0,1.0,0.0,?,0.0,0.0,113.0,84.0,84.0,4.0,0.0,0.0,1.0
500000.0,1.421875,1.1955792110206352E-7,500000.0,82.0,61.64483973935536,61.62046908315564,51.48247978436656,49900.0,272960.0,0.0,1.0,0.0,?,0.0,0.0,134.0,96.0,96.0,5.0,0.0,0.0,1.0
600000.0,1.6875,1.510035427701142E-7,600000.0,84.6,67.04049310846673,67.78242677824267,58.823529411764696,59900.0,335784.0,0.0,1.0,0.0,?,0.0,0.0,156.0,110.0,110.0,5.0,0.0,0.0,1.0
700000.0,1.984375,1.889509924997886E-7,700000.0,85.1,67.80188434609732,65.98173515981735,58.6111111111111,69900.0,387232.0,0.0,1.0,0.0,?,0.0,0.0,175.0,121.0,121.0,6.0,0.0,0.0,1.0
800000.0,2.296875,2.297079966713985E-7,800000.0,81.5,60.39866768274409,60.63829787234041,48.89502762430938,79900.0,412312.0,0.0,1.0,0.0,?,0.0,0.0,193.0,130.0,130.0,6.0,0.0,0.0,1.0
900000.0,2.609375,2.73818408863412E-7,900000.0,83.1,64.12590322060232,62.10762331838564,52.25988700564971,89900.0,468784.0,0.0,1.0,0.0,?,0.0,0.0,222.0,149.0,149.0,6.0,0.0,0.0,1.0
1000000.0,2.921875,3.209181078192261E-7,1000000.0,84.7,68.12101512689085,68.58316221765914,59.94764397905759,99900.0,520728.0,0.0,1.0,0.0,?,0.0,0.0,250.0,166.0,166.0,6.0,0.0,0.0,1.0
1100000.0,3.234375,3.815226308587525E-7,1100000.0,84.2,66.97324414715719,66.66666666666666,58.42105263157894,109800.0,550768.0,0.0,1.0,0.0,?,0.0,0.0,269.0,180.0,180.0,6.0,0.0,0.0,1.0
1200000.0,3.5625,4.473664577946895E-7,1200000.0,83.7,65.79338364294168,66.32231404958677,57.77202072538859,119800.0,591864.0,0.0,1.0,0.0,?,0.0,0.0,283.0,190.0,190.0,6.0,0.0,0.0,1.0
1300000.0,3.890625,5.145603144127462E-7,1300000.0,83.39999999999999,65.20805999304162,64.14686825053994,55.9681697612732,129800.0,622880.0,0.0,1.0,0.0,?,0.0,0.0,299.0,201.0,201.0,6.0,0.0,0.0,1.0
1400000.0,4.265625,5.985361187615328E-7,1400000.0,85.2,69.22065876108991,69.35817805383022,62.72040302267003,139800.0,711832.0,0.0,1.0,0.0,?,0.0,0.0,327.0,221.0,221.0,6.0,0.0,0.0,1.0
1500000.0,4.609375,6.766998881681098E-7,1500000.0,84.39999999999999,67.2544080604534,67.43215031315239,59.16230366492145,149800.0,740200.0,0.0,1.0,0.0,?,0.0,0.0,341.0,228.0,228.0,6.0,0.0,0.0,1.0
1600000.0,4.9375,7.562490969171955E-7,1600000.0,84.39999999999999,67.85983592034182,66.87898089171973,60.70528967254407,159800.0,813296.0,0.0,1.0,0.0,?,0.0,0.0,365.0,243.0,243.0,6.0,0.0,0.0,1.0
1700000.0,5.296875,8.482245094556776E-7,1700000.0,84.5,67.19882169702714,67.97520661157024,56.58263305322128,169800.0,880464.0,0.0,1.0,0.0,?,0.0,0.0,395.0,264.0,264.0,6.0,0.0,0.0,1.0
1800000.0,5.671875,9.482050922492313E-7,1800000.0,84.7,68.37980606281052,66.52078774617067,60.8695652173913,179800.0,936800.0,0.0,1.0,0.0,?,0.0,0.0,423.0,284.0,284.0,6.0,0.0,0.0,1.0
1900000.0,6.0625,1.05447207008385E-6,1900000.0,86.5,71.89022612751427,70.0,62.39554317548747,189800.0,972840.0,0.0,1.0,0.0,?,0.0,0.0,445.0,298.0,298.0,7.0,0.0,0.0,1.0
2000000.0,6.421875,1.1530997128122384E-6,2000000.0,87.2,73.89885807504078,73.93075356415478,68.0,199800.0,997168.0,0.0,1.0,0.0,?,0.0,0.0,457.0,304.0,304.0,7.0,0.0,0.0,1.0
2100000.0,6.78125,1.270245605458816E-6,2100000.0,88.0,75.53017944535073,73.79912663755458,70.0,209700.0,1059200.0,0.0,1.0,0.0,?,0.0,0.0,487.0,325.0,325.0,7.0,0.0,0.0,1.0
2200000.0,7.1875,1.4079918360544576E-6,2200000.0,86.8,72.94727177334732,73.6,66.66666666666666,219700.0,1124800.0,0.0,1.0,0.0,?,0.0,0.0,523.0,349.0,349.0,7.0,0.0,0.0,1.0
2300000.0,7.5625,1.539114293538862E-6,2300000.0,88.2,74.72313261786945,72.68518518518519,65.79710144927536,229700.0,1180728.0,0.0,1.0,0.0,?,0.0,0.0,547.0,364.0,364.0,7.0,0.0,0.0,1.0
2400000.0,7.90625,1.6598078784429366E-6,2400000.0,87.5,73.90701713369627,72.64770240700219,65.65934065934066,239700.0,1201432.0,0.0,1.0,0.0,?,0.0,0.0,562.0,373.0,373.0,7.0,0.0,0.0,1.0
2500000.0,8.25,1.780212623998523E-6,2500000.0,85.0,68.86519876457108,67.67241379310343,59.01639344262294,249700.0,1213328.0,0.0,1.0,0.0,?,0.0,0.0,575.0,381.0,381.0,7.0,0.0,0.0,1.0
2600000.0,8.625,1.91457763624688E-6,2600000.0,86.4,72.00171283639119,72.1311475409836,63.043478260869556,259700.0,1259416.0,0.0,1.0,0.0,?,0.0,0.0,595.0,394.0,394.0,7.0,0.0,0.0,1.0
2700000.0,8.984375,2.044472397149851E-6,2700000.0,86.8,72.57040263324134,71.24183006535947,63.535911602209936,269700.0,1286688.0,0.0,1.0,0.0,?,0.0,0.0,609.0,404.0,404.0,7.0,0.0,0.0,1.0
2800000.0,9.328125,2.169364824011508E-6,2800000.0,87.2,73.59125870663189,72.35421166306695,66.66666666666666,279700.0,1309032.0,0.0,1.0,0.0,?,0.0,0.0,624.0,413.0,413.0,8.0,0.0,0.0,1.0
2900000.0,9.6875,2.304355115888433E-6,2900000.0,86.9,72.96895763348384,72.36286919831223,65.34391534391534,289700.0,1371648.0,0.0,1.0,0.0,?,0.0,0.0,653.0,435.0,435.0,8.0,0.0,0.0,1.0
3000000.0,10.046875,2.440777154535883E-6,3000000.0,86.4,72.09993148071408,70.6896551724138,63.92572944297083,299700.0,1402136.0,0.0,1.0,0.0,?,0.0,0.0,664.0,442.0,442.0,8.0,0.0,0.0,1.0
3100000.0,10.4375,2.6049995600866774E-6,3100000.0,85.7,70.13566344772279,68.36283185840706,59.490084985835686,309600.0,1422824.0,0.0,1.0,0.0,?,0.0,0.0,673.0,448.0,448.0,8.0,0.0,0.0,1.0
3200000.0,10.78125,2.74933670880273E-6,3200000.0,86.5,72.04089071509047,70.13274336283185,63.70967741935484,319600.0,1435984.0,0.0,1.0,0.0,?,0.0,0.0,680.0,453.0,453.0,8.0,0.0,0.0,1.0
3300000.0,11.15625,2.9085602727718654E-6,3300000.0,87.1,73.08911882510013,72.78481012658227,65.22911051212937,329600.0,1469288.0,0.0,1.0,0.0,?,0.0,0.0,703.0,469.0,469.0,8.0,0.0,0.0,1.0
3400000.0,11.53125,3.0704334494657817E-6,3400000.0,88.9,76.68517849491275,76.63157894736841,69.25207756232687,339600.0,1511648.0,0.0,1.0,0.0,?,0.0,0.0,719.0,480.0,480.0,8.0,0.0,0.0,1.0
3500000.0,11.921875,3.2434217670621972E-6,3500000.0,86.6,72.39162683369045,70.08928571428571,64.55026455026454,349600.0,1569936.0,0.0,1.0,0.0,?,0.0,0.0,736.0,493.0,493.0,8.0,0.0,0.0,1.0
3600000.0,12.28125,3.405592190877845E-6,3600000.0,88.6,75.91400030424421,75.79617834394905,68.1564245810056,359600.0,1617480.0,0.0,1.0,0.0,?,0.0,0.0,759.0,509.0,509.0,8.0,0.0,0.0,1.0
3700000.0,12.703125,3.597755179119607E-6,3700000.0,87.4,73.49377314035678,72.0,65.0,369600.0,1648952.0,0.0,1.0,0.0,?,0.0,0.0,772.0,517.0,517.0,8.0,0.0,0.0,1.0
3800000.0,13.046875,3.753698547370732E-6,3800000.0,86.1,71.45180901054844,70.61310782241014,63.70757180156657,379600.0,1656968.0,0.0,1.0,0.0,?,0.0,0.0,778.0,520.0,520.0,8.0,0.0,0.0,1.0
3900000.0,13.40625,3.91584219566236E-6,3900000.0,86.5,72.39037958115183,71.15384615384615,64.93506493506493,389600.0,1662584.0,0.0,1.0,0.0,?,0.0,0.0,782.0,522.0,522.0,8.0,0.0,0.0,1.0
4000000.0,13.796875,4.09507409333148E-6,4000000.0,88.6,76.44822741922155,75.21739130434783,70.46632124352332,399600.0,1707248.0,0.0,1.0,0.0,?,0.0,0.0,799.0,535.0,535.0,8.0,0.0,0.0,1.0
4100000.0,14.171875,4.28121520801344E-6,4100000.0,87.6,74.33774834437087,73.2181425485961,67.36842105263158,409500.0,1715368.0,0.0,1.0,0.0,?,0.0,0.0,803.0,537.0,537.0,8.0,0.0,0.0,1.0
4200000.0,14.5625,4.474764573387803E-6,4200000.0,88.0,74.66269715588776,74.63002114164905,66.19718309859155,419500.0,1727088.0,0.0,1.0,0.0,?,0.0,0.0,812.0,543.0,543.0,8.0,0.0,0.0,1.0
4300000.0,14.9375,4.661240964196624E-6,4300000.0,89.5,78.55374635413689,78.26086956521739,73.61809045226131,429500.0,1749112.0,0.0,1.0,0.0,?,0.0,0.0,832.0,556.0,556.0,8.0,0.0,0.0,1.0
4400000.0,15.40625,4.897141091835997E-6,4400000.0,87.7,74.03178678196835,74.63917525773196,65.05681818181817,439500.0,1787344.0,0.0,1.0,0.0,?,0.0,0.0,842.0,564.0,564.0,8.0,0.0,0.0,1.0
4500000.0,15.796875,5.094649386592211E-6,4500000.0,88.4,75.84138620459846,75.73221757322176,69.14893617021278,449500.0,1811648.0,0.0,1.0,0.0,?,0.0,0.0,863.0,579.0,579.0,8.0,0.0,0.0,1.0
4600000.0,16.1875,5.294192524161192E-6,4600000.0,88.1,75.16093211211395,74.46351931330472,68.18181818181819,459500.0,1846864.0,0.0,1.0,0.0,?,0.0,0.0,890.0,597.0,597.0,8.0,0.0,0.0,1.0
4700000.0,16.59375,5.509861156396156E-6,4700000.0,89.2,76.87643451748826,75.51020408163265,69.83240223463687,469500.0,1939304.0,0.0,1.0,0.0,?,0.0,0.0,926.0,624.0,624.0,8.0,0.0,0.0,1.0
4800000.0,16.96875,5.710322131764974E-6,4800000.0,88.5,76.03307851980293,76.0914760914761,69.49602122015915,479500.0,1968640.0,0.0,1.0,0.0,?,0.0,0.0,937.0,631.0,631.0,8.0,0.0,0.0,1.0
4900000.0,17.375,5.927682407976441E-6,4900000.0,91.10000000000001,81.2367708693489,80.77753779697625,75.41436464088399,489500.0,1985568.0,0.0,1.0,0.0,?,0.0,0.0,951.0,638.0,638.0,8.0,0.0,0.0,1.0
5000000.0,17.765625,6.136213778518143E-6,5000000.0,88.7,75.94925932232249,75.95744680851064,68.16901408450704,499500.0,1993872.0,0.0,1.0,0.0,?,0.0,0.0,957.0,641.0,641.0,8.0,0.0,0.0,1.0
5100000.0,18.21875,6.163737917732864E-6,5100000.0,63.2,23.675521412334703,25.506072874493928,18.942731277533035,9345.0,34984.0,0.0,1.0,0.0,?,1.0,28.0,13.0,10.0,10.0,2.0,0.0,0.0,1.0
5200000.0,18.5625,6.185954359049601E-6,5200000.0,74.9,49.546927387777096,48.87983706720978,47.48953974895397,19345.0,65144.0,0.0,1.0,0.0,?,0.0,0.0,23.0,18.0,18.0,2.0,0.0,0.0,1.0
5300000.0,18.828125,6.202051817025578E-6,5300000.0,75.9,51.48406422624128,51.21457489878543,47.14912280701754,29345.0,64768.0,0.0,1.0,0.0,?,0.0,0.0,25.0,19.0,19.0,3.0,0.0,0.0,1.0
5400000.0,19.09375,6.219423570049308E-6,5400000.0,73.2,45.98952035469568,45.194274028629856,40.444444444444436,39345.0,98408.0,0.0,1.0,0.0,?,0.0,0.0,41.0,30.0,30.0,4.0,0.0,0.0,1.0
5500000.0,19.375,6.242631546532117E-6,5500000.0,79.5,58.31774484766662,58.163265306122454,55.043859649122815,49345.0,179656.0,0.0,1.0,0.0,?,0.0,0.0,83.0,63.0,63.0,4.0,0.0,0.0,1.0
5600000.0,19.671875,6.269196973234004E-6,5600000.0,77.5,54.22884762478234,52.83018867924528,51.508620689655174,59345.0,221736.0,0.0,1.0,0.0,?,0.0,0.0,110.0,84.0,84.0,4.0,0.0,0.0,1.0
5700000.0,20.0625,6.309496077139761E-6,5700000.0,76.2,50.86522620576323,50.51975051975052,46.275395033860036,69345.0,289648.0,0.0,1.0,0.0,?,0.0,0.0,145.0,109.0,109.0,5.0,0.0,0.0,1.0
5800000.0,20.421875,6.349119390102312E-6,5800000.0,78.4,55.701394585726014,55.64681724845997,52.0,79345.0,332200.0,0.0,1.0,0.0,?,0.0,0.0,174.0,131.0,131.0,5.0,0.0,0.0,1.0
5900000.0,20.78125,6.38990595083063E-6,5900000.0,76.4,52.13292443492512,53.72549019607843,50.210970464135016,89345.0,359808.0,0.0,1.0,0.0,?,0.0,0.0,183.0,137.0,137.0,5.0,0.0,0.0,1.0
6000000.0,21.125,6.4400949890518375E-6,6000000.0,77.8,54.55792227357769,54.41478439425052,51.84381778741866,99345.0,500208.0,0.0,1.0,0.0,?,0.0,0.0,216.0,161.0,161.0,6.0,0.0,0.0,1.0
6100000.0,21.5,6.515731575847088E-6,6100000.0,79.2,57.207281345666416,58.400000000000006,53.57142857142857,109245.0,578336.0,0.0,1.0,0.0,?,0.0,0.0,256.0,190.0,190.0,6.0,0.0,0.0,1.0
6200000.0,21.859375,6.591208059237237E-6,6200000.0,78.4,55.788439495660725,53.94456289978679,52.63157894736842,119245.0,625536.0,0.0,1.0,0.0,?,0.0,0.0,285.0,209.0,209.0,6.0,0.0,0.0,1.0
6300000.0,22.21875,6.673800138135753E-6,6300000.0,77.8,55.20165309935952,54.13223140495869,53.846153846153854,129245.0,717104.0,0.0,1.0,0.0,?,0.0,0.0,334.0,247.0,247.0,6.0,0.0,0.0,1.0
6400000.0,22.609375,6.764881383989836E-6,6400000.0,83.3,66.3170633319887,67.0611439842209,65.13569937369519,139245.0,745152.0,0.0,1.0,0.0,?,0.0,0.0,372.0,272.0,272.0,6.0,0.0,0.0,1.0
6500000.0,22.96875,6.848836783319714E-6,6500000.0,81.39999999999999,62.26705995480161,63.02186878727633,60.171306209850094,149245.0,762016.0,0.0,1.0,0.0,?,0.0,0.0,383.0,279.0,279.0,6.0,0.0,0.0,1.0
6600000.0,23.34375,6.9379837562640535E-6,6600000.0,80.10000000000001,59.05990009792708,60.20000000000001,54.87528344671202,159245.0,792936.0,0.0,1.0,0.0,?,0.0,0.0,404.0,291.0,291.0,7.0,0.0,0.0,1.0
6700000.0,23.703125,7.022483591249009E-6,6700000.0,86.5,72.85886610373944,72.50509164969449,71.57894736842105,169245.0,798080.0,0.0,1.0,0.0,?,0.0,0.0,417.0,299.0,299.0,7.0,0.0,0.0,1.0
6800000.0,24.03125,7.100112335239023E-6,6800000.0,87.4,74.69635627530364,75.0,73.07692307692307,179245.0,818848.0,0.0,1.0,0.0,?,0.0,0.0,431.0,309.0,309.0,7.0,0.0,0.0,1.0
6900000.0,24.34375,7.1731254380817244E-6,6900000.0,85.6,71.00106732182773,71.31474103585657,69.03225806451613,189245.0,822656.0,0.0,1.0,0.0,?,0.0,0.0,433.0,310.0,310.0,7.0,0.0,0.0,1.0
7000000.0,24.703125,7.257425200401084E-6,7000000.0,84.2,68.25537147242838,67.48971193415638,67.28778467908903,199245.0,841360.0,0.0,1.0,0.0,?,0.0,0.0,441.0,314.0,314.0,7.0,0.0,0.0,1.0
7100000.0,25.09375,7.365762592396805E-6,7100000.0,87.1,73.82921227957705,74.25149700598801,71.58590308370044,209145.0,869584.0,0.0,1.0,0.0,?,0.0,0.0,462.0,326.0,326.0,7.0,0.0,0.0,1.0
7200000.0,25.421875,7.457458672838081E-6,7200000.0,85.9,71.30343463288749,72.07920792079207,69.21397379912662,219145.0,892864.0,0.0,1.0,0.0,?,0.0,0.0,469.0,331.0,331.0,7.0,0.0,0.0,1.0
7300000.0,25.75,7.54860333270497E-6,7300000.0,86.6,72.87185799429903,71.48936170212765,70.74235807860262,229145.0,901504.0,0.0,1.0,0.0,?,0.0,0.0,477.0,335.0,335.0,7.0,0.0,0.0,1.0
7400000.0,26.109375,7.649580527666131E-6,7400000.0,86.7,72.85537014662181,72.68993839835728,69.97742663656884,239145.0,928992.0,0.0,1.0,0.0,?,0.0,0.0,490.0,343.0,343.0,7.0,0.0,0.0,1.0
7500000.0,26.5,7.758673002374257E-6,7500000.0,87.2,73.980672518305,74.45109780439122,71.49220489977728,249145.0,937560.0,0.0,1.0,0.0,?,0.0,0.0,494.0,345.0,345.0,7.0,0.0,0.0,1.0
7600000.0,26.84375,7.858311906198248E-6,7600000.0,87.2,74.24143024458567,75.04873294346979,72.93868921775898,259145.0,993528.0,0.0,1.0,0.0,?,0.0,0.0,516.0,362.0,362.0,7.0,0.0,0.0,1.0
7700000.0,27.203125,7.962554971325317E-6,7700000.0,88.0,75.77323750302834,76.23762376237624,74.46808510638297,269145.0,1009488.0,0.0,1.0,0.0,?,0.0,0.0,534.0,374.0,374.0,8.0,0.0,0.0,1.0
7800000.0,27.59375,8.082048831662785E-6,7800000.0,89.1,78.05869801521801,77.75510204081633,77.14884696016772,279145.0,1085688.0,0.0,1.0,0.0,?,0.0,0.0,567.0,398.0,398.0,8.0,0.0,0.0,1.0
7900000.0,27.953125,8.192442829668937E-6,7900000.0,88.9,77.60652033570045,77.01863354037268,76.53276955602537,289145.0,1105752.0,0.0,1.0,0.0,?,0.0,0.0,578.0,405.0,405.0,8.0,0.0,0.0,1.0
8000000.0,28.34375,8.317196398921726E-6,8000000.0,88.9,77.37648785260069,77.1604938271605,75.6043956043956,299145.0,1167816.0,0.0,1.0,0.0,?,0.0,0.0,611.0,426.0,426.0,8.0,0.0,0.0,1.0
8100000.0,28.703125,8.448430679790263E-6,8100000.0,89.1,77.96519714073163,77.70961145194273,76.45788336933046,309045.0,1207776.0,0.0,1.0,0.0,?,0.0,0.0,629.0,438.0,438.0,8.0,0.0,0.0,1.0
8200000.0,29.0625,8.580187083377194E-6,8200000.0,92.4,84.69254164232916,85.38461538461539,83.9323467230444,319045.0,1228544.0,0.0,1.0,0.0,?,0.0,0.0,654.0,455.0,455.0,9.0,0.0,0.0,1.0
8300000.0,29.453125,8.724788656561741E-6,8300000.0,88.9,77.78293729584321,77.93240556660041,77.62096774193549,329045.0,1257296.0,0.0,1.0,0.0,?,0.0,0.0,672.0,464.0,464.0,9.0,0.0,0.0,1.0
8400000.0,29.890625,8.886468066419995E-6,8400000.0,90.10000000000001,79.96924571058595,79.79591836734694,78.24175824175825,339045.0,1269992.0,0.0,1.0,0.0,?,0.0,0.0,680.0,468.0,468.0,9.0,0.0,0.0,1.0
8500000.0,30.265625,9.025100088264382E-6,8500000.0,90.5,80.65173116089613,80.92369477911647,79.48164146868251,349045.0,1285656.0,0.0,1.0,0.0,?,0.0,0.0,698.0,480.0,480.0,9.0,0.0,0.0,1.0
8600000.0,30.625,9.157004500997979E-6,8600000.0,91.10000000000001,81.91718476979966,82.71844660194175,80.39647577092511,359045.0,1290600.0,0.0,1.0,0.0,?,0.0,0.0,700.0,481.0,481.0,9.0,0.0,0.0,1.0
8700000.0,30.953125,9.276150732249437E-6,8700000.0,90.5,80.67644641883702,81.5891472868217,79.07488986784142,369045.0,1290624.0,0.0,1.0,0.0,?,0.0,0.0,700.0,481.0,481.0,9.0,0.0,0.0,1.0
8800000.0,31.296875,9.39961888232372E-6,8800000.0,91.3,82.35651997566417,81.5677966101695,80.83700440528635,379045.0,1290624.0,0.0,1.0,0.0,?,0.0,0.0,700.0,481.0,481.0,9.0,0.0,0.0,1.0
8900000.0,31.640625,9.521735321161234E-6,8900000.0,90.4,80.46119715873242,80.64516129032259,78.61915367483296,389045.0,1290624.0,0.0,1.0,0.0,?,0.0,0.0,700.0,481.0,481.0,9.0,0.0,0.0,1.0
9000000.0,31.96875,9.637010742961946E-6,9000000.0,91.2,82.04169591693469,82.53968253968254,80.09049773755656,399045.0,1290624.0,0.0,1.0,0.0,?,0.0,0.0,700.0,481.0,481.0,9.0,0.0,0.0,1.0
9100000.0,32.359375,9.788083067784707E-6,9100000.0,92.0,83.95977110593368,84.52611218568666,83.64008179959102,408945.0,1290624.0,0.0,1.0,0.0,?,0.0,0.0,700.0,481.0,481.0,9.0,0.0,0.0,1.0
9200000.0,32.703125,9.919675002391968E-6,9200000.0,89.8,79.33390333939809,79.3103448275862,77.96976241900649,418945.0,1290624.0,0.0,1.0,0.0,?,0.0,0.0,700.0,481.0,481.0,9.0,0.0,0.0,1.0
9300000.0,33.09375,1.0067675256222073E-5,9300000.0,91.4,82.62928056943643,82.90258449304176,81.34490238611714,428945.0,1290624.0,0.0,1.0,0.0,?,0.0,0.0,700.0,481.0,481.0,9.0,0.0,0.0,1.0
9400000.0,33.484375,1.0214139474555851E-5,9400000.0,90.5,80.7214637076481,80.53278688524591,79.21225382932167,438945.0,1290624.0,0.0,1.0,0.0,?,0.0,0.0,700.0,481.0,481.0,9.0,0.0,0.0,1.0
9500000.0,33.8125,1.033587914813931E-5,9500000.0,91.9,83.35566277339866,83.92857142857144,81.11888111888112,448945.0,1290624.0,0.0,1.0,0.0,?,0.0,0.0,700.0,481.0,481.0,9.0,0.0,0.0,1.0
9600000.0,34.171875,1.0467799923693141E-5,9600000.0,91.10000000000001,82.10450966356478,82.71844660194175,81.34171907756814,458945.0,1290624.0,0.0,1.0,0.0,?,0.0,0.0,700.0,481.0,481.0,9.0,0.0,0.0,1.0
9700000.0,34.640625,1.0638027257906895E-5,9700000.0,90.9,81.64582492940703,81.35245901639345,80.67940552016985,468945.0,1290624.0,0.0,1.0,0.0,?,0.0,0.0,700.0,481.0,481.0,9.0,0.0,0.0,1.0
9800000.0,35.0,1.0767121728147485E-5,9800000.0,91.10000000000001,82.09125811930039,82.12851405622492,81.34171907756814,478945.0,1290624.0,0.0,1.0,0.0,?,0.0,0.0,700.0,481.0,481.0,9.0,0.0,0.0,1.0
9900000.0,35.34375,1.0889251684097368E-5,9900000.0,91.2,82.26378587552404,82.4,81.1965811965812,488945.0,1290624.0,0.0,1.0,0.0,?,0.0,0.0,700.0,481.0,481.0,9.0,0.0,0.0,1.0
1.0E7,35.703125,1.1015568937485418E-5,1.0E7,92.30000000000001,84.34450227716331,84.84251968503938,82.85077951002228,498945.0,1291152.0,0.0,1.0,0.0,?,0.0,0.0,700.0,481.0,481.0,9.0,0.0,0.0,1.0
