learning evaluation instances,evaluation time (cpu seconds),model cost (RAM-Hours),classified instances,classifications correct (percent),Kappa Statistic (percent),Kappa Temporal Statistic (percent),Kappa M Statistic (percent),model training instances,model serialized size (bytes),labeling cost,newThreshold,maxPosterior,accuracyBaseLearner (percent),Change detected,Warning detected,tree size (nodes),tree size (leaves),active learning leaves,tree depth,active leaf byte size estimate,inactive leaf byte size estimate,byte size estimate overhead
100000.0,0.609375,5.38871002693971E-8,100000.0,90.7,81.39017401187829,81.21212121212122,80.98159509202455,27270.0,295728.0,0.0,1.0,0.0,?,0.0,3.0,94.0,73.0,73.0,3.0,0.0,0.0,1.0
200000.0,1.203125,1.4803255908191206E-7,200000.0,91.5,82.91677050590478,81.68103448275863,81.95329087048833,54543.0,566120.0,0.0,1.0,0.0,?,0.0,0.0,206.0,153.0,153.0,4.0,0.0,0.0,1.0
300000.0,1.75,2.560315382046004E-7,300000.0,93.8,87.50886467668106,86.892177589852,86.58008658008657,81816.0,716192.0,0.0,1.0,0.0,?,0.0,0.0,247.0,181.0,181.0,4.0,0.0,0.0,1.0
400000.0,2.3125,3.831349507284661E-7,400000.0,95.1,90.19764743538448,90.020366598778,90.08097165991902,109089.0,825976.0,0.0,1.0,0.0,?,0.0,0.0,291.0,209.0,209.0,5.0,0.0,0.0,1.0
500000.0,2.84375,5.120531487692561E-7,500000.0,95.39999999999999,90.77694235588972,91.01562499999999,90.3157894736842,136362.0,890416.0,0.0,1.0,0.0,?,0.0,0.0,316.0,223.0,223.0,6.0,0.0,0.0,1.0
600000.0,3.390625,6.578242108743224E-7,600000.0,97.1,94.1979112480493,94.5488721804511,93.92033542976938,163635.0,982456.0,0.0,1.0,0.0,?,0.0,0.0,361.0,250.0,250.0,6.0,0.0,0.0,1.0
700000.0,3.953125,8.211432658653293E-7,700000.0,98.0,95.97293814432989,95.8592132505176,95.65217391304347,190908.0,1074128.0,0.0,1.0,0.0,?,0.0,0.0,403.0,274.0,274.0,8.0,0.0,0.0,1.0
800000.0,4.5,9.927910286933184E-7,800000.0,97.6,95.14120862435469,95.15151515151514,94.6067415730337,218181.0,1164712.0,0.0,1.0,0.0,?,0.0,0.0,444.0,296.0,296.0,9.0,0.0,0.0,1.0
900000.0,5.046875,1.1765899641128878E-6,900000.0,97.3,94.59879012898888,94.96268656716416,94.15584415584415,245454.0,1250320.0,0.0,1.0,0.0,?,0.0,0.0,479.0,315.0,315.0,10.0,0.0,0.0,1.0
1000000.0,5.625,1.3895342191163865E-6,1000000.0,96.8,93.59672152141896,93.62549800796812,93.4959349593496,272727.0,1374584.0,0.0,1.0,0.0,?,0.0,0.0,529.0,346.0,346.0,11.0,0.0,0.0,1.0
1100000.0,6.1875,1.6070224875066845E-6,1100000.0,98.2,96.38821112109926,96.40718562874251,96.21848739495798,300000.0,1445232.0,0.0,1.0,0.0,?,0.0,0.0,564.0,368.0,368.0,11.0,0.0,0.0,1.0
1200000.0,6.75,1.837920636818227E-6,1200000.0,98.0,95.97823420350939,96.08610567514677,95.71734475374733,327270.0,1535448.0,0.0,1.0,0.0,?,0.0,0.0,598.0,388.0,388.0,11.0,0.0,0.0,1.0
1300000.0,7.3125,2.0780807891343205E-6,1300000.0,98.1,96.17973732678125,96.00840336134453,96.13821138211381,354543.0,1599016.0,0.0,1.0,0.0,?,0.0,0.0,625.0,406.0,406.0,11.0,0.0,0.0,1.0
1400000.0,7.859375,2.321344185879247E-6,1400000.0,98.5,97.0,96.95121951219512,97.03557312252964,381816.0,1667952.0,0.0,1.0,0.0,?,0.0,0.0,655.0,424.0,424.0,11.0,0.0,0.0,1.0
1500000.0,8.4375,2.5922967082199953E-6,1500000.0,98.8,97.60006719811844,97.5103734439834,97.59036144578313,409089.0,1759920.0,0.0,1.0,0.0,?,0.0,0.0,690.0,446.0,446.0,11.0,0.0,0.0,1.0
1600000.0,8.984375,2.855911281787687E-6,1600000.0,98.7,97.39098323807077,97.47081712062257,97.25158562367865,436362.0,1811456.0,0.0,1.0,0.0,?,0.0,0.0,706.0,454.0,454.0,11.0,0.0,0.0,1.0
1700000.0,9.5625,3.1425462091445095E-6,1700000.0,98.5,96.9951923076923,97.02970297029702,96.90082644628099,463635.0,1864520.0,0.0,1.0,0.0,?,0.0,0.0,733.0,469.0,469.0,11.0,0.0,0.0,1.0
1800000.0,10.140625,3.4357355131457248E-6,1800000.0,99.2,98.39497305561017,98.42209072978304,98.30866807610994,490908.0,1908256.0,0.0,1.0,0.0,?,0.0,0.0,760.0,484.0,484.0,11.0,0.0,0.0,1.0
1900000.0,10.71875,3.733867520673407E-6,1900000.0,98.8,97.59787652284619,97.62845849802372,97.5359342915811,518181.0,1941272.0,0.0,1.0,0.0,?,0.0,0.0,774.0,491.0,491.0,11.0,0.0,0.0,1.0
2000000.0,11.28125,4.02858804187013E-6,2000000.0,98.8,97.59979838306417,97.62845849802372,97.4630021141649,545454.0,1973208.0,0.0,1.0,0.0,?,0.0,0.0,789.0,500.0,500.0,11.0,0.0,0.0,1.0
2100000.0,11.859375,4.343558264534092E-6,2100000.0,99.0,97.99949587295998,98.03536345776031,97.97160243407707,572727.0,2053640.0,0.0,1.0,0.0,?,0.0,0.0,821.0,519.0,519.0,11.0,0.0,0.0,1.0
2200000.0,12.4375,4.663136173298375E-6,2200000.0,98.8,97.59947188381443,97.61431411530815,97.54098360655738,600000.0,2084392.0,0.0,1.0,0.0,?,0.0,0.0,841.0,529.0,529.0,12.0,0.0,0.0,1.0
2300000.0,13.046875,5.006927498874978E-6,2300000.0,99.1,98.17506407552801,98.17813765182186,97.97297297297297,627270.0,2126672.0,0.0,1.0,0.0,?,0.0,0.0,873.0,548.0,548.0,12.0,0.0,0.0,1.0
2400000.0,13.65625,5.3674544970918856E-6,2400000.0,99.0,97.99948786889443,97.9633401221996,97.96747967479675,654543.0,2232584.0,0.0,1.0,0.0,?,0.0,0.0,923.0,582.0,582.0,12.0,0.0,0.0,1.0
2500000.0,14.265625,5.74124391682239E-6,2500000.0,98.8,97.59974077200337,97.61431411530815,97.59036144578313,681816.0,2316496.0,0.0,1.0,0.0,?,0.0,0.0,942.0,593.0,593.0,12.0,0.0,0.0,1.0
2600000.0,14.859375,6.112256701776964E-6,2600000.0,99.0,97.99071711306235,97.9381443298969,97.8021978021978,709089.0,2360744.0,0.0,1.0,0.0,?,0.0,0.0,954.0,599.0,599.0,12.0,0.0,0.0,1.0
2700000.0,15.46875,6.500057675617022E-6,2700000.0,98.9,97.79820333392047,97.71309771309771,97.74590163934425,736362.0,2405240.0,0.0,1.0,0.0,?,0.0,0.0,971.0,609.0,609.0,12.0,0.0,0.0,1.0
2800000.0,16.0625,6.881259905640035E-6,2800000.0,98.9,97.79077427336557,97.85575048732943,97.66454352441613,763635.0,2427064.0,0.0,1.0,0.0,?,0.0,0.0,988.0,619.0,619.0,12.0,0.0,0.0,1.0
2900000.0,16.65625,7.269330057574228E-6,2900000.0,99.1,98.19991359585259,98.23529411764706,98.17073170731707,790908.0,2471752.0,0.0,1.0,0.0,?,0.0,0.0,999.0,626.0,626.0,12.0,0.0,0.0,1.0
3000000.0,17.265625,7.674072274110382E-6,3000000.0,98.8,97.58041100751686,97.62845849802372,97.3568281938326,818181.0,2512688.0,0.0,1.0,0.0,?,0.0,0.0,1018.0,637.0,637.0,12.0,0.0,0.0,1.0
3100000.0,17.875,8.083084798676685E-6,3100000.0,98.8,97.59077749625567,97.59036144578313,97.4304068522484,845454.0,2539744.0,0.0,1.0,0.0,?,0.0,0.0,1036.0,646.0,646.0,12.0,0.0,0.0,1.0
3200000.0,18.484375,8.496806517036424E-6,3200000.0,99.0,97.9798061421974,97.9381443298969,97.78270509977827,872727.0,2569560.0,0.0,1.0,0.0,?,0.0,0.0,1056.0,656.0,656.0,12.0,0.0,0.0,1.0
3300000.0,19.078125,8.902340778149664E-6,3300000.0,99.0,97.99794990069832,97.97979797979798,97.95081967213115,900000.0,2585408.0,0.0,1.0,0.0,?,0.0,0.0,1060.0,658.0,658.0,12.0,0.0,0.0,1.0
3400000.0,19.671875,9.30995913222432E-6,3400000.0,99.3,98.59913706843415,98.62475442043221,98.56850715746421,927270.0,2597408.0,0.0,1.0,0.0,?,0.0,0.0,1064.0,660.0,660.0,12.0,0.0,0.0,1.0
3500000.0,20.296875,9.74511055068837E-6,3500000.0,99.0,97.99850288015436,97.88583509513742,97.95501022494886,954543.0,2634936.0,0.0,1.0,0.0,?,0.0,0.0,1080.0,668.0,668.0,12.0,0.0,0.0,1.0
3600000.0,20.90625,1.0171414922095005E-5,3600000.0,99.3,98.59847514095335,98.67674858223062,98.55072463768116,981816.0,2647888.0,0.0,1.0,0.0,?,0.0,0.0,1090.0,673.0,673.0,12.0,0.0,0.0,1.0
3700000.0,21.625,1.0684375948686564E-5,3700000.0,98.8,97.5881917869891,97.52577319587628,97.42489270386265,1009089.0,2702328.0,0.0,1.0,0.0,?,0.0,0.0,1107.0,683.0,683.0,12.0,3860.5680819912154,0.0,1.020115535382711
3800000.0,22.21875,1.1110839615058565E-5,3800000.0,99.2,98.39341944605103,98.3640081799591,98.29059829059828,1036362.0,2720040.0,0.0,1.0,0.0,?,0.0,0.0,1117.0,688.0,688.0,12.0,3860.5680819912154,0.0,1.020115535382711
3900000.0,22.828125,1.1551733154596552E-5,3900000.0,99.6,99.19984637050312,99.2156862745098,99.22027290448344,1063635.0,2740432.0,0.0,1.0,0.0,?,0.0,0.0,1123.0,691.0,691.0,12.0,3860.5680819912154,0.0,1.020115535382711
4000000.0,23.453125,1.2007252080366013E-5,4000000.0,99.4,98.79863043870012,98.78542510121457,98.77551020408163,1090908.0,2761000.0,0.0,1.0,0.0,?,0.0,0.0,1133.0,696.0,696.0,12.0,3860.5680819912154,0.0,1.020115535382711
4100000.0,24.046875,1.2443853581013776E-5,4100000.0,99.6,99.1943183328835,99.1701244813278,99.10913140311803,1118181.0,2786160.0,0.0,1.0,0.0,?,0.0,0.0,1148.0,705.0,705.0,12.0,3860.5680819912154,0.0,1.020115535382711
4200000.0,24.65625,1.2896634871140119E-5,4200000.0,99.3,98.59765527962753,98.52008456659618,98.54469854469853,1145454.0,2815880.0,0.0,1.0,0.0,?,0.0,0.0,1162.0,712.0,712.0,13.0,3860.5680819912154,0.0,1.020115535382711
4300000.0,25.28125,1.3364637399920155E-5,4300000.0,99.5,98.99927146962989,98.93390191897655,98.97330595482546,1172727.0,2838208.0,0.0,1.0,0.0,?,0.0,0.0,1178.0,720.0,720.0,13.0,3860.5680819912154,0.0,1.020115535382711
4400000.0,25.90625,1.3838320996405346E-5,4400000.0,99.4,98.7986160056385,98.78296146044624,98.75518672199169,1200000.0,2873312.0,0.0,1.0,0.0,?,0.0,0.0,1199.0,732.0,732.0,13.0,3860.5680819912154,0.0,1.020115535382711
4500000.0,26.53125,1.431907488343616E-5,4500000.0,99.1,98.19753422682228,98.2421875,98.26589595375722,1227270.0,2915280.0,0.0,1.0,0.0,?,0.0,0.0,1215.0,740.0,740.0,13.0,3860.5680819912154,0.0,1.020115535382711
4600000.0,27.140625,1.4791773767986642E-5,4600000.0,98.7,97.39274139203542,97.42063492063492,97.23991507430998,1254543.0,2940464.0,0.0,1.0,0.0,?,0.0,0.0,1219.0,742.0,742.0,13.0,3860.5680819912154,0.0,1.020115535382711
4700000.0,27.765625,1.5279736350445696E-5,4700000.0,99.4,98.79537423707035,98.76288659793815,98.7152034261242,1281816.0,2959920.0,0.0,1.0,0.0,?,0.0,0.0,1233.0,749.0,749.0,13.0,3860.5680819912154,0.0,1.020115535382711
4800000.0,28.390625,1.5771232784673985E-5,4800000.0,98.5,96.97495260759085,97.01195219123507,96.69603524229075,1309089.0,2981824.0,0.0,1.0,0.0,?,0.0,0.0,1239.0,752.0,752.0,13.0,3860.5680819912154,0.0,1.020115535382711
4900000.0,29.015625,1.6263867502049027E-5,4900000.0,99.1,98.19568407631053,98.23874755381604,98.11320754716981,1336362.0,2988952.0,0.0,1.0,0.0,?,0.0,0.0,1247.0,756.0,756.0,13.0,3860.5680819912154,0.0,1.020115535382711
5000000.0,29.65625,1.6771838353532885E-5,5000000.0,99.2,98.39953906725137,98.40319361277446,98.34368530020704,1363635.0,3004936.0,0.0,1.0,0.0,?,0.0,0.0,1251.0,758.0,758.0,13.0,3860.5680819912154,0.0,1.020115535382711
5100000.0,30.515625,1.6833759178148792E-5,5100000.0,81.0,59.65532910634431,59.48827292110875,53.99515738498791,26856.0,231304.0,0.0,1.0,0.0,?,1.0,30.0,71.0,57.0,57.0,3.0,0.0,0.0,1.0
5200000.0,31.15625,1.693640580116254E-5,5200000.0,87.4,73.26895252481107,72.90322580645162,66.0377358490566,54129.0,571448.0,0.0,1.0,0.0,?,0.0,0.0,200.0,156.0,156.0,4.0,0.0,0.0,1.0
5300000.0,31.765625,1.708910399530497E-5,5300000.0,87.8,74.33556459654244,72.27272727272727,68.47545219638243,81402.0,919784.0,0.0,1.0,0.0,?,0.0,0.0,308.0,234.0,234.0,4.0,0.0,0.0,1.0
5400000.0,32.375,1.7279579155405777E-5,5400000.0,89.4,77.57202342665629,78.14432989690722,72.25130890052357,108675.0,1158720.0,0.0,1.0,0.0,?,0.0,0.0,383.0,285.0,285.0,5.0,0.0,0.0,1.0
5500000.0,32.96875,1.7483691238642983E-5,5500000.0,92.0,83.05630390213322,83.29853862212944,79.05759162303666,135948.0,1281296.0,0.0,1.0,0.0,?,0.0,0.0,438.0,320.0,320.0,5.0,0.0,0.0,1.0
5600000.0,33.609375,1.7734715398142324E-5,5600000.0,91.4,81.49104683195593,82.19461697722568,76.75675675675676,163218.0,1462568.0,0.0,1.0,0.0,?,0.0,0.0,510.0,365.0,365.0,5.0,0.0,0.0,1.0
5700000.0,34.28125,1.8018017807561492E-5,5700000.0,89.60000000000001,77.61775428598484,77.6824034334764,71.34986225895317,190491.0,1577288.0,0.0,1.0,0.0,?,0.0,0.0,566.0,393.0,393.0,6.0,0.0,0.0,1.0
5800000.0,34.9375,1.8319964033758477E-5,5800000.0,92.9,85.13910633701997,84.66522678185746,81.84143222506395,217764.0,1725376.0,0.0,1.0,0.0,?,0.0,0.0,623.0,426.0,426.0,6.0,0.0,0.0,1.0
5900000.0,35.578125,1.8640243506524712E-5,5900000.0,93.10000000000001,85.03526472399824,85.53459119496857,80.7799442896936,245037.0,1878992.0,0.0,1.0,0.0,?,0.0,0.0,675.0,461.0,461.0,7.0,0.0,0.0,1.0
6000000.0,36.234375,1.899339578812942E-5,6000000.0,92.30000000000001,83.92819870590692,83.61702127659575,80.25641025641028,272310.0,2026264.0,0.0,1.0,0.0,?,0.0,0.0,736.0,502.0,502.0,7.0,0.0,0.0,1.0
6100000.0,36.90625,1.9372367112535155E-5,6100000.0,92.2,83.41251376974019,83.15334773218143,79.31034482758622,299583.0,2126232.0,0.0,1.0,0.0,?,0.0,0.0,787.0,535.0,535.0,7.0,0.0,0.0,1.0
6200000.0,37.59375,1.978503317028905E-5,6200000.0,94.39999999999999,88.26369794111729,88.08510638297872,85.56701030927833,326856.0,2265752.0,0.0,1.0,0.0,?,0.0,0.0,845.0,573.0,573.0,7.0,0.0,0.0,1.0
6300000.0,38.28125,2.0216939058930924E-5,6300000.0,93.60000000000001,86.63274726284615,86.23655913978496,83.87909319899246,354129.0,2373768.0,0.0,1.0,0.0,?,0.0,0.0,885.0,602.0,602.0,7.0,0.0,0.0,1.0
6400000.0,39.0,2.0699506890701338E-5,6400000.0,94.89999999999999,89.5563710232299,89.48453608247422,88.0841121495327,381402.0,2540136.0,0.0,1.0,0.0,?,0.0,0.0,938.0,636.0,636.0,7.0,0.0,0.0,1.0
6500000.0,39.75,2.1250138945308413E-5,6500000.0,94.1,87.31040890594215,87.65690376569036,83.70165745856352,408675.0,2782024.0,0.0,1.0,0.0,?,0.0,0.0,1032.0,698.0,698.0,7.0,0.0,0.0,1.0
6600000.0,40.46875,2.179079032632419E-5,6600000.0,94.89999999999999,89.3346494236528,89.48453608247422,87.21804511278194,435948.0,2853840.0,0.0,1.0,0.0,?,0.0,0.0,1054.0,709.0,709.0,7.0,0.0,0.0,1.0
6700000.0,41.21875,2.2384182504740444E-5,6700000.0,95.19999999999999,89.65717856450257,89.40397350993376,86.9209809264305,463218.0,3000328.0,0.0,1.0,0.0,?,0.0,0.0,1119.0,758.0,758.0,7.0,0.0,0.0,1.0
6800000.0,41.96875,2.3002225239502476E-5,6800000.0,95.8,90.85186556598636,91.12050739957715,88.16901408450704,490491.0,3127008.0,0.0,1.0,0.0,?,0.0,0.0,1172.0,792.0,792.0,7.0,0.0,0.0,1.0
6900000.0,42.703125,2.362960493580128E-5,6900000.0,95.7,90.9074761691294,91.02296450939457,88.94601542416451,517764.0,3243744.0,0.0,1.0,0.0,?,0.0,0.0,1210.0,820.0,820.0,7.0,0.0,0.0,1.0
7000000.0,43.453125,2.428988625373071E-5,7000000.0,94.89999999999999,89.35344071745284,88.56502242152466,87.02290076335876,545037.0,3344296.0,0.0,1.0,0.0,?,0.0,0.0,1266.0,857.0,857.0,7.0,0.0,0.0,1.0
7100000.0,44.21875,2.498740634311819E-5,7100000.0,95.7,90.9252068208678,90.79229122055673,88.68421052631578,572310.0,3462520.0,0.0,1.0,0.0,?,0.0,0.0,1305.0,881.0,881.0,7.0,0.0,0.0,1.0
7200000.0,44.984375,2.5708822908604318E-5,7200000.0,95.1,89.34689973041134,89.59660297239914,86.38888888888889,599583.0,3582856.0,0.0,1.0,0.0,?,0.0,0.0,1349.0,909.0,909.0,7.0,0.0,0.0,1.0
7300000.0,45.78125,2.649383703505414E-5,7300000.0,95.1,89.64812060573281,89.68421052631578,87.13910761154855,626856.0,3748040.0,0.0,1.0,0.0,?,0.0,0.0,1405.0,946.0,946.0,8.0,0.0,0.0,1.0
7400000.0,46.59375,2.732051116052188E-5,7400000.0,95.7,90.87924115286391,90.9090909090909,88.62433862433862,654129.0,3872648.0,0.0,1.0,0.0,?,0.0,0.0,1453.0,976.0,976.0,8.0,0.0,0.0,1.0
7500000.0,47.390625,2.814546767492883E-5,7500000.0,96.7,92.87687791400448,92.77899343544857,90.93406593406593,681402.0,3941272.0,0.0,1.0,0.0,?,0.0,0.0,1485.0,995.0,995.0,8.0,0.0,0.0,1.0
7600000.0,48.21875,2.902437903685496E-5,7600000.0,95.89999999999999,91.29445138057261,90.929203539823,89.15343915343914,708675.0,4041768.0,0.0,1.0,0.0,?,0.0,0.0,1516.0,1012.0,1012.0,8.0,0.0,0.0,1.0
7700000.0,49.015625,2.9887932178098716E-5,7700000.0,95.89999999999999,91.30346249459117,91.29511677282377,89.29503916449086,735948.0,4130256.0,0.0,1.0,0.0,?,0.0,0.0,1558.0,1039.0,1039.0,8.0,0.0,0.0,1.0
7800000.0,49.828125,3.078361562479081E-5,7800000.0,95.7,90.85090810056342,90.88983050847457,88.56382978723403,763218.0,4198400.0,0.0,1.0,0.0,?,0.0,0.0,1594.0,1060.0,1060.0,8.0,0.0,0.0,1.0
7900000.0,50.625,3.1679516509434005E-5,7900000.0,96.39999999999999,92.56041562478042,92.75653923541248,91.36690647482014,790491.0,4282736.0,0.0,1.0,0.0,?,0.0,0.0,1616.0,1071.0,1071.0,8.0,0.0,0.0,1.0
8000000.0,51.421875,3.259017623754012E-5,8000000.0,95.7,91.03037989470083,90.8119658119658,89.22305764411027,817764.0,4354168.0,0.0,1.0,0.0,?,0.0,0.0,1633.0,1081.0,1081.0,8.0,0.0,0.0,1.0
8100000.0,52.234375,3.353015855989523E-5,8100000.0,97.2,94.00107123727905,94.05520169851378,92.37057220708446,845037.0,4408592.0,0.0,1.0,0.0,?,0.0,0.0,1658.0,1095.0,1095.0,8.0,0.0,0.0,1.0
8200000.0,53.046875,3.447794665892919E-5,8200000.0,96.6,92.89891395154552,92.84210526315789,91.37055837563452,872310.0,4445696.0,0.0,1.0,0.0,?,0.0,0.0,1679.0,1107.0,1107.0,8.0,0.0,0.0,1.0
8300000.0,53.890625,3.5481127755095566E-5,8300000.0,96.3,92.20580056960851,92.07708779443254,90.36458333333333,899583.0,4532088.0,0.0,1.0,0.0,?,0.0,0.0,1719.0,1127.0,1127.0,8.0,0.0,0.0,1.0
8400000.0,54.734375,3.650149175276359E-5,8400000.0,95.89999999999999,91.42747223337348,91.40461215932913,89.43298969072164,926856.0,4610568.0,0.0,1.0,0.0,?,0.0,0.0,1763.0,1152.0,1152.0,8.0,0.0,0.0,1.0
8500000.0,55.59375,3.755858151837149E-5,8500000.0,97.39999999999999,94.5656717665747,94.43254817987152,93.33333333333333,954129.0,4690480.0,0.0,1.0,0.0,?,0.0,0.0,1793.0,1167.0,1167.0,8.0,0.0,0.0,1.0
8600000.0,56.4375,3.860874318181434E-5,8600000.0,96.1,91.65761125324069,91.50326797385621,89.48787061994608,981402.0,4746600.0,0.0,1.0,0.0,?,0.0,0.0,1823.0,1182.0,1182.0,8.0,0.0,0.0,1.0
8700000.0,57.46875,3.991609267864584E-5,8700000.0,96.8,93.28069880732403,93.30543933054393,91.83673469387755,1008675.0,4835616.0,0.0,1.0,0.0,?,0.0,0.0,1868.0,1209.0,1209.0,8.0,3911.4675540765393,0.0,1.0172435502588064
8800000.0,58.3125,4.1003543333823076E-5,8800000.0,96.3,92.34360256261691,92.5553319919517,90.9313725490196,1035948.0,4919304.0,0.0,1.0,0.0,?,0.0,0.0,1899.0,1229.0,1229.0,8.0,3911.4675540765393,0.0,1.0172435502588064
8900000.0,59.15625,4.209782174762546E-5,8900000.0,96.6,92.76201505500869,92.42761692650333,90.95744680851064,1063218.0,4946584.0,0.0,1.0,0.0,?,0.0,0.0,1917.0,1238.0,1238.0,8.0,3911.4675540765393,0.0,1.0172435502588064
9000000.0,60.03125,4.325121612055228E-5,9000000.0,96.6,92.84105026003832,92.82700421940928,91.30434782608695,1090491.0,5028400.0,0.0,1.0,0.0,?,0.0,0.0,1945.0,1252.0,1252.0,9.0,3911.4675540765393,0.0,1.0172435502588064
9100000.0,60.953125,4.448498259686555E-5,9100000.0,97.0,93.66497873544529,93.71069182389937,92.16710182767623,1117764.0,5106120.0,0.0,1.0,0.0,?,0.0,0.0,1986.0,1277.0,1277.0,9.0,3911.4675540765393,0.0,1.0172435502588064
9200000.0,61.84375,4.5700127375312154E-5,9200000.0,96.2,92.02109789692938,92.21311475409836,90.2061855670103,1145037.0,5206584.0,0.0,1.0,0.0,?,0.0,0.0,2026.0,1303.0,1303.0,9.0,3911.4675540765393,0.0,1.0172435502588064
9300000.0,62.765625,4.698082672095755E-5,9300000.0,98.1,96.1089175418189,96.03340292275574,95.50827423167848,1172310.0,5302456.0,0.0,1.0,0.0,?,0.0,0.0,2065.0,1327.0,1327.0,9.0,3911.4675540765393,0.0,1.0172435502588064
9400000.0,63.703125,4.830635679859876E-5,9400000.0,96.8,93.23604511557907,93.19148936170211,91.62303664921465,1199583.0,5397576.0,0.0,1.0,0.0,?,0.0,0.0,2103.0,1352.0,1352.0,9.0,3911.4675540765393,0.0,1.0172435502588064
9500000.0,64.640625,4.966133995266218E-5,9500000.0,97.6,94.73277617810238,94.7136563876652,93.25842696629213,1226856.0,5518672.0,0.0,1.0,0.0,?,0.0,0.0,2147.0,1380.0,1380.0,9.0,3911.4675540765393,0.0,1.0172435502588064
9600000.0,65.578125,5.103844007761736E-5,9600000.0,96.7,92.94105567581906,92.93361884368308,91.10512129380052,1254129.0,5609592.0,0.0,1.0,0.0,?,0.0,0.0,2191.0,1405.0,1405.0,9.0,3911.4675540765393,0.0,1.0172435502588064
9700000.0,66.53125,5.2457414955521634E-5,9700000.0,97.1,93.81034909631096,93.64035087719299,92.32804232804233,1281402.0,5686200.0,0.0,1.0,0.0,?,0.0,0.0,2224.0,1426.0,1426.0,9.0,3911.4675540765393,0.0,1.0172435502588064
9800000.0,67.484375,5.389382952772496E-5,9800000.0,97.39999999999999,94.48226685455255,94.6058091286307,93.12169312169311,1308675.0,5756752.0,0.0,1.0,0.0,?,0.0,0.0,2238.0,1433.0,1433.0,9.0,3911.4675540765393,0.0,1.0172435502588064
9900000.0,68.421875,5.532026646607039E-5,9900000.0,96.39999999999999,92.24288392337692,92.5155925155925,90.13698630136986,1335948.0,5814952.0,0.0,1.0,0.0,?,0.0,0.0,2269.0,1453.0,1453.0,9.0,3911.4675540765393,0.0,1.0172435502588064
1.0E7,69.375,5.677916859793995E-5,1.0E7,97.6,94.84624634942449,94.84978540772532,93.51351351351352,1363218.0,5846232.0,0.0,1.0,0.0,?,0.0,0.0,2286.0,1463.0,1463.0,9.0,3911.4675540765393,0.0,1.0172435502588064
