learning evaluation instances,evaluation time (cpu seconds),model cost (RAM-Hours),classified instances,classifications correct (percent),Kappa Statistic (percent),Kappa Temporal Statistic (percent),Kappa M Statistic (percent),model training instances,model serialized size (bytes),labeling cost,newThreshold,maxPosterior,accuracyBaseLearner (percent),Change detected,Warning detected
100000.0,0.3125,1.2434449874692494E-8,100000.0,65.10000000000001,30.174862950662234,27.892561983471076,29.494949494949502,19800.0,2904.0,0.0,1.0,0.0,?,0.0,0.0
200000.0,0.65625,2.4760633500085937E-8,200000.0,63.0,25.13001072462009,21.276595744680847,22.916666666666664,39800.0,2904.0,0.0,1.0,0.0,?,0.0,0.0
300000.0,0.984375,3.5236266234682665E-8,300000.0,63.800000000000004,27.459852434904235,28.458498023715418,26.122448979591837,59800.0,2904.0,0.0,1.0,0.0,?,0.0,0.0
400000.0,1.28125,4.354683268401358E-8,400000.0,63.9,27.47100849453119,27.800000000000004,24.63465553235908,79800.0,2904.0,0.0,1.0,0.0,?,0.0,0.0
500000.0,1.640625,5.2193839413424336E-8,500000.0,63.4,26.108374384236456,25.910931174089068,22.127659574468083,99800.0,2904.0,0.0,1.0,0.0,?,0.0,0.0
600000.0,1.953125,5.8484147302806384E-8,600000.0,65.7,31.199101376017975,33.26848249027238,30.000000000000004,119800.0,2904.0,0.0,1.0,0.0,?,0.0,0.0
700000.0,2.265625,6.354562679512634E-8,700000.0,64.60000000000001,28.714976701476854,28.915662650602414,26.096033402922757,139800.0,2904.0,0.0,1.0,0.0,?,0.0,0.0
800000.0,2.609375,6.776154299991E-8,800000.0,63.4,26.949607204445304,30.01912045889102,26.8,159800.0,2904.0,0.0,1.0,0.0,?,0.0,0.0
900000.0,2.921875,7.036536569810577E-8,900000.0,66.9,33.22789661822497,33.400402414486926,30.021141649048634,179800.0,2904.0,0.0,1.0,0.0,?,0.0,0.0
1000000.0,3.234375,7.174035999923946E-8,1000000.0,65.2,29.576039664069615,29.6969696969697,23.516483516483515,199800.0,2904.0,0.0,1.0,0.0,?,0.0,0.0
1100000.0,3.578125,8.543177197376889E-8,1100000.0,64.60000000000001,28.813600222005046,24.034334763948497,25.78616352201258,219600.0,2904.0,0.0,1.0,0.0,?,0.0,0.0
1200000.0,3.90625,9.721057722344996E-8,1200000.0,66.8,33.00157002344946,33.60000000000001,29.511677282377924,239600.0,2904.0,0.0,1.0,0.0,?,0.0,0.0
1300000.0,4.21875,1.071996585879889E-7,1300000.0,67.4,34.25510632119004,37.667304015296374,30.932203389830516,259600.0,2904.0,0.0,1.0,0.0,?,0.0,0.0
1400000.0,4.53125,1.1595991155546574E-7,1400000.0,64.4,28.928213502840872,28.800000000000004,30.058939096267196,279600.0,2904.0,0.0,1.0,0.0,?,0.0,0.0
1500000.0,4.84375,1.2349133612588048E-7,1500000.0,65.5,30.491195551436522,34.16030534351146,26.595744680851062,299600.0,2904.0,0.0,1.0,0.0,?,0.0,0.0
1600000.0,5.15625,1.2979393229923315E-7,1600000.0,64.5,28.548426052652758,29.423459244532808,25.887265135699373,319600.0,2904.0,0.0,1.0,0.0,?,0.0,0.0
1700000.0,5.453125,1.346140116867092E-7,1700000.0,64.5,28.874819682641455,26.65289256198347,28.42741935483871,339600.0,2904.0,0.0,1.0,0.0,?,0.0,0.0
1800000.0,5.765625,1.384589510659377E-7,1800000.0,64.4,29.267682086047053,30.468750000000007,27.93522267206478,359600.0,2904.0,0.0,1.0,0.0,?,0.0,0.0
1900000.0,6.078125,1.4107506204810408E-7,1900000.0,65.2,29.588863709938494,32.55813953488373,25.641025641025646,379600.0,2904.0,0.0,1.0,0.0,?,0.0,0.0
2000000.0,6.40625,1.425317087624636E-7,2000000.0,64.5,29.13775620194342,28.282828282828287,28.857715430861724,399600.0,2904.0,0.0,1.0,0.0,?,0.0,0.0
2100000.0,6.71875,1.5499073520509733E-7,2100000.0,65.5,30.735687383053733,27.82426778242678,28.423236514522827,419400.0,2904.0,0.0,1.0,0.0,?,0.0,0.0
2200000.0,7.03125,1.6622093325066898E-7,2200000.0,64.3,28.104785764344808,29.30693069306931,25.469728601252612,439400.0,2904.0,0.0,1.0,0.0,?,0.0,0.0
2300000.0,7.359375,1.7672237138160402E-7,2300000.0,67.30000000000001,34.2449225819425,35.882352941176485,30.866807610993664,459400.0,2904.0,0.0,1.0,0.0,?,0.0,0.0
2400000.0,7.671875,1.854949126330515E-7,2400000.0,63.4,26.21711521016027,26.358148893360163,23.270440251572325,479400.0,2904.0,0.0,1.0,0.0,?,0.0,0.0
2500000.0,8.0,1.9341581113015613E-7,2500000.0,66.5,32.37514635229522,29.916317991631804,27.95698924731183,499400.0,2904.0,0.0,1.0,0.0,?,0.0,0.0
2600000.0,8.328125,2.000464398103456E-7,2600000.0,65.4,29.958663465548174,32.68482490272374,24.945770065075923,519400.0,2904.0,0.0,1.0,0.0,?,0.0,0.0
2700000.0,8.640625,2.0513249587060678E-7,2700000.0,64.4,28.433292189177354,25.678496868475992,25.678496868475992,539400.0,2904.0,0.0,1.0,0.0,?,0.0,0.0
2800000.0,8.953125,2.089897235338059E-7,2800000.0,64.5,28.967609229808794,30.3921568627451,29.000000000000004,559400.0,2904.0,0.0,1.0,0.0,?,0.0,0.0
2900000.0,9.296875,2.1188096272655663E-7,2900000.0,65.60000000000001,30.683453092444907,29.07216494845361,27.272727272727277,579400.0,2904.0,0.0,1.0,0.0,?,0.0,0.0
3000000.0,9.59375,2.132105550521778E-7,3000000.0,63.7,27.05922067901235,28.260869565217394,25.0,599400.0,2904.0,0.0,1.0,0.0,?,0.0,0.0
3100000.0,9.90625,2.2568186977878215E-7,3100000.0,67.4,34.662006157003596,34.669338677354716,33.19672131147542,619200.0,2904.0,0.0,1.0,0.0,?,0.0,0.0
3200000.0,10.203125,2.363622317918473E-7,3200000.0,65.2,29.629869289504335,28.9795918367347,28.54209445585216,639200.0,2904.0,0.0,1.0,0.0,?,0.0,0.0
3300000.0,10.53125,2.468765726209515E-7,3300000.0,67.0,33.78493346389072,35.546875000000014,32.098765432098766,659200.0,2904.0,0.0,1.0,0.0,?,0.0,0.0
3400000.0,10.84375,2.556614021563696E-7,3400000.0,63.800000000000004,27.561752605375634,28.880157170923383,27.45490981963928,679200.0,2904.0,0.0,1.0,0.0,?,0.0,0.0
3500000.0,11.1875,2.639730034085612E-7,3500000.0,64.60000000000001,29.086538461538463,28.77263581488934,27.607361963190186,699200.0,2904.0,0.0,1.0,0.0,?,0.0,0.0
3600000.0,11.515625,2.706165347869198E-7,3600000.0,65.10000000000001,29.68529636942419,23.464912280701753,24.622030237580994,719200.0,2904.0,0.0,1.0,0.0,?,0.0,0.0
3700000.0,11.828125,2.757148791311516E-7,3700000.0,63.9,27.525175465364665,27.070707070707073,26.024590163934423,739200.0,2904.0,0.0,1.0,0.0,?,0.0,0.0
3800000.0,12.125,2.7939091928096285E-7,3800000.0,65.60000000000001,30.99021023912696,31.200000000000006,29.795918367346943,759200.0,2904.0,0.0,1.0,0.0,?,0.0,0.0
3900000.0,12.453125,2.821636412085759E-7,3900000.0,63.0,25.75260768881914,26.732673267326735,21.443736730360932,779200.0,2904.0,0.0,1.0,0.0,?,0.0,0.0
4000000.0,12.765625,2.8357550036162143E-7,4000000.0,66.2,31.77781366058452,33.069306930693074,25.386313465783665,799200.0,2904.0,0.0,1.0,0.0,?,0.0,0.0
4100000.0,13.046875,2.9481074307113894E-7,4100000.0,64.5,28.72459182280331,27.84552845528456,25.887265135699373,819000.0,2904.0,0.0,1.0,0.0,?,0.0,0.0
4200000.0,13.375,3.066282564153275E-7,4200000.0,65.3,30.24901303358501,31.150793650793656,30.040322580645167,839000.0,2904.0,0.0,1.0,0.0,?,0.0,0.0
4300000.0,13.671875,3.1615290532095575E-7,4300000.0,64.4,28.276706853200945,28.800000000000004,21.238938053097343,859000.0,2904.0,0.0,1.0,0.0,?,0.0,0.0
4400000.0,13.984375,3.2495002314034445E-7,4400000.0,67.60000000000001,34.78444649305374,33.60655737704919,31.501057082452437,879000.0,2904.0,0.0,1.0,0.0,?,0.0,0.0
4500000.0,14.328125,3.332751415049037E-7,4500000.0,65.0,29.594464113292567,30.000000000000004,27.083333333333336,899000.0,2904.0,0.0,1.0,0.0,?,0.0,0.0
4600000.0,14.640625,3.3961460253016827E-7,4600000.0,65.3,30.810336576806506,31.013916500994043,32.88201160541587,919000.0,2904.0,0.0,1.0,0.0,?,0.0,0.0
4700000.0,14.953125,3.447252351583707E-7,4700000.0,62.6,25.024557464466852,27.659574468085108,23.828920570264764,939000.0,2904.0,0.0,1.0,0.0,?,0.0,0.0
4800000.0,15.265625,3.4860703938951107E-7,4800000.0,64.8,29.039125245943954,26.359832635983267,23.974082073434126,959000.0,2904.0,0.0,1.0,0.0,?,0.0,0.0
4900000.0,15.578125,3.512600152235893E-7,4900000.0,64.0,28.059566678789967,28.286852589641438,28.286852589641438,979000.0,2904.0,0.0,1.0,0.0,?,0.0,0.0
5000000.0,15.890625,3.528620194022855E-7,5000000.0,64.8,29.398078504522935,27.868852459016395,28.01635991820041,999000.0,2904.0,0.0,1.0,0.0,?,0.0,0.0
5100000.0,16.234375,3.670457388377853E-7,5100000.0,68.0,35.37964458804524,31.76972281449894,28.888888888888893,14774.0,2904.0,0.0,1.0,0.0,?,2.0,25.0
5200000.0,16.5625,3.792944739365744E-7,5200000.0,67.9,34.87839910412153,34.75609756097562,26.879271070615037,21602.0,2904.0,0.0,1.0,0.0,?,1.0,11.0
5300000.0,16.875,3.8973110753835913E-7,5300000.0,66.3,31.55192304567539,29.35010482180294,26.096491228070178,41602.0,2904.0,0.0,1.0,0.0,?,0.0,0.0
5400000.0,17.1875,3.9893891274308175E-7,5400000.0,69.1,37.05592855746039,35.624999999999986,27.97202797202797,61602.0,2904.0,0.0,1.0,0.0,?,0.0,0.0
5500000.0,17.53125,4.077157872315083E-7,5500000.0,65.8,30.731090803033247,27.23404255319149,26.923076923076927,81602.0,2904.0,0.0,1.0,0.0,?,0.0,0.0
5600000.0,17.84375,4.144659356421067E-7,5600000.0,67.80000000000001,34.472934472934476,34.817813765182194,28.44444444444445,101602.0,2904.0,0.0,1.0,0.0,?,0.0,0.0
5700000.0,18.15625,4.199872556556431E-7,5700000.0,67.2,33.07734055880421,32.37113402061856,25.28473804100228,121602.0,2904.0,0.0,1.0,0.0,?,0.0,0.0
5800000.0,18.46875,4.2427974727211735E-7,5800000.0,67.7,34.344255630539074,31.567796610169495,26.590909090909093,141602.0,2904.0,0.0,1.0,0.0,?,0.0,0.0
5900000.0,18.78125,4.273434104915295E-7,5900000.0,65.0,29.111914059335355,29.149797570850204,20.814479638009047,161602.0,2904.0,0.0,1.0,0.0,?,0.0,0.0
6000000.0,19.109375,4.292699870549971E-7,6000000.0,67.30000000000001,34.004456212864895,34.33734939759037,27.814569536423843,181602.0,2904.0,0.0,1.0,0.0,?,0.0,0.0
6100000.0,19.4375,4.4282189466887056E-7,6100000.0,64.9,28.60745899505337,29.659318637274552,22.345132743362832,201402.0,2904.0,0.0,1.0,0.0,?,0.0,0.0
6200000.0,19.75,4.54499644951688E-7,6200000.0,66.0,31.113011131326964,29.89690721649485,26.565874730021598,221402.0,2904.0,0.0,1.0,0.0,?,0.0,0.0
6300000.0,20.078125,4.6547101293173107E-7,6300000.0,65.5,30.332867539558816,32.87937743190662,25.324675324675326,241402.0,2904.0,0.0,1.0,0.0,?,0.0,0.0
6400000.0,20.390625,4.746911064204243E-7,6400000.0,70.19999999999999,38.96444371620514,40.16064257028111,32.27272727272725,261402.0,2904.0,0.0,1.0,0.0,?,0.0,0.0
6500000.0,20.703125,4.826823715120554E-7,6500000.0,67.7,34.296175752644444,34.081632653061234,27.25225225225226,281402.0,2904.0,0.0,1.0,0.0,?,0.0,0.0
6600000.0,21.015625,4.894448082066244E-7,6600000.0,66.7,31.402439024390265,25.0,18.581907090464565,301402.0,2904.0,0.0,1.0,0.0,?,0.0,0.0
6700000.0,21.328125,4.949784165041314E-7,6700000.0,68.0,34.838827913417106,30.58568329718005,28.08988764044944,321402.0,2904.0,0.0,1.0,0.0,?,0.0,0.0
6800000.0,21.640625,4.992831964045763E-7,6800000.0,67.0,32.90173560843894,32.51533742331289,23.963133640553014,341402.0,2904.0,0.0,1.0,0.0,?,0.0,0.0
6900000.0,22.0,5.028205406334666E-7,6900000.0,69.1,36.91148006892778,35.35564853556484,28.30626450116009,361402.0,2904.0,0.0,1.0,0.0,?,0.0,0.0
7000000.0,22.3125,5.046676637397873E-7,7000000.0,68.2,35.735505122971524,36.40000000000001,28.539325842696634,381402.0,2904.0,0.0,1.0,0.0,?,0.0,0.0
7100000.0,22.625,5.175865307036374E-7,7100000.0,67.0,32.8307171236892,36.78160919540231,23.61111111111113,401202.0,2904.0,0.0,1.0,0.0,?,0.0,0.0
7200000.0,22.96875,5.304455731271043E-7,7200000.0,67.60000000000001,34.23055843127704,34.939759036144586,27.19101123595506,421202.0,2904.0,0.0,1.0,0.0,?,0.0,0.0
7300000.0,23.265625,5.403837227883439E-7,7300000.0,66.2,31.86939887846549,31.578947368421055,27.62312633832977,441202.0,2904.0,0.0,1.0,0.0,?,0.0,0.0
7400000.0,23.578125,5.496161045610078E-7,7400000.0,66.8,32.27944926058136,33.06451612903227,23.678160919540247,461202.0,2904.0,0.0,1.0,0.0,?,0.0,0.0
7500000.0,23.890625,5.576196579366096E-7,7500000.0,65.9,30.761421319796966,28.810020876826727,24.22222222222222,481202.0,2904.0,0.0,1.0,0.0,?,0.0,0.0
7600000.0,24.203125,5.643943829151492E-7,7600000.0,66.5,31.835754690107038,31.06995884773663,23.69020501138952,501202.0,2904.0,0.0,1.0,0.0,?,0.0,0.0
7700000.0,24.53125,5.702175743257007E-7,7700000.0,67.9,34.533084246335086,33.402489626556026,27.2108843537415,521202.0,2904.0,0.0,1.0,0.0,?,0.0,0.0
7800000.0,24.875,5.749663493285577E-7,7800000.0,68.8,35.81963672268734,35.40372670807452,26.932084309133486,541202.0,2904.0,0.0,1.0,0.0,?,0.0,0.0
7900000.0,25.203125,5.782090011052789E-7,7900000.0,67.30000000000001,33.94900135737832,36.62790697674419,30.12820512820513,561202.0,2904.0,0.0,1.0,0.0,?,0.0,0.0
8000000.0,25.515625,5.800684124955702E-7,8000000.0,66.3,31.424897035602083,27.213822894168473,24.94432071269488,581202.0,2904.0,0.0,1.0,0.0,?,0.0,0.0
8100000.0,25.828125,5.929995677433909E-7,8100000.0,65.8,30.74652011388351,33.20312500000001,25.813449023861175,601002.0,2904.0,0.0,1.0,0.0,?,0.0,0.0
8200000.0,26.15625,6.052870109366875E-7,8200000.0,68.30000000000001,35.51195775117789,36.345381526104426,28.44243792325057,621002.0,2904.0,0.0,1.0,0.0,?,0.0,0.0
8300000.0,26.46875,6.15760509390384E-7,8300000.0,68.30000000000001,35.61726188541905,36.60000000000001,25.93457943925236,641002.0,2904.0,0.0,1.0,0.0,?,0.0,0.0
8400000.0,26.78125,6.250051794470186E-7,8400000.0,70.19999999999999,38.87505486886854,38.93442622950818,29.550827423167846,661002.0,2904.0,0.0,1.0,0.0,?,0.0,0.0
8500000.0,27.09375,6.33021021106591E-7,8500000.0,69.1,37.36063247516723,39.530332681017605,31.333333333333314,681002.0,2904.0,0.0,1.0,0.0,?,0.0,0.0
8600000.0,27.40625,6.398080343691013E-7,8600000.0,70.0,38.98346451888462,40.711462450592876,33.481152993348104,701002.0,2904.0,0.0,1.0,0.0,?,0.0,0.0
8700000.0,27.71875,6.453662192345495E-7,8700000.0,68.30000000000001,35.92179629195405,36.345381526104426,30.78602620087337,721002.0,2904.0,0.0,1.0,0.0,?,0.0,0.0
8800000.0,28.0625,6.501285113497742E-7,8800000.0,67.0,32.624460995687976,30.08474576271187,25.339366515837103,741002.0,2904.0,0.0,1.0,0.0,?,0.0,0.0
8900000.0,28.390625,6.533840658246645E-7,8900000.0,67.60000000000001,34.0533191127322,36.09467455621303,25.858123569794074,761002.0,2904.0,0.0,1.0,0.0,?,0.0,0.0
9000000.0,28.703125,6.552557654989264E-7,9000000.0,66.3,31.747111910432768,32.05645161290323,26.096491228070178,781002.0,2904.0,0.0,1.0,0.0,?,0.0,0.0
9100000.0,29.015625,6.681992090307178E-7,9100000.0,65.10000000000001,29.447629521214218,31.299212598425203,23.632385120350108,800802.0,2904.0,0.0,1.0,0.0,?,0.0,0.0
9200000.0,29.328125,6.79913824165447E-7,9200000.0,67.10000000000001,33.46545866364667,34.592445328031815,28.47826086956522,820802.0,2904.0,0.0,1.0,0.0,?,0.0,0.0
9300000.0,29.640625,6.903996109031142E-7,9300000.0,66.2,32.282984998076685,31.440162271805278,30.737704918032794,840802.0,2904.0,0.0,1.0,0.0,?,0.0,0.0
9400000.0,29.953125,6.996565692437193E-7,9400000.0,65.8,30.964876867178038,33.0724070450098,24.0,860802.0,2904.0,0.0,1.0,0.0,?,0.0,0.0
9500000.0,30.25,7.072832926900851E-7,9500000.0,64.4,27.273321566320202,24.894514767932492,18.348623853211024,880802.0,2904.0,0.0,1.0,0.0,?,0.0,0.0
9600000.0,30.578125,7.144225593138901E-7,9600000.0,67.80000000000001,34.912677878395876,34.685598377281956,30.000000000000004,900802.0,2904.0,0.0,1.0,0.0,?,0.0,0.0
9700000.0,30.90625,7.202715561207799E-7,9700000.0,67.2,32.85540575396421,30.06396588486141,21.71837708830551,920802.0,2904.0,0.0,1.0,0.0,?,0.0,0.0
9800000.0,31.203125,7.243961186355188E-7,9800000.0,68.7,36.38159659834634,37.52495009980041,29.185520361990953,940802.0,2904.0,0.0,1.0,0.0,?,0.0,0.0
9900000.0,31.53125,7.276645758085781E-7,9900000.0,67.7,34.53428133639245,34.61538461538463,26.923076923076927,960802.0,2904.0,0.0,1.0,0.0,?,0.0,0.0
1.0E7,31.859375,7.296427631647224E-7,1.0E7,69.8,38.80867376918305,38.11475409836064,31.207289293849637,980802.0,2904.0,0.0,1.0,0.0,?,0.0,0.0
