learning evaluation instances,evaluation time (cpu seconds),model cost (RAM-Hours),classified instances,classifications correct (percent),Kappa Statistic (percent),Kappa Temporal Statistic (percent),Kappa M Statistic (percent),model training instances,model serialized size (bytes),labeling cost,newThreshold,maxPosterior,accuracyBaseLearner (percent),Change detected,Warning detected
100000.0,0.09375,3.965299886961778E-9,100000.0,63.0,27.631192911768732,20.940170940170937,17.960088691796003,6250.0,5144.0,0.0,1.0,0.0,?,1.0,11.0
200000.0,0.21875,8.760835044085979E-9,200000.0,62.9,27.46369274324102,24.43991853360489,15.489749430523908,16250.0,5144.0,0.0,1.0,0.0,?,0.0,0.0
300000.0,0.328125,1.2526838367597924E-8,300000.0,53.800000000000004,5.750831310308257,3.1446540880503173,-1.5384615384615399,26250.0,5144.0,0.0,1.0,0.0,?,0.0,0.0
400000.0,0.421875,1.538619269720382E-8,400000.0,62.9,28.28478864309408,22.54697286012526,13.519813519813532,36250.0,5144.0,0.0,1.0,0.0,?,0.0,0.0
500000.0,0.515625,1.7876898507691093E-8,500000.0,62.9,26.691432184634838,20.8955223880597,20.726495726495724,46250.0,5144.0,0.0,1.0,0.0,?,0.0,0.0
600000.0,0.625,2.0352632014287843E-8,600000.0,64.2,29.63836477987422,27.67676767676768,20.44444444444444,56250.0,5144.0,0.0,1.0,0.0,?,0.0,0.0
700000.0,0.734375,2.2398275581912864E-8,700000.0,52.300000000000004,2.42206038785696,1.8518518518518534,-8.409090909090917,66250.0,5144.0,0.0,1.0,0.0,?,0.0,0.0
800000.0,0.828125,2.3783035835044255E-8,800000.0,63.0,27.970721071484196,21.610169491525422,15.909090909090901,76250.0,5144.0,0.0,1.0,0.0,?,0.0,0.0
900000.0,0.9375,2.4968499524725813E-8,900000.0,50.7,3.7011571487729156,0.20242914979757104,-11.53846153846155,86250.0,5144.0,0.0,1.0,0.0,?,0.0,0.0
1000000.0,1.03125,2.561596273961995E-8,1000000.0,53.7,5.986029889538673,7.028112449799203,-2.2075055187637993,96250.0,5144.0,0.0,1.0,0.0,?,0.0,0.0
1100000.0,1.140625,3.0246446840465075E-8,1100000.0,62.7,26.693133131559293,25.100401606425706,17.29490022172948,106150.0,5144.0,0.0,1.0,0.0,?,0.0,0.0
1200000.0,1.25,3.444684100233847E-8,1200000.0,55.400000000000006,9.896077448968054,7.851239669421495,3.4632034632034667,116150.0,5144.0,0.0,1.0,0.0,?,0.0,0.0
1300000.0,1.359375,3.821714522524013E-8,1300000.0,54.900000000000006,8.450189595394498,12.25680933852141,2.380952380952383,126150.0,5144.0,0.0,1.0,0.0,?,0.0,0.0
1400000.0,1.453125,4.108018604003722E-8,1400000.0,55.900000000000006,9.919111038483546,11.267605633802827,-0.22727272727272751,136150.0,5144.0,0.0,1.0,0.0,?,0.0,0.0
1500000.0,1.5625,4.399031038499542E-8,1500000.0,64.1,29.819211160113856,26.883910386965375,19.144144144144136,146150.0,5144.0,0.0,1.0,0.0,?,0.0,0.0
1600000.0,1.65625,4.611605416155525E-8,1600000.0,61.9,26.21712692203417,14.189189189189177,6.845965770171154,156150.0,5144.0,0.0,1.0,0.0,?,0.0,0.0
1700000.0,1.765625,4.8165998628569983E-8,1700000.0,52.2,2.6555881394591174,-3.687635574837314,-7.657657657657666,166150.0,5144.0,0.0,1.0,0.0,?,0.0,0.0
1800000.0,1.875,4.9785853156612987E-8,1800000.0,61.8,25.92276575692583,21.721311475409834,11.778290993071602,176150.0,5144.0,0.0,1.0,0.0,?,0.0,0.0
1900000.0,1.953125,5.063568500594961E-8,1900000.0,63.2,28.08707716960116,23.01255230125523,14.617169373549896,186150.0,5144.0,0.0,1.0,0.0,?,0.0,0.0
2000000.0,2.078125,5.1503884606063375E-8,2000000.0,62.9,27.428504362114147,25.94810379241517,16.62921348314606,196150.0,5144.0,0.0,1.0,0.0,?,0.0,0.0
2100000.0,2.1875,5.613866960629822E-8,2100000.0,54.400000000000006,5.987135081642765,12.64367816091955,-5.555555555555534,206050.0,5144.0,0.0,1.0,0.0,?,0.0,0.0
2200000.0,2.296875,6.034336466756133E-8,2200000.0,60.9,20.36335492280744,21.4859437751004,12.134831460674144,216050.0,5144.0,0.0,1.0,0.0,?,0.0,0.0
2300000.0,2.40625,6.41179697898527E-8,2300000.0,56.10000000000001,11.475515619832724,11.313131313131324,5.995717344753753,226050.0,5144.0,0.0,1.0,0.0,?,0.0,0.0
2400000.0,2.515625,6.746248497317235E-8,2400000.0,61.4,23.099910349636417,22.020202020202017,11.264367816091962,236050.0,5144.0,0.0,1.0,0.0,?,0.0,0.0
2500000.0,2.609375,6.9960563754042E-8,2500000.0,57.99999999999999,15.673149126012417,12.317327766179528,6.4587973273941905,246050.0,5144.0,0.0,1.0,0.0,?,0.0,0.0
2600000.0,2.71875,7.244489905941819E-8,2600000.0,59.9,19.485672063736832,17.48971193415637,8.656036446469232,256050.0,5144.0,0.0,1.0,0.0,?,0.0,0.0
2700000.0,2.828125,7.449914442582264E-8,2700000.0,61.3,23.53833752193085,19.709543568464724,12.24489795918366,266050.0,5144.0,0.0,1.0,0.0,?,0.0,0.0
2800000.0,2.921875,7.589127764933641E-8,2800000.0,64.2,30.21768962075849,25.72614107883818,15.962441314554003,276050.0,5144.0,0.0,1.0,0.0,?,0.0,0.0
2900000.0,3.015625,7.691476235373154E-8,2900000.0,55.1,9.656493464683523,13.152804642166355,4.059829059829063,286050.0,5144.0,0.0,1.0,0.0,?,0.0,0.0
3000000.0,3.125,7.76787379032208E-8,3000000.0,53.0,4.315960912052117,-1.2931034482758632,-4.444444444444449,296050.0,5144.0,0.0,1.0,0.0,?,0.0,0.0
3100000.0,3.25,8.298055035993458E-8,3100000.0,53.400000000000006,5.278007016745068,8.984375000000009,-1.0845986984815628,305950.0,5144.0,0.0,1.0,0.0,?,0.0,0.0
3200000.0,3.34375,8.65882611833513E-8,3200000.0,55.1,8.190473074658113,9.839357429718884,-1.3544018058690759,315950.0,5144.0,0.0,1.0,0.0,?,0.0,0.0
3300000.0,3.453125,9.036716720503239E-8,3300000.0,57.49999999999999,12.76396597589412,14.829659318637264,0.7009345794392529,325950.0,5144.0,0.0,1.0,0.0,?,0.0,0.0
3400000.0,3.5625,9.371598328774175E-8,3400000.0,53.0,3.4118232148655383,3.4907597535934323,-11.111111111111093,335950.0,5144.0,0.0,1.0,0.0,?,0.0,0.0
3500000.0,3.671875,9.663470943147939E-8,3500000.0,63.9,29.356419368473784,29.35420743639922,19.599109131403115,345950.0,5144.0,0.0,1.0,0.0,?,0.0,0.0
3600000.0,3.78125,9.912334563624529E-8,3600000.0,51.9,1.9551888330833045,4.940711462450597,-6.651884700665195,355950.0,5144.0,0.0,1.0,0.0,?,0.0,0.0
3700000.0,3.890625,1.0118189190203947E-7,3700000.0,66.7,34.42455081801928,33.13253012048193,27.292576419213976,365950.0,5144.0,0.0,1.0,0.0,?,0.0,0.0
3800000.0,4.015625,1.030429848469794E-7,3800000.0,63.2,27.54308036417478,22.19873150105708,16.74208144796379,375950.0,5144.0,0.0,1.0,0.0,?,0.0,0.0
3900000.0,4.125,1.0424135123483011E-7,3900000.0,55.00000000000001,7.381489470304449,11.242603550295868,-2.739726027397263,385950.0,5144.0,0.0,1.0,0.0,?,0.0,0.0
4000000.0,4.234375,1.0500962768370908E-7,4000000.0,55.2,9.022971699645845,9.677419354838717,1.7543859649122824,395950.0,5144.0,0.0,1.0,0.0,?,0.0,0.0
4100000.0,4.34375,1.0965301448272336E-7,4100000.0,50.6,-0.3009027081243697,2.755905511811026,-8.09628008752736,405850.0,5144.0,0.0,1.0,0.0,?,0.0,0.0
4200000.0,4.453125,1.138663113427659E-7,4200000.0,63.9,28.964974419519873,28.08764940239044,21.350762527233112,415850.0,5144.0,0.0,1.0,0.0,?,0.0,0.0
4300000.0,4.5625,1.176495182638367E-7,4300000.0,60.9,22.292973376896956,20.68965517241379,19.712525667351123,425850.0,5144.0,0.0,1.0,0.0,?,0.0,0.0
4400000.0,4.65625,1.2052361853420734E-7,4400000.0,61.7,25.27470812261971,25.1953125,15.07760532150775,435850.0,5144.0,0.0,1.0,0.0,?,0.0,0.0
4500000.0,4.765625,1.2344664557733468E-7,4500000.0,62.0,25.637172020790285,19.83122362869198,12.844036697247715,445850.0,5144.0,0.0,1.0,0.0,?,0.0,0.0
4600000.0,4.859375,1.2558344880946807E-7,4600000.0,63.3,27.690998218873634,25.557809330628807,20.04357298474945,455850.0,5144.0,0.0,1.0,0.0,?,0.0,0.0
4700000.0,4.96875,1.2764629597465195E-7,4700000.0,52.900000000000006,3.4836065573770525,-0.4264392324093821,-12.142857142857126,465850.0,5144.0,0.0,1.0,0.0,?,0.0,0.0
4800000.0,5.078125,1.292790532008641E-7,4800000.0,64.9,31.242262305872025,29.940119760479046,20.76749435665914,475850.0,5144.0,0.0,1.0,0.0,?,0.0,0.0
4900000.0,5.1875,1.3048172048810454E-7,4900000.0,64.4,30.256249510226475,27.789046653144016,19.45701357466063,485850.0,5144.0,0.0,1.0,0.0,?,0.0,0.0
5000000.0,5.3125,1.3143580872565506E-7,5000000.0,56.2,10.006533772205586,10.061601642710482,0.22779043280182257,495850.0,5144.0,0.0,1.0,0.0,?,0.0,0.0
5100000.0,5.421875,1.3614574628364707E-7,5100000.0,48.0,1.8256650367209688,-10.638297872340436,-40.161725067385454,505750.0,5144.0,0.0,1.0,0.0,?,0.0,0.0
5200000.0,5.515625,1.3981418709995018E-7,5200000.0,45.300000000000004,-4.7146477988866256,-12.09016393442623,-43.56955380577428,515750.0,5144.0,0.0,1.0,0.0,?,0.0,0.0
5300000.0,5.625,1.4366394477999872E-7,5300000.0,45.800000000000004,-3.4094594852422104,-20.44444444444445,-45.3083109919571,525750.0,5144.0,0.0,1.0,0.0,?,0.0,0.0
5400000.0,5.703125,1.461065645950536E-7,5400000.0,47.199999999999996,1.0683864778471852,-17.073170731707336,-45.45454545454547,535750.0,5144.0,0.0,1.0,0.0,?,0.0,0.0
5500000.0,5.8125,1.4909614239715867E-7,5500000.0,48.5,2.061463563061,-7.51565762004176,-41.48351648351649,545750.0,5144.0,0.0,1.0,0.0,?,0.0,0.0
5600000.0,5.921875,1.5165563026029203E-7,5600000.0,45.6,-4.8238227552479245,-9.236947791164656,-39.13043478260869,555750.0,5144.0,0.0,1.0,0.0,?,0.0,0.0
5700000.0,6.03125,1.5378502818445365E-7,5700000.0,46.7,-0.8560464429794301,-19.239373601789715,-42.513368983957214,565750.0,5144.0,0.0,1.0,0.0,?,0.0,0.0
5800000.0,6.140625,1.5551127338161072E-7,5800000.0,46.0,-2.043901554090825,-13.20754716981132,-45.16129032258064,575750.0,5144.0,0.0,1.0,0.0,?,0.0,6.0
5900000.0,6.25,1.5680742863979604E-7,5900000.0,47.9,0.65214904084512,-9.684210526315798,-33.58974358974359,585750.0,5144.0,0.0,1.0,0.0,?,0.0,0.0
6000000.0,6.375,1.5779721757604015E-7,6000000.0,48.699999999999996,2.173166843377898,-8.227848101265831,-32.90155440414508,595750.0,5144.0,0.0,1.0,0.0,?,0.0,0.0
6100000.0,6.5,1.6321570405529604E-7,6100000.0,49.7,2.929483963101619,-3.7113402061855707,-26.065162907268164,605650.0,5144.0,0.0,1.0,0.0,?,0.0,0.0
6200000.0,6.609375,1.675267897856732E-7,6200000.0,49.9,2.9257895756636314,-10.10989010989012,-30.129870129870127,615650.0,5144.0,0.0,1.0,0.0,?,0.0,0.0
6300000.0,6.734375,1.7196221354727942E-7,6300000.0,46.300000000000004,-0.29509543909453706,-18.02197802197803,-55.202312138728324,625650.0,5144.0,0.0,1.0,0.0,?,0.0,0.0
6400000.0,6.859375,1.759061059500608E-7,6400000.0,47.199999999999996,-1.0971336664943443,-13.548387096774206,-43.08943089430895,635650.0,5144.0,0.0,1.0,0.0,?,0.0,0.0
6500000.0,7.0,1.797900121245119E-7,6500000.0,50.6,-3.263891501841613,-2.277432712215323,-25.699745547073782,645650.0,5144.0,0.0,1.0,0.0,?,0.0,0.0
6600000.0,7.125,1.8275084180964361E-7,6600000.0,51.0,-3.764315240224981,-6.290672451193065,-30.31914893617021,655650.0,5144.0,0.0,1.0,0.0,?,0.0,0.0
6700000.0,7.25,1.852201401359505E-7,6700000.0,49.3,-7.763201523563371,-12.416851441241697,-34.12698412698413,665650.0,5144.0,0.0,1.0,0.0,?,0.0,0.0
6800000.0,7.375,1.8719790710343253E-7,6800000.0,55.2,4.906243499450256,0.8849557522123902,-25.490196078431364,675650.0,5144.0,0.0,1.0,0.0,?,0.0,0.0
6900000.0,7.515625,1.8886992216317188E-7,6900000.0,48.8,-7.900327072866431,-10.107526881720439,-34.031413612565444,685650.0,5144.0,0.0,1.0,0.0,?,0.0,0.0
7000000.0,7.625,1.8974028838177518E-7,7000000.0,50.7,-2.3203686023826258,-2.28215767634855,-23.55889724310776,695650.0,5144.0,0.0,1.0,0.0,?,0.0,0.0
7100000.0,7.75,1.951636901746193E-7,7100000.0,52.0,-1.8468223791417566,-10.344827586206879,-32.59668508287293,705550.0,5144.0,0.0,1.0,0.0,?,0.0,0.0
7200000.0,7.875,2.000955606086386E-7,7200000.0,49.7,-6.683521107642185,-6.342494714587745,-41.29213483146068,715550.0,5144.0,0.0,1.0,0.0,?,0.0,0.0
7300000.0,8.015625,2.050909420682324E-7,7300000.0,51.6,-1.238710001296856,-3.8626609442060125,-25.064599483204127,725550.0,5144.0,0.0,1.0,0.0,?,0.0,0.0
7400000.0,8.15625,2.0953335074914823E-7,7400000.0,50.8,-3.247251986250485,-6.956521739130442,-29.815303430079155,735550.0,5144.0,0.0,1.0,0.0,?,0.0,0.0
7500000.0,8.296875,2.1342278665138613E-7,7500000.0,50.3,-2.7657849899922136,-1.6359918200409014,-20.924574209245733,745550.0,5144.0,0.0,1.0,0.0,?,0.0,0.0
7600000.0,8.40625,2.160178135252661E-7,7600000.0,48.8,-9.917004074657706,-14.541387024608515,-41.82825484764543,755550.0,5144.0,0.0,1.0,0.0,?,0.0,0.0
7700000.0,8.53125,2.1849202716516122E-7,7700000.0,51.4,-2.8702057404114845,-3.84615384615385,-31.351351351351347,765550.0,5144.0,0.0,1.0,0.0,?,0.0,0.0
7800000.0,8.671875,2.207225447313653E-7,7800000.0,50.7,-4.0523427606585045,-8.590308370044061,-33.60433604336043,775550.0,5144.0,0.0,1.0,0.0,?,0.0,0.0
7900000.0,8.796875,2.2218782558209365E-7,7900000.0,49.8,-5.363019678957624,-10.572687224669613,-34.946236559139784,785550.0,5144.0,0.0,1.0,0.0,?,0.0,2.0
8000000.0,8.921875,2.2316157507399716E-7,8000000.0,50.6,-4.15436773660329,-2.9166666666666696,-32.0855614973262,795550.0,5144.0,0.0,1.0,0.0,?,0.0,0.0
8100000.0,9.03125,2.2788871622954803E-7,8100000.0,49.4,-6.345416638644158,-6.7510548523206815,-42.134831460674164,805450.0,5144.0,0.0,1.0,0.0,?,0.0,0.0
8200000.0,9.171875,2.334134963651498E-7,8200000.0,50.2,-3.6636136552872496,-10.91314031180402,-24.499999999999993,815450.0,5144.0,0.0,1.0,0.0,?,0.0,0.0
8300000.0,9.3125,2.383853037220736E-7,8300000.0,49.2,-6.015768802147032,-5.613305613305618,-32.637075718015666,825450.0,5144.0,0.0,1.0,0.0,?,0.0,0.0
8400000.0,9.421875,2.4182217506070927E-7,8400000.0,52.400000000000006,-2.23587276359029,-3.478260869565221,-37.97101449275363,835450.0,5144.0,0.0,1.0,0.0,?,0.0,0.0
8500000.0,9.546875,2.452584966603252E-7,8500000.0,49.8,-4.827931840962252,-13.063063063063076,-36.41304347826087,845450.0,5144.0,0.0,1.0,0.0,?,0.0,0.0
8600000.0,9.671875,2.482032869011163E-7,8600000.0,53.1,0.9127017662469347,5.633802816901413,-22.135416666666657,855450.0,5144.0,0.0,1.0,0.0,?,0.0,0.0
8700000.0,9.8125,2.5096320314332834E-7,8700000.0,51.4,-3.1299734748010697,-4.068522483940047,-26.233766233766225,865450.0,5144.0,0.0,1.0,0.0,?,0.0,0.0
8800000.0,9.921875,2.526797147260771E-7,8800000.0,51.300000000000004,-3.8290977315367507,-0.4123711340206189,-28.1578947368421,875450.0,5144.0,0.0,1.0,0.0,?,0.0,0.0
8900000.0,10.046875,2.541499108903937E-7,8900000.0,49.1,-6.34830427733297,-6.932773109243703,-29.8469387755102,885450.0,5144.0,0.0,1.0,0.0,?,0.0,0.0
9000000.0,10.171875,2.551285756958855E-7,9000000.0,52.5,-1.0655500519157801,0.4192872117400423,-26.329787234042545,895450.0,5144.0,0.0,1.0,0.0,?,0.0,0.0
9100000.0,10.296875,2.6053593804438904E-7,9100000.0,49.9,-5.718506013926992,-3.5123966942148797,-41.12676056338029,905350.0,5144.0,0.0,1.0,0.0,?,0.0,0.0
9200000.0,10.421875,2.654517690340677E-7,9200000.0,51.4,-1.6328169438217128,-3.4042553191489398,-26.562499999999993,915350.0,5144.0,0.0,1.0,0.0,?,0.0,0.0
9300000.0,10.53125,2.6932303121106485E-7,9300000.0,50.3,-3.132574122646834,-0.6072874493927131,-20.338983050847446,925350.0,5144.0,0.0,1.0,0.0,?,0.0,0.0
9400000.0,10.65625,2.7325579948309387E-7,9400000.0,50.7,-2.66299051252364,1.7928286852589657,-22.332506203473937,935350.0,5144.0,0.0,1.0,0.0,?,0.0,0.0
9500000.0,10.78125,2.7669703639629805E-7,9500000.0,49.7,-5.013069220940824,-2.443991853360491,-26.700251889168758,945350.0,5144.0,0.0,1.0,0.0,?,0.0,0.0
9600000.0,10.90625,2.796467419506774E-7,9600000.0,49.5,-6.564364876385342,-4.12371134020619,-28.498727735368952,955350.0,5144.0,0.0,1.0,0.0,?,0.0,0.0
9700000.0,11.015625,2.817976443717876E-7,9700000.0,51.6,-3.028264654919165,-2.1097046413502127,-29.75871313672922,965350.0,5144.0,0.0,1.0,0.0,?,0.0,0.0
9800000.0,11.171875,2.8425594791769974E-7,9800000.0,48.6,-7.448209544912944,-7.983193277310932,-30.126582278481013,975350.0,5144.0,0.0,1.0,0.0,?,0.0,0.0
9900000.0,11.296875,2.857310593956046E-7,9900000.0,47.099999999999994,-11.545014422833628,-16.519823788546272,-50.28409090909093,985350.0,5144.0,0.0,1.0,0.0,?,0.0,0.0
1.0E7,11.421875,2.8671463951468464E-7,1.0E7,50.7,-2.6091444936561308,-1.8595041322314068,-26.73521850899742,995350.0,5144.0,0.0,1.0,0.0,?,0.0,0.0
