learning evaluation instances,evaluation time (cpu seconds),model cost (RAM-Hours),classified instances,classifications correct (percent),Kappa Statistic (percent),Kappa Temporal Statistic (percent),Kappa M Statistic (percent),model training instances,model serialized size (bytes),labeling cost,newThreshold,maxPosterior,accuracyBaseLearner (percent),Change detected,Warning detected
100000.0,0.140625,5.89730916544795E-9,100000.0,68.10000000000001,0.0,25.813953488372114,0.0,2746.0,9224.0,0.0,1.0,0.0,?,2.0,4.0
200000.0,0.28125,1.127016730606556E-8,200000.0,67.30000000000001,0.0,24.82758620689657,0.0,3557.0,9224.0,0.0,1.0,0.0,?,2.0,7.0
300000.0,0.4375,1.6647261670894094E-8,300000.0,66.2,0.0,22.654462242562946,0.0,4565.0,9224.0,0.0,1.0,0.0,?,4.0,24.0
400000.0,0.59375,2.1338475764625603E-8,400000.0,66.8,0.0,22.790697674418624,0.0,1253.0,9224.0,0.0,1.0,0.0,?,3.0,3.0
500000.0,0.75,2.5447936625116403E-8,500000.0,67.80000000000001,0.0,23.333333333333353,0.0,3064.0,9232.0,0.0,1.0,0.0,?,2.0,15.0
600000.0,0.90625,2.8974997500578564E-8,600000.0,66.5,0.0,21.361502347417858,0.0,1550.0,9224.0,0.0,1.0,0.0,?,4.0,9.0
700000.0,1.046875,3.172880193839471E-8,700000.0,65.4,0.0,19.72157772621811,0.0,2349.0,9224.0,0.0,1.0,0.0,?,2.0,23.0
800000.0,1.1875,3.393399917210142E-8,800000.0,65.2,0.0,22.666666666666664,0.0,3155.0,9224.0,0.0,1.0,0.0,?,2.0,7.0
900000.0,1.34375,3.5826718279471E-8,900000.0,66.8,0.0,23.325635103926114,0.0,1852.0,9224.0,0.0,1.0,0.0,?,3.0,10.0
1000000.0,1.5,3.7013184434423844E-8,1000000.0,68.10000000000001,0.0,24.941176470588257,0.0,462.0,8920.0,0.0,1.0,0.0,?,4.0,20.0
1100000.0,1.640625,4.2812122652928034E-8,1100000.0,68.5,0.0,26.056338028169034,0.0,1065.0,9224.0,0.0,1.0,0.0,?,3.0,5.0
1200000.0,1.796875,4.875965209470855E-8,1200000.0,65.2,0.0,25.0,0.0,2851.0,9224.0,0.0,1.0,0.0,?,2.0,3.0
1300000.0,1.953125,5.402647527969546E-8,1300000.0,66.8,0.0,26.05790645879733,0.0,552.0,8920.0,0.0,1.0,0.0,?,3.0,8.0
1400000.0,2.109375,5.872351013951832E-8,1400000.0,67.30000000000001,0.0,28.446389496717728,0.0,1377.0,9224.0,0.0,1.0,0.0,?,2.0,2.0
1500000.0,2.265625,6.282618010623588E-8,1500000.0,52.7,5.538291940598959,-19.746835443037963,-49.211356466876985,56.0,8920.0,0.0,1.0,0.0,?,3.0,19.0
1600000.0,2.40625,6.608377184925808E-8,1600000.0,66.2,0.0,25.221238938053098,0.0,1861.0,9224.0,0.0,1.0,0.0,?,2.0,4.0
1700000.0,2.546875,6.873949637843503E-8,1700000.0,70.5,0.0,30.424528301886788,0.0,1557.0,9224.0,0.0,1.0,0.0,?,3.0,4.0
1800000.0,2.703125,7.119456616540749E-8,1800000.0,65.9,0.0,21.247113163972305,0.0,5346.0,9224.0,0.0,1.0,0.0,?,2.0,5.0
1900000.0,2.84375,7.287734964241584E-8,1900000.0,63.800000000000004,0.0,20.960698689956327,0.0,2052.0,9224.0,0.0,1.0,0.0,?,3.0,28.0
2000000.0,3.0,7.418120124687752E-8,2000000.0,68.4,0.0,24.038461538461558,0.0,750.0,8920.0,0.0,1.0,0.0,?,3.0,19.0
2100000.0,3.140625,7.998537815486391E-8,2100000.0,67.10000000000001,0.0,23.488372093023273,0.0,2450.0,9224.0,0.0,1.0,0.0,?,2.0,2.0
2200000.0,3.28125,8.534135607381662E-8,2200000.0,68.89999999999999,0.0,26.477541371158388,0.0,2147.0,9224.0,0.0,1.0,0.0,?,3.0,6.0
2300000.0,3.4375,9.06262883088655E-8,2300000.0,66.4,0.0,25.16703786191537,0.0,1865.0,9224.0,0.0,1.0,0.0,?,3.0,13.0
2400000.0,3.578125,9.49531547828681E-8,2400000.0,67.9,0.0,26.376146788990845,0.0,3667.0,9224.0,0.0,1.0,0.0,?,2.0,11.0
2500000.0,3.703125,9.833696013730435E-8,2500000.0,66.9,0.0,25.45045045045045,0.0,1349.0,9224.0,0.0,1.0,0.0,?,3.0,10.0
2600000.0,3.84375,1.016254019406107E-7,2600000.0,67.9,0.0,29.60526315789474,0.0,3138.0,9224.0,0.0,1.0,0.0,?,2.0,16.0
2700000.0,4.0,1.0469553267790214E-7,2700000.0,68.89999999999999,0.0,20.66326530612244,0.0,1840.0,9224.0,0.0,1.0,0.0,?,3.0,5.0
2800000.0,4.15625,1.0707008186727765E-7,2800000.0,70.1,0.0,29.812206572769952,0.0,4662.0,9224.0,0.0,1.0,0.0,?,2.0,15.0
2900000.0,4.296875,1.086833071894944E-7,2900000.0,65.4,0.0,24.12280701754386,0.0,1365.0,9224.0,0.0,1.0,0.0,?,3.0,5.0
3000000.0,4.453125,1.100091483547456E-7,3000000.0,66.60000000000001,0.0,29.237288135593225,0.0,3156.0,9232.0,0.0,1.0,0.0,?,2.0,5.0
3100000.0,4.609375,1.1645176629018456E-7,3100000.0,68.89999999999999,0.0,26.995305164319245,0.0,753.0,8920.0,0.0,1.0,0.0,?,3.0,10.0
3200000.0,4.75,1.217262534838584E-7,3200000.0,67.4,0.0,24.186046511627925,0.0,459.0,8920.0,0.0,1.0,0.0,?,3.0,3.0
3300000.0,4.90625,1.2701700648499863E-7,3300000.0,68.60000000000001,0.0,29.753914988814323,0.0,2258.0,9224.0,0.0,1.0,0.0,?,2.0,2.0
3400000.0,5.0625,1.3172600625289814E-7,3400000.0,67.9,0.0,28.348214285714292,0.0,5037.0,9232.0,0.0,1.0,0.0,?,2.0,2.0
3500000.0,5.21875,1.3595220581110983E-7,3500000.0,65.5,0.0,23.672566371681413,0.0,761.0,8920.0,0.0,1.0,0.0,?,3.0,5.0
3600000.0,5.359375,1.391422766674724E-7,3600000.0,70.6,0.0,28.813559322033893,0.0,1569.0,9224.0,0.0,1.0,0.0,?,2.0,2.0
3700000.0,5.5,1.4188531268801955E-7,3700000.0,69.69999999999999,0.0,31.60270880361172,0.0,1263.0,9224.0,0.0,1.0,0.0,?,3.0,45.0
3800000.0,5.640625,1.441248524416652E-7,3800000.0,64.7,0.0,17.523364485981322,0.0,3059.0,9232.0,0.0,1.0,0.0,?,2.0,12.0
3900000.0,5.78125,1.45837612864044E-7,3900000.0,66.60000000000001,0.0,25.112107623318387,0.0,1245.0,9224.0,0.0,1.0,0.0,?,5.0,21.0
4000000.0,5.9375,1.4704154131727088E-7,4000000.0,67.10000000000001,0.0,25.900900900900904,0.0,949.0,8920.0,0.0,1.0,0.0,?,3.0,5.0
4100000.0,6.09375,1.535022683027718E-7,4100000.0,67.2,0.0,24.423963133640573,0.0,1653.0,9224.0,0.0,1.0,0.0,?,2.0,5.0
4200000.0,6.21875,1.5828590322699814E-7,4200000.0,67.2,0.0,21.904761904761923,0.0,350.0,8920.0,0.0,1.0,0.0,?,3.0,14.0
4300000.0,6.359375,1.6305281961750656E-7,4300000.0,67.2,0.0,23.543123543123563,0.0,2152.0,9224.0,0.0,1.0,0.0,?,2.0,5.0
4400000.0,6.515625,1.6775502849163283E-7,4400000.0,68.4,0.0,23.671497584541083,0.0,863.0,8920.0,0.0,1.0,0.0,?,3.0,3.0
4500000.0,6.671875,1.7188744904059506E-7,4500000.0,65.9,0.0,26.82403433476395,0.0,3652.0,9224.0,0.0,1.0,0.0,?,2.0,2.0
4600000.0,6.8125,1.750716991308663E-7,4600000.0,68.5,0.0,29.84409799554566,0.0,343.0,8920.0,0.0,1.0,0.0,?,3.0,15.0
4700000.0,6.96875,1.7803996646155917E-7,4700000.0,69.39999999999999,0.0,22.72727272727272,0.0,2164.0,9224.0,0.0,1.0,0.0,?,2.0,3.0
4800000.0,7.125,1.8041386889914674E-7,4800000.0,68.8,0.0,24.637681159420282,0.0,861.0,8920.0,0.0,1.0,0.0,?,3.0,6.0
4900000.0,7.265625,1.8213797981540364E-7,4900000.0,67.10000000000001,0.0,26.7260579064588,0.0,2665.0,9224.0,0.0,1.0,0.0,?,2.0,4.0
5000000.0,7.421875,1.8359640509717997E-7,5000000.0,65.4,0.0,22.595078299776283,0.0,4451.0,9224.0,0.0,1.0,0.0,?,2.0,19.0
5100000.0,7.578125,1.9028090820130378E-7,5100000.0,64.3,0.0,22.052401746724886,0.0,7843.0,9232.0,0.0,1.0,0.0,?,3.0,24.0
5200000.0,7.734375,1.963833346962929E-7,5200000.0,62.1,0.0,19.70338983050847,0.0,17843.0,9232.0,0.0,1.0,0.0,?,0.0,0.0
5300000.0,7.875,2.0135164959356192E-7,5300000.0,61.8,0.0,22.983870967741936,0.0,27843.0,9232.0,0.0,1.0,0.0,?,0.0,0.0
5400000.0,8.03125,2.062899228702817E-7,5400000.0,63.4,0.0,25.910931174089068,0.0,37843.0,9232.0,0.0,1.0,0.0,?,0.0,0.0
5500000.0,8.171875,2.102104998711083E-7,5500000.0,60.8,0.0,17.819706498951778,0.0,47843.0,9232.0,0.0,1.0,0.0,?,0.0,0.0
5600000.0,8.328125,2.140285990511378E-7,5600000.0,60.8,0.0,18.16283924843423,0.0,57843.0,9232.0,0.0,1.0,0.0,?,0.0,21.0
5700000.0,8.484375,2.1722516976296905E-7,5700000.0,63.800000000000004,0.0,21.132897603485834,0.0,67843.0,9232.0,0.0,1.0,0.0,?,0.0,46.0
5800000.0,8.640625,2.1983740023440788E-7,5800000.0,64.1,0.0,22.4622030237581,0.0,77843.0,9232.0,0.0,1.0,0.0,?,0.0,66.0
5900000.0,8.796875,2.2186755409671203E-7,5900000.0,61.1,0.0,19.95884773662551,0.0,87843.0,9232.0,0.0,1.0,0.0,?,0.0,0.0
6000000.0,8.9375,2.2317082362456456E-7,6000000.0,60.9,0.0,17.684210526315784,0.0,97843.0,9232.0,0.0,1.0,0.0,?,0.0,0.0
6100000.0,9.078125,2.2919415237589017E-7,6100000.0,61.5,0.0,17.381974248927033,0.0,107743.0,9232.0,0.0,1.0,0.0,?,0.0,0.0
6200000.0,9.234375,2.3530466326822838E-7,6200000.0,63.1,0.0,23.284823284823283,0.0,117743.0,9232.0,0.0,1.0,0.0,?,0.0,0.0
6300000.0,9.390625,2.408330975514319E-7,6300000.0,60.4,0.0,22.957198443579767,0.0,127743.0,9232.0,0.0,1.0,0.0,?,0.0,0.0
6400000.0,9.546875,2.457794552255008E-7,6400000.0,63.7,0.0,16.55172413793105,0.0,137743.0,9232.0,0.0,1.0,0.0,?,0.0,0.0
6500000.0,9.703125,2.5014373629043504E-7,6500000.0,61.3,0.0,13.99999999999999,0.0,147743.0,9232.0,0.0,1.0,0.0,?,0.0,0.0
6600000.0,9.84375,2.535477203006546E-7,6600000.0,61.1,0.0,15.434782608695643,0.0,157743.0,9232.0,0.0,1.0,0.0,?,0.0,0.0
6700000.0,10.0,2.5674784814731946E-7,6700000.0,61.1,0.0,16.880341880341874,0.0,167743.0,9232.0,0.0,1.0,0.0,?,0.0,0.0
6800000.0,10.15625,2.5936589938484966E-7,6800000.0,61.7,0.0,21.030927835051543,0.0,177743.0,9232.0,0.0,1.0,0.0,?,0.0,0.0
6900000.0,10.3125,2.614018740132452E-7,6900000.0,61.4,0.0,16.98924731182795,0.0,187743.0,9232.0,0.0,1.0,0.0,?,0.0,0.0
7000000.0,10.46875,2.6285577203250603E-7,7000000.0,62.5,0.0,19.181034482758616,0.0,197743.0,9232.0,0.0,1.0,0.0,?,0.0,0.0
7100000.0,10.609375,2.6888433947331383E-7,7100000.0,61.6,0.0,22.109533468559835,0.0,207643.0,9232.0,0.0,1.0,0.0,?,0.0,0.0
7200000.0,10.765625,2.750006711317434E-7,7200000.0,64.1,0.0,24.421052631578945,0.0,217643.0,9232.0,0.0,1.0,0.0,?,0.0,0.0
7300000.0,10.90625,2.799815006761088E-7,7300000.0,63.4,0.0,16.055045871559646,0.0,227643.0,9232.0,0.0,1.0,0.0,?,0.0,0.0
7400000.0,11.0625,2.84933679116269E-7,7400000.0,60.4,0.0,20.321931589537222,0.0,237643.0,9232.0,0.0,1.0,0.0,?,0.0,0.0
7500000.0,11.21875,2.893037809472945E-7,7500000.0,60.099999999999994,0.0,18.06981519507186,0.0,247643.0,9232.0,0.0,1.0,0.0,?,0.0,0.0
7600000.0,11.375,2.930918061691854E-7,7600000.0,59.4,0.0,12.499999999999988,0.0,257643.0,9232.0,0.0,1.0,0.0,?,0.0,0.0
7700000.0,11.515625,2.9597715992066594E-7,7700000.0,63.1,0.0,16.891891891891884,0.0,267643.0,9232.0,0.0,1.0,0.0,?,0.0,0.0
7800000.0,11.671875,2.9860103192428746E-7,7800000.0,62.9,0.0,19.347826086956516,0.0,277643.0,9232.0,0.0,1.0,0.0,?,0.0,0.0
7900000.0,11.828125,3.006428273187743E-7,7900000.0,63.0,0.0,24.796747967479675,0.0,287643.0,9232.0,0.0,1.0,0.0,?,0.0,0.0
8000000.0,11.984375,3.0210254610412646E-7,8000000.0,61.3,0.0,16.59482758620689,0.0,297643.0,9232.0,0.0,1.0,0.0,?,0.0,0.0
8100000.0,12.125,3.081363522344165E-7,8100000.0,60.4,0.0,16.455696202531637,0.0,307543.0,9232.0,0.0,1.0,0.0,?,0.0,0.0
8200000.0,12.28125,3.142585046589374E-7,8200000.0,62.5,0.0,21.548117154811713,0.0,317543.0,9232.0,0.0,1.0,0.0,?,0.0,0.0
8300000.0,12.4375,3.1979858047432366E-7,8300000.0,62.1,0.0,21.369294605809124,0.0,327543.0,9232.0,0.0,1.0,0.0,?,0.0,0.0
8400000.0,12.59375,3.2475657968057523E-7,8400000.0,62.1,0.0,21.369294605809124,0.0,337543.0,9232.0,0.0,1.0,0.0,?,0.0,0.0
8500000.0,12.75,3.2913250227769214E-7,8500000.0,60.4,0.0,12.1951219512195,0.0,347543.0,9232.0,0.0,1.0,0.0,?,0.0,0.0
8600000.0,12.90625,3.3292634826567436E-7,8600000.0,61.9,0.0,16.079295154185015,0.0,357543.0,9232.0,0.0,1.0,0.0,?,0.0,0.0
8700000.0,13.0625,3.361381176445219E-7,8700000.0,63.9,0.0,21.691973969631235,0.0,367543.0,9232.0,0.0,1.0,0.0,?,0.0,0.0
8800000.0,13.203125,3.385048411372635E-7,8800000.0,63.1,0.0,17.44966442953019,0.0,377543.0,9232.0,0.0,1.0,0.0,?,0.0,0.0
8900000.0,13.359375,3.405524572978417E-7,8900000.0,63.4,0.0,22.94736842105263,0.0,387543.0,9232.0,0.0,1.0,0.0,?,0.0,0.0
9000000.0,13.515625,3.4201799684928523E-7,9000000.0,61.199999999999996,0.0,18.65828092243186,0.0,397543.0,9232.0,0.0,1.0,0.0,?,0.0,0.0
9100000.0,13.671875,3.4872804664903215E-7,9100000.0,62.6,0.0,20.594479830148614,0.0,407443.0,9232.0,0.0,1.0,0.0,?,0.0,0.0
9200000.0,13.8125,3.542432225205832E-7,9200000.0,60.9,0.0,16.452991452991444,0.0,417443.0,9232.0,0.0,1.0,0.0,?,0.0,0.0
9300000.0,13.96875,3.5978911910206075E-7,9300000.0,61.6,0.0,18.123667377398714,0.0,427443.0,9232.0,0.0,1.0,0.0,?,0.0,0.0
9400000.0,14.125,3.6475293907440364E-7,9400000.0,60.4,0.0,16.806722689075624,0.0,437443.0,9232.0,0.0,1.0,0.0,?,0.0,0.0
9500000.0,14.28125,3.6913468243761186E-7,9500000.0,66.60000000000001,0.0,27.39130434782609,0.0,447443.0,9232.0,0.0,1.0,0.0,?,0.0,0.0
9600000.0,14.4375,3.729343491916854E-7,9600000.0,63.3,0.0,19.340659340659336,0.0,457443.0,9232.0,0.0,1.0,0.0,?,0.0,0.0
9700000.0,14.59375,3.7615193933662427E-7,9700000.0,62.4,0.0,20.338983050847453,0.0,467443.0,9232.0,0.0,1.0,0.0,?,0.0,0.0
9800000.0,14.734375,3.7852390151884807E-7,9800000.0,62.6,0.0,21.757322175732213,0.0,477443.0,9232.0,0.0,1.0,0.0,?,0.0,0.0
9900000.0,14.890625,3.805773384455176E-7,9900000.0,62.8,0.0,21.51898734177215,0.0,487443.0,9232.0,0.0,1.0,0.0,?,0.0,0.0
1.0E7,15.046875,3.8204869876305243E-7,1.0E7,62.6,0.0,19.04761904761904,0.0,497443.0,9232.0,0.0,1.0,0.0,?,0.0,0.0
