learning evaluation instances,evaluation time (cpu seconds),model cost (RAM-Hours),classified instances,classifications correct (percent),Kappa Statistic (percent),Kappa Temporal Statistic (percent),Kappa M Statistic (percent),model training instances,model serialized size (bytes),labeling cost,newThreshold,maxPosterior,accuracyBaseLearner (percent),Change detected,Warning detected,tree size (nodes),tree size (leaves),active learning leaves,tree depth,active leaf byte size estimate,inactive leaf byte size estimate,byte size estimate overhead
100000.0,0.5,5.331200857957204E-8,100000.0,89.8,79.45577957259965,77.96976241900649,77.58241758241759,29700.0,218688.0,0.0,1.0,0.0,?,0.0,0.0,71.0,51.0,51.0,4.0,0.0,0.0,1.0
200000.0,1.015625,1.2575590517371892E-7,200000.0,91.2,82.01931289256132,80.78602620087338,79.67667436489609,59700.0,364192.0,0.0,1.0,0.0,?,0.0,0.0,133.0,88.0,88.0,5.0,0.0,0.0,1.0
300000.0,1.515625,2.0727974414411518E-7,300000.0,92.10000000000001,83.7504730874924,83.40336134453781,81.3679245283019,89700.0,466104.0,0.0,1.0,0.0,?,0.0,0.0,173.0,111.0,111.0,5.0,0.0,0.0,1.0
400000.0,2.015625,3.055146145116952E-7,400000.0,94.39999999999999,88.52294386489864,88.77755511022043,86.94638694638694,119700.0,609888.0,0.0,1.0,0.0,?,0.0,0.0,229.0,145.0,145.0,6.0,0.0,0.0,1.0
500000.0,2.515625,4.1063299350854426E-7,500000.0,92.80000000000001,85.00099993333778,84.71337579617835,82.1782178217822,149700.0,677920.0,0.0,1.0,0.0,?,0.0,0.0,261.0,161.0,161.0,6.0,0.0,0.0,1.0
600000.0,3.015625,5.242709044574036E-7,600000.0,94.0,87.76783347943976,88.54961832061068,85.94847775175643,179700.0,758696.0,0.0,1.0,0.0,?,0.0,0.0,290.0,180.0,180.0,6.0,0.0,0.0,1.0
700000.0,3.515625,6.437213030747243E-7,700000.0,94.6,88.9111578394007,88.67924528301886,87.32394366197182,209700.0,818552.0,0.0,1.0,0.0,?,0.0,0.0,315.0,194.0,194.0,6.0,0.0,0.0,1.0
800000.0,4.03125,7.805244402132102E-7,800000.0,94.0,87.71352863362151,87.60330578512395,86.14318706697458,239700.0,935456.0,0.0,1.0,0.0,?,0.0,0.0,361.0,226.0,226.0,6.0,0.0,0.0,1.0
900000.0,4.546875,9.276671011725235E-7,900000.0,96.3,92.48639428153683,92.75929549902152,91.59090909090908,269700.0,1027816.0,0.0,1.0,0.0,?,0.0,0.0,394.0,247.0,247.0,6.0,0.0,0.0,1.0
1000000.0,5.078125,1.0877236167693305E-6,1000000.0,95.3,90.38115196961262,90.38854805725971,89.01869158878503,299700.0,1104280.0,0.0,1.0,0.0,?,0.0,0.0,419.0,264.0,264.0,6.0,0.0,0.0,1.0
1100000.0,5.578125,1.2629695508318644E-6,1100000.0,95.1,90.0017139918871,89.85507246376811,88.68360277136259,329400.0,1157320.0,0.0,1.0,0.0,?,0.0,0.0,445.0,280.0,280.0,6.0,0.0,0.0,1.0
1200000.0,6.09375,1.450322063950201E-6,1200000.0,93.5,86.59893286271536,87.1794871794872,84.26150121065376,359400.0,1221936.0,0.0,1.0,0.0,?,0.0,0.0,468.0,293.0,293.0,6.0,0.0,0.0,1.0
1300000.0,6.625,1.655603409744799E-6,1300000.0,95.5,90.74858350534114,90.79754601226992,89.31116389548693,389400.0,1325896.0,0.0,1.0,0.0,?,0.0,0.0,508.0,319.0,319.0,7.0,0.0,0.0,1.0
1400000.0,7.15625,1.8668626176400317E-6,1400000.0,95.6,90.94456426889704,91.03869653767819,89.4736842105263,419400.0,1384384.0,0.0,1.0,0.0,?,0.0,0.0,526.0,331.0,331.0,7.0,0.0,0.0,1.0
1500000.0,7.671875,2.0781574938963685E-6,1500000.0,95.5,90.75512166259891,90.79754601226992,89.36170212765957,449400.0,1446176.0,0.0,1.0,0.0,?,0.0,0.0,552.0,347.0,347.0,7.0,0.0,0.0,1.0
1600000.0,8.203125,2.2974022107923197E-6,1600000.0,94.89999999999999,89.52186847684949,89.21775898520083,87.88598574821852,479400.0,1472488.0,0.0,1.0,0.0,?,0.0,0.0,564.0,353.0,353.0,7.0,0.0,0.0,1.0
1700000.0,8.734375,2.5218859405463767E-6,1700000.0,96.89999999999999,93.6188256992532,93.56846473029044,92.65402843601895,509400.0,1525592.0,0.0,1.0,0.0,?,0.0,0.0,588.0,368.0,368.0,7.0,0.0,0.0,1.0
1800000.0,9.265625,2.7535382671178214E-6,1800000.0,95.89999999999999,91.69778310559609,91.64969450101832,90.80717488789237,539400.0,1592720.0,0.0,1.0,0.0,?,0.0,0.0,622.0,391.0,391.0,7.0,0.0,0.0,1.0
1900000.0,9.796875,2.994272282295343E-6,1900000.0,95.6,91.01398958439701,90.85239085239084,89.6470588235294,569400.0,1673680.0,0.0,1.0,0.0,?,0.0,0.0,651.0,410.0,410.0,7.0,0.0,0.0,1.0
2000000.0,10.359375,3.2537783327926363E-6,2000000.0,95.5,90.83293948925211,90.9819639278557,89.60739030023093,599400.0,1720424.0,0.0,1.0,0.0,?,0.0,0.0,669.0,422.0,422.0,7.0,0.0,0.0,1.0
2100000.0,10.890625,3.5271052749724022E-6,2100000.0,96.2,92.17433924651243,92.38476953907815,90.93078758949879,629100.0,1788712.0,0.0,1.0,0.0,?,0.0,0.0,705.0,446.0,446.0,8.0,0.0,0.0,1.0
2200000.0,11.421875,3.806621179036382E-6,2200000.0,96.3,92.36105376166486,91.99134199134198,91.08433734939759,659100.0,1848760.0,0.0,1.0,0.0,?,0.0,0.0,724.0,460.0,460.0,8.0,0.0,0.0,1.0
2300000.0,11.984375,4.111928509600047E-6,2300000.0,96.89999999999999,93.69190447508505,93.4322033898305,92.82407407407408,689100.0,1927888.0,0.0,1.0,0.0,?,0.0,0.0,746.0,474.0,474.0,8.0,0.0,0.0,1.0
2400000.0,12.515625,4.401494742422883E-6,2400000.0,95.7,91.14738168372682,91.17043121149896,89.71291866028707,719100.0,1951848.0,0.0,1.0,0.0,?,0.0,0.0,763.0,484.0,484.0,8.0,0.0,0.0,1.0
2500000.0,13.09375,4.728361673187465E-6,2500000.0,96.6,93.04418985270048,92.91666666666666,92.09302325581395,749100.0,2045208.0,0.0,1.0,0.0,?,0.0,0.0,802.0,508.0,508.0,8.0,0.0,0.0,1.0
2600000.0,13.65625,5.051277985330672E-6,2600000.0,97.1,94.06831662916751,94.03292181069959,93.19248826291079,779100.0,2093744.0,0.0,1.0,0.0,?,0.0,0.0,810.0,512.0,512.0,8.0,0.0,0.0,1.0
2700000.0,14.234375,5.390363480223136E-6,2700000.0,95.1,89.9714288053311,90.19999999999999,88.49765258215962,809100.0,2156856.0,0.0,1.0,0.0,?,0.0,0.0,835.0,529.0,529.0,8.0,0.0,0.0,1.0
2800000.0,14.796875,5.7231750947216324E-6,2800000.0,97.0,93.81711011726881,93.87755102040816,92.7710843373494,839100.0,2191832.0,0.0,1.0,0.0,?,0.0,0.0,858.0,545.0,545.0,8.0,0.0,0.0,1.0
2900000.0,15.390625,6.084886877538844E-6,2900000.0,96.8,93.4404722859954,93.57429718875501,92.45283018867923,869100.0,2274504.0,0.0,1.0,0.0,?,0.0,0.0,883.0,562.0,562.0,8.0,0.0,0.0,1.0
3000000.0,15.953125,6.428901138456746E-6,3000000.0,96.3,92.30218701108484,92.32365145228215,90.9090909090909,899100.0,2298784.0,0.0,1.0,0.0,?,0.0,0.0,891.0,566.0,566.0,8.0,0.0,0.0,1.0
3100000.0,16.53125,6.8101234501227744E-6,3100000.0,96.0,91.81093076960872,91.78644763860369,90.521327014218,928800.0,2346520.0,0.0,1.0,0.0,?,0.0,0.0,904.0,574.0,574.0,8.0,0.0,0.0,1.0
3200000.0,17.109375,7.1955095497994794E-6,3200000.0,96.0,91.80045589465226,91.56118143459915,90.521327014218,958800.0,2389440.0,0.0,1.0,0.0,?,0.0,0.0,916.0,583.0,583.0,8.0,0.0,0.0,1.0
3300000.0,17.6875,7.5801394672857396E-6,3300000.0,97.2,94.18566017675593,94.21487603305785,93.06930693069306,988800.0,2399560.0,0.0,1.0,0.0,?,0.0,0.0,925.0,589.0,589.0,8.0,0.0,0.0,1.0
3400000.0,18.34375,8.019904166253078E-6,3400000.0,97.3,94.52248216763638,94.36325678496867,93.89140271493211,1018800.0,2433240.0,0.0,1.0,0.0,?,0.0,0.0,941.0,600.0,600.0,8.0,4022.967741935484,0.0,1.017644020243694
3500000.0,18.953125,8.434378800706732E-6,3500000.0,97.2,94.26434017379049,94.46640316205533,93.44262295081967,1048800.0,2487016.0,0.0,1.0,0.0,?,0.0,0.0,960.0,611.0,611.0,8.0,4022.967741935484,0.0,1.017644020243694
3600000.0,19.546875,8.841933255704742E-6,3600000.0,96.89999999999999,93.59953751496882,93.71196754563894,92.49394673123487,1078800.0,2526200.0,0.0,1.0,0.0,?,0.0,0.0,973.0,619.0,619.0,8.0,4022.967741935484,0.0,1.017644020243694
3700000.0,20.171875,9.278872296110625E-6,3700000.0,97.0,93.83416366595965,93.4640522875817,92.82296650717703,1108800.0,2590240.0,0.0,1.0,0.0,?,0.0,0.0,1000.0,637.0,637.0,9.0,4022.967741935484,0.0,1.017644020243694
3800000.0,20.765625,9.696247547657955E-6,3800000.0,97.2,94.14715719063544,94.60500963391137,93.0,1138800.0,2620208.0,0.0,1.0,0.0,?,0.0,0.0,1007.0,642.0,642.0,9.0,4022.967741935484,0.0,1.017644020243694
3900000.0,21.390625,1.0137826385390429E-5,3900000.0,96.39999999999999,92.59597467823339,92.56198347107437,91.36690647482014,1168800.0,2649112.0,0.0,1.0,0.0,?,0.0,0.0,1022.0,651.0,651.0,9.0,4022.967741935484,0.0,1.017644020243694
4000000.0,22.0,1.057032812645452E-5,4000000.0,97.3,94.36805393318426,94.7265625,93.18181818181817,1198800.0,2676680.0,0.0,1.0,0.0,?,0.0,0.0,1036.0,661.0,661.0,9.0,4022.967741935484,0.0,1.017644020243694
4100000.0,22.625,1.1041807592846455E-5,4100000.0,97.89999999999999,95.68547525517332,95.94594594594594,95.01187648456056,1228500.0,2712032.0,0.0,1.0,0.0,?,0.0,0.0,1044.0,665.0,665.0,9.0,4022.967741935484,0.0,1.017644020243694
4200000.0,23.265625,1.152661202164988E-5,4200000.0,97.39999999999999,94.57879307253158,94.4915254237288,93.48370927318295,1258500.0,2736408.0,0.0,1.0,0.0,?,0.0,0.0,1057.0,673.0,673.0,9.0,4022.967741935484,0.0,1.017644020243694
4300000.0,23.890625,1.200297317053709E-5,4300000.0,96.39999999999999,92.60607205793553,92.88537549407114,91.36690647482014,1288500.0,2772376.0,0.0,1.0,0.0,?,0.0,0.0,1068.0,680.0,680.0,9.0,4022.967741935484,0.0,1.017644020243694
4400000.0,24.53125,1.249451287245999E-5,4400000.0,97.1,94.06467458043389,93.8428874734607,93.17647058823529,1318500.0,2807144.0,0.0,1.0,0.0,?,0.0,0.0,1083.0,689.0,689.0,9.0,4022.967741935484,0.0,1.017644020243694
4500000.0,25.15625,1.2974131063351203E-5,4500000.0,98.1,96.10406653434163,96.10655737704917,95.4653937947494,1348500.0,2822704.0,0.0,1.0,0.0,?,0.0,0.0,1085.0,690.0,690.0,9.0,4022.967741935484,0.0,1.017644020243694
4600000.0,25.78125,1.3453584979288283E-5,4600000.0,97.0,93.8618925831202,93.89002036659878,92.94117647058823,1378500.0,2836848.0,0.0,1.0,0.0,?,0.0,0.0,1094.0,696.0,696.0,9.0,4022.967741935484,0.0,1.017644020243694
4700000.0,26.421875,1.394959011425575E-5,4700000.0,97.8,95.4658807526638,95.65217391304347,94.67312348668281,1408500.0,2879456.0,0.0,1.0,0.0,?,0.0,0.0,1117.0,712.0,712.0,9.0,4022.967741935484,0.0,1.017644020243694
4800000.0,27.0625,1.445113063608814E-5,4800000.0,97.6,95.09252632655148,94.9579831932773,94.37939110070258,1438500.0,2927872.0,0.0,1.0,0.0,?,0.0,0.0,1126.0,718.0,718.0,9.0,4022.967741935484,0.0,1.017644020243694
4900000.0,27.6875,1.4943009947374881E-5,4900000.0,98.3,96.53496828476852,96.53061224489795,96.06481481481481,1468500.0,2958832.0,0.0,1.0,0.0,?,0.0,0.0,1141.0,727.0,727.0,9.0,4022.967741935484,0.0,1.017644020243694
5000000.0,28.328125,1.5447904847355358E-5,5000000.0,97.39999999999999,94.66005060628963,94.78957915831663,93.8388625592417,1498500.0,2976032.0,0.0,1.0,0.0,?,0.0,0.0,1153.0,736.0,736.0,9.0,4022.967741935484,0.0,1.017644020243694
5100000.0,29.109375,1.5507714835823414E-5,5100000.0,76.8,53.58514724711908,53.13131313131313,53.22580645161291,28171.0,95360.0,0.0,1.0,0.0,?,2.0,14.0,31.0,22.0,22.0,3.0,0.0,0.0,1.0
5200000.0,29.703125,1.556228341845175E-5,5200000.0,79.2,58.407486652402575,57.11340206185568,57.37704918032788,58171.0,169568.0,0.0,1.0,0.0,?,0.0,0.0,61.0,40.0,40.0,5.0,0.0,0.0,1.0
5300000.0,30.28125,1.5639002409039277E-5,5300000.0,84.3,68.41198815348957,69.0335305719921,65.2654867256637,88171.0,341736.0,0.0,1.0,0.0,?,0.0,0.0,129.0,80.0,80.0,5.0,0.0,0.0,1.0
5400000.0,30.921875,1.575228227819834E-5,5400000.0,87.3,74.59471570086578,75.90132827324479,74.39516129032258,118171.0,526976.0,0.0,1.0,0.0,?,0.0,0.0,189.0,125.0,125.0,5.0,0.0,0.0,1.0
5500000.0,31.484375,1.586954277526174E-5,5500000.0,85.39999999999999,70.72787348025534,70.56451612903226,69.4560669456067,148171.0,664032.0,0.0,1.0,0.0,?,0.0,0.0,235.0,157.0,157.0,6.0,0.0,0.0,1.0
5600000.0,32.0625,1.600681018317119E-5,5600000.0,88.1,76.05922826218162,75.66462167689161,74.57264957264957,178171.0,790808.0,0.0,1.0,0.0,?,0.0,0.0,278.0,186.0,186.0,6.0,0.0,0.0,1.0
5700000.0,32.65625,1.6159258634110716E-5,5700000.0,89.4,78.78574401998144,79.33723196881091,78.18930041152264,208171.0,880384.0,0.0,1.0,0.0,?,0.0,0.0,310.0,208.0,208.0,6.0,0.0,0.0,1.0
5800000.0,33.25,1.631996726953529E-5,5800000.0,87.2,74.28117904719805,74.95107632093934,71.23595505617976,238171.0,949056.0,0.0,1.0,0.0,?,0.0,0.0,340.0,226.0,226.0,6.0,0.0,0.0,1.0
5900000.0,33.84375,1.6487613870089675E-5,5900000.0,91.0,81.96190354027706,81.9277108433735,81.09243697478992,268171.0,1009224.0,0.0,1.0,0.0,?,0.0,0.0,367.0,244.0,244.0,7.0,0.0,0.0,1.0
6000000.0,34.453125,1.66746788373631E-5,6000000.0,88.3,76.57526347823301,75.52301255230127,77.05882352941177,298171.0,1119144.0,0.0,1.0,0.0,?,0.0,0.0,410.0,270.0,270.0,7.0,0.0,0.0,1.0
6100000.0,35.0625,1.6898368064883276E-5,6100000.0,90.60000000000001,81.20090235668688,81.34920634920636,81.67641325536063,327871.0,1214152.0,0.0,1.0,0.0,?,0.0,0.0,441.0,290.0,290.0,7.0,0.0,0.0,1.0
6200000.0,35.6875,1.713937882515085E-5,6200000.0,90.7,81.39062087291997,81.51093439363818,81.05906313645622,357871.0,1300712.0,0.0,1.0,0.0,?,0.0,0.0,486.0,320.0,320.0,7.0,0.0,0.0,1.0
6300000.0,36.3125,1.739387824070744E-5,6300000.0,91.3,82.5937337441479,82.28105906313647,81.3304721030043,387871.0,1398912.0,0.0,1.0,0.0,?,0.0,0.0,511.0,334.0,334.0,7.0,0.0,0.0,1.0
6400000.0,36.953125,1.7665654466125294E-5,6400000.0,90.10000000000001,80.2,80.62622309197653,80.3960396039604,417871.0,1479656.0,0.0,1.0,0.0,?,0.0,0.0,542.0,354.0,354.0,7.0,0.0,0.0,1.0
6500000.0,37.59375,1.7948984071457146E-5,6500000.0,90.7,81.3498684463839,81.13590263691684,80.12820512820514,447871.0,1564192.0,0.0,1.0,0.0,?,0.0,0.0,578.0,375.0,375.0,7.0,0.0,0.0,1.0
6600000.0,38.234375,1.8245908852097482E-5,6600000.0,89.60000000000001,79.18001281229981,79.6477495107632,78.37837837837837,477871.0,1661136.0,0.0,1.0,0.0,?,0.0,0.0,613.0,400.0,400.0,7.0,0.0,0.0,1.0
6700000.0,38.90625,1.8559708065974224E-5,6700000.0,91.5,82.99931997279893,82.93172690763053,83.0,507871.0,1689976.0,0.0,1.0,0.0,?,0.0,0.0,617.0,402.0,402.0,7.0,0.0,0.0,1.0
6800000.0,39.625,1.890815878545659E-5,6800000.0,91.10000000000001,82.17704403271414,82.02020202020202,81.68724279835392,537871.0,1773456.0,0.0,1.0,0.0,?,0.0,0.0,661.0,430.0,430.0,7.0,0.0,0.0,1.0
6900000.0,40.328125,1.925968503605368E-5,6900000.0,90.2,80.40070557459931,80.4780876494024,79.45492662473795,567871.0,1846960.0,0.0,1.0,0.0,?,0.0,0.0,684.0,446.0,446.0,7.0,0.0,0.0,1.0
7000000.0,41.03125,1.9629172715617143E-5,7000000.0,91.9,83.715188702764,83.76753507014028,82.31441048034935,597871.0,1960512.0,0.0,1.0,0.0,?,0.0,0.0,729.0,476.0,476.0,7.0,0.0,0.0,1.0
7100000.0,41.703125,2.0023481435297682E-5,7100000.0,93.10000000000001,86.20077275672563,86.6795366795367,85.86065573770493,627571.0,2060424.0,0.0,1.0,0.0,?,0.0,0.0,759.0,494.0,494.0,7.0,0.0,0.0,1.0
7200000.0,42.421875,2.0453908396626104E-5,7200000.0,91.7,83.37206506931646,83.33333333333334,82.6722338204593,657571.0,2121608.0,0.0,1.0,0.0,?,0.0,0.0,792.0,512.0,512.0,7.0,0.0,0.0,1.0
7300000.0,43.125,2.089038436275183E-5,7300000.0,93.5,86.91015127837477,87.15415019762847,85.9002169197397,687571.0,2221064.0,0.0,1.0,0.0,?,0.0,0.0,828.0,533.0,533.0,8.0,0.0,0.0,1.0
7400000.0,43.796875,2.13157947614996E-5,7400000.0,91.3,82.54330064048028,83.36520076481835,81.52866242038218,717571.0,2283936.0,0.0,1.0,0.0,?,0.0,0.0,851.0,546.0,546.0,8.0,0.0,0.0,1.0
7500000.0,44.5,2.177264340894504E-5,7500000.0,92.80000000000001,85.59982719792639,86.66666666666667,85.21560574948667,747571.0,2362840.0,0.0,1.0,0.0,?,0.0,0.0,885.0,566.0,566.0,8.0,0.0,0.0,1.0
7600000.0,45.1875,2.223712553839303E-5,7600000.0,92.0,84.00204773788955,83.80566801619433,83.90342052313883,777571.0,2477696.0,0.0,1.0,0.0,?,0.0,0.0,929.0,597.0,597.0,8.0,0.0,0.0,1.0
7700000.0,45.921875,2.2742817107225875E-5,7700000.0,94.39999999999999,88.79031483201484,88.77755511022043,88.3817427385892,807571.0,2542840.0,0.0,1.0,0.0,?,0.0,0.0,948.0,608.0,608.0,8.0,0.0,0.0,1.0
7800000.0,46.703125,2.3295615262921075E-5,7800000.0,92.4,84.67080554916839,84.5841784989858,83.14855875831486,837571.0,2631056.0,0.0,1.0,0.0,?,0.0,0.0,996.0,638.0,638.0,8.0,0.0,0.0,1.0
7900000.0,47.421875,2.381592617085618E-5,7900000.0,93.10000000000001,86.1899462808925,86.54970760233918,85.83162217659138,867571.0,2709024.0,0.0,1.0,0.0,?,0.0,0.0,1012.0,646.0,646.0,8.0,0.0,0.0,1.0
8000000.0,48.140625,2.4345647187955267E-5,8000000.0,92.80000000000001,85.53316321404891,85.06224066390043,84.58244111349038,897571.0,2774552.0,0.0,1.0,0.0,?,0.0,0.0,1040.0,663.0,663.0,9.0,0.0,0.0,1.0
8100000.0,48.875,2.4924049179794064E-5,8100000.0,92.9,85.78464741921276,86.1598440545809,85.26970954356847,927271.0,2832936.0,0.0,1.0,0.0,?,0.0,0.0,1067.0,678.0,678.0,9.0,0.0,0.0,1.0
8200000.0,49.609375,2.5512315106526435E-5,8200000.0,93.10000000000001,86.19955838586836,86.20000000000002,86.30952380952382,957271.0,2899824.0,0.0,1.0,0.0,?,0.0,0.0,1094.0,696.0,696.0,9.0,0.0,0.0,1.0
8300000.0,50.359375,2.6123223910366912E-5,8300000.0,93.8,87.57614620070534,87.26899383983572,87.16356107660455,987271.0,2966888.0,0.0,1.0,0.0,?,0.0,0.0,1119.0,710.0,710.0,9.0,0.0,0.0,1.0
8400000.0,51.21875,2.6831835404866274E-5,8400000.0,93.7,87.3977820096337,87.09016393442624,87.11656441717793,1017271.0,3020520.0,0.0,1.0,0.0,?,0.0,0.0,1143.0,722.0,722.0,9.0,4109.871148459384,0.0,1.0175187974024416
8500000.0,51.953125,2.744150409449099E-5,8500000.0,93.5,86.9271055404938,86.5702479338843,85.83877995642702,1047271.0,3057208.0,0.0,1.0,0.0,?,0.0,0.0,1167.0,734.0,734.0,9.0,4109.871148459384,0.0,1.0175187974024416
8600000.0,52.71875,2.8083522435432923E-5,8600000.0,94.1,88.18156323865229,87.98370672097758,87.75933609958506,1077271.0,3104488.0,0.0,1.0,0.0,?,0.0,0.0,1185.0,743.0,743.0,9.0,4109.871148459384,0.0,1.0175187974024416
8700000.0,53.515625,2.875448000850156E-5,8700000.0,93.2,86.30357718337093,86.42714570858284,85.21739130434783,1107271.0,3132864.0,0.0,1.0,0.0,?,0.0,0.0,1194.0,749.0,749.0,9.0,4109.871148459384,0.0,1.0175187974024416
8800000.0,54.3125,2.9432969555879635E-5,8800000.0,92.5,84.99831981181893,84.84848484848486,84.7870182555781,1137271.0,3184344.0,0.0,1.0,0.0,?,0.0,0.0,1228.0,769.0,769.0,9.0,4109.871148459384,0.0,1.0175187974024416
8900000.0,55.125,3.0135233860669865E-5,8900000.0,94.3,88.57486470234515,88.97485493230172,87.99999999999999,1167271.0,3249072.0,0.0,1.0,0.0,?,0.0,0.0,1247.0,780.0,780.0,9.0,4109.871148459384,0.0,1.0175187974024416
9000000.0,55.90625,3.082008094578568E-5,9000000.0,94.5,88.90413169786959,89.77695167286244,87.83185840707964,1197271.0,3311432.0,0.0,1.0,0.0,?,0.0,0.0,1274.0,795.0,795.0,9.0,4109.871148459384,0.0,1.0175187974024416
9100000.0,56.703125,3.15551353398607E-5,9100000.0,93.4,86.75661466965781,87.08414872798436,85.6832971800434,1226971.0,3351440.0,0.0,1.0,0.0,?,0.0,0.0,1285.0,802.0,802.0,9.0,4109.871148459384,0.0,1.0175187974024416
9200000.0,57.515625,3.2319319531476745E-5,9200000.0,93.8,87.6,87.77120315581854,87.6,1256971.0,3436176.0,0.0,1.0,0.0,?,0.0,0.0,1328.0,825.0,825.0,9.0,4109.871148459384,0.0,1.0175187974024416
9300000.0,58.296875,3.305894649303001E-5,9300000.0,93.7,87.38425555092758,87.4,87.06365503080083,1286971.0,3475088.0,0.0,1.0,0.0,?,0.0,0.0,1344.0,833.0,833.0,9.0,4109.871148459384,0.0,1.0175187974024416
9400000.0,59.09375,3.381704704629051E-5,9400000.0,94.6,89.19848778829035,89.5145631067961,89.77272727272727,1316971.0,3508016.0,0.0,1.0,0.0,?,0.0,0.0,1359.0,842.0,842.0,9.0,4109.871148459384,0.0,1.0175187974024416
9500000.0,59.890625,3.45853216195893E-5,9500000.0,92.5,84.97836885114566,85.29411764705883,84.96993987975952,1346971.0,3572272.0,0.0,1.0,0.0,?,0.0,0.0,1395.0,863.0,863.0,9.0,4109.871148459384,0.0,1.0175187974024416
9600000.0,60.71875,3.539480663473822E-5,9600000.0,92.2,84.40074876405933,84.43113772455091,84.24242424242425,1376971.0,3638880.0,0.0,1.0,0.0,?,0.0,0.0,1411.0,871.0,871.0,9.0,4109.871148459384,0.0,1.0175187974024416
9700000.0,61.53125,3.619444808767488E-5,9700000.0,93.7,87.38081884464387,88.33333333333333,86.82008368200837,1406971.0,3679704.0,0.0,1.0,0.0,?,0.0,0.0,1438.0,886.0,886.0,9.0,4109.871148459384,0.0,1.0175187974024416
9800000.0,62.359375,3.702159304844423E-5,9800000.0,96.39999999999999,92.79939514919252,92.89940828402366,92.69776876267748,1436971.0,3751192.0,0.0,1.0,0.0,?,0.0,0.0,1459.0,898.0,898.0,9.0,4109.871148459384,0.0,1.0175187974024416
9900000.0,63.1875,3.7864660068104675E-5,9900000.0,95.39999999999999,90.74383358217663,90.87301587301586,89.97821350762526,1466971.0,3840312.0,0.0,1.0,0.0,?,0.0,0.0,1504.0,925.0,925.0,10.0,4109.871148459384,0.0,1.0175187974024416
1.0E7,64.015625,3.8719220449113194E-5,1.0E7,95.0,89.9479302788444,90.17681728880156,89.51781970649894,1496971.0,3908816.0,0.0,1.0,0.0,?,0.0,0.0,1533.0,941.0,941.0,10.0,4109.871148459384,0.0,1.0175187974024416
