learning evaluation instances,evaluation time (cpu seconds),model cost (RAM-Hours),classified instances,classifications correct (percent),Kappa Statistic (percent),Kappa Temporal Statistic (percent),Kappa M Statistic (percent),model training instances,model serialized size (bytes),labeling cost,newThreshold,maxPosterior,accuracyBaseLearner (percent),Change detected,Warning detected
100000.0,0.171875,7.19430520095759E-9,100000.0,68.10000000000001,0.0,25.813953488372114,0.0,560.0,8920.0,0.0,1.0,0.0,?,5.0,46.0
200000.0,0.34375,1.3635209244158534E-8,200000.0,67.30000000000001,0.0,24.82758620689657,0.0,2362.0,9224.0,0.0,1.0,0.0,?,6.0,8.0
300000.0,0.515625,1.9561395876937445E-8,300000.0,66.2,0.0,22.654462242562946,0.0,4434.0,9224.0,0.0,1.0,0.0,?,5.0,31.0
400000.0,0.671875,2.4359970767464907E-8,400000.0,66.8,0.0,22.790697674418624,0.0,2052.0,9224.0,0.0,1.0,0.0,?,6.0,16.0
500000.0,0.84375,2.8880022000521426E-8,500000.0,67.80000000000001,0.0,23.333333333333353,0.0,3582.0,9224.0,0.0,1.0,0.0,?,6.0,16.0
600000.0,0.984375,3.205437678843737E-8,600000.0,66.5,0.0,21.361502347417858,0.0,1470.0,9224.0,0.0,1.0,0.0,?,5.0,18.0
700000.0,1.15625,3.541195635787315E-8,700000.0,65.4,0.0,19.72157772621811,0.0,2058.0,9224.0,0.0,1.0,0.0,?,8.0,33.0
800000.0,1.3125,3.78618521305422E-8,800000.0,65.2,0.0,22.666666666666664,0.0,5969.0,9224.0,0.0,1.0,0.0,?,5.0,28.0
900000.0,1.484375,3.9820766283406154E-8,900000.0,66.8,0.0,23.325635103926114,0.0,2969.0,9224.0,0.0,1.0,0.0,?,6.0,37.0
1000000.0,1.65625,4.123401595279575E-8,1000000.0,68.10000000000001,0.0,24.941176470588257,0.0,2655.0,9224.0,0.0,1.0,0.0,?,6.0,16.0
1100000.0,1.828125,4.8447173968371425E-8,1100000.0,68.5,0.0,26.056338028169034,0.0,7158.0,9224.0,0.0,1.0,0.0,?,6.0,26.0
1200000.0,1.984375,5.430836204646363E-8,1200000.0,65.2,0.0,25.0,0.0,1813.0,9224.0,0.0,1.0,0.0,?,7.0,18.0
1300000.0,2.140625,5.957518523145054E-8,1300000.0,66.8,0.0,26.05790645879733,0.0,549.0,8920.0,0.0,1.0,0.0,?,6.0,22.0
1400000.0,2.3125,6.486820186384851E-8,1400000.0,67.30000000000001,0.0,28.446389496717728,0.0,2038.0,9224.0,0.0,1.0,0.0,?,6.0,38.0
1500000.0,2.484375,6.939465593960551E-8,1500000.0,68.30000000000001,0.0,19.74683544303799,0.0,1788.0,9224.0,0.0,1.0,0.0,?,7.0,38.0
1600000.0,2.640625,7.303748538510667E-8,1600000.0,66.2,0.0,25.221238938053098,0.0,2983.0,9224.0,0.0,1.0,0.0,?,5.0,9.0
1700000.0,2.8125,7.640253493769302E-8,1700000.0,70.5,0.0,30.424528301886788,0.0,5047.0,9224.0,0.0,1.0,0.0,?,5.0,7.0
1800000.0,2.96875,7.885598784519567E-8,1800000.0,65.9,0.0,21.247113163972305,0.0,3440.0,9224.0,0.0,1.0,0.0,?,7.0,26.0
1900000.0,3.140625,8.09426031385859E-8,1900000.0,63.800000000000004,0.0,20.960698689956327,0.0,2366.0,9224.0,0.0,1.0,0.0,?,6.0,41.0
2000000.0,3.296875,8.21471783436007E-8,2000000.0,68.4,0.0,24.038461538461558,0.0,2946.0,9224.0,0.0,1.0,0.0,?,7.0,21.0
2100000.0,3.46875,8.924117234225074E-8,2100000.0,67.10000000000001,0.0,23.488372093023273,0.0,1160.0,9224.0,0.0,1.0,0.0,?,6.0,40.0
2200000.0,3.625,9.51081811864343E-8,2200000.0,68.89999999999999,0.0,26.477541371158388,0.0,2677.0,9224.0,0.0,1.0,0.0,?,6.0,6.0
2300000.0,3.78125,1.0050564823258255E-7,2300000.0,66.4,0.0,25.16703786191537,0.0,6543.0,9224.0,0.0,1.0,0.0,?,6.0,26.0
2400000.0,3.953125,1.0576629493799475E-7,2400000.0,67.9,0.0,26.376146788990845,0.0,4450.0,9224.0,0.0,1.0,0.0,?,6.0,26.0
2500000.0,4.125,1.1029915185645222E-7,2500000.0,66.9,0.0,25.45045045045045,0.0,3256.0,9224.0,0.0,1.0,0.0,?,6.0,16.0
2600000.0,4.296875,1.1419172450486156E-7,2600000.0,67.9,0.0,29.60526315789474,0.0,4771.0,9224.0,0.0,1.0,0.0,?,6.0,17.0
2700000.0,4.46875,1.1757064688329894E-7,2700000.0,68.89999999999999,0.0,20.66326530612244,0.0,4430.0,9224.0,0.0,1.0,0.0,?,6.0,41.0
2800000.0,4.625,1.2006031789092552E-7,2800000.0,70.1,0.0,29.812206572769952,0.0,2346.0,9224.0,0.0,1.0,0.0,?,5.0,20.0
2900000.0,4.78125,1.2193816170717276E-7,2900000.0,65.4,0.0,24.12280701754386,0.0,3261.0,9224.0,0.0,1.0,0.0,?,5.0,19.0
3000000.0,4.9375,1.231485576782789E-7,3000000.0,66.60000000000001,0.0,29.237288135593225,0.0,4786.0,9224.0,0.0,1.0,0.0,?,7.0,32.0
3100000.0,5.109375,1.3024895451962944E-7,3100000.0,68.89999999999999,0.0,26.995305164319245,0.0,2072.0,9224.0,0.0,1.0,0.0,?,6.0,20.0
3200000.0,5.265625,1.3622138390524515E-7,3200000.0,67.4,0.0,24.186046511627925,0.0,577.0,8920.0,0.0,1.0,0.0,?,6.0,23.0
3300000.0,5.4375,1.4215575194814135E-7,3300000.0,68.60000000000001,0.0,29.753914988814323,0.0,3102.0,9232.0,0.0,1.0,0.0,?,7.0,23.0
3400000.0,5.609375,1.4742920433895452E-7,3400000.0,67.9,0.0,28.348214285714292,0.0,1500.0,9224.0,0.0,1.0,0.0,?,7.0,13.0
3500000.0,5.75,1.511431441435383E-7,3500000.0,65.5,0.0,23.672566371681413,0.0,3559.0,9224.0,0.0,1.0,0.0,?,5.0,12.0
3600000.0,5.921875,1.5504211963464812E-7,3600000.0,70.6,0.0,28.813559322033893,0.0,2052.0,9224.0,0.0,1.0,0.0,?,6.0,22.0
3700000.0,6.078125,1.5800488957514362E-7,3700000.0,69.69999999999999,0.0,31.60270880361172,0.0,9257.0,9232.0,0.0,1.0,0.0,?,4.0,23.0
3800000.0,6.25,1.6070262063294646E-7,3800000.0,64.7,0.0,17.523364485981322,0.0,867.0,8920.0,0.0,1.0,0.0,?,6.0,16.0
3900000.0,6.40625,1.6250091397927865E-7,3900000.0,66.60000000000001,0.0,25.112107623318387,0.0,3551.0,9224.0,0.0,1.0,0.0,?,6.0,26.0
4000000.0,6.578125,1.63964319249822E-7,4000000.0,67.10000000000001,0.0,25.900900900900904,0.0,5973.0,9224.0,0.0,1.0,0.0,?,6.0,24.0
4100000.0,6.734375,1.7053370053569475E-7,4100000.0,67.2,0.0,24.423963133640573,0.0,6581.0,9224.0,0.0,1.0,0.0,?,6.0,26.0
4200000.0,6.90625,1.771268499497738E-7,4200000.0,67.2,0.0,21.904761904761923,0.0,5667.0,9224.0,0.0,1.0,0.0,?,6.0,24.0
4300000.0,7.078125,1.8307829223987128E-7,4300000.0,67.2,0.0,23.543123543123563,0.0,3238.0,9224.0,0.0,1.0,0.0,?,7.0,30.0
4400000.0,7.234375,1.8790791121621925E-7,4400000.0,68.4,0.0,23.671497584541083,0.0,1165.0,9224.0,0.0,1.0,0.0,?,6.0,20.0
4500000.0,7.40625,1.9255103931451837E-7,4500000.0,65.9,0.0,26.82403433476395,0.0,5062.0,9232.0,0.0,1.0,0.0,?,5.0,22.0
4600000.0,7.546875,1.9574634886036316E-7,4600000.0,68.5,0.0,29.84409799554566,0.0,2954.0,9224.0,0.0,1.0,0.0,?,6.0,22.0
4700000.0,7.71875,1.9899792581175764E-7,4700000.0,69.39999999999999,0.0,22.72727272727272,0.0,845.0,8920.0,0.0,1.0,0.0,?,6.0,24.0
4800000.0,7.890625,2.0162273560547167E-7,4800000.0,68.8,0.0,24.637681159420282,0.0,3565.0,9224.0,0.0,1.0,0.0,?,5.0,20.0
4900000.0,8.046875,2.0342717309378916E-7,4900000.0,67.10000000000001,0.0,26.7260579064588,0.0,3269.0,9232.0,0.0,1.0,0.0,?,7.0,25.0
5000000.0,8.21875,2.0491867972951796E-7,5000000.0,65.4,0.0,22.595078299776283,0.0,2975.0,9224.0,0.0,1.0,0.0,?,7.0,14.0
5100000.0,8.359375,2.1097431373265054E-7,5100000.0,64.3,0.0,22.052401746724886,0.0,28347.0,9232.0,0.0,1.0,0.0,?,2.0,16.0
5200000.0,8.53125,2.1773535991087556E-7,5200000.0,62.1,0.0,19.70338983050847,0.0,58347.0,9232.0,0.0,1.0,0.0,?,0.0,0.0
5300000.0,8.703125,2.2385612181905244E-7,5300000.0,61.8,0.0,22.983870967741936,0.0,88347.0,9232.0,0.0,1.0,0.0,?,0.0,0.0
5400000.0,8.875,2.2933659945718117E-7,5400000.0,63.4,0.0,25.910931174089068,0.0,118347.0,9232.0,0.0,1.0,0.0,?,0.0,0.0
5500000.0,9.03125,2.3373677524634535E-7,5500000.0,60.8,0.0,17.819706498951778,0.0,148347.0,9232.0,0.0,1.0,0.0,?,0.0,0.0
5600000.0,9.203125,2.379366843443778E-7,5600000.0,60.8,0.0,18.16283924843423,0.0,178347.0,9232.0,0.0,1.0,0.0,?,0.0,0.0
5700000.0,9.375,2.414963091723621E-7,5700000.0,63.800000000000004,0.0,21.132897603485834,0.0,208347.0,9232.0,0.0,1.0,0.0,?,0.0,0.0
5800000.0,9.53125,2.4415025513412227E-7,5800000.0,64.1,0.0,22.4622030237581,0.0,238347.0,9232.0,0.0,1.0,0.0,?,0.0,0.0
5900000.0,9.6875,2.4622212448674777E-7,5900000.0,61.1,0.0,19.95884773662551,0.0,268347.0,9232.0,0.0,1.0,0.0,?,0.0,0.0
6000000.0,9.859375,2.4786089650458766E-7,6000000.0,60.9,0.0,17.684210526315784,0.0,298347.0,9232.0,0.0,1.0,0.0,?,0.0,0.0
6100000.0,10.03125,2.552686297955613E-7,6100000.0,61.5,0.0,17.381974248927033,0.0,328047.0,9232.0,0.0,1.0,0.0,?,0.0,0.0
6200000.0,10.1875,2.614208561782208E-7,6200000.0,63.1,0.0,23.284823284823283,0.0,358047.0,9232.0,0.0,1.0,0.0,?,0.0,0.0
6300000.0,10.359375,2.6754802092909816E-7,6300000.0,60.4,0.0,22.957198443579767,0.0,388047.0,9232.0,0.0,1.0,0.0,?,0.0,0.0
6400000.0,10.53125,2.7303490140992736E-7,6400000.0,63.7,0.0,16.55172413793105,0.0,418047.0,9232.0,0.0,1.0,0.0,?,0.0,0.0
6500000.0,10.703125,2.778814976207084E-7,6500000.0,61.3,0.0,13.99999999999999,0.0,448047.0,9232.0,0.0,1.0,0.0,?,0.0,0.0
6600000.0,10.859375,2.8170541756682926E-7,6600000.0,61.1,0.0,15.434782608695643,0.0,478047.0,9232.0,0.0,1.0,0.0,?,0.0,0.0
6700000.0,11.03125,2.8527144523751403E-7,6700000.0,61.1,0.0,16.880341880341874,0.0,508047.0,9232.0,0.0,1.0,0.0,?,0.0,0.0
6800000.0,11.1875,2.879312119653655E-7,6800000.0,61.7,0.0,21.030927835051543,0.0,538047.0,9232.0,0.0,1.0,0.0,?,0.0,0.0
6900000.0,11.359375,2.90216671095954E-7,6900000.0,61.4,0.0,16.98924731182795,0.0,568047.0,9232.0,0.0,1.0,0.0,?,0.0,0.0
7000000.0,11.53125,2.9186184595649437E-7,7000000.0,62.5,0.0,19.181034482758616,0.0,598047.0,9232.0,0.0,1.0,0.0,?,0.0,0.0
7100000.0,11.6875,2.9860196971437995E-7,7100000.0,61.6,0.0,22.109533468559835,0.0,627747.0,9232.0,0.0,1.0,0.0,?,0.0,0.0
7200000.0,11.859375,3.0537582157800595E-7,7200000.0,64.1,0.0,24.421052631578945,0.0,657747.0,9232.0,0.0,1.0,0.0,?,0.0,0.0
7300000.0,12.03125,3.115093891715838E-7,7300000.0,63.4,0.0,16.055045871559646,0.0,687747.0,9232.0,0.0,1.0,0.0,?,0.0,0.0
7400000.0,12.1875,3.1650328310206536E-7,7400000.0,60.4,0.0,20.321931589537222,0.0,717747.0,9232.0,0.0,1.0,0.0,?,0.0,0.0
7500000.0,12.34375,3.2091510042341224E-7,7500000.0,60.099999999999994,0.0,18.06981519507186,0.0,747747.0,9232.0,0.0,1.0,0.0,?,0.0,0.0
7600000.0,12.515625,3.2512781520684567E-7,7600000.0,59.4,0.0,12.499999999999988,0.0,777747.0,9232.0,0.0,1.0,0.0,?,0.0,0.0
7700000.0,12.671875,3.283754793099232E-7,7700000.0,63.1,0.0,16.891891891891884,0.0,807747.0,9232.0,0.0,1.0,0.0,?,0.0,0.0
7800000.0,12.84375,3.3130762555326036E-7,7800000.0,62.9,0.0,19.347826086956516,0.0,837747.0,9232.0,0.0,1.0,0.0,?,0.0,0.0
7900000.0,13.015625,3.3359948752654936E-7,7900000.0,63.0,0.0,24.796747967479675,0.0,867747.0,9232.0,0.0,1.0,0.0,?,0.0,0.0
8000000.0,13.171875,3.351009218022229E-7,8000000.0,61.3,0.0,16.59482758620689,0.0,897747.0,9232.0,0.0,1.0,0.0,?,0.0,0.0
8100000.0,13.34375,3.425214607785975E-7,8100000.0,60.4,0.0,16.455696202531637,0.0,927447.0,9232.0,0.0,1.0,0.0,?,0.0,0.0
8200000.0,13.5,3.486853286934397E-7,8200000.0,62.5,0.0,21.548117154811713,0.0,957447.0,9232.0,0.0,1.0,0.0,?,0.0,0.0
8300000.0,13.65625,3.5426711999914724E-7,8300000.0,62.1,0.0,21.369294605809124,0.0,987447.0,9232.0,0.0,1.0,0.0,?,0.0,0.0
8400000.0,13.828125,3.597668061653774E-7,8400000.0,62.1,0.0,21.369294605809124,0.0,1017447.0,9232.0,0.0,1.0,0.0,?,0.0,0.0
8500000.0,14.0,3.6462620806155946E-7,8500000.0,60.4,0.0,12.1951219512195,0.0,1047447.0,9232.0,0.0,1.0,0.0,?,0.0,0.0
8600000.0,14.15625,3.68461769539863E-7,8600000.0,61.9,0.0,16.079295154185015,0.0,1077447.0,9232.0,0.0,1.0,0.0,?,0.0,0.0
8700000.0,14.328125,3.7204060289594873E-7,8700000.0,63.9,0.0,21.691973969631235,0.0,1107447.0,9232.0,0.0,1.0,0.0,?,0.0,0.0
8800000.0,14.5,3.7497915198198634E-7,8800000.0,63.1,0.0,17.44966442953019,0.0,1137447.0,9232.0,0.0,1.0,0.0,?,0.0,0.0
8900000.0,14.671875,3.772774167979758E-7,8900000.0,63.4,0.0,22.94736842105263,0.0,1167447.0,9232.0,0.0,1.0,0.0,?,0.0,0.0
9000000.0,14.828125,3.7878467183974064E-7,9000000.0,61.199999999999996,0.0,18.65828092243186,0.0,1197447.0,9232.0,0.0,1.0,0.0,?,0.0,0.0
9100000.0,15.0,3.862116136588157E-7,9100000.0,62.6,0.0,20.594479830148614,0.0,1227147.0,9232.0,0.0,1.0,0.0,?,0.0,0.0
9200000.0,15.171875,3.9299827120784263E-7,9200000.0,60.9,0.0,16.452991452991444,0.0,1257147.0,9232.0,0.0,1.0,0.0,?,0.0,0.0
9300000.0,15.34375,3.991446444868214E-7,9300000.0,61.6,0.0,18.123667377398714,0.0,1287147.0,9232.0,0.0,1.0,0.0,?,0.0,0.0
9400000.0,15.5,4.0415017994948565E-7,9400000.0,60.4,0.0,16.806722689075624,0.0,1317147.0,9232.0,0.0,1.0,0.0,?,0.0,0.0
9500000.0,15.65625,4.085736388030152E-7,9500000.0,66.60000000000001,0.0,27.39130434782609,0.0,1347147.0,9232.0,0.0,1.0,0.0,?,0.0,0.0
9600000.0,15.828125,4.1279915927184957E-7,9600000.0,63.3,0.0,19.340659340659336,0.0,1377147.0,9232.0,0.0,1.0,0.0,?,0.0,0.0
9700000.0,15.984375,4.160584649071098E-7,9700000.0,62.4,0.0,20.338983050847453,0.0,1407147.0,9232.0,0.0,1.0,0.0,?,0.0,0.0
9800000.0,16.140625,4.1873569393323533E-7,9800000.0,62.6,0.0,21.757322175732213,0.0,1437147.0,9232.0,0.0,1.0,0.0,?,0.0,0.0
9900000.0,16.328125,4.212498768336244E-7,9900000.0,62.8,0.0,21.51898734177215,0.0,1467147.0,9232.0,0.0,1.0,0.0,?,0.0,0.0
1.0E7,16.5,4.2291426022226617E-7,1.0E7,62.6,0.0,19.04761904761904,0.0,1497147.0,9232.0,0.0,1.0,0.0,?,0.0,0.0
