learning evaluation instances,evaluation time (cpu seconds),model cost (RAM-Hours),classified instances,classifications correct (percent),Kappa Statistic (percent),Kappa Temporal Statistic (percent),Kappa M Statistic (percent),model training instances,model serialized size (bytes),labeling cost,newThreshold,maxPosterior,accuracyBaseLearner (percent),Change detected,Warning detected
100000.0,0.125,5.668391370111042E-9,100000.0,57.599999999999994,15.575183882824708,14.343434343434334,13.292433537832299,19800.0,9312.0,0.0,1.0,0.0,?,0.0,15.0
200000.0,0.25,1.0845251381397247E-8,200000.0,55.400000000000006,11.549003042238336,3.87931034482759,5.307855626326969,39800.0,9312.0,0.0,1.0,0.0,?,0.0,0.0
300000.0,0.390625,1.611624611541629E-8,300000.0,62.1,25.32372853303489,19.87315010570824,17.96536796536796,59800.0,9312.0,0.0,1.0,0.0,?,0.0,0.0
400000.0,0.515625,2.0310043409052822E-8,400000.0,64.5,29.130400063882465,27.698574338085542,28.137651821862352,79800.0,9312.0,0.0,1.0,0.0,?,0.0,0.0
500000.0,0.65625,2.4475092585715983E-8,500000.0,57.699999999999996,16.204437400950866,17.382812499999993,10.947368421052618,99800.0,9312.0,0.0,1.0,0.0,?,0.0,0.0
600000.0,0.78125,2.7685827161702846E-8,600000.0,63.9,28.090514322138567,32.14285714285714,24.31865828092243,119800.0,9312.0,0.0,1.0,0.0,?,0.0,0.0
700000.0,0.90625,3.040503037886487E-8,700000.0,60.699999999999996,22.674327089563974,18.6335403726708,14.565217391304339,139800.0,9312.0,0.0,1.0,0.0,?,0.0,0.0
800000.0,1.015625,3.2354243254909915E-8,800000.0,60.5,22.767089003597675,20.2020202020202,11.235955056179762,159800.0,9312.0,0.0,1.0,0.0,?,0.0,0.0
900000.0,1.15625,3.430740131686131E-8,900000.0,55.400000000000006,11.078856705371965,16.791044776119406,3.4632034632034667,179800.0,9312.0,0.0,1.0,0.0,?,0.0,0.0
1000000.0,1.265625,3.539643431496289E-8,1000000.0,61.199999999999996,22.62284620293554,22.709163346613543,21.138211382113816,199800.0,9312.0,0.0,1.0,0.0,?,0.0,0.0
1100000.0,1.375,4.0360577663199766E-8,1100000.0,56.699999999999996,14.100936359308038,13.572854291417155,9.033613445378135,219600.0,9312.0,0.0,1.0,0.0,?,0.0,0.0
1200000.0,1.5,4.554235298807422E-8,1200000.0,54.50000000000001,10.044918229842157,10.95890410958905,2.5695931477516085,239600.0,9312.0,0.0,1.0,0.0,?,0.0,0.0
1300000.0,1.640625,5.081887744988004E-8,1300000.0,60.6,22.79596187609731,17.226890756302513,19.918699186991866,259600.0,9312.0,0.0,1.0,0.0,?,0.0,0.0
1400000.0,1.765625,5.501759005710482E-8,1400000.0,62.4,24.635705838728423,23.57723577235772,25.691699604743086,279600.0,9312.0,0.0,1.0,0.0,?,0.0,0.0
1500000.0,1.890625,5.872477130550477E-8,1500000.0,59.5,18.822708796010485,15.975103734439825,18.674698795180717,299600.0,9312.0,0.0,1.0,0.0,?,0.0,0.0
1600000.0,2.03125,6.234237743127677E-8,1600000.0,53.900000000000006,8.570204596479265,10.311284046692617,2.5369978858350977,319600.0,9312.0,0.0,1.0,0.0,?,0.0,0.0
1700000.0,2.15625,6.506649596202704E-8,1700000.0,55.50000000000001,11.751174006853677,11.881188118811892,8.057851239669429,339600.0,9312.0,0.0,1.0,0.0,?,0.0,0.0
1800000.0,2.28125,6.729908313395249E-8,1800000.0,61.8,24.472792410899636,24.65483234714004,19.238900634249468,359600.0,9312.0,0.0,1.0,0.0,?,0.0,0.0
1900000.0,2.40625,6.904013894705308E-8,1900000.0,62.3,25.013326544088976,25.494071146245062,22.587268993839835,379600.0,9312.0,0.0,1.0,0.0,?,0.0,0.0
2000000.0,2.53125,7.028966340132885E-8,2000000.0,57.3,14.326530284668646,15.612648221343866,9.72515856236785,399600.0,9312.0,0.0,1.0,0.0,?,0.0,0.0
2100000.0,2.65625,7.59678853986164E-8,2100000.0,62.4,25.041366798907518,26.129666011787823,23.732251521298174,419400.0,9312.0,0.0,1.0,0.0,?,0.0,0.0
2200000.0,2.78125,8.115457603707909E-8,2200000.0,60.5,21.14509302882696,21.471172962226635,19.05737704918032,439400.0,9312.0,0.0,1.0,0.0,?,0.0,0.0
2300000.0,2.90625,8.584973531671696E-8,2300000.0,60.4,22.940407248271992,19.838056680161937,10.810810810810796,459400.0,9312.0,0.0,1.0,0.0,?,0.0,0.0
2400000.0,3.046875,9.057881672763161E-8,2400000.0,53.900000000000006,8.0618398800217,6.1099796334012275,6.300813008130087,479400.0,9312.0,0.0,1.0,0.0,?,0.0,0.0
2500000.0,3.171875,9.42909132896198E-8,2500000.0,55.800000000000004,11.764118739145198,12.12723658051691,11.244979919678725,499400.0,9312.0,0.0,1.0,0.0,?,0.0,0.0
2600000.0,3.296875,9.751147849278317E-8,2600000.0,59.199999999999996,19.157654462378588,15.876288659793806,10.329670329670314,519400.0,9312.0,0.0,1.0,0.0,?,0.0,0.0
2700000.0,3.4375,1.00581641567664E-7,2700000.0,59.4,19.241908277903303,15.592515592515586,16.803278688524586,539400.0,9312.0,0.0,1.0,0.0,?,0.0,0.0
2800000.0,3.5625,1.0281914405317769E-7,2800000.0,55.7,12.496247017366452,13.645224171539974,5.944798301486205,559400.0,9312.0,0.0,1.0,0.0,?,0.0,0.0
2900000.0,3.6875,1.0456511517986654E-7,2900000.0,54.50000000000001,8.901613742842281,10.784313725490206,7.520325203252039,579400.0,9312.0,0.0,1.0,0.0,?,0.0,0.0
3000000.0,3.8125,1.0581955494773055E-7,3000000.0,60.6,22.59575337513948,22.134387351778653,13.215859030836993,599400.0,9312.0,0.0,1.0,0.0,?,0.0,0.0
3100000.0,3.953125,1.1221308442246581E-7,3100000.0,56.00000000000001,13.428430890309894,11.646586345381536,5.781584582441119,619200.0,9312.0,0.0,1.0,0.0,?,0.0,0.0
3200000.0,4.078125,1.1740469037451675E-7,3200000.0,55.7,12.327921281160204,8.659793814432998,1.7738359201773852,639200.0,9312.0,0.0,1.0,0.0,?,0.0,0.0
3300000.0,4.203125,1.2210476496774286E-7,3300000.0,60.699999999999996,20.888624065962375,20.606060606060602,19.46721311475409,659200.0,9312.0,0.0,1.0,0.0,?,0.0,0.0
3400000.0,4.328125,1.2631330820214413E-7,3400000.0,57.199999999999996,14.711473698054695,15.913555992141445,12.474437627811849,679200.0,9312.0,0.0,1.0,0.0,?,0.0,0.0
3500000.0,4.453125,1.3003032007772057E-7,3500000.0,61.5,23.40442463791182,18.60465116279069,21.267893660531694,699200.0,9312.0,0.0,1.0,0.0,?,0.0,0.0
3600000.0,4.578125,1.3325580059447218E-7,3600000.0,59.8,20.131604043486547,24.007561436672965,16.770186335403718,719200.0,9312.0,0.0,1.0,0.0,?,0.0,0.0
3700000.0,4.703125,1.3598974975239896E-7,3700000.0,57.99999999999999,17.060301110602047,13.402061855670091,9.871244635193118,739200.0,9312.0,0.0,1.0,0.0,?,0.0,0.0
3800000.0,4.828125,1.382321675515009E-7,3800000.0,54.1,9.16503071369768,6.13496932515338,1.923076923076925,759200.0,9312.0,0.0,1.0,0.0,?,0.0,0.0
3900000.0,4.953125,1.3998305399177798E-7,3900000.0,56.89999999999999,13.487169605292722,15.490196078431365,15.984405458089663,779200.0,9312.0,0.0,1.0,0.0,?,0.0,0.0
4000000.0,5.078125,1.4124240907323025E-7,4000000.0,62.0,24.41270662184473,23.076923076923077,22.448979591836732,799200.0,9312.0,0.0,1.0,0.0,?,0.0,0.0
4100000.0,5.203125,1.4693046169769427E-7,4100000.0,54.800000000000004,10.81399983425612,6.224066390041499,-0.6681514476614705,819000.0,9312.0,0.0,1.0,0.0,?,0.0,0.0
4200000.0,5.328125,1.5212698296333347E-7,4200000.0,59.699999999999996,20.104359962569973,14.799154334038045,16.21621621621621,839000.0,9312.0,0.0,1.0,0.0,?,0.0,0.0
4300000.0,5.46875,1.5742009660849962E-7,4300000.0,58.599999999999994,17.589964288984515,11.727078891257984,14.989733059548247,859000.0,9312.0,0.0,1.0,0.0,?,0.0,0.0
4400000.0,5.59375,1.6163355515648916E-7,4400000.0,59.4,19.27659100669646,17.647058823529406,15.767634854771776,879000.0,9312.0,0.0,1.0,0.0,?,0.0,0.0
4500000.0,5.734375,1.6582072324429943E-7,4500000.0,62.8,24.978522076884918,27.34375,28.32369942196532,899000.0,9312.0,0.0,1.0,0.0,?,0.0,0.0
4600000.0,5.859375,1.6905111907463928E-7,4600000.0,56.99999999999999,15.093259194610198,14.682539682539675,8.704883227176206,919000.0,9312.0,0.0,1.0,0.0,?,0.0,0.0
4700000.0,5.984375,1.717899835461543E-7,4700000.0,56.89999999999999,14.65008515188719,11.134020618556688,7.708779443254802,939000.0,9312.0,0.0,1.0,0.0,?,0.0,0.0
4800000.0,6.125,1.7431823329793075E-7,4800000.0,59.5,20.333928697882644,19.32270916334661,10.792951541850208,959000.0,9312.0,0.0,1.0,0.0,?,0.0,0.0
4900000.0,6.25,1.760740350517961E-7,4900000.0,60.9,22.653900933692032,23.483365949119374,18.029350104821795,979000.0,9312.0,0.0,1.0,0.0,?,0.0,0.0
5000000.0,6.375,1.7741306995352102E-7,5000000.0,54.800000000000004,9.15522397658939,9.780439121756496,6.418219461697729,999000.0,9312.0,0.0,1.0,0.0,?,0.0,0.0
5100000.0,6.5,1.8318080239825771E-7,5100000.0,52.7,1.4205445420744711,-0.8528784648187642,-14.527845036319597,1018800.0,9312.0,0.0,1.0,0.0,?,0.0,0.0
5200000.0,6.640625,1.8911652861990855E-7,5200000.0,53.2,2.7362698112501738,-0.6451612903225813,-26.145552560646895,1038800.0,9312.0,0.0,1.0,0.0,?,0.0,0.0
5300000.0,6.765625,1.9390119834699556E-7,5300000.0,56.2,7.860469617095041,0.45454545454545503,-13.178294573643393,1058800.0,9312.0,0.0,1.0,0.0,?,0.0,0.0
5400000.0,6.890625,1.9819433671525774E-7,5400000.0,53.800000000000004,2.7335657622151475,4.742268041237118,-20.94240837696334,1078800.0,9312.0,0.0,1.0,0.0,?,0.0,0.0
5500000.0,7.03125,2.0247114460087475E-7,5500000.0,54.50000000000001,4.728003685246461,5.0104384133611735,-19.109947643979044,1098800.0,9312.0,0.0,1.0,0.0,?,0.0,0.0
5600000.0,7.15625,2.0578122025148727E-7,5600000.0,52.300000000000004,-0.5777421667439726,1.2422360248447217,-28.918918918918912,1118800.0,9312.0,0.0,1.0,0.0,?,0.0,0.0
5700000.0,7.28125,2.0859976454327496E-7,5700000.0,53.0,2.859245112993302,-0.8583690987124473,-29.476584022038566,1138800.0,9312.0,0.0,1.0,0.0,?,0.0,0.0
5800000.0,7.40625,2.109267774762378E-7,5800000.0,52.1,0.10594192380524703,-3.4557235421166337,-22.506393861892573,1158800.0,9312.0,0.0,1.0,0.0,?,0.0,0.0
5900000.0,7.546875,2.1299169424714305E-7,5900000.0,52.900000000000006,0.2887603627710901,1.2578616352201268,-31.197771587743734,1178800.0,9312.0,0.0,1.0,0.0,?,0.0,0.0
6000000.0,7.671875,2.1433564446245622E-7,6000000.0,55.60000000000001,5.724477662646529,5.531914893617026,-13.84615384615383,1198800.0,9312.0,0.0,1.0,0.0,?,0.0,0.0
6100000.0,7.796875,2.2010829222078115E-7,6100000.0,54.6,5.237011834937079,1.9438444924406064,-20.424403183023863,1218600.0,9312.0,0.0,1.0,0.0,?,0.0,0.0
6200000.0,7.921875,2.2538940862028125E-7,6200000.0,52.2,0.4763808381637824,-1.7021276595744699,-23.195876288659786,1238600.0,9312.0,0.0,1.0,0.0,?,0.0,0.0
6300000.0,8.046875,2.3017899366095652E-7,6300000.0,53.900000000000006,3.67256193373676,0.8602150537634418,-16.120906801007543,1258600.0,9312.0,0.0,1.0,0.0,?,0.0,0.0
6400000.0,8.203125,2.3555156076326958E-7,6400000.0,54.800000000000004,6.9744467860906285,6.804123711340212,-5.607476635513997,1278600.0,9312.0,0.0,1.0,0.0,?,0.0,0.0
6500000.0,8.328125,2.3935808308629516E-7,6500000.0,52.6,0.9346419435202126,0.8368200836820092,-30.939226519337016,1298600.0,9312.0,0.0,1.0,0.0,?,0.0,0.0
6600000.0,8.453125,2.4267307405049594E-7,6600000.0,54.7,6.452119179587161,6.597938144329903,-13.533834586466147,1318600.0,9312.0,0.0,1.0,0.0,?,0.0,0.0
6700000.0,8.578125,2.454965336558719E-7,6700000.0,55.800000000000004,4.86890418447685,2.428256070640179,-20.435967302452305,1338600.0,9312.0,0.0,1.0,0.0,?,0.0,0.0
6800000.0,8.71875,2.4811995293324186E-7,6800000.0,53.7,1.5773138897155696,2.1141649048625815,-30.422535211267604,1358600.0,9312.0,0.0,1.0,0.0,?,0.0,0.0
6900000.0,8.84375,2.499603498209681E-7,6900000.0,50.6,-2.0159508340939656,-3.131524008350733,-26.992287917737784,1378600.0,9312.0,0.0,1.0,0.0,?,0.0,0.0
7000000.0,8.96875,2.513092153498695E-7,7000000.0,53.2,1.6430652056038215,-4.932735426008974,-19.083969465648842,1398600.0,9312.0,0.0,1.0,0.0,?,0.0,0.0
7100000.0,9.09375,2.570867784217827E-7,7100000.0,53.5,1.1647678966162303,0.428265524625268,-22.368421052631568,1418400.0,9312.0,0.0,1.0,0.0,?,0.0,0.0
7200000.0,9.21875,2.6237281013487106E-7,7200000.0,55.900000000000006,6.844106463878346,6.369426751592362,-22.49999999999999,1438400.0,9312.0,0.0,1.0,0.0,?,0.0,0.0
7300000.0,9.359375,2.677666230334175E-7,7300000.0,56.599999999999994,9.360132660008587,8.631578947368405,-13.910761154855656,1458400.0,9312.0,0.0,1.0,0.0,?,0.0,0.0
7400000.0,9.484375,2.720695920288562E-7,7400000.0,52.6,0.9462351210378676,-0.2114164904862581,-25.39682539682539,1478400.0,9312.0,0.0,1.0,0.0,?,0.0,0.0
7500000.0,9.609375,2.7588102966547004E-7,7500000.0,56.2,4.276522833764606,4.157549234135671,-20.329670329670318,1498400.0,9312.0,0.0,1.0,0.0,?,0.0,0.0
7600000.0,9.734375,2.7920093594325903E-7,7600000.0,52.300000000000004,0.16659829718122773,-5.530973451327439,-26.190476190476186,1518400.0,9312.0,0.0,1.0,0.0,?,0.0,0.0
7700000.0,9.875,2.823828577270937E-7,7700000.0,54.2,3.2853420277980883,2.7600849256900237,-19.582245430809387,1538400.0,9312.0,0.0,1.0,0.0,?,0.0,0.0
7800000.0,10.0,2.8470185093788627E-7,7800000.0,59.8,4.8799878852123815,14.830508474576263,-6.914893617021282,1688.0,9312.0,0.0,1.0,0.0,?,5.0,30.0
7900000.0,10.125,2.864320413209497E-7,7900000.0,57.8,11.578223937576725,15.090543259557334,-1.199040767386092,530.0,8888.0,0.0,1.0,0.0,?,10.0,75.0
8000000.0,10.265625,2.8795504476875055E-7,8000000.0,61.4,12.594934129187394,17.521367521367516,3.258145363408524,10045.0,9312.0,0.0,1.0,0.0,?,8.0,64.0
8100000.0,10.390625,2.93737523154252E-7,8100000.0,60.099999999999994,3.9507765784329734,15.286624203821647,-8.71934604904633,29845.0,9312.0,0.0,1.0,0.0,?,0.0,0.0
8200000.0,10.515625,2.989989782993991E-7,8200000.0,62.6,14.547880604653704,21.26315789473684,5.076142131979699,49845.0,9312.0,0.0,1.0,0.0,?,0.0,15.0
8300000.0,10.640625,3.037689020857214E-7,8300000.0,57.099999999999994,-0.2692545015987084,8.137044967880069,-11.718750000000009,69845.0,9312.0,0.0,1.0,0.0,?,0.0,0.0
8400000.0,10.765625,3.0804729451321884E-7,8400000.0,62.8,13.600891861761417,22.0125786163522,4.123711340206189,89845.0,9312.0,0.0,1.0,0.0,?,0.0,0.0
8500000.0,10.890625,3.1183415558189146E-7,8500000.0,57.199999999999996,1.3824884792626486,8.351177730192703,-9.743589743589752,109845.0,9312.0,0.0,1.0,0.0,?,0.0,0.0
8600000.0,11.03125,3.1554140150547017E-7,8600000.0,59.5,5.320740602206845,11.764705882352928,-9.16442048517521,129845.0,9312.0,0.0,1.0,0.0,?,0.0,0.0
8700000.0,11.15625,3.183451998564931E-7,8700000.0,55.1,-3.1197751116173795,6.066945606694566,-14.540816326530596,149845.0,9312.0,0.0,1.0,0.0,?,0.0,0.0
8800000.0,11.28125,3.2065746684869115E-7,8800000.0,56.99999999999999,3.487035839977015,13.480885311871216,-5.392156862745103,169845.0,9312.0,0.0,1.0,0.0,?,0.0,0.0
8900000.0,11.40625,3.224782024820644E-7,8900000.0,62.3,11.676506419267172,16.035634743875267,-0.2659574468085109,189845.0,9312.0,0.0,1.0,0.0,?,0.0,0.0
9000000.0,11.53125,3.238074067566128E-7,9000000.0,57.3,2.336602503110591,9.915611814345977,-9.2071611253197,209845.0,9312.0,0.0,1.0,0.0,?,0.0,0.0
9100000.0,11.65625,3.29565308574173E-7,9100000.0,57.099999999999994,-0.031711684823166546,10.062893081760993,-12.010443864229774,229645.0,9312.0,0.0,1.0,0.0,?,0.0,0.0
9200000.0,11.78125,3.348316790329084E-7,9200000.0,57.8,2.997425524089725,13.524590163934416,-8.762886597938152,249645.0,9312.0,0.0,1.0,0.0,?,0.0,0.0
9300000.0,11.90625,3.396065181328189E-7,9300000.0,61.7,16.170548065137464,20.041753653444673,9.45626477541372,269645.0,9312.0,0.0,1.0,0.0,?,0.0,0.0
9400000.0,12.046875,3.444252393415403E-7,9400000.0,57.699999999999996,0.5145958964034657,9.999999999999986,-10.732984293193727,289645.0,9312.0,0.0,1.0,0.0,?,0.0,0.0
9500000.0,12.15625,3.4774304367601857E-7,9500000.0,58.699999999999996,0.9041001228501213,9.03083700440527,-16.011235955056193,309645.0,9312.0,0.0,1.0,0.0,?,0.0,0.0
9600000.0,12.28125,3.5104328869945457E-7,9600000.0,62.3,11.007667031763418,19.27194860813704,-1.617250673854449,329645.0,9312.0,0.0,1.0,0.0,?,0.0,0.0
9700000.0,12.40625,3.5385200236406574E-7,9700000.0,61.4,10.073618488491274,15.350877192982445,-2.1164021164021185,349645.0,9312.0,0.0,1.0,0.0,?,0.0,0.0
9800000.0,12.53125,3.561691846698521E-7,9800000.0,63.7,14.606720427578038,24.688796680497923,3.9682539682539715,369645.0,9312.0,0.0,1.0,0.0,?,0.0,0.0
9900000.0,12.640625,3.577666292484434E-7,9900000.0,62.8,10.233826403802986,22.66112266112266,-1.917808219178084,389645.0,9312.0,0.0,1.0,0.0,?,0.0,0.0
1.0E7,12.765625,3.591007488365801E-7,1.0E7,58.8,2.0074207972600138,11.587982832618012,-11.351351351351362,409645.0,9312.0,0.0,1.0,0.0,?,0.0,0.0
