learning evaluation instances,evaluation time (cpu seconds),model cost (RAM-Hours),classified instances,classifications correct (percent),Kappa Statistic (percent),Kappa Temporal Statistic (percent),Kappa M Statistic (percent),model training instances,model serialized size (bytes),labeling cost,newThreshold,maxPosterior,accuracyBaseLearner (percent),Change detected,Warning detected
100000.0,0.34375,2.175543664230241E-9,100000.0,62.6,25.190125096512737,24.444444444444443,23.517382413087933,30000.0,2904.0,30000.0,0.5531257299517162,0.5197980695276344,0.0,0.0,14.0
200000.0,0.703125,4.4499756768345834E-9,200000.0,63.800000000000004,27.237058447536317,21.98275862068965,23.14225053078556,60000.0,2904.0,60000.0,0.5503117370254698,0.5277672137263855,0.0,0.0,0.0
300000.0,1.03125,6.526630992690722E-9,300000.0,66.3,32.26021724972462,28.75264270613108,27.056277056277057,90000.0,2904.0,90000.0,0.5475120601141235,0.5475995960605791,0.0,0.0,0.0
400000.0,1.375,8.702174656920963E-9,400000.0,68.5,36.986893273800966,35.84521384928718,36.23481781376519,120000.0,2904.0,120000.0,0.5612323878919483,0.5596144548870814,0.0,0.0,0.0
500000.0,1.71875,1.0877718321151205E-8,500000.0,66.5,32.63623567263222,34.57031250000001,29.47368421052632,150000.0,2904.0,150000.0,0.5752965389533864,0.5512661867630808,0.0,0.0,0.0
600000.0,2.046875,1.2954373637007344E-8,600000.0,67.10000000000001,34.1552255533763,38.15789473684211,31.02725366876311,180000.0,2904.0,180000.0,0.5445901809918152,0.5297897063729657,0.0,0.0,0.0
700000.0,2.390625,1.5129917301237584E-8,700000.0,64.60000000000001,28.65204772653982,26.70807453416149,23.043478260869563,210000.0,2904.0,210000.0,0.5867130002495836,0.5304856132692386,0.0,0.0,0.0
800000.0,2.71875,1.7206572617093723E-8,800000.0,65.9,31.22504134564963,31.111111111111118,23.37078651685393,240000.0,2904.0,240000.0,0.5665607760876747,0.5604883289294452,0.0,0.0,0.0
900000.0,3.046875,1.9283227932949862E-8,900000.0,65.8,31.54742842503042,36.19402985074627,25.974025974025977,270000.0,2904.0,270000.0,0.5416838949097528,0.5197792014757061,0.0,0.0,0.0
1000000.0,3.375,2.1359883248806002E-8,1000000.0,64.4,28.736147588239064,29.08366533864542,27.64227642276423,300000.0,2904.0,300000.0,0.5720830502007536,0.5046931035382768,0.0,0.0,0.0
1100000.0,3.71875,2.353542691303624E-8,1100000.0,64.8,29.437423824491628,29.74051896207585,26.05042016806723,330000.0,2904.0,330000.0,0.5524333307263829,0.5199122113121518,0.0,0.0,0.0
1200000.0,4.0625,2.571097057726648E-8,1200000.0,66.4,32.43433461895779,34.24657534246576,28.051391862955033,360000.0,2904.0,360000.0,0.5776591499803203,0.5285820034373632,0.0,0.0,0.0
1300000.0,4.390625,2.778762589312262E-8,1300000.0,64.4,28.644730934513507,25.210084033613445,27.64227642276423,390000.0,2904.0,390000.0,0.5414125624203121,0.5364093409518176,0.0,0.0,0.0
1400000.0,4.734375,2.996316955735286E-8,1400000.0,64.60000000000001,29.238211365862437,28.04878048780488,30.03952569169961,420000.0,2904.0,420000.0,0.5440447411041937,0.5085232489291742,0.0,0.0,0.0
1500000.0,5.0625,3.2039824873208996E-8,1500000.0,63.3,26.690317528804506,23.858921161825723,26.305220883534137,450000.0,2904.0,450000.0,0.5521566137844598,0.5215032723064215,0.0,0.0,0.0
1600000.0,5.40625,3.421536853743924E-8,1600000.0,64.4,28.421205016949695,30.73929961089495,24.735729386892178,480000.0,2904.0,480000.0,0.571653264638208,0.5044650743067433,0.0,0.0,0.0
1700000.0,5.734375,3.6292023853295375E-8,1700000.0,66.5,32.858196511031295,33.66336633663367,30.78512396694215,510000.0,2904.0,510000.0,0.5744324641658998,0.5612553832715647,0.0,0.0,0.0
1800000.0,6.078125,3.846756751752562E-8,1800000.0,64.9,29.67848442107963,30.769230769230777,25.79281183932347,540000.0,2904.0,540000.0,0.5715100745476887,0.5080965473617235,0.0,0.0,0.0
1900000.0,6.421875,4.064311118175586E-8,1900000.0,67.9,35.63935583215707,36.5612648221344,34.08624229979467,570000.0,2904.0,570000.0,0.5742885779299024,0.5062674068825737,0.0,0.0,0.0
2000000.0,6.75,4.2719766497612E-8,2000000.0,66.3,32.62641044710474,33.399209486166015,28.75264270613108,600000.0,2904.0,600000.0,0.5382534848731071,0.5333501223494701,0.0,0.0,0.0
2100000.0,7.09375,4.489531016184224E-8,2100000.0,65.2,30.421430199498555,31.630648330058946,29.41176470588236,629999.0,2904.0,629999.0,0.5685169781682513,0.8882562945858762,0.0,0.0,0.0
2200000.0,7.4375,4.707085382607248E-8,2200000.0,62.6,25.144607009186803,25.646123260437374,23.360655737704917,660000.0,2904.0,660000.0,0.5769360399777971,0.5663732721282319,0.0,0.0,0.0
2300000.0,7.765625,4.914750914192862E-8,2300000.0,67.10000000000001,33.5900913994122,33.4008097165992,25.900900900900904,690000.0,2904.0,690000.0,0.5797409227082886,0.5345859282563249,0.0,0.0,0.0
2400000.0,8.109375,5.132305280615886E-8,2400000.0,66.0,31.934657270980143,30.753564154786154,30.894308943089438,720000.0,2904.0,720000.0,0.5883850363210966,0.5712729451315349,0.0,0.0,0.0
2500000.0,8.453125,5.3498596470389105E-8,2500000.0,67.80000000000001,35.59768151653461,35.9840954274354,35.341365461847396,750000.0,2904.0,750000.0,0.5625498827891086,0.5165563387109281,0.0,0.0,0.0
2600000.0,8.78125,5.557525178624524E-8,2600000.0,64.9,29.126417471650573,27.628865979381445,22.857142857142858,780000.0,2904.0,780000.0,0.5709376727642836,0.5227489778370732,0.0,0.0,0.0
2700000.0,9.09375,5.755301875372728E-8,2700000.0,64.7,29.335554025271048,26.611226611226613,27.66393442622951,810000.0,2904.0,810000.0,0.5794505272409959,0.5616869376415812,0.0,0.0,0.0
2800000.0,9.4375,5.972856241795752E-8,2800000.0,62.7,25.226525539251053,27.290448343079927,20.806794055201692,840000.0,2904.0,840000.0,0.5999109262194563,0.5076870971363588,0.0,0.0,0.0
2900000.0,9.765625,6.180521773381366E-8,2900000.0,66.8,33.62150663185129,34.90196078431374,32.520325203252035,870000.0,2904.0,870000.0,0.5622680984097418,0.5274946391569885,0.0,0.0,0.0
3000000.0,10.09375,6.38818730496698E-8,3000000.0,66.3,32.037268583874486,33.399209486166015,25.770925110132158,900000.0,2904.0,900000.0,0.5706516868940827,0.5506531143526187,0.0,0.0,0.0
3100000.0,10.421875,6.595852836552595E-8,3100000.0,68.2,36.12174632700042,36.14457831325302,31.90578158458245,930000.0,2904.0,930000.0,0.545595179617184,0.5152185583061994,0.0,0.0,0.0
3200000.0,10.75,6.803518368138209E-8,3200000.0,63.1,25.55801229805844,23.917525773195873,18.181818181818173,959999.0,2904.0,959999.0,0.5820341769290566,0.5892918096331883,0.0,0.0,0.0
3300000.0,11.078125,7.011183899723823E-8,3300000.0,63.6,27.32093795923584,26.464646464646467,25.40983606557377,990000.0,2904.0,990000.0,0.573282382926854,0.5322770622755292,0.0,0.0,0.0
3400000.0,11.4375,7.238627100984258E-8,3400000.0,66.0,31.841053336380444,33.20235756385069,30.470347648261765,1020000.0,2904.0,1020000.0,0.559127383860202,0.5003190705113629,0.0,0.0,0.0
3500000.0,11.796875,7.466070302244692E-8,3500000.0,67.7,35.30321360755691,31.71247357293869,33.946830265848675,1049999.0,2904.0,1049999.0,0.5847173460764413,0.9337006509943618,0.0,0.0,0.0
3600000.0,12.15625,7.693513503505126E-8,3600000.0,64.0,27.87074437391806,31.94706994328923,25.465838509316768,1080000.0,2904.0,1080000.0,0.57022297666368,0.5045549699424645,0.0,0.0,0.0
3700000.0,12.5,7.91106786992815E-8,3700000.0,65.3,29.884825217215607,28.453608247422686,25.536480686695278,1110000.0,2904.0,1110000.0,0.5845124265520355,0.5514252841171237,0.0,0.0,0.0
3800000.0,12.875,8.148399906025995E-8,3800000.0,64.8,29.036836333139803,28.01635991820041,24.786324786324787,1140000.0,2904.0,1140000.0,0.5932276847394455,0.5133947878074562,0.0,0.0,0.0
3900000.0,13.21875,8.365954272449019E-8,3900000.0,68.4,36.832341840977435,38.03921568627452,38.401559454191045,1170000.0,2904.0,1170000.0,0.5961117723555431,0.5408358015520308,0.0,0.0,0.0
4000000.0,13.546875,8.573619804034633E-8,4000000.0,66.7,33.18351458726275,32.59109311740892,32.04081632653062,1200000.0,2904.0,1200000.0,0.5930790905983168,0.5645998513495907,0.0,0.0,0.0
4100000.0,13.875,8.781285335620248E-8,4100000.0,64.7,28.81629360758218,26.763485477178424,21.380846325167035,1230000.0,2904.0,1230000.0,0.5784352881304872,0.508122089046045,0.0,0.0,0.0
4200000.0,14.234375,9.008728536880682E-8,4200000.0,65.0,29.888101409850133,26.004228329809724,27.234927234927238,1260000.0,2904.0,1260000.0,0.5754925343930579,0.5380172122663124,0.0,0.0,0.0
4300000.0,14.5625,9.216394068466296E-8,4300000.0,66.5,32.825345899338274,28.571428571428577,31.21149897330596,1290000.0,2904.0,1290000.0,0.5840733032430071,0.547880316796185,0.0,0.0,0.0
4400000.0,14.921875,9.44383726972673E-8,4400000.0,65.60000000000001,30.891499654457505,30.223123732251526,28.630705394190876,1320000.0,2904.0,1320000.0,0.5753483826262709,0.5717202180778829,0.0,0.0,0.0
4500000.0,15.25,9.651502801312345E-8,4500000.0,65.8,31.677887208582217,33.20312500000001,34.10404624277457,1350000.0,2904.0,1350000.0,0.5781455466628614,0.523725737720765,0.0,0.0,0.0
4600000.0,15.59375,9.869057167735369E-8,4600000.0,64.8,29.14796401038626,30.15873015873016,25.265392781316347,1380000.0,2904.0,1380000.0,0.5752042669672012,0.5805610607578958,0.0,0.0,0.0
4700000.0,15.9375,1.0086611534158393E-7,4700000.0,64.7,28.913770188086517,27.216494845360828,24.411134903640257,1410000.0,2904.0,1410000.0,0.589618545038702,0.517975798145765,0.0,0.0,0.0
4800000.0,16.28125,1.0304165900581418E-7,4800000.0,65.9,31.05149503004619,32.071713147410364,24.88986784140969,1440000.0,2904.0,1440000.0,0.58081078928089,0.5344027009402349,0.0,0.0,0.0
4900000.0,16.625,1.0521720267004442E-7,4900000.0,66.60000000000001,33.00894150116132,34.63796477495109,29.979035639413006,1469998.0,2904.0,1469998.0,0.6014395009998166,0.9060272496424676,0.0,0.0,0.0
5000000.0,16.96875,1.0739274633427466E-7,5000000.0,66.10000000000001,32.326684446715745,32.33532934131737,29.8136645962733,1500000.0,2904.0,1500000.0,0.5692239048872386,0.5698541496046402,0.0,0.0,0.0
5100000.0,17.3125,1.0955477288613723E-7,5100000.0,65.9,22.951782728546274,27.292110874200425,17.43341404358355,21939.0,2904.0,1530000.0,0.6318342384829722,0.6366702128619929,0.0,1.0,77.0
5200000.0,17.65625,1.1173173940430091E-7,5200000.0,69.0,25.875269598817834,33.333333333333314,16.4420485175202,51939.0,2904.0,1560000.0,0.580519857911453,0.5409630806684098,0.0,0.0,77.0
5300000.0,18.015625,1.1400765894601748E-7,5300000.0,67.9,25.883852377258137,27.045454545454543,17.054263565891485,81939.0,2904.0,1590000.0,0.5891755856852171,0.5244763432767287,0.0,0.0,0.0
5400000.0,18.359375,1.1618462546418117E-7,5400000.0,65.3,19.550036631395436,28.453608247422686,9.162303664921474,111938.0,2904.0,1619999.0,0.6285252141003176,0.6572307917556713,0.0,0.0,0.0
5500000.0,18.71875,1.1846054500589774E-7,5500000.0,67.0,22.602071450015014,31.106471816283932,13.61256544502619,141937.0,2904.0,1649998.0,0.613067512970128,0.6377735552454246,0.0,0.0,0.0
5600000.0,19.0625,1.2063751152406143E-7,5600000.0,68.89999999999999,25.615881368093753,35.610766045548644,15.94594594594593,171939.0,2904.0,1680000.0,0.6159248521803665,0.5135739405058687,0.0,0.0,0.0
5700000.0,19.421875,1.22913431065778E-7,5700000.0,69.1,26.04116802297748,33.690987124463504,14.876033057851224,201939.0,2904.0,1710000.0,0.5947692689859572,0.599961692192209,0.0,0.0,0.0
5800000.0,19.75,1.249805791303516E-7,5800000.0,67.10000000000001,25.49413917423049,28.941684665226784,15.856777493606153,183806.0,2904.0,1740000.0,0.568653792840538,0.547038518810798,0.0,1.0,10.0
5900000.0,20.09375,1.271575456485153E-7,5900000.0,69.89999999999999,27.73595052433449,36.89727463312368,16.155988857938702,213805.0,2904.0,1769999.0,0.5771903130037226,0.6360249496426372,0.0,0.0,160.0
6000000.0,20.421875,1.2917308292041228E-7,6000000.0,67.7,26.654253145011136,31.276595744680858,17.179487179487193,243806.0,2904.0,1800000.0,0.6279902202534065,0.5180206088756133,0.0,0.0,2.0
6100000.0,20.765625,1.312845981576377E-7,6100000.0,64.7,16.887202041796538,23.758099352051833,6.366047745358096,273806.0,2904.0,1830000.0,0.5944713457359991,0.5365574677115575,0.0,0.0,0.0
6200000.0,21.109375,1.3339611339486312E-7,6200000.0,67.10000000000001,24.179572271386434,30.000000000000004,15.206185567010323,303806.0,2904.0,1860000.0,0.5914470095477218,0.5123341375224161,0.0,0.0,0.0
6300000.0,21.4375,1.354116506667601E-7,6300000.0,67.5,25.90262008335386,30.107526881720435,18.13602015113352,333806.0,2904.0,1890000.0,0.5943224400774975,0.5880133317303242,0.0,0.0,0.0
6400000.0,21.796875,1.3761914386931396E-7,6400000.0,64.7,22.69892435443749,27.216494845360828,17.523364485981322,363806.0,2904.0,1920000.0,0.5854444172648983,0.5377784684844853,0.0,0.0,0.0
6500000.0,22.125,1.3963468114121095E-7,6500000.0,70.3,29.602836744948924,37.866108786610866,17.95580110497236,393806.0,2904.0,1950000.0,0.6001153074346773,0.5527659688744163,0.0,0.0,0.0
6600000.0,22.46875,1.4174619637843637E-7,6600000.0,69.19999999999999,30.511373122340586,36.494845360824726,22.80701754385964,423806.0,2904.0,1980000.0,0.5795027452564564,0.5829780979312619,0.0,0.0,0.0
6700000.0,22.8125,1.438577116156618E-7,6700000.0,69.69999999999999,28.073607049261273,33.112582781456936,17.438692098092627,453806.0,2904.0,2010000.0,0.5881433075709652,0.5464790485335487,0.0,0.0,0.0
6800000.0,23.15625,1.4596922685288722E-7,6800000.0,69.5,25.837669600739172,35.517970401691315,14.084507042253502,483806.0,2904.0,2040000.0,0.5793575889953512,0.508145520074744,0.0,0.0,0.0
6900000.0,23.5,1.4808074209011264E-7,6900000.0,67.0,23.58387017594235,31.106471816283932,15.167095115681247,513806.0,2904.0,2070000.0,0.5764101431093362,0.5272953944696015,0.0,0.0,0.0
7000000.0,23.84375,1.5019225732733806E-7,7000000.0,69.3,30.035825303785796,31.16591928251119,21.882951653944012,543806.0,2904.0,2100000.0,0.6027308179807849,0.5246618358353523,0.0,0.0,0.0
7100000.0,24.171875,1.5220779459923505E-7,7100000.0,68.2,26.443375277572184,31.90578158458245,16.315789473684227,573806.0,2904.0,2130000.0,0.5820284191110408,0.5185795725913472,0.0,0.0,0.0
7200000.0,24.515625,1.5431930983646047E-7,7200000.0,66.7,19.35483870967742,29.299363057324847,7.500000000000007,603806.0,2904.0,2160000.0,0.5790673855420625,0.5372038208966265,0.0,0.0,0.0
7300000.0,24.859375,1.564308250736859E-7,7300000.0,66.2,21.356941762255993,28.842105263157897,11.286089238845154,633806.0,2904.0,2190000.0,0.5877014565107093,0.588066377517078,0.0,0.0,0.0
7400000.0,25.171875,1.5835038438025445E-7,7400000.0,67.60000000000001,25.11371620872011,31.501057082452437,14.285714285714299,663806.0,2904.0,2220000.0,0.5847115617149794,0.5530551362792188,0.0,0.0,0.0
7500000.0,25.515625,1.6046189961747987E-7,7500000.0,69.5,26.96080309590404,33.26039387308533,16.208791208791194,693806.0,2904.0,2250000.0,0.6175254181578871,0.6027996170810874,0.0,0.0,0.0
7600000.0,25.859375,1.625734148547053E-7,7600000.0,69.8,29.48274895858628,33.18584070796459,20.105820105820094,723806.0,2904.0,2280000.0,0.6083007879233998,0.5170624220917407,0.0,0.0,0.0
7700000.0,26.203125,1.6468493009193072E-7,7700000.0,70.0,30.98911008157087,36.30573248407642,21.671018276762393,753806.0,2904.0,2310000.0,0.5644866519085728,0.5670256830166165,0.0,0.0,0.0
7800000.0,26.53125,1.667004673638277E-7,7800000.0,69.3,27.230492083056788,34.957627118644055,18.351063829787222,783806.0,2904.0,2340000.0,0.5672310096047765,0.5029135417269518,0.0,0.0,0.0
7900000.0,26.875,1.6881198260105313E-7,7900000.0,67.2,27.70330140229147,34.00402414486922,21.34292565947244,813805.0,2904.0,2369999.0,0.6111661623842709,0.6648005358329957,0.0,0.0,0.0
8000000.0,27.1875,1.707315419076217E-7,8000000.0,64.8,19.780124614283704,24.786324786324787,11.779448621553895,843806.0,2904.0,2400000.0,0.5842722888027951,0.5114724798936885,0.0,0.0,0.0
8100000.0,27.53125,1.728430571448471E-7,8100000.0,68.10000000000001,24.466291602735332,32.27176220806795,13.079019073569494,873806.0,2904.0,2430000.0,0.5871128380824395,0.5829682051837555,0.0,0.0,0.0
8200000.0,27.875,1.7495457238207253E-7,8200000.0,68.30000000000001,27.81608357850059,33.26315789473685,19.543147208121844,903806.0,2904.0,2460000.0,0.5613335449731092,0.5167925721670923,0.0,0.0,0.0
8300000.0,28.21875,1.7706608761929795E-7,8300000.0,68.89999999999999,28.167556680648186,33.40471092077087,19.010416666666654,933806.0,2904.0,2490000.0,0.586965775613573,0.5855538106452146,0.0,0.0,0.0
8400000.0,28.546875,1.7908162489119494E-7,8400000.0,68.0,26.139301277790096,32.9140461215933,17.525773195876305,963806.0,2904.0,2520000.0,0.5839796235488833,0.5071543057599275,0.0,0.0,0.0
8500000.0,28.890625,1.8119314012842036E-7,8500000.0,67.10000000000001,24.07809110629067,29.550321199143475,15.641025641025655,993806.0,2904.0,2550000.0,0.5810086633480639,0.5232183493503907,0.0,0.0,0.0
8600000.0,29.234375,1.8330465536564578E-7,8600000.0,65.0,17.831502932241506,23.74727668845316,5.660377358490571,1023806.0,2904.0,2580000.0,0.5838333459006523,0.5599964807672688,0.0,0.0,0.0
8700000.0,29.578125,1.854161706028712E-7,8700000.0,65.2,20.66676393346952,27.196652719665277,11.224489795918377,1053806.0,2904.0,2610000.0,0.5808631298783012,0.5151981827602753,0.0,0.0,0.0
8800000.0,29.890625,1.8733572990943977E-7,8800000.0,65.4,23.039965835083102,30.382293762575458,15.196078431372563,1083806.0,2904.0,2640000.0,0.5779080246462016,0.5438898234842888,0.0,0.0,0.0
8900000.0,30.25,1.8954322311199362E-7,8900000.0,65.10000000000001,18.425924194543654,22.271714922048996,7.1808510638297935,1113806.0,2904.0,2670000.0,0.5749679533290988,0.5687799863117968,0.0,0.0,0.0
9000000.0,30.5625,1.9146278241856218E-7,9000000.0,65.7,20.99759537870483,27.637130801687764,12.276214833759601,1143806.0,2904.0,2700000.0,0.572042839442909,0.544178299382038,0.0,0.0,0.0
9100000.0,30.90625,1.935742976557876E-7,9100000.0,67.10000000000001,23.619107759741475,31.02725366876311,14.09921671018278,1173805.0,2904.0,2729999.0,0.5864365376678408,0.6601734135819282,0.0,0.0,0.0
9200000.0,31.265625,1.9578179085834145E-7,9200000.0,66.10000000000001,21.875000000000004,30.532786885245905,12.628865979381453,1203806.0,2904.0,2760000.0,0.595120966889135,0.5455505911696614,0.0,0.0,0.0
9300000.0,31.59375,1.9779732813023844E-7,9300000.0,65.5,25.093795595080948,27.974947807933198,18.439716312056753,1233806.0,2904.0,2790000.0,0.5577786963895105,0.5359352150463944,0.0,0.0,0.0
9400000.0,31.9375,1.9990884336746386E-7,9400000.0,69.3,28.589372609953738,34.68085106382977,19.633507853403128,1263806.0,2904.0,2820000.0,0.5660953465232652,0.5144029467541082,0.0,0.0,0.0
9500000.0,32.265625,2.0192438063936085E-7,9500000.0,66.5,18.607137303685274,26.211453744493397,5.898876404494388,1293806.0,2904.0,2850000.0,0.5576389816586145,0.5574046327066629,0.0,0.0,0.0
9600000.0,32.609375,2.0403589587658628E-7,9600000.0,68.89999999999999,26.67653743504624,33.40471092077087,16.17250673854446,1323806.0,2904.0,2880000.0,0.5831025070794605,0.5489782961269798,0.0,0.0,0.0
9700000.0,32.96875,2.0624338907914013E-7,9700000.0,66.60000000000001,22.889385516133206,26.75438596491228,11.64021164021165,1353806.0,2904.0,2910000.0,0.5411033299240503,0.5248950890279506,0.0,0.0,0.0
9800000.0,33.296875,2.0825892635103712E-7,9800000.0,68.0,25.703035031018988,33.609958506224075,15.343915343915357,1383806.0,2904.0,2940000.0,0.5771846031039763,0.5687119623262672,0.0,0.0,0.0
9900000.0,33.609375,2.1017848565760568E-7,9900000.0,70.19999999999999,28.92408233357977,38.045738045738034,18.35616438356163,1413806.0,2904.0,2970000.0,0.5742482121492195,0.506698295177562,0.0,0.0,0.0
1.0E7,33.953125,2.122900008948311E-7,1.0E7,67.80000000000001,22.744721689059524,30.90128755364808,12.972972972972984,1443806.0,2904.0,3000000.0,0.5945249173740742,0.5628757537918694,0.0,0.0,0.0
