learning evaluation instances,evaluation time (cpu seconds),model cost (RAM-Hours),classified instances,classifications correct (percent),Kappa Statistic (percent),Kappa Temporal Statistic (percent),Kappa M Statistic (percent),model training instances,model serialized size (bytes),labeling cost,newThreshold,maxPosterior,accuracyBaseLearner (percent),Change detected,Warning detected
100000.0,0.109375,4.6558367709318796E-9,100000.0,62.2,10.059532024041214,19.7452229299363,-1.8867924528301903,29700.0,5144.0,0.0,1.0,0.0,?,0.0,12.0
200000.0,0.234375,9.485261721743477E-9,200000.0,63.4,14.653085780644428,24.84599589322382,3.9370078740157513,59700.0,5144.0,0.0,1.0,0.0,?,0.0,0.0
300000.0,0.375,1.4365392012728585E-8,300000.0,65.0,17.16564504295553,22.222222222222218,6.166219839142097,89700.0,5144.0,0.0,1.0,0.0,?,0.0,0.0
400000.0,0.5,1.821175424589051E-8,400000.0,62.5,8.726256656898371,16.666666666666657,-3.5911602209944786,119700.0,5144.0,0.0,1.0,0.0,?,0.0,0.0
500000.0,0.609375,2.1147231260935462E-8,500000.0,63.800000000000004,14.32155451941965,24.4258872651357,0.8219178082191789,149700.0,5144.0,0.0,1.0,0.0,?,0.0,0.0
600000.0,0.734375,2.4010530776447718E-8,600000.0,50.2,4.521244981613628,0.20040080160320656,-27.365728900255746,179700.0,5144.0,0.0,1.0,0.0,?,0.0,0.0
700000.0,0.84375,2.6085827913549208E-8,700000.0,61.6,8.899823018926996,14.093959731543611,-2.9490616621983943,209700.0,5144.0,0.0,1.0,0.0,?,0.0,0.0
800000.0,0.984375,2.8201094311144615E-8,800000.0,64.4,15.398033241918855,25.210084033613445,4.043126684636123,239700.0,5144.0,0.0,1.0,0.0,?,0.0,0.0
900000.0,1.09375,2.9416211570302642E-8,900000.0,61.1,10.6716390491237,18.27731092436974,0.5115089514066501,269700.0,5144.0,0.0,1.0,0.0,?,0.0,0.0
1000000.0,1.21875,3.0313385650515555E-8,1000000.0,63.6,15.840485350695477,23.36842105263158,5.699481865284979,299700.0,5144.0,0.0,1.0,0.0,?,0.0,0.0
1100000.0,1.359375,3.630499122664332E-8,1100000.0,60.0,8.159141839021347,17.525773195876283,-0.5025125628140708,329400.0,5144.0,0.0,1.0,0.0,?,0.0,0.0
1200000.0,1.484375,4.113933149104316E-8,1200000.0,61.199999999999996,10.622143594279802,14.725274725274714,-1.0416666666666676,359400.0,5144.0,0.0,1.0,0.0,?,0.0,0.0
1300000.0,1.609375,4.5482140396618176E-8,1300000.0,67.30000000000001,17.923334872793724,28.28947368421053,5.763688760806922,389400.0,5144.0,0.0,1.0,0.0,?,0.0,0.0
1400000.0,1.71875,4.885200825002458E-8,1400000.0,63.9,14.372189225602,22.198275862068964,1.90217391304348,419400.0,5144.0,0.0,1.0,0.0,?,0.0,0.0
1500000.0,1.84375,5.221175443794992E-8,1500000.0,63.4,16.645410487191644,24.22360248447205,6.632653061224496,449400.0,5144.0,0.0,1.0,0.0,?,0.0,0.0
1600000.0,1.96875,5.5079969267050424E-8,1600000.0,51.6,8.028503562945371,-5.2173913043478315,-29.066666666666663,479400.0,5144.0,0.0,1.0,0.0,?,0.0,0.0
1700000.0,2.078125,5.7159567303541636E-8,1700000.0,65.7,20.109191868373482,23.946784922394677,9.49868073878629,509400.0,5144.0,0.0,1.0,0.0,?,0.0,0.0
1800000.0,2.203125,5.904471941499247E-8,1800000.0,64.1,11.866370760256899,20.399113082039907,-0.5602240896358549,539400.0,5144.0,0.0,1.0,0.0,?,0.0,0.0
1900000.0,2.328125,6.043834016761847E-8,1900000.0,51.6,8.140916389254762,-4.310344827586212,-27.03412073490813,569400.0,5144.0,0.0,1.0,0.0,?,0.0,0.0
2000000.0,2.4375,6.122766838719448E-8,2000000.0,61.1,11.143394916214376,19.12681912681912,2.506265664160403,599400.0,5144.0,0.0,1.0,0.0,?,0.0,0.0
2100000.0,2.5625,6.655845532400742E-8,2100000.0,61.9,9.63769697084687,12.413793103448285,-4.958677685950417,629100.0,5144.0,0.0,1.0,0.0,?,0.0,0.0
2200000.0,2.6875,7.139771090199551E-8,2200000.0,57.599999999999994,16.206527195329684,10.359408033826625,-18.767507002801135,659100.0,5144.0,0.0,1.0,0.0,?,0.0,0.0
2300000.0,2.796875,7.520196959376335E-8,2300000.0,63.2,14.18110585107624,21.03004291845493,4.9095607235142165,689100.0,5144.0,0.0,1.0,0.0,?,0.0,0.0
2400000.0,2.921875,7.905816245410177E-8,2400000.0,62.7,12.430625334547878,18.73638344226579,1.5831134564643814,719100.0,5144.0,0.0,1.0,0.0,?,0.0,0.0
2500000.0,3.046875,8.242282395561536E-8,2500000.0,59.3,9.511316643692457,16.768916155419216,0.7317073170731713,749100.0,5144.0,0.0,1.0,0.0,?,0.0,0.0
2600000.0,3.15625,8.493681283046802E-8,2600000.0,66.9,20.699568758984196,26.11607142857143,8.055555555555562,779100.0,5144.0,0.0,1.0,0.0,?,0.0,0.0
2700000.0,3.28125,8.731841161433194E-8,2700000.0,61.5,13.206186031831907,17.73504273504273,-4.054054054054058,809100.0,5144.0,0.0,1.0,0.0,?,0.0,0.0
2800000.0,3.390625,8.897222061124113E-8,2800000.0,64.0,15.35983824324642,20.704845814977972,2.4390243902439046,839100.0,5144.0,0.0,1.0,0.0,?,0.0,0.0
2900000.0,3.5,9.019593966917859E-8,2900000.0,65.7,18.901793145191803,24.282560706401764,7.79569892473119,869100.0,5144.0,0.0,1.0,0.0,?,0.0,0.0
3000000.0,3.640625,9.121631996499168E-8,3000000.0,63.2,13.801180549048997,23.492723492723492,1.6042780748663117,899100.0,5144.0,0.0,1.0,0.0,?,0.0,0.0
3100000.0,3.765625,9.655202221539286E-8,3100000.0,64.0,12.959381044487426,24.210526315789473,-1.1235955056179785,928800.0,5144.0,0.0,1.0,0.0,?,0.0,0.0
3200000.0,3.890625,1.013961931069692E-7,3200000.0,60.699999999999996,10.395082445644237,12.472160356347427,1.5037593984962419,958800.0,5144.0,0.0,1.0,0.0,?,0.0,0.0
3300000.0,4.015625,1.0574883263972071E-7,3300000.0,63.7,15.28429935681413,24.375,4.9738219895288,988800.0,5144.0,0.0,1.0,0.0,?,0.0,0.0
3400000.0,4.140625,1.0960994081364738E-7,3400000.0,64.60000000000001,14.004615571480622,23.043478260869563,-2.6086956521739157,1018800.0,5144.0,0.0,1.0,0.0,?,0.0,0.0
3500000.0,4.25,1.1255832052686149E-7,3500000.0,62.9,11.333957899164465,16.62921348314606,-0.8152173913043484,1048800.0,5144.0,0.0,1.0,0.0,?,0.0,0.0
3600000.0,4.375,1.1543636598313848E-7,3600000.0,61.5,10.618104825229373,22.379032258064512,-0.522193211488251,1078800.0,5144.0,0.0,1.0,0.0,?,0.0,0.0
3700000.0,4.5,1.1782288008059064E-7,3700000.0,63.4,15.236965946566858,21.794871794871792,4.687500000000004,1108800.0,5144.0,0.0,1.0,0.0,?,0.0,0.0
3800000.0,4.609375,1.1948098997688955E-7,3800000.0,62.5,13.629495872641511,22.52066115702479,1.0554089709762544,1138800.0,5144.0,0.0,1.0,0.0,?,0.0,0.0
3900000.0,4.734375,1.2088444135669206E-7,3900000.0,63.9,16.760436073859545,24.31865828092243,7.90816326530613,1168800.0,5144.0,0.0,1.0,0.0,?,0.0,0.0
4000000.0,4.859375,1.217963613776697E-7,4000000.0,62.8,12.522045855379194,22.17573221757322,0.8000000000000007,1198800.0,5144.0,0.0,1.0,0.0,?,0.0,0.0
4100000.0,4.984375,1.2713697894165914E-7,4100000.0,64.3,13.071004188175698,26.239669421487605,-0.5633802816901414,1228500.0,5144.0,0.0,1.0,0.0,?,0.0,0.0
4200000.0,5.09375,1.3137992937117816E-7,4200000.0,62.4,12.165950289665487,19.999999999999996,2.0833333333333353,1258500.0,5144.0,0.0,1.0,0.0,?,0.0,0.0
4300000.0,5.21875,1.357374842175179E-7,4300000.0,61.8,14.260960905691542,22.672064777327932,7.50605326876514,1288500.0,5144.0,0.0,1.0,0.0,?,0.0,0.0
4400000.0,5.34375,1.3960350770503282E-7,4400000.0,60.9,11.108079843586598,22.266401590457257,2.9776674937965284,1318500.0,5144.0,0.0,1.0,0.0,?,0.0,0.0
4500000.0,5.453125,1.4255618831763663E-7,4500000.0,62.3,13.970937237577118,23.217922606924642,4.797979797979802,1348500.0,5144.0,0.0,1.0,0.0,?,0.0,0.0
4600000.0,5.578125,1.4543914908750189E-7,4600000.0,63.2,15.755544567148325,24.123711340206185,6.59898477157361,1378500.0,5144.0,0.0,1.0,0.0,?,0.0,0.0
4700000.0,5.703125,1.478305784985423E-7,4700000.0,64.2,16.179273335175203,24.47257383966245,4.021447721179628,1408500.0,5144.0,0.0,1.0,0.0,?,0.0,0.0
4800000.0,5.8125,1.4949298929423094E-7,4800000.0,50.8,6.731625940740458,-3.1446540880503173,-24.556962025316448,1438500.0,5144.0,0.0,1.0,0.0,?,0.0,0.0
4900000.0,5.9375,1.5090135598762168E-7,4900000.0,65.0,15.005633912266378,22.737306843267106,0.5681818181818187,1468500.0,5144.0,0.0,1.0,0.0,?,0.0,0.0
5000000.0,6.046875,1.517690058487157E-7,5000000.0,63.3,15.493865821758837,24.016563146997928,5.655526992287922,1498500.0,5144.0,0.0,1.0,0.0,?,0.0,0.0
5100000.0,6.171875,1.5718930323297777E-7,5100000.0,48.1,-4.697044275351203,-3.8000000000000034,-7.45341614906833,1528200.0,5144.0,0.0,1.0,0.0,?,0.0,0.0
5200000.0,6.296875,1.6211806925841502E-7,5200000.0,50.1,-0.7958631277017039,2.3483365949119395,-5.274261603375533,1558200.0,5144.0,0.0,1.0,0.0,?,0.0,0.0
5300000.0,6.421875,1.6655530392502744E-7,5300000.0,53.800000000000004,5.8848454229885485,9.23379174852653,1.9108280254777086,1588200.0,5144.0,0.0,1.0,0.0,?,0.0,0.0
5400000.0,6.546875,1.7050100723281502E-7,5400000.0,47.599999999999994,-6.2574268669065,-2.7450980392156885,-10.782241014799164,1618200.0,5144.0,0.0,1.0,0.0,?,0.0,0.0
5500000.0,6.65625,1.7352340768815742E-7,5500000.0,48.699999999999996,-2.564717737098439,1.91204588910134,-2.3952095808383254,1648200.0,5144.0,0.0,1.0,0.0,?,0.0,0.0
5600000.0,6.796875,1.7685637835206257E-7,5600000.0,49.5,-1.7578927854661426,3.441682600382412,-4.989604989604994,1678200.0,5144.0,0.0,1.0,0.0,?,0.0,0.0
5700000.0,6.9375,1.796363762372898E-7,5700000.0,50.5,0.7044965818275328,0.0,-0.6097560975609762,1708200.0,5144.0,0.0,1.0,0.0,?,0.0,0.0
5800000.0,7.0625,1.8161595410977803E-7,5800000.0,51.0,1.0244974468360089,-1.0309278350515474,-3.813559322033902,1738200.0,5144.0,0.0,1.0,0.0,?,0.0,0.0
5900000.0,7.1875,1.8310400062344142E-7,5900000.0,53.400000000000006,4.736594639900244,9.514563106796125,-5.191873589164791,1768200.0,5144.0,0.0,1.0,0.0,?,0.0,0.0
6000000.0,7.296875,1.8397595138392516E-7,6000000.0,51.1,1.7898745159787333,1.0121457489878551,0.4073319755600819,1798200.0,5144.0,0.0,1.0,0.0,?,0.0,0.0
6100000.0,7.40625,1.8872301249454422E-7,6100000.0,51.1,-0.4313000616142927,0.0,-8.666666666666675,1827900.0,5144.0,0.0,1.0,0.0,?,0.0,0.0
6200000.0,7.53125,1.9365669383356973E-7,6200000.0,47.699999999999996,-4.784420580221192,-3.155818540433928,-11.276595744680861,1857900.0,5144.0,0.0,1.0,0.0,?,0.0,0.0
6300000.0,7.65625,1.9809884381377038E-7,6300000.0,49.6,-0.9587070875416067,2.702702702702705,-3.4907597535934323,1887900.0,5144.0,0.0,1.0,0.0,?,0.0,0.0
6400000.0,7.78125,2.020494624351462E-7,6400000.0,49.4,-2.242050983625106,-3.2653061224489828,-6.7510548523206815,1917900.0,5144.0,0.0,1.0,0.0,?,0.0,0.0
6500000.0,7.890625,2.0507616378987833E-7,6500000.0,49.1,-3.2940450678615543,-4.089979550102253,-8.760683760683769,1947900.0,5144.0,0.0,1.0,0.0,?,0.0,0.0
6600000.0,8.015625,2.080437196936045E-7,6600000.0,54.400000000000006,7.862407862407873,11.627906976744196,4.201680672268911,1977900.0,5144.0,0.0,1.0,0.0,?,0.0,0.0
6700000.0,8.140625,2.105197442385058E-7,6700000.0,47.9,-4.821381147442033,-4.408817635270545,-8.316008316008324,2007900.0,5144.0,0.0,1.0,0.0,?,0.0,0.0
6800000.0,8.25,2.122561757763227E-7,6800000.0,52.5,3.7495136817533323,7.045009784735819,-0.849256900212315,2037900.0,5144.0,0.0,1.0,0.0,?,0.0,0.0
6900000.0,8.375,2.1374913760357435E-7,6900000.0,49.3,-1.4000000000000012,-8.565310492505361,-0.7952286282306171,2067900.0,5144.0,0.0,1.0,0.0,?,0.0,0.0
7000000.0,8.5,2.1475056807200117E-7,7000000.0,50.3,-0.6227678752196628,-5.073995771670195,-5.970149253731349,2097900.0,5144.0,0.0,1.0,0.0,?,0.0,0.0
7100000.0,8.625,2.2018069608343975E-7,7100000.0,50.9,0.9681323114158988,1.9960079840319378,-3.3684210526315823,2127600.0,5144.0,0.0,1.0,0.0,?,0.0,0.0
7200000.0,8.75,2.251192927360535E-7,7200000.0,50.3,0.060325759099151,-2.898550724637684,-1.6359918200409014,2157600.0,5144.0,0.0,1.0,0.0,?,0.0,0.0
7300000.0,8.875,2.295663580298424E-7,7300000.0,51.9,1.6408192644941824,-0.8385744234800846,-6.651884700665195,2187600.0,5144.0,0.0,1.0,0.0,?,0.0,0.0
7400000.0,8.984375,2.3302745022293598E-7,7400000.0,52.400000000000006,3.358495316135488,5.55555555555556,-1.9271948608137062,2217600.0,5144.0,0.0,1.0,0.0,?,0.0,0.0
7500000.0,9.125,2.369244531210926E-7,7500000.0,51.5,3.501790688420227,6.730769230769236,0.41067761806981556,2247600.0,5144.0,0.0,1.0,0.0,?,0.0,0.0
7600000.0,9.25,2.39896924338407E-7,7600000.0,52.0,4.752455600754049,1.4373716632443545,-1.0526315789473695,2277600.0,5144.0,0.0,1.0,0.0,?,0.0,0.0
7700000.0,9.375,2.423778641968966E-7,7700000.0,52.900000000000006,6.38192992359494,1.0504201680672278,3.086419753086423,2307600.0,5144.0,0.0,1.0,0.0,?,0.0,0.0
7800000.0,9.5,2.443672726965613E-7,7800000.0,50.0,0.3904693601083676,7.749077490774904,-2.040816326530614,2337600.0,5144.0,0.0,1.0,0.0,?,0.0,0.0
7900000.0,9.609375,2.456779151947962E-7,7900000.0,51.9,4.814298831649942,6.237816764132559,-3.887688984881213,2367600.0,5144.0,0.0,1.0,0.0,?,0.0,0.0
8000000.0,9.734375,2.466842609768113E-7,8000000.0,49.7,-0.7692924112508923,-0.6000000000000005,0.19841269841269857,2397600.0,5144.0,0.0,1.0,0.0,?,0.0,0.0
8100000.0,9.875,2.527986847174665E-7,8100000.0,56.2,12.354775063933005,12.574850299401207,10.612244897959194,2427300.0,5144.0,0.0,1.0,0.0,?,0.0,0.0
8200000.0,10.0,2.5774219668366846E-7,8200000.0,53.5,9.06246333163844,5.6795131845841835,-1.528384279475984,2457300.0,5144.0,0.0,1.0,0.0,?,0.0,0.0
8300000.0,10.125,2.621941772910456E-7,8300000.0,51.1,3.9088843998333576,0.4073319755600819,-5.84415584415585,2487300.0,5144.0,0.0,1.0,0.0,?,0.0,0.0
8400000.0,10.25,2.6615462653959793E-7,8400000.0,50.6,1.9401557047406297,-4.883227176220811,-6.00858369098713,2517300.0,5144.0,0.0,1.0,0.0,?,0.0,0.0
8500000.0,10.375,2.696235444293254E-7,8500000.0,54.400000000000006,10.349166404529742,5.590062111801247,-0.8849557522123902,2547300.0,5144.0,0.0,1.0,0.0,?,0.0,0.0
8600000.0,10.484375,2.7222875764386525E-7,8600000.0,54.300000000000004,9.28579935686213,5.1867219917012495,4.791666666666671,2577300.0,5144.0,0.0,1.0,0.0,?,0.0,0.0
8700000.0,10.59375,2.744038809194333E-7,8700000.0,50.8,1.8022872881863328,1.204819277108435,0.20283975659229225,2607300.0,5144.0,0.0,1.0,0.0,?,0.0,0.0
8800000.0,10.71875,2.763982047326863E-7,8800000.0,53.0,6.111539491084594,4.8582995951417045,5.432595573440649,2637300.0,5144.0,0.0,1.0,0.0,?,0.0,0.0
8900000.0,10.828125,2.7771314813031094E-7,8900000.0,53.0,8.08140467259378,3.8854805725971406,-4.6770601336302935,2667300.0,5144.0,0.0,1.0,0.0,?,0.0,0.0
9000000.0,10.953125,2.787244092259142E-7,9000000.0,52.300000000000004,5.054220608608423,4.980079681274905,2.053388090349078,2697300.0,5144.0,0.0,1.0,0.0,?,0.0,0.0
9100000.0,11.078125,2.841643678645293E-7,9100000.0,48.6,-0.8859909791436896,-1.7821782178217838,-14.476614699331863,2727000.0,5144.0,0.0,1.0,0.0,?,0.0,0.0
9200000.0,11.203125,2.8911279514431954E-7,9200000.0,53.400000000000006,8.195429472025213,8.806262230919772,-0.8658008658008667,2757000.0,5144.0,0.0,1.0,0.0,?,0.0,0.0
9300000.0,11.328125,2.9356969106528495E-7,9300000.0,48.5,-2.207686017988557,-9.110169491525433,-6.625258799171848,2787000.0,5144.0,0.0,1.0,0.0,?,0.0,0.0
9400000.0,11.453125,2.9753505562742553E-7,9400000.0,62.0,24.972358237245306,27.06333973128599,19.14893617021276,2817000.0,5144.0,0.0,1.0,0.0,?,0.0,0.0
9500000.0,11.5625,3.005746596803268E-7,9500000.0,59.599999999999994,20.172301369321662,10.81677704194259,14.225053078556252,2847000.0,5144.0,0.0,1.0,0.0,?,0.0,0.0
9600000.0,11.703125,3.039297492553791E-7,9600000.0,63.7,27.666188426590143,30.85714285714286,26.21951219512195,2877000.0,5144.0,0.0,1.0,0.0,?,0.0,0.0
9700000.0,11.828125,3.0642051974104513E-7,9700000.0,65.8,31.700536809815954,31.46292585170341,29.045643153526974,2907000.0,5144.0,0.0,1.0,0.0,?,0.0,0.0
9800000.0,11.953125,3.0841975886788634E-7,9800000.0,62.4,26.077382824787666,24.649298597194388,18.260869565217387,2937000.0,5144.0,0.0,1.0,0.0,?,0.0,0.0
9900000.0,12.078125,3.099274666359027E-7,9900000.0,64.2,28.830433537962406,30.078125000000007,25.72614107883818,2967000.0,5144.0,0.0,1.0,0.0,?,0.0,0.0
1.0E7,12.1875,3.1081662099394535E-7,1.0E7,62.1,25.024727992087037,24.95049504950495,20.21052631578947,2997000.0,5144.0,0.0,1.0,0.0,?,0.0,0.0
