learning evaluation instances,evaluation time (cpu seconds),model cost (RAM-Hours),classified instances,classifications correct (percent),Kappa Statistic (percent),Kappa Temporal Statistic (percent),Kappa M Statistic (percent),model training instances,model serialized size (bytes),labeling cost,newThreshold,maxPosterior,accuracyBaseLearner (percent),Change detected,Warning detected
100000.0,0.140625,9.874929673969746E-10,100000.0,54.400000000000006,8.880185436815609,5.7851239669421535,7.878787878787887,27270.0,9208.0,0.0,1.0,0.0,?,0.0,2.0
200000.0,0.328125,2.2921206740041572E-9,200000.0,54.800000000000004,11.228077066598583,3.8297872340425565,5.833333333333339,54543.0,9112.0,0.0,1.0,0.0,?,0.0,0.0
300000.0,0.5,3.485539410677221E-9,300000.0,55.60000000000001,11.445473148432555,12.252964426877481,9.387755102040824,81816.0,9208.0,0.0,1.0,0.0,?,0.0,0.0
400000.0,0.671875,4.6721995911664435E-9,400000.0,58.5,17.319477538790103,16.999999999999993,13.361169102296442,109089.0,9208.0,0.0,1.0,0.0,?,0.0,0.0
500000.0,0.84375,5.8521012154718245E-9,500000.0,56.99999999999999,12.87080564110875,12.955465587044523,8.510638297872324,136362.0,9208.0,0.0,1.0,0.0,?,0.0,0.0
600000.0,1.0,6.918594913764133E-9,600000.0,54.300000000000004,8.243986668272898,11.089494163424133,6.7346938775510266,163635.0,9208.0,0.0,1.0,0.0,?,0.0,0.0
700000.0,1.15625,7.978944470071132E-9,700000.0,55.60000000000001,10.196717730484991,10.843373493975914,7.306889352818378,190908.0,9208.0,0.0,1.0,0.0,?,0.0,0.0
800000.0,1.328125,9.134301864024667E-9,800000.0,58.199999999999996,16.002186354575255,20.07648183556405,16.39999999999999,218181.0,9112.0,0.0,1.0,0.0,?,0.0,0.0
900000.0,1.5,1.0287169263594682E-8,900000.0,54.0,9.210048473939333,7.444668008048297,2.7484143763213558,245454.0,9208.0,0.0,1.0,0.0,?,0.0,0.0
1000000.0,1.65625,1.1325205883218185E-8,1000000.0,59.199999999999996,20.11121771651229,17.57575757575757,10.329670329670314,272727.0,9112.0,0.0,1.0,0.0,?,0.0,0.0
1100000.0,1.828125,1.2464556170420516E-8,1100000.0,54.2,7.489324914457934,1.7167381974248945,3.983228511530402,300000.0,9208.0,0.0,1.0,0.0,?,0.0,0.0
1200000.0,2.0,1.3667223457660942E-8,1200000.0,58.8,18.889015761517953,17.599999999999994,12.526539278131624,327270.0,9112.0,0.0,1.0,0.0,?,0.0,0.0
1300000.0,2.171875,1.4867400750517846E-8,1300000.0,57.4,13.776352861167766,18.546845124282978,9.745762711864392,354543.0,9208.0,0.0,1.0,0.0,?,0.0,0.0
1400000.0,2.328125,1.5952326874766087E-8,1400000.0,55.300000000000004,10.944821650569015,10.600000000000009,12.180746561886062,381816.0,9208.0,0.0,1.0,0.0,?,0.0,0.0
1500000.0,2.5,1.713898705525531E-8,1500000.0,54.7,9.410870695516538,13.549618320610698,3.617021276595748,409089.0,9208.0,0.0,1.0,0.0,?,0.0,0.0
1600000.0,2.671875,1.831888867956069E-8,1600000.0,55.00000000000001,9.098254686489996,10.536779324055676,6.054279749478085,436362.0,9208.0,0.0,1.0,0.0,?,0.0,0.0
1700000.0,2.84375,1.949203174768223E-8,1700000.0,54.900000000000006,9.545279507091987,6.818181818181825,9.072580645161299,463635.0,9208.0,0.0,1.0,0.0,?,0.0,0.0
1800000.0,3.0,2.055238130398923E-8,1800000.0,54.7,10.418364037620345,11.523437500000009,8.299595141700413,490908.0,9208.0,0.0,1.0,0.0,?,0.0,0.0
1900000.0,3.15625,2.160270620758335E-8,1900000.0,58.599999999999994,17.453582594270394,19.767441860465112,11.538461538461526,518181.0,9112.0,0.0,1.0,0.0,?,0.0,0.0
2000000.0,3.328125,2.2755573607153367E-8,2000000.0,56.2,12.692306158979749,11.515151515151526,12.224448897795602,545454.0,9208.0,0.0,1.0,0.0,?,0.0,0.0
2100000.0,3.484375,2.3793610226776868E-8,2100000.0,54.0,8.840129367746863,3.765690376569041,4.5643153526971,572727.0,9112.0,0.0,1.0,0.0,?,0.0,0.0
2200000.0,3.65625,2.49329605139792E-8,2200000.0,55.800000000000004,10.73772643738515,12.475247524752486,7.724425887265143,600000.0,9208.0,0.0,1.0,0.0,?,0.0,0.0
2300000.0,3.796875,2.5920453481376175E-8,2300000.0,55.50000000000001,9.87086216115495,12.745098039215696,5.919661733615227,627270.0,9208.0,0.0,1.0,0.0,?,0.0,0.0
2400000.0,3.96875,2.712063077423308E-8,2400000.0,54.50000000000001,8.09937386386589,8.450704225352121,4.612159329140465,654543.0,9208.0,0.0,1.0,0.0,?,0.0,0.0
2500000.0,4.140625,2.8314049510906144E-8,2500000.0,55.300000000000004,9.561769109375648,6.48535564853557,3.8709677419354875,681816.0,9208.0,0.0,1.0,0.0,?,0.0,0.0
2600000.0,4.3125,2.9500709691395365E-8,2600000.0,59.9,20.322049928866058,21.984435797665366,13.01518438177873,709089.0,9208.0,0.0,1.0,0.0,?,0.0,0.0
2700000.0,4.484375,3.068061131570075E-8,2700000.0,57.9,15.043547749158497,12.108559498956147,12.108559498956147,736362.0,9208.0,0.0,1.0,0.0,?,0.0,0.0
2800000.0,4.640625,3.1747105013993054E-8,2800000.0,55.800000000000004,11.512220122361382,13.333333333333345,11.60000000000001,763635.0,9208.0,0.0,1.0,0.0,?,0.0,0.0
2900000.0,4.8125,3.290922096413043E-8,2900000.0,60.199999999999996,21.44354396200868,17.9381443298969,15.856236786469335,790908.0,9112.0,0.0,1.0,0.0,?,0.0,0.0
3000000.0,4.984375,3.406884691988429E-8,3000000.0,57.199999999999996,14.37808078868189,15.41501976284584,11.570247933884286,818181.0,9208.0,0.0,1.0,0.0,?,0.0,0.0
3100000.0,5.15625,3.5221714319454305E-8,3100000.0,55.2,10.785407041580392,10.220440881763535,8.196721311475418,845454.0,9208.0,0.0,1.0,0.0,?,0.0,0.0
3200000.0,5.3125,3.625975093907781E-8,3200000.0,56.49999999999999,15.0529991173323,11.224489795918355,10.677618069815182,872727.0,9112.0,0.0,1.0,0.0,?,0.0,0.0
3300000.0,5.484375,3.739910122628014E-8,3300000.0,58.3,16.144496907199894,18.554687499999993,14.197530864197521,900000.0,9208.0,0.0,1.0,0.0,?,0.0,0.0
3400000.0,5.65625,3.8606037075320886E-8,3400000.0,54.400000000000006,8.731365987222391,10.412573673870343,8.617234468937882,927270.0,9208.0,0.0,1.0,0.0,?,0.0,0.0
3500000.0,5.828125,3.9814751491778435E-8,3500000.0,56.99999999999999,13.67957859574741,13.480885311871216,12.065439672801624,954543.0,9208.0,0.0,1.0,0.0,?,0.0,63.0
3600000.0,6.0,4.1016707352052144E-8,3600000.0,59.4,17.85367432826157,10.964912280701741,12.311015118790484,981816.0,9208.0,0.0,1.0,0.0,?,0.0,0.0
3700000.0,6.15625,4.21032503557702E-8,3700000.0,54.2,7.949319870083937,7.474747474747481,6.147540983606563,1009089.0,9208.0,0.0,1.0,0.0,?,0.0,0.0
3800000.0,6.328125,4.329168910367622E-8,3800000.0,56.699999999999996,13.020770559640027,13.39999999999999,11.632653061224477,1036362.0,9208.0,0.0,1.0,0.0,?,0.0,0.0
3900000.0,6.5,4.4473369295398405E-8,3900000.0,56.00000000000001,11.40356882533215,12.871287128712883,6.581740976645442,1063635.0,9208.0,0.0,1.0,0.0,?,0.0,0.0
4000000.0,6.671875,4.564829093093674E-8,4000000.0,57.8,14.164836058904875,16.43564356435643,6.843267108167753,1090908.0,9208.0,0.0,1.0,0.0,?,0.0,0.0
4100000.0,6.828125,4.6710257366713556E-8,4100000.0,55.7,10.558534694404964,9.959349593495944,7.51565762004176,1118181.0,9208.0,0.0,1.0,0.0,?,0.0,0.0
4200000.0,7.0,4.787166188988421E-8,4200000.0,58.199999999999996,15.706432526830763,17.063492063492056,15.725806451612895,1145454.0,9208.0,0.0,1.0,0.0,?,0.0,0.0
4300000.0,7.171875,4.902630785687103E-8,4300000.0,55.300000000000004,8.760613977792305,10.600000000000009,1.1061946902654878,1172727.0,9208.0,0.0,1.0,0.0,?,0.0,0.0
4400000.0,7.34375,5.0174195267674E-8,4400000.0,59.8,20.805966738506026,17.622950819672127,15.010570824524303,1200000.0,9208.0,0.0,1.0,0.0,?,0.0,0.0
4500000.0,7.5,5.127917069734799E-8,4500000.0,54.50000000000001,9.600254311372494,9.000000000000007,5.208333333333338,1227270.0,9208.0,0.0,1.0,0.0,?,0.0,0.0
4600000.0,7.65625,5.237412147430911E-8,4600000.0,60.3,19.64733884939846,21.07355864811133,23.21083172147002,1254543.0,9112.0,0.0,1.0,0.0,?,0.0,0.0
4700000.0,7.828125,5.357180877278249E-8,4700000.0,59.099999999999994,18.592708772879618,20.889748549323013,16.700610997963334,1281816.0,9112.0,0.0,1.0,0.0,?,0.0,0.0
4800000.0,8.0,5.4767006076872355E-8,4800000.0,56.49999999999999,12.020969346892203,8.995815899581574,6.047516198704086,1309089.0,9208.0,0.0,1.0,0.0,?,0.0,0.0
4900000.0,8.171875,5.595544482477838E-8,4900000.0,55.400000000000006,10.884481511527078,11.155378486055787,11.155378486055787,1336362.0,9208.0,0.0,1.0,0.0,?,0.0,0.0
5000000.0,8.34375,5.7271584713210667E-8,5000000.0,55.300000000000004,10.189024978300722,8.401639344262303,8.588957055214731,1363635.0,9208.0,0.0,1.0,0.0,?,0.0,65.0
5100000.0,8.515625,5.854859611847335E-8,5100000.0,55.1,7.670162451161835,4.264392324093821,0.22222222222222243,1390908.0,9112.0,0.0,1.0,0.0,?,0.0,1.0
5200000.0,8.6875,5.981884896755219E-8,5200000.0,53.400000000000006,3.7225888293410536,5.284552845528459,-6.1503416856492095,1418181.0,9112.0,0.0,1.0,0.0,?,0.0,0.0
5300000.0,8.859375,6.108234326044719E-8,5300000.0,50.4,-1.6693450526384916,-3.983228511530402,-8.771929824561413,1445454.0,9112.0,0.0,1.0,0.0,?,0.0,0.0
5400000.0,9.03125,6.233907899715835E-8,5400000.0,55.2,7.047385085254987,6.666666666666673,-4.428904428904406,1472727.0,9112.0,0.0,1.0,0.0,?,0.0,0.0
5500000.0,9.203125,6.34862549809946E-8,5500000.0,52.400000000000006,2.8349336991312106,-1.2765957446808522,-1.7094017094017109,1500000.0,9112.0,0.0,1.0,0.0,?,0.0,0.0
5600000.0,9.359375,6.468403929223617E-8,5600000.0,53.300000000000004,4.008221993833497,5.465587044534418,-3.7777777777777812,1527270.0,9112.0,0.0,1.0,0.0,?,0.0,0.0
5700000.0,9.53125,6.599484347841805E-8,5700000.0,51.9,0.44788105074052376,0.8247422680412378,-9.567198177676547,1554543.0,9112.0,0.0,1.0,0.0,?,0.0,0.0
5800000.0,9.6875,6.7180339505689E-8,5800000.0,51.9,0.28194709345717467,-1.906779661016951,-9.318181818181829,1581816.0,9112.0,0.0,1.0,0.0,?,0.0,0.0
5900000.0,9.859375,6.847762657950321E-8,5900000.0,51.1,-1.496923958255521,1.0121457489878551,-10.633484162895938,1609089.0,9112.0,0.0,1.0,0.0,?,0.0,0.0
6000000.0,10.03125,6.976815509713357E-8,6000000.0,54.2,6.303829268392478,8.032128514056232,-1.1037527593818997,1636362.0,9112.0,0.0,1.0,0.0,?,0.0,0.0
6100000.0,10.203125,7.10519250585801E-8,6100000.0,52.400000000000006,2.3629799803084954,4.609218436873752,-5.309734513274342,1663635.0,9112.0,0.0,1.0,0.0,?,0.0,0.0
6200000.0,10.375,7.232893646384278E-8,6200000.0,53.300000000000004,4.681427778322059,3.7113402061855707,-0.8639308855291584,1690908.0,9112.0,0.0,1.0,0.0,?,0.0,0.0
6300000.0,10.546875,7.359918931292161E-8,6300000.0,55.900000000000006,10.063873004478465,14.202334630350208,4.545454545454549,1718181.0,9112.0,0.0,1.0,0.0,?,0.0,0.0
6400000.0,10.71875,7.486268360581661E-8,6400000.0,53.900000000000006,4.189874470030751,7.429718875502014,-4.772727272727278,1745454.0,9112.0,0.0,1.0,0.0,?,0.0,0.0
6500000.0,10.890625,7.611941934252777E-8,6500000.0,52.400000000000006,1.5813153367738495,2.85714285714286,-7.207207207207214,1772727.0,9112.0,0.0,1.0,0.0,?,0.0,0.0
6600000.0,11.078125,7.737088405216732E-8,6600000.0,54.900000000000006,5.102178231155112,-1.5765765765765782,-10.268948655256704,1800000.0,9112.0,0.0,1.0,0.0,?,0.0,0.0
6700000.0,11.25,7.868844679453305E-8,6700000.0,55.00000000000001,6.907466021225105,2.3861171366594385,-1.1235955056179787,1827270.0,9112.0,0.0,1.0,0.0,?,0.0,0.0
6800000.0,11.421875,7.999925098071494E-8,6800000.0,55.2,7.266344306815929,8.384458077709619,-3.2258064516128804,1854543.0,9112.0,0.0,1.0,0.0,?,0.0,0.0
6900000.0,11.59375,8.130329661071299E-8,6900000.0,53.900000000000006,4.36875077791148,3.5564853556485385,-6.960556844547544,1881816.0,9112.0,0.0,1.0,0.0,?,0.0,0.0
7000000.0,11.765625,8.26005836845272E-8,7000000.0,52.5,1.9810152703260304,5.000000000000004,-6.741573033707872,1909089.0,9112.0,0.0,1.0,0.0,?,0.0,0.0
7100000.0,11.9375,8.389111220215756E-8,7100000.0,54.50000000000001,5.74402147793376,12.835249042145605,-5.324074074074052,1936362.0,9112.0,0.0,1.0,0.0,?,0.0,0.0
7200000.0,12.109375,8.517488216360409E-8,7200000.0,54.300000000000004,5.609715796430925,8.232931726907639,-2.696629213483149,1963635.0,9112.0,0.0,1.0,0.0,?,0.0,0.0
7300000.0,12.265625,8.633580162293379E-8,7300000.0,52.5,3.211345667943597,3.84615384615385,-1.713062098501072,1990908.0,9112.0,0.0,1.0,0.0,?,0.0,0.0
7400000.0,12.4375,8.760605447201262E-8,7400000.0,52.0,0.8284952790231748,3.2258064516129057,-10.344827586206879,2018181.0,9112.0,0.0,1.0,0.0,?,0.0,0.0
7500000.0,12.609375,8.886954876490763E-8,7500000.0,53.5,4.143475572047002,2.9227557411273515,-3.3333333333333366,2045454.0,9112.0,0.0,1.0,0.0,?,0.0,0.0
7600000.0,12.75,8.989778709494403E-8,7600000.0,52.400000000000006,2.1498258842489935,2.0576131687242816,-8.428246013667435,2072727.0,9112.0,0.0,1.0,0.0,?,0.0,0.0
7700000.0,12.90625,9.094067435297699E-8,7700000.0,54.0,5.064989206302046,4.5643153526971,-4.3083900226757414,2100000.0,9112.0,0.0,1.0,0.0,?,0.0,0.0
7800000.0,13.078125,9.225823709534272E-8,7800000.0,51.300000000000004,-1.8615352436728758,-0.828157349896481,-14.051522248243545,2127270.0,9112.0,0.0,1.0,0.0,?,0.0,0.0
7900000.0,13.25,9.356904128152461E-8,7900000.0,52.900000000000006,4.293192015085514,8.720930232558146,-0.6410256410256416,2154543.0,9112.0,0.0,1.0,0.0,?,0.0,0.0
8000000.0,13.421875,9.487308691152266E-8,8000000.0,51.9,0.8051078151551686,-3.887688984881213,-7.126948775055686,2181816.0,9112.0,0.0,1.0,0.0,?,0.0,0.0
8100000.0,13.59375,9.617037398533687E-8,8100000.0,56.10000000000001,9.692336808498393,14.25781250000001,4.772234273318877,2209089.0,9112.0,0.0,1.0,0.0,?,0.0,0.0
8200000.0,13.75,9.73435817286372E-8,8200000.0,55.50000000000001,7.630355363666559,10.642570281124506,-0.45146726862302533,2236362.0,9112.0,0.0,1.0,0.0,?,0.0,0.0
8300000.0,13.90625,9.851064532995222E-8,8300000.0,52.0,0.9770266701874984,4.0000000000000036,-12.149532710280358,2263635.0,9112.0,0.0,1.0,0.0,?,0.0,0.0
8400000.0,14.078125,9.97876567352149E-8,8400000.0,54.50000000000001,4.71523467276491,6.76229508196722,-7.56501182033095,2290908.0,9112.0,0.0,1.0,0.0,?,0.0,0.0
8500000.0,14.25,1.0105790958429373E-7,8500000.0,56.00000000000001,9.31574608408904,13.894324853228976,2.2222222222222245,2318181.0,9112.0,0.0,1.0,0.0,?,0.0,0.0
8600000.0,14.421875,1.0232140387718874E-7,8600000.0,54.2,5.568178537997463,9.486166007905146,-1.552106430155212,2345454.0,9112.0,0.0,1.0,0.0,?,0.0,0.0
8700000.0,14.59375,1.0357813961389989E-7,8700000.0,52.0,1.755305213518476,3.6144578313253044,-4.803493449781664,2372727.0,9112.0,0.0,1.0,0.0,?,0.0,0.0
8800000.0,14.765625,1.0472531559773614E-7,8800000.0,50.9,-1.1328527291452006,-4.025423728813563,-11.085972850678743,2400000.0,9112.0,0.0,1.0,0.0,?,0.0,0.0
8900000.0,14.9375,1.0604714690190219E-7,8900000.0,62.2,22.465673625611764,25.443786982248522,13.501144164759735,2427270.0,9208.0,0.0,1.0,0.0,?,0.0,0.0
9000000.0,15.109375,1.0736221964988441E-7,9000000.0,61.3,20.915823374585166,21.9758064516129,15.131578947368412,2454543.0,9208.0,0.0,1.0,0.0,?,0.0,0.0
9100000.0,15.265625,1.0855159618788293E-7,9100000.0,60.099999999999994,18.94527282330476,21.456692913385826,12.691466083150974,2481816.0,9208.0,0.0,1.0,0.0,?,0.0,0.0
9200000.0,15.421875,1.0973482858389613E-7,9200000.0,61.8,22.433398310591297,24.055666003976143,16.956521739130427,2509089.0,9208.0,0.0,1.0,0.0,?,0.0,0.0
9300000.0,15.59375,1.1102962566332683E-7,9300000.0,60.0,19.59863639287321,18.86409736308316,18.032786885245898,2536362.0,9208.0,0.0,1.0,0.0,?,0.0,0.0
9400000.0,15.765625,1.1231766418657367E-7,9400000.0,59.4,17.1090240914659,20.547945205479447,9.777777777777763,2563635.0,9208.0,0.0,1.0,0.0,?,0.0,0.0
9500000.0,15.921875,1.1348246415663095E-7,9500000.0,62.0,25.637172020790285,19.83122362869198,12.844036697247715,2590908.0,9208.0,0.0,1.0,0.0,?,0.0,0.0
9600000.0,16.09375,1.1475698556751011E-7,9600000.0,63.3,27.676178464449002,25.557809330628807,20.21739130434782,2618181.0,9208.0,0.0,1.0,0.0,?,0.0,0.0
9700000.0,16.25,1.1590949725359677E-7,9700000.0,64.4,30.664568425890952,24.093816631130064,15.035799522673043,2645454.0,9208.0,0.0,1.0,0.0,?,0.0,0.0
9800000.0,16.421875,1.1717050155210825E-7,9800000.0,64.8,31.07121596641289,29.74051896207585,20.36199095022624,2672727.0,9208.0,0.0,1.0,0.0,?,0.0,0.0
9900000.0,16.578125,1.1821726932086877E-7,9900000.0,64.3,30.076230619168125,27.732793522267208,19.230769230769226,2700000.0,9208.0,0.0,1.0,0.0,?,0.0,0.0
1.0E7,16.75,1.1953910062503484E-7,1.0E7,64.3,30.333851113487526,26.84426229508197,18.67881548974942,2727270.0,9208.0,0.0,1.0,0.0,?,0.0,0.0
