learning evaluation instances,evaluation time (cpu seconds),model cost (RAM-Hours),classified instances,classifications correct (percent),Kappa Statistic (percent),Kappa Temporal Statistic (percent),Kappa M Statistic (percent),model training instances,model serialized size (bytes),labeling cost,newThreshold,maxPosterior,accuracyBaseLearner (percent),Change detected,Warning detected
100000.0,0.140625,5.790207069367171E-9,100000.0,68.10000000000001,0.0,25.813953488372114,0.0,19800.0,9224.0,0.0,1.0,0.0,?,0.0,0.0
200000.0,0.28125,1.1056545190513135E-8,200000.0,67.30000000000001,0.0,24.82758620689657,0.0,39800.0,9224.0,0.0,1.0,0.0,?,0.0,0.0
300000.0,0.4375,1.6325955382651755E-8,300000.0,66.2,0.0,22.654462242562946,0.0,59800.0,9224.0,0.0,1.0,0.0,?,0.0,0.0
400000.0,0.59375,2.10132889656557E-8,400000.0,66.8,0.0,22.790697674418624,0.0,79800.0,9224.0,0.0,1.0,0.0,?,0.0,0.0
500000.0,0.734375,2.4708020242138045E-8,500000.0,67.80000000000001,0.0,23.333333333333353,0.0,99800.0,9224.0,0.0,1.0,0.0,?,0.0,0.0
600000.0,0.890625,2.823120060687264E-8,600000.0,66.5,0.0,21.361502347417858,0.0,119800.0,9224.0,0.0,1.0,0.0,?,0.0,0.0
700000.0,1.046875,3.117230436247256E-8,700000.0,65.4,0.0,19.72157772621811,0.0,139800.0,9224.0,0.0,1.0,0.0,?,0.0,0.0
800000.0,1.1875,3.329542879429129E-8,800000.0,65.2,0.0,22.666666666666664,0.0,159800.0,9224.0,0.0,1.0,0.0,?,0.0,0.0
900000.0,1.328125,3.4894684277888807E-8,900000.0,66.8,0.0,23.325635103926114,0.0,179800.0,9224.0,0.0,1.0,0.0,?,0.0,0.0
1000000.0,1.46875,3.597007081326512E-8,1000000.0,68.10000000000001,0.0,24.941176470588257,0.0,199800.0,9224.0,0.0,1.0,0.0,?,0.0,0.0
1100000.0,1.609375,4.1765516572114504E-8,1100000.0,68.5,0.0,26.056338028169034,0.0,219600.0,9224.0,0.0,1.0,0.0,?,0.0,0.0
1200000.0,1.765625,4.762282413947914E-8,1200000.0,65.2,0.0,25.0,0.0,239600.0,9224.0,0.0,1.0,0.0,?,0.0,0.0
1300000.0,1.90625,5.2370532001886113E-8,1300000.0,66.8,0.0,26.05790645879733,0.0,259600.0,9224.0,0.0,1.0,0.0,?,0.0,0.0
1400000.0,2.046875,5.659437091607188E-8,1400000.0,67.30000000000001,0.0,28.446389496717728,0.0,279600.0,9224.0,0.0,1.0,0.0,?,0.0,0.0
1500000.0,2.203125,6.07054486560325E-8,1500000.0,68.30000000000001,0.0,19.74683544303799,0.0,299600.0,9224.0,0.0,1.0,0.0,?,0.0,0.0
1600000.0,2.34375,6.388154967377585E-8,1600000.0,66.2,0.0,25.221238938053098,0.0,319600.0,9224.0,0.0,1.0,0.0,?,0.0,0.0
1700000.0,2.484375,6.653378174329799E-8,1700000.0,70.5,0.0,30.424528301886788,0.0,339600.0,9224.0,0.0,1.0,0.0,?,0.0,0.0
1800000.0,2.640625,6.889862965585458E-8,1800000.0,65.9,0.0,21.247113163972305,0.0,359600.0,9224.0,0.0,1.0,0.0,?,0.0,0.0
1900000.0,2.78125,7.050312382893432E-8,1900000.0,63.800000000000004,0.0,20.960698689956327,0.0,379600.0,9224.0,0.0,1.0,0.0,?,0.0,0.0
2000000.0,2.921875,7.158374905379284E-8,2000000.0,68.4,0.0,24.038461538461558,0.0,399600.0,9224.0,0.0,1.0,0.0,?,0.0,0.0
2100000.0,3.078125,7.802895399638351E-8,2100000.0,67.10000000000001,0.0,23.488372093023273,0.0,419400.0,9224.0,0.0,1.0,0.0,?,0.0,0.0
2200000.0,3.21875,8.33057694964939E-8,2200000.0,68.89999999999999,0.0,26.477541371158388,0.0,439400.0,9224.0,0.0,1.0,0.0,?,0.0,0.0
2300000.0,3.359375,8.805871604838307E-8,2300000.0,66.4,0.0,25.16703786191537,0.0,459400.0,9224.0,0.0,1.0,0.0,?,0.0,0.0
2400000.0,3.515625,9.275769116356972E-8,2400000.0,67.9,0.0,26.376146788990845,0.0,479400.0,9224.0,0.0,1.0,0.0,?,0.0,0.0
2500000.0,3.65625,9.646289981901648E-8,2500000.0,66.9,0.0,25.45045045045045,0.0,499400.0,9224.0,0.0,1.0,0.0,?,0.0,0.0
2600000.0,3.796875,9.964423952624204E-8,2600000.0,67.9,0.0,29.60526315789474,0.0,519400.0,9224.0,0.0,1.0,0.0,?,0.0,0.0
2700000.0,3.9375,1.023017102852464E-7,2700000.0,68.89999999999999,0.0,20.66326530612244,0.0,539400.0,9224.0,0.0,1.0,0.0,?,0.0,0.0
2800000.0,4.078125,1.0443531209602954E-7,2800000.0,70.1,0.0,29.812206572769952,0.0,559400.0,9224.0,0.0,1.0,0.0,?,0.0,0.0
2900000.0,4.234375,1.0622390416554282E-7,2900000.0,65.4,0.0,24.12280701754386,0.0,579400.0,9224.0,0.0,1.0,0.0,?,0.0,0.0
3000000.0,4.375,1.0730976807988355E-7,3000000.0,66.60000000000001,0.0,29.237288135593225,0.0,599400.0,9224.0,0.0,1.0,0.0,?,0.0,0.0
3100000.0,4.5,1.1247058864682916E-7,3100000.0,68.89999999999999,0.0,26.995305164319245,0.0,619200.0,9224.0,0.0,1.0,0.0,?,0.0,0.0
3200000.0,4.65625,1.1833953774637649E-7,3200000.0,67.4,0.0,24.186046511627925,0.0,639200.0,9224.0,0.0,1.0,0.0,?,0.0,0.0
3300000.0,4.796875,1.230977229877479E-7,3300000.0,68.60000000000001,0.0,29.753914988814323,0.0,659200.0,9224.0,0.0,1.0,0.0,?,0.0,0.0
3400000.0,4.9375,1.2733203928089807E-7,3400000.0,67.9,0.0,28.348214285714292,0.0,679200.0,9224.0,0.0,1.0,0.0,?,0.0,0.0
3500000.0,5.09375,1.314547585530414E-7,3500000.0,65.5,0.0,23.672566371681413,0.0,699200.0,9224.0,0.0,1.0,0.0,?,0.0,0.0
3600000.0,5.234375,1.3464133694974916E-7,3600000.0,70.6,0.0,28.813559322033893,0.0,719200.0,9224.0,0.0,1.0,0.0,?,0.0,0.0
3700000.0,5.375,1.3730404639823572E-7,3700000.0,69.69999999999999,0.0,31.60270880361172,0.0,739200.0,9224.0,0.0,1.0,0.0,?,0.0,0.0
3800000.0,5.515625,1.3944288689850107E-7,3800000.0,64.7,0.0,17.523364485981322,0.0,759200.0,9224.0,0.0,1.0,0.0,?,0.0,0.0
3900000.0,5.671875,1.4123729973410568E-7,3900000.0,66.60000000000001,0.0,25.112107623318387,0.0,779200.0,9224.0,0.0,1.0,0.0,?,0.0,0.0
4000000.0,5.8125,1.4232840233792862E-7,4000000.0,67.10000000000001,0.0,25.900900900900904,0.0,799200.0,9224.0,0.0,1.0,0.0,?,0.0,0.0
4100000.0,5.953125,1.4813956416522464E-7,4100000.0,67.2,0.0,24.423963133640573,0.0,819000.0,9224.0,0.0,1.0,0.0,?,0.0,0.0
4200000.0,6.078125,1.5283938005773558E-7,4200000.0,67.2,0.0,21.904761904761923,0.0,839000.0,9224.0,0.0,1.0,0.0,?,0.0,0.0
4300000.0,6.21875,1.5760280398858918E-7,4300000.0,67.2,0.0,23.543123543123563,0.0,859000.0,9224.0,0.0,1.0,0.0,?,0.0,0.0
4400000.0,6.375,1.6231342063595852E-7,4400000.0,68.4,0.0,23.671497584541083,0.0,879000.0,9224.0,0.0,1.0,0.0,?,0.0,0.0
4500000.0,6.5,1.6561625266654625E-7,4500000.0,65.9,0.0,26.82403433476395,0.0,899000.0,9224.0,0.0,1.0,0.0,?,0.0,0.0
4600000.0,6.625,1.6845342340982623E-7,4600000.0,68.5,0.0,29.84409799554566,0.0,919000.0,9224.0,0.0,1.0,0.0,?,0.0,0.0
4700000.0,6.78125,1.7141781022979155E-7,4700000.0,69.39999999999999,0.0,22.72727272727272,0.0,939000.0,9224.0,0.0,1.0,0.0,?,0.0,0.0
4800000.0,6.921875,1.7356188941953912E-7,4800000.0,68.8,0.0,24.637681159420282,0.0,959000.0,9224.0,0.0,1.0,0.0,?,0.0,0.0
4900000.0,7.0625,1.751820996610655E-7,4900000.0,67.10000000000001,0.0,26.7260579064588,0.0,979000.0,9224.0,0.0,1.0,0.0,?,0.0,0.0
5000000.0,7.21875,1.7653413427372774E-7,5000000.0,65.4,0.0,22.595078299776283,0.0,999000.0,9224.0,0.0,1.0,0.0,?,0.0,0.0
5100000.0,7.359375,1.8257347013180456E-7,5100000.0,64.3,0.0,22.052401746724886,0.0,18883.0,9232.0,0.0,1.0,0.0,?,1.0,13.0
5200000.0,7.5,1.8805692282815775E-7,5200000.0,62.1,0.0,19.70338983050847,0.0,38883.0,9232.0,0.0,1.0,0.0,?,0.0,68.0
5300000.0,7.640625,1.9301650657628974E-7,5300000.0,61.8,0.0,22.983870967741936,0.0,58883.0,9232.0,0.0,1.0,0.0,?,0.0,0.0
5400000.0,7.796875,1.9794507857619062E-7,5400000.0,63.4,0.0,25.910931174089068,0.0,78883.0,9232.0,0.0,1.0,0.0,?,0.0,0.0
5500000.0,7.953125,2.0229157396695683E-7,5500000.0,60.8,0.0,17.819706498951778,0.0,98883.0,9232.0,0.0,1.0,0.0,?,0.0,0.0
5600000.0,8.09375,2.056795508704252E-7,5600000.0,60.8,0.0,18.16283924843423,0.0,118883.0,9232.0,0.0,1.0,0.0,?,0.0,0.0
5700000.0,8.25,2.0886189304292206E-7,5700000.0,63.800000000000004,0.0,21.132897603485834,0.0,138883.0,9232.0,0.0,1.0,0.0,?,0.0,0.0
5800000.0,8.375,2.109421054936118E-7,5800000.0,64.1,0.0,22.4622030237581,0.0,158883.0,9232.0,0.0,1.0,0.0,?,0.0,0.0
5900000.0,8.53125,2.1296029444783932E-7,5900000.0,61.1,0.0,19.95884773662551,0.0,178883.0,9232.0,0.0,1.0,0.0,?,0.0,0.0
6000000.0,8.671875,2.1425279555842286E-7,6000000.0,60.9,0.0,17.684210526315784,0.0,198883.0,9232.0,0.0,1.0,0.0,?,0.0,0.0
6100000.0,8.8125,2.2026535589247948E-7,6100000.0,61.5,0.0,17.381974248927033,0.0,218683.0,9232.0,0.0,1.0,0.0,?,0.0,0.0
6200000.0,8.96875,2.2636390187674105E-7,6200000.0,63.1,0.0,23.284823284823283,0.0,238683.0,9232.0,0.0,1.0,0.0,?,0.0,0.0
6300000.0,9.125,2.3188037125186795E-7,6300000.0,60.4,0.0,22.957198443579767,0.0,258683.0,9232.0,0.0,1.0,0.0,?,0.0,0.0
6400000.0,9.265625,2.3632132474126095E-7,6400000.0,63.7,0.0,16.55172413793105,0.0,278683.0,9232.0,0.0,1.0,0.0,?,0.0,0.0
6500000.0,9.421875,2.406736408981185E-7,6500000.0,61.3,0.0,13.99999999999999,0.0,298683.0,9232.0,0.0,1.0,0.0,?,0.0,0.0
6600000.0,9.546875,2.4368983253629675E-7,6600000.0,61.1,0.0,15.434782608695643,0.0,318683.0,9232.0,0.0,1.0,0.0,?,0.0,0.0
6700000.0,9.703125,2.468779954748849E-7,6700000.0,61.1,0.0,16.880341880341874,0.0,338683.0,9232.0,0.0,1.0,0.0,?,0.0,0.0
6800000.0,9.84375,2.492234731713931E-7,6800000.0,61.7,0.0,21.030927835051543,0.0,358683.0,9232.0,0.0,1.0,0.0,?,0.0,0.0
6900000.0,10.0,2.512474828917119E-7,6900000.0,61.4,0.0,16.98924731182795,0.0,378683.0,9232.0,0.0,1.0,0.0,?,0.0,0.0
7000000.0,10.140625,2.525452226917777E-7,7000000.0,62.5,0.0,19.181034482758616,0.0,398683.0,9232.0,0.0,1.0,0.0,?,0.0,0.0
7100000.0,10.296875,2.592316660512653E-7,7100000.0,61.6,0.0,22.109533468559835,0.0,418483.0,9232.0,0.0,1.0,0.0,?,0.0,0.0
7200000.0,10.4375,2.647255961265829E-7,7200000.0,64.1,0.0,24.421052631578945,0.0,438483.0,9232.0,0.0,1.0,0.0,?,0.0,0.0
7300000.0,10.59375,2.7024788626780115E-7,7300000.0,63.4,0.0,16.055045871559646,0.0,458483.0,9232.0,0.0,1.0,0.0,?,0.0,0.0
7400000.0,10.734375,2.7469407844667637E-7,7400000.0,60.4,0.0,20.321931589537222,0.0,478483.0,9232.0,0.0,1.0,0.0,?,0.0,0.0
7500000.0,10.875,2.786164016773304E-7,7500000.0,60.099999999999994,0.0,18.06981519507186,0.0,498483.0,9232.0,0.0,1.0,0.0,?,0.0,0.0
7600000.0,11.015625,2.820148559597632E-7,7600000.0,59.4,0.0,12.499999999999988,0.0,518483.0,9232.0,0.0,1.0,0.0,?,0.0,0.0
7700000.0,11.171875,2.8520883966444273E-7,7700000.0,63.1,0.0,16.891891891891884,0.0,538483.0,9232.0,0.0,1.0,0.0,?,0.0,0.0
7800000.0,11.3125,2.8755955605043313E-7,7800000.0,62.9,0.0,19.347826086956516,0.0,558483.0,9232.0,0.0,1.0,0.0,?,0.0,0.0
7900000.0,11.453125,2.893864034882023E-7,7900000.0,63.0,0.0,24.796747967479675,0.0,578483.0,9232.0,0.0,1.0,0.0,?,0.0,0.0
8000000.0,11.609375,2.9083415736547784E-7,8000000.0,61.3,0.0,16.59482758620689,0.0,598483.0,9232.0,0.0,1.0,0.0,?,0.0,0.0
8100000.0,11.75,2.968571950784989E-7,8100000.0,60.4,0.0,16.455696202531637,0.0,618283.0,9232.0,0.0,1.0,0.0,?,0.0,0.0
8200000.0,11.90625,3.029673825949432E-7,8200000.0,62.5,0.0,21.548117154811713,0.0,638283.0,9232.0,0.0,1.0,0.0,?,0.0,0.0
8300000.0,12.046875,3.0794268241152183E-7,8300000.0,62.1,0.0,21.369294605809124,0.0,658283.0,9232.0,0.0,1.0,0.0,?,0.0,0.0
8400000.0,12.1875,3.1239411327987927E-7,8400000.0,62.1,0.0,21.369294605809124,0.0,678283.0,9232.0,0.0,1.0,0.0,?,0.0,0.0
8500000.0,12.3125,3.158852794311115E-7,8500000.0,60.4,0.0,12.1951219512195,0.0,698283.0,9232.0,0.0,1.0,0.0,?,0.0,0.0
8600000.0,12.453125,3.192889724030265E-7,8600000.0,61.9,0.0,16.079295154185015,0.0,718283.0,9232.0,0.0,1.0,0.0,?,0.0,0.0
8700000.0,12.59375,3.2216879642672033E-7,8700000.0,63.9,0.0,21.691973969631235,0.0,738283.0,9232.0,0.0,1.0,0.0,?,0.0,0.0
8800000.0,12.75,3.2478652428835657E-7,8800000.0,63.1,0.0,17.44966442953019,0.0,758283.0,9232.0,0.0,1.0,0.0,?,0.0,0.0
8900000.0,12.90625,3.2682217554085813E-7,8900000.0,63.4,0.0,22.94736842105263,0.0,778283.0,9232.0,0.0,1.0,0.0,?,0.0,0.0
9000000.0,13.03125,3.2798503525555164E-7,9000000.0,61.199999999999996,0.0,18.65828092243186,0.0,798283.0,9232.0,0.0,1.0,0.0,?,0.0,0.0
9100000.0,13.171875,3.3401331165805487E-7,9100000.0,62.6,0.0,20.594479830148614,0.0,818083.0,9232.0,0.0,1.0,0.0,?,0.0,0.0
9200000.0,13.328125,3.4012931994059047E-7,9200000.0,60.9,0.0,16.452991452991444,0.0,838083.0,9232.0,0.0,1.0,0.0,?,0.0,0.0
9300000.0,13.46875,3.451098584466513E-7,9300000.0,61.6,0.0,18.123667377398714,0.0,858083.0,9232.0,0.0,1.0,0.0,?,0.0,0.0
9400000.0,13.609375,3.495665280044909E-7,9400000.0,60.4,0.0,16.806722689075624,0.0,878083.0,9232.0,0.0,1.0,0.0,?,0.0,0.0
9500000.0,13.75,3.534993286141093E-7,9500000.0,66.60000000000001,0.0,27.39130434782609,0.0,898083.0,9232.0,0.0,1.0,0.0,?,0.0,0.0
9600000.0,13.90625,3.572870304601062E-7,9600000.0,63.3,0.0,19.340659340659336,0.0,918083.0,9232.0,0.0,1.0,0.0,?,0.0,0.0
9700000.0,14.046875,3.601720931732822E-7,9700000.0,62.4,0.0,20.338983050847453,0.0,938083.0,9232.0,0.0,1.0,0.0,?,0.0,0.0
9800000.0,14.21875,3.630579966637825E-7,9800000.0,62.6,0.0,21.757322175732213,0.0,958083.0,9232.0,0.0,1.0,0.0,?,0.0,0.0
9900000.0,14.359375,3.648953214805161E-7,9900000.0,62.8,0.0,21.51898734177215,0.0,978083.0,9232.0,0.0,1.0,0.0,?,0.0,0.0
1.0E7,14.515625,3.663547168899743E-7,1.0E7,62.6,0.0,19.04761904761904,0.0,998083.0,9232.0,0.0,1.0,0.0,?,0.0,0.0
