learning evaluation instances,evaluation time (cpu seconds),model cost (RAM-Hours),classified instances,classifications correct (percent),Kappa Statistic (percent),Kappa Temporal Statistic (percent),Kappa M Statistic (percent),model training instances,model serialized size (bytes),labeling cost,newThreshold,maxPosterior,accuracyBaseLearner (percent),Change detected,Warning detected
100000.0,0.15625,6.565824151039124E-9,100000.0,64.3,0.0,22.052401746724886,0.0,28017.0,9232.0,0.0,1.0,0.0,?,1.0,51.0
200000.0,0.359375,1.4344695955514908E-8,200000.0,62.1,0.0,19.532908704883223,0.0,58017.0,9232.0,0.0,1.0,0.0,?,0.0,0.0
300000.0,0.53125,2.028653398156166E-8,300000.0,61.8,0.0,22.828282828282827,0.0,88017.0,9232.0,0.0,1.0,0.0,?,0.0,0.0
400000.0,0.703125,2.558808773756027E-8,400000.0,63.4,0.0,25.760649087221093,0.0,118017.0,9232.0,0.0,1.0,0.0,?,0.0,0.0
500000.0,0.859375,2.98256054520607E-8,500000.0,60.699999999999996,0.0,17.782426778242673,0.0,148017.0,9232.0,0.0,1.0,0.0,?,0.0,0.0
600000.0,1.015625,3.348104655742645E-8,600000.0,60.699999999999996,0.0,18.124999999999993,0.0,178017.0,9232.0,0.0,1.0,0.0,?,0.0,0.0
700000.0,1.1875,3.686174750328064E-8,700000.0,63.7,0.0,21.086956521739125,0.0,208017.0,9232.0,0.0,1.0,0.0,?,0.0,0.0
800000.0,1.375,3.9851292967796325E-8,800000.0,64.0,0.0,22.413793103448274,0.0,238017.0,9232.0,0.0,1.0,0.0,?,0.0,0.0
900000.0,1.546875,4.195142537355423E-8,900000.0,61.1,0.0,19.793814432989688,0.0,268017.0,9232.0,0.0,1.0,0.0,?,0.0,0.0
1000000.0,1.71875,4.3411273509263996E-8,1000000.0,60.8,0.0,17.299578059071724,0.0,298017.0,9232.0,0.0,1.0,0.0,?,0.0,0.0
1100000.0,1.875,4.9982918426394465E-8,1100000.0,61.5,0.0,17.20430107526881,0.0,327717.0,9232.0,0.0,1.0,0.0,?,0.0,0.0
1200000.0,2.046875,5.6571443565189844E-8,1200000.0,63.2,0.0,23.492723492723492,0.0,357717.0,9232.0,0.0,1.0,0.0,?,0.0,0.0
1300000.0,2.21875,6.251968443393708E-8,1300000.0,60.4,0.0,22.957198443579767,0.0,387717.0,9232.0,0.0,1.0,0.0,?,0.0,0.0
1400000.0,2.359375,6.686255801469088E-8,1400000.0,63.800000000000004,0.0,16.589861751152085,0.0,417717.0,9232.0,0.0,1.0,0.0,?,0.0,0.0
1500000.0,2.53125,7.153023034334183E-8,1500000.0,61.3,0.0,13.808463251670366,0.0,447717.0,9232.0,0.0,1.0,0.0,?,0.0,0.0
1600000.0,2.703125,7.555761840194465E-8,1600000.0,61.1,0.0,15.434782608695643,0.0,477717.0,9232.0,0.0,1.0,0.0,?,0.0,0.0
1700000.0,2.875,7.894472219049932E-8,1700000.0,61.1,0.0,17.05756929637526,0.0,507717.0,9232.0,0.0,1.0,0.0,?,0.0,0.0
1800000.0,3.03125,8.144183084368708E-8,1800000.0,61.6,0.0,20.98765432098765,0.0,537717.0,9232.0,0.0,1.0,0.0,?,0.0,0.0
1900000.0,3.203125,8.354836609214546E-8,1900000.0,61.3,0.0,16.77419354838709,0.0,567717.0,9232.0,0.0,1.0,0.0,?,0.0,0.0
2000000.0,3.359375,8.488132152706387E-8,2000000.0,62.5,0.0,19.181034482758616,0.0,597717.0,9232.0,0.0,1.0,0.0,?,0.0,0.0
2100000.0,3.515625,9.145878721028569E-8,2100000.0,61.7,0.0,22.312373225152125,0.0,627417.0,9232.0,0.0,1.0,0.0,?,0.0,0.0
2200000.0,3.6875,9.805371519178154E-8,2200000.0,64.0,0.0,24.369747899159663,0.0,657417.0,9232.0,0.0,1.0,0.0,?,0.0,0.0
2300000.0,3.84375,1.0346702765673401E-7,2300000.0,63.4,0.0,16.247139588100698,0.0,687417.0,9232.0,0.0,1.0,0.0,?,0.0,0.0
2400000.0,4.0,1.0829826351255181E-7,2400000.0,60.3,0.0,20.281124497991964,0.0,717417.0,9232.0,0.0,1.0,0.0,?,0.0,0.0
2500000.0,4.171875,1.1297233868390324E-7,2500000.0,60.0,0.0,17.864476386036955,0.0,747417.0,9232.0,0.0,1.0,0.0,?,0.0,0.0
2600000.0,4.34375,1.1700612958520653E-7,2600000.0,59.4,0.0,12.499999999999988,0.0,777417.0,9232.0,0.0,1.0,0.0,?,0.0,0.0
2700000.0,4.5,1.200911356136203E-7,2700000.0,63.1,0.0,16.70428893905191,0.0,807417.0,9232.0,0.0,1.0,0.0,?,0.0,0.0
2800000.0,4.65625,1.225940650328994E-7,2800000.0,62.9,0.0,19.172113289760343,0.0,837417.0,9232.0,0.0,1.0,0.0,?,0.0,0.0
2900000.0,4.828125,1.247070031240583E-7,2900000.0,63.0,0.0,24.643584521384927,0.0,867417.0,9232.0,0.0,1.0,0.0,?,0.0,0.0
3000000.0,4.96875,1.2591190170496705E-7,3000000.0,61.3,0.0,16.59482758620689,0.0,897417.0,9232.0,0.0,1.0,0.0,?,0.0,0.0
3100000.0,5.140625,1.3315351679921153E-7,3100000.0,60.4,0.0,16.455696202531637,0.0,927117.0,9232.0,0.0,1.0,0.0,?,0.0,0.0
3200000.0,5.296875,1.3915472663939E-7,3200000.0,62.5,0.0,21.71189979123173,0.0,957117.0,9232.0,0.0,1.0,0.0,?,0.0,0.0
3300000.0,5.46875,1.451157731935382E-7,3300000.0,62.1,0.0,21.369294605809124,0.0,987117.0,9232.0,0.0,1.0,0.0,?,0.0,0.0
3400000.0,5.640625,1.5043653547763825E-7,3400000.0,62.1,0.0,21.205821205821202,0.0,1017117.0,9232.0,0.0,1.0,0.0,?,0.0,0.0
3500000.0,5.8125,1.5511701349169015E-7,3500000.0,60.5,0.0,12.416851441241674,0.0,1047117.0,9232.0,0.0,1.0,0.0,?,0.0,0.0
3600000.0,5.96875,1.5878991689532994E-7,3600000.0,61.9,0.0,16.079295154185015,0.0,1077117.0,9232.0,0.0,1.0,0.0,?,0.0,0.0
3700000.0,6.140625,1.6218982636928556E-7,3700000.0,64.0,0.0,21.739130434782606,0.0,1107117.0,9232.0,0.0,1.0,0.0,?,0.0,0.0
3800000.0,6.296875,1.64698576554656E-7,3800000.0,63.2,0.0,17.673378076062633,0.0,1137117.0,9232.0,0.0,1.0,0.0,?,0.0,0.0
3900000.0,6.453125,1.6662525013089177E-7,3900000.0,63.5,0.0,23.157894736842103,0.0,1167117.0,9232.0,0.0,1.0,0.0,?,0.0,0.0
4000000.0,6.59375,1.6783538740128275E-7,4000000.0,61.1,0.0,18.44863731656184,0.0,1197117.0,9232.0,0.0,1.0,0.0,?,0.0,0.0
4100000.0,6.75,1.7442449461668725E-7,4100000.0,62.5,0.0,20.212765957446805,0.0,1226817.0,9232.0,0.0,1.0,0.0,?,0.0,0.0
4200000.0,6.921875,1.8103222828358407E-7,4200000.0,60.9,0.0,16.631130063965877,0.0,1256817.0,9232.0,0.0,1.0,0.0,?,0.0,0.0
4300000.0,7.09375,1.8699967768043275E-7,4300000.0,61.5,0.0,17.910447761194025,0.0,1286817.0,9232.0,0.0,1.0,0.0,?,0.0,0.0
4400000.0,7.265625,1.9232684280723329E-7,4400000.0,60.4,0.0,16.806722689075624,0.0,1316817.0,9232.0,0.0,1.0,0.0,?,0.0,0.0
4500000.0,7.4375,1.9701372366398568E-7,4500000.0,66.60000000000001,0.0,27.39130434782609,0.0,1346817.0,9232.0,0.0,1.0,0.0,?,0.0,0.0
4600000.0,7.59375,2.006924478337168E-7,4600000.0,63.4,0.0,19.383259911894267,0.0,1376817.0,9232.0,0.0,1.0,0.0,?,0.0,0.0
4700000.0,7.765625,2.0409876015037292E-7,4700000.0,62.4,0.0,20.338983050847453,0.0,1406817.0,9232.0,0.0,1.0,0.0,?,0.0,0.0
4800000.0,7.9375,2.068647881969809E-7,4800000.0,62.6,0.0,21.757322175732213,0.0,1436817.0,9232.0,0.0,1.0,0.0,?,0.0,0.0
4900000.0,8.09375,2.08797282539308E-7,4900000.0,62.8,0.0,21.684210526315788,0.0,1466817.0,9232.0,0.0,1.0,0.0,?,0.0,0.0
5000000.0,8.25,2.1028157789260142E-7,5000000.0,62.5,0.0,19.006479481641463,0.0,1496817.0,9232.0,0.0,1.0,0.0,?,0.0,0.0
5100000.0,8.421875,2.1768326405435793E-7,5100000.0,43.2,0.0,-18.58037578288101,-31.481481481481467,1526517.0,9232.0,0.0,1.0,0.0,?,0.0,0.0
5200000.0,8.578125,2.2382999304682008E-7,5200000.0,45.2,0.0,-6.614785992217893,-21.238938053097353,1556517.0,9232.0,0.0,1.0,0.0,?,0.0,0.0
5300000.0,8.75,2.2995537923028062E-7,5300000.0,46.0,0.0,-12.266112266112266,-17.391304347826093,1572932.0,9232.0,0.0,1.0,0.0,?,1.0,56.0
5400000.0,8.90625,2.3492599009639678E-7,5400000.0,46.0,0.0,-6.719367588932801,-17.391304347826093,1602932.0,9232.0,0.0,1.0,0.0,?,0.0,67.0
5500000.0,9.0625,2.3931452435337827E-7,5500000.0,46.300000000000004,0.0,-11.410788381742737,-15.98272138228942,1632932.0,9232.0,0.0,1.0,0.0,?,0.0,0.0
5600000.0,9.203125,2.4274033623644037E-7,5600000.0,45.2,0.0,-7.874015748031492,-21.238938053097353,1662932.0,9232.0,0.0,1.0,0.0,?,0.0,0.0
5700000.0,9.359375,2.459647172751525E-7,5700000.0,43.3,0.0,-15.714285714285717,-30.946882217090057,1692932.0,9232.0,0.0,1.0,0.0,?,0.0,0.0
5800000.0,9.515625,2.486070217047299E-7,5800000.0,44.1,0.0,-12.024048096192384,-26.757369614512488,1722932.0,9232.0,0.0,1.0,0.0,?,0.0,0.0
5900000.0,9.671875,2.506672495251727E-7,5900000.0,49.1,0.0,-6.708595387840677,-1.8000000000000016,1752932.0,9232.0,0.0,1.0,0.0,?,0.0,0.0
6000000.0,9.828125,2.521454007364808E-7,6000000.0,45.7,0.0,-5.642023346303496,-18.8183807439825,1782932.0,9232.0,0.0,1.0,0.0,?,0.0,0.0
6100000.0,9.984375,2.588680621960923E-7,6100000.0,47.199999999999996,0.0,-1.9305019305019322,-11.864406779661028,1812632.0,9232.0,0.0,1.0,0.0,?,0.0,0.0
6200000.0,10.125,2.6439458856152145E-7,6200000.0,46.2,0.0,-9.127789046653142,-16.450216450216455,1842632.0,9232.0,0.0,1.0,0.0,?,0.0,0.0
6300000.0,10.28125,2.6995309680286363E-7,6300000.0,48.4,0.0,-0.19417475728155356,-6.61157024793389,1872632.0,9232.0,0.0,1.0,0.0,?,0.0,0.0
6400000.0,10.4375,2.7492952843507114E-7,6400000.0,49.5,0.0,4.536862003780722,-1.6096579476861181,1902632.0,9232.0,0.0,1.0,0.0,?,0.0,0.0
6500000.0,10.59375,2.7932388345814397E-7,6500000.0,48.0,0.0,-9.936575052854133,-9.01467505241091,1932632.0,9232.0,0.0,1.0,0.0,?,0.0,0.0
6600000.0,10.75,2.831361618720821E-7,6600000.0,48.199999999999996,0.0,-0.38759689922480656,-7.4688796680498,1962632.0,9232.0,0.0,1.0,0.0,?,0.0,0.0
6700000.0,10.90625,2.863663636768856E-7,6700000.0,45.7,0.0,-14.799154334038056,-19.86754966887418,1992632.0,9232.0,0.0,1.0,0.0,?,0.0,0.0
6800000.0,11.0625,2.890144888725544E-7,6800000.0,45.800000000000004,0.0,-5.859374999999995,-18.340611353711797,2022632.0,9232.0,0.0,1.0,0.0,?,0.0,0.0
6900000.0,11.21875,2.9108053745908855E-7,6900000.0,45.0,0.0,-9.780439121756485,-22.222222222222232,2052632.0,9232.0,0.0,1.0,0.0,?,0.0,0.0
7000000.0,11.34375,2.922708194495902E-7,7000000.0,65.2,29.120771687414454,29.41176470588236,23.008849557522122,2082632.0,9328.0,0.0,1.0,0.0,?,0.0,0.0
7100000.0,11.5,2.9900318218602063E-7,7100000.0,66.10000000000001,31.384852042262075,32.47011952191235,28.329809725158565,2112332.0,9328.0,0.0,1.0,0.0,?,0.0,0.0
7200000.0,11.65625,3.051534683133164E-7,7200000.0,64.3,28.350660297836477,29.585798816568055,26.84426229508197,2142332.0,9328.0,0.0,1.0,0.0,?,0.0,0.0
7300000.0,11.8125,3.107216778314775E-7,7300000.0,66.5,32.55214625110736,33.66336633663367,30.208333333333336,2172332.0,9328.0,0.0,1.0,0.0,?,0.0,0.0
7400000.0,11.953125,3.152091974496013E-7,7400000.0,66.9,33.06965608722379,35.603112840466935,29.42430703624734,2202332.0,9328.0,0.0,1.0,0.0,?,0.0,0.0
7500000.0,12.109375,3.1961325374949306E-7,7500000.0,66.60000000000001,32.18632112822471,34.63796477495109,27.861771058315338,2232332.0,9328.0,0.0,1.0,0.0,?,0.0,0.0
7600000.0,12.25,3.2305303547117443E-7,7600000.0,65.4,30.220832913179397,33.58925143953935,27.15789473684211,2262332.0,9328.0,0.0,1.0,0.0,?,0.0,0.0
7700000.0,12.40625,3.2629293855279684E-7,7700000.0,66.8,32.66921928742943,36.76190476190477,28.448275862068968,2292332.0,9328.0,0.0,1.0,0.0,?,0.0,0.0
7800000.0,12.5625,3.289507650252846E-7,7800000.0,65.0,29.219718173140713,29.5774647887324,26.160337552742618,2322332.0,9328.0,0.0,1.0,0.0,?,0.0,0.0
7900000.0,12.703125,3.3081893990230233E-7,7900000.0,66.3,32.13854208618608,31.64300202839757,30.227743271221534,2352332.0,9328.0,0.0,1.0,0.0,?,0.0,0.0
8000000.0,12.84375,3.321632458310989E-7,8000000.0,66.8,31.84402957804885,30.83333333333334,25.056433408577877,2382332.0,9328.0,0.0,1.0,0.0,?,0.0,0.0
8100000.0,13.0,3.3890142933362065E-7,8100000.0,66.9,33.195553366863386,35.85271317829458,30.16877637130802,2412032.0,9328.0,0.0,1.0,0.0,?,0.0,0.0
8200000.0,13.15625,3.4505753622700774E-7,8200000.0,67.30000000000001,33.58841879508676,30.866807610993664,30.12820512820513,2442032.0,9328.0,0.0,1.0,0.0,?,0.0,0.0
8300000.0,13.3125,3.5063156651126017E-7,8300000.0,67.5,34.21691819418358,37.73946360153258,30.555555555555564,2472032.0,9328.0,0.0,1.0,0.0,?,0.0,0.0
8400000.0,13.46875,3.556235201863779E-7,8400000.0,66.8,32.87505054589568,35.029354207436405,29.361702127659576,2502032.0,9328.0,0.0,1.0,0.0,?,0.0,0.0
8500000.0,13.625,3.60033397252361E-7,8500000.0,68.4,36.06345095500163,36.03238866396762,31.89655172413794,2532032.0,9328.0,0.0,1.0,0.0,?,0.0,0.0
8600000.0,13.78125,3.638611977092094E-7,8600000.0,65.10000000000001,29.647876535047047,29.06504065040651,27.593360995850624,2562032.0,9328.0,0.0,1.0,0.0,?,0.0,0.0
8700000.0,13.921875,3.667823491721518E-7,8700000.0,65.4,29.509746398070273,28.364389233954455,24.12280701754386,2592032.0,9328.0,0.0,1.0,0.0,?,0.0,0.0
8800000.0,14.0625,3.6917963168687295E-7,8800000.0,69.6,38.41141981936717,38.08553971486761,34.9036402569593,2622032.0,9328.0,0.0,1.0,0.0,?,0.0,0.0
8900000.0,14.21875,3.7126120231631733E-7,8900000.0,68.2,36.12790487476652,37.02970297029704,34.43298969072166,2652032.0,9328.0,0.0,1.0,0.0,?,0.0,0.0
9000000.0,14.375,3.7276069633662703E-7,9000000.0,66.60000000000001,32.45648094221188,34.63796477495109,28.784648187633266,2682032.0,9328.0,0.0,1.0,0.0,?,0.0,0.0
9100000.0,14.515625,3.7883030017837883E-7,9100000.0,67.10000000000001,33.016263406927216,37.57115749525618,27.373068432671083,2711732.0,9328.0,0.0,1.0,0.0,?,0.0,0.0
9200000.0,14.671875,3.849922278378573E-7,9200000.0,69.19999999999999,37.79185315645751,38.64541832669322,35.02109704641349,2741732.0,9328.0,0.0,1.0,0.0,?,0.0,0.0
9300000.0,14.828125,3.905720788882011E-7,9300000.0,66.2,31.411224208185207,33.464566929133866,27.467811158798284,2771732.0,9328.0,0.0,1.0,0.0,?,0.0,0.0
9400000.0,14.984375,3.955698533294102E-7,9400000.0,64.7,28.664963786859797,23.92241379310345,25.995807127882603,2801732.0,9328.0,0.0,1.0,0.0,?,0.0,0.0
9500000.0,15.140625,3.9998555116148464E-7,9500000.0,66.60000000000001,32.625157846748465,30.2713987473904,29.386892177589857,2831732.0,9328.0,0.0,1.0,0.0,?,0.0,0.0
9600000.0,15.28125,4.034358102621304E-7,9600000.0,67.0,33.10765613281173,36.17021276595745,29.93630573248408,2861732.0,9328.0,0.0,1.0,0.0,?,0.0,0.0
9700000.0,15.4375,4.066873548759355E-7,9700000.0,67.2,33.11173195750148,30.508474576271194,27.912087912087912,2891732.0,9328.0,0.0,1.0,0.0,?,0.0,0.0
9800000.0,15.59375,4.093568228806059E-7,9800000.0,64.7,28.532093746456983,30.91976516634051,24.411134903640257,2921732.0,9328.0,0.0,1.0,0.0,?,0.0,0.0
9900000.0,15.765625,4.116529534156952E-7,9900000.0,67.4,33.44439544645337,34.2741935483871,29.43722943722944,2951732.0,9328.0,0.0,1.0,0.0,?,0.0,0.0
1.0E7,15.90625,4.1300773672345614E-7,1.0E7,69.8,39.117813079590356,38.86639676113359,36.82008368200835,2981732.0,9328.0,0.0,1.0,0.0,?,0.0,0.0
