learning evaluation instances,evaluation time (cpu seconds),model cost (RAM-Hours),classified instances,classifications correct (percent),Kappa Statistic (percent),Kappa Temporal Statistic (percent),Kappa M Statistic (percent),model training instances,model serialized size (bytes),labeling cost,newThreshold,maxPosterior,accuracyBaseLearner (percent),Change detected,Warning detected,tree size (nodes),tree size (leaves),active learning leaves,tree depth,active leaf byte size estimate,inactive leaf byte size estimate,byte size estimate overhead
100000.0,0.5,4.901240269343058E-8,100000.0,88.2,74.01739513376637,74.6236559139785,68.02168021680217,29700.0,193240.0,0.0,1.0,0.0,?,0.0,5.0,65.0,45.0,45.0,4.0,0.0,0.0,1.0
200000.0,1.0,1.051608059141371E-7,200000.0,89.8,77.2655341039277,79.18367346938776,72.5067385444744,59700.0,263200.0,0.0,1.0,0.0,?,0.0,0.0,99.0,62.0,62.0,5.0,0.0,0.0,1.0
300000.0,1.46875,1.6254579855336084E-7,300000.0,91.7,82.32327534799721,83.23232323232324,78.82653061224491,89700.0,317224.0,0.0,1.0,0.0,?,0.0,0.0,125.0,75.0,75.0,5.0,0.0,0.0,1.0
400000.0,1.921875,2.2391478220621746E-7,400000.0,92.60000000000001,84.11901297519563,83.73626373626375,80.57742782152232,119700.0,382424.0,0.0,1.0,0.0,?,0.0,0.0,152.0,90.0,90.0,5.0,0.0,0.0,1.0
500000.0,2.34375,2.870418635817866E-7,500000.0,92.30000000000001,83.30804248861912,83.58208955223881,79.24528301886794,149700.0,452200.0,0.0,1.0,0.0,?,0.0,0.0,184.0,109.0,109.0,5.0,0.0,0.0,1.0
600000.0,2.796875,3.606658881633646E-7,600000.0,93.89999999999999,86.8238018299795,87.23849372384936,83.6898395721925,179700.0,516800.0,0.0,1.0,0.0,?,0.0,0.0,206.0,123.0,123.0,6.0,0.0,0.0,1.0
700000.0,3.25,4.3860374717041854E-7,700000.0,93.2,85.0246652572234,84.47488584474887,81.11111111111113,209700.0,568712.0,0.0,1.0,0.0,?,0.0,0.0,235.0,145.0,145.0,6.0,0.0,0.0,1.0
800000.0,3.6875,5.253261770121753E-7,800000.0,91.2,80.83423354357599,81.27659574468086,75.69060773480663,239700.0,684848.0,0.0,1.0,0.0,?,0.0,0.0,262.0,163.0,163.0,6.0,0.0,0.0,1.0
900000.0,4.15625,6.226115510798991E-7,900000.0,92.7,83.96746053359806,83.6322869955157,79.37853107344634,269700.0,735904.0,0.0,1.0,0.0,?,0.0,0.0,289.0,181.0,181.0,6.0,0.0,0.0,1.0
1000000.0,4.640625,7.388453943551415E-7,1000000.0,94.1,87.44755631579395,87.88501026694044,84.55497382198952,299700.0,876016.0,0.0,1.0,0.0,?,0.0,0.0,343.0,220.0,220.0,7.0,0.0,0.0,1.0
1100000.0,5.15625,9.043759524097873E-7,1100000.0,95.0,89.312585499316,89.45147679324894,86.84210526315789,329400.0,1051904.0,0.0,1.0,0.0,?,0.0,0.0,396.0,260.0,260.0,7.0,0.0,0.0,1.0
1200000.0,5.671875,1.0804253138808741E-6,1200000.0,94.69999999999999,88.75927889713678,89.04958677685948,86.26943005181346,359400.0,1145712.0,0.0,1.0,0.0,?,0.0,0.0,425.0,282.0,282.0,7.0,0.0,0.0,1.0
1300000.0,6.1875,1.2689186001403465E-6,1300000.0,95.1,89.48615175988944,89.41684665226781,87.00265251989389,389400.0,1253880.0,0.0,1.0,0.0,?,0.0,0.0,467.0,312.0,312.0,7.0,0.0,0.0,1.0
1400000.0,6.734375,1.4955103526719743E-6,1400000.0,95.3,90.1110924086854,90.26915113871635,88.16120906801007,419400.0,1457000.0,0.0,1.0,0.0,?,0.0,0.0,529.0,358.0,358.0,7.0,0.0,0.0,1.0
1500000.0,7.265625,1.7278839368373155E-6,1500000.0,95.39999999999999,90.19858518707917,90.39665970772441,87.95811518324606,449400.0,1561032.0,0.0,1.0,0.0,?,0.0,0.0,559.0,379.0,379.0,7.0,0.0,0.0,1.0
1600000.0,7.828125,1.988094300031662E-6,1600000.0,93.7,86.80186030921358,86.62420382165607,84.13098236775821,479400.0,1673296.0,0.0,1.0,0.0,?,0.0,0.0,609.0,416.0,416.0,7.0,0.0,0.0,1.0
1700000.0,8.390625,2.262500347569585E-6,1700000.0,95.7,90.66297238845507,91.11570247933884,87.95518207282912,509400.0,1785648.0,0.0,1.0,0.0,?,0.0,0.0,641.0,438.0,438.0,7.0,0.0,0.0,1.0
1800000.0,8.921875,2.526875339551932E-6,1800000.0,96.0,91.5931416849866,91.24726477024069,89.76982097186699,539400.0,1838528.0,0.0,1.0,0.0,?,0.0,0.0,657.0,446.0,446.0,7.0,0.0,0.0,1.0
1900000.0,9.484375,2.8114851900479856E-6,1900000.0,97.1,93.68730844246308,93.55555555555554,91.92200557103062,569400.0,1885816.0,0.0,1.0,0.0,?,0.0,0.0,681.0,464.0,464.0,7.0,0.0,0.0,1.0
2000000.0,10.046875,3.104220830007559E-6,2000000.0,97.8,95.40901502504173,95.5193482688391,94.5,599400.0,1956552.0,0.0,1.0,0.0,?,0.0,0.0,707.0,480.0,480.0,7.0,0.0,0.0,1.0
2100000.0,10.609375,3.4318088890156806E-6,2100000.0,97.1,93.96084964598084,93.66812227074234,92.75,629100.0,2058696.0,0.0,1.0,0.0,?,0.0,0.0,742.0,502.0,502.0,7.0,0.0,0.0,1.0
2200000.0,11.203125,3.7918863300647995E-6,2200000.0,96.3,92.20093757377491,92.6,90.65656565656565,659100.0,2166608.0,0.0,1.0,0.0,?,0.0,0.0,791.0,537.0,537.0,7.0,0.0,0.0,1.0
2300000.0,11.796875,4.167632562004857E-6,2300000.0,96.0,91.13730529767575,90.74074074074073,88.40579710144927,689100.0,2283408.0,0.0,1.0,0.0,?,0.0,0.0,832.0,565.0,565.0,7.0,0.0,0.0,1.0
2400000.0,12.40625,4.567099321219655E-6,2400000.0,96.8,93.13705305057991,92.99781181619255,91.2087912087912,719100.0,2386040.0,0.0,1.0,0.0,?,0.0,0.0,869.0,591.0,591.0,7.0,0.0,0.0,1.0
2500000.0,13.0,4.966238759354584E-6,2500000.0,97.0,93.49816214716694,93.53448275862068,91.80327868852459,749100.0,2465504.0,0.0,1.0,0.0,?,0.0,0.0,894.0,608.0,608.0,7.0,0.0,0.0,1.0
2600000.0,13.609375,5.382627843775682E-6,2600000.0,96.5,92.471304916453,92.827868852459,90.48913043478261,779100.0,2523280.0,0.0,1.0,0.0,?,0.0,0.0,910.0,619.0,619.0,7.0,0.0,0.0,1.0
2700000.0,14.203125,5.791361974034871E-6,2700000.0,97.5,94.57799446521675,94.55337690631808,93.0939226519337,809100.0,2558024.0,0.0,1.0,0.0,?,0.0,0.0,921.0,626.0,626.0,7.0,0.0,0.0,1.0
2800000.0,14.8125,6.214580272272642E-6,2800000.0,97.0,93.63997150707235,93.52051835853132,92.18749999999999,839100.0,2596712.0,0.0,1.0,0.0,?,0.0,0.0,943.0,640.0,640.0,8.0,0.0,0.0,1.0
2900000.0,15.421875,6.639995521658824E-6,2900000.0,96.6,92.74694518397159,92.82700421940928,91.005291005291,869100.0,2625720.0,0.0,1.0,0.0,?,0.0,0.0,947.0,642.0,642.0,8.0,0.0,0.0,1.0
3000000.0,16.046875,7.079606940452423E-6,3000000.0,97.0,93.59338495641366,93.53448275862068,92.04244031830238,899100.0,2661176.0,0.0,1.0,0.0,?,0.0,0.0,964.0,655.0,655.0,8.0,0.0,0.0,1.0
3100000.0,16.671875,7.553538889624178E-6,3100000.0,96.8,92.96731118329384,92.92035398230087,90.93484419263456,928800.0,2736168.0,0.0,1.0,0.0,?,0.0,0.0,994.0,673.0,673.0,8.0,0.0,0.0,1.0
3200000.0,17.296875,8.028182265762653E-6,3200000.0,96.1,91.6208319009969,91.3716814159292,89.51612903225805,958800.0,2755696.0,0.0,1.0,0.0,?,0.0,0.0,996.0,674.0,674.0,8.0,0.0,0.0,1.0
3300000.0,17.953125,8.535357450859414E-6,3300000.0,97.39999999999999,94.39198312418306,94.51476793248945,92.99191374663071,988800.0,2822536.0,0.0,1.0,0.0,?,0.0,0.0,1024.0,694.0,694.0,8.0,0.0,0.0,1.0
3400000.0,18.671875,9.098345569024483E-6,3400000.0,97.6,94.77276786297682,94.94736842105263,93.35180055401662,1018800.0,2877928.0,0.0,1.0,0.0,?,0.0,0.0,1044.0,707.0,707.0,8.0,4007.345767575323,0.0,1.0146187775677378
3500000.0,19.3125,9.602315031871613E-6,3500000.0,96.8,93.19484850031473,92.85714285714285,91.53439153439152,1048800.0,2906120.0,0.0,1.0,0.0,?,0.0,0.0,1054.0,712.0,712.0,8.0,4007.345767575323,0.0,1.0146187775677378
3600000.0,19.984375,1.0134803532208832E-5,3600000.0,97.6,94.77888581423275,94.90445859872611,93.29608938547486,1078800.0,2943856.0,0.0,1.0,0.0,?,0.0,0.0,1077.0,728.0,728.0,8.0,4007.345767575323,0.0,1.0146187775677378
3700000.0,20.640625,1.0667690399309826E-5,3700000.0,96.7,92.85157265401611,92.66666666666666,90.83333333333331,1108800.0,3034040.0,0.0,1.0,0.0,?,0.0,0.0,1116.0,755.0,755.0,8.0,4007.345767575323,0.0,1.0146187775677378
3800000.0,21.328125,1.123697568093323E-5,3800000.0,97.1,93.84267830754335,93.86892177589851,92.42819843342036,1138800.0,3110960.0,0.0,1.0,0.0,?,0.0,0.0,1137.0,770.0,770.0,8.0,4007.345767575323,0.0,1.0146187775677378
3900000.0,21.984375,1.1789729986857208E-5,3900000.0,97.1,93.89087844954707,93.8034188034188,92.46753246753246,1168800.0,3180936.0,0.0,1.0,0.0,?,0.0,0.0,1177.0,796.0,796.0,8.0,4007.345767575323,0.0,1.0146187775677378
4000000.0,22.6875,1.2398529733117256E-5,4000000.0,98.0,95.78471707020975,95.65217391304347,94.81865284974093,1198800.0,3286824.0,0.0,1.0,0.0,?,0.0,0.0,1209.0,818.0,818.0,8.0,4007.345767575323,0.0,1.0146187775677378
4100000.0,23.375,1.3026864875832366E-5,4100000.0,97.5,94.68085106382979,94.60043196544275,93.42105263157893,1228500.0,3335536.0,0.0,1.0,0.0,?,0.0,0.0,1221.0,824.0,824.0,8.0,4007.345767575323,0.0,1.0146187775677378
4200000.0,24.0625,1.3664043055743807E-5,4200000.0,97.3,94.13757165190204,94.29175475687103,92.39436619718309,1258500.0,3400280.0,0.0,1.0,0.0,?,0.0,0.0,1249.0,844.0,844.0,9.0,4007.345767575323,0.0,1.0146187775677378
4300000.0,24.75,1.43054528032533E-5,4300000.0,98.1,96.03330354831436,96.06625258799171,95.22613065326632,1288500.0,3439080.0,0.0,1.0,0.0,?,0.0,0.0,1257.0,848.0,848.0,9.0,4007.345767575323,0.0,1.0146187775677378
4400000.0,25.4375,1.4949277133887841E-5,4400000.0,98.0,95.62156292689761,95.8762886597938,94.31818181818181,1318500.0,3467760.0,0.0,1.0,0.0,?,0.0,0.0,1264.0,853.0,853.0,9.0,4007.345767575323,0.0,1.0146187775677378
4500000.0,26.140625,1.561806715067683E-5,4500000.0,97.6,94.89622320517182,94.97907949790795,93.61702127659574,1348500.0,3539480.0,0.0,1.0,0.0,?,0.0,0.0,1286.0,867.0,867.0,9.0,4007.345767575323,0.0,1.0146187775677378
4600000.0,26.828125,1.627539436513972E-5,4600000.0,98.0,95.71492235439307,95.70815450643777,94.65240641711229,1378500.0,3573720.0,0.0,1.0,0.0,?,0.0,0.0,1312.0,886.0,886.0,9.0,4007.345767575323,0.0,1.0146187775677378
4700000.0,27.53125,1.6955227830395516E-5,4700000.0,97.1,93.69504909165224,93.42403628117914,91.89944134078212,1408500.0,3630344.0,0.0,1.0,0.0,?,0.0,0.0,1333.0,901.0,901.0,9.0,4007.345767575323,0.0,1.0146187775677378
4800000.0,28.25,1.7657511149688315E-5,4800000.0,97.3,94.23707397035722,94.38669438669439,92.83819628647214,1438500.0,3684832.0,0.0,1.0,0.0,?,0.0,0.0,1349.0,912.0,912.0,9.0,4007.345767575323,0.0,1.0146187775677378
4900000.0,28.9375,1.83302834435987E-5,4900000.0,97.3,94.18599643407781,94.16846652267819,92.54143646408839,1468500.0,3705712.0,0.0,1.0,0.0,?,0.0,0.0,1358.0,918.0,918.0,9.0,4007.345767575323,0.0,1.0146187775677378
5000000.0,29.65625,1.90419664593517E-5,5000000.0,98.5,96.72245771970458,96.80851063829788,95.77464788732394,1498500.0,3763208.0,0.0,1.0,0.0,?,0.0,0.0,1379.0,933.0,933.0,9.0,4007.345767575323,0.0,1.0146187775677378
5100000.0,30.578125,1.914523441680811E-5,5100000.0,88.5,76.82516907550561,76.72064777327935,74.66960352422907,29066.0,244208.0,0.0,1.0,0.0,?,1.0,23.0,79.0,58.0,58.0,4.0,0.0,0.0,1.0
5200000.0,31.15625,1.9235063357175227E-5,5200000.0,92.9,85.76366888298939,85.53971486761712,85.14644351464436,59066.0,426440.0,0.0,1.0,0.0,?,0.0,0.0,142.0,103.0,103.0,5.0,0.0,0.0,1.0
5300000.0,31.734375,1.9359250727575277E-5,5300000.0,94.5,88.90824903602599,88.86639676113359,87.93859649122805,89066.0,670432.0,0.0,1.0,0.0,?,0.0,0.0,238.0,166.0,166.0,5.0,0.0,0.0,1.0
5400000.0,32.265625,1.9480218599912612E-5,5400000.0,95.39999999999999,90.71457408155025,90.59304703476482,89.77777777777777,119066.0,735152.0,0.0,1.0,0.0,?,0.0,0.0,265.0,181.0,181.0,6.0,0.0,0.0,1.0
5500000.0,32.765625,1.9598326859219626E-5,5500000.0,97.8,95.56408684711424,95.51020408163265,95.17543859649122,149066.0,782992.0,0.0,1.0,0.0,?,0.0,0.0,287.0,192.0,192.0,6.0,0.0,0.0,1.0
5600000.0,33.296875,1.9729199929214606E-5,5600000.0,97.0,93.97222400822992,93.71069182389937,93.53448275862068,179066.0,837040.0,0.0,1.0,0.0,?,0.0,0.0,315.0,206.0,206.0,6.0,0.0,0.0,1.0
5700000.0,33.8125,1.986277603363205E-5,5700000.0,97.2,94.31575955662925,94.17879417879418,93.67945823927765,209066.0,901024.0,0.0,1.0,0.0,?,0.0,0.0,346.0,223.0,223.0,7.0,0.0,0.0,1.0
5800000.0,34.3125,1.9998828809346184E-5,5800000.0,96.8,93.54578459056071,93.42915811088295,92.88888888888887,239066.0,966376.0,0.0,1.0,0.0,?,0.0,0.0,372.0,239.0,239.0,8.0,0.0,0.0,1.0
5900000.0,34.8125,2.014272332113858E-5,5900000.0,97.89999999999999,95.78641540326011,95.88235294117646,95.56962025316456,269066.0,1041840.0,0.0,1.0,0.0,?,0.0,0.0,408.0,260.0,260.0,8.0,0.0,0.0,1.0
6000000.0,35.28125,2.028173000629371E-5,6000000.0,98.1,96.17733926717581,96.09856262833675,95.87852494577007,299066.0,1090648.0,0.0,1.0,0.0,?,0.0,0.0,440.0,279.0,279.0,8.0,0.0,0.0,1.0
6100000.0,35.796875,2.0468221337068832E-5,6100000.0,98.0,95.95796281325788,96.0,95.53571428571428,328766.0,1204944.0,0.0,1.0,0.0,?,0.0,0.0,483.0,305.0,305.0,8.0,0.0,0.0,1.0
6200000.0,36.296875,2.0652121327455266E-5,6200000.0,98.1,96.16558226642341,95.94882729211088,95.83333333333333,358766.0,1243608.0,0.0,1.0,0.0,?,0.0,0.0,502.0,316.0,316.0,8.0,0.0,0.0,1.0
6300000.0,36.78125,2.083264627597399E-5,6300000.0,98.2,96.39369618092425,96.28099173553719,96.25779625779626,388766.0,1277600.0,0.0,1.0,0.0,?,0.0,0.0,515.0,324.0,324.0,8.0,0.0,0.0,1.0
6400000.0,37.28125,2.1018919069319972E-5,6400000.0,98.0,95.99764661621033,96.05522682445759,95.82463465553236,418766.0,1292136.0,0.0,1.0,0.0,?,0.0,0.0,519.0,326.0,326.0,8.0,0.0,0.0,1.0
6500000.0,37.765625,2.1199886105023332E-5,6500000.0,98.7,97.39035475116029,97.4155069582505,97.21627408993577,448766.0,1311336.0,0.0,1.0,0.0,?,0.0,0.0,527.0,330.0,330.0,8.0,0.0,0.0,1.0
6600000.0,38.25,2.1379491792888283E-5,6600000.0,98.0,95.94351753820192,96.0,95.46485260770974,478766.0,1315648.0,0.0,1.0,0.0,?,0.0,0.0,529.0,331.0,331.0,8.0,0.0,0.0,1.0
6700000.0,38.75,2.1564766001473706E-5,6700000.0,98.1,96.19238476953907,96.13034623217922,96.0,508766.0,1329784.0,0.0,1.0,0.0,?,0.0,0.0,537.0,335.0,335.0,8.0,0.0,0.0,1.0
6800000.0,39.234375,2.1742495074350807E-5,6800000.0,98.2,96.38333440493795,96.42857142857143,96.15384615384615,538766.0,1330976.0,0.0,1.0,0.0,?,0.0,0.0,537.0,335.0,335.0,8.0,0.0,0.0,1.0
6900000.0,39.734375,2.1925843514812497E-5,6900000.0,98.6,97.18462806925815,97.21115537848605,96.98924731182795,568766.0,1345248.0,0.0,1.0,0.0,?,0.0,0.0,544.0,340.0,340.0,8.0,0.0,0.0,1.0
7000000.0,40.203125,2.2095915628597147E-5,7000000.0,97.89999999999999,95.79428022110069,95.679012345679,95.65217391304347,598766.0,1345456.0,0.0,1.0,0.0,?,0.0,0.0,546.0,341.0,341.0,8.0,0.0,0.0,1.0
7100000.0,40.6875,2.2290305674283047E-5,7100000.0,98.6,97.1760984976844,97.20558882235528,96.91629955947137,628466.0,1357264.0,0.0,1.0,0.0,?,0.0,0.0,550.0,343.0,343.0,8.0,0.0,0.0,1.0
7200000.0,41.171875,2.2483228110811783E-5,7200000.0,98.7,97.37930700813624,97.42574257425743,97.16157205240175,658466.0,1360720.0,0.0,1.0,0.0,?,0.0,0.0,554.0,345.0,345.0,8.0,0.0,0.0,1.0
7300000.0,41.671875,2.268087649200526E-5,7300000.0,98.6,97.1858165152368,97.02127659574468,96.94323144104803,688466.0,1364328.0,0.0,1.0,0.0,?,0.0,0.0,554.0,345.0,345.0,8.0,0.0,0.0,1.0
7400000.0,42.15625,2.2870934885253928E-5,7400000.0,98.4,96.7593624045531,96.71457905544148,96.3882618510158,718466.0,1368264.0,0.0,1.0,0.0,?,0.0,0.0,568.0,355.0,355.0,9.0,0.0,0.0,1.0
7500000.0,42.640625,2.306088801964911E-5,7500000.0,98.8,97.57276643945063,97.60479041916167,97.32739420935411,748466.0,1382552.0,0.0,1.0,0.0,?,0.0,0.0,570.0,356.0,356.0,9.0,0.0,0.0,1.0
7600000.0,43.125,2.324893947742466E-5,7600000.0,98.6,97.1912028473178,97.270955165692,97.04016913319239,778466.0,1382576.0,0.0,1.0,0.0,?,0.0,0.0,570.0,356.0,356.0,9.0,0.0,0.0,1.0
7700000.0,43.609375,2.3436085709060238E-5,7700000.0,99.0,97.9918065708089,98.01980198019803,97.87234042553192,808466.0,1390512.0,0.0,1.0,0.0,?,0.0,0.0,572.0,357.0,357.0,9.0,0.0,0.0,1.0
7800000.0,44.109375,2.3626756414564127E-5,7800000.0,98.6,97.19406263653892,97.14285714285714,97.0649895178197,838466.0,1386288.0,0.0,1.0,0.0,?,0.0,0.0,576.0,359.0,359.0,9.0,0.0,0.0,1.0
7900000.0,44.59375,2.3810479227298257E-5,7900000.0,98.1,96.1835127751888,96.06625258799171,95.9830866807611,868466.0,1393552.0,0.0,1.0,0.0,?,0.0,0.0,578.0,360.0,360.0,9.0,0.0,0.0,1.0
8000000.0,45.09375,2.3998584656510508E-5,8000000.0,98.4,96.77035182979753,96.70781893004114,96.48351648351648,898466.0,1396792.0,0.0,1.0,0.0,?,0.0,0.0,580.0,361.0,361.0,9.0,0.0,0.0,1.0
8100000.0,45.59375,2.420539311262676E-5,8100000.0,98.4,96.78142236991917,96.7280163599182,96.54427645788337,928166.0,1404384.0,0.0,1.0,0.0,?,0.0,0.0,584.0,363.0,363.0,9.0,0.0,0.0,1.0
8200000.0,46.0625,2.4398424268131047E-5,8200000.0,98.6,97.19059410907718,97.3076923076923,97.04016913319239,958166.0,1412520.0,0.0,1.0,0.0,?,0.0,0.0,597.0,371.0,371.0,9.0,0.0,0.0,1.0
8300000.0,46.546875,2.459717604021232E-5,8300000.0,98.4,96.79965436267116,96.81908548707753,96.77419354838709,988166.0,1421984.0,0.0,1.0,0.0,?,0.0,0.0,599.0,372.0,372.0,9.0,0.0,0.0,1.0
8400000.0,47.09375,2.482088392652158E-5,8400000.0,99.1,98.18563019111362,98.16326530612245,98.02197802197801,1018166.0,1432232.0,0.0,1.0,0.0,?,0.0,0.0,607.0,376.0,376.0,9.0,3746.1720430107525,0.0,1.0204021883270091
8500000.0,47.5625,2.501173229474161E-5,8500000.0,97.89999999999999,95.76339573918656,95.78313253012047,95.46436285097192,1048166.0,1439968.0,0.0,1.0,0.0,?,0.0,0.0,607.0,376.0,376.0,9.0,3746.1720430107525,0.0,1.0204021883270091
8600000.0,48.046875,2.520704561094237E-5,8600000.0,98.5,96.97495260759085,97.0873786407767,96.69603524229075,1078166.0,1440032.0,0.0,1.0,0.0,?,0.0,0.0,607.0,376.0,376.0,9.0,3746.1720430107525,0.0,1.0204021883270091
8700000.0,48.53125,2.5401875738882364E-5,8700000.0,98.2,96.36792148253373,96.51162790697674,96.0352422907489,1108166.0,1451296.0,0.0,1.0,0.0,?,0.0,0.0,615.0,380.0,380.0,9.0,3746.1720430107525,0.0,1.0204021883270091
8800000.0,49.03125,2.5601167387018608E-5,8800000.0,97.2,94.35638615218407,94.06779661016948,93.83259911894272,1138166.0,1452400.0,0.0,1.0,0.0,?,0.0,0.0,615.0,380.0,380.0,9.0,3746.1720430107525,0.0,1.0204021883270091
8900000.0,49.515625,2.5792285386059026E-5,8900000.0,98.2,96.3621518276145,96.37096774193547,95.99109131403118,1168166.0,1452048.0,0.0,1.0,0.0,?,0.0,0.0,621.0,383.0,383.0,9.0,3746.1720430107525,0.0,1.0204021883270091
9000000.0,50.0,2.5982913179581783E-5,9000000.0,98.1,96.15088529638183,96.23015873015872,95.70135746606334,1198166.0,1463304.0,0.0,1.0,0.0,?,0.0,0.0,628.0,388.0,388.0,9.0,3746.1720430107525,0.0,1.0204021883270091
9100000.0,50.484375,2.6190688141569916E-5,9100000.0,98.6,97.19815077951448,97.29206963249516,97.13701431492842,1227866.0,1463176.0,0.0,1.0,0.0,?,0.0,0.0,632.0,390.0,390.0,9.0,3746.1720430107525,0.0,1.0204021883270091
9200000.0,50.984375,2.640518725254677E-5,9200000.0,97.7,95.37260582649283,95.33468559837728,95.03239740820733,1257866.0,1478472.0,0.0,1.0,0.0,?,0.0,0.0,634.0,391.0,391.0,9.0,3746.1720430107525,0.0,1.0204021883270091
9300000.0,51.46875,2.661199583801338E-5,9300000.0,97.8,95.57306653680995,95.62624254473161,95.22776572668113,1287866.0,1485768.0,0.0,1.0,0.0,?,0.0,0.0,643.0,397.0,397.0,9.0,3746.1720430107525,0.0,1.0204021883270091
9400000.0,51.96875,2.6824586772515135E-5,9400000.0,98.4,96.77727333153398,96.72131147540983,96.49890590809628,1317866.0,1494056.0,0.0,1.0,0.0,?,0.0,0.0,645.0,398.0,398.0,9.0,3746.1720430107525,0.0,1.0204021883270091
9500000.0,52.453125,2.7029122769211736E-5,9500000.0,99.1,98.16349018487533,98.21428571428571,97.90209790209789,1347866.0,1497968.0,0.0,1.0,0.0,?,0.0,0.0,647.0,399.0,399.0,9.0,3746.1720430107525,0.0,1.0204021883270091
9600000.0,52.9375,2.7232760557025263E-5,9600000.0,98.0,95.99003925751568,96.11650485436894,95.80712788259957,1377866.0,1505960.0,0.0,1.0,0.0,?,0.0,0.0,649.0,400.0,400.0,9.0,3746.1720430107525,0.0,1.0204021883270091
9700000.0,53.4375,2.7441480294025197E-5,9700000.0,98.1,96.18676043222067,96.10655737704917,95.96602972399151,1407866.0,1509648.0,0.0,1.0,0.0,?,0.0,0.0,649.0,400.0,400.0,9.0,3746.1720430107525,0.0,1.0204021883270091
9800000.0,53.9375,2.764960501938024E-5,9800000.0,98.6,97.19406263653892,97.18875502008032,97.0649895178197,1437866.0,1520168.0,0.0,1.0,0.0,?,0.0,0.0,657.0,404.0,404.0,9.0,3746.1720430107525,0.0,1.0204021883270091
9900000.0,54.421875,2.7850852929987017E-5,9900000.0,98.3,96.58645505365288,96.6,96.36752136752136,1467866.0,1532328.0,0.0,1.0,0.0,?,0.0,0.0,661.0,406.0,406.0,9.0,3746.1720430107525,0.0,1.0204021883270091
1.0E7,54.921875,2.805675386399445E-5,1.0E7,98.8,97.57476788507633,97.63779527559055,97.32739420935411,1497866.0,1533344.0,0.0,1.0,0.0,?,0.0,0.0,675.0,416.0,416.0,9.0,3746.1720430107525,0.0,1.0204021883270091
