learning evaluation instances,evaluation time (cpu seconds),model cost (RAM-Hours),classified instances,classifications correct (percent),Kappa Statistic (percent),Kappa Temporal Statistic (percent),Kappa M Statistic (percent),model training instances,model serialized size (bytes),labeling cost,newThreshold,maxPosterior,accuracyBaseLearner (percent),Change detected,Warning detected
100000.0,0.234375,2.4442366945246856E-9,100000.0,86.8,72.4629397063548,72.61410788381743,67.56756756756756,29850.0,1112.0,0.0,1.0,0.0,?,0.0,21.0
200000.0,0.46875,3.724320170780023E-9,200000.0,86.8,73.14190838949116,72.38493723849372,70.53571428571428,59850.0,1112.0,0.0,1.0,0.0,?,0.0,0.0
300000.0,0.6875,6.554311969214016E-9,300000.0,86.0,70.82360786928976,72.22222222222221,66.66666666666666,89700.0,1112.0,0.0,1.0,0.0,?,0.0,0.0
400000.0,0.875,8.048696650399103E-9,400000.0,84.5,68.04070994985484,69.6078431372549,64.20323325635103,119700.0,1112.0,0.0,1.0,0.0,?,0.0,0.0
500000.0,1.078125,8.658680599182846E-9,500000.0,86.1,71.0585491796452,71.16182572614107,66.50602409638554,149700.0,1112.0,0.0,1.0,0.0,?,0.0,0.0
600000.0,1.3125,1.1114558825890224E-8,600000.0,85.0,69.0108255516073,69.0721649484536,65.11627906976743,179550.0,1112.0,0.0,1.0,0.0,?,0.0,0.0
700000.0,1.515625,1.2234053833203185E-8,700000.0,87.4,73.3425858537989,72.4288840262582,68.34170854271356,209550.0,1112.0,0.0,1.0,0.0,?,0.0,0.0
800000.0,1.703125,1.4669074314749905E-8,800000.0,85.0,68.85692455901406,68.15286624203821,64.7887323943662,239400.0,1112.0,0.0,1.0,0.0,?,0.0,0.0
900000.0,1.90625,1.6298080380592084E-8,900000.0,86.6,71.99055203695575,73.09236947791165,67.71084337349397,269400.0,1112.0,0.0,1.0,0.0,?,0.0,0.0
1000000.0,2.109375,1.6918153657267493E-8,1000000.0,86.3,71.14866230878091,71.81069958847736,66.0891089108911,299400.0,1112.0,0.0,1.0,0.0,?,0.0,0.0
1100000.0,2.328125,1.9221172098898226E-8,1100000.0,87.1,73.54670953876945,75.38167938931298,70.48054919908468,329250.0,1112.0,0.0,1.0,0.0,?,0.0,0.0
1200000.0,2.53125,2.0350756434102853E-8,1200000.0,88.0,75.40983606557377,74.2489270386266,72.72727272727273,359250.0,1112.0,0.0,1.0,0.0,?,0.0,0.0
1300000.0,2.734375,2.2998784617003466E-8,1300000.0,87.2,73.5457390039144,73.8241308793456,70.30162412993039,389100.0,1112.0,0.0,1.0,0.0,?,0.0,0.0
1400000.0,2.921875,2.4511795749680862E-8,1400000.0,86.1,71.4532161340672,70.92050209205021,68.40909090909089,419100.0,1112.0,0.0,1.0,0.0,?,0.0,0.0
1500000.0,3.125,2.514195835424794E-8,1500000.0,86.1,70.89907212005494,71.28099173553719,66.2621359223301,449100.0,1112.0,0.0,1.0,0.0,?,0.0,0.0
1600000.0,3.359375,2.7621119645320708E-8,1600000.0,86.7,72.04402330645637,72.57731958762886,67.24137931034483,478950.0,1112.0,0.0,1.0,0.0,?,0.0,0.0
1700000.0,3.5625,2.8760793308417003E-8,1700000.0,85.39999999999999,70.13863038578435,71.25984251968504,67.62749445676273,508950.0,1112.0,0.0,1.0,0.0,?,0.0,0.0
1800000.0,3.75,3.121444024145603E-8,1800000.0,85.39999999999999,69.54475669180962,68.6695278969957,64.21568627450979,538800.0,1112.0,0.0,1.0,0.0,?,0.0,0.0
1900000.0,3.96875,3.299048532628351E-8,1900000.0,86.6,72.16590780683971,72.19917012448133,67.6328502415459,568800.0,1112.0,0.0,1.0,0.0,?,0.0,0.0
2000000.0,4.15625,3.358148711009158E-8,2000000.0,85.3,68.43325889022505,66.59090909090908,61.3157894736842,598800.0,1112.0,0.0,1.0,0.0,?,0.0,0.0
2100000.0,4.390625,3.608296133784784E-8,2100000.0,87.4,74.17228317016776,75.67567567567568,71.23287671232876,628650.0,1112.0,0.0,1.0,0.0,?,0.0,5.0
2200000.0,4.578125,3.7152818145437374E-8,2200000.0,87.1,72.61681370093315,72.13822894168467,67.83042394014963,658650.0,1112.0,0.0,1.0,0.0,?,0.0,34.0
2300000.0,4.78125,3.982102498412132E-8,2300000.0,83.5,66.01077767340684,64.59227467811158,61.80555555555555,688500.0,1112.0,0.0,1.0,0.0,?,0.0,3.0
2400000.0,4.984375,4.14802990336385E-8,2400000.0,86.5,71.26803728770273,71.99170124481327,65.38461538461539,718500.0,1112.0,0.0,1.0,0.0,?,0.0,0.0
2500000.0,5.203125,4.21806665447851E-8,2500000.0,85.7,69.6493760081501,71.22736418511066,63.979848866498735,748500.0,1112.0,0.0,1.0,0.0,?,0.0,0.0
2600000.0,5.390625,4.418262202913562E-8,2600000.0,86.2,72.02717823146901,72.34468937875751,70.3862660944206,778350.0,1112.0,0.0,1.0,0.0,?,0.0,0.0
2700000.0,5.609375,4.543169375715984E-8,2700000.0,87.9,74.9917328042328,77.03984819734345,71.19047619047619,808350.0,1112.0,0.0,1.0,0.0,?,0.0,0.0
2800000.0,5.84375,4.852203548782401E-8,2800000.0,87.4,72.79839726429596,72.84482758620689,66.31016042780749,838200.0,1112.0,0.0,1.0,0.0,?,0.0,0.0
2900000.0,6.0625,5.031981143272585E-8,2900000.0,85.1,68.86622926156546,68.89352818371607,64.09638554216868,868200.0,1112.0,0.0,1.0,0.0,?,0.0,0.0
3000000.0,6.265625,5.098024202096793E-8,3000000.0,86.2,71.73104341128463,73.41040462427746,68.77828054298641,898200.0,1112.0,0.0,1.0,0.0,?,0.0,0.0
3100000.0,6.46875,5.3159116456906E-8,3100000.0,85.5,70.10013362147181,69.40928270042194,65.80188679245283,928050.0,1112.0,0.0,1.0,0.0,?,0.0,0.0
3200000.0,6.671875,5.43290581036773E-8,3200000.0,85.1,69.31934240437518,70.19999999999999,65.4292343387471,958050.0,1112.0,0.0,1.0,0.0,?,0.0,0.0
3300000.0,6.890625,5.7224242482334376E-8,3300000.0,85.1,68.9503121639757,69.77687626774848,64.00966183574879,987900.0,1112.0,0.0,1.0,0.0,?,0.0,0.0
3400000.0,7.09375,5.890369518763489E-8,3400000.0,86.9,72.57647186890297,73.90438247011953,68.95734597156398,1017900.0,1112.0,0.0,1.0,0.0,?,0.0,0.0
3500000.0,7.28125,5.952263664868143E-8,3500000.0,84.8,67.90472771806836,67.02819956616052,62.46913580246913,1047900.0,1112.0,0.0,1.0,0.0,?,0.0,0.0
3600000.0,7.484375,6.171160041251117E-8,3600000.0,85.3,69.68747164644456,70.18255578093306,65.73426573426573,1077750.0,1112.0,0.0,1.0,0.0,?,0.0,0.0
3700000.0,7.671875,6.280085977373852E-8,3700000.0,86.6,71.39197267292911,72.19917012448133,66.5,1107750.0,1112.0,0.0,1.0,0.0,?,0.0,0.0
3800000.0,7.875,6.549933459609748E-8,3800000.0,87.8,74.93332675846823,75.55110220440882,72.20956719817767,1137600.0,1112.0,0.0,1.0,0.0,?,0.0,0.0
3900000.0,8.078125,6.718887662928966E-8,3900000.0,86.8,72.51832111925383,73.75745526838966,68.42105263157895,1167600.0,1112.0,0.0,1.0,0.0,?,0.0,0.0
4000000.0,8.28125,6.786948587331508E-8,4000000.0,85.2,69.41858110481574,69.48453608247422,65.5011655011655,1197600.0,1112.0,0.0,1.0,0.0,?,0.0,0.0
4100000.0,8.484375,7.006853896503648E-8,4100000.0,84.6,68.30819253801988,68.37782340862422,64.43418013856814,1227450.0,1112.0,0.0,1.0,0.0,?,0.0,0.0
4200000.0,8.703125,7.135020698317223E-8,4200000.0,85.39999999999999,69.75835684310387,70.14314928425357,65.32066508313538,1257450.0,1112.0,0.0,1.0,0.0,?,0.0,0.0
4300000.0,8.921875,7.426712222190367E-8,4300000.0,83.7,66.10239986690513,67.20321931589537,60.53268765133172,1287300.0,1112.0,0.0,1.0,0.0,?,0.0,0.0
4400000.0,9.125,7.596675358298752E-8,4400000.0,86.4,71.7434303475558,72.46963562753037,67.46411483253588,1317300.0,1112.0,0.0,1.0,0.0,?,0.0,0.0
4500000.0,9.328125,7.665745215490461E-8,4500000.0,86.2,71.48489319232819,71.48760330578511,67.83216783216784,1347300.0,1112.0,0.0,1.0,0.0,?,0.0,0.0
4600000.0,9.53125,7.886659457451768E-8,4600000.0,85.5,70.17025583634373,71.05788423153693,66.97038724373576,1377150.0,1112.0,0.0,1.0,0.0,?,0.0,0.0
4700000.0,9.734375,8.006680420496399E-8,4700000.0,86.7,72.15079611032472,73.97260273972603,67.63990267639903,1407150.0,1112.0,0.0,1.0,0.0,?,0.0,0.0
4800000.0,9.9375,8.278545768310628E-8,4800000.0,86.7,72.39174658529497,73.18548387096774,68.10551558752998,1437000.0,1112.0,0.0,1.0,0.0,?,0.0,0.0
4900000.0,10.140625,8.44951783720818E-8,4900000.0,87.3,73.9058968563797,75.52986512524085,70.46511627906978,1467000.0,1112.0,0.0,1.0,0.0,?,0.0,0.0
5000000.0,10.34375,8.523043814218708E-8,5000000.0,87.4,73.93808018797677,73.69519832985387,70.14218009478674,1497000.0,1112.0,0.0,1.0,0.0,?,0.0,0.0
5100000.0,10.546875,8.749339031055571E-8,5100000.0,87.4,66.2704786379698,69.11764705882352,55.319148936170215,14524.0,1112.0,0.0,1.0,0.0,?,6.0,25.0
5200000.0,10.765625,8.884387271892694E-8,5200000.0,88.5,70.18686355434805,72.74881516587678,60.75085324232082,44524.0,1112.0,0.0,1.0,0.0,?,0.0,0.0
5300000.0,10.96875,9.161633594582478E-8,5300000.0,86.5,65.02590673575129,68.53146853146853,55.00000000000001,74374.0,1112.0,0.0,1.0,0.0,?,0.0,0.0
5400000.0,11.171875,9.337986638355586E-8,5400000.0,85.7,62.18571836557684,65.95238095238095,50.174216027874564,104374.0,1112.0,0.0,1.0,0.0,?,0.0,0.0
5500000.0,11.375,9.413446403212018E-8,5500000.0,87.4,67.60575691977026,70.14218009478674,58.139534883720934,134374.0,1112.0,0.0,1.0,0.0,?,0.0,0.0
5600000.0,11.59375,9.658235487424666E-8,5600000.0,85.9,62.757134253927674,67.28538283062645,52.84280936454849,164224.0,1112.0,0.0,1.0,0.0,?,0.0,0.0
5700000.0,11.796875,9.784646358134019E-8,5700000.0,87.9,67.84548827024672,68.89460154241645,57.6923076923077,194224.0,1112.0,0.0,1.0,0.0,?,0.0,0.0
5800000.0,12.015625,1.0084305864034429E-7,5800000.0,87.1,65.49916556121357,66.58031088082902,55.052264808362374,224074.0,1112.0,0.0,1.0,0.0,?,0.0,0.0
5900000.0,12.203125,1.0248024611630376E-7,5900000.0,86.8,64.92663821827323,68.11594202898551,54.325259515570934,254074.0,1112.0,0.0,1.0,0.0,?,0.0,0.0
6000000.0,12.40625,1.0324493309275973E-7,6000000.0,87.6,65.64621138661863,67.87564766839378,54.90909090909092,284074.0,1112.0,0.0,1.0,0.0,?,0.0,5.0
6100000.0,12.609375,1.055280639169117E-7,6100000.0,86.9,67.65400152100267,71.58351409978307,58.805031446540866,313924.0,1112.0,0.0,1.0,0.0,?,0.0,0.0
6200000.0,12.8125,1.068022619518969E-7,6200000.0,88.8,70.0662818045756,72.6829268292683,60.00000000000001,343924.0,1112.0,0.0,1.0,0.0,?,0.0,0.0
6300000.0,13.015625,1.0959490383457808E-7,6300000.0,88.8,70.42498243983333,73.33333333333334,61.77474402730376,373774.0,1112.0,0.0,1.0,0.0,?,0.0,0.0
6400000.0,13.21875,1.113786129280925E-7,6400000.0,87.3,68.29090473289455,69.02439024390245,59.424920127795524,403774.0,1112.0,0.0,1.0,0.0,?,0.0,0.0
6500000.0,13.421875,1.1215338923244014E-7,6500000.0,87.0,65.14670555936857,67.41854636591479,54.22535211267606,433774.0,1112.0,0.0,1.0,0.0,?,0.0,0.0
6600000.0,13.625,1.1444660938448377E-7,6600000.0,87.2,66.1581577347117,69.4510739856802,56.61016949152543,463624.0,1112.0,0.0,1.0,0.0,?,0.0,0.0
6700000.0,13.84375,1.1582968808296655E-7,6700000.0,85.7,62.68384079830484,65.45893719806763,53.26797385620915,493624.0,1112.0,0.0,1.0,0.0,?,0.0,0.0
6800000.0,14.0625,1.18848014002045E-7,6800000.0,87.2,65.9465786953283,68.1592039800995,55.244755244755254,523474.0,1112.0,0.0,1.0,0.0,?,0.0,0.0
6900000.0,14.265625,1.206418124234511E-7,6900000.0,86.7,65.5290385452736,68.92523364485982,55.51839464882944,553474.0,1112.0,0.0,1.0,0.0,?,0.0,0.0
7000000.0,14.46875,1.2142667805569042E-7,7000000.0,87.0,63.243610042976705,64.86486486486487,50.75757575757576,583474.0,1112.0,0.0,1.0,0.0,?,0.0,0.0
7100000.0,14.671875,1.2372998753562572E-7,7100000.0,88.3,69.82700818023335,72.27488151658768,61.129568106312306,613324.0,1112.0,0.0,1.0,0.0,?,0.0,0.0
7200000.0,14.875,1.2502436422639424E-7,7200000.0,87.3,64.84059222838667,68.4863523573201,54.48028673835126,643324.0,1112.0,0.0,1.0,0.0,?,0.0,0.0
7300000.0,15.09375,1.2805355557550988E-7,7300000.0,86.0,64.49944213409069,66.66666666666666,54.83870967741936,673174.0,1112.0,0.0,1.0,0.0,?,0.0,0.0
7400000.0,15.296875,1.2985744332480764E-7,7400000.0,87.4,65.91001325721707,65.94594594594595,54.83870967741936,703174.0,1112.0,0.0,1.0,0.0,?,0.0,0.0
7500000.0,15.5,1.306523982849386E-7,7500000.0,86.6,64.4269823993204,68.0952380952381,53.95189003436427,733174.0,1112.0,0.0,1.0,0.0,?,0.0,0.0
7600000.0,15.703125,1.3296579709276557E-7,7600000.0,85.9,65.13870345646046,66.74528301886792,57.272727272727266,763024.0,1112.0,0.0,1.0,0.0,?,0.0,0.0
7700000.0,15.890625,1.3416991957152882E-7,7700000.0,88.2,69.58762886597938,73.30316742081448,60.66666666666668,793024.0,1112.0,0.0,1.0,0.0,?,0.0,0.0
7800000.0,16.09375,1.3699282943788501E-7,7800000.0,88.0,65.59001651679208,69.6969696969697,55.223880597014926,822874.0,1112.0,0.0,1.0,0.0,?,0.0,0.0
7900000.0,16.296875,1.3880680651507443E-7,7900000.0,87.1,66.28473456415833,68.38235294117648,56.856187290969906,852874.0,1112.0,0.0,1.0,0.0,?,0.0,0.0
8000000.0,16.5,1.396118508030971E-7,8000000.0,86.0,63.75141757849113,67.6674364896074,54.983922829582,882874.0,1112.0,0.0,1.0,0.0,?,0.0,0.0
8100000.0,16.703125,1.4193533893881573E-7,8100000.0,87.0,67.34980912196103,68.21515892420538,58.06451612903226,912724.0,1112.0,0.0,1.0,0.0,?,0.0,0.0
8200000.0,16.921875,1.4335101392741004E-7,8200000.0,86.5,66.11819979721115,68.45794392523365,57.00636942675158,942724.0,1112.0,0.0,1.0,0.0,?,0.0,0.0
8300000.0,17.125,1.461840131216579E-7,8300000.0,86.9,65.00021373915274,67.16791979949875,53.87323943661973,972574.0,1112.0,0.0,1.0,0.0,?,0.0,0.0
8400000.0,17.328125,1.4800807952673899E-7,8400000.0,87.4,65.19490851233094,69.7841726618705,54.34782608695653,1002574.0,1112.0,0.0,1.0,0.0,?,0.0,0.0
8500000.0,17.53125,1.488232131426533E-7,8500000.0,86.5,62.99869536140682,64.75195822454309,50.72992700729927,1032574.0,1112.0,0.0,1.0,0.0,?,0.0,0.0
8600000.0,17.734375,1.511567906062636E-7,8600000.0,86.3,64.58117890382627,68.7214611872146,54.333333333333336,1062424.0,1112.0,0.0,1.0,0.0,?,0.0,0.0
8700000.0,17.953125,1.525833310248951E-7,8700000.0,87.0,65.00484548293313,67.5,55.172413793103445,1092424.0,1112.0,0.0,1.0,0.0,?,0.0,0.0
8800000.0,18.171875,1.556451186641223E-7,8800000.0,87.2,67.29354047424366,70.23255813953489,58.16993464052288,1122274.0,1112.0,0.0,1.0,0.0,?,0.0,0.0
8900000.0,18.359375,1.5733818549455867E-7,8900000.0,87.1,66.77655300298754,68.68932038834951,57.56578947368421,1152274.0,1112.0,0.0,1.0,0.0,?,0.0,0.0
9000000.0,18.5625,1.5816340843836465E-7,9000000.0,87.0,66.60707313564721,70.72072072072072,56.3758389261745,1182274.0,1112.0,0.0,1.0,0.0,?,0.0,0.0
9100000.0,18.765625,1.6050707522986661E-7,9100000.0,86.1,63.58930835402718,66.50602409638554,52.721088435374156,1212124.0,1112.0,0.0,1.0,0.0,?,0.0,0.0
9200000.0,18.96875,1.6184180923220182E-7,9200000.0,87.9,68.90834900763673,69.75,58.84353741496599,1242124.0,1112.0,0.0,1.0,0.0,?,0.0,0.0
9300000.0,19.171875,1.6469498708223302E-7,9300000.0,85.2,62.035706956700174,64.67780429594272,50.0,1271974.0,1112.0,0.0,1.0,0.0,?,0.0,0.0
9400000.0,19.375,1.6653923214309743E-7,9400000.0,88.5,71.12207077352673,72.0873786407767,61.920529801324506,1301974.0,1112.0,0.0,1.0,0.0,?,0.0,0.0
9500000.0,19.5625,1.6731028962466448E-7,9500000.0,86.4,64.19827835838575,65.91478696741855,53.898305084745765,1331974.0,1112.0,0.0,1.0,0.0,?,0.0,0.0
9600000.0,19.765625,1.6966404574405813E-7,9600000.0,87.2,67.06734727482298,70.23255813953489,57.89473684210527,1361824.0,1112.0,0.0,1.0,0.0,?,0.0,0.0
9700000.0,19.984375,1.71112317022764E-7,9700000.0,87.7,67.82395781014566,71.3953488372093,57.876712328767134,1391824.0,1112.0,0.0,1.0,0.0,?,0.0,0.0
9800000.0,20.203125,1.7419583552206554E-7,9800000.0,88.1,68.6303868743212,70.39800995024876,57.95053003533569,1421674.0,1112.0,0.0,1.0,0.0,?,0.0,0.0
9900000.0,20.40625,1.7605016991082164E-7,9900000.0,89.0,71.12027094436714,74.71264367816093,61.403508771929836,1451674.0,1112.0,0.0,1.0,0.0,?,0.0,0.0
1.0E7,20.609375,1.7689557151041097E-7,1.0E7,87.4,66.74461447506638,68.88888888888889,56.401384083044995,1481674.0,1112.0,0.0,1.0,0.0,?,0.0,0.0
