learning evaluation instances,evaluation time (cpu seconds),model cost (RAM-Hours),classified instances,classifications correct (percent),Kappa Statistic (percent),Kappa Temporal Statistic (percent),Kappa M Statistic (percent),model training instances,model serialized size (bytes),labeling cost,newThreshold,maxPosterior,accuracyBaseLearner (percent),Change detected,Warning detected
100000.0,0.15625,3.530618010295762E-9,100000.0,61.6,23.620697199823375,23.2,20.496894409937884,59700.0,5144.0,0.0,1.0,0.0,?,0.0,7.0
200000.0,0.3125,6.495328206155036E-9,200000.0,63.2,27.147466988695978,27.98434442270059,22.19873150105708,119700.0,5144.0,0.0,1.0,0.0,?,0.0,77.0
300000.0,0.484375,9.064646696464883E-9,300000.0,60.4,21.968905791247103,22.047244094488185,15.923566878980882,179700.0,5144.0,0.0,1.0,0.0,?,0.0,166.0
400000.0,0.65625,1.0934632478488816E-8,400000.0,61.8,24.37590323283115,25.244618395303327,19.238900634249468,239700.0,5144.0,0.0,1.0,0.0,?,0.0,77.0
500000.0,0.828125,1.2128762642128599E-8,500000.0,60.4,20.72135558474005,24.282982791586996,20.958083832335326,299700.0,5144.0,0.0,1.0,0.0,?,0.0,0.0
600000.0,0.984375,1.5671992312288945E-8,600000.0,62.2,24.940428911834797,27.72466539196941,21.576763485477173,359400.0,5144.0,0.0,1.0,0.0,?,0.0,0.0
700000.0,1.140625,1.8600807783918246E-8,700000.0,59.0,18.26319252008532,17.004048582995946,16.835699797160235,419400.0,5144.0,0.0,1.0,0.0,?,0.0,0.0
800000.0,1.296875,2.0915209057016504E-8,800000.0,62.5,25.82600164567378,22.680412371134018,20.382165605095537,479400.0,5144.0,0.0,1.0,0.0,?,0.0,0.0
900000.0,1.453125,2.263815582005514E-8,900000.0,64.60000000000001,30.80531665363565,31.128404669260707,19.909502262443436,539400.0,5144.0,0.0,1.0,0.0,?,0.0,51.0
1000000.0,1.609375,2.3721141688939598E-8,1000000.0,60.8,21.912039490197177,20.647773279352222,20.162932790224026,599400.0,5144.0,0.0,1.0,0.0,?,0.0,5.0
1100000.0,1.78125,2.7664937078952788E-8,1100000.0,61.5,24.130157178666582,21.267893660531694,14.634146341463406,659100.0,5144.0,0.0,1.0,0.0,?,0.0,5.0
1200000.0,1.96875,3.122996228436629E-8,1200000.0,63.7,27.603289961787297,28.402366863905325,22.601279317697227,719100.0,5144.0,0.0,1.0,0.0,?,0.0,0.0
1300000.0,2.15625,3.405769045154254E-8,1300000.0,61.9,23.86212850314144,26.305609284332686,21.765913757700204,779100.0,5144.0,0.0,1.0,0.0,?,0.0,0.0
1400000.0,2.328125,3.597391898640328E-8,1400000.0,63.0,26.761678543151223,24.489795918367346,21.940928270042193,839100.0,5144.0,0.0,1.0,0.0,?,0.0,0.0
1500000.0,2.484375,3.710153072865473E-8,1500000.0,62.3,25.833536618953563,22.903885480572594,19.27194860813704,899100.0,5144.0,0.0,1.0,0.0,?,0.0,0.0
1600000.0,2.640625,4.068679926503036E-8,1600000.0,61.9,24.431151026625628,26.019417475728158,19.78947368421052,958800.0,5144.0,0.0,1.0,0.0,?,0.0,0.0
1700000.0,2.796875,4.3657653602874944E-8,1700000.0,63.5,27.64253429545635,27.0,23.958333333333332,1018800.0,5144.0,0.0,1.0,0.0,?,0.0,0.0
1800000.0,2.96875,4.6249737756119835E-8,1800000.0,62.0,24.829878145276158,25.63600782778865,19.14893617021276,1078800.0,5144.0,0.0,1.0,0.0,?,0.0,51.0
1900000.0,3.125,4.795554559677839E-8,1900000.0,63.3,26.62524091712451,21.244635193133043,27.037773359840955,1138800.0,5144.0,0.0,1.0,0.0,?,0.0,13.0
2000000.0,3.28125,4.907022230327129E-8,2000000.0,60.6,21.91958906715708,16.52542372881355,15.811965811965804,1198800.0,5144.0,0.0,1.0,0.0,?,0.0,90.0
2100000.0,3.453125,5.3003702002267044E-8,2100000.0,62.3,25.245282719564717,24.75049900199601,20.464135021097043,1258500.0,5144.0,0.0,1.0,0.0,?,0.0,88.0
2200000.0,3.625,5.626132608287864E-8,2200000.0,62.9,26.351480116884762,23.188405797101446,24.13087934560327,1318500.0,5144.0,0.0,1.0,0.0,?,0.0,0.0
2300000.0,3.796875,5.884309454510609E-8,2300000.0,61.5,24.265076167694826,19.117647058823522,14.823008849557512,1378500.0,5144.0,0.0,1.0,0.0,?,0.0,0.0
2400000.0,3.96875,6.074900738894939E-8,2400000.0,62.4,25.73132913267623,25.396825396825395,19.486081370449675,1438500.0,5144.0,0.0,1.0,0.0,?,0.0,0.0
2500000.0,4.140625,6.197906461440854E-8,2500000.0,61.6,23.609149395835896,26.153846153846157,21.14989733059548,1498500.0,5144.0,0.0,1.0,0.0,?,0.0,0.0
2600000.0,4.359375,6.698531150403949E-8,2600000.0,61.7,24.236429814844115,21.516393442622945,19.537815126050415,1558200.0,5144.0,0.0,1.0,0.0,?,0.0,0.0
2700000.0,4.546875,7.053908322834305E-8,2700000.0,63.5,27.38630485815462,23.480083857442345,24.897119341563787,1618200.0,5144.0,0.0,1.0,0.0,?,0.0,0.0
2800000.0,4.6875,7.265143924289278E-8,2800000.0,64.1,28.505994344206805,33.76383763837638,26.734693877551024,1678200.0,5144.0,0.0,1.0,0.0,?,0.0,0.0
2900000.0,4.84375,7.438408728275033E-8,2900000.0,63.9,28.81481598334148,29.492187500000007,22.198275862068964,1738200.0,5144.0,0.0,1.0,0.0,?,0.0,0.0
3000000.0,5.0,7.550232112407684E-8,3000000.0,62.1,24.060270898453147,24.35129740518962,24.95049504950495,1798200.0,5144.0,0.0,1.0,0.0,?,0.0,0.0
3100000.0,5.15625,7.908435590151282E-8,3100000.0,64.5,28.935757925164353,29.141716566866272,27.551020408163268,1857900.0,5144.0,0.0,1.0,0.0,?,0.0,0.0
3200000.0,5.3125,8.205197648041777E-8,3200000.0,63.9,28.91909772541113,26.923076923076927,21.350762527233112,1917900.0,5144.0,0.0,1.0,0.0,?,0.0,0.0
3300000.0,5.46875,8.440518286079167E-8,3300000.0,60.9,22.953843243584075,20.366598778004068,15.184381778741857,1977900.0,5144.0,0.0,1.0,0.0,?,0.0,0.0
3400000.0,5.609375,8.597009582445024E-8,3400000.0,59.699999999999996,19.947558698502235,14.437367303609333,13.333333333333321,2037900.0,5144.0,0.0,1.0,0.0,?,0.0,0.0
3500000.0,5.765625,8.709447380776205E-8,3500000.0,57.699999999999996,16.746049865770228,12.603305785123956,6.622516556291373,2097900.0,5144.0,0.0,1.0,0.0,?,0.0,0.0
3600000.0,5.921875,9.067650858519804E-8,3600000.0,61.7,23.86594044447978,20.37422037422037,20.041753653444673,2157600.0,5144.0,0.0,1.0,0.0,?,0.0,0.0
3700000.0,6.078125,9.364412916410299E-8,3700000.0,63.4,26.92714676462955,26.358148893360163,25.760649087221093,2217600.0,5144.0,0.0,1.0,0.0,?,0.0,0.0
3800000.0,6.234375,9.599733554447689E-8,3800000.0,64.1,28.287775762466737,27.47474747474748,27.766599597585518,2277600.0,5144.0,0.0,1.0,0.0,?,0.0,0.0
3900000.0,6.421875,9.808388616268831E-8,3900000.0,59.599999999999994,20.587495282425458,17.38241308793455,9.821428571428555,2337600.0,5144.0,0.0,1.0,0.0,?,0.0,0.0
4000000.0,6.578125,9.920826414600012E-8,4000000.0,64.4,29.17198871526742,28.94211576846308,26.899383983572893,2397600.0,5144.0,0.0,1.0,0.0,?,0.0,0.0
4100000.0,6.734375,1.0279644306542142E-7,4100000.0,60.099999999999994,21.841944431385443,20.83333333333333,10.937499999999986,2457300.0,5144.0,0.0,1.0,0.0,?,0.0,0.0
4200000.0,6.890625,1.0577020778631168E-7,4200000.0,59.4,19.71429362420752,20.392156862745097,11.930585683297167,2517300.0,5144.0,0.0,1.0,0.0,?,0.0,0.0
4300000.0,7.046875,1.0812955830867089E-7,4300000.0,61.5,23.5097311516057,18.4322033898305,20.289855072463762,2577300.0,5144.0,0.0,1.0,0.0,?,0.0,0.0
4400000.0,7.21875,1.1004898826488187E-7,4400000.0,62.0,24.94894553268474,27.203065134099617,19.320594479830145,2637300.0,5144.0,0.0,1.0,0.0,?,0.0,0.0
4500000.0,7.390625,1.112925626027087E-7,4500000.0,59.699999999999996,20.402923168082154,11.23348017621144,14.25531914893616,2697300.0,5144.0,0.0,1.0,0.0,?,0.0,0.0
4600000.0,7.5625,1.1523955941407214E-7,4600000.0,63.7,27.635041385579633,30.725190839694662,26.369168356997974,2757000.0,5144.0,0.0,1.0,0.0,?,0.0,0.0
4700000.0,7.703125,1.1791594766287337E-7,4700000.0,65.9,31.875209768415676,31.663326653306616,29.399585921325055,2817000.0,5144.0,0.0,1.0,0.0,?,0.0,0.0
4800000.0,7.84375,1.2003936313299667E-7,4800000.0,62.3,25.9122423632619,24.448897795591183,17.86492374727668,2877000.0,5144.0,0.0,1.0,0.0,?,0.0,0.0
4900000.0,7.984375,1.2160980582444202E-7,4900000.0,64.2,28.830433537962406,29.941291585127207,25.72614107883818,2937000.0,5144.0,0.0,1.0,0.0,?,0.0,0.0
5000000.0,8.125,1.227113858072294E-7,5000000.0,62.1,25.049637311437543,24.801587301587304,20.042194092827,2997000.0,5144.0,0.0,1.0,0.0,?,0.0,0.0
5100000.0,8.328125,1.273608844106396E-7,5100000.0,55.800000000000004,8.361495241846887,6.3559322033898376,-8.59950859950858,41594.0,5144.0,0.0,1.0,0.0,?,1.0,7.0
5200000.0,8.5,1.3075865960369507E-7,5200000.0,66.4,29.710348059294354,33.59683794466404,16.209476309226947,101594.0,5144.0,0.0,1.0,0.0,?,0.0,59.0
5300000.0,8.65625,1.3323313194430535E-7,5300000.0,63.800000000000004,25.400508595427585,24.583333333333332,11.491442542787295,161594.0,5144.0,0.0,1.0,0.0,?,0.0,47.0
5400000.0,8.8125,1.3508025505062604E-7,5400000.0,64.3,18.457405986185723,28.742514970059887,9.848484848484857,46400.0,5144.0,0.0,1.0,0.0,?,3.0,86.0
5500000.0,8.96875,1.363129639584157E-7,5500000.0,65.9,23.0894147578106,28.958333333333336,14.962593516209488,106400.0,5144.0,0.0,1.0,0.0,?,0.0,0.0
5600000.0,9.125,1.3999427513529855E-7,5600000.0,66.4,25.89717350647519,32.3943661971831,19.617224880382793,22479.0,5144.0,0.0,1.0,0.0,?,2.0,104.0
5700000.0,9.296875,1.433717746598025E-7,5700000.0,65.60000000000001,23.241699393073908,30.78470824949699,18.09523809523811,82479.0,5144.0,0.0,1.0,0.0,?,0.0,25.0
5800000.0,9.46875,1.4609369423447382E-7,5800000.0,66.0,22.106603985392713,29.89690721649485,12.14470284237727,142479.0,5144.0,0.0,1.0,0.0,?,0.0,31.0
5900000.0,9.625,1.4793693683006695E-7,5900000.0,63.6,20.684726144406095,25.865580448065174,15.740740740740753,202479.0,5144.0,0.0,1.0,0.0,?,0.0,14.0
6000000.0,9.78125,1.4918258077361515E-7,6000000.0,63.5,18.33648054842088,26.113360323886642,11.19221411192215,262479.0,5144.0,0.0,1.0,0.0,?,0.0,66.0
6100000.0,9.9375,1.5289202565327284E-7,6100000.0,63.0,17.500947624250273,22.594142259414223,10.843373493975912,322179.0,5144.0,0.0,1.0,0.0,?,0.0,26.0
6200000.0,10.109375,1.5628339800362783E-7,6200000.0,62.6,17.332354878496243,24.748490945674046,11.583924349881807,382179.0,5144.0,0.0,1.0,0.0,?,0.0,88.0
6300000.0,10.28125,1.5899891473559865E-7,6300000.0,63.5,19.155496097314632,25.661914460285136,13.507109004739348,442179.0,5144.0,0.0,1.0,0.0,?,0.0,87.0
6400000.0,10.453125,1.6101083019748325E-7,6400000.0,68.60000000000001,29.3921881675699,36.178861788617894,22.469135802469154,502179.0,5144.0,0.0,1.0,0.0,?,0.0,152.0
6500000.0,10.609375,1.6222543005521094E-7,6500000.0,65.3,20.0571349583007,28.747433264887068,12.151898734177227,562179.0,5144.0,0.0,1.0,0.0,?,0.0,0.0
6600000.0,10.75,1.6553046104187763E-7,6600000.0,63.7,17.181525320094554,20.219780219780215,9.925558312655095,621879.0,5144.0,0.0,1.0,0.0,?,0.0,0.0
6700000.0,10.90625,1.6858830349519845E-7,6700000.0,64.7,20.38072897870805,23.92241379310345,12.623762376237636,681879.0,5144.0,0.0,1.0,0.0,?,0.0,0.0
6800000.0,11.0625,1.7103173174998822E-7,6800000.0,64.1,18.297678652708242,26.734693877551024,10.250000000000009,741879.0,5144.0,0.0,1.0,0.0,?,0.0,0.0
6900000.0,11.234375,1.730436472118728E-7,6900000.0,66.3,20.61547739072262,25.934065934065938,12.919896640826883,801879.0,5144.0,0.0,1.0,0.0,?,0.0,0.0
7000000.0,11.375,1.7413678708382774E-7,7000000.0,66.0,22.229541794759196,28.421052631578952,14.141414141414153,861879.0,5144.0,0.0,1.0,0.0,?,0.0,0.0
7100000.0,11.53125,1.778151878776649E-7,7100000.0,63.800000000000004,20.679439760197734,28.17460317460318,13.397129186602882,921579.0,5144.0,0.0,1.0,0.0,?,0.0,0.0
7200000.0,11.6875,1.8087917447297103E-7,7200000.0,67.30000000000001,24.592522898967832,35.629921259842526,17.005076142131994,981579.0,5144.0,0.0,1.0,0.0,?,0.0,0.0
7300000.0,11.84375,1.8332874686974613E-7,7300000.0,63.800000000000004,18.023877244152974,27.016129032258068,9.950248756218913,1041579.0,5144.0,0.0,1.0,0.0,?,0.0,0.0
7400000.0,12.0,1.8516390506799017E-7,7400000.0,66.7,24.489795918367367,30.625000000000007,16.750000000000014,1101579.0,5144.0,0.0,1.0,0.0,?,0.0,0.0
7500000.0,12.171875,1.8650672346767446E-7,7500000.0,63.800000000000004,21.13530306265169,28.880157170923383,16.00928074245941,1161579.0,5144.0,0.0,1.0,0.0,?,0.0,0.0
7600000.0,12.3125,1.8981728418212792E-7,7600000.0,65.7,23.27994989711015,28.838174273858925,17.548076923076938,1221279.0,5144.0,0.0,1.0,0.0,?,0.0,0.0
7700000.0,12.484375,1.9318766943696467E-7,7700000.0,64.0,21.545039685134093,26.07802874743327,16.859122401847586,1281279.0,5144.0,0.0,1.0,0.0,?,0.0,0.0
7800000.0,12.640625,1.9563724183373977E-7,7800000.0,65.9,25.279598920169693,33.39843750000001,20.327102803738335,1341279.0,5144.0,0.0,1.0,0.0,?,0.0,0.0
7900000.0,12.796875,1.974724000319838E-7,7900000.0,65.4,22.01867945620425,28.512396694214882,15.196078431372563,1401279.0,5144.0,0.0,1.0,0.0,?,0.0,0.0
8000000.0,12.9375,1.985710696317255E-7,8000000.0,66.3,22.952408823206653,27.526881720430108,14.898989898989912,1461279.0,5144.0,0.0,1.0,0.0,?,0.0,0.0
8100000.0,13.09375,2.02255614567548E-7,8100000.0,62.7,18.269146493242417,21.802935010482177,12.028301886792462,1520979.0,5144.0,0.0,1.0,0.0,?,0.0,0.0
8200000.0,13.234375,2.050187322311103E-7,8200000.0,64.7,21.305832731423273,25.840336134453786,14.734299516908225,1580979.0,5144.0,0.0,1.0,0.0,?,0.0,0.0
8300000.0,13.390625,2.074744487698707E-7,8300000.0,68.8,28.57535300258226,33.61702127659573,20.812182741116743,1640979.0,5144.0,0.0,1.0,0.0,?,0.0,0.0
8400000.0,13.546875,2.0931575111010003E-7,8400000.0,68.30000000000001,25.0201050191589,29.39866369710468,14.324324324324337,1700979.0,5144.0,0.0,1.0,0.0,?,0.0,0.0
8500000.0,13.703125,2.1054263925179833E-7,8500000.0,65.8,23.23887075849872,28.750000000000004,17.19128329297822,1760979.0,5144.0,0.0,1.0,0.0,?,0.0,0.0
8600000.0,13.84375,2.1385872969403855E-7,8600000.0,64.4,20.268042714828358,23.110151187904965,13.592233009708748,1820679.0,5144.0,0.0,1.0,0.0,?,0.0,0.0
8700000.0,14.0,2.1692886043133E-7,8700000.0,64.9,23.975949542556144,28.803245436105477,19.679633867276902,1880679.0,5144.0,0.0,1.0,0.0,?,0.0,0.0
8800000.0,14.15625,2.193845769700904E-7,8800000.0,63.1,19.76167695920676,22.478991596638654,14.583333333333345,1940679.0,5144.0,0.0,1.0,0.0,?,0.0,0.0
8900000.0,14.3125,2.2122587931031974E-7,8900000.0,64.7,23.015859169181933,29.960317460317466,17.330210772833738,2000679.0,5144.0,0.0,1.0,0.0,?,0.0,0.0
9000000.0,14.453125,2.223300786378482E-7,9000000.0,65.2,22.014010586373974,28.395061728395067,15.73849878934626,2060679.0,5144.0,0.0,1.0,0.0,?,0.0,0.0
9100000.0,14.609375,2.26020767715656E-7,9100000.0,68.10000000000001,27.212157166978514,34.63114754098361,19.24050632911394,2120379.0,5144.0,0.0,1.0,0.0,?,0.0,0.0
9200000.0,14.765625,2.2909704259493275E-7,9200000.0,66.60000000000001,23.311826969439537,29.53586497890296,15.443037974683557,2180379.0,5144.0,0.0,1.0,0.0,?,0.0,0.0
9300000.0,14.921875,2.3155890327567845E-7,9300000.0,66.10000000000001,22.295469757121776,28.78151260504202,12.40310077519381,2240379.0,5144.0,0.0,1.0,0.0,?,0.0,0.0
9400000.0,15.09375,2.3361884005781667E-7,9400000.0,67.60000000000001,26.94146297465503,35.20000000000001,20.975609756097576,2300379.0,5144.0,0.0,1.0,0.0,?,0.0,24.0
9500000.0,15.265625,2.34975531283352E-7,9500000.0,66.10000000000001,23.197520571283583,28.329809725158565,15.461346633416472,2360379.0,5144.0,0.0,1.0,0.0,?,0.0,154.0
9600000.0,15.390625,2.3792989345060442E-7,9600000.0,63.7,19.852687915639986,24.217118997912316,13.776722090261293,2420079.0,5144.0,0.0,1.0,0.0,?,0.0,154.0
9700000.0,15.5625,2.4134154146951094E-7,9700000.0,64.60000000000001,21.415759470066952,27.755102040816325,15.311004784689008,2480079.0,5144.0,0.0,1.0,0.0,?,0.0,79.0
9800000.0,15.71875,2.4382862546998583E-7,9800000.0,69.1,25.97029228557737,31.93832599118941,14.16666666666665,2540079.0,5144.0,0.0,1.0,0.0,?,0.0,55.0
9900000.0,15.859375,2.455140282917353E-7,9900000.0,64.3,21.13913089578879,22.894168466522675,14.79713603818617,2600079.0,5144.0,0.0,1.0,0.0,?,0.0,0.0
1.0E7,16.015625,2.4677228389514807E-7,1.0E7,66.4,24.74736615781553,28.96405919661734,18.446601941747588,2660079.0,5144.0,0.0,1.0,0.0,?,0.0,0.0
