learning evaluation instances,evaluation time (cpu seconds),model cost (RAM-Hours),classified instances,classifications correct (percent),Kappa Statistic (percent),Kappa Temporal Statistic (percent),Kappa M Statistic (percent),model training instances,model serialized size (bytes),labeling cost,newThreshold,maxPosterior,accuracyBaseLearner (percent),Change detected,Warning detected,tree size (nodes),tree size (leaves),active learning leaves,tree depth,active leaf byte size estimate,inactive leaf byte size estimate,byte size estimate overhead
100000.0,0.59375,4.376840984655751E-8,100000.0,68.2,30.99227894743695,30.567685589519655,10.924369747899169,25105.0,105928.0,0.0,1.0,0.0,?,4.0,19.0,29.0,24.0,24.0,4.0,0.0,0.0,1.0
200000.0,1.078125,7.767078285622927E-8,200000.0,69.89999999999999,37.501038188734405,36.09341825902334,20.58047493403693,55105.0,105936.0,0.0,1.0,0.0,?,0.0,0.0,29.0,24.0,24.0,4.0,0.0,0.0,1.0
300000.0,1.671875,1.7497433064919379E-7,300000.0,64.8,26.98064987221615,28.888888888888893,7.853403141361263,85105.0,482200.0,0.0,1.0,0.0,?,0.0,0.0,149.0,110.0,110.0,4.0,0.0,0.0,1.0
400000.0,2.203125,2.787232774102853E-7,400000.0,69.1,37.56415333759001,37.322515212981735,15.573770491803263,115105.0,617544.0,0.0,1.0,0.0,?,0.0,0.0,203.0,144.0,144.0,6.0,0.0,0.0,1.0
500000.0,2.703125,3.841717585196925E-7,500000.0,70.8,41.47475597779247,38.91213389121338,25.699745547073782,145105.0,691848.0,0.0,1.0,0.0,?,0.0,0.0,235.0,160.0,160.0,6.0,0.0,0.0,1.0
600000.0,3.203125,4.907512791558272E-7,600000.0,72.39999999999999,44.58654738050972,42.49999999999999,29.770992366412212,175105.0,714888.0,0.0,1.0,0.0,?,0.0,0.0,241.0,163.0,163.0,6.0,0.0,0.0,1.0
700000.0,3.6875,6.009071754912535E-7,700000.0,71.3,42.473902794926474,37.6086956521739,20.93663911845729,205105.0,784160.0,0.0,1.0,0.0,?,0.0,0.0,266.0,179.0,179.0,7.0,0.0,0.0,1.0
800000.0,4.171875,7.129707632379399E-7,800000.0,72.7,45.12342204711747,41.16379310344826,24.166666666666657,235105.0,813616.0,0.0,1.0,0.0,?,0.0,0.0,284.0,188.0,188.0,7.0,0.0,0.0,1.0
900000.0,4.703125,8.448575519853168E-7,900000.0,74.9,48.7997519541768,48.24742268041237,35.47557840616967,265105.0,893040.0,0.0,1.0,0.0,?,0.0,0.0,311.0,205.0,205.0,8.0,0.0,0.0,1.0
1000000.0,5.234375,9.92920961127513E-7,1000000.0,78.3,55.70054384217145,54.219409282700425,44.64285714285715,295105.0,1024760.0,0.0,1.0,0.0,?,0.0,0.0,355.0,236.0,236.0,8.0,0.0,0.0,1.0
1100000.0,5.78125,1.169068822895901E-6,1100000.0,76.0,50.89313117672335,48.387096774193544,37.66233766233766,324805.0,1062552.0,0.0,1.0,0.0,?,0.0,0.0,371.0,244.0,244.0,8.0,0.0,0.0,1.0
1200000.0,6.34375,1.3615266329401897E-6,1200000.0,80.2,58.562148406107696,58.835758835758845,46.195652173913054,354805.0,1154240.0,0.0,1.0,0.0,?,0.0,0.0,397.0,264.0,264.0,9.0,0.0,0.0,1.0
1300000.0,6.921875,1.5623336851907272E-6,1300000.0,79.3,57.810207076471556,59.72762645914398,47.72727272727274,384805.0,1188512.0,0.0,1.0,0.0,?,0.0,0.0,417.0,274.0,274.0,9.0,0.0,0.0,1.0
1400000.0,7.484375,1.7610429980171222E-6,1400000.0,78.8,56.24752344472329,51.152073732718904,41.4364640883978,414805.0,1225616.0,0.0,1.0,0.0,?,0.0,0.0,429.0,280.0,280.0,9.0,0.0,0.0,1.0
1500000.0,8.046875,1.9637651469868918E-6,1500000.0,79.2,57.26021542495264,53.67483296213808,46.25322997416022,444805.0,1267376.0,0.0,1.0,0.0,?,0.0,0.0,447.0,289.0,289.0,9.0,0.0,0.0,1.0
1600000.0,8.609375,2.167864489213874E-6,1600000.0,75.8,50.52359125126247,47.391304347826086,37.789203084832906,474805.0,1291120.0,0.0,1.0,0.0,?,0.0,0.0,457.0,294.0,294.0,9.0,0.0,0.0,1.0
1700000.0,9.1875,2.3807513126586047E-6,1700000.0,78.7,56.31378597446921,54.58422174840085,45.24421593830335,504805.0,1326168.0,0.0,1.0,0.0,?,0.0,0.0,475.0,303.0,303.0,10.0,0.0,0.0,1.0
1800000.0,9.75,2.5884374109510745E-6,1800000.0,78.2,55.10856314454219,55.144032921810705,43.22916666666667,534805.0,1344272.0,0.0,1.0,0.0,?,0.0,0.0,483.0,307.0,307.0,10.0,0.0,0.0,1.0
1900000.0,10.328125,2.8018411184247166E-6,1900000.0,78.60000000000001,56.472038369694786,53.97849462365591,44.70284237726099,564805.0,1358256.0,0.0,1.0,0.0,?,0.0,0.0,489.0,310.0,310.0,10.0,0.0,0.0,1.0
2000000.0,10.890625,3.011642483114782E-6,2000000.0,79.7,58.23045267489712,56.250000000000014,45.866666666666674,594805.0,1387360.0,0.0,1.0,0.0,?,0.0,0.0,505.0,318.0,318.0,10.0,0.0,0.0,1.0
2100000.0,11.5,3.2792846064290234E-6,2100000.0,81.10000000000001,61.58880100153645,61.66328600405681,50.652741514360336,624505.0,1512920.0,0.0,1.0,0.0,?,0.0,0.0,567.0,349.0,349.0,10.0,0.0,0.0,1.0
2200000.0,12.15625,3.5985747753228574E-6,2200000.0,82.3,63.262764632627636,62.815126050420155,50.83333333333332,654505.0,1709240.0,0.0,1.0,0.0,?,0.0,0.0,649.0,390.0,390.0,10.0,0.0,0.0,1.0
2300000.0,12.78125,3.929987207003351E-6,2300000.0,80.7,60.27138963680228,55.83524027459956,47.26775956284154,684505.0,1891888.0,0.0,1.0,0.0,?,0.0,0.0,726.0,436.0,436.0,10.0,0.0,0.0,1.0
2400000.0,13.46875,4.335840640123933E-6,2400000.0,77.8,54.98801708022272,55.42168674698795,44.08060453400505,714505.0,2137384.0,0.0,1.0,0.0,?,0.0,0.0,821.0,488.0,488.0,10.0,0.0,0.0,1.0
2500000.0,14.125,4.7448860520186516E-6,2500000.0,78.0,55.78778135048233,54.82546201232034,45.000000000000014,744505.0,2278616.0,0.0,1.0,0.0,?,0.0,0.0,873.0,517.0,517.0,11.0,0.0,0.0,1.0
2600000.0,14.796875,5.175339853546271E-6,2600000.0,80.4,60.38291129006178,57.75862068965518,51.7241379310345,774505.0,2359704.0,0.0,1.0,0.0,?,0.0,0.0,913.0,537.0,537.0,12.0,0.0,0.0,1.0
2700000.0,15.453125,5.601103087731947E-6,2700000.0,81.3,61.13365036081273,57.787810383747164,49.32249322493224,804505.0,2405200.0,0.0,1.0,0.0,?,0.0,0.0,933.0,547.0,547.0,12.0,0.0,0.0,1.0
2800000.0,16.140625,6.071329278509236E-6,2800000.0,82.0,62.71083913041675,60.78431372549018,51.48247978436656,834505.0,2555216.0,0.0,1.0,0.0,?,0.0,0.0,984.0,585.0,585.0,12.0,0.0,0.0,1.0
2900000.0,16.828125,6.551427229876733E-6,2900000.0,82.39999999999999,63.430851063829785,64.15478615071282,52.43243243243242,864505.0,2624888.0,0.0,1.0,0.0,?,0.0,0.0,1004.0,598.0,598.0,12.0,0.0,0.0,1.0
3000000.0,17.5,7.02838267898187E-6,3000000.0,81.39999999999999,61.9574332312047,59.91379310344826,51.937984496124024,894505.0,2683904.0,0.0,1.0,0.0,?,0.0,0.0,1044.0,627.0,627.0,12.0,0.0,0.0,1.0
3100000.0,18.171875,7.547163469199505E-6,3100000.0,82.6,64.33958551941237,63.291139240506325,56.060606060606055,924205.0,2794352.0,0.0,1.0,0.0,?,0.0,0.0,1061.0,637.0,637.0,12.0,0.0,0.0,1.0
3200000.0,18.890625,8.103694223488371E-6,3200000.0,82.0,63.09584828293182,62.42171189979122,51.99999999999999,954205.0,2817000.0,0.0,1.0,0.0,?,0.0,0.0,1071.0,642.0,642.0,12.0,0.0,0.0,1.0
3300000.0,19.578125,8.663527486431931E-6,3300000.0,81.89999999999999,62.60546910509308,62.44813278008298,52.24274406332453,984205.0,2985568.0,0.0,1.0,0.0,?,0.0,0.0,1128.0,684.0,684.0,12.0,0.0,0.0,1.0
3400000.0,20.4375,9.403534252972653E-6,3400000.0,83.6,66.36987396905208,65.90436590436589,56.7282321899736,1014205.0,3180320.0,0.0,1.0,0.0,?,0.0,0.0,1187.0,727.0,727.0,12.0,4294.174647887324,0.0,1.018698111821321
3500000.0,21.171875,1.004631627842577E-5,3500000.0,82.1,63.49471795080963,60.31042128603102,54.68354430379746,1044205.0,3249256.0,0.0,1.0,0.0,?,0.0,0.0,1217.0,745.0,745.0,12.0,4294.174647887324,0.0,1.018698111821321
3600000.0,21.890625,1.068565777839265E-5,3600000.0,83.0,64.91445318143356,62.55506607929514,55.38057742782151,1074205.0,3318368.0,0.0,1.0,0.0,?,0.0,0.0,1248.0,762.0,762.0,13.0,4294.174647887324,0.0,1.018698111821321
3700000.0,22.625,1.1345357440101605E-5,3700000.0,83.5,65.35069298614027,64.13043478260867,54.16666666666665,1104205.0,3366496.0,0.0,1.0,0.0,?,0.0,0.0,1272.0,774.0,774.0,13.0,4294.174647887324,0.0,1.018698111821321
3800000.0,23.359375,1.2006636243313551E-5,3800000.0,81.89999999999999,62.63603785113866,59.507829977628624,50.81521739130434,1134205.0,3389064.0,0.0,1.0,0.0,?,0.0,0.0,1288.0,782.0,782.0,13.0,4294.174647887324,0.0,1.018698111821321
3900000.0,24.125,1.2715552357905026E-5,3900000.0,83.3,65.24887631097053,64.84210526315789,54.24657534246574,1164205.0,3501392.0,0.0,1.0,0.0,?,0.0,0.0,1330.0,806.0,806.0,13.0,4294.174647887324,0.0,1.018698111821321
4000000.0,24.875,1.3414660513970173E-5,4000000.0,84.0,67.37716483095254,66.45702306079664,58.86889460154241,1194205.0,3539584.0,0.0,1.0,0.0,?,0.0,0.0,1354.0,818.0,818.0,13.0,4294.174647887324,0.0,1.018698111821321
4100000.0,25.625,1.4161413580748355E-5,4100000.0,83.3,65.60247167868177,64.46808510638297,55.466666666666654,1223905.0,3655088.0,0.0,1.0,0.0,?,0.0,0.0,1396.0,848.0,848.0,13.0,4294.174647887324,0.0,1.018698111821321
4200000.0,26.359375,1.4899738986666003E-5,4200000.0,85.0,68.64666463218356,68.01705756929637,61.63682864450127,1253905.0,3706752.0,0.0,1.0,0.0,?,0.0,0.0,1414.0,857.0,857.0,13.0,4294.174647887324,0.0,1.018698111821321
4300000.0,27.140625,1.5694811978998283E-5,4300000.0,82.6,64.16139729356757,62.899786780383785,54.80519480519479,1283905.0,3768416.0,0.0,1.0,0.0,?,0.0,0.0,1438.0,869.0,869.0,13.0,4294.174647887324,0.0,1.018698111821321
4400000.0,27.953125,1.653975955883248E-5,4400000.0,84.0,67.32026143790848,66.38655462184873,59.59595959595959,1313905.0,3868392.0,0.0,1.0,0.0,?,0.0,0.0,1479.0,894.0,894.0,13.0,4294.174647887324,0.0,1.018698111821321
4500000.0,28.78125,1.742574244013263E-5,4500000.0,84.1,65.96251166693781,65.43478260869564,52.39520958083831,1343905.0,3997936.0,0.0,1.0,0.0,?,0.0,0.0,1530.0,924.0,924.0,13.0,4294.174647887324,0.0,1.018698111821321
4600000.0,29.578125,1.828850725562208E-5,4600000.0,87.0,72.65138510215759,71.36563876651982,64.48087431693989,1373905.0,4061560.0,0.0,1.0,0.0,?,0.0,0.0,1556.0,937.0,937.0,13.0,4294.174647887324,0.0,1.018698111821321
4700000.0,30.421875,1.9222260000080696E-5,4700000.0,83.2,65.0477680503312,64.40677966101694,55.3191489361702,1403905.0,4168160.0,0.0,1.0,0.0,?,0.0,0.0,1595.0,958.0,958.0,13.0,4294.174647887324,0.0,1.018698111821321
4800000.0,31.265625,2.0179555415072374E-5,4800000.0,84.0,66.33733358019288,66.52719665271965,57.21925133689839,1433905.0,4289920.0,0.0,1.0,0.0,?,0.0,0.0,1640.0,985.0,985.0,13.0,4294.174647887324,0.0,1.018698111821321
4900000.0,32.109375,2.1161366150610976E-5,4900000.0,83.3,64.93011222364088,64.84210526315789,55.10752688172042,1463905.0,4416312.0,0.0,1.0,0.0,?,0.0,0.0,1692.0,1023.0,1023.0,13.0,4294.174647887324,0.0,1.018698111821321
5000000.0,32.96875,2.2199366552134354E-5,5000000.0,84.8,68.11746198217095,67.170626349892,59.466666666666654,1493905.0,4597832.0,0.0,1.0,0.0,?,0.0,0.0,1751.0,1065.0,1065.0,13.0,4294.174647887324,0.0,1.018698111821321
5100000.0,33.8125,2.2254720291433233E-5,5100000.0,97.6,95.09595579821493,94.98956158663883,94.44444444444444,26268.0,69696.0,0.0,1.0,0.0,?,1.0,33.0,28.0,16.0,16.0,4.0,0.0,0.0,1.0
5200000.0,34.109375,2.2273147802075576E-5,5200000.0,98.3,96.56637797311272,96.69260700389106,96.23893805309734,56268.0,70440.0,0.0,1.0,0.0,?,0.0,0.0,28.0,16.0,16.0,4.0,0.0,0.0,1.0
5300000.0,34.421875,2.229283622000366E-5,5300000.0,97.8,95.57165861513687,95.42619542619542,95.21739130434781,86268.0,88344.0,0.0,1.0,0.0,?,0.0,0.0,36.0,20.0,20.0,5.0,0.0,0.0,1.0
5400000.0,34.6875,2.23088853009459E-5,5400000.0,98.2,96.37681159420289,96.44268774703558,96.08695652173913,116268.0,92736.0,0.0,1.0,0.0,?,0.0,0.0,38.0,21.0,21.0,5.0,0.0,0.0,1.0
5500000.0,35.0,2.2327247877708737E-5,5500000.0,97.5,94.97471275458105,94.81327800829875,94.60043196544275,146268.0,100672.0,0.0,1.0,0.0,?,0.0,0.0,42.0,23.0,23.0,5.0,0.0,0.0,1.0
5600000.0,35.28125,2.2342734607971374E-5,5600000.0,97.39999999999999,94.75975491776846,94.88188976377953,94.24778761061945,176268.0,100784.0,0.0,1.0,0.0,?,0.0,0.0,42.0,23.0,23.0,5.0,0.0,0.0,1.0
5700000.0,35.578125,2.235833397005788E-5,5700000.0,97.39999999999999,94.71645661194812,94.6938775510204,93.99538106235565,206268.0,105424.0,0.0,1.0,0.0,?,0.0,0.0,44.0,24.0,24.0,5.0,0.0,0.0,1.0
5800000.0,35.859375,2.2372066903497193E-5,5800000.0,96.89999999999999,93.71696338813761,93.7875751503006,92.9705215419501,236268.0,105456.0,0.0,1.0,0.0,?,0.0,0.0,44.0,24.0,24.0,5.0,0.0,0.0,1.0
5900000.0,36.15625,2.2385479565451125E-5,5900000.0,97.1,94.1979112480493,93.92033542976938,94.19999999999999,266268.0,105744.0,0.0,1.0,0.0,?,0.0,0.0,46.0,25.0,25.0,5.0,0.0,0.0,1.0
6000000.0,36.4375,2.239746859736947E-5,6000000.0,96.7,93.35657859771466,93.57976653696497,92.77899343544857,296268.0,110256.0,0.0,1.0,0.0,?,0.0,0.0,48.0,26.0,26.0,5.0,0.0,0.0,1.0
6100000.0,36.71875,2.24189000760412E-5,6100000.0,97.39999999999999,94.7824690961631,94.98069498069498,94.4915254237288,325968.0,110288.0,0.0,1.0,0.0,?,0.0,0.0,48.0,26.0,26.0,5.0,0.0,0.0,1.0
6200000.0,37.0,2.243930826403407E-5,6200000.0,98.5,96.98210994777038,96.95740365111561,96.75324675324674,355968.0,110616.0,0.0,1.0,0.0,?,0.0,0.0,50.0,27.0,27.0,5.0,0.0,0.0,1.0
6300000.0,37.28125,2.2458671042436936E-5,6300000.0,97.8,95.59379606485932,95.72815533980582,95.45454545454545,385968.0,110648.0,0.0,1.0,0.0,?,0.0,0.0,50.0,27.0,27.0,5.0,0.0,0.0,1.0
6400000.0,37.5625,2.247698608294336E-5,6400000.0,97.2,94.39831949584875,94.70699432892249,94.36619718309859,415968.0,110648.0,0.0,1.0,0.0,?,0.0,0.0,50.0,27.0,27.0,5.0,0.0,0.0,1.0
6500000.0,37.875,2.2496534802485255E-5,6500000.0,96.2,92.38415905082572,91.9661733615222,92.0335429769392,445968.0,115112.0,0.0,1.0,0.0,?,0.0,0.0,52.0,28.0,28.0,5.0,0.0,0.0,1.0
6600000.0,38.171875,2.2514000754906898E-5,6600000.0,96.8,93.59169483650811,93.7984496124031,93.3609958506224,475968.0,115120.0,0.0,1.0,0.0,?,0.0,0.0,52.0,28.0,28.0,5.0,0.0,0.0,1.0
6700000.0,38.484375,2.2531551011424095E-5,6700000.0,97.1,94.16184179799167,93.86892177589851,93.59823399558498,505968.0,119168.0,0.0,1.0,0.0,?,0.0,0.0,54.0,29.0,29.0,5.0,0.0,0.0,1.0
6800000.0,38.765625,2.254629966854635E-5,6800000.0,96.7,93.35647160193588,93.55468749999999,92.7947598253275,535968.0,119184.0,0.0,1.0,0.0,?,0.0,0.0,54.0,29.0,29.0,5.0,0.0,0.0,1.0
6900000.0,39.0625,2.2561464025380294E-5,6900000.0,96.7,93.3373712901272,93.41317365269461,92.66666666666666,565968.0,128280.0,0.0,1.0,0.0,?,0.0,0.0,58.0,31.0,31.0,6.0,0.0,0.0,1.0
7000000.0,39.375,2.2576262999791648E-5,7000000.0,97.0,93.95122265952641,93.91480730223122,93.36283185840706,595968.0,128288.0,0.0,1.0,0.0,?,0.0,0.0,58.0,31.0,31.0,6.0,0.0,0.0,1.0
7100000.0,39.65625,2.2599022777285424E-5,7100000.0,97.3,94.58948195291647,94.6215139442231,94.29175475687103,625668.0,128296.0,0.0,1.0,0.0,?,0.0,0.0,58.0,31.0,31.0,6.0,0.0,0.0,1.0
7200000.0,39.96875,2.2623147265726903E-5,7200000.0,96.6,93.19564521293627,93.29388560157791,93.0327868852459,655668.0,128296.0,0.0,1.0,0.0,?,0.0,0.0,58.0,31.0,31.0,6.0,0.0,0.0,1.0
7300000.0,40.265625,2.2644959584188953E-5,7300000.0,97.0,93.99231015700096,94.05940594059405,93.74999999999999,685668.0,128296.0,0.0,1.0,0.0,?,0.0,0.0,58.0,31.0,31.0,6.0,0.0,0.0,1.0
7400000.0,40.578125,2.2667028048696614E-5,7400000.0,97.6,95.1838756155609,95.33073929961088,94.88272921108741,715668.0,131640.0,0.0,1.0,0.0,?,0.0,0.0,60.0,32.0,32.0,6.0,0.0,0.0,1.0
7500000.0,40.90625,2.2688997948231793E-5,7500000.0,97.2,94.37084095615288,94.52054794520548,93.9524838012959,745668.0,131872.0,0.0,1.0,0.0,?,0.0,0.0,62.0,33.0,33.0,6.0,0.0,0.0,1.0
7600000.0,41.203125,2.270777137406791E-5,7600000.0,97.89999999999999,95.79073962717979,95.96928982725528,95.57894736842105,775668.0,131896.0,0.0,1.0,0.0,?,0.0,0.0,62.0,33.0,33.0,6.0,0.0,0.0,1.0
7700000.0,41.53125,2.2727298589112854E-5,7700000.0,97.8,95.5834644910545,95.80952380952381,95.25862068965517,805668.0,131896.0,0.0,1.0,0.0,?,0.0,0.0,62.0,33.0,33.0,6.0,0.0,0.0,1.0
7800000.0,41.84375,2.2744731783556438E-5,7800000.0,97.8,95.5834644910545,95.57344064386317,95.35864978902954,835668.0,131896.0,0.0,1.0,0.0,?,0.0,0.0,62.0,33.0,33.0,6.0,0.0,0.0,1.0
7900000.0,42.15625,2.2761000824781752E-5,7900000.0,97.1,94.19526333488126,94.11764705882352,93.99585921325051,865668.0,131896.0,0.0,1.0,0.0,?,0.0,0.0,62.0,33.0,33.0,6.0,0.0,0.0,1.0
8000000.0,42.46875,2.2776105712788797E-5,8000000.0,97.3,94.5402484793581,94.375,93.90519187358916,895668.0,131896.0,0.0,1.0,0.0,?,0.0,0.0,62.0,33.0,33.0,6.0,0.0,0.0,1.0
8100000.0,42.78125,2.280169962129245E-5,8100000.0,97.0,93.98373201135871,94.1860465116279,93.67088607594937,925368.0,131896.0,0.0,1.0,0.0,?,0.0,0.0,62.0,33.0,33.0,6.0,0.0,0.0,1.0
8200000.0,43.09375,2.282613002332962E-5,8200000.0,97.7,95.38167448435392,95.13742071881607,95.08547008547008,955368.0,131904.0,0.0,1.0,0.0,?,0.0,0.0,62.0,33.0,33.0,6.0,0.0,0.0,1.0
8300000.0,43.421875,2.2850559584589464E-5,8300000.0,97.0,93.97841865245039,94.25287356321839,93.58974358974358,985368.0,131904.0,0.0,1.0,0.0,?,0.0,0.0,62.0,33.0,33.0,6.0,0.0,0.0,1.0
8400000.0,43.734375,2.2872661680190095E-5,8400000.0,97.39999999999999,94.7824690961631,94.9119373776908,94.46808510638297,1015368.0,131904.0,0.0,1.0,0.0,?,0.0,0.0,62.0,33.0,33.0,6.0,3880.7272727272725,0.0,1.0299850074962518
8500000.0,44.046875,2.289344310863978E-5,8500000.0,97.6,95.1763835739782,95.1417004048583,94.82758620689654,1045368.0,131904.0,0.0,1.0,0.0,?,0.0,0.0,62.0,33.0,33.0,6.0,3880.7272727272725,0.0,1.0299850074962518
8600000.0,44.359375,2.2913060383871195E-5,8600000.0,97.2,94.39677254098359,94.30894308943088,94.1908713692946,1075368.0,131904.0,0.0,1.0,0.0,?,0.0,0.0,62.0,33.0,33.0,6.0,3880.7272727272725,0.0,1.0299850074962518
8700000.0,44.671875,2.293151350588434E-5,8700000.0,96.3,92.54356973576023,92.33954451345755,91.8859649122807,1105368.0,131904.0,0.0,1.0,0.0,?,0.0,0.0,62.0,33.0,33.0,6.0,3880.7272727272725,0.0,1.0299850074962518
8800000.0,45.0,2.2956129137633572E-5,8800000.0,97.0,93.97853951483086,93.89002036659878,93.57601713062098,1135368.0,207952.0,0.0,1.0,0.0,?,0.0,0.0,82.0,52.0,52.0,6.0,3880.7272727272725,0.0,1.0299850074962518
8900000.0,45.328125,2.2980726433969615E-5,8900000.0,96.7,93.39841561974873,93.46534653465346,93.19587628865979,1165368.0,222072.0,0.0,1.0,0.0,?,0.0,0.0,86.0,54.0,54.0,6.0,3880.7272727272725,0.0,1.0299850074962518
9000000.0,45.65625,2.3010884114127186E-5,9000000.0,98.0,95.9845807902345,96.08610567514677,95.73560767590618,1195368.0,301880.0,0.0,1.0,0.0,?,0.0,0.0,106.0,73.0,73.0,7.0,3880.7272727272725,0.0,1.0299850074962518
9100000.0,45.984375,2.3052288872551993E-5,9100000.0,97.3,94.56114481858395,94.87666034155598,94.03973509933775,1225068.0,304632.0,0.0,1.0,0.0,?,0.0,0.0,106.0,73.0,73.0,7.0,3880.7272727272725,0.0,1.0299850074962518
9200000.0,46.328125,2.309439823471216E-5,9200000.0,96.6,93.18866594012437,93.22709163346613,92.82700421940928,1255068.0,304784.0,0.0,1.0,0.0,?,0.0,0.0,106.0,73.0,73.0,7.0,3880.7272727272725,0.0,1.0299850074962518
9300000.0,46.640625,2.313157611448938E-5,9300000.0,96.0,91.96503181847399,92.12598425196849,91.41630901287553,1285068.0,305536.0,0.0,1.0,0.0,?,0.0,0.0,106.0,73.0,73.0,7.0,3880.7272727272725,0.0,1.0299850074962518
9400000.0,46.984375,2.317119405941209E-5,9400000.0,95.7,91.3889089146821,90.73275862068965,90.98532494758909,1315068.0,305568.0,0.0,1.0,0.0,?,0.0,0.0,106.0,73.0,73.0,7.0,3880.7272727272725,0.0,1.0299850074962518
9500000.0,47.296875,2.3206049453518864E-5,9500000.0,96.6,93.18749223574481,92.901878914405,92.81183932346723,1345068.0,305608.0,0.0,1.0,0.0,?,0.0,0.0,106.0,73.0,73.0,7.0,3880.7272727272725,0.0,1.0299850074962518
9600000.0,47.625,2.324142525645179E-5,9600000.0,97.39999999999999,94.78608928621561,94.97098646034816,94.47983014861995,1375068.0,305608.0,0.0,1.0,0.0,?,0.0,0.0,106.0,73.0,73.0,7.0,3880.7272727272725,0.0,1.0299850074962518
9700000.0,47.96875,2.3277205764316014E-5,9700000.0,97.6,95.16431262718865,94.91525423728812,94.72527472527472,1405068.0,305616.0,0.0,1.0,0.0,?,0.0,0.0,106.0,73.0,73.0,7.0,3880.7272727272725,0.0,1.0299850074962518
9800000.0,48.28125,2.3308569992271553E-5,9800000.0,97.39999999999999,94.78830495632198,94.9119373776908,94.43254817987152,1435068.0,305624.0,0.0,1.0,0.0,?,0.0,0.0,106.0,73.0,73.0,7.0,3880.7272727272725,0.0,1.0299850074962518
9900000.0,48.625,2.3341795054471317E-5,9900000.0,97.39999999999999,94.7745835745064,94.75806451612902,94.37229437229436,1465068.0,305680.0,0.0,1.0,0.0,?,0.0,0.0,106.0,73.0,73.0,7.0,3880.7272727272725,0.0,1.0299850074962518
1.0E7,48.953125,2.3372291600228175E-5,1.0E7,96.89999999999999,93.78961623835052,93.72469635627529,93.51464435146443,1495068.0,305728.0,0.0,1.0,0.0,?,0.0,0.0,106.0,73.0,73.0,7.0,3880.7272727272725,0.0,1.0299850074962518
