learning evaluation instances,evaluation time (cpu seconds),model cost (RAM-Hours),classified instances,classifications correct (percent),Kappa Statistic (percent),Kappa Temporal Statistic (percent),Kappa M Statistic (percent),model training instances,model serialized size (bytes),labeling cost,newThreshold,maxPosterior,accuracyBaseLearner (percent),Change detected,Warning detected
100000.0,0.359375,2.3235204733080335E-9,100000.0,62.2,22.76540707534255,17.467248908296938,-5.882352941176476,8949.0,3024.0,20000.0,0.5901072137337666,0.540648478413035,0.0,1.0,33.0
200000.0,0.703125,4.595106778045495E-9,200000.0,70.19999999999999,39.31322116461593,36.73036093418258,21.37203166226912,28949.0,3024.0,40000.0,0.6140166572287016,0.5894390408477724,0.0,0.0,39.0
300000.0,1.078125,7.073200928668181E-9,300000.0,66.10000000000001,32.99070962640839,31.51515151515152,11.256544502617812,48949.0,3024.0,60000.0,0.5959087546238666,0.5826391270200278,0.0,0.0,0.0
400000.0,1.40625,9.24153331046303E-9,400000.0,70.1,38.45153109535689,39.35091277890466,18.306010928961737,68949.0,3024.0,80000.0,0.5726087825026077,0.5667951447000599,0.0,0.0,0.0
500000.0,1.75,1.1513119615200493E-8,500000.0,69.19999999999999,37.94851338337744,35.564853556485346,21.62849872773536,88949.0,3024.0,100000.0,0.5840694441701687,0.5547230221254208,0.0,0.0,0.0
600000.0,2.078125,1.3681451996995343E-8,600000.0,67.9,35.85490819858202,33.12500000000001,18.320610687022917,108949.0,3024.0,120000.0,0.5840206733822096,0.5045258819271847,0.0,0.0,0.0
700000.0,2.40625,1.5849784378790193E-8,700000.0,66.9,33.58161635457385,28.04347826086957,8.815426997245188,128949.0,3024.0,140000.0,0.5667973792772212,0.5447891308797158,0.0,0.0,0.0
800000.0,2.734375,1.8018116760585043E-8,800000.0,67.80000000000001,35.45542014111611,30.60344827586207,10.555555555555566,148949.0,3024.0,160000.0,0.5724175512433295,0.5219183203264708,0.0,0.0,0.0
900000.0,3.046875,2.008319521943728E-8,900000.0,68.10000000000001,36.87268467213375,34.22680412371135,17.994858611825208,168949.0,3024.0,180000.0,0.5723697534081724,0.5164071293429332,0.0,0.0,0.0
1000000.0,3.390625,2.2354781524174743E-8,1000000.0,66.7,34.89074158076677,29.746835443037977,15.051020408163279,188949.0,3024.0,200000.0,0.5610449559496282,0.5574129546051625,0.0,0.0,0.0
1100000.0,3.703125,2.441985998302698E-8,1100000.0,66.4,34.57561773468077,27.74193548387097,12.727272727272737,208949.0,3024.0,220000.0,0.5609981077454412,0.5110003787763319,0.0,0.0,0.0
1200000.0,4.046875,2.6691446287764443E-8,1200000.0,68.30000000000001,36.96610088605381,34.095634095634104,13.858695652173925,228949.0,3024.0,240000.0,0.5444537697751918,0.5160712833453769,0.0,0.0,0.0
1300000.0,4.375,2.8859778669559292E-8,1300000.0,70.5,40.32978413540891,42.607003891050574,25.505050505050498,248949.0,3024.0,260000.0,0.5609044230724494,0.5017431362689148,0.0,0.0,0.0
1400000.0,4.6875,3.092485712841153E-8,1400000.0,70.3,39.83615988591152,31.566820276497694,17.95580110497236,268949.0,3024.0,280000.0,0.5721308240937134,0.5620039381739754,0.0,0.0,0.0
1500000.0,5.015625,3.309318951020638E-8,1500000.0,70.1,39.92847671475066,33.40757238307348,22.739018087855285,288949.0,3024.0,300000.0,0.5443173927274254,0.5484417956966885,0.0,0.0,0.0
1600000.0,5.359375,3.536477581494384E-8,1600000.0,66.3,33.25199451755255,26.73913043478261,13.367609254498728,308949.0,3024.0,320000.0,0.5607639253965312,0.5071505153783101,0.0,0.0,0.0
1700000.0,5.6875,3.753310819673869E-8,1700000.0,70.19999999999999,40.107484956527664,36.46055437100212,23.393316195372744,328949.0,3024.0,340000.0,0.555165446196908,0.5535535518820259,0.0,0.0,0.0
1800000.0,6.015625,3.970144057853354E-8,1800000.0,69.3,38.45722075214496,36.8312757201646,20.05208333333332,348949.0,3024.0,360000.0,0.566276982629478,0.5689408174842134,0.0,0.0,0.0
1900000.0,6.328125,4.176651903738578E-8,1900000.0,67.5,35.350658030840734,30.107526881720435,16.020671834625336,368949.0,3024.0,380000.0,0.577610914462799,0.5256619202083228,0.0,0.0,0.0
2000000.0,6.65625,4.393485141918063E-8,2000000.0,69.3,38.291457286432156,33.83620689655171,18.133333333333322,388949.0,3024.0,400000.0,0.5661824164033205,0.5336103703571894,0.0,0.0,0.0
2100000.0,6.984375,4.610318380097548E-8,2100000.0,71.0,41.918453508726245,41.17647058823529,24.281984334203646,408949.0,3024.0,420000.0,0.5386581595091603,0.5175790701343145,0.0,0.0,0.0
2200000.0,7.328125,4.837477010571294E-8,2200000.0,70.19999999999999,39.9290437026286,37.394957983193265,17.222222222222207,428949.0,3024.0,440000.0,0.5774662320753661,0.5075936871119255,0.0,0.0,0.0
2300000.0,7.65625,5.054310248750779E-8,2300000.0,68.7,38.03109136553341,28.375286041189952,14.480874316939904,448949.0,3024.0,460000.0,0.5774180126668099,0.5244428432013791,0.0,0.0,0.0
2400000.0,7.984375,5.271143486930264E-8,2400000.0,71.3,42.55266339463718,42.369477911646584,27.707808564231733,468949.0,3024.0,480000.0,0.5385232341699914,0.5390391687950156,0.0,0.0,0.0
2500000.0,8.3125,5.487976725109749E-8,2500000.0,66.10000000000001,32.657926102502984,30.39014373716633,15.250000000000014,488949.0,3024.0,500000.0,0.571605530622352,0.5542250811660819,0.0,0.0,0.0
2600000.0,8.65625,5.7151353555834955E-8,2600000.0,67.4,34.89791353803879,29.741379310344833,19.70443349753696,508949.0,3024.0,520000.0,0.5492558121050248,0.5214766321786409,0.0,0.0,0.0
2700000.0,8.984375,5.9319685937629805E-8,2700000.0,68.8,36.36626922778835,29.57110609480811,15.4471544715447,528949.0,3024.0,540000.0,0.5658515589581959,0.5246400301702845,0.0,0.0,0.0
2800000.0,9.328125,6.159127224236726E-8,2800000.0,69.8,39.81737962479523,34.20479302832242,18.59838274932613,548949.0,3024.0,560000.0,0.5658043093945195,0.5710427565124003,0.0,0.0,0.0
2900000.0,9.640625,6.36563507012195E-8,2900000.0,69.19999999999999,37.948263357240705,37.27087576374744,16.75675675675674,568949.0,3024.0,580000.0,0.5657570637762571,0.5144400163028932,0.0,0.0,0.0
3000000.0,9.96875,6.582468308301435E-8,3000000.0,67.7,35.45834565552741,30.38793103448276,16.53746770025841,588949.0,3024.0,600000.0,0.5490723799191454,0.549700466772338,0.0,0.0,0.0
3100000.0,10.296875,6.799301546480919E-8,3100000.0,67.30000000000001,34.68151746620218,31.012658227848107,17.42424242424244,608949.0,3024.0,620000.0,0.5656625843746561,0.5489559839780596,0.0,0.0,0.0
3200000.0,10.65625,7.036785569248926E-8,3200000.0,67.5,34.47580645161291,32.15031315240084,13.333333333333345,628949.0,3024.0,640000.0,0.5600151986046243,0.522032672439447,0.0,0.0,0.0
3300000.0,11.0,7.263944199722672E-8,3300000.0,68.5,36.87779541191748,34.64730290456433,16.88654353562007,648949.0,3024.0,660000.0,0.5655681207507772,0.5042898019875168,0.0,0.0,0.0
3400000.0,11.296875,7.460126653313635E-8,3400000.0,68.5,36.0717619840078,34.511434511434516,16.88654353562007,668949.0,3024.0,680000.0,0.5655208948546729,0.5006436844011517,0.0,0.0,0.0
3500000.0,11.625,7.67695989149312E-8,3500000.0,68.5,36.35849361564571,30.15521064301553,20.25316455696204,688949.0,3024.0,700000.0,0.565473672902011,0.5075885958779031,0.0,0.0,0.0
3600000.0,11.96875,7.904118521966866E-8,3600000.0,68.7,36.30858389360075,31.05726872246697,17.847769028871408,708948.0,3024.0,719999.0,0.5826177036725101,0.5793290634747603,0.0,0.0,0.0
3700000.0,12.296875,8.12095176014635E-8,3700000.0,68.4,36.30059667795518,31.304347826086964,12.222222222222232,728949.0,3024.0,740000.0,0.5487515209882154,0.5233778001033513,0.0,0.0,0.0
3800000.0,12.609375,8.327459606031575E-8,3800000.0,68.30000000000001,36.22962164249965,29.082774049217008,13.858695652173925,748949.0,3024.0,760000.0,0.5597346838627346,0.5036518531413106,0.0,0.0,0.0
3900000.0,12.9375,8.54429284421106E-8,3900000.0,69.6,38.569725382423655,35.999999999999986,16.71232876712327,768949.0,3024.0,780000.0,0.5541464802658228,0.5513088798393645,0.0,0.0,0.0
4000000.0,13.28125,8.771451474684806E-8,4000000.0,68.60000000000001,37.339107182055855,34.171907756813425,19.28020565552701,788949.0,3024.0,800000.0,0.5596412101769838,0.508139565647435,0.0,0.0,0.0
4100000.0,13.59375,8.97795932057003E-8,4100000.0,69.1,38.014042126379124,34.25531914893615,17.599999999999984,808949.0,3024.0,820000.0,0.5595944791879344,0.5620049923676494,0.0,0.0,0.0
4200000.0,13.921875,9.194792558749516E-8,4200000.0,68.60000000000001,37.062796897235984,33.049040511727085,19.69309462915603,828949.0,3024.0,840000.0,0.5765026085374295,0.5582890672807131,0.0,0.0,0.0
4300000.0,14.234375,9.40130040463474E-8,4300000.0,71.8,43.26069897989979,39.87206823027717,26.753246753246746,848949.0,3024.0,860000.0,0.5650960392050507,0.5311578780740401,0.0,0.0,0.0
4400000.0,14.5625,9.618133642814226E-8,4400000.0,69.5,38.56553546682135,35.92436974789915,22.979797979797972,868949.0,3024.0,880000.0,0.5594543096322394,0.5307696022197098,0.0,0.0,0.0
4500000.0,14.890625,9.83496688099371E-8,4500000.0,68.10000000000001,34.77069547934339,30.652173913043484,4.491017964071861,888949.0,3024.0,900000.0,0.5821217858007036,0.5022890251872772,0.0,0.0,0.0
4600000.0,15.234375,1.0062125511467456E-7,4600000.0,69.6,38.003719776813384,33.039647577092495,16.9398907103825,908949.0,3024.0,920000.0,0.5593608827680043,0.5564079442528452,0.0,0.0,0.0
4700000.0,15.5625,1.027895874964694E-7,4700000.0,68.10000000000001,35.46377069610113,32.415254237288146,15.159574468085118,928949.0,3024.0,940000.0,0.5537764110760081,0.5540914554304255,0.0,0.0,0.0
4800000.0,15.875,1.0485466595532165E-7,4800000.0,70.5,40.49011934252677,38.28451882845187,21.12299465240641,948949.0,3024.0,960000.0,0.5482476928788508,0.5399376069476363,0.0,0.0,0.0
4900000.0,16.203125,1.070229983371165E-7,4900000.0,68.5,35.446586661420426,33.6842105263158,15.322580645161304,968949.0,3024.0,980000.0,0.5482019132678133,0.5526486447337284,0.0,0.0,0.0
5000000.0,16.53125,1.0919133071891135E-7,5000000.0,68.89999999999999,37.23511604439959,32.829373650107975,17.066666666666652,988949.0,3024.0,1000000.0,0.5320349465636246,0.5010462523398812,0.0,0.0,0.0
5100000.0,16.84375,1.1103910057701998E-7,5100000.0,79.2,56.655108028807696,56.57620041753654,51.85185185185187,17549.0,3024.0,1020000.0,0.7461576612563944,0.6884304505908854,0.0,1.0,2.0
5200000.0,17.1875,1.1331424401659104E-7,5200000.0,82.8,65.11778830553571,66.53696498054474,61.946902654867245,37549.0,3024.0,1040000.0,0.7999152070257791,0.6343943717835027,0.0,0.0,16.0
5300000.0,17.53125,1.155893874561621E-7,5300000.0,84.39999999999999,68.46701164294954,67.56756756756756,66.08695652173913,57549.0,3024.0,1060000.0,0.7610283200192859,0.6960182348125763,0.0,0.0,0.0
5400000.0,17.859375,1.1776111528484356E-7,5400000.0,82.1,63.85882732999514,64.62450592885375,61.086956521739125,77549.0,3024.0,1080000.0,0.8322559651145482,0.8394903188903894,0.0,0.0,0.0
5500000.0,18.203125,1.2003625872441462E-7,5500000.0,82.3,64.25080183229788,63.278008298755175,61.771058315334756,97549.0,3024.0,1100000.0,0.8157891092360342,0.7799363687313892,0.0,0.0,0.0
5600000.0,18.53125,1.2220798655309608E-7,5600000.0,82.19999999999999,63.90096696735673,64.96062992125984,60.61946902654866,117549.0,3024.0,1120000.0,0.7996480633894045,0.7103643897741121,0.0,0.0,0.0
5700000.0,18.84375,1.2427629877088796E-7,5700000.0,84.3,67.99967388202683,67.95918367346938,63.74133949191686,137549.0,3024.0,1140000.0,0.8320474981742667,0.6957318322252015,0.0,0.0,0.0
5800000.0,19.171875,1.2644802659956942E-7,5800000.0,82.19999999999999,63.88001672071135,64.32865731462924,59.63718820861676,157549.0,3024.0,1160000.0,0.783760930329686,0.561671197452528,0.0,0.0,0.0
5900000.0,19.5,1.2862994076891076E-7,5900000.0,82.6,65.15358457465342,63.52201257861634,65.19999999999999,177549.0,3024.0,1180000.0,0.8074422418542844,0.7786759578974565,0.0,0.0,3.0
6000000.0,19.84375,1.3091575561298262E-7,6000000.0,83.0,65.69911261586637,66.9260700389105,62.80087527352296,197549.0,3024.0,1200000.0,0.815448567249944,0.82235939428186,0.0,0.0,0.0
6100000.0,20.171875,1.3309766978232395E-7,6100000.0,81.5,62.7622743595111,64.28571428571428,60.80508474576269,47283.0,3024.0,1220000.0,0.975315297987846,0.6203896219040023,0.0,1.0,31.0
6200000.0,20.515625,1.3513021662624344E-7,6200000.0,82.6,64.9549651160917,64.70588235294117,62.33766233766232,24510.0,3024.0,1240000.0,0.9465523740230637,0.8492410910034824,0.0,1.0,0.0
6300000.0,20.828125,1.3697798648435207E-7,6300000.0,79.2,58.28252358641935,59.611650485436904,57.024793388429764,44510.0,3024.0,1260000.0,0.9095422717969741,0.5101830509108796,0.0,0.0,0.0
6400000.0,21.15625,1.3891814483536612E-7,6400000.0,80.80000000000001,61.57002461920299,63.70510396975426,61.368209255533216,64510.0,3024.0,1280000.0,0.9558582462013844,0.9547912391011211,0.0,0.0,0.0
6500000.0,21.484375,1.4110005900470745E-7,6500000.0,82.19999999999999,64.3200769724182,62.36786469344607,62.68343815513626,84510.0,3024.0,1300000.0,0.8826453449021346,0.8513202154355678,0.0,0.0,69.0
6600000.0,21.828125,1.4338587384877932E-7,6600000.0,81.8,63.57902151639343,64.72868217054263,62.24066390041493,104510.0,3024.0,1320000.0,0.9184075903193312,0.9007046169577233,0.0,0.0,0.0
6700000.0,22.15625,1.4556778801812065E-7,6700000.0,80.60000000000001,60.96500935632508,58.98520084566597,57.17439293598234,124510.0,3024.0,1340000.0,0.9002361550140454,0.7882263680815723,0.0,0.0,0.0
6800000.0,22.5,1.4785360286219251E-7,6800000.0,82.69999999999999,65.05361139615871,66.21093749999999,62.22707423580785,144510.0,3024.0,1360000.0,0.9182542195439415,0.9146757479539352,0.0,0.0,0.0
6900000.0,22.828125,1.5003551703153385E-7,6900000.0,82.1,63.78717378110458,64.27145708582833,60.22222222222221,164510.0,3024.0,1380000.0,0.9273593191987642,0.70267916826443,0.0,0.0,0.0
7000000.0,23.15625,1.5221743120087518E-7,7000000.0,81.5,62.76407316758983,62.474645030425954,59.07079646017698,184510.0,3024.0,1400000.0,0.9181008743809367,0.8402540593454448,0.0,0.0,0.0
7100000.0,23.484375,1.5439934537021651E-7,7100000.0,82.0,63.83988300193254,64.1434262948207,61.945031712473565,204510.0,3024.0,1420000.0,0.9089348627749755,0.6725368848787013,0.0,0.0,0.0
7200000.0,23.8125,1.5658125953955785E-7,7200000.0,82.19999999999999,64.38005282958457,64.89151873767257,63.52459016393441,224510.0,3024.0,1440000.0,0.9179475548260031,0.7205351662227429,0.0,0.0,0.0
7300000.0,24.140625,1.5876317370889918E-7,7300000.0,80.7,61.29161652627357,61.782178217821794,59.79166666666668,244510.0,3024.0,1460000.0,0.8820558981415462,0.7598331648356301,0.0,0.0,0.0
7400000.0,24.46875,1.6094508787824051E-7,7400000.0,84.39999999999999,68.69519150114584,69.64980544747081,66.73773987206822,264510.0,3024.0,1480000.0,0.9269722034836463,0.8929944378292097,0.0,0.0,0.0
7500000.0,24.796875,1.6312700204758185E-7,7500000.0,82.19999999999999,64.16131435359493,65.16634050880626,61.555075593952466,284510.0,3024.0,1500000.0,0.9268947997344377,0.839880947132189,0.0,0.0,0.0
7600000.0,25.125,1.6530891621692318E-7,7600000.0,81.8,63.464819833383515,65.06717850287907,61.68421052631577,304510.0,3024.0,1520000.0,0.8995598397444723,0.7032687832223292,0.0,0.0,0.0
7700000.0,25.453125,1.6749083038626451E-7,7700000.0,82.8,65.34046943513025,67.23809523809523,62.931034482758605,324509.0,3024.0,1539999.0,0.9361010218439535,0.9981594768216302,0.0,0.0,0.0
7800000.0,25.765625,1.695688438808753E-7,7800000.0,81.39999999999999,62.605548854041004,62.575452716297775,60.759493670886066,344510.0,3024.0,1560000.0,0.9084037126406502,0.723530851769584,0.0,0.0,0.0
7900000.0,26.09375,1.7175075805021662E-7,7900000.0,81.5,62.89908551259424,62.474645030425954,61.69772256728777,364510.0,3024.0,1580000.0,0.9546617090066886,0.7266899215913464,0.0,0.0,0.0
8000000.0,26.4375,1.7403657289428849E-7,8000000.0,83.8,67.33936815790004,66.24999999999999,63.43115124153498,384510.0,3024.0,1600000.0,0.8728123318273435,0.7029351048547906,0.0,0.0,0.0
8100000.0,26.765625,1.7621848706362982E-7,8100000.0,82.19999999999999,64.31092005646092,65.50387596899225,62.44725738396624,404510.0,3024.0,1620000.0,0.9172579336143908,0.8722466135554554,0.0,0.0,0.0
8200000.0,27.09375,1.7840040123297115E-7,8200000.0,82.89999999999999,65.60186675249436,63.847780126849884,63.461538461538446,424510.0,3024.0,1640000.0,0.85547159621282,0.7978413294648194,0.0,0.0,0.0
8300000.0,27.421875,1.8058231540231249E-7,8300000.0,81.6,63.04864725917356,64.75095785440612,60.68376068376067,444510.0,3024.0,1660000.0,0.9262758023758486,0.9258272914539238,0.0,0.0,0.0
8400000.0,27.75,1.8276422957165382E-7,8400000.0,82.0,63.922071674817595,64.77495107632093,61.70212765957446,464510.0,3024.0,1680000.0,0.8812460515379399,0.5203143909239153,0.0,0.0,0.0
8500000.0,28.09375,1.8505004441572568E-7,8500000.0,83.1,65.92027360575602,65.78947368421052,63.57758620689654,484510.0,3024.0,1700000.0,0.9261211176372591,0.6818827548658022,0.0,0.0,0.0
8600000.0,28.421875,1.8723195858506702E-7,8600000.0,83.0,65.90179717586648,65.4471544715447,64.73029045643153,504510.0,3024.0,1720000.0,0.9260437849551553,0.661097141162975,0.0,0.0,0.0
8700000.0,28.75,1.8941387275440835E-7,8700000.0,82.5,64.62016205987481,63.76811594202898,61.62280701754385,524510.0,3024.0,1740000.0,0.889835566490331,0.7634412806645884,0.0,0.0,0.0
8800000.0,29.078125,1.9159578692374968E-7,8800000.0,83.3,66.39595624632769,65.98778004073318,64.23982869379013,544510.0,3024.0,1760000.0,0.9444995106557852,0.5744571431802332,0.0,0.0,0.0
8900000.0,29.40625,1.9377770109309102E-7,8900000.0,83.0,65.94483062561348,66.33663366336633,64.94845360824742,564510.0,3024.0,1780000.0,0.9258118256511505,0.8845047245592403,0.0,0.0,0.0
9000000.0,29.75,1.9606351593716288E-7,9000000.0,81.8,63.44089477405668,64.3835616438356,61.194029850746254,584510.0,3024.0,1800000.0,0.907493891574812,0.796063244921289,0.0,0.0,0.0
9100000.0,30.078125,1.982454301065042E-7,9100000.0,81.10000000000001,61.884710323798465,64.13662239089184,58.278145695364245,604510.0,3024.0,1820000.0,0.9537055577696115,0.6018951521290925,0.0,0.0,0.0
9200000.0,30.40625,2.0042734427584555E-7,9200000.0,82.89999999999999,65.6463705691854,65.93625498007968,63.924050632911374,624510.0,3024.0,1840000.0,0.8806575392511584,0.6572905225212693,0.0,0.0,0.0
9300000.0,30.734375,2.0260925844518688E-7,9300000.0,82.69999999999999,65.23451629757645,65.94488188976378,62.87553648068669,644510.0,3024.0,1860000.0,0.9535462923602092,0.6542543188102619,0.0,0.0,0.0
9400000.0,31.078125,2.0489507328925874E-7,9400000.0,81.2,62.2994148387899,59.482758620689665,60.58700209643607,664510.0,3024.0,1880000.0,0.925425355919835,0.5559281034748659,0.0,0.0,0.0
9500000.0,31.390625,2.0697308678386952E-7,9500000.0,81.39999999999999,62.60209026166471,61.16910229645093,60.67653276955601,684510.0,3024.0,1900000.0,0.9071150684589943,0.762920824192493,0.0,0.0,0.0
9600000.0,31.734375,2.0925890162794138E-7,9600000.0,81.8,63.45161355101712,64.79690522243713,61.35881104033969,704510.0,3024.0,1920000.0,0.9161097160423403,0.7886805708201252,0.0,0.0,0.0
9700000.0,32.078125,2.1154471647201325E-7,9700000.0,83.6,66.88407406659532,65.25423728813558,63.95604395604394,724509.0,3024.0,1939999.0,0.9533231736445511,0.9551820181050035,0.0,0.0,0.0
9800000.0,32.421875,2.138305313160851E-7,9800000.0,81.0,61.81349711993376,62.81800391389434,59.314775160599574,744510.0,3024.0,1960000.0,0.9159567290037025,0.6097727154143807,0.0,0.0,0.0
9900000.0,32.75,2.1601244548542644E-7,9900000.0,83.5,66.6604702288102,66.73387096774192,64.28571428571428,764510.0,3024.0,1980000.0,0.9250390475159187,0.9155975033547432,0.0,0.0,0.0
1.0E7,33.09375,2.182982603294983E-7,1.0E7,81.10000000000001,62.02958879450977,61.74089068825912,60.460251046025114,784510.0,3024.0,2000000.0,0.9342114232403905,0.7804760310604173,0.0,0.0,0.0
