learning evaluation instances,evaluation time (cpu seconds),model cost (RAM-Hours),classified instances,classifications correct (percent),Kappa Statistic (percent),Kappa Temporal Statistic (percent),Kappa M Statistic (percent),model training instances,model serialized size (bytes),labeling cost,newThreshold,maxPosterior,accuracyBaseLearner (percent),Change detected,Warning detected
100000.0,0.34375,1.3865000154409144E-8,100000.0,71.1,42.199999999999996,41.616161616161605,41.851106639839024,29700.0,2904.0,0.0,1.0,0.0,?,0.0,14.0
200000.0,0.671875,2.5809503212157224E-8,200000.0,71.7,43.41358074062225,41.64948453608247,41.889117043121146,59700.0,2904.0,0.0,1.0,0.0,?,0.0,0.0
300000.0,1.015625,3.697108089302977E-8,300000.0,69.0,37.61295074643084,38.9763779527559,31.56732891832228,89700.0,2904.0,0.0,1.0,0.0,?,0.0,0.0
400000.0,1.34375,4.633504431694746E-8,400000.0,73.0,45.992438941451795,48.76660341555977,45.45454545454545,119700.0,2904.0,0.0,1.0,0.0,?,0.0,0.0
500000.0,1.6875,5.4793199524283404E-8,500000.0,73.0,46.0,45.564516129032256,43.514644351464426,149700.0,2904.0,0.0,1.0,0.0,?,0.0,0.0
600000.0,2.03125,6.189964349485105E-8,600000.0,67.60000000000001,35.210625457424996,33.74233128834357,30.769230769230777,179700.0,2904.0,0.0,1.0,0.0,?,0.0,0.0
700000.0,2.359375,6.739279746802316E-8,700000.0,70.8,41.498206879971136,43.19066147859922,39.793814432989684,209700.0,2904.0,0.0,1.0,0.0,?,0.0,0.0
800000.0,2.75,7.239623098737663E-8,800000.0,73.2,46.29172411581749,47.55381604696673,39.639639639639626,239700.0,2904.0,0.0,1.0,0.0,?,0.0,0.0
900000.0,3.078125,7.530884532671835E-8,900000.0,70.5,40.75543844992126,40.8817635270541,38.0252100840336,269700.0,2904.0,0.0,1.0,0.0,?,0.0,0.0
1000000.0,3.421875,7.70084443502128E-8,1000000.0,70.1,40.18947334730912,37.57828810020876,41.37254901960784,299700.0,2904.0,0.0,1.0,0.0,?,0.0,0.0
1100000.0,3.75,9.029958164319395E-8,1100000.0,71.6,43.1963645673323,43.650793650793645,44.53124999999999,329400.0,2904.0,0.0,1.0,0.0,?,0.0,56.0
1200000.0,4.078125,1.0230044911925991E-7,1200000.0,73.0,46.01727447216891,46.21513944223107,45.12195121951219,359400.0,2904.0,0.0,1.0,0.0,?,0.0,0.0
1300000.0,4.421875,1.1352107523837022E-7,1300000.0,70.6,41.29861832122034,40.12219959266802,36.90987124463518,389400.0,2904.0,0.0,1.0,0.0,?,0.0,0.0
1400000.0,4.75,1.229414030806058E-7,1400000.0,70.1,40.20239190432382,41.37254901960784,40.67460317460317,419400.0,2904.0,0.0,1.0,0.0,?,0.0,0.0
1500000.0,5.078125,1.3107146110592616E-7,1500000.0,70.19999999999999,40.451687934872524,39.676113360323875,36.46055437100212,449400.0,2904.0,0.0,1.0,0.0,?,0.0,0.0
1600000.0,5.390625,1.3758554511393108E-7,1600000.0,69.89999999999999,39.762893942668676,41.095890410958894,37.551867219917,479400.0,2904.0,0.0,1.0,0.0,?,0.0,0.0
1700000.0,5.734375,1.4339932628596821E-7,1700000.0,70.6,41.19647178830729,40.96385542168674,41.31736526946107,509400.0,2904.0,0.0,1.0,0.0,?,0.0,0.0
1800000.0,6.0625,1.47658574860543E-7,1800000.0,70.39999999999999,40.747620896872824,40.20202020202019,39.21971252566735,539400.0,2904.0,0.0,1.0,0.0,?,0.0,0.0
1900000.0,6.40625,1.5076893355904353E-7,1900000.0,72.5,44.99515957404251,45.219123505976086,42.46861924686192,569400.0,2904.0,0.0,1.0,0.0,?,0.0,0.0
2000000.0,6.734375,1.5244764249978794E-7,2000000.0,71.2,42.07119610911532,42.284569138276545,36.98030634573303,599400.0,2904.0,0.0,1.0,0.0,?,0.0,0.0
2100000.0,7.078125,1.6638520820480254E-7,2100000.0,72.8,45.613705346252736,47.591522157996145,44.147843942505126,629100.0,2904.0,0.0,1.0,0.0,?,0.0,0.0
2200000.0,7.390625,1.7782689408502645E-7,2200000.0,70.0,40.075504863871515,39.87975951903807,37.369519832985375,659100.0,2904.0,0.0,1.0,0.0,?,0.0,0.0
2300000.0,7.734375,1.8906103731650445E-7,2300000.0,72.2,44.16482223123796,45.0592885375494,39.696312364425154,689100.0,2904.0,0.0,1.0,0.0,?,0.0,0.0
2400000.0,8.0625,1.9849426785690916E-7,2400000.0,67.2,34.311714944885935,37.40458015267177,30.508474576271194,719100.0,2904.0,0.0,1.0,0.0,?,0.0,0.0
2500000.0,8.40625,2.0702498861485057E-7,2500000.0,68.2,36.38854993898902,41.219963031423305,34.702258726899395,749100.0,2904.0,0.0,1.0,0.0,?,0.0,0.0
2600000.0,8.734375,2.138776795214249E-7,2600000.0,72.89999999999999,45.78698887733055,45.25252525252525,45.47283702213279,779100.0,2904.0,0.0,1.0,0.0,?,0.0,0.0
2700000.0,9.078125,2.197049778058297E-7,2700000.0,71.6,43.0800126667014,42.9718875502008,41.20082815734989,809100.0,2904.0,0.0,1.0,0.0,?,0.0,0.0
2800000.0,9.40625,2.2397712907857365E-7,2800000.0,70.3,40.37341899217024,39.75659229208924,33.999999999999986,839100.0,2904.0,0.0,1.0,0.0,?,0.0,0.0
2900000.0,9.75,2.2710100488944185E-7,2900000.0,68.8,37.5340359419547,39.29961089494162,36.065573770491795,869100.0,2904.0,0.0,1.0,0.0,?,0.0,0.0
3000000.0,10.078125,2.287926165283554E-7,3000000.0,71.5,42.969888100917274,40.871369294605806,38.97216274089935,899100.0,2904.0,0.0,1.0,0.0,?,0.0,0.0
3100000.0,10.421875,2.4274369934573766E-7,3100000.0,71.1,42.1134016488667,43.55468749999999,40.16563146997928,928800.0,2904.0,0.0,1.0,0.0,?,0.0,0.0
3200000.0,10.75,2.547703722181419E-7,3200000.0,70.3,40.60950247960325,40.48096192384769,41.18811881188118,958800.0,2904.0,0.0,1.0,0.0,?,0.0,0.0
3300000.0,11.0625,2.649955179852744E-7,3300000.0,73.6,47.2263868065967,45.67901234567901,45.22821576763485,988800.0,2904.0,0.0,1.0,0.0,?,0.0,0.0
3400000.0,11.40625,2.7489146709235176E-7,3400000.0,74.1,48.22278197593059,47.034764826175866,47.034764826175866,1018800.0,2904.0,0.0,1.0,0.0,?,0.0,0.0
3500000.0,11.75,2.8343570496266087E-7,3500000.0,72.3,44.599999999999994,42.76859504132231,39.65141612200435,1048800.0,2904.0,0.0,1.0,0.0,?,0.0,0.0
3600000.0,12.078125,2.9030129856740434E-7,3600000.0,71.3,42.55174346451018,41.5478615071283,40.332640332640324,1078800.0,2904.0,0.0,1.0,0.0,?,0.0,0.0
3700000.0,12.484375,2.972040803999536E-7,3700000.0,70.1,39.72551928783381,40.319361277445104,34.858387799564255,1108800.0,2904.0,0.0,1.0,0.0,?,0.0,0.0
3800000.0,12.8125,3.014891343708667E-7,3800000.0,71.39999999999999,42.785353050380884,42.222222222222214,41.86991869918699,1138800.0,2904.0,0.0,1.0,0.0,?,0.0,0.0
3900000.0,13.15625,3.046265272941026E-7,3900000.0,73.4,46.8408262454435,48.54932301740813,44.11764705882352,1168800.0,2904.0,0.0,1.0,0.0,?,0.0,0.0
4000000.0,13.484375,3.063310416311853E-7,4000000.0,73.4,46.471118552385846,50.64935064935065,41.1504424778761,1198800.0,2904.0,0.0,1.0,0.0,?,0.0,0.0
4100000.0,13.828125,3.202956415609353E-7,4100000.0,69.1,38.039895088909724,39.530332681017605,33.1168831168831,1228500.0,2904.0,0.0,1.0,0.0,?,0.0,0.0
4200000.0,14.15625,3.323352171315087E-7,4200000.0,70.19999999999999,40.393562504750506,41.22287968441814,40.39999999999999,1258500.0,2904.0,0.0,1.0,0.0,?,0.0,0.0
4300000.0,14.5,3.4359639458772204E-7,4300000.0,74.3,48.61068897669284,48.49699398797595,47.227926078028744,1288500.0,2904.0,0.0,1.0,0.0,?,0.0,0.0
4400000.0,14.828125,3.5305543052446507E-7,4400000.0,71.6,43.169993756703526,44.747081712062254,46.21212121212121,1318500.0,2904.0,0.0,1.0,0.0,?,0.0,0.0
4500000.0,15.15625,3.612241966442929E-7,4500000.0,70.0,39.98199459837951,41.29158512720156,39.7590361445783,1348500.0,2904.0,0.0,1.0,0.0,?,0.0,0.0
4600000.0,15.5,3.6843024039020134E-7,4600000.0,70.8,41.6221835702433,41.716566866267456,41.129032258064505,1378500.0,2904.0,0.0,1.0,0.0,?,0.0,0.0
4700000.0,15.828125,3.740184668761988E-7,4700000.0,70.3,40.67119456652017,44.897959183673464,37.866108786610866,1408500.0,2904.0,0.0,1.0,0.0,?,0.0,0.0
4800000.0,16.15625,3.78316423545281E-7,4800000.0,71.5,42.98357927082999,43.897637795275585,42.07317073170731,1438500.0,2904.0,0.0,1.0,0.0,?,0.0,0.0
4900000.0,16.5,3.814673335808846E-7,4900000.0,71.1,41.87590001850317,42.65873015873015,37.037037037037024,1468500.0,2904.0,0.0,1.0,0.0,?,0.0,0.0
5000000.0,16.8125,3.8328988011926407E-7,5000000.0,69.5,38.86060217295432,40.31311154598825,36.05870020964359,1498500.0,2904.0,0.0,1.0,0.0,?,0.0,0.0
5100000.0,17.25,4.013545630085799E-7,5100000.0,65.2,30.24933857131405,29.6969696969697,28.9795918367347,24756.0,2904.0,0.0,1.0,0.0,?,1.0,14.0
5200000.0,17.59375,4.141965311848454E-7,5200000.0,65.5,30.62984083067247,25.646551724137932,26.751592356687897,54756.0,2904.0,0.0,1.0,0.0,?,0.0,0.0
5300000.0,17.921875,4.251645037180019E-7,5300000.0,69.69999999999999,39.20594537764543,36.0759493670886,34.4155844155844,84756.0,2904.0,0.0,1.0,0.0,?,0.0,0.0
5400000.0,18.265625,4.3530304942073083E-7,5400000.0,69.39999999999999,38.781634490347095,37.678207739307524,37.931034482758605,114756.0,2904.0,0.0,1.0,0.0,?,0.0,14.0
5500000.0,18.609375,4.440827696170243E-7,5500000.0,67.2,33.93090945714575,35.937500000000014,30.947368421052634,8435.0,2904.0,0.0,1.0,0.0,?,3.0,26.0
5600000.0,18.9375,4.5117314180566195E-7,5600000.0,69.0,37.96650191103195,41.61958568738229,35.14644351464434,38435.0,2904.0,0.0,1.0,0.0,?,0.0,0.0
5700000.0,19.28125,4.5725655379808603E-7,5700000.0,66.8,33.381758641308934,31.26293995859214,27.9826464208243,68435.0,2904.0,0.0,1.0,0.0,?,0.0,10.0
5800000.0,19.625,4.6197260316047396E-7,5800000.0,67.30000000000001,34.10712126707774,34.072580645161295,26.516853932584272,98435.0,2904.0,0.0,1.0,0.0,?,0.0,14.0
5900000.0,19.953125,4.6518401682583817E-7,5900000.0,66.2,32.31336110221084,36.940298507462686,26.681127982646423,128435.0,2904.0,0.0,1.0,0.0,?,0.0,0.0
6000000.0,20.296875,4.671966437146895E-7,6000000.0,64.3,28.556562389933088,28.884462151394423,27.439024390243905,158435.0,2904.0,0.0,1.0,0.0,?,0.0,0.0
6100000.0,20.609375,4.800980483802656E-7,6100000.0,65.3,30.472068606235474,30.738522954091824,27.253668763102727,188135.0,2904.0,0.0,1.0,0.0,?,0.0,0.0
6200000.0,20.953125,4.929535336688988E-7,6200000.0,65.9,31.655656747049765,33.13725490196079,26.980728051391868,218135.0,2904.0,0.0,1.0,0.0,?,0.0,71.0
6300000.0,21.28125,5.039344089002244E-7,6300000.0,65.2,30.494527442677967,26.890756302521012,29.124236252545828,248135.0,2904.0,0.0,1.0,0.0,?,0.0,0.0
6400000.0,21.625,5.14086471715321E-7,6400000.0,65.60000000000001,31.206604166000073,29.93890020366599,32.015810276679844,278135.0,2904.0,0.0,1.0,0.0,?,0.0,0.0
6500000.0,22.015625,5.238111932865447E-7,6500000.0,65.2,30.500079884965654,27.950310559006216,30.120481927710845,2970.0,2904.0,0.0,1.0,0.0,?,2.0,16.0
6600000.0,22.390625,5.318733423741327E-7,6600000.0,68.7,37.09705943825465,38.986354775828474,33.68644067796611,14498.0,2904.0,0.0,1.0,0.0,?,2.0,43.0
6700000.0,22.71875,5.376931383377975E-7,6700000.0,66.8,33.472266752164174,34.126984126984134,31.404958677685958,44498.0,2904.0,0.0,1.0,0.0,?,0.0,107.0
6800000.0,23.046875,5.422226644845472E-7,6800000.0,67.80000000000001,35.426426233716235,36.48915187376727,31.779661016949156,74498.0,2904.0,0.0,1.0,0.0,?,0.0,13.0
6900000.0,23.375,5.454619208143817E-7,6900000.0,69.69999999999999,39.321846538341376,39.99999999999999,37.65432098765431,104498.0,2904.0,0.0,1.0,0.0,?,0.0,0.0
7000000.0,23.703125,5.47410907327301E-7,7000000.0,67.80000000000001,35.61622471137274,36.363636363636374,31.779661016949156,134498.0,2904.0,0.0,1.0,0.0,?,0.0,0.0
7100000.0,24.046875,5.616316209650701E-7,7100000.0,66.2,32.41703090821113,33.72549019607844,31.440162271805278,164198.0,2904.0,0.0,1.0,0.0,?,0.0,0.0
7200000.0,24.375,5.739156687114801E-7,7200000.0,65.10000000000001,30.155299391610633,30.75396825396826,28.48360655737705,194198.0,2904.0,0.0,1.0,0.0,?,0.0,0.0
7300000.0,24.71875,5.854329598757128E-7,7300000.0,68.7,37.44203894982573,36.63967611336034,29.50450450450451,224198.0,2904.0,0.0,1.0,0.0,?,0.0,0.0
7400000.0,25.046875,5.951364679882924E-7,7400000.0,68.10000000000001,36.131021503223494,35.03054989816701,35.03054989816701,254198.0,2904.0,0.0,1.0,0.0,?,0.0,0.0
7500000.0,25.390625,6.039503366789884E-7,7500000.0,69.19999999999999,38.39802873691957,38.76739562624253,38.0281690140845,284198.0,2904.0,0.0,1.0,0.0,?,0.0,0.0
7600000.0,25.71875,6.110733051577375E-7,7600000.0,66.60000000000001,32.557951700185775,31.134020618556708,26.431718061674008,314198.0,2904.0,0.0,1.0,0.0,?,0.0,0.0
7700000.0,26.046875,6.169060038195715E-7,7700000.0,65.60000000000001,31.117616669536773,28.482328482328484,29.36344969199179,344198.0,2904.0,0.0,1.0,0.0,?,0.0,0.0
7800000.0,26.390625,6.216647387999627E-7,7800000.0,65.3,30.311209652801203,32.358674463937625,26.48305084745763,374198.0,2904.0,0.0,1.0,0.0,?,0.0,0.0
7900000.0,26.71875,6.249168978279663E-7,7900000.0,68.4,36.8144063153601,38.03921568627452,35.90263691683571,404198.0,2904.0,0.0,1.0,0.0,?,0.0,0.0
8000000.0,27.078125,6.27065633630587E-7,8000000.0,67.10000000000001,33.90176476260889,35.10848126232742,27.373068432671083,434198.0,2904.0,0.0,1.0,0.0,?,0.0,0.0
8100000.0,27.421875,6.412998643807239E-7,8100000.0,67.80000000000001,35.31850613871569,35.470941883767544,31.196581196581203,463898.0,2904.0,0.0,1.0,0.0,?,0.0,0.0
8200000.0,27.765625,6.541823838940925E-7,8200000.0,66.10000000000001,31.7720744509564,30.246913580246922,24.83370288248337,493898.0,2904.0,0.0,1.0,0.0,?,0.0,0.0
8300000.0,28.09375,6.651890645217564E-7,8300000.0,65.3,30.722482650673616,29.898989898989903,28.893442622950822,523898.0,2904.0,0.0,1.0,0.0,?,0.0,0.0
8400000.0,28.421875,6.749054753325052E-7,8400000.0,68.10000000000001,36.09878046826173,37.328094302554035,34.63114754098361,553898.0,2904.0,0.0,1.0,0.0,?,0.0,0.0
8500000.0,28.75,6.833316163263387E-7,8500000.0,69.5,38.90322270476433,35.38135593220338,37.62781186094068,583898.0,2904.0,0.0,1.0,0.0,?,0.0,0.0
8600000.0,29.09375,6.908072908926341E-7,8600000.0,66.9,33.754953368290444,37.42911153119094,31.327800829875525,613898.0,2904.0,0.0,1.0,0.0,?,0.0,0.0
8700000.0,29.40625,6.963745302831133E-7,8700000.0,66.8,33.00751849355702,31.546391752577325,28.90792291220557,643898.0,2904.0,0.0,1.0,0.0,?,0.0,0.0
8800000.0,29.75,7.011467823758721E-7,8800000.0,67.0,33.54678910167342,32.51533742331289,29.637526652452028,673898.0,2904.0,0.0,1.0,0.0,?,0.0,0.0
8900000.0,30.09375,7.045673232318626E-7,8900000.0,70.5,41.042920753691305,42.043222003929266,42.495126705653014,703898.0,2904.0,0.0,1.0,0.0,?,0.0,0.0
9000000.0,30.421875,7.065421151411202E-7,9000000.0,68.30000000000001,36.48567421358446,35.82995951417005,35.3061224489796,733898.0,2904.0,0.0,1.0,0.0,?,0.0,0.0
9100000.0,30.75,7.201422381007836E-7,9100000.0,68.30000000000001,36.160271953213744,34.23236514522822,29.39866369710468,763598.0,2904.0,0.0,1.0,0.0,?,0.0,0.0
9200000.0,31.09375,7.330382747265199E-7,9200000.0,65.5,30.817357824657105,27.061310782241016,28.125000000000007,793598.0,2904.0,0.0,1.0,0.0,?,0.0,0.0
9300000.0,31.4375,7.445826001154879E-7,9300000.0,68.2,36.22858242957069,32.19616204690832,34.56790123456791,823598.0,2904.0,0.0,1.0,0.0,?,0.0,0.0
9400000.0,31.78125,7.547752142676875E-7,9400000.0,66.4,32.57967036274545,31.845841784989865,30.145530145530152,853598.0,2904.0,0.0,1.0,0.0,?,0.0,0.0
9500000.0,32.109375,7.632142579596902E-7,9500000.0,67.5,35.07012426579295,36.39921722113504,37.37957610789982,883598.0,2904.0,0.0,1.0,0.0,?,0.0,0.0
9600000.0,32.453125,7.707034496383534E-7,9600000.0,66.2,32.024776767758034,32.80318091451293,28.085106382978726,913598.0,2904.0,0.0,1.0,0.0,?,0.0,0.0
9700000.0,32.78125,7.765619536965256E-7,9700000.0,66.9,33.32044060885892,31.752577319587633,29.122055674518204,943598.0,2904.0,0.0,1.0,0.0,?,0.0,0.0
9800000.0,33.125,7.813477229016521E-7,9800000.0,66.3,32.14072845015062,32.734530938123754,25.607064017660047,973598.0,2904.0,0.0,1.0,0.0,?,0.0,0.0
9900000.0,33.453125,7.846256873259941E-7,9900000.0,67.7,35.182212233103236,36.79060665362036,32.14285714285715,1003598.0,2904.0,0.0,1.0,0.0,?,0.0,0.0
1.0E7,33.796875,7.86708034057584E-7,1.0E7,67.2,34.46291560102303,34.79125248508947,32.09109730848862,1033598.0,2904.0,0.0,1.0,0.0,?,0.0,0.0
