learning evaluation instances,evaluation time (cpu seconds),model cost (RAM-Hours),classified instances,classifications correct (percent),Kappa Statistic (percent),Kappa Temporal Statistic (percent),Kappa M Statistic (percent),model training instances,model serialized size (bytes),labeling cost,newThreshold,maxPosterior,accuracyBaseLearner (percent),Change detected,Warning detected
100000.0,0.34375,1.3911242907245954E-8,100000.0,66.0,31.623381585774464,32.00000000000001,29.606625258799173,29416.0,2904.0,0.0,1.0,0.0,?,1.0,3.0
200000.0,0.671875,2.589988677452008E-8,200000.0,67.60000000000001,34.72768956166824,36.5949119373777,31.501057082452437,59416.0,2904.0,0.0,1.0,0.0,?,0.0,0.0
300000.0,1.015625,3.710770720822944E-8,300000.0,67.80000000000001,34.76895650588499,36.614173228346466,31.634819532908708,89416.0,2904.0,0.0,1.0,0.0,?,0.0,0.0
400000.0,1.375,4.7411821368667815E-8,400000.0,68.5,36.381629438138724,38.356164383561655,33.40380549682876,119416.0,2904.0,0.0,1.0,0.0,?,0.0,0.0
500000.0,1.703125,5.552965578519636E-8,500000.0,67.2,34.42937563971341,37.28489483747611,34.530938123752506,149416.0,2904.0,0.0,1.0,0.0,?,0.0,0.0
600000.0,2.046875,6.268234250860082E-8,600000.0,69.1,37.75632709956569,40.917782026768634,35.8921161825726,179416.0,2904.0,0.0,1.0,0.0,?,0.0,0.0
700000.0,2.375,6.821963729129898E-8,700000.0,65.60000000000001,31.078422337002472,30.36437246963563,30.223123732251526,209416.0,2904.0,0.0,1.0,0.0,?,0.0,0.0
800000.0,2.71875,7.266890154116683E-8,800000.0,68.4,36.17064253539905,34.84536082474228,32.90870488322719,239416.0,2904.0,0.0,1.0,0.0,?,0.0,0.0
900000.0,3.046875,7.56256566900346E-8,900000.0,69.6,38.05021193348549,40.856031128404666,31.22171945701356,269416.0,2904.0,0.0,1.0,0.0,?,0.0,0.0
1000000.0,3.390625,7.737149846636586E-8,1000000.0,67.9,35.64245272426902,35.02024291497977,34.62321792260693,299416.0,2904.0,0.0,1.0,0.0,?,0.0,0.0
1100000.0,3.71875,9.066331484872434E-8,1100000.0,70.1,39.00448796409627,38.85480572597136,33.702882483370274,329116.0,2904.0,0.0,1.0,0.0,?,0.0,0.0
1200000.0,4.0625,1.0323636363156967E-7,1200000.0,69.5,38.89000200360648,39.8422090729783,34.968017057569284,359116.0,2904.0,0.0,1.0,0.0,?,0.0,0.0
1300000.0,4.40625,1.1445770117764672E-7,1300000.0,67.30000000000001,34.522999046879136,36.750483558994205,32.85420944558523,389116.0,2904.0,0.0,1.0,0.0,?,0.0,0.0
1400000.0,4.734375,1.2387870810925962E-7,1400000.0,68.30000000000001,35.90002830913577,35.3061224489796,33.12236286919832,419116.0,2904.0,0.0,1.0,0.0,?,0.0,0.0
1500000.0,5.078125,1.3239662318180006E-7,1500000.0,68.4,36.20208594951891,35.37832310838447,32.33404710920772,449116.0,2904.0,0.0,1.0,0.0,?,0.0,0.0
1600000.0,5.390625,1.3891717470768427E-7,1600000.0,67.9,35.27181803516697,37.669902912621374,32.42105263157896,479116.0,2904.0,0.0,1.0,0.0,?,0.0,6.0
1700000.0,5.71875,1.4447348399294748E-7,1700000.0,68.5,36.65030970959699,37.000000000000014,34.375000000000014,509116.0,2904.0,0.0,1.0,0.0,?,0.0,0.0
1800000.0,6.0625,1.4894266819788352E-7,1800000.0,67.9,35.154135186457125,37.181996086105684,31.702127659574476,539116.0,2904.0,0.0,1.0,0.0,?,0.0,0.0
1900000.0,6.390625,1.5191843784931636E-7,1900000.0,67.2,34.38136430746333,29.613733905579405,34.79125248508947,569116.0,2904.0,0.0,1.0,0.0,?,0.0,0.0
2000000.0,6.734375,1.5368419958071578E-7,2000000.0,67.4,33.81731956083935,30.932203389830516,30.341880341880344,599116.0,2904.0,0.0,1.0,0.0,?,0.0,0.0
2100000.0,7.0625,1.6699503046563931E-7,2100000.0,68.0,35.27298618078257,36.127744510978054,32.489451476793256,628816.0,2904.0,0.0,1.0,0.0,?,0.0,0.0
2200000.0,7.40625,1.7958799920355282E-7,2200000.0,69.5,38.72942915916687,36.853002070393366,37.62781186094068,658816.0,2904.0,0.0,1.0,0.0,?,0.0,0.0
2300000.0,7.734375,1.9031829045464596E-7,2300000.0,68.4,35.638401877077506,33.61344537815127,30.08849557522124,688816.0,2904.0,0.0,1.0,0.0,?,0.0,0.0
2400000.0,8.0625,1.997583118888239E-7,2400000.0,69.3,37.89498385674172,39.087301587301575,34.2612419700214,718816.0,2904.0,0.0,1.0,0.0,?,0.0,0.0
2500000.0,8.40625,2.0829614691643253E-7,2500000.0,66.5,32.677931222970706,35.57692307692308,31.21149897330596,748816.0,2904.0,0.0,1.0,0.0,?,0.0,0.0
2600000.0,8.75,2.1548227070727283E-7,2600000.0,67.9,35.23420602382415,34.22131147540984,32.56302521008404,778816.0,2904.0,0.0,1.0,0.0,?,0.0,0.0
2700000.0,9.078125,2.210514826907052E-7,2700000.0,67.5,34.67441729580229,31.86582809224319,33.12757201646092,808816.0,2904.0,0.0,1.0,0.0,?,0.0,0.0
2800000.0,9.421875,2.255341840080089E-7,2800000.0,69.8,39.37203886613666,44.28044280442803,38.3673469387755,838816.0,2904.0,0.0,1.0,0.0,?,0.0,0.0
2900000.0,9.75,2.2852285635761087E-7,2900000.0,70.6,40.44532313476372,42.57812499999999,36.63793103448275,868816.0,2904.0,0.0,1.0,0.0,?,0.0,0.0
3000000.0,10.09375,2.30302135201378E-7,3000000.0,66.4,32.88805087724905,32.93413173652696,33.46534653465347,898816.0,2904.0,0.0,1.0,0.0,?,0.0,0.0
3100000.0,10.4375,2.4426033228842746E-7,3100000.0,70.6,41.23478900490908,41.31736526946107,39.99999999999999,928516.0,2904.0,0.0,1.0,0.0,?,0.0,0.0
3200000.0,10.765625,2.5629379605460496E-7,3200000.0,70.0,39.23262964718464,39.27125506072874,34.64052287581698,958516.0,2904.0,0.0,1.0,0.0,?,0.0,0.0
3300000.0,11.171875,2.695948933251202E-7,3300000.0,67.5,34.09525972551184,33.80855397148677,29.501084598698483,988516.0,2904.0,0.0,1.0,0.0,?,0.0,0.0
3400000.0,11.5,2.7904781745746727E-7,3400000.0,66.60000000000001,32.7448169209208,29.087048832271766,28.172043010752688,1018516.0,2904.0,0.0,1.0,0.0,?,0.0,0.0
3500000.0,11.859375,2.879878674219879E-7,3500000.0,67.10000000000001,32.75888849829547,32.02479338842976,27.373068432671083,1048516.0,2904.0,0.0,1.0,0.0,?,0.0,0.0
3600000.0,12.203125,2.951875083251959E-7,3600000.0,68.0,35.51715243745165,33.47193347193348,33.19415448851775,1078516.0,2904.0,0.0,1.0,0.0,?,0.0,0.0
3700000.0,12.546875,3.0103543799163557E-7,3700000.0,66.7,33.285250631085475,32.9979879275654,32.45436105476674,1108516.0,2904.0,0.0,1.0,0.0,?,0.0,0.0
3800000.0,12.875,3.053272828563219E-7,3800000.0,68.4,36.74610768374656,36.16161616161617,36.4185110663984,1138516.0,2904.0,0.0,1.0,0.0,?,0.0,0.0
3900000.0,13.21875,3.08471790049225E-7,3900000.0,66.2,30.81709513672835,30.87934560327199,24.553571428571427,1168516.0,2904.0,0.0,1.0,0.0,?,0.0,0.0
4000000.0,13.5625,3.102645860053598E-7,4000000.0,67.80000000000001,35.28028460595342,35.72854291417167,33.88090349075976,1198516.0,2904.0,0.0,1.0,0.0,?,0.0,0.0
4100000.0,13.875,3.229661443684663E-7,4100000.0,69.1,36.7394401952274,38.69047619047618,31.026785714285694,1228216.0,2904.0,0.0,1.0,0.0,?,0.0,0.0
4200000.0,14.203125,3.3501251083281294E-7,4200000.0,66.4,31.659256306264172,34.117647058823536,27.114967462039047,1258216.0,2904.0,0.0,1.0,0.0,?,0.0,0.0
4300000.0,14.546875,3.462808025586935E-7,4300000.0,67.4,34.45681588798952,30.932203389830516,32.505175983436864,1288216.0,2904.0,0.0,1.0,0.0,?,0.0,0.0
4400000.0,14.875,3.557466293892098E-7,4400000.0,69.5,38.50062507561398,41.570881226053636,35.24416135881103,1318216.0,2904.0,0.0,1.0,0.0,?,0.0,0.0
4500000.0,15.21875,3.6431149864155376E-7,4500000.0,67.4,33.94391311395689,28.193832599118945,30.63829787234043,1348216.0,2904.0,0.0,1.0,0.0,?,0.0,0.0
4600000.0,15.5625,3.715246566571294E-7,4600000.0,68.4,36.67766124151862,39.694656488549626,35.90263691683571,1378216.0,2904.0,0.0,1.0,0.0,?,0.0,0.0
4700000.0,15.890625,3.771196740369001E-7,4700000.0,69.5,38.960446369247265,38.87775551102203,36.853002070393366,1408216.0,2904.0,0.0,1.0,0.0,?,0.0,0.0
4800000.0,16.21875,3.814244215997556E-7,4800000.0,68.8,36.73888976751541,37.47494989979959,32.02614379084965,1438216.0,2904.0,0.0,1.0,0.0,?,0.0,0.0
4900000.0,16.5625,3.845824459050264E-7,4900000.0,69.69999999999999,39.06216061846878,40.704500978473575,37.1369294605809,1468216.0,2904.0,0.0,1.0,0.0,?,0.0,0.0
5000000.0,16.890625,3.86502910664098E-7,5000000.0,66.60000000000001,32.469591097308495,33.730158730158735,29.53586497890296,1498216.0,2904.0,0.0,1.0,0.0,?,0.0,0.0
5100000.0,17.234375,4.004539934814803E-7,5100000.0,69.69999999999999,36.863424961242885,35.8050847457627,25.55282555282555,8731.0,2904.0,0.0,1.0,0.0,?,3.0,11.0
5200000.0,17.5625,4.124806663538846E-7,5200000.0,72.0,40.73798145098818,44.66403162055336,30.17456359102244,38731.0,2904.0,0.0,1.0,0.0,?,0.0,0.0
5300000.0,17.890625,4.2321706940937363E-7,5300000.0,71.0,40.103187749656115,39.58333333333333,29.09535452322738,68731.0,2904.0,0.0,1.0,0.0,?,0.0,0.0
5400000.0,18.21875,4.326632026479475E-7,5400000.0,72.6,43.06848404255319,45.309381237524946,30.808080808080806,98731.0,2904.0,0.0,1.0,0.0,?,0.0,0.0
5500000.0,18.5625,4.4120744051825663E-7,5500000.0,70.5,38.516560929046015,38.54166666666666,26.43391521197007,128731.0,2904.0,0.0,1.0,0.0,?,0.0,0.0
5600000.0,18.890625,4.480730341230001E-7,5600000.0,71.6,41.03381835094014,42.85714285714285,32.057416267942585,158731.0,2904.0,0.0,1.0,0.0,?,0.0,0.0
5700000.0,19.234375,4.539138495197726E-7,5700000.0,74.9,47.46316141995981,49.49698189134809,40.23809523809525,188731.0,2904.0,0.0,1.0,0.0,?,0.0,0.0
5800000.0,19.5625,4.581989034906857E-7,5800000.0,71.7,41.22143112314836,41.64948453608247,26.873385012919893,218731.0,2904.0,0.0,1.0,0.0,?,0.0,0.0
5900000.0,19.890625,4.611936876446836E-7,5900000.0,71.1,40.199308050124976,41.14052953156822,33.10185185185185,248731.0,2904.0,0.0,1.0,0.0,?,0.0,0.0
6000000.0,20.234375,4.629793693311512E-7,6000000.0,69.19999999999999,36.33759265153926,37.651821862348164,25.060827250608263,278731.0,2904.0,0.0,1.0,0.0,?,0.0,0.0
6100000.0,20.5625,4.763092147186398E-7,6100000.0,68.0,33.72408508170579,33.05439330543934,22.89156626506026,308431.0,2904.0,0.0,1.0,0.0,?,0.0,0.0
6200000.0,20.921875,4.894954165340297E-7,6200000.0,70.3,38.47772769455124,40.24144869215291,29.78723404255319,338431.0,2904.0,0.0,1.0,0.0,?,0.0,0.0
6300000.0,21.25,5.00244722287688E-7,6300000.0,70.0,38.02779659896548,38.90020366598777,28.90995260663507,368431.0,2904.0,0.0,1.0,0.0,?,0.0,0.0
6400000.0,21.578125,5.09703758224431E-7,6400000.0,73.1,43.986340163251704,45.325203252032516,33.58024691358025,398431.0,2904.0,0.0,1.0,0.0,?,0.0,0.0
6500000.0,21.921875,5.182615132071077E-7,6500000.0,70.39999999999999,37.40880928717938,39.21971252566735,25.0632911392405,428431.0,2904.0,0.0,1.0,0.0,?,0.0,0.0
6600000.0,22.25,5.253702208089331E-7,6600000.0,71.5,40.16778213514943,37.36263736263735,29.280397022332505,458431.0,2904.0,0.0,1.0,0.0,?,0.0,6.0
6700000.0,22.59375,5.314657270597914E-7,6700000.0,72.7,43.15152928633304,41.16379310344826,32.42574257425743,488431.0,2904.0,0.0,1.0,0.0,?,0.0,0.0
6800000.0,22.921875,5.359938950277864E-7,6800000.0,69.6,36.5079365079365,37.959183673469376,23.999999999999993,518431.0,2904.0,0.0,1.0,0.0,?,0.0,70.0
6900000.0,23.265625,5.393859788051081E-7,6900000.0,73.8,44.19476453172591,42.41758241758241,32.299741602067186,548431.0,2904.0,0.0,1.0,0.0,?,0.0,86.0
7000000.0,23.609375,5.414263513456615E-7,7000000.0,69.69999999999999,36.29957280769617,36.21052631578946,23.484848484848477,578431.0,2904.0,0.0,1.0,0.0,?,0.0,117.0
7100000.0,23.953125,5.556456421294974E-7,7100000.0,71.1,40.381394043915606,42.65873015873015,30.861244019138756,608131.0,2904.0,0.0,1.0,0.0,?,0.0,37.0
7200000.0,24.296875,5.685132216765649E-7,7200000.0,73.3,44.30956373739143,47.44094488188976,32.233502538071065,638131.0,2904.0,0.0,1.0,0.0,?,0.0,8.0
7300000.0,24.625,5.79505641427305E-7,7300000.0,68.0,33.22538103266949,35.48387096774194,20.398009950248774,668131.0,2904.0,0.0,1.0,0.0,?,0.0,0.0
7400000.0,24.96875,5.896697985008358E-7,7400000.0,70.6,38.59649122807017,38.74999999999999,26.499999999999996,698131.0,2904.0,0.0,1.0,0.0,?,0.0,0.0
7500000.0,25.3125,5.984822443375985E-7,7500000.0,71.1,41.094460841065114,43.22200392927308,32.94663573085847,728131.0,2904.0,0.0,1.0,0.0,?,0.0,0.0
7600000.0,25.65625,6.059429789375928E-7,7600000.0,70.19999999999999,38.026153794962234,38.17427385892115,28.36538461538461,758131.0,2904.0,0.0,1.0,0.0,?,0.0,0.0
7700000.0,26.0,6.120520023008188E-7,7700000.0,70.1,38.65458633905343,38.603696098562615,30.946882217090067,788131.0,2904.0,0.0,1.0,0.0,?,0.0,0.0
7800000.0,26.34375,6.168093144272764E-7,7800000.0,72.2,42.54678923351631,45.70312499999999,35.04672897196262,818131.0,2904.0,0.0,1.0,0.0,?,0.0,0.0
7900000.0,26.6875,6.202149153169658E-7,7900000.0,71.8,41.03970829291138,41.73553719008264,30.882352941176467,848131.0,2904.0,0.0,1.0,0.0,?,0.0,0.0
8000000.0,27.0,6.220820877287123E-7,8000000.0,70.5,38.57238047642844,36.559139784946225,25.505050505050498,878131.0,2904.0,0.0,1.0,0.0,?,0.0,0.0
8100000.0,27.34375,6.363148956249157E-7,8100000.0,70.1,38.53705865908007,37.31656184486372,29.481132075471695,907831.0,2904.0,0.0,1.0,0.0,?,0.0,0.0
8200000.0,27.6875,6.491959922843509E-7,8200000.0,71.3,40.27850608867913,39.70588235294117,30.676328502415455,937831.0,2904.0,0.0,1.0,0.0,?,0.0,0.0
8300000.0,28.015625,6.602013147332602E-7,8300000.0,73.9,45.07529524659298,44.46808510638297,33.756345177664976,967831.0,2904.0,0.0,1.0,0.0,?,0.0,65.0
8400000.0,28.359375,6.703725860764582E-7,8400000.0,71.3,39.35167575334938,36.08017817371936,22.43243243243242,997831.0,2904.0,0.0,1.0,0.0,?,0.0,8.0
8500000.0,28.6875,6.787912570871412E-7,8500000.0,72.3,42.18567373518116,42.29166666666666,32.92978208232446,1027831.0,2904.0,0.0,1.0,0.0,?,0.0,0.0
8600000.0,29.03125,6.86255548821969E-7,8600000.0,69.39999999999999,36.751769296911164,33.90928725701942,25.72815533980582,1057831.0,2904.0,0.0,1.0,0.0,?,0.0,56.0
8700000.0,29.359375,6.920997920032176E-7,8700000.0,72.89999999999999,44.42758360470171,45.03042596348884,37.9862700228833,1087831.0,2904.0,0.0,1.0,0.0,?,0.0,17.0
8800000.0,29.6875,6.966537653675508E-7,8800000.0,71.89999999999999,42.18011819124594,40.96638655462184,34.9537037037037,1117831.0,2904.0,0.0,1.0,0.0,?,0.0,0.0
8900000.0,30.015625,6.999174689149689E-7,8900000.0,69.6,37.76434797918381,39.68253968253968,28.805620608899297,1147831.0,2904.0,0.0,1.0,0.0,?,0.0,0.0
9000000.0,30.453125,7.025487138889728E-7,9000000.0,72.6,43.52960573772181,43.621399176954725,33.65617433414044,1177831.0,2904.0,0.0,1.0,0.0,?,0.0,0.0
9100000.0,30.78125,7.161474786698816E-7,9100000.0,72.39999999999999,42.04967770382345,43.44262295081967,30.126582278481013,1207531.0,2904.0,0.0,1.0,0.0,?,0.0,0.0
9200000.0,31.109375,7.284559736338753E-7,9200000.0,70.3,37.61290593622652,37.341772151898724,24.810126582278475,1237531.0,2904.0,0.0,1.0,0.0,?,0.0,0.0
9300000.0,31.4375,7.394741987809537E-7,9300000.0,69.39999999999999,36.29485903676161,35.7142857142857,20.930232558139526,1267531.0,2904.0,0.0,1.0,0.0,?,0.0,0.0
9400000.0,31.765625,7.492021541111169E-7,9400000.0,74.5,47.036098533626884,49.0,37.804878048780495,1297531.0,2904.0,0.0,1.0,0.0,?,0.0,0.0
9500000.0,32.109375,7.580416341726149E-7,9500000.0,71.8,41.49159097227697,40.380549682875255,29.675810473815456,1327531.0,2904.0,0.0,1.0,0.0,?,0.0,0.0
9600000.0,32.4375,7.651890498689477E-7,9600000.0,71.89999999999999,42.30500735046525,41.336116910229634,33.2541567695962,1357531.0,2904.0,0.0,1.0,0.0,?,0.0,0.0
9700000.0,32.765625,7.710461957483653E-7,9700000.0,70.39999999999999,38.75084838351901,39.59183673469387,29.186602870813395,1387531.0,2904.0,0.0,1.0,0.0,?,0.0,0.0
9800000.0,33.078125,7.753956015221772E-7,9800000.0,73.2,42.81324684192556,40.96916299559471,25.555555555555546,1417531.0,2904.0,0.0,1.0,0.0,?,0.0,0.0
9900000.0,33.421875,7.78828236636602E-7,9900000.0,68.0,33.567783696703735,30.885529157667392,23.627684964200498,1447531.0,2904.0,0.0,1.0,0.0,?,0.0,0.0
1.0E7,33.734375,7.807199856162897E-7,1.0E7,71.6,40.82544339245233,39.95771670190274,31.06796116504854,1477531.0,2904.0,0.0,1.0,0.0,?,0.0,0.0
