learning evaluation instances,evaluation time (cpu seconds),model cost (RAM-Hours),classified instances,classifications correct (percent),Kappa Statistic (percent),Kappa Temporal Statistic (percent),Kappa M Statistic (percent),model training instances,model serialized size (bytes),labeling cost,newThreshold,maxPosterior,accuracyBaseLearner (percent),Change detected,Warning detected
100000.0,0.140625,3.2011303119361403E-9,100000.0,61.6,23.620697199823375,23.2,20.496894409937884,39800.0,5144.0,0.0,1.0,0.0,?,0.0,3.0
200000.0,0.296875,6.130269159459406E-9,200000.0,63.2,27.147466988695978,27.98434442270059,22.19873150105708,79800.0,5144.0,0.0,1.0,0.0,?,0.0,63.0
300000.0,0.4375,8.235349216394954E-9,300000.0,60.4,21.968905791247103,22.047244094488185,15.923566878980882,119800.0,5144.0,0.0,1.0,0.0,?,0.0,18.0
400000.0,0.59375,9.959912858903409E-9,400000.0,61.8,24.37590323283115,25.244618395303327,19.238900634249468,159800.0,5144.0,0.0,1.0,0.0,?,0.0,0.0
500000.0,0.734375,1.0959047358483076E-8,500000.0,60.4,20.72135558474005,24.282982791586996,20.958083832335326,199800.0,5144.0,0.0,1.0,0.0,?,0.0,0.0
600000.0,0.875,1.4166580513119697E-8,600000.0,62.2,24.940428911834797,27.72466539196941,21.576763485477173,239600.0,5144.0,0.0,1.0,0.0,?,0.0,35.0
700000.0,1.03125,1.7115768666068714E-8,700000.0,59.0,18.26319252008532,17.004048582995946,16.835699797160235,279600.0,5144.0,0.0,1.0,0.0,?,0.0,45.0
800000.0,1.1875,1.9454423131214247E-8,800000.0,62.5,25.82600164567378,22.680412371134018,20.382165605095537,319600.0,5144.0,0.0,1.0,0.0,?,0.0,48.0
900000.0,1.328125,2.1007694562690125E-8,900000.0,64.60000000000001,30.80531665363565,31.128404669260707,19.909502262443436,359600.0,5144.0,0.0,1.0,0.0,?,0.0,82.0
1000000.0,1.484375,2.2129162162956263E-8,1000000.0,60.8,21.912039490197177,20.647773279352222,20.162932790224026,399600.0,5144.0,0.0,1.0,0.0,?,0.0,84.0
1100000.0,1.625,2.535590384569433E-8,1100000.0,61.5,24.130157178666582,21.267893660531694,14.634146341463406,439400.0,5144.0,0.0,1.0,0.0,?,0.0,0.0
1200000.0,1.8125,2.892092905110783E-8,1200000.0,63.7,27.603289961787297,28.402366863905325,22.601279317697227,479400.0,5144.0,0.0,1.0,0.0,?,0.0,0.0
1300000.0,1.984375,3.151301320435272E-8,1300000.0,61.9,23.86212850314144,26.305609284332686,21.765913757700204,519400.0,5144.0,0.0,1.0,0.0,?,0.0,0.0
1400000.0,2.15625,3.3429241739213463E-8,1400000.0,63.0,26.761678543151223,24.489795918367346,21.940928270042193,559400.0,5144.0,0.0,1.0,0.0,?,0.0,0.0
1500000.0,2.3125,3.4556853481464915E-8,1500000.0,62.3,25.833536618953563,22.903885480572594,19.27194860813704,599400.0,5144.0,0.0,1.0,0.0,?,0.0,0.0
1600000.0,2.46875,3.814212201784054E-8,1600000.0,61.9,24.431151026625628,26.019417475728158,19.78947368421052,639200.0,5144.0,0.0,1.0,0.0,?,0.0,0.0
1700000.0,2.609375,4.0815890921900665E-8,1700000.0,63.5,27.64253429545635,27.0,23.958333333333332,679200.0,5144.0,0.0,1.0,0.0,?,0.0,0.0
1800000.0,2.75,4.293668704728285E-8,1800000.0,62.0,24.829878145276158,25.63600782778865,19.14893617021276,719200.0,5144.0,0.0,1.0,0.0,?,0.0,0.0
1900000.0,2.90625,4.467871298806534E-8,1900000.0,63.3,26.62524091712451,21.244635193133043,27.037773359840955,759200.0,5144.0,0.0,1.0,0.0,?,0.0,0.0
2000000.0,3.09375,4.603184707876708E-8,2000000.0,60.6,21.91958906715708,16.52542372881355,15.811965811965804,799200.0,5144.0,0.0,1.0,0.0,?,0.0,0.0
2100000.0,3.25,4.9623259757128023E-8,2100000.0,62.3,25.245282719564717,24.75049900199601,20.464135021097043,839000.0,5144.0,0.0,1.0,0.0,?,0.0,0.0
2200000.0,3.40625,5.260025823695792E-8,2200000.0,62.9,26.351480116884762,23.188405797101446,24.13087934560327,879000.0,5144.0,0.0,1.0,0.0,?,0.0,0.0
2300000.0,3.5625,5.496284251825677E-8,2300000.0,61.5,24.265076167694826,19.117647058823522,14.823008849557512,919000.0,5144.0,0.0,1.0,0.0,?,0.0,0.0
2400000.0,3.71875,5.671101260102457E-8,2400000.0,62.4,25.73132913267623,25.396825396825395,19.486081370449675,959000.0,5144.0,0.0,1.0,0.0,?,0.0,0.0
2500000.0,3.859375,5.773139289683765E-8,2500000.0,61.6,23.609149395835896,26.153846153846157,21.14989733059548,999000.0,5144.0,0.0,1.0,0.0,?,0.0,0.0
2600000.0,4.015625,6.132280557519859E-8,2600000.0,61.7,24.236429814844115,21.516393442622945,19.537815126050415,1038800.0,5144.0,0.0,1.0,0.0,?,0.0,0.0
2700000.0,4.171875,6.429980405502848E-8,2700000.0,63.5,27.38630485815462,23.480083857442345,24.897119341563787,1078800.0,5144.0,0.0,1.0,0.0,?,0.0,0.0
2800000.0,4.328125,6.666238833632733E-8,2800000.0,64.1,28.505994344206805,33.76383763837638,26.734693877551024,1118800.0,5144.0,0.0,1.0,0.0,?,0.0,0.0
2900000.0,4.484375,6.841055841909513E-8,2900000.0,63.9,28.81481598334148,29.492187500000007,22.198275862068964,1158800.0,5144.0,0.0,1.0,0.0,?,0.0,0.0
3000000.0,4.640625,6.95443143033319E-8,3000000.0,62.1,24.060270898453147,24.35129740518962,24.95049504950495,1198800.0,5144.0,0.0,1.0,0.0,?,0.0,0.0
3100000.0,4.8125,7.350162680571277E-8,3100000.0,64.5,28.935757925164353,29.141716566866272,27.551020408163268,1238600.0,5144.0,0.0,1.0,0.0,?,0.0,0.0
3200000.0,4.96875,7.648476942752798E-8,3200000.0,63.9,28.91909772541113,26.923076923076927,21.350762527233112,1278600.0,5144.0,0.0,1.0,0.0,?,0.0,0.0
3300000.0,5.140625,7.909037069314055E-8,3300000.0,60.9,22.953843243584075,20.366598778004068,15.184381778741857,1318600.0,5144.0,0.0,1.0,0.0,?,0.0,0.0
3400000.0,5.296875,8.084468491789367E-8,3400000.0,59.699999999999996,19.947558698502235,14.437367303609333,13.333333333333321,1358600.0,5144.0,0.0,1.0,0.0,?,0.0,0.0
3500000.0,5.453125,8.198458494411574E-8,3500000.0,57.699999999999996,16.746049865770228,12.603305785123956,6.622516556291373,1398600.0,5144.0,0.0,1.0,0.0,?,0.0,0.0
3600000.0,5.625,8.594189744649661E-8,3600000.0,61.7,23.86594044447978,20.37422037422037,20.041753653444673,1438400.0,5144.0,0.0,1.0,0.0,?,0.0,0.0
3700000.0,5.765625,8.86267258061303E-8,3700000.0,63.4,26.92714676462955,26.358148893360163,25.760649087221093,1478400.0,5144.0,0.0,1.0,0.0,?,0.0,0.0
3800000.0,5.921875,9.099545422941445E-8,3800000.0,64.1,28.287775762466737,27.47474747474748,27.766599597585518,1518400.0,5144.0,0.0,1.0,0.0,?,0.0,0.0
3900000.0,6.078125,9.274976845416756E-8,3900000.0,59.599999999999994,20.587495282425458,17.38241308793455,9.821428571428555,1558400.0,5144.0,0.0,1.0,0.0,?,0.0,0.0
4000000.0,6.265625,9.411764848563405E-8,4000000.0,64.4,29.17198871526742,28.94211576846308,26.899383983572893,1598400.0,5144.0,0.0,1.0,0.0,?,0.0,0.0
4100000.0,6.421875,9.77213494479656E-8,4100000.0,60.099999999999994,21.841944431385443,20.83333333333333,10.937499999999986,1638200.0,5144.0,0.0,1.0,0.0,?,0.0,0.0
4200000.0,6.578125,1.0071063621176612E-7,4200000.0,59.4,19.71429362420752,20.392156862745097,11.930585683297167,1678200.0,5144.0,0.0,1.0,0.0,?,0.0,0.0
4300000.0,6.734375,1.0308550877703559E-7,4300000.0,61.5,23.5097311516057,18.4322033898305,20.289855072463762,1718200.0,5144.0,0.0,1.0,0.0,?,0.0,0.0
4400000.0,6.90625,1.0502201298044785E-7,4400000.0,62.0,24.94894553268474,27.203065134099617,19.320594479830145,1758200.0,5144.0,0.0,1.0,0.0,?,0.0,0.0
4500000.0,7.09375,1.0639726598229672E-7,4500000.0,59.699999999999996,20.402923168082154,11.23348017621144,14.25531914893616,1798200.0,5144.0,0.0,1.0,0.0,?,0.0,0.0
4600000.0,7.25,1.1000096694462827E-7,4600000.0,63.7,27.635041385579633,30.725190839694662,26.369168356997974,1838000.0,5144.0,0.0,1.0,0.0,?,0.0,0.0
4700000.0,7.40625,1.1299025370842879E-7,4700000.0,65.9,31.875209768415676,31.663326653306616,29.399585921325055,1878000.0,5144.0,0.0,1.0,0.0,?,0.0,0.0
4800000.0,7.5625,1.1536512627369826E-7,4800000.0,62.3,25.9122423632619,24.448897795591183,17.86492374727668,1918000.0,5144.0,0.0,1.0,0.0,?,0.0,0.0
4900000.0,7.71875,1.1712558464043669E-7,4900000.0,64.2,28.830433537962406,29.941291585127207,25.72614107883818,1958000.0,5144.0,0.0,1.0,0.0,?,0.0,0.0
5000000.0,7.875,1.1836055717948409E-7,5000000.0,62.1,25.049637311437543,24.801587301587304,20.042194092827,1998000.0,5144.0,0.0,1.0,0.0,?,0.0,0.0
5100000.0,8.03125,1.22023435930411E-7,5100000.0,52.900000000000006,2.8361127843745804,0.21186440677966123,-15.724815724815711,1647888.0,5144.0,0.0,1.0,0.0,?,1.0,128.0
5200000.0,8.1875,1.2510779520703686E-7,5200000.0,54.7,5.819639411882114,10.474308300395267,-12.967581047381529,1687888.0,5144.0,0.0,1.0,0.0,?,0.0,30.0
5300000.0,8.328125,1.2732172358988058E-7,5300000.0,53.0,2.19051622596905,2.0833333333333353,-14.914425427872846,1727888.0,5144.0,0.0,1.0,0.0,?,0.0,76.0
5400000.0,8.484375,1.2916722981673147E-7,5400000.0,51.800000000000004,-0.40997266848876107,3.7924151696606816,-21.717171717171706,1767888.0,5144.0,0.0,1.0,0.0,?,0.0,47.0
5500000.0,8.625,1.3024989230972196E-7,5500000.0,51.9,-1.167740741363935,-0.20833333333333354,-19.950124688279292,1807888.0,5144.0,0.0,1.0,0.0,?,0.0,25.0
5600000.0,8.765625,1.335444459174242E-7,5600000.0,51.2,-0.9098428453267079,1.8108651911468827,-16.746411483253574,1847688.0,5144.0,0.0,1.0,0.0,?,0.0,0.0
5700000.0,8.921875,1.3659064683856235E-7,5700000.0,50.4,-2.955828628362677,0.20120724346076477,-18.095238095238084,1887688.0,5144.0,0.0,1.0,0.0,?,0.0,0.0
5800000.0,9.0625,1.3877925488890872E-7,5800000.0,50.9,-2.6543788051113784,-1.2371134020618568,-26.873385012919893,1927688.0,5144.0,0.0,1.0,0.0,?,0.0,0.0
5900000.0,9.21875,1.4059662741298475E-7,5900000.0,49.7,-3.4417518056035346,-2.443991853360491,-16.435185185185173,1967688.0,5144.0,0.0,1.0,0.0,?,0.0,0.0
6000000.0,9.359375,1.4167928990597524E-7,6000000.0,51.6,-0.7825221450851713,2.0242914979757103,-17.761557177615558,2007688.0,5144.0,0.0,1.0,0.0,?,0.0,0.0
6100000.0,9.5,1.4497937324146428E-7,6100000.0,49.6,-3.437660338635183,-5.4393305439330595,-21.44578313253011,2047488.0,5144.0,0.0,1.0,0.0,?,0.0,0.0
6200000.0,9.640625,1.477264837982754E-7,6200000.0,52.300000000000004,1.065259594803132,4.024144869215295,-12.765957446808496,2087488.0,5144.0,0.0,1.0,0.0,?,0.0,0.0
6300000.0,9.78125,1.4992062157640855E-7,6300000.0,54.1,6.180248387281402,6.51731160896131,-8.767772511848323,2127488.0,5144.0,0.0,1.0,0.0,?,0.0,0.0
6400000.0,9.953125,1.5192648990907603E-7,6400000.0,50.9,-2.079002079002081,0.2032520325203254,-21.23456790123456,2167488.0,5144.0,0.0,1.0,0.0,?,0.0,0.0
6500000.0,10.109375,1.5313559237660634E-7,6500000.0,51.4,-2.676779413939526,0.20533880903490778,-23.037974683544295,2207488.0,5144.0,0.0,1.0,0.0,?,0.0,0.0
6600000.0,10.25,1.5643567571209538E-7,6600000.0,52.7,2.0557929960573933,-3.95604395604396,-17.369727047146387,2247288.0,5144.0,0.0,1.0,0.0,?,0.0,0.0
6700000.0,10.40625,1.5948802077521882E-7,6700000.0,54.7,5.36633464803798,2.370689655172416,-12.128712871287112,2287288.0,5144.0,0.0,1.0,0.0,?,0.0,0.0
6800000.0,10.546875,1.6168215855335198E-7,6800000.0,51.300000000000004,-1.0792860107928566,0.6122448979591842,-21.749999999999993,2327288.0,5144.0,0.0,1.0,0.0,?,0.0,0.0
6900000.0,10.6875,1.633233235528072E-7,6900000.0,54.1,4.487227507678484,-0.87912087912088,-18.604651162790688,2367288.0,5144.0,0.0,1.0,0.0,?,0.0,0.0
7000000.0,10.8125,1.6429060552683146E-7,7000000.0,48.699999999999996,-5.813339493746078,-8.000000000000007,-29.54545454545454,2407288.0,5144.0,0.0,1.0,0.0,?,0.0,0.0
7100000.0,10.953125,1.6759621859010727E-7,7100000.0,52.1,1.5189519478276727,4.960317460317465,-14.593301435406683,2447088.0,5144.0,0.0,1.0,0.0,?,0.0,0.0
7200000.0,11.109375,1.70654707795216E-7,7200000.0,55.50000000000001,6.354430592850109,12.401574803149618,-12.944162436548206,2487088.0,5144.0,0.0,1.0,0.0,?,0.0,0.0
7300000.0,11.265625,1.7309878280179372E-7,7300000.0,51.0,-1.501392019090531,1.2096774193548396,-21.890547263681583,2527088.0,5144.0,0.0,1.0,0.0,?,0.0,0.0
7400000.0,11.40625,1.747454775290357E-7,7400000.0,53.900000000000006,4.158004158004162,3.9583333333333375,-15.249999999999986,2567088.0,5144.0,0.0,1.0,0.0,?,0.0,0.0
7500000.0,11.5625,1.7596072413855132E-7,7500000.0,50.6,-1.6908679953724364,2.946954813359531,-14.61716937354987,2607088.0,5144.0,0.0,1.0,0.0,?,0.0,0.0
7600000.0,11.703125,1.7926633720182714E-7,7600000.0,50.5,-2.979112923358575,-2.6970954356846497,-18.990384615384603,2646888.0,5144.0,0.0,1.0,0.0,?,0.0,0.0
7700000.0,11.84375,1.82018977486425E-7,7700000.0,50.6,-1.3811644468159365,-1.4373716632443545,-14.087759815242478,2686888.0,5144.0,0.0,1.0,0.0,?,0.0,0.0
7800000.0,11.984375,1.8421864499234494E-7,7800000.0,54.300000000000004,5.693862053026063,10.742187500000009,-6.775700934579419,2726888.0,5144.0,0.0,1.0,0.0,?,0.0,0.0
7900000.0,12.125,1.8586533971958693E-7,7900000.0,64.5,31.25164608734722,26.65289256198347,12.990196078431381,2766888.0,5144.0,0.0,1.0,0.0,?,0.0,0.0
8000000.0,12.28125,1.8708058632910254E-7,8000000.0,64.0,31.09573099773381,22.58064516129032,9.090909090909099,2806888.0,5144.0,0.0,1.0,0.0,?,0.0,0.0
8100000.0,12.421875,1.9039172912016515E-7,8100000.0,63.9,30.443159922928714,24.31865828092243,14.858490566037746,2846688.0,5144.0,0.0,1.0,0.0,?,0.0,0.0
8200000.0,12.5625,1.9314989913254981E-7,8200000.0,65.8,32.84742621070987,28.151260504201687,17.3913043478261,2886688.0,5144.0,0.0,1.0,0.0,?,0.0,0.0
8300000.0,12.703125,1.9535509636625654E-7,8300000.0,62.9,28.731145449935063,21.063829787234038,5.837563451776655,2926688.0,5144.0,0.0,1.0,0.0,?,0.0,0.0
8400000.0,12.859375,1.971909013162885E-7,8400000.0,64.1,31.170673722151932,20.044543429844094,2.9729729729729755,2966688.0,5144.0,0.0,1.0,0.0,?,0.0,0.0
8500000.0,13.015625,1.9841229206778941E-7,8500000.0,63.6,29.243724268236278,24.166666666666668,11.864406779661026,3006688.0,5144.0,0.0,1.0,0.0,?,0.0,0.0
8600000.0,13.171875,2.0209133961341453E-7,8600000.0,64.4,31.407608360564776,23.110151187904965,13.592233009708748,3046488.0,5144.0,0.0,1.0,0.0,?,0.0,0.0
8700000.0,13.3125,2.048495096257992E-7,8700000.0,64.60000000000001,30.855323554114506,28.194726166328604,18.993135011441662,3086488.0,5144.0,0.0,1.0,0.0,?,0.0,0.0
8800000.0,13.46875,2.072997287743622E-7,8800000.0,64.60000000000001,30.744670861113732,25.63025210084034,18.055555555555568,3126488.0,5144.0,0.0,1.0,0.0,?,0.0,0.0
8900000.0,13.59375,2.087683727343878E-7,8900000.0,62.7,27.76245661874071,25.992063492063494,12.646370023419212,3166488.0,5144.0,0.0,1.0,0.0,?,0.0,0.0
9000000.0,13.734375,2.0986762441073863E-7,9000000.0,64.1,30.614611519134133,26.131687242798357,13.075060532687663,3206488.0,5144.0,0.0,1.0,0.0,?,0.0,0.0
9100000.0,13.875,2.13184296929588E-7,9100000.0,65.5,33.297242952708714,29.303278688524593,12.658227848101278,3246288.0,5144.0,0.0,1.0,0.0,?,0.0,0.0
9200000.0,14.015625,2.1594799666975944E-7,9200000.0,62.8,28.222741042313853,21.51898734177215,5.822784810126587,3286288.0,5144.0,0.0,1.0,0.0,?,0.0,0.0
9300000.0,14.1875,2.186499962893626E-7,9300000.0,62.9,28.70046508052428,22.05882352941176,4.134366925064603,3326288.0,5144.0,0.0,1.0,0.0,?,0.0,0.0
9400000.0,14.328125,2.2030775047217816E-7,9400000.0,66.3,35.009835306823014,32.60000000000001,17.804878048780502,3366288.0,5144.0,0.0,1.0,0.0,?,0.0,0.0
9500000.0,14.46875,2.2141253187631577E-7,9500000.0,62.9,28.843232627008113,21.564482029598306,7.481296758104744,3406288.0,5144.0,0.0,1.0,0.0,?,0.0,0.0
9600000.0,14.609375,2.2472920439516514E-7,9600000.0,65.3,32.931307742858266,27.55741127348643,17.57719714964372,3446088.0,5144.0,0.0,1.0,0.0,?,0.0,0.0
9700000.0,14.75,2.2749290413533658E-7,9700000.0,63.0,28.21332671085104,24.489795918367346,11.483253588516755,3486088.0,5144.0,0.0,1.0,0.0,?,0.0,0.0
9800000.0,14.90625,2.299492674258849E-7,9800000.0,64.3,31.917003585323066,21.36563876651982,0.8333333333333341,3526088.0,5144.0,0.0,1.0,0.0,?,0.0,0.0
9900000.0,15.046875,2.3160702160870044E-7,9900000.0,61.7,26.12851709266532,17.27861771058315,8.591885441527452,3566088.0,5144.0,0.0,1.0,0.0,?,0.0,0.0
1.0E7,15.1875,2.3271180301283805E-7,1.0E7,62.0,26.634128258989254,19.661733615221983,7.766990291262142,3606088.0,5144.0,0.0,1.0,0.0,?,0.0,0.0
