learning evaluation instances,evaluation time (cpu seconds),model cost (RAM-Hours),classified instances,classifications correct (percent),Kappa Statistic (percent),Kappa Temporal Statistic (percent),Kappa M Statistic (percent),model training instances,model serialized size (bytes),labeling cost,newThreshold,maxPosterior,accuracyBaseLearner (percent),Change detected,Warning detected
100000.0,0.15625,6.524432036611769E-9,100000.0,65.10000000000001,27.60237314857073,26.98744769874477,19.025522041763356,29700.0,9328.0,0.0,1.0,0.0,?,0.0,15.0
200000.0,0.3125,1.2466787464088864E-8,200000.0,68.10000000000001,34.81068532566049,38.05825242718448,29.424778761061955,59700.0,9328.0,0.0,1.0,0.0,?,0.0,0.0
300000.0,0.46875,1.7827066282431284E-8,300000.0,66.10000000000001,30.838909743757135,29.521829521829524,26.143790849673206,89700.0,9328.0,0.0,1.0,0.0,?,0.0,0.0
400000.0,0.640625,2.3083088712559807E-8,400000.0,66.5,32.032137639993515,33.79446640316207,27.173913043478265,119700.0,9328.0,0.0,1.0,0.0,?,0.0,0.0
500000.0,0.796875,2.727921431263288E-8,500000.0,64.9,28.80959914328134,27.027027027027028,24.19006479481641,149700.0,9328.0,0.0,1.0,0.0,?,0.0,0.0
600000.0,0.953125,3.090361133217812E-8,600000.0,66.3,31.13229139419305,33.66141732283465,25.442477876106196,179700.0,9328.0,0.0,1.0,0.0,?,0.0,25.0
700000.0,1.109375,3.394593174258868E-8,700000.0,68.2,34.738440700227805,34.96932515337424,26.558891454965377,209700.0,9328.0,0.0,1.0,0.0,?,0.0,0.0
800000.0,1.28125,3.665219992399216E-8,800000.0,65.7,29.620236541665644,31.124497991967875,22.398190045248867,239700.0,9328.0,0.0,1.0,0.0,?,0.0,0.0
900000.0,1.4375,3.8530367116133375E-8,900000.0,66.10000000000001,31.97415419191717,28.78151260504202,32.06412825651303,269700.0,9328.0,0.0,1.0,0.0,?,0.0,0.0
1000000.0,1.59375,3.9826457699139915E-8,1000000.0,67.80000000000001,34.64450262842762,37.35408560311285,29.540481400437642,299700.0,9328.0,0.0,1.0,0.0,?,0.0,0.0
1100000.0,1.734375,4.5712998447318873E-8,1100000.0,65.9,30.97277776878108,34.042553191489375,27.7542372881356,329400.0,9328.0,0.0,1.0,0.0,?,0.0,0.0
1200000.0,1.890625,5.1671522669494154E-8,1200000.0,67.0,32.978321533456004,33.198380566801625,28.725701943844495,359400.0,9328.0,0.0,1.0,0.0,?,0.0,0.0
1300000.0,2.046875,5.704797028253476E-8,1300000.0,64.4,28.238827632082895,30.873786407766996,26.293995859213254,389400.0,9328.0,0.0,1.0,0.0,?,0.0,0.0
1400000.0,2.203125,6.184234128644069E-8,1400000.0,66.2,32.28732611064812,35.98484848484849,32.12851405622491,419400.0,9328.0,0.0,1.0,0.0,?,0.0,0.0
1500000.0,2.359375,6.605463568121195E-8,1500000.0,63.5,26.38457504739624,22.669491525423727,23.640167364016733,449400.0,9328.0,0.0,1.0,0.0,?,0.0,0.0
1600000.0,2.515625,6.968485346684852E-8,1600000.0,67.0,33.66567500201014,36.04651162790699,31.535269709543574,479400.0,9328.0,0.0,1.0,0.0,?,0.0,0.0
1700000.0,2.671875,7.273299464335043E-8,1700000.0,65.2,28.894846102293343,26.42706131078224,23.348017621145374,509400.0,9328.0,0.0,1.0,0.0,?,0.0,0.0
1800000.0,2.84375,7.544566566745438E-8,1800000.0,69.1,36.93929029150782,39.648437499999986,32.53275109170304,539400.0,9328.0,0.0,1.0,0.0,?,0.0,0.0
1900000.0,2.984375,7.714125482986369E-8,1900000.0,68.2,35.219175124163264,36.40000000000001,29.490022172949004,569400.0,9328.0,0.0,1.0,0.0,?,0.0,0.0
2000000.0,3.140625,7.844316617896157E-8,2000000.0,65.2,29.07945953657095,29.41176470588236,22.83813747228381,599400.0,9328.0,0.0,1.0,0.0,?,0.0,0.0
2100000.0,3.3125,8.564422993610301E-8,2100000.0,66.10000000000001,31.384852042262075,32.60437375745527,28.329809725158565,629100.0,9328.0,0.0,1.0,0.0,?,0.0,0.0
2200000.0,3.453125,9.101214042554297E-8,2200000.0,64.3,28.322464582864864,29.585798816568055,26.69404517453799,659100.0,9328.0,0.0,1.0,0.0,?,0.0,0.0
2300000.0,3.609375,9.639440880467493E-8,2300000.0,66.5,32.52388855766288,33.66336633663367,30.06263048016702,689100.0,9328.0,0.0,1.0,0.0,?,0.0,0.0
2400000.0,3.765625,1.0119460057467221E-7,2400000.0,66.8,32.875864829783715,35.53398058252428,29.21108742004265,719100.0,9328.0,0.0,1.0,0.0,?,0.0,0.0
2500000.0,3.921875,1.0541271573553481E-7,2500000.0,66.60000000000001,32.224025974025984,34.63796477495109,28.01724137931035,749100.0,9328.0,0.0,1.0,0.0,?,0.0,0.0
2600000.0,4.078125,1.0904875428726275E-7,2600000.0,65.3,30.042579271636406,33.39731285988484,27.100840336134457,779100.0,9328.0,0.0,1.0,0.0,?,0.0,0.0
2700000.0,4.234375,1.12102716229856E-7,2700000.0,66.8,32.68587417124551,36.76190476190477,28.60215053763441,809100.0,9328.0,0.0,1.0,0.0,?,0.0,0.0
2800000.0,4.390625,1.1457460156331459E-7,2800000.0,64.9,29.04790782292299,29.376257545271635,26.105263157894736,839100.0,9328.0,0.0,1.0,0.0,?,0.0,0.0
2900000.0,4.546875,1.164644102876385E-7,2900000.0,66.2,31.964573268921104,31.578947368421055,30.165289256198353,869100.0,9328.0,0.0,1.0,0.0,?,0.0,0.0
3000000.0,4.703125,1.1777214240282774E-7,3000000.0,66.7,31.65473532116118,30.625000000000007,24.830699774266364,899100.0,9328.0,0.0,1.0,0.0,?,0.0,0.0
3100000.0,4.84375,1.2366916052997112E-7,3100000.0,66.9,33.195553366863386,35.976789168278536,30.16877637130802,928800.0,9328.0,0.0,1.0,0.0,?,0.0,0.0
3200000.0,5.0,1.2963932628432909E-7,3200000.0,67.30000000000001,33.62885744209271,30.720338983050855,30.2771855010661,958800.0,9328.0,0.0,1.0,0.0,?,0.0,0.0
3300000.0,5.140625,1.3448860651503005E-7,3300000.0,67.4,34.005959707197,37.54789272030653,30.341880341880344,988800.0,9328.0,0.0,1.0,0.0,?,0.0,0.0
3400000.0,5.3125,1.3977522030472754E-7,3400000.0,66.8,32.84219128647662,34.90196078431374,29.21108742004265,1018800.0,9328.0,0.0,1.0,0.0,?,0.0,0.0
3500000.0,5.453125,1.435767626389861E-7,3500000.0,68.30000000000001,35.87046238003529,35.95959595959597,31.681034482758623,1048800.0,9328.0,0.0,1.0,0.0,?,0.0,0.0
3600000.0,5.59375,1.4685443602502344E-7,3600000.0,65.0,29.45141419679428,28.86178861788618,27.385892116182575,1078800.0,9328.0,0.0,1.0,0.0,?,0.0,0.0
3700000.0,5.75,1.4991421873370804E-7,3700000.0,65.4,29.466924880236476,28.364389233954455,23.956043956043953,1108800.0,9328.0,0.0,1.0,0.0,?,0.0,0.0
3800000.0,5.90625,1.5239192483325796E-7,3800000.0,69.6,38.44359489405817,38.08553971486761,35.04273504273503,1138800.0,9328.0,0.0,1.0,0.0,?,0.0,0.0
3900000.0,6.0625,1.5428755432367321E-7,3900000.0,68.30000000000001,36.310595345248814,37.35177865612649,34.50413223140497,1168800.0,9328.0,0.0,1.0,0.0,?,0.0,0.0
4000000.0,6.21875,1.556011072049538E-7,4000000.0,66.5,32.27781057193916,34.57031250000001,28.723404255319153,1198800.0,9328.0,0.0,1.0,0.0,?,0.0,0.0
4100000.0,6.375,1.6215917033453778E-7,4100000.0,67.10000000000001,32.977509778357245,37.57115749525618,27.212389380530976,1228500.0,9328.0,0.0,1.0,0.0,?,0.0,0.0
4200000.0,6.515625,1.6753755820294217E-7,4200000.0,69.1,37.58332323354743,38.56858846918488,34.810126582278464,1258500.0,9328.0,0.0,1.0,0.0,?,0.0,0.0
4300000.0,6.6875,1.7347085910538829E-7,4300000.0,66.2,31.411224208185207,33.464566929133866,27.467811158798284,1288500.0,9328.0,0.0,1.0,0.0,?,0.0,0.0
4400000.0,6.84375,1.7828269240756825E-7,4400000.0,64.7,28.664963786859797,23.92241379310345,25.995807127882603,1318500.0,9328.0,0.0,1.0,0.0,?,0.0,0.0
4500000.0,7.0,1.8251244910061354E-7,4500000.0,66.60000000000001,32.653686706563654,30.41666666666667,29.53586497890296,1348500.0,9328.0,0.0,1.0,0.0,?,0.0,0.0
4600000.0,7.15625,1.8616012918452415E-7,4600000.0,67.10000000000001,33.27925370107484,36.363636363636374,30.000000000000004,1378500.0,9328.0,0.0,1.0,0.0,?,0.0,0.0
4700000.0,7.3125,1.892257326593001E-7,4700000.0,67.2,33.11173195750148,30.508474576271194,27.912087912087912,1408500.0,9328.0,0.0,1.0,0.0,?,0.0,0.0
4800000.0,7.46875,1.9170925952494136E-7,4800000.0,64.7,28.567959593343257,30.784313725490204,24.57264957264957,1438500.0,9328.0,0.0,1.0,0.0,?,0.0,0.0
4900000.0,7.625,1.9361070978144796E-7,4900000.0,67.5,33.63825703434476,34.34343434343435,29.65367965367966,1468500.0,9328.0,0.0,1.0,0.0,?,0.0,0.0
5000000.0,7.78125,1.9506396104892086E-7,5000000.0,69.69999999999999,38.965433889291745,38.787878787878775,36.874999999999986,1498500.0,9328.0,0.0,1.0,0.0,?,0.0,0.0
5100000.0,7.953125,2.0245177438482633E-7,5100000.0,62.6,33.12830782434559,17.98245614035087,-1.081081081081082,11690.0,9232.0,0.0,1.0,0.0,?,2.0,8.0
5200000.0,8.109375,2.0859235923530318E-7,5200000.0,63.3,33.72915267214168,20.9051724137931,5.167958656330754,41690.0,9232.0,0.0,1.0,0.0,?,0.0,92.0
5300000.0,8.265625,2.1415086747664536E-7,5300000.0,64.4,35.066830093970694,26.74897119341564,10.10101010101011,71690.0,9232.0,0.0,1.0,0.0,?,0.0,0.0
5400000.0,8.4375,2.196249422720736E-7,5400000.0,61.8,31.570650616222405,18.550106609808097,-3.243243243243246,101690.0,9232.0,0.0,1.0,0.0,?,0.0,0.0
5500000.0,8.578125,2.2357986179283916E-7,5500000.0,64.1,34.17481994337935,27.180527383367142,11.793611793611804,131690.0,9232.0,0.0,1.0,0.0,?,0.0,0.0
5600000.0,8.75,2.2777336804817113E-7,5600000.0,62.5,32.400764322024735,17.943107221006557,2.5974025974025996,161690.0,9232.0,0.0,1.0,0.0,?,0.0,0.0
5700000.0,8.890625,2.3068054967249427E-7,5700000.0,61.1,30.76813554495622,12.780269058295952,-8.055555555555562,191690.0,9232.0,0.0,1.0,0.0,?,0.0,0.0
5800000.0,9.046875,2.3332867486816308E-7,5800000.0,64.60000000000001,35.41843019352579,26.70807453416149,11.055276381909557,221690.0,9232.0,0.0,1.0,0.0,?,0.0,0.0
5900000.0,9.1875,2.351881185960438E-7,5900000.0,62.9,32.19087446355853,23.188405797101446,6.783919597989955,251690.0,9232.0,0.0,1.0,0.0,?,0.0,0.0
6000000.0,9.34375,2.3667209057344326E-7,6000000.0,65.5,36.458471467091016,26.282051282051285,15.647921760391212,281690.0,9232.0,0.0,1.0,0.0,?,0.0,0.0
6100000.0,9.5,2.4340057279914613E-7,6100000.0,62.7,32.73461732669696,16.92650334075723,2.8645833333333357,311390.0,9232.0,0.0,1.0,0.0,?,0.0,0.0
6200000.0,9.671875,2.5016161897737115E-7,6200000.0,61.7,31.88350122360708,17.456896551724128,-6.09418282548477,341390.0,9232.0,0.0,1.0,0.0,?,0.0,0.0
6300000.0,9.84375,2.5628238088554803E-7,6300000.0,64.1,34.80124367989772,25.363825363825367,7.235142118863055,371390.0,9232.0,0.0,1.0,0.0,?,0.0,0.0
6400000.0,9.984375,2.60766408044017E-7,6400000.0,63.7,34.7643248916333,16.55172413793105,0.0,401390.0,9232.0,0.0,1.0,0.0,?,0.0,0.0
6500000.0,10.15625,2.656066014120976E-7,6500000.0,62.6,32.90011446451063,15.765765765765757,-1.3550135501355027,431390.0,9232.0,0.0,1.0,0.0,?,0.0,0.0
6600000.0,10.3125,2.694247005921271E-7,6600000.0,61.4,30.361111912940565,18.565400843881854,-0.5208333333333338,461390.0,9232.0,0.0,1.0,0.0,?,0.0,0.0
6700000.0,10.484375,2.729843254201114E-7,6700000.0,65.2,36.339289634280206,24.675324675324674,13.432835820895534,491390.0,9232.0,0.0,1.0,0.0,?,0.0,0.0
6800000.0,10.625,2.7537287678569555E-7,6800000.0,63.7,34.42160943461673,18.426966292134825,6.44329896907217,521390.0,9232.0,0.0,1.0,0.0,?,0.0,0.0
6900000.0,10.78125,2.7744474613832105E-7,6900000.0,64.2,34.92991333682313,24.63157894736842,7.731958762886605,551390.0,9232.0,0.0,1.0,0.0,?,0.0,0.0
7000000.0,10.9375,2.789345388818119E-7,7000000.0,63.2,34.0454512868306,22.851153039832283,-1.6574585635359134,581390.0,9232.0,0.0,1.0,0.0,?,0.0,0.0
7100000.0,11.09375,2.856688418736061E-7,7100000.0,64.4,35.24235004784063,27.4949083503055,6.561679790026252,611090.0,9232.0,0.0,1.0,0.0,?,0.0,0.0
7200000.0,11.265625,2.9243629089453157E-7,7200000.0,64.7,35.934199159340544,28.397565922920897,6.613756613756619,641090.0,9232.0,0.0,1.0,0.0,?,0.0,0.0
7300000.0,11.4375,2.985634556454089E-7,7300000.0,62.1,31.927581004382503,20.54507337526205,-2.156334231805932,671090.0,9232.0,0.0,1.0,0.0,?,0.0,0.0
7400000.0,11.59375,3.035515288097991E-7,7400000.0,61.5,30.492868748871626,19.287211740041922,1.2820512820512833,701090.0,9232.0,0.0,1.0,0.0,?,0.0,0.0
7500000.0,11.734375,3.0751692570952907E-7,7500000.0,64.0,34.07559331966012,23.404255319148934,10.891089108910899,731090.0,9232.0,0.0,1.0,0.0,?,0.0,0.0
7600000.0,11.875,3.109584536610378E-7,7600000.0,63.0,32.71748617980797,24.024640657084188,6.565656565656572,761090.0,9232.0,0.0,1.0,0.0,?,0.0,0.0
7700000.0,12.03125,3.14200296998024E-7,7700000.0,61.4,31.201163520219016,16.45021645021644,-8.42696629213484,791090.0,9232.0,0.0,1.0,0.0,?,0.0,0.0
7800000.0,12.1875,3.168600637258755E-7,7800000.0,63.3,34.111310592459596,21.0752688172043,2.1333333333333355,821090.0,9232.0,0.0,1.0,0.0,?,0.0,0.0
7900000.0,12.34375,3.189377538445923E-7,7900000.0,62.6,32.892890593879976,24.291497975708502,0.795755968169762,851090.0,9232.0,0.0,1.0,0.0,?,0.0,0.0
8000000.0,12.5,3.2043336735417444E-7,8000000.0,64.1,34.85282909302072,23.779193205944797,7.712082262210804,881090.0,9232.0,0.0,1.0,0.0,?,0.0,0.0
8100000.0,12.65625,3.2717349111206E-7,8100000.0,62.0,31.733501963560055,14.414414414414404,-1.8766756032171599,910790.0,9232.0,0.0,1.0,0.0,?,0.0,0.0
8200000.0,12.8125,3.333315382608109E-7,8200000.0,64.9,35.876356461690236,29.940119760479046,11.586901763224192,940790.0,9232.0,0.0,1.0,0.0,?,0.0,0.0
8300000.0,12.953125,3.383499117464655E-7,8300000.0,65.3,36.37510451351709,27.708333333333336,14.742014742014753,970790.0,9232.0,0.0,1.0,0.0,?,0.0,0.0
8400000.0,13.109375,3.433438056769471E-7,8400000.0,65.10000000000001,36.58419583672521,21.923937360178968,7.915567282321907,1000790.0,9232.0,0.0,1.0,0.0,?,0.0,0.0
8500000.0,13.25,3.4731444126615927E-7,8500000.0,65.0,35.89626183629737,24.07809110629067,11.392405063291148,1030790.0,9232.0,0.0,1.0,0.0,?,0.0,0.0
8600000.0,13.40625,3.5114418197837147E-7,8600000.0,63.9,34.079338529074484,26.626016260162604,10.199004975124387,1060790.0,9232.0,0.0,1.0,0.0,?,0.0,0.0
8700000.0,13.5625,3.54391846081449E-7,8700000.0,64.0,34.53902746815141,22.58064516129032,6.976744186046517,1090790.0,9232.0,0.0,1.0,0.0,?,0.0,0.0
8800000.0,13.71875,3.5705743357539186E-7,8800000.0,65.5,36.686559933052926,23.672566371681413,11.764705882352951,1120790.0,9232.0,0.0,1.0,0.0,?,0.0,0.0
8900000.0,13.875,3.5914094446020005E-7,8900000.0,61.8,31.140401476695896,18.20128479657387,0.0,1150790.0,9232.0,0.0,1.0,0.0,?,0.0,0.0
9000000.0,14.03125,3.6064237873587356E-7,9000000.0,61.9,31.932196606971857,18.93617021276595,-3.2520325203252063,1180790.0,9232.0,0.0,1.0,0.0,?,0.0,0.0
9100000.0,14.203125,3.6806291771224816E-7,9100000.0,61.8,31.87330574975032,17.13665943600867,-3.80434782608696,1210490.0,9232.0,0.0,1.0,0.0,?,0.0,0.0
9200000.0,14.359375,3.742267856270904E-7,9200000.0,64.7,35.65533131124592,23.92241379310345,9.02061855670104,1240490.0,9232.0,0.0,1.0,0.0,?,0.0,0.0
9300000.0,14.515625,3.798085769327979E-7,9300000.0,65.9,37.66999093381687,27.60084925690022,12.787723785166252,1270490.0,9232.0,0.0,1.0,0.0,?,0.0,0.0
9400000.0,14.671875,3.848082916293708E-7,9400000.0,65.5,36.5687557915484,27.672955974842772,15.233415233415245,1300490.0,9232.0,0.0,1.0,0.0,?,0.0,0.0
9500000.0,14.84375,3.8966769352555283E-7,9500000.0,62.1,31.96766040553737,20.042194092827,-1.8817204301075288,1330490.0,9232.0,0.0,1.0,0.0,?,0.0,0.0
9600000.0,15.0,3.9350325500385635E-7,9600000.0,63.1,34.015235506598486,17.999999999999993,-2.7855153203342646,1360490.0,9232.0,0.0,1.0,0.0,?,0.0,0.0
9700000.0,15.171875,3.970820883599421E-7,9700000.0,62.7,33.16370412844037,19.957081545064373,1.5831134564643814,1390490.0,9232.0,0.0,1.0,0.0,?,0.0,0.0
9800000.0,15.328125,3.997534966199763E-7,9800000.0,63.4,34.6876427592508,21.459227467811157,-0.5494505494505499,1420490.0,9232.0,0.0,1.0,0.0,?,0.0,0.0
9900000.0,15.484375,4.018428282708758E-7,9900000.0,59.199999999999996,29.1440321213721,12.820512820512809,-20.710059171597653,1450490.0,9232.0,0.0,1.0,0.0,?,0.0,0.0
1.0E7,15.640625,4.033500833126406E-7,1.0E7,62.8,33.26827588186332,21.848739495798316,0.5347593582887705,1480490.0,9232.0,0.0,1.0,0.0,?,0.0,0.0
