learning evaluation instances,evaluation time (cpu seconds),model cost (RAM-Hours),classified instances,classifications correct (percent),Kappa Statistic (percent),Kappa Temporal Statistic (percent),Kappa M Statistic (percent),model training instances,model serialized size (bytes),labeling cost,newThreshold,maxPosterior,accuracyBaseLearner (percent),Change detected,Warning detected,tree size (nodes),tree size (leaves),active learning leaves,tree depth,active leaf byte size estimate,inactive leaf byte size estimate,byte size estimate overhead
100000.0,0.875,8.986978274252679E-8,100000.0,90.0,79.78532009945623,78.40172786177106,78.02197802197803,38764.0,286320.0,0.0,1.0,0.0,?,3.0,34.0,100.0,67.0,67.0,4.0,0.0,0.0,1.0
200000.0,1.5625,1.7435742645627922E-7,200000.0,90.9,81.38084559605848,80.13100436681223,78.98383371824481,78764.0,379104.0,0.0,1.0,0.0,?,0.0,0.0,142.0,91.0,91.0,5.0,0.0,0.0,1.0
300000.0,2.28125,2.795227596329318E-7,300000.0,93.2,85.95598440288151,85.71428571428572,83.96226415094341,118764.0,484384.0,0.0,1.0,0.0,?,0.0,0.0,182.0,114.0,114.0,5.0,0.0,0.0,1.0
400000.0,2.9375,3.821345227253106E-7,400000.0,93.7,87.08455312553815,87.374749498998,85.31468531468533,158764.0,538096.0,0.0,1.0,0.0,?,0.0,0.0,208.0,127.0,127.0,5.0,0.0,0.0,1.0
500000.0,3.609375,4.878068122909301E-7,500000.0,92.4,84.12963581690612,83.86411889596603,81.18811881188121,198764.0,556752.0,0.0,1.0,0.0,?,0.0,0.0,216.0,131.0,131.0,6.0,0.0,0.0,1.0
600000.0,4.234375,6.042286016357442E-7,600000.0,93.8,87.32235967692465,88.1679389312977,85.48009367681497,238564.0,607800.0,0.0,1.0,0.0,?,0.0,0.0,237.0,143.0,143.0,6.0,0.0,0.0,1.0
700000.0,4.875,7.295510860987836E-7,700000.0,93.4,86.40565524741709,86.16352201257862,84.50704225352113,278564.0,658960.0,0.0,1.0,0.0,?,0.0,0.0,257.0,156.0,156.0,6.0,0.0,0.0,1.0
800000.0,5.515625,8.544042227893241E-7,800000.0,93.8,87.33178862885,87.19008264462809,85.68129330254041,318564.0,671264.0,0.0,1.0,0.0,?,0.0,0.0,261.0,158.0,158.0,6.0,0.0,0.0,1.0
900000.0,6.125,9.747446812171904E-7,900000.0,94.5,88.80931065353624,89.23679060665361,87.49999999999999,358564.0,696320.0,0.0,1.0,0.0,?,0.0,0.0,275.0,165.0,165.0,6.0,0.0,0.0,1.0
1000000.0,6.71875,1.0931435261025199E-6,1000000.0,93.7,87.06089185370183,87.11656441717793,85.28037383177572,398564.0,718856.0,0.0,1.0,0.0,?,0.0,0.0,283.0,169.0,169.0,6.0,0.0,0.0,1.0
1100000.0,7.375,1.2442870906347204E-6,1100000.0,93.60000000000001,86.95884292333838,86.74948240165634,85.21939953810626,438364.0,777192.0,0.0,1.0,0.0,?,0.0,0.0,304.0,184.0,184.0,6.0,0.0,0.0,1.0
1200000.0,8.0,1.3876952450825938E-6,1200000.0,91.9,83.2882184002905,84.02366863905326,80.38740920096853,478364.0,789000.0,0.0,1.0,0.0,?,0.0,0.0,308.0,186.0,186.0,6.0,0.0,0.0,1.0
1300000.0,8.625,1.534615261738913E-6,1300000.0,94.6,88.88024018681196,88.95705521472391,87.17339667458431,518364.0,825744.0,0.0,1.0,0.0,?,0.0,0.0,327.0,197.0,197.0,7.0,0.0,0.0,1.0
1400000.0,9.265625,1.686926568961806E-6,1400000.0,93.10000000000001,85.80422170102457,85.9470468431772,83.49282296650719,558364.0,851240.0,0.0,1.0,0.0,?,0.0,0.0,332.0,201.0,201.0,7.0,0.0,0.0,1.0
1500000.0,9.90625,1.843286995103376E-6,1500000.0,94.1,87.947573989639,87.93456032719835,86.05200945626477,598364.0,890752.0,0.0,1.0,0.0,?,0.0,0.0,348.0,212.0,212.0,7.0,0.0,0.0,1.0
1600000.0,10.546875,2.014872055345526E-6,1600000.0,93.8,87.29075874170312,86.892177589852,85.2731591448931,638164.0,921688.0,0.0,1.0,0.0,?,0.0,0.0,359.0,219.0,219.0,7.0,0.0,0.0,1.0
1700000.0,11.15625,2.181116433348507E-6,1700000.0,94.6,88.9376905175522,88.7966804979253,87.2037914691943,678164.0,955976.0,0.0,1.0,0.0,?,0.0,0.0,370.0,226.0,226.0,7.0,0.0,0.0,1.0
1800000.0,11.796875,2.359048295248714E-6,1800000.0,94.6,89.0293849954492,89.00203665987779,87.89237668161434,718164.0,990120.0,0.0,1.0,0.0,?,0.0,0.0,383.0,234.0,234.0,7.0,0.0,0.0,1.0
1900000.0,12.4375,2.536150180579474E-6,1900000.0,94.0,87.7237851662404,87.52598752598752,85.88235294117645,758164.0,1000256.0,0.0,1.0,0.0,?,0.0,0.0,389.0,237.0,237.0,7.0,0.0,0.0,1.0
2000000.0,13.09375,2.720816313133886E-6,2000000.0,94.1,87.9546605255851,88.1763527054108,86.37413394919167,798164.0,1034408.0,0.0,1.0,0.0,?,0.0,0.0,404.0,246.0,246.0,7.0,0.0,0.0,1.0
2100000.0,13.78125,2.930163658068826E-6,2100000.0,95.5,90.74820309544565,90.9819639278557,89.26014319809067,837964.0,1062680.0,0.0,1.0,0.0,?,0.0,0.0,413.0,252.0,252.0,7.0,0.0,0.0,1.0
2200000.0,14.4375,3.1303306847500306E-6,2200000.0,93.89999999999999,87.38835593781012,86.79653679653678,85.3012048192771,877964.0,1079752.0,0.0,1.0,0.0,?,0.0,0.0,423.0,257.0,257.0,7.0,0.0,0.0,1.0
2300000.0,15.046875,3.318417196472486E-6,2300000.0,94.89999999999999,89.6336406653983,89.19491525423727,88.19444444444443,917964.0,1108936.0,0.0,1.0,0.0,?,0.0,0.0,430.0,262.0,262.0,7.0,0.0,0.0,1.0
2400000.0,15.71875,3.5245918358365698E-6,2400000.0,94.8,89.2981214086965,89.32238193018479,87.55980861244018,957964.0,1117168.0,0.0,1.0,0.0,?,0.0,0.0,434.0,264.0,264.0,7.0,0.0,0.0,1.0
2500000.0,16.375,3.724518464878202E-6,2500000.0,95.6,91.00866437796304,90.83333333333331,89.76744186046511,997964.0,1123760.0,0.0,1.0,0.0,?,0.0,0.0,438.0,266.0,266.0,7.0,0.0,0.0,1.0
2600000.0,17.046875,3.941149787149496E-6,2600000.0,96.2,92.24856802493512,92.18106995884773,91.07981220657277,1037764.0,1131624.0,0.0,1.0,0.0,?,0.0,0.0,444.0,269.0,269.0,7.0,4143.2180451127815,0.0,1.0196570897635053
2700000.0,17.71875,4.160167235467169E-6,2700000.0,94.6,88.96481820559768,89.19999999999999,87.32394366197182,1077764.0,1160408.0,0.0,1.0,0.0,?,0.0,0.0,463.0,280.0,280.0,7.0,4143.2180451127815,0.0,1.0196570897635053
2800000.0,18.375,4.377949840596153E-6,2800000.0,95.89999999999999,91.51138716356107,91.63265306122447,90.12048192771084,1117764.0,1198200.0,0.0,1.0,0.0,?,0.0,0.0,472.0,286.0,286.0,7.0,4143.2180451127815,0.0,1.0196570897635053
2900000.0,19.046875,4.601809066823788E-6,2900000.0,95.7,91.18838013737928,91.36546184738955,89.85849056603773,1157764.0,1218464.0,0.0,1.0,0.0,?,0.0,0.0,490.0,298.0,298.0,7.0,4143.2180451127815,0.0,1.0196570897635053
3000000.0,19.71875,4.832043810488864E-6,3000000.0,95.5,90.60142524164779,90.66390041493774,88.94348894348893,1197764.0,1270136.0,0.0,1.0,0.0,?,0.0,0.0,501.0,305.0,305.0,7.0,4143.2180451127815,0.0,1.0196570897635053
3100000.0,20.40625,5.084547738078983E-6,3100000.0,94.89999999999999,89.54892333418034,89.5277207392197,87.91469194312795,1237564.0,1304144.0,0.0,1.0,0.0,?,0.0,0.0,516.0,314.0,314.0,7.0,4143.2180451127815,0.0,1.0196570897635053
3200000.0,21.078125,5.333650398016391E-6,3200000.0,95.39999999999999,90.54027375625164,90.29535864978902,89.0995260663507,1277564.0,1332640.0,0.0,1.0,0.0,?,0.0,0.0,526.0,319.0,319.0,7.0,4143.2180451127815,0.0,1.0196570897635053
3300000.0,21.734375,5.579839311798829E-6,3300000.0,95.0,89.57568883848155,89.6694214876033,87.62376237623761,1317564.0,1364664.0,0.0,1.0,0.0,?,0.0,0.0,539.0,327.0,327.0,7.0,4143.2180451127815,0.0,1.0196570897635053
3400000.0,22.4375,5.845008676664698E-6,3400000.0,95.19999999999999,90.236917469409,89.97912317327766,89.14027149321267,1357564.0,1387416.0,0.0,1.0,0.0,?,0.0,0.0,549.0,332.0,332.0,7.0,4143.2180451127815,0.0,1.0196570897635053
3500000.0,23.09375,6.0913700791489755E-6,3500000.0,96.2,92.21589023585852,92.4901185770751,91.1007025761124,1397564.0,1395888.0,0.0,1.0,0.0,?,0.0,0.0,559.0,337.0,337.0,7.0,4143.2180451127815,0.0,1.0196570897635053
3600000.0,23.78125,6.363934824346669E-6,3600000.0,96.6,93.0027618510576,93.10344827586206,91.76755447941888,1437364.0,1416352.0,0.0,1.0,0.0,?,0.0,0.0,565.0,340.0,340.0,7.0,4143.2180451127815,0.0,1.0196570897635053
3700000.0,24.453125,6.6291146342539135E-6,3700000.0,96.6,93.03084466162701,92.59259259259258,91.86602870813397,1477364.0,1424656.0,0.0,1.0,0.0,?,0.0,0.0,569.0,342.0,342.0,7.0,4143.2180451127815,0.0,1.0196570897635053
3800000.0,25.15625,6.907689223428154E-6,3800000.0,94.89999999999999,89.3528183716075,90.17341040462426,87.25,1517364.0,1445608.0,0.0,1.0,0.0,?,0.0,0.0,580.0,349.0,349.0,7.0,4143.2180451127815,0.0,1.0196570897635053
3900000.0,25.84375,7.182694163121698E-6,3900000.0,95.7,91.1593213648363,91.11570247933884,89.6882494004796,1557364.0,1475440.0,0.0,1.0,0.0,?,0.0,0.0,589.0,355.0,355.0,7.0,4143.2180451127815,0.0,1.0196570897635053
4000000.0,26.515625,7.457173746337908E-6,4000000.0,95.7,91.03060441210826,91.60156249999999,89.14141414141413,1597364.0,1523408.0,0.0,1.0,0.0,?,0.0,0.0,605.0,366.0,366.0,8.0,4143.2180451127815,0.0,1.0196570897635053
4100000.0,27.203125,7.752020384133278E-6,4100000.0,96.0,91.76849721569418,92.27799227799227,90.49881235154393,1637164.0,1541032.0,0.0,1.0,0.0,?,0.0,0.0,612.0,371.0,371.0,8.0,4143.2180451127815,0.0,1.0196570897635053
4200000.0,27.90625,8.055467106815843E-6,4200000.0,95.7,90.99242525807747,90.88983050847457,89.22305764411027,1677164.0,1566592.0,0.0,1.0,0.0,?,0.0,0.0,619.0,376.0,376.0,8.0,4143.2180451127815,0.0,1.0196570897635053
4300000.0,28.609375,8.361400751810936E-6,4300000.0,95.3,90.30384050436533,90.71146245059288,88.72901678657074,1717164.0,1595304.0,0.0,1.0,0.0,?,0.0,0.0,631.0,382.0,382.0,8.0,4143.2180451127815,0.0,1.0196570897635053
4400000.0,29.328125,8.675465748334926E-6,4400000.0,96.1,91.99835863766927,91.71974522292993,90.8235294117647,1757164.0,1617608.0,0.0,1.0,0.0,?,0.0,0.0,649.0,394.0,394.0,8.0,4143.2180451127815,0.0,1.0196570897635053
4500000.0,30.03125,8.986092385991168E-6,4500000.0,96.3,92.37264376535778,92.41803278688523,91.16945107398567,1797164.0,1651304.0,0.0,1.0,0.0,?,0.0,0.0,662.0,402.0,402.0,8.0,4143.2180451127815,0.0,1.0196570897635053
4600000.0,30.703125,9.299787311142105E-6,4600000.0,95.8,91.3907963513375,91.44602851323829,90.11764705882352,1836964.0,1687448.0,0.0,1.0,0.0,?,0.0,0.0,671.0,408.0,408.0,8.0,4143.2180451127815,0.0,1.0196570897635053
4700000.0,31.4375,9.649330814782945E-6,4700000.0,95.39999999999999,90.51276445669076,90.9090909090909,88.86198547215496,1876964.0,1737568.0,0.0,1.0,0.0,?,0.0,0.0,689.0,420.0,420.0,8.0,4143.2180451127815,0.0,1.0196570897635053
4800000.0,32.125,9.977052492710453E-6,4800000.0,96.6,93.04359212534628,92.85714285714285,92.0374707259953,1916964.0,1755480.0,0.0,1.0,0.0,?,0.0,0.0,694.0,424.0,424.0,8.0,4143.2180451127815,0.0,1.0196570897635053
4900000.0,32.875,1.0345028907371065E-5,4900000.0,96.6,93.06031808236177,93.06122448979592,92.12962962962963,1956964.0,1824408.0,0.0,1.0,0.0,?,0.0,0.0,725.0,447.0,447.0,8.0,4143.2180451127815,0.0,1.0196570897635053
5000000.0,33.625,1.0721688352835675E-5,5000000.0,96.39999999999999,92.60148299163144,92.78557114228457,91.4691943127962,1996964.0,1881816.0,0.0,1.0,0.0,?,0.0,0.0,738.0,455.0,455.0,8.0,4143.2180451127815,0.0,1.0196570897635053
5100000.0,34.703125,1.078247994882986E-5,5100000.0,78.4,56.79032103191115,56.363636363636374,56.451612903225815,38131.0,104216.0,0.0,1.0,0.0,?,3.0,14.0,35.0,24.0,24.0,4.0,0.0,0.0,1.0
5200000.0,35.53125,1.084105221606377E-5,5200000.0,80.30000000000001,60.59621723685474,59.38144329896908,59.63114754098362,78131.0,174560.0,0.0,1.0,0.0,?,0.0,0.0,63.0,41.0,41.0,5.0,0.0,0.0,1.0
5300000.0,36.359375,1.0924996943989146E-5,5300000.0,81.5,62.57606162610044,63.51084812623273,59.07079646017698,118131.0,307728.0,0.0,1.0,0.0,?,0.0,0.0,110.0,72.0,72.0,6.0,0.0,0.0,1.0
5400000.0,37.171875,1.1025444610923941E-5,5400000.0,84.2,68.41010876519513,70.01897533206831,68.14516129032258,158131.0,408624.0,0.0,1.0,0.0,?,0.0,0.0,146.0,96.0,96.0,6.0,0.0,0.0,1.0
5500000.0,37.96875,1.1148237067067787E-5,5500000.0,82.3,64.53445968149138,64.31451612903226,62.97071129707111,198131.0,541200.0,0.0,1.0,0.0,?,0.0,0.0,195.0,131.0,131.0,6.0,0.0,0.0,1.0
5600000.0,38.78125,1.1301393064463303E-5,5600000.0,85.8,71.542629941963,70.96114519427402,69.65811965811966,237931.0,613072.0,0.0,1.0,0.0,?,0.0,0.0,220.0,145.0,145.0,6.0,0.0,0.0,1.0
5700000.0,39.625,1.1480573707053229E-5,5700000.0,87.1,74.1898824339141,74.85380116959064,73.45679012345678,277931.0,720088.0,0.0,1.0,0.0,?,0.0,0.0,259.0,169.0,169.0,7.0,0.0,0.0,1.0
5800000.0,40.484375,1.1670832399330618E-5,5800000.0,87.4,74.69727091993494,75.34246575342466,71.68539325842697,317931.0,769944.0,0.0,1.0,0.0,?,0.0,0.0,284.0,183.0,183.0,7.0,0.0,0.0,1.0
5900000.0,41.34375,1.186375716416579E-5,5900000.0,90.4,80.77416047167394,80.72289156626506,79.83193277310924,357931.0,797000.0,0.0,1.0,0.0,?,0.0,0.0,294.0,188.0,188.0,7.0,0.0,0.0,1.0
6000000.0,42.234375,1.2080061682758645E-5,6000000.0,87.3,74.57986725486585,73.43096234309623,75.09803921568627,397931.0,882952.0,0.0,1.0,0.0,?,0.0,0.0,322.0,208.0,208.0,7.0,0.0,0.0,1.0
6100000.0,43.125,1.2328318811746106E-5,6100000.0,88.3,76.60205901880634,76.78571428571429,77.19298245614036,437731.0,960392.0,0.0,1.0,0.0,?,0.0,0.0,355.0,229.0,229.0,7.0,0.0,0.0,1.0
6200000.0,44.03125,1.2600394224541054E-5,6200000.0,88.0,75.99222147975945,76.14314115308152,75.56008146639512,477731.0,1058248.0,0.0,1.0,0.0,?,0.0,0.0,393.0,254.0,254.0,7.0,0.0,0.0,1.0
6300000.0,44.890625,1.2863696902059017E-5,6300000.0,91.10000000000001,82.19572697447389,81.87372708757637,80.90128755364807,517731.0,1097112.0,0.0,1.0,0.0,?,0.0,0.0,412.0,265.0,265.0,7.0,0.0,0.0,1.0
6400000.0,45.796875,1.316888380743977E-5,6400000.0,89.60000000000001,79.1977533573626,79.6477495107632,79.40594059405942,557731.0,1229232.0,0.0,1.0,0.0,?,0.0,0.0,450.0,290.0,290.0,7.0,0.0,0.0,1.0
6500000.0,46.6875,1.3495445568373219E-5,6500000.0,88.9,77.73445022145195,77.48478701825559,76.28205128205128,597731.0,1359600.0,0.0,1.0,0.0,?,0.0,0.0,498.0,323.0,323.0,7.0,0.0,0.0,1.0
6600000.0,47.59375,1.3862149628241441E-5,6600000.0,89.5,78.98285000560458,79.45205479452055,78.17047817047818,637531.0,1445312.0,0.0,1.0,0.0,?,0.0,0.0,530.0,345.0,345.0,7.0,0.0,0.0,1.0
6700000.0,48.5,1.424559886800125E-5,6700000.0,90.7,81.39925597023881,81.32530120481928,81.4,677531.0,1531600.0,0.0,1.0,0.0,?,0.0,0.0,563.0,366.0,366.0,7.0,0.0,0.0,1.0
6800000.0,49.390625,1.4628938030606755E-5,6800000.0,90.0,80.0,79.7979797979798,79.42386831275721,717531.0,1574800.0,0.0,1.0,0.0,?,0.0,0.0,577.0,373.0,373.0,7.0,0.0,0.0,1.0
6900000.0,50.328125,1.5042078545472273E-5,6900000.0,90.0,80.00007999968,80.07968127490041,79.03563941299791,757531.0,1629488.0,0.0,1.0,0.0,?,0.0,0.0,597.0,386.0,386.0,7.0,0.0,0.0,1.0
7000000.0,51.203125,1.5432194567337218E-5,7000000.0,92.0,83.90264318598886,83.96793587174349,82.53275109170306,797531.0,1664512.0,0.0,1.0,0.0,?,0.0,0.0,610.0,394.0,394.0,7.0,0.0,0.0,1.0
7100000.0,52.125,1.5867766471476192E-5,7100000.0,90.60000000000001,81.20473640642558,81.85328185328186,80.73770491803279,837331.0,1706320.0,0.0,1.0,0.0,?,0.0,0.0,633.0,407.0,407.0,7.0,0.0,0.0,1.0
7200000.0,53.0625,1.6322399347296192E-5,7200000.0,89.60000000000001,79.18426330305711,79.11646586345383,78.28810020876827,877331.0,1769432.0,0.0,1.0,0.0,?,0.0,0.0,655.0,421.0,421.0,7.0,0.0,0.0,1.0
7300000.0,53.984375,1.6779517366861303E-5,7300000.0,91.8,83.47367275453567,83.79446640316206,82.21258134490239,917331.0,1826616.0,0.0,1.0,0.0,?,0.0,0.0,673.0,433.0,433.0,8.0,0.0,0.0,1.0
7400000.0,54.9375,1.725947487607805E-5,7400000.0,89.2,78.32204607769539,79.34990439770556,77.07006369426752,957331.0,1871416.0,0.0,1.0,0.0,?,0.0,0.0,697.0,448.0,448.0,8.0,0.0,0.0,1.0
7500000.0,55.90625,1.7759863435963373E-5,7500000.0,90.9,81.79781573788856,83.14814814814815,81.31416837782342,997331.0,1936448.0,0.0,1.0,0.0,?,0.0,0.0,729.0,467.0,467.0,8.0,0.0,0.0,1.0
7600000.0,56.890625,1.8298488608302754E-5,7600000.0,91.0,81.99827183409609,81.78137651821864,81.89134808853119,1037131.0,1993840.0,0.0,1.0,0.0,?,0.0,0.0,743.0,474.0,474.0,8.0,4094.5267665952892,0.0,1.0170447414002293
7700000.0,57.8125,1.8809030233468444E-5,7700000.0,92.9,85.78464741921276,85.77154308617236,85.26970954356847,1077131.0,2034536.0,0.0,1.0,0.0,?,0.0,0.0,761.0,486.0,486.0,8.0,4094.5267665952892,0.0,1.0170447414002293
7800000.0,58.75,1.9332778885857098E-5,7800000.0,91.0,81.83982727657944,81.74442190669372,80.04434589800444,1117131.0,2068336.0,0.0,1.0,0.0,?,0.0,0.0,773.0,492.0,492.0,8.0,4094.5267665952892,0.0,1.0170447414002293
7900000.0,59.6875,1.9861806973090603E-5,7900000.0,91.8,83.58548957278235,84.01559454191035,83.16221765913758,1157131.0,2105080.0,0.0,1.0,0.0,?,0.0,0.0,793.0,502.0,502.0,8.0,4094.5267665952892,0.0,1.0170447414002293
8000000.0,60.609375,2.0385534217995075E-5,8000000.0,92.9,85.73219941160394,85.26970954356847,84.796573875803,1197131.0,2134872.0,0.0,1.0,0.0,?,0.0,0.0,803.0,507.0,507.0,8.0,4094.5267665952892,0.0,1.0170447414002293
8100000.0,61.546875,2.094534251631962E-5,8100000.0,91.0,81.97144276534031,82.45614035087719,81.32780082987553,1236931.0,2185848.0,0.0,1.0,0.0,?,0.0,0.0,826.0,520.0,520.0,8.0,4094.5267665952892,0.0,1.0170447414002293
8200000.0,62.5,2.151828213957035E-5,8200000.0,91.8,83.60629518264987,83.60000000000001,83.73015873015873,1276931.0,2216320.0,0.0,1.0,0.0,?,0.0,0.0,845.0,531.0,531.0,8.0,4094.5267665952892,0.0,1.0170447414002293
8300000.0,63.4375,2.2087327993681864E-5,8300000.0,91.10000000000001,82.18460750088077,81.72484599589322,81.57349896480332,1316931.0,2253992.0,0.0,1.0,0.0,?,0.0,0.0,859.0,538.0,538.0,8.0,4094.5267665952892,0.0,1.0170447414002293
8400000.0,64.40625,2.2683532184196847E-5,8400000.0,92.30000000000001,84.59864468073192,84.22131147540985,84.25357873210635,1356931.0,2301616.0,0.0,1.0,0.0,?,0.0,0.0,886.0,553.0,553.0,8.0,4094.5267665952892,0.0,1.0170447414002293
8500000.0,65.328125,2.3259839735045617E-5,8500000.0,92.30000000000001,84.51364810181573,84.0909090909091,83.22440087145971,1396931.0,2354080.0,0.0,1.0,0.0,?,0.0,0.0,906.0,563.0,563.0,8.0,4094.5267665952892,0.0,1.0170447414002293
8600000.0,66.296875,2.389620669418946E-5,8600000.0,91.7,83.38098785010052,83.09572301425663,82.78008298755188,1436731.0,2415768.0,0.0,1.0,0.0,?,0.0,0.0,926.0,576.0,576.0,8.0,4094.5267665952892,0.0,1.0170447414002293
8700000.0,67.234375,2.4511935092353575E-5,8700000.0,92.4,84.69716494845362,84.8303393213573,83.47826086956522,1476731.0,2430416.0,0.0,1.0,0.0,?,0.0,0.0,938.0,582.0,582.0,8.0,4094.5267665952892,0.0,1.0170447414002293
8800000.0,68.1875,2.515041608906662E-5,8800000.0,91.9,83.79909274919396,83.63636363636364,83.56997971602435,1516731.0,2496024.0,0.0,1.0,0.0,?,0.0,0.0,958.0,595.0,595.0,8.0,4094.5267665952892,0.0,1.0170447414002293
8900000.0,69.140625,2.5789814341502888E-5,8900000.0,93.8,87.57390520092191,88.00773694390715,86.94736842105262,1556731.0,2514832.0,0.0,1.0,0.0,?,0.0,0.0,970.0,601.0,601.0,8.0,4094.5267665952892,0.0,1.0170447414002293
9000000.0,70.15625,2.6478343707923264E-5,9000000.0,93.10000000000001,86.0635341261634,87.17472118959108,84.7345132743363,1596731.0,2557264.0,0.0,1.0,0.0,?,0.0,0.0,994.0,616.0,616.0,8.0,4094.5267665952892,0.0,1.0170447414002293
9100000.0,71.15625,2.7194056828092373E-5,9100000.0,92.60000000000001,85.13274051810392,85.51859099804307,83.94793926247289,1636531.0,2642016.0,0.0,1.0,0.0,?,0.0,0.0,1023.0,635.0,635.0,8.0,4094.5267665952892,0.0,1.0170447414002293
9200000.0,72.140625,2.7922207017480918E-5,9200000.0,92.80000000000001,85.60000000000001,85.79881656804734,85.60000000000001,1676531.0,2749608.0,0.0,1.0,0.0,?,0.0,0.0,1060.0,661.0,661.0,8.0,4094.5267665952892,0.0,1.0170447414002293
9300000.0,73.140625,2.8671780956857326E-5,9300000.0,92.0,83.98584348564131,84.00000000000001,83.57289527720741,1716531.0,2802752.0,0.0,1.0,0.0,?,0.0,0.0,1071.0,668.0,668.0,8.0,4094.5267665952892,0.0,1.0170447414002293
9400000.0,74.171875,2.945294270628236E-5,9400000.0,93.5,87.00218363314964,87.37864077669903,87.68939393939394,1756531.0,2848408.0,0.0,1.0,0.0,?,0.0,0.0,1096.0,685.0,685.0,8.0,4094.5267665952892,0.0,1.0170447414002293
9500000.0,75.21875,3.025733665304466E-5,9500000.0,91.8,83.57338889000181,83.921568627451,83.56713426853707,1796531.0,2905456.0,0.0,1.0,0.0,?,0.0,0.0,1120.0,700.0,700.0,8.0,4094.5267665952892,0.0,1.0170447414002293
9600000.0,76.21875,3.1048824247490205E-5,9600000.0,91.0,81.99827183409609,82.03592814371258,81.81818181818183,1836331.0,2933824.0,0.0,1.0,0.0,?,0.0,0.0,1134.0,707.0,707.0,9.0,4094.5267665952892,0.0,1.0170447414002293
9700000.0,77.25,3.188075840524916E-5,9700000.0,93.10000000000001,86.18342010412496,87.22222222222223,85.56485355648536,1876331.0,3007656.0,0.0,1.0,0.0,?,0.0,0.0,1161.0,725.0,725.0,9.0,4094.5267665952892,0.0,1.0170447414002293
9800000.0,78.296875,3.273751085443009E-5,9800000.0,94.6,89.19727771398391,89.34911242603549,89.04665314401622,1916331.0,3067616.0,0.0,1.0,0.0,?,0.0,0.0,1185.0,737.0,737.0,9.0,4094.5267665952892,0.0,1.0170447414002293
9900000.0,79.34375,3.360029733610444E-5,9900000.0,93.10000000000001,86.11345907696767,86.30952380952382,84.96732026143792,1956331.0,3104936.0,0.0,1.0,0.0,?,0.0,0.0,1200.0,746.0,746.0,9.0,4094.5267665952892,0.0,1.0170447414002293
1.0E7,80.390625,3.446777238019019E-5,1.0E7,92.9,85.75361376642348,86.05108055009825,85.11530398322851,1996331.0,3137312.0,0.0,1.0,0.0,?,0.0,0.0,1213.0,754.0,754.0,9.0,4094.5267665952892,0.0,1.0170447414002293
