learning evaluation instances,evaluation time (cpu seconds),model cost (RAM-Hours),classified instances,classifications correct (percent),Kappa Statistic (percent),Kappa Temporal Statistic (percent),Kappa M Statistic (percent),model training instances,model serialized size (bytes),labeling cost,newThreshold,maxPosterior,accuracyBaseLearner (percent),Change detected,Warning detected,tree size (nodes),tree size (leaves),active learning leaves,tree depth,active leaf byte size estimate,inactive leaf byte size estimate,byte size estimate overhead
100000.0,0.953125,1.0142875705949135E-7,100000.0,88.6,76.97974217311233,76.96969696969698,74.8898678414097,39662.0,300128.0,0.0,1.0,0.0,?,1.0,13.0,99.0,71.0,71.0,5.0,0.0,0.0,1.0
200000.0,1.828125,2.31562201709797E-7,200000.0,93.5,86.96056875993004,86.78861788617887,86.43006263048018,79662.0,478184.0,0.0,1.0,0.0,?,0.0,0.0,170.0,117.0,117.0,6.0,0.0,0.0,1.0
300000.0,2.578125,3.637044574134052E-7,300000.0,94.69999999999999,89.32673873467479,89.29292929292927,88.37719298245614,119662.0,599088.0,0.0,1.0,0.0,?,0.0,0.0,217.0,148.0,148.0,6.0,0.0,0.0,1.0
400000.0,3.359375,5.244012572802603E-7,400000.0,95.39999999999999,90.74524889244772,90.61224489795917,89.75501113585746,159662.0,727880.0,0.0,1.0,0.0,?,0.0,0.0,260.0,177.0,177.0,6.0,0.0,0.0,1.0
500000.0,4.09375,6.766174273151491E-7,500000.0,95.39999999999999,90.75443786982248,90.59304703476482,89.91228070175438,199662.0,749064.0,0.0,1.0,0.0,?,0.0,0.0,272.0,183.0,183.0,6.0,0.0,0.0,1.0
600000.0,4.859375,8.520024453496768E-7,600000.0,96.2,92.36901821394864,92.0335429769392,91.82795698924731,239462.0,772384.0,0.0,1.0,0.0,?,0.0,0.0,286.0,190.0,190.0,6.0,0.0,0.0,1.0
700000.0,5.59375,1.0251562990662125E-6,700000.0,95.3,90.49637244514182,90.22869022869023,89.36651583710406,279462.0,813312.0,0.0,1.0,0.0,?,0.0,0.0,305.0,201.0,201.0,6.0,0.0,0.0,1.0
800000.0,6.34375,1.2098251479781336E-6,800000.0,94.69999999999999,89.33472853865658,89.09465020576131,88.19599109131401,319462.0,868648.0,0.0,1.0,0.0,?,0.0,0.0,327.0,215.0,215.0,6.0,0.0,0.0,1.0
900000.0,7.0625,1.387809493785931E-6,900000.0,95.6,91.1816578483245,91.38943248532289,90.71729957805907,359462.0,889168.0,0.0,1.0,0.0,?,0.0,0.0,335.0,219.0,219.0,6.0,0.0,0.0,1.0
1000000.0,7.796875,1.573336582320432E-6,1000000.0,96.6,93.17093550149436,93.00411522633745,92.64069264069263,399462.0,923496.0,0.0,1.0,0.0,?,0.0,0.0,351.0,227.0,227.0,6.0,0.0,0.0,1.0
1100000.0,8.5,1.7680528496081631E-6,1100000.0,95.3,90.52709653493284,90.6,89.50892857142856,439262.0,956304.0,0.0,1.0,0.0,?,0.0,0.0,370.0,238.0,238.0,7.0,0.0,0.0,1.0
1200000.0,9.203125,1.965925427308927E-6,1200000.0,95.7,91.34342059702213,90.85106382978722,90.59080962800874,479262.0,988680.0,0.0,1.0,0.0,?,0.0,0.0,389.0,249.0,249.0,7.0,0.0,0.0,1.0
1300000.0,9.921875,2.173638042424702E-6,1300000.0,97.3,94.59260268046688,94.42148760330578,94.38669438669439,519262.0,1032944.0,0.0,1.0,0.0,?,0.0,0.0,401.0,255.0,255.0,7.0,0.0,0.0,1.0
1400000.0,10.625,2.3785857613094977E-6,1400000.0,96.0,91.99154306948137,92.11045364891518,91.6317991631799,559262.0,1057616.0,0.0,1.0,0.0,?,0.0,0.0,415.0,262.0,262.0,7.0,0.0,0.0,1.0
1500000.0,11.328125,2.5839249267139365E-6,1500000.0,97.0,93.9892286978265,94.03578528827038,93.58974358974358,599262.0,1074888.0,0.0,1.0,0.0,?,0.0,0.0,419.0,264.0,264.0,7.0,0.0,0.0,1.0
1600000.0,12.015625,2.800423535518348E-6,1600000.0,96.89999999999999,93.71094700965673,93.8,92.9705215419501,639062.0,1102312.0,0.0,1.0,0.0,?,0.0,0.0,435.0,272.0,272.0,7.0,0.0,0.0,1.0
1700000.0,12.703125,3.0157112956254015E-6,1700000.0,97.39999999999999,94.78698832285384,94.70468431771893,94.51476793248945,679062.0,1110696.0,0.0,1.0,0.0,?,0.0,0.0,440.0,276.0,276.0,7.0,0.0,0.0,1.0
1800000.0,13.390625,3.2311541468112E-6,1800000.0,97.39999999999999,94.7772706820081,94.85148514851485,94.44444444444444,719062.0,1126680.0,0.0,1.0,0.0,?,0.0,0.0,446.0,279.0,279.0,7.0,0.0,0.0,1.0
1900000.0,14.078125,3.4460036679067543E-6,1900000.0,97.5,94.97749919639986,95.02982107355864,94.62365591397848,759062.0,1138480.0,0.0,1.0,0.0,?,0.0,0.0,450.0,281.0,281.0,8.0,0.0,0.0,1.0
2000000.0,14.78125,3.664522502933525E-6,2000000.0,96.7,93.39011160696401,93.19587628865979,93.16770186335404,799062.0,1146952.0,0.0,1.0,0.0,?,0.0,0.0,456.0,284.0,284.0,8.0,0.0,0.0,1.0
2100000.0,15.484375,3.899042623945408E-6,2100000.0,97.7,95.36495909072589,95.40918163672654,94.94505494505493,838862.0,1173800.0,0.0,1.0,0.0,?,0.0,0.0,470.0,291.0,291.0,8.0,0.0,0.0,1.0
2200000.0,16.1875,4.1345930205554595E-6,2200000.0,97.6,95.16271420106179,95.24752475247524,94.77124183006535,878862.0,1194536.0,0.0,1.0,0.0,?,0.0,0.0,482.0,297.0,297.0,8.0,0.0,0.0,1.0
2300000.0,16.90625,4.378189300445632E-6,2300000.0,97.39999999999999,94.77189370053406,94.47983014861995,94.32314410480349,918862.0,1224680.0,0.0,1.0,0.0,?,0.0,0.0,494.0,303.0,303.0,8.0,0.0,0.0,1.0
2400000.0,17.59375,4.611560111192779E-6,2400000.0,97.1,94.12227293732316,94.05737704918032,93.43891402714931,958862.0,1241808.0,0.0,1.0,0.0,?,0.0,0.0,510.0,311.0,311.0,8.0,0.0,0.0,1.0
2500000.0,18.3125,4.857194305966711E-6,2500000.0,97.89999999999999,95.75675282479025,95.80838323353294,95.3125,998862.0,1265776.0,0.0,1.0,0.0,?,0.0,0.0,520.0,316.0,316.0,8.0,0.0,0.0,1.0
2600000.0,19.046875,5.1243610343792365E-6,2600000.0,97.89999999999999,95.79080712275609,95.91439688715953,95.56962025316456,1038662.0,1290080.0,0.0,1.0,0.0,?,0.0,0.0,539.0,327.0,327.0,8.0,3924.4050632911394,0.0,1.0206949049763248
2700000.0,19.71875,5.373449789153205E-6,2700000.0,97.8,95.58412049730832,95.64356435643563,95.32908704883228,1078662.0,1331880.0,0.0,1.0,0.0,?,0.0,0.0,547.0,331.0,331.0,8.0,3924.4050632911394,0.0,1.0206949049763248
2800000.0,20.40625,5.625909608271387E-6,2800000.0,98.5,96.99280679385089,96.94501018329939,96.85534591194968,1118662.0,1333440.0,0.0,1.0,0.0,?,0.0,0.0,553.0,334.0,334.0,8.0,3924.4050632911394,0.0,1.0206949049763248
2900000.0,21.125,5.890692765307095E-6,2900000.0,98.3,96.58431517528491,96.48760330578511,96.39830508474576,1158662.0,1353096.0,0.0,1.0,0.0,?,0.0,0.0,559.0,337.0,337.0,9.0,3924.4050632911394,0.0,1.0206949049763248
3000000.0,21.828125,6.149613537773904E-6,3000000.0,97.2,94.36041007875285,94.238683127572,93.84615384615384,1198662.0,1367624.0,0.0,1.0,0.0,?,0.0,0.0,565.0,340.0,340.0,9.0,3924.4050632911394,0.0,1.0206949049763248
3100000.0,22.515625,6.41436254631521E-6,3100000.0,98.6,97.18717351121113,97.14285714285714,96.96969696969695,1238462.0,1371776.0,0.0,1.0,0.0,?,0.0,0.0,565.0,340.0,340.0,9.0,3924.4050632911394,0.0,1.0206949049763248
3200000.0,23.234375,6.6933278059069486E-6,3200000.0,98.4,96.79203140601254,96.92898272552782,96.61733615221986,1278462.0,1398600.0,0.0,1.0,0.0,?,0.0,0.0,576.0,347.0,347.0,9.0,3924.4050632911394,0.0,1.0206949049763248
3300000.0,23.875,6.940168936529922E-6,3300000.0,98.7,97.39985439184593,97.42063492063492,97.38430583501005,1318462.0,1402888.0,0.0,1.0,0.0,?,0.0,0.0,582.0,350.0,350.0,9.0,3924.4050632911394,0.0,1.0206949049763248
3400000.0,24.578125,7.213312750940936E-6,3400000.0,98.0,95.96879850039304,95.91836734693877,95.60439560439559,1358462.0,1430184.0,0.0,1.0,0.0,?,0.0,0.0,593.0,357.0,357.0,9.0,3924.4050632911394,0.0,1.0206949049763248
3500000.0,25.28125,7.487070656174587E-6,3500000.0,98.2,96.37191865035373,96.3855421686747,96.11231101511879,1398462.0,1448648.0,0.0,1.0,0.0,?,0.0,0.0,601.0,361.0,361.0,9.0,3924.4050632911394,0.0,1.0206949049763248
3600000.0,25.984375,7.772963403517174E-6,3600000.0,98.4,96.77737718785876,96.89922480620154,96.48351648351648,1438262.0,1454536.0,0.0,1.0,0.0,?,0.0,0.0,603.0,362.0,362.0,9.0,3924.4050632911394,0.0,1.0206949049763248
3700000.0,26.6875,8.060152726506608E-6,3700000.0,98.5,96.97495260759085,97.0873786407767,96.69603524229075,1478262.0,1476768.0,0.0,1.0,0.0,?,0.0,0.0,614.0,369.0,369.0,9.0,3924.4050632911394,0.0,1.0206949049763248
3800000.0,27.40625,8.351674219334705E-6,3800000.0,97.7,95.3667518109957,95.12711864406779,94.9339207048458,1518262.0,1480912.0,0.0,1.0,0.0,?,0.0,0.0,618.0,371.0,371.0,9.0,3924.4050632911394,0.0,1.0206949049763248
3900000.0,28.109375,8.637703754680439E-6,3900000.0,98.7,97.37537047655196,97.37373737373737,97.10467706013362,1558262.0,1500656.0,0.0,1.0,0.0,?,0.0,0.0,624.0,374.0,374.0,9.0,3924.4050632911394,0.0,1.0206949049763248
4000000.0,28.8125,8.923138116693332E-6,4000000.0,98.1,96.14545041426264,96.23015873015872,95.70135746606334,1598262.0,1512496.0,0.0,1.0,0.0,?,0.0,0.0,634.0,379.0,379.0,9.0,3924.4050632911394,0.0,1.0206949049763248
4100000.0,29.515625,9.224239070641085E-6,4100000.0,98.8,97.5981553833344,97.67891682785299,97.54098360655738,1638062.0,1537560.0,0.0,1.0,0.0,?,0.0,0.0,645.0,386.0,386.0,9.0,3924.4050632911394,0.0,1.0206949049763248
4200000.0,30.234375,9.53437699030878E-6,4200000.0,98.0,95.97306787796785,95.94320486815415,95.67099567099567,1678062.0,1565272.0,0.0,1.0,0.0,?,0.0,0.0,654.0,392.0,392.0,9.0,3924.4050632911394,0.0,1.0206949049763248
4300000.0,30.921875,9.832265689813844E-6,4300000.0,98.7,97.3868926535502,97.4155069582505,97.18614718614718,1718062.0,1587320.0,0.0,1.0,0.0,?,0.0,0.0,665.0,399.0,399.0,9.0,3924.4050632911394,0.0,1.0206949049763248
4400000.0,31.609375,1.0128858169385545E-5,4400000.0,98.2,96.37568811588133,96.31147540983606,96.06126914660831,1758062.0,1595192.0,0.0,1.0,0.0,?,0.0,0.0,667.0,400.0,400.0,9.0,3924.4050632911394,0.0,1.0206949049763248
4500000.0,32.3125,1.0431712629118316E-5,4500000.0,98.6,97.14072143682833,97.22222222222221,96.73659673659674,1798062.0,1607680.0,0.0,1.0,0.0,?,0.0,0.0,675.0,404.0,404.0,9.0,3924.4050632911394,0.0,1.0206949049763248
4600000.0,33.015625,1.0746591336404287E-5,4600000.0,98.3,96.58985139775973,96.70542635658914,96.42857142857143,1837862.0,1612960.0,0.0,1.0,0.0,?,0.0,0.0,677.0,405.0,405.0,9.0,3924.4050632911394,0.0,1.0206949049763248
4700000.0,33.703125,1.1052708400206437E-5,4700000.0,98.3,96.58815407093428,96.51639344262296,96.39065817409767,1877862.0,1618224.0,0.0,1.0,0.0,?,0.0,0.0,677.0,405.0,405.0,9.0,3924.4050632911394,0.0,1.0206949049763248
4800000.0,34.40625,1.1364497735889425E-5,4800000.0,99.1,98.19601680510567,98.18913480885311,98.11320754716981,1917862.0,1626312.0,0.0,1.0,0.0,?,0.0,0.0,681.0,407.0,407.0,9.0,3924.4050632911394,0.0,1.0206949049763248
4900000.0,35.109375,1.1674201782120188E-5,4900000.0,97.7,95.38404726735598,95.40918163672654,95.08547008547008,1957862.0,1630024.0,0.0,1.0,0.0,?,0.0,0.0,683.0,408.0,408.0,9.0,3924.4050632911394,0.0,1.0206949049763248
5000000.0,35.796875,1.1978163222213175E-5,5000000.0,98.4,96.77028663706095,96.8503937007874,96.44444444444444,1997862.0,1649256.0,0.0,1.0,0.0,?,0.0,0.0,690.0,413.0,413.0,9.0,3924.4050632911394,0.0,1.0206949049763248
5100000.0,36.828125,1.2074156774259693E-5,5100000.0,81.5,62.99733580817818,61.77685950413222,62.626262626262616,38973.0,246216.0,0.0,1.0,0.0,?,2.0,16.0,86.0,63.0,63.0,4.0,0.0,0.0,1.0
5200000.0,37.65625,1.217126248068073E-5,5200000.0,81.6,63.00882963153577,60.767590618336875,61.66666666666666,78973.0,354440.0,0.0,1.0,0.0,?,0.0,0.0,121.0,85.0,85.0,5.0,0.0,0.0,1.0
5300000.0,38.5,1.23180051579968E-5,5300000.0,83.1,66.1772711261968,66.60079051383399,65.51020408163264,118973.0,587848.0,0.0,1.0,0.0,?,0.0,0.0,207.0,143.0,143.0,5.0,0.0,0.0,1.0
5400000.0,39.3125,1.2473136982104434E-5,5400000.0,85.9,71.76679775415889,71.8,70.56367432150313,158973.0,668376.0,0.0,1.0,0.0,?,0.0,0.0,241.0,160.0,160.0,6.0,0.0,0.0,1.0
5500000.0,40.15625,1.2658080183124793E-5,5500000.0,88.6,77.11211050433666,76.92307692307693,75.74468085106383,198973.0,792376.0,0.0,1.0,0.0,?,0.0,0.0,286.0,190.0,190.0,6.0,0.0,0.0,1.0
5600000.0,40.96875,1.285976416612458E-5,5600000.0,87.7,75.39566963785627,76.0233918128655,74.84662576687117,238773.0,843624.0,0.0,1.0,0.0,?,0.0,0.0,306.0,203.0,203.0,6.0,0.0,0.0,1.0
5700000.0,41.796875,1.3069278922759826E-5,5700000.0,89.3,78.53147246009262,78.5140562248996,77.66179540709813,278773.0,877096.0,0.0,1.0,0.0,?,0.0,0.0,318.0,209.0,209.0,6.0,0.0,0.0,1.0
5800000.0,42.65625,1.3295011142165297E-5,5800000.0,89.9,79.80145429529074,80.68833652007649,79.80000000000001,318773.0,929472.0,0.0,1.0,0.0,?,0.0,0.0,340.0,223.0,223.0,7.0,0.0,0.0,1.0
5900000.0,43.5,1.35217521003344E-5,5900000.0,90.8,81.52499146534933,81.48893360160966,80.54968287526427,358773.0,967872.0,0.0,1.0,0.0,?,0.0,0.0,360.0,233.0,233.0,7.0,0.0,0.0,1.0
6000000.0,44.359375,1.3757143719380515E-5,6000000.0,91.60000000000001,83.12405826217982,82.99595141700405,81.53846153846155,398773.0,1002856.0,0.0,1.0,0.0,?,0.0,0.0,384.0,245.0,245.0,7.0,0.0,0.0,1.0
6100000.0,45.1875,1.400749367247853E-5,6100000.0,92.0,83.98308613896275,82.79569892473118,83.26359832635984,438573.0,1051480.0,0.0,1.0,0.0,?,0.0,0.0,401.0,255.0,255.0,7.0,0.0,0.0,1.0
6200000.0,46.03125,1.4267489831480716E-5,6200000.0,92.7,85.32167646562056,85.4,84.50106157112526,478573.0,1089000.0,0.0,1.0,0.0,?,0.0,0.0,419.0,264.0,264.0,7.0,0.0,0.0,1.0
6300000.0,46.875,1.4536636234778498E-5,6300000.0,93.0,85.94016132660605,86.59003831417625,85.16949152542374,518573.0,1145904.0,0.0,1.0,0.0,?,0.0,0.0,439.0,277.0,277.0,7.0,0.0,0.0,1.0
6400000.0,47.703125,1.4802882538384034E-5,6400000.0,92.2,84.39519371966566,84.4,84.64566929133859,558573.0,1170680.0,0.0,1.0,0.0,?,0.0,0.0,453.0,284.0,284.0,7.0,0.0,0.0,1.0
6500000.0,48.515625,1.5070638166637056E-5,6500000.0,89.9,79.69930857050973,80.68833652007649,78.46481876332622,598573.0,1216728.0,0.0,1.0,0.0,?,0.0,0.0,474.0,296.0,296.0,7.0,0.0,0.0,1.0
6600000.0,49.359375,1.5373877961085075E-5,6600000.0,92.5,84.95426095329803,85.08946322067595,84.37500000000001,638373.0,1271056.0,0.0,1.0,0.0,?,0.0,0.0,497.0,309.0,309.0,8.0,0.0,0.0,1.0
6700000.0,50.203125,1.568333607994848E-5,6700000.0,92.4,84.7993311705715,84.29752066115704,84.67741935483872,678373.0,1314528.0,0.0,1.0,0.0,?,0.0,0.0,518.0,321.0,321.0,8.0,0.0,0.0,1.0
6800000.0,51.0625,1.600176723311759E-5,6800000.0,92.7,85.39123474084451,85.71428571428572,85.22267206477734,718373.0,1344160.0,0.0,1.0,0.0,?,0.0,0.0,528.0,326.0,326.0,8.0,0.0,0.0,1.0
6900000.0,51.9375,1.6329966601915658E-5,6900000.0,92.60000000000001,85.10850666494946,85.65891472868218,84.1880341880342,758373.0,1376792.0,0.0,1.0,0.0,?,0.0,0.0,543.0,335.0,335.0,8.0,0.0,0.0,1.0
7000000.0,52.78125,1.665106159634888E-5,7000000.0,94.0,88.0046062312072,87.87878787878786,87.9759519038076,798373.0,1412992.0,0.0,1.0,0.0,?,0.0,0.0,556.0,343.0,343.0,8.0,0.0,0.0,1.0
7100000.0,53.640625,1.699472528546014E-5,7100000.0,93.2,86.38240606864069,85.74423480083858,85.92132505175985,838173.0,1426736.0,0.0,1.0,0.0,?,0.0,0.0,562.0,346.0,346.0,8.0,0.0,0.0,1.0
7200000.0,54.484375,1.7336935690966333E-5,7200000.0,92.80000000000001,85.55423581907485,85.74257425742576,84.93723849372385,878173.0,1463744.0,0.0,1.0,0.0,?,0.0,0.0,577.0,355.0,355.0,8.0,0.0,0.0,1.0
7300000.0,55.359375,1.7693071891295002E-5,7300000.0,92.4,84.75560833146122,85.12720156555774,83.9662447257384,918173.0,1484344.0,0.0,1.0,0.0,?,0.0,0.0,589.0,361.0,361.0,8.0,0.0,0.0,1.0
7400000.0,56.234375,1.8055419495794925E-5,7400000.0,94.1,88.1791006499491,88.12877263581488,87.63102725366875,958173.0,1526816.0,0.0,1.0,0.0,?,0.0,0.0,602.0,369.0,369.0,8.0,0.0,0.0,1.0
7500000.0,57.109375,1.8423306658708805E-5,7500000.0,94.3,88.53294063684426,88.10020876826721,87.76824034334763,998173.0,1566296.0,0.0,1.0,0.0,?,0.0,0.0,621.0,380.0,380.0,8.0,0.0,0.0,1.0
7600000.0,58.015625,1.883333849643047E-5,7600000.0,94.69999999999999,89.32002837245292,89.68871595330738,88.50325379609544,1037973.0,1629024.0,0.0,1.0,0.0,?,0.0,0.0,653.0,402.0,402.0,8.0,3981.9844155844157,0.0,1.019892189758549
7700000.0,58.890625,1.9241587110122462E-5,7700000.0,93.30000000000001,86.57519095288093,86.01252609603341,85.98326359832636,1077973.0,1698480.0,0.0,1.0,0.0,?,0.0,0.0,678.0,416.0,416.0,8.0,3981.9844155844157,0.0,1.019892189758549
7800000.0,59.734375,1.9639400965792855E-5,7800000.0,93.4,86.79825736997284,87.08414872798436,86.80000000000001,1117973.0,1732504.0,0.0,1.0,0.0,?,0.0,0.0,688.0,421.0,421.0,8.0,3981.9844155844157,0.0,1.019892189758549
7900000.0,60.59375,2.0049639990449783E-5,7900000.0,94.8,89.57635918262619,89.30041152263374,89.00634249471457,1157973.0,1770280.0,0.0,1.0,0.0,?,0.0,0.0,707.0,432.0,432.0,8.0,3981.9844155844157,0.0,1.019892189758549
8000000.0,61.484375,2.0479795671740756E-5,8000000.0,94.39999999999999,88.77269519471353,88.93280632411066,88.4297520661157,1197973.0,1806976.0,0.0,1.0,0.0,?,0.0,0.0,721.0,439.0,439.0,8.0,3981.9844155844157,0.0,1.019892189758549
8100000.0,62.359375,2.0921297934061538E-5,8100000.0,93.7,87.3977820096337,87.374749498998,87.11656441717793,1237773.0,1829376.0,0.0,1.0,0.0,?,0.0,0.0,729.0,443.0,443.0,8.0,3981.9844155844157,0.0,1.019892189758549
8200000.0,63.21875,2.135793979202087E-5,8200000.0,95.0,89.92995275133829,89.77505112474437,89.73305954825462,1277773.0,1858000.0,0.0,1.0,0.0,?,0.0,0.0,745.0,451.0,451.0,8.0,3981.9844155844157,0.0,1.019892189758549
8300000.0,64.078125,2.1795430026638014E-5,8300000.0,94.39999999999999,88.78366902209616,89.06249999999999,88.47736625514402,1317773.0,1876936.0,0.0,1.0,0.0,?,0.0,0.0,760.0,460.0,460.0,8.0,3981.9844155844157,0.0,1.019892189758549
8400000.0,64.984375,2.2266405091310543E-5,8400000.0,94.1,88.19801726690083,88.40864440078585,88.15261044176705,1357773.0,1932872.0,0.0,1.0,0.0,?,0.0,0.0,791.0,477.0,477.0,8.0,3981.9844155844157,0.0,1.019892189758549
8500000.0,65.84375,2.271722213158177E-5,8500000.0,94.1,88.1913088032792,88.15261044176705,87.93456032719835,1397773.0,1966800.0,0.0,1.0,0.0,?,0.0,0.0,803.0,483.0,483.0,8.0,3981.9844155844157,0.0,1.019892189758549
8600000.0,66.703125,2.3192355745575495E-5,8600000.0,95.6,91.16000787562933,90.32967032967032,90.51724137931033,1437573.0,2015160.0,0.0,1.0,0.0,?,0.0,0.0,816.0,491.0,491.0,8.0,3981.9844155844157,0.0,1.019892189758549
8700000.0,67.609375,2.3693966536989643E-5,8700000.0,95.1,90.19293891601953,90.12096774193547,89.95901639344261,1477573.0,2032640.0,0.0,1.0,0.0,?,0.0,0.0,828.0,497.0,497.0,8.0,3981.9844155844157,0.0,1.019892189758549
8800000.0,68.546875,2.423270754257424E-5,8800000.0,93.89999999999999,87.78974338444291,87.79999999999998,87.55102040816325,1517573.0,2129304.0,0.0,1.0,0.0,?,0.0,0.0,865.0,523.0,523.0,8.0,3981.9844155844157,0.0,1.019892189758549
8900000.0,69.4375,2.4746408194510474E-5,8900000.0,93.8,87.58395847434885,87.74703557312252,86.83651804670912,1557573.0,2152664.0,0.0,1.0,0.0,?,0.0,0.0,874.0,529.0,529.0,8.0,3981.9844155844157,0.0,1.019892189758549
9000000.0,70.328125,2.5266165741615824E-5,9000000.0,96.6,93.16258566877956,93.28063241106719,92.49448123620309,1597573.0,2193952.0,0.0,1.0,0.0,?,0.0,0.0,884.0,534.0,534.0,8.0,3981.9844155844157,0.0,1.019892189758549
9100000.0,71.203125,2.5798236796011526E-5,9100000.0,93.5,86.97185921590636,86.81541582150103,86.45833333333334,1637373.0,2227624.0,0.0,1.0,0.0,?,0.0,0.0,910.0,553.0,553.0,8.0,3981.9844155844157,0.0,1.019892189758549
9200000.0,72.046875,2.631605331165095E-5,9200000.0,95.3,90.59096732863549,90.69306930693068,90.54325955734406,1677373.0,2264408.0,0.0,1.0,0.0,?,0.0,0.0,916.0,556.0,556.0,8.0,3981.9844155844157,0.0,1.019892189758549
9300000.0,72.90625,2.6859793385180336E-5,9300000.0,94.8,89.5154526098458,89.6,88.49557522123894,1717373.0,2352816.0,0.0,1.0,0.0,?,0.0,0.0,949.0,580.0,580.0,8.0,3981.9844155844157,0.0,1.019892189758549
9400000.0,73.78125,2.7422334727210304E-5,9400000.0,94.1,88.16430353947504,87.93456032719835,87.55274261603374,1757373.0,2407224.0,0.0,1.0,0.0,?,0.0,0.0,963.0,590.0,590.0,8.0,3981.9844155844157,0.0,1.019892189758549
9500000.0,74.65625,2.7987117969637946E-5,9500000.0,94.69999999999999,89.3753508138882,89.39999999999999,88.95833333333333,1797373.0,2432192.0,0.0,1.0,0.0,?,0.0,0.0,973.0,595.0,595.0,8.0,3981.9844155844157,0.0,1.019892189758549
9600000.0,75.546875,2.8586055688922194E-5,9600000.0,96.3,92.58986293249164,92.65873015873015,92.85714285714285,1837173.0,2475704.0,0.0,1.0,0.0,?,0.0,0.0,989.0,606.0,606.0,8.0,3981.9844155844157,0.0,1.019892189758549
9700000.0,76.453125,2.920174489392796E-5,9700000.0,95.0,89.99519769489353,90.32882011605416,89.79591836734693,1877173.0,2517360.0,0.0,1.0,0.0,?,0.0,0.0,1004.0,615.0,615.0,9.0,3981.9844155844157,0.0,1.019892189758549
9800000.0,77.359375,2.9823919855213418E-5,9800000.0,96.6,93.1829573934837,92.901878914405,92.65658747300215,1917173.0,2560048.0,0.0,1.0,0.0,?,0.0,0.0,1019.0,624.0,624.0,9.0,3981.9844155844157,0.0,1.019892189758549
9900000.0,78.28125,3.04578274436709E-5,9900000.0,95.0,89.99983999743995,90.01996007984032,90.03984063745018,1957173.0,2579312.0,0.0,1.0,0.0,?,0.0,0.0,1037.0,633.0,633.0,9.0,3981.9844155844157,0.0,1.019892189758549
1.0E7,79.203125,3.110266167722229E-5,1.0E7,95.1,90.19293891601953,89.89690721649484,90.020366598778,1997173.0,2640088.0,0.0,1.0,0.0,?,0.0,0.0,1059.0,647.0,647.0,9.0,3981.9844155844157,0.0,1.019892189758549
