learning evaluation instances,evaluation time (cpu seconds),model cost (RAM-Hours),classified instances,classifications correct (percent),Kappa Statistic (percent),Kappa Temporal Statistic (percent),Kappa M Statistic (percent),model training instances,model serialized size (bytes),labeling cost,newThreshold,maxPosterior,accuracyBaseLearner (percent),Change detected,Warning detected
100000.0,0.390625,1.5743555397623115E-8,100000.0,72.3,42.638227376268375,40.17278617710582,39.12087912087911,19800.0,2904.0,0.0,1.0,0.0,?,0.0,15.0
200000.0,0.796875,3.0585797503590586E-8,200000.0,74.0,45.53308446142695,43.23144104803493,39.953810623556585,39800.0,2904.0,0.0,1.0,0.0,?,0.0,80.0
300000.0,1.203125,4.3830562693377336E-8,300000.0,75.1,47.603656380990856,47.6890756302521,41.273584905660385,59800.0,2904.0,0.0,1.0,0.0,?,0.0,4.0
400000.0,1.59375,5.501613486558199E-8,400000.0,73.4,44.41635078715642,46.69338677354709,37.995337995338,79800.0,2904.0,0.0,1.0,0.0,?,0.0,4.0
500000.0,1.984375,6.466567154145902E-8,500000.0,76.6,50.0955435746946,50.318471337579616,42.079207920792086,99800.0,2904.0,0.0,1.0,0.0,?,0.0,0.0
600000.0,2.375,7.277917272100846E-8,600000.0,75.0,47.43680853121623,52.29007633587786,41.451990632318505,119800.0,2904.0,0.0,1.0,0.0,?,0.0,0.0
700000.0,2.765625,7.935663840423027E-8,700000.0,75.5,48.45187298541504,48.63731656184486,42.48826291079813,139800.0,2904.0,0.0,1.0,0.0,?,0.0,0.0
800000.0,3.140625,8.420960512012243E-8,800000.0,73.9,45.52240052098118,46.074380165289256,39.722863741339495,159800.0,2904.0,0.0,1.0,0.0,?,0.0,25.0
900000.0,3.546875,8.786950881282488E-8,900000.0,74.1,46.064139941690954,49.31506849315068,41.136363636363626,179800.0,2904.0,0.0,1.0,0.0,?,0.0,0.0
1000000.0,3.921875,8.975698923071225E-8,1000000.0,72.5,42.29090420709801,43.76278118609406,35.74766355140187,199800.0,2904.0,0.0,1.0,0.0,?,0.0,23.0
1100000.0,4.3125,1.0556279448792337E-7,1100000.0,72.8,42.76214726121083,43.685300207039326,37.182448036951506,219600.0,2904.0,0.0,1.0,0.0,?,0.0,0.0
1200000.0,4.6875,1.1920589410389463E-7,1200000.0,74.6,45.985718113498045,49.90138067061144,38.49878934624697,239600.0,2904.0,0.0,1.0,0.0,?,0.0,10.0
1300000.0,5.09375,1.3238844177168277E-7,1300000.0,74.5,45.99654377880184,47.852760736196316,39.42992874109264,259600.0,2904.0,0.0,1.0,0.0,?,0.0,0.0
1400000.0,5.453125,1.426367735904124E-7,1400000.0,73.4,43.383054079825634,45.82484725050916,36.36363636363637,279600.0,2904.0,0.0,1.0,0.0,?,0.0,0.0
1500000.0,5.828125,1.5185609097696014E-7,1500000.0,73.1,43.30109856756232,44.989775051124745,36.40661938534279,299600.0,2904.0,0.0,1.0,0.0,?,0.0,0.0
1600000.0,6.21875,1.5992351109161974E-7,1600000.0,75.2,47.4262165107119,47.56871035940804,41.09263657957245,319600.0,2904.0,0.0,1.0,0.0,?,0.0,0.0
1700000.0,6.609375,1.6645489570995174E-7,1700000.0,73.6,44.16904935117668,45.22821576763485,37.44075829383887,339600.0,2904.0,0.0,1.0,0.0,?,0.0,0.0
1800000.0,7.0,1.714502448319561E-7,1800000.0,75.0,48.32575444398512,49.08350305498981,43.94618834080717,359600.0,2904.0,0.0,1.0,0.0,?,0.0,0.0
1900000.0,7.390625,1.7490955845763288E-7,1900000.0,73.3,43.80130498842348,44.490644490644485,37.1764705882353,379600.0,2904.0,0.0,1.0,0.0,?,0.0,0.0
2000000.0,7.78125,1.7683283658698202E-7,2000000.0,72.39999999999999,42.05113777132035,44.68937875751502,36.258660508083146,399600.0,2904.0,0.0,1.0,0.0,?,0.0,0.0
2100000.0,8.171875,1.9259579453824296E-7,2100000.0,71.39999999999999,38.984584007134096,42.685370741482956,31.742243436754176,419400.0,2904.0,0.0,1.0,0.0,?,0.0,0.0
2200000.0,8.5625,2.0682271699317628E-7,2200000.0,74.6,46.25817235469606,45.02164502164502,38.79518072289157,439400.0,2904.0,0.0,1.0,0.0,?,0.0,0.0
2300000.0,8.96875,2.2002123943012622E-7,2300000.0,71.7,40.70665929166457,40.042372881355924,34.49074074074075,459400.0,2904.0,0.0,1.0,0.0,?,0.0,0.0
2400000.0,9.359375,2.311760908924043E-7,2400000.0,72.7,42.155624676876656,43.94250513347022,34.68899521531101,479400.0,2904.0,0.0,1.0,0.0,?,0.0,0.0
2500000.0,9.734375,2.404101542197168E-7,2500000.0,72.6,42.08657423063916,42.91666666666666,36.27906976744186,499400.0,2904.0,0.0,1.0,0.0,?,0.0,0.0
2600000.0,10.125,2.484929346893397E-7,2600000.0,75.8,49.4138697971538,50.20576131687243,43.19248826291081,519400.0,2904.0,0.0,1.0,0.0,?,0.0,0.0
2700000.0,10.5,2.5477780986370314E-7,2700000.0,74.9,47.353407555939626,49.8,41.079812206572775,539400.0,2904.0,0.0,1.0,0.0,?,0.0,0.0
2800000.0,10.90625,2.599889477197495E-7,2800000.0,73.6,43.69681588432255,46.12244897959184,36.385542168674704,559400.0,2904.0,0.0,1.0,0.0,?,0.0,0.0
2900000.0,11.328125,2.6374159561884076E-7,2900000.0,72.3,41.52466519176532,44.37751004016064,34.66981132075472,579400.0,2904.0,0.0,1.0,0.0,?,0.0,0.0
3000000.0,11.734375,2.657577796425257E-7,3000000.0,73.7,43.804379412317736,45.4356846473029,35.380835380835386,599400.0,2904.0,0.0,1.0,0.0,?,0.0,0.0
3100000.0,12.109375,2.809049652165009E-7,3100000.0,72.2,41.36307645579872,42.91581108829568,34.12322274881517,619200.0,2904.0,0.0,1.0,0.0,?,0.0,0.0
3200000.0,12.5,2.9514724802639753E-7,3200000.0,76.5,50.44912073546156,50.42194092827004,44.31279620853081,639200.0,2904.0,0.0,1.0,0.0,?,0.0,0.0
3300000.0,12.890625,3.0785349533996654E-7,3300000.0,77.0,51.0288206036656,52.47933884297521,43.06930693069308,659200.0,2904.0,0.0,1.0,0.0,?,0.0,0.0
3400000.0,13.28125,3.190237071572079E-7,3400000.0,73.9,45.66982239652286,45.511482254697285,40.95022624434389,679200.0,2904.0,0.0,1.0,0.0,?,0.0,0.0
3500000.0,13.671875,3.2865788347812165E-7,3500000.0,74.5,46.13753305676892,49.60474308300395,40.28103044496488,699200.0,2904.0,0.0,1.0,0.0,?,0.0,0.0
3600000.0,14.0625,3.367560243027078E-7,3600000.0,73.4,43.3079995396439,46.0446247464503,35.59322033898305,719200.0,2904.0,0.0,1.0,0.0,?,0.0,0.0
3700000.0,14.46875,3.4358061384409666E-7,3700000.0,75.1,47.60497942075095,45.751633986928105,40.43062200956938,739200.0,2904.0,0.0,1.0,0.0,?,0.0,0.0
3800000.0,14.84375,3.4840564088275036E-7,3800000.0,74.3,44.39636520986586,50.481695568400774,35.75000000000001,759200.0,2904.0,0.0,1.0,0.0,?,0.0,0.0
3900000.0,15.234375,3.5189567521835366E-7,3900000.0,72.0,41.08562362971472,42.148760330578504,32.853717026378895,779200.0,2904.0,0.0,1.0,0.0,?,0.0,0.0
4000000.0,15.625,3.5384967405762936E-7,4000000.0,75.6,47.580090746597,52.34375,38.38383838383839,799200.0,2904.0,0.0,1.0,0.0,?,0.0,0.0
4100000.0,16.03125,3.7027509986526434E-7,4100000.0,72.1,41.38458435577665,46.138996138996134,33.729216152019006,819000.0,2904.0,0.0,1.0,0.0,?,0.0,0.0
4200000.0,16.40625,3.839624373035298E-7,4200000.0,72.89999999999999,41.65116439299986,42.584745762711854,32.08020050125313,839000.0,2904.0,0.0,1.0,0.0,?,0.0,0.0
4300000.0,16.8125,3.9719290927880337E-7,4300000.0,76.9,51.648958882776995,54.34782608695653,44.604316546762604,859000.0,2904.0,0.0,1.0,0.0,?,0.0,0.0
4400000.0,17.203125,4.0837848145100804E-7,4400000.0,75.0,47.62752697182361,46.92144373673035,41.1764705882353,879000.0,2904.0,0.0,1.0,0.0,?,0.0,0.0
4500000.0,17.578125,4.1764203665985E-7,4500000.0,74.3,45.49171983168183,47.33606557377049,38.663484486873514,899000.0,2904.0,0.0,1.0,0.0,?,0.0,0.0
4600000.0,17.96875,4.257555378393994E-7,4600000.0,74.9,47.26890756302521,48.87983706720978,40.94117647058824,919000.0,2904.0,0.0,1.0,0.0,?,0.0,0.0
4700000.0,18.34375,4.3206990489529233E-7,4700000.0,76.0,49.18849796965707,52.56916996047431,41.888619854721554,939000.0,2904.0,0.0,1.0,0.0,?,0.0,0.0
4800000.0,18.71875,4.3690967787471076E-7,4800000.0,75.6,48.66680972637727,48.739495798319325,42.85714285714287,959000.0,2904.0,0.0,1.0,0.0,?,0.0,0.0
4900000.0,19.109375,4.404150725652774E-7,4900000.0,72.5,42.25115497690045,43.877551020408156,36.342592592592595,979000.0,2904.0,0.0,1.0,0.0,?,0.0,0.0
5000000.0,19.5,4.4261807084290516E-7,5000000.0,74.5,46.23202462784127,48.897795591182366,39.573459715639814,999000.0,2904.0,0.0,1.0,0.0,?,0.0,0.0
5100000.0,19.890625,4.5873593383779124E-7,5100000.0,49.9,-0.4910219997111647,-1.2121212121212133,-1.0080645161290331,1018800.0,2904.0,0.0,1.0,0.0,?,0.0,2.0
5200000.0,20.28125,4.732433848807381E-7,5200000.0,69.5,38.98242693895841,37.11340206185566,37.499999999999986,30340.0,2904.0,0.0,1.0,0.0,?,1.0,10.0
5300000.0,20.671875,4.862148004273574E-7,5300000.0,68.0,35.30439283172673,36.88362919132151,29.203539823008857,50340.0,2904.0,0.0,1.0,0.0,?,0.0,0.0
5400000.0,21.0625,4.97650180477649E-7,5400000.0,70.1,40.23538065465243,43.26375711574952,39.717741935483865,70340.0,2904.0,0.0,1.0,0.0,?,0.0,0.0
5500000.0,21.46875,5.079454988137716E-7,5500000.0,70.7,41.27079575065143,40.927419354838705,38.70292887029287,90340.0,2904.0,0.0,1.0,0.0,?,0.0,0.0
5600000.0,21.859375,5.163088078714079E-7,5600000.0,66.5,32.44387800372668,31.492842535787325,28.418803418803424,110340.0,2904.0,0.0,1.0,0.0,?,0.0,0.0
5700000.0,22.234375,5.228629904902644E-7,5700000.0,70.5,40.8310133741967,42.495126705653014,39.30041152263373,130340.0,2904.0,0.0,1.0,0.0,?,0.0,0.0
5800000.0,22.625,5.281542285552455E-7,5800000.0,71.1,41.9235561271653,43.444227005870836,35.05617977528088,150340.0,2904.0,0.0,1.0,0.0,?,0.0,0.0
5900000.0,23.0,5.317592230211529E-7,5900000.0,68.4,36.446132063328626,36.54618473895583,33.61344537815127,170340.0,2904.0,0.0,1.0,0.0,?,0.0,0.0
6000000.0,23.390625,5.339783900934788E-7,6000000.0,68.8,37.5862689791754,34.72803347280333,38.823529411764696,190340.0,2904.0,0.0,1.0,0.0,?,0.0,0.0
6100000.0,23.796875,5.506795908634861E-7,6100000.0,68.4,36.81213207064245,37.30158730158731,38.401559454191045,210140.0,2904.0,0.0,1.0,0.0,?,0.0,0.0
6200000.0,24.1875,5.652024022613962E-7,6200000.0,70.5,40.94472426190914,41.35188866799204,39.918533604887976,230140.0,2904.0,0.0,1.0,0.0,?,0.0,0.0
6300000.0,24.59375,5.78708649199042E-7,6300000.0,67.2,34.63140482691273,33.19755600814665,29.613733905579405,250140.0,2904.0,0.0,1.0,0.0,?,0.0,0.0
6400000.0,24.984375,5.90159389604297E-7,6400000.0,68.2,36.33353220762477,37.769080234833666,37.02970297029704,270140.0,2904.0,0.0,1.0,0.0,?,0.0,0.0
6500000.0,25.390625,6.004706827095814E-7,6500000.0,68.89999999999999,37.69632668760816,36.91683569979715,33.54700854700853,290140.0,2904.0,0.0,1.0,0.0,?,0.0,0.0
6600000.0,25.78125,6.088493521221811E-7,6600000.0,67.9,35.73522110287171,37.181996086105684,33.26403326403327,310140.0,2904.0,0.0,1.0,0.0,?,0.0,0.0
6700000.0,26.15625,6.154182806818022E-7,6700000.0,69.8,39.6156999180213,39.357429718875494,39.599999999999994,330140.0,2904.0,0.0,1.0,0.0,?,0.0,0.0
6800000.0,26.546875,6.207248791017466E-7,6800000.0,68.7,37.255939637407494,36.767676767676775,35.59670781893005,350140.0,2904.0,0.0,1.0,0.0,?,0.0,0.0
6900000.0,26.9375,6.244954420253634E-7,6900000.0,71.2,42.39884797695954,42.62948207171314,39.622641509433954,370140.0,2904.0,0.0,1.0,0.0,?,0.0,0.0
7000000.0,27.34375,6.268193505497443E-7,7000000.0,68.89999999999999,37.26246479839261,37.67535070140279,32.09606986899561,390140.0,2904.0,0.0,1.0,0.0,?,0.0,0.0
7100000.0,27.71875,6.422505895089772E-7,7100000.0,71.5,43.04465299205422,44.98069498069498,41.5983606557377,409940.0,2904.0,0.0,1.0,0.0,?,0.0,0.0
7200000.0,28.109375,6.567887612618506E-7,7200000.0,68.0,35.94080930780042,35.74297188755021,33.19415448851775,429940.0,2904.0,0.0,1.0,0.0,?,0.0,0.0
7300000.0,28.515625,6.703109829686582E-7,7300000.0,69.5,38.48177043413715,39.72332015810276,33.83947939262471,449940.0,2904.0,0.0,1.0,0.0,?,0.0,0.0
7400000.0,28.90625,6.817770837288764E-7,7400000.0,67.7,35.18949548132335,38.24091778202678,31.42250530785563,469940.0,2904.0,0.0,1.0,0.0,?,0.0,0.0
7500000.0,29.296875,6.917071489927669E-7,7500000.0,68.0,35.974645959800085,40.74074074074075,34.291581108829575,489940.0,2904.0,0.0,1.0,0.0,?,0.0,0.0
7600000.0,29.671875,6.997654175696274E-7,7600000.0,73.5,46.97879151660664,46.35627530364373,46.68008048289738,509940.0,2904.0,0.0,1.0,0.0,?,0.0,0.0
7700000.0,30.0625,7.066234118408628E-7,7700000.0,70.0,39.81800966121551,39.87975951903807,37.75933609958505,529940.0,2904.0,0.0,1.0,0.0,?,0.0,0.0
7800000.0,30.46875,7.121582489667669E-7,7800000.0,70.3,40.24866213334405,39.75659229208924,34.14634146341462,549940.0,2904.0,0.0,1.0,0.0,?,0.0,0.0
7900000.0,30.84375,7.157927353142038E-7,7900000.0,68.89999999999999,37.70281639357396,39.376218323586734,36.13963039014372,569940.0,2904.0,0.0,1.0,0.0,?,0.0,0.0
8000000.0,31.234375,7.180426230964563E-7,8000000.0,69.3,38.421175092468516,36.3070539419087,34.2612419700214,589940.0,2904.0,0.0,1.0,0.0,?,0.0,0.0
8100000.0,31.625,7.341321907006205E-7,8100000.0,69.89999999999999,39.70014343753254,41.32553606237816,37.551867219917,609740.0,2904.0,0.0,1.0,0.0,?,0.0,0.0
8200000.0,32.015625,7.486857228084572E-7,8200000.0,69.3,38.637308516422,38.59999999999999,39.087301587301575,629740.0,2904.0,0.0,1.0,0.0,?,0.0,0.0
8300000.0,32.40625,7.617032194199662E-7,8300000.0,72.1,44.38686014989634,42.71047227926078,42.23602484472049,649740.0,2904.0,0.0,1.0,0.0,?,0.0,0.0
8400000.0,32.796875,7.731846805351477E-7,8400000.0,71.5,43.01003023467869,41.5983606557377,41.71779141104294,669740.0,2904.0,0.0,1.0,0.0,?,0.0,0.0
8500000.0,33.1875,7.831301061540015E-7,8500000.0,71.3,42.41110843566899,40.70247933884297,37.47276688453158,689740.0,2904.0,0.0,1.0,0.0,?,0.0,0.0
8600000.0,33.578125,7.915394962765278E-7,8600000.0,69.69999999999999,39.34322525884226,38.28920570264765,37.1369294605809,709740.0,2904.0,0.0,1.0,0.0,?,0.0,0.0
8700000.0,33.96875,7.984128509027264E-7,8700000.0,70.89999999999999,41.20737029254888,41.91616766467065,36.739130434782595,729740.0,2904.0,0.0,1.0,0.0,?,0.0,0.0
8800000.0,34.375,8.039636627977922E-7,8800000.0,70.1,40.139660778064275,39.595959595959584,39.35091277890466,749740.0,2904.0,0.0,1.0,0.0,?,0.0,0.0
8900000.0,34.765625,8.077649464313356E-7,8900000.0,71.39999999999999,42.65664160401002,44.680851063829785,39.78947368421052,769740.0,2904.0,0.0,1.0,0.0,?,0.0,0.0
9000000.0,35.171875,8.1012080449404E-7,9000000.0,70.19999999999999,39.93872944211543,44.60966542750928,34.07079646017698,789740.0,2904.0,0.0,1.0,0.0,?,0.0,0.0
9100000.0,35.5625,8.262257324531675E-7,9100000.0,67.5,34.57131123118673,36.39921722113504,29.501084598698483,809540.0,2904.0,0.0,1.0,0.0,?,0.0,0.0
9200000.0,35.953125,8.407946249159674E-7,9200000.0,69.3,38.59999999999999,39.44773175542405,38.59999999999999,829540.0,2904.0,0.0,1.0,0.0,?,0.0,0.0
9300000.0,36.34375,8.538274818824397E-7,9300000.0,72.5,44.948471769576315,44.99999999999999,43.53182751540041,849540.0,2904.0,0.0,1.0,0.0,?,0.0,0.0
9400000.0,36.734375,8.653243033525844E-7,9400000.0,70.3,40.603326213732025,42.33009708737863,43.74999999999999,869540.0,2904.0,0.0,1.0,0.0,?,0.0,0.0
9500000.0,37.125,8.752850893264015E-7,9500000.0,68.60000000000001,37.09053753531145,38.43137254901962,37.074148296593194,889540.0,2904.0,0.0,1.0,0.0,?,0.0,0.0
9600000.0,37.515625,8.83709839803891E-7,9600000.0,69.5,38.995607683753214,39.12175648702594,38.38383838383837,909540.0,2904.0,0.0,1.0,0.0,?,0.0,0.0
9700000.0,37.90625,8.905985547850529E-7,9700000.0,68.7,37.33482822135022,42.03703703703704,34.518828451882854,929540.0,2904.0,0.0,1.0,0.0,?,0.0,0.0
9800000.0,38.296875,8.959512342698873E-7,9800000.0,69.8,39.523799987984845,40.43392504930966,38.74239350912778,949540.0,2904.0,0.0,1.0,0.0,?,0.0,0.0
9900000.0,38.6875,8.99767878258394E-7,9900000.0,71.5,42.69928585215208,43.45238095238095,37.90849673202613,969540.0,2904.0,0.0,1.0,0.0,?,0.0,0.0
1.0E7,39.078125,9.02048486750573E-7,1.0E7,68.5,36.549245842464885,38.11394891944991,33.962264150943405,989540.0,2904.0,0.0,1.0,0.0,?,0.0,0.0
