learning evaluation instances,evaluation time (cpu seconds),model cost (RAM-Hours),classified instances,classifications correct (percent),Kappa Statistic (percent),Kappa Temporal Statistic (percent),Kappa M Statistic (percent),model training instances,model serialized size (bytes),labeling cost,newThreshold,maxPosterior,accuracyBaseLearner (percent),Change detected,Warning detected
100000.0,0.390625,1.579125334198276E-8,100000.0,70.5,32.26176808266359,37.36730360934181,20.485175202156324,29700.0,2904.0,0.0,1.0,0.0,?,0.0,18.0
200000.0,0.796875,3.063349544795023E-8,200000.0,69.89999999999999,31.81591656624048,38.1930184804928,20.99737532808398,59700.0,2904.0,0.0,1.0,0.0,?,0.0,49.0
300000.0,1.21875,4.4387674683498006E-8,300000.0,72.2,36.051085521321674,38.222222222222214,25.469168900804284,89700.0,2904.0,0.0,1.0,0.0,?,0.0,0.0
400000.0,1.640625,5.648293558301196E-8,400000.0,70.5,30.890690156023044,34.44444444444443,18.508287292817666,119700.0,2904.0,0.0,1.0,0.0,?,0.0,0.0
500000.0,2.046875,6.653274694043728E-8,500000.0,69.6,28.140881692471336,36.53444676409185,16.71232876712327,149700.0,2904.0,0.0,1.0,0.0,?,0.0,0.0
600000.0,2.46875,7.53101711678836E-8,600000.0,71.39999999999999,36.39384221224884,42.685370741482956,26.8542199488491,179700.0,2904.0,0.0,1.0,0.0,?,0.0,0.0
700000.0,2.890625,8.24286770592961E-8,700000.0,67.80000000000001,24.96516239682711,27.96420581655481,13.672922252010736,209700.0,2904.0,0.0,1.0,0.0,?,0.0,0.0
800000.0,3.3125,8.788826461467478E-8,800000.0,69.6,29.400508130553316,36.13445378151259,18.05929919137465,239700.0,2904.0,0.0,1.0,0.0,?,0.0,0.0
900000.0,3.75,9.182969936066204E-8,900000.0,70.0,32.69286858506948,36.97478991596637,23.27365728900255,269700.0,2904.0,0.0,1.0,0.0,?,0.0,0.0
1000000.0,4.171875,9.397145024397308E-8,1000000.0,70.0,32.901517320355,36.84210526315788,22.27979274611398,299700.0,2904.0,0.0,1.0,0.0,?,0.0,0.0
1100000.0,4.578125,1.1042714403528307E-7,1100000.0,69.89999999999999,33.114083818496944,37.93814432989689,24.371859296482405,329400.0,2904.0,0.0,1.0,0.0,?,0.0,0.0
1200000.0,5.0,1.2585683079022502E-7,1200000.0,69.6,31.077012369862512,33.18681318681317,20.83333333333332,359400.0,2904.0,0.0,1.0,0.0,?,0.0,0.0
1300000.0,5.421875,1.3962759920913314E-7,1300000.0,70.6,29.092724527646602,35.52631578947367,15.273775216138311,389400.0,2904.0,0.0,1.0,0.0,?,0.0,32.0
1400000.0,5.84375,1.5166785386908386E-7,1400000.0,69.3,28.52353368473988,33.83620689655171,16.576086956521724,419400.0,2904.0,0.0,1.0,0.0,?,0.0,23.0
1500000.0,6.234375,1.6134406905621292E-7,1500000.0,70.5,34.07997997819052,38.92339544513457,24.744897959183664,449400.0,2904.0,0.0,1.0,0.0,?,0.0,147.0
1600000.0,6.625,1.6948424874701435E-7,1600000.0,71.7,34.64203233256351,38.478260869565204,24.533333333333328,479400.0,2904.0,0.0,1.0,0.0,?,0.0,0.0
1700000.0,7.0625,1.7688089024482503E-7,1700000.0,70.39999999999999,32.3901454068697,34.36807095343679,21.899736147757245,509400.0,2904.0,0.0,1.0,0.0,?,0.0,0.0
1800000.0,7.46875,1.8215172329089708E-7,1800000.0,71.8,33.25348999039039,37.47228381374722,21.008403361344527,539400.0,2904.0,0.0,1.0,0.0,?,0.0,0.0
1900000.0,7.875,1.8582507942078843E-7,1900000.0,70.89999999999999,33.795626416227584,37.284482758620676,23.622047244094478,569400.0,2904.0,0.0,1.0,0.0,?,0.0,0.0
2000000.0,8.265625,1.878211171262794E-7,2000000.0,68.8,30.181661944977765,35.13513513513512,21.80451127819548,599400.0,2904.0,0.0,1.0,0.0,?,0.0,0.0
2100000.0,8.671875,2.0429026335477828E-7,2100000.0,70.39999999999999,31.445617383168035,31.95402298850575,18.45730027548208,629100.0,2904.0,0.0,1.0,0.0,?,0.0,0.0
2200000.0,9.078125,2.1916193266709645E-7,2200000.0,72.89999999999999,35.90046832868157,42.7061310782241,24.08963585434173,659100.0,2904.0,0.0,1.0,0.0,?,0.0,0.0
2300000.0,9.484375,2.324361250632339E-7,2300000.0,69.8,31.38079116584489,35.19313304721028,21.963824289405675,689100.0,2904.0,0.0,1.0,0.0,?,0.0,0.0
2400000.0,9.875,2.4366373610165385E-7,2400000.0,69.8,31.095849779826125,34.20479302832242,20.316622691292867,719100.0,2904.0,0.0,1.0,0.0,?,0.0,0.0
2500000.0,10.28125,2.5374297466542986E-7,2500000.0,68.2,30.385288966725057,34.96932515337424,22.43902439024392,749100.0,2904.0,0.0,1.0,0.0,?,0.0,0.0
2600000.0,10.6875,2.6222473631302516E-7,2600000.0,71.3,32.950191570881216,35.937499999999986,20.277777777777768,779100.0,2904.0,0.0,1.0,0.0,?,0.0,0.0
2700000.0,11.078125,2.688442408624623E-7,2700000.0,70.3,31.189472220935073,36.538461538461526,19.729729729729716,809100.0,2904.0,0.0,1.0,0.0,?,0.0,0.0
2800000.0,11.484375,2.7413104867769616E-7,2800000.0,71.0,33.21634679599666,36.12334801762113,21.40921409214091,839100.0,2904.0,0.0,1.0,0.0,?,0.0,0.0
2900000.0,11.890625,2.778203795767493E-7,2900000.0,71.3,34.290057879698146,36.644591611479015,22.84946236559139,869100.0,2904.0,0.0,1.0,0.0,?,0.0,0.0
3000000.0,12.28125,2.798317776372036E-7,3000000.0,71.2,33.63688314561173,40.124740124740114,22.994652406417103,899100.0,2904.0,0.0,1.0,0.0,?,0.0,0.0
3100000.0,12.6875,2.963168986348643E-7,3100000.0,68.89999999999999,26.595543806646504,34.52631578947367,12.640449438202229,928800.0,2904.0,0.0,1.0,0.0,?,0.0,0.0
3200000.0,13.078125,3.1063194102090273E-7,3200000.0,68.5,28.964459678874277,29.84409799554566,21.052631578947388,958800.0,2904.0,0.0,1.0,0.0,?,0.0,0.0
3300000.0,13.46875,3.2341094791061357E-7,3300000.0,70.6,33.190321231843214,38.74999999999999,23.036649214659676,988800.0,2904.0,0.0,1.0,0.0,?,0.0,0.0
3400000.0,13.890625,3.355533570154674E-7,3400000.0,70.7,30.344237352605546,36.30434782608694,15.072463768115924,1018800.0,2904.0,0.0,1.0,0.0,?,0.0,0.0
3500000.0,14.28125,3.45260292912523E-7,3500000.0,68.89999999999999,27.858296063985744,30.11235955056178,15.489130434782592,1048800.0,2904.0,0.0,1.0,0.0,?,0.0,0.0
3600000.0,14.671875,3.53431193313251E-7,3600000.0,69.5,31.353925655176134,38.50806451612902,20.365535248041763,1078800.0,2904.0,0.0,1.0,0.0,?,0.0,0.0
3700000.0,15.078125,3.603314528138274E-7,3700000.0,69.5,30.22638677915849,34.829059829059815,20.572916666666654,1108800.0,2904.0,0.0,1.0,0.0,?,0.0,0.0
3800000.0,15.46875,3.6543028222190016E-7,3800000.0,68.4,28.218687674058334,34.710743801652896,16.622691292876006,1138800.0,2904.0,0.0,1.0,0.0,?,0.0,0.0
3900000.0,15.859375,3.689930761336453E-7,3900000.0,69.69999999999999,32.09566667264284,36.47798742138363,22.704081632653054,1168800.0,2904.0,0.0,1.0,0.0,?,0.0,0.0
4000000.0,16.265625,3.7110090488567954E-7,4000000.0,69.39999999999999,29.37103289094056,35.983263598326346,18.399999999999984,1198800.0,2904.0,0.0,1.0,0.0,?,0.0,0.0
4100000.0,16.6875,3.8823665818199523E-7,4100000.0,72.3,35.02838110428295,42.76859504132231,21.97183098591548,1228500.0,2904.0,0.0,1.0,0.0,?,0.0,0.0
4200000.0,17.09375,4.03140277032637E-7,4200000.0,69.8,31.38609182449379,35.74468085106381,21.354166666666657,1258500.0,2904.0,0.0,1.0,0.0,?,0.0,0.0
4300000.0,17.5,4.164464189670981E-7,4300000.0,70.19999999999999,34.64596976169902,39.676113360323875,27.845036319612586,1288500.0,2904.0,0.0,1.0,0.0,?,0.0,0.0
4400000.0,17.921875,4.286054172553123E-7,4400000.0,70.1,34.17228807439632,40.556660039761425,25.80645161290322,1318500.0,2904.0,0.0,1.0,0.0,?,0.0,0.0
4500000.0,18.328125,4.38716605357412E-7,4500000.0,69.69999999999999,31.827999568018996,38.28920570264765,23.484848484848477,1348500.0,2904.0,0.0,1.0,0.0,?,0.0,0.0
4600000.0,18.734375,4.4723031654333087E-7,4600000.0,69.3,31.41749099714946,36.701030927835035,22.081218274111666,1378500.0,2904.0,0.0,1.0,0.0,?,0.0,0.0
4700000.0,19.140625,4.5414655081306905E-7,4700000.0,71.89999999999999,35.84826402206271,40.71729957805906,24.664879356568356,1408500.0,2904.0,0.0,1.0,0.0,?,0.0,0.0
4800000.0,19.53125,4.592607405761051E-7,4800000.0,70.3,33.25542721021169,37.73584905660376,24.810126582278475,1438500.0,2904.0,0.0,1.0,0.0,?,0.0,0.0
4900000.0,19.9375,4.6298202101348186E-7,4900000.0,72.1,34.002611509566066,38.410596026490055,20.73863636363635,1468500.0,2904.0,0.0,1.0,0.0,?,0.0,0.0
5000000.0,20.34375,4.6534880918140226E-7,5000000.0,69.3,30.726045201819613,36.43892339544512,21.079691516709502,1498500.0,2904.0,0.0,1.0,0.0,?,0.0,0.0
5100000.0,20.765625,4.827561012158792E-7,5100000.0,48.199999999999996,-1.8614291276492767,-3.600000000000003,-7.24637681159421,1528200.0,2904.0,0.0,1.0,0.0,?,0.0,4.0
5200000.0,21.171875,4.97912794041137E-7,5200000.0,66.2,32.385936274745156,33.85518590998044,28.691983122362874,21231.0,2904.0,0.0,1.0,0.0,?,2.0,3.0
5300000.0,21.578125,5.114804177234571E-7,5300000.0,65.8,31.39473304125945,32.80943025540275,27.388535031847137,51231.0,2904.0,0.0,1.0,0.0,?,0.0,20.0
5400000.0,22.0,5.238393593269091E-7,5400000.0,65.60000000000001,31.0137370901434,32.54901960784314,27.272727272727277,81231.0,2904.0,0.0,1.0,0.0,?,0.0,56.0
5500000.0,22.40625,5.341430854362747E-7,5500000.0,62.8,25.603868598832857,28.871892925430213,25.74850299401198,111231.0,2904.0,0.0,1.0,0.0,?,0.0,0.0
5600000.0,22.84375,5.435190461058585E-7,5600000.0,64.5,28.826907037916214,32.12237093690249,26.195426195426197,141231.0,2904.0,0.0,1.0,0.0,?,0.0,0.0
5700000.0,23.25,5.506278183828627E-7,5700000.0,63.3,26.569452892403245,25.858585858585858,25.406504065040654,171231.0,2904.0,0.0,1.0,0.0,?,0.0,0.0
5800000.0,23.640625,5.559271408451929E-7,5800000.0,66.60000000000001,32.92957203444288,31.134020618556708,29.237288135593225,201231.0,2904.0,0.0,1.0,0.0,?,0.0,0.0
5900000.0,24.0625,5.599914907684758E-7,5900000.0,65.4,30.72102196504016,32.81553398058253,21.8961625282167,231231.0,2904.0,0.0,1.0,0.0,?,0.0,0.0
6000000.0,24.46875,5.623078322969378E-7,6000000.0,63.4,26.802635105136215,25.910931174089068,25.45824847250509,261231.0,2904.0,0.0,1.0,0.0,?,0.0,0.0
6100000.0,24.859375,5.783747635885246E-7,6100000.0,65.4,30.185633575464077,29.243353783231086,23.11111111111111,290931.0,2904.0,0.0,1.0,0.0,?,0.0,0.0
6200000.0,25.265625,5.934868952155941E-7,6200000.0,66.9,33.79735189407577,34.71400394477319,29.574468085106385,320931.0,2904.0,0.0,1.0,0.0,?,0.0,0.0
6300000.0,25.6875,6.075213443384403E-7,6300000.0,63.800000000000004,27.567840121013727,30.11583011583012,25.667351129363453,350931.0,2904.0,0.0,1.0,0.0,?,0.0,0.0
6400000.0,26.09375,6.194385221331484E-7,6400000.0,68.10000000000001,35.96691958729777,34.89795918367348,32.70042194092827,380931.0,2904.0,0.0,1.0,0.0,?,0.0,0.0
6500000.0,26.515625,6.301551345839269E-7,6500000.0,66.9,33.825411042159814,32.310838445807775,29.273504273504276,410931.0,2904.0,0.0,1.0,0.0,?,0.0,0.0
6600000.0,26.921875,6.389437799548938E-7,6600000.0,65.5,30.83400160384925,33.13953488372094,27.521008403361346,440931.0,2904.0,0.0,1.0,0.0,?,0.0,11.0
6700000.0,27.34375,6.463940695135131E-7,6700000.0,66.0,31.870554052700133,31.863727454909824,29.313929313929314,470931.0,2904.0,0.0,1.0,0.0,?,0.0,8.0
6800000.0,27.765625,6.522055223791137E-7,6800000.0,64.4,28.559674745845033,30.33268101761253,24.416135881104033,500931.0,2904.0,0.0,1.0,0.0,?,0.0,63.0
6900000.0,28.171875,6.562042593335113E-7,6900000.0,64.0,28.000000000000004,22.912205567451817,28.429423459244536,530931.0,2904.0,0.0,1.0,0.0,?,0.0,0.0
7000000.0,28.609375,6.587902316823603E-7,7000000.0,64.3,28.17248261653361,24.52431289640592,23.88059701492537,560931.0,2904.0,0.0,1.0,0.0,?,0.0,0.0
7100000.0,29.03125,6.76230702083558E-7,7100000.0,64.4,28.57859364028488,28.94211576846308,25.05263157894737,590631.0,2904.0,0.0,1.0,0.0,?,0.0,0.0
7200000.0,29.4375,6.914277522203825E-7,7200000.0,66.9,33.7363869314542,31.46997929606626,32.310838445807775,620631.0,2904.0,0.0,1.0,0.0,?,0.0,0.0
7300000.0,29.84375,7.050273254410262E-7,7300000.0,64.5,28.580050698104852,25.57651991614256,21.2860310421286,650631.0,2904.0,0.0,1.0,0.0,?,0.0,0.0
7400000.0,30.265625,7.174910408341224E-7,7400000.0,66.4,32.50599611909478,33.33333333333334,28.051391862955033,680631.0,2904.0,0.0,1.0,0.0,?,0.0,0.0
7500000.0,30.6875,7.28219003778779E-7,7500000.0,64.0,27.981275131534204,30.769230769230777,26.07802874743327,710631.0,2904.0,0.0,1.0,0.0,?,0.0,6.0
7600000.0,31.09375,7.369521578463416E-7,7600000.0,65.2,30.35124587211049,28.54209445585216,26.736842105263158,740631.0,2904.0,0.0,1.0,0.0,?,0.0,0.0
7700000.0,31.53125,7.446367332401376E-7,7700000.0,65.7,31.31923141614539,27.941176470588236,29.423868312757207,770631.0,2904.0,0.0,1.0,0.0,?,0.0,0.0
7800000.0,31.921875,7.49961925773985E-7,7800000.0,67.30000000000001,34.52929163496577,39.66789667896679,33.26530612244898,800631.0,2904.0,0.0,1.0,0.0,?,0.0,0.0
7900000.0,32.3125,7.537510828115048E-7,7900000.0,67.7,35.16972285558304,37.037037037037045,30.237580993520524,830631.0,2904.0,0.0,1.0,0.0,?,0.0,0.0
8000000.0,32.734375,7.561844540759923E-7,8000000.0,64.3,28.598857581721308,28.6,29.166666666666668,860631.0,2904.0,0.0,1.0,0.0,?,0.0,0.0
8100000.0,33.140625,7.729209674936204E-7,8100000.0,69.3,38.60147356463444,38.72255489021955,37.34693877551019,890331.0,2904.0,0.0,1.0,0.0,?,0.0,0.0
8200000.0,33.546875,7.880600039950677E-7,8200000.0,66.60000000000001,32.974795312249164,32.25152129817445,27.074235807860266,920331.0,2904.0,0.0,1.0,0.0,?,0.0,0.0
8300000.0,33.953125,8.016015635803344E-7,8300000.0,64.1,27.992041014449732,26.883910386965375,22.29437229437229,950331.0,2904.0,0.0,1.0,0.0,?,0.0,0.0
8400000.0,34.390625,8.1446442183935E-7,8400000.0,63.800000000000004,27.447058399105316,23.14225053078556,22.317596566523605,980331.0,2904.0,0.0,1.0,0.0,?,0.0,0.0
8500000.0,34.8125,8.25208973967367E-7,8500000.0,63.3,25.84540281908703,24.016563146997928,18.80530973451327,1010331.0,2904.0,0.0,1.0,0.0,?,0.0,0.0
8600000.0,35.203125,8.336215978488328E-7,8600000.0,65.3,30.464823617111676,28.008298755186722,27.708333333333336,1040331.0,2904.0,0.0,1.0,0.0,?,0.0,0.0
8700000.0,35.640625,8.413233768401876E-7,8700000.0,64.60000000000001,29.164582291145578,28.915662650602414,28.194726166328604,1070331.0,2904.0,0.0,1.0,0.0,?,0.0,0.0
8800000.0,36.046875,8.468775518445507E-7,8800000.0,66.5,32.9871335296377,32.18623481781377,32.59557344064387,1100331.0,2904.0,0.0,1.0,0.0,?,0.0,0.0
8900000.0,36.453125,8.50834249932733E-7,8900000.0,63.1,25.59283755444425,24.539877300613497,17.81737193763919,1130331.0,2904.0,0.0,1.0,0.0,?,0.0,0.0
9000000.0,36.875,8.532842103805809E-7,9000000.0,66.0,31.92566282380359,32.27091633466136,30.18480492813142,1160331.0,2904.0,0.0,1.0,0.0,?,0.0,0.0
9100000.0,37.28125,8.700366985673707E-7,9100000.0,62.2,23.918862888909466,25.14851485148515,15.81291759465478,1190031.0,2904.0,0.0,1.0,0.0,?,0.0,0.0
9200000.0,37.6875,8.851917098379799E-7,9200000.0,64.5,28.445308027831757,30.52837573385519,23.16017316017316,1220031.0,2904.0,0.0,1.0,0.0,?,0.0,0.0
9300000.0,38.078125,8.982278005633919E-7,9300000.0,65.3,30.52441055868786,26.48305084745763,28.157349896480333,1250031.0,2904.0,0.0,1.0,0.0,?,0.0,0.0
9400000.0,38.5,9.10647860210803E-7,9400000.0,64.8,29.616891945932984,32.43761996161229,25.106382978723403,1280031.0,2904.0,0.0,1.0,0.0,?,0.0,0.0
9500000.0,38.90625,9.2101044073287E-7,9500000.0,66.0,31.8973011301042,24.944812362030905,27.813163481953296,1310031.0,2904.0,0.0,1.0,0.0,?,0.0,0.0
9600000.0,39.328125,9.301126637082134E-7,9600000.0,66.8,33.59575012800819,36.76190476190477,32.520325203252035,1340031.0,2904.0,0.0,1.0,0.0,?,0.0,0.0
9700000.0,39.734375,9.37280290397919E-7,9700000.0,68.10000000000001,36.21122682407897,36.072144288577164,33.817427385892124,1370031.0,2904.0,0.0,1.0,0.0,?,0.0,0.0
9800000.0,40.140625,9.428504401714439E-7,9800000.0,66.0,31.912848446010905,31.863727454909824,26.08695652173913,1400031.0,2904.0,0.0,1.0,0.0,?,0.0,0.0
9900000.0,40.53125,9.466703179188902E-7,9900000.0,65.3,30.494908301351654,32.22656250000001,28.008298755186722,1430031.0,2904.0,0.0,1.0,0.0,?,0.0,0.0
1.0E7,40.953125,9.491368675500984E-7,1.0E7,63.800000000000004,27.43309612107849,28.31683168316832,23.789473684210524,1460031.0,2904.0,0.0,1.0,0.0,?,0.0,0.0
