learning evaluation instances,evaluation time (cpu seconds),model cost (RAM-Hours),classified instances,classifications correct (percent),Kappa Statistic (percent),Kappa Temporal Statistic (percent),Kappa M Statistic (percent),model training instances,model serialized size (bytes),labeling cost,newThreshold,maxPosterior,accuracyBaseLearner (percent),Change detected,Warning detected
100000.0,0.203125,4.914343460566468E-10,100000.0,88.7,70.80676662980913,72.30392156862746,59.9290780141844,20000.0,1112.0,20000.0,1.0,0.9759100359676675,0.0,0.0,6.0
200000.0,0.421875,1.020671334117651E-9,200000.0,89.9,74.63305839922042,76.12293144208039,65.52901023890786,40000.0,1112.0,40000.0,1.0,0.5112727647578895,0.0,0.0,0.0
300000.0,0.640625,1.5499083221786552E-9,300000.0,88.2,70.38970163860381,72.55813953488372,60.79734219269104,60000.0,1112.0,60000.0,1.0,0.9723283535625072,0.0,0.0,78.0
400000.0,0.84375,2.041342668235302E-9,400000.0,85.3,62.234097215085804,65.08313539192399,48.78048780487805,80000.0,1112.0,80000.0,1.0,0.9540781882419653,0.0,0.0,0.0
500000.0,1.046875,2.5264711843596564E-9,500000.0,87.9,69.54565132035962,71.32701421800948,59.800664451827245,100000.0,1112.0,100000.0,1.0,0.9963287408523784,0.0,0.0,10.0
600000.0,1.25,3.017905530416303E-9,600000.0,87.0,66.6324435318275,69.9074074074074,56.66666666666668,120000.0,1112.0,120000.0,1.0,0.7987860780504838,0.0,0.0,92.0
700000.0,1.4375,3.4715372344685927E-9,700000.0,88.2,69.6512985643521,69.66580976863753,58.88501742160279,140000.0,1112.0,140000.0,1.0,0.8888534614524367,0.0,0.0,24.0
800000.0,1.640625,3.953723029957877E-9,800000.0,87.4,67.08893822645943,67.27272727272727,56.09756097560976,160000.0,1112.0,160000.0,1.0,0.9953795563856618,0.0,0.0,9.0
900000.0,1.84375,4.445157376014524E-9,900000.0,87.6,67.84549240479413,70.04830917874396,57.09342560553634,180000.0,1112.0,180000.0,1.0,0.9331094385271919,0.0,0.0,28.0
1000000.0,2.03125,4.898789080066814E-9,1000000.0,88.0,67.6419037346636,68.9119170984456,56.363636363636374,200000.0,1112.0,200000.0,1.0,0.8325560789576427,0.0,0.0,60.0
1100000.0,2.234375,5.3902234261234605E-9,1100000.0,87.2,69.02661291493449,72.17391304347825,59.62145110410094,220000.0,1112.0,220000.0,1.0,0.7021946229673834,0.0,0.0,42.0
1200000.0,2.4375,5.881657772180107E-9,1200000.0,89.4,72.5103734439834,74.14634146341464,62.14285714285715,240000.0,1112.0,240000.0,1.0,0.5125127851673853,0.0,0.0,108.0
1300000.0,2.625,6.335289476232397E-9,1300000.0,90.2,74.83708295032635,76.6109785202864,66.5529010238908,260000.0,1112.0,260000.0,1.0,0.9613524367551312,0.0,0.0,0.0
1400000.0,2.828125,6.8267238222890435E-9,1400000.0,88.4,71.64632208800396,71.70731707317074,62.939297124600635,280000.0,1112.0,280000.0,1.0,0.8302757699789788,0.0,0.0,0.0
1500000.0,3.0,7.242552884336976E-9,1500000.0,88.2,69.41880173535341,70.35175879396985,58.303886925795055,300000.0,1112.0,300000.0,1.0,0.7413024452587784,0.0,0.0,0.0
1600000.0,3.203125,7.733987230393623E-9,1600000.0,88.7,71.04405403743262,73.0310262529833,61.82432432432433,320000.0,1112.0,320000.0,1.0,0.619471245995868,0.0,0.0,0.0
1700000.0,3.390625,8.187618934445911E-9,1700000.0,87.5,68.40466296622078,69.80676328502415,59.15032679738563,340000.0,1112.0,340000.0,1.0,0.7773630030509335,0.0,0.0,0.0
1800000.0,3.59375,8.679053280502559E-9,1800000.0,87.2,66.9257483049446,68.1592039800995,55.244755244755254,360000.0,1112.0,360000.0,1.0,0.6772270414935962,0.0,0.0,0.0
1900000.0,3.78125,9.132684984554848E-9,1900000.0,87.3,67.8871245069283,70.32710280373831,57.52508361204014,380000.0,1112.0,380000.0,1.0,0.7961239922780895,0.0,0.0,0.0
2000000.0,3.96875,9.586316688607136E-9,2000000.0,87.5,65.62080573830006,66.21621621621621,52.65151515151515,400000.0,1112.0,400000.0,1.0,0.5941538031271691,0.0,0.0,0.0
2100000.0,4.171875,1.0077751034663784E-8,2100000.0,89.1,72.94533468358453,74.23167848699764,63.7873754152824,420000.0,1112.0,420000.0,1.0,0.6095310267726253,0.0,0.0,0.0
2200000.0,4.359375,1.0531382738716072E-8,2200000.0,89.1,70.81347399989289,72.95285359801488,60.79136690647483,440000.0,1112.0,440000.0,1.0,0.979522056032876,0.0,0.0,0.0
2300000.0,4.546875,1.0985014442768361E-8,2300000.0,86.8,67.2846237731734,68.4964200477327,57.41935483870968,460000.0,1112.0,460000.0,1.0,0.5325802339384451,0.0,0.0,0.0
2400000.0,4.734375,1.143864614682065E-8,2400000.0,87.6,67.31112950592355,66.48648648648648,55.55555555555556,480000.0,1112.0,480000.0,1.0,0.9728453652037856,0.0,0.0,0.0
2500000.0,4.9375,1.1930080492877296E-8,2500000.0,87.5,67.28810543174467,70.30878859857482,57.04467353951891,500000.0,1112.0,500000.0,1.0,0.8743514283322992,0.0,0.0,0.0
2600000.0,5.125,1.2383712196929584E-8,2600000.0,87.1,68.7363676021521,69.50354609929079,60.9090909090909,520000.0,1112.0,520000.0,1.0,0.6495683102478673,0.0,0.0,0.0
2700000.0,5.328125,1.287514654298623E-8,2700000.0,89.3,73.16950852557673,75.7918552036199,64.33333333333334,540000.0,1112.0,540000.0,1.0,0.7136134273620163,0.0,0.0,0.0
2800000.0,5.53125,1.3366580889042878E-8,2800000.0,88.7,68.8010778813447,71.46464646464646,57.835820895522396,560000.0,1112.0,560000.0,1.0,0.5398526979386179,0.0,0.0,0.0
2900000.0,5.71875,1.3820212593095167E-8,2900000.0,87.1,66.77347235243816,68.3046683046683,56.856187290969906,580000.0,1112.0,580000.0,1.0,0.7092238510128915,0.0,0.0,0.0
3000000.0,5.90625,1.4273844297147455E-8,3000000.0,87.6,68.73739411052846,71.36258660508084,60.00000000000001,600000.0,1112.0,600000.0,1.0,0.7963343408113218,0.0,0.0,0.0
3100000.0,6.109375,1.4765278643204103E-8,3100000.0,87.6,69.37379285816608,69.6078431372549,59.87055016181231,620000.0,1112.0,620000.0,1.0,0.6032991728691636,0.0,0.0,0.0
3200000.0,6.3125,1.525671298926075E-8,3200000.0,85.9,65.13318628275255,67.05607476635514,55.09554140127387,640000.0,1112.0,640000.0,1.0,0.5709375749878797,0.0,0.0,0.0
3300000.0,6.5,1.571034469331304E-8,3300000.0,87.0,66.09904294990481,67.41854636591479,54.385964912280706,660000.0,1112.0,660000.0,1.0,0.6382992951217804,0.0,0.0,0.0
3400000.0,6.703125,1.620177903936969E-8,3400000.0,88.2,67.94784734483227,71.63461538461539,57.09090909090909,680000.0,1112.0,680000.0,1.0,0.6767203060327299,0.0,0.0,0.0
3500000.0,6.90625,1.6693213385426336E-8,3500000.0,87.2,65.7143469386662,66.49214659685863,53.11355311355312,700000.0,1112.0,700000.0,1.0,0.8399635633050602,0.0,0.0,0.0
3600000.0,7.09375,1.7146845089478626E-8,3600000.0,86.5,65.73604060913706,69.24829157175398,55.00000000000001,720000.0,1112.0,720000.0,1.0,0.8923253796141025,0.0,0.0,0.0
3700000.0,7.296875,1.7638279435535274E-8,3700000.0,88.1,68.84653646787791,70.25,58.96551724137932,740000.0,1112.0,740000.0,1.0,0.543678837000333,0.0,0.0,0.0
3800000.0,7.484375,1.8091911139587564E-8,3800000.0,87.1,67.8352366229492,69.93006993006993,57.84313725490197,760000.0,1112.0,760000.0,1.0,0.8581897986322485,0.0,0.0,0.0
3900000.0,7.671875,1.8545542843639855E-8,3900000.0,88.8,71.9202535199968,72.74939172749392,63.15789473684211,780000.0,1112.0,780000.0,1.0,0.5405822164451671,0.0,0.0,0.0
4000000.0,7.875,1.9036977189696502E-8,4000000.0,87.3,68.20262190664089,71.46067415730337,57.38255033557047,800000.0,1112.0,800000.0,1.0,0.6845770092544867,0.0,0.0,0.0
4100000.0,8.046875,1.9452806251744435E-8,4100000.0,86.6,65.97343896803027,67.71084337349397,54.576271186440685,820000.0,1112.0,820000.0,1.0,0.5691371696521629,0.0,0.0,0.0
4200000.0,8.234375,1.9906437955796726E-8,4200000.0,87.2,67.95770416950376,68.07980049875312,56.462585034013614,840000.0,1112.0,840000.0,1.0,0.6151273082360509,0.0,0.0,0.0
4300000.0,8.4375,2.0397872301853373E-8,4300000.0,85.8,64.40264122374695,66.10978520286396,52.188552188552194,860000.0,1112.0,860000.0,1.0,0.6502898949764937,0.0,0.0,0.0
4400000.0,8.625,2.0851504005905664E-8,4400000.0,88.7,72.06869617662471,72.57281553398059,62.582781456953654,879999.0,1112.0,879999.0,1.0,0.8061747008643162,0.0,0.0,0.0
4500000.0,8.828125,2.134293835196231E-8,4500000.0,87.0,66.9110160863368,67.33668341708542,55.782312925170075,900000.0,1112.0,900000.0,1.0,0.614906722112637,0.0,0.0,0.0
4600000.0,9.015625,2.17965700560146E-8,4600000.0,87.6,68.91170925428217,71.0955710955711,59.21052631578948,920000.0,1112.0,920000.0,1.0,0.6069595960364675,0.0,0.0,0.0
4700000.0,9.21875,2.228800440207125E-8,4700000.0,88.8,71.35608478598904,73.95348837209302,61.643835616438366,939999.0,1112.0,939999.0,1.0,0.6636213595737704,0.0,0.0,0.0
4800000.0,9.40625,2.274163610612354E-8,4800000.0,88.9,71.45766477412985,72.38805970149255,60.77738515901061,960000.0,1112.0,960000.0,1.0,0.6354624575734401,0.0,0.0,0.0
4900000.0,9.609375,2.3233070452180187E-8,4900000.0,89.7,73.64785345136367,76.37614678899082,63.986013986014,980000.0,1112.0,980000.0,1.0,0.7300844042120582,0.0,0.0,0.0
5000000.0,9.796875,2.3686702156232477E-8,5000000.0,88.6,70.56742898746793,71.712158808933,60.55363321799309,1000000.0,1112.0,1000000.0,1.0,0.8484297651966368,0.0,0.0,0.0
5100000.0,10.0,2.4128951028817244E-8,5100000.0,89.1,77.96680061773814,78.1124497991968,75.83148558758315,5558.0,1112.0,1020000.0,1.0,0.6401703177996751,0.0,2.0,3.0
5200000.0,10.1875,2.4537180757357028E-8,5200000.0,90.5,80.98935403826142,81.22529644268775,80.53278688524591,25558.0,1112.0,1040000.0,1.0,0.566798336012353,0.0,0.0,0.0
5300000.0,10.375,2.4990812461409318E-8,5300000.0,87.9,75.51360714921725,75.45638945233266,73.52297592997812,45558.0,1112.0,1060000.0,1.0,0.5066427921929847,0.0,0.0,9.0
5400000.0,10.5625,2.5444444165461608E-8,5400000.0,87.9,75.63686444431916,76.81992337164752,74.2004264392324,65558.0,1112.0,1080000.0,1.0,0.5454159460726548,0.0,0.0,0.0
5500000.0,10.765625,2.5935878511518256E-8,5500000.0,87.3,74.36477113998046,74.02862985685071,72.57019438444924,85558.0,1112.0,1100000.0,1.0,0.9574999719992179,0.0,0.0,0.0
5600000.0,10.9375,2.635170757356619E-8,5600000.0,87.3,74.41950402036771,74.49799196787149,73.09322033898304,105558.0,1112.0,1120000.0,1.0,0.6400221475098563,0.0,0.0,29.0
5700000.0,11.125,2.6796802154017835E-8,5700000.0,89.8,79.11889944317065,78.38983050847457,76.16822429906543,125558.0,1112.0,1140000.0,1.0,0.704092119842446,0.0,0.0,37.0
5800000.0,11.328125,2.727898794950712E-8,5800000.0,88.0,75.74934523232128,75.0,74.02597402597402,145558.0,1112.0,1160000.0,1.0,0.94957330719253,0.0,0.0,0.0
5900000.0,11.515625,2.773261965355941E-8,5900000.0,88.3,76.15184548026515,76.87747035573122,73.52941176470587,165558.0,1112.0,1180000.0,1.0,0.6463043067895005,0.0,0.0,9.0
6000000.0,11.71875,2.8224053999616058E-8,6000000.0,89.1,77.8507506360289,78.15631262525051,75.56053811659193,185558.0,1112.0,1200000.0,1.0,0.8708574312954643,0.0,0.0,9.0
6100000.0,11.90625,2.867768570366835E-8,6100000.0,88.4,76.62864119725829,78.27715355805242,74.83731019522777,205558.0,1112.0,1220000.0,1.0,0.5101526655404344,0.0,0.0,18.0
6200000.0,12.09375,2.913131740772064E-8,6200000.0,89.7,79.27982297324482,78.31578947368422,78.13163481953292,225558.0,1112.0,1240000.0,1.0,0.7287368374893499,0.0,0.0,22.0
6300000.0,12.28125,2.958494911177293E-8,6300000.0,89.9,79.60469455505925,79.71887550200803,78.13852813852814,245558.0,1112.0,1260000.0,1.0,0.8962024859726051,0.0,0.0,0.0
6400000.0,12.46875,3.0038580815825216E-8,6400000.0,88.7,77.25754123831682,76.50727650727652,76.00849256900213,265558.0,1112.0,1280000.0,1.0,0.5343381337435477,0.0,0.0,0.0
6500000.0,12.65625,3.0492212519877503E-8,6500000.0,88.5,76.71989376174128,76.86116700201208,74.61368653421634,285558.0,1112.0,1300000.0,1.0,0.5962786644900576,0.0,0.0,0.0
6600000.0,12.859375,3.098364686593415E-8,6600000.0,89.1,77.86586306888793,78.66927592954991,75.7238307349666,305558.0,1112.0,1320000.0,1.0,0.5632285307707173,0.0,0.0,0.0
6700000.0,13.046875,3.143727856998644E-8,6700000.0,88.5,76.89519661183127,77.88461538461539,75.99164926931107,325558.0,1112.0,1340000.0,1.0,0.526806760583985,0.0,0.0,0.0
6800000.0,13.234375,3.1890910274038725E-8,6800000.0,88.0,75.75757575757575,74.63002114164905,73.33333333333333,345558.0,1112.0,1360000.0,1.0,0.5760563820745304,0.0,0.0,0.0
6900000.0,13.4375,3.238234462009537E-8,6900000.0,89.1,77.92306695184394,77.47933884297521,75.83148558758315,365558.0,1112.0,1380000.0,1.0,0.8456306767440213,0.0,0.0,0.0
7000000.0,13.625,3.283597632414766E-8,7000000.0,87.9,74.96171832967761,73.63834422657952,70.27027027027027,385558.0,1112.0,1400000.0,1.0,0.6715489827052807,0.0,0.0,0.0
7100000.0,13.8125,3.328960802819995E-8,7100000.0,89.2,78.30976863753213,79.46768060836501,77.21518987341773,405558.0,1112.0,1420000.0,1.0,0.5367753278878714,0.0,0.0,0.0
7200000.0,14.0,3.3743239732252234E-8,7200000.0,89.3,78.21661237785017,78.11860940695297,75.95505617977528,425558.0,1112.0,1440000.0,1.0,0.5542862976375842,0.0,0.0,0.0
7300000.0,14.1875,3.419687143630452E-8,7300000.0,87.5,74.85658194340517,73.29059829059828,73.34754797441364,445558.0,1112.0,1460000.0,1.0,0.709842853580429,0.0,0.0,0.0
7400000.0,14.375,3.465050314035681E-8,7400000.0,87.6,74.58516429461534,74.94949494949495,71.02803738317758,465558.0,1112.0,1480000.0,1.0,0.6307619684223035,0.0,0.0,0.0
7500000.0,14.578125,3.5141937486413455E-8,7500000.0,87.7,74.74747474747475,75.64356435643565,70.99056603773585,485558.0,1112.0,1500000.0,1.0,0.6663860996424227,0.0,0.0,0.0
7600000.0,14.765625,3.559556919046574E-8,7600000.0,87.3,74.63652340629493,75.0,74.90118577075098,505558.0,1112.0,1520000.0,1.0,0.6224113532839598,0.0,0.0,0.0
7700000.0,14.953125,3.604920089451803E-8,7700000.0,89.3,78.39693115283667,79.92495309568481,76.37969094922738,525558.0,1112.0,1540000.0,1.0,0.5852898860619001,0.0,0.0,0.0
7800000.0,15.140625,3.6502832598570317E-8,7800000.0,89.60000000000001,78.42135621776171,78.6008230452675,74.44717444717446,545558.0,1112.0,1560000.0,1.0,0.6953943941289442,0.0,0.0,0.0
7900000.0,15.328125,3.6956464302622604E-8,7900000.0,88.7,77.23169670202135,76.55601659751038,75.80299785867238,565558.0,1112.0,1580000.0,1.0,0.54705814373013,0.0,0.0,0.0
8000000.0,15.53125,3.744789864867925E-8,8000000.0,89.0,77.88971389289777,78.9272030651341,76.64543524416136,585558.0,1112.0,1600000.0,1.0,0.900110945263752,0.0,0.0,0.0
8100000.0,15.71875,3.790153035273154E-8,8100000.0,87.8,75.38605559523377,74.47698744769873,73.42047930283225,605557.0,1112.0,1619999.0,1.0,0.9436449875227745,0.0,0.0,0.0
8200000.0,15.921875,3.8392964698788186E-8,8200000.0,86.9,73.5678197284951,74.21259842519686,71.76724137931035,625558.0,1112.0,1640000.0,1.0,0.6778035348569234,0.0,0.0,0.0
8300000.0,16.109375,3.884659640284047E-8,8300000.0,88.4,76.53977923123283,77.56286266924565,74.39293598233996,645558.0,1112.0,1660000.0,1.0,0.6229748945980228,0.0,0.0,0.0
8400000.0,16.296875,3.930022810689276E-8,8400000.0,89.7,79.10869159560919,79.44111776447106,77.51091703056768,665558.0,1112.0,1680000.0,1.0,0.5248225282834469,0.0,0.0,0.0
8500000.0,16.5,3.979166245294941E-8,8500000.0,88.6,76.72063123846242,75.8985200845666,73.73271889400922,685558.0,1112.0,1700000.0,1.0,0.8519136459667898,0.0,0.0,0.0
8600000.0,16.6875,4.0245294157001694E-8,8600000.0,87.1,73.94571013087736,73.99193548387096,71.95652173913044,705558.0,1112.0,1720000.0,1.0,0.5092763591080146,0.0,0.0,0.0
8700000.0,16.875,4.069892586105398E-8,8700000.0,88.5,76.27594174196477,76.72064777327935,73.25581395348838,725558.0,1112.0,1740000.0,1.0,0.7157902072283612,0.0,0.0,0.0
8800000.0,17.0625,4.115255756510627E-8,8800000.0,89.60000000000001,78.97588291184022,79.2,77.34204793028323,745558.0,1112.0,1760000.0,1.0,0.7363534385705133,0.0,0.0,0.0
8900000.0,17.265625,4.1643991911162916E-8,8900000.0,89.1,77.99935410947843,78.83495145631069,76.30434782608695,765558.0,1112.0,1780000.0,1.0,0.5074056394570758,0.0,0.0,0.0
9000000.0,17.453125,4.20976236152152E-8,9000000.0,88.6,77.01288488294719,77.99227799227799,75.377969762419,785558.0,1112.0,1800000.0,1.0,0.9420119170745946,0.0,0.0,0.0
9100000.0,17.640625,4.255125531926749E-8,9100000.0,87.6,74.98052920216136,75.0503018108652,72.86652078774617,805558.0,1112.0,1820000.0,1.0,0.5408365668357228,0.0,0.0,0.0
9200000.0,17.828125,4.300488702331978E-8,9200000.0,87.4,74.5578929089213,74.74949899799599,72.66811279826464,825558.0,1112.0,1840000.0,1.0,0.5692531834957517,0.0,0.0,0.0
9300000.0,18.015625,4.3458518727372064E-8,9300000.0,87.1,73.87839074687554,74.50592885375494,70.8803611738149,845558.0,1112.0,1860000.0,1.0,0.539978006667141,0.0,0.0,0.0
9400000.0,18.203125,4.391215043142435E-8,9400000.0,88.8,77.28452751817237,77.41935483870968,74.77477477477478,865558.0,1112.0,1880000.0,1.0,0.5550604783231162,0.0,0.0,0.0
9500000.0,18.40625,4.4403584777481E-8,9500000.0,89.7,79.21375524701324,79.23387096774194,77.8494623655914,885558.0,1112.0,1900000.0,1.0,0.8185508888138316,0.0,0.0,0.0
9600000.0,18.59375,4.4857216481533286E-8,9600000.0,87.9,75.66097549201037,75.50607287449392,74.73903966597078,905558.0,1112.0,1920000.0,1.0,0.7552410356130513,0.0,0.0,0.0
9700000.0,18.78125,4.531084818558557E-8,9700000.0,89.60000000000001,78.71364946292901,79.92277992277992,75.92592592592592,925558.0,1112.0,1940000.0,1.0,0.5186867611057009,0.0,0.0,0.0
9800000.0,18.984375,4.580228253164222E-8,9800000.0,89.9,79.61720711339291,80.11811023622047,78.13852813852814,945558.0,1112.0,1960000.0,1.0,0.76637022426085,0.0,0.0,0.0
9900000.0,19.171875,4.625591423569451E-8,9900000.0,90.10000000000001,80.11984320781391,81.28544423440455,79.33194154488518,965558.0,1112.0,1980000.0,1.0,0.6895361315924161,0.0,0.0,0.0
1.0E7,19.359375,4.6709545939746795E-8,1.0E7,89.1,77.94165263566896,77.6639344262295,75.88495575221239,985558.0,1112.0,2000000.0,1.0,0.5296742677553437,0.0,0.0,0.0
