learning evaluation instances,evaluation time (cpu seconds),model cost (RAM-Hours),classified instances,classifications correct (percent),Kappa Statistic (percent),Kappa Temporal Statistic (percent),Kappa M Statistic (percent),model training instances,model serialized size (bytes),labeling cost,newThreshold,maxPosterior,accuracyBaseLearner (percent),Change detected,Warning detected
100000.0,0.203125,4.866419153081046E-9,100000.0,61.4,12.862096366394574,17.69722814498933,6.310679611650491,39800.0,9208.0,0.0,1.0,0.0,?,0.0,83.0
200000.0,0.421875,9.246998363071017E-9,200000.0,62.0,10.613473842679701,18.103448275862064,-2.7027027027027053,79800.0,9208.0,0.0,1.0,0.0,?,0.0,31.0
300000.0,0.625,1.2515940599971347E-8,300000.0,61.9,12.122078808735214,13.605442176870735,1.5503875968992262,119800.0,9208.0,0.0,1.0,0.0,?,0.0,0.0
400000.0,0.8125,1.4796128703488244E-8,400000.0,60.6,8.123813654573505,18.762886597938138,-3.412073490813651,159800.0,9208.0,0.0,1.0,0.0,?,0.0,0.0
500000.0,1.0,1.6339019768767888E-8,500000.0,61.8,11.608857625471444,20.083682008368196,-0.2624671916010501,199800.0,9208.0,0.0,1.0,0.0,?,0.0,0.0
600000.0,1.1875,2.0831098986996547E-8,600000.0,61.5,9.778594327065482,20.45454545454545,-3.7735849056603805,239600.0,9208.0,0.0,1.0,0.0,?,0.0,0.0
700000.0,1.390625,2.4898779681987237E-8,700000.0,64.5,13.672353753671976,23.982869379014986,2.203856749311297,279600.0,9208.0,0.0,1.0,0.0,?,0.0,0.0
800000.0,1.578125,2.791626482374139E-8,800000.0,61.0,11.179535765040269,15.766738660907118,0.5102040816326534,319600.0,9208.0,0.0,1.0,0.0,?,0.0,0.0
900000.0,1.765625,3.019645292725828E-8,900000.0,63.2,11.41921817831695,22.851153039832283,-2.2222222222222245,359600.0,9208.0,0.0,1.0,0.0,?,0.0,0.0
1000000.0,1.96875,3.186791824797789E-8,1000000.0,62.3,13.265540882528882,19.787234042553187,3.333333333333336,399600.0,9208.0,0.0,1.0,0.0,?,0.0,0.0
1100000.0,2.15625,3.632080430785815E-8,1100000.0,61.5,8.803213916866449,16.846652267818566,-1.8518518518518534,439400.0,9208.0,0.0,1.0,0.0,?,0.0,43.0
1200000.0,2.375,4.070998531662756E-8,1200000.0,60.3,8.508480825958692,15.711252653927804,-2.3195876288659814,479400.0,9208.0,0.0,1.0,0.0,?,0.0,35.0
1300000.0,2.578125,4.398691493810879E-8,1300000.0,60.099999999999994,8.602790936328885,14.377682403433468,-0.2512562814070354,519400.0,9208.0,0.0,1.0,0.0,?,0.0,0.0
1400000.0,2.796875,4.665573619099127E-8,1400000.0,58.4,9.30456660227872,14.403292181069949,3.030303030303033,559400.0,9208.0,0.0,1.0,0.0,?,0.0,0.0
1500000.0,3.015625,4.846437756593029E-8,1500000.0,64.2,14.641590050738165,25.10460251046025,1.1049723756906087,599400.0,9208.0,0.0,1.0,0.0,?,0.0,0.0
1600000.0,3.203125,5.2963829754541316E-8,1600000.0,60.5,9.179534815278064,18.55670103092783,0.7537688442211062,639200.0,9208.0,0.0,1.0,0.0,?,0.0,3.0
1700000.0,3.421875,5.735301076331072E-8,1700000.0,61.0,7.291191236878144,13.716814159292024,-6.557377049180333,679200.0,9208.0,0.0,1.0,0.0,?,0.0,0.0
1800000.0,3.640625,6.088201189413666E-8,1800000.0,60.8,5.0810685159715385,17.124735729386884,-10.734463276836168,719200.0,9208.0,0.0,1.0,0.0,?,0.0,0.0
1900000.0,3.859375,6.355083314701914E-8,1900000.0,60.8,8.955778520995898,18.16283924843423,-1.0309278350515472,759200.0,9208.0,0.0,1.0,0.0,?,0.0,0.0
2000000.0,4.078125,6.535947452195816E-8,2000000.0,61.6,12.44510718634144,13.90134529147981,2.2900763358778646,799200.0,9208.0,0.0,1.0,0.0,?,0.0,0.0
2100000.0,4.296875,7.061743720745047E-8,2100000.0,62.2,13.180488118589032,19.230769230769226,0.2638522427440636,839000.0,9208.0,0.0,1.0,0.0,?,0.0,0.0
2200000.0,4.5,7.4684697513779E-8,2200000.0,62.3,8.498699079647377,19.787234042553187,-5.013927576601676,879000.0,9208.0,0.0,1.0,0.0,?,0.0,39.0
2300000.0,4.703125,7.795321936201718E-8,2300000.0,60.099999999999994,6.827946945637945,15.999999999999993,-5.000000000000004,919000.0,9208.0,0.0,1.0,0.0,?,0.0,0.0
2400000.0,4.90625,8.0423002752165E-8,2400000.0,62.4,11.317826532008127,20.507399577167014,0.2652519893899207,959000.0,9208.0,0.0,1.0,0.0,?,0.0,0.0
2500000.0,5.09375,8.196550576637189E-8,2500000.0,63.1,12.046527148782006,19.256017505470453,-1.0958904109589052,999000.0,9208.0,0.0,1.0,0.0,?,0.0,0.0
2600000.0,5.296875,8.683150453079078E-8,2600000.0,62.4,11.395984541427081,16.81415929203539,0.5291005291005296,1038800.0,9208.0,0.0,1.0,0.0,?,0.0,0.0
2700000.0,5.5,9.089876483711932E-8,2700000.0,61.7,10.41941489610524,18.510638297872333,-0.2617801047120421,1078800.0,9208.0,0.0,1.0,0.0,?,0.0,0.0
2800000.0,5.703125,9.41672866853575E-8,2800000.0,64.60000000000001,16.531482249971695,25.0,5.851063829787239,1118800.0,9208.0,0.0,1.0,0.0,?,0.0,0.0
2900000.0,5.90625,9.663707007550532E-8,2900000.0,60.4,11.641854985541395,20.48192771084337,5.263157894736846,1158800.0,9208.0,0.0,1.0,0.0,?,0.0,0.0
3000000.0,6.109375,9.830811500756278E-8,3000000.0,61.0,11.201781428877174,16.666666666666657,2.2556390977443628,1198800.0,9208.0,0.0,1.0,0.0,?,0.0,0.0
3100000.0,6.3125,1.0318210115656258E-7,3100000.0,64.5,16.319372418865143,24.78813559322034,3.532608695652177,1238600.0,9208.0,0.0,1.0,0.0,?,0.0,0.0
3200000.0,6.5,1.0694386825586359E-7,3200000.0,62.6,14.474797506505855,21.097046413502106,4.834605597964381,1278600.0,9208.0,0.0,1.0,0.0,?,0.0,0.0
3300000.0,6.703125,1.1022037748868267E-7,3300000.0,61.5,10.672853828306273,17.55888650963597,0.0,1318600.0,9208.0,0.0,1.0,0.0,?,0.0,0.0
3400000.0,6.890625,1.1250755051150918E-7,3400000.0,60.099999999999994,8.125483550086575,16.352201257861626,-2.5706940874036013,1358600.0,9208.0,0.0,1.0,0.0,?,0.0,0.0
3500000.0,7.09375,1.1418658282814755E-7,3500000.0,62.1,12.011069425355672,18.843683083511774,2.5706940874036013,1398600.0,9208.0,0.0,1.0,0.0,?,0.0,0.0
3600000.0,7.296875,1.1906056897714735E-7,3600000.0,58.8,2.410369135147418,10.434782608695638,-10.75268817204302,1438400.0,9208.0,0.0,1.0,0.0,?,0.0,0.0
3700000.0,7.5,1.2313581666805678E-7,3700000.0,60.0,7.352505188259707,16.492693110647174,-2.0408163265306136,1478400.0,9208.0,0.0,1.0,0.0,?,0.0,0.0
3800000.0,7.671875,1.2590824755736524E-7,3800000.0,58.3,6.60526952330612,16.265060240963848,-1.9559902200489014,1518400.0,9208.0,0.0,1.0,0.0,?,0.0,0.0
3900000.0,7.859375,1.2819542058019177E-7,3900000.0,62.7,13.053613053613065,16.92650334075723,0.5333333333333339,1558400.0,9208.0,0.0,1.0,0.0,?,0.0,0.0
4000000.0,8.0625,1.2987445289683013E-7,4000000.0,60.4,9.109688080975005,16.455696202531637,-1.278772378516625,1598400.0,9208.0,0.0,1.0,0.0,?,0.0,0.0
4100000.0,8.265625,1.3475642643041082E-7,4100000.0,63.9,16.079299250525377,24.31865828092243,5.989583333333338,1638200.0,9208.0,0.0,1.0,0.0,?,0.0,0.0
4200000.0,8.453125,1.3852556650009423E-7,4200000.0,63.1,14.431211041852174,24.539877300613497,4.896907216494849,1678200.0,9208.0,0.0,1.0,0.0,?,0.0,0.0
4300000.0,8.65625,1.418100631174942E-7,4300000.0,59.4,10.966474272381173,15.240083507306881,3.7914691943127994,1718200.0,9208.0,0.0,1.0,0.0,?,0.0,0.0
4400000.0,8.859375,1.4429582127680383E-7,4400000.0,61.7,10.02208335291078,18.683651804670905,-0.2617801047120421,1758200.0,9208.0,0.0,1.0,0.0,?,0.0,0.0
4500000.0,9.0625,1.459828409780231E-7,4500000.0,64.1,14.45211224645418,20.750551876379685,-0.842696629213484,1798200.0,9208.0,0.0,1.0,0.0,?,0.0,0.0
4600000.0,9.25,1.5048927808594374E-7,4600000.0,61.5,10.3692322018904,17.55888650963597,-4.054054054054058,1838000.0,9208.0,0.0,1.0,0.0,?,0.0,0.0
4700000.0,9.453125,1.5457251316143407E-7,4700000.0,60.9,8.230611076166243,14.065934065934055,-3.4391534391534426,1878000.0,9208.0,0.0,1.0,0.0,?,0.0,0.0
4800000.0,9.65625,1.5785700977883405E-7,4800000.0,63.5,13.740133289218692,24.273858921161825,3.4391534391534426,1918000.0,9208.0,0.0,1.0,0.0,?,0.0,0.0
4900000.0,9.859375,1.6034276793814367E-7,4900000.0,64.5,14.876270861308265,26.348547717842326,2.472527472527475,1958000.0,9208.0,0.0,1.0,0.0,?,0.0,0.0
5000000.0,10.0625,1.6215127996272511E-7,5000000.0,62.8,11.447546954224087,20.34261241970021,-0.8130081300813016,1998000.0,9208.0,0.0,1.0,0.0,?,0.0,0.0
5100000.0,10.25,1.6679237079289224E-7,5100000.0,57.99999999999999,-1.3357010500309068,9.677419354838696,-14.130434782608708,2037800.0,9208.0,0.0,1.0,0.0,?,0.0,9.0
5200000.0,10.46875,1.713237078446481E-7,5200000.0,63.7,14.207924068104266,25.918367346938776,2.156334231805932,17603.0,9208.0,0.0,1.0,0.0,?,3.0,26.0
5300000.0,10.65625,1.7447041399363015E-7,5300000.0,64.60000000000001,18.738751974143323,28.62903225806452,9.693877551020416,57603.0,9208.0,0.0,1.0,0.0,?,0.0,0.0
5400000.0,10.859375,1.771020470187068E-7,5400000.0,65.2,19.274022937312115,23.516483516483515,8.900523560209432,97603.0,9208.0,0.0,1.0,0.0,?,0.0,116.0
5500000.0,11.0625,1.789349415856931E-7,5500000.0,64.4,14.587332053742818,24.093816631130064,3.7837837837837873,137603.0,9208.0,0.0,1.0,0.0,?,0.0,26.0
5600000.0,11.265625,1.8396278998504084E-7,5600000.0,64.4,16.185991759858737,25.678496868475992,5.066666666666672,177403.0,9208.0,0.0,1.0,0.0,?,0.0,97.0
5700000.0,11.484375,1.8850001247806684E-7,5700000.0,66.10000000000001,19.32413136601617,22.602739726027394,5.833333333333339,217403.0,9208.0,0.0,1.0,0.0,?,0.0,142.0
5800000.0,11.671875,1.9165176329099472E-7,5800000.0,64.60000000000001,14.583534407875698,24.680851063829788,2.2099447513812174,257403.0,9208.0,0.0,1.0,0.0,?,0.0,0.0
5900000.0,11.859375,1.9406621706568535E-7,5900000.0,65.7,16.468594139650854,23.2662192393736,2.8328611898017027,297403.0,9208.0,0.0,1.0,0.0,?,0.0,0.0
6000000.0,12.0625,1.9588313686350983E-7,6000000.0,65.10000000000001,18.90887123007575,28.189300411522638,8.63874345549739,337403.0,9208.0,0.0,1.0,0.0,?,0.0,0.0
6100000.0,12.234375,2.0013071156831254E-7,6100000.0,65.3,19.69079800037031,26.79324894514768,8.684210526315796,377203.0,9208.0,0.0,1.0,0.0,?,0.0,0.0
6200000.0,12.4375,2.04351834124989E-7,6200000.0,65.0,20.005119672340978,27.685950413223143,9.32642487046633,417203.0,9208.0,0.0,1.0,0.0,?,0.0,0.0
6300000.0,12.640625,2.0777421822357513E-7,6300000.0,64.5,16.442276912648033,23.326133909287254,5.585106382978728,457203.0,9208.0,0.0,1.0,0.0,?,0.0,0.0
6400000.0,12.828125,2.1019604496864812E-7,6400000.0,64.60000000000001,19.486899563318776,26.70807453416149,10.606060606060614,497203.0,9208.0,0.0,1.0,0.0,?,0.0,0.0
6500000.0,13.03125,2.120209521510535E-7,6500000.0,65.3,20.506922999386056,27.708333333333336,9.162303664921474,537203.0,9208.0,0.0,1.0,0.0,?,0.0,0.0
6600000.0,13.234375,2.1704081316582033E-7,6600000.0,63.6,17.974049152473622,22.881355932203387,8.312342569269529,577003.0,9208.0,0.0,1.0,0.0,?,0.0,0.0
6700000.0,13.421875,2.2093723398736784E-7,6700000.0,64.7,14.063412924083677,27.066115702479344,1.1204481792717098,617003.0,9208.0,0.0,1.0,0.0,?,0.0,0.0
6800000.0,13.625,2.2435961808595396E-7,6800000.0,64.5,17.821030408533662,22.48908296943231,9.2071611253197,657003.0,9208.0,0.0,1.0,0.0,?,0.0,0.0
6900000.0,13.828125,2.2698326372644972E-7,6900000.0,66.0,18.317533381702177,24.444444444444443,5.292479108635102,697003.0,9208.0,0.0,1.0,0.0,?,0.0,0.0
7000000.0,14.03125,2.288081709088551E-7,7000000.0,64.2,19.597177366830028,27.08757637474542,10.275689223057654,737003.0,9208.0,0.0,1.0,0.0,?,0.0,0.0
7100000.0,14.21875,2.3344926173902223E-7,7100000.0,62.8,15.379540956757138,18.599562363238505,7.231920199501253,776803.0,9208.0,0.0,1.0,0.0,?,0.0,0.0
7200000.0,14.421875,2.376783716802796E-7,7200000.0,65.5,20.28945325496285,31.000000000000007,12.87878787878789,816803.0,9208.0,0.0,1.0,0.0,?,0.0,0.0
7300000.0,14.625,2.4107174896117716E-7,7300000.0,68.0,21.07534837834506,25.925925925925945,7.24637681159421,856803.0,9208.0,0.0,1.0,0.0,?,0.0,65.0
7400000.0,14.828125,2.4371935675541565E-7,7400000.0,66.5,20.808275653390822,26.535087719298247,7.967032967032975,896803.0,9208.0,0.0,1.0,0.0,?,0.0,88.0
7500000.0,15.03125,2.455509901564155E-7,7500000.0,64.1,12.600181129429643,22.629310344827584,1.9125683060109306,936803.0,9208.0,0.0,1.0,0.0,?,0.0,55.0
7600000.0,15.234375,2.5057841816710106E-7,7600000.0,65.9,19.01468660346169,30.122950819672134,7.336956521739137,976603.0,9208.0,0.0,1.0,0.0,?,0.0,20.0
7700000.0,15.4375,2.548071077196963E-7,7700000.0,65.4,17.002096536636618,24.618736383442265,4.155124653739616,1016603.0,9208.0,0.0,1.0,0.0,?,0.0,0.0
7800000.0,15.640625,2.5823705881420114E-7,7800000.0,63.3,15.051015684313828,20.9051724137931,4.4270833333333375,1056603.0,9208.0,0.0,1.0,0.0,?,0.0,0.0
7900000.0,15.828125,2.6066587047858374E-7,7900000.0,65.10000000000001,19.652641563297145,26.371308016877638,7.671957671957679,1096603.0,9208.0,0.0,1.0,0.0,?,0.0,0.0
8000000.0,16.03125,2.624983446569079E-7,8000000.0,61.8,10.422421596169265,17.67241379310344,-1.3262599469496033,1136603.0,9208.0,0.0,1.0,0.0,?,0.0,0.0
8100000.0,16.234375,2.6753376005217437E-7,8100000.0,65.5,15.67431219569425,23.50332594235033,1.9886363636363658,1176403.0,9208.0,0.0,1.0,0.0,?,0.0,0.0
8200000.0,16.421875,2.7144453876341385E-7,8200000.0,65.3,19.034196968565666,23.230088495575217,6.720430107526888,1216403.0,9208.0,0.0,1.0,0.0,?,0.0,0.0
8300000.0,16.625,2.748824772424996E-7,8300000.0,64.8,17.098445595854923,25.581395348837212,4.864864864864869,1256403.0,9208.0,0.0,1.0,0.0,?,0.0,0.0
8400000.0,16.828125,2.77521677263495E-7,8400000.0,65.3,17.427350345996075,26.94736842105263,4.143646408839783,1296403.0,9208.0,0.0,1.0,0.0,?,0.0,0.0
8500000.0,17.03125,2.793621388264001E-7,8500000.0,66.0,21.23795404002965,24.107142857142858,10.052910052910063,1336403.0,9208.0,0.0,1.0,0.0,?,0.0,0.0
8600000.0,17.21875,2.8401021457587684E-7,8600000.0,67.9,22.347476897769614,31.991525423728824,10.335195530726267,1376203.0,9208.0,0.0,1.0,0.0,?,0.0,0.0
8700000.0,17.421875,2.8824689151305294E-7,8700000.0,64.2,13.169600628671486,20.267260579064583,0.2785515320334264,1416203.0,9208.0,0.0,1.0,0.0,?,0.0,0.0
8800000.0,17.625,2.916848299921387E-7,8800000.0,64.2,17.469304575151348,24.152542372881356,6.52741514360314,1456203.0,9208.0,0.0,1.0,0.0,?,0.0,0.0
8900000.0,17.8125,2.941210146269037E-7,8900000.0,64.5,17.791342849467846,24.307036247334754,8.031088082901562,1496203.0,9208.0,0.0,1.0,0.0,?,0.0,0.0
9000000.0,18.015625,2.9596147618980877E-7,9000000.0,64.9,19.314054526228677,23.695652173913043,9.067357512953375,1536203.0,9208.0,0.0,1.0,0.0,?,0.0,0.0
9100000.0,18.21875,3.010048789696562E-7,9100000.0,64.0,17.370547190598597,22.077922077922075,5.263157894736847,1576003.0,9208.0,0.0,1.0,0.0,?,0.0,0.0
9200000.0,18.421875,3.052495432914132E-7,9200000.0,67.60000000000001,22.097407093944756,31.501057082452437,8.988764044943828,1616003.0,9208.0,0.0,1.0,0.0,?,0.0,0.0
9300000.0,18.609375,3.084303979347978E-7,9300000.0,63.7,18.299918074848986,25.0,8.793969849246238,1656003.0,9208.0,0.0,1.0,0.0,?,0.0,0.0
9400000.0,18.796875,3.1087395553994515E-7,9400000.0,65.4,16.217891596606083,28.512396694214882,1.7045454545454561,1696003.0,9208.0,0.0,1.0,0.0,?,0.0,0.0
9500000.0,18.984375,3.1258021610685527E-7,9500000.0,66.3,20.37765092806111,29.64509394572025,10.610079575596826,1736003.0,9208.0,0.0,1.0,0.0,?,0.0,0.0
9600000.0,19.171875,3.1723566482671437E-7,9600000.0,64.0,15.274979760134046,22.746781115879827,3.7433155080213933,1775803.0,9208.0,0.0,1.0,0.0,?,0.0,0.0
9700000.0,19.375,3.214803291484714E-7,9700000.0,65.60000000000001,17.967110534549217,22.171945701357462,3.9106145251396685,1815803.0,9208.0,0.0,1.0,0.0,?,0.0,0.0
9800000.0,19.578125,3.2492625501213804E-7,9800000.0,62.3,12.453440092144499,21.45833333333333,0.0,1855803.0,9208.0,0.0,1.0,0.0,?,0.0,0.0
9900000.0,19.78125,3.2757344241771436E-7,9900000.0,67.2,20.433154146208928,29.31034482758621,9.392265193370175,1895803.0,9208.0,0.0,1.0,0.0,?,0.0,0.0
1.0E7,19.96875,3.292797029846245E-7,1.0E7,66.10000000000001,17.453978766923147,27.71855010660981,4.507042253521131,1935803.0,9208.0,0.0,1.0,0.0,?,0.0,0.0
