learning evaluation instances,evaluation time (cpu seconds),model cost (RAM-Hours),classified instances,classifications correct (percent),Kappa Statistic (percent),Kappa Temporal Statistic (percent),Kappa M Statistic (percent),model training instances,model serialized size (bytes),labeling cost,newThreshold,maxPosterior,accuracyBaseLearner (percent),Change detected,Warning detected
100000.0,0.328125,1.4074127345035475E-8,100000.0,74.9,41.740632079325586,46.02150537634408,31.97831978319783,9900.0,2904.0,0.0,1.0,0.0,?,0.0,3.0
200000.0,0.609375,2.5031719511995714E-8,200000.0,73.3,39.62117374629134,45.51020408163265,28.032345013477084,19900.0,2904.0,0.0,1.0,0.0,?,0.0,0.0
300000.0,0.953125,3.7072620923734376E-8,300000.0,72.39999999999999,38.533352337514245,44.242424242424235,29.591836734693878,29900.0,2904.0,0.0,1.0,0.0,?,0.0,0.0
400000.0,1.25,4.630419425666332E-8,400000.0,74.9,43.01929625425653,44.83516483516483,34.120734908136484,39900.0,2904.0,0.0,1.0,0.0,?,0.0,0.0
500000.0,1.546875,5.4368380612383284E-8,500000.0,72.2,36.72758722716617,40.724946695095944,25.067385444743927,49900.0,2904.0,0.0,1.0,0.0,?,0.0,0.0
600000.0,1.828125,6.090219054992E-8,600000.0,74.9,43.314754424159204,47.48953974895397,32.887700534759354,59900.0,2904.0,0.0,1.0,0.0,?,0.0,0.0
700000.0,2.109375,6.633005493010083E-8,700000.0,76.2,44.866567828020756,45.662100456621005,33.88888888888889,69900.0,2904.0,0.0,1.0,0.0,?,0.0,0.0
800000.0,2.40625,7.089208035419384E-8,800000.0,73.2,38.449666525805206,42.97872340425531,25.966850828729278,79900.0,2904.0,0.0,1.0,0.0,?,0.0,0.0
900000.0,2.703125,7.428671880107785E-8,900000.0,73.8,37.79086332985088,41.255605381165914,25.988700564971744,89900.0,2904.0,0.0,1.0,0.0,?,0.0,0.0
1000000.0,2.984375,7.639674650919105E-8,1000000.0,75.9,45.08699495985199,50.513347022587276,36.910994764397905,99900.0,2904.0,0.0,1.0,0.0,?,0.0,0.0
1100000.0,3.265625,8.847134368908073E-8,1100000.0,73.9,41.163210099188454,44.93670886075949,31.31578947368421,109800.0,2904.0,0.0,1.0,0.0,?,0.0,0.0
1200000.0,3.5625,1.0004936484619974E-7,1200000.0,72.8,39.1640423704552,43.801652892561975,29.533678756476682,119800.0,2904.0,0.0,1.0,0.0,?,0.0,0.0
1300000.0,3.84375,1.0991207091137766E-7,1300000.0,76.4,46.089427588507,49.0280777537797,37.400530503978786,129800.0,2904.0,0.0,1.0,0.0,?,0.0,0.0
1400000.0,4.125,1.186688314191997E-7,1400000.0,73.6,41.325770877135284,45.3416149068323,33.50125944584383,139800.0,2904.0,0.0,1.0,0.0,?,0.0,0.0
1500000.0,4.421875,1.2674469164469176E-7,1500000.0,74.3,42.00268999196612,46.34655532359081,32.72251308900523,149800.0,2904.0,0.0,1.0,0.0,?,0.0,0.0
1600000.0,4.703125,1.3328956103780204E-7,1600000.0,73.7,41.52124802106125,44.16135881104034,33.75314861460957,159800.0,2904.0,0.0,1.0,0.0,?,0.0,0.0
1700000.0,5.015625,1.393328097441958E-7,1700000.0,74.9,40.389109494043666,48.14049586776859,29.691876750700274,169800.0,2904.0,0.0,1.0,0.0,?,0.0,0.0
1800000.0,5.328125,1.441472300535275E-7,1800000.0,74.5,43.039671193709786,44.20131291028446,34.78260869565217,179800.0,2904.0,0.0,1.0,0.0,?,0.0,0.0
1900000.0,5.609375,1.4737426277457013E-7,1900000.0,73.1,38.020146908380404,40.222222222222214,25.06963788300835,189800.0,2904.0,0.0,1.0,0.0,?,0.0,0.0
2000000.0,5.890625,1.4949534993825689E-7,2000000.0,74.7,43.70271473075212,48.472505091649694,36.75000000000001,199800.0,2904.0,0.0,1.0,0.0,?,0.0,0.0
2100000.0,6.171875,1.6158100657372013E-7,2100000.0,72.39999999999999,39.420544337137834,39.73799126637554,31.0,209700.0,2904.0,0.0,1.0,0.0,?,0.0,0.0
2200000.0,6.453125,1.725607176518275E-7,2200000.0,72.39999999999999,38.56400028492057,44.8,30.303030303030297,219700.0,2904.0,0.0,1.0,0.0,?,0.0,0.0
2300000.0,6.75,1.8298302570150962E-7,2300000.0,76.9,45.40555870674986,46.52777777777779,33.04347826086956,229700.0,2904.0,0.0,1.0,0.0,?,0.0,0.0
2400000.0,7.046875,1.9223794677398275E-7,2400000.0,74.9,42.29778938463237,45.07658643326039,31.04395604395604,239700.0,2904.0,0.0,1.0,0.0,?,0.0,0.0
2500000.0,7.328125,1.9989982118002248E-7,2500000.0,73.1,36.65997946747289,42.02586206896551,26.502732240437155,249700.0,2904.0,0.0,1.0,0.0,?,0.0,0.0
2600000.0,7.609375,2.0645575002870632E-7,2600000.0,73.2,39.500108358014884,45.08196721311475,27.173913043478255,259700.0,2904.0,0.0,1.0,0.0,?,0.0,0.0
2700000.0,7.890625,2.1190573332003428E-7,2700000.0,73.0,36.211230603489,41.17647058823529,25.414364640883967,269700.0,2904.0,0.0,1.0,0.0,?,0.0,0.0
2800000.0,8.171875,2.1624977105400635E-7,2800000.0,73.4,39.945092656142755,42.54859611231101,30.729166666666664,279700.0,2904.0,0.0,1.0,0.0,?,0.0,0.0
2900000.0,8.46875,2.1966775724043456E-7,2900000.0,75.9,44.88808393476213,49.15611814345991,36.24338624338625,289700.0,2904.0,0.0,1.0,0.0,?,0.0,0.0
3000000.0,8.765625,2.2191835644965378E-7,3000000.0,73.5,39.01933892361078,42.887931034482754,29.708222811671085,299700.0,2904.0,0.0,1.0,0.0,?,0.0,0.0
3100000.0,9.046875,2.3401507254069058E-7,3100000.0,75.3,41.35913847790166,45.35398230088495,30.028328611898015,309600.0,2904.0,0.0,1.0,0.0,?,0.0,0.0
3200000.0,9.3125,2.4439524471138925E-7,3200000.0,73.9,41.13985711192899,42.25663716814159,29.838709677419352,319600.0,2904.0,0.0,1.0,0.0,?,0.0,0.0
3300000.0,9.625,2.553783835739726E-7,3300000.0,74.4,41.8712903211157,45.9915611814346,30.99730458221024,329600.0,2904.0,0.0,1.0,0.0,?,0.0,0.0
3400000.0,9.90625,2.6415726299294176E-7,3400000.0,75.7,44.13125247155982,48.84210526315789,32.686980609418285,339600.0,2904.0,0.0,1.0,0.0,?,0.0,0.0
3500000.0,10.171875,2.714039227511321E-7,3500000.0,73.4,40.07389384518339,40.624999999999986,29.629629629629626,349600.0,2904.0,0.0,1.0,0.0,?,0.0,0.0
3600000.0,10.46875,2.7833574373895933E-7,3600000.0,75.6,42.97253332834733,48.19532908704883,31.843575418994412,359600.0,2904.0,0.0,1.0,0.0,?,0.0,0.0
3700000.0,10.75,2.837967864858608E-7,3700000.0,74.1,39.41237016936464,42.444444444444436,28.05555555555555,369600.0,2904.0,0.0,1.0,0.0,?,0.0,0.0
3800000.0,11.03125,2.8815188367540644E-7,3800000.0,75.4,44.42812930625523,47.99154334038055,35.77023498694517,379600.0,2904.0,0.0,1.0,0.0,?,0.0,0.0
3900000.0,11.328125,2.915815437316067E-7,3900000.0,73.6,40.800538176925656,43.589743589743584,31.428571428571427,389600.0,2904.0,0.0,1.0,0.0,?,0.0,0.0
4000000.0,11.59375,2.9360568280228314E-7,4000000.0,75.2,43.902571433741706,46.086956521739125,35.751295336787564,399600.0,2904.0,0.0,1.0,0.0,?,0.0,0.0
4100000.0,11.890625,3.063861125459274E-7,4100000.0,72.3,37.55635707844905,40.17278617710582,27.105263157894733,409500.0,2904.0,0.0,1.0,0.0,?,0.0,0.0
4200000.0,12.1875,3.179991553123627E-7,4200000.0,75.1,41.27635488892033,47.35729386892177,29.859154929577464,419500.0,2904.0,0.0,1.0,0.0,?,0.0,0.0
4300000.0,12.453125,3.2734526838693356E-7,4300000.0,72.7,39.71859846845495,43.47826086956521,31.407035175879393,429500.0,2904.0,0.0,1.0,0.0,?,0.0,0.0
4400000.0,12.734375,3.361352072614763E-7,4400000.0,73.6,37.24326791419442,45.567010309278345,24.999999999999993,439500.0,2904.0,0.0,1.0,0.0,?,0.0,0.0
4500000.0,13.03125,3.442460890962846E-7,4500000.0,74.5,42.33587206252149,46.65271966527197,32.180851063829785,449500.0,2904.0,0.0,1.0,0.0,?,0.0,0.0
4600000.0,13.328125,3.511895839538839E-7,4600000.0,75.8,44.3012336586264,48.06866952789699,35.294117647058826,459500.0,2904.0,0.0,1.0,0.0,?,0.0,0.0
4700000.0,13.609375,3.56661686156359E-7,4700000.0,73.3,37.638386726085365,39.45578231292516,25.418994413407813,469500.0,2904.0,0.0,1.0,0.0,?,0.0,0.0
4800000.0,13.890625,3.610278428014782E-7,4800000.0,73.2,39.45992834585549,44.28274428274428,28.91246684350132,479500.0,2904.0,0.0,1.0,0.0,?,0.0,0.0
4900000.0,14.1875,3.644691767274506E-7,4900000.0,74.4,40.45071366097846,44.708423326133904,29.2817679558011,489500.0,2904.0,0.0,1.0,0.0,?,0.0,0.0
5000000.0,14.46875,3.667916623978979E-7,5000000.0,74.0,38.97429879122169,44.68085106382978,26.76056338028168,499500.0,2904.0,0.0,1.0,0.0,?,0.0,0.0
5100000.0,14.765625,3.79755801986903E-7,5100000.0,60.6,20.02273465410847,20.24291497975708,13.215859030836993,7636.0,2904.0,0.0,1.0,0.0,?,1.0,22.0
5200000.0,15.0625,3.9155255459869907E-7,5200000.0,64.4,28.485335476094825,27.4949083503055,25.523012552301257,17636.0,2904.0,0.0,1.0,0.0,?,0.0,0.0
5300000.0,15.34375,4.0162247993672893E-7,5300000.0,64.0,27.694581914004758,27.125506072874494,21.052631578947363,27636.0,2904.0,0.0,1.0,0.0,?,0.0,0.0
5400000.0,15.65625,4.1158245747081114E-7,5400000.0,64.1,27.37204127048351,26.584867075664626,20.222222222222218,37636.0,2904.0,0.0,1.0,0.0,?,0.0,0.0
5500000.0,15.953125,4.1987704915098025E-7,5500000.0,67.2,33.62903486903876,33.061224489795926,28.070175438596497,47636.0,2904.0,0.0,1.0,0.0,?,0.0,0.0
5600000.0,16.234375,4.2662913781694247E-7,5600000.0,66.7,32.98504338866261,30.188679245283023,28.23275862068966,57636.0,2904.0,0.0,1.0,0.0,?,0.0,0.0
5700000.0,16.53125,4.325889555426936E-7,5700000.0,66.10000000000001,31.004445023364873,29.521829521829524,23.47629796839729,67636.0,2904.0,0.0,1.0,0.0,?,0.0,0.0
5800000.0,16.828125,4.373813862912357E-7,5800000.0,64.1,27.04734809997968,26.283367556468175,20.222222222222218,77636.0,2904.0,0.0,1.0,0.0,?,0.0,0.0
5900000.0,17.125,4.4100643006256886E-7,5900000.0,64.4,28.442786389657165,30.196078431372552,24.894514767932492,87636.0,2904.0,0.0,1.0,0.0,?,0.0,0.0
6000000.0,17.4375,4.435934372142785E-7,6000000.0,65.4,30.135166241958476,28.952772073921974,24.945770065075923,97636.0,2904.0,0.0,1.0,0.0,?,0.0,0.0
6100000.0,17.75,4.5725218822351764E-7,6100000.0,61.1,21.10045595417742,22.199999999999996,13.169642857142847,107536.0,2904.0,0.0,1.0,0.0,?,0.0,0.0
6200000.0,18.046875,4.690606147050858E-7,6200000.0,63.7,26.53368521606787,22.601279317697227,20.39473684210526,117536.0,2904.0,0.0,1.0,0.0,?,0.0,0.0
6300000.0,18.3125,4.785815447879335E-7,6300000.0,62.1,24.096163551738776,21.694214876033055,21.205821205821202,127536.0,2904.0,0.0,1.0,0.0,?,0.0,0.0
6400000.0,18.59375,4.87556584024181E-7,6400000.0,62.5,24.658249821188903,26.035502958579883,21.71189979123173,137536.0,2904.0,0.0,1.0,0.0,?,0.0,0.0
6500000.0,18.9375,4.971743651872709E-7,6500000.0,62.7,24.684198623719837,25.844930417495032,20.128479657387576,147536.0,2904.0,0.0,1.0,0.0,?,0.0,0.0
6600000.0,19.234375,5.043132437600031E-7,6600000.0,61.8,22.335308158045617,23.599999999999998,13.378684807256224,157536.0,2904.0,0.0,1.0,0.0,?,0.0,0.0
6700000.0,19.53125,5.102847353555263E-7,6700000.0,64.5,28.600160901045857,27.698574338085542,25.263157894736842,167536.0,2904.0,0.0,1.0,0.0,?,0.0,0.0
6800000.0,19.828125,5.150888399738406E-7,6800000.0,63.1,25.5039085212223,26.785714285714285,21.15384615384615,177536.0,2904.0,0.0,1.0,0.0,?,0.0,0.0
6900000.0,20.109375,5.185341514233087E-7,6900000.0,65.3,30.091062938190017,30.87649402390439,25.376344086021508,187536.0,2904.0,0.0,1.0,0.0,?,0.0,0.0
7000000.0,20.46875,5.215233411743411E-7,7000000.0,62.6,24.878178115044854,23.045267489711932,22.56728778467909,197536.0,2904.0,0.0,1.0,0.0,?,0.0,0.0
7100000.0,20.765625,5.345108285028903E-7,7100000.0,63.800000000000004,26.57319962353552,27.744510978043913,20.264317180616736,207436.0,2904.0,0.0,1.0,0.0,?,0.0,0.0
7200000.0,21.078125,5.469530393990379E-7,7200000.0,61.8,22.717120383258337,24.356435643564357,16.593886462882086,217436.0,2904.0,0.0,1.0,0.0,?,0.0,0.0
7300000.0,21.390625,5.581664218981234E-7,7300000.0,62.6,24.744856894497918,20.425531914893615,18.340611353711783,227436.0,2904.0,0.0,1.0,0.0,?,0.0,0.0
7400000.0,21.703125,5.681509760001468E-7,7400000.0,63.800000000000004,26.578858767741735,25.667351129363453,18.2844243792325,237436.0,2904.0,0.0,1.0,0.0,?,0.0,0.0
7500000.0,21.984375,5.76031129134612E-7,7500000.0,65.2,29.6972537484697,30.53892215568863,22.494432071269486,247436.0,2904.0,0.0,1.0,0.0,?,0.0,0.0
7600000.0,22.296875,5.835580264425112E-7,7600000.0,63.2,26.216722338288314,28.265107212475638,22.19873150105708,257436.0,2904.0,0.0,1.0,0.0,?,0.0,0.0
7700000.0,22.59375,5.895411919078066E-7,7700000.0,61.9,23.070710333966,24.554455445544555,18.93617021276595,267436.0,2904.0,0.0,1.0,0.0,?,0.0,0.0
7800000.0,22.890625,5.943569703958929E-7,7800000.0,65.10000000000001,29.83852809675448,28.775510204081634,26.834381551362686,277436.0,2904.0,0.0,1.0,0.0,?,0.0,0.0
7900000.0,23.1875,5.980053619067703E-7,7900000.0,60.8,21.165781122422295,18.840579710144922,17.124735729386884,287436.0,2904.0,0.0,1.0,0.0,?,0.0,0.0
8000000.0,23.515625,6.007475248124037E-7,8000000.0,61.8,22.46960686813744,21.399176954732507,16.043956043956033,297436.0,2904.0,0.0,1.0,0.0,?,0.0,0.0
8100000.0,23.84375,6.151150187684431E-7,8100000.0,63.9,26.737399238556016,26.1758691206544,22.030237580993518,307336.0,2904.0,0.0,1.0,0.0,?,0.0,0.0
8200000.0,24.109375,6.257013430715436E-7,8200000.0,63.3,25.97642540763391,29.42307692307693,22.41014799154334,317336.0,2904.0,0.0,1.0,0.0,?,0.0,0.0
8300000.0,24.421875,6.369270138545997E-7,8300000.0,62.2,24.31371763810745,24.85089463220676,23.79032258064516,327336.0,2904.0,0.0,1.0,0.0,?,0.0,0.0
8400000.0,24.71875,6.464240141212941E-7,8400000.0,64.8,28.610542113695832,28.163265306122454,22.637362637362635,337336.0,2904.0,0.0,1.0,0.0,?,0.0,0.0
8500000.0,25.015625,6.547536274107795E-7,8500000.0,63.800000000000004,26.609224531170806,27.309236947791167,21.81425485961123,347336.0,2904.0,0.0,1.0,0.0,?,0.0,0.0
8600000.0,25.3125,6.619158537230559E-7,8600000.0,63.2,25.467448718364167,28.543689320388353,18.942731277533035,357336.0,2904.0,0.0,1.0,0.0,?,0.0,0.0
8700000.0,25.609375,6.679106930581233E-7,8700000.0,65.10000000000001,29.32876501510624,32.36434108527133,23.127753303964756,367336.0,2904.0,0.0,1.0,0.0,?,0.0,0.0
8800000.0,25.890625,6.724840689760944E-7,8800000.0,62.8,24.7974382611227,21.186440677966097,18.061674008810567,377336.0,2904.0,0.0,1.0,0.0,?,0.0,0.0
8900000.0,26.1875,6.761441343567439E-7,8900000.0,63.0,24.850208185234077,25.403225806451612,17.5946547884187,387336.0,2904.0,0.0,1.0,0.0,?,0.0,0.0
9000000.0,26.484375,6.786368127601843E-7,9000000.0,64.0,26.707710348871295,28.571428571428577,18.552036199095014,397336.0,2904.0,0.0,1.0,0.0,?,0.0,0.0
9100000.0,26.765625,6.909628670352202E-7,9100000.0,63.0,25.80739600001604,28.433268858800776,24.335378323108383,407236.0,2904.0,0.0,1.0,0.0,?,0.0,0.0
9200000.0,27.046875,7.021829757529002E-7,9200000.0,63.4,26.221279718108846,25.760649087221093,20.950323974082067,417236.0,2904.0,0.0,1.0,0.0,?,0.0,0.0
9300000.0,27.359375,7.13420934819927E-7,9300000.0,65.8,30.833916458696525,32.00795228628231,25.813449023861175,427236.0,2904.0,0.0,1.0,0.0,?,0.0,0.0
9400000.0,27.640625,7.224291524228952E-7,9400000.0,64.9,28.820571057754705,28.07377049180328,23.194748358862142,437236.0,2904.0,0.0,1.0,0.0,?,0.0,0.0
9500000.0,27.9375,7.307704395821527E-7,9500000.0,67.2,33.43588536360649,34.92063492063493,23.543123543123563,447236.0,2904.0,0.0,1.0,0.0,?,0.0,0.0
9600000.0,28.234375,7.379443397642011E-7,9600000.0,61.8,23.1261495860484,25.8252427184466,19.916142557651987,457236.0,2904.0,0.0,1.0,0.0,?,0.0,0.0
9700000.0,28.515625,7.436347206951017E-7,9700000.0,66.2,31.81964885101988,30.737704918032794,28.23779193205945,467236.0,2904.0,0.0,1.0,0.0,?,0.0,0.0
9800000.0,28.8125,7.484738469227322E-7,9800000.0,61.4,22.636298407430118,22.489959839357425,19.0775681341719,477236.0,2904.0,0.0,1.0,0.0,?,0.0,0.0
9900000.0,29.09375,7.51952336738921E-7,9900000.0,62.8,25.043523115610284,25.6,20.51282051282051,487236.0,2904.0,0.0,1.0,0.0,?,0.0,0.0
1.0E7,29.375,7.54324880997754E-7,1.0E7,65.5,30.058305018772767,32.08661417322835,23.16258351893096,497236.0,2904.0,0.0,1.0,0.0,?,0.0,0.0
