learning evaluation instances,evaluation time (cpu seconds),model cost (RAM-Hours),classified instances,classifications correct (percent),Kappa Statistic (percent),Kappa Temporal Statistic (percent),Kappa M Statistic (percent),model training instances,model serialized size (bytes),labeling cost,newThreshold,maxPosterior,accuracyBaseLearner (percent),Change detected,Warning detected,tree size (nodes),tree size (leaves),active learning leaves,tree depth,active leaf byte size estimate,inactive leaf byte size estimate,byte size estimate overhead
100000.0,0.375,7.911585271358491E-9,100000.0,94.89999999999999,87.99163652802892,88.13953488372091,84.01253918495296,29400.0,30280.0,0.0,1.0,0.0,?,0.0,0.0,13.0,7.0,7.0,5.0,0.0,0.0,1.0
200000.0,0.765625,1.5199669481565555E-8,200000.0,93.7,85.91889282265852,85.51724137931036,80.73394495412846,12857.0,22480.0,0.0,1.0,0.0,?,1.0,11.0,9.0,5.0,5.0,4.0,0.0,0.0,1.0
300000.0,1.15625,3.163039865386155E-8,300000.0,94.39999999999999,87.43177247917264,87.1853546910755,83.43195266272187,42272.0,114392.0,0.0,1.0,0.0,?,0.0,0.0,33.0,26.0,26.0,6.0,0.0,0.0,1.0
400000.0,1.515625,4.6896909932709404E-8,400000.0,95.1,88.87698398285693,88.60465116279069,85.24096385542167,71687.0,117568.0,0.0,1.0,0.0,?,0.0,0.0,35.0,27.0,27.0,6.0,0.0,0.0,1.0
500000.0,1.84375,6.170649107338654E-8,500000.0,93.89999999999999,85.92615151766843,85.47619047619047,81.055900621118,101087.0,122040.0,0.0,1.0,0.0,?,0.0,0.0,37.0,28.0,28.0,6.0,0.0,0.0,1.0
600000.0,2.171875,7.638432887486287E-8,600000.0,95.3,89.21968897655856,88.96713615023474,85.97014925373134,130502.0,122072.0,0.0,1.0,0.0,?,0.0,0.0,37.0,28.0,28.0,6.0,0.0,0.0,1.0
700000.0,2.515625,9.923963160771463E-8,700000.0,94.0,86.4660025985275,86.07888631090486,82.65895953757224,159917.0,207632.0,0.0,1.0,0.0,?,0.0,0.0,59.0,48.0,48.0,7.0,0.0,0.0,1.0
800000.0,2.890625,1.2447148846048449E-7,800000.0,94.39999999999999,87.38920515961662,87.55555555555554,83.90804597701148,189332.0,212232.0,0.0,1.0,0.0,?,0.0,0.0,71.0,54.0,54.0,7.0,0.0,0.0,1.0
900000.0,3.265625,1.5050428272742364E-7,900000.0,94.89999999999999,88.3697595504798,88.22170900692839,84.63855421686746,218747.0,222040.0,0.0,1.0,0.0,?,0.0,0.0,71.0,54.0,54.0,7.0,0.0,0.0,1.0
1000000.0,3.640625,1.7753281604705586E-7,1000000.0,94.8,87.82879800017788,87.76470588235293,83.69905956112851,248147.0,226504.0,0.0,1.0,0.0,?,0.0,0.0,77.0,57.0,57.0,7.0,0.0,0.0,1.0
1100000.0,4.0,2.0362407667562366E-7,1100000.0,94.5,86.90725576080746,87.08920187793426,82.53968253968253,277562.0,230096.0,0.0,1.0,0.0,?,0.0,0.0,79.0,58.0,58.0,7.0,0.0,0.0,1.0
1200000.0,4.375,2.3112603230401874E-7,1200000.0,95.6,90.09151833969878,90.51724137931033,87.35632183908045,306977.0,234504.0,0.0,1.0,0.0,?,0.0,0.0,81.0,59.0,59.0,7.0,0.0,0.0,1.0
1300000.0,4.734375,2.574939733474619E-7,1300000.0,95.5,89.64279138280243,89.97772828507794,86.44578313253011,336392.0,236200.0,0.0,1.0,0.0,?,0.0,0.0,85.0,61.0,61.0,7.0,0.0,0.0,1.0
1400000.0,5.109375,2.8597769818993076E-7,1400000.0,95.1,88.6075125317362,89.27789934354485,85.01529051987767,365792.0,240400.0,0.0,1.0,0.0,?,0.0,0.0,89.0,63.0,63.0,7.0,0.0,0.0,1.0
1500000.0,5.484375,3.151987200706369E-7,1500000.0,93.60000000000001,85.01753416704514,83.79746835443039,79.81072555205049,395207.0,249544.0,0.0,1.0,0.0,?,0.0,0.0,91.0,64.0,64.0,7.0,0.0,0.0,1.0
1600000.0,5.859375,3.450670111407008E-7,1600000.0,94.69999999999999,87.81261784968588,88.27433628318583,84.31952662721892,424622.0,257744.0,0.0,1.0,0.0,?,0.0,0.0,97.0,67.0,67.0,8.0,0.0,0.0,1.0
1700000.0,6.234375,3.76666786097404E-7,1700000.0,95.1,88.0906085942057,88.44339622641509,83.38983050847456,454037.0,277088.0,0.0,1.0,0.0,?,0.0,0.0,99.0,68.0,68.0,8.0,0.0,0.0,1.0
1800000.0,6.59375,4.06946184941464E-7,1800000.0,94.6,87.70665343234788,87.52886836027713,84.16422287390027,483452.0,278616.0,0.0,1.0,0.0,?,0.0,0.0,103.0,70.0,70.0,8.0,0.0,0.0,1.0
1900000.0,6.96875,4.3995225698583655E-7,1900000.0,94.8,88.53696388261851,88.64628820960696,85.63535911602209,512852.0,287352.0,0.0,1.0,0.0,?,0.0,0.0,105.0,71.0,71.0,8.0,0.0,0.0,1.0
2000000.0,7.359375,4.7430771196054084E-7,2000000.0,95.1,88.37805016887404,88.22115384615384,84.49367088607593,542267.0,288672.0,0.0,1.0,0.0,?,0.0,0.0,107.0,72.0,72.0,8.0,0.0,0.0,1.0
2100000.0,7.734375,5.072408304032352E-7,2100000.0,94.3,86.77236398741285,86.74418604651162,82.67477203647414,571682.0,289760.0,0.0,1.0,0.0,?,0.0,0.0,107.0,72.0,72.0,8.0,0.0,0.0,1.0
2200000.0,8.109375,5.400482202983565E-7,2200000.0,95.6,89.56737813986352,89.59810874704492,85.85209003215432,601097.0,290040.0,0.0,1.0,0.0,?,0.0,0.0,109.0,73.0,73.0,8.0,0.0,0.0,1.0
2300000.0,8.484375,5.735913550274239E-7,2300000.0,94.39999999999999,87.44979919678714,87.52783964365256,83.33333333333331,630512.0,299144.0,0.0,1.0,0.0,?,0.0,0.0,117.0,77.0,77.0,8.0,0.0,0.0,1.0
2400000.0,8.890625,6.127194501459598E-7,2400000.0,94.69999999999999,87.69010656186997,87.8440366972477,83.48909657320871,659912.0,303120.0,0.0,1.0,0.0,?,0.0,1.0,119.0,78.0,78.0,8.0,0.0,0.0,1.0
2500000.0,9.3125,6.537052104249595E-7,2500000.0,94.39999999999999,87.25819002589317,87.38738738738738,83.08157099697884,689327.0,307904.0,0.0,1.0,0.0,?,0.0,0.0,123.0,80.0,80.0,8.0,0.0,0.0,1.0
2600000.0,9.734375,6.933682016097008E-7,2600000.0,95.39999999999999,89.41277739674004,89.91228070175438,85.66978193146416,718742.0,309368.0,0.0,1.0,0.0,?,0.0,5.0,123.0,80.0,80.0,8.0,0.0,0.0,1.0
2700000.0,10.125,7.298361096117231E-7,2700000.0,94.8,87.86628647697626,86.73469387755101,83.2797427652733,748157.0,309120.0,0.0,1.0,0.0,?,0.0,3.0,125.0,81.0,81.0,8.0,0.0,0.0,1.0
2800000.0,10.484375,7.639369707451098E-7,2800000.0,94.8,87.71318800240064,87.79342723004694,82.6086956521739,777557.0,309280.0,0.0,1.0,0.0,?,0.0,0.0,125.0,81.0,81.0,8.0,0.0,0.0,1.0
2900000.0,10.859375,7.994094954079223E-7,2900000.0,94.39999999999999,87.45542194584326,87.71929824561401,83.8150289017341,806972.0,309720.0,0.0,1.0,0.0,?,0.0,0.0,125.0,81.0,81.0,8.0,0.0,0.0,1.0
3000000.0,11.25,8.442568812622792E-7,3000000.0,93.8,85.80975922365649,86.86440677966101,81.43712574850298,836387.0,389352.0,0.0,1.0,0.0,?,0.0,0.0,145.0,100.0,100.0,8.0,0.0,0.0,1.0
3100000.0,11.609375,8.855953152912359E-7,3100000.0,95.19999999999999,88.74005958385136,88.73239436619717,84.56591639871381,865802.0,391784.0,0.0,1.0,0.0,?,0.0,0.0,145.0,100.0,100.0,8.0,0.0,0.0,1.0
3200000.0,11.984375,9.289025911130012E-7,3200000.0,95.19999999999999,88.99001761597181,88.83720930232558,85.27607361963189,895217.0,395112.0,0.0,1.0,0.0,?,0.0,0.0,147.0,101.0,101.0,8.0,0.0,0.0,1.0
3300000.0,12.375,9.757039758066337E-7,3300000.0,94.1,86.14932436873784,86.80089485458612,81.21019108280252,924617.0,406016.0,0.0,1.0,0.0,?,0.0,0.0,149.0,102.0,102.0,8.0,0.0,0.0,1.0
3400000.0,12.765625,1.0231795992391805E-6,3400000.0,95.5,89.68542849022178,89.95535714285712,85.98130841121494,954032.0,414232.0,0.0,1.0,0.0,?,0.0,0.0,151.0,103.0,103.0,8.0,0.0,0.0,1.0
3500000.0,13.15625,1.07112330927824E-6,3500000.0,94.19999999999999,87.27149033291636,87.16814159292035,83.18840579710142,983447.0,420424.0,0.0,1.0,0.0,?,0.0,0.0,153.0,104.0,104.0,8.0,0.0,0.0,1.0
3600000.0,13.5625,1.1208275423592164E-6,3600000.0,95.8,89.65680286851332,89.83050847457626,85.7142857142857,1012862.0,420512.0,0.0,1.0,0.0,?,0.0,0.0,153.0,104.0,104.0,8.0,3982.076923076923,0.0,1.0153765912647053
3700000.0,13.953125,1.1688286516194542E-6,3700000.0,94.19999999999999,86.3447801745043,86.90744920993227,80.85808580858085,1042277.0,424128.0,0.0,1.0,0.0,?,0.0,0.0,157.0,106.0,106.0,8.0,3982.076923076923,0.0,1.0153765912647053
3800000.0,14.328125,1.216013333760202E-6,3800000.0,95.0,88.95432835689006,88.31775700934578,85.83569405099148,1071677.0,429728.0,0.0,1.0,0.0,?,0.0,0.0,157.0,106.0,106.0,8.0,3982.076923076923,0.0,1.0153765912647053
3900000.0,14.71875,1.2650193336109321E-6,3900000.0,95.7,90.29844684902577,90.35874439461882,87.125748502994,1101092.0,429880.0,0.0,1.0,0.0,?,0.0,0.0,157.0,106.0,106.0,8.0,3982.076923076923,0.0,1.0153765912647053
4000000.0,15.09375,1.3133743777871133E-6,4000000.0,94.6,87.67399075092787,87.83783783783782,83.58662613981761,1130507.0,444896.0,0.0,1.0,0.0,?,0.0,0.0,157.0,106.0,106.0,8.0,3982.076923076923,0.0,1.0153765912647053
4100000.0,15.5,1.3743643648922444E-6,4100000.0,94.0,86.32534733617764,86.17511520737327,81.70731707317071,1159922.0,528240.0,0.0,1.0,0.0,?,0.0,0.0,179.0,126.0,126.0,8.0,3982.076923076923,0.0,1.0153765912647053
4200000.0,15.890625,1.4338226820756164E-6,4200000.0,93.89999999999999,86.23770417832324,85.47619047619047,81.40243902439023,1189322.0,530536.0,0.0,1.0,0.0,?,0.0,0.0,179.0,126.0,126.0,8.0,3982.076923076923,0.0,1.0153765912647053
4300000.0,16.28125,1.4931282041490905E-6,4300000.0,94.19999999999999,86.82249445635972,86.48018648018648,82.31707317073169,1218737.0,530608.0,0.0,1.0,0.0,?,0.0,0.0,179.0,126.0,126.0,8.0,3982.076923076923,0.0,1.0153765912647053
4400000.0,16.6875,1.5632994796356392E-6,4400000.0,94.69999999999999,87.72920911279866,87.19806763285023,83.2278481012658,1248152.0,612896.0,0.0,1.0,0.0,?,0.0,0.0,199.0,145.0,145.0,8.0,3982.076923076923,0.0,1.0153765912647053
4500000.0,17.078125,1.6306538277098702E-6,4500000.0,93.5,85.60877112189593,86.05150214592275,80.9384164222874,1277567.0,613304.0,0.0,1.0,0.0,?,0.0,0.0,201.0,146.0,146.0,9.0,3982.076923076923,0.0,1.0153765912647053
4600000.0,17.484375,1.7009503790177405E-6,4600000.0,95.7,90.09536094347445,90.42316258351892,86.34920634920633,1306982.0,617232.0,0.0,1.0,0.0,?,0.0,0.0,201.0,146.0,146.0,9.0,3982.076923076923,0.0,1.0153765912647053
4700000.0,17.859375,1.7667941089409094E-6,4700000.0,94.3,86.76105800050168,85.6060606060606,81.37254901960783,1336382.0,621288.0,0.0,1.0,0.0,?,0.0,0.0,203.0,147.0,147.0,9.0,3982.076923076923,0.0,1.0153765912647053
4800000.0,18.28125,1.8489297751026849E-6,4800000.0,95.0,88.3738234309312,87.92270531400965,83.97435897435896,1365797.0,696656.0,0.0,1.0,0.0,?,0.0,0.0,223.0,166.0,166.0,9.0,3982.076923076923,0.0,1.0153765912647053
4900000.0,18.6875,1.9302909559984175E-6,4900000.0,93.89999999999999,86.36359571861614,86.4142538975501,81.45896656534953,1395212.0,719728.0,0.0,1.0,0.0,?,0.0,0.0,225.0,167.0,167.0,9.0,3982.076923076923,0.0,1.0153765912647053
5000000.0,19.109375,2.015155106265512E-6,5000000.0,94.8,88.61845561197687,88.3668903803132,84.97109826589593,1424627.0,721424.0,0.0,1.0,0.0,?,0.0,0.0,225.0,167.0,167.0,9.0,3982.076923076923,0.0,1.0153765912647053
5100000.0,19.859375,2.042846430817412E-6,5100000.0,65.3,19.01983663943991,24.235807860262007,2.801120448179274,16721.0,92480.0,0.0,1.0,0.0,?,5.0,95.0,23.0,21.0,21.0,2.0,0.0,0.0,1.0
5200000.0,20.390625,2.0637090266164805E-6,5200000.0,64.2,21.274733587541178,24.152542372881356,5.540897097625335,46121.0,92488.0,0.0,1.0,0.0,?,0.0,0.0,23.0,21.0,21.0,2.0,0.0,0.0,1.0
5300000.0,20.984375,2.1149536284307637E-6,5300000.0,64.2,23.178603309757605,27.822580645161292,6.28272251308901,75536.0,275144.0,0.0,1.0,0.0,?,0.0,0.0,95.0,64.0,64.0,5.0,0.0,0.0,1.0
5400000.0,21.5625,2.1703786721142628E-6,5400000.0,64.4,23.37890423223941,27.93522267206478,2.732240437158472,104951.0,313496.0,0.0,1.0,0.0,?,0.0,0.0,113.0,73.0,73.0,5.0,0.0,0.0,1.0
5500000.0,22.125,2.232405919736872E-6,5500000.0,66.7,29.533950669533283,30.188679245283023,15.051020408163279,134366.0,370424.0,0.0,1.0,0.0,?,0.0,0.0,141.0,87.0,87.0,6.0,0.0,0.0,1.0
5600000.0,22.6875,2.3118500636580087E-6,5600000.0,67.60000000000001,34.2340294241824,32.359081419624225,17.346938775510218,163766.0,483896.0,0.0,1.0,0.0,?,0.0,0.0,189.0,116.0,116.0,6.0,0.0,0.0,1.0
5700000.0,23.265625,2.410308095730013E-6,5700000.0,67.60000000000001,34.91257392645926,29.41176470588236,10.497237569060783,193181.0,597488.0,0.0,1.0,0.0,?,0.0,0.0,231.0,144.0,144.0,7.0,0.0,0.0,1.0
5800000.0,23.8125,2.5109978095214396E-6,5800000.0,68.2,36.0755193361503,31.31749460043197,11.420612813370484,222596.0,652176.0,0.0,1.0,0.0,?,0.0,0.0,255.0,156.0,156.0,8.0,0.0,0.0,1.0
5900000.0,24.375,2.6184922252367763E-6,5900000.0,69.19999999999999,37.764450569212784,36.62551440329217,20.822622107969142,252011.0,680584.0,0.0,1.0,0.0,?,0.0,0.0,273.0,165.0,165.0,8.0,0.0,0.0,1.0
6000000.0,24.953125,2.7433939006490006E-6,6000000.0,72.6,45.36674070736113,42.3157894736842,29.923273657289002,281426.0,778296.0,0.0,1.0,0.0,?,0.0,0.0,309.0,190.0,190.0,8.0,0.0,0.0,1.0
6100000.0,25.5625,2.897672335772464E-6,6100000.0,71.39999999999999,42.615221011657525,38.62660944206007,25.714285714285705,310826.0,915656.0,0.0,1.0,0.0,?,0.0,0.0,362.0,227.0,227.0,9.0,0.0,0.0,1.0
6200000.0,26.125,3.0448643762307854E-6,6200000.0,74.0,47.08499371125502,45.945945945945944,29.539295392953925,340241.0,949936.0,0.0,1.0,0.0,?,0.0,0.0,374.0,233.0,233.0,9.0,0.0,0.0,1.0
6300000.0,26.71875,3.2081596954311754E-6,6300000.0,71.8,43.364395886889454,45.13618677042801,28.787878787878785,369656.0,1002848.0,0.0,1.0,0.0,?,0.0,0.0,394.0,243.0,243.0,9.0,0.0,0.0,1.0
6400000.0,27.34375,3.3972815597533344E-6,6400000.0,74.6,47.38346680808223,41.60919540229885,30.02754820936639,399071.0,1110416.0,0.0,1.0,0.0,?,0.0,0.0,446.0,269.0,269.0,10.0,0.0,0.0,1.0
6500000.0,27.953125,3.5951774205184635E-6,6500000.0,75.8,51.31392059743051,46.22222222222222,37.46770025839793,428471.0,1189968.0,0.0,1.0,0.0,?,0.0,0.0,485.0,292.0,292.0,10.0,0.0,0.0,1.0
6600000.0,28.5625,3.8056824188162046E-6,6600000.0,73.5,46.2361228332143,42.39130434782608,31.876606683804624,457886.0,1271200.0,0.0,1.0,0.0,?,0.0,0.0,520.0,313.0,313.0,10.0,0.0,0.0,1.0
6700000.0,29.171875,4.024271491087144E-6,6700000.0,77.9,55.36399550812335,52.77777777777778,43.187660668380474,487301.0,1323856.0,0.0,1.0,0.0,?,0.0,0.0,551.0,332.0,332.0,11.0,0.0,0.0,1.0
6800000.0,29.8125,4.2671748734493215E-6,6800000.0,73.3,46.04447390330846,44.94845360824742,30.287206266318535,516716.0,1404048.0,0.0,1.0,0.0,?,0.0,0.0,587.0,350.0,350.0,12.0,0.0,0.0,1.0
6900000.0,30.421875,4.507252952963527E-6,6900000.0,76.2,51.78438300217173,48.817204301075265,38.3419689119171,546131.0,1462544.0,0.0,1.0,0.0,?,0.0,0.0,617.0,365.0,365.0,12.0,0.0,0.0,1.0
7000000.0,31.03125,4.755431501608755E-6,7000000.0,77.4,54.458438287153655,51.293103448275865,39.733333333333334,575531.0,1507928.0,0.0,1.0,0.0,?,0.0,0.0,637.0,375.0,375.0,12.0,0.0,0.0,1.0
7100000.0,31.6875,5.039169983420934E-6,7100000.0,74.9,49.06738526971965,49.087221095334684,34.63541666666667,604946.0,1606000.0,0.0,1.0,0.0,?,0.0,0.0,682.0,399.0,399.0,12.0,0.0,0.0,1.0
7200000.0,32.328125,5.332529577167911E-6,7200000.0,77.60000000000001,53.60378460557003,52.842105263157904,37.60445682451254,634361.0,1705888.0,0.0,1.0,0.0,?,0.0,0.0,718.0,417.0,417.0,12.0,0.0,0.0,1.0
7300000.0,32.984375,5.6455137221039165E-6,7300000.0,79.5,57.986637701356734,52.9816513761468,43.989071038251375,663776.0,1780480.0,0.0,1.0,0.0,?,0.0,0.0,760.0,438.0,438.0,12.0,0.0,0.0,1.0
7400000.0,33.65625,5.984236550931301E-6,7400000.0,78.8,57.60000000000001,57.34406438631792,46.46464646464648,693191.0,1886768.0,0.0,1.0,0.0,?,0.0,0.0,797.0,458.0,458.0,12.0,0.0,0.0,1.0
7500000.0,34.328125,6.344081323024713E-6,7500000.0,76.2,52.610598500264814,51.129363449691986,40.35087719298246,722591.0,2001960.0,0.0,1.0,0.0,?,0.0,0.0,842.0,482.0,482.0,12.0,0.0,0.0,1.0
7600000.0,35.0,6.716383731044415E-6,7600000.0,76.8,53.49508491156049,50.0,42.85714285714287,752006.0,2074840.0,0.0,1.0,0.0,?,0.0,0.0,872.0,497.0,497.0,13.0,0.0,0.0,1.0
7700000.0,35.71875,7.127752469386906E-6,7700000.0,79.10000000000001,56.93633995977978,52.92792792792793,43.36043360433605,781421.0,2146440.0,0.0,1.0,0.0,?,0.0,0.0,906.0,514.0,514.0,13.0,0.0,0.0,1.0
7800000.0,36.421875,7.543490501120687E-6,7800000.0,78.0,55.09635913115537,52.17391304347826,40.70080862533693,810836.0,2220768.0,0.0,1.0,0.0,?,0.0,0.0,948.0,535.0,535.0,13.0,0.0,0.0,1.0
7900000.0,37.09375,7.958449779026624E-6,7900000.0,80.9,60.548601644152534,61.1788617886179,48.378378378378386,840236.0,2316344.0,0.0,1.0,0.0,?,0.0,0.0,978.0,550.0,550.0,13.0,0.0,0.0,1.0
8000000.0,37.765625,8.378434382999937E-6,8000000.0,77.5,54.38141194598759,51.508620689655174,41.86046511627908,869651.0,2346656.0,0.0,1.0,0.0,?,0.0,0.0,1004.0,563.0,563.0,13.0,0.0,0.0,1.0
8100000.0,38.484375,8.852608087990019E-6,8100000.0,81.5,62.03664182289784,60.97046413502108,53.28282828282828,899066.0,2481320.0,0.0,1.0,0.0,?,0.0,0.0,1060.0,591.0,591.0,13.0,0.0,0.0,1.0
8200000.0,39.203125,9.343391543047295E-6,8200000.0,79.5,57.77548918640578,57.11297071129707,45.33333333333334,928481.0,2571800.0,0.0,1.0,0.0,?,0.0,0.0,1095.0,610.0,610.0,13.0,0.0,0.0,1.0
8300000.0,39.90625,9.836570502051876E-6,8300000.0,79.7,58.47549849857222,57.8838174273859,46.43799472295515,957896.0,2644776.0,0.0,1.0,0.0,?,0.0,0.0,1135.0,630.0,630.0,13.0,0.0,0.0,1.0
8400000.0,40.625,1.0355988892519639E-5,8400000.0,81.89999999999999,62.82848529158074,62.44813278008298,52.24274406332453,987296.0,2720808.0,0.0,1.0,0.0,?,0.0,0.0,1163.0,644.0,644.0,13.0,0.0,0.0,1.0
8500000.0,41.40625,1.093596194146408E-5,8500000.0,80.9,61.13715532115768,57.64966740576497,51.76767676767678,1016711.0,2798168.0,0.0,1.0,0.0,?,0.0,0.0,1185.0,655.0,655.0,13.0,4139.291217257319,0.0,1.024907683144729
8600000.0,42.15625,1.1510470002475712E-5,8600000.0,80.60000000000001,60.15690784744615,57.26872246696036,49.08136482939634,1046126.0,2890784.0,0.0,1.0,0.0,?,0.0,0.0,1227.0,681.0,681.0,13.0,4139.291217257319,0.0,1.024907683144729
8700000.0,42.890625,1.2081638948681453E-5,8700000.0,80.7,59.975778087464334,58.134490238611725,46.53739612188367,1075541.0,2937552.0,0.0,1.0,0.0,?,0.0,0.0,1247.0,691.0,691.0,13.0,4139.291217257319,0.0,1.024907683144729
8800000.0,43.65625,1.2688998605072912E-5,8800000.0,79.0,56.519038449593154,53.02013422818792,43.08943089430895,1104956.0,2998800.0,0.0,1.0,0.0,?,0.0,0.0,1281.0,708.0,708.0,14.0,4139.291217257319,0.0,1.024907683144729
8900000.0,44.4375,1.3330615183804183E-5,8900000.0,79.3,56.477128415599275,56.42105263157895,43.44262295081968,1134356.0,3100816.0,0.0,1.0,0.0,?,0.0,0.0,1316.0,730.0,730.0,14.0,4139.291217257319,0.0,1.024907683144729
9000000.0,45.203125,1.3985038903127941E-5,9000000.0,81.69999999999999,62.336999473129595,61.63522012578615,52.83505154639174,1163771.0,3231384.0,0.0,1.0,0.0,?,0.0,0.0,1356.0,756.0,756.0,14.0,4139.291217257319,0.0,1.024907683144729
9100000.0,45.984375,1.4681706994047594E-5,9100000.0,80.5,59.846469372122336,58.59872611464969,47.86096256684493,1193186.0,3375400.0,0.0,1.0,0.0,?,0.0,0.0,1412.0,793.0,793.0,14.0,4139.291217257319,0.0,1.024907683144729
9200000.0,46.78125,1.540571328304294E-5,9200000.0,83.39999999999999,65.80097817443148,64.52991452991452,57.544757033248075,1222601.0,3441712.0,0.0,1.0,0.0,?,0.0,0.0,1452.0,816.0,816.0,14.0,4139.291217257319,0.0,1.024907683144729
9300000.0,47.59375,1.6166389751661982E-5,9300000.0,81.6,61.891506776684224,60.767590618336875,52.08333333333333,1252001.0,3542480.0,0.0,1.0,0.0,?,0.0,0.0,1484.0,835.0,835.0,14.0,4139.291217257319,0.0,1.024907683144729
9400000.0,48.375,1.691435172688216E-5,9400000.0,81.10000000000001,61.44619602467445,60.29411764705883,52.272727272727295,1281416.0,3625584.0,0.0,1.0,0.0,?,0.0,0.0,1516.0,854.0,854.0,14.0,4139.291217257319,0.0,1.024907683144729
9500000.0,49.1875,1.7714904582438367E-5,9500000.0,82.5,62.64355547965673,61.95652173913042,47.60479041916166,1310831.0,3734504.0,0.0,1.0,0.0,?,0.0,0.0,1571.0,885.0,885.0,14.0,4139.291217257319,0.0,1.024907683144729
9600000.0,50.0,1.852396610451655E-5,9600000.0,82.6,63.59238536832369,61.75824175824175,52.58855585831061,1340246.0,3776352.0,0.0,1.0,0.0,?,0.0,0.0,1589.0,894.0,894.0,14.0,4139.291217257319,0.0,1.024907683144729
9700000.0,50.8125,1.9341193255968388E-5,9700000.0,81.6,61.876346759489465,61.01694915254235,51.06382978723403,1369661.0,3816560.0,0.0,1.0,0.0,?,0.0,0.0,1613.0,906.0,906.0,14.0,4139.291217257319,0.0,1.024907683144729
9800000.0,51.6875,2.0255928458128534E-5,9800000.0,82.19999999999999,63.020824677159325,62.76150627615061,52.40641711229945,1399061.0,3963304.0,0.0,1.0,0.0,?,0.0,0.0,1664.0,939.0,939.0,14.0,4139.291217257319,0.0,1.024907683144729
9900000.0,52.53125,2.1158540686075054E-5,9900000.0,82.5,63.28958850775324,63.080168776371295,52.95698924731182,1428476.0,4058456.0,0.0,1.0,0.0,?,0.0,0.0,1712.0,963.0,963.0,14.0,4139.291217257319,0.0,1.024907683144729
1.0E7,53.375,2.2071942868125104E-5,1.0E7,82.6,63.23591555247544,62.33766233766232,53.475935828877,1457891.0,4109224.0,0.0,1.0,0.0,?,0.0,0.0,1730.0,972.0,972.0,14.0,4139.291217257319,0.0,1.024907683144729
