learning evaluation instances,evaluation time (cpu seconds),model cost (RAM-Hours),classified instances,classifications correct (percent),Kappa Statistic (percent),Kappa Temporal Statistic (percent),Kappa M Statistic (percent),model training instances,model serialized size (bytes),labeling cost,newThreshold,maxPosterior,accuracyBaseLearner (percent),Change detected,Warning detected
100000.0,0.359375,1.3732124999579457E-8,100000.0,82.3,63.59522830111064,62.97071129707111,58.93271461716937,29662.0,3024.0,0.0,1.0,0.0,?,1.0,2.0
200000.0,0.71875,2.6125473798149163E-8,200000.0,83.89999999999999,67.35498313002854,68.7378640776699,64.38053097345133,59662.0,3024.0,0.0,1.0,0.0,?,0.0,0.0
300000.0,1.078125,3.718004639570912E-8,300000.0,84.3,68.28795346206672,67.35966735966736,65.79520697167756,89662.0,3024.0,0.0,1.0,0.0,?,0.0,0.0
400000.0,1.4375,4.6895842792259325E-8,400000.0,82.3,64.3202709240445,65.0197628458498,61.521739130434774,119662.0,3024.0,0.0,1.0,0.0,?,0.0,0.0
500000.0,1.828125,5.600129952654243E-8,500000.0,81.89999999999999,63.464752569578444,62.370062370062364,60.907127429805605,149662.0,3024.0,0.0,1.0,0.0,?,0.0,0.0
600000.0,2.203125,6.362184649333358E-8,600000.0,82.6,64.76705760383592,65.74803149606299,61.50442477876105,179662.0,3024.0,0.0,1.0,0.0,?,0.0,21.0
700000.0,2.5625,6.950576789677144E-8,700000.0,85.1,69.64684408663483,69.52965235173824,65.58891454965358,25198.0,3024.0,0.0,1.0,0.0,?,3.0,11.0
800000.0,2.9375,7.424852810800076E-8,800000.0,82.39999999999999,64.26947313714025,64.6586345381526,60.18099547511311,55198.0,3024.0,0.0,1.0,0.0,?,0.0,0.0
900000.0,3.296875,7.745489710941912E-8,900000.0,82.89999999999999,65.7438198645779,64.07563025210084,65.73146292585169,85198.0,3024.0,0.0,1.0,0.0,?,0.0,0.0
1000000.0,3.640625,7.924129022285344E-8,1000000.0,83.6,66.88674864215477,68.09338521400777,64.11378555798686,115198.0,3024.0,0.0,1.0,0.0,?,0.0,0.0
1100000.0,4.0,9.317125659435989E-8,1100000.0,82.6,64.93292918870114,66.34429400386847,63.13559322033897,144898.0,3024.0,0.0,1.0,0.0,?,0.0,0.0
1200000.0,4.359375,1.057624467648566E-7,1200000.0,82.8,65.33837404730907,65.1821862348178,62.85097192224621,174898.0,3024.0,0.0,1.0,0.0,?,0.0,0.0
1300000.0,4.75,1.1808064300566914E-7,1300000.0,80.10000000000001,60.03695075909712,61.35922330097089,58.79917184265011,204898.0,3024.0,0.0,1.0,0.0,?,0.0,68.0
1400000.0,5.140625,1.28943647723645E-7,1400000.0,82.0,63.97117694155323,65.9090909090909,63.85542168674698,234898.0,3024.0,0.0,1.0,0.0,?,0.0,0.0
1500000.0,5.5,1.375787542201579E-7,1500000.0,83.1,66.08142064658044,64.19491525423727,64.64435146443513,25705.0,3024.0,0.0,1.0,0.0,?,3.0,7.0
1600000.0,5.875,1.4519231626763944E-7,1600000.0,84.3,68.54791534781597,69.5736434108527,67.42738589211618,55705.0,3024.0,0.0,1.0,0.0,?,0.0,0.0
1700000.0,6.21875,1.508908462710679E-7,1700000.0,81.69999999999999,63.05866203722393,61.310782241014785,59.69162995594712,85705.0,3024.0,0.0,1.0,0.0,?,0.0,0.0
1800000.0,6.578125,1.5550962416455154E-7,1800000.0,84.1,67.83798435186459,68.9453125,65.28384279475982,115705.0,3024.0,0.0,1.0,0.0,?,0.0,0.0
1900000.0,6.90625,1.5850440831854942E-7,1900000.0,83.0,65.54757069841153,65.99999999999999,62.30598669623058,145705.0,3024.0,0.0,1.0,0.0,?,0.0,0.0
2000000.0,7.265625,1.6044563381001356E-7,2000000.0,83.3,66.32276903469358,66.12576064908721,62.97117516629711,175705.0,3024.0,0.0,1.0,0.0,?,0.0,0.0
2100000.0,7.625,1.7444923287257554E-7,2100000.0,82.89999999999999,65.62924609459795,66.00397614314114,63.847780126849884,205405.0,3024.0,0.0,1.0,0.0,?,0.0,0.0
2200000.0,8.0,1.8766470020636918E-7,2200000.0,83.6,67.16098725285639,67.65285996055226,66.32443531827515,235405.0,3024.0,0.0,1.0,0.0,?,0.0,0.0
2300000.0,8.359375,1.9899074686691166E-7,2300000.0,81.69999999999999,63.28279869342941,63.762376237623755,61.79540709812107,265405.0,3024.0,0.0,1.0,0.0,?,0.0,0.0
2400000.0,8.71875,2.089780173264444E-7,2400000.0,85.2,70.27837912738927,71.26213592233009,68.44349680170575,295405.0,3024.0,0.0,1.0,0.0,?,0.0,0.0
2500000.0,9.09375,2.1800253307446838E-7,2500000.0,83.1,65.95981243655231,66.92759295499022,63.57758620689654,325405.0,3024.0,0.0,1.0,0.0,?,0.0,0.0
2600000.0,9.453125,2.2531225113198161E-7,2600000.0,82.69999999999999,65.27666270593147,66.79462571976967,63.65546218487393,355405.0,3024.0,0.0,1.0,0.0,?,0.0,0.0
2700000.0,9.859375,2.3208471247926354E-7,2700000.0,83.3,66.34557252831404,68.19047619047619,64.08602150537634,385405.0,3024.0,0.0,1.0,0.0,?,0.0,22.0
2800000.0,10.203125,2.364599883245925E-7,2800000.0,81.0,61.69740953532911,61.770623742454745,60.00000000000001,6644.0,3024.0,0.0,1.0,0.0,?,3.0,15.0
2900000.0,10.546875,2.395546956298252E-7,2900000.0,82.5,64.87636480411047,64.57489878542509,63.84297520661156,36644.0,3024.0,0.0,1.0,0.0,?,0.0,0.0
3000000.0,10.921875,2.415337561008831E-7,3000000.0,84.7,69.08990997688814,68.12499999999999,65.4627539503386,66644.0,3024.0,0.0,1.0,0.0,?,0.0,0.0
3100000.0,11.28125,2.554927292900781E-7,3100000.0,83.0,65.85796915167094,67.11798839458413,64.1350210970464,96344.0,3024.0,0.0,1.0,0.0,?,0.0,0.0
3200000.0,11.640625,2.6811292627826336E-7,3200000.0,83.89999999999999,67.5667399940371,65.88983050847457,65.67164179104476,126344.0,3024.0,0.0,1.0,0.0,?,0.0,0.0
3300000.0,12.015625,2.79884843621403E-7,3300000.0,82.8,65.39625313847935,67.04980842911877,63.247863247863236,156344.0,3024.0,0.0,1.0,0.0,?,0.0,0.0
3400000.0,12.375,2.8982748820756875E-7,3400000.0,83.39999999999999,66.66358739963931,67.45098039215685,64.60554371002131,186344.0,3024.0,0.0,1.0,0.0,?,0.0,0.0
3500000.0,12.75,2.9880543782686195E-7,3500000.0,83.5,66.7075592000129,66.66666666666666,64.43965517241378,216344.0,3024.0,0.0,1.0,0.0,?,0.0,0.0
3600000.0,13.109375,3.060705300110082E-7,3600000.0,82.89999999999999,65.68883181508086,65.24390243902438,64.52282157676348,246344.0,3024.0,0.0,1.0,0.0,?,0.0,0.0
3700000.0,13.46875,3.120749412725369E-7,3700000.0,82.8,65.1800716642711,64.38923395445134,62.19780219780219,276344.0,3024.0,0.0,1.0,0.0,?,0.0,40.0
3800000.0,13.84375,3.1694343003133935E-7,3800000.0,84.5,68.76410653253369,68.43177189409369,66.88034188034187,306344.0,3024.0,0.0,1.0,0.0,?,0.0,9.0
3900000.0,14.21875,3.2041493492821857E-7,3900000.0,83.89999999999999,67.72356941236848,68.18181818181817,66.73553719008264,336344.0,3024.0,0.0,1.0,0.0,?,0.0,18.0
4000000.0,14.578125,3.2240301758671803E-7,4000000.0,82.5,64.81676571584812,65.82031249999999,62.76595744680849,366344.0,3024.0,0.0,1.0,0.0,?,0.0,0.0
4100000.0,15.0,3.388970314214627E-7,4100000.0,82.0,63.622841621936224,65.84440227703983,60.17699115044246,396044.0,3024.0,0.0,1.0,0.0,?,0.0,0.0
4200000.0,15.359375,3.516087114500503E-7,4200000.0,83.7,67.2261675929128,67.59443339960238,65.61181434599155,426044.0,3024.0,0.0,1.0,0.0,?,0.0,0.0
4300000.0,15.71875,3.6291095764479704E-7,4300000.0,83.8,67.36923523155757,68.11023622047243,65.23605150214591,20690.0,3024.0,0.0,1.0,0.0,?,2.0,16.0
4400000.0,16.09375,3.7330762198608786E-7,4400000.0,81.69999999999999,63.27837798789591,60.560344827586185,61.63522012578615,50690.0,3024.0,0.0,1.0,0.0,?,0.0,0.0
4500000.0,16.453125,3.819323157788151E-7,4500000.0,81.8,63.40207844020461,62.08333333333332,61.60337552742615,80690.0,3024.0,0.0,1.0,0.0,?,0.0,0.0
4600000.0,16.8125,3.892182333705326E-7,4600000.0,82.69999999999999,65.2037491451788,66.53771760154739,63.19148936170211,110690.0,3024.0,0.0,1.0,0.0,?,0.0,0.0
4700000.0,17.1875,3.9542394612605375E-7,4700000.0,84.6,68.84672182550118,67.37288135593221,66.15384615384615,140690.0,3024.0,0.0,1.0,0.0,?,0.0,0.0
4800000.0,17.546875,4.0010296894858284E-7,4800000.0,81.3,62.42203073757313,63.33333333333332,60.04273504273503,170690.0,3024.0,0.0,1.0,0.0,?,0.0,24.0
4900000.0,17.90625,4.034432155701022E-7,4900000.0,84.0,67.64591691471463,67.67676767676767,65.36796536796537,200690.0,3024.0,0.0,1.0,0.0,?,0.0,2.0
5000000.0,18.28125,4.0584913222119214E-7,5000000.0,77.7,55.31778472389196,54.94949494949496,53.541666666666664,25466.0,3024.0,0.0,1.0,0.0,?,3.0,29.0
5100000.0,18.65625,4.207696959686776E-7,5100000.0,78.5,55.73399217624049,52.85087719298246,41.891891891891895,29193.0,3024.0,0.0,1.0,0.0,?,2.0,15.0
5200000.0,19.015625,4.337297933590081E-7,5200000.0,81.0,60.9225567342775,59.05172413793104,50.904392764857896,59193.0,3024.0,0.0,1.0,0.0,?,0.0,0.0
5300000.0,19.390625,4.458563893826471E-7,5300000.0,79.7,58.27166584443349,58.23045267489712,48.73737373737375,89193.0,3024.0,0.0,1.0,0.0,?,0.0,0.0
5400000.0,19.75,4.561389343709581E-7,5400000.0,79.7,57.93443574122426,56.71641791044777,45.135135135135144,119193.0,3024.0,0.0,1.0,0.0,?,0.0,0.0
5500000.0,20.109375,4.650827031582593E-7,5500000.0,79.3,57.783361341795704,58.01217038539554,49.14004914004915,149193.0,3024.0,0.0,1.0,0.0,?,0.0,0.0
5600000.0,20.453125,4.7235704389297294E-7,5600000.0,79.10000000000001,56.43655160913791,54.26695842450766,45.71428571428572,179193.0,3024.0,0.0,1.0,0.0,?,0.0,0.0
5700000.0,20.8125,4.786232602782547E-7,5700000.0,79.60000000000001,57.58483033932137,54.26008968609865,43.33333333333334,209193.0,3024.0,0.0,1.0,0.0,?,0.0,0.0
5800000.0,21.203125,4.839791735220286E-7,5800000.0,80.5,60.071420965984956,59.6273291925466,51.00502512562816,239193.0,3024.0,0.0,1.0,0.0,?,0.0,0.0
5900000.0,21.5625,4.875678375052908E-7,5900000.0,79.2,57.2846158901229,56.935817805383024,47.738693467336695,269193.0,3024.0,0.0,1.0,0.0,?,0.0,0.0
6000000.0,21.921875,4.898177252875433E-7,6000000.0,80.30000000000001,59.86962721531881,57.90598290598291,51.83374083129586,299193.0,3024.0,0.0,1.0,0.0,?,0.0,0.0
6100000.0,22.296875,5.04752258873648E-7,6100000.0,78.8,56.551678908709334,52.78396436525613,44.79166666666667,328893.0,3024.0,0.0,1.0,0.0,?,0.0,0.0
6200000.0,22.65625,5.177316941424376E-7,6200000.0,81.3,60.4911770671354,59.698275862068954,48.19944598337948,358893.0,3024.0,0.0,1.0,0.0,?,0.0,5.0
6300000.0,23.015625,5.294392920202679E-7,6300000.0,80.80000000000001,60.140670218022244,60.083160083160095,50.38759689922482,388893.0,3024.0,0.0,1.0,0.0,?,0.0,51.0
6400000.0,23.390625,5.402589320308632E-7,6400000.0,79.9,57.56772275890023,53.79310344827588,44.62809917355373,418893.0,3024.0,0.0,1.0,0.0,?,0.0,68.0
6500000.0,23.75,5.492711271573271E-7,6500000.0,80.80000000000001,59.98549474184392,56.756756756756765,47.967479674796756,448893.0,3024.0,0.0,1.0,0.0,?,0.0,15.0
6600000.0,24.140625,5.57611799902386E-7,6600000.0,78.4,55.477870852846124,54.43037974683544,43.750000000000014,478893.0,3024.0,0.0,1.0,0.0,?,0.0,0.0
6700000.0,24.5,5.639464426268305E-7,6700000.0,81.2,61.556079047245134,59.30735930735932,53.23383084577116,508893.0,3024.0,0.0,1.0,0.0,?,0.0,0.0
6800000.0,24.859375,5.689423091502651E-7,6800000.0,80.7,60.35202471732843,56.62921348314608,50.257731958762896,538893.0,3024.0,0.0,1.0,0.0,?,0.0,0.0
6900000.0,25.234375,5.72758403399752E-7,6900000.0,81.0,60.91435718517544,60.00000000000001,51.030927835051564,568893.0,3024.0,0.0,1.0,0.0,?,0.0,0.0
7000000.0,25.59375,5.750767175211672E-7,7000000.0,81.6,61.58856341227161,61.42557651991613,49.17127071823203,598893.0,3024.0,0.0,1.0,0.0,?,0.0,0.0
7100000.0,25.96875,5.900826525046591E-7,7100000.0,81.0,60.39769056006005,61.30346232179227,50.13123359580054,628593.0,3024.0,0.0,1.0,0.0,?,0.0,0.0
7200000.0,26.34375,6.036916036262277E-7,7200000.0,79.4,56.951317373278066,58.21501014198783,45.502645502645514,658593.0,3024.0,0.0,1.0,0.0,?,0.0,0.0
7300000.0,26.703125,6.153947389167212E-7,7300000.0,79.4,57.23319534464648,56.81341719077568,44.47439353099731,688593.0,3024.0,0.0,1.0,0.0,?,0.0,0.0
7400000.0,27.078125,6.262097223144434E-7,7400000.0,80.2,59.39960629921261,58.49056603773586,49.23076923076925,718593.0,3024.0,0.0,1.0,0.0,?,0.0,0.0
7500000.0,27.453125,6.356277218502424E-7,7500000.0,79.9,58.96485268177959,57.2340425531915,50.24752475247526,748593.0,3024.0,0.0,1.0,0.0,?,0.0,0.0
7600000.0,27.8125,6.433145285377067E-7,7600000.0,79.3,57.70261875960375,57.494866529774136,47.72727272727274,778593.0,3024.0,0.0,1.0,0.0,?,0.0,0.0
7700000.0,28.203125,6.502145616751573E-7,7700000.0,79.10000000000001,55.78029790115099,54.761904761904766,41.29213483146068,808593.0,3024.0,0.0,1.0,0.0,?,0.0,0.0
7800000.0,28.5625,6.55223815960602E-7,7800000.0,82.0,62.597402597402585,61.29032258064515,51.99999999999999,838593.0,3024.0,0.0,1.0,0.0,?,0.0,0.0
7900000.0,28.921875,6.588942940450371E-7,7900000.0,81.6,61.395631831819216,62.753036437246955,51.19363395225462,868593.0,3024.0,0.0,1.0,0.0,?,0.0,0.0
8000000.0,29.328125,6.615301309567352E-7,8000000.0,80.2,59.29761664933048,57.96178343949045,49.100257069408755,898593.0,3024.0,0.0,1.0,0.0,?,0.0,0.0
8100000.0,29.6875,6.759242064112584E-7,8100000.0,79.10000000000001,56.84065321361606,52.92792792792793,43.96782841823057,928293.0,3024.0,0.0,1.0,0.0,?,0.0,0.0
8200000.0,30.046875,6.889795056647719E-7,8200000.0,79.3,57.00577410376771,58.68263473053893,47.85894206549119,958293.0,3024.0,0.0,1.0,0.0,?,0.0,0.0
8300000.0,30.421875,7.012054427630366E-7,8300000.0,78.8,56.71437613573719,55.833333333333336,47.91154791154793,988293.0,3024.0,0.0,1.0,0.0,?,0.0,0.0
8400000.0,30.78125,7.115831896145306E-7,8400000.0,79.9,58.26481287686253,55.03355704697987,46.96569920844328,1018293.0,3024.0,0.0,1.0,0.0,?,0.0,0.0
8500000.0,31.125,7.202291615410806E-7,8500000.0,79.9,58.76077144029544,56.39913232104122,49.113924050632924,1048293.0,3024.0,0.0,1.0,0.0,?,0.0,0.0
8600000.0,31.5,7.282641470535757E-7,8600000.0,80.2,59.57599712540426,59.75609756097562,50.74626865671643,1078293.0,3024.0,0.0,1.0,0.0,?,0.0,0.0
8700000.0,31.875,7.349021487041476E-7,8700000.0,80.4,59.31026751423104,57.84946236559141,49.35400516795867,1108293.0,3024.0,0.0,1.0,0.0,?,0.0,0.0
8800000.0,32.21875,7.397064150104088E-7,8800000.0,79.7,58.197079149609166,55.088495575221245,48.081841432225076,1138293.0,3024.0,0.0,1.0,0.0,?,0.0,0.0
8900000.0,32.578125,7.43390280856854E-7,8900000.0,80.30000000000001,59.27362336577663,57.81584582441114,48.429319371727765,1168293.0,3024.0,0.0,1.0,0.0,?,0.0,0.0
9000000.0,32.953125,7.458373309216562E-7,9000000.0,80.5,59.15956671441857,58.510638297872354,47.15447154471546,1198293.0,3024.0,0.0,1.0,0.0,?,0.0,0.0
9100000.0,33.3125,7.602447941381895E-7,9100000.0,81.10000000000001,60.5980753514902,59.00216919739697,48.6413043478261,1227993.0,3024.0,0.0,1.0,0.0,?,0.0,0.0
9200000.0,33.671875,7.73313481153713E-7,9200000.0,79.5,57.69218068947299,55.81896551724138,47.16494845360826,1257993.0,3024.0,0.0,1.0,0.0,?,0.0,0.0
9300000.0,34.03125,7.850433919682268E-7,9300000.0,81.5,61.937915596813475,60.721868365180455,52.6854219948849,1287993.0,3024.0,0.0,1.0,0.0,?,0.0,0.0
9400000.0,34.390625,7.954345265817308E-7,9400000.0,81.6,62.374188693443685,61.42557651991613,54.79115479115478,1317993.0,3024.0,0.0,1.0,0.0,?,0.0,0.0
9500000.0,34.765625,8.048804657947684E-7,9500000.0,77.9,53.788892606222824,53.37552742616034,40.591397849462375,1347993.0,3024.0,0.0,1.0,0.0,?,0.0,0.0
9600000.0,35.125,8.125940480062529E-7,9600000.0,82.5,63.34617962466487,61.11111111111109,51.2534818941504,1377993.0,3024.0,0.0,1.0,0.0,?,0.0,0.0
9700000.0,35.484375,8.189688540167276E-7,9700000.0,80.2,58.94960753336901,57.510729613733915,47.75725593667548,1407993.0,3024.0,0.0,1.0,0.0,?,0.0,0.0
9800000.0,35.859375,8.242238416439955E-7,9800000.0,79.80000000000001,57.85766740102811,56.65236051502146,44.50549450549451,1437993.0,3024.0,0.0,1.0,0.0,?,0.0,0.0
9900000.0,36.21875,8.279210952524508E-7,9900000.0,80.10000000000001,57.822183412037006,57.478632478632484,41.1242603550296,1467993.0,3024.0,0.0,1.0,0.0,?,0.0,0.0
1.0E7,36.578125,8.302795726598963E-7,1.0E7,79.4,56.9786480435727,56.722689075630264,44.9197860962567,1497993.0,3024.0,0.0,1.0,0.0,?,0.0,0.0
