learning evaluation instances,evaluation time (cpu seconds),model cost (RAM-Hours),classified instances,classifications correct (percent),Kappa Statistic (percent),Kappa Temporal Statistic (percent),Kappa M Statistic (percent),model training instances,model serialized size (bytes),labeling cost,newThreshold,maxPosterior,accuracyBaseLearner (percent),Change detected,Warning detected,tree size (nodes),tree size (leaves),active learning leaves,tree depth,active leaf byte size estimate,inactive leaf byte size estimate,byte size estimate overhead
100000.0,0.5625,4.160916432738304E-8,100000.0,82.19999999999999,64.13604126370082,64.04040404040403,60.7929515418502,29700.0,95176.0,0.0,1.0,0.0,?,0.0,11.0,39.0,29.0,29.0,3.0,0.0,0.0,1.0
200000.0,1.109375,1.0514589828542536E-7,200000.0,87.0,73.91014654469996,73.57723577235772,72.86012526096033,59700.0,273080.0,0.0,1.0,0.0,?,0.0,0.0,102.0,77.0,77.0,4.0,0.0,0.0,1.0
300000.0,1.6875,2.226676183959676E-7,300000.0,86.1,71.7576112221843,71.91919191919192,69.51754385964912,89700.0,624072.0,0.0,1.0,0.0,?,0.0,0.0,262.0,196.0,196.0,6.0,0.0,0.0,1.0
400000.0,2.265625,3.6387148106263747E-7,400000.0,90.8,81.2830851985824,81.22448979591837,79.51002227171493,119700.0,796896.0,0.0,1.0,0.0,?,0.0,0.0,347.0,249.0,249.0,7.0,0.0,0.0,1.0
500000.0,2.859375,5.336513277143241E-7,500000.0,93.60000000000001,87.07718153329242,86.91206543967282,85.96491228070177,149700.0,972552.0,0.0,1.0,0.0,?,0.0,0.0,440.0,306.0,306.0,8.0,0.0,0.0,1.0
600000.0,3.421875,7.07672443240881E-7,600000.0,94.69999999999999,89.3463053791107,88.88888888888889,88.6021505376344,179700.0,1077840.0,0.0,1.0,0.0,?,0.0,0.0,518.0,354.0,354.0,8.0,0.0,0.0,1.0
700000.0,3.96875,8.915709784357913E-7,700000.0,95.19999999999999,90.26448158364431,90.02079002079,89.14027149321267,209700.0,1196544.0,0.0,1.0,0.0,?,0.0,0.0,595.0,403.0,403.0,8.0,0.0,0.0,1.0
800000.0,4.53125,1.0889869170366892E-6,800000.0,96.2,92.31376039159368,92.18106995884773,91.53674832962137,239700.0,1268288.0,0.0,1.0,0.0,?,0.0,0.0,642.0,434.0,434.0,8.0,0.0,0.0,1.0
900000.0,5.09375,1.2926543584196933E-6,900000.0,95.89999999999999,91.7803385698591,91.97651663405088,91.35021097046413,269700.0,1326184.0,0.0,1.0,0.0,?,0.0,0.0,674.0,453.0,453.0,9.0,0.0,0.0,1.0
1000000.0,5.65625,1.5050319941817887E-6,1000000.0,95.89999999999999,91.74352571589672,91.56378600823044,91.12554112554112,299700.0,1400928.0,0.0,1.0,0.0,?,0.0,0.0,713.0,477.0,477.0,9.0,0.0,0.0,1.0
1100000.0,6.21875,1.743441260057605E-6,1100000.0,96.39999999999999,92.71514602085085,92.8,91.96428571428571,329400.0,1442632.0,0.0,1.0,0.0,?,0.0,0.0,753.0,500.0,500.0,9.0,0.0,0.0,1.0
1200000.0,6.78125,1.987310404527105E-6,1200000.0,96.89999999999999,93.74404675416929,93.40425531914893,93.21663019693653,359400.0,1495040.0,0.0,1.0,0.0,?,0.0,0.0,794.0,522.0,522.0,10.0,0.0,0.0,1.0
1300000.0,7.328125,2.2257749030056104E-6,1300000.0,97.8,95.59497827523377,95.45454545454545,95.42619542619542,389400.0,1519768.0,0.0,1.0,0.0,?,0.0,0.0,812.0,531.0,531.0,10.0,0.0,0.0,1.0
1400000.0,7.890625,2.475414754978071E-6,1400000.0,97.7,95.3931080897022,95.46351084812623,95.18828451882845,419400.0,1564688.0,0.0,1.0,0.0,?,0.0,0.0,836.0,543.0,543.0,10.0,0.0,0.0,1.0
1500000.0,8.46875,2.7379870557019286E-6,1500000.0,97.7,95.37811073242878,95.42743538767395,95.08547008547008,449400.0,1619648.0,0.0,1.0,0.0,?,0.0,0.0,866.0,558.0,558.0,11.0,0.0,0.0,1.0
1600000.0,9.0625,3.0105153887739617E-6,1600000.0,97.2,94.32364162716867,94.39999999999999,93.65079365079364,479400.0,1653296.0,0.0,1.0,0.0,?,0.0,0.0,898.0,577.0,577.0,11.0,0.0,0.0,1.0
1700000.0,9.671875,3.3028297022812902E-6,1700000.0,98.4,96.78797417531236,96.74134419551935,96.62447257383965,509400.0,1748064.0,0.0,1.0,0.0,?,0.0,0.0,936.0,599.0,599.0,11.0,0.0,0.0,1.0
1800000.0,10.265625,3.5918329376727348E-6,1800000.0,99.0,97.99022445173323,98.01980198019803,97.86324786324786,539400.0,1790296.0,0.0,1.0,0.0,?,0.0,0.0,959.0,612.0,612.0,11.0,0.0,0.0,1.0
1900000.0,10.859375,3.885919836142825E-6,1900000.0,98.0,95.97350566729077,96.02385685884691,95.69892473118279,569400.0,1838304.0,0.0,1.0,0.0,?,0.0,0.0,983.0,624.0,624.0,11.0,0.0,0.0,1.0
2000000.0,11.46875,4.195087110727198E-6,2000000.0,97.89999999999999,95.79198794504737,95.67010309278349,95.65217391304347,599400.0,1899800.0,0.0,1.0,0.0,?,0.0,0.0,1013.0,642.0,642.0,11.0,0.0,0.0,1.0
2100000.0,12.046875,4.512742258763562E-6,2100000.0,97.89999999999999,95.7587752958759,95.80838323353294,95.38461538461537,629100.0,1925464.0,0.0,1.0,0.0,?,0.0,0.0,1025.0,648.0,648.0,11.0,0.0,0.0,1.0
2200000.0,12.671875,4.8589187402588626E-6,2200000.0,98.4,96.77514280070785,96.83168316831683,96.51416122004358,659100.0,1957544.0,0.0,1.0,0.0,?,0.0,0.0,1049.0,660.0,660.0,11.0,0.0,0.0,1.0
2300000.0,13.296875,5.211719253566116E-6,2300000.0,98.5,96.97817030226355,96.81528662420382,96.72489082969432,689100.0,2013416.0,0.0,1.0,0.0,?,0.0,0.0,1078.0,676.0,676.0,11.0,0.0,0.0,1.0
2400000.0,13.921875,5.568806437723753E-6,2400000.0,98.3,96.54468735518175,96.51639344262296,96.15384615384615,719100.0,2054904.0,0.0,1.0,0.0,?,0.0,0.0,1105.0,691.0,691.0,11.0,0.0,0.0,1.0
2500000.0,14.53125,5.9207663353946476E-6,2500000.0,98.6,97.16580831146958,97.20558882235528,96.875,749100.0,2093960.0,0.0,1.0,0.0,?,0.0,0.0,1127.0,702.0,702.0,11.0,0.0,0.0,1.0
2600000.0,15.15625,6.28510360709495E-6,2600000.0,98.8,97.5914834856051,97.66536964980544,97.46835443037975,779100.0,2129704.0,0.0,1.0,0.0,?,0.0,0.0,1150.0,715.0,715.0,11.0,0.0,0.0,1.0
2700000.0,15.75,6.634298543859687E-6,2700000.0,97.89999999999999,95.78140443073066,95.84158415841584,95.54140127388536,809100.0,2164752.0,0.0,1.0,0.0,?,0.0,0.0,1160.0,720.0,720.0,11.0,0.0,0.0,1.0
2800000.0,16.359375,6.9935114071187045E-6,2800000.0,98.7,97.3937658880041,97.35234215885947,97.27463312368972,839100.0,2185048.0,0.0,1.0,0.0,?,0.0,0.0,1180.0,730.0,730.0,11.0,0.0,0.0,1.0
2900000.0,16.984375,7.363836306871639E-6,2900000.0,98.7,97.38859337586578,97.31404958677685,97.2457627118644,869100.0,2211856.0,0.0,1.0,0.0,?,0.0,0.0,1201.0,742.0,742.0,11.0,0.0,0.0,1.0
3000000.0,17.59375,7.728771080211218E-6,3000000.0,99.0,97.98293563547612,97.94238683127571,97.8021978021978,899100.0,2251424.0,0.0,1.0,0.0,?,0.0,0.0,1225.0,757.0,757.0,11.0,0.0,0.0,1.0
3100000.0,18.21875,8.127027896181162E-6,3100000.0,98.9,97.78484836280155,97.75510204081633,97.61904761904762,928800.0,2262616.0,0.0,1.0,0.0,?,0.0,0.0,1242.0,767.0,767.0,11.0,0.0,0.0,1.0
3200000.0,18.84375,8.52570768782041E-6,3200000.0,98.9,97.79093399310771,97.88867562380038,97.67441860465115,958800.0,2280312.0,0.0,1.0,0.0,?,0.0,0.0,1252.0,772.0,772.0,11.0,0.0,0.0,1.0
3300000.0,19.453125,8.917002091442958E-6,3300000.0,98.2,96.39959675483654,96.42857142857143,96.37826961770624,988800.0,2311776.0,0.0,1.0,0.0,?,0.0,0.0,1270.0,784.0,784.0,11.0,0.0,0.0,1.0
3400000.0,20.15625,9.370195297783032E-6,3400000.0,98.1,96.1682733029484,96.12244897959184,95.82417582417581,1018800.0,2336168.0,0.0,1.0,0.0,?,0.0,0.0,1284.0,791.0,791.0,11.0,2869.576679340938,0.0,1.027122524839936
3500000.0,20.75,9.752154486098636E-6,3500000.0,98.4,96.76800323199677,96.7871485943775,96.54427645788337,1048800.0,2346480.0,0.0,1.0,0.0,?,0.0,0.0,1294.0,796.0,796.0,11.0,2869.576679340938,0.0,1.027122524839936
3600000.0,21.375,1.0154893291958917E-5,3600000.0,98.8,97.57864363687726,97.67441860465115,97.36263736263736,1078800.0,2365744.0,0.0,1.0,0.0,?,0.0,0.0,1304.0,801.0,801.0,11.0,2869.576679340938,0.0,1.027122524839936
3700000.0,21.96875,1.0535661745557768E-5,3700000.0,99.1,98.18227353147898,98.25242718446601,98.01762114537445,1108800.0,2368976.0,0.0,1.0,0.0,?,0.0,0.0,1308.0,803.0,803.0,11.0,2869.576679340938,0.0,1.027122524839936
3800000.0,22.578125,1.0923677117615524E-5,3800000.0,98.2,96.36251939989653,96.1864406779661,96.0352422907489,1138800.0,2366560.0,0.0,1.0,0.0,?,0.0,0.0,1318.0,808.0,808.0,11.0,2869.576679340938,0.0,1.027122524839936
3900000.0,23.1875,1.1313374885099216E-5,3900000.0,97.7,95.33914791518059,95.35353535353535,94.87750556792872,1168800.0,2392328.0,0.0,1.0,0.0,?,0.0,0.0,1327.0,814.0,814.0,11.0,2869.576679340938,0.0,1.027122524839936
4000000.0,23.78125,1.1693081630963004E-5,4000000.0,98.3,96.54956849309507,96.62698412698413,96.15384615384615,1198800.0,2407480.0,0.0,1.0,0.0,?,0.0,0.0,1336.0,820.0,820.0,11.0,2869.576679340938,0.0,1.027122524839936
4100000.0,24.375,1.2094074142320702E-5,4100000.0,98.6,97.19730941704036,97.29206963249516,97.1311475409836,1228500.0,2409112.0,0.0,1.0,0.0,?,0.0,0.0,1345.0,826.0,826.0,11.0,2869.576679340938,0.0,1.027122524839936
4200000.0,25.0,1.2515511835873541E-5,4200000.0,98.4,96.77648120688544,96.75456389452333,96.53679653679653,1258500.0,2420152.0,0.0,1.0,0.0,?,0.0,0.0,1353.0,830.0,830.0,11.0,2869.576679340938,0.0,1.027122524839936
4300000.0,25.625,1.2934493166135831E-5,4300000.0,98.6,97.18287186091436,97.21669980119285,96.96969696969695,1288500.0,2420136.0,0.0,1.0,0.0,?,0.0,0.0,1359.0,833.0,833.0,11.0,2869.576679340938,0.0,1.027122524839936
4400000.0,26.25,1.3354777054499008E-5,4400000.0,98.2,96.36688048247827,96.31147540983606,96.06126914660831,1318500.0,2443272.0,0.0,1.0,0.0,?,0.0,0.0,1376.0,843.0,843.0,11.0,2869.576679340938,0.0,1.027122524839936
4500000.0,26.859375,1.3762837398745535E-5,4500000.0,98.9,97.75016157930476,97.81746031746032,97.43589743589743,1348500.0,2447568.0,0.0,1.0,0.0,?,0.0,0.0,1376.0,843.0,843.0,11.0,2869.576679340938,0.0,1.027122524839936
4600000.0,27.484375,1.4180822731254416E-5,4600000.0,98.6,97.19137189445978,97.28682170542635,97.05882352941177,1378500.0,2459368.0,0.0,1.0,0.0,?,0.0,0.0,1382.0,846.0,846.0,11.0,2869.576679340938,0.0,1.027122524839936
4700000.0,28.09375,1.4586008878217804E-5,4700000.0,98.2,96.3837994214079,96.31147540983606,96.17834394904459,1408500.0,2459624.0,0.0,1.0,0.0,?,0.0,0.0,1392.0,851.0,851.0,11.0,2869.576679340938,0.0,1.027122524839936
4800000.0,28.6875,1.4980776144915985E-5,4800000.0,98.5,96.99058655474323,96.98189134808854,96.85534591194968,1438500.0,2474544.0,0.0,1.0,0.0,?,0.0,0.0,1398.0,854.0,854.0,11.0,2869.576679340938,0.0,1.027122524839936
4900000.0,29.28125,1.5373949621183178E-5,4900000.0,98.8,97.5876487616597,97.60479041916167,97.43589743589743,1468500.0,2479328.0,0.0,1.0,0.0,?,0.0,0.0,1404.0,857.0,857.0,11.0,2869.576679340938,0.0,1.027122524839936
5000000.0,29.90625,1.5788765869931217E-5,5000000.0,98.7,97.36895365310666,97.44094488188976,97.1111111111111,1498500.0,2497968.0,0.0,1.0,0.0,?,0.0,0.0,1414.0,862.0,862.0,11.0,2869.576679340938,0.0,1.027122524839936
5100000.0,30.609375,1.5837150988065537E-5,5100000.0,70.89999999999999,41.735209553022955,39.87603305785123,41.212121212121204,24426.0,72240.0,0.0,1.0,0.0,?,3.0,23.0,23.0,18.0,18.0,3.0,0.0,0.0,1.0
5200000.0,31.15625,1.5897597865356757E-5,5200000.0,76.2,51.703761424698456,49.25373134328358,50.416666666666664,54426.0,248256.0,0.0,1.0,0.0,?,0.0,0.0,86.0,66.0,66.0,4.0,0.0,0.0,1.0
5300000.0,31.765625,1.6022286824105933E-5,5300000.0,73.7,47.3203483667305,48.023715415019765,46.326530612244895,84426.0,626136.0,0.0,1.0,0.0,?,0.0,0.0,237.0,179.0,179.0,5.0,0.0,0.0,1.0
5400000.0,32.40625,1.6197547116058158E-5,5400000.0,81.10000000000001,62.53360081831375,62.20000000000001,60.5427974947808,114426.0,907592.0,0.0,1.0,0.0,?,0.0,25.0,343.0,253.0,253.0,6.0,0.0,0.0,1.0
5500000.0,33.03125,1.6403810489767546E-5,5500000.0,85.1,70.31044514406408,69.83805668016194,68.29787234042553,144426.0,1140072.0,0.0,1.0,0.0,?,0.0,0.0,455.0,324.0,324.0,6.0,0.0,0.0,1.0
5600000.0,33.6875,1.6649063618388033E-5,5600000.0,86.7,73.43740014060202,74.07407407407408,72.80163599182004,174426.0,1323440.0,0.0,1.0,0.0,?,0.0,0.0,538.0,376.0,376.0,6.0,0.0,0.0,1.0
5700000.0,34.390625,1.6948192787822342E-5,5700000.0,91.2,82.40443408261119,82.32931726907631,81.62839248434238,204426.0,1537512.0,0.0,1.0,0.0,?,0.0,0.0,644.0,438.0,438.0,7.0,0.0,0.0,1.0
5800000.0,35.078125,1.7264237103518103E-5,5800000.0,91.8,83.57812606391715,84.32122370936904,83.60000000000001,234426.0,1684600.0,0.0,1.0,0.0,?,0.0,0.0,714.0,482.0,482.0,7.0,0.0,0.0,1.0
5900000.0,35.75,1.759032431032716E-5,5900000.0,90.8,81.5716202952547,81.48893360160966,80.54968287526427,264426.0,1798288.0,0.0,1.0,0.0,?,0.0,0.0,789.0,524.0,524.0,7.0,0.0,0.0,1.0
6000000.0,36.4375,1.7937627304086674E-5,6000000.0,92.2,84.36341038028988,84.21052631578948,82.85714285714286,294426.0,1889720.0,0.0,1.0,0.0,?,0.0,0.0,838.0,553.0,553.0,7.0,0.0,0.0,1.0
6100000.0,37.125,1.832007336714823E-5,6100000.0,92.60000000000001,85.21821116384615,84.08602150537635,84.51882845188285,324126.0,1950008.0,0.0,1.0,0.0,?,0.0,0.0,877.0,574.0,574.0,7.0,0.0,0.0,1.0
6200000.0,37.859375,1.8749052703949735E-5,6200000.0,93.5,86.98187877525515,87.00000000000001,86.19957537154991,354126.0,2072344.0,0.0,1.0,0.0,?,0.0,0.0,956.0,621.0,621.0,7.0,0.0,0.0,1.0
6300000.0,38.546875,1.916468114359305E-5,6300000.0,94.3,88.58337739749074,89.08045977011493,87.92372881355931,384126.0,2166048.0,0.0,1.0,0.0,?,0.0,0.0,1004.0,651.0,651.0,8.0,0.0,0.0,1.0
6400000.0,39.25,1.960571767995135E-5,6400000.0,94.1,88.1844034125045,88.19999999999999,88.38582677165353,414126.0,2268456.0,0.0,1.0,0.0,?,0.0,0.0,1066.0,685.0,685.0,8.0,0.0,0.0,1.0
6500000.0,39.9375,2.0047483946351966E-5,6500000.0,93.60000000000001,87.20475982934349,87.76290630975144,86.3539445628998,444126.0,2342504.0,0.0,1.0,0.0,?,0.0,0.0,1106.0,708.0,708.0,8.0,0.0,0.0,1.0
6600000.0,40.65625,2.0520884136203686E-5,6600000.0,94.8,89.60237065948962,89.66202783300197,89.16666666666666,474126.0,2419448.0,0.0,1.0,0.0,?,0.0,0.0,1147.0,730.0,730.0,8.0,0.0,0.0,1.0
6700000.0,41.375,2.1014562322913367E-5,6700000.0,94.1,88.20933820414231,87.8099173553719,88.10483870967741,504126.0,2543048.0,0.0,1.0,0.0,?,0.0,0.0,1198.0,757.0,757.0,8.0,0.0,0.0,1.0
6800000.0,42.109375,2.1536010349842004E-5,6800000.0,94.69999999999999,89.35529222735488,89.62818003913894,89.27125506072873,534126.0,2647504.0,0.0,1.0,0.0,?,0.0,0.0,1266.0,800.0,800.0,8.0,0.0,0.0,1.0
6900000.0,42.84375,2.2078692434459107E-5,6900000.0,94.39999999999999,88.75971481790737,89.14728682170542,88.03418803418802,564126.0,2773920.0,0.0,1.0,0.0,?,0.0,0.0,1314.0,827.0,827.0,8.0,0.0,0.0,1.0
7000000.0,43.578125,2.2634171796703928E-5,7000000.0,95.1,90.19717678691462,90.10101010101009,90.18036072144288,594126.0,2856032.0,0.0,1.0,0.0,?,0.0,0.0,1361.0,852.0,852.0,9.0,0.0,0.0,1.0
7100000.0,44.328125,2.3238190365696544E-5,7100000.0,95.0,89.99523773316098,89.51781970649894,89.648033126294,623826.0,2908048.0,0.0,1.0,0.0,?,0.0,0.0,1392.0,869.0,869.0,9.0,0.0,0.0,1.0
7200000.0,45.09375,2.3870479619492685E-5,7200000.0,95.19999999999999,90.39323683873445,90.49504950495049,89.9581589958159,653826.0,3002008.0,0.0,1.0,0.0,?,0.0,0.0,1443.0,899.0,899.0,9.0,0.0,0.0,1.0
7300000.0,45.875,2.4532903820121052E-5,7300000.0,94.3,88.58218821361322,88.84540117416829,87.97468354430379,683826.0,3102000.0,0.0,1.0,0.0,?,0.0,0.0,1500.0,932.0,932.0,9.0,0.0,0.0,1.0
7400000.0,46.625,2.5176051907086137E-5,7400000.0,96.89999999999999,93.79419136311587,93.76257545271629,93.50104821802935,713826.0,3154136.0,0.0,1.0,0.0,?,0.0,0.0,1526.0,945.0,945.0,9.0,0.0,0.0,1.0
7500000.0,47.4375,2.5881775169788562E-5,7500000.0,96.6,93.18145355366596,92.901878914405,92.7038626609442,743826.0,3211736.0,0.0,1.0,0.0,?,0.0,0.0,1561.0,964.0,964.0,9.0,0.0,0.0,1.0
7600000.0,48.234375,2.658063254784794E-5,7600000.0,97.0,93.96706014841031,94.16342412451361,93.49240780911062,773826.0,3259176.0,0.0,1.0,0.0,?,0.0,0.0,1596.0,983.0,983.0,9.0,0.0,0.0,1.0
7700000.0,49.015625,2.7277643417215194E-5,7700000.0,95.39999999999999,90.78865161879435,90.39665970772441,90.37656903765689,803826.0,3332592.0,0.0,1.0,0.0,?,0.0,0.0,1643.0,1008.0,1008.0,9.0,0.0,0.0,1.0
7800000.0,49.78125,2.7968254904004033E-5,7800000.0,94.89999999999999,89.80146858852325,90.01956947162427,89.8,833826.0,3385728.0,0.0,1.0,0.0,?,0.0,0.0,1686.0,1034.0,1034.0,10.0,0.0,0.0,1.0
7900000.0,50.546875,2.867034481217465E-5,7900000.0,97.39999999999999,94.78930765931692,94.65020576131687,94.50317124735729,863826.0,3458448.0,0.0,1.0,0.0,?,0.0,0.0,1718.0,1050.0,1050.0,10.0,0.0,0.0,1.0
8000000.0,51.328125,2.939530020941878E-5,8000000.0,96.3,92.59478672985782,92.68774703557312,92.35537190082644,893826.0,3515584.0,0.0,1.0,0.0,?,0.0,0.0,1753.0,1069.0,1069.0,10.0,0.0,0.0,1.0
8100000.0,52.109375,3.015873248740618E-5,8100000.0,95.5,90.99841572116691,90.9819639278557,90.79754601226992,923526.0,3568688.0,0.0,1.0,0.0,?,0.0,0.0,1785.0,1085.0,1085.0,10.0,0.0,0.0,1.0
8200000.0,52.875,3.091719722659846E-5,8200000.0,96.8,93.57050146070169,93.45603271983639,93.42915811088295,953526.0,3635528.0,0.0,1.0,0.0,?,0.0,0.0,1813.0,1099.0,1099.0,10.0,0.0,0.0,1.0
8300000.0,53.65625,3.169980569509791E-5,8300000.0,95.0,89.99775949812758,90.23437499999999,89.71193415637859,983526.0,3693248.0,0.0,1.0,0.0,?,0.0,0.0,1849.0,1117.0,1117.0,10.0,0.0,0.0,1.0
8400000.0,54.609375,3.267013797691714E-5,8400000.0,96.2,92.40045597264164,92.53438113948918,92.36947791164658,1013526.0,3771112.0,0.0,1.0,0.0,?,0.0,0.0,1899.0,1145.0,1145.0,10.0,3211.883082373782,0.0,1.0257370217328476
8500000.0,55.421875,3.351334346613538E-5,8500000.0,97.7,95.39955835760232,95.38152610441767,95.29652351738241,1043526.0,3862176.0,0.0,1.0,0.0,?,0.0,0.0,1941.0,1169.0,1169.0,10.0,3211.883082373782,0.0,1.0257370217328476
8600000.0,56.25,3.43831951936914E-5,8600000.0,97.5,94.98370708059778,94.5054945054945,94.61206896551724,1073526.0,3925712.0,0.0,1.0,0.0,?,0.0,0.0,1980.0,1190.0,1190.0,10.0,3211.883082373782,0.0,1.0257370217328476
8700000.0,57.0625,3.524767066765992E-5,8700000.0,97.39999999999999,94.79900140827039,94.75806451612902,94.67213114754098,1103526.0,3993120.0,0.0,1.0,0.0,?,0.0,0.0,2023.0,1216.0,1216.0,10.0,3211.883082373782,0.0,1.0257370217328476
8800000.0,57.890625,3.6142754316743894E-5,8800000.0,96.3,92.5949645759116,92.6,92.44897959183673,1133526.0,4073144.0,0.0,1.0,0.0,?,0.0,0.0,2077.0,1246.0,1246.0,11.0,3211.883082373782,0.0,1.0257370217328476
8900000.0,58.71875,3.705388685274457E-5,8900000.0,97.1,94.19605331625505,94.26877470355731,93.8428874734607,1163526.0,4162784.0,0.0,1.0,0.0,?,0.0,0.0,2118.0,1268.0,1268.0,11.0,3211.883082373782,0.0,1.0257370217328476
9000000.0,59.546875,3.797245425327372E-5,9000000.0,98.1,96.18084310903492,96.24505928853755,95.80573951434879,1193526.0,4212376.0,0.0,1.0,0.0,?,0.0,0.0,2148.0,1283.0,1283.0,11.0,3211.883082373782,0.0,1.0257370217328476
9100000.0,60.375,3.892779835344604E-5,9100000.0,96.6,93.18910256410255,93.10344827586206,92.91666666666666,1223226.0,4246872.0,0.0,1.0,0.0,?,0.0,0.0,2170.0,1294.0,1294.0,11.0,3211.883082373782,0.0,1.0257370217328476
9200000.0,61.21875,3.990995658872029E-5,9200000.0,96.89999999999999,93.795632125016,93.86138613861385,93.76257545271629,1253226.0,4302000.0,0.0,1.0,0.0,?,0.0,0.0,2202.0,1310.0,1310.0,11.0,3211.883082373782,0.0,1.0257370217328476
9300000.0,62.0625,4.089689774749181E-5,9300000.0,98.4,96.76898222940225,96.8,96.46017699115043,1283226.0,4338872.0,0.0,1.0,0.0,?,0.0,0.0,2237.0,1329.0,1329.0,11.0,3211.883082373782,0.0,1.0257370217328476
9400000.0,62.90625,4.189314805747321E-5,9400000.0,97.39999999999999,94.78698832285384,94.68302658486706,94.51476793248945,1313226.0,4396360.0,0.0,1.0,0.0,?,0.0,0.0,2267.0,1344.0,1344.0,11.0,3211.883082373782,0.0,1.0257370217328476
9500000.0,63.75,4.2895539857757593E-5,9500000.0,96.6,93.19019387918603,93.19999999999999,92.91666666666666,1343226.0,4439464.0,0.0,1.0,0.0,?,0.0,0.0,2289.0,1355.0,1355.0,11.0,3211.883082373782,0.0,1.0257370217328476
9600000.0,64.578125,4.388789888859417E-5,9600000.0,97.7,95.39369857965697,95.43650793650794,95.55984555984556,1373226.0,4494144.0,0.0,1.0,0.0,?,0.0,0.0,2317.0,1369.0,1369.0,11.0,3211.883082373782,0.0,1.0257370217328476
9700000.0,65.4375,4.492181569932857E-5,9700000.0,96.89999999999999,93.79727079915162,94.00386847195358,93.67346938775509,1403226.0,4527648.0,0.0,1.0,0.0,?,0.0,0.0,2342.0,1383.0,1383.0,11.0,3211.883082373782,0.0,1.0257370217328476
9800000.0,66.3125,4.598034219169576E-5,9800000.0,97.7,95.38615847542627,95.1983298538622,95.03239740820733,1433226.0,4568248.0,0.0,1.0,0.0,?,0.0,0.0,2370.0,1397.0,1397.0,12.0,3211.883082373782,0.0,1.0257370217328476
9900000.0,67.171875,4.7027078916370463E-5,9900000.0,97.5,94.99955996127659,95.00998003992015,95.0199203187251,1463226.0,4615168.0,0.0,1.0,0.0,?,0.0,0.0,2405.0,1416.0,1416.0,12.0,3211.883082373782,0.0,1.0257370217328476
1.0E7,68.046875,4.810048018245855E-5,1.0E7,98.4,96.79919339673597,96.70103092783505,96.74134419551935,1493226.0,4663856.0,0.0,1.0,0.0,?,0.0,0.0,2426.0,1428.0,1428.0,12.0,3211.883082373782,0.0,1.0257370217328476
