learning evaluation instances,evaluation time (cpu seconds),model cost (RAM-Hours),classified instances,classifications correct (percent),Kappa Statistic (percent),Kappa Temporal Statistic (percent),Kappa M Statistic (percent),model training instances,model serialized size (bytes),labeling cost,newThreshold,maxPosterior,accuracyBaseLearner (percent),Change detected,Warning detected
100000.0,0.140625,6.095506250858307E-9,100000.0,67.30000000000001,30.971882124461704,29.373650107991367,28.13186813186814,29700.0,9208.0,0.0,1.0,0.0,?,0.0,14.0
200000.0,0.3125,1.2869713827967645E-8,200000.0,69.5,33.744047825935844,33.40611353711789,29.561200923787528,59700.0,9208.0,0.0,1.0,0.0,?,0.0,0.0
300000.0,0.46875,1.8456032396190698E-8,300000.0,70.0,34.11111501563763,36.97478991596637,29.245283018867923,89700.0,9208.0,0.0,1.0,0.0,?,0.0,85.0
400000.0,0.640625,2.3925127202851905E-8,400000.0,69.5,33.48395763909486,38.87775551102203,28.904428904428904,119700.0,9208.0,0.0,1.0,0.0,?,0.0,0.0
500000.0,0.78125,2.7846868356896772E-8,500000.0,72.1,37.125910434845316,40.764331210191074,30.94059405940594,149700.0,9208.0,0.0,1.0,0.0,?,0.0,0.0
600000.0,0.953125,3.196425192678968E-8,600000.0,68.4,30.48742394312289,39.694656488549626,25.995316159250603,179700.0,9208.0,0.0,1.0,0.0,?,0.0,0.0
700000.0,1.109375,3.5092913700888553E-8,700000.0,69.6,33.40460209249749,36.26834381551362,28.638497652582156,209700.0,9208.0,0.0,1.0,0.0,?,0.0,0.0
800000.0,1.28125,3.7858586034013166E-8,800000.0,67.0,28.292358572974486,31.818181818181824,23.787528868360294,239700.0,9208.0,0.0,1.0,0.0,?,0.0,0.0
900000.0,1.4375,3.975841941104995E-8,900000.0,68.60000000000001,32.2925651198896,38.55185909980432,28.636363636363637,269700.0,9208.0,0.0,1.0,0.0,?,0.0,0.0
1000000.0,1.59375,4.104383858955569E-8,1000000.0,68.2,30.516710949517574,34.96932515337424,25.70093457943927,299700.0,9208.0,0.0,1.0,0.0,?,0.0,0.0
1100000.0,1.75,4.786512969682614E-8,1100000.0,68.5,31.651304483674448,34.782608695652186,27.25173210161665,329400.0,9208.0,0.0,1.0,0.0,?,0.0,0.0
1200000.0,1.90625,5.407200660556555E-8,1200000.0,71.3,35.6588799713043,43.39250493096646,30.508474576271183,359400.0,9208.0,0.0,1.0,0.0,?,0.0,0.0
1300000.0,2.0625,5.966446931577391E-8,1300000.0,68.30000000000001,29.467782128871505,35.17382413087935,24.703087885985767,389400.0,9208.0,0.0,1.0,0.0,?,0.0,0.0
1400000.0,2.21875,6.464251782745123E-8,1400000.0,67.60000000000001,27.812633680308014,34.01221995926681,22.48803827751198,419400.0,9208.0,0.0,1.0,0.0,?,0.0,0.0
1500000.0,2.359375,6.856978870928287E-8,1500000.0,68.30000000000001,30.240132389704605,35.17382413087935,25.059101654846355,449400.0,9208.0,0.0,1.0,0.0,?,0.0,0.0
1600000.0,2.5,7.190246833488346E-8,1600000.0,69.5,32.65859452966995,35.517970401691315,27.55344418052256,20423.0,9208.0,0.0,1.0,0.0,?,2.0,15.0
1700000.0,2.65625,7.502563271878495E-8,1700000.0,69.8,33.54575220927366,37.34439834024895,28.436018957345965,50423.0,9208.0,0.0,1.0,0.0,?,0.0,26.0
1800000.0,2.796875,7.728350788561835E-8,1800000.0,69.89999999999999,35.880503412605755,38.696537678207726,32.51121076233182,80423.0,9208.0,0.0,1.0,0.0,?,0.0,0.0
1900000.0,2.9375,7.89884102737738E-8,1900000.0,69.39999999999999,32.59169512060798,36.382536382536365,27.999999999999996,110423.0,9208.0,0.0,1.0,0.0,?,0.0,0.0
2000000.0,3.078125,8.014033988325132E-8,2000000.0,68.30000000000001,30.895868575713724,36.472945891783574,26.78983833718247,140423.0,9208.0,0.0,1.0,0.0,?,0.0,0.0
2100000.0,3.203125,8.559297485690978E-8,2100000.0,65.8,23.43889214733761,31.46292585170341,18.377088305489274,170123.0,9208.0,0.0,1.0,0.0,?,0.0,0.0
2200000.0,3.359375,9.17943543754518E-8,2200000.0,69.1,31.284468955701815,33.1168831168831,25.54216867469879,200123.0,9208.0,0.0,1.0,0.0,?,0.0,0.0
2300000.0,3.5,9.682262316346168E-8,2300000.0,67.10000000000001,28.16217443708842,30.29661016949153,23.84259259259261,230123.0,9208.0,0.0,1.0,0.0,?,0.0,0.0
2400000.0,3.640625,1.0129791917279362E-7,2400000.0,68.30000000000001,29.654976522071046,34.9075975359343,24.16267942583734,260123.0,9208.0,0.0,1.0,0.0,?,0.0,0.0
2500000.0,3.796875,1.0565605609574251E-7,2500000.0,66.60000000000001,26.4900079232327,30.41666666666667,22.325581395348852,290123.0,9208.0,0.0,1.0,0.0,?,0.0,0.0
2600000.0,3.9375,1.0902540654771857E-7,2600000.0,70.39999999999999,35.53333101021012,39.094650205761305,30.516431924882625,320123.0,9208.0,0.0,1.0,0.0,?,0.0,0.0
2700000.0,4.078125,1.1184178422101669E-7,2700000.0,68.7,31.49965421550692,37.40000000000001,26.525821596244153,350123.0,9208.0,0.0,1.0,0.0,?,0.0,0.0
2800000.0,4.21875,1.1410518911563687E-7,2800000.0,68.89999999999999,30.418829425451932,36.530612244897945,25.060240963855414,380123.0,9208.0,0.0,1.0,0.0,?,0.0,0.0
2900000.0,4.359375,1.1581562123157911E-7,2900000.0,67.30000000000001,27.868071364286113,34.33734939759037,22.877358490566056,410123.0,9208.0,0.0,1.0,0.0,?,0.0,0.0
3000000.0,4.515625,1.1710168716187278E-7,3000000.0,68.89999999999999,29.751170060897365,35.4771784232365,23.58722358722358,440123.0,9208.0,0.0,1.0,0.0,?,0.0,0.0
3100000.0,4.65625,1.2324143123502532E-7,3100000.0,67.7,28.802560462717253,33.67556468172486,23.459715639810444,469823.0,9208.0,0.0,1.0,0.0,?,0.0,0.0
3200000.0,4.796875,1.2882820252949992E-7,3200000.0,70.5,34.840037814866186,37.76371308016876,30.09478672985782,499823.0,9208.0,0.0,1.0,0.0,?,0.0,0.0
3300000.0,4.921875,1.3330269009909695E-7,3300000.0,70.19999999999999,32.6985618269856,38.42975206611569,26.237623762376234,529823.0,9208.0,0.0,1.0,0.0,?,0.0,0.0
3400000.0,5.078125,1.382813853625622E-7,3400000.0,68.4,31.868359321098396,34.02922755741128,28.506787330316747,559823.0,9208.0,0.0,1.0,0.0,?,0.0,0.0
3500000.0,5.21875,1.4220923832100298E-7,3500000.0,68.60000000000001,30.927376956141106,37.94466403162057,26.463700234192057,589823.0,9208.0,0.0,1.0,0.0,?,0.0,0.0
3600000.0,5.34375,1.452091318141255E-7,3600000.0,69.1,30.78081037974229,37.322515212981735,25.181598062953984,619823.0,9208.0,0.0,1.0,0.0,?,0.0,0.0
3700000.0,5.484375,1.480310392152104E-7,3700000.0,67.7,28.790003262872926,29.629629629629633,22.727272727272744,649823.0,9208.0,0.0,1.0,0.0,?,0.0,0.0
3800000.0,5.625,1.5029997383761735E-7,3800000.0,69.39999999999999,30.39126478616923,41.04046242774565,23.499999999999993,679823.0,9208.0,0.0,1.0,0.0,?,0.0,0.0
3900000.0,5.78125,1.5220659810842737E-7,3900000.0,66.0,24.394376720583868,29.752066115702487,18.46522781774582,709823.0,9208.0,0.0,1.0,0.0,?,0.0,0.0
4000000.0,5.921875,1.5336958717347845E-7,4000000.0,71.0,33.98047643330661,43.35937499999999,26.76767676767676,739823.0,9208.0,0.0,1.0,0.0,?,0.0,0.0
4100000.0,6.046875,1.588320527743134E-7,4100000.0,66.8,26.722787006096137,35.90733590733592,21.140142517814745,769523.0,9208.0,0.0,1.0,0.0,?,0.0,0.0
4200000.0,6.15625,1.6318162023607225E-7,4200000.0,69.3,29.938747752106394,34.957627118644055,23.057644110275678,799523.0,9208.0,0.0,1.0,0.0,?,0.0,0.0
4300000.0,6.296875,1.6822094847965568E-7,4300000.0,72.0,38.4184990828755,44.66403162055336,32.853717026378895,829523.0,9208.0,0.0,1.0,0.0,?,0.0,0.0
4400000.0,6.453125,1.7320578788510622E-7,4400000.0,71.0,36.86731250680309,38.42887473460721,31.76470588235294,859523.0,9208.0,0.0,1.0,0.0,?,0.0,0.0
4500000.0,6.59375,1.7713917057133377E-7,4500000.0,68.7,30.36025773379375,35.860655737704924,25.29832935560861,889523.0,9208.0,0.0,1.0,0.0,?,0.0,0.0
4600000.0,6.734375,1.8051958047888338E-7,4600000.0,68.8,31.76599234554401,36.45621181262728,26.58823529411764,919523.0,9208.0,0.0,1.0,0.0,?,0.0,0.0
4700000.0,6.859375,1.8303285792676933E-7,4700000.0,70.3,33.72725081892588,41.30434782608695,28.087167070217912,949523.0,9208.0,0.0,1.0,0.0,?,0.0,0.0
4800000.0,7.015625,1.855600405380957E-7,4800000.0,68.60000000000001,31.060223505390056,34.03361344537816,26.463700234192057,979523.0,9208.0,0.0,1.0,0.0,?,0.0,0.0
4900000.0,7.15625,1.8728153210961148E-7,4900000.0,67.0,27.664574053940328,32.653061224489804,23.61111111111113,1009523.0,9208.0,0.0,1.0,0.0,?,0.0,0.0
5000000.0,7.296875,1.885341609724693E-7,5000000.0,68.2,29.58993888938094,36.27254509018037,24.644549763033194,1039523.0,9208.0,0.0,1.0,0.0,?,0.0,0.0
5100000.0,7.4375,1.9473880658754035E-7,5100000.0,59.699999999999996,19.27730149827738,18.58585858585858,18.749999999999993,24710.0,9208.0,0.0,1.0,0.0,?,1.0,31.0
5200000.0,7.59375,2.0101844307242158E-7,5200000.0,61.3,22.51073236368296,20.206185567010305,20.696721311475404,54710.0,9208.0,0.0,1.0,0.0,?,0.0,0.0
5300000.0,7.734375,2.0611714313013675E-7,5300000.0,63.1,24.71108644554714,27.218934911242602,18.362831858407073,84710.0,9208.0,0.0,1.0,0.0,?,0.0,0.0
5400000.0,7.875,2.1066287040917397E-7,5400000.0,61.1,22.31311210876963,26.185958254269448,21.57258064516129,114710.0,9208.0,0.0,1.0,0.0,?,0.0,0.0
5500000.0,8.03125,2.1509926429846208E-7,5500000.0,61.9,23.225728448797007,23.18548387096774,20.292887029288696,144710.0,9208.0,0.0,1.0,0.0,?,0.0,0.0
5600000.0,8.171875,2.1853904602014343E-7,5600000.0,58.8,16.077306651891927,15.746421267893652,11.965811965811953,174710.0,9208.0,0.0,1.0,0.0,?,0.0,0.0
5700000.0,8.3125,2.2142585496314683E-7,5700000.0,59.699999999999996,18.914133487859246,21.442495126705648,17.078189300411513,204710.0,9208.0,0.0,1.0,0.0,?,0.0,0.0
5800000.0,8.453125,2.237596911274723E-7,5800000.0,61.9,22.805737904206175,25.440313111545986,14.382022471910103,234710.0,9208.0,0.0,1.0,0.0,?,0.0,0.0
5900000.0,8.609375,2.2573842822263623E-7,5900000.0,59.099999999999994,17.125952342356936,17.871485943775095,14.07563025210083,264710.0,9208.0,0.0,1.0,0.0,?,0.0,0.0
6000000.0,8.734375,2.2682988653994254E-7,6000000.0,61.199999999999996,22.07427045048301,18.828451882845183,23.921568627450977,294710.0,9208.0,0.0,1.0,0.0,?,0.0,0.0
6100000.0,8.875,2.3304006188280038E-7,6100000.0,61.9,23.859085349768584,24.404761904761905,25.730994152046783,324410.0,9208.0,0.0,1.0,0.0,?,0.0,0.0
6200000.0,9.03125,2.3932584250966694E-7,6200000.0,62.3,24.333046989779945,25.04970178926441,23.217922606924642,354410.0,9208.0,0.0,1.0,0.0,?,0.0,0.0
6300000.0,9.171875,2.444300722951689E-7,6300000.0,56.699999999999996,13.988319891939122,11.81262729124235,7.081545064377666,384410.0,9208.0,0.0,1.0,0.0,?,0.0,0.0
6400000.0,9.3125,2.4898132930199287E-7,6400000.0,60.5,20.714572460859085,22.700587084148726,21.78217821782178,414410.0,9208.0,0.0,1.0,0.0,?,0.0,0.0
6500000.0,9.46875,2.534238673332663E-7,6500000.0,59.4,17.61898578014413,17.647058823529406,13.247863247863236,444410.0,9208.0,0.0,1.0,0.0,?,0.0,0.0
6600000.0,9.609375,2.568691787827344E-7,6600000.0,60.4,20.49469964664312,22.504892367906066,17.671517671517663,474410.0,9208.0,0.0,1.0,0.0,?,0.0,0.0
6700000.0,9.75,2.5976151745352456E-7,6700000.0,62.6,25.359730177420325,24.899598393574294,25.2,504410.0,9208.0,0.0,1.0,0.0,?,0.0,0.0
6800000.0,9.90625,2.623608128892048E-7,6800000.0,61.8,23.187053600154425,22.828282828282827,21.399176954732507,534410.0,9208.0,0.0,1.0,0.0,?,0.0,0.0
6900000.0,10.046875,2.641472060026391E-7,6900000.0,61.9,23.831076920616383,24.103585657370516,20.125786163522008,564410.0,9208.0,0.0,1.0,0.0,?,0.0,0.0
7000000.0,10.1875,2.6538062633739546E-7,7000000.0,61.199999999999996,20.9118778944622,22.24448897795591,15.283842794759817,594410.0,9208.0,0.0,1.0,0.0,?,0.0,0.0
7100000.0,10.328125,2.7159633140804007E-7,7100000.0,61.7,23.60534882236548,26.061776061776065,21.516393442622945,624110.0,9208.0,0.0,1.0,0.0,?,0.0,0.0
7200000.0,10.46875,2.7725906370000674E-7,7200000.0,59.699999999999996,18.868425926671538,19.07630522088353,15.866388308977028,654110.0,9208.0,0.0,1.0,0.0,?,0.0,0.0
7300000.0,10.609375,2.8236882321329547E-7,7300000.0,62.6,23.542086605963714,26.08695652173913,18.87201735357917,684110.0,9208.0,0.0,1.0,0.0,?,0.0,0.0
7400000.0,10.765625,2.8743191958508526E-7,7400000.0,56.8,12.43184075568078,17.39961759082217,8.280254777070049,714110.0,9208.0,0.0,1.0,0.0,?,0.0,0.0
7500000.0,10.90625,2.914357335410181E-7,7500000.0,59.099999999999994,18.11549519103715,24.259259259259245,16.016427104722787,744110.0,9208.0,0.0,1.0,0.0,?,0.0,0.0
7600000.0,11.0625,2.952700015157458E-7,7600000.0,63.4,26.70148679825686,25.910931174089068,26.358148893360163,774110.0,9208.0,0.0,1.0,0.0,?,0.0,0.0
7700000.0,11.203125,2.9816786991432275E-7,7700000.0,61.3,21.840287595427558,22.444889779559116,19.709543568464724,804110.0,9208.0,0.0,1.0,0.0,?,0.0,0.0
7800000.0,11.34375,3.005127655342218E-7,7800000.0,62.5,23.592263869532264,23.935091277890468,16.851441241685137,834110.0,9208.0,0.0,1.0,0.0,?,0.0,0.0
7900000.0,11.46875,3.021055858375294E-7,7900000.0,60.4,20.323534737731624,22.807017543859647,18.685831622176586,864110.0,9208.0,0.0,1.0,0.0,?,0.0,0.0
8000000.0,11.609375,3.0334453590007256E-7,8000000.0,61.0,21.11490928214567,19.087136929460573,16.488222698072796,894110.0,9208.0,0.0,1.0,0.0,?,0.0,0.0
8100000.0,11.75,3.0956577069850397E-7,8100000.0,60.3,20.215117727919484,22.612085769980506,17.634854771784227,923810.0,9208.0,0.0,1.0,0.0,?,0.0,0.0
8200000.0,11.890625,3.1523403271825743E-7,8200000.0,62.5,25.189121899837218,25.0,25.595238095238095,953810.0,9208.0,0.0,1.0,0.0,?,0.0,0.0
8300000.0,12.046875,3.2091768743056354E-7,8300000.0,62.0,24.722662440570524,21.97125256673511,21.325051759834366,983810.0,9208.0,0.0,1.0,0.0,?,0.0,0.0
8400000.0,12.1875,3.254800038929611E-7,8400000.0,62.6,24.88602357855837,23.360655737704917,23.517382413087933,1013810.0,9208.0,0.0,1.0,0.0,?,0.0,0.0
8500000.0,12.328125,3.2948934757668076E-7,8500000.0,63.4,25.913030804795,24.380165289256198,20.261437908496728,1043810.0,9208.0,0.0,1.0,0.0,?,0.0,0.0
8600000.0,12.484375,3.333297596933938E-7,8600000.0,59.9,19.3639200797915,18.32993890020366,16.804979253112027,1073810.0,9208.0,0.0,1.0,0.0,?,0.0,0.0
8700000.0,12.625,3.3623315781975754E-7,8700000.0,60.8,20.039164490861616,21.7564870259481,14.782608695652163,1103810.0,9208.0,0.0,1.0,0.0,?,0.0,0.0
8800000.0,12.765625,3.3858358316744336E-7,8800000.0,60.5,20.80486318288262,20.2020202020202,19.87829614604462,1133810.0,9208.0,0.0,1.0,0.0,?,0.0,0.0
8900000.0,12.90625,3.4038103573645124E-7,8900000.0,60.699999999999996,20.877793436682104,23.984526112185687,17.263157894736835,1163810.0,9208.0,0.0,1.0,0.0,?,0.0,0.0
9000000.0,13.0625,3.4176379105904005E-7,9000000.0,60.199999999999996,18.968662453580045,26.022304832713743,11.946902654867243,1193810.0,9208.0,0.0,1.0,0.0,?,0.0,0.0
9100000.0,13.203125,3.4799055558525824E-7,9100000.0,57.8,14.411691930766757,17.416829745596864,8.459869848156167,1223510.0,9208.0,0.0,1.0,0.0,?,0.0,0.0
9200000.0,13.34375,3.536643473327985E-7,9200000.0,60.4,20.799999999999997,21.893491124260354,20.799999999999997,1253510.0,9208.0,0.0,1.0,0.0,?,0.0,0.0
9300000.0,13.5,3.5935414618708994E-7,9300000.0,59.599999999999994,18.7818891654236,19.199999999999996,17.043121149897324,1283510.0,9208.0,0.0,1.0,0.0,?,0.0,0.0
9400000.0,13.65625,3.6442953084285033E-7,9400000.0,62.5,25.184345772017753,27.18446601941748,28.97727272727273,1313510.0,9208.0,0.0,1.0,0.0,?,0.0,0.0
9500000.0,13.8125,3.6889050130007967E-7,9500000.0,61.199999999999996,22.068009721413222,23.921568627450977,22.24448897795591,1343510.0,9208.0,0.0,1.0,0.0,?,0.0,0.0
9600000.0,13.953125,3.7235240193290816E-7,9600000.0,60.199999999999996,20.189299751343544,20.558882235528937,19.59595959595959,1373510.0,9208.0,0.0,1.0,0.0,?,0.0,0.0
9700000.0,14.109375,3.755845439930754E-7,9700000.0,61.8,23.033526756931007,29.259259259259252,20.083682008368196,1403510.0,9208.0,0.0,1.0,0.0,?,0.0,0.0
9800000.0,14.25,3.77940499068548E-7,9800000.0,62.4,24.58249591822816,25.83826429980276,23.732251521298174,1433510.0,9208.0,0.0,1.0,0.0,?,0.0,0.0
9900000.0,14.390625,3.797434813653427E-7,9900000.0,63.5,25.634046159864393,27.579365079365083,20.479302832244002,1463510.0,9208.0,0.0,1.0,0.0,?,0.0,0.0
1.0E7,14.546875,3.811323808299168E-7,1.0E7,60.3,19.237372956522442,22.003929273084477,16.77148846960167,1493510.0,9208.0,0.0,1.0,0.0,?,0.0,0.0
