learning evaluation instances,evaluation time (cpu seconds),model cost (RAM-Hours),classified instances,classifications correct (percent),Kappa Statistic (percent),Kappa Temporal Statistic (percent),Kappa M Statistic (percent),model training instances,model serialized size (bytes),labeling cost,newThreshold,maxPosterior,accuracyBaseLearner (percent),Change detected,Warning detected
100000.0,0.140625,6.019836291670799E-9,100000.0,59.8,19.508239392907917,18.787878787878782,19.11468812877263,29700.0,9208.0,0.0,1.0,0.0,?,0.0,0.0
200000.0,0.296875,1.2094129083885088E-8,200000.0,61.199999999999996,22.28062303698481,19.999999999999996,20.328542094455848,59700.0,9208.0,0.0,1.0,0.0,?,0.0,0.0
300000.0,0.4375,1.7008019818200007E-8,300000.0,63.1,24.757142973662955,27.36220472440945,18.54304635761589,89700.0,9208.0,0.0,1.0,0.0,?,0.0,0.0
400000.0,0.578125,2.1468181835694447E-8,400000.0,61.1,22.339788380914353,26.185958254269448,21.41414141414141,119700.0,9208.0,0.0,1.0,0.0,?,0.0,24.0
500000.0,0.75,2.6261776737454868E-8,500000.0,62.0,23.4340243076824,23.387096774193548,20.5020920502092,149700.0,9208.0,0.0,1.0,0.0,?,0.0,4.0
600000.0,0.890625,2.959823986101482E-8,600000.0,58.699999999999996,15.910608701317738,15.541922290388541,11.752136752136739,179700.0,9208.0,0.0,1.0,0.0,?,0.0,28.0
700000.0,1.03125,3.2381730205896833E-8,700000.0,59.699999999999996,18.874305499637643,21.59533073929961,16.907216494845354,209700.0,9208.0,0.0,1.0,0.0,?,0.0,0.0
800000.0,1.171875,3.461224777210091E-8,800000.0,61.9,22.76567795923,25.440313111545986,14.189189189189177,239700.0,9208.0,0.0,1.0,0.0,?,0.0,0.0
900000.0,1.328125,3.647618642490772E-8,900000.0,59.099999999999994,17.125952342356936,18.03607214428857,14.07563025210083,269700.0,9208.0,0.0,1.0,0.0,?,0.0,0.0
1000000.0,1.453125,3.747580598832833E-8,1000000.0,61.199999999999996,22.07427045048301,18.99791231732776,23.921568627450977,299700.0,9208.0,0.0,1.0,0.0,?,0.0,0.0
1100000.0,1.59375,4.358266273306476E-8,1100000.0,61.8,23.658630172027888,24.206349206349206,25.390625,329400.0,9208.0,0.0,1.0,0.0,?,0.0,0.0
1200000.0,1.734375,4.913654669912325E-8,1200000.0,62.3,24.365229672904697,24.900398406374503,23.3739837398374,359400.0,9208.0,0.0,1.0,0.0,?,0.0,0.0
1300000.0,1.875,5.41374578865038E-8,1300000.0,56.8,14.148078665797534,12.016293279022392,7.296137339055778,389400.0,9208.0,0.0,1.0,0.0,?,0.0,0.0
1400000.0,2.015625,5.858539629520641E-8,1400000.0,60.6,20.88353413654618,22.745098039215684,21.825396825396822,419400.0,9208.0,0.0,1.0,0.0,?,0.0,0.0
1500000.0,2.15625,6.248036192523108E-8,1500000.0,59.3,17.453595534787127,17.611336032388657,13.219616204690821,449400.0,9208.0,0.0,1.0,0.0,?,0.0,0.0
1600000.0,2.3125,6.619368731561634E-8,1600000.0,60.3,20.319524727039177,22.309197651663403,17.634854771784227,479400.0,9208.0,0.0,1.0,0.0,?,0.0,0.0
1700000.0,2.453125,6.898270738828513E-8,1700000.0,62.6,25.359730177420325,24.899598393574294,25.349301397205586,509400.0,9208.0,0.0,1.0,0.0,?,0.0,0.0
1800000.0,2.59375,7.121875468227598E-8,1800000.0,61.7,23.0156943461761,22.626262626262626,21.35523613963039,539400.0,9208.0,0.0,1.0,0.0,?,0.0,0.0
1900000.0,2.734375,7.290182919758889E-8,1900000.0,61.9,23.831076920616383,24.103585657370516,20.292887029288696,569400.0,9208.0,0.0,1.0,0.0,?,0.0,0.0
2000000.0,2.890625,7.415749779384997E-8,2000000.0,61.199999999999996,20.889624715059913,22.24448897795591,15.098468271334783,599400.0,9208.0,0.0,1.0,0.0,?,0.0,0.0
2100000.0,3.015625,7.95907302138706E-8,2100000.0,61.6,23.403746035545456,26.011560693641616,21.14989733059548,629100.0,9208.0,0.0,1.0,0.0,?,0.0,0.0
2200000.0,3.15625,8.515014390771588E-8,2200000.0,59.699999999999996,18.868425926671538,19.23847695390781,15.866388308977028,659100.0,9208.0,0.0,1.0,0.0,?,0.0,0.0
2300000.0,3.296875,9.015658482288321E-8,2300000.0,62.7,23.734358387175917,26.284584980237156,19.088937093275483,689100.0,9208.0,0.0,1.0,0.0,?,0.0,0.0
2400000.0,3.4375,9.46100529593726E-8,2400000.0,56.8,12.482577550160428,17.55725190839694,8.474576271186425,719100.0,9208.0,0.0,1.0,0.0,?,0.0,0.0
2500000.0,3.578125,9.851054831718405E-8,2500000.0,59.099999999999994,18.11549519103715,24.3992606284658,16.016427104722787,749100.0,9208.0,0.0,1.0,0.0,?,0.0,0.0
2600000.0,3.71875,1.0185807089631756E-7,2600000.0,63.4,26.70148679825686,26.060606060606062,26.358148893360163,779100.0,9208.0,0.0,1.0,0.0,?,0.0,0.0
2700000.0,3.875,1.0496312623015708E-7,2700000.0,61.3,21.888245694770745,22.28915662650602,19.875776397515523,809100.0,9208.0,0.0,1.0,0.0,?,0.0,0.0
2800000.0,4.015625,1.0720470325193471E-7,2800000.0,62.6,23.766816143497746,24.137931034482758,16.888888888888882,839100.0,9208.0,0.0,1.0,0.0,?,0.0,0.0
2900000.0,4.15625,1.088933074950344E-7,2900000.0,60.4,20.364233083432545,22.957198443579767,18.852459016393436,869100.0,9208.0,0.0,1.0,0.0,?,0.0,0.0
3000000.0,4.296875,1.1002893895945615E-7,3000000.0,61.0,21.11490928214567,19.087136929460573,16.488222698072796,899100.0,9208.0,0.0,1.0,0.0,?,0.0,0.0
3100000.0,4.4375,1.1614685515976614E-7,3100000.0,60.3,20.231148832200095,22.460937499999996,17.805383022774322,928800.0,9208.0,0.0,1.0,0.0,?,0.0,0.0
3200000.0,4.59375,1.223301256282462E-7,3200000.0,62.6,25.386235955056186,25.0501002004008,25.940594059405942,958800.0,9208.0,0.0,1.0,0.0,?,0.0,0.0
3300000.0,4.734375,1.2734209627120032E-7,3300000.0,62.0,24.745024259827705,21.810699588477362,21.161825726141075,988800.0,9208.0,0.0,1.0,0.0,?,0.0,0.0
3400000.0,4.875,1.318010941354765E-7,3400000.0,62.6,24.88602357855837,23.517382413087933,23.517382413087933,1018800.0,9208.0,0.0,1.0,0.0,?,0.0,0.0
3500000.0,5.03125,1.361411220083634E-7,3500000.0,63.4,25.913030804795,24.380165289256198,20.261437908496728,1048800.0,9208.0,0.0,1.0,0.0,?,0.0,0.0
3600000.0,5.171875,1.394941743152837E-7,3600000.0,59.9,19.32563473222547,18.32993890020366,16.632016632016626,1078800.0,9208.0,0.0,1.0,0.0,?,0.0,0.0
3700000.0,5.3125,1.4229425384352605E-7,3700000.0,60.8,19.985956718934332,21.7564870259481,14.59694989106753,1108800.0,9208.0,0.0,1.0,0.0,?,0.0,0.0
3800000.0,5.46875,1.4479103912081985E-7,3800000.0,60.5,20.774365392638234,20.2020202020202,19.71544715447154,1138800.0,9208.0,0.0,1.0,0.0,?,0.0,0.0
3900000.0,5.59375,1.4629693598383004E-7,3900000.0,60.699999999999996,20.906456287232324,23.984526112185687,17.43697478991596,1168800.0,9208.0,0.0,1.0,0.0,?,0.0,0.0
4000000.0,5.734375,1.4743809717603857E-7,4000000.0,60.099999999999994,18.780940594059405,25.97402597402597,11.725663716814145,1198800.0,9208.0,0.0,1.0,0.0,?,0.0,0.0
4100000.0,5.875,1.5356154310413533E-7,4100000.0,57.9,14.645321914864276,17.612524461839524,8.874458874458858,1228500.0,9208.0,0.0,1.0,0.0,?,0.0,0.0
4200000.0,6.015625,1.5913201625355415E-7,4200000.0,60.5,20.96395956556189,22.09072978303747,20.999999999999996,1258500.0,9208.0,0.0,1.0,0.0,?,0.0,0.0
4300000.0,6.171875,1.6470701666548848E-7,4300000.0,59.599999999999994,18.7818891654236,19.038076152304605,17.043121149897324,1288500.0,9208.0,0.0,1.0,0.0,?,0.0,0.0
4400000.0,6.3125,1.6917154425755142E-7,4400000.0,62.5,25.159858542153955,27.042801556420237,28.97727272727273,1318500.0,9208.0,0.0,1.0,0.0,?,0.0,0.0
4500000.0,6.453125,1.7308309907093642E-7,4500000.0,61.199999999999996,22.068009721413222,24.070450097847356,22.088353413654616,1348500.0,9208.0,0.0,1.0,0.0,?,0.0,0.0
4600000.0,6.5625,1.7569532954237525E-7,4600000.0,60.099999999999994,20.024052916416114,20.359281437125745,19.55645161290322,1378500.0,9208.0,0.0,1.0,0.0,?,0.0,0.0
4700000.0,6.71875,1.788126731601854E-7,4700000.0,61.7,22.825824131538656,28.942486085343226,19.874476987447697,1408500.0,9208.0,0.0,1.0,0.0,?,0.0,0.0
4800000.0,6.859375,1.8106530963753658E-7,4800000.0,62.5,24.751982534433495,26.18110236220473,23.78048780487805,1438500.0,9208.0,0.0,1.0,0.0,?,0.0,0.0
4900000.0,7.0,1.8276497333620981E-7,4900000.0,63.6,25.8501766151013,27.77777777777778,20.69716775599128,1468500.0,9208.0,0.0,1.0,0.0,?,0.0,0.0
5000000.0,7.140625,1.8399577432622508E-7,5000000.0,60.099999999999994,18.78027928184668,21.917808219178077,16.352201257861626,1498500.0,9208.0,0.0,1.0,0.0,?,0.0,0.0
5100000.0,7.296875,1.9093542101068625E-7,5100000.0,57.699999999999996,15.740408748655426,14.545454545454536,13.673469387755091,25006.0,9208.0,0.0,1.0,0.0,?,1.0,11.0
5200000.0,7.453125,1.9726065349661636E-7,5200000.0,60.199999999999996,21.26763070958042,14.224137931034472,15.498938428874725,55006.0,9208.0,0.0,1.0,0.0,?,0.0,0.0
5300000.0,7.609375,2.0297147178401546E-7,5300000.0,62.1,25.32372853303489,20.042194092827,17.96536796536796,85006.0,9208.0,0.0,1.0,0.0,?,0.0,1.0
5400000.0,7.765625,2.0804976682282153E-7,5400000.0,64.5,29.161511753202706,27.698574338085542,27.99188640973631,115006.0,9208.0,0.0,1.0,0.0,?,0.0,50.0
5500000.0,7.921875,2.1251364766309655E-7,5500000.0,61.199999999999996,23.008234943942853,24.21875,18.315789473684205,145006.0,9208.0,0.0,1.0,0.0,?,0.0,0.0
5600000.0,8.0625,2.1597816764066613E-7,5600000.0,63.800000000000004,27.862292703729242,31.826741996233526,24.267782426778243,175006.0,9208.0,0.0,1.0,0.0,?,0.0,0.0
5700000.0,8.203125,2.1888971483955777E-7,5700000.0,60.699999999999996,22.65484775010233,18.6335403726708,14.750542299349231,205006.0,9208.0,0.0,1.0,0.0,?,0.0,0.0
5800000.0,8.359375,2.2151035308423966E-7,5800000.0,60.5,22.767089003597675,20.36290322580645,11.235955056179762,235006.0,9208.0,0.0,1.0,0.0,?,0.0,0.0
5900000.0,8.5,2.2331595472577542E-7,5900000.0,61.199999999999996,22.642592828888606,27.611940298507452,15.835140997830793,265006.0,9208.0,0.0,1.0,0.0,?,0.0,0.0
6000000.0,8.640625,2.2456858358863324E-7,6000000.0,61.199999999999996,22.62284620293554,22.709163346613543,21.138211382113816,295006.0,9208.0,0.0,1.0,0.0,?,0.0,0.0
6100000.0,8.78125,2.3080349718737931E-7,6100000.0,61.199999999999996,23.170446759891796,22.554890219560875,18.65828092243186,324706.0,9208.0,0.0,1.0,0.0,?,0.0,0.0
6200000.0,8.921875,2.3648543800744742E-7,6200000.0,61.9,24.733901747121713,25.294117647058822,18.415417558886503,354706.0,9208.0,0.0,1.0,0.0,?,0.0,0.0
6300000.0,9.0625,2.416144060488376E-7,6300000.0,60.699999999999996,22.98164885903093,17.43697478991596,19.959266802443988,384706.0,9208.0,0.0,1.0,0.0,?,0.0,0.0
6400000.0,9.203125,2.461904013115498E-7,6400000.0,62.3,24.402236250030082,23.217922606924642,25.494071146245062,414706.0,9208.0,0.0,1.0,0.0,?,0.0,0.0
6500000.0,9.34375,2.502134237955841E-7,6500000.0,59.5,18.85003486442947,16.149068322981357,18.674698795180717,444706.0,9208.0,0.0,1.0,0.0,?,0.0,0.0
6600000.0,9.5,2.540690345793134E-7,6600000.0,61.5,23.861281187210277,24.951267056530213,18.4322033898305,474706.0,9208.0,0.0,1.0,0.0,?,0.0,0.0
6700000.0,9.640625,2.569861115059918E-7,6700000.0,62.5,25.405792488860605,25.595238095238095,22.52066115702479,504706.0,9208.0,0.0,1.0,0.0,?,0.0,0.0
6800000.0,9.78125,2.593502156539923E-7,6800000.0,61.7,24.307103669623235,24.45759368836292,18.855932203389823,534706.0,9208.0,0.0,1.0,0.0,?,0.0,0.0
6900000.0,9.9375,2.613625838421284E-7,6900000.0,62.4,25.24375308170698,25.544554455445546,22.633744855967073,564706.0,9208.0,0.0,1.0,0.0,?,0.0,0.0
7000000.0,10.078125,2.62620742432773E-7,7000000.0,61.5,22.749089041205842,23.913043478260867,18.4322033898305,594706.0,9208.0,0.0,1.0,0.0,?,0.0,0.0
7100000.0,10.21875,2.6886118575930585E-7,7100000.0,62.4,25.041366798907518,26.27450980392157,23.732251521298174,624406.0,9208.0,0.0,1.0,0.0,?,0.0,0.0
7200000.0,10.375,2.751805974791446E-7,7200000.0,60.6,21.34315545706814,21.825396825396822,19.262295081967206,654406.0,9208.0,0.0,1.0,0.0,?,0.0,0.0
7300000.0,10.515625,2.803150952483216E-7,7300000.0,60.5,23.11824608389647,20.040485829959508,11.036036036036021,684406.0,9208.0,0.0,1.0,0.0,?,0.0,0.0
7400000.0,10.671875,2.8540567857109826E-7,7400000.0,62.6,25.487023983615114,23.828920570264764,23.828920570264764,714406.0,9208.0,0.0,1.0,0.0,?,0.0,0.0
7500000.0,10.8125,2.8943423078291934E-7,7500000.0,63.7,27.521763437425122,27.833001988071572,26.96177062374246,744406.0,9208.0,0.0,1.0,0.0,?,0.0,0.0
7600000.0,10.953125,2.929098102160625E-7,7600000.0,59.199999999999996,19.169506300023766,15.876288659793806,10.132158590308356,774406.0,9208.0,0.0,1.0,0.0,?,0.0,0.0
7700000.0,11.109375,2.9615715094324605E-7,7700000.0,59.3,19.079695564692493,15.384615384615374,16.4271047227926,804406.0,9208.0,0.0,1.0,0.0,?,0.0,0.0
7800000.0,11.25,2.985267848190333E-7,7800000.0,61.1,23.03613542474556,24.171539961013643,17.584745762711858,834406.0,9208.0,0.0,1.0,0.0,?,0.0,0.0
7900000.0,11.390625,3.0034344591614263E-7,7900000.0,63.6,27.10465288597485,28.62745098039216,26.16632860040568,864406.0,9208.0,0.0,1.0,0.0,?,0.0,0.0
8000000.0,11.546875,3.0174754404773306E-7,8000000.0,60.5,22.429165062881456,22.09072978303747,12.80353200883001,894406.0,9208.0,0.0,1.0,0.0,?,0.0,0.0
8100000.0,11.6875,3.079935171020527E-7,8100000.0,62.2,25.336577965994557,24.248496993987974,19.230769230769226,924106.0,9208.0,0.0,1.0,0.0,?,0.0,0.0
8200000.0,11.828125,3.136865173776944E-7,8200000.0,58.099999999999994,17.937107312410866,13.786008230452666,7.095343680709516,954106.0,9208.0,0.0,1.0,0.0,?,0.0,0.0
8300000.0,11.984375,3.1939765904098744E-7,8300000.0,60.699999999999996,20.861860652436572,20.606060606060602,19.46721311475409,984106.0,9208.0,0.0,1.0,0.0,?,0.0,0.0
8400000.0,12.125,3.2398471375927326E-7,8400000.0,61.8,23.950436389118934,24.95088408644401,21.721311475409834,1014106.0,9208.0,0.0,1.0,0.0,?,0.0,0.0
8500000.0,12.28125,3.284670270255042E-7,8500000.0,61.5,23.40442463791182,18.4322033898305,21.267893660531694,1044106.0,9208.0,0.0,1.0,0.0,?,0.0,0.0
8600000.0,12.421875,3.3194813618643414E-7,8600000.0,59.8,20.169986297833457,24.007561436672965,16.597510373443974,1074106.0,9208.0,0.0,1.0,0.0,?,0.0,0.0
8700000.0,12.5625,3.3487627256868614E-7,8700000.0,58.699999999999996,18.220412818603762,14.84536082474226,11.563169164882215,1104106.0,9208.0,0.0,1.0,0.0,?,0.0,0.0
8800000.0,12.703125,3.372514361722602E-7,8800000.0,60.8,22.322401664519965,19.836400817995905,16.417910447761187,1134106.0,9208.0,0.0,1.0,0.0,?,0.0,0.0
8900000.0,12.828125,3.388711613499456E-7,8900000.0,65.8,31.3906041237858,32.80943025540275,33.33333333333334,1164106.0,9208.0,0.0,1.0,0.0,?,0.0,0.0
9000000.0,12.984375,3.4028140362352137E-7,9000000.0,62.0,24.41270662184473,23.076923076923077,22.448979591836732,1194106.0,9208.0,0.0,1.0,0.0,?,0.0,0.0
9100000.0,13.125,3.4653290640562775E-7,9100000.0,59.9,21.170374214652476,16.804979253112027,10.690423162583505,1223806.0,9208.0,0.0,1.0,0.0,?,0.0,0.0
9200000.0,13.265625,3.522314364090562E-7,9200000.0,59.8,20.339251743817364,15.010570824524303,16.249999999999993,1253806.0,9208.0,0.0,1.0,0.0,?,0.0,0.0
9300000.0,13.421875,3.5794872221433456E-7,9300000.0,61.7,23.77138580834176,18.336886993603404,21.19341563786008,1283806.0,9208.0,0.0,1.0,0.0,?,0.0,0.0
9400000.0,13.5625,3.625413066604071E-7,9400000.0,62.2,24.862546165803316,23.326572008113587,21.413721413721408,1313806.0,9208.0,0.0,1.0,0.0,?,0.0,0.0
9500000.0,13.71875,3.670297640686234E-7,9500000.0,62.7,24.80990815923366,27.005870841487283,28.13102119460501,1343806.0,9208.0,0.0,1.0,0.0,?,0.0,0.0
9600000.0,13.859375,3.7051640295734007E-7,9600000.0,61.199999999999996,23.174402027562177,22.862823061630216,17.44680851063829,1373806.0,9208.0,0.0,1.0,0.0,?,0.0,0.0
9700000.0,14.0,3.734500690673788E-7,9700000.0,60.0,20.834405367427312,17.525773195876283,14.346895074946456,1403806.0,9208.0,0.0,1.0,0.0,?,0.0,0.0
9800000.0,14.15625,3.7609528388000193E-7,9800000.0,59.4,20.16580343483681,18.96207584830339,10.37527593818983,1433806.0,9208.0,0.0,1.0,0.0,?,0.0,0.0
9900000.0,14.3125,3.78126084494094E-7,9900000.0,60.8,22.492881999367285,23.28767123287671,17.647058823529406,1463806.0,9208.0,0.0,1.0,0.0,?,0.0,0.0
1.0E7,14.453125,3.794008322680989E-7,1.0E7,62.2,24.01338007783603,24.85089463220676,21.739130434782606,1493806.0,9208.0,0.0,1.0,0.0,?,0.0,0.0
