learning evaluation instances,evaluation time (cpu seconds),model cost (RAM-Hours),classified instances,classifications correct (percent),Kappa Statistic (percent),Kappa Temporal Statistic (percent),Kappa M Statistic (percent),model training instances,model serialized size (bytes),labeling cost,newThreshold,maxPosterior,accuracyBaseLearner (percent),Change detected,Warning detected
100000.0,0.15625,6.798978170586957E-9,100000.0,56.39999999999999,12.738567951838082,9.917355371900813,11.919191919191906,29700.0,9208.0,0.0,1.0,0.0,?,0.0,18.0
200000.0,0.328125,1.360199853984846E-8,200000.0,57.49999999999999,13.498331026622148,9.57446808510637,11.45833333333332,59700.0,9208.0,0.0,1.0,0.0,?,0.0,0.0
300000.0,0.46875,1.861513333602084E-8,300000.0,55.50000000000001,10.740075098687385,12.055335968379458,9.183673469387763,89700.0,9208.0,0.0,1.0,0.0,?,0.0,0.0
400000.0,0.609375,2.307529535351528E-8,400000.0,57.599999999999994,14.459907116370823,15.199999999999992,11.482254697286,119700.0,9208.0,0.0,1.0,0.0,?,0.0,0.0
500000.0,0.75,2.698248459233178E-8,500000.0,56.99999999999999,12.87080564110875,12.955465587044523,8.510638297872324,149700.0,9208.0,0.0,1.0,0.0,?,0.0,0.0
600000.0,0.90625,3.0709391770263515E-8,600000.0,54.300000000000004,8.243986668272898,11.089494163424133,6.7346938775510266,179700.0,9208.0,0.0,1.0,0.0,?,0.0,0.0
700000.0,1.046875,3.3510635451724134E-8,700000.0,55.60000000000001,10.196717730484991,10.843373493975914,7.306889352818378,209700.0,9208.0,0.0,1.0,0.0,?,0.0,0.0
800000.0,1.1875,3.575890635450681E-8,800000.0,54.50000000000001,9.287377587801856,13.001912045889114,9.000000000000007,239700.0,9208.0,0.0,1.0,0.0,?,0.0,0.0
900000.0,1.34375,3.764257093684541E-8,900000.0,59.699999999999996,18.367512295513652,18.913480885311866,14.799154334038045,269700.0,9208.0,0.0,1.0,0.0,?,0.0,0.0
1000000.0,1.484375,3.878489628227221E-8,1000000.0,55.50000000000001,9.666680199748285,10.101010101010111,2.1978021978022,299700.0,9208.0,0.0,1.0,0.0,?,0.0,0.0
1100000.0,1.625,4.490950636358725E-8,1100000.0,54.2,7.489324914457934,1.7167381974248945,3.983228511530402,329400.0,9208.0,0.0,1.0,0.0,?,0.0,0.0
1200000.0,1.78125,5.110021447762847E-8,1200000.0,57.8,14.599447122487044,15.59999999999999,10.403397027600835,359400.0,9208.0,0.0,1.0,0.0,?,0.0,0.0
1300000.0,1.921875,5.611887900158763E-8,1300000.0,57.4,13.776352861167766,18.546845124282978,9.745762711864392,389400.0,9208.0,0.0,1.0,0.0,?,0.0,0.0
1400000.0,2.078125,6.108075871856677E-8,1400000.0,55.300000000000004,10.944821650569015,10.600000000000009,12.180746561886062,419400.0,9208.0,0.0,1.0,0.0,?,0.0,0.0
1500000.0,2.21875,6.499347768517005E-8,1500000.0,55.900000000000006,10.739586285066592,15.839694656488563,6.170212765957453,449400.0,9208.0,0.0,1.0,0.0,?,0.0,0.0
1600000.0,2.375,6.87265290050871E-8,1600000.0,55.00000000000001,9.098254686489996,10.536779324055676,6.054279749478085,479400.0,9208.0,0.0,1.0,0.0,?,0.0,0.0
1700000.0,2.484375,7.09095749900573E-8,1700000.0,54.900000000000006,9.545279507091987,6.818181818181825,9.072580645161299,509400.0,9208.0,0.0,1.0,0.0,?,0.0,0.0
1800000.0,2.609375,7.291295332834126E-8,1800000.0,54.7,10.418364037620345,11.523437500000009,8.299595141700413,539400.0,9208.0,0.0,1.0,0.0,?,0.0,0.0
1900000.0,2.75,7.461378118023278E-8,1900000.0,56.49999999999999,11.562357686552584,15.697674418604644,7.051282051282034,569400.0,9208.0,0.0,1.0,0.0,?,0.0,0.0
2000000.0,2.890625,7.576163625344636E-8,2000000.0,56.2,12.692306158979749,11.515151515151526,12.224448897795602,599400.0,9208.0,0.0,1.0,0.0,?,0.0,0.0
2100000.0,3.0,8.052952277163666E-8,2100000.0,60.199999999999996,19.985203293875458,16.73640167364016,17.427385892116178,629100.0,9208.0,0.0,1.0,0.0,?,0.0,0.0
2200000.0,3.15625,8.672637502766319E-8,2200000.0,55.800000000000004,10.73772643738515,12.475247524752486,7.724425887265143,659100.0,9208.0,0.0,1.0,0.0,?,0.0,0.0
2300000.0,3.296875,9.175056927940913E-8,2300000.0,55.50000000000001,9.87086216115495,12.745098039215696,5.919661733615227,689100.0,9208.0,0.0,1.0,0.0,?,0.0,0.0
2400000.0,3.4375,9.622179075247713E-8,2400000.0,54.50000000000001,8.09937386386589,8.450704225352121,4.612159329140465,719100.0,9208.0,0.0,1.0,0.0,?,0.0,0.0
2500000.0,3.59375,1.0057540041291053E-7,2500000.0,55.300000000000004,9.561769109375648,6.48535564853557,3.8709677419354875,749100.0,9208.0,0.0,1.0,0.0,?,0.0,0.0
2600000.0,3.734375,1.0394067632862265E-7,2600000.0,57.8,13.948850544242926,17.898832684824896,8.459869848156167,779100.0,9208.0,0.0,1.0,0.0,?,0.0,0.0
2700000.0,3.890625,1.0706545759199396E-7,2700000.0,57.9,15.043547749158497,12.108559498956147,12.108559498956147,809100.0,9208.0,0.0,1.0,0.0,?,0.0,0.0
2800000.0,4.03125,1.093247879503502E-7,2800000.0,55.800000000000004,11.512220122361382,13.333333333333345,11.60000000000001,839100.0,9208.0,0.0,1.0,0.0,?,0.0,0.0
2900000.0,4.15625,1.1084155024339758E-7,2900000.0,56.2,11.511218680426218,9.690721649484544,7.399577167019035,869100.0,9208.0,0.0,1.0,0.0,?,0.0,0.0
3000000.0,4.28125,1.1186678117762011E-7,3000000.0,55.50000000000001,10.478627526715597,12.055335968379458,8.057851239669429,899100.0,9208.0,0.0,1.0,0.0,?,0.0,0.0
3100000.0,4.4375,1.18684191774163E-7,3100000.0,55.300000000000004,10.242405744486042,10.420841683366742,8.401639344262303,928800.0,9208.0,0.0,1.0,0.0,?,0.0,0.0
3200000.0,4.578125,1.2426688853237365E-7,3200000.0,57.3,13.053747851796334,12.857142857142845,12.320328542094444,958800.0,9208.0,0.0,1.0,0.0,?,0.0,0.0
3300000.0,4.703125,1.2873775429195829E-7,3300000.0,58.3,16.144496907199894,18.554687499999993,14.197530864197521,988800.0,9208.0,0.0,1.0,0.0,?,0.0,0.0
3400000.0,4.859375,1.3371192229290805E-7,3400000.0,54.400000000000006,8.731365987222391,10.412573673870343,8.617234468937882,1018800.0,9208.0,0.0,1.0,0.0,?,0.0,0.0
3500000.0,5.0,1.3763570071508488E-7,3500000.0,56.99999999999999,13.67957859574741,13.480885311871216,12.065439672801624,1048800.0,9208.0,0.0,1.0,0.0,?,0.0,0.0
3600000.0,5.15625,1.4138104031897254E-7,3600000.0,59.4,17.85367432826157,10.964912280701741,12.311015118790484,1078800.0,9208.0,0.0,1.0,0.0,?,0.0,0.0
3700000.0,5.296875,1.441988731837935E-7,3700000.0,54.2,7.949319870083937,7.474747474747481,6.147540983606563,1108800.0,9208.0,0.0,1.0,0.0,?,0.0,0.0
3800000.0,5.4375,1.464637332699365E-7,3800000.0,56.699999999999996,13.020770559640027,13.39999999999999,11.632653061224477,1138800.0,9208.0,0.0,1.0,0.0,?,0.0,0.0
3900000.0,5.59375,1.4836583027823104E-7,3900000.0,56.00000000000001,11.40356882533215,12.871287128712883,6.581740976645442,1168800.0,9208.0,0.0,1.0,0.0,?,0.0,0.0
4000000.0,5.734375,1.4952474480701817E-7,4000000.0,57.8,14.164836058904875,16.43564356435643,6.843267108167753,1198800.0,9208.0,0.0,1.0,0.0,?,0.0,0.0
4100000.0,5.875,1.5566594407169355E-7,4100000.0,55.7,10.558534694404964,9.959349593495944,7.51565762004176,1228500.0,9208.0,0.0,1.0,0.0,?,0.0,0.0
4200000.0,6.015625,1.61254170557691E-7,4200000.0,58.199999999999996,15.706432526830763,17.063492063492056,15.725806451612895,1258500.0,9208.0,0.0,1.0,0.0,?,0.0,0.0
4300000.0,6.171875,1.668488968991571E-7,4300000.0,55.300000000000004,8.760613977792305,10.600000000000009,1.1061946902654878,1288500.0,9208.0,0.0,1.0,0.0,?,0.0,0.0
4400000.0,6.3125,1.7133117782779868E-7,4400000.0,54.7,8.270627971586169,7.17213114754099,4.228329809725163,1318500.0,9208.0,0.0,1.0,0.0,?,0.0,0.0
4500000.0,6.46875,1.756970757722027E-7,4500000.0,59.099999999999994,17.56026767717487,18.199999999999996,14.791666666666659,1348500.0,9208.0,0.0,1.0,0.0,?,0.0,0.0
4600000.0,6.609375,1.7907341114348837E-7,4600000.0,56.3,13.2330516551242,13.121272365805158,15.47388781431334,1378500.0,9208.0,0.0,1.0,0.0,?,0.0,0.0
4700000.0,6.75,1.8189677373609612E-7,4700000.0,55.900000000000006,11.500517752073021,14.70019342359769,10.183299389002046,1408500.0,9208.0,0.0,1.0,0.0,?,0.0,0.0
4800000.0,6.90625,1.84419429084907E-7,4800000.0,56.49999999999999,12.020969346892203,8.995815899581574,6.047516198704086,1438500.0,9208.0,0.0,1.0,0.0,?,0.0,0.0
4900000.0,7.046875,1.8613684612015887E-7,4900000.0,55.400000000000006,10.884481511527078,11.155378486055787,11.155378486055787,1468500.0,9208.0,0.0,1.0,0.0,?,0.0,0.0
5000000.0,7.1875,1.8738540044675273E-7,5000000.0,55.300000000000004,10.189024978300722,8.401639344262303,8.588957055214731,1498500.0,9208.0,0.0,1.0,0.0,?,0.0,0.0
5100000.0,7.34375,1.9419828378078012E-7,5100000.0,62.9,27.46823069403714,20.8955223880597,17.55555555555555,4849.0,9208.0,0.0,1.0,0.0,?,2.0,3.0
5200000.0,7.484375,1.9985810568970113E-7,5200000.0,62.9,27.46369274324102,24.59349593495935,15.489749430523908,34849.0,9208.0,0.0,1.0,0.0,?,0.0,56.0
5300000.0,7.640625,2.055323825010823E-7,5300000.0,63.3,27.80706585884018,23.060796645702304,19.517543859649116,64849.0,9208.0,0.0,1.0,0.0,?,0.0,0.0
5400000.0,7.78125,2.1008625885264743E-7,5400000.0,63.0,28.49771772444954,22.916666666666664,13.752913752913765,94849.0,9208.0,0.0,1.0,0.0,?,0.0,0.0
5500000.0,7.921875,2.140845430807935E-7,5500000.0,62.9,26.691432184634838,21.063829787234038,20.726495726495724,124849.0,9208.0,0.0,1.0,0.0,?,0.0,11.0
5600000.0,8.078125,2.179126669135359E-7,5600000.0,64.3,29.821112640062907,27.732793522267208,20.666666666666664,154849.0,9208.0,0.0,1.0,0.0,?,0.0,0.0
5700000.0,8.21875,2.208050055843261E-7,5700000.0,62.4,26.817780165282816,22.47422680412371,14.350797266514794,184849.0,9208.0,0.0,1.0,0.0,?,0.0,0.0
5800000.0,8.34375,2.2288444193287032E-7,5800000.0,63.0,27.970721071484196,21.610169491525422,15.909090909090901,214849.0,9208.0,0.0,1.0,0.0,?,0.0,0.0
5900000.0,8.484375,2.2466996193139095E-7,5900000.0,62.7,27.27286907556602,24.493927125506072,15.61085972850678,244849.0,9208.0,0.0,1.0,0.0,?,0.0,35.0
6000000.0,8.625,2.2592288183255334E-7,6000000.0,64.0,29.419791474695035,27.710843373493976,20.529801324503307,274849.0,9208.0,0.0,1.0,0.0,?,0.0,2.0
6100000.0,8.765625,2.3215808646960396E-7,6100000.0,62.8,26.863793645800577,25.450901803607213,17.699115044247783,304549.0,9208.0,0.0,1.0,0.0,?,0.0,0.0
6200000.0,8.921875,2.384716774233514E-7,6200000.0,61.7,24.185438853477972,21.030927835051543,17.27861771058315,334549.0,9208.0,0.0,1.0,0.0,?,0.0,0.0
6300000.0,9.0625,2.4360093650304614E-7,6300000.0,61.3,23.929708692062736,24.708171206225682,16.233766233766225,364549.0,9208.0,0.0,1.0,0.0,?,0.0,0.0
6400000.0,9.203125,2.4817722280406294E-7,6400000.0,64.5,30.419443355546843,28.714859437751006,19.318181818181813,394549.0,9208.0,0.0,1.0,0.0,?,0.0,0.0
6500000.0,9.34375,2.522005363264018E-7,6500000.0,64.0,29.639126899743573,26.53061224489796,18.918918918918912,424549.0,9208.0,0.0,1.0,0.0,?,0.0,0.0
6600000.0,9.46875,2.552852836541004E-7,6600000.0,61.8,26.049535196162328,13.963963963963952,6.601466992665042,454549.0,9208.0,0.0,1.0,0.0,?,0.0,0.0
6700000.0,9.609375,2.5820265161908336E-7,6700000.0,65.9,33.066384014446676,26.030368763557483,23.37078651685393,484549.0,9208.0,0.0,1.0,0.0,?,0.0,0.0
6800000.0,9.765625,2.608297573816445E-7,6800000.0,61.8,25.870152451330462,21.88139059304703,11.981566820276507,514549.0,9208.0,0.0,1.0,0.0,?,0.0,0.0
6900000.0,9.90625,2.626411797892716E-7,6900000.0,63.2,28.08707716960116,23.01255230125523,14.617169373549896,544549.0,9208.0,0.0,1.0,0.0,?,0.0,0.0
7000000.0,10.046875,2.638996294182208E-7,7000000.0,62.9,27.428504362114147,25.8,16.62921348314606,574549.0,9208.0,0.0,1.0,0.0,?,0.0,0.0
7100000.0,10.203125,2.7083377871248456E-7,7100000.0,64.0,29.26974945773475,31.034482758620697,16.66666666666668,604249.0,9208.0,0.0,1.0,0.0,?,0.0,0.0
7200000.0,10.34375,2.7652154029864404E-7,7200000.0,63.4,28.45274166748118,26.506024096385545,17.752808988764038,634249.0,9208.0,0.0,1.0,0.0,?,0.0,0.0
7300000.0,10.484375,2.8165632910612557E-7,7300000.0,62.8,26.521421375945632,24.696356275303643,20.34261241970021,664249.0,9208.0,0.0,1.0,0.0,?,0.0,0.0
7400000.0,10.640625,2.867472358047962E-7,7400000.0,61.9,25.768616295834473,23.18548387096774,12.413793103448285,694249.0,9208.0,0.0,1.0,0.0,?,0.0,0.0
7500000.0,10.765625,2.903284298049079E-7,7500000.0,61.3,23.863859925241005,19.20668058455114,13.99999999999999,724249.0,9208.0,0.0,1.0,0.0,?,0.0,0.0
7600000.0,10.921875,2.9419050810651646E-7,7600000.0,63.0,27.779794738465256,23.868312757201647,15.71753986332573,754249.0,9208.0,0.0,1.0,0.0,?,0.0,0.0
7700000.0,11.0625,2.9711340579928624E-7,7700000.0,64.0,29.70864232242645,25.311203319502074,18.3673469387755,784249.0,9208.0,0.0,1.0,0.0,?,0.0,0.0
7800000.0,11.203125,2.9948333071337807E-7,7800000.0,64.3,30.388731164009624,26.08695652173913,16.393442622950833,814249.0,9208.0,0.0,1.0,0.0,?,0.0,0.0
7900000.0,11.34375,3.0130028284879197E-7,7900000.0,65.10000000000001,31.09085739558981,32.36434108527133,25.427350427350426,844249.0,9208.0,0.0,1.0,0.0,?,0.0,0.0
8000000.0,11.5,3.0270470435627635E-7,8000000.0,64.1,29.49448132291136,22.4622030237581,20.044543429844094,874249.0,9208.0,0.0,1.0,0.0,?,0.0,0.0
8100000.0,11.625,3.082569391052756E-7,8100000.0,62.7,26.74841517348646,27.1484375,19.088937093275483,903949.0,9208.0,0.0,1.0,0.0,?,0.0,0.0
8200000.0,11.765625,3.139502304192219E-7,8200000.0,64.5,30.551751660889092,28.714859437751006,19.86455981941309,933949.0,9208.0,0.0,1.0,0.0,?,0.0,0.0
8300000.0,11.921875,3.196616954584089E-7,8300000.0,64.3,30.850404437970695,28.6,16.588785046728987,963949.0,9208.0,0.0,1.0,0.0,?,0.0,0.0
8400000.0,12.0625,3.2424904121499927E-7,8400000.0,62.9,27.540760763419613,23.975409836065573,12.293144208037834,993949.0,9208.0,0.0,1.0,0.0,?,0.0,0.0
8500000.0,12.21875,3.287316778571242E-7,8500000.0,63.9,29.34037972205911,29.35420743639922,19.77777777777777,1023949.0,9208.0,0.0,1.0,0.0,?,0.0,0.0
8600000.0,12.34375,3.318262558119993E-7,8600000.0,65.10000000000001,31.224480143778283,31.027667984189726,22.616407982261638,1053949.0,9208.0,0.0,1.0,0.0,?,0.0,0.0
8700000.0,12.484375,3.3475468323255586E-7,8700000.0,66.7,34.42455081801928,33.13253012048193,27.292576419213976,1083949.0,9208.0,0.0,1.0,0.0,?,0.0,0.0
8800000.0,12.625,3.371301378744345E-7,8800000.0,63.1,27.362776671049836,21.822033898305083,16.51583710407239,1113949.0,9208.0,0.0,1.0,0.0,?,0.0,0.0
8900000.0,12.765625,3.3895261973763517E-7,8900000.0,62.8,27.410951579982594,26.627218934911244,14.874141876430217,1143949.0,9208.0,0.0,1.0,0.0,?,0.0,0.0
9000000.0,12.90625,3.402221288221579E-7,9000000.0,63.5,28.10091873236995,26.411290322580644,19.956140350877188,1173949.0,9208.0,0.0,1.0,0.0,?,0.0,0.0
9100000.0,13.0625,3.471685664003923E-7,9100000.0,59.5,20.530892879567993,20.275590551181097,11.378555798687076,1203649.0,9208.0,0.0,1.0,0.0,?,0.0,0.0
9200000.0,13.203125,3.528673874421253E-7,9200000.0,63.9,28.948197134309556,28.230616302186885,21.52173913043478,1233649.0,9208.0,0.0,1.0,0.0,?,0.0,0.0
9300000.0,13.34375,3.580132357051804E-7,9300000.0,61.0,22.454108739223113,20.89249492900608,20.081967213114748,1263649.0,9208.0,0.0,1.0,0.0,?,0.0,0.0
9400000.0,13.5,3.631164306878217E-7,9400000.0,61.7,25.297444899551387,25.048923679060664,14.888888888888879,1293649.0,9208.0,0.0,1.0,0.0,?,0.0,0.0
9500000.0,13.640625,3.6715633339352087E-7,9500000.0,62.0,25.637172020790285,19.83122362869198,12.844036697247715,1323649.0,9208.0,0.0,1.0,0.0,?,0.0,0.0
9600000.0,13.78125,3.706432633205421E-7,9600000.0,63.3,27.676178464449002,25.557809330628807,20.21739130434782,1353649.0,9208.0,0.0,1.0,0.0,?,0.0,0.0
9700000.0,13.9375,3.7390321570759025E-7,9700000.0,64.4,30.664568425890952,24.093816631130064,15.035799522673043,1383649.0,9208.0,0.0,1.0,0.0,?,0.0,0.0
9800000.0,14.078125,3.762842000772556E-7,9800000.0,64.8,31.07121596641289,29.74051896207585,20.36199095022624,1413649.0,9208.0,0.0,1.0,0.0,?,0.0,0.0
9900000.0,14.234375,3.7831532406724165E-7,9900000.0,64.3,30.076230619168125,27.732793522267208,19.230769230769226,1443649.0,9208.0,0.0,1.0,0.0,?,0.0,0.0
1.0E7,14.40625,3.798737048378422E-7,1.0E7,64.3,30.333851113487526,26.84426229508197,18.67881548974942,1473649.0,9208.0,0.0,1.0,0.0,?,0.0,0.0
