learning evaluation instances,evaluation time (cpu seconds),model cost (RAM-Hours),classified instances,classifications correct (percent),Kappa Statistic (percent),Kappa Temporal Statistic (percent),Kappa M Statistic (percent),model training instances,model serialized size (bytes),labeling cost,newThreshold,maxPosterior,accuracyBaseLearner (percent),Change detected,Warning detected,tree size (nodes),tree size (leaves),active learning leaves,tree depth,active leaf byte size estimate,inactive leaf byte size estimate,byte size estimate overhead
100000.0,0.421875,3.6604469642043115E-8,100000.0,89.8,79.55952786517304,77.96976241900649,77.58241758241759,29850.0,244440.0,0.0,1.0,0.0,?,0.0,16.0,87.0,62.0,62.0,4.0,0.0,0.0,1.0
200000.0,0.8125,7.363100950088765E-8,200000.0,90.7,81.09602406699732,79.6943231441048,78.52193995381064,59850.0,305536.0,0.0,1.0,0.0,?,0.0,0.0,120.0,80.0,80.0,5.0,0.0,0.0,1.0
300000.0,1.203125,1.326600451850229E-7,300000.0,92.30000000000001,84.17175089213768,83.82352941176472,81.83962264150945,89700.0,476744.0,0.0,1.0,0.0,?,0.0,0.0,181.0,115.0,115.0,5.0,0.0,0.0,1.0
400000.0,1.59375,1.9944686856534745E-7,400000.0,93.8,87.33748064881115,87.5751503006012,85.54778554778554,119700.0,583400.0,0.0,1.0,0.0,?,0.0,0.0,224.0,138.0,138.0,5.0,0.0,0.0,1.0
500000.0,1.9375,2.662000608526998E-7,500000.0,92.60000000000001,84.63353046714069,84.28874734607218,81.6831683168317,149700.0,703160.0,0.0,1.0,0.0,?,0.0,0.0,270.0,170.0,170.0,6.0,0.0,0.0,1.0
600000.0,2.265625,3.4166862153344683E-7,600000.0,93.30000000000001,86.40951577307544,87.21374045801528,84.30913348946137,179550.0,795496.0,0.0,1.0,0.0,?,0.0,0.0,319.0,202.0,202.0,6.0,0.0,0.0,1.0
700000.0,2.65625,4.402804835182097E-7,700000.0,94.5,88.72978533314753,88.46960167714883,87.08920187793426,209550.0,912200.0,0.0,1.0,0.0,?,0.0,0.0,356.0,225.0,225.0,6.0,0.0,0.0,1.0
800000.0,3.03125,5.493344764949547E-7,800000.0,93.8,87.36637908198404,87.19008264462809,85.68129330254041,239400.0,1014416.0,0.0,1.0,0.0,?,0.0,0.0,393.0,251.0,251.0,6.0,0.0,0.0,1.0
900000.0,3.4375,6.71688596614533E-7,900000.0,96.1,92.08796559279395,92.3679060665362,91.13636363636363,269400.0,1084576.0,0.0,1.0,0.0,?,0.0,0.0,427.0,271.0,271.0,6.0,0.0,0.0,1.0
1000000.0,3.84375,8.05788375954661E-7,1000000.0,95.1,89.97774650652877,89.97955010224949,88.55140186915888,299400.0,1226088.0,0.0,1.0,0.0,?,0.0,0.0,482.0,303.0,303.0,7.0,0.0,0.0,1.0
1100000.0,4.234375,9.52043208397097E-7,1100000.0,95.5,90.83794150941858,90.6832298136646,89.60739030023093,329250.0,1351152.0,0.0,1.0,0.0,?,0.0,0.0,528.0,332.0,332.0,7.0,0.0,0.0,1.0
1200000.0,4.65625,1.1187025100096231E-6,1200000.0,95.0,89.73200533935722,90.13806706114397,87.89346246973365,359250.0,1460848.0,0.0,1.0,0.0,?,0.0,0.0,578.0,363.0,363.0,7.0,0.0,0.0,1.0
1300000.0,5.046875,1.2882266633419526E-6,1300000.0,96.3,92.40315043404702,92.43353783231083,91.21140142517814,389100.0,1565288.0,0.0,1.0,0.0,?,0.0,0.0,631.0,400.0,400.0,7.0,0.0,0.0,1.0
1400000.0,5.453125,1.4746934175491331E-6,1400000.0,95.5,90.76680646405619,90.83503054989815,89.23444976076554,419100.0,1691904.0,0.0,1.0,0.0,?,0.0,0.0,680.0,432.0,432.0,7.0,0.0,0.0,1.0
1500000.0,5.875,1.6804246115498244E-6,1500000.0,96.39999999999999,92.62509679560455,92.63803680981594,91.48936170212765,449100.0,1832464.0,0.0,1.0,0.0,?,0.0,0.0,729.0,461.0,461.0,7.0,0.0,0.0,1.0
1600000.0,6.296875,1.9038651953451335E-6,1600000.0,95.1,89.97183928746848,89.64059196617336,88.36104513064133,478950.0,1948624.0,0.0,1.0,0.0,?,0.0,0.0,775.0,493.0,493.0,7.0,0.0,0.0,1.0
1700000.0,6.75,2.161429244248817E-6,1700000.0,96.7,93.22019969593623,93.15352697095435,92.18009478672985,508950.0,2128200.0,0.0,1.0,0.0,?,0.0,0.0,832.0,529.0,529.0,7.0,0.0,0.0,1.0
1800000.0,7.171875,2.4179172275277474E-6,1800000.0,95.39999999999999,90.68328013351264,90.63136456211812,89.68609865470852,538800.0,2234928.0,0.0,1.0,0.0,?,0.0,0.0,876.0,557.0,557.0,7.0,0.0,0.0,1.0
1900000.0,7.59375,2.6824422335873044E-6,1900000.0,95.89999999999999,91.61896974652494,91.47609147609147,90.35294117647058,568800.0,2338560.0,0.0,1.0,0.0,?,0.0,0.0,922.0,586.0,586.0,8.0,0.0,0.0,1.0
2000000.0,8.015625,2.958882638874153E-6,2000000.0,96.39999999999999,92.66434914437784,92.78557114228457,91.68591224018475,598800.0,2477656.0,0.0,1.0,0.0,?,0.0,0.0,972.0,620.0,620.0,8.0,0.0,0.0,1.0
2100000.0,8.484375,3.293125579754511E-6,2100000.0,96.3,92.41821922411744,92.58517034068136,91.16945107398567,628650.0,2654712.0,0.0,1.0,0.0,?,0.0,0.0,1020.0,656.0,656.0,8.0,0.0,0.0,1.0
2200000.0,8.9375,3.6294677475881243E-6,2200000.0,96.89999999999999,93.60877453405904,93.29004329004327,92.5301204819277,658650.0,2797544.0,0.0,1.0,0.0,?,0.0,0.0,1072.0,691.0,691.0,8.0,0.0,0.0,1.0
2300000.0,9.375,3.967814522588418E-6,2300000.0,97.0,93.90719438487034,93.64406779661016,93.05555555555554,688500.0,2871680.0,0.0,1.0,0.0,?,0.0,0.0,1115.0,717.0,717.0,8.0,0.0,0.0,1.0
2400000.0,9.84375,4.334902106266882E-6,2400000.0,97.3,94.44887620582743,94.45585215605749,93.54066985645932,718500.0,2939576.0,0.0,1.0,0.0,?,0.0,0.0,1138.0,733.0,733.0,8.0,0.0,0.0,1.0
2500000.0,10.28125,4.686035681515931E-6,2500000.0,96.5,92.84165746308341,92.70833333333333,91.86046511627907,748500.0,3044840.0,0.0,1.0,0.0,?,0.0,0.0,1167.0,752.0,752.0,8.0,0.0,0.0,1.0
2600000.0,10.75,5.079980279939869E-6,2600000.0,97.2,94.27459063323028,94.238683127572,93.42723004694835,778350.0,3144912.0,0.0,1.0,0.0,?,0.0,0.0,1203.0,776.0,776.0,8.0,0.0,0.0,1.0
2700000.0,11.203125,5.466509222363431E-6,2700000.0,96.6,93.0435067273382,93.19999999999999,92.01877934272301,808350.0,3223768.0,0.0,1.0,0.0,?,0.0,0.0,1225.0,790.0,790.0,8.0,0.0,0.0,1.0
2800000.0,11.65625,5.867815861064526E-6,2800000.0,97.5,94.83854983896275,94.89795918367346,93.97590361445782,838200.0,3303712.0,0.0,1.0,0.0,?,0.0,0.0,1259.0,810.0,810.0,8.0,0.0,0.0,1.0
2900000.0,12.15625,6.317599133277932E-6,2900000.0,96.6,93.03050180387011,93.1726907630522,91.98113207547169,868200.0,3387616.0,0.0,1.0,0.0,?,0.0,0.0,1306.0,841.0,841.0,8.0,0.0,0.0,1.0
3000000.0,12.625,6.7427469184622165E-6,3000000.0,96.8,93.34500729969511,93.3609958506224,92.13759213759212,898200.0,3446472.0,0.0,1.0,0.0,?,0.0,0.0,1317.0,848.0,848.0,8.0,0.0,0.0,1.0
3100000.0,13.109375,7.1966862500024335E-6,3100000.0,97.89999999999999,95.70485392412726,95.68788501026694,95.02369668246445,928050.0,3517176.0,0.0,1.0,0.0,?,0.0,0.0,1347.0,869.0,869.0,8.0,0.0,0.0,1.0
3200000.0,13.59375,7.658031794966923E-6,3200000.0,96.89999999999999,93.63517653145865,93.45991561181434,92.65402843601895,958050.0,3606312.0,0.0,1.0,0.0,?,0.0,0.0,1373.0,885.0,885.0,9.0,0.0,0.0,1.0
3300000.0,14.078125,8.133035929252705E-6,3300000.0,97.3,94.39554965127864,94.42148760330578,93.31683168316832,987900.0,3669312.0,0.0,1.0,0.0,?,0.0,0.0,1408.0,907.0,907.0,9.0,0.0,0.0,1.0
3400000.0,14.65625,8.705368931663948E-6,3400000.0,97.5,94.93775463094207,94.78079331941545,94.34389140271493,1017900.0,3735488.0,0.0,1.0,0.0,?,0.0,0.0,1432.0,922.0,922.0,9.0,3967.050108932462,0.0,1.0172224797295368
3500000.0,15.171875,9.217351972539393E-6,3500000.0,97.2,94.26434017379049,94.46640316205533,93.44262295081967,1047900.0,3777120.0,0.0,1.0,0.0,?,0.0,0.0,1451.0,933.0,933.0,9.0,3967.050108932462,0.0,1.0172224797295368
3600000.0,15.65625,9.712484607007356E-6,3600000.0,98.5,96.90966327691065,96.95740365111561,96.3680387409201,1077750.0,3844232.0,0.0,1.0,0.0,?,0.0,0.0,1481.0,951.0,951.0,9.0,3967.050108932462,0.0,1.0172224797295368
3700000.0,16.15625,1.0230050571004138E-5,3700000.0,98.2,96.30547938457497,96.078431372549,95.69377990430623,1107750.0,3924200.0,0.0,1.0,0.0,?,0.0,0.0,1508.0,966.0,966.0,9.0,3967.050108932462,0.0,1.0172224797295368
3800000.0,16.65625,1.076017593732104E-5,3800000.0,97.7,95.20233625365039,95.5684007707129,94.25,1137600.0,3975224.0,0.0,1.0,0.0,?,0.0,0.0,1540.0,982.0,982.0,9.0,3967.050108932462,0.0,1.0172224797295368
3900000.0,17.15625,1.1291402333881708E-5,3900000.0,96.6,93.00253143715655,92.97520661157024,91.84652278177458,1167600.0,4013928.0,0.0,1.0,0.0,?,0.0,0.0,1567.0,997.0,997.0,9.0,3967.050108932462,0.0,1.0172224797295368
4000000.0,17.65625,1.1828067654278131E-5,4000000.0,97.89999999999999,95.61198221390124,95.8984375,94.69696969696969,1197600.0,4086120.0,0.0,1.0,0.0,?,0.0,0.0,1599.0,1019.0,1019.0,9.0,3967.050108932462,0.0,1.0172224797295368
4100000.0,18.140625,1.2363512424700377E-5,4100000.0,98.5,96.92019612191095,97.1042471042471,96.43705463182897,1227450.0,4164144.0,0.0,1.0,0.0,?,0.0,0.0,1621.0,1033.0,1033.0,9.0,3967.050108932462,0.0,1.0172224797295368
4200000.0,18.65625,1.2940148169743933E-5,4200000.0,97.7,95.19419626066679,95.12711864406779,94.23558897243107,1257450.0,4243984.0,0.0,1.0,0.0,?,0.0,0.0,1648.0,1048.0,1048.0,9.0,3967.050108932462,0.0,1.0172224797295368
4300000.0,19.15625,1.3512655956825863E-5,4300000.0,97.3,94.45644407578656,94.66403162055336,93.5251798561151,1287300.0,4301144.0,0.0,1.0,0.0,?,0.0,0.0,1680.0,1067.0,1067.0,9.0,3967.050108932462,0.0,1.0172224797295368
4400000.0,19.65625,1.4094294844350469E-5,4400000.0,97.8,95.49318856908738,95.32908704883228,94.82352941176471,1317300.0,4401672.0,0.0,1.0,0.0,?,0.0,0.0,1714.0,1087.0,1087.0,9.0,3967.050108932462,0.0,1.0172224797295368
4500000.0,20.15625,1.4682953834481953E-5,4500000.0,97.89999999999999,95.69396827479864,95.69672131147541,94.98806682577565,1347300.0,4486080.0,0.0,1.0,0.0,?,0.0,0.0,1755.0,1115.0,1115.0,9.0,3967.050108932462,0.0,1.0172224797295368
4600000.0,20.703125,1.534500033206617E-5,4600000.0,97.1,94.06467458043389,94.09368635437882,93.17647058823529,1377150.0,4568704.0,0.0,1.0,0.0,?,0.0,0.0,1823.0,1161.0,1161.0,9.0,3967.050108932462,0.0,1.0172224797295368
4700000.0,21.21875,1.5982645563781265E-5,4700000.0,97.3,94.4413791967587,94.66403162055336,93.46246973365618,1407150.0,4699344.0,0.0,1.0,0.0,?,0.0,0.0,1849.0,1180.0,1180.0,9.0,3967.050108932462,0.0,1.0172224797295368
4800000.0,21.75,1.6658109897333718E-5,4800000.0,98.3,96.5249102609179,96.42857142857143,96.01873536299766,1437000.0,4787832.0,0.0,1.0,0.0,?,0.0,0.0,1869.0,1193.0,1193.0,9.0,3967.050108932462,0.0,1.0172224797295368
4900000.0,22.28125,1.7339300312515766E-5,4900000.0,98.5,96.94431316308403,96.93877551020408,96.52777777777779,1467000.0,4859632.0,0.0,1.0,0.0,?,0.0,0.0,1900.0,1213.0,1213.0,9.0,3967.050108932462,0.0,1.0172224797295368
5000000.0,22.796875,1.8004643174612692E-5,5000000.0,98.0,95.8897127731286,95.99198396793587,95.260663507109,1497000.0,4919000.0,0.0,1.0,0.0,?,0.0,0.0,1918.0,1225.0,1225.0,9.0,3967.050108932462,0.0,1.0172224797295368
5100000.0,23.46875,1.804057411694279E-5,5100000.0,74.2,48.40660395469379,47.878787878787875,47.98387096774193,29211.0,110984.0,0.0,1.0,0.0,?,1.0,6.0,36.0,26.0,26.0,4.0,0.0,0.0,1.0
5200000.0,23.90625,1.8074160066640217E-5,5200000.0,78.60000000000001,57.22104724475558,55.876288659793815,56.14754098360656,59211.0,230976.0,0.0,1.0,0.0,?,0.0,0.0,83.0,57.0,57.0,5.0,0.0,0.0,1.0
5300000.0,24.34375,1.8133322333192666E-5,5300000.0,81.0,61.92689964732286,62.524654832347146,57.96460176991152,89061.0,410584.0,0.0,1.0,0.0,?,0.0,0.0,153.0,104.0,104.0,5.0,0.0,0.0,1.0
5400000.0,24.796875,1.8208525596290004E-5,5400000.0,85.6,71.18709181713407,72.67552182163188,70.96774193548386,119061.0,559312.0,0.0,1.0,0.0,?,0.0,0.0,223.0,151.0,151.0,6.0,0.0,0.0,1.0
5500000.0,25.21875,1.8296976502622587E-5,5500000.0,85.2,70.37914691943128,70.16129032258064,69.0376569037657,149061.0,757872.0,0.0,1.0,0.0,?,0.0,0.0,287.0,192.0,192.0,6.0,0.0,0.0,1.0
5600000.0,25.6875,1.8421212993820926E-5,5600000.0,86.4,72.8,72.1881390593047,70.94017094017093,178911.0,925432.0,0.0,1.0,0.0,?,0.0,0.0,353.0,231.0,231.0,7.0,0.0,0.0,1.0
5700000.0,26.125,1.8554102635890664E-5,5700000.0,88.6,77.19489165573088,77.77777777777779,76.54320987654322,208911.0,1104672.0,0.0,1.0,0.0,?,0.0,0.0,430.0,277.0,277.0,7.0,0.0,0.0,1.0
5800000.0,26.5625,1.8702582359158748E-5,5800000.0,88.2,76.35033570498047,76.90802348336595,73.48314606741573,238761.0,1196272.0,0.0,1.0,0.0,?,0.0,0.0,473.0,303.0,303.0,7.0,0.0,0.0,1.0
5900000.0,27.015625,1.8873053842172444E-5,5900000.0,89.2,78.38339845000961,78.31325301204821,77.31092436974791,268761.0,1368480.0,0.0,1.0,0.0,?,0.0,0.0,526.0,340.0,340.0,7.0,0.0,0.0,1.0
6000000.0,27.46875,1.906021986441273E-5,6000000.0,88.1,76.19371514079717,75.10460251046025,76.66666666666667,298761.0,1540760.0,0.0,1.0,0.0,?,0.0,0.0,584.0,381.0,381.0,8.0,0.0,0.0,1.0
6100000.0,27.890625,1.925050041690055E-5,6100000.0,90.3,80.5967402523624,80.75396825396825,81.0916179337232,328611.0,1641416.0,0.0,1.0,0.0,?,0.0,0.0,621.0,404.0,404.0,8.0,0.0,0.0,1.0
6200000.0,28.375,1.9489960298718267E-5,6200000.0,88.8,77.60080637097064,77.73359840954275,77.18940936863544,358611.0,1838640.0,0.0,1.0,0.0,?,0.0,0.0,698.0,456.0,456.0,8.0,0.0,0.0,1.0
6300000.0,28.859375,1.9758443555070297E-5,6300000.0,90.3,80.57669203043652,80.24439918533605,79.18454935622317,388461.0,2023840.0,0.0,1.0,0.0,?,0.0,0.0,754.0,493.0,493.0,8.0,0.0,0.0,1.0
6400000.0,29.328125,2.0024473908253843E-5,6400000.0,88.7,77.40325393143387,77.88649706457926,77.62376237623762,418461.0,2104992.0,0.0,1.0,0.0,?,0.0,0.0,788.0,510.0,510.0,8.0,0.0,0.0,1.0
6500000.0,29.8125,2.031014743907791E-5,6500000.0,89.60000000000001,79.13590550170123,78.90466531440163,77.77777777777779,448461.0,2220952.0,0.0,1.0,0.0,?,0.0,0.0,828.0,536.0,536.0,8.0,0.0,0.0,1.0
6600000.0,30.3125,2.0625412548219578E-5,6600000.0,91.3,82.5958229975194,82.97455968688845,81.91268191268192,478311.0,2332336.0,0.0,1.0,0.0,?,0.0,0.0,877.0,568.0,568.0,8.0,0.0,0.0,1.0
6700000.0,30.78125,2.092510633196475E-5,6700000.0,91.60000000000001,83.1936135731578,83.13253012048195,83.2,508311.0,2396464.0,0.0,1.0,0.0,?,0.0,0.0,905.0,582.0,582.0,8.0,0.0,0.0,1.0
6800000.0,31.28125,2.1261388287206907E-5,6800000.0,91.8,83.58529242201013,83.43434343434343,83.12757201646092,538161.0,2478720.0,0.0,1.0,0.0,?,0.0,0.0,945.0,605.0,605.0,8.0,0.0,0.0,1.0
6900000.0,31.78125,2.1605073222114397E-5,6900000.0,91.5,82.99877591186566,83.06772908366534,82.18029350104823,568161.0,2566024.0,0.0,1.0,0.0,?,0.0,0.0,980.0,627.0,627.0,8.0,0.0,0.0,1.0
7000000.0,32.265625,2.19536324018716E-5,7000000.0,91.8,83.51135705553054,83.56713426853707,82.09606986899564,598161.0,2720280.0,0.0,1.0,0.0,?,0.0,0.0,1038.0,659.0,659.0,8.0,0.0,0.0,1.0
7100000.0,32.8125,2.2370141685112486E-5,7100000.0,92.10000000000001,84.19823020178261,84.74903474903476,83.81147540983608,628011.0,2836424.0,0.0,1.0,0.0,?,0.0,0.0,1087.0,688.0,688.0,8.0,0.0,0.0,1.0
7200000.0,33.328125,2.2777514014807015E-5,7200000.0,92.4,84.7936133175934,84.73895582329318,84.13361169102296,658011.0,2976040.0,0.0,1.0,0.0,?,0.0,0.0,1151.0,723.0,723.0,8.0,0.0,0.0,1.0
7300000.0,33.859375,2.321916994535261E-5,7300000.0,92.80000000000001,85.51185412046894,85.7707509881423,84.38177874186552,687861.0,3089400.0,0.0,1.0,0.0,?,0.0,0.0,1199.0,750.0,750.0,8.0,0.0,0.0,1.0
7400000.0,34.40625,2.368902849007605E-5,7400000.0,90.4,80.77100267202943,81.64435946462716,79.61783439490446,717861.0,3226648.0,0.0,1.0,0.0,?,0.0,0.0,1259.0,783.0,783.0,8.0,0.0,0.0,1.0
7500000.0,34.9375,2.4156276970946544E-5,7500000.0,92.2,84.40318175092281,85.55555555555556,83.98357289527722,747861.0,3335288.0,0.0,1.0,0.0,?,0.0,0.0,1311.0,815.0,815.0,9.0,0.0,0.0,1.0
7600000.0,35.5,2.467695963180935E-5,7600000.0,93.4,86.80168938375888,86.63967611336034,86.72032193158955,777711.0,3467240.0,0.0,1.0,0.0,?,0.0,0.0,1359.0,842.0,842.0,9.0,0.0,0.0,1.0
7700000.0,36.03125,2.5175254074080543E-5,7700000.0,94.19999999999999,88.39498663422599,88.37675350701402,87.9668049792531,807711.0,3544888.0,0.0,1.0,0.0,?,0.0,0.0,1391.0,861.0,861.0,9.0,0.0,0.0,1.0
7800000.0,36.59375,2.5720570217041927E-5,7800000.0,93.2,86.30605956864088,86.20689655172414,84.92239467849225,837561.0,3620432.0,0.0,1.0,0.0,?,0.0,0.0,1421.0,876.0,876.0,9.0,0.0,0.0,1.0
7900000.0,37.140625,2.625740168797267E-5,7900000.0,93.60000000000001,87.19533910343365,87.52436647173491,86.85831622176593,867561.0,3697472.0,0.0,1.0,0.0,?,0.0,0.0,1459.0,895.0,895.0,9.0,0.0,0.0,1.0
8000000.0,37.703125,2.6820735430293206E-5,8000000.0,93.5,86.94485506780643,86.51452282157678,86.0813704496788,897561.0,3804168.0,0.0,1.0,0.0,?,0.0,0.0,1505.0,924.0,924.0,9.0,0.0,0.0,1.0
8100000.0,38.25,2.7385747978567257E-5,8100000.0,92.10000000000001,84.17379179921952,84.60038986354776,83.60995850622407,927411.0,3880592.0,0.0,1.0,0.0,?,0.0,0.0,1540.0,946.0,946.0,9.0,0.0,0.0,1.0
8200000.0,38.84375,2.8010497852745992E-5,8200000.0,92.5,84.9937574030797,85.00000000000001,85.11904761904762,957411.0,3984176.0,0.0,1.0,0.0,?,0.0,0.0,1581.0,971.0,971.0,9.0,0.0,0.0,1.0
8300000.0,39.4375,2.8658763815959303E-5,8300000.0,94.19999999999999,88.36873516011036,88.09034907597535,87.99171842650102,987261.0,4091000.0,0.0,1.0,0.0,?,0.0,0.0,1618.0,991.0,991.0,9.0,0.0,0.0,1.0
8400000.0,40.109375,2.9397457547020176E-5,8400000.0,94.19999999999999,88.40357169991641,88.11475409836065,88.13905930470347,1017261.0,4150720.0,0.0,1.0,0.0,?,0.0,0.0,1643.0,1008.0,1008.0,9.0,4036.79037111334,0.0,1.019587147301152
8500000.0,40.796875,3.0167646958337486E-5,8500000.0,92.80000000000001,85.52641630047161,85.12396694214877,84.31372549019609,1047261.0,4261088.0,0.0,1.0,0.0,?,0.0,0.0,1696.0,1039.0,1039.0,9.0,4036.79037111334,0.0,1.019587147301152
8600000.0,41.390625,3.085330125435981E-5,8600000.0,93.30000000000001,86.58884191647451,86.35437881873727,86.09958506224066,1077111.0,4348304.0,0.0,1.0,0.0,?,0.0,0.0,1731.0,1058.0,1058.0,9.0,4036.79037111334,0.0,1.019587147301152
8700000.0,42.03125,3.1603443623882626E-5,8700000.0,94.8,89.546477967192,89.62075848303392,88.69565217391303,1107111.0,4440792.0,0.0,1.0,0.0,?,0.0,0.0,1782.0,1088.0,1088.0,9.0,4036.79037111334,0.0,1.019587147301152
8800000.0,42.625,3.2322288574909594E-5,8800000.0,93.10000000000001,86.20000000000002,86.06060606060608,86.00405679513186,1136961.0,4548016.0,0.0,1.0,0.0,?,0.0,0.0,1830.0,1112.0,1112.0,9.0,4036.79037111334,0.0,1.019587147301152
8900000.0,43.28125,3.312668216595841E-5,8900000.0,95.3,90.5849358974359,90.9090909090909,90.10526315789474,1166961.0,4636232.0,0.0,1.0,0.0,?,0.0,0.0,1857.0,1127.0,1127.0,9.0,4036.79037111334,0.0,1.019587147301152
9000000.0,43.984375,3.4001054365136154E-5,9000000.0,94.3,88.51399277792108,89.40520446096653,87.38938053097344,1196961.0,4735160.0,0.0,1.0,0.0,?,0.0,0.0,1898.0,1155.0,1155.0,9.0,4036.79037111334,0.0,1.019587147301152
9100000.0,44.734375,3.496310748030536E-5,9100000.0,94.3,88.57504790462369,88.84540117416829,87.63557483731019,1226811.0,4840352.0,0.0,1.0,0.0,?,0.0,0.0,1941.0,1178.0,1178.0,9.0,4036.79037111334,0.0,1.019587147301152
9200000.0,45.515625,3.5981434339191776E-5,9200000.0,95.19999999999999,90.39999999999999,90.53254437869822,90.39999999999999,1256811.0,4950288.0,0.0,1.0,0.0,?,0.0,0.0,1995.0,1208.0,1208.0,9.0,4036.79037111334,0.0,1.019587147301152
9300000.0,46.25,3.696535348555902E-5,9300000.0,94.6,89.19156942415083,89.19999999999999,88.91170431211498,1286661.0,5044560.0,0.0,1.0,0.0,?,0.0,0.0,2025.0,1223.0,1223.0,9.0,4036.79037111334,0.0,1.019587147301152
9400000.0,47.078125,3.808798375151432E-5,9400000.0,94.3,88.59297327153526,88.93203883495144,89.20454545454545,1316661.0,5135744.0,0.0,1.0,0.0,?,0.0,0.0,2073.0,1253.0,1253.0,9.0,4036.79037111334,0.0,1.019587147301152
9500000.0,47.859375,3.915840808379776E-5,9500000.0,93.10000000000001,86.1850798862772,86.47058823529413,86.17234468937876,1346661.0,5221864.0,0.0,1.0,0.0,?,0.0,0.0,2107.0,1273.0,1273.0,9.0,4036.79037111334,0.0,1.019587147301152
9600000.0,48.671875,4.0302623625999956E-5,9600000.0,93.10000000000001,86.20231801057423,86.22754491017966,86.06060606060608,1376511.0,5323048.0,0.0,1.0,0.0,?,0.0,0.0,2150.0,1299.0,1299.0,9.0,4036.79037111334,0.0,1.019587147301152
9700000.0,49.46875,4.143773684821404E-5,9700000.0,94.69999999999999,89.39745538929343,90.18518518518516,88.91213389121337,1406511.0,5415544.0,0.0,1.0,0.0,?,0.0,0.0,2191.0,1321.0,1321.0,9.0,4036.79037111334,0.0,1.019587147301152
9800000.0,50.265625,4.26026365797346E-5,9800000.0,96.2,92.39851010798115,92.50493096646942,92.29208924949289,1436361.0,5513904.0,0.0,1.0,0.0,?,0.0,0.0,2233.0,1348.0,1348.0,9.0,4036.79037111334,0.0,1.019587147301152
9900000.0,51.078125,4.3796521883147475E-5,9900000.0,95.5,90.95251881876085,91.07142857142856,90.19607843137254,1466361.0,5573280.0,0.0,1.0,0.0,?,0.0,0.0,2263.0,1366.0,1366.0,9.0,4036.79037111334,0.0,1.019587147301152
1.0E7,51.890625,4.5008176174532225E-5,1.0E7,94.8,89.55517079304374,89.78388998035362,89.0985324947589,1496361.0,5687784.0,0.0,1.0,0.0,?,0.0,0.0,2325.0,1406.0,1406.0,9.0,4036.79037111334,0.0,1.019587147301152
