learning evaluation instances,evaluation time (cpu seconds),model cost (RAM-Hours),classified instances,classifications correct (percent),Kappa Statistic (percent),Kappa Temporal Statistic (percent),Kappa M Statistic (percent),model training instances,model serialized size (bytes),labeling cost,newThreshold,maxPosterior,accuracyBaseLearner (percent),Change detected,Warning detected,tree size (nodes),tree size (leaves),active learning leaves,tree depth,active leaf byte size estimate,inactive leaf byte size estimate,byte size estimate overhead
100000.0,0.625,2.826175962885221E-8,100000.0,96.7,93.23953356878877,93.09623430962343,92.34338747099767,39452.0,69352.0,0.0,1.0,0.0,?,2.0,37.0,28.0,16.0,16.0,3.0,0.0,0.0,1.0
200000.0,1.09375,4.820079387476047E-8,200000.0,97.8,95.55562738379986,95.72815533980582,95.13274336283185,79452.0,73360.0,0.0,1.0,0.0,?,0.0,0.0,30.0,17.0,17.0,4.0,0.0,0.0,1.0
300000.0,1.515625,6.508858253558477E-8,300000.0,97.39999999999999,94.76306916374271,94.5945945945946,94.3355119825708,119452.0,78048.0,0.0,1.0,0.0,?,0.0,0.0,32.0,18.0,18.0,4.0,0.0,0.0,1.0
400000.0,1.9375,8.040912992631395E-8,400000.0,97.8,95.56737588652481,95.65217391304347,95.21739130434781,159452.0,78088.0,0.0,1.0,0.0,?,0.0,0.0,32.0,18.0,18.0,4.0,0.0,0.0,1.0
500000.0,2.375,9.466729049260418E-8,500000.0,97.0,93.9633697275065,93.76299376299376,93.52051835853132,199452.0,78088.0,0.0,1.0,0.0,?,0.0,0.0,32.0,18.0,18.0,4.0,0.0,0.0,1.0
600000.0,2.796875,1.1520469949270288E-7,600000.0,97.39999999999999,94.7516310315871,94.88188976377953,94.24778761061945,239252.0,82664.0,0.0,1.0,0.0,?,0.0,0.0,34.0,19.0,19.0,5.0,0.0,0.0,1.0
700000.0,3.234375,1.3488199329003692E-7,700000.0,97.7,95.32227492007192,95.29652351738241,94.68822170900692,279252.0,82744.0,0.0,1.0,0.0,?,0.0,0.0,34.0,19.0,19.0,5.0,0.0,0.0,1.0
800000.0,3.6875,1.6073967951039473E-7,800000.0,97.5,94.93299391148547,94.97991967871485,94.34389140271493,319252.0,143832.0,0.0,1.0,0.0,?,0.0,0.0,56.0,39.0,39.0,6.0,0.0,0.0,1.0
900000.0,4.125,1.8697516578767035E-7,900000.0,97.2,94.39731070914038,94.11764705882352,94.38877755511021,359252.0,169368.0,0.0,1.0,0.0,?,0.0,0.0,56.0,39.0,39.0,6.0,0.0,0.0,1.0
1000000.0,4.5625,2.11738386294908E-7,1000000.0,96.89999999999999,93.7570484936362,93.96887159533074,93.21663019693653,399252.0,170760.0,0.0,1.0,0.0,?,0.0,0.0,56.0,39.0,39.0,6.0,0.0,0.0,1.0
1100000.0,5.0,2.4310235554973287E-7,1100000.0,97.2,94.38364517474886,94.58413926499031,94.06779661016948,439052.0,171336.0,0.0,1.0,0.0,?,0.0,0.0,56.0,39.0,39.0,6.0,0.0,0.0,1.0
1200000.0,5.4375,2.728392266564899E-7,1200000.0,98.0,95.97917211153776,95.95141700404858,95.68034557235421,479052.0,171360.0,0.0,1.0,0.0,?,0.0,0.0,56.0,39.0,39.0,6.0,0.0,0.0,1.0
1300000.0,5.859375,3.004331503891283E-7,1300000.0,97.2,94.39122788040495,94.5631067961165,94.20289855072464,519052.0,175832.0,0.0,1.0,0.0,?,0.0,0.0,58.0,40.0,40.0,6.0,0.0,0.0,1.0
1400000.0,6.28125,3.2699417917885716E-7,1400000.0,97.5,94.99943993727297,95.26515151515152,94.97991967871485,559052.0,180744.0,0.0,1.0,0.0,?,0.0,0.0,60.0,41.0,41.0,6.0,0.0,0.0,1.0
1500000.0,6.734375,3.627099148515198E-7,1500000.0,96.6,93.19016660057122,92.79661016949152,92.88702928870293,599052.0,256376.0,0.0,1.0,0.0,?,0.0,0.0,80.0,60.0,60.0,6.0,0.0,0.0,1.0
1600000.0,7.203125,4.158001522430115E-7,1600000.0,97.2,94.39192437109438,94.5736434108527,94.1908713692946,638852.0,331832.0,0.0,1.0,0.0,?,0.0,0.0,100.0,79.0,79.0,6.0,0.0,0.0,1.0
1700000.0,7.671875,4.775410181739264E-7,1700000.0,97.1,94.1617477713982,93.86892177589851,93.6123348017621,678852.0,417456.0,0.0,1.0,0.0,?,0.0,0.0,120.0,98.0,98.0,6.0,0.0,0.0,1.0
1800000.0,8.09375,5.330877158687346E-7,1800000.0,97.2,94.36973167749822,94.53125,93.88646288209607,718852.0,431608.0,0.0,1.0,0.0,?,0.0,0.0,124.0,100.0,100.0,6.0,0.0,0.0,1.0
1900000.0,8.546875,5.916592716756794E-7,1900000.0,97.3,94.54655625126237,94.6,94.01330376940132,758852.0,436696.0,0.0,1.0,0.0,?,0.0,0.0,124.0,100.0,100.0,6.0,0.0,0.0,1.0
2000000.0,8.984375,6.559101812955405E-7,2000000.0,97.6,95.16302617205922,95.131845841785,94.67849223946784,798852.0,519024.0,0.0,1.0,0.0,?,0.0,0.0,144.0,119.0,119.0,6.0,0.0,0.0,1.0
2100000.0,9.4375,7.29269749071035E-7,2100000.0,97.0,93.98245283245944,94.03578528827038,93.65750528541226,838652.0,519408.0,0.0,1.0,0.0,?,0.0,0.0,144.0,119.0,119.0,6.0,0.0,0.0,1.0
2200000.0,9.875,7.986029635907874E-7,2200000.0,97.1,94.1969359821986,94.2800788954635,94.04517453798768,878652.0,520584.0,0.0,1.0,0.0,?,0.0,0.0,144.0,119.0,119.0,6.0,0.0,0.0,1.0
2300000.0,10.328125,8.687449735589324E-7,2300000.0,96.89999999999999,93.78642956216376,93.86138613861385,93.52818371607515,918652.0,520760.0,0.0,1.0,0.0,?,0.0,0.0,144.0,119.0,119.0,6.0,0.0,0.0,1.0
2400000.0,10.78125,9.37258042136414E-7,2400000.0,97.7,95.38397315479344,95.53398058252426,95.0959488272921,958652.0,521264.0,0.0,1.0,0.0,?,0.0,0.0,144.0,119.0,119.0,6.0,0.0,0.0,1.0
2500000.0,11.21875,1.0017896420322357E-6,2500000.0,96.89999999999999,93.76859371231004,93.9334637964775,93.31896551724137,998652.0,521360.0,0.0,1.0,0.0,?,0.0,0.0,144.0,119.0,119.0,6.0,0.0,0.0,1.0
2600000.0,11.671875,1.075379906170484E-6,2600000.0,98.1,96.19012480349063,96.3531669865643,96.00840336134453,1038452.0,521376.0,0.0,1.0,0.0,?,0.0,0.0,144.0,119.0,119.0,6.0,4353.882352941177,0.0,1.006268914829226
2700000.0,12.109375,1.1452382831420336E-6,2700000.0,97.8,95.58330489249363,95.80952380952381,95.26881720430107,1078452.0,525200.0,0.0,1.0,0.0,?,0.0,0.0,146.0,120.0,120.0,6.0,4353.882352941177,0.0,1.006268914829226
2800000.0,12.59375,1.2207960955695146E-6,2800000.0,97.3,94.58048976314733,94.56740442655935,94.3157894736842,1118452.0,525352.0,0.0,1.0,0.0,?,0.0,0.0,146.0,120.0,120.0,6.0,4353.882352941177,0.0,1.006268914829226
2900000.0,13.0625,1.2927407644585603E-6,2900000.0,96.89999999999999,93.79324705279343,93.72469635627529,93.59504132231405,1158452.0,530032.0,0.0,1.0,0.0,?,0.0,0.0,148.0,121.0,121.0,6.0,4353.882352941177,0.0,1.006268914829226
3000000.0,13.53125,1.362940173647884E-6,3000000.0,97.1,94.13311753995549,93.95833333333333,93.45372460496614,1198452.0,530040.0,0.0,1.0,0.0,?,0.0,0.0,148.0,121.0,121.0,6.0,4353.882352941177,0.0,1.006268914829226
3100000.0,13.984375,1.4375695092086164E-6,3100000.0,96.7,93.37588823316872,93.61702127659574,93.0379746835443,1238252.0,530048.0,0.0,1.0,0.0,?,0.0,0.0,148.0,121.0,121.0,6.0,4353.882352941177,0.0,1.006268914829226
3200000.0,14.4375,1.5105792812796103E-6,3200000.0,97.8,95.58412049730832,95.33898305084745,95.30916844349679,1278252.0,530632.0,0.0,1.0,0.0,?,0.0,0.0,148.0,121.0,121.0,6.0,4353.882352941177,0.0,1.006268914829226
3300000.0,14.90625,1.5860018579082357E-6,3300000.0,97.3,94.57569913211185,94.82758620689656,94.23076923076923,1318252.0,544320.0,0.0,1.0,0.0,?,0.0,0.0,170.0,141.0,141.0,6.0,4353.882352941177,0.0,1.006268914829226
3400000.0,15.375,1.667253931777345E-6,3400000.0,97.3,94.57713721047938,94.70588235294117,94.24307036247335,1358252.0,606552.0,0.0,1.0,0.0,?,0.0,0.0,170.0,141.0,141.0,6.0,4353.882352941177,0.0,1.006268914829226
3500000.0,15.859375,1.750618943737613E-6,3500000.0,97.89999999999999,95.7799463048406,95.75757575757575,95.47413793103448,1398252.0,616168.0,0.0,1.0,0.0,?,0.0,0.0,170.0,141.0,141.0,6.0,4353.882352941177,0.0,1.006268914829226
3600000.0,16.328125,1.8385037805678117E-6,3600000.0,98.1,96.19424569949764,96.13821138211381,96.05809128630705,1438052.0,618016.0,0.0,1.0,0.0,?,0.0,0.0,170.0,141.0,141.0,6.0,4353.882352941177,0.0,1.006268914829226
3700000.0,16.8125,1.93437354432212E-6,3700000.0,96.6,93.1444702086904,92.96066252587991,92.52747252747253,1478052.0,672760.0,0.0,1.0,0.0,?,0.0,0.0,190.0,160.0,160.0,7.0,4353.882352941177,0.0,1.006268914829226
3800000.0,17.3125,2.03501433134079E-6,3800000.0,97.5,94.98523653636305,94.90835030549898,94.65811965811966,1518052.0,700032.0,0.0,1.0,0.0,?,0.0,0.0,192.0,161.0,161.0,7.0,4353.882352941177,0.0,1.006268914829226
3900000.0,17.796875,2.1312720491550866E-6,3900000.0,97.6,95.1969260326609,95.25691699604742,95.04132231404958,1558052.0,704536.0,0.0,1.0,0.0,?,0.0,0.0,192.0,161.0,161.0,7.0,4353.882352941177,0.0,1.006268914829226
4000000.0,18.296875,2.2288032535774016E-6,4000000.0,98.0,95.98756144046544,96.09375,95.74468085106382,1598052.0,704776.0,0.0,1.0,0.0,?,0.0,0.0,192.0,161.0,161.0,7.0,4353.882352941177,0.0,1.006268914829226
4100000.0,18.78125,2.3305935772239336E-6,4100000.0,97.0,93.95356336665591,94.30740037950663,93.36283185840706,1637852.0,705344.0,0.0,1.0,0.0,?,0.0,0.0,192.0,161.0,161.0,7.0,4353.882352941177,0.0,1.006268914829226
4200000.0,19.28125,2.4348934271579815E-6,4200000.0,97.5,94.98801132308482,95.02982107355864,94.72573839662446,1677852.0,713712.0,0.0,1.0,0.0,?,0.0,0.0,196.0,163.0,163.0,7.0,4353.882352941177,0.0,1.006268914829226
4300000.0,19.75,2.5309438286866578E-6,4300000.0,96.5,92.96844236935365,93.11023622047243,92.48927038626609,1717852.0,713840.0,0.0,1.0,0.0,?,0.0,0.0,196.0,163.0,163.0,7.0,4353.882352941177,0.0,1.006268914829226
4400000.0,20.21875,2.6253168794533443E-6,4400000.0,96.1,92.18418078190255,91.59482758620689,91.82389937106917,1757852.0,714408.0,0.0,1.0,0.0,?,0.0,0.0,196.0,163.0,163.0,7.0,4353.882352941177,0.0,1.006268914829226
4500000.0,20.71875,2.7285156991436247E-6,4500000.0,97.1,94.18609313477837,93.95833333333333,93.88185654008439,1797852.0,748480.0,0.0,1.0,0.0,?,0.0,0.0,216.0,182.0,182.0,7.0,4353.882352941177,0.0,1.006268914829226
4600000.0,21.21875,2.845070719356752E-6,4600000.0,98.1,96.1894829730055,96.32495164410058,95.95744680851064,1837652.0,793960.0,0.0,1.0,0.0,?,0.0,0.0,216.0,182.0,182.0,7.0,4353.882352941177,0.0,1.006268914829226
4700000.0,21.703125,2.9564837071423725E-6,4700000.0,98.2,96.37060187518904,96.1864406779661,96.04395604395603,1877652.0,796392.0,0.0,1.0,0.0,?,0.0,0.0,216.0,182.0,182.0,7.0,4353.882352941177,0.0,1.006268914829226
4800000.0,22.203125,3.0697263233984505E-6,4800000.0,97.7,95.38760187383687,95.49019607843137,95.08547008547008,1917652.0,797152.0,0.0,1.0,0.0,?,0.0,0.0,216.0,182.0,182.0,7.0,4353.882352941177,0.0,1.006268914829226
4900000.0,22.6875,3.1776387024567353E-6,4900000.0,97.39999999999999,94.77138904083142,94.74747474747474,94.37229437229436,1957652.0,797256.0,0.0,1.0,0.0,?,0.0,0.0,216.0,182.0,182.0,7.0,4353.882352941177,0.0,1.006268914829226
5000000.0,23.203125,3.2910266438395605E-6,5000000.0,97.3,94.59177950484737,94.54545454545455,94.375,1997652.0,797304.0,0.0,1.0,0.0,?,0.0,0.0,216.0,182.0,182.0,7.0,4353.882352941177,0.0,1.006268914829226
5100000.0,24.015625,3.335814851905322E-6,5100000.0,89.4,77.87979966611019,76.75438596491229,71.35135135135135,33962.0,102984.0,0.0,1.0,0.0,?,9.0,65.0,36.0,23.0,23.0,5.0,0.0,0.0,1.0
5200000.0,24.703125,3.4159329111894794E-6,5200000.0,90.4,79.78581385261332,79.3103448275862,75.19379844961242,73962.0,354096.0,0.0,1.0,0.0,?,0.0,0.0,116.0,81.0,81.0,7.0,0.0,0.0,1.0
5300000.0,25.265625,3.4828752136996216E-6,5300000.0,93.4,86.1428379467885,86.41975308641976,83.33333333333334,113962.0,377936.0,0.0,1.0,0.0,?,0.0,0.0,126.0,86.0,86.0,7.0,0.0,0.0,1.0
5400000.0,25.796875,3.556452284101396E-6,5400000.0,94.1,87.3374254195819,87.42004264392322,84.05405405405403,153962.0,467480.0,0.0,1.0,0.0,?,0.0,0.0,162.0,113.0,113.0,9.0,0.0,0.0,1.0
5500000.0,26.34375,3.6493279427910837E-6,5500000.0,92.7,84.82416823968668,85.19269776876268,82.06388206388208,193962.0,602672.0,0.0,1.0,0.0,?,0.0,0.0,194.0,138.0,138.0,9.0,0.0,0.0,1.0
5600000.0,26.859375,3.7591452322279407E-6,5600000.0,92.0,83.0734401117153,82.49452954048141,79.22077922077924,233762.0,711632.0,0.0,1.0,0.0,?,0.0,0.0,224.0,162.0,162.0,9.0,0.0,0.0,1.0
5700000.0,27.375,3.871110675390809E-6,5700000.0,94.1,87.29652915338902,86.77130044843048,83.61111111111109,273762.0,741992.0,0.0,1.0,0.0,?,0.0,0.0,236.0,168.0,168.0,9.0,0.0,0.0,1.0
5800000.0,27.9375,4.0111536509357385E-6,5800000.0,93.89999999999999,87.17743901926326,87.37060041407865,84.67336683417084,313762.0,879224.0,0.0,1.0,0.0,?,0.0,0.0,290.0,213.0,213.0,9.0,0.0,0.0,1.0
5900000.0,28.484375,4.182787831976181E-6,5900000.0,93.30000000000001,86.08330079179788,86.12836438923397,83.16582914572865,353762.0,1144032.0,0.0,1.0,0.0,?,0.0,0.0,358.0,274.0,274.0,9.0,0.0,0.0,1.0
6000000.0,29.0625,4.385540378279984E-6,6000000.0,94.0,87.52313418869178,87.17948717948717,85.33007334963324,393762.0,1300536.0,0.0,1.0,0.0,?,0.0,0.0,386.0,297.0,297.0,9.0,0.0,0.0,1.0
6100000.0,29.625,4.603313864208758E-6,6100000.0,93.30000000000001,85.87237057404565,85.07795100222718,82.55208333333334,433562.0,1383528.0,0.0,1.0,0.0,?,0.0,0.0,410.0,318.0,318.0,9.0,0.0,0.0,1.0
6200000.0,30.171875,4.815528162806813E-6,6200000.0,93.8,86.625882799591,86.63793103448275,82.82548476454292,473562.0,1401320.0,0.0,1.0,0.0,?,0.0,0.0,416.0,321.0,321.0,9.0,0.0,0.0,1.0
6300000.0,30.71875,5.026409182594055E-6,6300000.0,94.0,87.37814652288972,87.52598752598752,84.49612403100774,513562.0,1406272.0,0.0,1.0,0.0,?,0.0,0.0,418.0,322.0,322.0,9.0,0.0,0.0,1.0
6400000.0,31.25,5.231587177452943E-6,6400000.0,93.89999999999999,86.91054537963709,85.97701149425286,83.19559228650137,553562.0,1422944.0,0.0,1.0,0.0,?,0.0,0.0,424.0,325.0,325.0,9.0,0.0,0.0,1.0
6500000.0,31.8125,5.457066193533441E-6,6500000.0,93.4,85.82711659129271,85.13513513513514,82.11382113821139,593562.0,1493832.0,0.0,1.0,0.0,?,0.0,0.0,448.0,346.0,346.0,10.0,0.0,0.0,1.0
6600000.0,32.390625,5.711127855142372E-6,6600000.0,94.1,87.59566058363467,87.55274261603374,84.63541666666666,633362.0,1585312.0,0.0,1.0,0.0,?,0.0,0.0,470.0,366.0,366.0,10.0,0.0,0.0,1.0
6700000.0,32.984375,5.985829985648808E-6,6700000.0,93.5,86.5628075049821,85.93073593073595,83.8308457711443,673362.0,1689208.0,0.0,1.0,0.0,?,0.0,0.0,494.0,387.0,387.0,11.0,0.0,0.0,1.0
6800000.0,33.578125,6.261512721216099E-6,6800000.0,93.4,86.0895663316922,85.1685393258427,82.9896907216495,713362.0,1709896.0,0.0,1.0,0.0,?,0.0,0.0,502.0,391.0,391.0,11.0,0.0,0.0,1.0
6900000.0,34.1875,6.554678321764287E-6,6900000.0,94.6,88.68285158607738,88.63157894736841,86.08247422680411,753362.0,1789056.0,0.0,1.0,0.0,?,0.0,0.0,524.0,411.0,411.0,11.0,0.0,0.0,1.0
7000000.0,34.765625,6.831028214138415E-6,7000000.0,93.60000000000001,86.19404272943775,86.58280922431867,82.3204419889503,793362.0,1791544.0,0.0,1.0,0.0,?,0.0,0.0,524.0,411.0,411.0,11.0,0.0,0.0,1.0
7100000.0,35.359375,7.124392561511033E-6,7100000.0,95.0,89.42090006982205,89.81670061099796,86.87664041994749,833162.0,1795920.0,0.0,1.0,0.0,?,0.0,0.0,526.0,412.0,412.0,11.0,0.0,0.0,1.0
7200000.0,35.96875,7.425023003533069E-6,7200000.0,93.10000000000001,85.3794973937365,86.00405679513186,81.74603174603176,873162.0,1807392.0,0.0,1.0,0.0,?,0.0,0.0,530.0,414.0,414.0,11.0,0.0,0.0,1.0
7300000.0,36.578125,7.724164008525096E-6,7300000.0,93.30000000000001,85.66820394787506,85.95387840670861,81.94070080862535,913162.0,1812320.0,0.0,1.0,0.0,?,0.0,0.0,532.0,415.0,415.0,11.0,0.0,0.0,1.0
7400000.0,37.1875,8.021742428859903E-6,7400000.0,92.80000000000001,84.90945674044266,84.9056603773585,81.53846153846155,953162.0,1816784.0,0.0,1.0,0.0,?,0.0,0.0,534.0,416.0,416.0,11.0,0.0,0.0,1.0
7500000.0,37.8125,8.335149290764498E-6,7500000.0,93.10000000000001,85.7569852698329,85.31914893617022,82.92079207920794,993162.0,1881856.0,0.0,1.0,0.0,?,0.0,0.0,554.0,435.0,435.0,11.0,0.0,0.0,1.0
7600000.0,38.515625,8.715504340620506E-6,7600000.0,94.19999999999999,87.83312076256964,88.09034907597535,85.35353535353534,1032962.0,1976728.0,0.0,1.0,0.0,?,0.0,0.0,582.0,458.0,458.0,11.0,4308.448512585813,0.0,1.0081326030703337
7700000.0,39.125,9.044155368529676E-6,7700000.0,93.5,85.77954354522544,85.93073593073595,81.74157303370788,1072962.0,1984800.0,0.0,1.0,0.0,?,0.0,0.0,586.0,460.0,460.0,11.0,4308.448512585813,0.0,1.0081326030703337
7800000.0,39.6875,9.34684568265867E-6,7800000.0,94.5,88.28541001064961,88.17204301075267,85.33333333333331,1112962.0,1994480.0,0.0,1.0,0.0,?,0.0,0.0,590.0,462.0,462.0,11.0,4308.448512585813,0.0,1.0081326030703337
7900000.0,40.34375,9.724523956214804E-6,7900000.0,95.6,90.54401973720971,91.09311740890688,88.32891246684349,1152962.0,2153232.0,0.0,1.0,0.0,?,0.0,0.0,630.0,500.0,500.0,11.0,4308.448512585813,0.0,1.0081326030703337
8000000.0,40.984375,1.009947051190668E-5,8000000.0,91.8,82.90947440381161,82.59023354564756,78.9203084832905,1192962.0,2205408.0,0.0,1.0,0.0,?,0.0,0.0,658.0,523.0,523.0,11.0,4308.448512585813,0.0,1.0081326030703337
8100000.0,41.625,1.0491618530876523E-5,8100000.0,94.6,88.55461778781955,87.83783783783782,85.52278820375334,1232762.0,2251272.0,0.0,1.0,0.0,?,0.0,0.0,660.0,524.0,524.0,11.0,4308.448512585813,0.0,1.0081326030703337
8200000.0,42.265625,1.0882707202755331E-5,8200000.0,94.1,87.73511167284761,88.22355289421156,85.13853904282115,1272762.0,2259248.0,0.0,1.0,0.0,?,0.0,0.0,664.0,526.0,526.0,11.0,4308.448512585813,0.0,1.0081326030703337
8300000.0,42.890625,1.1263570276140755E-5,8300000.0,94.0,87.56038396948146,87.49999999999999,85.25798525798524,1312762.0,2269360.0,0.0,1.0,0.0,?,0.0,0.0,666.0,527.0,527.0,11.0,4308.448512585813,0.0,1.0081326030703337
8400000.0,43.53125,1.1664048555151872E-5,8400000.0,94.1,87.45950909291865,86.80089485458612,84.43271767810026,1352762.0,2344568.0,0.0,1.0,0.0,?,0.0,0.0,690.0,548.0,548.0,11.0,4308.448512585813,0.0,1.0081326030703337
8500000.0,44.171875,1.2068135773814802E-5,8500000.0,94.3,88.0583256515545,87.63557483731019,85.56962025316454,1392762.0,2380592.0,0.0,1.0,0.0,?,0.0,0.0,696.0,551.0,551.0,11.0,4308.448512585813,0.0,1.0081326030703337
8600000.0,44.8125,1.2484243068481901E-5,8600000.0,93.60000000000001,86.62319204079928,86.9918699186992,84.07960199004977,1432562.0,2395456.0,0.0,1.0,0.0,?,0.0,0.0,700.0,553.0,553.0,11.0,4308.448512585813,0.0,1.0081326030703337
8700000.0,45.453125,1.2899402386715846E-5,8700000.0,93.10000000000001,85.51929082300796,85.16129032258065,82.17054263565893,1472562.0,2404096.0,0.0,1.0,0.0,?,0.0,0.0,702.0,554.0,554.0,11.0,4308.448512585813,0.0,1.0081326030703337
8800000.0,46.125,1.3346567413666185E-5,8800000.0,93.0,85.2745042767047,84.51327433628319,82.09718670076728,1512562.0,2486000.0,0.0,1.0,0.0,?,0.0,0.0,724.0,574.0,574.0,11.0,4308.448512585813,0.0,1.0081326030703337
8900000.0,46.765625,1.3773127640080124E-5,8900000.0,93.8,86.92093494219895,86.72376873661669,83.76963350785338,1552562.0,2501496.0,0.0,1.0,0.0,?,0.0,0.0,730.0,577.0,577.0,11.0,4308.448512585813,0.0,1.0081326030703337
9000000.0,47.4375,1.4220747365874966E-5,9000000.0,93.2,85.381185585849,85.53191489361703,81.5718157181572,1592562.0,2517272.0,0.0,1.0,0.0,?,0.0,0.0,736.0,580.0,580.0,11.0,4308.448512585813,0.0,1.0081326030703337
9100000.0,48.09375,1.4670323548165878E-5,9100000.0,94.1,87.32316894992866,87.20173535791756,83.96739130434781,1632362.0,2532288.0,0.0,1.0,0.0,?,0.0,0.0,744.0,584.0,584.0,11.0,4308.448512585813,0.0,1.0081326030703337
9200000.0,48.765625,1.5130434282279267E-5,9200000.0,93.60000000000001,86.47277646263105,86.20689655172414,83.50515463917527,1672362.0,2545640.0,0.0,1.0,0.0,?,0.0,0.0,750.0,587.0,587.0,11.0,4308.448512585813,0.0,1.0081326030703337
9300000.0,49.40625,1.5567550856050937E-5,9300000.0,92.2,83.63661538074241,83.43949044585987,80.05115089514068,1712362.0,2550400.0,0.0,1.0,0.0,?,0.0,0.0,752.0,588.0,588.0,11.0,4308.448512585813,0.0,1.0081326030703337
9400000.0,50.078125,1.604426018376318E-5,9400000.0,92.5,84.43247013109936,84.27672955974843,81.57248157248158,1752362.0,2669840.0,0.0,1.0,0.0,?,0.0,0.0,798.0,629.0,629.0,11.0,4308.448512585813,0.0,1.0081326030703337
9500000.0,50.78125,1.6555313260242765E-5,9500000.0,94.19999999999999,87.58646668036435,87.76371308016877,84.40860215053762,1792362.0,2751048.0,0.0,1.0,0.0,?,0.0,0.0,820.0,649.0,649.0,11.0,4308.448512585813,0.0,1.0081326030703337
9600000.0,51.453125,1.706381674416157E-5,9600000.0,94.1,87.26637026805368,86.88888888888887,83.56545961002783,1832162.0,2809240.0,0.0,1.0,0.0,?,0.0,0.0,822.0,650.0,650.0,11.0,4308.448512585813,0.0,1.0081326030703337
9700000.0,52.140625,1.7591800844659002E-5,9700000.0,93.0,85.05225305254348,84.9785407725322,81.53034300791559,1872162.0,2866656.0,0.0,1.0,0.0,?,0.0,0.0,844.0,670.0,670.0,11.0,4308.448512585813,0.0,1.0081326030703337
9800000.0,52.8125,1.811104328630286E-5,9800000.0,95.39999999999999,90.07662570757972,90.12875536480685,87.36263736263736,1912162.0,2899664.0,0.0,1.0,0.0,?,0.0,0.0,846.0,671.0,671.0,11.0,4308.448512585813,0.0,1.0081326030703337
9900000.0,53.5,1.864125984462186E-5,9900000.0,94.3,87.25368301474994,87.8205128205128,83.13609467455619,1952162.0,2907840.0,0.0,1.0,0.0,?,0.0,0.0,846.0,671.0,671.0,11.0,4308.448512585813,0.0,1.0081326030703337
1.0E7,54.1875,1.9178135359349358E-5,1.0E7,94.89999999999999,89.06714914123526,89.28571428571428,86.36363636363636,1992162.0,2959696.0,0.0,1.0,0.0,?,0.0,0.0,866.0,690.0,690.0,11.0,4308.448512585813,0.0,1.0081326030703337
