learning evaluation instances,evaluation time (cpu seconds),model cost (RAM-Hours),classified instances,classifications correct (percent),Kappa Statistic (percent),Kappa Temporal Statistic (percent),Kappa M Statistic (percent),model training instances,model serialized size (bytes),labeling cost,newThreshold,maxPosterior,accuracyBaseLearner (percent),Change detected,Warning detected
100000.0,0.21875,5.220386406613721E-9,100000.0,64.4,15.781505050744018,23.440860215053764,3.5230352303523067,59700.0,9208.0,0.0,1.0,0.0,?,0.0,66.0
200000.0,0.4375,9.580592935283979E-9,200000.0,58.4,10.371484343018674,15.102040816326523,-12.129380053908367,119700.0,9208.0,0.0,1.0,0.0,?,0.0,0.0
300000.0,0.671875,1.3352449362476666E-8,300000.0,62.2,12.184514738133304,23.636363636363637,3.5714285714285747,179700.0,9208.0,0.0,1.0,0.0,?,0.0,8.0
400000.0,0.9375,1.6582715842458935E-8,400000.0,62.1,11.474245779260203,16.703296703296694,0.5249343832021002,239700.0,9208.0,0.0,1.0,0.0,?,0.0,24.0
500000.0,1.171875,1.8511329674058488E-8,500000.0,59.599999999999994,14.850208026843264,13.859275053304893,-8.894878706199469,299700.0,9208.0,0.0,1.0,0.0,?,0.0,0.0
600000.0,1.390625,2.3752088761991923E-8,600000.0,63.7,14.110487511712211,24.05857740585774,2.941176470588238,359400.0,9208.0,0.0,1.0,0.0,?,0.0,0.0
700000.0,1.625,2.8445566486981178E-8,700000.0,64.60000000000001,16.47791619479049,19.178082191780817,1.6666666666666683,419400.0,9208.0,0.0,1.0,0.0,?,0.0,0.0
800000.0,1.875,3.246888000932005E-8,800000.0,63.7,13.392439613296064,22.765957446808507,-0.27624309392265217,479400.0,9208.0,0.0,1.0,0.0,?,0.0,0.0
900000.0,2.09375,3.512909946342309E-8,900000.0,64.5,13.48975036309935,20.403587443946183,-0.282485875706215,539400.0,9208.0,0.0,1.0,0.0,?,0.0,0.0
1000000.0,2.328125,3.7057713295022645E-8,1000000.0,62.5,12.963152080064619,22.99794661190965,1.8324607329842948,599400.0,9208.0,0.0,1.0,0.0,?,0.0,0.0
1100000.0,2.5625,4.2682028530786434E-8,1100000.0,63.9,16.357738646895275,23.839662447257385,5.000000000000004,659100.0,9208.0,0.0,1.0,0.0,?,0.0,0.0
1200000.0,2.796875,4.738472246875365E-8,1200000.0,62.0,17.9379092306895,21.48760330578512,1.5544041450777215,719100.0,9208.0,0.0,1.0,0.0,?,0.0,0.0
1300000.0,3.03125,5.116579510892431E-8,1300000.0,62.5,11.192997745486254,19.006479481641463,0.5305039787798413,779100.0,9208.0,0.0,1.0,0.0,?,0.0,0.0
1400000.0,3.265625,5.4025246451298395E-8,1400000.0,63.9,16.99317550539891,25.25879917184265,9.06801007556676,839100.0,9208.0,0.0,1.0,0.0,?,0.0,0.0
1500000.0,3.5,5.596307649587591E-8,1500000.0,61.9,10.59108445270481,20.459290187891437,0.2617801047120421,899100.0,9208.0,0.0,1.0,0.0,?,0.0,0.0
1600000.0,3.734375,6.15873917316397E-8,1600000.0,62.4,14.395646927577808,20.16985138004246,5.289672544080609,958800.0,9208.0,0.0,1.0,0.0,?,0.0,0.0
1700000.0,3.953125,6.59765727404091E-8,1700000.0,60.5,16.308594577644442,18.38842975206611,-10.644257703081243,1018800.0,9208.0,0.0,1.0,0.0,?,0.0,0.0
1800000.0,4.1875,6.975764538057976E-8,1800000.0,63.1,14.923638778220452,19.256017505470453,5.62659846547315,1078800.0,9208.0,0.0,1.0,0.0,?,0.0,0.0
1900000.0,4.40625,7.242646663346223E-8,1900000.0,62.5,10.334273827172309,16.666666666666657,-4.456824512534823,1138800.0,9208.0,0.0,1.0,0.0,?,0.0,0.0
2000000.0,4.640625,7.436429667803975E-8,2000000.0,62.2,14.012738853503182,23.014256619144604,5.500000000000005,1198800.0,9208.0,0.0,1.0,0.0,?,0.0,0.0
2100000.0,4.859375,7.962225936353206E-8,2100000.0,61.3,12.719891745602165,15.502183406113529,3.2500000000000027,1258500.0,9208.0,0.0,1.0,0.0,?,0.0,0.0
2200000.0,5.09375,8.433416951447725E-8,2200000.0,61.8,13.446200696055675,23.599999999999998,3.535353535353538,1318500.0,9208.0,0.0,1.0,0.0,?,0.0,0.0
2300000.0,5.34375,8.83771442911691E-8,2300000.0,63.9,14.178394826930399,16.435185185185198,-4.6376811594202945,1378500.0,9208.0,0.0,1.0,0.0,?,0.0,0.0
2400000.0,5.578125,9.124581184652115E-8,2400000.0,63.6,12.317891004393733,20.350109409190367,0.0,1438500.0,9208.0,0.0,1.0,0.0,?,0.0,0.0
2500000.0,5.8125,9.319285810407664E-8,2500000.0,59.8,10.908994202436027,13.36206896551723,-9.836065573770501,1498500.0,9208.0,0.0,1.0,0.0,?,0.0,0.0
2600000.0,6.046875,9.882638955281839E-8,2600000.0,62.3,11.243996609850274,22.74590163934426,-2.4456521739130457,1558200.0,9208.0,0.0,1.0,0.0,?,0.0,0.0
2700000.0,6.28125,1.0353829970376358E-7,2700000.0,64.7,14.311237122411157,23.093681917211327,2.4861878453038697,1618200.0,9208.0,0.0,1.0,0.0,?,0.0,0.0
2800000.0,6.515625,1.0727911204513575E-7,2800000.0,61.6,0.0,17.062634989200856,0.0,848.0,8800.0,0.0,1.0,0.0,?,2.0,11.0
2900000.0,6.71875,1.0973754494140544E-7,2900000.0,65.0,19.377130747258818,26.160337552742618,7.407407407407414,60848.0,9208.0,0.0,1.0,0.0,?,0.0,13.0
3000000.0,6.921875,1.114022840435306E-7,3000000.0,61.8,10.422421596169265,17.67241379310344,-1.3262599469496033,120848.0,9208.0,0.0,1.0,0.0,?,0.0,52.0
3100000.0,7.125,1.1626996436259811E-7,3100000.0,65.4,15.55661855509076,23.451327433628315,1.9830028328611915,180548.0,9208.0,0.0,1.0,0.0,?,0.0,0.0
3200000.0,7.328125,1.2033890622357525E-7,3200000.0,65.3,19.034196968565666,23.230088495575217,6.720430107526888,240548.0,9208.0,0.0,1.0,0.0,?,0.0,0.0
3300000.0,7.53125,1.2360910962646205E-7,3300000.0,64.7,16.97633943271086,25.52742616033755,4.851752021563346,300548.0,9208.0,0.0,1.0,0.0,?,0.0,0.0
3400000.0,7.75,1.2627068725931975E-7,3400000.0,65.4,17.551911318263922,27.15789473684211,4.155124653739616,360548.0,9208.0,0.0,1.0,0.0,?,0.0,0.0
3500000.0,7.9375,1.2781474247781767E-7,3500000.0,65.9,20.96162582631029,23.88392857142857,9.788359788359797,420548.0,9208.0,0.0,1.0,0.0,?,0.0,0.0
3600000.0,8.15625,1.3305685974450574E-7,3600000.0,68.0,22.642531136381212,32.05944798301486,10.614525139664813,480248.0,9208.0,0.0,1.0,0.0,?,0.0,0.0
3700000.0,8.34375,1.3678564250262246E-7,3700000.0,64.1,13.058219509832405,20.222222222222218,0.27777777777777807,540248.0,9208.0,0.0,1.0,0.0,?,0.0,164.0
3800000.0,8.578125,1.4058514756874905E-7,3800000.0,64.2,17.469304575151348,24.312896405919663,6.52741514360314,600248.0,9208.0,0.0,1.0,0.0,?,0.0,98.0
3900000.0,8.8125,1.4344799435800976E-7,3900000.0,64.60000000000001,17.909236370382402,24.358974358974358,8.05194805194806,660248.0,9208.0,0.0,1.0,0.0,?,0.0,4.0
4000000.0,9.046875,1.454042568285432E-7,4000000.0,64.9,19.314054526228677,23.695652173913043,9.067357512953375,720248.0,9208.0,0.0,1.0,0.0,?,0.0,57.0
4100000.0,9.28125,1.510363330857621E-7,4100000.0,63.9,17.09535182803602,22.030237580993518,5.000000000000004,779948.0,9208.0,0.0,1.0,0.0,?,0.0,59.0
4200000.0,9.484375,1.5511494388596878E-7,4200000.0,67.60000000000001,21.933354215357916,31.501057082452437,8.732394366197191,839948.0,9208.0,0.0,1.0,0.0,?,0.0,34.0
4300000.0,9.703125,1.5864711410055556E-7,4300000.0,63.800000000000004,18.487561472087634,25.051759834368532,9.045226130653274,899948.0,9208.0,0.0,1.0,0.0,?,0.0,0.0
4400000.0,9.890625,1.6093739153196414E-7,4400000.0,65.4,16.217891596606083,28.659793814432994,1.7045454545454561,959948.0,9208.0,0.0,1.0,0.0,?,0.0,0.0
4500000.0,10.078125,1.6249037192513544E-7,4500000.0,66.3,20.21326969335379,29.497907949790797,10.372340425531924,1019948.0,9208.0,0.0,1.0,0.0,?,0.0,0.0
4600000.0,10.296875,1.6774290189560916E-7,4600000.0,64.1,15.460188577941478,22.961373390557938,4.010695187165779,1079648.0,9208.0,0.0,1.0,0.0,?,0.0,0.0
4700000.0,10.5,1.7182151269581583E-7,4700000.0,65.60000000000001,17.967110534549217,21.995464852607707,3.9106145251396685,1139648.0,9208.0,0.0,1.0,0.0,?,0.0,0.0
4800000.0,10.71875,1.753536829104026E-7,4800000.0,62.3,12.453440092144499,21.621621621621617,0.0,1199648.0,9208.0,0.0,1.0,0.0,?,0.0,0.0
4900000.0,10.921875,1.7783481679442855E-7,4900000.0,67.30000000000001,20.622590762120254,29.373650107991367,9.668508287292827,1259648.0,9208.0,0.0,1.0,0.0,?,0.0,0.0
5000000.0,11.140625,1.7977746513982614E-7,5000000.0,65.9,16.966981591506762,27.4468085106383,3.9436619718309895,1319648.0,9208.0,0.0,1.0,0.0,?,0.0,0.0
5100000.0,11.375,1.8552304633582632E-7,5100000.0,59.199999999999996,16.994889489274428,17.408906882591086,10.132158590308356,56885.0,9208.0,0.0,1.0,0.0,?,1.0,81.0
5200000.0,11.578125,1.8970507274692259E-7,5200000.0,58.199999999999996,15.657788539144471,14.867617107942966,12.552301255230114,116885.0,9208.0,0.0,1.0,0.0,?,0.0,6.0
5300000.0,11.796875,1.9334861361939048E-7,5300000.0,59.699999999999996,18.263536207428082,18.42105263157894,11.622807017543847,176885.0,9208.0,0.0,1.0,0.0,?,0.0,0.0
5400000.0,12.0,1.95933163114306E-7,5400000.0,57.599999999999994,14.065666801783525,13.292433537832299,5.777777777777759,236885.0,9208.0,0.0,1.0,0.0,?,0.0,0.0
5500000.0,12.203125,1.9771897415113118E-7,5500000.0,63.0,24.539076521455375,24.489795918367346,18.859649122807014,296885.0,9208.0,0.0,1.0,0.0,?,0.0,0.0
5600000.0,12.40625,2.026997390203178E-7,5600000.0,60.0,18.831168831168828,16.142557651991606,13.79310344827585,356585.0,9208.0,0.0,1.0,0.0,?,0.0,0.0
5700000.0,12.625,2.0720345977072915E-7,5700000.0,61.1,20.235888518889126,19.12681912681912,12.189616252821658,416585.0,9208.0,0.0,1.0,0.0,?,0.0,0.0
5800000.0,12.828125,2.1058674772373506E-7,5800000.0,61.5,21.316165951359075,20.944558521560573,14.444444444444434,476585.0,9208.0,0.0,1.0,0.0,?,0.0,0.0
5900000.0,13.046875,2.1337010871825949E-7,5900000.0,59.3,17.71860166099254,20.196078431372545,14.135021097046405,536585.0,9208.0,0.0,1.0,0.0,?,0.0,0.0
6000000.0,13.25,2.1515591975508466E-7,6000000.0,61.5,21.754965003129787,20.944558521560573,16.48590021691973,596585.0,9208.0,0.0,1.0,0.0,?,0.0,0.0
6100000.0,13.453125,2.2014467200885217E-7,6100000.0,57.599999999999994,13.947069329436596,15.199999999999992,5.357142857142837,656285.0,9208.0,0.0,1.0,0.0,?,0.0,0.0
6200000.0,13.65625,2.2433468580452934E-7,6200000.0,59.0,16.29099699464262,12.579957356076749,10.087719298245599,716285.0,9208.0,0.0,1.0,0.0,?,0.0,0.0
6300000.0,13.859375,2.2772596114211614E-7,6300000.0,55.00000000000001,9.497894317674458,7.024793388429759,6.444906444906451,776285.0,9208.0,0.0,1.0,0.0,?,0.0,0.0
6400000.0,14.078125,2.3051792393542E-7,6400000.0,59.599999999999994,18.591389225852463,20.315581854043387,15.657620041753646,836285.0,9208.0,0.0,1.0,0.0,?,0.0,0.0
6500000.0,14.296875,2.324497068507804E-7,6500000.0,57.99999999999999,14.864979912189288,16.50099403578528,10.064239828693776,896285.0,9208.0,0.0,1.0,0.0,?,0.0,0.0
6600000.0,14.515625,2.3782220927791465E-7,6600000.0,56.599999999999994,11.123489201708717,13.199999999999989,1.5873015873015637,955985.0,9208.0,0.0,1.0,0.0,?,0.0,0.0
6700000.0,14.71875,2.420122230735918E-7,6700000.0,59.699999999999996,18.56940796120428,17.922606924643578,15.157894736842096,1015985.0,9208.0,0.0,1.0,0.0,?,0.0,0.0
6800000.0,14.921875,2.454034984111786E-7,6800000.0,59.3,17.619340630869875,19.24603174603174,13.034188034188023,1075985.0,9208.0,0.0,1.0,0.0,?,0.0,0.0
6900000.0,15.140625,2.4819546120448245E-7,6900000.0,58.599999999999994,16.226552540520846,17.52988047808764,10.967741935483858,1135985.0,9208.0,0.0,1.0,0.0,?,0.0,0.0
7000000.0,15.34375,2.499892596258885E-7,7000000.0,57.8,14.993050379711137,13.16872427983538,12.629399585921314,1195985.0,9208.0,0.0,1.0,0.0,?,0.0,0.0
7100000.0,15.5625,2.553703638518022E-7,7100000.0,60.099999999999994,18.352145762906087,20.359281437125745,12.114537444933909,1255685.0,9208.0,0.0,1.0,0.0,?,0.0,0.0
7200000.0,15.78125,2.598912881997724E-7,7200000.0,58.3,15.131434339816172,17.42574257425742,8.951965065502169,1315685.0,9208.0,0.0,1.0,0.0,?,0.0,0.0
7300000.0,15.96875,2.6302906917408105E-7,7300000.0,59.5,17.658157331880307,13.829787234042543,11.572052401746712,1375685.0,9208.0,0.0,1.0,0.0,?,0.0,0.0
7400000.0,16.1875,2.6582963376616437E-7,7400000.0,56.8,11.810457809878038,11.293634496919905,2.483069977426614,1435685.0,9208.0,0.0,1.0,0.0,?,0.0,0.0
7500000.0,16.40625,2.677700184803042E-7,7500000.0,60.3,18.946508779093506,20.758483033932134,11.581291759465467,1495685.0,9208.0,0.0,1.0,0.0,?,0.0,0.0
7600000.0,16.609375,2.727667581186526E-7,7600000.0,58.599999999999994,16.48747110345467,19.298245614035086,12.473572938689207,1555385.0,9208.0,0.0,1.0,0.0,?,0.0,0.0
7700000.0,16.828125,2.772876824666228E-7,7700000.0,57.49999999999999,13.8525155065472,15.841584158415834,9.57446808510637,1615385.0,9208.0,0.0,1.0,0.0,?,0.0,0.0
7800000.0,17.015625,2.8042546344093145E-7,7800000.0,58.9,17.052142113293456,16.122448979591827,13.836477987421372,1675385.0,9208.0,0.0,1.0,0.0,?,0.0,0.0
7900000.0,17.21875,2.830259877050088E-7,7900000.0,55.300000000000004,9.899377559905837,7.45341614906833,5.4968287526427115,1735385.0,9208.0,0.0,1.0,0.0,?,0.0,0.0
8000000.0,17.4375,2.849663724191486E-7,8000000.0,57.199999999999996,12.75099378248904,11.934156378600811,5.934065934065916,1795385.0,9208.0,0.0,1.0,0.0,?,0.0,0.0
8100000.0,17.640625,2.8997109944207794E-7,8100000.0,57.599999999999994,13.54948680202423,13.292433537832299,8.423326133909272,1855085.0,9208.0,0.0,1.0,0.0,?,0.0,0.0
8200000.0,17.859375,2.945006255888276E-7,8200000.0,56.00000000000001,10.697976497331094,15.384615384615397,6.976744186046519,1915085.0,9208.0,0.0,1.0,0.0,?,0.0,0.0
8300000.0,18.046875,2.9764577953351864E-7,8300000.0,58.199999999999996,16.2824605746468,16.89860834990059,15.725806451612895,1975085.0,9208.0,0.0,1.0,0.0,?,0.0,0.0
8400000.0,18.25,3.002542911821769E-7,8400000.0,58.599999999999994,15.51192832799329,15.510204081632645,9.010989010988995,2035085.0,9208.0,0.0,1.0,0.0,?,0.0,0.0
8500000.0,18.46875,3.0220327769509617E-7,8500000.0,59.5,17.666192315511278,18.674698795180717,12.526997840172774,2095085.0,9208.0,0.0,1.0,0.0,?,0.0,0.0
8600000.0,18.6875,3.075929837197893E-7,8600000.0,57.3,12.9175674022107,17.08737864077669,5.947136563876634,2154785.0,9208.0,0.0,1.0,0.0,?,0.0,0.0
8700000.0,18.890625,3.1179897228462827E-7,8700000.0,56.89999999999999,12.134778318695908,16.472868217054256,5.066079295154165,2214785.0,9208.0,0.0,1.0,0.0,?,0.0,0.0
8800000.0,19.109375,3.154683185534345E-7,8800000.0,56.49999999999999,11.385803802058282,7.838983050847441,4.185022026431698,2274785.0,9208.0,0.0,1.0,0.0,?,0.0,0.0
8900000.0,19.328125,3.182774849442972E-7,8900000.0,57.99999999999999,14.053835040660703,15.322580645161283,6.4587973273941905,2334785.0,9208.0,0.0,1.0,0.0,?,0.0,0.0
9000000.0,19.53125,3.2008725813486507E-7,9000000.0,58.199999999999996,14.576725631886985,17.063492063492056,5.429864253393645,2394785.0,9208.0,0.0,1.0,0.0,?,0.0,0.0
9100000.0,19.75,3.254855659583376E-7,9100000.0,57.199999999999996,14.048285584612225,17.21470019342359,12.474437627811849,2454485.0,9208.0,0.0,1.0,0.0,?,0.0,0.0
9200000.0,19.96875,3.3002369390386673E-7,9200000.0,58.5,15.753146569224501,15.821501014198775,10.367170626349878,2514485.0,9208.0,0.0,1.0,0.0,?,0.0,0.0
9300000.0,20.171875,3.3343893139519623E-7,9300000.0,60.699999999999996,19.97686863174698,21.868787276341944,14.750542299349231,2574485.0,9208.0,0.0,1.0,0.0,?,0.0,0.0
9400000.0,20.390625,3.362566995848384E-7,9400000.0,59.9,18.138539803859114,17.827868852459012,12.253829321663007,2634485.0,9208.0,0.0,1.0,0.0,?,0.0,0.0
9500000.0,20.59375,3.380744601599872E-7,9500000.0,58.199999999999996,13.981503965493813,17.063492063492056,2.564102564102566,2694485.0,9208.0,0.0,1.0,0.0,?,0.0,0.0
9600000.0,20.8125,3.4347276798345975E-7,9600000.0,56.599999999999994,12.450930158435563,15.728155339805816,9.014675052410887,2754185.0,9208.0,0.0,1.0,0.0,?,0.0,0.0
9700000.0,21.03125,3.4801089592898886E-7,9700000.0,60.6,19.962947313680246,19.262295081967206,16.34819532908704,2814185.0,9208.0,0.0,1.0,0.0,?,0.0,0.0
9800000.0,21.234375,3.5142613342031836E-7,9800000.0,56.49999999999999,12.322427721431213,12.650602409638543,8.805031446540866,2874185.0,9208.0,0.0,1.0,0.0,?,0.0,0.0
9900000.0,21.46875,3.5444517076636354E-7,9900000.0,55.60000000000001,10.00194590387236,11.20000000000001,5.128205128205133,2934185.0,9208.0,0.0,1.0,0.0,?,0.0,0.0
1.0E7,21.6875,3.5640275907806223E-7,1.0E7,58.8,15.65569508305456,18.897637795275585,8.240534521158112,2994185.0,9208.0,0.0,1.0,0.0,?,0.0,0.0
