learning evaluation instances,evaluation time (cpu seconds),model cost (RAM-Hours),classified instances,classifications correct (percent),Kappa Statistic (percent),Kappa Temporal Statistic (percent),Kappa M Statistic (percent),model training instances,model serialized size (bytes),labeling cost,newThreshold,maxPosterior,accuracyBaseLearner (percent),Change detected,Warning detected
100000.0,0.21875,5.221744585368369E-9,100000.0,59.099999999999994,16.77586866458843,17.373737373737367,9.91189427312774,59068.0,9208.0,0.0,1.0,0.0,?,1.0,102.0
200000.0,0.453125,9.915222310357624E-9,200000.0,58.099999999999994,15.490116982654293,14.837398373983731,12.526096033402911,119068.0,9208.0,0.0,1.0,0.0,?,0.0,49.0
300000.0,0.671875,1.3435621642404132E-8,300000.0,59.8,18.480905875863858,18.787878787878782,11.842105263157881,179068.0,9208.0,0.0,1.0,0.0,?,0.0,48.0
400000.0,0.890625,1.6095841096507178E-8,400000.0,57.49999999999999,13.839940965154844,13.265306122448969,5.34521158129174,239068.0,9208.0,0.0,1.0,0.0,?,0.0,0.0
500000.0,1.109375,1.789588067266676E-8,500000.0,63.0,24.539076521455375,24.335378323108383,18.859649122807014,299068.0,9208.0,0.0,1.0,0.0,?,0.0,0.0
600000.0,1.34375,2.3510979695452584E-8,600000.0,60.0,18.87561603829071,16.142557651991606,13.978494623655905,358768.0,9208.0,0.0,1.0,0.0,?,0.0,0.0
700000.0,1.5625,2.787752439164453E-8,700000.0,61.0,19.995404864279383,18.918918918918916,11.764705882352928,418768.0,9208.0,0.0,1.0,0.0,?,0.0,3.0
800000.0,1.796875,3.1625612690630885E-8,800000.0,61.5,21.26531747460039,20.781893004115222,14.253897550111347,478768.0,9208.0,0.0,1.0,0.0,?,0.0,64.0
900000.0,2.015625,3.4266364915917314E-8,900000.0,59.3,17.71860166099254,20.352250489236788,14.135021097046405,538768.0,9208.0,0.0,1.0,0.0,?,0.0,69.0
1000000.0,2.203125,3.5797226397941504E-8,1000000.0,61.6,21.990541353139072,20.98765432098765,16.883116883116873,598768.0,9208.0,0.0,1.0,0.0,?,0.0,14.0
1100000.0,2.40625,4.065860088707672E-8,1100000.0,57.599999999999994,13.947069329436596,15.199999999999992,5.357142857142837,658468.0,9208.0,0.0,1.0,0.0,?,0.0,0.0
1200000.0,2.625,4.50337473820481E-8,1200000.0,58.9,16.126557066592653,12.553191489361689,10.06564551422318,718468.0,9208.0,0.0,1.0,0.0,?,0.0,0.0
1300000.0,2.84375,4.854871399907602E-8,1300000.0,55.00000000000001,9.497894317674458,7.024793388429759,6.444906444906451,778468.0,9208.0,0.0,1.0,0.0,?,0.0,0.0
1400000.0,3.046875,5.101387311394016E-8,1400000.0,59.599999999999994,18.554955245544715,20.315581854043387,15.481171548117146,838468.0,9208.0,0.0,1.0,0.0,?,0.0,0.0
1500000.0,3.265625,5.2822514488879174E-8,1500000.0,57.9,14.697205472346484,16.302186878727625,10.042735042735028,898468.0,9208.0,0.0,1.0,0.0,?,0.0,68.0
1600000.0,3.5,5.844682972464296E-8,1600000.0,56.49999999999999,10.89717328963538,12.99999999999999,1.360544217687051,958168.0,9208.0,0.0,1.0,0.0,?,0.0,0.0
1700000.0,3.734375,6.314952366261018E-8,1700000.0,59.599999999999994,18.33368371686854,17.718940936863536,14.767932489451468,1018168.0,9208.0,0.0,1.0,0.0,?,0.0,0.0
1800000.0,3.96875,6.693059630278083E-8,1800000.0,59.3,17.619340630869875,19.405940594059402,13.034188034188023,1078168.0,9208.0,0.0,1.0,0.0,?,0.0,0.0
1900000.0,4.203125,6.979004764515492E-8,1900000.0,58.699999999999996,16.44073969166026,17.89264413518886,11.182795698924718,1138168.0,9208.0,0.0,1.0,0.0,?,0.0,0.0
2000000.0,4.453125,7.185706635937094E-8,2000000.0,57.9,15.18868000547948,13.195876288659782,12.836438923395436,1198168.0,9208.0,0.0,1.0,0.0,?,0.0,0.0
2100000.0,4.6875,7.749059780811269E-8,2100000.0,60.0,18.18869776859672,20.159680638722552,12.087912087912075,1257868.0,9208.0,0.0,1.0,0.0,?,0.0,0.0
2200000.0,4.921875,8.220250795905788E-8,2200000.0,58.4,15.37043742905154,17.623762376237618,9.368191721132883,1317868.0,9208.0,0.0,1.0,0.0,?,0.0,26.0
2300000.0,5.15625,8.59927968122065E-8,2300000.0,59.599999999999994,17.87549599947959,14.225053078556252,11.790393013100424,1377868.0,9208.0,0.0,1.0,0.0,?,0.0,0.0
2400000.0,5.390625,8.884012155855695E-8,2400000.0,56.89999999999999,11.982617077414444,11.680327868852448,2.4886877828054073,1437868.0,9208.0,0.0,1.0,0.0,?,0.0,19.0
2500000.0,5.625,9.078716781611243E-8,2500000.0,60.4,19.117647058823533,20.958083832335326,11.607142857142843,1497868.0,9208.0,0.0,1.0,0.0,?,0.0,10.0
2600000.0,5.859375,9.642069926485419E-8,2600000.0,58.599999999999994,16.5053242981607,19.455252918287933,12.658227848101255,1557568.0,9208.0,0.0,1.0,0.0,?,0.0,0.0
2700000.0,6.109375,1.0144673675919571E-7,2700000.0,57.49999999999999,13.901381629593596,15.841584158415834,9.766454352441599,1617568.0,9208.0,0.0,1.0,0.0,?,0.0,0.0
2800000.0,6.34375,1.0523702561234433E-7,2800000.0,58.9,17.052142113293456,16.29327902240325,13.836477987421372,1677568.0,9208.0,0.0,1.0,0.0,?,0.0,0.0
2900000.0,6.578125,1.0810569316769638E-7,2900000.0,55.400000000000006,10.074843538292797,7.851239669421495,5.508474576271192,1737568.0,9208.0,0.0,1.0,0.0,?,0.0,0.0
3000000.0,6.8125,1.1005273942525186E-7,3000000.0,57.199999999999996,12.75099378248904,11.934156378600811,5.934065934065916,1797568.0,9208.0,0.0,1.0,0.0,?,0.0,0.0
3100000.0,7.046875,1.1569548708697158E-7,3100000.0,57.599999999999994,13.49057373704398,13.46938775510203,8.225108225108208,1857268.0,9208.0,0.0,1.0,0.0,?,0.0,0.0
3200000.0,7.28125,1.2041661345089473E-7,3200000.0,55.900000000000006,10.504825839549973,15.355086372360857,6.765327695560259,1917268.0,9208.0,0.0,1.0,0.0,?,0.0,0.0
3300000.0,7.515625,1.2421611851702132E-7,3300000.0,58.199999999999996,16.322347138144185,17.063492063492056,15.895372233400396,1977268.0,9208.0,0.0,1.0,0.0,?,0.0,0.0
3400000.0,7.75,1.2709400228535134E-7,3400000.0,58.599999999999994,15.51192832799329,15.510204081632645,9.010989010988995,2037268.0,9208.0,0.0,1.0,0.0,?,0.0,0.0
3500000.0,7.984375,1.2905026475588478E-7,3500000.0,59.599999999999994,17.854455989101474,18.87550200803212,12.742980561555065,2097268.0,9208.0,0.0,1.0,0.0,?,0.0,0.0
3600000.0,8.21875,1.346930124176045E-7,3600000.0,57.199999999999996,12.75099378248904,17.054263565891468,5.934065934065916,2156968.0,9208.0,0.0,1.0,0.0,?,0.0,0.0
3700000.0,8.453125,1.3941413878152763E-7,3700000.0,56.89999999999999,12.134778318695908,16.310679611650478,5.066079295154165,2216968.0,9208.0,0.0,1.0,0.0,?,0.0,0.0
3800000.0,8.703125,1.4346694418539598E-7,3800000.0,56.49999999999999,11.385803802058282,7.838983050847441,4.185022026431698,2276968.0,9208.0,0.0,1.0,0.0,?,0.0,0.0
3900000.0,8.921875,1.4615296903583732E-7,3900000.0,57.99999999999999,14.053835040660703,15.151515151515143,6.4587973273941905,2336968.0,9208.0,0.0,1.0,0.0,?,0.0,0.0
4000000.0,9.15625,1.4810923150637076E-7,4000000.0,58.099999999999994,14.35206004758672,16.865079365079357,5.203619909502242,2396968.0,9208.0,0.0,1.0,0.0,?,0.0,0.0
4100000.0,9.390625,1.5376119538106844E-7,4100000.0,57.3,14.217064978062059,17.408123791102508,12.49999999999999,2456668.0,9208.0,0.0,1.0,0.0,?,0.0,0.0
4200000.0,9.640625,1.5880689412976297E-7,4200000.0,58.4,15.515840779853763,15.618661257606483,9.956709956709943,2516668.0,9208.0,0.0,1.0,0.0,?,0.0,0.0
4300000.0,9.859375,1.623617006569272E-7,4300000.0,60.699999999999996,20.00162846557831,21.868787276341944,14.935064935064926,2576668.0,9208.0,0.0,1.0,0.0,?,0.0,0.0
4400000.0,10.09375,1.6524880063823519E-7,4400000.0,59.8,17.91998627916187,17.622950819672127,12.035010940919024,2636668.0,9208.0,0.0,1.0,0.0,?,0.0,0.0
4500000.0,10.328125,1.6721427932174661E-7,4500000.0,58.3,14.162206669411272,17.261904761904756,2.7972027972027993,2696668.0,9208.0,0.0,1.0,0.0,?,0.0,0.0
4600000.0,10.5625,1.728662431964443E-7,4600000.0,56.599999999999994,12.426551301091232,15.891472868217047,8.82352941176469,2756368.0,9208.0,0.0,1.0,0.0,?,0.0,0.0
4700000.0,10.796875,1.7759658577334542E-7,4700000.0,60.699999999999996,20.157004242040074,19.46721311475409,16.56050955414012,2816368.0,9208.0,0.0,1.0,0.0,?,0.0,0.0
4800000.0,11.03125,1.8140530705244998E-7,4800000.0,56.49999999999999,12.322427721431213,12.474849094567393,8.805031446540866,2876368.0,9208.0,0.0,1.0,0.0,?,0.0,0.0
4900000.0,11.265625,1.8429240703375796E-7,4900000.0,55.7,10.216291588300152,11.57684630738524,5.341880341880347,2936368.0,9208.0,0.0,1.0,0.0,?,0.0,0.0
5000000.0,11.515625,1.8653844664287228E-7,5000000.0,58.599999999999994,15.302782324058914,18.50393700787401,7.999999999999983,2996368.0,9208.0,0.0,1.0,0.0,?,0.0,0.0
5100000.0,11.734375,1.9192996357257158E-7,5100000.0,46.800000000000004,-6.321747194065155,-9.917355371900824,-7.4747474747474705,1597111.0,9208.0,0.0,1.0,0.0,?,1.0,2.0
5200000.0,11.953125,1.9646130062432745E-7,5200000.0,46.0,-6.550907655880033,-15.13859275053305,-12.5,1657111.0,9208.0,0.0,1.0,0.0,?,0.0,0.0
5300000.0,12.171875,2.0013245779813985E-7,5300000.0,46.800000000000004,-6.165162660195631,-5.13833992094861,-8.571428571428568,1717111.0,9208.0,0.0,1.0,0.0,?,0.0,0.0
5400000.0,12.390625,2.0294343509400878E-7,5400000.0,48.1,-3.2277056001527575,-3.8000000000000034,-8.35073068893529,1777111.0,9208.0,0.0,1.0,0.0,?,0.0,0.0
5500000.0,12.59375,2.047548898392253E-7,5500000.0,49.8,0.9080142123963775,-1.6194331983805683,-6.8085106382978795,1837111.0,9208.0,0.0,1.0,0.0,?,0.0,0.0
5600000.0,12.8125,2.101464067689246E-7,5600000.0,47.9,-3.7435284747112783,-1.5594541910331396,-6.5439672801636055,1896811.0,9208.0,0.0,1.0,0.0,?,0.0,0.0
5700000.0,13.03125,2.1467774382068046E-7,5700000.0,47.3,-4.452407756830046,-5.823293172690768,-10.020876826722347,1956811.0,9208.0,0.0,1.0,0.0,?,0.0,0.0
5800000.0,13.234375,2.1808667548207768E-7,5800000.0,46.400000000000006,-7.614531174082558,-2.485659655831731,-7.199999999999996,2016811.0,9208.0,0.0,1.0,0.0,?,0.0,0.0
5900000.0,13.453125,2.2089765277794662E-7,5900000.0,48.0,-2.5216379803237476,-4.62776659959759,-9.936575052854133,2076811.0,9208.0,0.0,1.0,0.0,?,0.0,0.0
6000000.0,13.640625,2.2256976485045414E-7,6000000.0,45.1,-7.820417141285994,-11.133603238866394,-20.659340659340668,2136811.0,9208.0,0.0,1.0,0.0,?,0.0,0.0
6100000.0,13.859375,2.279698835789329E-7,6100000.0,47.0,-5.351037608332671,-13.978494623655926,-10.878661087866119,2196511.0,9208.0,0.0,1.0,0.0,?,0.0,0.0
6200000.0,14.0625,2.3218554108300138E-7,6200000.0,43.5,-11.499660567405009,-13.0,-19.957537154989392,2256511.0,9208.0,0.0,1.0,0.0,?,0.0,0.0
6300000.0,14.25,2.353396202023658E-7,6300000.0,46.9,-5.338750376918325,-1.7241379310344842,-12.50000000000001,2316511.0,9208.0,0.0,1.0,0.0,?,0.0,0.0
6400000.0,14.453125,2.3795780079025356E-7,6400000.0,48.8,-2.802574883242784,-2.400000000000002,-0.7874015748031503,2376511.0,9208.0,0.0,1.0,0.0,?,0.0,0.0
6500000.0,14.671875,2.3991720000695843E-7,6500000.0,47.599999999999994,-3.5037194180088633,-0.191204588910134,-11.727078891258007,2436511.0,9208.0,0.0,1.0,0.0,?,0.0,0.0
6600000.0,14.875,2.4493159596911726E-7,6600000.0,47.199999999999996,-4.811399033670658,-4.970178926441356,-10.000000000000009,2496211.0,9208.0,0.0,1.0,0.0,?,0.0,0.0
6700000.0,15.09375,2.4947153481965253E-7,6700000.0,48.1,-3.336227013164914,-7.231404958677692,-4.6370967741935525,2556211.0,9208.0,0.0,1.0,0.0,?,0.0,0.0
6800000.0,15.296875,2.5288845386563065E-7,6800000.0,48.9,-3.353424214230824,0.0,-3.441295546558708,2616211.0,9208.0,0.0,1.0,0.0,?,0.0,0.0
6900000.0,15.5,2.555066344535184E-7,6900000.0,46.5,-8.570361711799466,-3.6821705426356517,-14.316239316239319,2676211.0,9208.0,0.0,1.0,0.0,?,0.0,0.0
7000000.0,15.71875,2.574660336702233E-7,7000000.0,48.8,-2.0798775041469946,-3.434343434343438,-2.6052104208416855,2736211.0,9208.0,0.0,1.0,0.0,?,0.0,0.0
7100000.0,15.921875,2.6248841701696304E-7,7100000.0,47.5,-5.60320550987239,-10.062893081761015,-8.695652173913052,2795911.0,9208.0,0.0,1.0,0.0,?,0.0,0.0
7200000.0,16.125,2.667120619056124E-7,7200000.0,47.8,-5.233448915410044,-3.3663366336633693,-9.2050209205021,2855911.0,9208.0,0.0,1.0,0.0,?,0.0,0.0
7300000.0,16.34375,2.7040042267698365E-7,7300000.0,47.8,-5.630382697662386,-2.152641878669278,-10.126582278481022,2915911.0,9208.0,0.0,1.0,0.0,?,0.0,0.0
7400000.0,16.546875,2.730265906494523E-7,7400000.0,48.3,-4.629607143146256,-4.024144869215295,-8.385744234800846,2975911.0,9208.0,0.0,1.0,0.0,?,0.0,0.0
7500000.0,16.75,2.7485402016383065E-7,7500000.0,48.5,-4.4921478716065515,-7.51565762004176,-10.515021459227478,3035911.0,9208.0,0.0,1.0,0.0,?,0.0,0.0
7600000.0,16.96875,2.802627406910888E-7,7600000.0,49.6,-2.7393071619897307,1.9455252918287955,-9.32754880694144,3095611.0,9208.0,0.0,1.0,0.0,?,0.0,0.0
7700000.0,17.171875,2.844863855797382E-7,7700000.0,49.2,-2.447445267250705,-6.054279749478085,-6.276150627615068,3155611.0,9208.0,0.0,1.0,0.0,?,0.0,0.0
7800000.0,17.390625,2.8817474635110943E-7,7800000.0,45.2,-9.740907325005312,-7.240704500978469,-9.599999999999998,3215611.0,9208.0,0.0,1.0,0.0,?,0.0,0.0
7900000.0,17.609375,2.910029272445372E-7,7900000.0,48.699999999999996,-3.9699075012363,-5.555555555555561,-8.456659619450326,3275611.0,9208.0,0.0,1.0,0.0,?,0.0,0.0
8000000.0,17.8125,2.9283035675891556E-7,8000000.0,53.300000000000004,7.058018086867925,7.707509881422932,3.5123966942148797,3335611.0,9208.0,0.0,1.0,0.0,?,0.0,0.0
8100000.0,18.03125,2.982476790849532E-7,8100000.0,55.300000000000004,10.952627594724895,10.420841683366742,8.588957055214731,3395311.0,9208.0,0.0,1.0,0.0,?,0.0,0.0
8200000.0,18.25,3.028048215330473E-7,8200000.0,54.0,9.35496202761127,5.930470347648267,5.54414784394251,3455311.0,9208.0,0.0,1.0,0.0,?,0.0,0.0
8300000.0,18.46875,3.06501784103198E-7,8300000.0,55.50000000000001,11.520260866107309,13.08593750000001,8.436213991769554,3515311.0,9208.0,0.0,1.0,0.0,?,0.0,0.0
8400000.0,18.65625,3.0893331212508993E-7,8400000.0,55.60000000000001,11.298990326795305,12.770137524557967,10.843373493975914,3575311.0,9208.0,0.0,1.0,0.0,?,0.0,0.0
8500000.0,18.875,3.109099149393537E-7,8500000.0,54.50000000000001,9.298950658629163,8.63453815261045,6.9529652351738305,3635311.0,9208.0,0.0,1.0,0.0,?,0.0,0.0
8600000.0,19.078125,3.159402856706743E-7,8600000.0,56.2,13.473961193664257,3.73626373626374,5.603448275862075,3695011.0,9208.0,0.0,1.0,0.0,?,0.0,0.0
8700000.0,19.296875,3.2049742811876845E-7,8700000.0,55.60000000000001,11.750675783113385,10.483870967741945,9.01639344262296,3755011.0,9208.0,0.0,1.0,0.0,?,0.0,0.0
8800000.0,19.515625,3.2419439068891914E-7,8800000.0,56.10000000000001,12.5393473323505,12.20000000000001,10.408163265306133,3815011.0,9208.0,0.0,1.0,0.0,?,0.0,0.0
8900000.0,19.71875,3.2682854604596873E-7,8900000.0,56.3,13.27231302939611,13.636363636363628,7.218683651804654,3875011.0,9208.0,0.0,1.0,0.0,?,0.0,0.0
9000000.0,19.9375,3.288051488602325E-7,9000000.0,56.89999999999999,15.179520282131397,14.82213438735177,4.856512141280334,3935011.0,9208.0,0.0,1.0,0.0,?,0.0,0.0
9100000.0,20.15625,3.342310729850495E-7,9100000.0,55.400000000000006,11.521980637993973,9.533468559837736,7.08333333333334,3994711.0,9208.0,0.0,1.0,0.0,?,0.0,0.0
9200000.0,20.34375,3.3814456805379833E-7,9200000.0,56.2,13.078681653648328,13.267326732673279,11.871227364185122,4054711.0,9208.0,0.0,1.0,0.0,?,0.0,0.0
9300000.0,20.5625,3.418501324227285E-7,9300000.0,56.39999999999999,14.89162346180272,12.79999999999999,3.539823008849537,4114711.0,9208.0,0.0,1.0,0.0,?,0.0,0.0
9400000.0,20.78125,3.4469551691371514E-7,9400000.0,54.7,8.322607280763544,7.361963190184055,4.430379746835447,4174711.0,9208.0,0.0,1.0,0.0,?,0.0,0.0
9500000.0,20.984375,3.4653892119725527E-7,9500000.0,59.199999999999996,17.755200774068687,18.399999999999995,14.999999999999991,4234711.0,9208.0,0.0,1.0,0.0,?,0.0,0.0
9600000.0,21.21875,3.523524113309878E-7,9600000.0,56.39999999999999,13.438134075594698,13.492063492063483,15.830115830115824,4294411.0,9208.0,0.0,1.0,0.0,?,0.0,0.0
9700000.0,21.453125,3.5724428016692383E-7,9700000.0,55.800000000000004,11.266361519312627,14.506769825918775,9.795918367346948,4354411.0,9208.0,0.0,1.0,0.0,?,0.0,0.0
9800000.0,21.671875,3.60949844535854E-7,9800000.0,56.599999999999994,12.261194784190838,9.394572025052177,6.263498920086374,4414411.0,9208.0,0.0,1.0,0.0,?,0.0,0.0
9900000.0,21.890625,3.6379522902684064E-7,9900000.0,55.400000000000006,10.857051487048297,10.978043912175659,11.155378486055787,4474411.0,9208.0,0.0,1.0,0.0,?,0.0,0.0
1.0E7,22.09375,3.6563863331038077E-7,1.0E7,55.300000000000004,10.264028522789335,7.835051546391759,8.9613034623218,4534411.0,9208.0,0.0,1.0,0.0,?,0.0,0.0
