learning evaluation instances,evaluation time (cpu seconds),model cost (RAM-Hours),classified instances,classifications correct (percent),Kappa Statistic (percent),Kappa Temporal Statistic (percent),Kappa M Statistic (percent),model training instances,model serialized size (bytes),labeling cost,newThreshold,maxPosterior,accuracyBaseLearner (percent),Change detected,Warning detected,tree size (nodes),tree size (leaves),active learning leaves,tree depth,active leaf byte size estimate,inactive leaf byte size estimate,byte size estimate overhead
100000.0,0.328125,1.3096238641689222E-8,100000.0,89.5,72.87354421353946,74.26470588235294,62.76595744680852,29147.0,22384.0,0.0,1.0,0.0,?,1.0,37.0,23.0,12.0,12.0,5.0,0.0,0.0,1.0
200000.0,0.609375,2.5524156323323647E-8,200000.0,91.7,79.41080163919789,80.37825059101657,71.67235494880548,59147.0,48168.0,0.0,1.0,0.0,?,0.0,0.0,53.0,27.0,27.0,7.0,0.0,0.0,1.0
300000.0,0.890625,3.8356617248306674E-8,300000.0,88.8,71.95133556720911,73.95348837209302,62.79069767441862,89147.0,63128.0,0.0,1.0,0.0,?,0.0,0.0,71.0,36.0,36.0,7.0,0.0,0.0,1.0
400000.0,1.171875,5.2376514455924434E-8,400000.0,86.6,66.27522437042892,68.17102137767222,53.31010452961673,119147.0,88720.0,0.0,1.0,0.0,?,0.0,0.0,97.0,49.0,49.0,9.0,0.0,0.0,1.0
500000.0,1.453125,6.734868899608652E-8,500000.0,88.1,69.9889034601029,71.80094786729858,60.465116279069775,149147.0,111112.0,0.0,1.0,0.0,?,0.0,0.0,123.0,62.0,62.0,10.0,0.0,0.0,1.0
600000.0,1.734375,8.336219858999053E-8,600000.0,87.7,68.71820956256359,71.52777777777779,59.00000000000001,179147.0,134720.0,0.0,1.0,0.0,?,0.0,0.0,147.0,74.0,74.0,11.0,0.0,0.0,1.0
700000.0,2.03125,1.008330663252208E-7,700000.0,88.7,71.15846001490573,70.95115681233933,60.62717770034845,209147.0,151496.0,0.0,1.0,0.0,?,0.0,0.0,165.0,83.0,83.0,11.0,0.0,0.0,1.0
800000.0,2.328125,1.191616562816004E-7,800000.0,88.3,69.80925643037034,69.61038961038962,59.23344947735192,239147.0,172000.0,0.0,1.0,0.0,?,0.0,0.0,187.0,94.0,94.0,12.0,0.0,0.0,1.0
900000.0,2.609375,1.3723164253557723E-7,900000.0,88.4,70.18102176271292,71.98067632850243,59.86159169550174,269147.0,191048.0,0.0,1.0,0.0,?,0.0,0.0,211.0,106.0,106.0,13.0,0.0,0.0,1.0
1000000.0,2.890625,1.5641397718961043E-7,1000000.0,89.0,70.69401891567871,71.50259067357513,60.00000000000001,299147.0,215616.0,0.0,1.0,0.0,?,0.0,0.0,239.0,120.0,120.0,13.0,0.0,0.0,1.0
1100000.0,3.1875,1.8388505042013197E-7,1100000.0,88.1,71.33138033380874,74.13043478260869,62.46056782334385,328847.0,223072.0,0.0,1.0,0.0,?,0.0,0.0,247.0,124.0,124.0,13.0,0.0,0.0,1.0
1200000.0,3.484375,2.126384060829878E-7,1200000.0,90.4,75.2730269936122,76.58536585365854,65.71428571428572,358847.0,249024.0,0.0,1.0,0.0,?,0.0,0.0,277.0,139.0,139.0,13.0,0.0,0.0,1.0
1300000.0,3.796875,2.4376268912520674E-7,1300000.0,88.9,72.06338340111948,73.50835322195705,62.11604095563141,388847.0,268976.0,0.0,1.0,0.0,?,0.0,0.0,297.0,149.0,149.0,13.0,0.0,0.0,1.0
1400000.0,4.09375,2.7391690916071335E-7,1400000.0,87.9,70.6655288447552,70.48780487804879,61.34185303514377,418847.0,285992.0,0.0,1.0,0.0,?,0.0,0.0,315.0,158.0,158.0,14.0,0.0,0.0,1.0
1500000.0,4.40625,3.065539446348945E-7,1500000.0,88.8,71.2966237653704,71.85929648241206,60.42402826855125,448847.0,306400.0,0.0,1.0,0.0,?,0.0,0.0,339.0,170.0,170.0,14.0,0.0,0.0,1.0
1600000.0,4.71875,3.411073056567046E-7,1600000.0,87.9,69.81459676292734,71.1217183770883,59.121621621621635,478847.0,339280.0,0.0,1.0,0.0,?,0.0,0.0,373.0,187.0,187.0,14.0,0.0,0.0,1.0
1700000.0,5.015625,3.74195353490197E-7,1700000.0,87.2,68.36006248887658,69.08212560386474,58.16993464052288,508847.0,352136.0,0.0,1.0,0.0,?,0.0,0.0,385.0,193.0,193.0,14.0,0.0,0.0,1.0
1800000.0,5.34375,4.1200433366207613E-7,1800000.0,86.6,66.41536672414485,66.66666666666666,53.14685314685315,538847.0,376008.0,0.0,1.0,0.0,?,0.0,0.0,411.0,206.0,206.0,15.0,0.0,0.0,1.0
1900000.0,5.671875,4.5156264806994134E-7,1900000.0,88.0,70.64191453861322,71.96261682242991,59.86622073578596,568847.0,405832.0,0.0,1.0,0.0,?,0.0,0.0,443.0,222.0,222.0,15.0,0.0,0.0,1.0
2000000.0,5.984375,4.900055743443469E-7,2000000.0,86.8,64.74810921676706,64.32432432432432,50.0,598847.0,424688.0,0.0,1.0,0.0,?,0.0,0.0,465.0,233.0,233.0,15.0,0.0,0.0,1.0
2100000.0,6.296875,5.368355778045952E-7,2100000.0,88.8,72.65985441372476,73.52245862884162,62.79069767441862,628547.0,441704.0,0.0,1.0,0.0,?,0.0,0.0,487.0,244.0,244.0,15.0,0.0,0.0,1.0
2200000.0,6.625,5.872756203946968E-7,2200000.0,88.8,70.53562033042198,72.20843672456576,59.71223021582735,658547.0,465936.0,0.0,1.0,0.0,?,0.0,0.0,513.0,257.0,257.0,15.0,0.0,0.0,1.0
2300000.0,6.953125,6.378188845701515E-7,2300000.0,86.8,67.71037181996087,68.4964200477327,57.41935483870968,688547.0,476616.0,0.0,1.0,0.0,?,0.0,0.0,523.0,262.0,262.0,15.0,0.0,0.0,1.0
2400000.0,7.296875,6.919783966926236E-7,2400000.0,87.1,67.104592096942,65.13513513513513,53.76344086021506,718547.0,499512.0,0.0,1.0,0.0,?,0.0,0.0,551.0,276.0,276.0,15.0,0.0,0.0,1.0
2500000.0,7.625,7.449317490682005E-7,2500000.0,88.0,69.49747083195649,71.49643705463184,58.76288659793815,748547.0,523600.0,0.0,1.0,0.0,?,0.0,0.0,575.0,288.0,288.0,15.0,0.0,0.0,1.0
2600000.0,7.96875,8.012376363492674E-7,2600000.0,87.7,70.81573577563707,70.92198581560284,62.72727272727272,778547.0,542288.0,0.0,1.0,0.0,?,0.0,0.0,599.0,300.0,300.0,15.0,0.0,0.0,1.0
2700000.0,8.3125,8.578835857204264E-7,2700000.0,89.1,73.25809617271835,75.3393665158371,63.66666666666667,808547.0,555552.0,0.0,1.0,0.0,?,0.0,0.0,611.0,306.0,306.0,15.0,0.0,0.0,1.0
2800000.0,8.640625,9.134813121313022E-7,2800000.0,88.9,70.11887840806305,71.96969696969697,58.58208955223881,838547.0,582768.0,0.0,1.0,0.0,?,0.0,0.0,643.0,322.0,322.0,16.0,0.0,0.0,1.0
2900000.0,8.96875,9.698640658623642E-7,2900000.0,88.1,70.21276595744682,70.76167076167077,60.200668896321076,868547.0,601384.0,0.0,1.0,0.0,?,0.0,0.0,661.0,331.0,331.0,16.0,0.0,0.0,1.0
3000000.0,9.3125,1.029767639314135E-6,3000000.0,87.9,70.20731767370859,72.05542725173211,60.96774193548388,898547.0,620144.0,0.0,1.0,0.0,?,0.0,0.0,681.0,341.0,341.0,16.0,0.0,0.0,1.0
3100000.0,9.65625,1.0996198074685204E-6,3100000.0,86.7,67.96693609765026,67.40196078431373,56.957928802588995,928247.0,645208.0,0.0,1.0,0.0,?,0.0,0.0,703.0,352.0,352.0,16.0,0.0,0.0,1.0
3200000.0,10.015625,1.1727935957929327E-6,3200000.0,86.4,67.18463468777145,68.22429906542055,56.68789808917196,958247.0,656248.0,0.0,1.0,0.0,?,0.0,0.0,713.0,357.0,357.0,16.0,0.0,0.0,1.0
3300000.0,10.359375,1.243904278251446E-6,3300000.0,87.3,67.92443299489823,68.1704260651629,55.438596491228076,988247.0,678136.0,0.0,1.0,0.0,?,0.0,0.0,737.0,369.0,369.0,16.0,0.0,0.0,1.0
3400000.0,10.734375,1.3220600926110314E-6,3400000.0,89.3,71.79757511860834,74.27884615384616,61.09090909090909,1018247.0,693528.0,0.0,1.0,0.0,?,0.0,0.0,753.0,377.0,377.0,16.0,1710.0748663101604,0.0,1.0748755409901685
3500000.0,11.09375,1.3982238144510323E-6,3500000.0,87.3,66.90777953806388,66.75392670157068,53.47985347985348,1048247.0,716424.0,0.0,1.0,0.0,?,0.0,0.0,781.0,391.0,391.0,16.0,1710.0748663101604,0.0,1.0748755409901685
3600000.0,11.453125,1.47494164088534E-6,3600000.0,85.39999999999999,64.35546874999999,66.74259681093393,51.33333333333333,1078247.0,731768.0,0.0,1.0,0.0,?,0.0,0.0,803.0,402.0,402.0,16.0,1710.0748663101604,0.0,1.0748755409901685
3700000.0,11.828125,1.5571510367509393E-6,3700000.0,87.8,68.78198567041966,69.5,57.931034482758626,1108247.0,763192.0,0.0,1.0,0.0,?,0.0,0.0,835.0,418.0,418.0,16.0,1710.0748663101604,0.0,1.0748755409901685
3800000.0,12.171875,1.6340456204488875E-6,3800000.0,86.8,68.28386898354606,69.23076923076923,56.86274509803923,1138247.0,789736.0,0.0,1.0,0.0,?,0.0,0.0,857.0,429.0,429.0,17.0,1710.0748663101604,0.0,1.0748755409901685
3900000.0,12.546875,1.7187470803037287E-6,3900000.0,89.4,74.47800292780646,74.20924574209246,65.13157894736842,1168247.0,807520.0,0.0,1.0,0.0,?,0.0,0.0,879.0,440.0,440.0,17.0,1710.0748663101604,0.0,1.0748755409901685
4000000.0,12.921875,1.8045552618180713E-6,4000000.0,87.0,68.25427834648747,70.78651685393258,56.3758389261745,1198247.0,828264.0,0.0,1.0,0.0,?,0.0,0.0,901.0,451.0,451.0,17.0,1710.0748663101604,0.0,1.0748755409901685
4100000.0,13.28125,1.8961974678354131E-6,4100000.0,85.7,64.8233789235462,65.5421686746988,51.52542372881356,1227947.0,842792.0,0.0,1.0,0.0,?,0.0,0.0,915.0,458.0,458.0,17.0,1710.0748663101604,0.0,1.0748755409901685
4200000.0,13.671875,1.997650187048647E-6,4200000.0,85.7,64.81957114319172,64.33915211970074,51.36054421768708,1257947.0,870248.0,0.0,1.0,0.0,?,0.0,0.0,947.0,474.0,474.0,17.0,1710.0748663101604,0.0,1.0748755409901685
4300000.0,14.046875,2.0966365829937987E-6,4300000.0,86.0,65.80879300154837,66.5871121718377,52.861952861952865,1287947.0,895936.0,0.0,1.0,0.0,?,0.0,0.0,971.0,486.0,486.0,17.0,1710.0748663101604,0.0,1.0748755409901685
4400000.0,14.421875,2.1961452956828806E-6,4400000.0,87.6,70.13890226751691,69.90291262135922,58.94039735099338,1317947.0,910728.0,0.0,1.0,0.0,?,0.0,0.0,987.0,494.0,494.0,17.0,1710.0748663101604,0.0,1.0748755409901685
4500000.0,14.8125,2.3002537394252917E-6,4500000.0,87.3,68.8190522956052,68.09045226130654,56.80272108843538,1347947.0,924640.0,0.0,1.0,0.0,?,0.0,0.0,1003.0,502.0,502.0,17.0,1710.0748663101604,0.0,1.0748755409901685
4600000.0,15.203125,2.406035653418965E-6,4600000.0,85.8,65.55003493517584,66.8997668997669,53.289473684210535,1377947.0,950472.0,0.0,1.0,0.0,?,0.0,0.0,1029.0,515.0,515.0,17.0,1710.0748663101604,0.0,1.0748755409901685
4700000.0,15.578125,2.508614626195696E-6,4700000.0,88.9,72.40453460620526,74.18604651162791,61.98630136986303,1407947.0,970400.0,0.0,1.0,0.0,?,0.0,0.0,1053.0,527.0,527.0,17.0,1710.0748663101604,0.0,1.0748755409901685
4800000.0,15.984375,2.6218076365896397E-6,4800000.0,89.3,73.31990185713431,73.38308457711443,62.190812720848065,1437947.0,999272.0,0.0,1.0,0.0,?,0.0,0.0,1089.0,545.0,545.0,17.0,1710.0748663101604,0.0,1.0748755409901685
4900000.0,16.375,2.732674636515892E-6,4900000.0,87.5,69.361243198196,71.3302752293578,56.2937062937063,1467947.0,1028568.0,0.0,1.0,0.0,?,0.0,0.0,1117.0,559.0,559.0,17.0,1710.0748663101604,0.0,1.0748755409901685
5000000.0,16.78125,2.849666278861049E-6,5000000.0,87.8,69.4344368670799,69.72704714640199,57.78546712802769,1497947.0,1053280.0,0.0,1.0,0.0,?,0.0,0.0,1143.0,572.0,572.0,17.0,1710.0748663101604,0.0,1.0748755409901685
5100000.0,17.15625,2.8645821859956615E-6,5100000.0,87.8,75.50879475165516,75.50200803212851,72.9490022172949,26965.0,20616.0,0.0,1.0,0.0,?,2.0,43.0,23.0,12.0,12.0,5.0,0.0,0.0,1.0
5200000.0,17.4375,2.8767877504126066E-6,5200000.0,88.4,76.80788531899154,77.07509881422925,76.22950819672131,56965.0,43912.0,0.0,1.0,0.0,?,0.0,0.0,47.0,24.0,24.0,6.0,0.0,0.0,1.0
5300000.0,17.71875,2.8901638708905216E-6,5300000.0,87.0,73.91475341415746,73.63083164300203,71.55361050328227,86965.0,69264.0,0.0,1.0,0.0,?,0.0,0.0,75.0,38.0,38.0,8.0,0.0,0.0,1.0
5400000.0,18.0,2.9043339438632963E-6,5400000.0,85.6,71.13916135213029,72.41379310344827,69.2963752665245,116965.0,89504.0,0.0,1.0,0.0,?,0.0,0.0,99.0,50.0,50.0,9.0,0.0,0.0,1.0
5500000.0,18.28125,2.919033124473774E-6,5500000.0,86.2,72.28926791458669,71.77914110429448,70.19438444924405,146965.0,106160.0,0.0,1.0,0.0,?,0.0,0.0,117.0,59.0,59.0,10.0,0.0,0.0,1.0
5600000.0,18.578125,2.9355387475031123E-6,5600000.0,85.39999999999999,70.74757966275565,70.68273092369478,69.06779661016948,176965.0,128360.0,0.0,1.0,0.0,?,0.0,0.0,141.0,71.0,71.0,10.0,0.0,0.0,1.0
5700000.0,18.875,2.953012072895137E-6,5700000.0,87.9,75.46793395400137,74.36440677966102,71.72897196261682,206965.0,150272.0,0.0,1.0,0.0,?,0.0,0.0,165.0,83.0,83.0,11.0,0.0,0.0,1.0
5800000.0,19.171875,2.9708141098833756E-6,5800000.0,87.4,74.65359918891518,73.75,72.72727272727273,236965.0,163968.0,0.0,1.0,0.0,?,0.0,0.0,183.0,92.0,92.0,11.0,0.0,0.0,1.0
5900000.0,19.453125,2.9890005114591795E-6,5900000.0,84.5,68.94957410835195,69.36758893280633,64.93212669683257,266965.0,191376.0,0.0,1.0,0.0,?,0.0,0.0,211.0,106.0,106.0,12.0,0.0,0.0,1.0
6000000.0,19.765625,3.0105735640972862E-6,6000000.0,86.1,72.09754217486612,72.1442885771543,68.83408071748879,296965.0,217520.0,0.0,1.0,0.0,?,0.0,0.0,243.0,122.0,122.0,12.0,0.0,0.0,1.0
6100000.0,20.078125,3.040624239171546E-6,6100000.0,84.2,68.42462878954414,70.41198501872657,65.72668112798263,326665.0,235656.0,0.0,1.0,0.0,?,0.0,0.0,261.0,131.0,131.0,12.0,0.0,0.0,1.0
6200000.0,20.390625,3.0716165848490277E-6,6200000.0,86.8,73.61530312418797,72.21052631578947,71.97452229299363,356665.0,256640.0,0.0,1.0,0.0,?,0.0,0.0,283.0,142.0,142.0,13.0,0.0,0.0,1.0
6300000.0,20.71875,3.105429803124734E-6,6300000.0,84.8,69.61847196904282,69.47791164658635,67.0995670995671,386665.0,280896.0,0.0,1.0,0.0,?,0.0,0.0,311.0,156.0,156.0,13.0,0.0,0.0,1.0
6400000.0,21.03125,3.138262157638869E-6,6400000.0,84.7,69.43545487234807,68.19126819126818,67.51592356687898,416665.0,298056.0,0.0,1.0,0.0,?,0.0,0.0,331.0,166.0,166.0,13.0,0.0,0.0,1.0
6500000.0,21.359375,3.1733765111615275E-6,6500000.0,83.8,67.59390765463907,67.40442655935614,64.23841059602648,446665.0,314976.0,0.0,1.0,0.0,?,0.0,0.0,351.0,176.0,176.0,14.0,0.0,0.0,1.0
6600000.0,21.6875,3.2090273452922718E-6,6600000.0,85.7,71.30634390651083,72.01565557729941,68.15144766146992,476665.0,330680.0,0.0,1.0,0.0,?,0.0,0.0,373.0,187.0,187.0,14.0,0.0,0.0,1.0
6700000.0,22.03125,3.2477894435740194E-6,6700000.0,85.39999999999999,70.817159510208,71.92307692307692,69.51983298538622,506665.0,355864.0,0.0,1.0,0.0,?,0.0,0.0,395.0,198.0,198.0,14.0,0.0,0.0,1.0
6800000.0,22.359375,3.285152941114374E-6,6800000.0,84.3,68.6814282864552,66.80761099365749,65.1111111111111,536665.0,369560.0,0.0,1.0,0.0,?,0.0,0.0,413.0,207.0,207.0,14.0,0.0,0.0,1.0
6900000.0,22.6875,3.3228362897514482E-6,6900000.0,85.2,70.41739457199166,69.42148760330578,67.18403547671839,566665.0,382752.0,0.0,1.0,0.0,?,0.0,0.0,429.0,215.0,215.0,14.0,0.0,0.0,1.0
7000000.0,23.03125,3.364293273383132E-6,7000000.0,82.69999999999999,65.11112007421448,62.30936819172111,57.49385749385748,596665.0,414200.0,0.0,1.0,0.0,?,0.0,0.0,463.0,232.0,232.0,15.0,0.0,0.0,1.0
7100000.0,23.359375,3.412660735193641E-6,7100000.0,86.1,72.2259964673066,73.57414448669202,70.67510548523205,626365.0,431096.0,0.0,1.0,0.0,?,0.0,0.0,481.0,241.0,241.0,15.0,0.0,0.0,1.0
7200000.0,23.703125,3.4646254951237813E-6,7200000.0,85.6,71.04072398190044,70.5521472392638,67.64044943820224,656365.0,454944.0,0.0,1.0,0.0,?,0.0,0.0,505.0,253.0,253.0,15.0,0.0,0.0,1.0
7300000.0,24.03125,3.514878788135119E-6,7300000.0,84.39999999999999,68.7961307202093,66.66666666666666,66.73773987206822,686365.0,471984.0,0.0,1.0,0.0,?,0.0,0.0,525.0,263.0,263.0,15.0,0.0,0.0,1.0
7400000.0,24.375,3.5681902793132607E-6,7400000.0,84.1,68.09893743379024,67.87878787878788,62.850467289719624,716365.0,488856.0,0.0,1.0,0.0,?,0.0,0.0,541.0,271.0,271.0,15.0,0.0,0.0,1.0
7500000.0,24.71875,3.622812218964101E-6,7500000.0,83.5,66.90946429430922,67.32673267326732,61.08490566037735,746365.0,512872.0,0.0,1.0,0.0,?,0.0,0.0,569.0,285.0,285.0,15.0,0.0,0.0,1.0
7600000.0,25.0625,3.6784941847953543E-6,7600000.0,84.6,69.17040358744394,69.68503937007874,69.56521739130434,776365.0,534120.0,0.0,1.0,0.0,?,0.0,0.0,593.0,297.0,297.0,16.0,0.0,0.0,1.0
7700000.0,25.421875,3.737711974988796E-6,7700000.0,86.6,73.23522244725939,74.85928705440901,70.41942604856511,806365.0,554264.0,0.0,1.0,0.0,?,0.0,0.0,615.0,308.0,308.0,16.0,0.0,0.0,1.0
7800000.0,25.75,3.7922476056135374E-6,7800000.0,83.6,66.81733753647057,66.25514403292179,59.7051597051597,836365.0,569176.0,0.0,1.0,0.0,?,0.0,0.0,631.0,316.0,316.0,16.0,0.0,0.0,1.0
7900000.0,26.109375,3.852656162861322E-6,7900000.0,83.7,67.46013367297235,66.18257261410787,65.09635974304068,866365.0,585856.0,0.0,1.0,0.0,?,0.0,0.0,651.0,326.0,326.0,16.0,0.0,0.0,1.0
8000000.0,26.453125,3.911136882379652E-6,8000000.0,85.6,71.26998631334071,72.41379310344827,69.42675159235668,896365.0,603088.0,0.0,1.0,0.0,?,0.0,0.0,671.0,336.0,336.0,16.0,0.0,0.0,1.0
8100000.0,26.828125,3.9849504052350935E-6,8100000.0,85.39999999999999,70.81435933520707,69.4560669456067,68.1917211328976,926065.0,619624.0,0.0,1.0,0.0,?,0.0,0.0,689.0,345.0,345.0,16.0,0.0,0.0,1.0
8200000.0,27.1875,4.057205644332702E-6,8200000.0,83.8,67.63728185130728,68.11023622047243,65.08620689655172,956065.0,645216.0,0.0,1.0,0.0,?,0.0,0.0,715.0,358.0,358.0,16.0,0.0,0.0,1.0
8300000.0,27.546875,4.130538598272124E-6,8300000.0,84.39999999999999,68.81758688099912,69.82591876208897,65.56291390728475,986065.0,666128.0,0.0,1.0,0.0,?,0.0,0.0,741.0,371.0,371.0,16.0,0.0,0.0,1.0
8400000.0,27.9375,4.211610551768296E-6,8400000.0,85.5,70.97561952039713,71.05788423153693,68.3406113537118,1016065.0,688904.0,0.0,1.0,0.0,?,0.0,0.0,769.0,385.0,385.0,16.0,1667.9045092838196,0.0,1.0767684478371502
8500000.0,28.3125,4.290561094724886E-6,8500000.0,83.7,67.3741603349853,65.53911205073994,62.44239631336406,1046065.0,709792.0,0.0,1.0,0.0,?,0.0,0.0,793.0,397.0,397.0,16.0,1667.9045092838196,0.0,1.0767684478371502
8600000.0,28.6875,4.370214010123166E-6,8600000.0,82.69999999999999,65.47181861727607,65.12096774193547,62.39130434782607,1076065.0,726424.0,0.0,1.0,0.0,?,0.0,0.0,809.0,405.0,405.0,16.0,1667.9045092838196,0.0,1.0767684478371502
8700000.0,29.0625,4.4509371703801085E-6,8700000.0,83.89999999999999,67.48131690567561,67.4089068825911,62.558139534883715,1106065.0,746784.0,0.0,1.0,0.0,?,0.0,0.0,833.0,417.0,417.0,16.0,1667.9045092838196,0.0,1.0767684478371502
8800000.0,29.453125,4.536487880007677E-6,8800000.0,84.5,69.03047401357065,69.0,66.2309368191721,1136065.0,770560.0,0.0,1.0,0.0,?,0.0,0.0,859.0,430.0,430.0,16.0,1667.9045092838196,0.0,1.0767684478371502
8900000.0,29.828125,4.618899838533255E-6,8900000.0,84.0,68.12240994580809,68.93203883495144,65.21739130434781,1166065.0,782920.0,0.0,1.0,0.0,?,0.0,0.0,875.0,438.0,438.0,16.0,1667.9045092838196,0.0,1.0767684478371502
9000000.0,30.1875,4.699020387811796E-6,9000000.0,83.6,67.31127242865286,68.33976833976834,64.57883369330453,1196065.0,804520.0,0.0,1.0,0.0,?,0.0,0.0,899.0,450.0,450.0,16.0,1667.9045092838196,0.0,1.0767684478371502
9100000.0,30.578125,4.797799596821685E-6,9100000.0,82.5,65.07209120375545,64.78873239436619,61.706783369803055,1225765.0,833360.0,0.0,1.0,0.0,?,0.0,0.0,925.0,463.0,463.0,16.0,1667.9045092838196,0.0,1.0767684478371502
9200000.0,30.96875,4.897473748618119E-6,9200000.0,83.8,67.58482970029974,67.53507014028055,64.85900216919738,1255765.0,851592.0,0.0,1.0,0.0,?,0.0,0.0,941.0,471.0,471.0,16.0,1667.9045092838196,0.0,1.0767684478371502
9300000.0,31.34375,4.99369799702739E-6,9300000.0,82.3,64.80861453304809,65.0197628458498,60.045146726862285,1285765.0,866528.0,0.0,1.0,0.0,?,0.0,0.0,959.0,480.0,480.0,16.0,1667.9045092838196,0.0,1.0767684478371502
9400000.0,31.734375,5.094362487499088E-6,9400000.0,84.0,68.12850586435492,67.74193548387096,63.963963963963955,1315765.0,880200.0,0.0,1.0,0.0,?,0.0,0.0,979.0,490.0,490.0,16.0,1667.9045092838196,0.0,1.0767684478371502
9500000.0,32.125,5.196373030129409E-6,9500000.0,84.89999999999999,69.83378615950136,69.55645161290323,67.5268817204301,1345765.0,902856.0,0.0,1.0,0.0,?,0.0,0.0,997.0,499.0,499.0,16.0,1667.9045092838196,0.0,1.0767684478371502
9600000.0,32.53125,5.303578865196973E-6,9600000.0,83.3,66.67837246795536,66.19433198380567,65.13569937369519,1375765.0,922808.0,0.0,1.0,0.0,?,0.0,0.0,1017.0,509.0,509.0,16.0,1667.9045092838196,0.0,1.0767684478371502
9700000.0,32.9375,5.412512497665984E-6,9700000.0,83.2,66.3817116511382,67.56756756756756,61.11111111111111,1405765.0,948520.0,0.0,1.0,0.0,?,0.0,0.0,1043.0,522.0,522.0,17.0,1667.9045092838196,0.0,1.0767684478371502
9800000.0,33.328125,5.518769774223784E-6,9800000.0,85.39999999999999,70.85316382917559,71.25984251968504,68.39826839826839,1435765.0,972776.0,0.0,1.0,0.0,?,0.0,0.0,1071.0,536.0,536.0,17.0,1667.9045092838196,0.0,1.0767684478371502
9900000.0,33.71875,5.626145931374698E-6,9900000.0,86.4,72.83422887162175,74.29111531190927,71.60751565762004,1465765.0,993208.0,0.0,1.0,0.0,?,0.0,0.0,1087.0,544.0,544.0,17.0,1667.9045092838196,0.0,1.0767684478371502
1.0E7,34.125,5.739054759033026E-6,1.0E7,85.5,71.07220377936669,70.28688524590163,67.92035398230087,1495765.0,1014304.0,0.0,1.0,0.0,?,0.0,0.0,1109.0,555.0,555.0,17.0,1667.9045092838196,0.0,1.0767684478371502
