learning evaluation instances,evaluation time (cpu seconds),model cost (RAM-Hours),classified instances,classifications correct (percent),Kappa Statistic (percent),Kappa Temporal Statistic (percent),Kappa M Statistic (percent),model training instances,model serialized size (bytes),labeling cost,newThreshold,maxPosterior,accuracyBaseLearner (percent),Change detected,Warning detected
100000.0,0.40625,1.6380023832122483E-8,100000.0,66.5,25.35384505686477,28.571428571428577,18.68932038834953,29700.0,2904.0,0.0,1.0,0.0,?,0.0,13.0
200000.0,0.828125,3.180534501249591E-8,200000.0,68.30000000000001,24.556142605550015,31.681034482758623,14.324324324324337,59700.0,2904.0,0.0,1.0,0.0,?,0.0,17.0
300000.0,1.25,4.5551666213820374E-8,300000.0,68.0,26.46011150485595,27.43764172335601,17.312661498708025,89700.0,2904.0,0.0,1.0,0.0,?,0.0,9.0
400000.0,1.65625,5.7191387491507656E-8,400000.0,65.60000000000001,19.96091114265107,29.07216494845361,9.711286089238854,119700.0,2904.0,0.0,1.0,0.0,?,0.0,0.0
500000.0,2.09375,6.800611218851473E-8,500000.0,65.0,17.46801295988002,26.77824267782427,8.136482939632552,149700.0,2904.0,0.0,1.0,0.0,?,0.0,0.0
600000.0,2.515625,7.677567838173773E-8,600000.0,67.5,23.0011087840335,32.851239669421496,12.398921832884108,179700.0,2904.0,0.0,1.0,0.0,?,0.0,0.0
700000.0,2.9375,8.388632623892692E-8,700000.0,69.3,26.132316991010747,34.2612419700214,15.426997245179047,209700.0,2904.0,0.0,1.0,0.0,?,0.0,0.0
800000.0,3.328125,8.893422394370039E-8,800000.0,66.60000000000001,24.082627195694087,27.861771058315338,14.795918367346953,239700.0,2904.0,0.0,1.0,0.0,?,0.0,0.0
900000.0,3.75,9.272703512882193E-8,900000.0,68.4,23.52371732817037,33.752620545073384,12.222222222222232,269700.0,2904.0,0.0,1.0,0.0,?,0.0,0.0
1000000.0,4.15625,9.478189490942492E-8,1000000.0,68.4,27.991978853340637,32.76595744680852,18.97435897435899,299700.0,2904.0,0.0,1.0,0.0,?,0.0,0.0
1100000.0,4.5625,1.1123002170481616E-7,1100000.0,65.2,17.994155905363368,24.838012958963283,7.936507936507943,329400.0,2904.0,0.0,1.0,0.0,?,0.0,0.0
1200000.0,4.96875,1.2608067158402668E-7,1200000.0,66.4,22.204934429873305,28.66242038216561,13.402061855670114,359400.0,2904.0,0.0,1.0,0.0,?,0.0,0.0
1300000.0,5.375,1.3933384454705648E-7,1300000.0,68.2,27.259085751930616,31.759656652360523,20.10050251256283,389400.0,2904.0,0.0,1.0,0.0,?,0.0,0.0
1400000.0,5.78125,1.5098954059390557E-7,1400000.0,64.7,22.776713131896518,27.366255144032927,17.71561771561773,419400.0,2904.0,0.0,1.0,0.0,?,0.0,0.0
1500000.0,6.203125,1.6143461430652274E-7,1500000.0,69.0,26.95157124813843,35.14644351464434,14.364640883977883,449400.0,2904.0,0.0,1.0,0.0,?,0.0,0.0
1600000.0,6.625,1.702207696831061E-7,1600000.0,68.7,28.900478842781474,35.463917525773205,21.35678391959801,479400.0,2904.0,0.0,1.0,0.0,?,0.0,0.0
1700000.0,7.03125,1.7708403498141302E-7,1700000.0,69.3,27.067990687508892,32.0796460176991,16.120218579234958,509400.0,2904.0,0.0,1.0,0.0,?,0.0,0.0
1800000.0,7.4375,1.8234982336353924E-7,1800000.0,68.7,23.941252515041665,33.826638477801275,11.581920903954813,539400.0,2904.0,0.0,1.0,0.0,?,0.0,0.0
1900000.0,7.84375,1.8601813482948476E-7,1900000.0,68.0,25.909461361784103,33.19415448851775,17.525773195876305,569400.0,2904.0,0.0,1.0,0.0,?,0.0,0.0
2000000.0,8.234375,1.880093218965663E-7,2000000.0,69.69999999999999,30.947410641847224,32.06278026905828,22.900763358778615,599400.0,2904.0,0.0,1.0,0.0,?,0.0,0.0
2100000.0,8.625,2.038401887855596E-7,2100000.0,68.8,27.53387559052922,33.333333333333314,17.67810026385223,629100.0,2904.0,0.0,1.0,0.0,?,0.0,0.0
2200000.0,9.046875,2.1927860668963857E-7,2200000.0,66.7,19.398563212826524,29.14893617021277,7.242339832869088,659100.0,2904.0,0.0,1.0,0.0,?,0.0,0.0
2300000.0,9.4375,2.3203740258597666E-7,2300000.0,66.3,20.862295697914718,29.052631578947373,11.315789473684221,689100.0,2904.0,0.0,1.0,0.0,?,0.0,0.0
2400000.0,9.84375,2.4370907340198757E-7,2400000.0,68.30000000000001,26.63803158498882,32.980972515856244,15.915119363395238,719100.0,2904.0,0.0,1.0,0.0,?,0.0,0.0
2500000.0,10.25,2.537832673018178E-7,2500000.0,69.8,27.50318073793119,33.91684901531727,17.260273972602725,749100.0,2904.0,0.0,1.0,0.0,?,0.0,0.0
2600000.0,10.671875,2.6258601186176143E-7,2600000.0,70.3,30.21288594388834,34.29203539823008,21.42857142857142,779100.0,2904.0,0.0,1.0,0.0,?,0.0,0.0
2700000.0,11.078125,2.6946525192923016E-7,2700000.0,69.3,28.97924435766699,34.68085106382977,19.633507853403128,809100.0,2904.0,0.0,1.0,0.0,?,0.0,0.0
2800000.0,11.5,2.7495015981710617E-7,2800000.0,68.8,26.088769283250574,33.89830508474575,17.021276595744666,839100.0,2904.0,0.0,1.0,0.0,?,0.0,0.0
2900000.0,11.90625,2.786537839306725E-7,2900000.0,66.4,26.11097427958201,32.53012048192772,19.617224880382793,869100.0,2904.0,0.0,1.0,0.0,?,0.0,47.0
3000000.0,12.328125,2.807623564472629E-7,3000000.0,66.3,23.37495793580777,27.99145299145299,15.5388471177945,899100.0,2904.0,0.0,1.0,0.0,?,0.0,70.0
3100000.0,12.75,2.9789636351375113E-7,3100000.0,68.10000000000001,24.144425209732358,32.415254237288146,13.31521739130436,928800.0,2904.0,0.0,1.0,0.0,?,0.0,21.0
3200000.0,13.171875,3.1337145224420556E-7,3200000.0,67.5,25.716323209420555,31.434599156118146,17.30279898218831,958800.0,2904.0,0.0,1.0,0.0,?,0.0,0.0
3300000.0,13.59375,3.2718762263862616E-7,3300000.0,67.9,26.074340196213917,31.26338329764455,16.623376623376636,988800.0,2904.0,0.0,1.0,0.0,?,0.0,0.0
3400000.0,13.984375,3.384265518333348E-7,3400000.0,68.2,26.589069620340833,33.33333333333334,18.25192802056557,1018800.0,2904.0,0.0,1.0,0.0,?,0.0,60.0
3500000.0,14.375,3.4807366319000714E-7,3500000.0,66.9,23.312883435582833,29.122055674518204,14.910025706940889,1048800.0,2904.0,0.0,1.0,0.0,?,0.0,2.0
3600000.0,14.796875,3.569130785763263E-7,3600000.0,65.9,20.052141946132505,25.869565217391305,8.333333333333341,1078800.0,2904.0,0.0,1.0,0.0,?,0.0,140.0
3700000.0,15.21875,3.640935756266116E-7,3700000.0,65.5,20.68673790300334,27.974947807933198,11.989795918367358,1108800.0,2904.0,0.0,1.0,0.0,?,0.0,0.0
3800000.0,15.640625,3.696151543408631E-7,3800000.0,65.5,23.169428113308395,30.722891566265066,15.647921760391212,1138800.0,2904.0,0.0,1.0,0.0,?,0.0,0.0
3900000.0,16.0625,3.734778147190808E-7,3900000.0,65.2,18.357771260997076,22.494432071269486,7.200000000000006,1168800.0,2904.0,0.0,1.0,0.0,?,0.0,0.0
4000000.0,16.484375,3.7568155676126463E-7,4000000.0,65.7,20.438308374621926,27.637130801687764,12.276214833759601,1198800.0,2904.0,0.0,1.0,0.0,?,0.0,0.0
4100000.0,16.90625,3.928321530111132E-7,4100000.0,66.9,23.136227683962186,30.607966457023068,13.802083333333345,1228500.0,2904.0,0.0,1.0,0.0,?,0.0,0.0
4200000.0,17.328125,4.08323830924928E-7,4200000.0,66.7,23.336894062177695,31.90184049079755,14.175257731958776,1258500.0,2904.0,0.0,1.0,0.0,?,0.0,0.0
4300000.0,17.75,4.22156590502709E-7,4300000.0,65.60000000000001,25.024410656995403,28.18371607515658,18.483412322274894,1288500.0,2904.0,0.0,1.0,0.0,?,0.0,0.0
4400000.0,18.15625,4.3387954873550255E-7,4400000.0,69.19999999999999,27.921518702961762,34.607218683651794,19.371727748691086,1318500.0,2904.0,0.0,1.0,0.0,?,0.0,0.0
4500000.0,18.5625,4.440050300521154E-7,4500000.0,65.5,16.177499611257964,23.841059602649008,3.089887640449441,1348500.0,2904.0,0.0,1.0,0.0,?,0.0,0.0
4600000.0,18.984375,4.5286103462179485E-7,4600000.0,69.39999999999999,27.932171455487502,34.47537473233403,17.29729729729728,1378500.0,2904.0,0.0,1.0,0.0,?,0.0,0.0
4700000.0,19.40625,4.6005812085544056E-7,4700000.0,66.3,21.35502721069386,25.934065934065938,10.846560846560855,1408500.0,2904.0,0.0,1.0,0.0,?,0.0,0.0
4800000.0,19.796875,4.651860540939701E-7,4800000.0,67.60000000000001,24.859459359171797,32.78008298755187,14.285714285714299,1438500.0,2904.0,0.0,1.0,0.0,?,0.0,0.0
4900000.0,20.21875,4.6906530365554814E-7,4900000.0,68.89999999999999,25.426817571455956,35.4771784232365,14.560439560439542,1468500.0,2904.0,0.0,1.0,0.0,?,0.0,0.0
5000000.0,20.625,4.714463850379817E-7,5000000.0,66.9,20.960886384259034,29.122055674518204,10.29810298102982,1498500.0,2904.0,0.0,1.0,0.0,?,0.0,0.0
5100000.0,21.03125,4.882207334352036E-7,5100000.0,72.6,35.211107748184006,41.07526881720429,25.543478260869556,21883.0,2904.0,0.0,1.0,0.0,?,2.0,5.0
5200000.0,21.4375,5.033976049162448E-7,5200000.0,71.8,34.43110848628865,42.448979591836725,23.989218328840963,51883.0,2904.0,0.0,1.0,0.0,?,0.0,0.0
5300000.0,21.84375,5.169769994811052E-7,5300000.0,68.7,28.11472247230237,36.89516129032259,20.153061224489814,81883.0,2904.0,0.0,1.0,0.0,?,0.0,0.0
5400000.0,22.265625,5.294197601162725E-7,5400000.0,71.89999999999999,35.206279226349125,38.24175824175823,26.439790575916224,111883.0,2904.0,0.0,1.0,0.0,?,0.0,0.0
5500000.0,22.671875,5.398042008487715E-7,5500000.0,69.5,29.421020965427854,34.968017057569284,17.567567567567554,141883.0,2904.0,0.0,1.0,0.0,?,0.0,0.0
5600000.0,23.078125,5.485911646650897E-7,5600000.0,73.3,38.83161512027491,44.25887265135699,28.799999999999997,171883.0,2904.0,0.0,1.0,0.0,?,0.0,0.0
5700000.0,23.484375,5.557806515652273E-7,5700000.0,73.6,37.95826283135927,39.72602739726027,26.66666666666666,201883.0,2904.0,0.0,1.0,0.0,?,0.0,0.0
5800000.0,23.890625,5.61372661549184E-7,5800000.0,71.8,34.06408409868875,39.99999999999999,22.099447513812144,231883.0,2904.0,0.0,1.0,0.0,?,0.0,0.0
5900000.0,24.28125,5.65213558729738E-7,5900000.0,73.4,36.27002343154776,40.492170022371354,24.645892351274778,261883.0,2904.0,0.0,1.0,0.0,?,0.0,0.0
6000000.0,24.6875,5.676106148813334E-7,6000000.0,72.39999999999999,35.694315004659835,43.209876543209866,27.748691099476435,291883.0,2904.0,0.0,1.0,0.0,?,0.0,0.0
6100000.0,25.09375,5.84400938047717E-7,6100000.0,70.8,33.19912152269398,38.39662447257383,23.157894736842096,321583.0,2904.0,0.0,1.0,0.0,?,0.0,0.0
6200000.0,25.5,5.9959378429792E-7,6200000.0,71.89999999999999,36.14158841549327,41.942148760330575,27.2020725388601,351583.0,2904.0,0.0,1.0,0.0,?,0.0,0.0
6300000.0,25.90625,6.131891536319422E-7,6300000.0,71.8,34.04804669959586,39.09287257019437,24.999999999999993,381583.0,2904.0,0.0,1.0,0.0,?,0.0,0.0
6400000.0,26.3125,6.251870460497837E-7,6400000.0,70.1,32.41166045788273,38.09523809523808,24.494949494949488,411583.0,2904.0,0.0,1.0,0.0,?,0.0,0.0
6500000.0,26.71875,6.355874615514444E-7,6500000.0,73.5,38.561267168068554,44.791666666666664,30.628272251308896,441583.0,2904.0,0.0,1.0,0.0,?,0.0,0.0
6600000.0,27.140625,6.447289746979044E-7,6600000.0,70.6,34.357710289763816,37.71186440677965,25.944584382871533,471583.0,2904.0,0.0,1.0,0.0,?,0.0,0.0
6700000.0,27.5625,6.522115695083306E-7,6700000.0,71.8,32.3374298780634,41.73553719008264,21.008403361344527,501583.0,2904.0,0.0,1.0,0.0,?,0.0,0.0
6800000.0,27.96875,6.578195542614493E-7,6800000.0,70.7,33.25132130490249,36.02620087336243,25.063938618925825,531583.0,2904.0,0.0,1.0,0.0,?,0.0,0.0
6900000.0,28.375,6.618300620983872E-7,6900000.0,71.5,32.12863647621407,36.66666666666665,20.612813370473525,561583.0,2904.0,0.0,1.0,0.0,?,0.0,0.0
7000000.0,28.78125,6.642430930191444E-7,7000000.0,72.3,37.419797935982935,43.584521384928706,30.576441102756892,591583.0,2904.0,0.0,1.0,0.0,?,0.0,0.0
7100000.0,29.1875,6.810493909546898E-7,7100000.0,70.6,34.189614494401624,35.66739606126914,26.683291770573557,621283.0,2904.0,0.0,1.0,0.0,?,0.0,0.0
7200000.0,29.59375,6.962582119740546E-7,7200000.0,71.39999999999999,35.441346431667135,42.8,27.777777777777775,651283.0,2904.0,0.0,1.0,0.0,?,0.0,0.0
7300000.0,30.0,7.098695560772386E-7,7300000.0,74.6,37.82890711051278,41.20370370370371,26.37681159420289,681283.0,2904.0,0.0,1.0,0.0,?,0.0,0.0
7400000.0,30.421875,7.223454950791266E-7,7400000.0,71.8,33.46545866364665,38.157894736842096,22.52747252747252,711283.0,2904.0,0.0,1.0,0.0,?,0.0,0.0
7500000.0,30.828125,7.327618853499491E-7,7500000.0,71.0,30.70953436807093,37.499999999999986,20.76502732240436,741283.0,2904.0,0.0,1.0,0.0,?,0.0,0.0
7600000.0,31.234375,7.415807987045909E-7,7600000.0,71.3,33.34386206127718,41.18852459016393,22.01086956521738,771283.0,2904.0,0.0,1.0,0.0,?,0.0,0.0
7700000.0,31.640625,7.488022351430521E-7,7700000.0,71.1,31.1799893317077,37.037037037037024,19.944598337950126,801283.0,2904.0,0.0,1.0,0.0,?,0.0,0.0
7800000.0,32.0625,7.546425008008048E-7,7800000.0,70.19999999999999,31.28067003652732,35.7758620689655,22.39583333333332,831283.0,2904.0,0.0,1.0,0.0,?,0.0,0.0
7900000.0,32.4375,7.58359253975666E-7,7900000.0,73.3,38.18356933164167,43.67088607594936,29.36507936507936,861283.0,2904.0,0.0,1.0,0.0,?,0.0,0.0
8000000.0,32.859375,7.608816829613511E-7,8000000.0,70.8,31.997820204099675,37.06896551724137,22.54641909814323,891283.0,2904.0,0.0,1.0,0.0,?,0.0,0.0
8100000.0,33.234375,7.764099346887731E-7,8100000.0,73.4,35.86528817220891,41.019955654101985,24.431818181818173,920983.0,2904.0,0.0,1.0,0.0,?,0.0,0.0
8200000.0,33.640625,7.916347304772996E-7,8200000.0,73.6,39.235471753701106,41.592920353982294,29.032258064516125,950983.0,2904.0,0.0,1.0,0.0,?,0.0,0.0
8300000.0,34.046875,8.052620493496455E-7,8300000.0,71.5,33.48891481913651,39.74630021141648,22.972972972972965,980983.0,2904.0,0.0,1.0,0.0,?,0.0,0.0
8400000.0,34.453125,8.172918913058106E-7,8400000.0,73.4,37.15624940936324,43.99999999999999,26.51933701657458,1010983.0,2904.0,0.0,1.0,0.0,?,0.0,0.0
8500000.0,34.875,8.281255011550252E-7,8500000.0,70.3,31.547262351455252,33.70535714285713,21.42857142857142,1040983.0,2904.0,0.0,1.0,0.0,?,0.0,0.0
8600000.0,35.25,8.362807825000747E-7,8600000.0,74.4,38.61971074538689,45.762711864406775,28.49162011173184,1070983.0,2904.0,0.0,1.0,0.0,?,0.0,0.0
8700000.0,35.65625,8.435181937076976E-7,8700000.0,72.5,33.978027887681016,38.75278396436524,23.39832869080779,1100983.0,2904.0,0.0,1.0,0.0,?,0.0,0.0
8800000.0,36.078125,8.493750485488107E-7,8800000.0,73.0,38.15651440953214,42.796610169491515,29.50391644908616,1130983.0,2904.0,0.0,1.0,0.0,?,0.0,0.0
8900000.0,36.484375,8.534175059240722E-7,8900000.0,71.89999999999999,36.405196215996014,40.08528784648186,27.2020725388601,1160983.0,2904.0,0.0,1.0,0.0,?,0.0,0.0
9000000.0,36.890625,8.55862486383153E-7,9000000.0,74.0,40.26394147704297,43.47826086956521,32.64248704663213,1190983.0,2904.0,0.0,1.0,0.0,?,0.0,0.0
9100000.0,37.28125,8.72053108954181E-7,9100000.0,71.8,35.27359529930223,38.96103896103895,25.789473684210517,1220683.0,2904.0,0.0,1.0,0.0,?,0.0,0.0
9200000.0,37.6875,8.872938795118693E-7,9200000.0,72.8,33.68182882109697,42.49471458773784,23.59550561797752,1250683.0,2904.0,0.0,1.0,0.0,?,0.0,0.0
9300000.0,38.09375,9.009371731533769E-7,9300000.0,70.7,33.933419317597604,39.462809917355365,26.381909547738687,1280683.0,2904.0,0.0,1.0,0.0,?,0.0,0.0
9400000.0,38.484375,9.12519689235422E-7,9400000.0,73.1,34.81632257439177,44.421487603305785,23.579545454545446,1310683.0,2904.0,0.0,1.0,0.0,?,0.0,0.0
9500000.0,38.890625,9.229680290445682E-7,9500000.0,71.6,34.08745944289977,40.70981210855949,24.66843501326259,1340683.0,2904.0,0.0,1.0,0.0,?,0.0,0.0
9600000.0,39.296875,9.318188919375337E-7,9600000.0,72.7,35.864304844241886,41.41630901287553,27.005347593582883,1370683.0,2904.0,0.0,1.0,0.0,?,0.0,0.0
9700000.0,39.703125,9.390722779143184E-7,9700000.0,72.2,33.52590098706864,37.10407239819003,22.346368715083788,1400683.0,2904.0,0.0,1.0,0.0,?,0.0,0.0
9800000.0,40.09375,9.445106520110531E-7,9800000.0,70.8,32.53889409992559,39.16666666666666,22.54641909814323,1430683.0,2904.0,0.0,1.0,0.0,?,0.0,0.0
9900000.0,40.5,9.485690841554764E-7,9900000.0,72.7,35.87876624169712,41.16379310344826,24.585635359116015,1460683.0,2904.0,0.0,1.0,0.0,?,0.0,0.0
1.0E7,40.90625,9.510300393837189E-7,1.0E7,72.1,32.72893861214252,40.51172707889125,21.40845070422534,1490683.0,2904.0,0.0,1.0,0.0,?,0.0,0.0
