learning evaluation instances,evaluation time (cpu seconds),model cost (RAM-Hours),classified instances,classifications correct (percent),Kappa Statistic (percent),Kappa Temporal Statistic (percent),Kappa M Statistic (percent),model training instances,model serialized size (bytes),labeling cost,newThreshold,maxPosterior,accuracyBaseLearner (percent),Change detected,Warning detected
100000.0,0.421875,1.708423951640725E-8,100000.0,58.699999999999996,16.08761022390181,16.565656565656557,9.03083700440527,29633.0,2904.0,0.0,1.0,0.0,?,1.0,28.0
200000.0,0.859375,3.308086888864637E-8,200000.0,59.4,18.063555234447207,17.47967479674796,15.240083507306881,59633.0,2904.0,0.0,1.0,0.0,?,0.0,0.0
300000.0,1.28125,4.6847271732985976E-8,300000.0,61.5,21.774678565042837,22.22222222222222,15.57017543859648,89633.0,2904.0,0.0,1.0,0.0,?,0.0,0.0
400000.0,1.71875,5.9403181593451235E-8,400000.0,61.3,21.25054941477152,21.0204081632653,13.808463251670366,119633.0,2904.0,0.0,1.0,0.0,?,0.0,0.0
500000.0,2.125,6.939750164747238E-8,500000.0,61.5,21.63456058360879,21.267893660531694,15.57017543859648,149633.0,2904.0,0.0,1.0,0.0,?,0.0,9.0
600000.0,2.546875,7.811730029061437E-8,600000.0,63.5,25.85821653463335,23.480083857442345,21.50537634408602,179633.0,2904.0,0.0,1.0,0.0,?,0.0,0.0
700000.0,2.9375,8.465515242682563E-8,700000.0,63.5,24.92739553595669,24.116424116424113,17.420814479638004,209633.0,2904.0,0.0,1.0,0.0,?,0.0,0.0
800000.0,3.328125,8.965696906670928E-8,800000.0,61.199999999999996,20.269276135443594,20.164609053497937,13.585746102449878,239633.0,2904.0,0.0,1.0,0.0,?,0.0,0.0
900000.0,3.75,9.340001270174981E-8,900000.0,63.4,25.890528566568932,28.375733855185914,22.78481012658228,269633.0,2904.0,0.0,1.0,0.0,?,0.0,0.0
1000000.0,4.15625,9.540694817486737E-8,1000000.0,63.3,25.340342254518234,24.485596707818928,20.562770562770556,299633.0,2904.0,0.0,1.0,0.0,?,0.0,0.0
1100000.0,4.546875,1.1117637364400759E-7,1100000.0,61.199999999999996,20.68424151239614,22.4,13.392857142857132,329333.0,2904.0,0.0,1.0,0.0,?,0.0,0.0
1200000.0,4.953125,1.2597909921573268E-7,1200000.0,61.7,21.758173512996713,18.510638297872333,16.192560175054695,359333.0,2904.0,0.0,1.0,0.0,?,0.0,0.0
1300000.0,5.359375,1.3918434787127707E-7,1300000.0,59.8,19.08961730596603,16.94214876033057,16.424116424116416,389333.0,2904.0,0.0,1.0,0.0,?,0.0,0.0
1400000.0,5.78125,1.5123857236984704E-7,1400000.0,58.5,16.13654183473037,18.145956607495062,13.179916317991621,419333.0,2904.0,0.0,1.0,0.0,?,0.0,0.0
1500000.0,6.15625,1.604788445143236E-7,1500000.0,60.0,18.83643919226023,20.477137176938363,14.52991452991452,449333.0,2904.0,0.0,1.0,0.0,?,0.0,0.0
1600000.0,6.5625,1.6889166242132583E-7,1600000.0,61.3,20.53714426512258,22.599999999999998,12.24489795918366,479333.0,2904.0,0.0,1.0,0.0,?,0.0,0.0
1700000.0,6.984375,1.7596913191179434E-7,1700000.0,63.3,25.789622679661907,25.254582484725052,22.573839662447256,509333.0,2904.0,0.0,1.0,0.0,?,0.0,0.0
1800000.0,7.390625,1.8118699598643514E-7,1800000.0,62.7,24.22641877397127,26.13861386138614,20.299145299145295,539333.0,2904.0,0.0,1.0,0.0,?,0.0,0.0
1900000.0,7.78125,1.8466813748495446E-7,1900000.0,61.199999999999996,21.175060439225554,22.862823061630216,16.55913978494623,569333.0,2904.0,0.0,1.0,0.0,?,0.0,0.0
2000000.0,8.203125,1.867688519673215E-7,2000000.0,60.099999999999994,19.58757900167676,17.731958762886592,17.391304347826082,599333.0,2904.0,0.0,1.0,0.0,?,0.0,0.0
2100000.0,8.59375,2.02553637791425E-7,2100000.0,62.3,22.90703856692978,24.75049900199601,17.142857142857135,629033.0,2904.0,0.0,1.0,0.0,?,0.0,0.0
2200000.0,8.984375,2.1680238811920087E-7,2200000.0,59.8,17.97224115344904,20.396039603960393,12.418300653594759,659033.0,2904.0,0.0,1.0,0.0,?,0.0,0.0
2300000.0,9.375,2.2951510295064914E-7,2300000.0,62.1,22.733166431536276,19.532908704883223,17.248908296943224,689033.0,2904.0,0.0,1.0,0.0,?,0.0,0.0
2400000.0,9.765625,2.406917822857698E-7,2400000.0,59.5,16.9380706662182,17.00819672131147,8.371040723981883,719033.0,2904.0,0.0,1.0,0.0,?,0.0,0.0
2500000.0,10.1875,2.5110367763166626E-7,2500000.0,62.8,23.66286896280001,25.74850299401198,16.964285714285708,749033.0,2904.0,0.0,1.0,0.0,?,0.0,0.0
2600000.0,10.609375,2.598566546415289E-7,2600000.0,61.6,22.37657066157802,25.291828793774318,18.987341772151893,779033.0,2904.0,0.0,1.0,0.0,?,0.0,0.0
2700000.0,11.015625,2.6668797040151226E-7,2700000.0,58.099999999999994,14.796528416069485,17.029702970297024,11.040339702760072,809033.0,2904.0,0.0,1.0,0.0,?,0.0,0.0
2800000.0,11.421875,2.719218092453149E-7,2800000.0,61.0,21.195245850626588,20.57026476578411,18.238993710691815,839033.0,2904.0,0.0,1.0,0.0,?,0.0,0.0
2900000.0,11.828125,2.755581711729368E-7,2900000.0,59.599999999999994,18.451054484384592,16.528925619834702,14.40677966101694,869033.0,2904.0,0.0,1.0,0.0,?,0.0,0.0
3000000.0,12.234375,2.7759705618437796E-7,3000000.0,58.5,15.323403387063852,14.609053497942378,8.791208791208776,899033.0,2904.0,0.0,1.0,0.0,?,0.0,0.0
3100000.0,12.625,2.933972023634447E-7,3100000.0,61.4,21.268193982116053,21.224489795918362,16.45021645021644,928733.0,2904.0,0.0,1.0,0.0,?,0.0,0.0
3200000.0,13.03125,3.082318774734934E-7,3200000.0,60.099999999999994,19.06365369791877,23.416506717850286,15.644820295983077,958733.0,2904.0,0.0,1.0,0.0,?,0.0,0.0
3300000.0,13.4375,3.214690756673614E-7,3300000.0,59.199999999999996,18.317664205519165,19.04761904761904,17.90744466800804,988733.0,2904.0,0.0,1.0,0.0,?,0.0,0.0
3400000.0,13.84375,3.3310879694504866E-7,3400000.0,61.3,20.686969709390503,21.0204081632653,14.945054945054936,1018733.0,2904.0,0.0,1.0,0.0,?,0.0,0.0
3500000.0,14.25,3.431510413065552E-7,3500000.0,61.5,21.789298338276524,22.690763052208833,16.846652267818566,1048733.0,2904.0,0.0,1.0,0.0,?,0.0,0.0
3600000.0,14.671875,3.519206074997782E-7,3600000.0,61.199999999999996,20.70142451306996,24.8062015503876,14.725274725274714,1078733.0,2904.0,0.0,1.0,0.0,?,0.0,0.0
3700000.0,15.0625,3.585045407008793E-7,3700000.0,59.599999999999994,17.468826096193744,21.553398058252423,11.013215859030822,1108733.0,2904.0,0.0,1.0,0.0,?,0.0,0.0
3800000.0,15.484375,3.6395627022203466E-7,3800000.0,59.699999999999996,17.688580975645607,14.618644067796602,11.23348017621144,1138733.0,2904.0,0.0,1.0,0.0,?,0.0,0.0
3900000.0,15.90625,3.677490814071562E-7,3900000.0,58.699999999999996,15.644735659605061,16.565656565656557,8.017817371937623,1168733.0,2904.0,0.0,1.0,0.0,?,0.0,0.0
4000000.0,16.296875,3.6972490811927444E-7,4000000.0,60.4,18.37609656355122,21.428571428571423,10.40723981900451,1198733.0,2904.0,0.0,1.0,0.0,?,0.0,0.0
4100000.0,16.703125,3.861730349146657E-7,4100000.0,58.599999999999994,16.647875527494115,19.92263056092843,15.1639344262295,1228433.0,2904.0,0.0,1.0,0.0,?,0.0,0.0
4200000.0,17.109375,4.0102368479387623E-7,4200000.0,60.199999999999996,19.146446506638927,19.269776876267745,13.852813852813842,1258433.0,2904.0,0.0,1.0,0.0,?,0.0,0.0
4300000.0,17.53125,4.14786595178561E-7,4300000.0,64.9,28.528959006980138,30.21868787276342,24.025974025974026,1288433.0,2904.0,0.0,1.0,0.0,?,0.0,0.0
4400000.0,17.9375,4.264422912254101E-7,4400000.0,60.9,20.06770735377091,19.877049180327862,14.442013129102834,1318433.0,2904.0,0.0,1.0,0.0,?,0.0,0.0
4500000.0,18.34375,4.3650051035607843E-7,4500000.0,63.3,23.965558677042157,27.182539682539687,14.452214452214463,1348433.0,2904.0,0.0,1.0,0.0,?,0.0,0.0
4600000.0,18.765625,4.4528666573266175E-7,4600000.0,57.99999999999999,15.037545313309158,18.60465116279069,11.764705882352928,1378433.0,2904.0,0.0,1.0,0.0,?,0.0,0.0
4700000.0,19.1875,4.5241390277321125E-7,4700000.0,62.7,24.271955042310253,23.565573770491802,20.806794055201692,1408433.0,2904.0,0.0,1.0,0.0,?,0.0,0.0
4800000.0,19.59375,4.576796911553375E-7,4800000.0,59.8,19.041385560366532,19.11468812877263,15.723270440251563,1438433.0,2904.0,0.0,1.0,0.0,?,0.0,0.0
4900000.0,20.015625,4.6148909152381933E-7,4900000.0,59.3,17.319443541571864,18.762475049900193,13.034188034188023,1468433.0,2904.0,0.0,1.0,0.0,?,0.0,0.0
5000000.0,20.40625,4.6371391767428967E-7,5000000.0,58.9,15.761426521828238,19.09448818897637,8.66666666666665,1498433.0,2904.0,0.0,1.0,0.0,?,0.0,0.0
5100000.0,20.828125,4.811238290535078E-7,5100000.0,63.1,26.178148732024674,23.760330578512395,25.454545454545457,29466.0,2904.0,0.0,1.0,0.0,?,1.0,6.0
5200000.0,21.234375,4.962914519839816E-7,5200000.0,61.4,21.993727163966767,17.69722814498933,19.58333333333333,59466.0,2904.0,0.0,1.0,0.0,?,0.0,0.0
5300000.0,21.640625,5.098615979982746E-7,5300000.0,60.699999999999996,21.2765616486651,22.33201581027668,19.795918367346935,89466.0,2904.0,0.0,1.0,0.0,?,0.0,0.0
5400000.0,22.046875,5.21834267096387E-7,5400000.0,60.4,20.472665491161617,20.799999999999997,17.327766179540703,119466.0,2904.0,0.0,1.0,0.0,?,0.0,0.0
5500000.0,22.453125,5.322094592783186E-7,5500000.0,61.9,23.23810291332554,22.874493927125506,18.93617021276595,149466.0,2904.0,0.0,1.0,0.0,?,0.0,0.0
5600000.0,22.875,5.413247789773676E-7,5600000.0,61.0,21.776280161261198,23.976608187134502,20.245398773006134,179466.0,2904.0,0.0,1.0,0.0,?,0.0,0.0
5700000.0,23.265625,5.482288543134928E-7,5700000.0,62.3,23.961274707543367,24.29718875502008,21.294363256784965,209466.0,2904.0,0.0,1.0,0.0,?,0.0,0.0
5800000.0,23.65625,5.535968941532903E-7,5800000.0,60.5,21.153278027514506,24.47418738049713,20.999999999999996,239466.0,2904.0,0.0,1.0,0.0,?,0.0,0.0
5900000.0,24.046875,5.574288984967603E-7,5900000.0,61.199999999999996,21.68735492986173,21.931589537223335,17.970401691331915,269466.0,2904.0,0.0,1.0,0.0,?,0.0,0.0
6000000.0,24.453125,5.598167060977883E-7,6000000.0,60.699999999999996,20.455005464923296,20.445344129554652,13.626373626373613,299466.0,2904.0,0.0,1.0,0.0,?,0.0,0.0
6100000.0,24.84375,5.759523547668425E-7,6100000.0,60.699999999999996,21.198899591758156,15.483870967741925,17.782426778242673,329166.0,2904.0,0.0,1.0,0.0,?,0.0,0.0
6200000.0,25.265625,5.917199369933871E-7,6200000.0,64.9,29.092628057501642,29.800000000000004,25.477707006369428,359166.0,2904.0,0.0,1.0,0.0,?,0.0,0.0
6300000.0,25.671875,6.05306057776842E-7,6300000.0,62.4,24.427579109853355,27.969348659003835,20.338983050847453,389166.0,2904.0,0.0,1.0,0.0,?,0.0,0.0
6400000.0,26.078125,6.172947016441161E-7,6400000.0,60.5,21.138795719533615,20.999999999999996,22.244094488188974,419166.0,2904.0,0.0,1.0,0.0,?,0.0,0.0
6500000.0,26.5,6.280855288625593E-7,6500000.0,62.1,23.650897253043883,27.533460803059274,19.18976545842217,449166.0,2904.0,0.0,1.0,0.0,?,0.0,0.0
6600000.0,26.921875,6.372174377449686E-7,6600000.0,60.4,20.29723495811579,21.272365805168985,17.499999999999993,479166.0,2904.0,0.0,1.0,0.0,?,0.0,0.0
6700000.0,27.328125,6.444136508637005E-7,6700000.0,60.099999999999994,19.988770353733855,17.561983471074374,19.55645161290322,509166.0,2904.0,0.0,1.0,0.0,?,0.0,0.0
6800000.0,27.734375,6.500123870662518E-7,6800000.0,59.4,19.361245729721137,20.547945205479447,17.813765182186227,539166.0,2904.0,0.0,1.0,0.0,?,0.0,0.0
6900000.0,28.140625,6.540136463526223E-7,6900000.0,61.6,22.36527139807206,25.581395348837212,17.948717948717942,569166.0,2904.0,0.0,1.0,0.0,?,0.0,0.0
7000000.0,28.53125,6.56324975554728E-7,7000000.0,61.4,22.878971932740868,22.020202020202017,22.64529058116232,599166.0,2904.0,0.0,1.0,0.0,?,0.0,0.0
7100000.0,28.921875,6.724759845787454E-7,7100000.0,64.4,28.55221909582432,25.366876310272534,26.293995859213254,628866.0,2904.0,0.0,1.0,0.0,?,0.0,0.0
7200000.0,29.328125,6.876755570475427E-7,7200000.0,59.8,18.958148536408356,20.396039603960393,15.899581589958151,658866.0,2904.0,0.0,1.0,0.0,?,0.0,0.0
7300000.0,29.734375,7.012776526001594E-7,7300000.0,64.0,27.5023763109987,29.549902152641884,24.050632911392405,688866.0,2904.0,0.0,1.0,0.0,?,0.0,0.0
7400000.0,30.15625,7.137439873379967E-7,7400000.0,61.7,22.797823019552506,22.93762575452716,19.706498951781963,718866.0,2904.0,0.0,1.0,0.0,?,0.0,0.0
7500000.0,30.546875,7.237508543767036E-7,7500000.0,63.2,25.85548266468946,23.173277661795407,21.03004291845493,748866.0,2904.0,0.0,1.0,0.0,?,0.0,0.0
7600000.0,30.9375,7.322216859190829E-7,7600000.0,64.7,28.643045425877716,31.322957198443586,23.42733188720173,778866.0,2904.0,0.0,1.0,0.0,?,0.0,0.0
7700000.0,31.375,7.399886574906608E-7,7700000.0,62.1,23.77742202772169,20.8768267223382,20.711297071129703,808866.0,2904.0,0.0,1.0,0.0,?,0.0,0.0
7800000.0,31.78125,7.456033684623738E-7,7800000.0,62.4,24.7467206782402,26.418786692759294,24.8,838866.0,2904.0,0.0,1.0,0.0,?,0.0,0.0
7900000.0,32.203125,7.497751115200421E-7,7900000.0,60.9,21.221450331232568,19.547325102880652,17.336152219873142,868866.0,2904.0,0.0,1.0,0.0,?,0.0,0.0
8000000.0,32.609375,7.521948686593936E-7,8000000.0,59.599999999999994,18.867682025576748,20.158102766798415,16.528925619834702,898866.0,2904.0,0.0,1.0,0.0,?,0.0,0.0
8100000.0,33.015625,7.690078928135335E-7,8100000.0,63.1,26.069882994069566,26.052104208416832,24.539877300613497,928566.0,2904.0,0.0,1.0,0.0,?,0.0,0.0
8200000.0,33.421875,7.842234400514927E-7,8200000.0,61.1,21.432553179456935,20.44989775051124,20.12320328542094,958566.0,2904.0,0.0,1.0,0.0,?,0.0,0.0
8300000.0,33.84375,7.983652823087241E-7,8300000.0,62.5,24.768286321871365,26.7578125,22.839506172839506,988566.0,2904.0,0.0,1.0,0.0,?,0.0,0.0
8400000.0,34.265625,8.108482062299218E-7,8400000.0,59.9,19.732575363305173,21.218074656188602,19.47791164658634,1018566.0,2904.0,0.0,1.0,0.0,?,0.0,0.0
8500000.0,34.671875,8.212713227193388E-7,8500000.0,61.3,22.478446203647316,22.28915662650602,20.85889570552147,1048566.0,2904.0,0.0,1.0,0.0,?,0.0,0.0
8600000.0,35.09375,8.304364099684688E-7,8600000.0,63.7,26.959419216715226,20.219780219780215,21.76724137931034,1078566.0,2904.0,0.0,1.0,0.0,?,0.0,0.0
8700000.0,35.515625,8.37942578881565E-7,8700000.0,59.9,19.610924895353858,19.15322580645161,17.827868852459012,1108566.0,2904.0,0.0,1.0,0.0,?,0.0,0.0
8800000.0,35.921875,8.435732646224399E-7,8800000.0,62.6,24.98997192137987,25.2,23.6734693877551,1138566.0,2904.0,0.0,1.0,0.0,?,0.0,0.0
8900000.0,36.3125,8.474513500307997E-7,8900000.0,59.8,19.331211597041328,20.55335968379446,14.649681528662411,1168566.0,2904.0,0.0,1.0,0.0,?,0.0,0.0
9000000.0,36.734375,8.499807639357944E-7,9000000.0,63.800000000000004,27.112528591218066,28.458498023715418,20.088300220750547,1198566.0,2904.0,0.0,1.0,0.0,?,0.0,0.0
9100000.0,37.125,8.661624936697383E-7,9100000.0,60.5,20.676359546951552,19.87829614604462,17.708333333333325,1228266.0,2904.0,0.0,1.0,0.0,?,0.0,0.0
9200000.0,37.53125,8.813940156768593E-7,9200000.0,64.1,27.881524813576757,28.910891089108915,27.766599597585518,1258266.0,2904.0,0.0,1.0,0.0,?,0.0,0.0
9300000.0,37.9375,8.950280607677995E-7,9300000.0,61.0,21.396323766526915,21.999999999999996,13.716814159292024,1288266.0,2904.0,0.0,1.0,0.0,?,0.0,0.0
9400000.0,38.359375,9.075275738723575E-7,9400000.0,64.0,27.487189403461283,26.38036809815951,24.050632911392405,1318266.0,2904.0,0.0,1.0,0.0,?,0.0,0.0
9500000.0,38.78125,9.183681686408817E-7,9500000.0,61.7,22.925219351203417,23.4,20.20833333333333,1348266.0,2904.0,0.0,1.0,0.0,?,0.0,0.0
9600000.0,39.1875,9.272097829832798E-7,9600000.0,60.9,22.072434768050886,22.420634920634917,24.517374517374517,1378266.0,2904.0,0.0,1.0,0.0,?,0.0,0.0
9700000.0,39.609375,9.347325410797363E-7,9700000.0,59.4,18.5915944818736,21.470019342359763,17.142857142857135,1408266.0,2904.0,0.0,1.0,0.0,?,0.0,0.0
9800000.0,40.015625,9.40379201589773E-7,9800000.0,61.1,21.651560926485402,18.78914405010438,15.982721382289409,1438266.0,2904.0,0.0,1.0,0.0,?,0.0,0.0
9900000.0,40.421875,9.44428385183629E-7,9900000.0,61.3,22.64270122892164,22.75449101796407,22.90836653386454,1468266.0,2904.0,0.0,1.0,0.0,?,0.0,0.0
1.0E7,40.859375,9.470686846826639E-7,1.0E7,61.6,23.00319616940901,20.824742268041234,21.792260692464353,1498266.0,2904.0,0.0,1.0,0.0,?,0.0,0.0
