learning evaluation instances,evaluation time (cpu seconds),model cost (RAM-Hours),classified instances,classifications correct (percent),Kappa Statistic (percent),Kappa Temporal Statistic (percent),Kappa M Statistic (percent),model training instances,model serialized size (bytes),labeling cost,newThreshold,maxPosterior,accuracyBaseLearner (percent),Change detected,Warning detected,tree size (nodes),tree size (leaves),active learning leaves,tree depth,active leaf byte size estimate,inactive leaf byte size estimate,byte size estimate overhead
100000.0,0.34375,2.9709190130233767E-8,100000.0,86.6,70.76418918624084,71.18279569892472,63.68563685636857,29700.0,147864.0,0.0,1.0,0.0,?,0.0,11.0,61.0,43.0,43.0,4.0,0.0,0.0,1.0
200000.0,0.65625,6.156494944459863E-8,200000.0,88.1,74.14549784038864,75.71428571428571,67.9245283018868,59700.0,222624.0,0.0,1.0,0.0,?,0.0,0.0,100.0,64.0,64.0,5.0,0.0,0.0,1.0
300000.0,1.03125,1.1206436384883192E-7,300000.0,89.4,77.92255398560384,78.58585858585859,72.9591836734694,89700.0,363680.0,0.0,1.0,0.0,?,0.0,0.0,159.0,98.0,98.0,5.0,0.0,0.0,1.0
400000.0,1.46875,1.8365124964879617E-7,400000.0,90.7,80.29310300985769,79.56043956043956,75.59055118110237,119700.0,490328.0,0.0,1.0,0.0,?,0.0,0.0,216.0,134.0,134.0,6.0,0.0,0.0,1.0
500000.0,1.921875,2.8131833662175467E-7,500000.0,91.5,81.91766367705374,81.87633262260128,77.08894878706201,149700.0,705584.0,0.0,1.0,0.0,?,0.0,0.0,294.0,191.0,191.0,6.0,0.0,0.0,1.0
600000.0,2.40625,4.08072050453888E-7,600000.0,92.0,83.07895360249078,83.26359832635984,78.60962566844921,179700.0,898672.0,0.0,1.0,0.0,?,0.0,0.0,380.0,255.0,255.0,6.0,0.0,0.0,1.0
700000.0,2.859375,5.455183175702889E-7,700000.0,92.60000000000001,83.8625261688765,83.10502283105023,79.44444444444446,209700.0,1074368.0,0.0,1.0,0.0,?,0.0,0.0,460.0,313.0,313.0,6.0,0.0,0.0,1.0
800000.0,3.21875,6.635961472056805E-7,800000.0,90.5,79.78362090245918,79.7872340425532,73.75690607734808,239700.0,1186664.0,0.0,1.0,0.0,?,0.0,0.0,508.0,343.0,343.0,7.0,0.0,0.0,1.0
900000.0,3.578125,7.923261728137731E-7,900000.0,93.89999999999999,86.75582960614877,86.32286995515693,82.76836158192089,269700.0,1316080.0,0.0,1.0,0.0,?,0.0,0.0,577.0,391.0,391.0,7.0,0.0,0.0,1.0
1000000.0,3.953125,9.375814503679673E-7,1000000.0,95.89999999999999,91.3380037690247,91.58110882956878,89.26701570680628,299700.0,1443584.0,0.0,1.0,0.0,?,0.0,0.0,638.0,435.0,435.0,7.0,0.0,0.0,1.0
1100000.0,4.34375,1.1217189603485167E-6,1100000.0,95.3,90.07098191651174,90.08438818565399,87.63157894736841,329400.0,1630984.0,0.0,1.0,0.0,?,0.0,0.0,735.0,503.0,503.0,7.0,0.0,0.0,1.0
1200000.0,4.75,1.333093742788252E-6,1200000.0,95.0,89.4719110587046,89.6694214876033,87.04663212435231,359400.0,1834640.0,0.0,1.0,0.0,?,0.0,0.0,823.0,565.0,565.0,7.0,0.0,0.0,1.0
1300000.0,5.140625,1.5489317916540637E-6,1300000.0,95.0,89.3669960062437,89.20086393088552,86.73740053050398,389400.0,1974064.0,0.0,1.0,0.0,?,0.0,0.0,895.0,616.0,616.0,7.0,0.0,0.0,1.0
1400000.0,5.53125,1.7751526320353152E-6,1400000.0,95.89999999999999,91.43291765571195,91.51138716356107,89.67254408060452,419400.0,2091536.0,0.0,1.0,0.0,?,0.0,0.0,948.0,650.0,650.0,7.0,0.0,0.0,1.0
1500000.0,5.96875,2.042850570028855E-6,1500000.0,97.0,93.65245946037442,93.73695198329854,92.14659685863874,449400.0,2232864.0,0.0,1.0,0.0,?,0.0,0.0,1000.0,685.0,685.0,7.0,0.0,0.0,1.0
1600000.0,6.484375,2.370646236360901E-6,1600000.0,95.5,90.62132668628546,90.44585987261145,88.66498740554155,479400.0,2339952.0,0.0,1.0,0.0,?,0.0,0.0,1058.0,726.0,726.0,7.0,0.0,0.0,1.0
1700000.0,7.0,2.7109018345880842E-6,1700000.0,96.8,93.08158967773178,93.3884297520661,91.03641456582632,509400.0,2448144.0,0.0,1.0,0.0,?,0.0,0.0,1113.0,761.0,761.0,7.0,0.0,0.0,1.0
1800000.0,7.53125,3.075002783185078E-6,1800000.0,96.8,93.31737857468038,92.99781181619255,91.8158567774936,539400.0,2561504.0,0.0,1.0,0.0,?,0.0,0.0,1169.0,801.0,801.0,7.0,0.0,0.0,1.0
1900000.0,8.015625,3.4128295697478786E-6,1900000.0,97.5,94.57135412142794,94.44444444444444,93.03621169916434,569400.0,2623200.0,0.0,1.0,0.0,?,0.0,0.0,1216.0,832.0,832.0,7.0,0.0,0.0,1.0
2000000.0,8.453125,3.7308806268912226E-6,2000000.0,97.3,94.36795994993741,94.50101832993889,93.25,599400.0,2752160.0,0.0,1.0,0.0,?,0.0,0.0,1279.0,877.0,877.0,8.0,0.0,0.0,1.0
2100000.0,8.875,4.062904400699255E-6,2100000.0,97.6,95.0207468879668,94.75982532751091,94.0,629100.0,2847008.0,0.0,1.0,0.0,?,0.0,0.0,1322.0,906.0,906.0,8.0,0.0,0.0,1.0
2200000.0,9.328125,4.430384012973971E-6,2200000.0,96.89999999999999,93.51681445541242,93.8,92.17171717171716,659100.0,2954520.0,0.0,1.0,0.0,?,0.0,0.0,1366.0,937.0,937.0,8.0,0.0,0.0,1.0
2300000.0,9.765625,4.7921503169669044E-6,2300000.0,96.39999999999999,92.09954572387912,91.66666666666666,89.56521739130434,689100.0,3030856.0,0.0,1.0,0.0,?,0.0,0.0,1420.0,970.0,970.0,8.0,0.0,0.0,1.0
2400000.0,10.203125,5.159635458969407E-6,2400000.0,97.0,93.56598723491867,93.43544857768052,91.75824175824175,719100.0,3096432.0,0.0,1.0,0.0,?,0.0,0.0,1464.0,1001.0,1001.0,8.0,0.0,0.0,1.0
2500000.0,10.640625,5.533227878105309E-6,2500000.0,96.5,92.45396921219438,92.45689655172413,90.43715846994535,749100.0,3165328.0,0.0,1.0,0.0,?,0.0,0.0,1495.0,1021.0,1021.0,8.0,0.0,0.0,1.0
2600000.0,11.140625,5.965202193086346E-6,2600000.0,96.1,91.69576697044543,92.00819672131146,89.40217391304347,779100.0,3219104.0,0.0,1.0,0.0,?,0.0,0.0,1529.0,1044.0,1044.0,8.0,0.0,0.0,1.0
2700000.0,11.734375,6.485114572569729E-6,2700000.0,97.1,93.76274336054784,93.68191721132897,91.98895027624309,809100.0,3279224.0,0.0,1.0,0.0,?,0.0,0.0,1561.0,1063.0,1063.0,8.0,0.0,0.0,1.0
2800000.0,12.3125,7.001204131585029E-6,2800000.0,97.7,95.14070818896306,95.03239740820733,94.01041666666666,839100.0,3360048.0,0.0,1.0,0.0,?,0.0,0.0,1588.0,1081.0,1081.0,8.0,0.0,0.0,1.0
2900000.0,12.90625,7.538252523065442E-6,2900000.0,97.2,94.06397340660085,94.0928270042194,92.59259259259258,869100.0,3420744.0,0.0,1.0,0.0,?,0.0,0.0,1634.0,1113.0,1113.0,8.0,0.0,0.0,1.0
3000000.0,13.453125,8.039418219899139E-6,3000000.0,96.2,91.92736326440433,91.81034482758619,89.92042440318302,899100.0,3481848.0,0.0,1.0,0.0,?,0.0,0.0,1682.0,1146.0,1146.0,8.0,0.0,0.0,1.0
3100000.0,13.921875,8.497543555373947E-6,3100000.0,96.89999999999999,93.21775809712169,93.14159292035397,91.21813031161471,928800.0,3579976.0,0.0,1.0,0.0,?,0.0,0.0,1713.0,1166.0,1166.0,8.0,0.0,0.0,1.0
3200000.0,14.375,8.9469616391903E-6,3200000.0,97.3,94.24964219995911,94.02654867256636,92.74193548387096,958800.0,3650888.0,0.0,1.0,0.0,?,0.0,0.0,1741.0,1183.0,1183.0,8.0,0.0,0.0,1.0
3300000.0,14.828125,9.398163399762578E-6,3300000.0,97.0,93.56502117108035,93.67088607594937,91.91374663072776,988800.0,3681152.0,0.0,1.0,0.0,?,0.0,0.0,1762.0,1195.0,1195.0,8.0,0.0,0.0,1.0
3400000.0,15.359375,9.930745064694848E-6,3400000.0,97.5,94.60397492790909,94.73684210526315,93.0747922437673,1018800.0,3722264.0,0.0,1.0,0.0,?,0.0,0.0,1783.0,1207.0,1207.0,8.0,3032.634390651085,0.0,1.0192012542470663
3500000.0,15.8125,1.0384345692323728E-5,3500000.0,96.7,92.97124600638978,92.63392857142856,91.26984126984127,1048800.0,3731744.0,0.0,1.0,0.0,?,0.0,0.0,1797.0,1214.0,1214.0,9.0,3032.634390651085,0.0,1.0192012542470663
3600000.0,16.265625,1.0844144174673905E-5,3600000.0,97.6,94.80456505550457,94.90445859872611,93.29608938547486,1078800.0,3799592.0,0.0,1.0,0.0,?,0.0,0.0,1829.0,1236.0,1236.0,9.0,3032.634390651085,0.0,1.0192012542470663
3700000.0,16.71875,1.1304232434162663E-5,3700000.0,97.8,95.23727052303428,95.1111111111111,93.88888888888889,1108800.0,3817128.0,0.0,1.0,0.0,?,0.0,0.0,1843.0,1243.0,1243.0,9.0,3032.634390651085,0.0,1.0192012542470663
3800000.0,17.171875,1.1768134685957597E-5,3800000.0,97.7,95.13112102762983,95.13742071881607,93.99477806788511,1138800.0,3864784.0,0.0,1.0,0.0,?,0.0,0.0,1881.0,1271.0,1271.0,9.0,3032.634390651085,0.0,1.0192012542470663
3900000.0,17.640625,1.2252078029430575E-5,3900000.0,96.89999999999999,93.47588180823301,93.37606837606836,91.94805194805194,1168800.0,3913232.0,0.0,1.0,0.0,?,0.0,0.0,1914.0,1295.0,1295.0,9.0,3032.634390651085,0.0,1.0192012542470663
4000000.0,18.28125,1.2924723657003294E-5,4000000.0,97.6,94.9270338366843,94.78260869565217,93.78238341968913,1198800.0,3996072.0,0.0,1.0,0.0,?,0.0,0.0,1948.0,1318.0,1318.0,9.0,3032.634390651085,0.0,1.0192012542470663
4100000.0,18.921875,1.3635843869350438E-5,4100000.0,97.39999999999999,94.48217317487266,94.38444924406046,93.1578947368421,1228500.0,4090888.0,0.0,1.0,0.0,?,0.0,0.0,1981.0,1339.0,1339.0,9.0,3032.634390651085,0.0,1.0192012542470663
4200000.0,19.515625,1.4298394962679596E-5,4200000.0,97.6,94.77909025647719,94.9260042283298,93.2394366197183,1258500.0,4128488.0,0.0,1.0,0.0,?,0.0,0.0,2005.0,1354.0,1354.0,9.0,3032.634390651085,0.0,1.0192012542470663
4300000.0,20.078125,1.4929885219316932E-5,4300000.0,97.89999999999999,95.61575655340008,95.65217391304347,94.72361809045225,1288500.0,4169728.0,0.0,1.0,0.0,?,0.0,0.0,2034.0,1373.0,1373.0,10.0,3032.634390651085,0.0,1.0192012542470663
4400000.0,20.5625,1.547727536591184E-5,4400000.0,97.7,94.98105895291796,95.25773195876288,93.46590909090908,1318500.0,4213496.0,0.0,1.0,0.0,?,0.0,0.0,2070.0,1394.0,1394.0,10.0,3032.634390651085,0.0,1.0192012542470663
4500000.0,21.046875,1.6027607748077976E-5,4500000.0,97.7,95.11145874071177,95.18828451882845,93.88297872340425,1348500.0,4251976.0,0.0,1.0,0.0,?,0.0,0.0,2084.0,1401.0,1401.0,10.0,3032.634390651085,0.0,1.0192012542470663
4600000.0,21.53125,1.6577398798997617E-5,4600000.0,97.89999999999999,95.51278216053129,95.49356223175965,94.38502673796792,1378500.0,4262808.0,0.0,1.0,0.0,?,0.0,0.0,2088.0,1403.0,1403.0,10.0,3032.634390651085,0.0,1.0192012542470663
4700000.0,22.015625,1.7127514648665156E-5,4700000.0,97.0,93.4896963594382,93.19727891156462,91.62011173184356,1408500.0,4280496.0,0.0,1.0,0.0,?,0.0,0.0,2098.0,1408.0,1408.0,10.0,3032.634390651085,0.0,1.0192012542470663
4800000.0,22.484375,1.7662254847689634E-5,4800000.0,98.1,95.9615711613671,96.04989604989605,94.9602122015915,1438500.0,4315120.0,0.0,1.0,0.0,?,0.0,0.0,2129.0,1428.0,1428.0,10.0,3032.634390651085,0.0,1.0192012542470663
4900000.0,23.03125,1.829099201131612E-5,4900000.0,98.1,95.88420313840341,95.8963282937365,94.7513812154696,1468500.0,4364568.0,0.0,1.0,0.0,?,0.0,0.0,2153.0,1443.0,1443.0,10.0,3032.634390651085,0.0,1.0192012542470663
5000000.0,23.6875,1.906010826739172E-5,5000000.0,98.4,96.5237795207161,96.59574468085106,95.49295774647887,1498500.0,4463448.0,0.0,1.0,0.0,?,0.0,0.0,2213.0,1485.0,1485.0,10.0,3032.634390651085,0.0,1.0192012542470663
5100000.0,24.5,1.9132751428211726E-5,5100000.0,76.9,54.42888143618071,53.23886639676114,49.118942731277535,28981.0,156528.0,0.0,1.0,0.0,?,1.0,15.0,67.0,52.0,52.0,4.0,0.0,0.0,1.0
5200000.0,25.015625,1.9217727822251617E-5,5200000.0,89.1,78.04738542346392,77.80040733197556,77.19665271966527,58981.0,462152.0,0.0,1.0,0.0,?,0.0,0.0,189.0,137.0,137.0,5.0,0.0,0.0,1.0
5300000.0,25.390625,1.929000155845036E-5,5300000.0,92.7,85.25204855106429,85.22267206477734,83.99122807017545,88981.0,584832.0,0.0,1.0,0.0,?,0.0,0.0,257.0,180.0,180.0,5.0,0.0,0.0,1.0
5400000.0,25.78125,1.9378865254111588E-5,5400000.0,93.10000000000001,85.98984771573606,85.88957055214725,84.66666666666669,118981.0,733912.0,0.0,1.0,0.0,?,0.0,0.0,337.0,235.0,235.0,6.0,0.0,0.0,1.0
5500000.0,26.125,1.9465219682186014E-5,5500000.0,94.8,89.4702737728819,89.38775510204081,88.59649122807016,148981.0,840304.0,0.0,1.0,0.0,?,0.0,0.0,392.0,267.0,267.0,8.0,0.0,0.0,1.0
5600000.0,26.46875,1.955588820338663E-5,5600000.0,95.19999999999999,90.30788614996929,89.93710691823898,89.6551724137931,178981.0,903704.0,0.0,1.0,0.0,?,0.0,0.0,432.0,290.0,290.0,8.0,0.0,0.0,1.0
5700000.0,26.8125,1.9648880956487523E-5,5700000.0,94.89999999999999,89.62495219340715,89.39708939708939,88.48758465011286,208981.0,944776.0,0.0,1.0,0.0,?,0.0,0.0,458.0,303.0,303.0,9.0,0.0,0.0,1.0
5800000.0,27.15625,1.9745132045095993E-5,5800000.0,94.89999999999999,89.67820279295688,89.5277207392197,88.66666666666666,238981.0,996400.0,0.0,1.0,0.0,?,0.0,0.0,497.0,327.0,327.0,9.0,0.0,0.0,1.0
5900000.0,27.5,1.984401897061616E-5,5900000.0,95.8,91.56138489728998,91.76470588235294,91.13924050632912,268981.0,1041008.0,0.0,1.0,0.0,?,0.0,0.0,522.0,341.0,341.0,9.0,0.0,0.0,1.0
6000000.0,27.828125,1.9941573555115607E-5,6000000.0,97.1,94.15256561224655,94.04517453798768,93.70932754880693,298981.0,1093232.0,0.0,1.0,0.0,?,0.0,0.0,550.0,358.0,358.0,10.0,0.0,0.0,1.0
6100000.0,28.234375,2.008393817555366E-5,6100000.0,97.5,94.9357447291231,95.0,94.41964285714285,328681.0,1161336.0,0.0,1.0,0.0,?,0.0,0.0,591.0,383.0,383.0,10.0,0.0,0.0,1.0
6200000.0,28.703125,2.0253765817162473E-5,6200000.0,96.3,92.52766782454157,92.11087420042642,91.8859649122807,358681.0,1222120.0,0.0,1.0,0.0,?,0.0,0.0,654.0,422.0,422.0,10.0,0.0,0.0,1.0
6300000.0,29.15625,2.042151958448812E-5,6300000.0,97.3,94.58930847354372,94.42148760330578,94.38669438669439,388681.0,1267648.0,0.0,1.0,0.0,?,0.0,0.0,678.0,434.0,434.0,10.0,0.0,0.0,1.0
6400000.0,29.625,2.0598339906428004E-5,6400000.0,97.8,95.59222468434318,95.66074950690336,95.40709812108558,418681.0,1309712.0,0.0,1.0,0.0,?,0.0,0.0,695.0,444.0,444.0,10.0,0.0,0.0,1.0
6500000.0,30.078125,2.0770279968726546E-5,6500000.0,97.6,95.18027769633339,95.2286282306163,94.86081370449678,448681.0,1333400.0,0.0,1.0,0.0,?,0.0,0.0,711.0,452.0,452.0,10.0,0.0,0.0,1.0
6600000.0,30.53125,2.0943622965003462E-5,6600000.0,97.2,94.31820487741527,94.39999999999999,93.65079365079364,478681.0,1360432.0,0.0,1.0,0.0,?,0.0,0.0,728.0,462.0,462.0,10.0,0.0,0.0,1.0
6700000.0,30.984375,2.1117333574996636E-5,6700000.0,98.0,95.98917076105484,95.92668024439918,95.78947368421052,508681.0,1378616.0,0.0,1.0,0.0,?,0.0,0.0,746.0,471.0,471.0,10.0,0.0,0.0,1.0
6800000.0,31.4375,2.1292806292573607E-5,6800000.0,97.7,95.37692159259021,95.43650793650794,95.08547008547008,538681.0,1408672.0,0.0,1.0,0.0,?,0.0,0.0,769.0,484.0,484.0,11.0,0.0,0.0,1.0
6900000.0,31.875,2.1461898642074725E-5,6900000.0,97.7,95.37148836834902,95.41832669322709,95.05376344086021,568681.0,1420904.0,0.0,1.0,0.0,?,0.0,0.0,782.0,492.0,492.0,11.0,0.0,0.0,1.0
7000000.0,32.296875,2.162815456459712E-5,7000000.0,97.1,94.19051892688867,94.03292181069959,93.99585921325051,598681.0,1465312.0,0.0,1.0,0.0,?,0.0,0.0,805.0,508.0,508.0,11.0,0.0,0.0,1.0
7100000.0,32.640625,2.177821229755257E-5,7100000.0,97.8,95.55914412595882,95.60878243512974,95.15418502202643,628381.0,1492312.0,0.0,1.0,0.0,?,0.0,0.0,820.0,517.0,517.0,11.0,0.0,0.0,1.0
7200000.0,32.984375,2.192959755322792E-5,7200000.0,97.5,94.95165706808397,95.04950495049505,94.5414847161572,658381.0,1522320.0,0.0,1.0,0.0,?,0.0,0.0,833.0,525.0,525.0,11.0,0.0,0.0,1.0
7300000.0,33.3125,2.2074147159906306E-5,7300000.0,97.39999999999999,94.7577263049229,94.46808510638297,94.32314410480349,688381.0,1538000.0,0.0,1.0,0.0,?,0.0,0.0,842.0,531.0,531.0,11.0,0.0,0.0,1.0
7400000.0,33.671875,2.2231889953319393E-5,7400000.0,97.89999999999999,95.74174710033255,95.68788501026694,95.25959367945823,718381.0,1546976.0,0.0,1.0,0.0,?,0.0,0.0,848.0,534.0,534.0,11.0,0.0,0.0,1.0
7500000.0,34.015625,2.23818203408478E-5,7500000.0,98.5,96.96407898252119,97.0059880239521,96.65924276169264,748381.0,1551384.0,0.0,1.0,0.0,?,0.0,0.0,860.0,540.0,540.0,11.0,0.0,0.0,1.0
7600000.0,34.328125,2.251867366592503E-5,7600000.0,98.5,96.98829047336042,97.07602339181285,96.82875264270614,778381.0,1573344.0,0.0,1.0,0.0,?,0.0,0.0,867.0,545.0,545.0,11.0,0.0,0.0,1.0
7700000.0,34.671875,2.266849662798146E-5,7700000.0,97.5,94.97527836957832,95.04950495049505,94.68085106382979,808381.0,1580472.0,0.0,1.0,0.0,?,0.0,0.0,869.0,546.0,546.0,11.0,0.0,0.0,1.0
7800000.0,35.0,2.281034006349121E-5,7800000.0,98.0,95.9870783924236,95.91836734693877,95.80712788259957,838381.0,1581872.0,0.0,1.0,0.0,?,0.0,0.0,875.0,549.0,549.0,11.0,0.0,0.0,1.0
7900000.0,35.34375,2.2958244307018398E-5,7900000.0,96.89999999999999,93.77039692619327,93.58178053830227,93.446088794926,868381.0,1589224.0,0.0,1.0,0.0,?,0.0,0.0,879.0,551.0,551.0,11.0,0.0,0.0,1.0
8000000.0,35.671875,2.3100252761246838E-5,8000000.0,97.39999999999999,94.751821723421,94.65020576131687,94.28571428571428,898381.0,1614072.0,0.0,1.0,0.0,?,0.0,0.0,890.0,558.0,558.0,11.0,0.0,0.0,1.0
8100000.0,36.015625,2.3261894659501393E-5,8100000.0,98.6,97.18206667230254,97.13701431492842,96.97624190064793,928081.0,1621800.0,0.0,1.0,0.0,?,0.0,0.0,896.0,561.0,561.0,11.0,0.0,0.0,1.0
8200000.0,36.359375,2.3422798807991457E-5,8200000.0,98.2,96.38634036658569,96.53846153846153,96.19450317124736,958081.0,1628640.0,0.0,1.0,0.0,?,0.0,0.0,904.0,565.0,565.0,11.0,0.0,0.0,1.0
8300000.0,36.6875,2.3575405131042412E-5,8300000.0,97.1,94.19874692933674,94.23459244532802,94.15322580645162,988081.0,1632200.0,0.0,1.0,0.0,?,0.0,0.0,912.0,569.0,569.0,11.0,0.0,0.0,1.0
8400000.0,37.0625,2.3748453402529568E-5,8400000.0,98.5,96.97275479313824,96.93877551020408,96.7032967032967,1018081.0,1633376.0,0.0,1.0,0.0,?,0.0,0.0,916.0,571.0,571.0,11.0,2794.3057996485063,0.0,1.0269491056378777
8500000.0,37.390625,2.3900166043959965E-5,8500000.0,98.1,96.16270145817344,96.18473895582329,95.8963282937365,1048081.0,1651984.0,0.0,1.0,0.0,?,0.0,0.0,925.0,577.0,577.0,11.0,2794.3057996485063,0.0,1.0269491056378777
8600000.0,37.71875,2.4051325906637222E-5,8600000.0,98.2,96.36387142649365,96.50485436893203,96.0352422907489,1078081.0,1660624.0,0.0,1.0,0.0,?,0.0,0.0,929.0,579.0,579.0,11.0,2794.3057996485063,0.0,1.0269491056378777
8700000.0,38.0625,2.4208384792372166E-5,8700000.0,98.9,97.77750838485473,97.86821705426357,97.5770925110132,1108081.0,1661216.0,0.0,1.0,0.0,?,0.0,0.0,929.0,579.0,579.0,11.0,2794.3057996485063,0.0,1.0269491056378777
8800000.0,38.46875,2.439365175733756E-5,8800000.0,98.8,97.57681496559077,97.45762711864407,97.3568281938326,1138081.0,1673032.0,0.0,1.0,0.0,?,0.0,0.0,935.0,582.0,582.0,11.0,2794.3057996485063,0.0,1.0269491056378777
8900000.0,38.90625,2.459151667102964E-5,8900000.0,98.5,96.96031385772648,96.9758064516129,96.65924276169264,1168081.0,1673624.0,0.0,1.0,0.0,?,0.0,0.0,935.0,582.0,582.0,11.0,2794.3057996485063,0.0,1.0269491056378777
9000000.0,39.34375,2.4787868573589037E-5,9000000.0,98.0,95.93396763438237,96.03174603174602,95.47511312217193,1198081.0,1675448.0,0.0,1.0,0.0,?,0.0,0.0,937.0,583.0,583.0,11.0,2794.3057996485063,0.0,1.0269491056378777
9100000.0,39.78125,2.4999413063697923E-5,9100000.0,98.6,97.19741040721627,97.29206963249516,97.13701431492842,1227781.0,1672744.0,0.0,1.0,0.0,?,0.0,0.0,948.0,590.0,590.0,11.0,2794.3057996485063,0.0,1.0269491056378777
9200000.0,40.234375,2.521803819238104E-5,9200000.0,98.3,96.57669413366196,96.55172413793103,96.32829373650108,1257781.0,1683832.0,0.0,1.0,0.0,?,0.0,0.0,952.0,592.0,592.0,11.0,2794.3057996485063,0.0,1.0269491056378777
9300000.0,40.671875,2.542791755533673E-5,9300000.0,98.2,96.37796353011723,96.42147117296223,96.09544468546638,1287781.0,1688328.0,0.0,1.0,0.0,?,0.0,0.0,958.0,595.0,595.0,11.0,2794.3057996485063,0.0,1.0269491056378777
9400000.0,41.109375,2.5636662386306036E-5,9400000.0,98.1,96.16570607513601,96.10655737704917,95.84245076586433,1317781.0,1693480.0,0.0,1.0,0.0,?,0.0,0.0,960.0,596.0,596.0,11.0,2794.3057996485063,0.0,1.0269491056378777
9500000.0,41.484375,2.5815141044505346E-5,9500000.0,98.9,97.75016157930476,97.81746031746032,97.43589743589743,1347781.0,1704016.0,0.0,1.0,0.0,?,0.0,0.0,966.0,599.0,599.0,11.0,2794.3057996485063,0.0,1.0269491056378777
9600000.0,41.828125,2.597838507628895E-5,9600000.0,98.1,96.1887797676359,96.31067961165049,96.0167714884696,1377781.0,1715088.0,0.0,1.0,0.0,?,0.0,0.0,970.0,601.0,601.0,11.0,2794.3057996485063,0.0,1.0269491056378777
9700000.0,42.15625,2.6133334257691674E-5,9700000.0,97.7,95.37877935479723,95.28688524590163,95.11677282377919,1407781.0,1719960.0,0.0,1.0,0.0,?,0.0,0.0,972.0,602.0,602.0,11.0,2794.3057996485063,0.0,1.0269491056378777
9800000.0,42.5,2.629430954887841E-5,9800000.0,97.89999999999999,95.78759869054497,95.78313253012047,95.59748427672956,1437781.0,1719936.0,0.0,1.0,0.0,?,0.0,0.0,976.0,604.0,604.0,11.0,2794.3057996485063,0.0,1.0269491056378777
9900000.0,42.828125,2.64473640709184E-5,9900000.0,98.1,96.18093522866148,96.2,95.94017094017093,1467781.0,1727984.0,0.0,1.0,0.0,?,0.0,0.0,978.0,605.0,605.0,11.0,2794.3057996485063,0.0,1.0269491056378777
1.0E7,43.171875,2.6606937139553732E-5,1.0E7,97.5,94.9401316375353,95.07874015748031,94.43207126948775,1497781.0,1734480.0,0.0,1.0,0.0,?,0.0,0.0,982.0,607.0,607.0,11.0,2794.3057996485063,0.0,1.0269491056378777
