learning evaluation instances,evaluation time (cpu seconds),model cost (RAM-Hours),classified instances,classifications correct (percent),Kappa Statistic (percent),Kappa Temporal Statistic (percent),Kappa M Statistic (percent),model training instances,model serialized size (bytes),labeling cost,newThreshold,maxPosterior,accuracyBaseLearner (percent),Change detected,Warning detected
100000.0,0.21875,5.705708948274453E-9,100000.0,87.5,73.97373220844334,74.06639004149378,69.28746928746929,9900.0,1112.0,0.0,1.0,0.0,?,0.0,7.0
200000.0,0.453125,1.1236891926576695E-8,200000.0,88.6,76.81418808981452,76.15062761506276,74.55357142857143,19900.0,1112.0,0.0,1.0,0.0,?,0.0,0.0
300000.0,0.6875,1.6185998295744263E-8,300000.0,86.6,72.03672787979967,73.4126984126984,68.0952380952381,29900.0,1112.0,0.0,1.0,0.0,?,0.0,0.0
400000.0,0.921875,2.0553028055777154E-8,400000.0,85.39999999999999,69.92134224980119,71.37254901960785,66.28175519630484,39900.0,1112.0,0.0,1.0,0.0,?,0.0,0.0
500000.0,1.140625,2.408565099661549E-8,500000.0,87.3,73.55709169651037,73.65145228215766,69.39759036144578,49900.0,1112.0,0.0,1.0,0.0,?,0.0,0.0
600000.0,1.375,2.7288527538379033E-8,600000.0,86.7,72.49906951738969,72.57731958762886,69.06976744186046,59900.0,1112.0,0.0,1.0,0.0,?,0.0,0.0
700000.0,1.609375,2.9909327471007905E-8,700000.0,88.2,75.03512008530373,74.17943107221006,70.35175879396985,69900.0,1112.0,0.0,1.0,0.0,?,0.0,0.0
800000.0,1.84375,3.19480507945021E-8,800000.0,86.3,71.52974621989841,70.91295116772824,67.84037558685446,79900.0,1112.0,0.0,1.0,0.0,?,0.0,0.0
900000.0,2.078125,3.340469750886162E-8,900000.0,87.6,74.08080934763069,75.1004016064257,70.12048192771084,89900.0,1112.0,0.0,1.0,0.0,?,0.0,0.0
1000000.0,2.28125,3.4162658266723154E-8,1000000.0,87.6,73.87581743409964,74.48559670781893,69.30693069306932,99900.0,1112.0,0.0,1.0,0.0,?,0.0,0.0
1100000.0,2.515625,4.0281738620251415E-8,1100000.0,88.5,76.42978946678035,78.05343511450383,73.6842105263158,109800.0,1112.0,0.0,1.0,0.0,?,0.0,0.0
1200000.0,2.734375,4.544960878168543E-8,1200000.0,88.5,76.40541649569143,75.32188841201717,73.86363636363636,119800.0,1112.0,0.0,1.0,0.0,?,0.0,0.0
1300000.0,2.96875,5.040453591694434E-8,1300000.0,89.0,77.25289405225217,77.50511247443764,74.47795823665894,129800.0,1112.0,0.0,1.0,0.0,?,0.0,0.0
1400000.0,3.1875,5.44858630746603E-8,1400000.0,87.2,73.71879106438897,73.22175732217573,70.9090909090909,139800.0,1112.0,0.0,1.0,0.0,?,0.0,0.0
1500000.0,3.421875,5.827663699164986E-8,1500000.0,87.6,74.01073105298457,74.3801652892562,69.90291262135922,149800.0,1112.0,0.0,1.0,0.0,?,0.0,0.0
1600000.0,3.65625,6.148533429950475E-8,1600000.0,87.9,74.52610127243176,75.05154639175258,70.19704433497537,159800.0,1112.0,0.0,1.0,0.0,?,0.0,4.0
1700000.0,3.84375,6.358663085848092E-8,1700000.0,86.9,73.23340471092077,74.21259842519686,70.95343680709534,169800.0,1112.0,0.0,1.0,0.0,?,0.0,36.0
1800000.0,4.078125,6.562389899045228E-8,1800000.0,86.9,72.64221869518002,71.88841201716738,67.8921568627451,179800.0,1112.0,0.0,1.0,0.0,?,0.0,61.0
1900000.0,4.3125,6.708636647090315E-8,1900000.0,87.6,74.22466117901388,74.27385892116183,70.04830917874396,189800.0,1112.0,0.0,1.0,0.0,?,0.0,28.0
2000000.0,4.53125,6.790806461746493E-8,2000000.0,86.3,70.48940203343098,68.86363636363636,63.94736842105263,199800.0,1112.0,0.0,1.0,0.0,?,0.0,29.0
2100000.0,4.75,7.362463899577656E-8,2100000.0,88.4,76.21000820344544,77.60617760617761,73.51598173515981,209700.0,1112.0,0.0,1.0,0.0,?,0.0,10.0
2200000.0,4.984375,7.916746350626149E-8,2200000.0,87.6,73.62274570199659,73.2181425485961,69.07730673316709,219700.0,1112.0,0.0,1.0,0.0,?,0.0,25.0
2300000.0,5.1875,8.346677835409838E-8,2300000.0,85.1,69.25502236748709,68.02575107296137,65.50925925925925,229700.0,1112.0,0.0,1.0,0.0,?,0.0,11.0
2400000.0,5.421875,8.784544964631396E-8,2400000.0,87.3,72.94533679860253,73.65145228215766,67.43589743589745,239700.0,1112.0,0.0,1.0,0.0,?,0.0,0.0
2500000.0,5.65625,9.164204432939487E-8,2500000.0,86.3,70.97359232516357,72.43460764587525,65.4911838790932,249700.0,1112.0,0.0,1.0,0.0,?,0.0,0.0
2600000.0,5.875,9.464226119841136E-8,2600000.0,87.5,74.658806166222,74.9498997995992,73.17596566523605,259700.0,1112.0,0.0,1.0,0.0,?,0.0,0.0
2700000.0,6.09375,9.709920656556882E-8,2700000.0,89.3,77.85596026490067,79.69639468690703,74.52380952380952,269700.0,1112.0,0.0,1.0,0.0,?,0.0,0.0
2800000.0,6.328125,9.91495714212457E-8,2800000.0,88.4,74.8752425838647,75.0,68.98395721925134,279700.0,1112.0,0.0,1.0,0.0,?,0.0,0.0
2900000.0,6.546875,1.005199737846851E-7,2900000.0,87.0,72.82665496122573,72.86012526096033,68.67469879518072,289700.0,1112.0,0.0,1.0,0.0,?,0.0,0.0
3000000.0,6.78125,1.0140618542209264E-7,3000000.0,87.4,74.1892135494338,75.72254335260115,71.49321266968326,299700.0,1112.0,0.0,1.0,0.0,?,0.0,0.0
3100000.0,7.0,1.0712819251542286E-7,3100000.0,87.0,73.16799313100624,72.57383966244726,69.33962264150944,309600.0,1112.0,0.0,1.0,0.0,?,0.0,0.0
3200000.0,7.21875,1.1230692810689405E-7,3200000.0,86.0,71.14794099341762,72.0,67.51740139211137,319600.0,1112.0,0.0,1.0,0.0,?,0.0,0.0
3300000.0,7.453125,1.1727349677433566E-7,3300000.0,86.8,72.40387349266612,73.22515212981745,68.11594202898551,329600.0,1112.0,0.0,1.0,0.0,?,0.0,0.0
3400000.0,7.671875,1.213656893620888E-7,3400000.0,88.2,75.30595503172557,76.49402390438247,72.03791469194313,339600.0,1112.0,0.0,1.0,0.0,?,0.0,0.0
3500000.0,7.90625,1.2516810481126106E-7,3500000.0,86.3,71.08362531132593,70.28199566160521,66.17283950617285,349600.0,1112.0,0.0,1.0,0.0,?,0.0,0.0
3600000.0,8.125,1.2817375439529614E-7,3600000.0,86.5,72.17825699871402,72.61663286004057,68.53146853146853,359600.0,1112.0,0.0,1.0,0.0,?,0.0,0.0
3700000.0,8.359375,1.3081201662619904E-7,3700000.0,87.1,72.44767193507047,73.23651452282157,67.75,369600.0,1112.0,0.0,1.0,0.0,?,0.0,34.0
3800000.0,8.578125,1.3273112320651605E-7,3800000.0,88.6,76.54176183715045,77.15430861723446,74.03189066059225,379600.0,1112.0,0.0,1.0,0.0,?,0.0,26.0
3900000.0,8.8125,1.342052322191496E-7,3900000.0,88.3,75.6495533670216,76.73956262425448,72.00956937799043,389600.0,1112.0,0.0,1.0,0.0,?,0.0,17.0
4000000.0,9.015625,1.3497832696884864E-7,4000000.0,86.6,72.32765706119719,72.37113402061856,68.76456876456876,399600.0,1112.0,0.0,1.0,0.0,?,0.0,0.0
4100000.0,9.25,1.4111486962065096E-7,4100000.0,85.7,70.54752764001252,70.63655030800821,66.97459584295612,409500.0,1112.0,0.0,1.0,0.0,?,0.0,0.0
4200000.0,9.46875,1.4629903792714075E-7,4200000.0,86.3,71.6132775268327,71.98364008179959,67.45843230403801,419500.0,1112.0,0.0,1.0,0.0,?,0.0,0.0
4300000.0,9.703125,1.5127142736067372E-7,4300000.0,85.6,70.12931517306328,71.0261569416499,65.13317191283294,429500.0,1112.0,0.0,1.0,0.0,?,0.0,0.0
4400000.0,9.9375,1.55661740185072E-7,4400000.0,86.8,72.61183500705452,73.27935222672065,68.42105263157895,439500.0,1112.0,0.0,1.0,0.0,?,0.0,12.0
4500000.0,10.15625,1.592160939859847E-7,4500000.0,87.3,73.73471650038881,73.7603305785124,70.3962703962704,449500.0,1112.0,0.0,1.0,0.0,?,0.0,13.0
4600000.0,10.359375,1.620120989779631E-7,4600000.0,86.5,72.24141334386103,73.05389221556887,69.24829157175398,459500.0,1112.0,0.0,1.0,0.0,?,0.0,0.0
4700000.0,10.59375,1.646489060173432E-7,4700000.0,87.7,74.2255079460873,75.92954990215264,70.07299270072993,469500.0,1112.0,0.0,1.0,0.0,?,0.0,16.0
4800000.0,10.828125,1.667109124052028E-7,4800000.0,88.3,75.72976650790754,76.41129032258065,71.94244604316548,479500.0,1112.0,0.0,1.0,0.0,?,0.0,9.0
4900000.0,11.0625,1.681908421839277E-7,4900000.0,88.8,76.95473251028807,78.42003853564547,73.95348837209302,489500.0,1112.0,0.0,1.0,0.0,?,0.0,0.0
5000000.0,11.28125,1.6907139474319088E-7,5000000.0,88.1,75.37801981345228,75.15657620041753,71.80094786729858,499500.0,1112.0,0.0,1.0,0.0,?,0.0,1.0
5100000.0,11.5,1.748468235342039E-7,5100000.0,88.0,68.82274692384436,70.58823529411765,57.446808510638306,4831.0,1112.0,0.0,1.0,0.0,?,2.0,6.0
5200000.0,11.75,1.8082643186466561E-7,5200000.0,89.2,72.67607486755487,74.40758293838863,63.139931740614344,14831.0,1112.0,0.0,1.0,0.0,?,0.0,0.0
5300000.0,11.96875,1.855053576744265E-7,5300000.0,87.8,69.1919191919192,71.56177156177156,59.333333333333336,24831.0,1112.0,0.0,1.0,0.0,?,0.0,20.0
5400000.0,12.21875,1.9023181974060004E-7,5400000.0,84.6,60.21802588411562,63.33333333333333,46.34146341463414,34831.0,1112.0,0.0,1.0,0.0,?,0.0,0.0
5500000.0,12.4375,1.9382420254664287E-7,5500000.0,87.7,68.85508244540777,70.85308056872039,59.13621262458473,44831.0,1112.0,0.0,1.0,0.0,?,0.0,0.0
5600000.0,12.671875,1.9709110751541123E-7,5600000.0,86.2,64.19583322522897,67.98143851508121,53.84615384615385,54831.0,1112.0,0.0,1.0,0.0,?,0.0,0.0
5700000.0,12.90625,1.9977593587504491E-7,5700000.0,87.8,68.1235760122071,68.63753213367609,57.34265734265735,64831.0,1112.0,0.0,1.0,0.0,?,0.0,0.0
5800000.0,13.125,2.0173850417551066E-7,5800000.0,87.1,65.96449754100091,66.58031088082902,55.052264808362374,74831.0,1112.0,0.0,1.0,0.0,?,0.0,0.0
5900000.0,13.34375,2.0315780097411736E-7,5900000.0,86.8,65.46870994239555,68.11594202898551,54.325259515570934,84831.0,1112.0,0.0,1.0,0.0,?,0.0,0.0
6000000.0,13.578125,2.0409639950634703E-7,6000000.0,87.3,65.3762268266085,67.09844559585493,53.81818181818182,94831.0,1112.0,0.0,1.0,0.0,?,0.0,0.0
6100000.0,13.8125,2.102795082868801E-7,6100000.0,86.4,66.92478306548891,70.4989154013015,57.23270440251571,104731.0,1112.0,0.0,1.0,0.0,?,0.0,0.0
6200000.0,14.046875,2.158805404582785E-7,6200000.0,88.8,70.75412575725925,72.6829268292683,60.00000000000001,114731.0,1112.0,0.0,1.0,0.0,?,0.0,0.0
6300000.0,14.265625,2.2056489898305796E-7,6300000.0,90.2,74.67556295189908,76.66666666666667,66.5529010238908,124731.0,1112.0,0.0,1.0,0.0,?,0.0,0.0
6400000.0,14.5,2.25001777936187E-7,6400000.0,87.5,69.24969249692496,69.51219512195122,60.06389776357827,134731.0,1112.0,0.0,1.0,0.0,?,0.0,0.0
6500000.0,14.734375,2.2885658028018138E-7,6500000.0,87.8,68.31892969918565,69.42355889724311,57.04225352112676,144731.0,1112.0,0.0,1.0,0.0,?,0.0,0.0
6600000.0,14.96875,2.3212930601504108E-7,6600000.0,87.9,68.52073468963006,71.1217183770883,58.98305084745763,154731.0,1112.0,0.0,1.0,0.0,?,0.0,0.0
6700000.0,15.1875,2.346505385099185E-7,6700000.0,86.5,65.53907103546159,67.3913043478261,55.88235294117647,164731.0,1112.0,0.0,1.0,0.0,?,0.0,65.0
6800000.0,15.421875,2.3676978243100967E-7,6800000.0,87.1,66.48201461280232,67.91044776119402,54.89510489510489,174731.0,1112.0,0.0,1.0,0.0,?,0.0,12.0
6900000.0,15.65625,2.3830694974296615E-7,6900000.0,86.9,66.67243326854387,69.39252336448598,56.18729096989967,184731.0,1112.0,0.0,1.0,0.0,?,0.0,26.0
7000000.0,15.875,2.391983677322665E-7,7000000.0,87.2,64.47286615152322,65.4054054054054,51.515151515151516,194731.0,1112.0,0.0,1.0,0.0,?,0.0,0.0
7100000.0,16.109375,2.4539796868339174E-7,7100000.0,88.5,71.1712976425642,72.74881516587678,61.79401993355482,204631.0,1112.0,0.0,1.0,0.0,?,0.0,16.0
7200000.0,16.34375,2.510154930253823E-7,7200000.0,88.3,68.38282187368262,70.96774193548387,58.06451612903226,214631.0,1112.0,0.0,1.0,0.0,?,0.0,58.0
7300000.0,16.5625,2.5571524424271445E-7,7300000.0,86.3,65.88475521689328,67.38095238095238,55.80645161290323,224631.0,1112.0,0.0,1.0,0.0,?,0.0,22.0
7400000.0,16.796875,2.6016861536643565E-7,7400000.0,87.3,66.32407377944654,65.67567567567568,54.48028673835126,234631.0,1112.0,0.0,1.0,0.0,?,0.0,0.0
7500000.0,17.015625,2.6378182358004974E-7,7500000.0,87.5,67.21638236713456,70.23809523809524,57.04467353951891,244631.0,1112.0,0.0,1.0,0.0,?,0.0,0.0
7600000.0,17.25,2.670710414855016E-7,7600000.0,86.3,66.57721395462308,67.68867924528303,58.48484848484847,254631.0,1112.0,0.0,1.0,0.0,?,0.0,0.0
7700000.0,17.484375,2.6977818278181876E-7,7700000.0,88.8,71.7741935483871,74.6606334841629,62.66666666666667,264631.0,1112.0,0.0,1.0,0.0,?,0.0,0.0
7800000.0,17.703125,2.7176157648985577E-7,7800000.0,88.2,67.29490022172949,70.20202020202021,55.97014925373135,274631.0,1112.0,0.0,1.0,0.0,?,0.0,8.0
7900000.0,17.9375,2.733045645679036E-7,7900000.0,86.9,66.11800246226426,67.8921568627451,56.18729096989967,284631.0,1112.0,0.0,1.0,0.0,?,0.0,0.0
8000000.0,18.15625,2.742014152722225E-7,8000000.0,86.8,66.47891472946961,69.5150115473441,57.556270096463024,294631.0,1112.0,0.0,1.0,0.0,?,0.0,0.0
8100000.0,18.375,2.799931422082913E-7,8100000.0,87.1,68.05823800326846,68.45965770171149,58.38709677419356,304531.0,1112.0,0.0,1.0,0.0,?,0.0,0.0
8200000.0,18.59375,2.8524159764250107E-7,8200000.0,85.6,64.35855295725005,66.35514018691589,54.14012738853502,314531.0,1112.0,0.0,1.0,0.0,?,0.0,0.0
8300000.0,18.828125,2.902828661414483E-7,8300000.0,86.7,65.18907826960928,66.66666666666666,53.16901408450705,324531.0,1112.0,0.0,1.0,0.0,?,0.0,0.0
8400000.0,19.046875,2.9444477857194E-7,8400000.0,87.9,67.18519482773584,70.9832134292566,56.15942028985508,334531.0,1112.0,0.0,1.0,0.0,?,0.0,0.0
8500000.0,19.265625,2.980634195005727E-7,8500000.0,86.7,64.25538319304242,65.27415143603133,51.45985401459854,344531.0,1112.0,0.0,1.0,0.0,?,0.0,0.0
8600000.0,19.5,3.013584581721159E-7,8600000.0,86.2,64.86761710794298,68.4931506849315,54.0,354531.0,1112.0,0.0,1.0,0.0,?,0.0,0.0
8700000.0,19.71875,3.038905560970305E-7,8700000.0,87.8,67.95545282622399,69.5,57.931034482758626,364531.0,1112.0,0.0,1.0,0.0,?,0.0,0.0
8800000.0,19.9375,3.058793825200861E-7,8800000.0,86.7,66.5792198132457,69.06976744186046,56.53594771241831,374531.0,1112.0,0.0,1.0,0.0,?,0.0,0.0
8900000.0,20.15625,3.0732493744128266E-7,8900000.0,87.7,68.8872250440132,70.14563106796116,59.539473684210535,384531.0,1112.0,0.0,1.0,0.0,?,0.0,0.0
9000000.0,20.390625,3.082916696762872E-7,9000000.0,86.8,66.71508109416607,70.27027027027026,55.70469798657719,394531.0,1112.0,0.0,1.0,0.0,?,0.0,0.0
9100000.0,20.625,3.145029121595951E-7,9100000.0,86.3,64.8714345788162,66.98795180722892,53.40136054421769,404431.0,1112.0,0.0,1.0,0.0,?,0.0,0.0
9200000.0,20.84375,3.1975680030882343E-7,9200000.0,87.1,67.67403397985265,67.75,56.122448979591844,414431.0,1112.0,0.0,1.0,0.0,?,0.0,0.0
9300000.0,21.078125,3.24803889573862E-7,9300000.0,85.39999999999999,63.24121817595875,65.15513126491646,50.67567567567568,424431.0,1112.0,0.0,1.0,0.0,?,0.0,0.0
9400000.0,21.296875,3.289712347193723E-7,9400000.0,88.4,71.29906375566597,71.84466019417476,61.58940397350994,434431.0,1112.0,0.0,1.0,0.0,?,0.0,0.0
9500000.0,21.5,3.3233644595990564E-7,9500000.0,86.6,65.75955027469018,66.41604010025063,54.576271186440685,444431.0,1112.0,0.0,1.0,0.0,?,0.0,0.0
9600000.0,21.734375,3.3563730539754017E-7,9600000.0,86.8,66.6437553066753,69.30232558139535,56.57894736842106,454431.0,1112.0,0.0,1.0,0.0,?,0.0,0.0
9700000.0,21.9375,3.3799358384890674E-7,9700000.0,87.9,68.75516443563046,71.86046511627907,58.56164383561645,464431.0,1112.0,0.0,1.0,0.0,?,0.0,0.0
9800000.0,22.171875,3.401302900682719E-7,9800000.0,88.3,69.77993594379586,70.8955223880597,58.65724381625442,474431.0,1112.0,0.0,1.0,0.0,?,0.0,0.0
9900000.0,22.390625,3.415812777044871E-7,9900000.0,89.2,72.14843850736261,75.17241379310346,62.10526315789474,484431.0,1112.0,0.0,1.0,0.0,?,0.0,0.0
1.0E7,22.625,3.425538307055829E-7,1.0E7,88.3,69.62742980561556,71.11111111111111,59.51557093425607,494431.0,1112.0,0.0,1.0,0.0,?,0.0,0.0
