learning evaluation instances,evaluation time (cpu seconds),model cost (RAM-Hours),classified instances,classifications correct (percent),Kappa Statistic (percent),Kappa Temporal Statistic (percent),Kappa M Statistic (percent),model training instances,model serialized size (bytes),labeling cost,newThreshold,maxPosterior,accuracyBaseLearner (percent),Change detected,Warning detected,tree size (nodes),tree size (leaves),active learning leaves,tree depth,active leaf byte size estimate,inactive leaf byte size estimate,byte size estimate overhead
100000.0,0.296875,0.0,100000.0,79.2,55.08587666754481,55.83864118895967,43.93530997304583,29700.0,0.0,0.0,1.0,0.0,?,0.0,11.0,29.0,18.0,18.0,4.0,0.0,0.0,1.0
200000.0,0.640625,0.0,200000.0,85.3,68.50089997428644,69.81519507186857,61.41732283464566,59700.0,0.0,0.0,1.0,0.0,?,0.0,0.0,72.0,44.0,44.0,7.0,0.0,0.0,1.0
300000.0,0.953125,0.0,300000.0,86.0,70.23062758089826,68.88888888888889,62.466487935656836,89700.0,0.0,0.0,1.0,0.0,?,0.0,0.0,96.0,59.0,59.0,9.0,0.0,0.0,1.0
400000.0,1.265625,0.0,400000.0,86.2,70.01668636584857,69.33333333333333,61.87845303867403,119700.0,0.0,0.0,1.0,0.0,?,0.0,0.0,114.0,71.0,71.0,10.0,0.0,0.0,1.0
500000.0,1.59375,0.0,500000.0,86.3,70.93639950782807,71.39874739039665,62.465753424657535,149700.0,0.0,0.0,1.0,0.0,?,0.0,0.0,147.0,92.0,92.0,11.0,0.0,0.0,1.0
600000.0,1.890625,0.0,600000.0,86.5,71.74337120419287,72.94589178356713,65.47314578005114,179700.0,0.0,0.0,1.0,0.0,?,0.0,0.0,193.0,127.0,127.0,12.0,0.0,0.0,1.0
700000.0,2.1875,0.0,700000.0,87.9,73.94711911118766,72.93064876957494,67.5603217158177,209700.0,0.0,0.0,1.0,0.0,?,0.0,0.0,228.0,149.0,149.0,13.0,0.0,0.0,1.0
800000.0,2.46875,0.0,800000.0,87.7,73.86248693124347,74.15966386554622,66.84636118598382,239700.0,0.0,0.0,1.0,0.0,?,0.0,0.0,267.0,179.0,179.0,13.0,0.0,0.0,1.0
900000.0,2.765625,0.0,900000.0,87.2,73.02389492807075,73.10924369747899,67.26342710997443,269700.0,0.0,0.0,1.0,0.0,?,0.0,0.0,273.0,182.0,182.0,13.0,0.0,0.0,1.0
1000000.0,3.078125,0.0,1000000.0,87.4,73.62118344582711,73.47368421052632,67.35751295336787,299700.0,0.0,0.0,1.0,0.0,?,0.0,0.0,281.0,186.0,186.0,13.0,0.0,0.0,1.0
1100000.0,3.34375,0.0,1100000.0,88.0,74.72108935252284,75.25773195876289,69.84924623115577,329400.0,0.0,0.0,1.0,0.0,?,0.0,0.0,297.0,197.0,197.0,13.0,0.0,0.0,1.0
1200000.0,3.65625,0.0,1200000.0,86.3,71.11216072603364,69.89010989010988,64.32291666666666,359400.0,0.0,0.0,1.0,0.0,?,0.0,0.0,320.0,213.0,213.0,13.0,0.0,0.0,1.0
1300000.0,3.953125,0.0,1300000.0,88.7,74.91274965144262,75.21929824561403,67.43515850144092,389400.0,0.0,0.0,1.0,0.0,?,0.0,0.0,344.0,231.0,231.0,13.0,0.0,0.0,1.0
1400000.0,4.265625,0.0,1400000.0,89.2,76.6758811333794,76.72413793103449,70.65217391304348,419400.0,0.0,0.0,1.0,0.0,?,0.0,0.0,375.0,254.0,254.0,14.0,0.0,0.0,1.0
1500000.0,4.5625,0.0,1500000.0,89.8,78.65965922404848,78.88198757763976,73.9795918367347,449400.0,0.0,0.0,1.0,0.0,?,0.0,0.0,393.0,266.0,266.0,14.0,0.0,0.0,1.0
1600000.0,4.875,0.0,1600000.0,90.8,80.28923406534548,80.0,75.46666666666667,479400.0,0.0,0.0,1.0,0.0,?,0.0,0.0,401.0,270.0,270.0,14.0,0.0,0.0,1.0
1700000.0,5.1875,0.0,1700000.0,90.3,79.44601718906274,78.49223946784922,74.40633245382587,509400.0,0.0,0.0,1.0,0.0,?,0.0,0.0,423.0,284.0,284.0,14.0,0.0,0.0,1.0
1800000.0,5.53125,0.0,1800000.0,89.1,75.91287975886362,75.83148558758315,69.46778711484593,539400.0,0.0,0.0,1.0,0.0,?,0.0,0.0,452.0,303.0,303.0,14.0,0.0,0.0,1.0
1900000.0,5.875,0.0,1900000.0,89.7,78.10783696927446,77.80172413793103,72.96587926509187,569400.0,0.0,0.0,1.0,0.0,?,0.0,0.0,481.0,322.0,322.0,14.0,0.0,0.0,1.0
2000000.0,6.1875,0.0,2000000.0,89.9,78.94956231763234,79.002079002079,74.68671679197996,599400.0,0.0,0.0,1.0,0.0,?,0.0,0.0,489.0,326.0,326.0,14.0,0.0,0.0,1.0
2100000.0,6.53125,0.0,2100000.0,90.7,79.90214722865738,78.62068965517243,74.38016528925621,629100.0,0.0,0.0,1.0,0.0,?,0.0,0.0,520.0,346.0,346.0,14.0,0.0,0.0,1.0
2200000.0,6.859375,0.0,2200000.0,90.0,78.0267107304361,78.8583509513742,71.98879551820728,659100.0,0.0,0.0,1.0,0.0,?,0.0,0.0,546.0,365.0,365.0,14.0,0.0,0.0,1.0
2300000.0,7.1875,0.0,2300000.0,92.7,84.39864246817751,84.33476394849787,81.13695090439278,689100.0,0.0,0.0,1.0,0.0,?,0.0,0.0,557.0,372.0,372.0,14.0,0.0,0.0,1.0
2400000.0,7.546875,0.0,2400000.0,91.10000000000001,80.88635758403561,80.61002178649238,76.51715039577837,719100.0,0.0,0.0,1.0,0.0,?,0.0,0.0,583.0,388.0,388.0,14.0,0.0,0.0,1.0
2500000.0,7.90625,0.0,2500000.0,93.10000000000001,85.70066730219258,85.88957055214725,83.17073170731709,749100.0,0.0,0.0,1.0,0.0,?,0.0,0.0,596.0,396.0,396.0,14.0,0.0,0.0,1.0
2600000.0,8.25,0.0,2600000.0,91.0,80.32528856243442,79.91071428571429,75.00000000000001,779100.0,0.0,0.0,1.0,0.0,?,0.0,0.0,610.0,403.0,403.0,14.0,0.0,0.0,1.0
2700000.0,8.640625,0.0,2700000.0,90.5,79.49669788923902,79.7008547008547,74.32432432432434,809100.0,0.0,0.0,1.0,0.0,?,0.0,0.0,623.0,411.0,411.0,14.0,0.0,0.0,1.0
2800000.0,8.984375,0.0,2800000.0,92.5,83.86722077385717,83.48017621145375,79.67479674796749,839100.0,0.0,0.0,1.0,0.0,?,0.0,0.0,635.0,420.0,420.0,14.0,0.0,0.0,1.0
2900000.0,9.328125,0.0,2900000.0,91.10000000000001,80.87830869714679,80.35320088300222,76.07526881720432,869100.0,0.0,0.0,1.0,0.0,?,0.0,0.0,646.0,427.0,427.0,14.0,0.0,0.0,1.0
3000000.0,9.671875,0.0,3000000.0,91.8,82.29736964819261,82.95218295218297,78.07486631016044,899100.0,0.0,0.0,1.0,0.0,?,0.0,0.0,661.0,436.0,436.0,15.0,0.0,0.0,1.0
3100000.0,10.0625,0.0,3100000.0,90.3,78.96426092990978,79.57894736842105,72.75280898876404,928800.0,0.0,0.0,1.0,0.0,?,0.0,0.0,676.0,445.0,445.0,15.0,0.0,0.0,1.0
3200000.0,10.421875,0.0,3200000.0,90.5,80.04889071832395,78.84187082405344,76.1904761904762,958800.0,0.0,0.0,1.0,0.0,?,0.0,0.0,692.0,453.0,453.0,15.0,0.0,0.0,1.0
3300000.0,10.765625,0.0,3300000.0,91.10000000000001,80.98859315589354,81.45833333333334,76.70157068062828,988800.0,0.0,0.0,1.0,0.0,?,0.0,0.0,708.0,464.0,464.0,15.0,0.0,0.0,1.0
3400000.0,11.140625,0.0,3400000.0,90.9,79.87883076106665,80.21739130434783,73.62318840579711,1018800.0,0.0,0.0,1.0,0.0,?,0.0,0.0,723.0,473.0,473.0,15.0,0.0,0.0,?
3500000.0,11.515625,0.0,3500000.0,91.0,80.60746052540854,79.77528089887642,75.54347826086958,1048800.0,0.0,0.0,1.0,0.0,?,0.0,0.0,734.0,480.0,480.0,15.0,0.0,0.0,?
3600000.0,11.84375,0.0,3600000.0,91.5,81.91674041799986,82.86290322580646,77.80678851174936,1078800.0,0.0,0.0,1.0,0.0,?,0.0,0.0,752.0,492.0,492.0,15.0,0.0,0.0,?
3700000.0,12.1875,0.0,3700000.0,91.2,81.23315248916641,81.1965811965812,77.08333333333334,1108800.0,0.0,0.0,1.0,0.0,?,0.0,0.0,758.0,495.0,495.0,15.0,0.0,0.0,?
3800000.0,12.578125,0.0,3800000.0,91.3,81.60272025984571,82.02479338842976,77.0448548812665,1138800.0,0.0,0.0,1.0,0.0,?,0.0,0.0,775.0,505.0,505.0,15.0,0.0,0.0,?
3900000.0,12.890625,0.0,3900000.0,90.5,80.00673457361731,80.08385744234802,75.76530612244898,1168800.0,0.0,0.0,1.0,0.0,?,0.0,0.0,779.0,507.0,507.0,15.0,0.0,0.0,?
4000000.0,13.25,0.0,4000000.0,92.5,83.8536060279871,84.30962343096236,80.00000000000001,1198800.0,0.0,0.0,1.0,0.0,?,0.0,0.0,783.0,509.0,509.0,15.0,0.0,0.0,?
4100000.0,13.640625,0.0,4100000.0,93.10000000000001,85.07462686567166,85.74380165289257,80.56338028169016,1228500.0,0.0,0.0,1.0,0.0,?,0.0,0.0,794.0,516.0,516.0,15.0,0.0,0.0,?
4200000.0,13.984375,0.0,4200000.0,93.5,86.15866850649905,86.17021276595746,83.07291666666669,1258500.0,0.0,0.0,1.0,0.0,?,0.0,0.0,810.0,524.0,524.0,15.0,0.0,0.0,?
4300000.0,14.34375,0.0,4300000.0,92.2,83.84337184686832,84.21052631578948,81.11380145278451,1288500.0,0.0,0.0,1.0,0.0,?,0.0,0.0,818.0,528.0,528.0,16.0,0.0,0.0,?
4400000.0,14.671875,0.0,4400000.0,92.60000000000001,84.53390627547203,85.28827037773361,81.63771712158811,1318500.0,0.0,0.0,1.0,0.0,?,0.0,0.0,824.0,531.0,531.0,16.0,0.0,0.0,?
4500000.0,15.0,0.0,4500000.0,92.2,83.63764516345574,84.11405295315683,80.30303030303031,1348500.0,0.0,0.0,1.0,0.0,?,0.0,0.0,830.0,534.0,534.0,16.0,0.0,0.0,?
4600000.0,15.390625,0.0,4600000.0,92.5,84.24515380931176,84.53608247422682,80.96446700507616,1378500.0,0.0,0.0,1.0,0.0,?,0.0,0.0,848.0,546.0,546.0,16.0,0.0,0.0,?
4700000.0,15.78125,0.0,4700000.0,93.0,85.0344848228297,85.23206751054853,81.23324396782843,1408500.0,0.0,0.0,1.0,0.0,?,0.0,0.0,854.0,549.0,549.0,16.0,0.0,0.0,?
4800000.0,16.125,0.0,4800000.0,91.2,81.47407423001621,81.55136268343817,77.72151898734178,1438500.0,0.0,0.0,1.0,0.0,?,0.0,0.0,861.0,554.0,554.0,16.0,0.0,0.0,?
4900000.0,16.5,0.0,4900000.0,91.9,82.23278993454647,82.11920529801326,76.98863636363637,1468500.0,0.0,0.0,1.0,0.0,?,0.0,0.0,863.0,555.0,555.0,16.0,0.0,0.0,?
5000000.0,16.84375,0.0,5000000.0,92.2,83.38962405182438,83.85093167701864,79.94858611825194,1498500.0,0.0,0.0,1.0,0.0,?,0.0,0.0,867.0,557.0,557.0,16.0,0.0,0.0,?
5100000.0,17.234375,0.0,5100000.0,79.80000000000001,59.66856344214836,59.60000000000001,58.178053830227746,28923.0,0.0,0.0,1.0,0.0,?,1.0,22.0,61.0,46.0,46.0,3.0,0.0,0.0,1.0
5200000.0,17.53125,0.0,5200000.0,85.9,71.72059142070935,72.40704500978474,70.25316455696202,58923.0,0.0,0.0,1.0,0.0,?,0.0,0.0,102.0,74.0,74.0,4.0,0.0,0.0,1.0
5300000.0,17.890625,0.0,5300000.0,87.8,75.54678981463665,76.03143418467585,74.09766454352442,88923.0,0.0,0.0,1.0,0.0,?,0.0,0.0,202.0,145.0,145.0,4.0,0.0,0.0,1.0
5400000.0,18.21875,0.0,5400000.0,89.8,79.54033963036214,80.0,78.43551797040169,118923.0,0.0,0.0,1.0,0.0,?,0.0,0.0,261.0,188.0,188.0,5.0,0.0,0.0,1.0
5500000.0,18.53125,0.0,5500000.0,92.0,83.99980799769598,84.7036328871893,84.03193612774452,148923.0,0.0,0.0,1.0,0.0,?,0.0,0.0,305.0,219.0,219.0,5.0,0.0,0.0,1.0
5600000.0,18.859375,0.0,5600000.0,91.8,83.56377455912832,84.32122370936904,82.95218295218297,178923.0,0.0,0.0,1.0,0.0,?,0.0,0.0,341.0,240.0,240.0,5.0,0.0,0.0,1.0
5700000.0,19.1875,0.0,5700000.0,92.30000000000001,84.59852145805998,84.44444444444446,84.34959349593497,208923.0,0.0,0.0,1.0,0.0,?,0.0,0.0,383.0,270.0,270.0,6.0,0.0,0.0,1.0
5800000.0,19.484375,0.0,5800000.0,92.80000000000001,85.5546995377504,85.15463917525774,84.74576271186442,238923.0,0.0,0.0,1.0,0.0,?,0.0,0.0,406.0,283.0,283.0,6.0,0.0,0.0,1.0
5900000.0,19.859375,0.0,5900000.0,91.3,82.35866655852057,83.10679611650487,80.36117381489842,268923.0,0.0,0.0,1.0,0.0,?,0.0,0.0,460.0,319.0,319.0,6.0,0.0,0.0,1.0
6000000.0,20.21875,0.0,6000000.0,94.5,88.99445320441501,88.86639676113359,88.79837067209775,298923.0,0.0,0.0,1.0,0.0,?,0.0,0.0,542.0,372.0,372.0,6.0,0.0,0.0,1.0
6100000.0,20.5625,0.0,6100000.0,95.19999999999999,90.33037872683319,90.18404907975459,89.33333333333331,328623.0,0.0,0.0,1.0,0.0,?,0.0,0.0,567.0,389.0,389.0,6.0,0.0,0.0,1.0
6200000.0,20.90625,0.0,6200000.0,95.1,90.1972552314648,90.3353057199211,89.57446808510637,358623.0,0.0,0.0,1.0,0.0,?,0.0,0.0,613.0,421.0,421.0,6.0,0.0,0.0,1.0
6300000.0,21.234375,0.0,6300000.0,93.60000000000001,87.20199648854779,87.64478764478766,86.85831622176593,388623.0,0.0,0.0,1.0,0.0,?,0.0,0.0,676.0,463.0,463.0,6.0,0.0,0.0,1.0
6400000.0,21.578125,0.0,6400000.0,95.0,89.98124489043488,89.79591836734693,89.45147679324894,418623.0,0.0,0.0,1.0,0.0,?,0.0,0.0,728.0,501.0,501.0,7.0,0.0,0.0,1.0
6500000.0,21.90625,0.0,6500000.0,96.2,92.36285291658626,92.22903885480572,91.88034188034187,448623.0,0.0,0.0,1.0,0.0,?,0.0,0.0,758.0,519.0,519.0,7.0,0.0,0.0,1.0
6600000.0,22.234375,0.0,6600000.0,95.8,91.58545967431722,91.86046511627907,91.17647058823528,478623.0,0.0,0.0,1.0,0.0,?,0.0,0.0,789.0,539.0,539.0,7.0,0.0,0.0,1.0
6700000.0,22.59375,0.0,6700000.0,94.6,89.18931904721865,89.17835671342684,88.77338877338876,508623.0,0.0,0.0,1.0,0.0,?,0.0,0.0,828.0,563.0,563.0,7.0,0.0,0.0,1.0
6800000.0,22.9375,0.0,6800000.0,95.1,90.17492641220393,90.41095890410958,89.59660297239914,538623.0,0.0,0.0,1.0,0.0,?,0.0,0.0,850.0,577.0,577.0,7.0,0.0,0.0,1.0
6900000.0,23.28125,0.0,6900000.0,95.6,91.19999999999999,90.5781584582441,91.2524850894632,568623.0,0.0,0.0,1.0,0.0,?,0.0,0.0,896.0,606.0,606.0,7.0,0.0,0.0,1.0
7000000.0,23.65625,0.0,7000000.0,96.2,92.36687222545848,91.9661733615222,91.89765458422174,598623.0,0.0,0.0,1.0,0.0,?,0.0,0.0,917.0,618.0,618.0,7.0,0.0,0.0,1.0
7100000.0,24.0,0.0,7100000.0,96.1,92.17809867629362,92.21556886227545,91.78947368421052,628323.0,0.0,0.0,1.0,0.0,?,0.0,0.0,934.0,628.0,628.0,7.0,0.0,0.0,1.0
7200000.0,24.390625,0.0,7200000.0,95.6,91.19313064190068,90.8902691511387,91.00204498977504,658323.0,0.0,0.0,1.0,0.0,?,0.0,0.0,963.0,647.0,647.0,7.0,0.0,0.0,1.0
7300000.0,24.796875,0.0,7300000.0,95.19999999999999,90.31840350473792,89.93710691823898,89.35698447893569,688323.0,0.0,0.0,1.0,0.0,?,0.0,0.0,987.0,662.0,662.0,7.0,0.0,0.0,1.0
7400000.0,25.171875,0.0,7400000.0,96.39999999999999,92.75889951363942,92.85714285714285,92.29122055674517,718323.0,0.0,0.0,1.0,0.0,?,0.0,0.0,1021.0,682.0,682.0,8.0,0.0,0.0,1.0
7500000.0,25.546875,0.0,7500000.0,96.3,92.59152470426167,92.88461538461537,92.40246406570841,748323.0,0.0,0.0,1.0,0.0,?,0.0,0.0,1031.0,687.0,687.0,8.0,0.0,0.0,1.0
7600000.0,25.921875,0.0,7600000.0,96.89999999999999,93.78259125551544,93.63449691991785,93.47368421052632,778323.0,0.0,0.0,1.0,0.0,?,0.0,0.0,1052.0,699.0,699.0,8.0,0.0,0.0,1.0
7700000.0,26.3125,0.0,7700000.0,97.3,94.59303583014923,94.32773109243698,94.44444444444444,808323.0,0.0,0.0,1.0,0.0,?,0.0,0.0,1065.0,707.0,707.0,8.0,0.0,0.0,1.0
7800000.0,26.71875,0.0,7800000.0,96.6,93.1978233034571,93.72693726937268,93.06122448979592,838323.0,0.0,0.0,1.0,0.0,?,0.0,0.0,1088.0,720.0,720.0,8.0,0.0,0.0,1.0
7900000.0,27.09375,0.0,7900000.0,96.89999999999999,93.76678945421205,93.95711500974659,93.30453563714902,868323.0,0.0,0.0,1.0,0.0,?,0.0,0.0,1100.0,726.0,726.0,8.0,0.0,0.0,1.0
8000000.0,27.53125,0.0,8000000.0,96.89999999999999,93.80009919841282,93.8,93.84920634920636,898323.0,0.0,0.0,1.0,0.0,?,0.0,0.0,1126.0,742.0,742.0,8.0,0.0,0.0,1.0
8100000.0,27.9375,0.0,8100000.0,96.6,93.20019039466895,93.21357285429141,93.06122448979592,928023.0,0.0,0.0,1.0,0.0,?,0.0,0.0,1130.0,744.0,744.0,8.0,0.0,0.0,1.0
8200000.0,28.3125,0.0,8200000.0,96.8,93.56105727439554,93.50912778904664,93.01310043668121,958023.0,0.0,0.0,1.0,0.0,?,0.0,0.0,1151.0,756.0,756.0,8.0,0.0,0.0,1.0
8300000.0,28.734375,0.0,8300000.0,96.8,93.5490113859949,93.48268839103869,93.07359307359306,988023.0,0.0,0.0,1.0,0.0,?,0.0,0.0,1164.0,764.0,764.0,8.0,0.0,0.0,1.0
8400000.0,29.171875,0.0,8400000.0,97.2,94.39199176423932,94.05520169851378,93.99141630901286,1018023.0,0.0,0.0,1.0,0.0,?,0.0,0.0,1181.0,774.0,774.0,8.0,0.0,0.0,?
8500000.0,29.5625,0.0,8500000.0,97.0,93.9371402703227,93.7888198757764,93.36283185840706,1048023.0,0.0,0.0,1.0,0.0,?,0.0,0.0,1205.0,792.0,792.0,8.0,0.0,0.0,?
8600000.0,30.0,0.0,8600000.0,97.2,94.38787781608274,94.1908713692946,94.16666666666667,1078023.0,0.0,0.0,1.0,0.0,?,0.0,0.0,1213.0,796.0,796.0,8.0,0.0,0.0,?
8700000.0,30.390625,0.0,8700000.0,97.2,94.39809535241982,94.37751004016064,94.32048681541582,1108023.0,0.0,0.0,1.0,0.0,?,0.0,0.0,1229.0,804.0,804.0,8.0,0.0,0.0,?
8800000.0,30.796875,0.0,8800000.0,96.89999999999999,93.7994047428553,93.72469635627529,93.76257545271629,1138023.0,0.0,0.0,1.0,0.0,?,0.0,0.0,1235.0,807.0,807.0,8.0,0.0,0.0,?
8900000.0,31.1875,0.0,8900000.0,96.5,92.9365989118326,92.84253578732105,92.20489977728285,1168023.0,0.0,0.0,1.0,0.0,?,0.0,0.0,1252.0,817.0,817.0,8.0,0.0,0.0,?
9000000.0,31.625,0.0,9000000.0,96.89999999999999,93.79354528709858,93.82470119521912,93.63449691991785,1198023.0,0.0,0.0,1.0,0.0,?,0.0,0.0,1271.0,828.0,828.0,8.0,0.0,0.0,?
9100000.0,32.015625,0.0,9100000.0,97.0,93.9344189375528,94.05940594059405,93.31848552338529,1227723.0,0.0,0.0,1.0,0.0,?,0.0,0.0,1283.0,834.0,834.0,8.0,0.0,0.0,?
9200000.0,32.4375,0.0,9200000.0,98.8,97.58457995845478,97.65166340508806,97.40259740259741,1257723.0,0.0,0.0,1.0,0.0,?,0.0,0.0,1302.0,845.0,845.0,8.0,0.0,0.0,?
9300000.0,32.796875,0.0,9300000.0,97.39999999999999,94.79185446037603,94.4915254237288,94.61697722567287,1287723.0,0.0,0.0,1.0,0.0,?,0.0,0.0,1311.0,851.0,851.0,8.0,0.0,0.0,?
9400000.0,33.171875,0.0,9400000.0,97.1,94.17413315119128,94.43378119001919,93.82978723404256,1317723.0,0.0,0.0,1.0,0.0,?,0.0,0.0,1322.0,858.0,858.0,8.0,0.0,0.0,?
9500000.0,33.5625,0.0,9500000.0,97.2,94.38109801371814,93.81898454746135,94.05520169851378,1347723.0,0.0,0.0,1.0,0.0,?,0.0,0.0,1336.0,865.0,865.0,8.0,0.0,0.0,?
9600000.0,33.9375,0.0,9600000.0,97.2,94.39749007555385,94.66666666666667,94.30894308943088,1377723.0,0.0,0.0,1.0,0.0,?,0.0,0.0,1336.0,865.0,865.0,8.0,0.0,0.0,?
9700000.0,34.328125,0.0,9700000.0,98.1,96.19957435232746,96.19238476953907,96.05809128630705,1407723.0,0.0,0.0,1.0,0.0,?,0.0,0.0,1342.0,868.0,868.0,8.0,0.0,0.0,?
9800000.0,34.71875,0.0,9800000.0,97.6,95.16908212560385,95.19038076152304,94.78260869565217,1437723.0,0.0,0.0,1.0,0.0,?,0.0,0.0,1355.0,876.0,876.0,8.0,0.0,0.0,?
9900000.0,35.09375,0.0,9900000.0,98.0,95.99423169363884,96.09375,95.85062240663899,1467723.0,0.0,0.0,1.0,0.0,?,0.0,0.0,1367.0,882.0,882.0,8.0,0.0,0.0,?
1.0E7,35.5,0.0,1.0E7,98.1,96.18933012434817,96.23762376237623,96.0,1497723.0,0.0,0.0,1.0,0.0,?,0.0,0.0,1375.0,886.0,886.0,8.0,0.0,0.0,?
