learning evaluation instances,evaluation time (cpu seconds),model cost (RAM-Hours),classified instances,classifications correct (percent),Kappa Statistic (percent),Kappa Temporal Statistic (percent),Kappa M Statistic (percent),model training instances,model serialized size (bytes),labeling cost,newThreshold,maxPosterior,accuracyBaseLearner (percent),Change detected,Warning detected
100000.0,0.15625,1.0008483918176758E-9,100000.0,62.9,0.0,21.23142250530785,0.0,511.0,8800.0,0.0,1.0,0.0,?,7.0,89.0
200000.0,0.34375,2.3570868911014664E-9,200000.0,51.4,5.191820746214496,0.20533880903490778,-27.55905511811023,3498.0,9112.0,0.0,1.0,0.0,?,13.0,114.0
300000.0,0.484375,3.375720957087146E-9,300000.0,63.800000000000004,22.85825097066482,19.55555555555555,2.9490616621983943,8658.0,9208.0,0.0,1.0,0.0,?,5.0,38.0
400000.0,0.65625,4.597241058945656E-9,400000.0,54.800000000000004,12.404458845599295,-0.44444444444444486,-24.861878453038667,26840.0,9112.0,0.0,1.0,0.0,?,0.0,48.0
500000.0,0.8125,5.6815204314059685E-9,500000.0,63.800000000000004,14.32155451941965,24.4258872651357,0.8219178082191789,45022.0,9208.0,0.0,1.0,0.0,?,0.0,66.0
600000.0,0.96875,6.7777647119429386E-9,600000.0,55.7,13.878239772311973,11.222444889779569,-13.299232736572872,63204.0,9112.0,0.0,1.0,0.0,?,0.0,32.0
700000.0,1.125,7.867864850494598E-9,700000.0,54.0,9.516859369529211,-2.9082774049217033,-23.324396782841813,81386.0,9112.0,0.0,1.0,0.0,?,0.0,0.0
800000.0,1.296875,9.064485008517902E-9,800000.0,64.4,15.398033241918855,25.210084033613445,4.043126684636123,99568.0,9208.0,0.0,1.0,0.0,?,0.0,0.0
900000.0,1.453125,1.0146177373826506E-8,900000.0,61.1,10.6716390491237,18.27731092436974,0.5115089514066501,117750.0,9208.0,0.0,1.0,0.0,?,0.0,0.0
1000000.0,1.578125,1.100661595248514E-8,1000000.0,63.6,15.840485350695477,23.36842105263158,5.699481865284979,135932.0,9208.0,0.0,1.0,0.0,?,0.0,0.0
1100000.0,1.75,1.218296044195692E-8,1100000.0,58.8,10.67557020206399,15.051546391752568,-3.5175879396984953,154114.0,9208.0,0.0,1.0,0.0,?,0.0,0.0
1200000.0,1.921875,1.3426890493267115E-8,1200000.0,61.199999999999996,10.622143594279802,14.725274725274714,-1.0416666666666676,172294.0,9208.0,0.0,1.0,0.0,?,0.0,0.0
1300000.0,2.078125,1.4551591852472891E-8,1300000.0,67.30000000000001,17.923334872793724,28.28947368421053,5.763688760806922,190476.0,9208.0,0.0,1.0,0.0,?,0.0,0.0
1400000.0,2.25,1.5782004791415404E-8,1400000.0,63.9,14.372189225602,22.198275862068964,1.90217391304348,208658.0,9208.0,0.0,1.0,0.0,?,0.0,0.0
1500000.0,2.40625,1.6890537355922993E-8,1500000.0,54.900000000000006,12.041876647995887,6.625258799171848,-15.051020408163248,226840.0,9112.0,0.0,1.0,0.0,?,0.0,0.0
1600000.0,2.5625,1.7992925778445272E-8,1600000.0,63.3,15.825688073394486,20.21739130434782,2.1333333333333355,245022.0,9112.0,0.0,1.0,0.0,?,0.0,0.0
1700000.0,2.71875,1.908917005898224E-8,1700000.0,51.300000000000004,5.703486841086179,-7.982261640798234,-28.496042216358834,263204.0,9112.0,0.0,1.0,0.0,?,0.0,0.0
1800000.0,2.875,2.0179270197533898E-8,1800000.0,53.400000000000006,9.138768108877487,-3.3259423503325976,-30.53221288515406,281386.0,9112.0,0.0,1.0,0.0,?,0.0,0.0
1900000.0,3.03125,2.126710670482781E-8,1900000.0,63.6,15.119462361078067,21.551724137931032,4.461942257217852,299568.0,9208.0,0.0,1.0,0.0,?,0.0,0.0
2000000.0,3.203125,2.2456968306667273E-8,2000000.0,61.1,11.143394916214376,19.12681912681912,2.506265664160403,317750.0,9208.0,0.0,1.0,0.0,?,0.0,0.0
2100000.0,3.359375,2.3528636019263E-8,2100000.0,54.2,11.73738596200469,-5.2873563218390585,-26.170798898071617,335932.0,9112.0,0.0,1.0,0.0,?,0.0,0.0
2200000.0,3.5,2.4503032262954445E-8,2200000.0,63.3,18.693783508352166,22.41014799154334,-2.801120448179274,354114.0,9208.0,0.0,1.0,0.0,?,0.0,26.0
2300000.0,3.65625,2.5614475210507708E-8,2300000.0,63.2,14.18110585107624,21.03004291845493,4.9095607235142165,372294.0,9208.0,0.0,1.0,0.0,?,0.0,4.0
2400000.0,3.8125,2.671977401607566E-8,2400000.0,62.7,12.430625334547878,18.73638344226579,1.5831134564643814,390476.0,9208.0,0.0,1.0,0.0,?,0.0,0.0
2500000.0,3.96875,2.7847709134221075E-8,2500000.0,54.0,9.30599369085174,5.930470347648267,-12.195121951219495,408658.0,9112.0,0.0,1.0,0.0,?,0.0,22.0
2600000.0,4.125,2.8934898889727062E-8,2600000.0,66.9,20.699568758984196,26.11607142857143,8.055555555555562,426840.0,9208.0,0.0,1.0,0.0,?,0.0,5.0
2700000.0,4.28125,3.0012063992520175E-8,2700000.0,62.2,10.865874363327677,19.230769230769226,-2.162162162162164,445022.0,9112.0,0.0,1.0,0.0,?,0.0,0.0
2800000.0,4.4375,3.108696546405554E-8,2800000.0,64.0,15.35983824324642,20.704845814977972,2.4390243902439046,463204.0,9208.0,0.0,1.0,0.0,?,0.0,0.0
2900000.0,4.59375,3.2155722793605594E-8,2900000.0,65.7,18.901793145191803,24.282560706401764,7.79569892473119,481386.0,9208.0,0.0,1.0,0.0,?,0.0,0.0
3000000.0,4.765625,3.332032873812649E-8,3000000.0,55.300000000000004,11.887847224959991,7.068607068607075,-19.518716577540093,499568.0,9112.0,0.0,1.0,0.0,?,0.0,0.0
3100000.0,4.921875,3.437679778370592E-8,3100000.0,64.0,12.959381044487426,24.210526315789473,-1.1235955056179785,517750.0,9208.0,0.0,1.0,0.0,?,0.0,0.0
3200000.0,5.078125,3.542324217657248E-8,3200000.0,51.800000000000004,5.0953181669613485,-7.349665924276176,-20.802005012531318,535932.0,9112.0,0.0,1.0,0.0,?,0.0,0.0
3300000.0,5.234375,3.646354242745373E-8,3300000.0,57.3,11.465892597968072,11.041666666666654,-11.780104712041894,554114.0,9112.0,0.0,1.0,0.0,?,0.0,0.0
3400000.0,5.390625,3.756528409818808E-8,3400000.0,56.2,15.186956605929169,4.782608695652178,-26.95652173913043,572294.0,9112.0,0.0,1.0,0.0,?,0.0,0.0
3500000.0,5.546875,3.866476213766469E-8,3500000.0,62.9,11.333957899164465,16.62921348314606,-0.8152173913043484,590476.0,9208.0,0.0,1.0,0.0,?,0.0,0.0
3600000.0,5.703125,3.9754215524428424E-8,3600000.0,52.2,6.71386918864485,3.629032258064519,-24.8041775456919,608658.0,9112.0,0.0,1.0,0.0,?,0.0,0.0
3700000.0,5.859375,4.0837524769206844E-8,3700000.0,56.599999999999994,14.234672906061272,7.264957264957247,-13.020833333333345,626840.0,9112.0,0.0,1.0,0.0,?,0.0,0.0
3800000.0,6.0,4.1810465821375454E-8,3800000.0,56.10000000000001,12.790928667350057,9.297520661157034,-15.831134564643785,645022.0,9208.0,0.0,1.0,0.0,?,0.0,0.0
3900000.0,6.15625,4.288536729291082E-8,3900000.0,63.9,16.760436073859545,24.31865828092243,7.90816326530613,663204.0,9208.0,0.0,1.0,0.0,?,0.0,0.0
4000000.0,6.3125,4.395412462246087E-8,4000000.0,62.8,12.522045855379194,22.17573221757322,0.8000000000000007,681386.0,9208.0,0.0,1.0,0.0,?,0.0,0.0
4100000.0,6.46875,4.501285729929805E-8,4100000.0,57.3,17.10025627087053,11.77685950413222,-20.28169014084509,699568.0,9112.0,0.0,1.0,0.0,?,0.0,0.0
4200000.0,6.625,4.6069326344877483E-8,4200000.0,62.4,12.165950289665487,19.999999999999996,2.0833333333333353,717750.0,9208.0,0.0,1.0,0.0,?,0.0,0.0
4300000.0,6.78125,4.711577073774404E-8,4300000.0,53.800000000000004,9.086973462054644,6.477732793522273,-11.864406779661,735932.0,9112.0,0.0,1.0,0.0,?,0.0,0.0
4400000.0,6.953125,4.826436957551373E-8,4400000.0,57.99999999999999,10.254492617363614,16.50099403578528,-4.218362282878416,754114.0,9208.0,0.0,1.0,0.0,?,0.0,0.0
4500000.0,7.09375,4.925942953882946E-8,4500000.0,62.3,13.970937237577118,23.217922606924642,4.797979797979802,772294.0,9208.0,0.0,1.0,0.0,?,0.0,0.0
4600000.0,7.234375,5.0248959774358406E-8,4600000.0,63.2,15.755544567148325,24.123711340206185,6.59898477157361,790476.0,9208.0,0.0,1.0,0.0,?,0.0,0.0
4700000.0,7.390625,5.13422936718497E-8,4700000.0,64.2,16.179273335175203,24.47257383966245,4.021447721179628,808658.0,9208.0,0.0,1.0,0.0,?,0.0,0.0
4800000.0,7.53125,5.2320764451805084E-8,4800000.0,64.3,18.852570805109792,25.157232704402517,9.62025316455697,826840.0,9208.0,0.0,1.0,0.0,?,0.0,0.0
4900000.0,7.671875,5.3293705503973694E-8,4900000.0,56.10000000000001,12.14799161103375,3.0905077262693186,-24.715909090909083,845022.0,9208.0,0.0,1.0,0.0,?,0.0,0.0
5000000.0,7.84375,5.4574629757553335E-8,5000000.0,53.0,9.340966695343226,2.6915113871635636,-20.822622107969142,863204.0,9112.0,0.0,1.0,0.0,?,0.0,0.0
5100000.0,8.0,5.5732962209731335E-8,5100000.0,54.7,9.041258724409062,9.40000000000001,6.211180124223608,881386.0,9112.0,0.0,1.0,0.0,?,0.0,0.0
5200000.0,8.171875,5.7000369350943296E-8,5200000.0,52.2,3.8801840352626966,6.4579256360078325,-0.8438818565400852,899568.0,9112.0,0.0,1.0,0.0,?,0.0,0.0
5300000.0,8.328125,5.8146413519150675E-8,5300000.0,53.800000000000004,7.069179151312309,9.23379174852653,1.9108280254777086,917750.0,9112.0,0.0,1.0,0.0,?,0.0,0.0
5400000.0,8.5,5.940030354799495E-8,5400000.0,52.6,4.612796374481307,7.05882352941177,-0.2114164904862581,935932.0,9112.0,0.0,1.0,0.0,?,0.0,0.0
5500000.0,8.671875,6.054463382396432E-8,5500000.0,51.4,2.810496466381633,7.074569789674959,2.994011976047907,954114.0,9112.0,0.0,1.0,0.0,?,0.0,0.0
5600000.0,8.828125,6.173983112805418E-8,5600000.0,54.0,7.5291383725932635,12.045889101338442,4.3659043659043695,972294.0,9112.0,0.0,1.0,0.0,?,0.0,0.0
5700000.0,9.0,6.30477896063692E-8,5700000.0,52.6,5.096745258841627,4.242424242424246,3.658536585365857,990476.0,9112.0,0.0,1.0,0.0,?,0.0,0.0
5800000.0,9.15625,6.423069862648844E-8,5800000.0,55.2,9.895414320193085,7.628865979381451,5.084745762711869,1008658.0,9112.0,0.0,1.0,0.0,?,0.0,0.0
5900000.0,9.328125,6.552513999243576E-8,5900000.0,51.6,2.061167252815747,6.019417475728161,-9.255079006772018,1026840.0,9112.0,0.0,1.0,0.0,?,0.0,0.0
6000000.0,9.484375,6.669576072858438E-8,6000000.0,51.4,2.6282362086720905,1.6194331983805683,1.0183299389002045,1045022.0,9112.0,0.0,1.0,0.0,?,0.0,0.0
6100000.0,9.640625,6.786023732274769E-8,6100000.0,55.7,10.667473280903419,9.406952965235183,1.5555555555555571,1063204.0,9112.0,0.0,1.0,0.0,?,0.0,0.0
6200000.0,9.8125,6.91344030201435E-8,6200000.0,52.800000000000004,5.537654852202448,6.903353057199217,-0.42553191489361747,1081386.0,9112.0,0.0,1.0,0.0,?,0.0,0.0
6300000.0,9.96875,7.028659133033619E-8,6300000.0,54.50000000000001,8.960671009876275,12.162162162162172,6.570841889117049,1099568.0,9112.0,0.0,1.0,0.0,?,0.0,0.0
6400000.0,10.140625,7.15472399153643E-8,6400000.0,54.2,8.036560487044813,6.5306122448979655,3.3755274261603407,1117750.0,9112.0,0.0,1.0,0.0,?,0.0,0.0
6500000.0,10.296875,7.268713994158637E-8,6500000.0,53.300000000000004,5.889275810924104,4.498977505112479,0.21367521367521386,1135932.0,9112.0,0.0,1.0,0.0,?,0.0,0.0
6600000.0,10.46875,7.383147021755575E-8,6600000.0,51.4,2.3876855839064226,5.813953488372098,-2.1008403361344556,1154114.0,9112.0,0.0,1.0,0.0,?,0.0,0.0
6700000.0,10.625,7.502666752164561E-8,6700000.0,53.400000000000006,6.308682732247911,6.613226452905817,3.1185031185031216,1172294.0,9112.0,0.0,1.0,0.0,?,0.0,0.0
6800000.0,10.796875,7.633462599996062E-8,6800000.0,54.1,7.729049066435093,10.176125244618405,2.547770700636945,1190476.0,9112.0,0.0,1.0,0.0,?,0.0,0.0
6900000.0,10.9375,7.739924411806794E-8,6900000.0,52.400000000000006,4.800000000000004,-1.9271948608137062,5.367793240556665,1208658.0,9112.0,0.0,1.0,0.0,?,0.0,0.0
7000000.0,11.078125,7.845833250838847E-8,7000000.0,54.50000000000001,8.4551249034252,3.8054968287526463,2.9850746268656745,1226840.0,9112.0,0.0,1.0,0.0,?,0.0,0.0
7100000.0,11.234375,7.96289532445371E-8,7100000.0,53.900000000000006,7.1687474828836235,7.984031936127751,2.947368421052634,1245022.0,9112.0,0.0,1.0,0.0,?,0.0,0.0
7200000.0,11.390625,8.07934298387004E-8,7200000.0,51.300000000000004,2.342183364081179,-0.828157349896481,0.40899795501022534,1263204.0,9112.0,0.0,1.0,0.0,?,0.0,0.0
7300000.0,11.515625,8.172009580044281E-8,7300000.0,53.5,6.449925562306358,2.5157232704402537,-3.104212860310424,1281386.0,9112.0,0.0,1.0,0.0,?,0.0,0.0
7400000.0,11.671875,8.28722841106355E-8,7400000.0,53.400000000000006,6.441859437928402,7.539682539682547,0.214132762312634,1299568.0,9112.0,0.0,1.0,0.0,?,0.0,0.0
7500000.0,11.84375,8.413293269566361E-8,7500000.0,55.50000000000001,10.814494147827483,14.423076923076936,8.624229979466127,1317750.0,9112.0,0.0,1.0,0.0,?,0.0,0.0
7600000.0,11.96875,8.504485271664128E-8,7600000.0,55.60000000000001,10.726852317281594,8.829568788501035,6.526315789473689,1335932.0,9112.0,0.0,1.0,0.0,?,0.0,0.0
7700000.0,12.140625,8.618918299261065E-8,7700000.0,51.9,3.589439335508758,-1.0504201680672278,1.0288065843621408,1354114.0,9112.0,0.0,1.0,0.0,?,0.0,0.0
7800000.0,12.296875,8.738438029670051E-8,7800000.0,53.0,5.864444800512734,13.284132841328415,4.081632653061228,1372294.0,9112.0,0.0,1.0,0.0,?,0.0,0.0
7900000.0,12.453125,8.857343345880506E-8,7900000.0,52.1,3.254994789099932,6.627680311890844,-3.4557235421166337,1390476.0,9112.0,0.0,1.0,0.0,?,0.0,0.0
8000000.0,12.625,8.987463338093623E-8,8000000.0,52.1,4.244430584208932,4.200000000000004,4.960317460317465,1408658.0,9112.0,0.0,1.0,0.0,?,0.0,0.0
8100000.0,12.78125,9.105139825907016E-8,8100000.0,55.7,11.411339348563386,11.57684630738524,9.591836734693885,1426840.0,9112.0,0.0,1.0,0.0,?,0.0,0.0
8200000.0,12.953125,9.233908106883365E-8,8200000.0,51.800000000000004,2.9478092783505128,2.231237322515215,-5.240174672489088,1445022.0,9112.0,0.0,1.0,0.0,?,0.0,0.0
8300000.0,13.109375,9.350355766299696E-8,8300000.0,52.5,4.31643662323638,3.258655804480655,-2.8138528138528165,1463204.0,9112.0,0.0,1.0,0.0,?,0.0,0.0
8400000.0,13.265625,9.466189011517496E-8,8400000.0,52.800000000000004,5.258551820762016,-0.21231422505307876,-1.2875536480686707,1481386.0,9112.0,0.0,1.0,0.0,?,0.0,0.0
8500000.0,13.4375,9.592929725638692E-8,8500000.0,53.7,6.953376205787796,4.140786749482405,-2.433628318584073,1499568.0,9112.0,0.0,1.0,0.0,?,0.0,0.0
8600000.0,13.59375,9.70753414245943E-8,8600000.0,55.1,9.856010536206169,6.846473029045649,6.458333333333339,1517750.0,9112.0,0.0,1.0,0.0,?,0.0,0.0
8700000.0,13.75,9.821524145081637E-8,8700000.0,51.6,3.151575787893955,2.8112449799196813,1.8255578093306306,1535932.0,9112.0,0.0,1.0,0.0,?,0.0,0.0
8800000.0,13.921875,9.935957172678574E-8,8800000.0,53.900000000000006,7.740215659747525,6.6801619433198445,7.243460764587531,1554114.0,9112.0,0.0,1.0,0.0,?,0.0,0.0
8900000.0,14.078125,1.0055476903087561E-7,8900000.0,53.800000000000004,6.743909085403999,5.521472392638041,-2.8953229398663725,1572294.0,9112.0,0.0,1.0,0.0,?,0.0,0.0
9000000.0,14.25,1.0186272750919062E-7,9000000.0,50.9,1.5850617749164229,2.1912350597609582,-0.8213552361396311,1590476.0,9112.0,0.0,1.0,0.0,?,0.0,0.0
9100000.0,14.40625,1.0304563652930987E-7,9100000.0,53.900000000000006,6.811455924446539,8.71287128712872,-2.672605790645882,1608658.0,9112.0,0.0,1.0,0.0,?,0.0,0.0
9200000.0,14.5625,1.042224014074438E-7,9200000.0,53.400000000000006,5.855542805424016,8.806262230919772,-0.8658008658008667,1626840.0,9112.0,0.0,1.0,0.0,?,0.0,0.0
9300000.0,14.71875,1.0539302214359242E-7,9300000.0,55.1,9.905932965198403,4.872881355932208,7.039337474120089,1645022.0,9112.0,0.0,1.0,0.0,?,0.0,0.0
9400000.0,14.875,1.0655749873775573E-7,9400000.0,54.400000000000006,8.360128617363358,12.476007677543196,2.978723404255322,1663204.0,9112.0,0.0,1.0,0.0,?,0.0,0.0
9500000.0,15.03125,1.0771583118993374E-7,9500000.0,54.6,8.893517793858557,-0.2207505518763799,3.6093418259023387,1681386.0,9112.0,0.0,1.0,0.0,?,0.0,0.0
9600000.0,15.203125,1.089832383311457E-7,9600000.0,50.8,1.4549416741443282,6.285714285714292,0.0,1699568.0,9112.0,0.0,1.0,0.0,?,0.0,0.0
9700000.0,15.359375,1.1012928249935308E-7,9700000.0,51.4,2.7252930250432255,2.6052104208416855,-0.8298755186721999,1717750.0,9112.0,0.0,1.0,0.0,?,0.0,0.0
9800000.0,15.515625,1.1126918252557514E-7,9800000.0,50.8,0.9980682549903342,1.402805611222446,-6.956521739130442,1735932.0,9112.0,0.0,1.0,0.0,?,0.0,0.0
9900000.0,15.6875,1.1241351280154452E-7,9900000.0,50.5,0.6351322054584545,3.3203125000000027,-2.6970954356846497,1754114.0,9112.0,0.0,1.0,0.0,?,0.0,0.0
1.0E7,15.84375,1.1360871010563438E-7,1.0E7,53.800000000000004,6.826661288696187,8.514851485148522,2.7368421052631606,1772294.0,9112.0,0.0,1.0,0.0,?,0.0,0.0
