learning evaluation instances,evaluation time (cpu seconds),model cost (RAM-Hours),classified instances,classifications correct (percent),Kappa Statistic (percent),Kappa Temporal Statistic (percent),Kappa M Statistic (percent),model training instances,model serialized size (bytes),labeling cost,newThreshold,maxPosterior,accuracyBaseLearner (percent),Change detected,Warning detected,tree size (nodes),tree size (leaves),active learning leaves,tree depth,active leaf byte size estimate,inactive leaf byte size estimate,byte size estimate overhead
100000.0,0.328125,0.0,100000.0,89.60000000000001,78.97333252461536,77.77777777777779,76.94013303769401,29700.0,0.0,0.0,1.0,0.0,?,0.0,3.0,70.0,52.0,52.0,3.0,0.0,0.0,1.0
200000.0,0.640625,0.0,200000.0,89.7,79.07320720369287,79.0224032586558,76.5375854214123,59700.0,0.0,0.0,1.0,0.0,?,0.0,0.0,151.0,112.0,112.0,4.0,0.0,0.0,1.0
300000.0,0.96875,0.0,300000.0,91.2,82.21108168752149,81.55136268343817,80.65934065934066,89700.0,0.0,0.0,1.0,0.0,?,0.0,0.0,207.0,149.0,149.0,5.0,0.0,0.0,1.0
400000.0,1.296875,0.0,400000.0,93.5,86.67453893904731,86.43006263048018,84.84848484848486,119700.0,0.0,0.0,1.0,0.0,?,0.0,0.0,267.0,188.0,188.0,5.0,0.0,0.0,1.0
500000.0,1.59375,0.0,500000.0,93.5,86.9078311311634,86.1407249466951,86.11111111111113,149700.0,0.0,0.0,1.0,0.0,?,0.0,0.0,309.0,212.0,212.0,6.0,0.0,0.0,1.0
600000.0,1.859375,0.0,600000.0,95.5,90.8998988877654,90.9090909090909,89.99999999999999,179700.0,0.0,0.0,1.0,0.0,?,0.0,0.0,339.0,230.0,230.0,6.0,0.0,0.0,1.0
700000.0,2.125,0.0,700000.0,96.0,91.89889825016202,91.76954732510288,90.90909090909089,209700.0,0.0,0.0,1.0,0.0,?,0.0,0.0,366.0,245.0,245.0,6.0,0.0,0.0,1.0
800000.0,2.40625,0.0,800000.0,95.8,91.5062287655719,91.10169491525423,90.45454545454544,239700.0,0.0,0.0,1.0,0.0,?,0.0,0.0,387.0,257.0,257.0,6.0,0.0,0.0,1.0
900000.0,2.703125,0.0,900000.0,94.39999999999999,88.67387224127887,88.66396761133602,87.33031674208144,269700.0,0.0,0.0,1.0,0.0,?,0.0,0.0,406.0,268.0,268.0,6.0,0.0,0.0,1.0
1000000.0,3.0,0.0,1000000.0,97.2,94.35436065150678,94.37751004016064,93.81898454746135,299700.0,0.0,0.0,1.0,0.0,?,0.0,0.0,444.0,290.0,290.0,6.0,0.0,0.0,1.0
1100000.0,3.25,0.0,1100000.0,96.3,92.54152556039348,92.570281124498,91.79600886917959,329400.0,0.0,0.0,1.0,0.0,?,0.0,0.0,467.0,303.0,303.0,6.0,0.0,0.0,1.0
1200000.0,3.5625,0.0,1200000.0,96.89999999999999,93.76111929544923,93.59504132231405,93.29004329004327,359400.0,0.0,0.0,1.0,0.0,?,0.0,0.0,488.0,315.0,315.0,6.0,0.0,0.0,1.0
1300000.0,3.875,0.0,1300000.0,96.1,92.17024693836578,92.4124513618677,91.55844155844154,389400.0,0.0,0.0,1.0,0.0,?,0.0,0.0,497.0,321.0,321.0,7.0,0.0,0.0,1.0
1400000.0,4.171875,0.0,1400000.0,97.1,94.13098032866509,94.16498993963782,93.40909090909089,419400.0,0.0,0.0,1.0,0.0,?,0.0,0.0,510.0,329.0,329.0,7.0,0.0,0.0,1.0
1500000.0,4.46875,0.0,1500000.0,97.2,94.34169684428349,94.29735234215886,93.69369369369369,449400.0,0.0,0.0,1.0,0.0,?,0.0,0.0,514.0,331.0,331.0,7.0,0.0,0.0,1.0
1600000.0,4.75,0.0,1600000.0,96.89999999999999,93.61404087013842,93.01801801801801,92.42053789731051,479400.0,0.0,0.0,1.0,0.0,?,0.0,0.0,528.0,338.0,338.0,7.0,0.0,0.0,1.0
1700000.0,5.0625,0.0,1700000.0,96.89999999999999,93.71410959348538,93.27548806941431,93.01801801801801,509400.0,0.0,0.0,1.0,0.0,?,0.0,0.0,536.0,342.0,342.0,7.0,0.0,0.0,1.0
1800000.0,5.34375,0.0,1800000.0,97.5,94.90718860514006,94.87704918032787,94.22632794457274,539400.0,0.0,0.0,1.0,0.0,?,0.0,0.0,550.0,349.0,349.0,7.0,0.0,0.0,1.0
1900000.0,5.625,0.0,1900000.0,97.8,95.5221389520991,95.39748953974895,94.89559164733178,569400.0,0.0,0.0,1.0,0.0,?,0.0,0.0,552.0,350.0,350.0,7.0,0.0,0.0,1.0
2000000.0,5.890625,0.0,2000000.0,96.89999999999999,93.72825119365541,93.81237524950099,93.03370786516854,599400.0,0.0,0.0,1.0,0.0,?,0.0,0.0,557.0,354.0,354.0,7.0,0.0,0.0,1.0
2100000.0,6.171875,0.0,2100000.0,96.2,92.27818057677926,92.72030651340995,91.2037037037037,629100.0,0.0,0.0,1.0,0.0,?,0.0,0.0,573.0,362.0,362.0,7.0,0.0,0.0,1.0
2200000.0,6.4375,0.0,2200000.0,96.39999999999999,92.7020616675789,92.7710843373494,91.91011235955055,659100.0,0.0,0.0,1.0,0.0,?,0.0,0.0,577.0,364.0,364.0,7.0,0.0,0.0,1.0
2300000.0,6.734375,0.0,2300000.0,97.1,94.17848367566525,94.14141414141413,93.79014989293361,689100.0,0.0,0.0,1.0,0.0,?,0.0,0.0,587.0,369.0,369.0,7.0,0.0,0.0,1.0
2400000.0,7.03125,0.0,2400000.0,97.5,94.91270196573196,94.94949494949495,94.25287356321839,719100.0,0.0,0.0,1.0,0.0,?,0.0,0.0,591.0,371.0,371.0,7.0,0.0,0.0,1.0
2500000.0,7.328125,0.0,2500000.0,97.1,94.14264477766287,93.94572025052192,93.54120267260578,749100.0,0.0,0.0,1.0,0.0,?,0.0,0.0,595.0,373.0,373.0,7.0,0.0,0.0,1.0
2600000.0,7.640625,0.0,2600000.0,97.1,94.10506801531868,94.03292181069959,93.39407744874715,779100.0,0.0,0.0,1.0,0.0,?,0.0,0.0,605.0,378.0,378.0,7.0,0.0,0.0,1.0
2700000.0,7.953125,0.0,2700000.0,96.39999999999999,92.69833156876346,92.5311203319502,91.83673469387755,809100.0,0.0,0.0,1.0,0.0,?,0.0,0.0,611.0,381.0,381.0,7.0,0.0,0.0,1.0
2800000.0,8.265625,0.0,2800000.0,96.8,93.48035140905905,93.3609958506224,92.48826291079811,839100.0,0.0,0.0,1.0,0.0,?,0.0,0.0,615.0,383.0,383.0,7.0,0.0,0.0,1.0
2900000.0,8.546875,0.0,2900000.0,96.7,93.38051222799922,93.61702127659574,92.94871794871794,869100.0,0.0,0.0,1.0,0.0,?,0.0,0.0,629.0,390.0,390.0,7.0,0.0,0.0,1.0
3000000.0,8.84375,0.0,3000000.0,97.7,95.34883720930232,95.04310344827586,94.88888888888889,899100.0,0.0,0.0,1.0,0.0,?,0.0,0.0,633.0,392.0,392.0,7.0,0.0,0.0,1.0
3100000.0,9.15625,0.0,3100000.0,97.6,95.16606578178815,95.3125,94.7939262472885,928800.0,0.0,0.0,1.0,0.0,?,0.0,0.0,646.0,400.0,400.0,7.0,0.0,0.0,1.0
3200000.0,9.421875,0.0,3200000.0,97.5,94.93299391148547,94.97991967871485,94.35665914221218,958800.0,0.0,0.0,1.0,0.0,?,0.0,0.0,654.0,404.0,404.0,7.0,0.0,0.0,1.0
3300000.0,9.65625,0.0,3300000.0,97.39999999999999,94.67736652472976,94.78957915831663,93.9252336448598,988800.0,0.0,0.0,1.0,0.0,?,0.0,0.0,660.0,407.0,407.0,7.0,0.0,0.0,1.0
3400000.0,9.953125,0.0,3400000.0,97.39999999999999,94.65682426295,94.6611909650924,93.85342789598108,1018800.0,0.0,0.0,1.0,0.0,?,0.0,0.0,668.0,411.0,411.0,7.0,0.0,0.0,?
3500000.0,10.21875,0.0,3500000.0,98.3,96.56070954585181,96.67318982387475,96.21380846325167,1048800.0,0.0,0.0,1.0,0.0,?,0.0,0.0,672.0,413.0,413.0,7.0,0.0,0.0,?
3600000.0,10.5625,0.0,3600000.0,96.8,93.5302561614201,93.67588932806323,92.90465631929045,1078800.0,0.0,0.0,1.0,0.0,?,0.0,0.0,674.0,414.0,414.0,7.0,0.0,0.0,?
3700000.0,10.859375,0.0,3700000.0,97.39999999999999,94.75950142702807,94.77911646586344,94.32314410480349,1108800.0,0.0,0.0,1.0,0.0,?,0.0,0.0,676.0,415.0,415.0,7.0,0.0,0.0,?
3800000.0,11.171875,0.0,3800000.0,98.0,95.94544186574547,95.77167019027483,95.47511312217193,1138800.0,0.0,0.0,1.0,0.0,?,0.0,0.0,680.0,417.0,417.0,7.0,0.0,0.0,?
3900000.0,11.46875,0.0,3900000.0,97.7,95.3246330853356,95.46351084812623,94.74885844748859,1168800.0,0.0,0.0,1.0,0.0,?,0.0,0.0,682.0,418.0,418.0,7.0,0.0,0.0,?
4000000.0,11.78125,0.0,4000000.0,97.3,94.54721706115194,94.55645161290323,94.07894736842105,1198800.0,0.0,0.0,1.0,0.0,?,0.0,0.0,682.0,418.0,418.0,7.0,0.0,0.0,?
4100000.0,12.0625,0.0,4100000.0,98.3,96.5776313988227,96.65354330708661,96.2800875273523,1228500.0,0.0,0.0,1.0,0.0,?,0.0,0.0,688.0,421.0,421.0,7.0,0.0,0.0,?
4200000.0,12.359375,0.0,4200000.0,97.39999999999999,94.76652670480392,94.8207171314741,94.3355119825708,1258500.0,0.0,0.0,1.0,0.0,?,0.0,0.0,694.0,424.0,424.0,7.0,0.0,0.0,?
4300000.0,12.671875,0.0,4300000.0,96.8,93.59300355988739,93.50912778904664,93.42915811088295,1288500.0,0.0,0.0,1.0,0.0,?,0.0,0.0,696.0,425.0,425.0,7.0,0.0,0.0,?
4400000.0,12.984375,0.0,4400000.0,98.3,96.56499038197308,96.6796875,96.23059866962306,1318500.0,0.0,0.0,1.0,0.0,?,0.0,0.0,700.0,427.0,427.0,7.0,0.0,0.0,?
4500000.0,13.28125,0.0,4500000.0,96.39999999999999,92.69148314168777,92.40506329113923,91.74311926605505,1348500.0,0.0,0.0,1.0,0.0,?,0.0,0.0,704.0,429.0,429.0,7.0,0.0,0.0,?
4600000.0,13.609375,0.0,4600000.0,98.2,96.37083603840462,96.34888438133873,96.078431372549,1378500.0,0.0,0.0,1.0,0.0,?,0.0,0.0,708.0,431.0,431.0,7.0,0.0,0.0,?
4700000.0,13.921875,0.0,4700000.0,97.5,94.8534255599473,94.66950959488273,94.04761904761905,1408500.0,0.0,0.0,1.0,0.0,?,0.0,0.0,712.0,433.0,433.0,7.0,0.0,0.0,?
4800000.0,14.234375,0.0,4800000.0,98.2,96.35596548694423,96.40718562874251,95.93679458239276,1438500.0,0.0,0.0,1.0,0.0,?,0.0,0.0,716.0,435.0,435.0,7.0,0.0,0.0,?
4900000.0,14.53125,0.0,4900000.0,97.8,95.53578675670849,95.53752535496956,95.02262443438913,1468500.0,0.0,0.0,1.0,0.0,?,0.0,0.0,726.0,440.0,440.0,7.0,0.0,0.0,?
5000000.0,14.828125,0.0,5000000.0,97.7,95.32934229016561,95.27720739219711,94.76082004555808,1498500.0,0.0,0.0,1.0,0.0,?,0.0,0.0,732.0,443.0,443.0,7.0,0.0,0.0,?
5100000.0,15.1875,0.0,5100000.0,79.2,55.58080236446806,55.74468085106383,43.93530997304583,29166.0,0.0,0.0,1.0,0.0,?,1.0,8.0,29.0,18.0,18.0,4.0,0.0,0.0,1.0
5200000.0,15.46875,0.0,5200000.0,85.9,69.97035371089756,71.10655737704917,62.99212598425197,59166.0,0.0,0.0,1.0,0.0,?,0.0,0.0,79.0,49.0,49.0,7.0,0.0,0.0,1.0
5300000.0,15.75,0.0,5300000.0,86.4,70.86084769222198,69.77777777777777,63.53887399463807,89166.0,0.0,0.0,1.0,0.0,?,0.0,0.0,99.0,62.0,62.0,8.0,0.0,0.0,1.0
5400000.0,16.015625,0.0,5400000.0,86.7,71.25790947754227,70.50997782705099,63.36088154269972,119166.0,0.0,0.0,1.0,0.0,?,0.0,0.0,117.0,74.0,74.0,9.0,0.0,0.0,1.0
5500000.0,16.296875,0.0,5500000.0,87.5,73.11319131362495,73.90396659707724,65.65934065934066,149166.0,0.0,0.0,1.0,0.0,?,0.0,0.0,140.0,90.0,90.0,10.0,0.0,0.0,1.0
5600000.0,16.59375,0.0,5600000.0,87.0,72.60239328632184,73.89558232931726,66.75191815856778,179166.0,0.0,0.0,1.0,0.0,?,0.0,0.0,165.0,107.0,107.0,11.0,0.0,0.0,1.0
5700000.0,16.875,0.0,5700000.0,87.4,73.14898477590057,71.81208053691275,66.31016042780749,209166.0,0.0,0.0,1.0,0.0,?,0.0,0.0,200.0,132.0,132.0,11.0,0.0,0.0,1.0
5800000.0,17.140625,0.0,5800000.0,87.5,73.26134574577316,73.79454926624737,66.39784946236558,239166.0,0.0,0.0,1.0,0.0,?,0.0,0.0,216.0,143.0,143.0,11.0,0.0,0.0,1.0
5900000.0,17.4375,0.0,5900000.0,87.5,73.764849095412,73.68421052631578,67.94871794871796,269166.0,0.0,0.0,1.0,0.0,?,0.0,0.0,246.0,164.0,164.0,12.0,0.0,0.0,1.0
6000000.0,17.734375,0.0,6000000.0,87.0,72.6006609563634,72.57383966244726,66.32124352331607,299166.0,0.0,0.0,1.0,0.0,?,0.0,0.0,283.0,190.0,190.0,12.0,0.0,0.0,1.0
6100000.0,18.03125,0.0,6100000.0,87.7,74.19046180188347,74.63917525773196,69.17293233082708,328866.0,0.0,0.0,1.0,0.0,?,0.0,0.0,297.0,200.0,200.0,13.0,0.0,0.0,1.0
6200000.0,18.296875,0.0,6200000.0,86.7,72.00942840306423,70.76923076923076,65.45454545454545,358866.0,0.0,0.0,1.0,0.0,?,0.0,0.0,309.0,206.0,206.0,13.0,0.0,0.0,1.0
6300000.0,18.609375,0.0,6300000.0,88.0,73.22958309537407,73.62637362637362,65.3179190751445,388866.0,0.0,0.0,1.0,0.0,?,0.0,0.0,320.0,213.0,213.0,13.0,0.0,0.0,1.0
6400000.0,18.90625,0.0,6400000.0,89.1,76.44750602857415,76.55913978494624,70.46070460704608,418866.0,0.0,0.0,1.0,0.0,?,0.0,0.0,344.0,231.0,231.0,13.0,0.0,0.0,1.0
6500000.0,19.203125,0.0,6500000.0,89.7,78.47889678228167,78.67494824016563,73.79134860050891,448866.0,0.0,0.0,1.0,0.0,?,0.0,0.0,346.0,232.0,232.0,13.0,0.0,0.0,1.0
6600000.0,19.53125,0.0,6600000.0,90.4,79.43303739759367,79.17570498915401,74.46808510638299,478866.0,0.0,0.0,1.0,0.0,?,0.0,0.0,374.0,252.0,252.0,13.0,0.0,0.0,1.0
6700000.0,19.84375,0.0,6700000.0,90.60000000000001,80.03059143439837,79.15742793791574,75.13227513227514,508866.0,0.0,0.0,1.0,0.0,?,0.0,0.0,390.0,263.0,263.0,13.0,0.0,0.0,1.0
6800000.0,20.171875,0.0,6800000.0,89.7,77.43840465425998,77.21238938053098,71.1484593837535,538866.0,0.0,0.0,1.0,0.0,?,0.0,0.0,408.0,275.0,275.0,13.0,0.0,0.0,1.0
6900000.0,20.4375,0.0,6900000.0,89.7,78.19588981938577,77.8494623655914,73.03664921465969,568866.0,0.0,0.0,1.0,0.0,?,0.0,0.0,431.0,291.0,291.0,13.0,0.0,0.0,1.0
7000000.0,20.765625,0.0,7000000.0,89.3,77.86677036877684,77.80082987551867,73.18295739348372,598866.0,0.0,0.0,1.0,0.0,?,0.0,0.0,454.0,304.0,304.0,13.0,0.0,0.0,1.0
7100000.0,21.09375,0.0,7100000.0,89.9,78.19949405558482,76.78160919540231,72.09944751381217,628566.0,0.0,0.0,1.0,0.0,?,0.0,0.0,465.0,311.0,311.0,13.0,0.0,0.0,1.0
7200000.0,21.46875,0.0,7200000.0,90.7,79.55073177596398,80.33826638477802,73.87640449438203,658566.0,0.0,0.0,1.0,0.0,?,0.0,0.0,512.0,345.0,345.0,13.0,0.0,0.0,1.0
7300000.0,21.8125,0.0,7300000.0,91.8,82.73371599910722,82.40343347639487,78.81136950904394,688566.0,0.0,0.0,1.0,0.0,?,0.0,0.0,531.0,356.0,356.0,13.0,0.0,0.0,1.0
7400000.0,22.171875,0.0,7400000.0,91.10000000000001,81.12182995223188,80.65217391304348,76.51715039577837,718566.0,0.0,0.0,1.0,0.0,?,0.0,0.0,548.0,366.0,366.0,13.0,0.0,0.0,1.0
7500000.0,22.53125,0.0,7500000.0,91.7,82.71063858152247,83.02658486707567,79.80535279805355,748566.0,0.0,0.0,1.0,0.0,?,0.0,0.0,572.0,381.0,381.0,13.0,0.0,0.0,1.0
7600000.0,22.875,0.0,7600000.0,90.2,78.80943628775921,78.07606263982103,72.85318559556787,778566.0,0.0,0.0,1.0,0.0,?,0.0,0.0,578.0,384.0,384.0,13.0,0.0,0.0,1.0
7700000.0,23.234375,0.0,7700000.0,89.8,78.04752066115702,78.2051282051282,72.43243243243244,808566.0,0.0,0.0,1.0,0.0,?,0.0,0.0,590.0,390.0,390.0,13.0,0.0,0.0,1.0
7800000.0,23.59375,0.0,7800000.0,92.0,82.84005645621427,82.37885462555067,78.319783197832,838566.0,0.0,0.0,1.0,0.0,?,0.0,0.0,600.0,395.0,395.0,13.0,0.0,0.0,1.0
7900000.0,23.921875,0.0,7900000.0,90.60000000000001,79.90353697749197,79.29515418502203,74.73118279569894,868566.0,0.0,0.0,1.0,0.0,?,0.0,0.0,618.0,407.0,407.0,13.0,0.0,0.0,1.0
8000000.0,24.265625,0.0,8000000.0,91.4,81.45400593471811,82.08333333333334,77.0053475935829,898566.0,0.0,0.0,1.0,0.0,?,0.0,0.0,639.0,422.0,422.0,13.0,0.0,0.0,1.0
8100000.0,24.59375,0.0,8100000.0,88.6,75.20013922728856,75.9493670886076,67.97752808988764,928266.0,0.0,0.0,1.0,0.0,?,0.0,0.0,646.0,427.0,427.0,13.0,0.0,0.0,1.0
8200000.0,24.9375,0.0,8200000.0,90.4,79.8826487845767,78.61915367483296,76.00000000000001,958266.0,0.0,0.0,1.0,0.0,?,0.0,0.0,659.0,435.0,435.0,13.0,0.0,0.0,1.0
8300000.0,25.28125,0.0,8300000.0,90.10000000000001,78.98017767057904,79.41787941787942,74.1514360313316,988266.0,0.0,0.0,1.0,0.0,?,0.0,0.0,667.0,439.0,439.0,13.0,0.0,0.0,1.0
8400000.0,25.703125,0.0,8400000.0,89.8,77.55429879189315,77.82608695652175,70.43478260869566,1018266.0,0.0,0.0,1.0,0.0,?,0.0,0.0,683.0,450.0,450.0,13.0,0.0,0.0,?
8500000.0,26.03125,0.0,8500000.0,90.4,79.24378178295916,78.37837837837837,73.91304347826087,1048266.0,0.0,0.0,1.0,0.0,?,0.0,0.0,694.0,457.0,457.0,13.0,0.0,0.0,?
8600000.0,26.375,0.0,8600000.0,89.7,78.19607444664601,79.27565392354126,73.17708333333334,1078266.0,0.0,0.0,1.0,0.0,?,0.0,0.0,711.0,470.0,470.0,13.0,0.0,0.0,?
8700000.0,26.703125,0.0,8700000.0,91.10000000000001,81.0307344729102,80.94218415417559,76.88311688311688,1108266.0,0.0,0.0,1.0,0.0,?,0.0,0.0,715.0,472.0,472.0,13.0,0.0,0.0,?
8800000.0,27.0625,0.0,8800000.0,89.1,77.01973351324001,77.5257731958763,71.3157894736842,1138266.0,0.0,0.0,1.0,0.0,?,0.0,0.0,735.0,485.0,485.0,13.0,0.0,0.0,?
8900000.0,27.40625,0.0,8900000.0,90.60000000000001,80.19017432646594,80.25210084033614,76.02040816326532,1168266.0,0.0,0.0,1.0,0.0,?,0.0,0.0,741.0,488.0,488.0,13.0,0.0,0.0,?
9000000.0,27.75,0.0,9000000.0,91.4,81.49678130056112,81.9706498951782,77.1276595744681,1198266.0,0.0,0.0,1.0,0.0,?,0.0,0.0,752.0,495.0,495.0,13.0,0.0,0.0,?
9100000.0,28.09375,0.0,9100000.0,91.2,80.95279322958379,81.81818181818183,75.21126760563381,1227966.0,0.0,0.0,1.0,0.0,?,0.0,0.0,754.0,496.0,496.0,13.0,0.0,0.0,?
9200000.0,28.453125,0.0,9200000.0,91.60000000000001,82.1392120840988,82.1276595744681,78.12500000000001,1257966.0,0.0,0.0,1.0,0.0,?,0.0,0.0,771.0,509.0,509.0,13.0,0.0,0.0,?
9300000.0,28.8125,0.0,9300000.0,92.0,83.45295468177964,83.80566801619433,80.62953995157386,1287966.0,0.0,0.0,1.0,0.0,?,0.0,0.0,771.0,509.0,509.0,13.0,0.0,0.0,?
9400000.0,29.1875,0.0,9400000.0,91.60000000000001,82.41537398731396,83.26693227091634,79.15632754342433,1317966.0,0.0,0.0,1.0,0.0,?,0.0,0.0,779.0,513.0,513.0,13.0,0.0,0.0,?
9500000.0,29.5625,0.0,9500000.0,92.0,83.17510925663427,83.70672097759675,79.84886649874056,1347966.0,0.0,0.0,1.0,0.0,?,0.0,0.0,791.0,519.0,519.0,13.0,0.0,0.0,?
9600000.0,29.90625,0.0,9600000.0,91.3,81.75672275251212,82.0618556701031,77.86259541984734,1377966.0,0.0,0.0,1.0,0.0,?,0.0,0.0,804.0,527.0,527.0,13.0,0.0,0.0,?
9700000.0,30.265625,0.0,9700000.0,91.4,81.65364644443403,81.8565400843882,76.9436997319035,1407966.0,0.0,0.0,1.0,0.0,?,0.0,0.0,817.0,535.0,535.0,14.0,0.0,0.0,?
9800000.0,30.609375,0.0,9800000.0,91.5,82.11354740962081,82.14285714285715,78.48101265822785,1437966.0,0.0,0.0,1.0,0.0,?,0.0,0.0,823.0,538.0,538.0,14.0,0.0,0.0,?
9900000.0,30.984375,0.0,9900000.0,90.9,80.1936236527311,79.95594713656388,74.14772727272728,1467966.0,0.0,0.0,1.0,0.0,?,0.0,0.0,835.0,544.0,544.0,14.0,0.0,0.0,?
1.0E7,31.34375,0.0,1.0E7,91.7,82.34988899568742,82.85123966942149,78.66323907455013,1497966.0,0.0,0.0,1.0,0.0,?,0.0,0.0,847.0,550.0,550.0,14.0,0.0,0.0,?
