learning evaluation instances,evaluation time (cpu seconds),model cost (RAM-Hours),classified instances,classifications correct (percent),Kappa Statistic (percent),Kappa Temporal Statistic (percent),Kappa M Statistic (percent),model training instances,model serialized size (bytes),labeling cost,newThreshold,maxPosterior,accuracyBaseLearner (percent),Change detected,Warning detected,tree size (nodes),tree size (leaves),active learning leaves,tree depth,active leaf byte size estimate,inactive leaf byte size estimate,byte size estimate overhead
100000.0,0.25,1.2045105298360189E-8,100000.0,58.5,29.024401923695244,3.4883720930232585,-30.094043887147365,18604.0,8512.0,0.0,1.0,0.0,?,4.0,14.0,3.0,2.0,2.0,1.0,0.0,0.0,1.0
200000.0,0.46875,2.176966518163681E-8,200000.0,60.099999999999994,30.99225868044745,8.275862068965525,-22.018348623853235,38604.0,8512.0,0.0,1.0,0.0,?,0.0,0.0,3.0,2.0,2.0,1.0,0.0,0.0,1.0
300000.0,0.671875,3.004291405280431E-8,300000.0,62.0,33.40716959441462,13.043478260869575,-12.426035502958593,58604.0,8512.0,0.0,1.0,0.0,?,0.0,0.0,3.0,2.0,2.0,1.0,0.0,0.0,1.0
400000.0,0.890625,3.813765943050385E-8,400000.0,61.4,32.66439656134866,10.232558139534891,-16.265060240963873,78604.0,8512.0,0.0,1.0,0.0,?,0.0,0.0,3.0,2.0,2.0,1.0,0.0,0.0,1.0
500000.0,1.09375,4.4897509117921196E-8,500000.0,57.3,27.460400513723048,-1.666666666666668,-32.60869565217395,98604.0,8512.0,0.0,1.0,0.0,?,0.0,0.0,3.0,2.0,2.0,1.0,0.0,0.0,1.0
600000.0,1.3125,5.1362439990043645E-8,600000.0,61.7,33.03493373430779,10.093896713615031,-14.328358208955239,118604.0,8512.0,0.0,1.0,0.0,?,0.0,0.0,3.0,2.0,2.0,1.0,0.0,0.0,1.0
700000.0,1.5,5.6205317378044136E-8,700000.0,60.9,31.76217635027121,9.280742459396759,-13.005780346820822,138604.0,8512.0,0.0,1.0,0.0,?,0.0,0.0,3.0,2.0,2.0,1.0,0.0,0.0,1.0
800000.0,1.71875,6.104043374458949E-8,800000.0,60.8,31.583356604300477,12.888888888888877,-12.643678160919553,158604.0,8512.0,0.0,1.0,0.0,?,0.0,0.0,3.0,2.0,2.0,1.0,0.0,0.0,1.0
900000.0,1.921875,6.477348506450654E-8,900000.0,62.0,33.47711612794801,12.240184757505784,-14.457831325301218,178604.0,8512.0,0.0,1.0,0.0,?,0.0,0.0,3.0,2.0,2.0,1.0,0.0,0.0,1.0
1000000.0,2.140625,6.797878692547481E-8,1000000.0,56.8,26.886481107263617,-1.647058823529413,-35.42319749216304,198604.0,8512.0,0.0,1.0,0.0,?,0.0,0.0,3.0,2.0,2.0,1.0,0.0,0.0,1.0
1100000.0,2.359375,7.852640313406786E-8,1100000.0,59.0,29.704243463351894,3.7558685446009417,-30.15873015873019,218404.0,8512.0,0.0,1.0,0.0,?,0.0,0.0,3.0,2.0,2.0,1.0,0.0,0.0,1.0
1200000.0,2.5625,8.756391859302919E-8,1200000.0,59.599999999999994,29.935068538764636,12.93103448275861,-16.09195402298852,238404.0,8512.0,0.0,1.0,0.0,?,0.0,0.0,3.0,2.0,2.0,1.0,0.0,0.0,1.0
1300000.0,2.796875,9.711870613197487E-8,1300000.0,62.1,33.613127434769204,15.590200445434288,-14.15662650602411,258404.0,8512.0,0.0,1.0,0.0,?,0.0,0.0,3.0,2.0,2.0,1.0,0.0,0.0,1.0
1400000.0,2.984375,1.040640442321698E-7,1400000.0,59.699999999999996,30.46688981676386,11.816192560175041,-23.2415902140673,278404.0,8512.0,0.0,1.0,0.0,?,0.0,0.0,3.0,2.0,2.0,1.0,0.0,0.0,1.0
1500000.0,3.1875,1.108314609155059E-7,1500000.0,60.9,32.13313708064874,1.0126582278481022,-23.343848580441666,298404.0,8512.0,0.0,1.0,0.0,?,0.0,0.0,3.0,2.0,2.0,1.0,0.0,0.0,1.0
1600000.0,3.375,1.163798151537776E-7,1600000.0,61.9,33.269814136290705,15.707964601769902,-12.721893491124273,318404.0,8512.0,0.0,1.0,0.0,?,0.0,0.0,3.0,2.0,2.0,1.0,0.0,0.0,1.0
1700000.0,3.5625,1.212296774610877E-7,1700000.0,58.8,29.5569955716655,2.830188679245285,-39.66101694915253,338404.0,8512.0,0.0,1.0,0.0,?,0.0,0.0,3.0,2.0,2.0,1.0,0.0,0.0,1.0
1800000.0,3.765625,1.2572699536879858E-7,1800000.0,61.9,33.227712777516835,12.009237875288694,-11.730205278592386,358404.0,8512.0,0.0,1.0,0.0,?,0.0,0.0,3.0,2.0,2.0,1.0,0.0,0.0,1.0
1900000.0,3.96875,1.2946761368463437E-7,1900000.0,62.1,33.099859492053184,17.248908296943224,-4.6961325966850875,378404.0,8512.0,0.0,1.0,0.0,?,0.0,0.0,3.0,2.0,2.0,1.0,0.0,0.0,1.0
2000000.0,4.171875,1.3245153240859509E-7,2000000.0,60.699999999999996,31.878692070887755,5.528846153846159,-24.36708860759496,398404.0,8512.0,0.0,1.0,0.0,?,0.0,0.0,3.0,2.0,2.0,1.0,0.0,0.0,1.0
2100000.0,4.359375,1.4149933122098446E-7,2100000.0,61.199999999999996,32.42937302120812,9.767441860465125,-17.933130699088164,418204.0,8512.0,0.0,1.0,0.0,?,0.0,0.0,3.0,2.0,2.0,1.0,0.0,0.0,1.0
2200000.0,4.5625,1.5054441367586455E-7,2200000.0,60.9,32.159984454052704,7.565011820330975,-25.72347266881027,438204.0,8512.0,0.0,1.0,0.0,?,0.0,0.0,3.0,2.0,2.0,1.0,0.0,0.0,1.0
2300000.0,4.765625,1.5883279653886955E-7,2300000.0,62.6,34.256785262269716,16.70378619153674,-11.30952380952382,458204.0,8512.0,0.0,1.0,0.0,?,0.0,0.0,3.0,2.0,2.0,1.0,0.0,0.0,1.0
2400000.0,4.96875,1.6636447980999949E-7,2400000.0,62.6,34.36408627437216,14.220183486238543,-16.510903426791295,478204.0,8512.0,0.0,1.0,0.0,?,0.0,0.0,3.0,2.0,2.0,1.0,0.0,0.0,1.0
2500000.0,5.15625,1.7261831089854243E-7,2500000.0,60.3,31.20347136539447,10.585585585585571,-19.939577039274944,498204.0,8512.0,0.0,1.0,0.0,?,0.0,0.0,3.0,2.0,2.0,1.0,0.0,0.0,1.0
2600000.0,5.359375,1.786365949859222E-7,2600000.0,61.6,33.029874954219636,15.789473684210517,-19.626168224299086,518204.0,8512.0,0.0,1.0,0.0,?,0.0,0.0,3.0,2.0,2.0,1.0,0.0,0.0,1.0
2700000.0,5.5625,1.838981794814269E-7,2700000.0,58.599999999999994,29.236817366037084,-5.612244897959188,-33.118971061093234,538204.0,8512.0,0.0,1.0,0.0,?,0.0,0.0,3.0,2.0,2.0,1.0,0.0,0.0,1.0
2800000.0,5.765625,1.8840306438505654E-7,2800000.0,59.4,30.289658488006726,4.6948356807511775,-35.78595317725751,558204.0,8512.0,0.0,1.0,0.0,?,0.0,0.0,3.0,2.0,2.0,1.0,0.0,0.0,1.0
2900000.0,5.96875,1.9215124969681109E-7,2900000.0,61.9,33.148042869475496,16.447368421052623,-10.115606936416196,578204.0,8512.0,0.0,1.0,0.0,?,0.0,0.0,3.0,2.0,2.0,1.0,0.0,0.0,1.0
3000000.0,6.1875,1.9537284970283514E-7,3000000.0,63.6,35.659035309755794,22.881355932203387,-8.982035928143722,598204.0,8512.0,0.0,1.0,0.0,?,0.0,0.0,3.0,2.0,2.0,1.0,0.0,0.0,1.0
3100000.0,6.375,2.0442763343453412E-7,3100000.0,59.599999999999994,30.49701515646774,5.164319248826295,-29.903536977491946,618004.0,8512.0,0.0,1.0,0.0,?,0.0,0.0,3.0,2.0,2.0,1.0,0.0,0.0,1.0
3200000.0,6.578125,2.1348028288533297E-7,3200000.0,60.5,31.5315440243505,8.139534883720936,-21.165644171779164,638004.0,8512.0,0.0,1.0,0.0,?,0.0,0.0,3.0,2.0,2.0,1.0,0.0,0.0,1.0
3300000.0,6.796875,2.224143827334047E-7,3300000.0,62.7,34.5113104058543,16.554809843400438,-18.789808917197472,658004.0,8512.0,0.0,1.0,0.0,?,0.0,0.0,3.0,2.0,2.0,1.0,0.0,0.0,1.0
3400000.0,7.0,2.299536330004534E-7,3400000.0,62.4,34.09590448112794,16.071428571428562,-17.133956386292855,678004.0,8512.0,0.0,1.0,0.0,?,0.0,0.0,3.0,2.0,2.0,1.0,0.0,0.0,1.0
3500000.0,7.21875,2.3725791834294804E-7,3500000.0,60.4,31.095683040141985,12.389380530973439,-14.782608695652188,698004.0,8512.0,0.0,1.0,0.0,?,0.0,0.0,3.0,2.0,2.0,1.0,0.0,0.0,1.0
3600000.0,7.40625,2.42820242419839E-7,3600000.0,59.0,29.800290387091472,0.7263922518159812,-39.455782312925166,718004.0,8512.0,0.0,1.0,0.0,?,0.0,0.0,3.0,2.0,2.0,1.0,0.0,0.0,1.0
3700000.0,7.609375,2.4808939391126246E-7,3700000.0,57.3,27.703091666384474,3.6117381489841773,-40.92409240924092,738004.0,8512.0,0.0,1.0,0.0,?,0.0,0.0,3.0,2.0,2.0,1.0,0.0,0.0,1.0
3800000.0,7.8125,2.5260184581081085E-7,3800000.0,60.699999999999996,31.332601812959098,8.17757009345795,-11.33144475920681,758004.0,8512.0,0.0,1.0,0.0,?,0.0,0.0,3.0,2.0,2.0,1.0,0.0,0.0,1.0
3900000.0,8.015625,2.5635759811848416E-7,3900000.0,60.6,31.561101692559955,11.659192825112093,-17.964071856287443,778004.0,8512.0,0.0,1.0,0.0,?,0.0,0.0,3.0,2.0,2.0,1.0,0.0,0.0,1.0
4000000.0,8.21875,2.593566508342824E-7,4000000.0,61.1,32.29554647414699,12.387387387387374,-18.23708206686932,798004.0,8512.0,0.0,1.0,0.0,?,0.0,0.0,3.0,2.0,2.0,1.0,0.0,0.0,1.0
4100000.0,8.421875,2.6917356687287506E-7,4100000.0,61.5,32.841652827976944,11.290322580645169,-17.378048780487823,817804.0,8512.0,0.0,1.0,0.0,?,0.0,0.0,3.0,2.0,2.0,1.0,0.0,0.0,1.0
4200000.0,8.609375,2.775368435929221E-7,4200000.0,60.099999999999994,30.97936646323742,5.0000000000000036,-21.646341463414657,837804.0,8512.0,0.0,1.0,0.0,?,0.0,0.0,3.0,2.0,2.0,1.0,0.0,0.0,1.0
4300000.0,8.8125,2.858403604477646E-7,4300000.0,60.4,31.375811013142567,7.692307692307699,-20.73170731707319,857804.0,8512.0,0.0,1.0,0.0,?,0.0,0.0,3.0,2.0,2.0,1.0,0.0,0.0,1.0
4400000.0,8.984375,2.9222612890104474E-7,4400000.0,60.0,30.973549064001322,3.3816425120772973,-26.58227848101269,877804.0,8512.0,0.0,1.0,0.0,?,0.0,0.0,3.0,2.0,2.0,1.0,0.0,0.0,1.0
4500000.0,9.15625,2.9797161308427675E-7,4500000.0,60.099999999999994,30.767629094947242,14.377682403433468,-17.00879765395896,897804.0,8512.0,0.0,1.0,0.0,?,0.0,0.0,3.0,2.0,2.0,1.0,0.0,0.0,1.0
4600000.0,9.34375,3.0354092208047733E-7,4600000.0,60.199999999999996,31.238230161883866,11.358574610244975,-26.349206349206376,917804.0,8512.0,0.0,1.0,0.0,?,0.0,0.0,3.0,2.0,2.0,1.0,0.0,0.0,1.0
4700000.0,9.546875,3.0881764056781954E-7,4700000.0,60.6,31.786703601108034,0.5050505050505054,-28.75816993464051,937804.0,8512.0,0.0,1.0,0.0,?,0.0,0.0,3.0,2.0,2.0,1.0,0.0,0.0,1.0
4800000.0,9.734375,3.129899657020969E-7,4800000.0,59.3,30.110038053109495,1.6908212560386486,-30.448717948717935,957804.0,8512.0,0.0,1.0,0.0,?,0.0,0.0,3.0,2.0,2.0,1.0,0.0,0.0,1.0
4900000.0,9.9375,3.1675328500568897E-7,4900000.0,59.3,29.913623276253976,9.354120267260564,-23.708206686930115,977804.0,8512.0,0.0,1.0,0.0,?,0.0,0.0,3.0,2.0,2.0,1.0,0.0,0.0,1.0
5000000.0,10.125,3.1968423475821844E-7,5000000.0,59.9,30.39112894826377,10.290827740492157,-15.895953757225447,997804.0,8512.0,0.0,1.0,0.0,?,0.0,0.0,3.0,2.0,2.0,1.0,0.0,0.0,1.0
5100000.0,10.609375,3.5396954950152206E-7,5100000.0,67.30000000000001,22.863532142553858,28.60262008733625,8.403361344537823,19109.0,92344.0,0.0,1.0,0.0,?,3.0,68.0,23.0,21.0,21.0,2.0,0.0,0.0,1.0
5200000.0,11.0,3.8768472020617826E-7,5200000.0,63.7,17.587656765077142,23.093220338983052,4.221635883905018,39109.0,166576.0,0.0,1.0,0.0,?,0.0,0.0,57.0,45.0,45.0,4.0,0.0,0.0,1.0
5300000.0,11.4375,4.3055517987037733E-7,5300000.0,61.5,17.259105796590635,22.379032258064512,-0.7853403141361263,59109.0,225896.0,0.0,1.0,0.0,?,0.0,0.0,88.0,64.0,64.0,4.0,0.0,0.0,1.0
5400000.0,11.828125,4.7583184722397094E-7,5400000.0,64.3,23.20797088356005,27.732793522267208,2.4590163934426252,79109.0,309272.0,0.0,1.0,0.0,?,0.0,0.0,111.0,79.0,79.0,4.0,0.0,0.0,1.0
5500000.0,12.265625,5.280103586200214E-7,5500000.0,65.4,30.013916307971144,27.463312368972748,11.734693877551031,99109.0,336504.0,0.0,1.0,0.0,?,0.0,0.0,123.0,85.0,85.0,5.0,0.0,0.0,1.0
5600000.0,12.671875,5.790236819949419E-7,5600000.0,65.2,28.101550361971512,27.348643006263053,11.224489795918377,119109.0,375184.0,0.0,1.0,0.0,?,0.0,0.0,138.0,96.0,96.0,5.0,0.0,0.0,1.0
5700000.0,13.125,6.370175591049099E-7,5700000.0,69.0,35.35956761806261,32.46187363834421,14.364640883977883,139109.0,398784.0,0.0,1.0,0.0,?,0.0,0.0,148.0,101.0,101.0,6.0,0.0,0.0,1.0
5800000.0,13.53125,6.884891061215769E-7,5800000.0,67.30000000000001,32.0714267908631,29.373650107991367,8.913649025069645,159109.0,408144.0,0.0,1.0,0.0,?,0.0,0.0,156.0,105.0,105.0,6.0,0.0,0.0,1.0
5900000.0,13.9375,7.445538196609256E-7,5900000.0,65.9,29.869446112587312,29.83539094650206,12.339331619537287,179109.0,466056.0,0.0,1.0,0.0,?,0.0,0.0,179.0,120.0,120.0,7.0,0.0,0.0,1.0
6000000.0,14.390625,8.098896554050351E-7,6000000.0,69.69999999999999,37.883360120707174,36.21052631578946,22.506393861892573,199109.0,504144.0,0.0,1.0,0.0,?,0.0,0.0,197.0,129.0,129.0,8.0,0.0,0.0,1.0
6100000.0,14.84375,8.988896863431571E-7,6100000.0,66.7,33.400000000000006,28.540772532188846,13.50649350649352,218909.0,575936.0,0.0,1.0,0.0,?,0.0,0.0,228.0,146.0,146.0,8.0,0.0,0.0,1.0
6200000.0,15.28125,9.88476062452214E-7,6200000.0,71.7,42.434745817874095,41.164241164241155,23.306233062330612,238909.0,622368.0,0.0,1.0,0.0,?,0.0,0.0,250.0,157.0,157.0,9.0,0.0,0.0,1.0
6300000.0,15.734375,1.0885354519511267E-6,6300000.0,67.60000000000001,34.546512379597914,36.96498054474709,18.181818181818198,258909.0,698512.0,0.0,1.0,0.0,?,0.0,0.0,281.0,176.0,176.0,9.0,0.0,0.0,1.0
6400000.0,16.1875,1.1966448316040143E-6,6400000.0,71.2,41.72942219056906,33.793103448275865,20.66115702479338,278909.0,781160.0,0.0,1.0,0.0,?,0.0,0.0,322.0,198.0,198.0,9.0,0.0,0.0,1.0
6500000.0,16.625,1.3063793368120165E-6,6500000.0,68.60000000000001,36.88619817733774,30.22222222222223,18.863049095607252,298909.0,842496.0,0.0,1.0,0.0,?,0.0,0.0,356.0,215.0,215.0,9.0,0.0,0.0,1.0
6600000.0,17.09375,1.4282167022530409E-6,6600000.0,67.80000000000001,36.25100473959923,30.000000000000004,17.223650385604127,318909.0,891736.0,0.0,1.0,0.0,?,0.0,0.0,390.0,232.0,232.0,9.0,0.0,0.0,1.0
6700000.0,17.5625,1.5555760344593895E-6,6700000.0,71.6,43.2252080076446,39.316239316239304,26.992287917737784,338909.0,951352.0,0.0,1.0,0.0,?,0.0,0.0,425.0,251.0,251.0,9.0,0.0,0.0,1.0
6800000.0,17.90625,1.6500023128982225E-6,6800000.0,69.3,38.886013457021136,36.701030927835035,19.843342036553512,358909.0,977168.0,0.0,1.0,0.0,?,0.0,0.0,441.0,259.0,259.0,9.0,0.0,0.0,1.0
6900000.0,18.265625,1.7529802345153364E-6,6900000.0,68.10000000000001,35.523773334734706,31.397849462365595,17.35751295336789,378909.0,1037056.0,0.0,1.0,0.0,?,0.0,0.0,467.0,272.0,272.0,9.0,0.0,0.0,1.0
7000000.0,18.625,1.8595721081106206E-6,7000000.0,72.3,44.15322580645161,40.301724137931025,26.133333333333326,398909.0,1090016.0,0.0,1.0,0.0,?,0.0,0.0,493.0,285.0,285.0,9.0,0.0,0.0,1.0
7100000.0,18.984375,1.987533824932245E-6,7100000.0,66.5,32.27726295020459,32.048681541582155,12.760416666666677,418709.0,1189800.0,0.0,1.0,0.0,?,0.0,0.0,533.0,312.0,312.0,9.0,0.0,0.0,1.0
7200000.0,19.359375,2.1235069208261047E-6,7200000.0,70.0,39.89830793702944,36.84210526315788,16.43454038997213,438709.0,1229208.0,0.0,1.0,0.0,?,0.0,0.0,553.0,322.0,322.0,10.0,0.0,0.0,1.0
7300000.0,19.734375,2.2610500713603372E-6,7300000.0,71.89999999999999,43.709484851641434,35.550458715596335,23.224043715846985,458709.0,1259632.0,0.0,1.0,0.0,?,0.0,0.0,565.0,328.0,328.0,10.0,0.0,0.0,1.0
7400000.0,20.109375,2.4048059195694003E-6,7400000.0,68.5,37.1307680025547,36.61971830985917,20.45454545454547,478709.0,1337776.0,0.0,1.0,0.0,?,0.0,0.0,594.0,346.0,346.0,10.0,0.0,0.0,1.0
7500000.0,20.484375,2.55355753728913E-6,7500000.0,69.1,38.98875339609526,36.55030800821354,22.5563909774436,498709.0,1403432.0,0.0,1.0,0.0,?,0.0,0.0,621.0,363.0,363.0,10.0,0.0,0.0,1.0
7600000.0,20.84375,2.70074110529903E-6,7600000.0,69.89999999999999,39.91296362837865,35.12931034482757,25.86206896551724,518709.0,1467392.0,0.0,1.0,0.0,?,0.0,0.0,648.0,380.0,380.0,11.0,0.0,0.0,1.0
7700000.0,21.21875,2.8558311492411635E-6,7700000.0,71.89999999999999,42.841567402200084,36.7117117117117,23.848238482384815,538709.0,1497144.0,0.0,1.0,0.0,?,0.0,0.0,666.0,389.0,389.0,11.0,0.0,0.0,1.0
7800000.0,21.59375,3.014904149394069E-6,7800000.0,71.2,42.19119459487669,37.39130434782608,22.371967654986513,558709.0,1552384.0,0.0,1.0,0.0,?,0.0,0.0,695.0,407.0,407.0,11.0,0.0,0.0,1.0
7900000.0,21.96875,3.1751552726038634E-6,7900000.0,71.6,42.360772852735835,42.27642276422763,23.243243243243235,578709.0,1578768.0,0.0,1.0,0.0,?,0.0,0.0,711.0,415.0,415.0,11.0,0.0,0.0,1.0
8000000.0,22.359375,3.34368261974305E-6,8000000.0,70.6,41.226565592352244,36.63793103448275,24.031007751937977,598709.0,1608824.0,0.0,1.0,0.0,?,0.0,0.0,725.0,422.0,422.0,11.0,0.0,0.0,1.0
8100000.0,22.75,3.5292171135855227E-6,8100000.0,74.6,48.77379799935462,46.41350210970464,35.85858585858586,618509.0,1647152.0,0.0,1.0,0.0,?,0.0,0.0,745.0,432.0,432.0,11.0,0.0,0.0,1.0
8200000.0,23.125,3.709507970294606E-6,8200000.0,73.2,46.74615002483854,43.93305439330543,28.533333333333328,638509.0,1683776.0,0.0,1.0,0.0,?,0.0,0.0,769.0,444.0,444.0,11.0,0.0,0.0,1.0
8300000.0,23.53125,3.9069157598229754E-6,8300000.0,74.2,47.97191289933574,46.47302904564315,31.926121372031663,658509.0,1717880.0,0.0,1.0,0.0,?,0.0,0.0,793.0,456.0,456.0,11.0,0.0,0.0,1.0
8400000.0,23.9375,4.109279931678127E-6,8400000.0,72.89999999999999,45.270215687858474,43.7759336099585,28.496042216358834,678509.0,1779072.0,0.0,1.0,0.0,?,0.0,0.0,829.0,474.0,474.0,11.0,0.0,0.0,1.0
8500000.0,24.359375,4.323637501026194E-6,8500000.0,74.5,48.33371154407236,43.45898004434589,35.60606060606061,698509.0,1831752.0,0.0,1.0,0.0,?,0.0,0.0,855.0,487.0,487.0,11.0,0.0,0.0,1.0
8600000.0,24.875,4.593765964576354E-6,8600000.0,75.2,49.99536247313259,45.37444933920705,34.90813648293963,718509.0,1906840.0,0.0,1.0,0.0,?,0.0,0.0,885.0,505.0,505.0,11.0,0.0,0.0,1.0
8700000.0,25.40625,4.874155953681718E-6,8700000.0,70.89999999999999,41.07928177466773,36.87635574837309,19.39058171745151,738509.0,1936160.0,0.0,1.0,0.0,?,0.0,0.0,903.0,514.0,514.0,11.0,0.0,0.0,1.0
8800000.0,25.953125,5.167627823539079E-6,8800000.0,72.7,43.56659142212189,38.926174496644286,26.01626016260162,758509.0,1984488.0,0.0,1.0,0.0,?,0.0,0.0,925.0,525.0,525.0,11.0,0.0,0.0,1.0
8900000.0,26.546875,5.50158774583704E-6,8900000.0,75.4,49.44512946979037,48.21052631578947,32.78688524590164,778509.0,2014112.0,0.0,1.0,0.0,?,0.0,3.0,939.0,532.0,532.0,11.0,0.0,0.0,1.0
9000000.0,27.15625,5.858620053105471E-6,9000000.0,75.3,49.904270508826585,48.21802935010482,36.34020618556701,798509.0,2075560.0,0.0,1.0,0.0,?,0.0,0.0,960.0,546.0,546.0,11.0,0.0,0.0,1.0
9100000.0,27.75,6.217587862112043E-6,9100000.0,73.3,46.247815688390325,43.31210191082802,28.609625668449194,818309.0,2144856.0,0.0,1.0,0.0,?,0.0,20.0,997.0,568.0,568.0,12.0,0.0,0.0,1.0
9200000.0,28.15625,6.465818118562716E-6,9200000.0,74.7,47.900793225867574,45.94017094017094,35.294117647058826,838309.0,2183952.0,0.0,1.0,0.0,?,0.0,0.0,1021.0,580.0,580.0,12.0,0.0,0.0,1.0
9300000.0,28.578125,6.7259234169291135E-6,9300000.0,75.4,49.869579393544186,47.54797441364605,35.9375,858309.0,2219464.0,0.0,1.0,0.0,?,0.0,0.0,1043.0,591.0,591.0,12.0,0.0,0.0,1.0
9400000.0,29.015625,7.003283438583216E-6,9400000.0,76.9,53.27518689925241,51.47058823529412,41.66666666666667,878309.0,2300856.0,0.0,1.0,0.0,?,0.0,0.0,1080.0,613.0,613.0,12.0,0.0,0.0,1.0
9500000.0,29.4375,7.271758416512361E-6,9500000.0,75.2,48.34194300949841,46.086956521739125,25.748502994011968,898309.0,2324432.0,0.0,1.0,0.0,?,0.0,0.0,1104.0,625.0,625.0,12.0,0.0,0.0,1.0
9600000.0,29.875,7.554391793544509E-6,9600000.0,77.3,53.10304933476573,50.10989010989011,38.14713896457766,918309.0,2375768.0,0.0,1.0,0.0,?,0.0,0.0,1132.0,639.0,639.0,13.0,0.0,0.0,1.0
9700000.0,30.328125,7.849983230698855E-6,9700000.0,75.9,49.73050544829544,48.940677966101696,35.90425531914894,938309.0,2414376.0,0.0,1.0,0.0,?,0.0,0.0,1156.0,651.0,651.0,13.0,0.0,0.0,1.0
9800000.0,30.75,8.126831380650402E-6,9800000.0,76.8,52.20279201621809,51.46443514644352,37.967914438502675,958309.0,2443640.0,0.0,1.0,0.0,?,0.0,0.0,1174.0,660.0,660.0,13.0,0.0,0.0,1.0
9900000.0,31.171875,8.409814909100534E-6,9900000.0,75.9,50.45556213407013,49.15611814345991,35.215053763440864,978309.0,2513864.0,0.0,1.0,0.0,?,0.0,0.0,1208.0,677.0,677.0,13.0,0.0,0.0,1.0
1.0E7,31.609375,8.706289938547545E-6,1.0E7,77.5,53.76496987530926,51.298701298701296,39.83957219251337,998309.0,2554624.0,0.0,1.0,0.0,?,0.0,0.0,1232.0,689.0,689.0,13.0,0.0,0.0,1.0
