learning evaluation instances,evaluation time (cpu seconds),model cost (RAM-Hours),classified instances,classifications correct (percent),Kappa Statistic (percent),Kappa Temporal Statistic (percent),Kappa M Statistic (percent),model training instances,model serialized size (bytes),labeling cost,newThreshold,maxPosterior,accuracyBaseLearner (percent),Change detected,Warning detected,tree size (nodes),tree size (leaves),active learning leaves,tree depth,active leaf byte size estimate,inactive leaf byte size estimate,byte size estimate overhead
100000.0,0.296875,1.768099739112788E-8,100000.0,64.60000000000001,15.061880059696623,22.707423580786024,0.8403361344537823,19800.0,50576.0,0.0,1.0,0.0,?,0.0,11.0,23.0,21.0,21.0,2.0,0.0,0.0,1.0
200000.0,0.59375,3.820120279366772E-8,200000.0,61.1,14.775216895977556,17.409766454352436,-2.6385224274406354,39800.0,101760.0,0.0,1.0,0.0,?,0.0,0.0,48.0,37.0,37.0,4.0,0.0,0.0,1.0
300000.0,0.9375,6.81615266431537E-8,300000.0,62.5,20.377432204037618,24.242424242424242,1.8324607329842948,59800.0,185560.0,0.0,1.0,0.0,?,0.0,0.0,79.0,56.0,56.0,6.0,0.0,0.0,1.0
400000.0,1.28125,1.0814158789192638E-7,400000.0,59.3,15.848585346488786,17.444219066937112,-11.202185792349736,79800.0,312232.0,0.0,1.0,0.0,?,0.0,0.0,117.0,82.0,82.0,6.0,0.0,0.0,1.0
500000.0,1.671875,1.577256221531166E-7,500000.0,60.8,18.999896683541685,17.991631799163173,0.2544529262086516,99800.0,367416.0,0.0,1.0,0.0,?,0.0,0.0,141.0,94.0,94.0,6.0,0.0,0.0,1.0
600000.0,2.125,2.2044783690944316E-7,600000.0,64.4,27.779964214566537,25.833333333333336,9.41475826972011,119800.0,426016.0,0.0,1.0,0.0,?,0.0,0.0,162.0,108.0,108.0,8.0,0.0,0.0,1.0
700000.0,2.578125,2.8657516749161814E-7,700000.0,62.6,23.0493841893232,18.69565217391304,-3.030303030303033,139800.0,469352.0,0.0,1.0,0.0,?,0.0,0.0,177.0,119.0,119.0,8.0,0.0,0.0,1.0
800000.0,2.953125,3.4201757646062306E-7,800000.0,65.10000000000001,28.313203516555742,24.78448275862069,3.055555555555558,159800.0,491016.0,0.0,1.0,0.0,?,0.0,0.0,187.0,124.0,124.0,10.0,0.0,0.0,1.0
900000.0,3.3125,3.9468205715012217E-7,900000.0,65.60000000000001,30.42774800283143,29.07216494845361,11.568123393316206,179800.0,500328.0,0.0,1.0,0.0,?,0.0,0.0,193.0,127.0,127.0,10.0,0.0,0.0,1.0
1000000.0,3.6875,4.4998321552864377E-7,1000000.0,62.6,25.00561455292118,21.097046413502106,4.5918367346938815,199800.0,518208.0,0.0,1.0,0.0,?,0.0,0.0,201.0,131.0,131.0,10.0,0.0,0.0,1.0
1100000.0,4.0625,5.204261267661221E-7,1100000.0,65.4,29.27083546270366,25.591397849462368,10.129870129870138,219600.0,544368.0,0.0,1.0,0.0,?,0.0,0.0,221.0,141.0,141.0,10.0,0.0,0.0,1.0
1200000.0,4.4375,5.941907551863955E-7,1200000.0,66.3,30.05164139946533,29.937629937629946,8.423913043478269,239600.0,592744.0,0.0,1.0,0.0,?,0.0,0.0,243.0,152.0,152.0,11.0,0.0,0.0,1.0
1300000.0,4.8125,6.735114988663958E-7,1300000.0,63.7,26.32732586458842,29.377431906614788,8.33333333333334,259600.0,664032.0,0.0,1.0,0.0,?,0.0,0.0,275.0,168.0,168.0,12.0,0.0,0.0,1.0
1400000.0,5.15625,7.506308934858276E-7,1400000.0,66.10000000000001,30.864298242036142,21.889400921659004,6.353591160221001,279600.0,727624.0,0.0,1.0,0.0,?,0.0,0.0,311.0,186.0,186.0,12.0,0.0,0.0,1.0
1500000.0,5.515625,8.353047693769137E-7,1500000.0,66.7,32.975871313672926,25.83518930957684,13.953488372093034,299600.0,785248.0,0.0,1.0,0.0,?,0.0,0.0,341.0,201.0,201.0,12.0,0.0,0.0,1.0
1600000.0,5.9375,9.402383390503624E-7,1600000.0,64.1,28.706469242501274,21.956521739130434,7.712082262210804,319600.0,849984.0,0.0,1.0,0.0,?,0.0,0.0,373.0,217.0,217.0,12.0,0.0,0.0,1.0
1700000.0,6.40625,1.0642390892220039E-6,1700000.0,71.6,42.30339475448468,39.44562899786779,26.992287917737784,339600.0,925168.0,0.0,1.0,0.0,?,0.0,0.0,404.0,236.0,236.0,13.0,0.0,0.0,1.0
1800000.0,6.890625,1.1962246693049866E-6,1800000.0,67.5,34.60554062102604,33.12757201646092,15.364583333333345,359600.0,970016.0,0.0,1.0,0.0,?,0.0,0.0,432.0,250.0,250.0,13.0,0.0,0.0,1.0
1900000.0,7.375,1.33401151591291E-6,1900000.0,67.60000000000001,35.053220277827904,30.322580645161295,16.279069767441875,379600.0,1030400.0,0.0,1.0,0.0,?,0.0,0.0,465.0,268.0,268.0,13.0,0.0,0.0,1.0
2000000.0,7.765625,1.4477509022172952E-6,2000000.0,71.5,42.13197969543146,38.57758620689654,23.99999999999999,399600.0,1070496.0,0.0,1.0,0.0,?,0.0,0.0,489.0,280.0,280.0,13.0,0.0,0.0,1.0
2100000.0,8.109375,1.5603769053187634E-6,2100000.0,72.3,43.86439908561793,43.81338742393508,27.676240208877278,419400.0,1081648.0,0.0,1.0,0.0,?,0.0,0.0,497.0,284.0,284.0,13.0,0.0,0.0,1.0
2200000.0,8.46875,1.6803714162152674E-6,2200000.0,73.7,45.539633893812635,44.74789915966386,26.944444444444436,439400.0,1120016.0,0.0,1.0,0.0,?,0.0,0.0,517.0,294.0,294.0,13.0,0.0,0.0,1.0
2300000.0,8.84375,1.8066059823872314E-6,2300000.0,70.1,39.4535837808503,31.57894736842105,18.306010928961737,459400.0,1144776.0,0.0,1.0,0.0,?,0.0,0.0,539.0,305.0,305.0,13.0,0.0,0.0,1.0
2400000.0,9.203125,1.931493720298426E-6,2400000.0,72.2,44.33119335498676,44.17670682730923,29.97481108312342,479400.0,1200912.0,0.0,1.0,0.0,?,0.0,0.0,575.0,323.0,323.0,14.0,0.0,0.0,1.0
2500000.0,9.578125,2.066434600338754E-6,2500000.0,69.3,38.77143996808933,36.96098562628335,23.249999999999993,499400.0,1262576.0,0.0,1.0,0.0,?,0.0,0.0,617.0,344.0,344.0,14.0,0.0,0.0,1.0
2600000.0,9.9375,2.199290287939625E-6,2600000.0,72.2,44.063485931363076,40.086206896551715,31.527093596059114,519400.0,1314728.0,0.0,1.0,0.0,?,0.0,0.0,643.0,357.0,357.0,14.0,0.0,0.0,1.0
2700000.0,10.3125,2.339743821519531E-6,2700000.0,73.7,45.98480180735264,40.632054176072224,28.726287262872624,539400.0,1347680.0,0.0,1.0,0.0,?,0.0,0.0,667.0,369.0,369.0,14.0,0.0,0.0,1.0
2800000.0,10.6875,2.481793021110611E-6,2800000.0,72.6,44.54182234762157,40.30501089324618,26.145552560646895,559400.0,1378352.0,0.0,1.0,0.0,?,0.0,0.0,683.0,377.0,377.0,14.0,0.0,0.0,1.0
2900000.0,11.0625,2.6314612154641916E-6,2900000.0,74.9,48.487460493371096,48.87983706720978,32.16216216216216,579400.0,1470856.0,0.0,1.0,0.0,?,0.0,0.0,726.0,402.0,402.0,14.0,0.0,0.0,1.0
3000000.0,11.4375,2.7838581849613956E-6,3000000.0,72.5,44.141567611046554,40.732758620689644,28.940568475452196,599400.0,1513120.0,0.0,1.0,0.0,?,0.0,0.0,752.0,415.0,415.0,15.0,0.0,0.0,1.0
3100000.0,11.953125,3.016257897898969E-6,3100000.0,76.1,51.2881134844285,49.57805907172996,39.64646464646465,619200.0,1554488.0,0.0,1.0,0.0,?,0.0,0.0,770.0,424.0,424.0,15.0,0.0,0.0,1.0
3200000.0,12.46875,3.2541768612443575E-6,3200000.0,75.9,50.103519668737064,49.68684759916492,35.733333333333334,639200.0,1609944.0,0.0,1.0,0.0,?,0.0,0.0,802.0,440.0,440.0,15.0,0.0,0.0,1.0
3300000.0,12.984375,3.4958542932549285E-6,3300000.0,77.10000000000001,52.49869319548965,52.4896265560166,39.5778364116095,659200.0,1652312.0,0.0,1.0,0.0,?,0.0,0.0,825.0,453.0,453.0,15.0,0.0,0.0,1.0
3400000.0,13.484375,3.7331459720412062E-6,3400000.0,79.60000000000001,57.790367099660266,57.588357588357596,46.174142480211096,679200.0,1689200.0,0.0,1.0,0.0,?,0.0,0.0,845.0,463.0,463.0,15.0,0.0,0.0,1.0
3500000.0,13.984375,3.971268597524613E-6,3500000.0,78.0,55.07545281901534,51.21951219512195,44.30379746835444,699200.0,1709880.0,0.0,1.0,0.0,?,0.0,0.0,865.0,473.0,473.0,15.0,0.0,0.0,1.0
3600000.0,14.484375,4.209833083829532E-6,3600000.0,79.5,57.835934479098974,54.845814977973575,46.19422572178479,719200.0,1727576.0,0.0,1.0,0.0,?,0.0,0.0,879.0,480.0,480.0,15.0,0.0,0.0,1.0
3700000.0,14.953125,4.439432232175023E-6,3700000.0,78.4,54.93239859789686,53.04347826086957,40.00000000000001,739200.0,1790624.0,0.0,1.0,0.0,?,0.0,0.0,917.0,499.0,499.0,15.0,0.0,0.0,1.0
3800000.0,15.359375,4.640783267354386E-6,3800000.0,78.5,55.61739302759566,51.901565995525736,41.57608695652175,759200.0,1827304.0,0.0,1.0,0.0,?,0.0,0.0,941.0,511.0,511.0,15.0,0.0,0.0,1.0
3900000.0,15.75,4.838170296150363E-6,3900000.0,75.4,49.12414948400306,48.21052631578947,32.602739726027394,779200.0,1878784.0,0.0,1.0,0.0,?,0.0,0.0,975.0,528.0,528.0,15.0,0.0,0.0,1.0
4000000.0,16.140625,5.042882597384354E-6,4000000.0,77.3,53.143706394748804,52.41090146750524,41.64524421593831,799200.0,1965416.0,0.0,1.0,0.0,?,0.0,0.0,1009.0,552.0,552.0,15.0,0.0,0.0,1.0
4100000.0,16.5625,5.284380070709934E-6,4100000.0,78.0,53.80577427821523,53.191489361702125,41.333333333333336,819000.0,2022328.0,0.0,1.0,0.0,?,0.0,0.0,1041.0,568.0,568.0,15.0,0.0,0.0,1.0
4200000.0,16.96875,5.51861558859754E-6,4200000.0,81.0,60.89166992569418,59.48827292110875,51.406649616368306,839000.0,2052576.0,0.0,1.0,0.0,?,0.0,0.0,1057.0,576.0,576.0,15.0,0.0,0.0,1.0
4300000.0,17.375,5.757110484410077E-6,4300000.0,79.2,57.23947947289436,55.65031982942431,45.974025974025984,859000.0,2107232.0,0.0,1.0,0.0,?,0.0,0.0,1084.0,591.0,591.0,15.0,0.0,0.0,1.0
4400000.0,17.8125,6.020536497493999E-6,4400000.0,77.9,54.84192630856246,53.57142857142857,44.1919191919192,879000.0,2179392.0,0.0,1.0,0.0,?,0.0,0.0,1122.0,610.0,610.0,15.0,0.0,0.0,1.0
4500000.0,18.234375,6.278650220742242E-6,4500000.0,77.8,53.10915849949307,51.73913043478261,33.532934131736525,899000.0,2231024.0,0.0,1.0,0.0,?,0.0,0.0,1148.0,623.0,623.0,15.0,0.0,0.0,1.0
4600000.0,18.65625,6.541090228387879E-6,4600000.0,78.9,56.13050239930808,53.524229074889874,42.34972677595629,919000.0,2284808.0,0.0,1.0,0.0,?,0.0,0.0,1175.0,638.0,638.0,15.0,0.0,0.0,1.0
4700000.0,19.15625,6.855202567142745E-6,4700000.0,79.2,56.591425136903986,55.93220338983051,44.6808510638298,939000.0,2322720.0,0.0,1.0,0.0,?,0.0,0.0,1203.0,652.0,652.0,15.0,0.0,0.0,1.0
4800000.0,19.703125,7.200778701290903E-6,4800000.0,80.4,59.28135750968108,58.995815899581594,47.59358288770055,959000.0,2351168.0,0.0,1.0,0.0,?,0.0,0.0,1229.0,665.0,665.0,16.0,0.0,0.0,1.0
4900000.0,20.25,7.555435392229508E-6,4900000.0,78.60000000000001,55.65612359923083,54.94736842105263,42.4731182795699,979000.0,2429360.0,0.0,1.0,0.0,?,0.0,0.0,1266.0,685.0,685.0,16.0,0.0,0.0,1.0
5000000.0,20.75,7.884876265759685E-6,5000000.0,79.7,57.39769150052467,56.155507559395254,45.866666666666674,999000.0,2480328.0,0.0,1.0,0.0,?,0.0,0.0,1292.0,698.0,698.0,16.0,0.0,0.0,1.0
5100000.0,21.25,7.915277739003716E-6,5100000.0,82.1,63.352714765375474,62.6304801670146,58.56481481481482,14657.0,51232.0,0.0,1.0,0.0,?,2.0,8.0,20.0,12.0,12.0,4.0,0.0,0.0,1.0
5200000.0,21.5,7.929804818963426E-6,5200000.0,84.2,68.0068683988855,69.26070038910505,65.04424778761062,34657.0,55192.0,0.0,1.0,0.0,?,0.0,0.0,22.0,13.0,13.0,5.0,0.0,0.0,1.0
5300000.0,21.84375,7.946669906636494E-6,5300000.0,92.80000000000001,85.48387096774195,85.03118503118505,84.34782608695653,4343.0,34648.0,0.0,1.0,0.0,?,4.0,15.0,12.0,8.0,8.0,2.0,0.0,0.0,1.0
5400000.0,22.171875,7.963704184577284E-6,5400000.0,96.2,92.33870967741935,92.4901185770751,91.7391304347826,24343.0,59928.0,0.0,1.0,0.0,?,0.0,0.0,24.0,14.0,14.0,4.0,0.0,0.0,1.0
5500000.0,22.46875,7.97797702640916E-6,5500000.0,94.5,88.91137974693751,88.58921161825725,88.12095032397407,44343.0,59488.0,0.0,1.0,0.0,?,0.0,0.0,26.0,15.0,15.0,4.0,0.0,0.0,1.0
5600000.0,22.75,7.990450928142915E-6,5600000.0,95.39999999999999,90.68192130679977,90.94488188976378,89.82300884955751,64343.0,59488.0,0.0,1.0,0.0,?,0.0,0.0,26.0,15.0,15.0,4.0,0.0,0.0,1.0
5700000.0,23.015625,8.001242305100379E-6,5700000.0,95.5,90.82291904590987,90.81632653061223,89.60739030023093,84343.0,59488.0,0.0,1.0,0.0,?,0.0,0.0,26.0,15.0,15.0,4.0,0.0,0.0,1.0
5800000.0,23.296875,8.01162073104125E-6,5800000.0,95.7,91.25554154634563,91.38276553106212,90.24943310657595,104343.0,59488.0,0.0,1.0,0.0,?,0.0,0.0,26.0,15.0,15.0,4.0,0.0,0.0,1.0
5900000.0,23.5625,8.020433047527655E-6,5900000.0,94.6,89.18949218640518,88.67924528301886,89.19999999999999,124343.0,59488.0,0.0,1.0,0.0,?,0.0,0.0,26.0,15.0,15.0,4.0,0.0,0.0,1.0
6000000.0,23.84375,8.02871599767564E-6,6000000.0,96.0,91.93480093072395,92.21789883268482,91.24726477024069,144343.0,59488.0,0.0,1.0,0.0,?,0.0,0.0,26.0,15.0,15.0,4.0,0.0,0.0,1.0
6100000.0,24.109375,8.045455001087653E-6,6100000.0,96.89999999999999,93.76719049074327,94.015444015444,93.4322033898305,164143.0,59496.0,0.0,1.0,0.0,?,0.0,0.0,26.0,15.0,15.0,4.0,0.0,0.0,1.0
6200000.0,24.375,8.061204474264136E-6,6200000.0,97.0,93.95590226291019,93.91480730223122,93.5064935064935,184143.0,59496.0,0.0,1.0,0.0,?,0.0,0.0,26.0,15.0,15.0,4.0,0.0,0.0,1.0
6300000.0,24.65625,8.076832649142792E-6,6300000.0,96.2,92.38635635058023,92.62135922330097,92.14876033057851,204143.0,59496.0,0.0,1.0,0.0,?,0.0,0.0,26.0,15.0,15.0,4.0,0.0,0.0,1.0
6400000.0,24.9375,8.091413086125006E-6,6400000.0,96.5,92.99635810621523,93.3837429111531,92.95774647887323,224143.0,59496.0,0.0,1.0,0.0,?,0.0,0.0,26.0,15.0,15.0,4.0,0.0,0.0,1.0
6500000.0,25.234375,8.105697601826654E-6,6500000.0,95.3,90.56906653824544,90.06342494714586,90.14675052410901,244143.0,59496.0,0.0,1.0,0.0,?,0.0,0.0,26.0,15.0,15.0,4.0,0.0,0.0,1.0
6600000.0,25.5,8.117488954061022E-6,6600000.0,96.0,91.97921011261188,92.24806201550388,91.70124481327801,264143.0,59496.0,0.0,1.0,0.0,?,0.0,0.0,26.0,15.0,15.0,4.0,0.0,0.0,1.0
6700000.0,25.796875,8.129561578647958E-6,6700000.0,96.7,93.3404368673415,93.02325581395348,92.71523178807946,284143.0,59496.0,0.0,1.0,0.0,?,0.0,0.0,26.0,15.0,15.0,4.0,0.0,0.0,1.0
6800000.0,26.078125,8.139951064044403E-6,6800000.0,96.3,92.53857757056085,92.77343749999999,91.92139737991265,304143.0,59496.0,0.0,1.0,0.0,?,0.0,0.0,26.0,15.0,15.0,4.0,0.0,0.0,1.0
6900000.0,26.34375,8.148773825572184E-6,6900000.0,96.3,92.4994932090006,92.61477045908183,91.77777777777777,324143.0,59496.0,0.0,1.0,0.0,?,0.0,0.0,26.0,15.0,15.0,4.0,0.0,0.0,1.0
7000000.0,26.625,8.157067835175743E-6,7000000.0,96.7,93.31399118257261,93.30628803245435,92.69911504424778,344143.0,59496.0,0.0,1.0,0.0,?,0.0,0.0,26.0,15.0,15.0,4.0,0.0,0.0,1.0
7100000.0,26.90625,8.17480196322625E-6,7100000.0,96.1,92.16785688465463,92.23107569721115,91.75475687103594,363943.0,59496.0,0.0,1.0,0.0,?,0.0,0.0,26.0,15.0,15.0,4.0,0.0,0.0,1.0
7200000.0,27.203125,8.19241537505554E-6,7200000.0,96.5,92.99355406974415,93.09664694280079,92.827868852459,383943.0,59496.0,0.0,1.0,0.0,?,0.0,0.0,26.0,15.0,15.0,4.0,0.0,0.0,1.0
7300000.0,27.46875,8.207185213298848E-6,7300000.0,96.5,92.97921848672068,93.06930693069306,92.70833333333333,403943.0,59496.0,0.0,1.0,0.0,?,0.0,0.0,26.0,15.0,15.0,4.0,0.0,0.0,1.0
7400000.0,27.75,8.221776127660028E-6,7400000.0,97.1,94.16235889012351,94.3579766536965,93.81663113006397,423943.0,59496.0,0.0,1.0,0.0,?,0.0,0.0,26.0,15.0,15.0,4.0,0.0,0.0,1.0
7500000.0,28.03125,8.235319304124765E-6,7500000.0,95.89999999999999,91.7462515903564,91.97651663405088,91.14470842332612,443943.0,59496.0,0.0,1.0,0.0,?,0.0,0.0,26.0,15.0,15.0,4.0,0.0,0.0,1.0
7600000.0,28.3125,8.24781474269306E-6,7600000.0,96.6,93.17337616705149,93.47408829174664,92.84210526315789,463943.0,59496.0,0.0,1.0,0.0,?,0.0,0.0,26.0,15.0,15.0,4.0,0.0,0.0,1.0
7700000.0,28.578125,8.258626459994253E-6,7700000.0,97.5,94.96738867863756,95.23809523809523,94.61206896551724,483943.0,59496.0,0.0,1.0,0.0,?,0.0,0.0,26.0,15.0,15.0,4.0,0.0,0.0,1.0
7800000.0,28.875,8.269604198479407E-6,7800000.0,96.5,92.96855537965783,92.95774647887323,92.61603375527426,503943.0,59496.0,0.0,1.0,0.0,?,0.0,0.0,26.0,15.0,15.0,4.0,0.0,0.0,1.0
7900000.0,29.15625,8.278956423358374E-6,7900000.0,96.0,91.98200762511074,91.88640973630831,91.71842650103518,523943.0,59496.0,0.0,1.0,0.0,?,0.0,0.0,26.0,15.0,15.0,4.0,0.0,0.0,1.0
8000000.0,29.421875,8.28679954995298E-6,8000000.0,96.1,92.08815820437707,91.875,91.196388261851,543943.0,59496.0,0.0,1.0,0.0,?,0.0,0.0,26.0,15.0,15.0,4.0,0.0,0.0,1.0
8100000.0,29.703125,8.304544155382452E-6,8100000.0,94.8,89.54782273107351,89.92248062015503,89.0295358649789,563743.0,59496.0,0.0,1.0,0.0,?,0.0,0.0,26.0,15.0,15.0,4.0,0.0,0.0,1.0
8200000.0,29.984375,8.32124102291548E-6,8200000.0,97.39999999999999,94.77189370053406,94.50317124735729,94.44444444444444,583743.0,59496.0,0.0,1.0,0.0,?,0.0,0.0,26.0,15.0,15.0,4.0,0.0,0.0,1.0
8300000.0,30.265625,8.336890152552066E-6,8300000.0,95.89999999999999,91.74611866262964,92.14559386973178,91.23931623931622,603743.0,59496.0,0.0,1.0,0.0,?,0.0,0.0,26.0,15.0,15.0,4.0,0.0,0.0,1.0
8400000.0,30.53125,8.350680355862202E-6,8400000.0,96.39999999999999,92.76178221006916,92.95499021526417,92.34042553191489,623743.0,59496.0,0.0,1.0,0.0,?,0.0,0.0,26.0,15.0,15.0,4.0,0.0,0.0,1.0
8500000.0,30.828125,8.364986990474997E-6,8500000.0,96.2,92.35153935334277,92.3076923076923,91.81034482758619,643743.0,59496.0,0.0,1.0,0.0,?,0.0,0.0,26.0,15.0,15.0,4.0,0.0,0.0,1.0
8600000.0,31.09375,8.376798133314075E-6,8600000.0,96.6,93.18724652549572,93.08943089430893,92.9460580912863,663743.0,59496.0,0.0,1.0,0.0,?,0.0,0.0,26.0,15.0,15.0,4.0,0.0,0.0,1.0
8700000.0,31.375,8.388256311364892E-6,8700000.0,95.7,91.30976055358845,91.09730848861282,90.57017543859648,683743.0,59496.0,0.0,1.0,0.0,?,0.0,0.0,26.0,15.0,15.0,4.0,0.0,0.0,1.0
8800000.0,31.671875,8.39924510930562E-6,8800000.0,96.7,93.36144326246841,93.27902240325865,92.93361884368308,703743.0,59496.0,0.0,1.0,0.0,?,0.0,0.0,26.0,15.0,15.0,4.0,0.0,0.0,1.0
8900000.0,31.921875,8.407567511312669E-6,8900000.0,97.1,94.19093786306638,94.25742574257426,94.02061855670102,723743.0,59496.0,0.0,1.0,0.0,?,0.0,0.0,26.0,15.0,15.0,4.0,0.0,0.0,1.0
9000000.0,32.203125,8.415882475674158E-6,9000000.0,97.39999999999999,94.773238983596,94.9119373776908,94.45628997867803,743743.0,59496.0,0.0,1.0,0.0,?,0.0,0.0,26.0,15.0,15.0,4.0,0.0,0.0,1.0
9100000.0,32.46875,8.432651164993235E-6,9100000.0,96.2,92.3176762183559,92.78937381404174,91.61147902869756,763543.0,59496.0,0.0,1.0,0.0,?,0.0,0.0,26.0,15.0,15.0,4.0,0.0,0.0,1.0
9200000.0,32.71875,8.447502138248339E-6,9200000.0,96.8,93.57326478149099,93.62549800796812,93.24894514767932,783543.0,59496.0,0.0,1.0,0.0,?,0.0,0.0,26.0,15.0,15.0,4.0,0.0,0.0,1.0
9300000.0,32.953125,8.460551810761298E-6,9300000.0,95.8,91.53785399977433,91.73228346456692,90.98712446351931,803543.0,59496.0,0.0,1.0,0.0,?,0.0,0.0,26.0,15.0,15.0,4.0,0.0,0.0,1.0
9400000.0,33.203125,8.473540138867171E-6,9400000.0,94.6,89.16111006290569,88.36206896551722,88.67924528301886,823543.0,59496.0,0.0,1.0,0.0,?,0.0,0.0,26.0,15.0,15.0,4.0,0.0,0.0,1.0
9500000.0,33.4375,8.484843581552726E-6,9500000.0,96.3,92.56466729900487,92.27557411273486,92.17758985200845,843543.0,59496.0,0.0,1.0,0.0,?,0.0,0.0,26.0,15.0,15.0,4.0,0.0,0.0,1.0
9600000.0,33.671875,8.49527390932458E-6,9600000.0,97.1,94.17432040434234,94.39071566731141,93.8428874734607,863543.0,59496.0,0.0,1.0,0.0,?,0.0,0.0,26.0,15.0,15.0,4.0,0.0,0.0,1.0
9700000.0,33.921875,8.505468269706606E-6,9700000.0,97.5,94.9527578131309,94.70338983050847,94.5054945054945,883543.0,59496.0,0.0,1.0,0.0,?,0.0,0.0,26.0,15.0,15.0,4.0,0.0,0.0,1.0
9800000.0,34.171875,8.514731307514017E-6,9800000.0,96.7,93.37376008995622,93.54207436399217,92.93361884368308,903543.0,59496.0,0.0,1.0,0.0,?,0.0,0.0,26.0,15.0,15.0,4.0,0.0,0.0,1.0
9900000.0,34.421875,8.523063022746813E-6,9900000.0,96.89999999999999,93.74773103142269,93.74999999999999,93.29004329004327,923543.0,59496.0,0.0,1.0,0.0,?,0.0,0.0,26.0,15.0,15.0,4.0,0.0,0.0,1.0
1.0E7,34.65625,8.530000890863858E-6,1.0E7,97.1,94.17899782414952,94.12955465587044,93.93305439330544,943543.0,59496.0,0.0,1.0,0.0,?,0.0,0.0,26.0,15.0,15.0,4.0,0.0,0.0,1.0
