learning evaluation instances,evaluation time (cpu seconds),model cost (RAM-Hours),classified instances,classifications correct (percent),Kappa Statistic (percent),Kappa Temporal Statistic (percent),Kappa M Statistic (percent),model training instances,model serialized size (bytes),labeling cost,newThreshold,maxPosterior,accuracyBaseLearner (percent),Change detected,Warning detected
100000.0,0.421875,1.9968138076364994E-9,100000.0,65.3,30.29665102526195,30.600000000000005,28.157349896480333,19600.0,2904.0,0.0,1.0,0.0,?,0.0,0.0
200000.0,0.828125,3.74394908754362E-9,200000.0,66.8,33.304673092453385,35.029354207436405,29.809725158562372,39210.0,2904.0,0.0,1.0,0.0,?,0.0,0.0
300000.0,1.203125,5.194483997507228E-9,300000.0,67.7,34.70526400905637,36.417322834645674,31.42250530785563,58820.0,2904.0,0.0,1.0,0.0,?,0.0,0.0
400000.0,1.625,6.643854754252566E-9,400000.0,68.89999999999999,37.24423494466999,39.13894324853228,34.24947145877377,78430.0,2904.0,0.0,1.0,0.0,?,0.0,0.0
500000.0,2.03125,8.963559392011828E-9,500000.0,66.10000000000001,32.22223110819652,35.181644359464634,32.33532934131737,98030.0,2904.0,0.0,1.0,0.0,?,0.0,108.0
600000.0,2.4375,1.1107541568991211E-8,600000.0,67.80000000000001,35.28314628420749,38.432122370936916,33.19502074688798,117640.0,2904.0,0.0,1.0,0.0,?,0.0,64.0
700000.0,2.84375,1.3075801285190714E-8,700000.0,65.7,31.29611973303636,30.566801619433203,30.425963488843816,137250.0,2904.0,0.0,1.0,0.0,?,0.0,0.0
800000.0,3.25,1.4583315027670727E-8,800000.0,66.4,32.526055786493174,30.72164948453609,28.66242038216561,3910.0,2904.0,0.0,1.0,0.0,?,2.0,8.0
900000.0,3.671875,1.5966329050974712E-8,900000.0,68.4,36.178119597356655,38.52140077821013,28.506787330316747,23520.0,2904.0,0.0,1.0,0.0,?,0.0,0.0
1000000.0,4.078125,1.793711109914713E-8,1000000.0,64.3,28.517652335490485,27.732793522267208,27.29124236252546,43120.0,2904.0,0.0,1.0,0.0,?,0.0,0.0
1100000.0,4.5,1.9801211439900924E-8,1100000.0,69.1,37.56364870762814,36.80981595092023,31.48558758314854,62730.0,2904.0,0.0,1.0,0.0,?,0.0,0.0
1200000.0,4.921875,2.1482830763690997E-8,1200000.0,67.2,34.37795099153317,35.30571992110455,30.06396588486141,82340.0,2904.0,0.0,1.0,0.0,?,0.0,0.0
1300000.0,5.328125,2.292644542952378E-8,1300000.0,65.7,31.34397668497495,33.65570599613154,29.5687885010267,101950.0,2904.0,0.0,1.0,0.0,?,0.0,0.0
1400000.0,5.734375,2.500905086182885E-8,1400000.0,68.30000000000001,36.14175322111474,35.3061224489796,33.12236286919832,121550.0,2904.0,0.0,1.0,0.0,?,0.0,0.0
1500000.0,6.140625,2.6915933833354043E-8,1500000.0,66.8,33.450663288419214,32.106339468302664,28.90792291220557,141160.0,2904.0,0.0,1.0,0.0,?,0.0,0.0
1600000.0,6.5625,2.8713677440666483E-8,1600000.0,67.2,34.109025456415544,36.31067961165049,30.947368421052634,160770.0,2904.0,0.0,1.0,0.0,?,0.0,0.0
1700000.0,6.96875,3.0269115490631915E-8,1700000.0,67.4,34.53815261044178,34.80000000000001,32.08333333333334,180380.0,2904.0,0.0,1.0,0.0,?,0.0,0.0
1800000.0,7.390625,3.1701897064016916E-8,1800000.0,65.60000000000001,30.85149151724692,32.68101761252447,26.80851063829787,199990.0,2904.0,0.0,1.0,0.0,?,0.0,0.0
1900000.0,7.796875,3.372060341967476E-8,1900000.0,65.2,30.3841275810885,25.321888412017167,30.815109343936385,219590.0,2904.0,0.0,1.0,0.0,?,0.0,0.0
2000000.0,8.21875,3.563447131050957E-8,2000000.0,65.2,29.716279971563374,26.27118644067797,25.641025641025646,239200.0,2904.0,0.0,1.0,0.0,?,0.0,0.0
2100000.0,8.625,3.730173274460765E-8,2100000.0,67.60000000000001,34.79310900016101,35.32934131736528,31.645569620253173,258810.0,2904.0,0.0,1.0,0.0,?,0.0,0.0
2200000.0,9.046875,3.885063860151502E-8,2200000.0,67.4,34.65781540632417,32.505175983436864,33.33333333333334,278420.0,2904.0,0.0,1.0,0.0,?,0.0,0.0
2300000.0,9.453125,4.0166455114053344E-8,2300000.0,67.0,33.15291372269398,30.672268907563033,26.991150442477878,298030.0,2904.0,0.0,1.0,0.0,?,0.0,0.0
2400000.0,9.875,4.219644728841052E-8,2400000.0,67.0,33.35783610874387,34.52380952380953,29.33618843683084,317630.0,2904.0,0.0,1.0,0.0,?,0.0,0.0
2500000.0,10.265625,4.3907105767478535E-8,2500000.0,66.4,32.62131171867794,35.384615384615394,31.00616016427105,337240.0,2904.0,0.0,1.0,0.0,?,0.0,0.0
2600000.0,10.6875,4.557213590790827E-8,2600000.0,66.3,32.216071830849934,30.942622950819676,29.20168067226891,356850.0,2904.0,0.0,1.0,0.0,?,0.0,0.0
2700000.0,11.09375,4.721921868622302E-8,2700000.0,67.30000000000001,34.41268262156721,31.44654088050315,32.71604938271606,376460.0,2904.0,0.0,1.0,0.0,?,0.0,14.0
2800000.0,11.515625,4.958885256201028E-8,2800000.0,68.7,37.24688239303903,42.2509225092251,36.12244897959185,396060.0,2904.0,0.0,1.0,0.0,?,0.0,5.0
2900000.0,11.921875,5.1694999759395905E-8,2900000.0,68.60000000000001,36.76290520074757,38.671875000000014,32.327586206896555,415670.0,2904.0,0.0,1.0,0.0,?,0.0,0.0
3000000.0,12.34375,5.370229094599683E-8,3000000.0,65.4,30.84647117137284,30.938123752495017,31.485148514851492,435280.0,2904.0,0.0,1.0,0.0,?,0.0,50.0
3100000.0,12.765625,5.5527101115634034E-8,3100000.0,69.69999999999999,39.42665227299987,39.520958083832326,38.16326530612244,454890.0,2904.0,0.0,1.0,0.0,?,0.0,0.0
3200000.0,13.1875,5.716943026830752E-8,3200000.0,68.60000000000001,36.670310476828185,36.437246963562764,31.590413943355127,474500.0,2904.0,0.0,1.0,0.0,?,0.0,0.0
3300000.0,13.59375,5.938992318179871E-8,3300000.0,68.60000000000001,36.616619364632086,36.04887983706722,31.887201735357923,494100.0,2904.0,0.0,1.0,0.0,?,0.0,0.0
3400000.0,14.015625,6.1513338651922E-8,3400000.0,63.4,26.386587073001994,22.292993630573246,21.290322580645157,513710.0,2904.0,0.0,1.0,0.0,?,0.0,0.0
3500000.0,14.4375,6.345427310508158E-8,3500000.0,66.0,30.922108582318508,29.752066115702487,24.944812362030905,533320.0,2904.0,0.0,1.0,0.0,?,0.0,0.0
3600000.0,14.84375,6.514759863623313E-8,3600000.0,68.10000000000001,35.862895378107346,33.679833679833685,33.40292275574114,552930.0,2904.0,0.0,1.0,0.0,?,0.0,0.0
3700000.0,15.234375,6.660683235774436E-8,3700000.0,65.5,30.919867045773096,30.583501006036222,30.020283975659233,572540.0,2904.0,0.0,1.0,0.0,?,0.0,0.0
3800000.0,15.640625,6.876342619458832E-8,3800000.0,69.69999999999999,39.37380948569781,38.787878787878775,39.03420523138832,592140.0,2904.0,0.0,1.0,0.0,?,0.0,0.0
3900000.0,16.0625,7.082048493127026E-8,3900000.0,66.0,31.111615392096482,30.470347648261765,24.107142857142858,611750.0,2904.0,0.0,1.0,0.0,?,0.0,0.0
4000000.0,16.46875,7.262563384655446E-8,4000000.0,67.7,35.163996948893995,35.52894211576847,33.67556468172486,631360.0,2904.0,0.0,1.0,0.0,?,0.0,0.0
4100000.0,16.890625,7.431773054930896E-8,4100000.0,67.30000000000001,33.759541056930324,35.11904761904763,27.008928571428577,650970.0,2904.0,0.0,1.0,0.0,?,0.0,0.0
4200000.0,17.3125,7.667339458647698E-8,4200000.0,65.8,30.74652011388351,32.94117647058824,25.813449023861175,670570.0,2904.0,0.0,1.0,0.0,?,0.0,0.0
4300000.0,17.703125,7.868560108666615E-8,4300000.0,67.0,33.84254525771336,30.08474576271187,31.677018633540378,690180.0,2904.0,0.0,1.0,0.0,?,0.0,0.0
4400000.0,18.109375,8.060257338608301E-8,4400000.0,66.9,33.46038178864927,36.590038314176255,29.723991507431002,709790.0,2904.0,0.0,1.0,0.0,?,0.0,0.0
4500000.0,18.53125,8.241079437235988E-8,4500000.0,67.7,34.87640630670592,28.854625550660796,31.276595744680858,729400.0,2904.0,0.0,1.0,0.0,?,0.0,0.0
4600000.0,18.953125,8.403653434167303E-8,4600000.0,67.9,35.749627708123185,38.74045801526719,34.88843813387425,749010.0,2904.0,0.0,1.0,0.0,?,0.0,0.0
4700000.0,19.375,8.63258416453997E-8,4700000.0,69.19999999999999,38.39038890066849,38.27655310621241,36.231884057971,768610.0,2904.0,0.0,1.0,0.0,?,0.0,0.0
4800000.0,19.78125,8.835463732894921E-8,4800000.0,68.2,35.969458639894654,36.27254509018037,30.71895424836602,788220.0,2904.0,0.0,1.0,0.0,?,0.0,0.0
4900000.0,20.203125,9.027898259874844E-8,4900000.0,66.5,32.723898881007656,34.442270058708424,30.49792531120332,807830.0,2904.0,0.0,1.0,0.0,?,0.0,0.0
5000000.0,20.609375,9.219931800746253E-8,5000000.0,66.8,33.127074672080965,34.126984126984134,29.957805907173,827440.0,2904.0,0.0,1.0,0.0,?,0.0,0.0
5100000.0,21.015625,9.3702627863321E-8,5100000.0,70.5,38.19504387104344,37.499999999999986,27.51842751842751,15276.0,2904.0,0.0,1.0,0.0,?,1.0,42.0
5200000.0,21.4375,9.617965487349362E-8,5200000.0,71.39999999999999,39.26446291522083,43.47826086956521,28.67830423940149,34876.0,2904.0,0.0,1.0,0.0,?,0.0,0.0
5300000.0,21.84375,9.838921768176884E-8,5300000.0,72.2,42.36502427717863,42.08333333333333,32.02933985330073,54486.0,2904.0,0.0,1.0,0.0,?,0.0,0.0
5400000.0,22.25,1.0042305802926418E-7,5400000.0,73.1,43.79158169235398,46.30738522954091,32.07070707070707,74096.0,2904.0,0.0,1.0,0.0,?,0.0,0.0
5500000.0,22.671875,1.0235264198854563E-7,5500000.0,71.1,39.767071554217964,39.79166666666666,27.93017456359102,93706.0,2904.0,0.0,1.0,0.0,?,0.0,0.0
5600000.0,23.09375,1.049457932822406E-7,5600000.0,71.5,40.56308654848801,42.65593561368208,31.818181818181817,113306.0,2904.0,0.0,1.0,0.0,?,0.0,0.0
5700000.0,23.5,1.0726717947464847E-7,5700000.0,75.3,48.196308724832214,50.30181086519114,41.1904761904762,132916.0,2904.0,0.0,1.0,0.0,?,0.0,0.0
5800000.0,23.921875,1.09495368734416E-7,5800000.0,71.2,39.75878413145971,40.61855670103092,25.581395348837205,152526.0,2904.0,0.0,1.0,0.0,?,0.0,0.0
5900000.0,24.328125,1.1146531000526411E-7,5900000.0,71.39999999999999,40.66980881571959,41.751527494908345,33.7962962962963,172136.0,2904.0,0.0,1.0,0.0,?,0.0,0.0
6000000.0,24.75,1.133285372311042E-7,6000000.0,68.89999999999999,35.503940273745314,37.04453441295546,24.330900243308996,191746.0,2904.0,0.0,1.0,0.0,?,0.0,0.0
6100000.0,25.15625,1.1576174680764473E-7,6100000.0,69.1,35.61695211901487,35.35564853556484,25.54216867469879,211346.0,2904.0,0.0,1.0,0.0,?,0.0,0.0
6200000.0,25.5625,1.1801923392340537E-7,6200000.0,69.8,37.14121579712015,39.235412474849085,28.605200945626475,230956.0,2904.0,0.0,1.0,0.0,?,0.0,0.0
6300000.0,25.984375,1.2018106644973154E-7,6300000.0,70.19999999999999,38.20196758299184,39.30753564154785,29.383886255924168,250566.0,2904.0,0.0,1.0,0.0,?,0.0,0.0
6400000.0,26.375,1.2201379932877087E-7,6400000.0,72.8,43.114085538011075,44.71544715447154,32.839506172839506,270176.0,2904.0,0.0,1.0,0.0,?,0.0,0.0
6500000.0,26.765625,1.2446094640634122E-7,6500000.0,70.39999999999999,37.12962766296381,39.21971252566735,25.0632911392405,289776.0,2904.0,0.0,1.0,0.0,?,0.0,0.0
6600000.0,27.15625,1.2673912957931553E-7,6600000.0,71.2,39.41459350978832,36.70329670329669,28.53598014888337,309386.0,2904.0,0.0,1.0,0.0,?,0.0,0.0
6700000.0,27.5625,1.2893271761842896E-7,6700000.0,72.6,42.599048065965,40.948275862068954,32.17821782178218,328996.0,2904.0,0.0,1.0,0.0,?,0.0,0.0
6800000.0,27.96875,1.3095058319676249E-7,6800000.0,69.69999999999999,36.42467477968946,38.16326530612244,24.249999999999993,348606.0,2904.0,0.0,1.0,0.0,?,0.0,0.0
6900000.0,28.390625,1.3286357797268358E-7,6900000.0,72.89999999999999,41.80153248805964,40.43956043956043,29.97416020671834,368216.0,2904.0,0.0,1.0,0.0,?,0.0,0.0
7000000.0,28.796875,1.3534471185670951E-7,7000000.0,69.5,35.427322922665205,35.78947368421051,22.979797979797972,387816.0,2904.0,0.0,1.0,0.0,?,0.0,0.0
7100000.0,29.21875,1.3773879295008043E-7,7100000.0,70.0,37.838778656323036,40.47619047619047,28.22966507177033,407426.0,2904.0,0.0,1.0,0.0,?,0.0,0.0
7200000.0,29.625,1.3986848191254662E-7,7200000.0,73.0,43.408565008886946,46.85039370078739,31.472081218274113,427036.0,2904.0,0.0,1.0,0.0,?,0.0,0.0
7300000.0,30.015625,1.4174729585647577E-7,7300000.0,68.0,33.00618017987841,35.48387096774194,20.398009950248774,446646.0,2904.0,0.0,1.0,0.0,?,0.0,0.0
7400000.0,30.4375,1.4359393389895551E-7,7400000.0,71.6,40.58577405857739,40.83333333333333,28.999999999999996,466256.0,2904.0,0.0,1.0,0.0,?,0.0,0.0
7500000.0,30.84375,1.4601116870633423E-7,7500000.0,70.5,39.49710816686493,42.043222003929266,31.554524361948953,485856.0,2904.0,0.0,1.0,0.0,?,0.0,0.0
7600000.0,31.25,1.4825268105293308E-7,7600000.0,70.39999999999999,38.139503778505976,38.58921161825725,28.846153846153843,505466.0,2904.0,0.0,1.0,0.0,?,0.0,0.0
7700000.0,31.671875,1.5039792439589892E-7,7700000.0,69.5,37.181789721705016,37.37166324435317,29.561200923787528,525076.0,2904.0,0.0,1.0,0.0,?,0.0,0.0
7800000.0,32.046875,1.5214260201901192E-7,7800000.0,72.39999999999999,42.960121685073744,46.09374999999999,35.51401869158879,544686.0,2904.0,0.0,1.0,0.0,?,0.0,0.0
7900000.0,32.46875,1.5476893167942756E-7,7900000.0,71.5,40.20544151462764,41.115702479338836,30.14705882352941,564286.0,2904.0,0.0,1.0,0.0,?,0.0,0.0
8000000.0,32.875,1.5712226741015904E-7,8000000.0,71.39999999999999,40.004698932671005,38.49462365591397,27.777777777777775,583896.0,2904.0,0.0,1.0,0.0,?,0.0,0.0
8100000.0,33.28125,1.5929988068011064E-7,8100000.0,70.1,38.267016831012654,37.31656184486372,29.481132075471695,603506.0,2904.0,0.0,1.0,0.0,?,0.0,0.0
8200000.0,33.703125,1.6137876728963514E-7,8200000.0,72.1,41.650841984624265,41.38655462184873,32.608695652173914,623116.0,2904.0,0.0,1.0,0.0,?,0.0,0.0
8300000.0,34.125,1.632751728821959E-7,8300000.0,73.5,43.9333801613026,43.61702127659574,32.74111675126903,642726.0,2904.0,0.0,1.0,0.0,?,0.0,0.0
8400000.0,34.515625,1.6564551818494988E-7,8400000.0,71.6,39.48691724196709,36.74832962138083,23.243243243243235,662326.0,2904.0,0.0,1.0,0.0,?,0.0,0.0
8500000.0,34.921875,1.6793495483903414E-7,8500000.0,71.8,40.81970997460703,41.24999999999999,31.719128329297817,681936.0,2904.0,0.0,1.0,0.0,?,0.0,0.0
8600000.0,35.34375,1.70129965732081E-7,8600000.0,69.6,37.11940693672226,34.341252699784,26.213592233009702,701546.0,2904.0,0.0,1.0,0.0,?,0.0,0.0
8700000.0,35.75,1.720679574646055E-7,8700000.0,72.89999999999999,44.19688820433411,45.03042596348884,37.9862700228833,721156.0,2904.0,0.0,1.0,0.0,?,0.0,0.0
8800000.0,36.140625,1.7376244714897533E-7,8800000.0,71.7,41.47378521913206,40.546218487394945,34.49074074074075,740766.0,2904.0,0.0,1.0,0.0,?,0.0,0.0
8900000.0,36.546875,1.7616370718719223E-7,8900000.0,69.3,37.05611232306001,39.087301587301575,28.10304449648712,760366.0,2904.0,0.0,1.0,0.0,?,0.0,0.0
9000000.0,36.953125,1.7838924476462925E-7,9000000.0,72.7,43.634636825370606,43.82716049382716,33.89830508474576,779976.0,2904.0,0.0,1.0,0.0,?,0.0,0.0
9100000.0,37.34375,1.8036022083833806E-7,9100000.0,72.89999999999999,42.669769409773636,44.467213114754095,31.39240506329114,799586.0,2904.0,0.0,1.0,0.0,?,0.0,0.0
9200000.0,37.75,1.8223431349421534E-7,9200000.0,70.89999999999999,38.493405478525524,38.60759493670885,26.329113924050628,819196.0,2904.0,0.0,1.0,0.0,?,0.0,0.0
9300000.0,38.15625,1.847473969165649E-7,9300000.0,70.6,38.32883735174797,38.235294117647044,24.031007751937977,838796.0,2904.0,0.0,1.0,0.0,?,0.0,0.0
9400000.0,38.5625,1.8708475787813457E-7,9400000.0,75.0,48.05518617021277,50.0,39.024390243902445,858406.0,2904.0,0.0,1.0,0.0,?,0.0,0.0
9500000.0,39.0,1.894126762636005E-7,9500000.0,72.3,42.076868386934876,41.43763213530654,30.92269326683292,878016.0,2904.0,0.0,1.0,0.0,?,0.0,0.0
9600000.0,39.40625,1.9139859230361044E-7,9600000.0,72.3,42.90402104100192,42.17118997912316,34.204275534441805,897626.0,2904.0,0.0,1.0,0.0,?,0.0,0.0
9700000.0,39.8125,1.9320878588284048E-7,9700000.0,71.1,39.97524238370981,41.0204081632653,30.861244019138756,917236.0,2904.0,0.0,1.0,0.0,?,0.0,0.0
9800000.0,40.21875,1.9565797022854282E-7,9800000.0,73.8,43.689821182943604,42.2907488986784,27.222222222222214,936836.0,2904.0,0.0,1.0,0.0,?,0.0,0.0
9900000.0,40.640625,1.9801887295519305E-7,9900000.0,68.5,34.27422047138948,31.96544276457884,24.821002386634863,956446.0,2904.0,0.0,1.0,0.0,?,0.0,0.0
1.0E7,41.046875,2.0011661237933562E-7,1.0E7,71.5,40.28862592605008,39.74630021141648,30.8252427184466,976056.0,2904.0,0.0,1.0,0.0,?,0.0,0.0
