learning evaluation instances,evaluation time (cpu seconds),model cost (RAM-Hours),classified instances,classifications correct (percent),Kappa Statistic (percent),Kappa Temporal Statistic (percent),Kappa M Statistic (percent),model training instances,model serialized size (bytes),labeling cost,newThreshold,maxPosterior,accuracyBaseLearner (percent),Change detected,Warning detected
100000.0,0.125,3.631381938854853E-9,100000.0,68.10000000000001,37.22746091966691,33.817427385892124,21.62162162162164,9900.0,7320.0,0.0,1.0,0.0,?,0.0,16.0
200000.0,0.25,6.952323019504547E-9,200000.0,68.60000000000001,38.10124586027442,34.30962343096235,29.910714285714292,19900.0,7320.0,0.0,1.0,0.0,?,0.0,0.0
300000.0,0.390625,1.0339135769754648E-8,300000.0,69.69999999999999,40.52292713567838,39.88095238095237,27.857142857142854,29900.0,7320.0,0.0,1.0,0.0,?,0.0,0.0
400000.0,0.515625,1.3039195133994022E-8,400000.0,69.89999999999999,40.24837618510694,40.98039215686274,30.484988452655887,39900.0,7320.0,0.0,1.0,0.0,?,0.0,0.0
500000.0,0.65625,1.5727515953282515E-8,500000.0,67.2,35.86108449519937,31.950207468879675,20.963855421686763,49900.0,7320.0,0.0,1.0,0.0,?,0.0,0.0
600000.0,0.78125,1.780669360111157E-8,600000.0,67.4,35.66466687717083,32.78350515463918,24.186046511627925,59900.0,7320.0,0.0,1.0,0.0,?,0.0,0.0
700000.0,0.90625,1.9575430390735464E-8,700000.0,72.89999999999999,45.95435436393659,40.70021881838073,31.909547738693465,69900.0,7320.0,0.0,1.0,0.0,?,0.0,0.0
800000.0,1.03125,2.1033726322154202E-8,800000.0,69.1,39.18998701145353,34.39490445859871,27.464788732394364,79900.0,7320.0,0.0,1.0,0.0,?,0.0,0.0
900000.0,1.171875,2.2325063279519476E-8,900000.0,67.30000000000001,35.260344486240356,34.33734939759037,21.20481927710845,89900.0,7320.0,0.0,1.0,0.0,?,0.0,0.0
1000000.0,1.296875,2.3162477494527893E-8,1000000.0,68.0,36.824815212584504,34.156378600823054,20.79207920792081,99900.0,7320.0,0.0,1.0,0.0,?,0.0,0.0
1100000.0,1.421875,2.6796963841964798E-8,1100000.0,69.1,38.93859871000378,41.03053435114503,29.290617848970246,109800.0,7320.0,0.0,1.0,0.0,?,0.0,0.0
1200000.0,1.546875,3.012100933119654E-8,1200000.0,71.1,42.73599112308788,37.98283261802574,34.318181818181806,119800.0,7320.0,0.0,1.0,0.0,?,0.0,0.0
1300000.0,1.671875,3.3134613962223126E-8,1300000.0,68.0,37.02547713040843,34.560327198364014,25.754060324826007,129800.0,7320.0,0.0,1.0,0.0,?,0.0,0.0
1400000.0,1.8125,3.617567320664723E-8,1400000.0,68.5,38.08475509080903,34.10041841004185,28.40909090909091,139800.0,7320.0,0.0,1.0,0.0,?,0.0,0.0
1500000.0,1.921875,3.8269305756936466E-8,1500000.0,69.1,38.95211000474158,36.157024793388416,24.999999999999993,149800.0,7320.0,0.0,1.0,0.0,?,0.0,0.0
1600000.0,2.046875,4.035158781334757E-8,1600000.0,69.0,38.87337718675561,36.08247422680411,23.645320197044327,159800.0,7320.0,0.0,1.0,0.0,?,0.0,0.0
1700000.0,2.171875,4.212342901155352E-8,1700000.0,66.9,34.493322672830764,34.84251968503938,26.607538802660756,169800.0,7320.0,0.0,1.0,0.0,?,0.0,0.0
1800000.0,2.3125,4.376750439405441E-8,1800000.0,65.9,33.10472543511356,26.82403433476395,16.421568627450995,179800.0,7320.0,0.0,1.0,0.0,?,0.0,0.0
1900000.0,2.421875,4.477459394062558E-8,1900000.0,70.3,41.584649153862486,38.3817427385892,28.26086956521739,189800.0,7320.0,0.0,1.0,0.0,?,0.0,0.0
2000000.0,2.53125,4.551004773626724E-8,2000000.0,64.9,31.089995288204804,20.227272727272723,7.631578947368428,199800.0,7320.0,0.0,1.0,0.0,?,0.0,0.0
2100000.0,2.65625,4.91476384922862E-8,2100000.0,69.69999999999999,40.41954081753041,41.5057915057915,30.82191780821916,209700.0,7320.0,0.0,1.0,0.0,?,0.0,0.0
2200000.0,2.796875,5.2890682127326725E-8,2200000.0,66.8,34.60988493703247,28.29373650107992,17.206982543640912,219700.0,7320.0,0.0,1.0,0.0,?,0.0,0.0
2300000.0,2.921875,5.5907391166935365E-8,2300000.0,68.60000000000001,38.009349927348545,32.61802575107297,27.314814814814838,229700.0,7320.0,0.0,1.0,0.0,?,0.0,0.0
2400000.0,3.0625,5.8951942871014275E-8,2400000.0,68.8,38.943248532289616,35.26970954356845,19.999999999999986,239700.0,7320.0,0.0,1.0,0.0,?,0.0,0.0
2500000.0,3.1875,6.13477701942126E-8,2500000.0,68.2,36.945547126263584,36.01609657947687,19.89924433249372,249700.0,7320.0,0.0,1.0,0.0,?,0.0,0.0
2600000.0,3.3125,6.343315665920575E-8,2600000.0,71.1,42.62913407710326,42.084168336673336,37.98283261802574,259700.0,7320.0,0.0,1.0,0.0,?,0.0,0.0
2700000.0,3.453125,6.542997046684226E-8,2700000.0,70.19999999999999,41.19040101041994,43.45351043643263,29.047619047619044,269700.0,7320.0,0.0,1.0,0.0,?,0.0,0.0
2800000.0,3.578125,6.68944752154251E-8,2800000.0,67.10000000000001,35.5957685049605,29.0948275862069,12.032085561497336,279700.0,7320.0,0.0,1.0,0.0,?,0.0,0.0
2900000.0,3.703125,6.804853910580278E-8,2900000.0,68.5,37.59410412869483,34.237995824634666,24.096385542168694,289700.0,7320.0,0.0,1.0,0.0,?,0.0,0.0
3000000.0,3.828125,6.88921621379753E-8,3000000.0,70.3,40.99697236989534,42.774566473988436,32.80542986425338,299700.0,7320.0,0.0,1.0,0.0,?,0.0,0.0
3100000.0,3.953125,7.25328573025763E-8,3100000.0,67.9,37.081523528766105,32.27848101265823,24.292452830188697,309600.0,7320.0,0.0,1.0,0.0,?,0.0,0.0
3200000.0,4.09375,7.627939339727163E-8,3200000.0,69.6,40.01128734988021,39.19999999999999,29.466357308584683,319600.0,7320.0,0.0,1.0,0.0,?,0.0,0.0
3300000.0,4.21875,7.929920684546233E-8,3300000.0,68.8,38.110955947695814,36.71399594320486,24.637681159420282,329600.0,7320.0,0.0,1.0,0.0,?,0.0,0.0
3400000.0,4.34375,8.200857943544786E-8,3400000.0,68.30000000000001,37.168499417272535,36.85258964143428,24.881516587677748,339600.0,7320.0,0.0,1.0,0.0,?,0.0,0.0
3500000.0,4.484375,8.470737763370077E-8,3500000.0,66.10000000000001,33.41451917033312,26.46420824295011,16.29629629629631,349600.0,7320.0,0.0,1.0,0.0,?,0.0,0.0
3600000.0,4.609375,8.679586850727599E-8,3600000.0,68.60000000000001,37.95766104333877,36.30831643002029,26.806526806526826,359600.0,7320.0,0.0,1.0,0.0,?,0.0,0.0
3700000.0,4.734375,8.857391852264604E-8,3700000.0,70.7,41.47023571713943,39.2116182572614,26.749999999999996,369600.0,7320.0,0.0,1.0,0.0,?,0.0,0.0
3800000.0,4.84375,8.985807653516532E-8,3800000.0,69.69999999999999,39.98573918554903,39.27855711422845,30.979498861047816,379600.0,7320.0,0.0,1.0,0.0,?,0.0,0.0
3900000.0,4.96875,9.101524483412506E-8,3900000.0,68.7,38.46964371368138,37.773359840954285,25.119617224880404,389600.0,7320.0,0.0,1.0,0.0,?,0.0,0.0
4000000.0,5.09375,9.186197227487963E-8,4000000.0,69.5,39.481245138657385,37.11340206185566,28.904428904428904,399600.0,7320.0,0.0,1.0,0.0,?,0.0,0.0
4100000.0,5.234375,9.596124679471057E-8,4100000.0,67.60000000000001,36.24231070460119,33.470225872689944,25.173210161662833,409500.0,7320.0,0.0,1.0,0.0,?,0.0,0.0
4200000.0,5.359375,9.929460550968847E-8,4200000.0,68.2,37.83404426685227,34.96932515337424,24.465558194774367,419500.0,7320.0,0.0,1.0,0.0,?,0.0,0.0
4300000.0,5.484375,1.0231752336646121E-7,4300000.0,68.60000000000001,38.463468073514605,36.820925553319924,23.97094430992738,429500.0,7320.0,0.0,1.0,0.0,?,0.0,0.0
4400000.0,5.609375,1.0503000036502879E-7,4400000.0,70.19999999999999,41.51266309723814,39.676113360323875,28.70813397129186,439500.0,7320.0,0.0,1.0,0.0,?,0.0,0.0
4500000.0,5.75,1.0773229102293651E-7,4500000.0,69.0,38.437096614040314,35.95041322314048,27.738927738927732,449500.0,7320.0,0.0,1.0,0.0,?,0.0,0.0
4600000.0,5.875,1.0982388630509378E-7,4600000.0,68.10000000000001,36.78611910367077,36.32734530938125,27.33485193621868,459500.0,7320.0,0.0,1.0,0.0,?,0.0,0.0
4700000.0,6.0,1.1160504072904588E-7,4700000.0,67.5,35.73213946718978,36.39921722113504,20.92457420924576,469500.0,7320.0,0.0,1.0,0.0,?,0.0,0.0
4800000.0,6.125,1.1307575429479282E-7,4800000.0,69.0,38.952583881119004,37.499999999999986,25.659472422062347,479500.0,7320.0,0.0,1.0,0.0,?,0.0,0.0
4900000.0,6.25,1.142360270023346E-7,4900000.0,67.10000000000001,35.30499075785583,36.608863198458586,23.488372093023273,489500.0,7320.0,0.0,1.0,0.0,?,0.0,0.0
5000000.0,6.375,1.151101767188973E-7,5000000.0,67.30000000000001,35.663862371819604,31.732776617954077,22.511848341232245,499500.0,7320.0,0.0,1.0,0.0,?,0.0,0.0
5100000.0,6.5,1.1878139856788849E-7,5100000.0,63.5,29.756360417227985,10.539215686274519,-29.432624113475157,509400.0,7320.0,0.0,1.0,0.0,?,0.0,0.0
5200000.0,6.625,1.221421795586745E-7,5200000.0,65.0,32.40659557128015,17.061611374407594,-19.453924914675742,519400.0,7320.0,0.0,1.0,0.0,?,0.0,0.0
5300000.0,6.765625,1.2557381220782797E-7,5300000.0,65.3,32.59518259518261,19.11421911421913,-15.66666666666664,529400.0,7320.0,0.0,1.0,0.0,?,0.0,0.0
5400000.0,6.890625,1.2831371148220366E-7,5400000.0,59.3,23.67242530399754,3.0952380952380976,-41.81184668989547,539400.0,7320.0,0.0,1.0,0.0,?,0.0,0.0
5500000.0,7.015625,1.307431698983742E-7,5500000.0,63.1,29.989526888575213,12.559241706161147,-22.591362126245826,549400.0,7320.0,0.0,1.0,0.0,?,0.0,0.0
5600000.0,7.140625,1.3287227678423125E-7,5600000.0,61.9,26.631439487305897,11.60092807424595,-27.424749163879582,559400.0,7320.0,0.0,1.0,0.0,?,0.0,2.0
5700000.0,7.25,1.3446360955842666E-7,5700000.0,66.9,34.1943077082124,14.910025706940889,-15.734265734265707,569400.0,7320.0,0.0,1.0,0.0,?,0.0,0.0
5800000.0,7.390625,1.3616036287405424E-7,5800000.0,64.1,29.87295088371803,6.994818652849746,-25.087108013937264,579400.0,7320.0,0.0,1.0,0.0,?,0.0,0.0
5900000.0,7.515625,1.373581471852958E-7,5900000.0,63.7,29.540831379369248,12.318840579710155,-25.605536332179913,589400.0,7320.0,0.0,1.0,0.0,?,0.0,0.0
6000000.0,7.640625,1.3824549063833222E-7,6000000.0,62.9,28.003104987385985,3.886010362694304,-34.90909090909089,599400.0,7320.0,0.0,1.0,0.0,?,0.0,0.0
6100000.0,7.78125,1.4239045817198023E-7,6100000.0,63.9,31.348460760225468,21.691973969631235,-13.522012578616366,609300.0,7320.0,0.0,1.0,0.0,?,0.0,0.0
6200000.0,7.90625,1.4576443289923997E-7,6200000.0,65.2,32.766615146831526,15.121951219512209,-24.285714285714267,619300.0,7320.0,0.0,1.0,0.0,?,0.0,0.0
6300000.0,8.015625,1.4844502503466272E-7,6300000.0,64.2,30.191835954714396,14.761904761904773,-22.184300341296908,629300.0,7320.0,0.0,1.0,0.0,?,0.0,0.0
6400000.0,8.15625,1.5154225467186832E-7,6400000.0,62.8,29.45219248172774,9.268292682926836,-18.849840255591076,639300.0,7320.0,0.0,1.0,0.0,?,0.0,0.0
6500000.0,8.28125,1.5398490682451258E-7,6500000.0,64.0,30.171932220222214,9.774436090225572,-26.76056338028167,649300.0,7320.0,0.0,1.0,0.0,?,0.0,0.0
6600000.0,8.421875,1.5638364453075657E-7,6600000.0,66.4,33.93759462063271,19.809069212410517,-13.898305084745735,659300.0,7320.0,0.0,1.0,0.0,?,0.0,0.0
6700000.0,8.53125,1.5797769366246128E-7,6700000.0,62.6,28.208357007939313,9.661835748792278,-22.2222222222222,669300.0,7320.0,0.0,1.0,0.0,?,0.0,0.0
6800000.0,8.65625,1.5948902324049005E-7,6800000.0,64.60000000000001,31.994221429888736,11.940298507462696,-23.776223776223755,679300.0,7320.0,0.0,1.0,0.0,?,0.0,0.0
6900000.0,8.796875,1.6084002305029164E-7,6900000.0,65.3,33.17876509736259,18.92523364485983,-16.053511705685594,689300.0,7320.0,0.0,1.0,0.0,?,0.0,0.0
7000000.0,8.921875,1.617304709119101E-7,7000000.0,61.9,26.505763799941356,-2.9729729729729755,-44.31818181818181,699300.0,7320.0,0.0,1.0,0.0,?,0.0,0.0
7100000.0,9.046875,1.6541799090595706E-7,7100000.0,63.6,30.990289347858248,13.744075829383897,-20.930232558139515,709200.0,7320.0,0.0,1.0,0.0,?,0.0,0.0
7200000.0,9.1875,1.6921720493377907E-7,7200000.0,62.7,27.32728052059386,7.444168734491321,-33.69175627240142,719200.0,7320.0,0.0,1.0,0.0,?,0.0,0.0
7300000.0,9.3125,1.7228384321141571E-7,7300000.0,65.3,33.287191909870415,17.380952380952394,-11.935483870967714,729200.0,7320.0,0.0,1.0,0.0,?,0.0,0.0
7400000.0,9.421875,1.7469551595341825E-7,7400000.0,64.0,29.31224743855075,2.7027027027027053,-29.032258064516114,739200.0,7320.0,0.0,1.0,0.0,?,0.0,0.0
7500000.0,9.5625,1.7744699208479786E-7,7500000.0,65.10000000000001,31.907753541187034,16.904761904761916,-19.931271477663206,749200.0,7320.0,0.0,1.0,0.0,?,0.0,0.0
7600000.0,9.6875,1.7958230778781902E-7,7600000.0,64.7,31.223941082492303,16.745283018867937,-6.969696969696977,759200.0,7320.0,0.0,1.0,0.0,?,0.0,0.0
7700000.0,9.8125,1.8140718263263501E-7,7700000.0,66.7,35.21400778210118,24.660633484162894,-10.999999999999972,769200.0,7320.0,0.0,1.0,0.0,?,0.0,0.0
7800000.0,9.953125,1.831109208675722E-7,7800000.0,65.2,31.2926459438969,12.121212121212132,-29.850746268656696,779200.0,7320.0,0.0,1.0,0.0,?,0.0,0.0
7900000.0,10.078125,1.843149139959779E-7,7900000.0,63.6,29.523197323430438,10.784313725490206,-21.739130434782588,789200.0,7320.0,0.0,1.0,0.0,?,0.0,0.0
8000000.0,10.203125,1.852084662661784E-7,8000000.0,67.5,36.62889098609346,24.942263279445747,-4.501607717041768,799200.0,7320.0,0.0,1.0,0.0,?,0.0,0.0
8100000.0,10.34375,1.8936041871913603E-7,8100000.0,63.2,29.91544145653997,10.02444987775062,-18.70967741935482,809100.0,7320.0,0.0,1.0,0.0,?,0.0,0.0
8200000.0,10.46875,1.927305129356682E-7,8200000.0,68.10000000000001,34.69377727916672,25.46728971962619,-1.5923566878980908,261437.0,7320.0,0.0,1.0,0.0,?,1.0,8.0
8300000.0,10.609375,1.9617844372987745E-7,8300000.0,69.69999999999999,35.55824003811209,24.06015037593984,-6.690140845070427,271437.0,7320.0,0.0,1.0,0.0,?,0.0,56.0
8400000.0,10.734375,1.9892894973357515E-7,8400000.0,69.19999999999999,35.26800726343398,26.13908872901678,-11.594202898550735,281437.0,7320.0,0.0,1.0,0.0,?,0.0,4.0
8500000.0,10.84375,2.0106400673588113E-7,8500000.0,66.4,30.14785370964792,12.271540469973901,-22.62773722627735,291437.0,7320.0,0.0,1.0,0.0,?,0.0,0.0
8600000.0,10.96875,2.0319363102316852E-7,8600000.0,67.30000000000001,32.60511129431163,25.34246575342466,-8.99999999999997,301437.0,7320.0,0.0,1.0,0.0,?,0.0,0.0
8700000.0,11.109375,2.0524021238088602E-7,8700000.0,68.8,34.288121314237564,21.999999999999993,-7.5862068965517295,311437.0,7320.0,0.0,1.0,0.0,?,0.0,0.0
8800000.0,11.234375,2.067489549517631E-7,8800000.0,68.30000000000001,35.03725623601355,26.279069767441882,-3.5947712418300317,321437.0,7320.0,0.0,1.0,0.0,?,0.0,0.0
8900000.0,11.359375,2.0794725666443502E-7,8900000.0,68.89999999999999,35.73424145740688,24.514563106796107,-2.30263157894737,331437.0,7320.0,0.0,1.0,0.0,?,0.0,0.0
9000000.0,11.46875,2.0872413491209344E-7,9000000.0,69.39999999999999,36.86139218566876,31.081081081081063,-2.6845637583892636,341437.0,7320.0,0.0,1.0,0.0,?,0.0,0.0
9100000.0,11.59375,2.1241294840971625E-7,9100000.0,68.5,34.009301546067796,24.096385542168694,-7.14285714285711,351337.0,7320.0,0.0,1.0,0.0,?,0.0,29.0
9200000.0,11.734375,2.162136176290611E-7,9200000.0,66.5,32.49941566658338,16.250000000000014,-13.94557823129249,361337.0,7320.0,0.0,1.0,0.0,?,0.0,0.0
9300000.0,11.859375,2.1928154941027359E-7,9300000.0,66.8,31.7052298982984,20.76372315035801,-12.162162162162133,371337.0,7320.0,0.0,1.0,0.0,?,0.0,0.0
9400000.0,11.984375,2.2203904033328092E-7,9400000.0,70.8,40.275550610334776,29.126213592233007,3.3112582781456976,381337.0,7320.0,0.0,1.0,0.0,?,0.0,0.0
9500000.0,12.109375,2.244860903980831E-7,9500000.0,66.3,30.666995844134465,15.5388471177945,-14.237288135593193,391337.0,7320.0,0.0,1.0,0.0,?,0.0,0.0
9600000.0,12.21875,2.2635562345385547E-7,9600000.0,69.5,36.871822893381676,29.06976744186046,-0.3289473684210529,401337.0,7320.0,0.0,1.0,0.0,?,0.0,0.0
9700000.0,12.359375,2.284100628457963E-7,9700000.0,69.39999999999999,35.92106144877034,28.83720930232558,-4.7945205479452095,411337.0,7320.0,0.0,1.0,0.0,?,0.0,0.0
9800000.0,12.46875,2.2973632439970966E-7,9800000.0,69.6,36.3838398212051,24.37810945273631,-7.420494699646649,421337.0,7320.0,0.0,1.0,0.0,?,0.0,0.0
9900000.0,12.59375,2.3094161103169118E-7,9900000.0,68.7,35.054156119018984,28.045977011494273,-9.82456140350874,431337.0,7320.0,0.0,1.0,0.0,?,0.0,0.0
1.0E7,12.734375,2.319483125271896E-7,1.0E7,69.6,36.9103504380995,24.938271604938265,-5.190311418685125,441337.0,7320.0,0.0,1.0,0.0,?,0.0,0.0
