learning evaluation instances,evaluation time (cpu seconds),model cost (RAM-Hours),classified instances,classifications correct (percent),Kappa Statistic (percent),Kappa Temporal Statistic (percent),Kappa M Statistic (percent),model training instances,model serialized size (bytes),labeling cost,newThreshold,maxPosterior,accuracyBaseLearner (percent),Change detected,Warning detected,tree size (nodes),tree size (leaves),active learning leaves,tree depth,active leaf byte size estimate,inactive leaf byte size estimate,byte size estimate overhead
100000.0,0.609375,2.2164992212007444E-8,100000.0,72.89999999999999,45.79219407594694,45.25252525252525,45.47283702213279,29400.0,85344.0,0.0,1.0,0.0,?,0.0,39.0,27.0,20.0,20.0,3.0,0.0,0.0,1.0
200000.0,1.203125,5.937760256023871E-8,200000.0,80.0,60.00767852572307,58.762886597938156,58.93223819301849,58815.0,188288.0,0.0,1.0,0.0,?,0.0,0.0,73.0,49.0,49.0,4.0,0.0,0.0,1.0
300000.0,1.796875,1.2544679015667902E-7,300000.0,80.5,60.89708111750127,61.614173228346466,56.95364238410596,88230.0,377032.0,0.0,1.0,0.0,?,0.0,0.0,142.0,91.0,91.0,5.0,0.0,0.0,1.0
400000.0,2.390625,2.2234482457861304E-7,400000.0,86.4,72.7863931965983,74.19354838709677,72.52525252525253,117645.0,578912.0,0.0,1.0,0.0,?,0.0,0.0,217.0,148.0,148.0,6.0,0.0,0.0,1.0
500000.0,3.03125,3.640520541618268E-7,500000.0,83.3,66.59118007153889,66.33064516129032,65.06276150627615,147045.0,796224.0,0.0,1.0,0.0,?,0.0,0.0,285.0,191.0,191.0,6.0,0.0,0.0,1.0
600000.0,3.65625,5.209061782807112E-7,600000.0,87.8,75.57997557997558,75.05112474437627,73.93162393162393,176460.0,912584.0,0.0,1.0,0.0,?,0.0,0.0,324.0,218.0,218.0,6.0,0.0,0.0,1.0
700000.0,4.3125,7.073406595736742E-7,700000.0,88.8,77.57443485573555,78.21011673151752,76.90721649484537,205875.0,1041672.0,0.0,1.0,0.0,?,0.0,0.0,385.0,253.0,253.0,7.0,0.0,0.0,1.0
800000.0,4.9375,9.0278258236746E-7,800000.0,87.8,75.55071023182737,76.1252446183953,72.52252252252251,235290.0,1153392.0,0.0,1.0,0.0,?,0.0,0.0,437.0,282.0,282.0,7.0,0.0,0.0,1.0
900000.0,5.578125,1.1215675880925525E-6,900000.0,88.6,77.1956215593394,77.15430861723446,76.05042016806722,264705.0,1266088.0,0.0,1.0,0.0,?,0.0,0.0,503.0,327.0,327.0,7.0,0.0,0.0,1.0
1000000.0,6.234375,1.380327804428008E-6,1000000.0,88.0,75.9968315817688,74.94780793319416,76.47058823529413,294105.0,1463392.0,0.0,1.0,0.0,?,0.0,0.0,557.0,366.0,366.0,7.0,0.0,0.0,1.0
1100000.0,6.921875,1.6828251278234854E-6,1100000.0,90.0,79.99839987198976,80.15873015873017,80.46875,323520.0,1640992.0,0.0,1.0,0.0,?,0.0,0.0,623.0,408.0,408.0,7.0,0.0,0.0,1.0
1200000.0,7.609375,2.0132786853031983E-6,1200000.0,90.7,81.3934504945741,81.47410358565737,81.09756097560977,352935.0,1799256.0,0.0,1.0,0.0,?,0.0,0.0,674.0,441.0,441.0,7.0,0.0,0.0,1.0
1300000.0,8.328125,2.3909177010258044E-6,1300000.0,90.10000000000001,80.19667304107091,79.83706720977597,78.75536480686695,382350.0,1973296.0,0.0,1.0,0.0,?,0.0,0.0,733.0,481.0,481.0,7.0,0.0,0.0,1.0
1400000.0,9.03125,2.7874632117648924E-6,1400000.0,89.9,79.79595919183838,80.19607843137256,79.96031746031747,411750.0,2115792.0,0.0,1.0,0.0,?,0.0,0.0,787.0,517.0,517.0,8.0,0.0,0.0,1.0
1500000.0,9.75,3.213820293442243E-6,1500000.0,90.3,80.56143388482751,80.36437246963564,79.317697228145,441165.0,2229912.0,0.0,1.0,0.0,?,0.0,0.0,834.0,545.0,545.0,8.0,0.0,0.0,1.0
1600000.0,10.46875,3.654267250870665E-6,1600000.0,90.3,80.59316879541599,81.01761252446184,79.87551867219918,470580.0,2307096.0,0.0,1.0,0.0,?,0.0,0.0,854.0,558.0,558.0,8.0,0.0,0.0,1.0
1700000.0,11.203125,4.120875447471109E-6,1700000.0,92.0,83.998399839984,83.93574297188756,84.03193612774452,499995.0,2395704.0,0.0,1.0,0.0,?,0.0,0.0,899.0,585.0,585.0,8.0,0.0,0.0,1.0
1800000.0,11.890625,4.56777679371751E-6,1800000.0,91.4,82.79552683697761,82.62626262626263,82.34086242299796,529410.0,2453736.0,0.0,1.0,0.0,?,0.0,0.0,917.0,594.0,594.0,8.0,0.0,0.0,1.0
1900000.0,12.671875,5.104296206910577E-6,1900000.0,90.9,81.79883512544804,81.87250996015936,80.9623430962343,558810.0,2588944.0,0.0,1.0,0.0,?,0.0,0.0,986.0,636.0,636.0,8.0,0.0,0.0,1.0
2000000.0,13.4375,5.644068813934508E-6,2000000.0,93.10000000000001,86.1188228761799,86.17234468937876,84.90153172866522,588225.0,2660872.0,0.0,1.0,0.0,?,0.0,0.0,1026.0,659.0,659.0,8.0,0.0,0.0,1.0
2100000.0,14.234375,6.238517558409108E-6,2100000.0,92.0,83.9968633852235,84.58574181117534,83.57289527720741,617640.0,2820120.0,0.0,1.0,0.0,?,0.0,0.0,1086.0,692.0,692.0,8.0,0.0,0.0,1.0
2200000.0,15.0,6.826257417237179E-6,2200000.0,92.60000000000001,85.19129247997823,85.17034068136273,84.55114822546975,647055.0,2905216.0,0.0,1.0,0.0,?,0.0,0.0,1117.0,709.0,709.0,8.0,0.0,0.0,1.0
2300000.0,15.8125,7.484908920661028E-6,2300000.0,93.7,87.32088230558688,87.54940711462453,86.33405639913234,676470.0,3072304.0,0.0,1.0,0.0,?,0.0,0.0,1196.0,756.0,756.0,8.0,0.0,0.0,1.0
2400000.0,16.609375,8.156737280336932E-6,2400000.0,91.10000000000001,82.18603385053883,83.01526717557253,81.14406779661017,705870.0,3191008.0,0.0,1.0,0.0,?,0.0,0.0,1239.0,779.0,779.0,8.0,0.0,0.0,1.0
2500000.0,17.46875,8.90741900851329E-6,2500000.0,92.9,85.80170379554455,86.8761552680222,85.42094455852157,735285.0,3309688.0,0.0,1.0,0.0,?,0.0,0.0,1296.0,809.0,809.0,8.0,0.0,0.0,1.0
2600000.0,18.3125,9.667325842504699E-6,2600000.0,93.30000000000001,86.60021439656967,86.46464646464648,86.51911468812878,764700.0,3415680.0,0.0,1.0,0.0,?,0.0,0.0,1333.0,829.0,829.0,8.0,0.0,0.0,1.0
2700000.0,19.09375,1.0378786763693723E-5,2700000.0,94.6,89.187500750868,89.15662650602408,88.81987577639751,794115.0,3455936.0,0.0,1.0,0.0,?,0.0,0.0,1353.0,839.0,839.0,8.0,0.0,0.0,1.0
2800000.0,19.921875,1.116485658308698E-5,2800000.0,92.60000000000001,85.08665860540106,84.98985801217039,83.55555555555556,823515.0,3598304.0,0.0,1.0,0.0,?,0.0,0.0,1413.0,878.0,878.0,8.0,0.0,0.0,1.0
2900000.0,20.734375,1.19545583664957E-5,2900000.0,93.8,87.59404514166799,87.93774319066146,87.29508196721311,852930.0,3687472.0,0.0,1.0,0.0,?,0.0,0.0,1445.0,897.0,897.0,9.0,0.0,0.0,1.0
3000000.0,21.578125,1.2794966395530435E-5,3000000.0,93.5,86.95523035056314,86.51452282157678,86.0813704496788,882345.0,3781800.0,0.0,1.0,0.0,?,0.0,0.0,1488.0,920.0,920.0,9.0,0.0,0.0,1.0
3100000.0,22.4375,1.3667826812403897E-5,3100000.0,93.8,87.58564901025585,87.89062499999999,87.16356107660455,911760.0,3859056.0,0.0,1.0,0.0,?,0.0,0.0,1523.0,939.0,939.0,9.0,0.0,0.0,1.0
3200000.0,23.296875,1.4553258143779303E-5,3200000.0,92.5,84.99471814078557,84.96993987975952,85.14851485148516,941175.0,3917040.0,0.0,1.0,0.0,?,0.0,0.0,1551.0,956.0,956.0,9.0,0.0,0.0,1.0
3300000.0,24.15625,1.5460583640055523E-5,3300000.0,94.39999999999999,88.7719298245614,88.47736625514402,88.3817427385892,970575.0,4009032.0,0.0,1.0,0.0,?,0.0,0.0,1594.0,982.0,982.0,9.0,0.0,0.0,1.0
3400000.0,25.046875,1.6426042776503082E-5,3400000.0,93.2,86.4029913419048,86.09406952965236,86.09406952965236,999990.0,4119320.0,0.0,1.0,0.0,?,0.0,0.0,1639.0,1009.0,1009.0,9.0,0.0,0.0,1.0
3500000.0,26.046875,1.753470779577684E-5,3500000.0,93.30000000000001,86.52486263404747,86.15702479338843,85.40305010893248,1029405.0,4215856.0,0.0,1.0,0.0,?,0.0,0.0,1669.0,1027.0,1027.0,9.0,4004.5113974231913,0.0,1.0194943661163127
3600000.0,26.921875,1.8522033125110385E-5,3600000.0,93.8,87.58609642799935,87.37270875763747,87.1101871101871,1058820.0,4293264.0,0.0,1.0,0.0,?,0.0,0.0,1699.0,1042.0,1042.0,9.0,4004.5113974231913,0.0,1.0194943661163127
3700000.0,27.8125,1.9546002311269857E-5,3700000.0,94.69999999999999,89.33352653738095,89.42115768463073,88.45315904139433,1088235.0,4377080.0,0.0,1.0,0.0,?,0.0,0.0,1735.0,1063.0,1063.0,9.0,4004.5113974231913,0.0,1.0194943661163127
3800000.0,28.703125,2.05821553309862E-5,3800000.0,94.3,88.60255302812169,88.48484848484847,88.41463414634146,1117635.0,4423640.0,0.0,1.0,0.0,?,0.0,0.0,1755.0,1073.0,1073.0,9.0,4004.5113974231913,0.0,1.0194943661163127
3900000.0,29.609375,2.166102281383549E-5,3900000.0,95.5,90.98355400250055,91.29593810444874,90.54621848739495,1147050.0,4529480.0,0.0,1.0,0.0,?,0.0,0.0,1802.0,1101.0,1101.0,9.0,4004.5113974231913,0.0,1.0194943661163127
4000000.0,30.515625,2.2762365374041515E-5,4000000.0,95.19999999999999,90.32570138664946,91.09461966604823,89.38053097345133,1176465.0,4626536.0,0.0,1.0,0.0,?,0.0,0.0,1852.0,1129.0,1129.0,9.0,4004.5113974231913,0.0,1.0194943661163127
4100000.0,31.421875,2.3882474989578542E-5,4100000.0,94.3,88.55651475607307,88.84540117416829,87.66233766233765,1205880.0,4707912.0,0.0,1.0,0.0,?,0.0,0.0,1873.0,1141.0,1141.0,9.0,4004.5113974231913,0.0,1.0194943661163127
4200000.0,32.328125,2.501644701826283E-5,4200000.0,95.0,89.99995999984,90.13806706114397,89.99999999999999,1235280.0,4760704.0,0.0,1.0,0.0,?,0.0,0.0,1900.0,1156.0,1156.0,9.0,4004.5113974231913,0.0,1.0194943661163127
4300000.0,33.28125,2.623487428839629E-5,4300000.0,94.0,87.99687918858903,87.9759519038076,87.67967145790553,1264695.0,4866536.0,0.0,1.0,0.0,?,0.0,0.0,1956.0,1190.0,1190.0,9.0,4004.5113974231913,0.0,1.0194943661163127
4400000.0,34.234375,2.7486316846787103E-5,4400000.0,94.0,87.99539022984824,88.32684824902722,88.63636363636363,1294110.0,5001496.0,0.0,1.0,0.0,?,0.0,0.0,1994.0,1212.0,1212.0,9.0,4004.5113974231913,0.0,1.0194943661163127
4500000.0,35.1875,2.875738670506204E-5,4500000.0,92.9,85.79147488493098,86.10567514677105,85.74297188755021,1323525.0,5082416.0,0.0,1.0,0.0,?,0.0,0.0,2028.0,1232.0,1232.0,9.0,4004.5113974231913,0.0,1.0194943661163127
4600000.0,36.15625,3.006962777969117E-5,4600000.0,94.0,88.00263941932775,88.02395209580838,87.9032258064516,1352940.0,5164880.0,0.0,1.0,0.0,?,0.0,0.0,2060.0,1251.0,1251.0,9.0,4004.5113974231913,0.0,1.0194943661163127
4700000.0,37.140625,3.142102718508492E-5,4700000.0,94.69999999999999,89.38896452310402,90.16697588126159,88.91213389121337,1382340.0,5229144.0,0.0,1.0,0.0,?,0.0,0.0,2096.0,1272.0,1272.0,9.0,4004.5113974231913,0.0,1.0194943661163127
4800000.0,38.109375,3.2779014759903985E-5,4800000.0,96.3,92.6011838105903,92.71653543307086,92.47967479674796,1411755.0,5342248.0,0.0,1.0,0.0,?,0.0,0.0,2151.0,1307.0,1307.0,10.0,4004.5113974231913,0.0,1.0194943661163127
4900000.0,39.109375,3.420161827105201E-5,4900000.0,95.8,91.5515056423873,91.66666666666666,90.84967320261437,1441170.0,5423992.0,0.0,1.0,0.0,?,0.0,0.0,2181.0,1325.0,1325.0,10.0,4004.5113974231913,0.0,1.0194943661163127
5000000.0,40.109375,3.564431972336024E-5,5000000.0,94.5,88.93440314182473,89.23679060665361,88.46960167714883,1470585.0,5500648.0,0.0,1.0,0.0,?,0.0,0.0,2214.0,1343.0,1343.0,10.0,4004.5113974231913,0.0,1.0194943661163127
5100000.0,41.203125,3.574487022382932E-5,5100000.0,90.60000000000001,81.17892039083773,81.01010101010101,80.81632653061224,28408.0,305696.0,0.0,1.0,0.0,?,1.0,13.0,101.0,78.0,78.0,3.0,0.0,0.0,1.0
5200000.0,41.796875,3.583970259771579E-5,5200000.0,91.9,83.69407672238864,82.54310344827587,82.80254777070064,57808.0,558544.0,0.0,1.0,0.0,?,0.0,0.0,206.0,153.0,153.0,4.0,0.0,0.0,1.0
5300000.0,42.390625,3.5968285972355976E-5,5300000.0,94.0,87.93397470961098,87.34177215189872,87.012987012987,87223.0,779040.0,0.0,1.0,0.0,?,0.0,0.0,274.0,196.0,196.0,5.0,0.0,0.0,1.0
5400000.0,42.9375,3.6097473671866795E-5,5400000.0,94.8,89.59604649766911,89.40936863543787,89.4523326572008,116638.0,856360.0,0.0,1.0,0.0,?,0.0,0.0,307.0,214.0,214.0,6.0,0.0,0.0,1.0
5500000.0,43.53125,3.626090907750445E-5,5500000.0,95.89999999999999,91.77697553148816,91.99218749999999,91.36842105263156,146053.0,1008168.0,0.0,1.0,0.0,?,0.0,0.0,379.0,256.0,256.0,6.0,0.0,0.0,1.0
5600000.0,44.125,3.6447676247917126E-5,5600000.0,96.6,93.19681610993945,93.5969868173258,92.88702928870293,175453.0,1153312.0,0.0,1.0,0.0,?,0.0,0.0,439.0,292.0,292.0,6.0,0.0,0.0,1.0
5700000.0,44.6875,3.663884068373592E-5,5700000.0,97.6,95.16758415450843,95.03105590062111,94.7939262472885,204868.0,1252296.0,0.0,1.0,0.0,?,0.0,0.0,479.0,315.0,315.0,6.0,0.0,0.0,1.0
5800000.0,45.25,3.684241033624859E-5,5800000.0,98.0,95.94920300569136,95.96774193548386,95.50561797752809,234283.0,1338696.0,0.0,1.0,0.0,?,0.0,0.0,521.0,336.0,336.0,7.0,0.0,0.0,1.0
5900000.0,45.828125,3.70695904388817E-5,5900000.0,97.7,95.39955835760232,95.70895522388058,95.01084598698482,263698.0,1459936.0,0.0,1.0,0.0,?,0.0,0.0,567.0,365.0,365.0,7.0,0.0,0.0,1.0
6000000.0,46.375,3.729233288645953E-5,6000000.0,97.7,95.3983802298409,95.41832669322709,95.32520325203252,293113.0,1516784.0,0.0,1.0,0.0,?,0.0,0.0,590.0,378.0,378.0,7.0,0.0,0.0,1.0
6100000.0,46.9375,3.7526348638089596E-5,6100000.0,98.3,96.59121898009272,96.6067864271457,96.43605870020964,322513.0,1544296.0,0.0,1.0,0.0,?,0.0,0.0,609.0,389.0,389.0,7.0,0.0,0.0,1.0
6200000.0,47.53125,3.779630380449818E-5,6200000.0,97.89999999999999,95.77546389429807,95.88235294117646,95.50321199143468,351928.0,1694656.0,0.0,1.0,0.0,?,0.0,0.0,681.0,434.0,434.0,7.0,0.0,0.0,1.0
6300000.0,48.125,3.8079737989594144E-5,6300000.0,98.2,96.38030888030887,96.21848739495798,96.33401221995926,381343.0,1783664.0,0.0,1.0,0.0,?,0.0,0.0,715.0,454.0,454.0,7.0,0.0,0.0,1.0
6400000.0,48.734375,3.8391367060184086E-5,6400000.0,99.0,97.99961592625785,97.9633401221996,98.02371541501977,410758.0,1916304.0,0.0,1.0,0.0,?,0.0,0.0,772.0,490.0,490.0,7.0,0.0,0.0,1.0
6500000.0,49.328125,3.870682082682229E-5,6500000.0,98.7,97.40018718652257,97.30848861283644,97.38955823293173,440158.0,1986808.0,0.0,1.0,0.0,?,0.0,0.0,795.0,503.0,503.0,7.0,0.0,0.0,1.0
6600000.0,49.90625,3.902005853079675E-5,6600000.0,98.8,97.59136746098015,97.6608187134503,97.45762711864407,469573.0,2028976.0,0.0,1.0,0.0,?,0.0,0.0,814.0,514.0,514.0,7.0,0.0,0.0,1.0
6700000.0,50.5,3.9351213037864215E-5,6700000.0,98.4,96.79589875040051,96.82539682539682,96.69421487603306,498988.0,2091888.0,0.0,1.0,0.0,?,0.0,0.0,837.0,527.0,527.0,7.0,0.0,0.0,1.0
6800000.0,51.09375,3.9692672499869443E-5,6800000.0,98.5,96.99225204125827,97.0414201183432,96.82203389830508,528403.0,2160360.0,0.0,1.0,0.0,?,0.0,0.0,863.0,543.0,543.0,7.0,0.0,0.0,1.0
6900000.0,51.6875,4.004334940368104E-5,6900000.0,98.6,97.19686048374179,97.22772277227722,97.11934156378601,557818.0,2221792.0,0.0,1.0,0.0,?,0.0,0.0,898.0,565.0,565.0,7.0,0.0,0.0,1.0
7000000.0,52.3125,4.0426868039907696E-5,7000000.0,99.1,98.19979837741826,98.22134387351778,98.09322033898304,587218.0,2304224.0,0.0,1.0,0.0,?,0.0,0.0,935.0,585.0,585.0,8.0,0.0,0.0,1.0
7100000.0,52.921875,4.081130800639384E-5,7100000.0,98.9,97.7997535724001,97.84313725490196,97.76876267748479,616633.0,2372288.0,0.0,1.0,0.0,?,0.0,0.0,957.0,599.0,599.0,8.0,0.0,0.0,1.0
7200000.0,53.53125,4.1202704564461294E-5,7200000.0,98.9,97.79964794367099,97.81746031746032,97.74590163934425,646048.0,2417808.0,0.0,1.0,0.0,?,0.0,0.0,979.0,610.0,610.0,8.0,0.0,0.0,1.0
7300000.0,54.15625,4.161281504720037E-5,7300000.0,99.3,98.58060539207735,98.582995951417,98.42342342342342,675463.0,2472872.0,0.0,1.0,0.0,?,0.0,0.0,1004.0,624.0,624.0,8.0,0.0,0.0,1.0
7400000.0,54.78125,4.203031790287546E-5,7400000.0,99.1,98.19948145065779,98.16700610997962,98.16700610997962,704878.0,2520072.0,0.0,1.0,0.0,?,0.0,0.0,1026.0,638.0,638.0,8.0,0.0,0.0,1.0
7500000.0,55.390625,4.244442049336311E-5,7500000.0,99.1,98.19974076266982,98.2107355864811,98.18913480885311,734278.0,2558392.0,0.0,1.0,0.0,?,0.0,0.0,1046.0,648.0,648.0,8.0,0.0,0.0,1.0
7600000.0,56.03125,4.288812649772608E-5,7600000.0,99.2,98.39256723087557,98.35051546391752,98.23788546255507,763693.0,2610312.0,0.0,1.0,0.0,?,0.0,0.0,1065.0,659.0,659.0,9.0,0.0,0.0,1.0
7700000.0,56.65625,4.3325407023075986E-5,7700000.0,98.9,97.79770961800273,97.71309771309771,97.74127310061601,793108.0,2639000.0,0.0,1.0,0.0,?,0.0,0.0,1081.0,667.0,667.0,9.0,0.0,0.0,1.0
7800000.0,57.296875,4.377592785102834E-5,7800000.0,99.3,98.59512226450235,98.635477582846,98.51694915254238,822523.0,2654488.0,0.0,1.0,0.0,?,0.0,0.0,1097.0,675.0,675.0,9.0,0.0,0.0,1.0
7900000.0,57.921875,4.422318258245167E-5,7900000.0,98.9,97.80005279873282,97.84313725490196,97.76876267748479,851923.0,2695936.0,0.0,1.0,0.0,?,0.0,0.0,1111.0,682.0,682.0,9.0,0.0,0.0,1.0
8000000.0,58.5625,4.4687314495806494E-5,8000000.0,98.8,97.57952276257134,97.63313609467455,97.35099337748345,881338.0,2731752.0,0.0,1.0,0.0,?,0.0,0.0,1127.0,690.0,690.0,9.0,0.0,0.0,1.0
8100000.0,59.1875,4.51427558113614E-5,8100000.0,98.9,97.79180317337959,97.79559118236473,97.64957264957265,910753.0,2749592.0,0.0,1.0,0.0,?,0.0,0.0,1135.0,694.0,694.0,9.0,0.0,0.0,1.0
8200000.0,59.828125,4.561511456914661E-5,8200000.0,99.5,98.99050264892105,98.97119341563786,98.89135254988913,940168.0,2784424.0,0.0,1.0,0.0,?,0.0,0.0,1153.0,703.0,703.0,9.0,0.0,0.0,1.0
8300000.0,60.46875,4.6090217818143894E-5,8300000.0,99.4,98.79861119454088,98.7878787878788,98.77049180327869,969583.0,2802496.0,0.0,1.0,0.0,?,0.0,0.0,1177.0,715.0,715.0,9.0,0.0,0.0,1.0
8400000.0,61.09375,4.656167529497504E-5,8400000.0,99.0,97.99865509622467,98.03536345776031,97.95081967213115,998983.0,2845312.0,0.0,1.0,0.0,?,0.0,0.0,1189.0,721.0,721.0,9.0,0.0,0.0,1.0
8500000.0,61.8125,4.710674463745415E-5,8500000.0,99.2,98.3989433025797,98.3050847457627,98.3640081799591,1028398.0,2862432.0,0.0,1.0,0.0,?,0.0,0.0,1201.0,727.0,727.0,10.0,3859.168975069252,0.0,1.021114588417698
8600000.0,62.453125,4.7597913103850775E-5,8600000.0,99.6,99.19907412969393,99.24385633270322,99.1701244813278,1057813.0,2896176.0,0.0,1.0,0.0,?,0.0,0.0,1211.0,732.0,732.0,10.0,3859.168975069252,0.0,1.021114588417698
8700000.0,63.140625,4.813506038367956E-5,8700000.0,99.0,97.99124988449687,97.9381443298969,97.85867237687366,1087228.0,2953992.0,0.0,1.0,0.0,?,0.0,0.0,1238.0,747.0,747.0,10.0,3859.168975069252,0.0,1.021114588417698
8800000.0,63.765625,4.8626743082422774E-5,8800000.0,99.4,98.79566922653864,98.77300613496932,98.72068230277186,1116643.0,2977392.0,0.0,1.0,0.0,?,0.0,0.0,1254.0,755.0,755.0,10.0,3859.168975069252,0.0,1.021114588417698
8900000.0,64.40625,4.913539143874207E-5,8900000.0,99.6,99.19993279435472,99.21414538310412,99.22027290448344,1146043.0,2999352.0,0.0,1.0,0.0,?,0.0,0.0,1270.0,763.0,763.0,10.0,3859.168975069252,0.0,1.021114588417698
9000000.0,65.046875,4.9649127047612446E-5,9000000.0,99.7,99.39935129940336,99.39271255060729,99.38775510204081,1175458.0,3031560.0,0.0,1.0,0.0,?,0.0,0.0,1278.0,767.0,767.0,10.0,3859.168975069252,0.0,1.021114588417698
9100000.0,65.6875,5.016751768481401E-5,9100000.0,99.6,99.19458438540748,99.1701244813278,99.10913140311803,1204873.0,3061144.0,0.0,1.0,0.0,?,0.0,0.0,1294.0,775.0,775.0,10.0,3859.168975069252,0.0,1.021114588417698
9200000.0,66.328125,5.0690839125309145E-5,9200000.0,99.4,98.79807692307693,98.73150105708245,98.75,1234288.0,3092392.0,0.0,1.0,0.0,?,0.0,0.0,1306.0,781.0,781.0,10.0,3859.168975069252,0.0,1.021114588417698
9300000.0,66.953125,5.120776972034947E-5,9300000.0,99.3,98.59866592996532,98.50746268656717,98.559670781893,1263688.0,3125600.0,0.0,1.0,0.0,?,0.0,0.0,1317.0,788.0,788.0,10.0,3859.168975069252,0.0,1.021114588417698
9400000.0,67.609375,5.175303502862032E-5,9400000.0,99.6,99.1989650628612,99.18864097363083,99.16839916839916,1293103.0,3141832.0,0.0,1.0,0.0,?,0.0,0.0,1329.0,794.0,794.0,10.0,3859.168975069252,0.0,1.021114588417698
9500000.0,68.265625,5.230195247956242E-5,9500000.0,99.4,98.79844278184528,98.82583170254404,98.84393063583815,1322518.0,3164864.0,0.0,1.0,0.0,?,0.0,0.0,1343.0,801.0,801.0,10.0,3859.168975069252,0.0,1.021114588417698
9600000.0,68.90625,5.284206172089197E-5,9600000.0,99.0,97.99422336328625,98.01192842942345,97.87234042553192,1351933.0,3192104.0,0.0,1.0,0.0,?,0.0,0.0,1351.0,805.0,805.0,10.0,3859.168975069252,0.0,1.021114588417698
9700000.0,69.5625,5.3397033932722284E-5,9700000.0,99.5,98.99576615008877,98.96907216494846,98.92933618843684,1381348.0,3203656.0,0.0,1.0,0.0,?,0.0,0.0,1357.0,808.0,808.0,10.0,3859.168975069252,0.0,1.021114588417698
9800000.0,70.203125,5.394309885256614E-5,9800000.0,99.2,98.3857363665347,98.40319361277446,98.23399558498896,1410748.0,3223432.0,0.0,1.0,0.0,?,0.0,0.0,1369.0,814.0,814.0,10.0,3859.168975069252,0.0,1.021114588417698
9900000.0,70.828125,5.448072033080584E-5,9900000.0,99.1,98.19532227533767,98.23874755381604,98.10924369747899,1440163.0,3255136.0,0.0,1.0,0.0,?,0.0,0.0,1378.0,820.0,820.0,10.0,3859.168975069252,0.0,1.021114588417698
1.0E7,71.484375,5.5049411506236856E-5,1.0E7,99.1,98.19956789629512,98.2107355864811,98.13664596273291,1469578.0,3281368.0,0.0,1.0,0.0,?,0.0,0.0,1389.0,827.0,827.0,10.0,3859.168975069252,0.0,1.021114588417698
