learning evaluation instances,evaluation time (cpu seconds),model cost (RAM-Hours),classified instances,classifications correct (percent),Kappa Statistic (percent),Kappa Temporal Statistic (percent),Kappa M Statistic (percent),model training instances,model serialized size (bytes),labeling cost,newThreshold,maxPosterior,accuracyBaseLearner (percent),Change detected,Warning detected
100000.0,0.34375,1.3863577300475703E-8,100000.0,61.1,20.278390320280018,21.41414141414141,14.317180616740078,9684.0,2904.0,0.0,1.0,0.0,?,2.0,30.0
200000.0,0.71875,2.7512885733611056E-8,200000.0,63.0,25.03656999760927,24.796747967479675,22.755741127348642,19684.0,2904.0,0.0,1.0,0.0,?,0.0,0.0
300000.0,1.109375,4.019487985513277E-8,300000.0,64.7,27.993276652686895,28.68686868686869,22.587719298245613,29684.0,2904.0,0.0,1.0,0.0,?,0.0,0.0
400000.0,1.53125,5.223251517034239E-8,400000.0,62.1,22.232800932385626,22.653061224489793,15.590200445434288,39684.0,2904.0,0.0,1.0,0.0,?,0.0,0.0
500000.0,1.921875,6.184243829920888E-8,500000.0,66.3,30.884838143365773,31.083844580777104,26.096491228070178,49684.0,2904.0,0.0,1.0,0.0,?,0.0,0.0
600000.0,2.328125,7.02392814370493E-8,600000.0,64.9,28.396572827417383,26.41509433962264,24.516129032258064,59684.0,2904.0,0.0,1.0,0.0,?,0.0,0.0
700000.0,2.671875,7.599259131691522E-8,700000.0,65.3,28.149614451245263,27.85862785862786,21.493212669683253,69684.0,2904.0,0.0,1.0,0.0,?,0.0,0.0
800000.0,3.03125,8.059426262560817E-8,800000.0,62.5,22.66510484549519,22.839506172839506,16.48106904231625,79684.0,2904.0,0.0,1.0,0.0,?,0.0,0.0
900000.0,3.359375,8.350551878619525E-8,900000.0,61.3,21.56401754371741,24.26614481409002,18.35443037974683,89684.0,2904.0,0.0,1.0,0.0,?,0.0,0.0
1000000.0,3.71875,8.52808847816454E-8,1000000.0,64.60000000000001,27.8175619463974,27.160493827160497,23.376623376623375,99684.0,2904.0,0.0,1.0,0.0,?,0.0,0.0
1100000.0,4.0625,9.91579791944888E-8,1100000.0,61.3,20.838174409661416,22.599999999999998,13.616071428571416,109584.0,2904.0,0.0,1.0,0.0,?,0.0,0.0
1200000.0,4.421875,1.1225269796947638E-7,1200000.0,62.5,23.17651782714512,20.212765957446805,17.943107221006557,119584.0,2904.0,0.0,1.0,0.0,?,0.0,0.0
1300000.0,4.765625,1.2342636990878318E-7,1300000.0,59.699999999999996,18.757862142373323,16.735537190082635,16.21621621621621,129584.0,2904.0,0.0,1.0,0.0,?,0.0,0.0
1400000.0,5.125,1.3369478337052796E-7,1400000.0,60.699999999999996,20.53992413887923,22.485207100591715,17.782426778242673,139584.0,2904.0,0.0,1.0,0.0,?,0.0,0.0
1500000.0,5.453125,1.4178002149694495E-7,1500000.0,62.9,24.59349593495935,26.24254473161034,20.726495726495724,149584.0,2904.0,0.0,1.0,0.0,?,0.0,0.0
1600000.0,5.796875,1.4889855972594684E-7,1600000.0,61.3,20.111307449672182,22.599999999999998,12.24489795918366,159584.0,2904.0,0.0,1.0,0.0,?,0.0,0.0
1700000.0,6.140625,1.5466538671818043E-7,1700000.0,65.4,29.881162756764652,29.531568228105908,27.004219409282705,169584.0,2904.0,0.0,1.0,0.0,?,0.0,0.0
1800000.0,6.5,1.592811895534396E-7,1800000.0,62.7,24.088244871377405,26.13861386138614,20.299145299145295,179584.0,2904.0,0.0,1.0,0.0,?,0.0,0.0
1900000.0,6.859375,1.6248383973207738E-7,1900000.0,65.0,28.77347931378335,30.41749502982108,24.731182795698924,189584.0,2904.0,0.0,1.0,0.0,?,0.0,0.0
2000000.0,7.234375,1.643511414941814E-7,2000000.0,63.5,26.399419261171165,24.742268041237114,24.43064182194617,199584.0,2904.0,0.0,1.0,0.0,?,0.0,0.0
2100000.0,7.5625,1.7761036158642833E-7,2100000.0,65.10000000000001,28.369114568367475,30.33932135728543,23.296703296703296,209484.0,2904.0,0.0,1.0,0.0,?,0.0,0.0
2200000.0,7.921875,1.9071921188798215E-7,2200000.0,61.7,21.468115644863648,24.15841584158416,16.55773420479302,219484.0,2904.0,0.0,1.0,0.0,?,0.0,0.0
2300000.0,8.25,2.013978923463987E-7,2300000.0,62.6,23.739458101561095,20.594479830148614,18.340611353711783,229484.0,2904.0,0.0,1.0,0.0,?,0.0,0.0
2400000.0,8.578125,2.1078630298790003E-7,2400000.0,62.1,21.89882703990373,22.33606557377049,14.25339366515836,239484.0,2904.0,0.0,1.0,0.0,?,0.0,0.0
2500000.0,8.890625,2.1849881805893447E-7,2500000.0,64.4,26.72726075215701,28.94211576846308,20.53571428571428,249484.0,2904.0,0.0,1.0,0.0,?,0.0,0.0
2600000.0,9.203125,2.249825047329068E-7,2600000.0,62.8,24.75484643515972,27.626459143968873,21.51898734177215,259484.0,2904.0,0.0,1.0,0.0,?,0.0,0.0
2700000.0,9.484375,2.2971187718212602E-7,2700000.0,61.6,21.66430707591625,23.96039603960396,18.471337579617828,269484.0,2904.0,0.0,1.0,0.0,?,0.0,0.0
2800000.0,9.78125,2.3353660556798179E-7,2800000.0,62.4,23.939297085823167,23.421588594704684,21.174004192872115,279484.0,2904.0,0.0,1.0,0.0,?,0.0,0.0
2900000.0,10.078125,2.3619394697662856E-7,2900000.0,61.0,20.991215843894835,19.421487603305778,17.372881355932197,289484.0,2904.0,0.0,1.0,0.0,?,0.0,0.0
3000000.0,10.390625,2.3776232006235254E-7,3000000.0,60.4,18.91725874813161,18.518518518518512,12.967032967032955,299484.0,2904.0,0.0,1.0,0.0,?,0.0,0.0
3100000.0,10.75,2.52298454547094E-7,3100000.0,62.7,23.50475377964446,23.877551020408163,19.26406926406926,309384.0,2904.0,0.0,1.0,0.0,?,0.0,0.0
3200000.0,11.09375,2.6485087194790444E-7,3200000.0,60.699999999999996,20.000325698419548,24.56813819577735,16.913319238900627,319384.0,2904.0,0.0,1.0,0.0,?,0.0,0.0
3300000.0,11.5,2.780880701417724E-7,3300000.0,61.0,21.906287545054052,22.619047619047617,21.52917505030181,329384.0,2904.0,0.0,1.0,0.0,?,0.0,0.0
3400000.0,11.890625,2.892801098318563E-7,3400000.0,65.3,28.779606748491442,29.18367346938776,23.736263736263734,339384.0,2904.0,0.0,1.0,0.0,?,0.0,0.0
3500000.0,12.203125,2.9700491318686135E-7,3500000.0,63.6,25.551714969423024,26.907630522088354,21.382289416846646,349384.0,2904.0,0.0,1.0,0.0,?,0.0,0.0
3600000.0,12.546875,3.041504856405986E-7,3600000.0,62.6,23.421855484346523,27.519379844961243,17.802197802197796,359384.0,2904.0,0.0,1.0,0.0,?,0.0,0.0
3700000.0,12.890625,3.0994434685756757E-7,3700000.0,63.5,25.112229070406805,29.126213592233015,19.603524229074885,369384.0,2904.0,0.0,1.0,0.0,?,0.0,0.0
3800000.0,13.234375,3.1438649683776825E-7,3800000.0,60.3,18.63887135514439,15.889830508474567,12.555066079295141,379384.0,2904.0,0.0,1.0,0.0,?,0.0,0.0
3900000.0,13.578125,3.174769355812006E-7,3900000.0,63.1,24.15771905881579,25.454545454545457,17.81737193763919,389384.0,2904.0,0.0,1.0,0.0,?,0.0,0.0
4000000.0,13.921875,3.192156630878647E-7,4000000.0,61.9,21.260818887483566,24.404761904761905,13.800904977375556,399384.0,2904.0,0.0,1.0,0.0,?,0.0,0.0
4100000.0,14.28125,3.337659290991723E-7,4100000.0,59.8,19.032580322902906,22.24371373307543,17.622950819672127,409284.0,2904.0,0.0,1.0,0.0,?,0.0,0.0
4200000.0,14.59375,3.4518950592933426E-7,4200000.0,62.6,23.739458101561095,24.137931034482758,19.04761904761904,419284.0,2904.0,0.0,1.0,0.0,?,0.0,0.0
4300000.0,14.953125,3.5691346662739906E-7,4300000.0,63.9,26.1039375752266,28.230616302186885,21.86147186147186,429284.0,2904.0,0.0,1.0,0.0,?,0.0,0.0
4400000.0,15.4375,3.708106426832576E-7,4400000.0,63.5,24.907626093468398,25.204918032786882,20.131291028446384,439284.0,2904.0,0.0,1.0,0.0,?,0.0,0.0
4500000.0,15.78125,3.793214434861309E-7,4500000.0,64.0,24.818624932650017,28.571428571428577,16.083916083916098,449284.0,2904.0,0.0,1.0,0.0,?,0.0,0.0
4600000.0,16.1875,3.877821857006185E-7,4600000.0,59.4,17.88557374927188,21.317829457364336,14.705882352941165,459284.0,2904.0,0.0,1.0,0.0,?,0.0,0.0
4700000.0,16.5625,3.941175075144403E-7,4700000.0,64.9,28.706065874782666,28.07377049180328,25.477707006369428,469284.0,2904.0,0.0,1.0,0.0,?,0.0,0.0
4800000.0,16.96875,3.9938329589656654E-7,4800000.0,62.5,24.303593056116263,24.547283702213278,21.383647798742132,479284.0,2904.0,0.0,1.0,0.0,?,0.0,0.0
4900000.0,17.28125,4.022050739472939E-7,4900000.0,60.699999999999996,20.101164530609584,21.556886227544908,16.025641025641015,489284.0,2904.0,0.0,1.0,0.0,?,0.0,0.0
5000000.0,17.578125,4.038873400228719E-7,5000000.0,62.5,22.95048284364085,26.18110236220473,16.666666666666657,499284.0,2904.0,0.0,1.0,0.0,?,0.0,0.0
5100000.0,17.90625,4.174263449385762E-7,5100000.0,47.099999999999994,-5.707822778537122,-9.297520661157034,-6.868686868686876,509184.0,2904.0,0.0,1.0,0.0,?,0.0,1.0
5200000.0,18.28125,4.3135893065482376E-7,5200000.0,62.0,23.646943466589494,18.97654584221748,20.83333333333333,13674.0,2904.0,0.0,1.0,0.0,?,1.0,29.0
5300000.0,18.609375,4.422596733396252E-7,5300000.0,64.0,28.06646658487557,28.853754940711468,26.53061224489796,23674.0,2904.0,0.0,1.0,0.0,?,0.0,0.0
5400000.0,18.9375,4.518701462075114E-7,5400000.0,63.7,27.558212863106974,27.400000000000002,24.217118997912316,33674.0,2904.0,0.0,1.0,0.0,?,0.0,0.0
5500000.0,19.28125,4.605865494037668E-7,5500000.0,62.7,25.462611406418606,24.493927125506072,20.638297872340424,43674.0,2904.0,0.0,1.0,0.0,?,0.0,0.0
5600000.0,19.578125,4.6694696518696017E-7,5600000.0,64.8,29.634057116355688,31.384015594541914,28.01635991820041,53674.0,2904.0,0.0,1.0,0.0,?,0.0,0.0
5700000.0,19.890625,4.724133112985227E-7,5700000.0,65.2,30.288740830365274,30.120481927710845,27.348643006263053,63674.0,2904.0,0.0,1.0,0.0,?,0.0,0.0
5800000.0,20.21875,4.768627048987482E-7,5800000.0,63.6,27.150170716770276,30.401529636711285,27.200000000000003,73674.0,2904.0,0.0,1.0,0.0,?,0.0,0.0
5900000.0,20.6875,4.813757388749057E-7,5900000.0,65.9,32.04734765453749,31.38832997987928,27.906976744186053,83674.0,2904.0,0.0,1.0,0.0,?,0.0,0.0
6000000.0,21.0625,4.835115719793571E-7,6000000.0,66.0,32.158748528443446,31.174089068825918,25.274725274725274,93674.0,2904.0,0.0,1.0,0.0,?,0.0,0.0
6100000.0,21.390625,4.970057569961581E-7,6100000.0,64.7,29.44346282689863,24.086021505376344,26.15062761506276,103574.0,2904.0,0.0,1.0,0.0,?,0.0,0.0
6200000.0,21.734375,5.09790811015086E-7,6200000.0,67.80000000000001,35.60746953353412,35.60000000000001,31.634819532908708,113574.0,2904.0,0.0,1.0,0.0,?,0.0,0.0
6300000.0,22.0625,5.207044563980566E-7,6300000.0,68.30000000000001,36.56447610661972,39.272030651341005,32.83898305084747,123574.0,2904.0,0.0,1.0,0.0,?,0.0,0.0
6400000.0,22.40625,5.30786087943448E-7,6400000.0,65.0,29.87967351975991,30.000000000000004,31.102362204724415,133574.0,2904.0,0.0,1.0,0.0,?,0.0,0.0
6500000.0,22.78125,5.403096373710367E-7,6500000.0,67.2,34.52178947158286,37.28489483747611,30.06396588486141,143574.0,2904.0,0.0,1.0,0.0,?,0.0,0.0
6600000.0,23.109375,5.473524733032617E-7,6600000.0,64.8,29.583945139491814,30.01988071570577,26.666666666666668,153574.0,2904.0,0.0,1.0,0.0,?,0.0,0.0
6700000.0,23.453125,5.533789711383481E-7,6700000.0,64.9,29.94794992974838,27.47933884297521,29.233870967741936,163574.0,2904.0,0.0,1.0,0.0,?,0.0,0.0
6800000.0,23.78125,5.578412674367427E-7,6800000.0,66.2,32.286240884686286,33.85518590998044,31.578947368421055,173574.0,2904.0,0.0,1.0,0.0,?,0.0,0.0
6900000.0,24.109375,5.610132939182222E-7,6900000.0,68.5,36.84641047026369,38.953488372093034,32.6923076923077,183574.0,2904.0,0.0,1.0,0.0,?,0.0,0.0
7000000.0,24.453125,5.629846580430037E-7,7000000.0,67.0,33.902704781438274,33.33333333333334,33.86773547094189,193574.0,2904.0,0.0,1.0,0.0,?,0.0,0.0
7100000.0,24.78125,5.764917457579738E-7,7100000.0,64.8,29.74809102412116,26.20545073375262,27.122153209109733,203474.0,2904.0,0.0,1.0,0.0,?,0.0,0.0
7200000.0,25.125,5.892903168892694E-7,7200000.0,64.2,28.374787925349732,29.108910891089113,25.10460251046025,213474.0,2904.0,0.0,1.0,0.0,?,0.0,0.0
7300000.0,25.4375,5.996965531570215E-7,7300000.0,66.7,33.48992162596171,34.83365949119375,29.746835443037977,223474.0,2904.0,0.0,1.0,0.0,?,0.0,0.0
7400000.0,25.78125,6.097917018147805E-7,7400000.0,63.800000000000004,27.66018672464509,27.16297786720322,24.10901467505241,233474.0,2904.0,0.0,1.0,0.0,?,0.0,0.0
7500000.0,26.109375,6.181377102620898E-7,7500000.0,64.2,28.613588144272345,25.260960334029225,23.17596566523605,243474.0,2904.0,0.0,1.0,0.0,?,0.0,0.0
7600000.0,26.453125,6.255294364463123E-7,7600000.0,67.30000000000001,34.55916491890941,36.381322957198456,29.067245119305863,253474.0,2904.0,0.0,1.0,0.0,?,0.0,0.0
7700000.0,26.84375,6.323930897956919E-7,7700000.0,64.9,29.855554400914475,26.722338204592905,26.569037656903767,263474.0,2904.0,0.0,1.0,0.0,?,0.0,0.0
7800000.0,27.171875,6.368682887922557E-7,7800000.0,64.9,29.81852790863213,31.311154598825837,29.800000000000004,273474.0,2904.0,0.0,1.0,0.0,?,0.0,0.0
7900000.0,27.609375,6.411148610317871E-7,7900000.0,66.5,33.043387884650755,31.06995884773663,29.175475687103596,283474.0,2904.0,0.0,1.0,0.0,?,0.0,0.0
8000000.0,27.921875,6.429192985201046E-7,8000000.0,63.7,27.49744343602199,28.260869565217394,25.0,293474.0,2904.0,0.0,1.0,0.0,?,0.0,0.0
8100000.0,28.203125,6.545078617313669E-7,8100000.0,66.10000000000001,32.348832568349636,32.06412825651303,30.67484662576688,303374.0,2904.0,0.0,1.0,0.0,?,0.0,0.0
8200000.0,28.515625,6.661552146801517E-7,8200000.0,65.5,31.101969085753083,29.447852760736197,29.158110882956883,313374.0,2904.0,0.0,1.0,0.0,?,0.0,0.0
8300000.0,28.796875,6.755318867767022E-7,8300000.0,68.8,37.69769002204542,39.062499999999986,35.802469135802454,323374.0,2904.0,0.0,1.0,0.0,?,0.0,0.0
8400000.0,29.09375,6.842620981236298E-7,8400000.0,65.0,30.009238780480985,31.23772102161101,29.718875502008036,333374.0,2904.0,0.0,1.0,0.0,?,0.0,0.0
8500000.0,29.40625,6.922229658812283E-7,8500000.0,65.60000000000001,31.24840112560758,30.923694779116474,29.65235173824131,343374.0,2904.0,0.0,1.0,0.0,?,0.0,0.0
8600000.0,29.765625,6.999648111458452E-7,8600000.0,65.8,31.79778641938379,24.835164835164836,26.29310344827586,353374.0,2904.0,0.0,1.0,0.0,?,0.0,0.0
8700000.0,30.140625,7.065686643020144E-7,8700000.0,64.2,28.448082888299066,27.822580645161292,26.639344262295083,363374.0,2904.0,0.0,1.0,0.0,?,0.0,0.0
8800000.0,30.46875,7.110567659967473E-7,8800000.0,66.9,33.80794304683438,33.80000000000001,32.44897959183674,373374.0,2904.0,0.0,1.0,0.0,?,0.0,0.0
8900000.0,30.78125,7.141023201660976E-7,8900000.0,64.2,28.5312166861642,29.24901185770751,23.991507430997878,383374.0,2904.0,0.0,1.0,0.0,?,0.0,0.0
9000000.0,31.140625,7.161915548042289E-7,9000000.0,67.7,35.488252071166656,36.16600790513835,28.697571743929362,393374.0,2904.0,0.0,1.0,0.0,?,0.0,0.0
9100000.0,31.515625,7.316577183600099E-7,9100000.0,63.7,27.579602585587747,26.369168356997974,24.375,403274.0,2904.0,0.0,1.0,0.0,?,0.0,0.0
9200000.0,31.90625,7.462322699009542E-7,9200000.0,65.9,31.795634920634924,32.47524752475248,31.38832997987928,413274.0,2904.0,0.0,1.0,0.0,?,0.0,0.0
9300000.0,32.28125,7.587492453037863E-7,9300000.0,63.1,26.91564203321079,26.200000000000003,18.362831858407073,423274.0,2904.0,0.0,1.0,0.0,?,0.0,0.0
9400000.0,32.640625,7.693315274082123E-7,9400000.0,66.7,33.420772718911714,31.90184049079755,29.746835443037977,433274.0,2904.0,0.0,1.0,0.0,?,0.0,0.0
9500000.0,32.96875,7.777033412518599E-7,9500000.0,67.2,34.46291560102303,34.400000000000006,31.66666666666667,443274.0,2904.0,0.0,1.0,0.0,?,0.0,0.0
9600000.0,33.28125,7.84447668896367E-7,9600000.0,66.10000000000001,32.00362647325476,32.73809523809524,34.555984555984566,453274.0,2904.0,0.0,1.0,0.0,?,0.0,0.0
9700000.0,33.578125,7.896873931814397E-7,9700000.0,65.0,30.022392834293036,32.301740812379116,28.571428571428577,463274.0,2904.0,0.0,1.0,0.0,?,0.0,0.0
9800000.0,33.875,7.937597304893035E-7,9800000.0,66.60000000000001,33.1264390829913,30.2713987473904,27.861771058315338,473274.0,2904.0,0.0,1.0,0.0,?,0.0,0.0
9900000.0,34.203125,7.969704650652903E-7,9900000.0,65.8,31.590148981453343,31.73652694610779,31.872509960159366,483274.0,2904.0,0.0,1.0,0.0,?,0.0,0.0
1.0E7,34.5,7.987080284187361E-7,1.0E7,65.60000000000001,31.22723401532994,29.07216494845361,29.93890020366599,493274.0,2904.0,0.0,1.0,0.0,?,0.0,0.0
