learning evaluation instances,evaluation time (cpu seconds),model cost (RAM-Hours),classified instances,classifications correct (percent),Kappa Statistic (percent),Kappa Temporal Statistic (percent),Kappa M Statistic (percent),model training instances,model serialized size (bytes),labeling cost,newThreshold,maxPosterior,accuracyBaseLearner (percent),Change detected,Warning detected
100000.0,0.765625,1.5943660400807856E-8,100000.0,72.2,38.10861715059197,40.97664543524415,25.067385444743927,56952.0,2904.0,0.0,1.0,0.0,?,4.0,152.0
200000.0,1.53125,2.8876691228813594E-8,200000.0,70.3,34.21169215502116,39.014373716632434,22.047244094488182,116952.0,2904.0,0.0,1.0,0.0,?,0.0,0.0
300000.0,2.296875,3.879909248401721E-8,300000.0,72.2,37.724851368485176,38.222222222222214,25.469168900804284,176952.0,2904.0,0.0,1.0,0.0,?,0.0,0.0
400000.0,3.078125,4.5851920731365675E-8,400000.0,70.39999999999999,32.870076382967135,34.22222222222221,18.232044198895014,236952.0,2904.0,0.0,1.0,0.0,?,0.0,0.0
500000.0,3.828125,4.967344769587119E-8,500000.0,70.0,31.279349444508064,37.369519832985375,17.808219178082176,296952.0,2904.0,0.0,1.0,0.0,?,0.0,0.0
600000.0,4.59375,6.561710809667904E-8,600000.0,71.0,36.48958210145021,41.883767535070135,25.831202046035802,356652.0,2904.0,0.0,1.0,0.0,?,0.0,0.0
700000.0,5.359375,7.855013892468477E-8,700000.0,68.2,27.61112148128589,28.859060402684566,14.74530831099197,416652.0,2904.0,0.0,1.0,0.0,?,0.0,0.0
800000.0,6.140625,8.867503816468845E-8,800000.0,69.39999999999999,31.083254131626468,35.7142857142857,17.520215633423167,476652.0,2904.0,0.0,1.0,0.0,?,0.0,0.0
900000.0,6.890625,9.544575328214298E-8,900000.0,70.1,34.1728677733257,37.184873949579824,23.529411764705873,536652.0,2904.0,0.0,1.0,0.0,?,0.0,0.0
1000000.0,7.625,9.918766510155462E-8,1000000.0,69.89999999999999,34.384346415772164,36.63157894736841,22.020725388601026,596652.0,2904.0,0.0,1.0,0.0,?,0.0,0.0
1100000.0,8.375,1.148354365593857E-7,1100000.0,68.8,32.296368307756396,35.67010309278349,21.608040201005014,656352.0,2904.0,0.0,1.0,0.0,?,0.0,0.0
1200000.0,9.140625,1.2779857368311945E-7,1200000.0,69.69999999999999,32.615154696034296,33.40659340659339,21.09374999999999,716352.0,2904.0,0.0,1.0,0.0,?,0.0,0.0
1300000.0,9.890625,1.3754796883505249E-7,1300000.0,70.3,30.572438426869613,34.86842105263157,14.409221902017272,776352.0,2904.0,0.0,1.0,0.0,?,0.0,0.0
1400000.0,10.640625,1.443481758340365E-7,1400000.0,69.1,30.28607526396533,33.40517241379309,16.032608695652158,836352.0,2904.0,0.0,1.0,0.0,?,0.0,0.0
1500000.0,11.390625,1.481991946800715E-7,1500000.0,70.39999999999999,35.62754445179024,38.716356107660445,24.48979591836734,896352.0,2904.0,0.0,1.0,0.0,?,0.0,0.0
1600000.0,12.125,1.6352097089919776E-7,1600000.0,71.2,35.171637591446256,37.39130434782608,23.19999999999999,956052.0,2904.0,0.0,1.0,0.0,?,0.0,0.0
1700000.0,12.890625,1.764841080229315E-7,1700000.0,70.6,34.9330075557385,34.81152993348114,22.427440633245375,1016052.0,2904.0,0.0,1.0,0.0,?,0.0,0.0
1800000.0,13.625,1.8603039077586594E-7,1800000.0,72.5,36.83446495346422,39.02439024390243,22.969187675070017,1076052.0,2904.0,0.0,1.0,0.0,?,0.0,0.0
1900000.0,14.375,1.9283059777484997E-7,1900000.0,71.3,36.22505666414825,38.146551724137915,24.67191601049868,1136052.0,2904.0,0.0,1.0,0.0,?,0.0,0.0
2000000.0,15.125,1.9668161662088497E-7,2000000.0,68.0,30.404826425287425,33.47193347193348,19.799498746867183,1196052.0,2904.0,0.0,1.0,0.0,?,0.0,0.0
2100000.0,15.875,2.1235887996024553E-7,2100000.0,70.19999999999999,32.77417084384206,31.494252873563216,17.906336088154255,1255752.0,2904.0,0.0,1.0,0.0,?,0.0,0.0
2200000.0,16.640625,2.253521233797073E-7,2200000.0,73.4,38.941811086881664,43.763213530655385,25.490196078431364,1315752.0,2904.0,0.0,1.0,0.0,?,0.0,0.0
2300000.0,17.390625,2.3513101041316983E-7,2300000.0,70.0,33.20716909718357,35.62231759656651,22.48062015503875,1375752.0,2904.0,0.0,1.0,0.0,?,0.0,0.0
2400000.0,18.125,2.418184239003393E-7,2400000.0,69.1,31.20797898392626,32.67973856209149,18.469656992084417,1435752.0,2904.0,0.0,1.0,0.0,?,0.0,0.0
2500000.0,18.890625,2.457797786013947E-7,2500000.0,69.39999999999999,34.15389912205198,37.42331288343557,25.36585365853658,1495752.0,2904.0,0.0,1.0,0.0,?,0.0,0.0
2600000.0,19.65625,2.617836515936586E-7,2600000.0,70.8,33.984445650207995,34.821428571428555,18.888888888888875,1555452.0,2904.0,0.0,1.0,0.0,?,0.0,0.0
2700000.0,20.390625,2.7424655854701993E-7,2700000.0,70.7,33.86900194104635,37.393162393162385,20.8108108108108,1615452.0,2904.0,0.0,1.0,0.0,?,0.0,0.0
2800000.0,21.125,2.838217187672853E-7,2800000.0,70.7,34.309056830512866,35.46255506607928,20.596205962059607,1675452.0,2904.0,0.0,1.0,0.0,?,0.0,0.0
2900000.0,21.859375,2.905091322544548E-7,2900000.0,71.3,36.45043576844044,36.644591611479015,22.84946236559139,1735452.0,2904.0,0.0,1.0,0.0,?,0.0,0.0
3000000.0,22.609375,2.943896429820193E-7,3000000.0,71.89999999999999,37.18312126116621,41.58004158004157,24.866310160427798,1795452.0,2904.0,0.0,1.0,0.0,?,0.0,0.0
3100000.0,23.359375,3.1009639820290935E-7,3100000.0,70.0,31.564347762610396,36.84210526315788,15.730337078651669,1855152.0,2904.0,0.0,1.0,0.0,?,0.0,0.0
3200000.0,24.125,3.2311974791809915E-7,3200000.0,68.10000000000001,29.475955501317646,28.953229398663698,20.050125313283225,1915152.0,2904.0,0.0,1.0,0.0,?,0.0,0.0
3300000.0,24.859375,3.327237856056955E-7,3300000.0,70.39999999999999,34.21754435870995,38.33333333333332,22.513089005235592,1975152.0,2904.0,0.0,1.0,0.0,?,0.0,0.0
3400000.0,25.59375,3.3944007656019597E-7,3400000.0,70.89999999999999,32.99253937551809,36.739130434782595,15.65217391304346,2035152.0,2904.0,0.0,1.0,0.0,?,0.0,0.0
3500000.0,26.3125,3.4318716239391105E-7,3500000.0,69.0,30.26813028612559,30.337078651685374,15.760869565217375,2095152.0,2904.0,0.0,1.0,0.0,?,0.0,0.0
3600000.0,27.046875,3.585666935476992E-7,3600000.0,69.19999999999999,32.21383454013249,37.9032258064516,19.582245430809387,2154852.0,2904.0,0.0,1.0,0.0,?,0.0,0.0
3700000.0,27.796875,3.7132426061564024E-7,3700000.0,68.60000000000001,30.2048509851341,32.90598290598291,18.229166666666682,2214852.0,2904.0,0.0,1.0,0.0,?,0.0,0.0
3800000.0,28.5625,3.813369807580279E-7,3800000.0,69.0,31.318376986782106,35.95041322314048,18.205804749340356,2274852.0,2904.0,0.0,1.0,0.0,?,0.0,0.0
3900000.0,29.328125,3.8833907132761346E-7,3900000.0,68.5,31.20468244955012,33.962264150943405,19.64285714285716,2334852.0,2904.0,0.0,1.0,0.0,?,0.0,0.0
4000000.0,30.09375,3.923305323243969E-7,4000000.0,69.69999999999999,32.29050279329608,36.61087866108785,19.199999999999985,2394852.0,2904.0,0.0,1.0,0.0,?,0.0,0.0
4100000.0,30.828125,4.0773894094551603E-7,4100000.0,72.39999999999999,37.10261844534081,42.97520661157024,22.253521126760553,2454552.0,2904.0,0.0,1.0,0.0,?,0.0,0.0
4200000.0,31.546875,4.1999320577209194E-7,4200000.0,69.1,31.56328071014723,34.25531914893615,19.53124999999999,2514552.0,2904.0,0.0,1.0,0.0,?,0.0,0.0
4300000.0,32.28125,4.2962612092701924E-7,4300000.0,69.89999999999999,35.537756456932364,39.06882591093117,27.118644067796605,2574552.0,2904.0,0.0,1.0,0.0,?,0.0,0.0
4400000.0,33.046875,4.366583177923328E-7,4400000.0,68.89999999999999,32.79337528524998,38.17097415506957,22.82878411910669,2634552.0,2904.0,0.0,1.0,0.0,?,0.0,0.0
4500000.0,33.78125,4.405157394810683E-7,4500000.0,70.5,35.26386011727115,39.918533604887976,25.505050505050498,2694552.0,2904.0,0.0,1.0,0.0,?,0.0,0.0
4600000.0,34.53125,4.5625198658348783E-7,4600000.0,69.39999999999999,32.81812593308157,36.90721649484534,22.33502538071065,2754252.0,2904.0,0.0,1.0,0.0,?,0.0,0.0
4700000.0,35.265625,4.6877264847151106E-7,4700000.0,72.5,38.918208148977385,41.98312236286919,26.27345844504021,2814252.0,2904.0,0.0,1.0,0.0,?,0.0,0.0
4800000.0,36.03125,4.788154749096268E-7,4800000.0,71.1,36.60890546172405,39.41299790356393,26.835443037974677,2874252.0,2904.0,0.0,1.0,0.0,?,0.0,0.0
4900000.0,36.765625,4.855606433314582E-7,4900000.0,71.39999999999999,34.767535216407566,36.86534216335539,18.749999999999986,2934252.0,2904.0,0.0,1.0,0.0,?,0.0,0.0
5000000.0,37.515625,4.899487248621882E-7,5000000.0,68.8,31.284495403549418,35.40372670807452,19.7943444730077,2994252.0,2904.0,0.0,1.0,0.0,?,0.0,0.0
5100000.0,38.265625,5.061708119076987E-7,5100000.0,48.6,-1.4410950901720612,-2.8000000000000025,-6.418219461697729,3053952.0,2904.0,0.0,1.0,0.0,?,0.0,2.0
5200000.0,39.03125,5.197202295271887E-7,5200000.0,47.9,-2.0872032417095774,-1.9569471624266161,-9.915611814346,3113952.0,2904.0,0.0,1.0,0.0,?,0.0,0.0
5300000.0,39.796875,5.301211624302798E-7,5300000.0,65.60000000000001,31.01235360179689,32.416502946954814,26.963906581740975,142009.0,2904.0,0.0,1.0,0.0,?,1.0,54.0
5400000.0,40.53125,5.373420491297213E-7,5400000.0,64.4,28.560821630819994,30.196078431372552,24.735729386892178,202009.0,2904.0,0.0,1.0,0.0,?,0.0,36.0
5500000.0,41.28125,5.416540726501909E-7,5500000.0,62.4,24.8003007987968,28.107074569789674,24.9500998003992,262009.0,2904.0,0.0,1.0,0.0,?,0.0,45.0
5600000.0,42.03125,5.577628487824566E-7,5600000.0,64.5,28.837750070159963,32.12237093690249,26.195426195426197,321709.0,2904.0,0.0,1.0,0.0,?,0.0,0.0
5700000.0,42.796875,5.711965948446758E-7,5700000.0,62.4,24.75665983606558,24.04040404040404,23.57723577235772,381709.0,2904.0,0.0,1.0,0.0,?,0.0,0.0
5800000.0,43.546875,5.814069946710436E-7,5800000.0,67.4,34.565482689960824,32.78350515463918,30.932203389830516,441709.0,2904.0,0.0,1.0,0.0,?,0.0,0.0
5900000.0,44.296875,5.887815172577071E-7,5900000.0,65.8,31.396659699348877,33.59223300970874,22.79909706546275,501709.0,2904.0,0.0,1.0,0.0,?,0.0,36.0
6000000.0,45.0625,5.932990461587907E-7,6000000.0,63.2,26.397350304610974,25.506072874493928,25.050916496945007,561709.0,2904.0,0.0,1.0,0.0,?,0.0,71.0
6100000.0,45.84375,6.10109742006494E-7,6100000.0,58.599999999999994,17.133706965572458,15.337423312883427,7.999999999999983,112.0,2904.0,0.0,1.0,0.0,?,6.0,30.0
6200000.0,46.59375,6.23412132780585E-7,6200000.0,66.8,33.6066393360664,34.516765285996065,29.361702127659576,60003.0,2904.0,0.0,1.0,0.0,?,1.0,84.0
6300000.0,47.34375,6.33759126584563E-7,6300000.0,62.7,25.369550776716903,27.992277992277998,23.408624229979463,120003.0,2904.0,0.0,1.0,0.0,?,0.0,154.0
6400000.0,48.125,6.414716416555974E-7,6400000.0,68.2,36.17431236853515,35.10204081632654,32.9113924050633,180003.0,2904.0,0.0,1.0,0.0,?,0.0,42.0
6500000.0,48.875,6.459264679708414E-7,6500000.0,66.10000000000001,32.15658021133526,30.67484662576688,27.564102564102566,240003.0,2904.0,0.0,1.0,0.0,?,0.0,14.0
6600000.0,49.640625,6.625166214588615E-7,6600000.0,66.8,33.44666110719097,35.65891472868218,30.252100840336137,299703.0,2904.0,0.0,1.0,0.0,?,0.0,0.0
6700000.0,50.40625,6.760961453740795E-7,6700000.0,66.10000000000001,32.107122543639704,32.06412825651303,29.521829521829524,359703.0,2904.0,0.0,1.0,0.0,?,0.0,0.0
6800000.0,51.1875,6.868807314377691E-7,6800000.0,63.2,26.305966413143167,27.98434442270059,21.86836518046709,419703.0,2904.0,0.0,1.0,0.0,?,0.0,2.0
6900000.0,51.921875,6.941304956045414E-7,6900000.0,62.7,25.4,20.128479657387576,25.844930417495032,479703.0,2904.0,0.0,1.0,0.0,?,0.0,48.0
7000000.0,52.6875,6.98678130801353E-7,7000000.0,63.7,27.056289234874733,23.25581395348837,22.601279317697227,539703.0,2904.0,0.0,1.0,0.0,?,0.0,0.0
7100000.0,53.4375,7.149592016099226E-7,7100000.0,64.1,28.200000000000003,28.343313373253498,24.421052631578945,599403.0,2904.0,0.0,1.0,0.0,?,0.0,0.0
7200000.0,54.171875,7.280133367102178E-7,7200000.0,66.3,32.60000000000001,30.227743271221534,31.083844580777104,659403.0,2904.0,0.0,1.0,0.0,?,0.0,0.0
7300000.0,54.890625,7.379634189419447E-7,7300000.0,65.3,30.3542899348903,27.253668763102727,23.059866962305986,719403.0,2904.0,0.0,1.0,0.0,?,0.0,0.0
7400000.0,55.65625,7.455517900072865E-7,7400000.0,65.60000000000001,30.99048711889296,31.74603174603175,26.33832976445396,779403.0,2904.0,0.0,1.0,0.0,?,0.0,0.0
7500000.0,56.40625,7.500361082040601E-7,7500000.0,64.1,28.22239461288079,30.961538461538467,26.283367556468175,839403.0,2904.0,0.0,1.0,0.0,?,0.0,0.0
7600000.0,57.171875,7.666563679878082E-7,7600000.0,64.60000000000001,29.164582291145578,27.31006160164271,25.473684210526315,899103.0,2904.0,0.0,1.0,0.0,?,0.0,0.0
7700000.0,57.921875,7.799882506434289E-7,7700000.0,66.2,32.39242795193063,28.991596638655466,30.452674897119348,959103.0,2904.0,0.0,1.0,0.0,?,0.0,0.0
7800000.0,58.671875,7.903709451461004E-7,7800000.0,66.5,32.97587131367293,38.191881918819185,31.6326530612245,1019103.0,2904.0,0.0,1.0,0.0,?,0.0,0.0
7900000.0,59.4375,7.979593162114422E-7,7900000.0,66.9,33.64286630741596,35.477582846003905,28.509719222462206,1079103.0,2904.0,0.0,1.0,0.0,?,0.0,0.0
8000000.0,60.171875,8.023502111124496E-7,8000000.0,63.7,27.380247427300226,27.400000000000002,27.976190476190478,1139103.0,2904.0,0.0,1.0,0.0,?,0.0,0.0
8100000.0,60.9375,8.190005771919258E-7,8100000.0,69.69999999999999,39.40096958448664,39.520958083832326,38.16326530612244,1198803.0,2904.0,0.0,1.0,0.0,?,0.0,0.0
8200000.0,61.671875,8.320835897595519E-7,8200000.0,66.10000000000001,32.165811569030794,31.23732251521299,25.982532751091703,1258803.0,2904.0,0.0,1.0,0.0,?,0.0,0.0
8300000.0,62.4375,8.427126966934238E-7,8300000.0,66.4,32.759117543466424,31.56822810590632,27.272727272727277,1318803.0,2904.0,0.0,1.0,0.0,?,0.0,0.0
8400000.0,63.171875,8.500202157948581E-7,8400000.0,63.2,26.294748901431248,21.86836518046709,21.03004291845493,1378803.0,2904.0,0.0,1.0,0.0,?,0.0,0.0
8500000.0,63.9375,8.546280635831257E-7,8500000.0,64.2,27.95737008178246,25.87991718426501,20.796460176991147,1438803.0,2904.0,0.0,1.0,0.0,?,0.0,0.0
8600000.0,64.6875,8.709386262732248E-7,8600000.0,66.60000000000001,33.103669283768625,30.705394190871377,30.41666666666667,1498503.0,2904.0,0.0,1.0,0.0,?,0.0,0.0
8700000.0,65.453125,8.845783627798988E-7,8700000.0,64.60000000000001,29.187253705667022,28.915662650602414,28.194726166328604,1558503.0,2904.0,0.0,1.0,0.0,?,0.0,0.0
8800000.0,66.1875,8.947736286144291E-7,8800000.0,67.5,34.99531966301574,34.21052631578948,34.60764587525152,1618503.0,2904.0,0.0,1.0,0.0,?,0.0,0.0
8900000.0,66.9375,9.022366268456811E-7,8900000.0,64.1,27.787522327534887,26.584867075664626,20.044543429844094,1678503.0,2904.0,0.0,1.0,0.0,?,0.0,0.0
9000000.0,67.671875,9.066563992140195E-7,9000000.0,66.3,32.557916139671164,32.868525896414354,30.800821355236145,1738503.0,2904.0,0.0,1.0,0.0,?,0.0,0.0
9100000.0,68.4375,9.233368715892236E-7,9100000.0,63.2,26.0530408677515,27.12871287128713,18.04008908685968,1798203.0,2904.0,0.0,1.0,0.0,?,0.0,0.0
9200000.0,69.15625,9.361697852404582E-7,9200000.0,65.3,30.164786952286637,32.09393346379648,24.891774891774894,1858203.0,2904.0,0.0,1.0,0.0,?,0.0,0.0
9300000.0,69.90625,9.466114635061887E-7,9300000.0,65.5,30.990614723602423,26.906779661016948,28.571428571428577,1918203.0,2904.0,0.0,1.0,0.0,?,0.0,0.0
9400000.0,70.640625,9.53947860074954E-7,9400000.0,65.0,30.016795968967454,32.821497120921315,25.53191489361702,1978203.0,2904.0,0.0,1.0,0.0,?,0.0,0.0
9500000.0,71.390625,9.584911620347865E-7,9500000.0,66.2,32.36076924616278,25.386313465783665,28.23779193205945,2038203.0,2904.0,0.0,1.0,0.0,?,0.0,0.0
9600000.0,72.125,9.744907988028394E-7,9600000.0,65.9,31.819635944847896,35.04761904761906,30.69105691056911,2097903.0,2904.0,0.0,1.0,0.0,?,0.0,0.0
9700000.0,72.875,9.87881665221519E-7,9700000.0,67.60000000000001,35.231089077242935,35.07014028056113,32.78008298755187,2157903.0,2904.0,0.0,1.0,0.0,?,0.0,0.0
9800000.0,73.625,9.983233434872495E-7,9800000.0,66.8,33.57874519846351,33.46693386773548,27.82608695652174,2217903.0,2904.0,0.0,1.0,0.0,?,0.0,0.0
9900000.0,74.390625,1.0059719271440474E-6,9900000.0,64.5,28.953962167484537,30.664062500000007,26.348547717842326,2277903.0,2904.0,0.0,1.0,0.0,?,0.0,0.0
1.0E7,75.15625,1.0106098812280431E-6,1.0E7,65.5,30.83400160384925,31.68316831683169,27.368421052631582,2337903.0,2904.0,0.0,1.0,0.0,?,0.0,0.0
