learning evaluation instances,evaluation time (cpu seconds),model cost (RAM-Hours),classified instances,classifications correct (percent),Kappa Statistic (percent),Kappa Temporal Statistic (percent),Kappa M Statistic (percent),model training instances,model serialized size (bytes),labeling cost,newThreshold,maxPosterior,accuracyBaseLearner (percent),Change detected,Warning detected
100000.0,0.140625,6.115296855568886E-9,100000.0,63.0,27.631192911768732,20.940170940170937,17.960088691796003,19800.0,9208.0,0.0,1.0,0.0,?,0.0,7.0
200000.0,0.3125,1.2913692949546708E-8,200000.0,62.9,27.46369274324102,24.43991853360489,15.489749430523908,39800.0,9208.0,0.0,1.0,0.0,?,0.0,0.0
300000.0,0.453125,1.7923044247759713E-8,300000.0,63.3,27.846807172066683,23.060796645702304,19.340659340659336,59800.0,9208.0,0.0,1.0,0.0,?,0.0,0.0
400000.0,0.59375,2.2379422767294778E-8,400000.0,62.9,28.28478864309408,22.54697286012526,13.519813519813532,79800.0,9208.0,0.0,1.0,0.0,?,0.0,0.0
500000.0,0.75,2.6716540257136028E-8,500000.0,62.9,26.691432184634838,20.8955223880597,20.726495726495724,99800.0,9208.0,0.0,1.0,0.0,?,0.0,0.0
600000.0,0.890625,3.006697321931521E-8,600000.0,64.2,29.63836477987422,27.67676767676768,20.44444444444444,119800.0,9208.0,0.0,1.0,0.0,?,0.0,0.0
700000.0,1.015625,3.255360449353854E-8,700000.0,62.4,26.768463695855406,22.633744855967073,14.545454545454534,139800.0,9208.0,0.0,1.0,0.0,?,0.0,0.0
800000.0,1.15625,3.479809189836184E-8,800000.0,63.0,27.970721071484196,21.610169491525422,15.909090909090901,159800.0,9208.0,0.0,1.0,0.0,?,0.0,0.0
900000.0,1.3125,3.667755259407891E-8,900000.0,62.6,27.061393244402836,24.291497975708502,15.384615384615374,179800.0,9208.0,0.0,1.0,0.0,?,0.0,0.0
1000000.0,1.453125,3.781609444154633E-8,1000000.0,64.0,29.419791474695035,27.710843373493976,20.529801324503307,199800.0,9208.0,0.0,1.0,0.0,?,0.0,0.0
1100000.0,1.609375,4.4617012867497064E-8,1100000.0,62.7,26.693133131559293,25.100401606425706,17.29490022172948,219600.0,9208.0,0.0,1.0,0.0,?,0.0,0.0
1200000.0,1.765625,5.0803517094916756E-8,1200000.0,61.6,24.008549038233195,20.661157024793383,16.883116883116873,239600.0,9208.0,0.0,1.0,0.0,?,0.0,0.0
1300000.0,1.90625,5.581839812091654E-8,1300000.0,61.4,24.13760573566868,24.90272373540856,16.45021645021644,259600.0,9208.0,0.0,1.0,0.0,?,0.0,0.0
1400000.0,2.046875,6.028030636823838E-8,1400000.0,64.5,30.419443355546843,28.571428571428577,19.318181818181813,279600.0,9208.0,0.0,1.0,0.0,?,0.0,0.0
1500000.0,2.1875,6.418924183688228E-8,1500000.0,64.1,29.819211160113856,26.883910386965375,19.144144144144136,299600.0,9208.0,0.0,1.0,0.0,?,0.0,0.0
1600000.0,2.328125,6.754520452684825E-8,1600000.0,61.9,26.21712692203417,14.189189189189177,6.845965770171154,319600.0,9208.0,0.0,1.0,0.0,?,0.0,0.0
1700000.0,2.484375,7.065963776161271E-8,1700000.0,65.8,32.892753987190765,25.813449023861175,22.972972972972972,339600.0,9208.0,0.0,1.0,0.0,?,0.0,0.0
1800000.0,2.625,7.290965489422279E-8,1800000.0,61.8,25.92276575692583,21.721311475409834,11.778290993071602,359600.0,9208.0,0.0,1.0,0.0,?,0.0,0.0
1900000.0,2.78125,7.479525973192517E-8,1900000.0,63.2,28.08707716960116,23.01255230125523,14.617169373549896,379600.0,9208.0,0.0,1.0,0.0,?,0.0,0.0
2000000.0,2.9375,7.606645037109651E-8,2000000.0,62.9,27.428504362114147,25.94810379241517,16.62921348314606,399600.0,9208.0,0.0,1.0,0.0,?,0.0,0.0
2100000.0,3.078125,8.219280668223895E-8,2100000.0,63.9,29.092223322176668,30.84291187739464,16.435185185185198,419400.0,9208.0,0.0,1.0,0.0,?,0.0,0.0
2200000.0,3.21875,8.776619021470346E-8,2200000.0,63.3,28.272681077277873,26.305220883534137,17.52808988764044,439400.0,9208.0,0.0,1.0,0.0,?,0.0,0.0
2300000.0,3.359375,9.278660096849002E-8,2300000.0,62.8,26.521421375945632,24.848484848484848,20.34261241970021,459400.0,9208.0,0.0,1.0,0.0,?,0.0,0.0
2400000.0,3.5,9.725403894359864E-8,2400000.0,61.9,25.768616295834473,23.030303030303028,12.413793103448285,479400.0,9208.0,0.0,1.0,0.0,?,0.0,0.0
2500000.0,3.65625,1.0160344471741051E-7,2500000.0,61.3,23.873445011841902,19.20668058455114,13.808463251670366,499400.0,9208.0,0.0,1.0,0.0,?,0.0,0.0
2600000.0,3.796875,1.0496493713516325E-7,2600000.0,62.9,27.601845274800755,23.662551440329217,15.489749430523908,519400.0,9208.0,0.0,1.0,0.0,?,0.0,0.0
2700000.0,3.9375,1.0777345677423806E-7,2700000.0,64.0,29.70864232242645,25.311203319502074,18.3673469387755,539400.0,9208.0,0.0,1.0,0.0,?,0.0,0.0
2800000.0,4.09375,1.102796199524568E-7,2800000.0,64.2,30.21768962075849,25.72614107883818,15.962441314554003,559400.0,9208.0,0.0,1.0,0.0,?,0.0,0.0
2900000.0,4.234375,1.1198219403417572E-7,2900000.0,65.10000000000001,31.09085739558981,32.49516441005804,25.427350427350426,579400.0,9208.0,0.0,1.0,0.0,?,0.0,0.0
3000000.0,4.375,1.131317953372167E-7,3000000.0,64.2,29.666011787819258,22.844827586206897,20.44444444444444,599400.0,9208.0,0.0,1.0,0.0,?,0.0,0.0
3100000.0,4.53125,1.1994500204713806E-7,3100000.0,62.6,26.563279283383263,26.953125,18.87201735357917,619200.0,9208.0,0.0,1.0,0.0,?,0.0,0.0
3200000.0,4.671875,1.2552391530738933E-7,3200000.0,64.5,30.551751660889092,28.714859437751006,19.86455981941309,639200.0,9208.0,0.0,1.0,0.0,?,0.0,0.0
3300000.0,4.828125,1.311082936202486E-7,3300000.0,64.3,30.850404437970695,28.45691382765531,16.588785046728987,659200.0,9208.0,0.0,1.0,0.0,?,0.0,0.0
3400000.0,4.96875,1.35581261323144E-7,3400000.0,63.0,27.714327020384566,24.024640657084188,12.529550827423177,679200.0,9208.0,0.0,1.0,0.0,?,0.0,0.0
3500000.0,5.125,1.3993681123894116E-7,3500000.0,63.9,29.356419368473784,29.35420743639922,19.599109131403115,699200.0,9208.0,0.0,1.0,0.0,?,0.0,0.0
3600000.0,5.25,1.4292971981275406E-7,3600000.0,65.10000000000001,31.224480143778283,31.027667984189726,22.616407982261638,719200.0,9208.0,0.0,1.0,0.0,?,0.0,0.0
3700000.0,5.390625,1.4574376917961563E-7,3700000.0,66.7,34.42455081801928,33.13253012048193,27.292576419213976,739200.0,9208.0,0.0,1.0,0.0,?,0.0,0.0
3800000.0,5.546875,1.4825607649981968E-7,3800000.0,63.2,27.54308036417478,22.19873150105708,16.74208144796379,759200.0,9208.0,0.0,1.0,0.0,?,0.0,0.0
3900000.0,5.6875,1.4996418030932536E-7,3900000.0,62.9,27.578102429159273,26.824457593688365,15.296803652968027,779200.0,9208.0,0.0,1.0,0.0,?,0.0,0.0
4000000.0,5.84375,1.5124765923246733E-7,4000000.0,63.5,28.10091873236995,26.411290322580644,19.956140350877188,799200.0,9208.0,0.0,1.0,0.0,?,0.0,0.0
4100000.0,5.984375,1.5738507499918334E-7,4100000.0,59.5,20.530892879567993,20.275590551181097,11.378555798687076,819000.0,9208.0,0.0,1.0,0.0,?,0.0,0.0
4200000.0,6.140625,1.6359001165255896E-7,4200000.0,63.9,28.964974419519873,28.08764940239044,21.350762527233112,839000.0,9208.0,0.0,1.0,0.0,?,0.0,0.0
4300000.0,6.28125,1.6862148186191908E-7,4300000.0,60.9,22.292973376896956,20.68965517241379,19.712525667351123,859000.0,9208.0,0.0,1.0,0.0,?,0.0,0.0
4400000.0,6.421875,1.7309997929260127E-7,4400000.0,61.7,25.27470812261971,25.1953125,15.07760532150775,879000.0,9208.0,0.0,1.0,0.0,?,0.0,0.0
4500000.0,6.578125,1.7746167335038376E-7,4500000.0,62.0,25.637172020790285,19.83122362869198,12.844036697247715,899000.0,9208.0,0.0,1.0,0.0,?,0.0,0.0
4600000.0,6.71875,1.8083422522371007E-7,4600000.0,63.3,27.690998218873634,25.557809330628807,20.04357298474945,919000.0,9208.0,0.0,1.0,0.0,?,0.0,0.0
4700000.0,6.875,1.8396709088443046E-7,4700000.0,64.5,30.83697007481298,24.307036247334754,15.476190476190489,939000.0,9208.0,0.0,1.0,0.0,?,0.0,0.0
4800000.0,7.015625,1.8623369720040089E-7,4800000.0,64.9,31.242262305872025,29.940119760479046,20.76749435665914,959000.0,9208.0,0.0,1.0,0.0,?,0.0,0.0
4900000.0,7.171875,1.881377344640592E-7,4900000.0,64.4,30.256249510226475,27.789046653144016,19.45701357466063,979000.0,9208.0,0.0,1.0,0.0,?,0.0,0.0
5000000.0,7.3125,1.8938250529269372E-7,5000000.0,64.3,30.367006834566045,26.69404517453799,18.67881548974942,999000.0,9208.0,0.0,1.0,0.0,?,0.0,0.0
5100000.0,7.453125,1.9561334435517584E-7,5100000.0,62.2,10.059532024041214,19.57446808510638,-1.8867924528301903,12505.0,9208.0,0.0,1.0,0.0,?,2.0,48.0
5200000.0,7.609375,2.019220846705138E-7,5200000.0,63.4,14.653085780644428,25.0,3.9370078740157513,32505.0,9208.0,0.0,1.0,0.0,?,0.0,0.0
5300000.0,7.75,2.0704697817564005E-7,5300000.0,64.9,16.97888283378748,21.999999999999996,5.8981233243967885,52505.0,9208.0,0.0,1.0,0.0,?,0.0,0.0
5400000.0,7.890625,2.1161889890208835E-7,5400000.0,62.4,8.626530384108799,16.629711751662963,-3.5812672176308578,72505.0,9208.0,0.0,1.0,0.0,?,0.0,0.0
5500000.0,8.046875,2.160843966218332E-7,5500000.0,63.9,14.442000682567993,24.63465553235908,0.8241758241758249,92505.0,9208.0,0.0,1.0,0.0,?,0.0,0.0
5600000.0,8.1875,2.1955037179092562E-7,5600000.0,62.8,14.873752282619144,25.301204819277107,4.8593350383631755,112505.0,9208.0,0.0,1.0,0.0,?,0.0,0.0
5700000.0,8.3125,2.221397072490718E-7,5700000.0,61.6,8.978856546885352,14.093959731543611,-2.6737967914438525,132505.0,9208.0,0.0,1.0,0.0,?,0.0,0.0
5800000.0,8.4375,2.2423751134839317E-7,5800000.0,64.5,15.75859974181791,25.57651991614256,4.5698924731182835,152505.0,9208.0,0.0,1.0,0.0,?,0.0,0.0
5900000.0,8.59375,2.2624535227401384E-7,5900000.0,61.199999999999996,10.779985283296547,18.315789473684205,0.5128205128205132,172505.0,9208.0,0.0,1.0,0.0,?,0.0,0.0
6000000.0,8.734375,2.274994363283945E-7,6000000.0,63.6,15.840485350695477,23.20675105485232,5.699481865284979,192505.0,9208.0,0.0,1.0,0.0,?,0.0,0.0
6100000.0,8.875,2.337358051186634E-7,6100000.0,59.9,8.062948221786096,17.319587628865975,-0.5012531328320806,212305.0,9208.0,0.0,1.0,0.0,?,0.0,0.0
6200000.0,9.0,2.38787712684522E-7,6200000.0,61.1,10.508880095702573,14.505494505494495,-1.0389610389610398,232305.0,9208.0,0.0,1.0,0.0,?,0.0,0.0
6300000.0,9.15625,2.4448818294331424E-7,6300000.0,67.30000000000001,17.84992915498478,28.13186813186814,5.491329479768792,252305.0,9208.0,0.0,1.0,0.0,?,0.0,0.0
6400000.0,9.296875,2.4906563339754934E-7,6400000.0,63.800000000000004,14.255801945114232,22.1505376344086,1.8970189701897036,272305.0,9208.0,0.0,1.0,0.0,?,0.0,0.0
6500000.0,9.4375,2.530901110731065E-7,6500000.0,63.3,16.52488786585755,24.016563146997928,6.615776081424942,292305.0,9208.0,0.0,1.0,0.0,?,0.0,0.0
6600000.0,9.59375,2.569473387363056E-7,6600000.0,63.800000000000004,14.744894114100534,21.47505422993492,3.7234042553191524,312305.0,9208.0,0.0,1.0,0.0,?,0.0,0.0
6700000.0,9.734375,2.5986587085450686E-7,6700000.0,65.8,20.23360823972834,24.16851441241685,9.52380952380953,332305.0,9208.0,0.0,1.0,0.0,?,0.0,0.0
6800000.0,9.875,2.622314301940302E-7,6800000.0,64.1,11.866370760256899,20.57522123893805,-0.5602240896358549,352305.0,9208.0,0.0,1.0,0.0,?,0.0,0.0
6900000.0,10.0,2.63842618248115E-7,6900000.0,63.5,15.004796989539779,21.50537634408602,4.450261780104716,372305.0,9208.0,0.0,1.0,0.0,?,0.0,0.0
7000000.0,10.140625,2.6510223203028244E-7,7000000.0,61.1,11.143394916214376,19.294605809128626,2.506265664160403,392305.0,9208.0,0.0,1.0,0.0,?,0.0,0.0
7100000.0,10.28125,2.713441305483381E-7,7100000.0,61.9,9.574215597854472,12.413793103448285,-5.248618784530391,412105.0,9208.0,0.0,1.0,0.0,?,0.0,0.0
7200000.0,10.4375,2.776651591476467E-7,7200000.0,67.30000000000001,21.212413261372422,30.866807610993664,8.146067415730345,432105.0,9208.0,0.0,1.0,0.0,?,0.0,0.0
7300000.0,10.578125,2.828011121083465E-7,7300000.0,63.2,14.18110585107624,21.03004291845493,4.9095607235142165,452105.0,9208.0,0.0,1.0,0.0,?,0.0,0.0
7400000.0,10.71875,2.8738409229036834E-7,7400000.0,62.7,12.430625334547878,18.913043478260864,1.5831134564643814,472105.0,9208.0,0.0,1.0,0.0,?,0.0,0.0
7500000.0,10.875,2.918618782940838E-7,7500000.0,59.3,9.587702150346539,16.768916155419216,0.9732360097323608,492105.0,9208.0,0.0,1.0,0.0,?,0.0,0.0
7600000.0,11.015625,2.9533891291874976E-7,7600000.0,66.9,20.864134956535068,25.950782997762868,8.310249307479232,512105.0,9208.0,0.0,1.0,0.0,?,0.0,0.0
7700000.0,11.140625,2.979380790040725E-7,7700000.0,64.3,14.186817941445137,23.717948717948715,3.5135135135135167,532105.0,9208.0,0.0,1.0,0.0,?,0.0,0.0
7800000.0,11.296875,3.005726224121948E-7,7800000.0,64.0,15.35983824324642,20.704845814977972,2.4390243902439046,552105.0,9208.0,0.0,1.0,0.0,?,0.0,0.0
7900000.0,11.4375,3.0239073870082693E-7,7900000.0,65.8,19.08925732455144,24.669603524229075,8.064516129032265,572105.0,9208.0,0.0,1.0,0.0,?,0.0,0.0
8000000.0,11.578125,3.0365588221078113E-7,8000000.0,63.2,13.801180549048997,23.333333333333332,1.6042780748663117,592105.0,9208.0,0.0,1.0,0.0,?,0.0,0.0
8100000.0,11.71875,3.099033104566236E-7,8100000.0,64.0,12.959381044487426,24.050632911392405,-1.1235955056179785,611905.0,9208.0,0.0,1.0,0.0,?,0.0,0.0
8200000.0,11.859375,3.155977659237881E-7,8200000.0,60.6,10.291438979963573,12.249443207126937,1.5000000000000013,631905.0,9208.0,0.0,1.0,0.0,?,0.0,0.0
8300000.0,12.0,3.2073924861227467E-7,8300000.0,63.7,15.450047981515484,24.532224532224532,5.221932114882511,651905.0,9208.0,0.0,1.0,0.0,?,0.0,0.0
8400000.0,12.15625,3.2583759295650646E-7,8400000.0,64.60000000000001,14.004615571480622,23.043478260869563,-2.6086956521739157,671905.0,9208.0,0.0,1.0,0.0,?,0.0,0.0
8500000.0,12.28125,3.294247370730671E-7,8500000.0,62.9,11.333957899164465,16.44144144144143,-0.8152173913043484,691905.0,9208.0,0.0,1.0,0.0,?,0.0,0.0
8600000.0,12.421875,3.3290730142551985E-7,8600000.0,61.4,10.508939832331782,22.334004024144864,-0.5208333333333338,711905.0,9208.0,0.0,1.0,0.0,?,0.0,0.0
8700000.0,12.5625,3.3583689299929466E-7,8700000.0,63.3,15.120958416207964,21.41327623126338,4.6753246753246795,731905.0,9208.0,0.0,1.0,0.0,?,0.0,0.0
8800000.0,12.71875,3.384775805494023E-7,8800000.0,62.5,13.68992819002025,22.680412371134018,1.3157894736842117,751905.0,9208.0,0.0,1.0,0.0,?,0.0,0.0
8900000.0,12.859375,3.4030122656582124E-7,8900000.0,63.9,16.760436073859545,24.159663865546218,7.90816326530613,771905.0,9208.0,0.0,1.0,0.0,?,0.0,0.0
9000000.0,13.0,3.415718998035622E-7,9000000.0,62.7,12.410061806090438,21.802935010482177,0.7978723404255326,791905.0,9208.0,0.0,1.0,0.0,?,0.0,0.0
9100000.0,13.140625,3.4782485777719147E-7,9100000.0,64.3,13.071004188175698,26.239669421487605,-0.5633802816901414,811705.0,9208.0,0.0,1.0,0.0,?,0.0,0.0
9200000.0,13.28125,3.535248429721428E-7,9200000.0,62.3,11.884594528898115,19.787234042553187,1.822916666666668,831705.0,9208.0,0.0,1.0,0.0,?,0.0,0.0
9300000.0,13.4375,3.5924374565689095E-7,9300000.0,61.8,14.260960905691542,22.672064777327932,7.50605326876514,851705.0,9208.0,0.0,1.0,0.0,?,0.0,0.0
9400000.0,13.578125,3.638377852944864E-7,9400000.0,60.9,11.108079843586598,22.111553784860554,2.9776674937965284,871705.0,9208.0,0.0,1.0,0.0,?,0.0,0.0
9500000.0,13.734375,3.6832785958217245E-7,9500000.0,62.2,13.859504395899902,23.014256619144604,4.785894206549123,891705.0,9208.0,0.0,1.0,0.0,?,0.0,0.0
9600000.0,13.875,3.71815953662412E-7,9600000.0,63.2,15.599040397785396,24.123711340206185,6.36132315521629,911705.0,9208.0,0.0,1.0,0.0,?,0.0,0.0
9700000.0,14.015625,3.747510749639736E-7,9700000.0,64.2,16.179273335175203,24.47257383966245,4.021447721179628,931705.0,9208.0,0.0,1.0,0.0,?,0.0,0.0
9800000.0,14.15625,3.7713322348685726E-7,9800000.0,64.3,18.852570805109792,25.0,9.62025316455697,951705.0,9208.0,0.0,1.0,0.0,?,0.0,0.0
9900000.0,14.296875,3.78962399231063E-7,9900000.0,65.0,15.005633912266378,22.907488986784138,0.5681818181818187,971705.0,9208.0,0.0,1.0,0.0,?,0.0,0.0
1.0E7,14.4375,3.8023860219659077E-7,1.0E7,63.3,15.493865821758837,24.173553719008265,5.655526992287922,991705.0,9208.0,0.0,1.0,0.0,?,0.0,0.0
