learning evaluation instances,evaluation time (cpu seconds),model cost (RAM-Hours),classified instances,classifications correct (percent),Kappa Statistic (percent),Kappa Temporal Statistic (percent),Kappa M Statistic (percent),model training instances,model serialized size (bytes),labeling cost,newThreshold,maxPosterior,accuracyBaseLearner (percent),Change detected,Warning detected,tree size (nodes),tree size (leaves),active learning leaves,tree depth,active leaf byte size estimate,inactive leaf byte size estimate,byte size estimate overhead
100000.0,0.546875,3.904877101174659E-8,100000.0,78.2,56.21839389788844,56.400000000000006,54.86542443064183,29416.0,90208.0,0.0,1.0,0.0,?,1.0,29.0,36.0,29.0,29.0,3.0,0.0,0.0,1.0
200000.0,1.078125,9.891864869536625E-8,200000.0,81.6,63.23573486571051,63.99217221135029,61.099365750528534,59416.0,264584.0,0.0,1.0,0.0,?,0.0,0.0,103.0,79.0,79.0,4.0,0.0,0.0,1.0
300000.0,1.625,1.9479701424845392E-7,300000.0,82.5,65.126937945877,65.5511811023622,62.84501061571124,89416.0,521112.0,0.0,1.0,0.0,?,0.0,0.0,209.0,156.0,156.0,5.0,0.0,0.0,1.0
400000.0,2.171875,3.0916245628355276E-7,400000.0,83.6,67.35863702406306,67.90606653620351,65.3276955602537,119416.0,666544.0,0.0,1.0,0.0,?,0.0,0.0,274.0,202.0,202.0,5.0,0.0,0.0,1.0
500000.0,2.71875,4.3978303438052535E-7,500000.0,85.7,71.38603638575624,72.65774378585085,71.45708582834331,149416.0,796160.0,0.0,1.0,0.0,?,0.0,0.0,332.0,240.0,240.0,6.0,0.0,0.0,1.0
600000.0,3.28125,6.024909089319408E-7,600000.0,86.7,73.43251859723698,74.5697896749522,72.40663900414937,179416.0,1005568.0,0.0,1.0,0.0,?,0.0,0.0,433.0,310.0,310.0,6.0,0.0,0.0,1.0
700000.0,3.890625,8.058778864021103E-7,700000.0,87.5,75.0181867600387,74.69635627530364,74.64503042596348,209416.0,1192120.0,0.0,1.0,0.0,?,0.0,0.0,522.0,368.0,368.0,6.0,0.0,0.0,1.0
800000.0,4.46875,1.0229643925817477E-6,800000.0,89.60000000000001,79.16374491615412,78.55670103092784,77.91932059447984,239416.0,1367992.0,0.0,1.0,0.0,?,0.0,0.0,604.0,421.0,421.0,7.0,0.0,0.0,1.0
900000.0,5.0625,1.2655547794161572E-6,900000.0,89.5,78.76849163276366,79.57198443579767,76.24434389140272,269416.0,1510456.0,0.0,1.0,0.0,?,0.0,0.0,670.0,463.0,463.0,7.0,0.0,0.0,1.0
1000000.0,5.640625,1.5091351815499367E-6,1000000.0,90.4,80.80621878511363,80.5668016194332,80.44806517311609,299416.0,1574632.0,0.0,1.0,0.0,?,0.0,0.0,718.0,490.0,490.0,7.0,0.0,0.0,1.0
1100000.0,6.265625,1.818473974708468E-6,1100000.0,92.2,84.32935674018476,84.04907975460122,82.70509977827052,329116.0,1721696.0,0.0,1.0,0.0,?,0.0,0.0,799.0,544.0,544.0,7.0,0.0,0.0,1.0
1200000.0,6.890625,2.1413363477525616E-6,1200000.0,92.2,84.40523983941397,84.61538461538463,83.36886993603412,359116.0,1820112.0,0.0,1.0,0.0,?,0.0,0.0,857.0,579.0,579.0,7.0,0.0,0.0,1.0
1300000.0,7.53125,2.4921777852190044E-6,1300000.0,92.5,85.00215968900478,85.49323017408125,84.59958932238195,389116.0,1954824.0,0.0,1.0,0.0,?,0.0,0.0,921.0,617.0,617.0,7.0,0.0,0.0,1.0
1400000.0,8.140625,2.837700691695015E-6,1400000.0,92.60000000000001,85.20307775982596,84.89795918367348,84.38818565400845,419116.0,2044408.0,0.0,1.0,0.0,?,0.0,0.0,976.0,649.0,649.0,8.0,0.0,0.0,1.0
1500000.0,8.75,3.1867460347712043E-6,1500000.0,92.80000000000001,85.55997224305777,85.27607361963192,84.58244111349038,449116.0,2081680.0,0.0,1.0,0.0,?,0.0,0.0,1019.0,672.0,672.0,8.0,0.0,0.0,1.0
1600000.0,9.40625,3.5790939970562857E-6,1600000.0,94.5,88.99471746438289,89.32038834951456,88.42105263157893,479116.0,2193320.0,0.0,1.0,0.0,?,0.0,0.0,1077.0,707.0,707.0,8.0,0.0,0.0,1.0
1700000.0,10.0625,3.996369972204169E-6,1700000.0,92.7,85.38948042590665,85.4,84.79166666666667,509116.0,2354712.0,0.0,1.0,0.0,?,0.0,0.0,1147.0,751.0,751.0,8.0,0.0,0.0,1.0
1800000.0,10.71875,4.4305797200649985E-6,1800000.0,93.89999999999999,87.77506112469436,88.06262230919765,87.02127659574467,539116.0,2469200.0,0.0,1.0,0.0,?,0.0,0.0,1212.0,791.0,791.0,8.0,0.0,0.0,1.0
1900000.0,11.421875,4.918802296742798E-6,1900000.0,93.5,87.00051997920085,86.05150214592275,87.0775347912525,569116.0,2610256.0,0.0,1.0,0.0,?,0.0,0.0,1282.0,835.0,835.0,8.0,0.0,0.0,1.0
2000000.0,12.125,5.417471693363042E-6,2000000.0,96.1,92.17093852380034,91.7372881355932,91.66666666666666,599116.0,2682512.0,0.0,1.0,0.0,?,0.0,0.0,1330.0,862.0,862.0,8.0,0.0,0.0,1.0
2100000.0,12.8125,5.9399735376549275E-6,2100000.0,94.5,88.98281318857416,89.02195608782434,88.39662447257382,628816.0,2741584.0,0.0,1.0,0.0,?,0.0,0.0,1377.0,890.0,890.0,8.0,0.0,0.0,1.0
2200000.0,13.515625,6.48532984390234E-6,2200000.0,94.6,89.19585120686342,88.81987577639751,88.95705521472391,658816.0,2816720.0,0.0,1.0,0.0,?,0.0,0.0,1433.0,921.0,921.0,8.0,0.0,0.0,1.0
2300000.0,14.203125,7.028511447262847E-6,2300000.0,94.6,89.11641405998064,88.65546218487394,88.05309734513274,688816.0,2888504.0,0.0,1.0,0.0,?,0.0,0.0,1468.0,943.0,943.0,9.0,0.0,0.0,1.0
2400000.0,14.921875,7.608805479119636E-6,2400000.0,95.39999999999999,90.76464706898005,90.87301587301586,90.14989293361883,718816.0,2970176.0,0.0,1.0,0.0,?,0.0,0.0,1509.0,968.0,968.0,9.0,0.0,0.0,1.0
2500000.0,15.625,8.186784268926002E-6,2500000.0,95.39999999999999,90.7928183983507,91.15384615384615,90.55441478439424,748816.0,3041728.0,0.0,1.0,0.0,?,0.0,0.0,1553.0,996.0,996.0,9.0,0.0,0.0,1.0
2600000.0,16.34375,8.783786227771392E-6,2600000.0,95.5,90.97834803528467,90.77868852459015,90.54621848739495,778816.0,3089928.0,0.0,1.0,0.0,?,0.0,0.0,1593.0,1019.0,1019.0,9.0,0.0,0.0,1.0
2700000.0,17.078125,9.40289480947993E-6,2700000.0,96.0,91.99372307889385,91.61425576519915,91.76954732510288,808816.0,3152776.0,0.0,1.0,0.0,?,0.0,0.0,1640.0,1044.0,1044.0,9.0,0.0,0.0,1.0
2800000.0,17.828125,1.0047902437185662E-5,2800000.0,94.69999999999999,89.39957598303931,90.22140221402212,89.18367346938774,838816.0,3233136.0,0.0,1.0,0.0,?,0.0,0.0,1693.0,1075.0,1075.0,9.0,0.0,0.0,1.0
2900000.0,18.5625,1.069192467386731E-5,2900000.0,97.39999999999999,94.77592747379926,94.921875,94.39655172413792,868816.0,3313512.0,0.0,1.0,0.0,?,0.0,0.0,1749.0,1109.0,1109.0,9.0,0.0,0.0,1.0
3000000.0,19.28125,1.1331132296214088E-5,3000000.0,97.1,94.20027838663744,94.21157684630738,94.25742574257426,898816.0,3376128.0,0.0,1.0,0.0,?,0.0,0.0,1792.0,1132.0,1132.0,9.0,0.0,0.0,1.0
3100000.0,20.046875,1.2050880339100129E-5,3100000.0,95.8,91.60026879139866,91.61676646706586,91.42857142857143,928516.0,3435048.0,0.0,1.0,0.0,?,0.0,0.0,1830.0,1154.0,1154.0,9.0,0.0,0.0,1.0
3200000.0,20.796875,1.2768279670530722E-5,3200000.0,96.6,93.16299814596596,93.11740890688259,92.59259259259258,958516.0,3513496.0,0.0,1.0,0.0,?,0.0,0.0,1871.0,1179.0,1179.0,9.0,0.0,0.0,1.0
3300000.0,21.5625,1.3507853501424607E-5,3300000.0,94.89999999999999,89.73272883935545,89.61303462321791,88.93709327548805,988516.0,3564976.0,0.0,1.0,0.0,?,0.0,0.0,1906.0,1201.0,1201.0,9.0,0.0,0.0,1.0
3400000.0,22.4375,1.4361736862661524E-5,3400000.0,96.39999999999999,92.79065669107163,92.35668789808916,92.25806451612902,1018516.0,3618136.0,0.0,1.0,0.0,?,0.0,0.0,1932.0,1214.0,1214.0,9.0,2912.2323651452284,0.0,1.0251496050426872
3500000.0,23.21875,1.5132147592440661E-5,3500000.0,96.3,92.54393035627922,92.35537190082644,91.83222958057394,1048516.0,3672736.0,0.0,1.0,0.0,?,0.0,0.0,1962.0,1232.0,1232.0,9.0,2912.2323651452284,0.0,1.0251496050426872
3600000.0,23.984375,1.5892927347320234E-5,3600000.0,96.0,91.98036794071888,91.68399168399168,91.64926931106471,1078516.0,3716872.0,0.0,1.0,0.0,?,0.0,0.0,1987.0,1246.0,1246.0,9.0,2912.2323651452284,0.0,1.0251496050426872
3700000.0,24.765625,1.6676774345493563E-5,3700000.0,96.5,92.99943995519641,92.95774647887323,92.90060851926977,1108516.0,3769048.0,0.0,1.0,0.0,?,0.0,0.0,2030.0,1269.0,1269.0,9.0,2912.2323651452284,0.0,1.0251496050426872
3800000.0,25.5625,1.7479939754897106E-5,3800000.0,96.0,91.99932794354724,91.91919191919192,91.9517102615694,1138516.0,3801760.0,0.0,1.0,0.0,?,0.0,0.0,2062.0,1288.0,1288.0,9.0,2912.2323651452284,0.0,1.0251496050426872
3900000.0,26.328125,1.8257959325435674E-5,3900000.0,96.3,92.54885534307485,92.43353783231083,91.74107142857142,1168516.0,3848768.0,0.0,1.0,0.0,?,0.0,0.0,2100.0,1310.0,1310.0,9.0,2912.2323651452284,0.0,1.0251496050426872
4000000.0,27.125,1.908185044562237E-5,4000000.0,96.7,93.39587902851379,93.41317365269461,93.22381930184804,1198516.0,3931968.0,0.0,1.0,0.0,?,0.0,0.0,2130.0,1325.0,1325.0,9.0,2912.2323651452284,0.0,1.0251496050426872
4100000.0,27.90625,1.9932299942916467E-5,4100000.0,97.7,95.35263404619886,95.43650793650794,94.86607142857142,1228216.0,4006080.0,0.0,1.0,0.0,?,0.0,0.0,2163.0,1346.0,1346.0,9.0,2912.2323651452284,0.0,1.0251496050426872
4200000.0,28.703125,2.0809477266286398E-5,4200000.0,96.89999999999999,93.76693984895887,93.92156862745098,93.27548806941431,1258216.0,4068112.0,0.0,1.0,0.0,?,0.0,0.0,2192.0,1362.0,1362.0,9.0,2912.2323651452284,0.0,1.0251496050426872
4300000.0,29.484375,2.1674058290146706E-5,4300000.0,95.89999999999999,91.79218616122547,91.31355932203388,91.51138716356107,1288216.0,4105880.0,0.0,1.0,0.0,?,0.0,0.0,2219.0,1377.0,1377.0,9.0,2912.2323651452284,0.0,1.0251496050426872
4400000.0,30.28125,2.2563477751747188E-5,4400000.0,96.89999999999999,93.78124423260553,94.06130268199233,93.41825902335455,1318216.0,4157440.0,0.0,1.0,0.0,?,0.0,0.0,2233.0,1384.0,1384.0,9.0,2912.2323651452284,0.0,1.0251496050426872
4500000.0,31.09375,2.3478579791521445E-5,4500000.0,98.3,96.59141035409232,96.2555066079295,96.38297872340425,1348216.0,4211576.0,0.0,1.0,0.0,?,0.0,0.0,2269.0,1405.0,1405.0,9.0,2912.2323651452284,0.0,1.0251496050426872
4600000.0,31.921875,2.4427025475435785E-5,4600000.0,97.39999999999999,94.80101900027596,95.0381679389313,94.7261663286004,1378216.0,4299920.0,0.0,1.0,0.0,?,0.0,0.0,2302.0,1426.0,1426.0,9.0,2912.2323651452284,0.0,1.0251496050426872
4700000.0,32.734375,2.5365993820337784E-5,4700000.0,97.1,94.19986079665912,94.18837675350701,93.99585921325051,1408216.0,4354944.0,0.0,1.0,0.0,?,0.0,0.0,2328.0,1442.0,1442.0,9.0,2912.2323651452284,0.0,1.0251496050426872
4800000.0,33.5625,2.6327561063226312E-5,4800000.0,96.6,93.15848569117404,93.18637274549097,92.59259259259258,1438216.0,4391192.0,0.0,1.0,0.0,?,0.0,0.0,2345.0,1452.0,1452.0,9.0,2912.2323651452284,0.0,1.0251496050426872
4900000.0,34.40625,2.7314556355122477E-5,4900000.0,97.6,95.19377112738108,95.30332681017613,95.0207468879668,1468216.0,4439528.0,0.0,1.0,0.0,?,0.0,0.0,2375.0,1470.0,1470.0,9.0,2912.2323651452284,0.0,1.0251496050426872
5000000.0,35.25,2.8310925408732146E-5,5000000.0,97.5,94.98905609851917,95.03968253968253,94.72573839662446,1498216.0,4495168.0,0.0,1.0,0.0,?,0.0,0.0,2410.0,1489.0,1489.0,9.0,2912.2323651452284,0.0,1.0251496050426872
5100000.0,36.109375,2.8381303321414936E-5,5100000.0,76.7,49.93596960919975,50.63559322033898,42.75184275184276,28632.0,128552.0,0.0,1.0,0.0,?,1.0,26.0,40.0,31.0,31.0,4.0,0.0,0.0,1.0
5200000.0,36.671875,2.844640160522734E-5,5200000.0,82.39999999999999,62.81192553933271,65.21739130434781,56.10972568578553,58632.0,274016.0,0.0,1.0,0.0,?,0.0,0.0,98.0,69.0,69.0,4.0,0.0,0.0,1.0
5300000.0,37.28125,2.853608690202236E-5,5300000.0,83.89999999999999,66.12295054371612,66.45833333333333,60.635696821515886,88632.0,410360.0,0.0,1.0,0.0,?,0.0,0.0,145.0,103.0,103.0,5.0,0.0,0.0,1.0
5400000.0,37.875,2.8652911617731054E-5,5400000.0,85.5,69.24734466727747,71.05788423153693,63.38383838383837,118632.0,616376.0,0.0,1.0,0.0,?,0.0,0.0,228.0,155.0,155.0,6.0,0.0,0.0,1.0
5500000.0,38.453125,2.8781978277644762E-5,5500000.0,84.5,67.01453913990943,67.70833333333333,61.34663341645885,148632.0,733424.0,0.0,1.0,0.0,?,0.0,0.0,278.0,183.0,183.0,6.0,0.0,0.0,1.0
5600000.0,39.03125,2.8923472887577696E-5,5600000.0,86.5,71.78777721121133,72.83702213279678,67.70334928229666,178632.0,831304.0,0.0,1.0,0.0,?,0.0,0.0,319.0,208.0,208.0,7.0,0.0,0.0,1.0
5700000.0,39.609375,2.907991286418918E-5,5700000.0,86.7,72.16175485599464,73.23943661971832,68.33333333333333,208632.0,946008.0,0.0,1.0,0.0,?,0.0,0.0,368.0,240.0,240.0,7.0,0.0,0.0,1.0
5800000.0,40.234375,2.9271960633599924E-5,5800000.0,89.5,77.47264535507402,78.35051546391753,72.86821705426357,238632.0,1102424.0,0.0,1.0,0.0,?,0.0,0.0,419.0,273.0,273.0,7.0,0.0,0.0,1.0
5900000.0,40.875,2.9487298452295363E-5,5900000.0,88.6,76.40415949132336,76.78207739307535,73.61111111111111,268632.0,1228576.0,0.0,1.0,0.0,?,0.0,0.0,480.0,308.0,308.0,7.0,0.0,0.0,1.0
6000000.0,41.578125,2.975737617816776E-5,6000000.0,88.7,76.40898880157663,77.1255060728745,72.50608272506082,298632.0,1428504.0,0.0,1.0,0.0,?,0.0,0.0,572.0,369.0,369.0,7.0,0.0,0.0,1.0
6100000.0,42.25,3.006869192985404E-5,6100000.0,89.0,76.99081724433661,76.98744769874477,73.49397590361446,328332.0,1597128.0,0.0,1.0,0.0,?,0.0,0.0,654.0,419.0,419.0,7.0,0.0,0.0,1.0
6200000.0,42.9375,3.0409290435879183E-5,6200000.0,89.2,77.59252420214862,78.26961770623743,74.46808510638299,358332.0,1735672.0,0.0,1.0,0.0,?,0.0,0.0,711.0,452.0,452.0,7.0,0.0,0.0,1.0
6300000.0,43.640625,3.077415497197459E-5,6300000.0,92.0,83.35608002396725,83.70672097759675,81.04265402843603,388332.0,1841208.0,0.0,1.0,0.0,?,0.0,0.0,761.0,480.0,480.0,7.0,0.0,0.0,1.0
6400000.0,44.34375,3.115248876080538E-5,6400000.0,93.10000000000001,85.54065381391452,85.97560975609757,82.96296296296298,418332.0,1929936.0,0.0,1.0,0.0,?,0.0,0.0,807.0,503.0,503.0,8.0,0.0,0.0,1.0
6500000.0,45.0625,3.1554762746155674E-5,6500000.0,92.10000000000001,83.27263487761498,83.7782340862423,80.00000000000001,448332.0,2028208.0,0.0,1.0,0.0,?,0.0,0.0,853.0,529.0,529.0,8.0,0.0,0.0,1.0
6600000.0,45.796875,3.1983889510027235E-5,6600000.0,93.0,85.27438036696246,84.61538461538463,82.63027295285362,478332.0,2138192.0,0.0,1.0,0.0,?,0.0,0.0,910.0,562.0,562.0,8.0,0.0,0.0,1.0
6700000.0,46.53125,3.242883200679595E-5,6700000.0,93.7,86.74331694835365,86.42241379310346,84.40594059405943,508332.0,2236280.0,0.0,1.0,0.0,?,0.0,0.0,981.0,608.0,608.0,8.0,0.0,0.0,1.0
6800000.0,47.28125,3.290456244333958E-5,6800000.0,92.2,83.57203032855939,84.08163265306123,80.50000000000001,538332.0,2360784.0,0.0,1.0,0.0,?,0.0,0.0,1047.0,647.0,647.0,8.0,0.0,0.0,1.0
6900000.0,48.0625,3.3430840541970814E-5,6900000.0,91.7,82.17537710888912,81.75824175824177,78.5529715762274,568332.0,2527272.0,0.0,1.0,0.0,?,0.0,0.0,1115.0,687.0,687.0,8.0,0.0,0.0,1.0
7000000.0,48.859375,3.399096578100903E-5,7000000.0,92.80000000000001,84.70948012232417,84.8421052631579,81.81818181818184,598332.0,2654992.0,0.0,1.0,0.0,?,0.0,0.0,1180.0,724.0,724.0,9.0,0.0,0.0,1.0
7100000.0,49.640625,3.4587865941123E-5,7100000.0,95.0,89.66788447868277,90.07936507936508,88.03827751196171,628032.0,2753888.0,0.0,1.0,0.0,?,0.0,0.0,1229.0,753.0,753.0,9.0,0.0,0.0,1.0
7200000.0,50.390625,3.51628629464863E-5,7200000.0,93.5,86.24781022824405,87.20472440944883,83.502538071066,658032.0,2779160.0,0.0,1.0,0.0,?,0.0,0.0,1244.0,762.0,762.0,9.0,0.0,0.0,1.0
7300000.0,51.1875,3.5793350382138865E-5,7300000.0,93.30000000000001,85.96741088258703,86.49193548387098,83.33333333333334,688032.0,2888744.0,0.0,1.0,0.0,?,0.0,0.0,1285.0,787.0,787.0,9.0,0.0,0.0,1.0
7400000.0,51.984375,3.643277987268649E-5,7400000.0,94.1,87.57894736842104,87.70833333333331,85.24999999999999,718032.0,2947008.0,0.0,1.0,0.0,?,0.0,0.0,1318.0,805.0,805.0,9.0,0.0,0.0,1.0
7500000.0,52.796875,3.709678544611152E-5,7500000.0,93.60000000000001,86.892498003154,87.42632612966602,85.15081206496521,748032.0,3019152.0,0.0,1.0,0.0,?,0.0,0.0,1354.0,826.0,826.0,9.0,0.0,0.0,1.0
7600000.0,53.59375,3.7759427666767596E-5,7600000.0,94.19999999999999,87.97159637654708,87.9668049792531,86.0576923076923,778032.0,3089360.0,0.0,1.0,0.0,?,0.0,0.0,1388.0,846.0,846.0,9.0,0.0,0.0,1.0
7700000.0,54.40625,3.844599802202234E-5,7700000.0,94.39999999999999,88.54519941580517,88.50102669404517,87.06697459584295,808032.0,3156224.0,0.0,1.0,0.0,?,0.0,0.0,1436.0,873.0,873.0,9.0,0.0,0.0,1.0
7800000.0,55.21875,3.9153333895632784E-5,7800000.0,93.30000000000001,86.25562083565826,86.91406250000001,84.34579439252337,838032.0,3269752.0,0.0,1.0,0.0,?,0.0,0.0,1473.0,896.0,896.0,9.0,0.0,0.0,1.0
7900000.0,56.0625,3.991064583210067E-5,7900000.0,95.39999999999999,90.4485049833887,90.49586776859503,88.72549019607843,868032.0,3388792.0,0.0,1.0,0.0,?,0.0,0.0,1532.0,933.0,933.0,9.0,0.0,0.0,1.0
8000000.0,56.90625,4.0678351328501264E-5,8000000.0,95.3,90.14493239842989,89.89247311827955,88.13131313131312,898032.0,3451256.0,0.0,1.0,0.0,?,0.0,0.0,1568.0,951.0,951.0,9.0,0.0,0.0,1.0
8100000.0,57.71875,4.145590219801912E-5,8100000.0,95.89999999999999,91.57197125425512,91.40461215932913,90.33018867924527,927732.0,3496168.0,0.0,1.0,0.0,?,0.0,0.0,1597.0,967.0,967.0,9.0,0.0,0.0,1.0
8200000.0,58.546875,4.224905382013983E-5,8200000.0,95.5,90.67604863373032,90.54621848739495,89.13043478260869,957732.0,3514264.0,0.0,1.0,0.0,?,0.0,0.0,1613.0,975.0,975.0,9.0,0.0,0.0,1.0
8300000.0,59.359375,4.3033034954633974E-5,8300000.0,95.39999999999999,90.31546325770972,90.21276595744679,88.3248730964467,987732.0,3556832.0,0.0,1.0,0.0,?,0.0,0.0,1641.0,992.0,992.0,9.0,0.0,0.0,1.0
8400000.0,60.296875,4.394704269038306E-5,8400000.0,94.0,86.99947997919915,86.63697104677058,83.78378378378378,1017732.0,3610576.0,0.0,1.0,0.0,?,0.0,0.0,1664.0,1005.0,1005.0,9.0,3508.232,0.0,1.0233781574308654
8500000.0,61.109375,4.4742049778708146E-5,8500000.0,93.7,86.8699668206146,86.87500000000001,84.74576271186443,1047732.0,3639192.0,0.0,1.0,0.0,?,0.0,0.0,1703.0,1026.0,1026.0,9.0,3508.232,0.0,1.0233781574308654
8600000.0,61.921875,4.554210153097907E-5,8600000.0,95.19999999999999,90.05700649608909,89.6328293736501,88.3495145631068,1077732.0,3678200.0,0.0,1.0,0.0,?,0.0,0.0,1711.0,1030.0,1030.0,9.0,3508.232,0.0,1.0233781574308654
8700000.0,62.75,4.635726981278922E-5,8700000.0,94.1,87.93238865071832,88.03245436105476,86.49885583524026,1107732.0,3692056.0,0.0,1.0,0.0,?,0.0,0.0,1732.0,1042.0,1042.0,9.0,3508.232,0.0,1.0233781574308654
8800000.0,63.578125,4.717351613281708E-5,8800000.0,94.39999999999999,88.48040022380935,88.23529411764704,87.03703703703702,1137732.0,3712144.0,0.0,1.0,0.0,?,0.0,0.0,1755.0,1055.0,1055.0,9.0,3508.232,0.0,1.0233781574308654
8900000.0,64.40625,4.7999641327704815E-5,8900000.0,94.1,87.81575773596127,88.29365079365078,86.18266978922715,1167732.0,3773168.0,0.0,1.0,0.0,?,0.0,0.0,1778.0,1068.0,1068.0,9.0,3508.232,0.0,1.0233781574308654
9000000.0,65.21875,4.881052901813139E-5,9000000.0,94.5,88.59517430720867,88.68312757201645,86.68280871670702,1197732.0,3789952.0,0.0,1.0,0.0,?,0.0,0.0,1782.0,1070.0,1070.0,9.0,3508.232,0.0,1.0233781574308654
9100000.0,66.03125,4.9659952896440194E-5,9100000.0,94.39999999999999,88.17941952506595,88.52459016393442,85.82278481012658,1227432.0,3836104.0,0.0,1.0,0.0,?,0.0,0.0,1814.0,1089.0,1089.0,9.0,3508.232,0.0,1.0233781574308654
9200000.0,66.84375,5.051833777947144E-5,9200000.0,93.89999999999999,87.12971558781331,87.13080168776371,84.55696202531644,1257432.0,3893680.0,0.0,1.0,0.0,?,0.0,0.0,1833.0,1100.0,1100.0,9.0,3508.232,0.0,1.0233781574308654
9300000.0,67.65625,5.137574567925185E-5,9300000.0,94.89999999999999,89.19436581521093,89.28571428571428,86.82170542635657,1287432.0,3904168.0,0.0,1.0,0.0,?,0.0,0.0,1841.0,1104.0,1104.0,9.0,3508.232,0.0,1.0233781574308654
9400000.0,68.484375,5.225489013052235E-5,9400000.0,94.19999999999999,87.98475306595955,88.39999999999999,85.85365853658536,1317432.0,3943704.0,0.0,1.0,0.0,?,0.0,0.0,1863.0,1118.0,1118.0,9.0,3508.232,0.0,1.0233781574308654
9500000.0,69.296875,5.311880396523823E-5,9500000.0,93.30000000000001,85.9548206409633,85.83509513742072,83.2917705735661,1347432.0,3965256.0,0.0,1.0,0.0,?,0.0,0.0,1880.0,1128.0,1128.0,9.0,3508.232,0.0,1.0233781574308654
9600000.0,70.125,5.400335231873517E-5,9600000.0,94.3,88.22800495662948,88.10020876826721,86.4608076009501,1377432.0,3999088.0,0.0,1.0,0.0,?,0.0,0.0,1904.0,1143.0,1143.0,9.0,3508.232,0.0,1.0233781574308654
9700000.0,70.953125,5.489244077277059E-5,9700000.0,93.8,87.19685455626774,87.3469387755102,85.16746411483253,1407432.0,4035288.0,0.0,1.0,0.0,?,0.0,0.0,1916.0,1149.0,1149.0,9.0,3508.232,0.0,1.0233781574308654
9800000.0,71.78125,5.578252157041182E-5,9800000.0,94.89999999999999,88.85781700602988,88.76651982378854,85.83333333333331,1437432.0,4055008.0,0.0,1.0,0.0,?,0.0,0.0,1946.0,1167.0,1167.0,9.0,3508.232,0.0,1.0233781574308654
9900000.0,72.609375,5.667638150043785E-5,9900000.0,94.3,88.17868845659297,87.68898488120949,86.3961813842482,1467432.0,4087680.0,0.0,1.0,0.0,?,0.0,0.0,1967.0,1179.0,1179.0,10.0,3508.232,0.0,1.0233781574308654
1.0E7,73.4375,5.7574200521533685E-5,1.0E7,94.89999999999999,89.39303184586203,89.21775898520083,87.62135922330097,1497432.0,4121144.0,0.0,1.0,0.0,?,0.0,0.0,1989.0,1190.0,1190.0,10.0,3508.232,0.0,1.0233781574308654
