learning evaluation instances,evaluation time (cpu seconds),model cost (RAM-Hours),classified instances,classifications correct (percent),Kappa Statistic (percent),Kappa Temporal Statistic (percent),Kappa M Statistic (percent),model training instances,model serialized size (bytes),labeling cost,newThreshold,maxPosterior,accuracyBaseLearner (percent),Change detected,Warning detected
100000.0,0.40625,1.637750150014957E-8,100000.0,76.6,52.08747107844142,49.46004319654428,48.57142857142857,18870.0,2904.0,0.0,1.0,0.0,?,1.0,49.0
200000.0,0.828125,3.1725988568117225E-8,200000.0,77.2,52.74082487988294,50.21834061135371,47.34411085450348,38870.0,2904.0,0.0,1.0,0.0,?,0.0,0.0
300000.0,1.234375,4.490853623590536E-8,300000.0,76.8,51.62958268005472,51.26050420168068,45.28301886792454,58870.0,2904.0,0.0,1.0,0.0,?,0.0,0.0
400000.0,1.625,5.6048027343220184E-8,400000.0,76.4,50.91820393902211,52.705410821643284,44.988344988345,78870.0,2904.0,0.0,1.0,0.0,?,0.0,0.0
500000.0,2.046875,6.641975940308638E-8,500000.0,76.8,50.96381467703755,50.74309978768577,42.57425742574259,98870.0,2904.0,0.0,1.0,0.0,?,0.0,0.0
600000.0,2.453125,7.480987632233236E-8,600000.0,76.6,51.24979687415365,55.34351145038169,45.199063231850126,118870.0,2904.0,0.0,1.0,0.0,?,0.0,0.0
700000.0,2.875,8.18637717101309E-8,700000.0,77.4,53.04891223055061,52.62054507337527,46.94835680751175,138870.0,2904.0,0.0,1.0,0.0,?,0.0,0.0
800000.0,3.296875,8.725874876189563E-8,800000.0,76.8,52.33536181980302,52.066115702479344,46.42032332563512,158870.0,2904.0,0.0,1.0,0.0,?,0.0,0.0
900000.0,3.71875,9.099480747762653E-8,900000.0,76.7,52.02997611792802,54.40313111545989,47.04545454545454,178870.0,2904.0,0.0,1.0,0.0,?,0.0,0.0
1000000.0,4.109375,9.291808560697569E-8,1000000.0,75.6,49.36246513481207,50.10224948875256,42.990654205607484,198870.0,2904.0,0.0,1.0,0.0,?,0.0,0.0
1100000.0,4.53125,1.099420801943375E-7,1100000.0,75.9,50.08781231360595,50.103519668737064,44.3418013856813,218670.0,2904.0,0.0,1.0,0.0,?,0.0,0.0
1200000.0,4.953125,1.253071564456655E-7,1200000.0,76.4,50.14554964531516,53.45167652859961,42.85714285714287,238670.0,2904.0,0.0,1.0,0.0,?,0.0,0.0
1300000.0,5.359375,1.3850567888261543E-7,1300000.0,76.4,50.46782717469327,51.738241308793455,43.94299287410927,258670.0,2904.0,0.0,1.0,0.0,?,0.0,0.0
1400000.0,5.765625,1.5010672440338466E-7,1400000.0,75.6,48.63936413848849,50.30549898167006,41.62679425837321,278670.0,2904.0,0.0,1.0,0.0,?,0.0,0.0
1500000.0,6.171875,1.6011029300797317E-7,1500000.0,75.5,48.791907031184685,49.897750511247445,42.080378250591025,298670.0,2904.0,0.0,1.0,0.0,?,0.0,0.0
1600000.0,6.5625,1.6819307347759606E-7,1600000.0,76.3,50.47146153074532,49.89429175475687,43.705463182897866,318670.0,2904.0,0.0,1.0,0.0,?,0.0,0.0
1700000.0,7.0,1.7552542784768677E-7,1700000.0,75.6,48.80402853545951,49.377593360995846,42.18009478672987,338670.0,2904.0,0.0,1.0,0.0,?,0.0,0.0
1800000.0,7.40625,1.8073656570373313E-7,1800000.0,76.7,52.19179094065217,52.54582484725051,47.75784753363229,358670.0,2904.0,0.0,1.0,0.0,?,0.0,0.0
1900000.0,7.8125,1.8435022664359877E-7,1900000.0,76.8,51.48980658651334,51.767151767151766,45.41176470588236,378670.0,2904.0,0.0,1.0,0.0,?,0.0,0.0
2000000.0,8.21875,1.863664106672837E-7,2000000.0,75.5,49.28754170840958,50.901803607214426,43.41801385681294,398670.0,2904.0,0.0,1.0,0.0,?,0.0,0.0
2100000.0,8.625,2.027758617057569E-7,2100000.0,72.7,42.57177476355558,45.29058116232464,34.84486873508354,418470.0,2904.0,0.0,1.0,0.0,?,0.0,0.0
2200000.0,9.046875,2.1815752714044523E-7,2200000.0,75.8,49.45169712793734,47.61904761904761,41.686746987951814,438470.0,2904.0,0.0,1.0,0.0,?,0.0,0.0
2300000.0,9.46875,2.3188027423909974E-7,2300000.0,74.1,46.19501088564258,45.12711864406779,40.046296296296305,458470.0,2904.0,0.0,1.0,0.0,?,0.0,0.0
2400000.0,9.890625,2.4394410300172044E-7,2400000.0,72.3,41.9535460725392,43.12114989733059,33.73205741626794,478470.0,2904.0,0.0,1.0,0.0,?,0.0,0.0
2500000.0,10.3125,2.543490134283073E-7,2500000.0,74.2,46.01155101699171,46.25,40.00000000000001,498470.0,2904.0,0.0,1.0,0.0,?,0.0,0.0
2600000.0,10.71875,2.627710798858769E-7,2600000.0,77.5,53.24228393778938,53.70370370370371,47.1830985915493,518470.0,2904.0,0.0,1.0,0.0,?,0.0,0.0
2700000.0,11.140625,2.698581536403961E-7,2700000.0,76.6,51.3869268227825,53.2,45.07042253521127,538470.0,2904.0,0.0,1.0,0.0,?,0.0,0.0
2800000.0,11.5625,2.752863090588815E-7,2800000.0,75.4,48.32258471104762,49.795918367346935,40.72289156626507,558470.0,2904.0,0.0,1.0,0.0,?,0.0,0.0
2900000.0,11.984375,2.790555461413331E-7,2900000.0,72.6,42.58172673931266,44.97991967871485,35.37735849056604,578470.0,2904.0,0.0,1.0,0.0,?,0.0,0.0
3000000.0,12.375,2.810095449806088E-7,3000000.0,76.5,50.300733434282776,51.24481327800831,42.26044226044227,598470.0,2904.0,0.0,1.0,0.0,?,0.0,0.0
3100000.0,12.796875,2.980667179346913E-7,3100000.0,74.9,47.86430595136218,48.45995893223819,40.521327014218016,618270.0,2904.0,0.0,1.0,0.0,?,0.0,0.0
3200000.0,13.203125,3.1289466682614557E-7,3200000.0,77.3,52.603666430032995,52.109704641350206,46.20853080568722,638270.0,2904.0,0.0,1.0,0.0,?,0.0,0.0
3300000.0,13.609375,3.261251388014191E-7,3300000.0,77.3,52.195228789001966,53.09917355371901,43.811881188118825,658270.0,2904.0,0.0,1.0,0.0,?,0.0,0.0
3400000.0,14.03125,3.3820555674740015E-7,3400000.0,75.6,49.61009780597409,49.060542797494776,44.796380090497735,678270.0,2904.0,0.0,1.0,0.0,?,0.0,0.0
3500000.0,14.453125,3.4862705635734735E-7,3500000.0,76.9,51.80149728335712,54.34782608695653,45.90163934426231,698270.0,2904.0,0.0,1.0,0.0,?,0.0,0.0
3600000.0,14.875,3.5738963763126073E-7,3600000.0,76.0,49.52320460348375,51.3184584178499,41.888619854721554,718270.0,2904.0,0.0,1.0,0.0,?,0.0,0.0
3700000.0,15.296875,3.644933005691403E-7,3700000.0,75.9,49.978829214024195,47.49455337690632,42.344497607655505,738270.0,2904.0,0.0,1.0,0.0,?,0.0,0.0
3800000.0,15.703125,3.6973638796351024E-7,3800000.0,75.9,48.74521480221182,53.5645472061657,39.75000000000001,758270.0,2904.0,0.0,1.0,0.0,?,0.0,0.0
3900000.0,16.125,3.7352221422932216E-7,3900000.0,74.7,47.51821304701373,47.72727272727273,39.32853717026379,778270.0,2904.0,0.0,1.0,0.0,?,0.0,0.0
4000000.0,16.546875,3.7564912215910026E-7,4000000.0,76.2,49.54548538091039,53.515625,39.8989898989899,798270.0,2904.0,0.0,1.0,0.0,?,0.0,0.0
4100000.0,16.953125,3.9209052273589704E-7,4100000.0,76.0,50.25514962836453,53.66795366795367,42.99287410926367,818070.0,2904.0,0.0,1.0,0.0,?,0.0,0.0
4200000.0,17.359375,4.069344463965131E-7,4200000.0,74.8,46.55559278755,46.61016949152542,36.8421052631579,838070.0,2904.0,0.0,1.0,0.0,?,0.0,0.0
4300000.0,17.765625,4.2018089314094846E-7,4300000.0,77.8,54.059523957337454,56.12648221343874,46.762589928057565,858070.0,2904.0,0.0,1.0,0.0,?,0.0,0.0
4400000.0,18.1875,4.322779002702898E-7,4400000.0,76.1,50.568769389865565,49.25690021231423,43.76470588235295,878070.0,2904.0,0.0,1.0,0.0,?,0.0,0.0
4500000.0,18.609375,4.4271598906359734E-7,4500000.0,74.9,47.307430701923806,48.5655737704918,40.095465393794754,898070.0,2904.0,0.0,1.0,0.0,?,0.0,0.0
4600000.0,19.015625,4.5117000505949057E-7,4600000.0,76.3,50.61471139820796,51.73116089613035,44.235294117647065,918070.0,2904.0,0.0,1.0,0.0,?,0.0,0.0
4700000.0,19.4375,4.5829025718073046E-7,4700000.0,76.8,51.34820009310948,54.1501976284585,43.825665859564175,938070.0,2904.0,0.0,1.0,0.0,?,0.0,0.0
4800000.0,19.859375,4.637515909659365E-7,4800000.0,75.5,49.12832949892444,48.529411764705884,42.62295081967214,958070.0,2904.0,0.0,1.0,0.0,?,0.0,0.0
4900000.0,20.25,4.672723460114664E-7,4900000.0,77.5,53.20533084870972,54.08163265306123,47.91666666666668,978070.0,2904.0,0.0,1.0,0.0,?,0.0,0.0
5000000.0,20.671875,4.696681733346647E-7,5000000.0,76.0,50.10063039536935,51.903807615230455,43.12796208530806,998070.0,2904.0,0.0,1.0,0.0,?,0.0,0.0
5100000.0,21.078125,4.863685333273476E-7,5100000.0,48.5,-3.1964861095525814,-4.040404040404044,-3.830645161290326,1017870.0,2904.0,0.0,1.0,0.0,?,0.0,0.0
5200000.0,21.5,5.021282575196689E-7,5200000.0,48.4,-3.364970492906675,-6.391752577319594,-5.737704918032792,1037870.0,2904.0,0.0,1.0,0.0,?,0.0,1.0
5300000.0,21.921875,5.162290633759564E-7,5300000.0,52.6,2.5813877014140116,6.508875739644976,-4.867256637168146,1057870.0,2904.0,0.0,1.0,0.0,?,0.0,0.0
5400000.0,22.328125,5.282101402473118E-7,5400000.0,49.0,-1.7785299188964876,3.2258064516129057,-2.822580645161293,1077870.0,2904.0,0.0,1.0,0.0,?,0.0,0.0
5500000.0,22.75,5.389931094315317E-7,5500000.0,50.7,0.1789893983202525,0.6048387096774198,-3.138075313807534,1097870.0,2904.0,0.0,1.0,0.0,?,0.0,0.0
5600000.0,23.171875,5.481171602797177E-7,5600000.0,54.1,5.972680864313881,6.13496932515338,1.923076923076925,1117870.0,2904.0,0.0,1.0,0.0,?,0.0,0.0
5700000.0,23.59375,5.555822927918699E-7,5700000.0,52.6,4.48324224984283,7.602339181286556,2.469135802469138,1137870.0,2904.0,0.0,1.0,0.0,?,0.0,0.0
5800000.0,24.015625,5.613885069679883E-7,5800000.0,56.599999999999994,11.804751163405063,15.068493150684922,2.471910112359528,1157870.0,2904.0,0.0,1.0,0.0,?,0.0,0.0
5900000.0,24.4375,5.655358028080728E-7,5900000.0,53.5,5.705525453424623,6.626506024096392,2.310924369747901,1177870.0,2904.0,0.0,1.0,0.0,?,0.0,0.0
6000000.0,24.84375,5.679320181823438E-7,6000000.0,55.900000000000006,11.269033898850735,7.7405857740585855,13.529411764705895,1197870.0,2904.0,0.0,1.0,0.0,?,0.0,0.0
6100000.0,25.25,5.847215005714032E-7,6100000.0,54.800000000000004,9.706907022085867,10.317460317460327,11.890838206627691,1217670.0,2904.0,0.0,1.0,0.0,?,0.0,0.0
6200000.0,25.6875,6.010821218498879E-7,6200000.0,53.400000000000006,6.33128173379592,7.355864811133207,5.091649694501023,1237670.0,2904.0,0.0,1.0,0.0,?,0.0,0.0
6300000.0,26.09375,6.146766504065858E-7,6300000.0,52.300000000000004,5.49589887863058,2.851323828920573,-2.36051502145923,1257670.0,2904.0,0.0,1.0,0.0,?,0.0,0.0
6400000.0,26.515625,6.271351271101998E-7,6400000.0,56.10000000000001,11.723305851598637,14.090019569471638,13.069306930693081,1277670.0,2904.0,0.0,1.0,0.0,?,0.0,0.0
6500000.0,26.9375,6.379346854777799E-7,6500000.0,56.49999999999999,11.354744049559828,11.76470588235293,7.051282051282034,1297670.0,2904.0,0.0,1.0,0.0,?,0.0,0.0
6600000.0,27.359375,6.470753255093263E-7,6600000.0,53.300000000000004,5.80879386849537,8.610567514677111,2.910602910602913,1317670.0,2904.0,0.0,1.0,0.0,?,0.0,0.0
6700000.0,27.78125,6.545570472048388E-7,6700000.0,54.800000000000004,9.904522713229289,9.236947791164667,9.600000000000009,1337670.0,2904.0,0.0,1.0,0.0,?,0.0,0.0
6800000.0,28.203125,6.603798505643175E-7,6800000.0,59.099999999999994,17.45578132442098,17.373737373737367,15.843621399176946,1357670.0,2904.0,0.0,1.0,0.0,?,0.0,0.0
6900000.0,28.625,6.645437355877624E-7,6900000.0,57.99999999999999,16.067481744677274,16.334661354581666,11.949685534591183,1377670.0,2904.0,0.0,1.0,0.0,?,0.0,0.0
7000000.0,29.046875,6.670487022751735E-7,7000000.0,59.0,15.296256507726632,17.835671342685362,10.480349344978151,1397670.0,2904.0,0.0,1.0,0.0,?,0.0,0.0
7100000.0,29.453125,6.838541594333946E-7,7100000.0,63.1,26.570086762715906,28.764478764478767,24.385245901639344,1417470.0,2904.0,0.0,1.0,0.0,?,0.0,0.0
7200000.0,29.890625,7.002319843094381E-7,7200000.0,64.7,28.547717170408642,29.116465863453815,26.304801670146137,1437470.0,2904.0,0.0,1.0,0.0,?,0.0,0.0
7300000.0,30.3125,7.143659685324463E-7,7300000.0,68.60000000000001,35.91025803264904,37.94466403162057,31.887201735357923,1457470.0,2904.0,0.0,1.0,0.0,?,0.0,0.0
7400000.0,30.734375,7.268410344194206E-7,7400000.0,64.3,27.455538576584193,31.739961759082224,24.203821656050955,1477470.0,2904.0,0.0,1.0,0.0,?,0.0,0.0
7500000.0,31.15625,7.376571819703611E-7,7500000.0,66.7,33.30075151825918,38.333333333333336,31.622176591375776,1497470.0,2904.0,0.0,1.0,0.0,?,0.0,0.0
7600000.0,31.578125,7.468144111852678E-7,7600000.0,68.10000000000001,36.084440668729066,35.42510121457491,35.8148893360161,1517470.0,2904.0,0.0,1.0,0.0,?,0.0,0.0
7700000.0,32.0,7.543127220641406E-7,7700000.0,66.8,33.011573663056296,33.46693386773548,31.120331950207476,1537470.0,2904.0,0.0,1.0,0.0,?,0.0,0.0
7800000.0,32.421875,7.601521146069797E-7,7800000.0,66.60000000000001,31.412049301183252,32.25152129817445,25.942350332594238,1557470.0,2904.0,0.0,1.0,0.0,?,0.0,0.0
7900000.0,32.84375,7.643325888137849E-7,7900000.0,62.8,25.105396035417897,27.485380116959067,23.613963039014372,1577470.0,2904.0,0.0,1.0,0.0,?,0.0,0.0
8000000.0,33.28125,7.66947535642733E-7,8000000.0,65.3,29.40726515200834,28.008298755186722,25.69593147751606,1597470.0,2904.0,0.0,1.0,0.0,?,0.0,0.0
8100000.0,33.71875,7.850629238722223E-7,8100000.0,64.7,28.758829465186693,31.189083820662773,26.763485477178424,1617270.0,2904.0,0.0,1.0,0.0,?,0.0,0.0
8200000.0,34.140625,8.008724156146246E-7,8200000.0,64.8,29.878243131255182,29.600000000000005,30.15873015873016,1637270.0,2904.0,0.0,1.0,0.0,?,0.0,0.0
8300000.0,34.578125,8.1554708433234E-7,8300000.0,69.0,38.67118257786781,36.344969199178635,35.81780538302276,1657270.0,2904.0,0.0,1.0,0.0,?,0.0,0.0
8400000.0,34.984375,8.275760855111808E-7,8400000.0,68.4,36.489816262626675,35.245901639344275,35.37832310838447,1677270.0,2904.0,0.0,1.0,0.0,?,0.0,0.0
8500000.0,35.40625,8.384088222454816E-7,8500000.0,68.89999999999999,36.74181711672862,35.74380165289255,32.24400871459693,1697270.0,2904.0,0.0,1.0,0.0,?,0.0,0.0
8600000.0,35.8125,8.472428695919609E-7,8600000.0,65.8,31.13807420174532,30.346232179226075,29.045643153526974,1717270.0,2904.0,0.0,1.0,0.0,?,0.0,0.0
8700000.0,36.234375,8.547577696541941E-7,8700000.0,68.2,34.7504924491136,36.52694610778444,30.869565217391308,1737270.0,2904.0,0.0,1.0,0.0,?,0.0,0.0
8800000.0,36.65625,8.606137513803935E-7,8800000.0,66.0,31.71511546170624,31.313131313131322,31.034482758620697,1757270.0,2904.0,0.0,1.0,0.0,?,0.0,0.0
8900000.0,37.078125,8.64810814770559E-7,8900000.0,66.60000000000001,32.42286292362165,35.39651837524179,29.684210526315795,1777270.0,2904.0,0.0,1.0,0.0,?,0.0,0.0
9000000.0,37.5,8.673489598246907E-7,9000000.0,68.4,35.207663539137855,41.2639405204461,30.08849557522124,1797270.0,2904.0,0.0,1.0,0.0,?,0.0,0.0
9100000.0,37.921875,8.848322128566598E-7,9100000.0,65.10000000000001,29.959621420715894,31.70254403131116,24.295010845986983,786319.0,2904.0,0.0,1.0,0.0,?,1.0,2.0
9200000.0,38.328125,8.999939503458635E-7,9200000.0,65.3,30.600000000000005,31.558185404339255,30.600000000000005,806319.0,2904.0,0.0,1.0,0.0,?,0.0,11.0
9300000.0,38.75,9.140799132486181E-7,9300000.0,70.39999999999999,40.75995372872061,40.79999999999999,39.21971252566735,826319.0,2904.0,0.0,1.0,0.0,?,0.0,0.0
9400000.0,39.15625,9.260466969054603E-7,9400000.0,68.8,37.601747151079756,39.41747572815533,40.9090909090909,846319.0,2904.0,0.0,1.0,0.0,?,0.0,0.0
9500000.0,39.578125,9.368148231361473E-7,9500000.0,68.0,35.94234811330199,37.25490196078432,35.871743486973955,866319.0,2904.0,0.0,1.0,0.0,?,0.0,0.0
9600000.0,40.0,9.459240310308004E-7,9600000.0,67.7,35.410850977035864,35.52894211576847,34.747474747474755,886319.0,2904.0,0.0,1.0,0.0,?,0.0,0.0
9700000.0,40.40625,9.530983839391004E-7,9700000.0,69.5,38.907138851053595,43.5185185185185,36.192468619246846,906319.0,2904.0,0.0,1.0,0.0,?,0.0,0.0
9800000.0,40.828125,9.58889755161686E-7,9800000.0,69.39999999999999,38.733096541423215,39.644970414201175,37.931034482758605,926319.0,2904.0,0.0,1.0,0.0,?,0.0,0.0
9900000.0,41.234375,9.628691542376246E-7,9900000.0,69.1,37.68905021173623,38.69047619047618,32.67973856209149,946319.0,2904.0,0.0,1.0,0.0,?,0.0,0.0
1.0E7,41.609375,9.650678516158627E-7,1.0E7,69.6,38.79235709827449,40.275049115913546,36.26834381551362,966319.0,2904.0,0.0,1.0,0.0,?,0.0,0.0
