learning evaluation instances,evaluation time (cpu seconds),model cost (RAM-Hours),classified instances,classifications correct (percent),Kappa Statistic (percent),Kappa Temporal Statistic (percent),Kappa M Statistic (percent),model training instances,model serialized size (bytes),labeling cost,newThreshold,maxPosterior,accuracyBaseLearner (percent),Change detected,Warning detected
100000.0,0.171875,7.474607425845332E-9,100000.0,57.8,15.691727400588148,12.809917355371889,14.747474747474737,29700.0,9112.0,0.0,1.0,0.0,?,0.0,4.0
200000.0,0.34375,1.4273359233306515E-8,200000.0,54.800000000000004,11.228077066598583,3.8297872340425565,5.833333333333339,59700.0,9112.0,0.0,1.0,0.0,?,0.0,0.0
300000.0,0.515625,2.040052398418387E-8,300000.0,54.2,8.648111728545272,9.486166007905146,6.5306122448979655,89700.0,9208.0,0.0,1.0,0.0,?,0.0,0.0
400000.0,0.6875,2.5851833116677073E-8,400000.0,55.300000000000004,11.374234685784998,10.600000000000009,6.680584551148232,119700.0,9208.0,0.0,1.0,0.0,?,0.0,0.0
500000.0,0.859375,3.0623018068985806E-8,500000.0,55.2,12.067205778440773,9.311740890688268,4.680851063829792,149700.0,9112.0,0.0,1.0,0.0,?,0.0,0.0
600000.0,1.015625,3.4346044736189974E-8,600000.0,59.9,20.230753928784566,21.984435797665366,18.16326530612244,179700.0,9112.0,0.0,1.0,0.0,?,0.0,0.0
700000.0,1.171875,3.74546572048631E-8,700000.0,57.099999999999994,15.18319638747637,13.855421686746977,10.438413361169088,209700.0,9112.0,0.0,1.0,0.0,?,0.0,0.0
800000.0,1.328125,3.994885547500518E-8,800000.0,58.199999999999996,16.002186354575255,20.07648183556405,16.39999999999999,239700.0,9112.0,0.0,1.0,0.0,?,0.0,0.0
900000.0,1.5,4.2016617953777315E-8,900000.0,56.3,14.427151461983698,12.072434607645864,7.610993657505269,269700.0,9112.0,0.0,1.0,0.0,?,0.0,0.0
1000000.0,1.65625,4.328586833758487E-8,1000000.0,53.6,9.210088637564327,6.262626262626268,-1.97802197802198,299700.0,9208.0,0.0,1.0,0.0,?,0.0,0.0
1100000.0,1.8125,5.008711013942957E-8,1100000.0,60.199999999999996,21.33361268465847,14.592274678111577,16.561844863731647,329400.0,9112.0,0.0,1.0,0.0,?,0.0,0.0
1200000.0,1.984375,5.689688906487491E-8,1200000.0,56.2,13.652045342533276,12.400000000000011,7.006369426751599,359400.0,9208.0,0.0,1.0,0.0,?,0.0,0.0
1300000.0,2.140625,6.246930246965752E-8,1300000.0,61.3,23.685497483790563,26.003824091778206,18.00847457627118,389400.0,9112.0,0.0,1.0,0.0,?,0.0,0.0
1400000.0,2.296875,6.743118218663666E-8,1400000.0,55.1,9.71535200958747,10.20000000000001,11.787819253438125,419400.0,9208.0,0.0,1.0,0.0,?,0.0,0.0
1500000.0,2.46875,7.220912569512923E-8,1500000.0,58.5,18.438740615541843,20.80152671755725,11.702127659574456,449400.0,9112.0,0.0,1.0,0.0,?,0.0,0.0
1600000.0,2.609375,7.556537942339977E-8,1600000.0,56.3,13.533834586466147,13.121272365805158,8.768267223382031,479400.0,9112.0,0.0,1.0,0.0,?,0.0,0.0
1700000.0,2.78125,7.899588025692437E-8,1700000.0,56.10000000000001,12.676437357775978,9.297520661157034,11.491935483870979,509400.0,9208.0,0.0,1.0,0.0,?,0.0,0.0
1800000.0,2.9375,8.150010317977931E-8,1800000.0,54.900000000000006,8.84837705646955,11.914062500000009,8.704453441295554,539400.0,9208.0,0.0,1.0,0.0,?,0.0,0.0
1900000.0,3.09375,8.338991190410322E-8,1900000.0,56.89999999999999,14.61965134706814,16.472868217054256,7.90598290598289,569400.0,9208.0,0.0,1.0,0.0,?,0.0,0.0
2000000.0,3.265625,8.479284588247538E-8,2000000.0,54.400000000000006,8.354603372389814,7.878787878787887,8.617234468937882,599400.0,9208.0,0.0,1.0,0.0,?,0.0,0.0
2100000.0,3.421875,9.160023182630539E-8,2100000.0,54.0,8.840129367746863,3.765690376569041,4.5643153526971,629100.0,9112.0,0.0,1.0,0.0,?,0.0,0.0
2200000.0,3.578125,9.779320357160436E-8,2200000.0,58.699999999999996,18.36008539574602,18.217821782178213,13.778705636743204,659100.0,9112.0,0.0,1.0,0.0,?,0.0,0.0
2300000.0,3.71875,1.028173978233503E-7,2300000.0,56.599999999999994,14.136597989134502,14.901960784313717,8.245243128964043,689100.0,9208.0,0.0,1.0,0.0,?,0.0,0.0
2400000.0,3.890625,1.0828222406821119E-7,2400000.0,55.50000000000001,12.090082971157653,10.462776659959767,6.708595387840677,719100.0,9208.0,0.0,1.0,0.0,?,0.0,0.0
2500000.0,4.046875,1.1263195321791703E-7,2500000.0,56.8,15.365476167153163,9.623430962343082,7.09677419354837,749100.0,9112.0,0.0,1.0,0.0,?,0.0,0.0
2600000.0,4.21875,1.167407996642093E-7,2600000.0,59.8,20.968509293080995,21.789883268482487,12.798264642082419,779100.0,9112.0,0.0,1.0,0.0,?,0.0,0.0
2700000.0,4.375,1.1986170041685304E-7,2700000.0,55.60000000000001,12.005676030266882,7.306889352818378,7.306889352818378,809100.0,9112.0,0.0,1.0,0.0,?,0.0,0.0
2800000.0,4.546875,1.22618835626377E-7,2800000.0,58.4,16.899720335597284,18.431372549019603,16.799999999999994,839100.0,9112.0,0.0,1.0,0.0,?,0.0,0.0
2900000.0,4.703125,1.2451478849268622E-7,2900000.0,59.5,20.00221228449979,16.494845360824733,14.37632135306553,869100.0,9208.0,0.0,1.0,0.0,?,0.0,0.0
3000000.0,4.875,1.2592021246544188E-7,3000000.0,54.800000000000004,10.231966952653323,10.67193675889329,6.61157024793389,899100.0,9112.0,0.0,1.0,0.0,?,0.0,0.0
3100000.0,5.03125,1.3273762306198478E-7,3100000.0,54.6,9.67690593665447,9.018036072144296,6.967213114754105,928800.0,9208.0,0.0,1.0,0.0,?,0.0,0.0
3200000.0,5.203125,1.395566505379975E-7,3200000.0,56.49999999999999,15.0529991173323,11.224489795918355,10.677618069815182,958800.0,9112.0,0.0,1.0,0.0,?,0.0,0.0
3300000.0,5.359375,1.4514523273747828E-7,3300000.0,57.9,16.329467131988775,17.773437499999993,13.374485596707808,988800.0,9208.0,0.0,1.0,0.0,?,0.0,0.0
3400000.0,5.53125,1.506125489767227E-7,3400000.0,57.8,15.698464193821613,17.09233791748526,15.430861723446885,1018800.0,9112.0,0.0,1.0,0.0,?,0.0,0.0
3500000.0,5.6875,1.549723027791414E-7,3500000.0,56.10000000000001,12.488438107996053,11.670020120724356,10.224948875255633,1048800.0,9208.0,0.0,1.0,0.0,?,0.0,0.0
3600000.0,5.859375,1.5908790778161753E-7,3600000.0,55.00000000000001,11.612193588937787,1.315789473684212,2.807775377969765,1078800.0,9112.0,0.0,1.0,0.0,?,0.0,0.0
3700000.0,6.015625,1.6221883318697414E-7,3700000.0,53.5,7.386752919806888,6.060606060606066,4.713114754098365,1108800.0,9208.0,0.0,1.0,0.0,?,0.0,0.0
3800000.0,6.1875,1.6498272695268194E-7,3800000.0,58.8,18.013213404441604,17.599999999999994,15.918367346938766,1138800.0,9112.0,0.0,1.0,0.0,?,0.0,0.0
3900000.0,6.34375,1.6688094345024892E-7,3900000.0,56.2,13.04451406177414,13.267326732673279,7.006369426751599,1168800.0,9112.0,0.0,1.0,0.0,?,0.0,0.0
4000000.0,6.484375,1.6803985797903604E-7,4000000.0,53.300000000000004,8.067246741997721,7.524752475247531,-3.0905077262693186,1198800.0,9208.0,0.0,1.0,0.0,?,0.0,0.0
4100000.0,6.640625,1.7486341271756423E-7,4100000.0,55.800000000000004,12.474900890696619,10.16260162601627,7.724425887265143,1228500.0,9208.0,0.0,1.0,0.0,?,0.0,0.0
4200000.0,6.8125,1.8168919874976078E-7,4200000.0,60.199999999999996,21.09217940228317,21.031746031746028,19.75806451612903,1258500.0,9112.0,0.0,1.0,0.0,?,0.0,0.0
4300000.0,6.96875,1.8728004458049933E-7,4300000.0,58.099999999999994,18.43932976205306,16.199999999999992,7.300884955752195,1288500.0,9112.0,0.0,1.0,0.0,?,0.0,0.0
4400000.0,7.140625,1.9275411937592758E-7,4400000.0,59.8,20.805966738506026,17.622950819672127,15.010570824524303,1318500.0,9112.0,0.0,1.0,0.0,?,0.0,0.0
4500000.0,7.296875,1.971200173203316E-7,4500000.0,56.99999999999999,14.614773629864972,13.99999999999999,10.416666666666654,1348500.0,9208.0,0.0,1.0,0.0,?,0.0,0.0
4600000.0,7.453125,2.0087150106620456E-7,4600000.0,55.60000000000001,10.485675692022339,11.729622266401602,14.119922630560941,1378500.0,9208.0,0.0,1.0,0.0,?,0.0,0.0
4700000.0,7.625,2.0432227756828067E-7,4700000.0,51.7,3.822411966642505,6.576402321083178,1.6293279022403275,1408500.0,9208.0,0.0,1.0,0.0,?,0.0,0.0
4800000.0,7.78125,2.0684493291709156E-7,4800000.0,53.5,8.061339892283485,2.7196652719665297,-0.4319654427645792,1438500.0,9208.0,0.0,1.0,0.0,?,0.0,0.0
4900000.0,7.953125,2.0893972962059906E-7,4900000.0,60.699999999999996,21.28476088994288,21.713147410358562,21.713147410358562,1468500.0,9112.0,0.0,1.0,0.0,?,0.0,0.0
5000000.0,8.109375,2.103231316949758E-7,5000000.0,57.49999999999999,15.527782415468149,12.90983606557376,13.087934560327188,1498500.0,9112.0,0.0,1.0,0.0,?,0.0,0.0
5100000.0,8.265625,2.1724240569811727E-7,5100000.0,55.1,7.670162451161835,4.264392324093821,0.22222222222222243,1528200.0,9112.0,0.0,1.0,0.0,?,0.0,0.0
5200000.0,8.421875,2.2354726550272768E-7,5200000.0,53.400000000000006,3.7225888293410536,5.284552845528459,-6.1503416856492095,1558200.0,9112.0,0.0,1.0,0.0,?,0.0,0.0
5300000.0,8.578125,2.2923771110880703E-7,5300000.0,50.4,-1.6693450526384916,-3.983228511530402,-8.771929824561413,1588200.0,9112.0,0.0,1.0,0.0,?,0.0,0.0
5400000.0,8.75,2.3482134565711018E-7,5400000.0,55.2,7.047385085254987,6.666666666666673,-4.428904428904406,1618200.0,9112.0,0.0,1.0,0.0,?,0.0,0.0
5500000.0,8.90625,2.3928296286612746E-7,5500000.0,52.400000000000006,2.8349336991312106,-1.2765957446808522,-1.7094017094017109,1648200.0,9112.0,0.0,1.0,0.0,?,0.0,0.0
5600000.0,9.078125,2.4351488617766233E-7,5600000.0,53.300000000000004,4.008221993833497,5.465587044534418,-3.7777777777777812,1678200.0,9112.0,0.0,1.0,0.0,?,0.0,0.0
5700000.0,9.234375,2.4674767498961754E-7,5700000.0,51.9,0.44788105074052376,0.8247422680412378,-9.567198177676547,1708200.0,9112.0,0.0,1.0,0.0,?,0.0,0.0
5800000.0,9.390625,2.493660496030417E-7,5800000.0,51.9,0.28194709345717467,-1.906779661016951,-9.318181818181829,1738200.0,9112.0,0.0,1.0,0.0,?,0.0,0.0
5900000.0,9.5625,2.515704060594241E-7,5900000.0,51.1,-1.496923958255521,1.0121457489878551,-10.633484162895938,1768200.0,9112.0,0.0,1.0,0.0,?,0.0,0.0
6000000.0,9.71875,2.5295995227578614E-7,6000000.0,54.2,6.303829268392478,8.032128514056232,-1.1037527593818997,1798200.0,9112.0,0.0,1.0,0.0,?,0.0,0.0
6100000.0,9.875,2.598853704209129E-7,6100000.0,52.400000000000006,2.3629799803084954,4.609218436873752,-5.309734513274342,1827900.0,9112.0,0.0,1.0,0.0,?,0.0,0.0
6200000.0,10.03125,2.6619637436750866E-7,6200000.0,53.300000000000004,4.681427778322059,3.7113402061855707,-0.8639308855291584,1857900.0,9112.0,0.0,1.0,0.0,?,0.0,0.0
6300000.0,10.203125,2.724626230903798E-7,6300000.0,55.900000000000006,10.063873004478465,14.202334630350208,4.545454545454549,1887900.0,9112.0,0.0,1.0,0.0,?,0.0,0.0
6400000.0,10.359375,2.7754479863991346E-7,6400000.0,53.900000000000006,4.189874470030751,7.429718875502014,-4.772727272727278,1917900.0,9112.0,0.0,1.0,0.0,?,0.0,0.0
6500000.0,10.53125,2.824593361260163E-7,6500000.0,52.400000000000006,1.5813153367738495,2.85714285714286,-7.207207207207214,1947900.0,9112.0,0.0,1.0,0.0,?,0.0,0.0
6600000.0,10.6875,2.8631268327848783E-7,6600000.0,54.900000000000006,5.102178231155112,-1.5765765765765782,-10.268948655256704,1977900.0,9112.0,0.0,1.0,0.0,?,0.0,0.0
6700000.0,10.84375,2.895516162324283E-7,6700000.0,55.00000000000001,6.907466021225105,2.3861171366594385,-1.1235955056179787,2007900.0,9112.0,0.0,1.0,0.0,?,0.0,0.0
6800000.0,11.0,2.9217613498783774E-7,6800000.0,55.2,7.266344306815929,8.384458077709619,-3.2258064516128804,2037900.0,9112.0,0.0,1.0,0.0,?,0.0,0.0
6900000.0,11.15625,2.9418623954471617E-7,6900000.0,53.900000000000006,4.36875077791148,3.5564853556485385,-6.960556844547544,2067900.0,9112.0,0.0,1.0,0.0,?,0.0,0.0
7000000.0,11.328125,2.9572149893889826E-7,7000000.0,52.5,1.9810152703260304,5.000000000000004,-6.741573033707872,2097900.0,9112.0,0.0,1.0,0.0,?,0.0,0.0
7100000.0,11.46875,3.0195990499729914E-7,7100000.0,54.50000000000001,5.74402147793376,12.835249042145605,-5.324074074074052,2127600.0,9112.0,0.0,1.0,0.0,?,0.0,0.0
7200000.0,11.625,3.0827705308588015E-7,7200000.0,54.300000000000004,5.609715796430925,8.232931726907639,-2.696629213483149,2157600.0,9112.0,0.0,1.0,0.0,?,0.0,0.0
7300000.0,11.796875,3.145500603649351E-7,7300000.0,52.5,3.211345667943597,3.84615384615385,-1.713062098501072,2187600.0,9112.0,0.0,1.0,0.0,?,0.0,0.0
7400000.0,11.953125,3.196383800564541E-7,7400000.0,52.0,0.8284952790231748,3.2258064516129057,-10.344827586206879,2217600.0,9112.0,0.0,1.0,0.0,?,0.0,0.0
7500000.0,12.125,3.245596760987408E-7,7500000.0,53.5,4.143475572047002,2.9227557411273515,-3.3333333333333366,2247600.0,9112.0,0.0,1.0,0.0,?,0.0,0.0
7600000.0,12.28125,3.2841916739319764E-7,7600000.0,52.400000000000006,2.1498258842489935,2.0576131687242816,-8.428246013667435,2277600.0,9112.0,0.0,1.0,0.0,?,0.0,0.0
7700000.0,12.453125,3.31988752198716E-7,7700000.0,54.0,5.064989206302046,4.5643153526971,-4.3083900226757414,2307600.0,9112.0,0.0,1.0,0.0,?,0.0,0.0
7800000.0,12.609375,3.346194150961108E-7,7800000.0,51.300000000000004,-1.8615352436728758,-0.828157349896481,-14.051522248243545,2337600.0,9112.0,0.0,1.0,0.0,?,0.0,0.0
7900000.0,12.75,3.3643403892508813E-7,7900000.0,52.900000000000006,4.293192015085514,8.720930232558146,-0.6410256410256416,2367600.0,9112.0,0.0,1.0,0.0,?,0.0,0.0
8000000.0,12.921875,3.379760568754541E-7,8000000.0,51.9,0.8051078151551686,-3.887688984881213,-7.126948775055686,2397600.0,9112.0,0.0,1.0,0.0,?,0.0,0.0
8100000.0,13.078125,3.4491376330455147E-7,8100000.0,56.10000000000001,9.692336808498393,14.25781250000001,4.772234273318877,2427300.0,9112.0,0.0,1.0,0.0,?,0.0,0.0
8200000.0,13.25,3.5186938475817446E-7,8200000.0,55.50000000000001,7.630355363666559,10.642570281124506,-0.45146726862302533,2457300.0,9112.0,0.0,1.0,0.0,?,0.0,0.0
8300000.0,13.40625,3.5757826279020974E-7,8300000.0,52.0,0.9770266701874984,4.0000000000000036,-12.149532710280358,2487300.0,9112.0,0.0,1.0,0.0,?,0.0,0.0
8400000.0,13.578125,3.631821730070644E-7,8400000.0,54.50000000000001,4.71523467276491,6.76229508196722,-7.56501182033095,2517300.0,9112.0,0.0,1.0,0.0,?,0.0,0.0
8500000.0,13.734375,3.676622226420376E-7,8500000.0,56.00000000000001,9.31574608408904,13.894324853228976,2.2222222222222245,2547300.0,9112.0,0.0,1.0,0.0,?,0.0,0.0
8600000.0,13.90625,3.71914421622124E-7,8600000.0,54.2,5.568178537997463,9.486166007905146,-1.552106430155212,2577300.0,9112.0,0.0,1.0,0.0,?,0.0,0.0
8700000.0,14.0625,3.751656428600351E-7,8700000.0,52.0,1.755305213518476,3.6144578313253044,-4.803493449781664,2607300.0,9112.0,0.0,1.0,0.0,?,0.0,0.0
8800000.0,14.21875,3.778024498994152E-7,8800000.0,50.9,-1.1328527291452006,-4.025423728813563,-11.085972850678743,2637300.0,9112.0,0.0,1.0,0.0,?,0.0,0.0
8900000.0,14.390625,3.800270820243491E-7,8900000.0,55.400000000000006,8.280652975943212,12.03155818540435,-2.059496567505697,2667300.0,9112.0,0.0,1.0,0.0,?,0.0,0.0
9000000.0,14.546875,3.814350606666671E-7,9000000.0,53.800000000000004,4.9570455218722245,6.854838709677426,-1.315789473684212,2697300.0,9112.0,0.0,1.0,0.0,?,0.0,0.0
9100000.0,14.703125,3.883789112377498E-7,9100000.0,54.50000000000001,6.358562326094459,10.433070866141742,0.43763676148796543,2727000.0,9112.0,0.0,1.0,0.0,?,0.0,0.0
9200000.0,14.875,3.953412912475566E-7,9200000.0,53.6,5.228758169934654,7.753479125248516,-0.8695652173913052,2757000.0,9112.0,0.0,1.0,0.0,?,0.0,0.0
9300000.0,15.046875,4.016278156389793E-7,9300000.0,51.300000000000004,1.926825731823239,1.2170385395537535,0.20491803278688542,2787000.0,9112.0,0.0,1.0,0.0,?,0.0,0.0
9400000.0,15.203125,4.0672842361446887E-7,9400000.0,54.1,5.536118542910072,10.176125244618405,-2.000000000000002,2817000.0,9112.0,0.0,1.0,0.0,?,0.0,0.0
9500000.0,15.359375,4.112146173914274E-7,9500000.0,57.099999999999994,10.939679798046893,9.493670886075934,1.6055045871559643,2847000.0,9112.0,0.0,1.0,0.0,?,0.0,0.0
9600000.0,15.53125,4.154735749276976E-7,9600000.0,55.00000000000001,7.696094519199212,8.722109533468569,2.173913043478263,2877000.0,9112.0,0.0,1.0,0.0,?,0.0,0.0
9700000.0,15.703125,4.190296426208483E-7,9700000.0,57.4,5.252903575924433,9.168443496801691,-1.670644391408116,1283.0,9208.0,0.0,1.0,0.0,?,2.0,11.0
9800000.0,15.859375,4.216929664835334E-7,9800000.0,56.10000000000001,14.287945644109499,12.375249500998015,0.6787330316742088,31283.0,9208.0,0.0,1.0,0.0,?,0.0,58.0
9900000.0,16.046875,4.2415165808051824E-7,9900000.0,64.3,30.076230619168125,27.732793522267208,19.230769230769226,61283.0,9208.0,0.0,1.0,0.0,?,0.0,0.0
1.0E7,16.21875,4.2572960309270355E-7,1.0E7,64.3,30.367006834566045,26.84426229508197,18.67881548974942,91283.0,9208.0,0.0,1.0,0.0,?,0.0,0.0
