learning evaluation instances,evaluation time (cpu seconds),model cost (RAM-Hours),classified instances,classifications correct (percent),Kappa Statistic (percent),Kappa Temporal Statistic (percent),Kappa M Statistic (percent),model training instances,model serialized size (bytes),labeling cost,newThreshold,maxPosterior,accuracyBaseLearner (percent),Change detected,Warning detected,tree size (nodes),tree size (leaves),active learning leaves,tree depth,active leaf byte size estimate,inactive leaf byte size estimate,byte size estimate overhead
100000.0,0.46875,3.0340743251144886E-8,100000.0,73.4,46.80702147316554,46.26262626262626,46.478873239436616,19800.0,68888.0,0.0,1.0,0.0,?,0.0,0.0,22.0,16.0,16.0,2.0,0.0,0.0,1.0
200000.0,0.953125,6.63081947196689E-8,200000.0,75.4,50.81888554794959,49.27835051546391,49.48665297741273,39800.0,120768.0,0.0,1.0,0.0,?,0.0,0.0,45.0,32.0,32.0,4.0,0.0,0.0,1.0
300000.0,1.421875,1.0275880211136408E-7,300000.0,80.7,61.21039641768967,62.007874015748044,57.395143487858725,59800.0,149424.0,0.0,1.0,0.0,?,0.0,0.0,52.0,37.0,37.0,4.0,0.0,0.0,1.0
400000.0,1.890625,1.522663579736319E-7,400000.0,82.3,64.59291858371672,66.41366223908918,64.24242424242424,79800.0,271816.0,0.0,1.0,0.0,?,0.0,0.0,96.0,65.0,65.0,5.0,0.0,0.0,1.0
500000.0,2.34375,2.0207426536621318E-7,500000.0,82.69999999999999,65.36037226587214,65.12096774193547,63.807531380753126,99800.0,303536.0,0.0,1.0,0.0,?,0.0,0.0,109.0,73.0,73.0,5.0,0.0,0.0,1.0
600000.0,2.828125,2.6309933875583937E-7,600000.0,81.6,63.060664827730186,62.37218813905929,60.68376068376067,119800.0,380616.0,0.0,1.0,0.0,?,0.0,0.0,137.0,93.0,93.0,5.0,0.0,0.0,1.0
700000.0,3.328125,3.444265651827057E-7,700000.0,85.8,71.59147744323296,72.37354085603113,70.72164948453607,139800.0,537048.0,0.0,1.0,0.0,?,0.0,0.0,185.0,126.0,126.0,5.0,0.0,0.0,1.0
800000.0,3.859375,4.482656691430343E-7,800000.0,85.5,70.8699635171405,71.62426614481409,67.34234234234233,159800.0,678592.0,0.0,1.0,0.0,?,0.0,0.0,237.0,161.0,161.0,6.0,0.0,0.0,1.0
900000.0,4.421875,5.737555653063787E-7,900000.0,86.4,72.77386290839205,72.74549098196393,71.42857142857143,179800.0,800208.0,0.0,1.0,0.0,?,0.0,0.0,285.0,194.0,194.0,6.0,0.0,0.0,1.0
1000000.0,4.9375,6.929775635297926E-7,1000000.0,86.9,73.79077435257211,72.65135699373695,74.31372549019608,199800.0,846608.0,0.0,1.0,0.0,?,0.0,0.0,300.0,203.0,203.0,6.0,0.0,0.0,1.0
1100000.0,5.46875,8.390179330793518E-7,1100000.0,88.1,76.19676275973532,76.3888888888889,76.7578125,219600.0,878328.0,0.0,1.0,0.0,?,0.0,0.0,312.0,209.0,209.0,6.0,0.0,0.0,1.0
1200000.0,6.015625,9.908826905302702E-7,1200000.0,87.8,75.61404630932583,75.69721115537848,75.20325203252033,239600.0,904192.0,0.0,1.0,0.0,?,0.0,0.0,324.0,215.0,215.0,6.0,0.0,0.0,1.0
1300000.0,6.578125,1.150411262642592E-6,1300000.0,88.5,76.98324380148749,76.57841140529533,75.32188841201717,259600.0,942040.0,0.0,1.0,0.0,?,0.0,0.0,345.0,227.0,227.0,6.0,0.0,0.0,1.0
1400000.0,7.109375,1.303447610957341E-6,1400000.0,87.6,75.215861848417,75.68627450980392,75.39682539682539,279600.0,974352.0,0.0,1.0,0.0,?,0.0,0.0,358.0,235.0,235.0,6.0,0.0,0.0,1.0
1500000.0,7.671875,1.4691264045217798E-6,1500000.0,89.2,78.4133837021047,78.13765182186235,76.97228144989339,299600.0,1014400.0,0.0,1.0,0.0,?,0.0,0.0,371.0,243.0,243.0,6.0,0.0,0.0,1.0
1600000.0,8.25,1.6493131341930064E-6,1600000.0,86.6,73.19410270259456,73.77690802348337,72.19917012448133,319600.0,1095496.0,0.0,1.0,0.0,?,0.0,0.0,408.0,266.0,266.0,6.0,0.0,0.0,1.0
1700000.0,8.8125,1.8268383509065542E-6,1700000.0,89.8,79.588978048146,79.51807228915662,79.64071856287426,339600.0,1125728.0,0.0,1.0,0.0,?,0.0,0.0,416.0,270.0,270.0,7.0,0.0,0.0,1.0
1800000.0,9.359375,2.0012386893439623E-6,1800000.0,89.9,79.80000000000001,79.5959595959596,79.26078028747435,359600.0,1153552.0,0.0,1.0,0.0,?,0.0,0.0,428.0,276.0,276.0,7.0,0.0,0.0,1.0
1900000.0,9.921875,2.1857255423027607E-6,1900000.0,89.9,79.79806061381893,79.88047808764941,78.8702928870293,379600.0,1203680.0,0.0,1.0,0.0,?,0.0,0.0,449.0,291.0,291.0,7.0,0.0,0.0,1.0
2000000.0,10.5,2.3783713307542104E-6,2000000.0,90.5,80.89484522813567,80.96192384769539,79.21225382932167,399600.0,1239056.0,0.0,1.0,0.0,?,0.0,0.0,467.0,303.0,303.0,7.0,0.0,0.0,1.0
2100000.0,11.0625,2.597987671227505E-6,2100000.0,89.2,78.39213473704429,79.1907514450867,77.82340862422998,419400.0,1322936.0,0.0,1.0,0.0,?,0.0,0.0,499.0,325.0,325.0,7.0,0.0,0.0,1.0
2200000.0,11.65625,2.836790808942169E-6,2200000.0,89.4,78.80890026189002,78.75751503006012,77.8705636743215,439400.0,1383384.0,0.0,1.0,0.0,?,0.0,0.0,519.0,338.0,338.0,7.0,0.0,0.0,1.0
2300000.0,12.21875,3.068371152039617E-6,2300000.0,90.60000000000001,81.06709097867027,81.42292490118578,79.60954446854664,459400.0,1435096.0,0.0,1.0,0.0,?,0.0,0.0,534.0,347.0,347.0,7.0,0.0,0.0,1.0
2400000.0,12.828125,3.3240158033246793E-6,2400000.0,88.3,76.55536140812107,77.67175572519083,75.21186440677965,479400.0,1480424.0,0.0,1.0,0.0,?,0.0,0.0,560.0,366.0,366.0,7.0,0.0,0.0,1.0
2500000.0,13.4375,3.584314157099773E-6,2500000.0,89.9,79.80048478836508,81.3308687615527,79.26078028747435,499400.0,1525008.0,0.0,1.0,0.0,?,0.0,0.0,583.0,382.0,382.0,7.0,0.0,0.0,1.0
2600000.0,14.046875,3.854891013664504E-6,2600000.0,90.10000000000001,80.1990495543786,80.0,80.08048289738431,519400.0,1605104.0,0.0,1.0,0.0,?,0.0,0.0,601.0,394.0,394.0,7.0,0.0,0.0,1.0
2700000.0,14.65625,4.132776327120761E-6,2700000.0,90.8,81.60625387368296,81.52610441767068,80.95238095238095,539400.0,1666432.0,0.0,1.0,0.0,?,0.0,0.0,621.0,407.0,407.0,7.0,0.0,0.0,1.0
2800000.0,15.296875,4.433255687925137E-6,2800000.0,90.0,79.84683595324466,79.7160243407708,77.77777777777779,559400.0,1731752.0,0.0,1.0,0.0,?,0.0,0.0,646.0,424.0,424.0,7.0,0.0,0.0,1.0
2900000.0,15.90625,4.721311043896195E-6,2900000.0,90.3,80.59720599766366,81.1284046692607,80.12295081967213,579400.0,1760968.0,0.0,1.0,0.0,?,0.0,0.0,656.0,429.0,429.0,7.0,0.0,0.0,1.0
3000000.0,16.53125,5.020371657640984E-6,3000000.0,91.0,81.94040333099228,81.32780082987553,80.72805139186296,599400.0,1798376.0,0.0,1.0,0.0,?,0.0,0.0,675.0,440.0,440.0,7.0,0.0,0.0,1.0
3100000.0,17.15625,5.347018822148029E-6,3100000.0,90.60000000000001,81.18848735426081,81.64062500000001,80.53830227743272,619200.0,1831896.0,0.0,1.0,0.0,?,0.0,0.0,690.0,449.0,449.0,7.0,0.0,0.0,1.0
3200000.0,17.796875,5.689974156363557E-6,3200000.0,90.9,81.7994175813626,81.76352705410822,81.98019801980199,639200.0,1896032.0,0.0,1.0,0.0,?,0.0,0.0,711.0,464.0,464.0,7.0,0.0,0.0,1.0
3300000.0,18.4375,6.043928668886009E-6,3300000.0,91.0,81.9621204529512,81.4814814814815,81.32780082987553,659200.0,1977280.0,0.0,1.0,0.0,?,0.0,0.0,744.0,485.0,485.0,7.0,0.0,0.0,1.0
3400000.0,19.078125,6.407433215321766E-6,3400000.0,90.9,81.81120429815235,81.39059304703477,81.39059304703477,679200.0,2049880.0,0.0,1.0,0.0,?,0.0,0.0,765.0,500.0,500.0,7.0,0.0,0.0,1.0
3500000.0,19.6875,6.7577573807082245E-6,3500000.0,90.4,80.68278312802084,80.16528925619835,79.08496732026144,699200.0,2093784.0,0.0,1.0,0.0,?,0.0,0.0,778.0,508.0,508.0,7.0,0.0,0.0,1.0
3600000.0,20.3125,7.119096311119696E-6,3600000.0,90.3,80.5967402523624,80.24439918533605,79.83367983367984,719200.0,2121424.0,0.0,1.0,0.0,?,0.0,0.0,786.0,512.0,512.0,7.0,0.0,0.0,1.0
3700000.0,20.953125,7.493246036271255E-6,3700000.0,91.5,82.87077714276502,83.03393213572855,81.4814814814815,739200.0,2159264.0,0.0,1.0,0.0,?,0.0,0.0,799.0,520.0,520.0,7.0,0.0,0.0,1.0
3800000.0,21.578125,7.858477118942474E-6,3800000.0,90.3,80.60434462680361,80.40404040404042,80.28455284552845,759200.0,2175648.0,0.0,1.0,0.0,?,0.0,0.0,807.0,524.0,524.0,7.0,0.0,0.0,1.0
3900000.0,22.234375,8.25024785525683E-6,3900000.0,92.30000000000001,84.5688908840222,85.10638297872342,83.82352941176472,779200.0,2239368.0,0.0,1.0,0.0,?,0.0,0.0,836.0,543.0,543.0,7.0,0.0,0.0,1.0
4000000.0,22.875,8.636197566779124E-6,4000000.0,91.3,82.47550599458555,83.85899814471244,80.75221238938055,799200.0,2275536.0,0.0,1.0,0.0,?,0.0,0.0,848.0,549.0,549.0,7.0,0.0,0.0,1.0
4100000.0,23.515625,9.05236982766332E-6,4100000.0,91.2,82.35171429029826,82.7788649706458,80.95238095238095,819000.0,2320768.0,0.0,1.0,0.0,?,0.0,0.0,870.0,563.0,563.0,8.0,0.0,0.0,1.0
4200000.0,24.15625,9.468726380469486E-6,4200000.0,92.4,84.80018239781123,85.00986193293886,84.80000000000001,839000.0,2336984.0,0.0,1.0,0.0,?,0.0,0.0,882.0,569.0,569.0,8.0,0.0,0.0,1.0
4300000.0,24.828125,9.908542528541552E-6,4300000.0,91.3,82.59638004704979,82.56513026052104,82.13552361396304,859000.0,2370176.0,0.0,1.0,0.0,?,0.0,0.0,893.0,576.0,576.0,8.0,0.0,0.0,1.0
4400000.0,25.484375,1.0339109640982417E-5,4400000.0,93.89999999999999,87.79677834948426,88.13229571984435,88.44696969696969,879000.0,2391040.0,0.0,1.0,0.0,?,0.0,0.0,899.0,579.0,579.0,8.0,0.0,0.0,1.0
4500000.0,26.15625,1.0783620172231977E-5,4500000.0,91.5,82.98775118085022,83.36594911937378,82.93172690763053,899000.0,2427336.0,0.0,1.0,0.0,?,0.0,0.0,910.0,586.0,586.0,8.0,0.0,0.0,1.0
4600000.0,26.828125,1.1228942765026458E-5,4600000.0,90.60000000000001,81.20488672945034,81.23752495009981,81.0483870967742,919000.0,2447064.0,0.0,1.0,0.0,?,0.0,0.0,926.0,594.0,594.0,8.0,0.0,0.0,1.0
4700000.0,27.484375,1.1665059395858812E-5,4700000.0,92.30000000000001,84.59876790143213,85.71428571428574,83.89121338912135,939000.0,2468960.0,0.0,1.0,0.0,?,0.0,0.0,937.0,601.0,601.0,8.0,0.0,0.0,1.0
4800000.0,28.1875,1.2134217508395929E-5,4800000.0,93.89999999999999,87.79804768763,87.99212598425196,87.60162601626014,959000.0,2494496.0,0.0,1.0,0.0,?,0.0,0.0,949.0,610.0,610.0,8.0,0.0,0.0,1.0
4900000.0,28.875,1.2595273405572195E-5,4900000.0,93.30000000000001,86.52486263404747,86.70634920634922,85.40305010893248,979000.0,2522664.0,0.0,1.0,0.0,?,0.0,0.0,956.0,615.0,615.0,8.0,0.0,0.0,1.0
5000000.0,29.5625,1.3059119519311936E-5,5000000.0,91.4,82.72120871172547,83.17025440313112,81.9706498951782,999000.0,2551112.0,0.0,1.0,0.0,?,0.0,0.0,971.0,624.0,624.0,8.0,0.0,0.0,1.0
5100000.0,30.453125,1.3151607903031012E-5,5100000.0,83.8,67.50902527075812,67.27272727272727,66.93877551020407,18750.0,216680.0,0.0,1.0,0.0,?,1.0,1.0,72.0,56.0,56.0,3.0,0.0,0.0,1.0
5200000.0,30.9375,1.3220064251476693E-5,5200000.0,91.3,82.51481216486724,81.25000000000001,81.52866242038218,38750.0,376296.0,0.0,1.0,0.0,?,0.0,0.0,122.0,93.0,93.0,4.0,0.0,0.0,1.0
5300000.0,31.453125,1.3316399288467237E-5,5300000.0,93.4,86.71925305859628,86.07594936708863,85.71428571428572,58750.0,566760.0,0.0,1.0,0.0,?,0.0,0.0,200.0,147.0,147.0,5.0,0.0,0.0,1.0
5400000.0,31.9375,1.3418374065723686E-5,5400000.0,94.6,89.19502971366828,89.00203665987779,89.04665314401622,78750.0,673160.0,0.0,1.0,0.0,?,0.0,0.0,232.0,169.0,169.0,5.0,0.0,0.0,1.0
5500000.0,32.375,1.3513429374951458E-5,5500000.0,95.1,90.16459253311922,90.42968749999999,89.68421052631578,98750.0,714192.0,0.0,1.0,0.0,?,0.0,0.0,248.0,177.0,177.0,5.0,0.0,0.0,1.0
5600000.0,32.828125,1.3614022367013E-5,5600000.0,96.7,93.39762314433196,93.78531073446327,93.09623430962343,118750.0,747528.0,0.0,1.0,0.0,?,0.0,0.0,263.0,186.0,186.0,6.0,0.0,0.0,1.0
5700000.0,33.28125,1.3716643799044608E-5,5700000.0,96.6,93.15407755222029,92.96066252587991,92.62472885032538,138750.0,779904.0,0.0,1.0,0.0,?,0.0,0.0,274.0,193.0,193.0,6.0,0.0,0.0,1.0
5800000.0,33.734375,1.3818005778981996E-5,5800000.0,95.3,90.49121955167111,90.52419354838709,89.438202247191,158750.0,784336.0,0.0,1.0,0.0,?,0.0,0.0,276.0,194.0,194.0,6.0,0.0,0.0,1.0
5900000.0,34.15625,1.391155131083603E-5,5900000.0,96.7,93.39767598194564,93.84328358208953,92.84164859002169,178750.0,791920.0,0.0,1.0,0.0,?,0.0,0.0,280.0,196.0,196.0,6.0,0.0,0.0,1.0
6000000.0,34.609375,1.401203833261712E-5,6000000.0,96.1,92.1992511281083,92.23107569721115,92.07317073170731,198750.0,807168.0,0.0,1.0,0.0,?,0.0,0.0,289.0,202.0,202.0,6.0,0.0,0.0,1.0
6100000.0,35.0625,1.413137305967717E-5,6100000.0,96.89999999999999,93.7908601461351,93.81237524950099,93.50104821802935,218550.0,830912.0,0.0,1.0,0.0,?,0.0,0.0,298.0,208.0,208.0,6.0,0.0,0.0,1.0
6200000.0,35.515625,1.4253114156114561E-5,6200000.0,96.2,92.36674956108808,92.54901960784314,91.86295503211991,238550.0,866512.0,0.0,1.0,0.0,?,0.0,0.0,316.0,220.0,220.0,6.0,0.0,0.0,1.0
6300000.0,36.0,1.4387457534515613E-5,6300000.0,96.89999999999999,93.76182235279913,93.48739495798318,93.68635437881873,258550.0,915064.0,0.0,1.0,0.0,?,0.0,0.0,333.0,230.0,230.0,6.0,0.0,0.0,1.0
6400000.0,36.46875,1.4520696810601903E-5,6400000.0,96.5,92.9991598991879,92.87169042769857,93.08300395256917,278550.0,956696.0,0.0,1.0,0.0,?,0.0,0.0,354.0,242.0,242.0,6.0,0.0,0.0,1.0
6500000.0,36.9375,1.4654956661009544E-5,6500000.0,96.6,93.19999999999999,92.96066252587991,93.1726907630522,298550.0,980176.0,0.0,1.0,0.0,?,0.0,0.0,364.0,247.0,247.0,7.0,0.0,0.0,1.0
6600000.0,37.421875,1.4795246663399873E-5,6600000.0,98.2,96.38705119147023,96.49122807017544,96.1864406779661,318550.0,1007640.0,0.0,1.0,0.0,?,0.0,0.0,383.0,258.0,258.0,7.0,0.0,0.0,1.0
6700000.0,37.90625,1.493851699504174E-5,6700000.0,97.39999999999999,94.79200051278764,94.84126984126983,94.62809917355372,338550.0,1046384.0,0.0,1.0,0.0,?,0.0,0.0,403.0,268.0,268.0,7.0,0.0,0.0,1.0
6800000.0,38.375,1.5078970140570573E-5,6800000.0,97.5,94.97467234863713,95.06903353057199,94.70338983050847,358550.0,1076328.0,0.0,1.0,0.0,?,0.0,0.0,416.0,276.0,276.0,7.0,0.0,0.0,1.0
6900000.0,38.859375,1.5224626339558103E-5,6900000.0,97.1,94.19317116929508,94.25742574257426,94.03292181069959,378550.0,1095568.0,0.0,1.0,0.0,?,0.0,0.0,426.0,281.0,281.0,7.0,0.0,0.0,1.0
7000000.0,39.34375,1.5369660007612163E-5,7000000.0,97.3,94.59969758306464,94.66403162055336,94.27966101694915,398550.0,1105736.0,0.0,1.0,0.0,?,0.0,0.0,434.0,285.0,285.0,8.0,0.0,0.0,1.0
7100000.0,39.8125,1.5528027530914798E-5,7100000.0,96.5,92.99725492393017,93.13725490196077,92.90060851926977,418350.0,1117248.0,0.0,1.0,0.0,?,0.0,0.0,440.0,288.0,288.0,8.0,0.0,0.0,1.0
7200000.0,40.28125,1.568641930740948E-5,7200000.0,97.3,94.59848757652142,94.64285714285714,94.46721311475409,438350.0,1132600.0,0.0,1.0,0.0,?,0.0,0.0,447.0,293.0,293.0,8.0,0.0,0.0,1.0
7300000.0,40.75,1.5843400518254695E-5,7300000.0,97.2,94.3107932379714,94.331983805668,93.69369369369369,458350.0,1136136.0,0.0,1.0,0.0,?,0.0,0.0,451.0,295.0,295.0,8.0,0.0,0.0,1.0
7400000.0,41.21875,1.5999869501683867E-5,7400000.0,96.8,93.59331141711947,93.48268839103869,93.48268839103869,478350.0,1147040.0,0.0,1.0,0.0,?,0.0,0.0,457.0,298.0,298.0,8.0,0.0,0.0,1.0
7500000.0,41.703125,1.6161689450705636E-5,7500000.0,97.89999999999999,95.79899175802193,95.82504970178925,95.77464788732394,498350.0,1163264.0,0.0,1.0,0.0,?,0.0,0.0,466.0,304.0,304.0,8.0,0.0,0.0,1.0
7600000.0,42.203125,1.6329164015284433E-5,7600000.0,96.89999999999999,93.75669644655329,93.6082474226804,93.17180616740087,518350.0,1181744.0,0.0,1.0,0.0,?,0.0,0.0,477.0,311.0,311.0,8.0,0.0,0.0,1.0
7700000.0,42.6875,1.649217288811795E-5,7700000.0,96.5,92.98467853792683,92.72349272349271,92.81314168377823,538350.0,1202976.0,0.0,1.0,0.0,?,0.0,0.0,488.0,318.0,318.0,8.0,0.0,0.0,1.0
7800000.0,43.171875,1.6652804915793244E-5,7800000.0,97.7,95.37981904960868,95.51656920077973,95.12711864406779,558350.0,1199208.0,0.0,1.0,0.0,?,0.0,0.0,492.0,320.0,320.0,8.0,0.0,0.0,1.0
7900000.0,43.65625,1.6812041511810907E-5,7900000.0,97.0,94.00107980563497,94.11764705882352,93.91480730223122,578350.0,1203224.0,0.0,1.0,0.0,?,0.0,0.0,500.0,324.0,324.0,8.0,0.0,0.0,1.0
8000000.0,44.125,1.69656059329605E-5,8000000.0,97.5,94.94679990944664,95.06903353057199,94.4812362030905,598350.0,1213968.0,0.0,1.0,0.0,?,0.0,0.0,509.0,330.0,330.0,8.0,0.0,0.0,1.0
8100000.0,44.59375,1.7138035457012144E-5,8100000.0,97.39999999999999,94.76785369309034,94.78957915831663,94.44444444444444,618150.0,1232512.0,0.0,1.0,0.0,?,0.0,0.0,518.0,336.0,336.0,8.0,0.0,0.0,1.0
8200000.0,45.0625,1.7308775018641936E-5,8200000.0,97.2,94.32998667546867,94.238683127572,93.79157427937915,638150.0,1233768.0,0.0,1.0,0.0,?,0.0,0.0,520.0,337.0,337.0,8.0,0.0,0.0,1.0
8300000.0,45.546875,1.748377137118951E-5,8300000.0,97.1,94.1992110927086,94.14141414141413,94.05737704918032,658150.0,1237496.0,0.0,1.0,0.0,?,0.0,0.0,522.0,338.0,338.0,8.0,0.0,0.0,1.0
8400000.0,46.03125,1.765686704958272E-5,8400000.0,96.89999999999999,93.79195437286722,93.90962671905697,93.64754098360655,678150.0,1237528.0,0.0,1.0,0.0,?,0.0,0.0,522.0,338.0,338.0,8.0,0.0,0.0,1.0
8500000.0,46.515625,1.7829009383502938E-5,8500000.0,96.89999999999999,93.79071090351165,93.4322033898305,93.66053169734151,698150.0,1245072.0,0.0,1.0,0.0,?,0.0,0.0,526.0,340.0,340.0,8.0,0.0,0.0,1.0
8600000.0,46.984375,1.799414645776981E-5,8600000.0,97.1,94.18655932515976,94.5179584120983,93.98340248962656,718150.0,1248272.0,0.0,1.0,0.0,?,0.0,0.0,528.0,341.0,341.0,8.0,0.0,0.0,1.0
8700000.0,47.46875,1.8163449810041738E-5,8700000.0,96.8,93.55833531280321,93.4020618556701,93.14775160599571,738150.0,1252760.0,0.0,1.0,0.0,?,0.0,0.0,532.0,343.0,343.0,8.0,0.0,0.0,1.0
8800000.0,47.921875,1.8320560597607663E-5,8800000.0,96.7,93.35882471322196,93.25153374233128,92.9637526652452,758150.0,1257104.0,0.0,1.0,0.0,?,0.0,0.0,534.0,344.0,344.0,8.0,0.0,0.0,1.0
8900000.0,48.40625,1.8487083111217044E-5,8900000.0,96.8,93.60232875233415,93.71316306483301,93.76218323586744,778150.0,1260920.0,0.0,1.0,0.0,?,0.0,0.0,536.0,345.0,345.0,8.0,0.0,0.0,1.0
9000000.0,48.875,1.8646782619826913E-5,9000000.0,97.0,93.98737348431706,93.92712550607287,93.87755102040816,798150.0,1264128.0,0.0,1.0,0.0,?,0.0,0.0,538.0,346.0,346.0,8.0,0.0,0.0,1.0
9100000.0,49.359375,1.8828926549758765E-5,9100000.0,96.39999999999999,92.72724334239733,92.5311203319502,91.98218262806235,817950.0,1263800.0,0.0,1.0,0.0,?,0.0,0.0,540.0,347.0,347.0,8.0,0.0,0.0,1.0
9200000.0,49.84375,1.9009595853276554E-5,9200000.0,96.39999999999999,92.77456647398843,92.38900634249471,92.5,837950.0,1267200.0,0.0,1.0,0.0,?,0.0,0.0,544.0,349.0,349.0,8.0,0.0,0.0,1.0
9300000.0,50.3125,1.9182262088482583E-5,9300000.0,96.0,91.98383942027127,91.47121535181236,91.76954732510288,857950.0,1264496.0,0.0,1.0,0.0,?,0.0,0.0,551.0,354.0,354.0,8.0,0.0,0.0,1.0
9400000.0,50.765625,1.9347796106659294E-5,9400000.0,97.1,94.18497397274557,94.11764705882352,93.97089397089397,877950.0,1267920.0,0.0,1.0,0.0,?,0.0,0.0,555.0,356.0,356.0,8.0,0.0,0.0,1.0
9500000.0,51.25,1.9523844045276447E-5,9500000.0,96.6,93.19706113040833,93.3463796477495,93.44894026974951,897950.0,1275904.0,0.0,1.0,0.0,?,0.0,0.0,562.0,361.0,361.0,8.0,0.0,0.0,1.0
9600000.0,51.734375,1.9698401318035197E-5,9600000.0,96.0,91.94976654322974,92.04771371769384,91.48936170212765,917950.0,1279208.0,0.0,1.0,0.0,?,0.0,0.0,569.0,366.0,366.0,8.0,0.0,0.0,1.0
9700000.0,52.21875,1.987159824542081E-5,9700000.0,97.1,94.16381565707385,94.02061855670102,93.79014989293361,937950.0,1283528.0,0.0,1.0,0.0,?,0.0,0.0,571.0,367.0,367.0,8.0,0.0,0.0,1.0
9800000.0,52.65625,2.0026369958132926E-5,9800000.0,95.89999999999999,91.6938137145265,91.81636726546905,90.94922737306842,957950.0,1284024.0,0.0,1.0,0.0,?,0.0,0.0,571.0,367.0,367.0,8.0,0.0,0.0,1.0
9900000.0,53.109375,2.01848489814438E-5,9900000.0,96.1,92.16162330771456,92.3679060665362,91.80672268907563,977950.0,1283688.0,0.0,1.0,0.0,?,0.0,0.0,573.0,368.0,368.0,8.0,0.0,0.0,1.0
1.0E7,53.59375,2.03523238370609E-5,1.0E7,95.6,91.20759663650605,91.2524850894632,90.8902691511387,997950.0,1283448.0,0.0,1.0,0.0,?,0.0,0.0,575.0,369.0,369.0,8.0,0.0,0.0,1.0
