learning evaluation instances,evaluation time (cpu seconds),model cost (RAM-Hours),classified instances,classifications correct (percent),Kappa Statistic (percent),Kappa Temporal Statistic (percent),Kappa M Statistic (percent),model training instances,model serialized size (bytes),labeling cost,newThreshold,maxPosterior,accuracyBaseLearner (percent),Change detected,Warning detected
100000.0,0.09375,4.223935926953952E-9,100000.0,59.8,19.508239392907917,18.787878787878782,19.11468812877263,9900.0,9312.0,0.0,1.0,0.0,?,0.0,18.0
200000.0,0.203125,8.721771236095164E-9,200000.0,55.400000000000006,10.622675387969743,8.041237113402069,8.41889117043122,19900.0,9312.0,0.0,1.0,0.0,?,0.0,9.0
300000.0,0.328125,1.3407099888556535E-8,300000.0,56.599999999999994,11.519940632734349,14.566929133858258,4.194260485651194,29900.0,9312.0,0.0,1.0,0.0,?,0.0,22.0
400000.0,0.421875,1.6528194666736657E-8,400000.0,61.1,22.339788380914353,26.185958254269448,21.41414141414141,5398.0,9312.0,0.0,1.0,0.0,?,3.0,24.0
500000.0,0.53125,1.9735986522088448E-8,500000.0,62.0,23.4340243076824,23.387096774193548,20.5020920502092,3998.0,9312.0,0.0,1.0,0.0,?,1.0,7.0
600000.0,0.640625,2.2545379276076952E-8,600000.0,54.50000000000001,7.605958704940146,6.9529652351738305,2.7777777777777803,13998.0,9312.0,0.0,1.0,0.0,?,0.0,59.0
700000.0,0.75,2.4924682091093726E-8,700000.0,59.699999999999996,18.874305499637643,21.59533073929961,16.907216494845354,23998.0,9312.0,0.0,1.0,0.0,?,0.0,0.0
800000.0,0.84375,2.6595435984846618E-8,800000.0,56.10000000000001,11.06014684192614,14.090019569471638,1.1261261261261273,33998.0,9312.0,0.0,1.0,0.0,?,0.0,0.0
900000.0,0.953125,2.8107541665020915E-8,900000.0,55.7,10.515174040916603,11.222444889779569,6.932773109243703,43998.0,9312.0,0.0,1.0,0.0,?,0.0,16.0
1000000.0,1.0625,2.9168958361777994E-8,1000000.0,61.199999999999996,22.07427045048301,18.99791231732776,23.921568627450977,53998.0,9312.0,0.0,1.0,0.0,?,0.0,29.0
1100000.0,1.15625,3.340026725911432E-8,1100000.0,53.300000000000004,6.6530210840242825,7.341269841269847,8.789062500000007,63898.0,9312.0,0.0,1.0,0.0,?,0.0,0.0
1200000.0,1.265625,3.790670436703496E-8,1200000.0,53.6,6.8841510403287955,7.569721115537856,5.691056910569111,73898.0,9312.0,0.0,1.0,0.0,?,0.0,0.0
1300000.0,1.375,4.198305153598388E-8,1300000.0,54.7,9.84931103380752,7.739307535641555,2.7896995708154533,83898.0,9312.0,0.0,1.0,0.0,?,0.0,0.0
1400000.0,1.46875,4.5108414875964326E-8,1400000.0,60.6,20.88353413654618,22.745098039215684,21.825396825396822,93898.0,9312.0,0.0,1.0,0.0,?,0.0,0.0
1500000.0,1.578125,4.832458216696978E-8,1500000.0,59.3,17.453595534787127,17.611336032388657,13.219616204690821,103898.0,9312.0,0.0,1.0,0.0,?,0.0,0.0
1600000.0,1.671875,5.0712648468712966E-8,1600000.0,54.1,7.7616835200874545,10.176125244618405,4.77178423236515,113898.0,9312.0,0.0,1.0,0.0,?,0.0,0.0
1700000.0,1.78125,5.306863588177495E-8,1700000.0,62.6,25.359730177420325,24.899598393574294,25.349301397205586,123898.0,9312.0,0.0,1.0,0.0,?,0.0,0.0
1800000.0,1.890625,5.499453335586521E-8,1800000.0,61.7,23.0156943461761,22.626262626262626,21.35523613963039,133898.0,9312.0,0.0,1.0,0.0,?,0.0,0.0
1900000.0,1.984375,5.627665410025252E-8,1900000.0,61.9,23.831076920616383,24.103585657370516,20.292887029288696,143898.0,9312.0,0.0,1.0,0.0,?,0.0,0.0
2000000.0,2.09375,5.7342371696399315E-8,2000000.0,61.199999999999996,20.889624715059913,22.24448897795591,15.098468271334783,153898.0,9312.0,0.0,1.0,0.0,?,0.0,0.0
2100000.0,2.203125,6.228319964268141E-8,2100000.0,56.3,12.848903531513983,15.79961464354527,10.266940451745366,163798.0,9312.0,0.0,1.0,0.0,?,0.0,0.0
2200000.0,2.28125,6.550515536218882E-8,2200000.0,59.699999999999996,18.868425926671538,19.23847695390781,15.866388308977028,173798.0,9312.0,0.0,1.0,0.0,?,0.0,0.0
2300000.0,2.390625,6.958580343052746E-8,2300000.0,62.7,23.734358387175917,26.284584980237156,19.088937093275483,183798.0,9312.0,0.0,1.0,0.0,?,0.0,0.0
2400000.0,2.484375,7.271485325569909E-8,2400000.0,56.8,12.482577550160428,17.55725190839694,8.474576271186425,193798.0,9312.0,0.0,1.0,0.0,?,0.0,0.0
2500000.0,2.5625,7.501518767740992E-8,2500000.0,59.099999999999994,18.11549519103715,24.3992606284658,16.016427104722787,203798.0,9312.0,0.0,1.0,0.0,?,0.0,0.0
2600000.0,2.671875,7.780556592883335E-8,2600000.0,56.8,13.447667895496066,12.727272727272718,13.078470824949687,213798.0,9312.0,0.0,1.0,0.0,?,0.0,0.0
2700000.0,2.78125,8.016585424128506E-8,2700000.0,61.3,21.888245694770745,22.28915662650602,19.875776397515523,223798.0,9312.0,0.0,1.0,0.0,?,0.0,0.0
2800000.0,2.875,8.182030998998218E-8,2800000.0,62.6,23.766816143497746,24.137931034482758,16.888888888888882,233798.0,9312.0,0.0,1.0,0.0,?,0.0,0.0
2900000.0,2.984375,8.332041842449043E-8,2900000.0,60.4,20.364233083432545,22.957198443579767,18.852459016393436,243798.0,9312.0,0.0,1.0,0.0,?,0.0,0.0
3000000.0,3.078125,8.42375771349503E-8,3000000.0,61.0,21.11490928214567,19.087136929460573,16.488222698072796,253798.0,9312.0,0.0,1.0,0.0,?,0.0,0.0
3100000.0,3.1875,8.918270598062211E-8,3100000.0,57.49999999999999,14.429759920107587,16.992187499999993,12.008281573498952,263698.0,9312.0,0.0,1.0,0.0,?,0.0,0.0
3200000.0,3.296875,9.36977448873222E-8,3200000.0,56.39999999999999,13.094782497767568,12.625250501001991,13.663366336633654,273698.0,9312.0,0.0,1.0,0.0,?,0.0,0.0
3300000.0,3.40625,9.778269385505055E-8,3300000.0,53.400000000000006,7.640471707462111,4.115226337448563,3.3195020746887995,283698.0,9312.0,0.0,1.0,0.0,?,0.0,0.0
3400000.0,3.5,1.0091543016541336E-7,3400000.0,55.7,11.149797830691242,9.406952965235183,9.406952965235183,293698.0,9312.0,0.0,1.0,0.0,?,0.0,0.0
3500000.0,3.609375,1.0414019925519824E-7,3500000.0,63.4,25.913030804795,24.380165289256198,20.261437908496728,303698.0,9312.0,0.0,1.0,0.0,?,0.0,0.0
3600000.0,3.71875,1.0693487840601139E-7,3600000.0,59.9,19.32563473222547,18.32993890020366,16.632016632016626,313698.0,9312.0,0.0,1.0,0.0,?,0.0,0.0
3700000.0,3.8125,1.0896166915901832E-7,3700000.0,60.8,19.985956718934332,21.7564870259481,14.59694989106753,323698.0,9312.0,0.0,1.0,0.0,?,0.0,0.0
3800000.0,3.921875,1.1089616843188802E-7,3800000.0,60.5,20.774365392638234,20.2020202020202,19.71544715447154,333698.0,9312.0,0.0,1.0,0.0,?,0.0,0.0
3900000.0,4.015625,1.1218566214665771E-7,3900000.0,60.699999999999996,20.906456287232324,23.984526112185687,17.43697478991596,343698.0,9312.0,0.0,1.0,0.0,?,0.0,0.0
4000000.0,4.125,1.1325998154158394E-7,4000000.0,56.10000000000001,10.14703955986378,18.552875695732848,2.8761061946902684,353698.0,9312.0,0.0,1.0,0.0,?,0.0,0.0
4100000.0,4.234375,1.1820941128664547E-7,4100000.0,57.9,14.645321914864276,17.612524461839524,8.874458874458858,363598.0,9312.0,0.0,1.0,0.0,?,0.0,0.0
4200000.0,4.328125,1.2208313112043672E-7,4200000.0,53.1,6.165468892552472,7.495069033530578,6.2000000000000055,373598.0,9312.0,0.0,1.0,0.0,?,0.0,0.0
4300000.0,4.4375,1.261723809875548E-7,4300000.0,59.599999999999994,18.7818891654236,19.038076152304605,17.043121149897324,383598.0,9312.0,0.0,1.0,0.0,?,0.0,0.0
4400000.0,4.546875,1.2983154091570113E-7,4400000.0,62.5,25.159858542153955,27.042801556420237,28.97727272727273,393598.0,9312.0,0.0,1.0,0.0,?,0.0,0.0
4500000.0,4.640625,1.3259931519213652E-7,4500000.0,61.199999999999996,22.068009721413222,24.070450097847356,22.088353413654616,403598.0,9312.0,0.0,1.0,0.0,?,0.0,0.0
4600000.0,4.734375,1.3499844094945327E-7,4600000.0,54.50000000000001,8.839557621413698,9.181636726546914,8.266129032258073,413598.0,9312.0,0.0,1.0,0.0,?,0.0,0.0
4700000.0,4.84375,1.373673310606844E-7,4700000.0,61.7,22.825824131538656,28.942486085343226,19.874476987447697,423598.0,9312.0,0.0,1.0,0.0,?,0.0,0.0
4800000.0,4.9375,1.390291597797639E-7,4800000.0,54.400000000000006,8.442559753276809,10.236220472440955,7.317073170731714,433598.0,9312.0,0.0,1.0,0.0,?,0.0,0.0
4900000.0,5.046875,1.4053787001305158E-7,4900000.0,55.400000000000006,9.868764070375125,11.507936507936519,2.8322440087145995,443598.0,9312.0,0.0,1.0,0.0,?,0.0,0.0
5000000.0,5.15625,1.4168190925071638E-7,5000000.0,60.099999999999994,18.78027928184668,21.917808219178077,16.352201257861626,453598.0,9312.0,0.0,1.0,0.0,?,0.0,0.0
5100000.0,5.25,1.4598403746883075E-7,5100000.0,50.7,1.7732616058975927,0.40404040404040437,-0.6122448979591842,463498.0,9312.0,0.0,1.0,0.0,?,0.0,0.0
5200000.0,5.359375,1.505730971176591E-7,5200000.0,52.1,5.2550794354073105,-3.2327586206896584,-1.69851380042463,473498.0,9312.0,0.0,1.0,0.0,?,0.0,0.0
5300000.0,5.46875,1.5473206682751576E-7,5300000.0,50.3,2.132217995069187,-4.8523206751054895,-7.575757575757583,483498.0,9312.0,0.0,1.0,0.0,?,0.0,0.0
5400000.0,5.578125,1.5846094659840066E-7,5400000.0,48.199999999999996,-3.4117905412149883,-5.498981670061105,-5.070993914807307,493498.0,9312.0,0.0,1.0,0.0,?,0.0,0.0
5500000.0,5.6875,1.6175973643031384E-7,5500000.0,51.0,2.825979176995545,4.2968750000000036,-3.157894736842108,503498.0,9312.0,0.0,1.0,0.0,?,0.0,0.0
5600000.0,5.78125,1.6421862205283508E-7,5600000.0,49.3,-1.0072836810480748,4.519774011299439,-6.066945606694566,513498.0,9312.0,0.0,1.0,0.0,?,0.0,0.0
5700000.0,5.890625,1.666848483081493E-7,5700000.0,48.4,-1.5056673997631633,-6.832298136645969,-11.930585683297192,523498.0,9312.0,0.0,1.0,0.0,?,0.0,6.0
5800000.0,6.0,1.6872098462449178E-7,5800000.0,50.7,3.356073080843728,0.6048387096774198,-10.786516853932596,533498.0,9312.0,0.0,1.0,0.0,?,0.0,0.0
5900000.0,6.109375,1.7032703100186254E-7,5900000.0,49.7,-0.1672773617970272,6.1567164179104426,-9.110629067245128,543498.0,9312.0,0.0,1.0,0.0,?,0.0,0.0
6000000.0,6.203125,1.7133499366334741E-7,6000000.0,48.1,-3.4854043707130424,-3.3864541832669355,-5.487804878048785,553498.0,9312.0,0.0,1.0,0.0,?,0.0,0.0
6100000.0,6.3125,1.7638606045188174E-7,6100000.0,48.6,-1.8907271509053303,-2.5948103792415194,-7.756813417190783,563398.0,9312.0,0.0,1.0,0.0,?,0.0,0.0
6200000.0,6.421875,1.8100703730144434E-7,6200000.0,51.5,4.238767306127928,4.901960784313729,-3.8543897216274123,573398.0,9312.0,0.0,1.0,0.0,?,0.0,0.0
6300000.0,6.53125,1.851979242120352E-7,6300000.0,48.6,-1.2305219871118247,-7.983193277310932,-4.6843177189409415,583398.0,9312.0,0.0,1.0,0.0,?,0.0,0.0
6400000.0,6.640625,1.8895872118365433E-7,6400000.0,50.8,1.3632718524458756,-0.20366598778004094,2.7667984189723343,593398.0,9312.0,0.0,1.0,0.0,?,0.0,0.0
6500000.0,6.75,1.9228942821630172E-7,6500000.0,51.6,2.93910030161073,-0.20703933747412026,2.8112449799196813,603398.0,9312.0,0.0,1.0,0.0,?,0.0,0.0
6600000.0,6.859375,1.951900453099774E-7,6600000.0,47.599999999999994,-3.8693307960672336,-2.144249512670567,-11.016949152542384,613398.0,9312.0,0.0,1.0,0.0,?,0.0,0.0
6700000.0,6.953125,1.9730764001400934E-7,6700000.0,49.5,-0.31305619120264866,-0.19841269841269857,-4.3388429752066155,623398.0,9312.0,0.0,1.0,0.0,?,0.0,0.0
6800000.0,7.046875,1.9905658619892266E-7,6800000.0,51.0,3.0424871778636216,3.3530571992110487,-3.813559322033902,633398.0,9312.0,0.0,1.0,0.0,?,0.0,0.0
6900000.0,7.15625,2.0066693347568312E-7,6900000.0,51.800000000000004,4.147509426157784,4.5544554455445585,0.8230452674897127,643398.0,9312.0,0.0,1.0,0.0,?,0.0,0.0
7000000.0,7.265625,2.0184719081347186E-7,7000000.0,48.3,-3.7252824858757116,-2.173913043478263,-9.533898305084755,653398.0,9312.0,0.0,1.0,0.0,?,0.0,0.0
7100000.0,7.375,2.069025585013959E-7,7100000.0,49.7,-0.3303121210186999,1.3725490196078443,-2.0283975659229228,663298.0,9312.0,0.0,1.0,0.0,?,0.0,0.0
7200000.0,7.484375,2.115278362503482E-7,7200000.0,49.7,-0.4433084388354167,0.19841269841269857,-3.0737704918032813,673298.0,9312.0,0.0,1.0,0.0,?,0.0,0.0
7300000.0,7.59375,2.157230240603288E-7,7300000.0,48.3,-0.2777519163330626,-4.655870445344134,-16.441441441441455,683298.0,9312.0,0.0,1.0,0.0,?,0.0,0.0
7400000.0,7.703125,2.1948812193133764E-7,7400000.0,50.6,1.607345589260466,-0.6109979633401228,-0.6109979633401228,693298.0,9312.0,0.0,1.0,0.0,?,0.0,0.0
7500000.0,7.796875,2.2234670015879803E-7,7500000.0,48.199999999999996,-3.4576422842169166,-2.9821073558648137,-4.2253521126760605,703298.0,9312.0,0.0,1.0,0.0,?,0.0,0.0
7600000.0,7.90625,2.252516181518634E-7,7600000.0,46.0,-6.780143639067293,-11.340206185567009,-18.942731277533046,713298.0,9312.0,0.0,1.0,0.0,?,0.0,0.0
7700000.0,8.015625,2.2772644620595705E-7,7700000.0,59.3,19.079695564692493,15.384615384615374,16.4271047227926,208126.0,9312.0,0.0,1.0,0.0,?,1.0,5.0
7800000.0,8.125,2.29771184321079E-7,7800000.0,61.1,23.03613542474556,24.171539961013643,17.584745762711858,218126.0,9312.0,0.0,1.0,0.0,?,0.0,0.0
7900000.0,8.234375,2.3138583249722918E-7,7900000.0,63.6,27.10465288597485,28.62745098039216,26.16632860040568,228126.0,9312.0,0.0,1.0,0.0,?,0.0,0.0
8000000.0,8.34375,2.3257039073440764E-7,8000000.0,60.5,22.429165062881456,22.09072978303747,12.80353200883001,238126.0,9312.0,0.0,1.0,0.0,?,0.0,0.0
8100000.0,8.4375,2.3690724952353372E-7,8100000.0,62.2,25.336577965994557,24.248496993987974,19.230769230769226,248026.0,9312.0,0.0,1.0,0.0,?,0.0,0.0
8200000.0,8.53125,2.408754597935412E-7,8200000.0,58.099999999999994,17.937107312410866,13.786008230452666,7.095343680709516,258026.0,9312.0,0.0,1.0,0.0,?,0.0,0.0
8300000.0,8.640625,2.450749485029115E-7,8300000.0,60.699999999999996,20.861860652436572,20.606060606060602,19.46721311475409,268026.0,9312.0,0.0,1.0,0.0,?,0.0,0.0
8400000.0,8.75,2.4884434727331005E-7,8400000.0,59.4,19.10287882169158,20.23575638506876,16.803278688524586,278026.0,9312.0,0.0,1.0,0.0,?,0.0,0.0
8500000.0,8.859375,2.521836561047369E-7,8500000.0,57.49999999999999,15.409418414872006,9.957627118644053,13.087934560327188,288026.0,9312.0,0.0,1.0,0.0,?,0.0,0.0
8600000.0,8.96875,2.5509287499719197E-7,8600000.0,55.7,12.045934655887176,16.257088846880922,8.091286307053949,298026.0,9312.0,0.0,1.0,0.0,?,0.0,0.0
8700000.0,9.0625,2.572178426716063E-7,8700000.0,57.99999999999999,17.040314456712803,13.402061855670091,10.064239828693776,308026.0,9312.0,0.0,1.0,0.0,?,0.0,0.0
8800000.0,9.171875,2.5926688168611795E-7,8800000.0,58.099999999999994,17.104555094805477,14.314928425357865,10.660980810234529,318026.0,9312.0,0.0,1.0,0.0,?,0.0,0.0
8900000.0,9.28125,2.6088583076165787E-7,8900000.0,56.89999999999999,13.5288263995891,15.324165029469539,15.984405458089663,328026.0,9312.0,0.0,1.0,0.0,?,0.0,0.0
9000000.0,9.390625,2.6207468989822606E-7,9000000.0,54.50000000000001,9.531952121525448,7.89473684210527,7.1428571428571495,338026.0,9312.0,0.0,1.0,0.0,?,0.0,0.0
9100000.0,9.5,2.671386593849295E-7,9100000.0,54.900000000000006,10.99691350715578,6.43153526970955,-0.44543429844098037,347926.0,9312.0,0.0,1.0,0.0,?,0.0,0.0
9200000.0,9.609375,2.7177253893266125E-7,9200000.0,54.300000000000004,9.231747040597456,3.3826638477801296,4.791666666666671,357926.0,9312.0,0.0,1.0,0.0,?,0.0,0.0
9300000.0,9.71875,2.7597632854142127E-7,9300000.0,61.7,23.77138580834176,18.336886993603404,21.19341563786008,367926.0,9312.0,0.0,1.0,0.0,?,0.0,0.0
9400000.0,9.8125,2.7921092825838264E-7,9400000.0,55.2,11.0959409740551,9.127789046653152,6.860706860706866,377926.0,9312.0,0.0,1.0,0.0,?,0.0,0.0
9500000.0,9.921875,2.8255453798919916E-7,9500000.0,62.7,24.80990815923366,27.005870841487283,28.13102119460501,387926.0,9312.0,0.0,1.0,0.0,?,0.0,0.0
9600000.0,10.015625,2.850518406679233E-7,9600000.0,56.99999999999999,15.120410580339517,14.512922465208739,8.510638297872324,397926.0,9312.0,0.0,1.0,0.0,?,0.0,0.0
9700000.0,10.125,2.875352705207964E-7,9700000.0,60.0,20.834405367427312,17.525773195876283,14.346895074946456,407926.0,9312.0,0.0,1.0,0.0,?,0.0,0.0
9800000.0,10.234375,2.8958861043469776E-7,9800000.0,57.4,16.171105400076346,14.97005988023951,5.960264900662233,417926.0,9312.0,0.0,1.0,0.0,?,0.0,0.0
9900000.0,10.34375,2.912118604096274E-7,9900000.0,56.99999999999999,14.930995188655352,15.851272015655567,9.663865546218473,427926.0,9312.0,0.0,1.0,0.0,?,0.0,0.0
1.0E7,10.453125,2.924050204455853E-7,1.0E7,54.6,8.753255941087572,9.741550695825058,6.004140786749488,437926.0,9312.0,0.0,1.0,0.0,?,0.0,0.0
