learning evaluation instances,evaluation time (cpu seconds),model cost (RAM-Hours),classified instances,classifications correct (percent),Kappa Statistic (percent),Kappa Temporal Statistic (percent),Kappa M Statistic (percent),model training instances,model serialized size (bytes),labeling cost,newThreshold,maxPosterior,accuracyBaseLearner (percent),Change detected,Warning detected
100000.0,0.34375,1.2976427872975667E-9,100000.0,74.1,46.62435083669935,44.060475161987036,43.076923076923066,30000.0,2904.0,30000.0,1.0,0.5158960558910384,0.0,0.0,30.0
200000.0,0.6875,2.5952855745951334E-9,200000.0,74.8,47.41564593201595,44.97816593886462,41.801385681293304,60000.0,2904.0,60000.0,1.0,0.5578912873546937,0.0,0.0,0.0
300000.0,1.0,3.774960835774739E-9,300000.0,75.3,48.25621344416699,48.10924369747899,41.74528301886793,90000.0,2904.0,90000.0,1.0,0.5167040298457005,0.0,0.0,0.0
400000.0,1.328125,5.0136198600133256E-9,400000.0,73.1,43.839460190737064,46.09218436873747,37.2960372960373,120000.0,2904.0,120000.0,1.0,0.5206413676802889,0.0,0.0,0.0
500000.0,1.65625,6.252278884251912E-9,500000.0,76.7,50.329149328057845,50.530785562632694,42.32673267326734,150000.0,2904.0,150000.0,1.0,0.8348583748228896,0.0,0.0,0.0
600000.0,2.0,7.549921671549478E-9,600000.0,75.5,48.7241737266852,53.24427480916031,42.62295081967214,180000.0,2904.0,180000.0,1.0,0.6518160646156161,0.0,0.0,0.0
700000.0,2.328125,8.788580695788065E-9,700000.0,76.7,51.068101442335966,51.15303983228512,45.30516431924884,210000.0,2904.0,210000.0,1.0,0.5550346495517928,0.0,0.0,0.0
800000.0,2.65625,9.965442586690187E-9,800000.0,73.3,44.30119908879265,44.83471074380165,38.337182448036955,240000.0,2904.0,240000.0,1.0,0.6803151560885871,0.0,0.0,70.0
900000.0,3.0,1.1263796800954473E-8,900000.0,74.4,46.781972393148166,49.902152641878665,41.81818181818181,270000.0,2904.0,270000.0,1.0,0.5038963069719251,0.0,0.0,63.0
1000000.0,3.328125,1.2503134914570382E-8,1000000.0,72.8,42.972156994297215,44.376278118609406,36.44859813084113,300000.0,2904.0,300000.0,1.0,0.5404039330097229,0.0,0.0,0.0
1100000.0,3.671875,1.380148912883467E-8,1100000.0,72.1,41.37177439690677,42.23602484472049,35.565819861431876,330000.0,2904.0,330000.0,1.0,0.872309534936656,0.0,0.0,0.0
1200000.0,4.015625,1.5099843343098956E-8,1200000.0,74.5,45.793121040772064,49.70414201183432,38.25665859564165,360000.0,2904.0,360000.0,1.0,0.5719791648374649,0.0,0.0,0.0
1300000.0,4.34375,1.6339181456714868E-8,1300000.0,74.2,45.37948555096857,47.239263803680984,38.71733966745844,390000.0,2904.0,390000.0,1.0,0.7070515856700158,0.0,0.0,0.0
1400000.0,4.671875,1.757851957033078E-8,1400000.0,73.8,44.42841871277552,46.639511201629325,37.32057416267943,420000.0,2904.0,420000.0,1.0,0.5281371467159153,0.0,0.0,0.0
1500000.0,5.0,1.881785768394669E-8,1500000.0,73.8,44.86601600148146,46.42126789366053,38.06146572104019,449999.0,2904.0,449999.0,1.0,0.8065942965816835,0.0,0.0,0.0
1600000.0,5.34375,2.0116211898210976E-8,1600000.0,75.0,47.143865939930066,47.145877378435515,40.61757719714965,480000.0,2904.0,480000.0,1.0,0.630536509023789,0.0,0.0,0.0
1700000.0,5.6875,2.1414566112475263E-8,1700000.0,73.5,44.16021172761983,45.0207468879668,37.203791469194314,510000.0,2904.0,510000.0,1.0,0.7921858337638416,0.0,0.0,0.0
1800000.0,6.03125,2.271292032673955E-8,1800000.0,75.5,49.43824862348212,50.101832993890014,45.067264573991025,540000.0,2904.0,540000.0,1.0,0.5899902600308127,0.0,0.0,0.0
1900000.0,6.375,2.4011274541003835E-8,1900000.0,73.2,43.75065589253857,44.28274428274428,36.94117647058824,570000.0,2904.0,570000.0,1.0,0.7270248351762845,0.0,0.0,0.0
2000000.0,6.71875,2.530962875526812E-8,2000000.0,72.6,42.69676550428937,45.09018036072144,36.720554272517326,600000.0,2904.0,600000.0,1.0,0.7179189075599866,0.0,0.0,0.0
2100000.0,7.0625,2.6607982969532407E-8,2100000.0,71.3,38.876867769580706,42.484969939879754,31.5035799522673,630000.0,2904.0,630000.0,1.0,0.6950396226752069,0.0,0.0,0.0
2200000.0,7.40625,2.7906337183796693E-8,2200000.0,74.8,46.75793877162959,45.454545454545446,39.277108433734945,660000.0,2904.0,660000.0,1.0,0.5014442449076466,0.0,0.0,0.0
2300000.0,7.75,2.920469139806098E-8,2300000.0,71.7,40.740430521819235,40.042372881355924,34.49074074074075,690000.0,2904.0,690000.0,1.0,0.5815465303684197,0.0,0.0,0.0
2400000.0,8.09375,3.050304561232527E-8,2400000.0,72.8,42.50735567655314,44.147843942505126,34.92822966507177,720000.0,2904.0,720000.0,1.0,0.7500686429893458,0.0,0.0,0.0
2500000.0,8.4375,3.1801399826589555E-8,2500000.0,72.8,42.611190817790536,43.33333333333333,36.74418604651163,750000.0,2904.0,750000.0,1.0,0.5187432653458508,0.0,0.0,0.0
2600000.0,8.765625,3.304073794020546E-8,2600000.0,76.2,50.372829332577105,51.028806584362144,44.13145539906104,780000.0,2904.0,780000.0,1.0,0.641959336093209,0.0,0.0,0.0
2700000.0,9.109375,3.433909215446975E-8,2700000.0,75.6,48.93260778568439,51.2,42.72300469483569,810000.0,2904.0,810000.0,1.0,0.5249913394716677,0.0,0.0,0.0
2800000.0,9.453125,3.5637446368734035E-8,2800000.0,73.9,44.517665065260836,46.73469387755102,37.10843373493976,840000.0,2904.0,840000.0,1.0,0.641071098564533,0.0,0.0,0.0
2900000.0,9.78125,3.6876784482349943E-8,2900000.0,72.39999999999999,41.940695365352894,44.57831325301204,34.905660377358494,870000.0,2904.0,870000.0,1.0,0.9255284088509321,0.0,0.0,0.0
3000000.0,10.109375,3.811612259596585E-8,3000000.0,73.4,43.231049628013984,44.81327800829875,34.643734643734646,900000.0,2904.0,900000.0,1.0,0.5863734789241792,0.0,0.0,0.0
3100000.0,10.46875,3.9473492910878516E-8,3100000.0,72.8,42.854261559406346,44.147843942505126,35.54502369668246,930000.0,2904.0,930000.0,1.0,0.6435961866947872,0.0,0.0,0.0
3200000.0,10.796875,4.0712831024494424E-8,3200000.0,76.0,49.54421608530391,49.36708860759494,43.12796208530806,960000.0,2904.0,960000.0,1.0,0.7232316815147759,0.0,0.0,0.0
3300000.0,11.140625,4.201118523875871E-8,3300000.0,76.9,50.87614834977884,52.27272727272727,42.82178217821783,990000.0,2904.0,990000.0,1.0,0.7729766739410339,0.0,0.0,0.0
3400000.0,11.484375,4.3309539453022996E-8,3400000.0,74.4,46.82618810235957,46.55532359081419,42.0814479638009,1020000.0,2904.0,1020000.0,1.0,0.7054742443581897,0.0,0.0,0.0
3500000.0,11.796875,4.448986146599053E-8,3500000.0,74.6,46.46432711560755,49.80237154150198,40.515222482435604,1050000.0,2904.0,1050000.0,1.0,0.5982223957574296,0.0,0.0,0.0
3600000.0,12.140625,4.578821568025482E-8,3600000.0,73.8,44.2018954317964,46.85598377281947,36.561743341404366,1080000.0,2904.0,1080000.0,1.0,0.5561358333352908,0.0,0.0,0.0
3700000.0,12.484375,4.7086569894519105E-8,3700000.0,75.1,47.60497942075095,45.751633986928105,40.43062200956938,1110000.0,2904.0,1110000.0,1.0,0.6097507697732516,0.0,0.0,0.0
3800000.0,12.828125,4.838492410878339E-8,3800000.0,74.8,45.6427955133736,51.445086705202314,37.00000000000001,1140000.0,2904.0,1140000.0,1.0,0.8134978189893611,0.0,0.0,0.0
3900000.0,13.171875,4.968327832304768E-8,3900000.0,72.2,41.71003468043259,42.56198347107437,33.33333333333333,1170000.0,2904.0,1170000.0,1.0,0.5303064201275751,0.0,0.0,0.0
4000000.0,13.515625,5.098163253731196E-8,4000000.0,75.6,47.673620642327755,52.34375,38.38383838383839,1200000.0,2904.0,1200000.0,1.0,0.8286228964318951,0.0,0.0,0.0
4100000.0,13.828125,5.21619545502795E-8,4100000.0,71.7,40.66240050992594,45.366795366795365,32.779097387173394,1230000.0,2904.0,1230000.0,1.0,0.517462155208023,0.0,0.0,0.0
4200000.0,14.171875,5.3460308764543786E-8,4200000.0,73.6,43.42897550731781,44.06779661016949,33.83458646616541,1260000.0,2904.0,1260000.0,1.0,0.6750415235249793,0.0,0.0,0.0
4300000.0,14.5,5.4699646878159694E-8,4300000.0,76.6,51.173708920187785,53.75494071146245,43.88489208633094,1290000.0,2904.0,1290000.0,1.0,0.5463347877631253,0.0,0.0,0.0
4400000.0,14.84375,5.599800109242398E-8,4400000.0,75.3,48.337167956494454,47.55838641188959,41.88235294117648,1320000.0,2904.0,1320000.0,1.0,0.6656102620472106,0.0,0.0,0.0
4500000.0,15.1875,5.7296355306688266E-8,4500000.0,74.1,45.33050768750157,46.92622950819672,38.186157517899765,1350000.0,2904.0,1350000.0,1.0,0.5158283764306717,0.0,0.0,0.0
4600000.0,15.53125,5.859470952095255E-8,4600000.0,75.3,48.239731768650465,49.69450101832994,41.88235294117648,1380000.0,2904.0,1380000.0,1.0,0.5855899293399409,0.0,0.0,0.0
4700000.0,15.875,5.989306373521684E-8,4700000.0,76.2,49.796867155760495,52.96442687747036,42.372881355932215,1410000.0,2904.0,1410000.0,1.0,0.9029298873509436,0.0,0.0,0.0
4800000.0,16.1875,6.107338574818438E-8,4800000.0,75.8,49.1812298142385,49.159663865546214,43.325526932084315,1440000.0,2904.0,1440000.0,1.0,0.5163386711876712,0.0,0.0,0.0
4900000.0,16.53125,6.237173996244867E-8,4900000.0,73.1,43.671999329927125,45.10204081632653,37.73148148148148,1470000.0,2904.0,1470000.0,1.0,0.8130823428311654,0.0,0.0,0.0
5000000.0,16.875,6.367009417671296E-8,5000000.0,74.2,45.760032291701705,48.296593186372746,38.862559241706165,1500000.0,2904.0,1500000.0,1.0,0.8885262247866235,0.0,0.0,0.0
5100000.0,17.203125,6.484695606761508E-8,5100000.0,50.0,-0.27917722940668016,-1.010101010101011,-0.8064516129032264,1267572.0,2904.0,1530000.0,1.0,0.5092734173082155,0.0,1.0,8.0
5200000.0,17.53125,6.60238179585172E-8,5200000.0,48.1,-3.994678037285812,-7.0103092783505225,-6.352459016393448,1297572.0,2904.0,1560000.0,1.0,0.664079232628059,0.0,0.0,0.0
5300000.0,17.859375,6.720067984941931E-8,5300000.0,54.0,5.00892090134145,9.270216962524664,-1.7699115044247804,1327572.0,2904.0,1590000.0,1.0,0.621048605860856,0.0,0.0,0.0
5400000.0,18.171875,6.832150069789752E-8,5400000.0,49.9,0.028734256022227737,4.933586337760915,-1.0080645161290331,1357572.0,2904.0,1620000.0,1.0,0.5662739228615673,0.0,0.0,0.0
5500000.0,18.5,6.949836258879963E-8,5500000.0,51.1,0.8298654206517212,1.4112903225806466,-2.301255230125525,1387572.0,2904.0,1650000.0,1.0,0.5539772717964863,0.0,0.0,0.0
5600000.0,18.828125,7.067522447970175E-8,5600000.0,55.50000000000001,8.620477226990845,8.997955010224958,4.914529914529919,1417572.0,2904.0,1680000.0,1.0,0.7536237100999388,0.0,0.0,0.0
5700000.0,19.15625,7.185208637060387E-8,5700000.0,51.5,2.106427469945664,5.4580896686159885,0.20576131687242818,1447572.0,2904.0,1710000.0,1.0,0.845488425327033,0.0,0.0,0.0
5800000.0,19.484375,7.302894826150599E-8,5800000.0,55.400000000000006,8.977734239474271,12.720156555773004,-0.22471910112359575,1477572.0,2904.0,1740000.0,1.0,0.6364585781657596,0.0,0.0,0.0
5900000.0,19.8125,7.42058101524081E-8,5900000.0,51.4,1.3029633480634215,2.40963855421687,-2.1008403361344556,1507572.0,2904.0,1770000.0,1.0,0.5499440708185229,0.0,0.0,0.0
6000000.0,20.140625,7.538267204331022E-8,6000000.0,54.2,7.746476036240728,4.184100418410046,10.196078431372557,1537572.0,2904.0,1800000.0,1.0,0.647014763819559,0.0,0.0,0.0
6100000.0,20.46875,7.655953393421234E-8,6100000.0,53.300000000000004,6.742497463875202,7.341269841269847,8.966861598440554,1567572.0,2904.0,1830000.0,1.0,0.6993756722609412,0.0,0.0,0.0
6200000.0,20.796875,7.773639582511445E-8,6200000.0,49.8,-1.0145726600638265,0.19880715705765428,-2.24032586558045,1597572.0,2904.0,1860000.0,1.0,0.5098128318131385,0.0,0.0,0.0
6300000.0,21.125,7.891325771601657E-8,6300000.0,51.1,3.1759860605100587,0.4073319755600819,-4.935622317596571,1627572.0,2904.0,1890000.0,1.0,0.6310491008988397,0.0,0.0,0.0
6400000.0,21.46875,8.01461606493426E-8,6400000.0,54.2,7.865991285490699,10.371819960861066,9.306930693069315,1657572.0,2904.0,1920000.0,1.0,0.5981072988885444,0.0,0.0,0.0
6500000.0,21.8125,8.137906358266862E-8,6500000.0,55.00000000000001,8.190246131749051,8.722109533468569,3.84615384615385,1687572.0,2904.0,1950000.0,1.0,0.6992781203005595,0.0,0.0,0.0
6600000.0,22.140625,8.255592547357074E-8,6600000.0,51.4,2.0666752643796835,4.892367906066541,-1.0395010395010404,1717572.0,2904.0,1980000.0,1.0,0.6478395753417304,0.0,0.0,0.0
6700000.0,22.453125,8.367674632204895E-8,6700000.0,54.2,8.679440910812925,8.032128514056232,8.400000000000007,1747572.0,2904.0,2010000.0,1.0,0.8241568988113156,0.0,0.0,0.0
6800000.0,22.796875,8.490964925537498E-8,6800000.0,54.50000000000001,8.265389237009984,8.080808080808088,6.378600823045273,1777572.0,2904.0,2040000.0,1.0,0.5099971721194531,0.0,0.0,0.0
6900000.0,23.109375,8.603047010385318E-8,6900000.0,52.900000000000006,5.856486108334998,6.175298804780882,1.2578616352201268,1807572.0,2904.0,2070000.0,1.0,0.5141867281240332,0.0,0.0,0.0
7000000.0,23.421875,8.715129095233139E-8,7000000.0,55.60000000000001,9.029815273156421,11.022044088176361,3.056768558951968,1837572.0,2904.0,2100000.0,1.0,0.6963648738664396,0.0,0.0,0.0
7100000.0,23.75,8.83281528432335E-8,7100000.0,56.699999999999996,13.791043825208844,16.4092664092664,11.270491803278675,1867572.0,2904.0,2130000.0,1.0,0.6396546517581824,0.0,0.0,0.0
7200000.0,24.078125,8.950501473413562E-8,7200000.0,57.199999999999996,13.344536454009823,14.056224899598385,10.647181628392472,1897572.0,2904.0,2160000.0,1.0,0.5856416909600687,0.0,0.0,0.0
7300000.0,24.390625,9.062583558261383E-8,7300000.0,57.99999999999999,14.138172124344269,16.996047430830032,8.893709327548791,1927572.0,2904.0,2190000.0,1.0,0.6438593411215423,0.0,0.0,0.0
7400000.0,24.734375,9.185873851593986E-8,7400000.0,57.8,14.014075610561171,19.311663479923514,10.403397027600835,1957572.0,2904.0,2220000.0,1.0,0.5183026677679371,0.0,0.0,0.0
7500000.0,25.0625,9.303560040684197E-8,7500000.0,56.8,13.451482744389356,19.999999999999986,11.293634496919905,1987572.0,2904.0,2250000.0,1.0,0.7215101633223783,0.0,0.0,0.0
7600000.0,25.40625,9.4268503340168E-8,7600000.0,57.99999999999999,15.846504023338555,14.979757085020234,15.492957746478863,2017572.0,2904.0,2280000.0,1.0,0.5244578062736569,0.0,0.0,0.0
7700000.0,25.71875,9.538932418864621E-8,7700000.0,57.199999999999996,13.515785389825567,14.228456913827644,11.203319502074677,2047572.0,2904.0,2310000.0,1.0,0.5501659764005352,0.0,0.0,0.0
7800000.0,26.03125,9.651014503712441E-8,7800000.0,60.8,19.306696309104744,20.486815415821496,13.082039911308192,2077572.0,2904.0,2340000.0,1.0,0.556232563511043,0.0,0.0,0.0
7900000.0,26.34375,9.763096588560262E-8,7900000.0,55.7,10.666032119897084,13.645224171539974,9.034907597535941,2107572.0,2904.0,2370000.0,1.0,0.571637772871875,0.0,0.0,0.0
8000000.0,26.65625,9.875178673408083E-8,8000000.0,57.699999999999996,13.714323014409496,12.240663900414926,9.421841541755875,2137572.0,2904.0,2400000.0,1.0,0.5164378352953182,0.0,0.0,0.0
8100000.0,26.96875,9.987260758255903E-8,8100000.0,59.5,18.2525008679364,21.052631578947363,15.975103734439825,2167572.0,2904.0,2430000.0,1.0,0.5518853141728032,0.0,0.0,0.0
8200000.0,27.28125,1.0099342843103724E-7,8200000.0,57.8,15.99783425695904,15.59999999999999,16.269841269841262,2197572.0,2904.0,2460000.0,1.0,0.5690877334728041,0.0,0.0,0.0
8300000.0,27.59375,1.0211424927951545E-7,8300000.0,58.599999999999994,18.3599419448476,14.989733059548247,14.285714285714276,2227572.0,2904.0,2490000.0,1.0,0.5777256313136767,0.0,0.0,0.0
8400000.0,27.921875,1.0329111117041756E-7,8400000.0,60.4,20.312632057664672,18.852459016393436,19.018404907975455,2257572.0,2904.0,2520000.0,1.0,0.5443274728889317,0.0,0.0,0.0
8500000.0,28.234375,1.0441193201889577E-7,8500000.0,63.2,24.884775695326113,23.966942148760328,19.825708061002175,2287572.0,2904.0,2550000.0,1.0,0.6959793959074537,0.0,0.0,0.0
8600000.0,28.5625,1.0558879390979789E-7,8600000.0,59.8,18.955207631919542,18.12627291242362,16.597510373443974,2317572.0,2904.0,2580000.0,1.0,0.5057779371302311,0.0,0.0,0.0
8700000.0,28.875,1.067096147582761E-7,8700000.0,60.5,19.176624652152565,21.15768463073852,14.130434782608686,2347572.0,2904.0,2610000.0,1.0,0.6886118750274904,0.0,0.0,0.0
8800000.0,29.203125,1.0788647664917821E-7,8800000.0,60.5,20.67572235297897,20.2020202020202,19.87829614604462,2377572.0,2904.0,2640000.0,1.0,0.5525260214432285,0.0,0.0,0.0
8900000.0,29.53125,1.0906333854008033E-7,8900000.0,63.6,26.486923154599616,29.59381044487428,23.36842105263158,2407572.0,2904.0,2670000.0,1.0,0.5028380577124911,0.0,0.0,0.0
9000000.0,29.84375,1.1018415938855853E-7,9000000.0,65.10000000000001,28.53983750491416,35.13011152416357,22.787610619469024,2437572.0,2904.0,2700000.0,1.0,0.6487224990407316,0.0,0.0,0.0
9100000.0,30.15625,1.1130498023703674E-7,9100000.0,62.2,22.921008307402438,26.027397260273972,18.00433839479392,2467572.0,2904.0,2730000.0,1.0,0.678561154630791,0.0,0.0,0.0
9200000.0,30.46875,1.1242580108551495E-7,9200000.0,61.8,23.599999999999998,24.65483234714004,23.599999999999998,2497572.0,2904.0,2760000.0,1.0,0.5840755383740954,0.0,0.0,0.0
9300000.0,30.8125,1.1365870401884097E-7,9300000.0,63.9,27.399827851115354,27.800000000000004,25.87268993839836,2527572.0,2904.0,2790000.0,1.0,0.5289854179125528,0.0,0.0,0.0
9400000.0,31.109375,1.1472348382489527E-7,9400000.0,61.7,23.635203572995174,25.631067961165048,27.462121212121215,2557572.0,2904.0,2820000.0,1.0,0.7204068831290908,0.0,0.0,0.0
9500000.0,31.421875,1.1584430467337348E-7,9500000.0,62.8,25.01965210731058,27.058823529411768,25.450901803607213,2587572.0,2904.0,2850000.0,1.0,0.7549706837633255,0.0,0.0,0.0
9600000.0,31.734375,1.1696512552185168E-7,9600000.0,63.9,27.635007817824636,27.944111776447105,27.070707070707073,2617572.0,2904.0,2880000.0,1.0,0.712698834346334,0.0,0.0,0.0
9700000.0,32.0625,1.181419874127538E-7,9700000.0,60.9,21.086623072576092,27.592592592592585,18.200836820083676,2647572.0,2904.0,2910000.0,1.0,0.6646577981017214,0.0,0.0,0.0
9800000.0,32.375,1.1926280826123202E-7,9800000.0,62.2,24.11741324693157,25.443786982248522,23.326572008113587,2677572.0,2904.0,2940000.0,1.0,0.6146108563941829,0.0,0.0,0.0
9900000.0,32.703125,1.2043967015213414E-7,9900000.0,65.4,29.161940717143214,31.349206349206355,24.618736383442265,2707572.0,2904.0,2970000.0,1.0,0.5754359846064792,0.0,0.0,0.0
1.0E7,33.0,1.2150444995818843E-7,1.0E7,62.0,22.403688683598997,25.343811394891947,20.33542976939203,2737572.0,2904.0,3000000.0,1.0,0.5341132900774357,0.0,0.0,0.0
