learning evaluation instances,evaluation time (cpu seconds),model cost (RAM-Hours),classified instances,classifications correct (percent),Kappa Statistic (percent),Kappa Temporal Statistic (percent),Kappa M Statistic (percent),model training instances,model serialized size (bytes),labeling cost,newThreshold,maxPosterior,accuracyBaseLearner (percent),Change detected,Warning detected
100000.0,0.4375,1.740822982456949E-8,100000.0,65.60000000000001,31.177976952624835,28.925619834710748,30.505050505050512,19800.0,2904.0,0.0,1.0,0.0,?,0.0,0.0
200000.0,0.859375,3.2761955582019355E-8,200000.0,63.6,26.239640114288033,22.553191489361698,24.166666666666668,39800.0,2904.0,0.0,1.0,0.0,?,0.0,4.0
300000.0,1.265625,4.6015128545049164E-8,300000.0,65.0,29.840879113830177,30.830039525691706,28.571428571428577,59800.0,2904.0,0.0,1.0,0.0,?,0.0,64.0
400000.0,1.671875,5.7597676964683666E-8,400000.0,64.4,28.469529225019592,28.800000000000004,25.678496868475992,79800.0,2904.0,0.0,1.0,0.0,?,0.0,39.0
500000.0,2.078125,6.758274846813744E-8,500000.0,64.2,27.740997900855806,27.53036437246964,23.829787234042552,99800.0,2904.0,0.0,1.0,0.0,?,0.0,0.0
600000.0,2.484375,7.597034305541051E-8,600000.0,67.2,34.26326759660093,36.18677042801558,33.061224489795926,119800.0,2904.0,0.0,1.0,0.0,?,0.0,0.0
700000.0,2.90625,8.302161909846796E-8,700000.0,64.4,28.336480354935734,28.514056224899605,25.678496868475992,139800.0,2904.0,0.0,1.0,0.0,?,0.0,0.0
800000.0,3.328125,8.841397680549159E-8,800000.0,64.2,28.5417731221257,31.548757170172088,28.400000000000002,159800.0,2904.0,0.0,1.0,0.0,?,0.0,0.0
900000.0,3.71875,9.187086511196362E-8,900000.0,67.30000000000001,34.0348102542585,34.205231388329985,30.866807610993664,179800.0,2904.0,0.0,1.0,0.0,?,0.0,0.0
1000000.0,4.140625,9.394538614691961E-8,1000000.0,65.10000000000001,29.437929640113218,29.494949494949502,23.296703296703296,199800.0,2904.0,0.0,1.0,0.0,?,0.0,0.0
1100000.0,4.546875,1.1033634008425807E-7,1100000.0,65.5,30.6041661637983,25.965665236051507,27.672955974842772,219600.0,2904.0,0.0,1.0,0.0,?,0.0,0.0
1200000.0,4.96875,1.2569879699084495E-7,1200000.0,68.10000000000001,35.617466839968046,36.20000000000001,32.27176220806795,239600.0,2904.0,0.0,1.0,0.0,?,0.0,0.0
1300000.0,5.375,1.3889479709582198E-7,1300000.0,68.0,35.43596862188077,38.81453154875718,32.203389830508485,259600.0,2904.0,0.0,1.0,0.0,?,0.0,0.0
1400000.0,5.796875,1.5093941733034124E-7,1400000.0,65.2,30.507019190446723,30.400000000000006,31.630648330058946,279600.0,2904.0,0.0,1.0,0.0,?,0.0,0.0
1500000.0,6.203125,1.6094046360295683E-7,1500000.0,65.8,31.00387346675275,34.73282442748092,27.23404255319149,299600.0,2904.0,0.0,1.0,0.0,?,0.0,0.0
1600000.0,6.625,1.6966724716540844E-7,1600000.0,66.0,31.53994845360825,32.40556660039762,29.018789144050107,319600.0,2904.0,0.0,1.0,0.0,?,0.0,0.0
1700000.0,7.03125,1.764733396056626E-7,1700000.0,65.0,29.885854170589727,27.685950413223143,29.435483870967744,339600.0,2904.0,0.0,1.0,0.0,?,0.0,0.0
1800000.0,7.453125,1.8188228649604657E-7,1800000.0,65.2,30.84123293388184,32.03125000000001,29.554655870445345,359600.0,2904.0,0.0,1.0,0.0,?,0.0,0.0
1900000.0,7.875,1.857117685075436E-7,1900000.0,66.60000000000001,32.42149562965362,35.271317829457374,28.632478632478637,379600.0,2904.0,0.0,1.0,0.0,?,0.0,21.0
2000000.0,8.28125,1.878019409357674E-7,2000000.0,65.2,30.552506695297126,29.6969696969697,30.26052104208417,399600.0,2904.0,0.0,1.0,0.0,?,0.0,0.0
2100000.0,8.703125,2.0491935881889532E-7,2100000.0,66.10000000000001,31.910756895291204,29.079497907949797,29.668049792531125,419400.0,2904.0,0.0,1.0,0.0,?,0.0,0.0
2200000.0,9.125,2.2037785836598941E-7,2200000.0,64.4,28.312236456852425,29.50495049504951,25.678496868475992,439400.0,2904.0,0.0,1.0,0.0,?,0.0,0.0
2300000.0,9.546875,2.3411195595852204E-7,2300000.0,68.89999999999999,37.27157575415298,39.019607843137244,34.24947145877377,97366.0,2904.0,0.0,1.0,0.0,?,1.0,7.0
2400000.0,9.96875,2.4618713521502084E-7,2400000.0,65.5,30.373360242179633,30.583501006036222,27.672955974842772,117366.0,2904.0,0.0,1.0,0.0,?,0.0,0.0
2500000.0,10.375,2.562176086939871E-7,2500000.0,66.2,31.643982445851115,29.288702928870297,27.311827956989248,137366.0,2904.0,0.0,1.0,0.0,?,0.0,0.0
2600000.0,10.78125,2.646506052567727E-7,2600000.0,67.60000000000001,34.412158852131824,36.96498054474709,29.7180043383948,157366.0,2904.0,0.0,1.0,0.0,?,0.0,0.0
2700000.0,11.203125,2.7174902950517003E-7,2700000.0,64.1,27.702011454901367,25.052192066805844,25.052192066805844,177366.0,2904.0,0.0,1.0,0.0,?,0.0,0.0
2800000.0,11.609375,2.769870722355942E-7,2800000.0,64.5,28.967609229808794,30.3921568627451,29.000000000000004,197366.0,2904.0,0.0,1.0,0.0,?,0.0,0.0
2900000.0,12.03125,2.807676598119239E-7,2900000.0,66.7,32.92186706846402,31.340206185567016,29.59830866807611,217366.0,2904.0,0.0,1.0,0.0,?,0.0,0.0
3000000.0,12.453125,2.8288932905221976E-7,3000000.0,63.9,27.442436326215592,28.65612648221344,25.413223140495866,237366.0,2904.0,0.0,1.0,0.0,?,0.0,0.0
3100000.0,12.84375,2.9869351742996105E-7,3100000.0,67.9,35.679592196592026,35.671342685370746,34.22131147540984,257166.0,2904.0,0.0,1.0,0.0,?,0.0,0.0
3200000.0,13.265625,3.1410312254188783E-7,3200000.0,65.9,31.098305139541093,30.408163265306126,29.979466119096514,277166.0,2904.0,0.0,1.0,0.0,?,0.0,0.0
3300000.0,13.671875,3.273445246223774E-7,3300000.0,66.7,33.179224156613465,34.960937500000014,31.481481481481488,297166.0,2904.0,0.0,1.0,0.0,?,0.0,0.0
3400000.0,14.078125,3.3898844978668617E-7,3400000.0,64.4,28.762386540093164,30.058939096267196,28.65731462925852,317166.0,2904.0,0.0,1.0,0.0,?,0.0,0.0
3500000.0,14.5,3.494212998905115E-7,3500000.0,65.4,30.662434269590875,30.382293762575458,29.243353783231086,337166.0,2904.0,0.0,1.0,0.0,?,0.0,0.0
3600000.0,14.90625,3.5787027122245885E-7,3600000.0,66.9,33.23112922096262,27.412280701754387,28.509719222462206,357166.0,2904.0,0.0,1.0,0.0,?,0.0,0.0
3700000.0,15.296875,3.644582466222345E-7,3700000.0,65.60000000000001,30.96805265692728,30.505050505050512,29.50819672131148,377166.0,2904.0,0.0,1.0,0.0,?,0.0,0.0
3800000.0,15.71875,3.6991434171795834E-7,3800000.0,67.4,34.60118761033543,34.80000000000001,33.46938775510205,397166.0,2904.0,0.0,1.0,0.0,?,0.0,0.0
3900000.0,16.125,3.735708823013636E-7,3900000.0,63.9,27.524011435546562,28.51485148514852,23.354564755838638,417166.0,2904.0,0.0,1.0,0.0,?,0.0,0.0
4000000.0,16.53125,3.756299459685881E-7,4000000.0,67.60000000000001,34.6236420281199,35.84158415841585,28.47682119205298,437166.0,2904.0,0.0,1.0,0.0,?,0.0,0.0
4100000.0,16.953125,3.92715058599909E-7,4100000.0,64.8,29.368611571508264,28.455284552845534,26.513569937369518,456966.0,2904.0,0.0,1.0,0.0,?,0.0,0.0
4200000.0,17.359375,4.075699123657411E-7,4200000.0,65.0,29.61230457359136,30.555555555555557,29.435483870967744,476966.0,2904.0,0.0,1.0,0.0,?,0.0,0.0
4300000.0,17.765625,4.2082728921539243E-7,4300000.0,65.0,29.485526400618905,30.000000000000004,22.566371681415927,496966.0,2904.0,0.0,1.0,0.0,?,0.0,0.0
4400000.0,18.1875,4.329356468386119E-7,4400000.0,67.9,35.38127063370642,34.22131147540984,32.135306553911214,516966.0,2904.0,0.0,1.0,0.0,?,0.0,0.0
4500000.0,18.609375,4.433850861257976E-7,4500000.0,64.9,29.45574403087065,29.800000000000004,26.875000000000004,536966.0,2904.0,0.0,1.0,0.0,?,0.0,0.0
4600000.0,19.015625,4.5185003222690676E-7,4600000.0,66.8,33.766114584621775,33.996023856858855,35.78336557059962,556966.0,2904.0,0.0,1.0,0.0,?,0.0,0.0
4700000.0,19.4375,4.589816348420248E-7,4700000.0,63.0,25.831786491763324,28.433268858800776,24.643584521384927,576966.0,2904.0,0.0,1.0,0.0,?,0.0,0.0
4800000.0,19.84375,4.6425162711077255E-7,4800000.0,65.3,29.99572308164073,27.405857740585777,25.05399568034557,596966.0,2904.0,0.0,1.0,0.0,?,0.0,0.0
4900000.0,20.265625,4.6806539305382296E-7,4900000.0,64.7,29.454179190381797,29.681274900398407,29.681274900398407,616966.0,2904.0,0.0,1.0,0.0,?,0.0,0.0
5000000.0,20.671875,4.7038341613693363E-7,5000000.0,66.2,32.18216912723669,30.737704918032794,30.87934560327199,636966.0,2904.0,0.0,1.0,0.0,?,0.0,0.0
5100000.0,21.078125,4.870947062348325E-7,5100000.0,47.699999999999996,-3.2168936254193885,-11.513859275053315,-16.22222222222224,656766.0,2904.0,0.0,1.0,0.0,?,0.0,0.0
5200000.0,21.484375,5.022085194165507E-7,5200000.0,46.1,-5.032191684724152,-9.552845528455283,-22.779043280182243,676766.0,2904.0,0.0,1.0,0.0,?,0.0,0.0
5300000.0,21.90625,5.162447147692242E-7,5300000.0,47.199999999999996,-3.7735849056603876,-10.69182389937108,-15.789473684210542,696766.0,2904.0,0.0,1.0,0.0,?,0.0,0.0
5400000.0,22.3125,5.28163574118581E-7,5400000.0,51.1,4.9008168028004775,-1.8750000000000018,-13.98601398601397,716766.0,2904.0,0.0,1.0,0.0,?,0.0,0.0
5500000.0,22.734375,5.388819327991868E-7,5500000.0,51.7,4.56054378754347,-2.765957446808513,-3.2051282051282084,736766.0,2904.0,0.0,1.0,0.0,?,0.0,0.0
5600000.0,23.140625,5.476058383161822E-7,5600000.0,50.7,3.804878048780481,0.20242914979757104,-9.555555555555564,756766.0,2904.0,0.0,1.0,0.0,?,0.0,0.0
5700000.0,23.546875,5.547322669169968E-7,5700000.0,53.1,9.809079860309831,3.2989690721649514,-6.833712984054677,776766.0,2904.0,0.0,1.0,0.0,?,0.0,0.0
5800000.0,23.96875,5.604738705895012E-7,5800000.0,52.6,8.705701078582438,-0.42372881355932246,-7.7272727272727355,796766.0,2904.0,0.0,1.0,0.0,?,0.0,0.0
5900000.0,24.375,5.644053453579544E-7,5900000.0,49.5,2.940611185854311,-2.2267206477732815,-14.253393665158384,816766.0,2904.0,0.0,1.0,0.0,?,0.0,0.0
6000000.0,24.796875,5.668291123583911E-7,6000000.0,53.2,9.80816891311136,6.024096385542174,-3.3112582781456985,836766.0,2904.0,0.0,1.0,0.0,?,0.0,0.0
6100000.0,25.21875,5.841997335664926E-7,6100000.0,53.5,9.58654803384769,6.813627254509023,-2.8761061946902684,856566.0,2904.0,0.0,1.0,0.0,?,0.0,0.0
6200000.0,25.640625,5.999114364385603E-7,6200000.0,52.5,7.2779942375713444,2.061855670103095,-2.5917926565874754,876566.0,2904.0,0.0,1.0,0.0,?,0.0,0.0
6300000.0,26.046875,6.134437474732595E-7,6300000.0,57.8,17.012774526461506,17.898832684824896,8.658008658008642,896566.0,2904.0,0.0,1.0,0.0,?,0.0,0.0
6400000.0,26.453125,6.253785815917781E-7,6400000.0,57.3,16.971299681107553,14.25702811244979,2.9545454545454324,916566.0,2904.0,0.0,1.0,0.0,?,0.0,0.0
6500000.0,26.859375,6.35715938794116E-7,6500000.0,52.0,6.797564309680625,2.040816326530614,-8.108108108108118,936566.0,2904.0,0.0,1.0,0.0,?,0.0,0.0
6600000.0,27.28125,6.447919683220483E-7,6600000.0,56.2,14.968957845569673,1.3513513513513526,-7.09046454767724,956566.0,2904.0,0.0,1.0,0.0,?,0.0,0.0
6700000.0,27.703125,6.522090795139469E-7,6700000.0,53.7,9.119459820201794,-0.4338394793926252,-4.044943820224723,976566.0,2904.0,0.0,1.0,0.0,?,0.0,0.0
6800000.0,28.125,6.579672723698116E-7,6800000.0,56.699999999999996,14.772503601993488,11.451942740286286,0.23041474654377897,996566.0,2904.0,0.0,1.0,0.0,?,0.0,0.0
6900000.0,28.515625,6.617628969252106E-7,6900000.0,56.8,15.306406521406693,9.623430962343082,-0.23201856148491895,1016566.0,2904.0,0.0,1.0,0.0,?,0.0,0.0
7000000.0,28.921875,6.641128695466449E-7,7000000.0,57.4,16.43617960336609,14.79999999999999,4.269662921348294,1036566.0,2904.0,0.0,1.0,0.0,?,0.0,0.0
7100000.0,29.328125,6.808561091828675E-7,7100000.0,54.2,10.82554517133958,12.260536398467444,-6.018518518518498,1056366.0,2904.0,0.0,1.0,0.0,?,0.0,0.0
7200000.0,29.75,6.965844012382954E-7,7200000.0,55.00000000000001,11.575720657876653,9.63855421686748,-1.1235955056179787,1076366.0,2904.0,0.0,1.0,0.0,?,0.0,0.0
7300000.0,30.171875,7.106537749576896E-7,7300000.0,55.60000000000001,11.863141721686032,10.121457489878551,4.9250535331905825,1096366.0,2904.0,0.0,1.0,0.0,?,0.0,0.0
7400000.0,30.59375,7.230642303410499E-7,7400000.0,54.1,9.56377822437641,7.459677419354846,-5.517241379310323,1116366.0,2904.0,0.0,1.0,0.0,?,0.0,0.0
7500000.0,31.015625,7.338157673883765E-7,7500000.0,56.8,15.094339622641503,9.812108559498942,3.999999999999979,1136366.0,2904.0,0.0,1.0,0.0,?,0.0,0.0
7600000.0,31.4375,7.429083860996691E-7,7600000.0,55.800000000000004,13.021917689610262,9.05349794238684,-0.6833712984054676,1156366.0,2904.0,0.0,1.0,0.0,?,0.0,0.0
7700000.0,31.84375,7.500667642388073E-7,7700000.0,57.8,16.05564993216818,12.448132780082977,4.308390022675717,1176366.0,2904.0,0.0,1.0,0.0,?,0.0,0.0
7800000.0,32.265625,7.558415462780324E-7,7800000.0,55.900000000000006,13.16914886076349,8.695652173913052,-3.2786885245901405,1196366.0,2904.0,0.0,1.0,0.0,?,0.0,0.0
7900000.0,32.671875,7.598049705848092E-7,7900000.0,55.50000000000001,11.689528164094742,13.75968992248063,4.914529914529919,1216366.0,2904.0,0.0,1.0,0.0,?,0.0,0.0
8000000.0,33.078125,7.621709179754053E-7,8000000.0,55.400000000000006,11.967313423997803,3.6717062634989235,0.6681514476614705,1236366.0,2904.0,0.0,1.0,0.0,?,0.0,0.0
8100000.0,33.5,7.795747175502275E-7,8100000.0,55.300000000000004,11.429024332250131,12.69531250000001,3.036876355748376,1256166.0,2904.0,0.0,1.0,0.0,?,0.0,0.0
8200000.0,33.921875,7.953195987890159E-7,8200000.0,57.99999999999999,17.040314456712803,15.66265060240963,5.191873589164766,1276166.0,2904.0,0.0,1.0,0.0,?,0.0,0.0
8300000.0,34.3125,8.083621570323072E-7,8300000.0,54.7,11.31558339859046,9.40000000000001,-5.841121495327081,1296166.0,2904.0,0.0,1.0,0.0,?,0.0,0.0
8400000.0,34.734375,8.20789201599028E-7,8400000.0,57.49999999999999,17.04403497813866,12.90983606557376,-0.47281323877068593,1316166.0,2904.0,0.0,1.0,0.0,?,0.0,0.0
8500000.0,35.140625,8.311585083396895E-7,8500000.0,56.3,13.65342817624974,14.481409001956939,2.888888888888867,1336166.0,2904.0,0.0,1.0,0.0,?,0.0,0.0
8600000.0,35.546875,8.399303381641702E-7,8600000.0,57.99999999999999,16.895862601159475,16.996047430830032,6.873614190687344,1356166.0,2904.0,0.0,1.0,0.0,?,0.0,0.0
8700000.0,35.96875,8.473806277227895E-7,8700000.0,55.00000000000001,11.252406045880544,9.63855421686748,1.746724890829696,1376166.0,2904.0,0.0,1.0,0.0,?,0.0,0.0
8800000.0,36.375,8.529575037149088E-7,8800000.0,55.1,11.735797129939069,4.872881355932208,-1.5837104072398207,1396166.0,2904.0,0.0,1.0,0.0,?,0.0,0.0
8900000.0,36.78125,8.569369027908474E-7,8900000.0,56.8,14.653854208236686,14.792899408284017,1.1441647597254012,1416166.0,2904.0,0.0,1.0,0.0,?,0.0,0.0
9000000.0,37.203125,8.594104373413652E-7,9000000.0,55.1,11.06093019570557,9.475806451612911,1.535087719298247,1436166.0,2904.0,0.0,1.0,0.0,?,0.0,0.0
9100000.0,37.609375,8.761856265159114E-7,9100000.0,55.300000000000004,11.573400012660644,12.007874015748042,2.188183807439827,1455966.0,2904.0,0.0,1.0,0.0,?,0.0,0.0
9200000.0,38.03125,8.919470969380601E-7,9200000.0,56.39999999999999,13.437102922490443,13.320079522862812,5.217391304347807,1475966.0,2904.0,0.0,1.0,0.0,?,0.0,0.0
9300000.0,38.4375,9.055273322802449E-7,9300000.0,56.699999999999996,13.72714665986578,12.170385395537513,11.270491803278675,1495966.0,2904.0,0.0,1.0,0.0,?,0.0,0.0
9400000.0,38.859375,9.17970966030326E-7,9400000.0,55.2,11.56731148835374,12.328767123287681,0.44444444444444486,1515966.0,2904.0,0.0,1.0,0.0,?,0.0,0.0
9500000.0,39.28125,9.287556814443732E-7,9500000.0,54.50000000000001,10.127362366474946,4.008438818565405,-4.357798165137592,1535966.0,2904.0,0.0,1.0,0.0,?,0.0,0.0
9600000.0,39.6875,9.375434860380158E-7,9600000.0,56.2,13.232963549920756,11.156186612576075,4.782608695652178,1555966.0,2904.0,0.0,1.0,0.0,?,0.0,0.0
9700000.0,40.109375,9.450103647799954E-7,9700000.0,56.00000000000001,13.760324261180795,6.18336886993604,-5.011933174224321,1575966.0,2904.0,0.0,1.0,0.0,?,0.0,0.0
9800000.0,40.5,9.503881058966119E-7,9800000.0,55.60000000000001,12.69878722099006,11.377245508982046,-0.45248868778280593,1595966.0,2904.0,0.0,1.0,0.0,?,0.0,0.0
9900000.0,40.921875,9.545371479665238E-7,9900000.0,53.7,9.149418791746148,6.275303643724701,-4.7511312217194615,1615966.0,2904.0,0.0,1.0,0.0,?,0.0,0.0
1.0E7,41.34375,9.570272717004018E-7,1.0E7,55.50000000000001,13.037020824213622,8.811475409836074,-1.3667425968109352,1635966.0,2904.0,0.0,1.0,0.0,?,0.0,0.0
