learning evaluation instances,evaluation time (cpu seconds),model cost (RAM-Hours),classified instances,classifications correct (percent),Kappa Statistic (percent),Kappa Temporal Statistic (percent),Kappa M Statistic (percent),model training instances,model serialized size (bytes),labeling cost,newThreshold,maxPosterior,accuracyBaseLearner (percent),Change detected,Warning detected
100000.0,0.15625,6.565824151039124E-9,100000.0,64.3,0.0,22.052401746724886,0.0,7691.0,9232.0,0.0,1.0,0.0,?,2.0,23.0
200000.0,0.3125,1.2549571692943574E-8,200000.0,62.1,0.0,19.532908704883223,0.0,17691.0,9232.0,0.0,1.0,0.0,?,0.0,8.0
300000.0,0.453125,1.739826984703541E-8,300000.0,61.8,0.0,22.828282828282827,0.0,27691.0,9232.0,0.0,1.0,0.0,?,0.0,26.0
400000.0,0.609375,2.2217864170670512E-8,400000.0,63.4,0.0,25.760649087221093,0.0,37691.0,9232.0,0.0,1.0,0.0,?,0.0,14.0
500000.0,0.75,2.6031630113720895E-8,500000.0,60.699999999999996,0.0,17.782426778242673,0.0,47691.0,9232.0,0.0,1.0,0.0,?,0.0,0.0
600000.0,0.90625,2.968707121908665E-8,600000.0,60.699999999999996,0.0,18.124999999999993,0.0,57691.0,9232.0,0.0,1.0,0.0,?,0.0,0.0
700000.0,1.0625,3.276043571531773E-8,700000.0,63.7,0.0,21.086956521739125,0.0,67691.0,9232.0,0.0,1.0,0.0,?,0.0,0.0
800000.0,1.203125,3.500259481370449E-8,800000.0,64.0,0.0,22.413793103448274,0.0,77691.0,9232.0,0.0,1.0,0.0,?,0.0,0.0
900000.0,1.34375,3.672088496387005E-8,900000.0,61.1,0.0,19.793814432989688,0.0,87691.0,9232.0,0.0,1.0,0.0,?,0.0,0.0
1000000.0,1.5,3.8048019632697104E-8,1000000.0,60.8,0.0,17.299578059071724,0.0,97691.0,9232.0,0.0,1.0,0.0,?,0.0,0.0
1100000.0,1.640625,4.396250005811453E-8,1100000.0,61.5,0.0,17.20430107526881,0.0,107591.0,9232.0,0.0,1.0,0.0,?,0.0,0.0
1200000.0,1.796875,4.995206836611032E-8,1200000.0,63.2,0.0,23.492723492723492,0.0,117591.0,9232.0,0.0,1.0,0.0,?,0.0,0.0
1300000.0,1.921875,5.427806172519922E-8,1300000.0,60.4,0.0,22.957198443579767,0.0,127591.0,9232.0,0.0,1.0,0.0,?,0.0,0.0
1400000.0,2.078125,5.910347681492567E-8,1400000.0,63.800000000000004,0.0,16.589861751152085,0.0,137591.0,9232.0,0.0,1.0,0.0,?,0.0,0.0
1500000.0,2.21875,6.292248144745827E-8,1500000.0,61.3,0.0,13.808463251670366,0.0,147591.0,9232.0,0.0,1.0,0.0,?,0.0,0.0
1600000.0,2.359375,6.621761713176965E-8,1600000.0,61.1,0.0,15.434782608695643,0.0,157591.0,9232.0,0.0,1.0,0.0,?,0.0,0.0
1700000.0,2.515625,6.929680239409208E-8,1700000.0,61.1,0.0,17.05756929637526,0.0,167591.0,9232.0,0.0,1.0,0.0,?,0.0,0.0
1800000.0,2.65625,7.154420018196105E-8,1800000.0,61.6,0.0,20.98765432098765,0.0,177591.0,9232.0,0.0,1.0,0.0,?,0.0,0.0
1900000.0,2.796875,7.326772902160882E-8,1900000.0,61.3,0.0,16.77419354838709,0.0,187591.0,9232.0,0.0,1.0,0.0,?,0.0,0.0
2000000.0,2.953125,7.460068445652723E-8,2000000.0,62.5,0.0,19.181034482758616,0.0,197591.0,9232.0,0.0,1.0,0.0,?,0.0,0.0
2100000.0,3.09375,8.052040357142686E-8,2100000.0,61.7,0.0,22.312373225152125,0.0,207491.0,9232.0,0.0,1.0,0.0,?,0.0,0.0
2200000.0,3.234375,8.590635843575E-8,2200000.0,64.0,0.0,24.369747899159663,0.0,217491.0,9232.0,0.0,1.0,0.0,?,0.0,2.0
2300000.0,3.375,9.074370609596371E-8,2300000.0,63.4,0.0,16.247139588100698,0.0,227491.0,9232.0,0.0,1.0,0.0,?,0.0,20.0
2400000.0,3.53125,9.55749419517815E-8,2400000.0,60.3,0.0,20.281124497991964,0.0,237491.0,9232.0,0.0,1.0,0.0,?,0.0,2.0
2500000.0,3.671875,9.939365554600954E-8,2500000.0,60.0,0.0,17.864476386036955,0.0,247491.0,9232.0,0.0,1.0,0.0,?,0.0,45.0
2600000.0,3.8125,1.0268384357914329E-7,2600000.0,59.4,0.0,12.499999999999988,0.0,257491.0,9232.0,0.0,1.0,0.0,?,0.0,17.0
2700000.0,3.953125,1.0545016266405583E-7,2700000.0,63.1,0.0,16.70428893905191,0.0,267491.0,9232.0,0.0,1.0,0.0,?,0.0,0.0
2800000.0,4.09375,1.0769261280074717E-7,2800000.0,62.9,0.0,19.172113289760343,0.0,277491.0,9232.0,0.0,1.0,0.0,?,0.0,0.0
2900000.0,4.234375,1.094111939892173E-7,2900000.0,63.0,0.0,24.643584521384927,0.0,287491.0,9232.0,0.0,1.0,0.0,?,0.0,0.0
3000000.0,4.375,1.1060590622946622E-7,3000000.0,61.3,0.0,16.59482758620689,0.0,297491.0,9232.0,0.0,1.0,0.0,?,0.0,0.0
3100000.0,4.515625,1.1652067769318821E-7,3100000.0,60.4,0.0,16.455696202531637,0.0,307391.0,9232.0,0.0,1.0,0.0,?,0.0,0.0
3200000.0,4.671875,1.2251056937707797E-7,3200000.0,62.5,0.0,21.71189979123173,0.0,317391.0,9232.0,0.0,1.0,0.0,?,0.0,0.0
3300000.0,4.796875,1.2683682143688204E-7,3300000.0,62.1,0.0,21.369294605809124,0.0,327391.0,9232.0,0.0,1.0,0.0,?,0.0,0.0
3400000.0,4.9375,1.311799860559404E-7,3400000.0,62.1,0.0,21.205821205821202,0.0,337391.0,9232.0,0.0,1.0,0.0,?,0.0,0.0
3500000.0,5.078125,1.3499928172677755E-7,3500000.0,60.5,0.0,12.416851441241674,0.0,347391.0,9232.0,0.0,1.0,0.0,?,0.0,0.0
3600000.0,5.21875,1.382947084493935E-7,3600000.0,61.9,0.0,16.079295154185015,0.0,357391.0,9232.0,0.0,1.0,0.0,?,0.0,0.0
3700000.0,5.359375,1.4106626622378823E-7,3700000.0,64.0,0.0,21.739130434782606,0.0,367391.0,9232.0,0.0,1.0,0.0,?,0.0,0.0
3800000.0,5.515625,1.4356369825286995E-7,3800000.0,63.2,0.0,17.673378076062633,0.0,377391.0,9232.0,0.0,1.0,0.0,?,0.0,0.0
3900000.0,5.65625,1.4528751813082228E-7,3900000.0,63.5,0.0,23.157894736842103,0.0,387391.0,9232.0,0.0,1.0,0.0,?,0.0,0.0
4000000.0,5.796875,1.464874690605534E-7,4000000.0,61.1,0.0,18.44863731656184,0.0,397391.0,9232.0,0.0,1.0,0.0,?,0.0,0.0
4100000.0,5.9375,1.524074792137576E-7,4100000.0,62.5,0.0,20.212765957446805,0.0,407291.0,9232.0,0.0,1.0,0.0,?,0.0,0.0
4200000.0,6.078125,1.5780362041874058E-7,4200000.0,60.9,0.0,16.631130063965877,0.0,417291.0,9232.0,0.0,1.0,0.0,?,0.0,0.0
4300000.0,6.21875,1.6267589267550237E-7,4300000.0,61.5,0.0,17.910447761194025,0.0,427291.0,9232.0,0.0,1.0,0.0,?,0.0,0.0
4400000.0,6.359375,1.6702429598404295E-7,4400000.0,60.4,0.0,16.806722689075624,0.0,437291.0,9232.0,0.0,1.0,0.0,?,0.0,0.0
4500000.0,6.484375,1.704238820821046E-7,4500000.0,66.60000000000001,0.0,27.39130434782609,0.0,447291.0,9232.0,0.0,1.0,0.0,?,0.0,0.0
4600000.0,6.625,1.7372454749420278E-7,4600000.0,63.4,0.0,19.383259911894267,0.0,457291.0,9232.0,0.0,1.0,0.0,?,0.0,0.0
4700000.0,6.75,1.7619281101764896E-7,4700000.0,62.4,0.0,20.338983050847453,0.0,467291.0,9232.0,0.0,1.0,0.0,?,0.0,0.0
4800000.0,6.890625,1.784457385333047E-7,4800000.0,62.6,0.0,21.757322175732213,0.0,477291.0,9232.0,0.0,1.0,0.0,?,0.0,0.0
4900000.0,7.046875,1.803669147193431E-7,4900000.0,62.8,0.0,21.684210526315788,0.0,487291.0,9232.0,0.0,1.0,0.0,?,0.0,0.0
5000000.0,7.1875,1.8169259419664732E-7,5000000.0,62.5,0.0,19.006479481641463,0.0,497291.0,9232.0,0.0,1.0,0.0,?,0.0,0.0
5100000.0,7.3125,1.8707874308650684E-7,5100000.0,43.2,0.0,-18.58037578288101,-31.481481481481467,507191.0,9232.0,0.0,1.0,0.0,?,0.0,1.0
5200000.0,7.453125,1.9261429163937758E-7,5200000.0,45.2,0.0,-6.614785992217893,-21.238938053097353,517191.0,9232.0,0.0,1.0,0.0,?,0.0,0.0
5300000.0,7.609375,1.9818282453343262E-7,5300000.0,46.0,0.0,-12.266112266112266,-17.391304347826093,527191.0,9232.0,0.0,1.0,0.0,?,0.0,0.0
5400000.0,7.75,2.0267063518986095E-7,5400000.0,46.0,0.0,-6.719367588932801,-17.391304347826093,537191.0,9232.0,0.0,1.0,0.0,?,0.0,0.0
5500000.0,7.90625,2.0707501486564665E-7,5500000.0,46.300000000000004,0.0,-11.410788381742737,-15.98272138228942,547191.0,9232.0,0.0,1.0,0.0,?,0.0,0.0
5600000.0,8.046875,2.1051508762563256E-7,5600000.0,45.2,0.0,-7.874015748031492,-21.238938053097353,557191.0,9232.0,0.0,1.0,0.0,?,0.0,0.0
5700000.0,8.203125,2.137553140831489E-7,5700000.0,43.3,0.0,-15.714285714285717,-30.946882217090057,567191.0,9232.0,0.0,1.0,0.0,?,0.0,0.0
5800000.0,8.34375,2.161476489466924E-7,5800000.0,44.1,0.0,-12.024048096192384,-26.757369614512488,577191.0,9232.0,0.0,1.0,0.0,?,0.0,0.0
5900000.0,8.484375,2.180161148620147E-7,5900000.0,49.1,0.0,-6.708595387840677,-1.8000000000000016,587191.0,9232.0,0.0,1.0,0.0,?,0.0,0.0
6000000.0,8.640625,2.1951011149212703E-7,6000000.0,45.7,0.0,-5.642023346303496,-18.8183807439825,597191.0,9232.0,0.0,1.0,0.0,?,0.0,0.0
6100000.0,8.78125,2.255747676827012E-7,6100000.0,47.199999999999996,0.0,-1.9305019305019322,-11.864406779661028,607091.0,9232.0,0.0,1.0,0.0,?,0.0,0.0
6200000.0,8.921875,2.3111555492505417E-7,6200000.0,46.2,0.0,-9.127789046653142,-16.450216450216455,617091.0,9232.0,0.0,1.0,0.0,?,0.0,0.0
6300000.0,9.078125,2.3668990858520058E-7,6300000.0,48.4,0.0,-0.19417475728155356,-6.61157024793389,627091.0,9232.0,0.0,1.0,0.0,?,0.0,0.0
6400000.0,9.203125,2.4068373022601E-7,6400000.0,49.5,0.0,4.536862003780722,-1.6096579476861181,637091.0,9232.0,0.0,1.0,0.0,?,0.0,0.0
6500000.0,9.34375,2.446529106236993E-7,6500000.0,48.0,0.0,-9.936575052854133,-9.01467505241091,647091.0,9232.0,0.0,1.0,0.0,?,0.0,0.0
6600000.0,9.5,2.4848103445644165E-7,6600000.0,48.199999999999996,0.0,-0.38759689922480656,-7.4688796680498,657091.0,9232.0,0.0,1.0,0.0,?,0.0,0.0
6700000.0,9.625,2.510809766439099E-7,6700000.0,65.2,28.84570559297291,26.42706131078224,23.178807947019866,163564.0,9328.0,0.0,1.0,0.0,?,1.0,12.0
6800000.0,9.78125,2.5374882776911045E-7,6800000.0,69.1,36.93929029150782,39.648437499999986,32.53275109170304,173564.0,9328.0,0.0,1.0,0.0,?,0.0,0.0
6900000.0,9.90625,2.554174473819632E-7,6900000.0,68.30000000000001,35.39841043407378,36.726546906187636,29.555555555555564,183564.0,9328.0,0.0,1.0,0.0,?,0.0,0.0
7000000.0,10.0625,2.5692114528889443E-7,7000000.0,65.2,29.120771687414454,29.41176470588236,23.008849557522122,193564.0,9328.0,0.0,1.0,0.0,?,0.0,0.0
7100000.0,10.203125,2.629945326286056E-7,7100000.0,66.10000000000001,31.384852042262075,32.47011952191235,28.329809725158565,203464.0,9328.0,0.0,1.0,0.0,?,0.0,0.0
7200000.0,10.359375,2.691606641747056E-7,7200000.0,64.3,28.350660297836477,29.585798816568055,26.84426229508197,213464.0,9328.0,0.0,1.0,0.0,?,0.0,0.0
7300000.0,10.5,2.741863136179744E-7,7300000.0,66.5,32.55214625110736,33.66336633663367,30.208333333333336,223464.0,9328.0,0.0,1.0,0.0,?,0.0,0.0
7400000.0,10.65625,2.7918829194580503E-7,7400000.0,66.9,33.06965608722379,35.603112840466935,29.42430703624734,233464.0,9328.0,0.0,1.0,0.0,?,0.0,0.0
7500000.0,10.796875,2.831662034926314E-7,7500000.0,66.60000000000001,32.18632112822471,34.63796477495109,27.861771058315338,243464.0,9328.0,0.0,1.0,0.0,?,0.0,0.0
7600000.0,10.953125,2.870040286021927E-7,7600000.0,65.4,30.220832913179397,33.58925143953935,27.15789473684211,253464.0,9328.0,0.0,1.0,0.0,?,0.0,0.0
7700000.0,11.09375,2.8993420225257665E-7,7700000.0,66.8,32.66921928742943,36.76190476190477,28.448275862068968,263464.0,9328.0,0.0,1.0,0.0,?,0.0,0.0
7800000.0,11.21875,2.920731397656102E-7,7800000.0,65.0,29.219718173140713,29.5774647887324,26.160337552742618,273464.0,9328.0,0.0,1.0,0.0,?,0.0,0.0
7900000.0,11.34375,2.9374641599133603E-7,7900000.0,66.3,32.13854208618608,31.64300202839757,30.227743271221534,283464.0,9328.0,0.0,1.0,0.0,?,0.0,0.0
8000000.0,11.484375,2.9510498279705637E-7,8000000.0,66.8,31.84402957804885,30.83333333333334,25.056433408577877,293464.0,9328.0,0.0,1.0,0.0,?,0.0,0.0
8100000.0,11.625,3.011836088262498E-7,8100000.0,66.9,33.195553366863386,35.85271317829458,30.16877637130802,303364.0,9328.0,0.0,1.0,0.0,?,0.0,0.0
8200000.0,11.78125,3.0735556113844114E-7,8200000.0,67.30000000000001,33.58841879508676,30.866807610993664,30.12820512820513,313364.0,9328.0,0.0,1.0,0.0,?,0.0,0.0
8300000.0,11.9375,3.129454368414978E-7,8300000.0,67.5,34.21691819418358,37.73946360153258,30.555555555555564,323364.0,9328.0,0.0,1.0,0.0,?,0.0,0.0
8400000.0,12.0625,3.169516761166354E-7,8400000.0,66.8,32.87505054589568,35.029354207436405,29.361702127659576,333364.0,9328.0,0.0,1.0,0.0,?,0.0,0.0
8500000.0,12.21875,3.2137739860142274E-7,8500000.0,68.4,36.06345095500163,36.03238866396762,31.89655172413794,343364.0,9328.0,0.0,1.0,0.0,?,0.0,0.0
8600000.0,12.359375,3.2483667988951013E-7,8600000.0,65.10000000000001,29.647876535047047,29.06504065040651,27.593360995850624,353364.0,9328.0,0.0,1.0,0.0,?,0.0,0.0
8700000.0,12.515625,3.280982491560281E-7,8700000.0,65.4,29.509746398070273,28.364389233954455,24.12280701754386,363364.0,9328.0,0.0,1.0,0.0,?,0.0,0.0
8800000.0,12.640625,3.3024184328193474E-7,8800000.0,69.6,38.41141981936717,38.08553971486761,34.9036402569593,373364.0,9328.0,0.0,1.0,0.0,?,0.0,0.0
8900000.0,12.78125,3.321295177253585E-7,8900000.0,68.2,36.12790487476652,37.02970297029704,34.43298969072166,383364.0,9328.0,0.0,1.0,0.0,?,0.0,0.0
9000000.0,12.921875,3.3349332322056107E-7,9000000.0,66.60000000000001,32.45648094221188,34.63796477495109,28.784648187633266,393364.0,9328.0,0.0,1.0,0.0,?,0.0,0.0
9100000.0,13.0625,3.395771879392367E-7,9100000.0,67.10000000000001,33.016263406927216,37.57115749525618,27.373068432671083,403264.0,9328.0,0.0,1.0,0.0,?,0.0,0.0
9200000.0,13.21875,3.4575496101751937E-7,9200000.0,69.19999999999999,37.79185315645751,38.64541832669322,35.02109704641349,413264.0,9328.0,0.0,1.0,0.0,?,0.0,0.0
9300000.0,13.359375,3.507910878397526E-7,9300000.0,66.2,31.411224208185207,33.464566929133866,27.467811158798284,423264.0,9328.0,0.0,1.0,0.0,?,0.0,0.0
9400000.0,13.515625,3.558047076997659E-7,9400000.0,64.7,28.664963786859797,23.92241379310345,25.995807127882603,433264.0,9328.0,0.0,1.0,0.0,?,0.0,0.0
9500000.0,13.65625,3.5979309662555673E-7,9500000.0,66.60000000000001,32.625157846748465,30.2713987473904,29.386892177589857,443264.0,9328.0,0.0,1.0,0.0,?,0.0,0.0
9600000.0,13.8125,3.636425632673007E-7,9600000.0,67.0,33.10765613281173,36.17021276595745,29.93630573248408,453264.0,9328.0,0.0,1.0,0.0,?,0.0,0.0
9700000.0,13.953125,3.665832142966491E-7,9700000.0,67.2,33.11173195750148,30.508474576271194,27.912087912087912,463264.0,9328.0,0.0,1.0,0.0,?,0.0,0.0
9800000.0,14.109375,3.692685277201237E-7,9800000.0,64.7,28.532093746456983,30.91976516634051,24.411134903640257,473264.0,9328.0,0.0,1.0,0.0,?,0.0,0.0
9900000.0,14.25,3.711614408530297E-7,9900000.0,67.4,33.44439544645337,34.2741935483871,29.43722943722944,483264.0,9328.0,0.0,1.0,0.0,?,0.0,0.0
1.0E7,14.40625,3.72682601058235E-7,1.0E7,69.8,39.117813079590356,38.86639676113359,36.82008368200835,493264.0,9328.0,0.0,1.0,0.0,?,0.0,0.0
