learning evaluation instances,evaluation time (cpu seconds),model cost (RAM-Hours),classified instances,classifications correct (percent),Kappa Statistic (percent),Kappa Temporal Statistic (percent),Kappa M Statistic (percent),model training instances,model serialized size (bytes),labeling cost,newThreshold,maxPosterior,accuracyBaseLearner (percent),Change detected,Warning detected
100000.0,0.75,1.5626040597756706E-8,100000.0,72.2,36.51605595721456,40.21505376344085,24.66124661246612,56676.0,2904.0,0.0,1.0,0.0,?,2.0,119.0
200000.0,1.5,2.8301340838273368E-8,200000.0,71.7,36.66806906984863,42.24489795918366,23.71967654986522,116676.0,2904.0,0.0,1.0,0.0,?,0.0,5.0
300000.0,2.25,3.802745292584102E-8,300000.0,70.5,34.71024628623027,40.4040404040404,24.744897959183664,176676.0,2904.0,0.0,1.0,0.0,?,0.0,0.0
400000.0,2.984375,4.466319094515509E-8,400000.0,71.5,36.12901490771203,37.36263736263735,25.19685039370078,236676.0,2904.0,0.0,1.0,0.0,?,0.0,0.0
500000.0,3.71875,4.841118223137326E-8,500000.0,71.6,36.627229761995075,39.44562899786779,23.45013477088948,296676.0,2904.0,0.0,1.0,0.0,?,0.0,0.0
600000.0,4.453125,6.370560084987018E-8,600000.0,73.3,40.31278781754939,44.14225941422594,28.609625668449194,356376.0,2904.0,0.0,1.0,0.0,?,0.0,27.0
700000.0,5.203125,7.637624447751377E-8,700000.0,73.6,40.39017341040463,39.72602739726027,26.66666666666666,416376.0,2904.0,0.0,1.0,0.0,?,0.0,0.0
800000.0,5.9375,8.589516962981887E-8,800000.0,72.1,37.07996932930405,40.63829787234042,22.9281767955801,476376.0,2904.0,0.0,1.0,0.0,?,0.0,0.0
900000.0,6.6875,9.266743695156442E-8,900000.0,73.8,39.551109306360516,41.255605381165914,25.988700564971744,536376.0,2904.0,0.0,1.0,0.0,?,0.0,0.0
1000000.0,7.40625,9.633122115499444E-8,1000000.0,73.5,40.51413743254527,45.58521560574948,30.628272251308896,596376.0,2904.0,0.0,1.0,0.0,?,0.0,0.0
1100000.0,8.140625,1.1165451724082232E-7,1100000.0,72.3,38.488186178717356,41.56118143459915,27.105263157894733,656076.0,2904.0,0.0,1.0,0.0,?,0.0,0.0
1200000.0,8.875,1.2409006659355428E-7,1200000.0,72.3,39.132116268644914,42.76859504132231,28.23834196891191,716076.0,2904.0,0.0,1.0,0.0,?,0.0,0.0
1300000.0,9.625,1.3384101394977834E-7,1300000.0,72.5,37.49659072313035,40.6047516198704,27.055702917771878,776076.0,2904.0,0.0,1.0,0.0,?,0.0,0.0
1400000.0,10.375,1.406427731530534E-7,1400000.0,72.1,38.91491877216797,42.23602484472049,29.72292191435768,836076.0,2904.0,0.0,1.0,0.0,?,0.0,0.0
1500000.0,11.109375,1.4441508230649762E-7,1500000.0,74.7,43.147600514143434,47.181628392484335,33.7696335078534,896076.0,2904.0,0.0,1.0,0.0,?,0.0,0.0
1600000.0,11.859375,1.6006440596861972E-7,1600000.0,72.2,39.434342906192946,40.97664543524415,29.97481108312342,955776.0,2904.0,0.0,1.0,0.0,?,0.0,0.0
1700000.0,12.59375,1.7249995532135169E-7,1700000.0,72.8,37.31765660215609,43.801652892561975,23.8095238095238,1015776.0,2904.0,0.0,1.0,0.0,?,0.0,0.0
1800000.0,13.3125,1.8184461320439974E-7,1800000.0,72.2,38.471344910163744,39.16849015317286,28.9002557544757,1075776.0,2904.0,0.0,1.0,0.0,?,0.0,0.0
1900000.0,14.046875,1.8851074855774642E-7,1900000.0,72.0,35.94348385089472,37.777777777777764,22.00557103064066,1135776.0,2904.0,0.0,1.0,0.0,?,0.0,6.0
2000000.0,14.78125,1.9228913717799717E-7,2000000.0,72.3,39.12087912087911,43.584521384928706,30.75,1195776.0,2904.0,0.0,1.0,0.0,?,0.0,0.0
2100000.0,15.515625,2.0764739019796252E-7,2100000.0,71.8,38.42794759825326,38.42794759825326,29.5,1255476.0,2904.0,0.0,1.0,0.0,?,0.0,0.0
2200000.0,16.25,2.2011789648483198E-7,2200000.0,71.7,38.17937157037503,43.39999999999999,28.53535353535353,1315476.0,2904.0,0.0,1.0,0.0,?,0.0,0.0
2300000.0,16.96875,2.294967675374614E-7,2300000.0,74.9,41.45089806391415,41.89814814814816,27.246376811594196,1375476.0,2904.0,0.0,1.0,0.0,?,0.0,0.0
2400000.0,17.6875,2.36049333276848E-7,2400000.0,72.1,36.73125068030913,38.94967177242887,23.351648351648343,1435476.0,2904.0,0.0,1.0,0.0,?,0.0,0.0
2500000.0,18.421875,2.398565993644297E-7,2500000.0,71.3,34.488646220428585,38.146551724137915,21.584699453551902,1495476.0,2904.0,0.0,1.0,0.0,?,0.0,0.0
2600000.0,19.171875,2.555416237252454E-7,2600000.0,72.6,38.87421473443746,43.85245901639344,25.543478260869556,1555176.0,2904.0,0.0,1.0,0.0,?,0.0,0.0
2700000.0,19.90625,2.680121300121149E-7,2700000.0,70.89999999999999,32.869494606490655,36.60130718954247,19.613259668508274,1615176.0,2904.0,0.0,1.0,0.0,?,0.0,28.0
2800000.0,20.640625,2.7759336969918677E-7,2800000.0,73.3,40.621274930168845,42.33261339092872,30.46875,1675176.0,2904.0,0.0,1.0,0.0,?,0.0,153.0
2900000.0,21.359375,2.8414444790946117E-7,2900000.0,73.7,41.29831171266081,44.51476793248945,30.423280423280417,1735176.0,2904.0,0.0,1.0,0.0,?,0.0,0.0
3000000.0,22.078125,2.8786922080649276E-7,3000000.0,71.89999999999999,36.62892968291913,39.43965517241379,25.464190981432356,1795176.0,2904.0,0.0,1.0,0.0,?,0.0,0.0
3100000.0,22.796875,3.02927478009628E-7,3100000.0,74.6,40.974433098935215,43.80530973451327,28.045325779036823,1854876.0,2904.0,0.0,1.0,0.0,?,0.0,0.0
3200000.0,23.53125,3.154253418971268E-7,3200000.0,72.7,39.275037369207766,39.60176991150441,26.612903225806445,1914876.0,2904.0,0.0,1.0,0.0,?,0.0,0.0
3300000.0,24.25,3.248309884737764E-7,3300000.0,72.7,38.40808591282374,42.405063291139236,26.415094339622634,1974876.0,2904.0,0.0,1.0,0.0,?,0.0,0.0
3400000.0,24.984375,3.3155335889508336E-7,3400000.0,72.7,37.711620775570175,42.52631578947368,24.37673130193905,2034876.0,2904.0,0.0,1.0,0.0,?,0.0,0.0
3500000.0,25.71875,3.353879825832944E-7,3500000.0,71.2,35.82315714413049,35.7142857142857,23.8095238095238,2094876.0,2904.0,0.0,1.0,0.0,?,0.0,0.0
3600000.0,26.4375,3.504462397864296E-7,3600000.0,75.8,44.254017396432246,48.61995753715499,32.402234636871505,2154576.0,2904.0,0.0,1.0,0.0,?,0.0,0.0
3700000.0,27.171875,3.629441036739284E-7,3700000.0,72.39999999999999,36.882546652030726,38.66666666666666,23.333333333333325,2214576.0,2904.0,0.0,1.0,0.0,?,0.0,0.0
3800000.0,27.90625,3.725542208283313E-7,3800000.0,73.9,41.9902027898045,44.82029598308668,31.853785900783286,2274576.0,2904.0,0.0,1.0,0.0,?,0.0,0.0
3900000.0,28.625,3.791335620917381E-7,3900000.0,73.0,40.67889706690103,42.3076923076923,29.87012987012987,2334576.0,2904.0,0.0,1.0,0.0,?,0.0,0.0
4000000.0,29.34375,3.828865980419021E-7,4000000.0,74.7,43.61488745264096,44.99999999999999,34.4559585492228,2394576.0,2904.0,0.0,1.0,0.0,?,0.0,0.0
4100000.0,30.0625,3.979731182981697E-7,4100000.0,71.0,36.04446012702894,37.36501079913606,23.68421052631578,2454276.0,2904.0,0.0,1.0,0.0,?,0.0,0.0
4200000.0,30.78125,4.1023333324119455E-7,4200000.0,73.0,37.47829107328933,42.917547568710354,23.943661971830977,2514276.0,2904.0,0.0,1.0,0.0,?,0.0,0.0
4300000.0,31.53125,4.2007741285488015E-7,4300000.0,71.5,37.463245942790934,40.99378881987577,28.39195979899497,2574276.0,2904.0,0.0,1.0,0.0,?,0.0,0.0
4400000.0,32.25,4.266850171714194E-7,4400000.0,72.2,35.45930686081497,42.68041237113401,21.022727272727263,2634276.0,2904.0,0.0,1.0,0.0,?,0.0,0.0
4500000.0,32.984375,4.305485183269614E-7,4500000.0,72.5,38.43467359183307,42.46861924686192,26.86170212765957,2694276.0,2904.0,0.0,1.0,0.0,?,0.0,0.0
4600000.0,33.71875,4.4596300641488706E-7,4600000.0,72.8,38.04326038230952,41.63090128755364,27.272727272727266,2753976.0,2904.0,0.0,1.0,0.0,?,0.0,0.0
4700000.0,34.46875,4.587562741815217E-7,4700000.0,72.5,36.44439924935057,37.64172335600906,23.18435754189943,2813976.0,2904.0,0.0,1.0,0.0,?,0.0,0.0
4800000.0,35.1875,4.6819018381130376E-7,4800000.0,71.89999999999999,37.324352054244535,41.58004158004157,25.464190981432356,2873976.0,2904.0,0.0,1.0,0.0,?,0.0,0.0
4900000.0,35.9375,4.7508507527204033E-7,4900000.0,74.2,41.19363250123083,44.276457883369325,28.729281767955793,2933976.0,2904.0,0.0,1.0,0.0,?,0.0,0.0
5000000.0,36.671875,4.793878179043532E-7,5000000.0,73.3,37.88097343073844,43.191489361702125,24.78873239436619,2993976.0,2904.0,0.0,1.0,0.0,?,0.0,0.0
5100000.0,37.421875,4.954686543593805E-7,5100000.0,58.699999999999996,16.15030413279517,16.39676113360323,9.03083700440527,51906.0,2904.0,0.0,1.0,0.0,?,3.0,14.0
5200000.0,38.171875,5.086003026614587E-7,5200000.0,60.0,19.160563289195,18.5336048879837,16.317991631799156,111906.0,2904.0,0.0,1.0,0.0,?,0.0,0.0
5300000.0,38.90625,5.185706282241478E-7,5300000.0,58.9,16.551612117274413,16.801619433198372,9.868421052631565,171906.0,2904.0,0.0,1.0,0.0,?,0.0,0.0
5400000.0,39.640625,5.256532070537408E-7,5400000.0,58.599999999999994,15.853658536585357,15.337423312883427,7.999999999999983,231906.0,2904.0,0.0,1.0,0.0,?,0.0,0.0
5500000.0,40.390625,5.299372908969721E-7,5500000.0,60.9,20.32765506561251,20.204081632653057,14.25438596491227,291906.0,2904.0,0.0,1.0,0.0,?,0.0,0.0
5600000.0,41.140625,5.460181273519993E-7,5600000.0,62.4,23.723587263461983,21.174004192872115,18.965517241379303,351606.0,2904.0,0.0,1.0,0.0,?,0.0,0.0
5700000.0,41.875,5.588761996477842E-7,5700000.0,61.8,21.284829402382886,20.582120582120577,13.769751693002247,411606.0,2904.0,0.0,1.0,0.0,?,0.0,0.0
5800000.0,42.609375,5.688465252104732E-7,5800000.0,59.199999999999996,16.42769356820974,16.22176591375769,9.333333333333318,471606.0,2904.0,0.0,1.0,0.0,?,0.0,0.0
5900000.0,43.359375,5.760797972066534E-7,5900000.0,62.0,23.136671089679282,25.49019607843137,19.83122362869198,531606.0,2904.0,0.0,1.0,0.0,?,0.0,0.0
6000000.0,44.078125,5.801853775564167E-7,6000000.0,62.8,24.456881531332126,23.613963039014372,19.305856832971795,591606.0,2904.0,0.0,1.0,0.0,?,0.0,0.0
6100000.0,44.828125,5.962957058929734E-7,6100000.0,60.099999999999994,18.48758723258207,20.199999999999996,10.937499999999986,651306.0,2904.0,0.0,1.0,0.0,?,0.0,0.0
6200000.0,45.5625,6.091826556560893E-7,6200000.0,61.1,20.478518978854225,17.05756929637526,14.69298245614034,711306.0,2904.0,0.0,1.0,0.0,?,0.0,0.0
6300000.0,46.296875,6.191818586861093E-7,6300000.0,60.199999999999996,19.833382346424536,17.768595041322307,17.255717255717247,771306.0,2904.0,0.0,1.0,0.0,?,0.0,0.0
6400000.0,47.046875,6.264446225638189E-7,6400000.0,57.3,13.745040844854191,15.779092702169617,10.855949895615852,831306.0,2904.0,0.0,1.0,0.0,?,0.0,0.0
6500000.0,47.78125,6.306683321276471E-7,6500000.0,59.5,17.806551122295723,19.483101391650095,13.276231263383288,891306.0,2904.0,0.0,1.0,0.0,?,0.0,0.0
6600000.0,48.5,6.461073967835139E-7,6600000.0,60.8,19.256168046040457,21.599999999999998,11.111111111111097,951006.0,2904.0,0.0,1.0,0.0,?,0.0,0.0
6700000.0,49.25,6.592685369671217E-7,6700000.0,62.4,23.971287028611876,23.421588594704684,20.84210526315789,1011006.0,2904.0,0.0,1.0,0.0,?,0.0,0.0
6800000.0,50.0,6.694804889977804E-7,6800000.0,61.5,21.849626502111068,23.61111111111111,17.73504273504273,1071006.0,2904.0,0.0,1.0,0.0,?,0.0,0.0
6900000.0,50.703125,6.762893301331333E-7,6900000.0,60.5,20.037248471598033,21.31474103585657,15.053763440860205,1131006.0,2904.0,0.0,1.0,0.0,?,0.0,0.0
7000000.0,51.453125,6.80602905857894E-7,7000000.0,59.3,17.96405737275358,16.2551440329218,15.734989648033118,1191006.0,2904.0,0.0,1.0,0.0,?,0.0,0.0
7100000.0,52.203125,6.967427260759803E-7,7100000.0,62.2,22.6056903244828,24.550898203592812,16.740088105726862,1250706.0,2904.0,0.0,1.0,0.0,?,0.0,0.0
7200000.0,52.953125,7.099333581411174E-7,7200000.0,59.5,17.177236623612455,19.8019801980198,11.572052401746712,1310706.0,2904.0,0.0,1.0,0.0,?,0.0,0.0
7300000.0,53.671875,7.197480752236312E-7,7300000.0,60.6,19.633823961358964,16.17021276595744,13.973799126637543,1370706.0,2904.0,0.0,1.0,0.0,?,0.0,0.0
7400000.0,54.421875,7.270403309828704E-7,7400000.0,59.8,17.2802060998646,17.45379876796714,9.255079006771993,1430706.0,2904.0,0.0,1.0,0.0,?,0.0,0.0
7500000.0,55.171875,7.313833985891606E-7,7500000.0,59.9,18.061594795174404,19.960079840319356,10.690423162583505,1490706.0,2904.0,0.0,1.0,0.0,?,0.0,0.0
7600000.0,55.921875,7.475232188072468E-7,7600000.0,60.5,20.120042386934472,23.00194931773879,16.49048625792811,1550406.0,2904.0,0.0,1.0,0.0,?,0.0,0.0
7700000.0,56.65625,7.604390460376937E-7,7700000.0,57.199999999999996,12.916090176609421,15.24752475247524,8.936170212765942,1610406.0,2904.0,0.0,1.0,0.0,?,0.0,0.0
7800000.0,57.390625,7.704671265350447E-7,7800000.0,60.699999999999996,20.611192811777826,19.795918367346935,17.610062893081754,1670406.0,2904.0,0.0,1.0,0.0,?,0.0,0.0
7900000.0,58.140625,7.77759382294284E-7,7900000.0,58.9,17.029368777202656,14.906832298136639,13.107822410147978,1730406.0,2904.0,0.0,1.0,0.0,?,0.0,0.0
8000000.0,58.890625,7.821024499005741E-7,8000000.0,59.699999999999996,17.529570662628405,17.078189300411513,11.428571428571416,1790406.0,2904.0,0.0,1.0,0.0,?,0.0,0.0
8100000.0,59.609375,7.975980406627059E-7,8100000.0,59.8,18.084564442180334,17.79141104294478,13.174946004319644,1850106.0,2904.0,0.0,1.0,0.0,?,0.0,0.0
8200000.0,60.34375,8.105427453604837E-7,8200000.0,57.99999999999999,14.81317718453493,19.230769230769226,11.205073995771658,1910106.0,2904.0,0.0,1.0,0.0,?,0.0,0.0
8300000.0,61.078125,8.205997033251657E-7,8300000.0,59.5,18.873442570409836,19.483101391650095,18.34677419354838,1970106.0,2904.0,0.0,1.0,0.0,?,0.0,0.0
8400000.0,61.8125,8.277689145567517E-7,8400000.0,60.4,19.036617529799006,19.18367346938775,12.967032967032955,2030106.0,2904.0,0.0,1.0,0.0,?,0.0,0.0
8500000.0,62.5625,8.321414740445714E-7,8500000.0,60.199999999999996,18.98548659596555,20.080321285140556,14.038876889848801,2090106.0,2904.0,0.0,1.0,0.0,?,0.0,0.0
8600000.0,63.296875,8.479739254754451E-7,8600000.0,59.5,17.124358481145276,21.35922330097087,10.792951541850208,2149806.0,2904.0,0.0,1.0,0.0,?,0.0,0.0
8700000.0,64.03125,8.60918630173223E-7,8700000.0,58.699999999999996,15.51911763502621,19.961240310077518,9.03083700440527,2209806.0,2904.0,0.0,1.0,0.0,?,0.0,0.0
8800000.0,64.765625,8.70975588137905E-7,8800000.0,58.9,15.959857029518334,12.92372881355931,9.471365638766505,2269806.0,2904.0,0.0,1.0,0.0,?,0.0,0.0
8900000.0,65.515625,8.782973357786737E-7,8900000.0,57.9,14.08233402176308,15.120967741935477,6.236080178173701,2329806.0,2904.0,0.0,1.0,0.0,?,0.0,0.0
9000000.0,66.265625,8.826698952664934E-7,9000000.0,58.4,13.96568554458065,17.460317460317455,5.8823529411764515,2389806.0,2904.0,0.0,1.0,0.0,?,0.0,0.0
9100000.0,67.0,8.985312241646981E-7,9100000.0,56.699999999999996,12.878665936966799,16.24758220502901,11.451942740286286,2449506.0,2904.0,0.0,1.0,0.0,?,0.0,0.0
9200000.0,67.734375,9.115048063298068E-7,9200000.0,60.8,20.50584241500005,20.486815415821496,15.334773218142539,2509506.0,2904.0,0.0,1.0,0.0,?,0.0,0.0
9300000.0,68.46875,9.215906417618197E-7,9300000.0,63.4,25.462802680080642,27.236580516898613,20.60737527114967,2569506.0,2904.0,0.0,1.0,0.0,?,0.0,0.0
9400000.0,69.1875,9.286355796373554E-7,9400000.0,60.0,18.15588847921364,18.032786885245898,12.47264770240699,2629506.0,2904.0,0.0,1.0,0.0,?,0.0,0.0
9500000.0,69.9375,9.330376310067046E-7,9500000.0,61.3,20.150867405047617,23.21428571428571,9.790209790209797,2689506.0,2904.0,0.0,1.0,0.0,?,0.0,0.0
9600000.0,70.65625,9.485614848219688E-7,9600000.0,58.4,15.972836603525097,19.22330097087378,12.788259958071269,2749206.0,2904.0,0.0,1.0,0.0,?,0.0,0.0
9700000.0,71.40625,9.61811100650165E-7,9700000.0,62.4,23.602080624187263,22.950819672131146,20.16985138004246,2809206.0,2904.0,0.0,1.0,0.0,?,0.0,0.0
9800000.0,72.15625,9.721115283254121E-7,9800000.0,57.9,15.191413583877914,15.461847389558226,11.740041928721162,2869206.0,2904.0,0.0,1.0,0.0,?,0.0,0.0
9900000.0,72.90625,9.794627678477104E-7,9900000.0,57.699999999999996,14.069102255736848,15.399999999999991,9.6153846153846,2929206.0,2904.0,0.0,1.0,0.0,?,0.0,0.0
1.0E7,73.640625,9.837731098135315E-7,1.0E7,57.8,13.39148281169829,16.929133858267708,6.0133630289532105,2989206.0,2904.0,0.0,1.0,0.0,?,0.0,0.0
