learning evaluation instances,evaluation time (cpu seconds),model cost (RAM-Hours),classified instances,classifications correct (percent),Kappa Statistic (percent),Kappa Temporal Statistic (percent),Kappa M Statistic (percent),model training instances,model serialized size (bytes),labeling cost,newThreshold,maxPosterior,accuracyBaseLearner (percent),Change detected,Warning detected
100000.0,0.140625,6.114714778959751E-9,100000.0,59.8,10.10733452593918,14.285714285714276,2.4271844660194195,8755.0,9208.0,0.0,1.0,0.0,?,1.0,63.0
200000.0,0.296875,1.2299278751015664E-8,200000.0,62.8,11.411697466184027,19.827586206896548,-0.540540540540541,18755.0,9208.0,0.0,1.0,0.0,?,0.0,80.0
300000.0,0.4375,1.7285346984863283E-8,300000.0,62.8,13.793502996370977,15.64625850340135,3.8759689922480653,28755.0,9208.0,0.0,1.0,0.0,?,0.0,2.0
400000.0,0.578125,2.171844244003296E-8,400000.0,62.1,10.478925936073914,21.85567010309278,0.5249343832021002,38755.0,9208.0,0.0,1.0,0.0,?,0.0,0.0
500000.0,0.71875,2.5598565116524695E-8,500000.0,62.2,11.658712834727005,20.920502092050206,0.7874015748031503,48755.0,9208.0,0.0,1.0,0.0,?,0.0,0.0
600000.0,0.859375,2.8925715014338493E-8,600000.0,61.8,9.21923791689045,21.074380165289252,-2.9649595687331565,58755.0,9208.0,0.0,1.0,0.0,?,0.0,0.0
700000.0,0.984375,3.1391650231348145E-8,700000.0,65.4,16.25155515537032,25.910064239828696,4.683195592286506,68755.0,9208.0,0.0,1.0,0.0,?,0.0,0.0
800000.0,1.109375,3.336605408953296E-8,800000.0,61.199999999999996,10.845588235294121,16.198704103671698,1.0204081632653068,78755.0,9208.0,0.0,1.0,0.0,?,0.0,0.0
900000.0,1.25,3.503428565131293E-8,900000.0,62.6,9.364094610314076,21.593291404612156,-3.8888888888888924,88755.0,9208.0,0.0,1.0,0.0,?,0.0,0.0
1000000.0,1.390625,3.6149544434414965E-8,1000000.0,60.3,9.215641436085068,15.531914893617014,-1.7948717948717965,98755.0,9208.0,0.0,1.0,0.0,?,0.0,0.0
1100000.0,1.53125,4.224708795340524E-8,1100000.0,61.5,8.803213916866449,16.846652267818566,-1.8518518518518534,108655.0,9208.0,0.0,1.0,0.0,?,0.0,0.0
1200000.0,1.671875,4.779165869371758E-8,1200000.0,60.3,8.508480825958692,15.711252653927804,-2.3195876288659814,118655.0,9208.0,0.0,1.0,0.0,?,0.0,0.0
1300000.0,1.796875,5.2228634659614824E-8,1300000.0,60.0,8.330888823701953,14.163090128755353,-0.5025125628140708,128655.0,9208.0,0.0,1.0,0.0,?,0.0,0.0
1400000.0,1.9375,5.666725984257128E-8,1400000.0,59.599999999999994,17.297511965248592,16.872427983539087,5.827505827505832,138655.0,9208.0,0.0,1.0,0.0,?,0.0,0.0
1500000.0,2.078125,6.05529122468498E-8,1500000.0,64.2,14.641590050738165,25.10460251046025,1.1049723756906087,148655.0,9208.0,0.0,1.0,0.0,?,0.0,0.0
1600000.0,2.203125,6.351529413627254E-8,1600000.0,61.6,12.56989854465311,20.824742268041234,3.5175879396984953,158655.0,9208.0,0.0,1.0,0.0,?,0.0,0.0
1700000.0,2.34375,6.629500098319519E-8,1700000.0,60.0,4.549185804554906,11.504424778761049,-9.289617486338807,168655.0,9208.0,0.0,1.0,0.0,?,0.0,0.0
1800000.0,2.484375,6.852173505143989E-8,1800000.0,62.5,10.774619067107002,20.71881606765327,-5.932203389830514,178655.0,9208.0,0.0,1.0,0.0,?,0.0,0.0
1900000.0,2.625,7.019549634100665E-8,1900000.0,59.9,7.681965522322076,16.28392484342379,-3.3505154639175285,188655.0,9208.0,0.0,1.0,0.0,?,0.0,0.0
2000000.0,2.75,7.119175279513004E-8,2000000.0,60.9,19.242240232648445,12.331838565022409,0.5089058524173032,198655.0,9208.0,0.0,1.0,0.0,?,0.0,0.0
2100000.0,2.890625,7.72948260419071E-8,2100000.0,63.0,13.184260541073222,20.940170940170937,2.3746701846965723,208555.0,9208.0,0.0,1.0,0.0,?,0.0,0.0
2200000.0,3.03125,8.284492651000621E-8,2200000.0,61.3,6.963102576184475,17.659574468085097,-7.799442896935941,218555.0,9208.0,0.0,1.0,0.0,?,0.0,0.0
2300000.0,3.171875,8.784205419942738E-8,2300000.0,60.099999999999994,7.450361848209298,15.999999999999993,-5.000000000000004,228555.0,9208.0,0.0,1.0,0.0,?,0.0,0.0
2400000.0,3.3125,9.228620911017061E-8,2400000.0,62.7,11.666635090843661,21.141649048625787,1.0610079575596827,238555.0,9208.0,0.0,1.0,0.0,?,0.0,0.0
2500000.0,3.453125,9.61773912422359E-8,2500000.0,60.9,6.320379510278394,14.442013129102834,-7.123287671232884,248555.0,9208.0,0.0,1.0,0.0,?,0.0,0.0
2600000.0,3.59375,9.955751011148095E-8,2600000.0,62.4,11.395984541427081,16.81415929203539,0.5291005291005296,258555.0,9208.0,0.0,1.0,0.0,?,0.0,23.0
2700000.0,3.734375,1.0238465620204806E-7,2700000.0,60.6,8.201304753028893,16.17021276595744,-3.141361256544505,268555.0,9208.0,0.0,1.0,0.0,?,0.0,69.0
2800000.0,3.875,1.0465882951393723E-7,2800000.0,64.60000000000001,16.531482249971695,25.0,5.851063829787239,278555.0,9208.0,0.0,1.0,0.0,?,0.0,0.0
2900000.0,4.015625,1.0638003004714845E-7,2900000.0,60.4,11.641854985541395,20.48192771084337,5.263157894736846,288555.0,9208.0,0.0,1.0,0.0,?,0.0,0.0
3000000.0,4.15625,1.0754825780168174E-7,3000000.0,61.4,12.594934129187394,17.521367521367516,3.258145363408524,298555.0,9208.0,0.0,1.0,0.0,?,0.0,0.0
3100000.0,4.28125,1.1301538001538977E-7,3100000.0,64.5,16.319372418865143,24.78813559322034,3.532608695652177,308455.0,9208.0,0.0,1.0,0.0,?,0.0,0.0
3200000.0,4.421875,1.1861291972713336E-7,3200000.0,62.6,14.474797506505855,21.097046413502106,4.834605597964381,318455.0,9208.0,0.0,1.0,0.0,?,0.0,0.0
3300000.0,4.546875,1.230969792231917E-7,3300000.0,61.5,10.672853828306273,17.55888650963597,0.0,328455.0,9208.0,0.0,1.0,0.0,?,0.0,0.0
3400000.0,4.6875,1.2757955119013785E-7,3400000.0,62.8,13.680683500480317,22.0125786163522,4.370179948586122,338455.0,9208.0,0.0,1.0,0.0,?,0.0,68.0
3500000.0,4.84375,1.319557971631487E-7,3500000.0,61.199999999999996,19.05773186413382,16.916488222698064,0.25706940874036016,348455.0,9208.0,0.0,1.0,0.0,?,0.0,0.0
3600000.0,4.984375,1.3534144576018054E-7,3600000.0,63.3,12.592409115158912,20.21739130434782,1.3440860215053776,358455.0,9208.0,0.0,1.0,0.0,?,0.0,0.0
3700000.0,5.125,1.3817412157853443E-7,3700000.0,60.099999999999994,16.028285209192696,16.701461377870555,-1.7857142857142874,368455.0,9208.0,0.0,1.0,0.0,?,0.0,0.0
3800000.0,5.265625,1.4045382461821038E-7,3800000.0,62.1,15.046802711329477,23.895582329317268,7.33496332518338,378455.0,9208.0,0.0,1.0,0.0,?,0.0,0.0
3900000.0,5.390625,1.419886959613197E-7,3900000.0,62.3,11.606096131301287,16.035634743875267,-0.5333333333333339,388455.0,9208.0,0.0,1.0,0.0,?,0.0,0.0
4000000.0,5.53125,1.431534312561982E-7,4000000.0,60.4,9.109688080975005,16.455696202531637,-1.278772378516625,398455.0,9208.0,0.0,1.0,0.0,?,0.0,55.0
4100000.0,5.671875,1.4930947347440653E-7,4100000.0,63.9,16.079299250525377,24.31865828092243,5.989583333333338,408355.0,9208.0,0.0,1.0,0.0,?,0.0,4.0
4200000.0,5.8125,1.548814018153482E-7,4200000.0,61.7,10.999776918500878,21.67689161554192,1.2886597938144342,418355.0,9208.0,0.0,1.0,0.0,?,0.0,19.0
4300000.0,5.953125,1.5990035737761191E-7,4300000.0,61.7,16.038968441174667,20.041753653444673,9.241706161137447,428355.0,9208.0,0.0,1.0,0.0,?,0.0,0.0
4400000.0,6.09375,1.643663401611977E-7,4400000.0,62.7,13.332403922115338,20.806794055201692,2.356020942408379,438355.0,9208.0,0.0,1.0,0.0,?,0.0,0.0
4500000.0,6.234375,1.6830146907725266E-7,4500000.0,63.1,11.827114237651013,18.54304635761589,-3.6516853932584303,448355.0,9208.0,0.0,1.0,0.0,?,0.0,71.0
4600000.0,6.375,1.716568496906095E-7,4600000.0,62.3,10.828326789346692,19.27194860813704,-1.8918918918918937,458355.0,9208.0,0.0,1.0,0.0,?,0.0,15.0
4700000.0,6.515625,1.7449505523675017E-7,4700000.0,61.5,10.2555734785406,15.384615384615374,-1.8518518518518534,468355.0,9208.0,0.0,1.0,0.0,?,0.0,59.0
4800000.0,6.65625,1.7678028800421291E-7,4800000.0,63.7,14.606720427578038,24.688796680497923,3.9682539682539715,478355.0,9208.0,0.0,1.0,0.0,?,0.0,52.0
4900000.0,6.78125,1.7831153753730987E-7,4900000.0,60.8,16.609938733832546,18.672199170124475,-7.6923076923077,488355.0,9208.0,0.0,1.0,0.0,?,0.0,13.0
5000000.0,6.921875,1.795408833358023E-7,5000000.0,64.7,15.601928005814617,24.411134903640257,4.336043360433608,498355.0,9208.0,0.0,1.0,0.0,?,0.0,52.0
5100000.0,7.0625,1.8578656535181736E-7,5100000.0,60.5,15.32181995918297,15.053763440860205,-7.336956521739137,508255.0,9208.0,0.0,1.0,0.0,?,0.0,10.0
5200000.0,7.203125,1.9147927458915449E-7,5200000.0,58.4,12.034002241441291,15.102040816326523,-12.129380053908367,518255.0,9208.0,0.0,1.0,0.0,?,0.0,0.0
5300000.0,7.34375,1.9661901104781367E-7,5300000.0,58.599999999999994,13.772993868301779,16.53225806451612,-5.612244897959188,528255.0,9208.0,0.0,1.0,0.0,?,0.0,0.0
5400000.0,7.484375,2.012057747277949E-7,5400000.0,58.099999999999994,12.439083515142398,7.912087912087895,-9.685863874345559,538255.0,9208.0,0.0,1.0,0.0,?,0.0,0.0
5500000.0,7.640625,2.056877646181319E-7,5500000.0,59.8,14.90982981965963,14.285714285714276,-8.648648648648656,548255.0,9208.0,0.0,1.0,0.0,?,0.0,0.0
5600000.0,7.78125,2.0916858274075726E-7,5600000.0,57.199999999999996,10.60052219321148,10.647181628392472,-14.133333333333345,558255.0,9208.0,0.0,1.0,0.0,?,0.0,0.0
5700000.0,7.90625,2.117711119353772E-7,5700000.0,61.5,17.994376757263357,12.100456621004554,-6.94444444444445,568255.0,9208.0,0.0,1.0,0.0,?,0.0,0.0
5800000.0,8.046875,2.1414598450064667E-7,5800000.0,56.3,7.97752714347081,7.021276595744663,-20.718232044198913,578255.0,9208.0,0.0,1.0,0.0,?,0.0,0.0
5900000.0,8.203125,2.1617031759685948E-7,5900000.0,65.7,16.468594139650854,23.2662192393736,2.8328611898017027,588255.0,9208.0,0.0,1.0,0.0,?,0.0,0.0
6000000.0,8.34375,2.1743924460477308E-7,6000000.0,65.10000000000001,18.90887123007575,28.189300411522638,8.63874345549739,598255.0,9208.0,0.0,1.0,0.0,?,0.0,0.0
6100000.0,8.484375,2.2369045634857492E-7,6100000.0,65.3,19.69079800037031,26.79324894514768,8.684210526315796,608155.0,9208.0,0.0,1.0,0.0,?,0.0,0.0
6200000.0,8.625,2.293886953136988E-7,6200000.0,65.0,20.005119672340978,27.685950413223143,9.32642487046633,618155.0,9208.0,0.0,1.0,0.0,?,0.0,0.0
6300000.0,8.765625,2.3453396150014476E-7,6300000.0,64.5,16.442276912648033,23.326133909287254,5.585106382978728,628155.0,9208.0,0.0,1.0,0.0,?,0.0,0.0
6400000.0,8.890625,2.386064281583661E-7,6400000.0,64.60000000000001,19.486899563318776,26.70807453416149,10.606060606060614,638155.0,9208.0,0.0,1.0,0.0,?,0.0,4.0
6500000.0,9.015625,2.4218736345776264E-7,6500000.0,65.3,20.506922999386056,27.708333333333336,9.162303664921474,648155.0,9208.0,0.0,1.0,0.0,?,0.0,0.0
6600000.0,9.140625,2.452767673983343E-7,6600000.0,63.6,17.974049152473622,22.881355932203387,8.312342569269529,658155.0,9208.0,0.0,1.0,0.0,?,0.0,0.0
6700000.0,9.265625,2.478746399800811E-7,6700000.0,64.7,14.063412924083677,27.066115702479344,1.1204481792717098,668155.0,9208.0,0.0,1.0,0.0,?,0.0,0.0
6800000.0,9.40625,2.502442738558684E-7,6800000.0,64.5,17.821030408533662,22.48908296943231,9.2071611253197,678155.0,9208.0,0.0,1.0,0.0,?,0.0,0.0
6900000.0,9.53125,2.5185908371996555E-7,6900000.0,66.0,18.317533381702177,24.444444444444443,5.292479108635102,688155.0,9208.0,0.0,1.0,0.0,?,0.0,0.0
7000000.0,9.671875,2.5312277203839693E-7,7000000.0,64.2,19.597177366830028,27.08757637474542,10.275689223057654,698155.0,9208.0,0.0,1.0,0.0,?,0.0,0.0
7100000.0,9.796875,2.5867474808668105E-7,7100000.0,62.8,15.379540956757138,18.599562363238505,7.231920199501253,708055.0,9208.0,0.0,1.0,0.0,?,0.0,0.0
7200000.0,9.921875,2.6373519277614035E-7,7200000.0,65.5,20.28945325496285,31.000000000000007,12.87878787878789,718055.0,9208.0,0.0,1.0,0.0,?,0.0,0.0
7300000.0,10.0625,2.688752202731041E-7,7300000.0,68.0,21.07534837834506,25.925925925925945,7.24637681159421,728055.0,9208.0,0.0,1.0,0.0,?,0.0,0.0
7400000.0,10.203125,2.734622749913899E-7,7400000.0,66.5,20.808275653390822,26.535087719298247,7.967032967032975,738055.0,9208.0,0.0,1.0,0.0,?,0.0,0.0
7500000.0,10.34375,2.774963569309978E-7,7500000.0,64.1,12.600181129429643,22.629310344827584,1.9125683060109306,748055.0,9208.0,0.0,1.0,0.0,?,0.0,0.0
7600000.0,10.484375,2.8097746609192773E-7,7600000.0,65.9,19.01468660346169,30.122950819672134,7.336956521739137,758055.0,9208.0,0.0,1.0,0.0,?,0.0,0.0
7700000.0,10.609375,2.835802539872628E-7,7700000.0,65.4,17.002096536636618,24.618736383442265,4.155124653739616,768055.0,9208.0,0.0,1.0,0.0,?,0.0,0.0
7800000.0,10.75,2.8595541759083687E-7,7800000.0,63.3,15.051015684313828,20.9051724137931,4.4270833333333375,778055.0,9208.0,0.0,1.0,0.0,?,0.0,0.0
7900000.0,10.890625,2.87777608415733E-7,7900000.0,65.10000000000001,19.652641563297145,26.371308016877638,7.671957671957679,788055.0,9208.0,0.0,1.0,0.0,?,0.0,0.0
8000000.0,11.03125,2.8904682646195116E-7,8000000.0,61.8,10.422421596169265,17.67241379310344,-1.3262599469496033,798055.0,9208.0,0.0,1.0,0.0,?,0.0,0.0
8100000.0,11.15625,2.946037178238235E-7,8100000.0,65.5,15.67431219569425,23.50332594235033,1.9886363636363658,807955.0,9208.0,0.0,1.0,0.0,?,0.0,0.0
8200000.0,11.296875,3.0030224782725193E-7,8200000.0,65.3,19.034196968565666,23.230088495575217,6.720430107526888,817955.0,9208.0,0.0,1.0,0.0,?,0.0,0.0
8300000.0,11.4375,3.0544780505200243E-7,8300000.0,64.8,17.098445595854923,25.581395348837212,4.864864864864869,827955.0,9208.0,0.0,1.0,0.0,?,0.0,0.0
8400000.0,11.578125,3.10040389498075E-7,8400000.0,65.3,17.427350345996075,26.94736842105263,4.143646408839783,837955.0,9208.0,0.0,1.0,0.0,?,0.0,0.0
8500000.0,11.703125,3.13631155424648E-7,8500000.0,66.0,21.23795404002965,24.107142857142858,10.052910052910063,847955.0,9208.0,0.0,1.0,0.0,?,0.0,0.0
8600000.0,11.828125,3.167303899923962E-7,8600000.0,67.9,22.347476897769614,31.991525423728824,10.335195530726267,857955.0,9208.0,0.0,1.0,0.0,?,0.0,0.0
8700000.0,11.96875,3.196640561024349E-7,8700000.0,64.2,13.169600628671486,20.267260579064583,0.2785515320334264,867955.0,9208.0,0.0,1.0,0.0,?,0.0,0.0
8800000.0,12.109375,3.220447494337957E-7,8800000.0,64.2,17.469304575151348,24.152542372881356,6.52741514360314,877955.0,9208.0,0.0,1.0,0.0,?,0.0,0.0
8900000.0,12.234375,3.236693899250694E-7,8900000.0,64.5,17.791342849467846,24.307036247334754,8.031088082901562,887955.0,9208.0,0.0,1.0,0.0,?,0.0,0.0
9000000.0,12.359375,3.248024990575182E-7,9000000.0,64.9,19.314054526228677,23.695652173913043,9.067357512953375,897955.0,9208.0,0.0,1.0,0.0,?,0.0,0.0
9100000.0,12.5,3.310595315674114E-7,9100000.0,64.0,17.370547190598597,22.077922077922075,5.263157894736847,907855.0,9208.0,0.0,1.0,0.0,?,0.0,0.0
9200000.0,12.640625,3.367635912986266E-7,9200000.0,67.60000000000001,22.097407093944756,31.501057082452437,8.988764044943828,917855.0,9208.0,0.0,1.0,0.0,?,0.0,0.0
9300000.0,12.78125,3.419146782511639E-7,9300000.0,63.7,18.299918074848986,25.0,8.793969849246238,927855.0,9208.0,0.0,1.0,0.0,?,0.0,0.0
9400000.0,12.921875,3.4651279242502325E-7,9400000.0,65.4,16.217891596606083,28.512396694214882,1.7045454545454561,937855.0,9208.0,0.0,1.0,0.0,?,0.0,0.0
9500000.0,13.046875,3.501084736651845E-7,9500000.0,66.3,20.37765092806111,29.64509394572025,10.610079575596826,947855.0,9208.0,0.0,1.0,0.0,?,0.0,0.0
9600000.0,13.1875,3.53600642281688E-7,9600000.0,64.0,15.274979760134046,22.746781115879827,3.7433155080213933,957855.0,9208.0,0.0,1.0,0.0,?,0.0,0.0
9700000.0,13.328125,3.565398381195135E-7,9700000.0,65.60000000000001,17.967110534549217,22.171945701357462,3.9106145251396685,967855.0,9208.0,0.0,1.0,0.0,?,0.0,0.0
9800000.0,13.46875,3.589260611786611E-7,9800000.0,62.3,12.453440092144499,21.45833333333333,0.0,977855.0,9208.0,0.0,1.0,0.0,?,0.0,0.0
9900000.0,13.609375,3.6075931145913077E-7,9900000.0,67.2,20.433154146208928,29.31034482758621,9.392265193370175,987855.0,9208.0,0.0,1.0,0.0,?,0.0,0.0
1.0E7,13.75,3.620395889609225E-7,1.0E7,66.10000000000001,17.453978766923147,27.71855010660981,4.507042253521131,997855.0,9208.0,0.0,1.0,0.0,?,0.0,0.0
