learning evaluation instances,evaluation time (cpu seconds),model cost (RAM-Hours),classified instances,classifications correct (percent),Kappa Statistic (percent),Kappa Temporal Statistic (percent),Kappa M Statistic (percent),model training instances,model serialized size (bytes),labeling cost,newThreshold,maxPosterior,accuracyBaseLearner (percent),Change detected,Warning detected
100000.0,0.375,1.5114589283863705E-8,100000.0,60.3,19.03577109760574,19.797979797979792,12.555066079295141,9900.0,2904.0,0.0,1.0,0.0,?,0.0,9.0
200000.0,0.765625,2.9322917624894117E-8,200000.0,59.4,18.091326153883386,17.47967479674796,15.240083507306881,19900.0,2904.0,0.0,1.0,0.0,?,0.0,0.0
300000.0,1.15625,4.199521046959691E-8,300000.0,61.6,22.15879605604566,22.424242424242422,15.789473684210517,29900.0,2904.0,0.0,1.0,0.0,?,0.0,0.0
400000.0,1.53125,5.26860175240371E-8,400000.0,62.4,23.37758142150889,23.26530612244898,16.25835189309576,39900.0,2904.0,0.0,1.0,0.0,?,0.0,0.0
500000.0,1.90625,6.190223050200277E-8,500000.0,61.3,21.199237648438643,20.85889570552147,15.131578947368412,49900.0,2904.0,0.0,1.0,0.0,?,0.0,0.0
600000.0,2.28125,6.964384940349393E-8,600000.0,63.2,25.216931862057756,22.851153039832283,20.860215053763437,59900.0,2904.0,0.0,1.0,0.0,?,0.0,0.0
700000.0,2.640625,7.56497481941349E-8,700000.0,63.2,24.47253920039406,23.492723492723492,16.74208144796379,69900.0,2904.0,0.0,1.0,0.0,?,0.0,0.0
800000.0,2.984375,8.004280971363187E-8,800000.0,61.0,19.925427988321427,19.75308641975308,13.140311804008897,79900.0,2904.0,0.0,1.0,0.0,?,0.0,0.0
900000.0,3.359375,8.336064638569951E-8,900000.0,63.1,25.290940159865244,27.788649706457928,22.151898734177212,89900.0,2904.0,0.0,1.0,0.0,?,0.0,0.0
1000000.0,3.734375,8.520388898129265E-8,1000000.0,63.2,25.14848262956634,24.279835390946502,20.346320346320343,99900.0,2904.0,0.0,1.0,0.0,?,0.0,0.0
1100000.0,4.109375,1.003332242059211E-7,1100000.0,60.8,20.00261215960295,21.599999999999998,12.499999999999988,109800.0,2904.0,0.0,1.0,0.0,?,0.0,0.0
1200000.0,4.484375,1.1398796535407504E-7,1200000.0,61.7,21.758173512996713,18.510638297872333,16.192560175054695,119800.0,2904.0,0.0,1.0,0.0,?,0.0,0.0
1300000.0,4.859375,1.2616811242575447E-7,1300000.0,59.599999999999994,18.687078088582776,16.528925619834702,16.008316008316,129800.0,2904.0,0.0,1.0,0.0,?,0.0,0.0
1400000.0,5.21875,1.3642760071282586E-7,1400000.0,58.699999999999996,16.511009226241008,18.540433925049303,13.598326359832624,139800.0,2904.0,0.0,1.0,0.0,?,0.0,0.0
1500000.0,5.59375,1.4565855963155627E-7,1500000.0,60.4,19.75228584397899,21.272365805168985,15.384615384615374,149800.0,2904.0,0.0,1.0,0.0,?,0.0,0.0
1600000.0,5.96875,1.534149244738122E-7,1600000.0,61.1,20.04899824888808,22.199999999999996,11.791383219954636,159800.0,2904.0,0.0,1.0,0.0,?,0.0,0.0
1700000.0,6.34375,1.596966952395936E-7,1700000.0,63.4,26.015168911816556,25.45824847250509,22.78481012658228,169800.0,2904.0,0.0,1.0,0.0,?,0.0,0.0
1800000.0,6.734375,1.6470417095762162E-7,1800000.0,62.8,24.34103481939473,26.33663366336634,20.51282051282051,179800.0,2904.0,0.0,1.0,0.0,?,0.0,0.0
1900000.0,7.109375,1.6803675357045402E-7,1900000.0,60.8,20.36243219633097,22.067594433399602,15.698924731182787,189800.0,2904.0,0.0,1.0,0.0,?,0.0,0.0
2000000.0,7.46875,1.69817325917797E-7,2000000.0,59.8,18.96631659577899,17.113402061855663,16.770186335403718,199800.0,2904.0,0.0,1.0,0.0,?,0.0,0.0
2100000.0,7.828125,1.843304037012988E-7,2100000.0,62.3,22.821814608581725,24.75049900199601,17.142857142857135,209700.0,2904.0,0.0,1.0,0.0,?,0.0,0.0
2200000.0,8.1875,1.974303288281792E-7,2200000.0,60.199999999999996,18.76125197483639,21.188118811881186,13.289760348583869,219700.0,2904.0,0.0,1.0,0.0,?,0.0,0.0
2300000.0,8.578125,2.1013334238280854E-7,2300000.0,61.199999999999996,20.749044086408052,17.622080679405514,15.283842794759817,229700.0,2904.0,0.0,1.0,0.0,?,0.0,0.0
2400000.0,8.9375,2.2040696219644615E-7,2400000.0,59.199999999999996,16.26303259174123,16.39344262295081,7.692307692307675,239700.0,2904.0,0.0,1.0,0.0,?,0.0,0.0
2500000.0,9.296875,2.2926742935346235E-7,2500000.0,62.9,23.916788345118363,25.94810379241517,17.187499999999993,249700.0,2904.0,0.0,1.0,0.0,?,0.0,0.0
2600000.0,9.671875,2.37038540136483E-7,2600000.0,61.7,22.586852296522668,25.486381322957197,19.198312236286917,259700.0,2904.0,0.0,1.0,0.0,?,0.0,0.0
2700000.0,10.03125,2.430727019802564E-7,2700000.0,58.599999999999994,15.803345901819368,18.019801980198014,12.101910828025465,269700.0,2904.0,0.0,1.0,0.0,?,0.0,0.0
2800000.0,10.40625,2.47894624610328E-7,2800000.0,61.3,21.794167097775468,21.181262729124235,18.86792452830188,279700.0,2904.0,0.0,1.0,0.0,?,0.0,0.0
2900000.0,10.78125,2.512419531639252E-7,2900000.0,59.599999999999994,18.432614032820766,16.528925619834702,14.40677966101694,289700.0,2904.0,0.0,1.0,0.0,?,0.0,0.0
3000000.0,11.15625,2.531146876410478E-7,3000000.0,58.8,15.920083263606848,15.226337448559663,9.450549450549435,299700.0,2904.0,0.0,1.0,0.0,?,0.0,0.0
3100000.0,11.53125,2.682735147472057E-7,3100000.0,61.199999999999996,20.884785410175677,20.81632653061224,16.01731601731601,309600.0,2904.0,0.0,1.0,0.0,?,0.0,0.0
3200000.0,11.90625,2.8195774777688914E-7,3200000.0,59.9,18.640133746692843,23.032629558541267,15.221987315010562,319600.0,2904.0,0.0,1.0,0.0,?,0.0,0.0
3300000.0,12.28125,2.941673867300981E-7,3300000.0,59.099999999999994,18.116806675582392,18.849206349206344,17.70623742454728,329600.0,2904.0,0.0,1.0,0.0,?,0.0,0.0
3400000.0,12.640625,3.044551380703019E-7,3400000.0,61.8,21.783820307541102,22.04081632653061,16.043956043956033,339600.0,2904.0,0.0,1.0,0.0,?,0.0,0.0
3500000.0,13.015625,3.137155888705618E-7,3500000.0,61.4,21.57181461690066,22.489959839357425,16.630669546436277,349600.0,2904.0,0.0,1.0,0.0,?,0.0,0.0
3600000.0,13.390625,3.215014455943472E-7,3600000.0,61.1,20.4824202780049,24.612403100775193,14.505494505494495,359600.0,2904.0,0.0,1.0,0.0,?,0.0,0.0
3700000.0,13.765625,3.278127082416581E-7,3700000.0,59.9,18.097074370307414,22.135922330097085,11.674008810572674,369600.0,2904.0,0.0,1.0,0.0,?,0.0,0.0
3800000.0,14.125,3.3244784895537626E-7,3800000.0,59.599999999999994,17.468826096193744,14.40677966101694,11.013215859030822,379600.0,2904.0,0.0,1.0,0.0,?,0.0,0.0
3900000.0,14.5,3.3580992344973815E-7,3900000.0,58.699999999999996,15.609572694281868,16.565656565656557,8.017817371937623,389600.0,2904.0,0.0,1.0,0.0,?,0.0,0.0
4000000.0,14.859375,3.376187588502135E-7,4000000.0,60.099999999999994,17.73806480343727,20.83333333333333,9.728506787330302,399600.0,2904.0,0.0,1.0,0.0,?,0.0,0.0
4100000.0,15.234375,3.527923318971362E-7,4100000.0,58.5,16.442504389285304,19.729206963249514,14.959016393442614,409500.0,2904.0,0.0,1.0,0.0,?,0.0,0.0
4200000.0,15.59375,3.6592052007714905E-7,4200000.0,59.9,18.499247998048858,18.661257606490867,13.203463203463192,419500.0,2904.0,0.0,1.0,0.0,?,0.0,0.0
4300000.0,15.96875,3.781449049711227E-7,4300000.0,65.0,28.765651204064024,30.41749502982108,24.24242424242424,429500.0,2904.0,0.0,1.0,0.0,?,0.0,0.0
4400000.0,16.34375,3.888946957886219E-7,4400000.0,60.6,19.411911492188672,19.262295081967206,13.785557986870886,439500.0,2904.0,0.0,1.0,0.0,?,0.0,0.0
4500000.0,16.71875,3.9816989252964653E-7,4500000.0,63.0,23.501560981661058,26.58730158730159,13.752913752913765,449500.0,2904.0,0.0,1.0,0.0,?,0.0,0.0
4600000.0,17.09375,4.0597049519419667E-7,4600000.0,58.199999999999996,15.45854637240307,18.9922480620155,12.18487394957982,459500.0,2904.0,0.0,1.0,0.0,?,0.0,0.0
4700000.0,17.46875,4.1229650378227233E-7,4700000.0,62.6,24.077562686761084,23.360655737704917,20.594479830148614,469500.0,2904.0,0.0,1.0,0.0,?,0.0,0.0
4800000.0,17.828125,4.1694577602255677E-7,4800000.0,59.599999999999994,18.623529080002747,18.7122736418511,15.303983228511523,479500.0,2904.0,0.0,1.0,0.0,?,0.0,0.0
4900000.0,18.203125,4.203225964576834E-7,4900000.0,59.4,17.53331166720831,18.96207584830339,13.247863247863236,489500.0,2904.0,0.0,1.0,0.0,?,0.0,0.0
5000000.0,18.578125,4.2244911633638876E-7,5000000.0,58.5,14.906704941562431,18.307086614173222,7.777777777777761,499500.0,2904.0,0.0,1.0,0.0,?,0.0,0.0
5100000.0,18.9375,4.3722176794997524E-7,5100000.0,63.2,26.387044119765086,23.966942148760328,25.656565656565654,7562.0,2904.0,0.0,1.0,0.0,?,1.0,18.0
5200000.0,19.328125,4.5181491360482245E-7,5200000.0,61.199999999999996,21.740112629693577,17.270788912579953,19.16666666666666,17562.0,2904.0,0.0,1.0,0.0,?,0.0,78.0
5300000.0,19.703125,4.6434973935700126E-7,5300000.0,61.4,22.667916801897636,23.715415019762844,21.224489795918362,27562.0,2904.0,0.0,1.0,0.0,?,0.0,75.0
5400000.0,20.078125,4.753517633717921E-7,5400000.0,60.3,20.25165924759349,20.599999999999994,17.118997912317322,37562.0,2904.0,0.0,1.0,0.0,?,0.0,30.0
5500000.0,20.4375,4.844822170626786E-7,5500000.0,62.7,24.90436883430641,24.493927125506072,20.638297872340424,47562.0,2904.0,0.0,1.0,0.0,?,0.0,0.0
5600000.0,20.828125,4.928705877520972E-7,5600000.0,61.5,22.789369399722435,24.951267056530213,21.267893660531694,57562.0,2904.0,0.0,1.0,0.0,?,0.0,0.0
5700000.0,21.1875,4.991747361297408E-7,5700000.0,61.7,22.79035262432165,23.092369477911646,20.041753653444673,67562.0,2904.0,0.0,1.0,0.0,?,0.0,0.0
5800000.0,21.5625,5.042783838386337E-7,5800000.0,60.8,21.7380540726159,25.04780114722753,21.599999999999998,77562.0,2904.0,0.0,1.0,0.0,?,0.0,0.0
5900000.0,21.921875,5.077562269030346E-7,5900000.0,60.8,20.902358804657066,21.12676056338028,17.124735729386884,87562.0,2904.0,0.0,1.0,0.0,?,0.0,0.0
6000000.0,22.296875,5.099106864589785E-7,6000000.0,60.099999999999994,19.358098548849988,19.230769230769226,12.307692307692296,97562.0,2904.0,0.0,1.0,0.0,?,0.0,0.0
6100000.0,22.65625,5.247078823029168E-7,6100000.0,61.0,21.79353493222106,16.12903225806451,18.410041841004176,107462.0,2904.0,0.0,1.0,0.0,?,0.0,0.0
6200000.0,23.03125,5.386738404114214E-7,6200000.0,64.7,28.738695090439283,29.400000000000006,25.05307855626327,117462.0,2904.0,0.0,1.0,0.0,?,0.0,0.0
6300000.0,23.40625,5.511652044434515E-7,6300000.0,63.0,25.65025881747741,29.118773946360154,21.610169491525422,127462.0,2904.0,0.0,1.0,0.0,?,0.0,0.0
6400000.0,23.78125,5.621819743990071E-7,6400000.0,60.8,21.734303934448487,21.599999999999998,22.834645669291337,137462.0,2904.0,0.0,1.0,0.0,?,0.0,0.0
6500000.0,24.1875,5.72519331601345E-7,6500000.0,62.3,24.110665571605715,27.915869980879542,19.61620469083155,147462.0,2904.0,0.0,1.0,0.0,?,0.0,0.0
6600000.0,24.5625,5.805869134039516E-7,6600000.0,60.9,21.345692721157402,22.266401590457257,18.54166666666666,157462.0,2904.0,0.0,1.0,0.0,?,0.0,0.0
6700000.0,24.984375,5.880040245958501E-7,6700000.0,60.199999999999996,20.206900699693247,17.768595041322307,19.75806451612903,167462.0,2904.0,0.0,1.0,0.0,?,0.0,0.0
6800000.0,25.359375,5.931224182455076E-7,6800000.0,59.8,20.1176377076544,21.330724070450096,18.623481781376512,177462.0,2904.0,0.0,1.0,0.0,?,0.0,0.0
6900000.0,25.734375,5.967662178186907E-7,6900000.0,62.6,24.426123504688,27.519379844961243,20.08547008547008,187462.0,2904.0,0.0,1.0,0.0,?,0.0,0.0
7000000.0,26.109375,5.989354233153992E-7,7000000.0,60.9,21.857512870527295,21.010101010101007,21.643286573146288,197462.0,2904.0,0.0,1.0,0.0,?,0.0,0.0
7100000.0,26.5,6.150346921963825E-7,7100000.0,64.1,27.95504716034517,24.737945492662476,25.672877846790893,207362.0,2904.0,0.0,1.0,0.0,?,0.0,0.0
7200000.0,26.875,6.290153962456518E-7,7200000.0,59.4,18.238791061848524,19.6039603960396,15.062761506276143,217362.0,2904.0,0.0,1.0,0.0,?,0.0,0.0
7300000.0,27.25,6.415215062184466E-7,7300000.0,64.2,27.92023709812512,29.941291585127207,24.47257383966245,227362.0,2904.0,0.0,1.0,0.0,?,0.0,0.0
7400000.0,27.640625,6.530126686104469E-7,7400000.0,61.4,22.152307195869643,22.334004024144864,19.0775681341719,237362.0,2904.0,0.0,1.0,0.0,?,0.0,0.0
7500000.0,28.046875,6.633660005819466E-7,7500000.0,63.1,25.684548025102107,22.964509394572023,20.81545064377682,247362.0,2904.0,0.0,1.0,0.0,?,0.0,0.0
7600000.0,28.421875,6.714483283253178E-7,7600000.0,64.7,28.643045425877716,31.322957198443586,23.42733188720173,257362.0,2904.0,0.0,1.0,0.0,?,0.0,0.0
7700000.0,28.796875,6.780560619922147E-7,7700000.0,62.6,24.829560072034983,21.92066805845511,21.757322175732213,267362.0,2904.0,0.0,1.0,0.0,?,0.0,0.0
7800000.0,29.1875,6.834030823989046E-7,7800000.0,63.1,26.148599425199937,27.788649706457928,26.200000000000003,277362.0,2904.0,0.0,1.0,0.0,?,0.0,0.0
7900000.0,29.578125,6.872140673092669E-7,7900000.0,61.199999999999996,21.868392542861624,20.164609053497937,17.970401691331915,287362.0,2904.0,0.0,1.0,0.0,?,0.0,0.0
8000000.0,29.953125,6.893980187467403E-7,8000000.0,60.0,19.670972302551238,20.94861660079051,17.355371900826437,297362.0,2904.0,0.0,1.0,0.0,?,0.0,0.0
8100000.0,30.34375,7.055126479826867E-7,8100000.0,63.6,27.0941406922852,27.054108216432866,25.562372188139058,307262.0,2904.0,0.0,1.0,0.0,?,0.0,0.0
8200000.0,30.734375,7.200912417223056E-7,8200000.0,61.6,22.523474983556397,21.47239263803681,21.14989733059548,317262.0,2904.0,0.0,1.0,0.0,?,0.0,0.0
8300000.0,31.140625,7.336555022953285E-7,8300000.0,63.1,25.988623508740964,27.9296875,24.074074074074073,327262.0,2904.0,0.0,1.0,0.0,?,0.0,0.0
8400000.0,31.515625,7.447017641324136E-7,8400000.0,60.099999999999994,20.138666495868833,21.61100196463654,19.87951807228915,337262.0,2904.0,0.0,1.0,0.0,?,0.0,0.0
8500000.0,31.90625,7.546722513830496E-7,8500000.0,61.7,23.29936877182864,23.092369477911646,21.67689161554192,347262.0,2904.0,0.0,1.0,0.0,?,0.0,0.0
8600000.0,32.296875,7.631067031373579E-7,8600000.0,63.800000000000004,27.135122078863144,20.439560439560438,21.98275862068965,357262.0,2904.0,0.0,1.0,0.0,?,0.0,0.0
8700000.0,32.6875,7.700051193953387E-7,8700000.0,60.4,20.655275222004928,20.16129032258064,18.852459016393436,367262.0,2904.0,0.0,1.0,0.0,?,0.0,0.0
8800000.0,33.0625,7.751530049265258E-7,8800000.0,62.3,24.415574000561367,24.6,23.06122448979592,377262.0,2904.0,0.0,1.0,0.0,?,0.0,0.0
8900000.0,33.4375,7.788262963812384E-7,8900000.0,59.8,19.342217727858234,20.55335968379446,14.649681528662411,387262.0,2904.0,0.0,1.0,0.0,?,0.0,0.0
9000000.0,33.828125,7.811166061502363E-7,9000000.0,63.5,26.564675395745972,27.865612648221344,19.426048565121405,397262.0,2904.0,0.0,1.0,0.0,?,0.0,0.0
9100000.0,34.1875,7.959561965738733E-7,9100000.0,61.0,21.69932540957275,20.89249492900608,18.749999999999993,407162.0,2904.0,0.0,1.0,0.0,?,0.0,0.0
9200000.0,34.5625,8.099663925046721E-7,9200000.0,64.3,28.264853395061728,29.30693069306931,28.169014084507044,417162.0,2904.0,0.0,1.0,0.0,?,0.0,0.0
9300000.0,34.9375,8.225019943589965E-7,9300000.0,61.5,22.47905927835051,23.0,14.823008849557512,427162.0,2904.0,0.0,1.0,0.0,?,0.0,0.0
9400000.0,35.3125,8.335630021368463E-7,9400000.0,63.9,27.32382570602589,26.1758691206544,23.839662447257385,437162.0,2904.0,0.0,1.0,0.0,?,0.0,0.0
9500000.0,35.671875,8.427499819339976E-7,9500000.0,62.3,24.169281519028086,24.6,21.45833333333333,447162.0,2904.0,0.0,1.0,0.0,?,0.0,0.0
9600000.0,36.03125,8.505238090745276E-7,9600000.0,61.3,22.83458286808103,23.21428571428571,25.28957528957529,457162.0,2904.0,0.0,1.0,0.0,?,0.0,0.0
9700000.0,36.390625,8.568844835584362E-7,9700000.0,59.9,19.597385411236303,22.43713733075435,18.16326530612244,467162.0,2904.0,0.0,1.0,0.0,?,0.0,0.0
9800000.0,36.78125,8.622622246750526E-7,9800000.0,61.3,22.10144927536232,19.20668058455114,16.414686825053987,477162.0,2904.0,0.0,1.0,0.0,?,0.0,0.0
9900000.0,37.15625,8.659502620705299E-7,9900000.0,61.7,23.43981129812498,23.552894211576845,23.705179282868524,487162.0,2904.0,0.0,1.0,0.0,?,0.0,0.0
1.0E7,37.53125,8.681637053895327E-7,1.0E7,61.9,23.61300463534733,21.44329896907216,22.40325865580448,497162.0,2904.0,0.0,1.0,0.0,?,0.0,0.0
