learning evaluation instances,evaluation time (cpu seconds),model cost (RAM-Hours),classified instances,classifications correct (percent),Kappa Statistic (percent),Kappa Temporal Statistic (percent),Kappa M Statistic (percent),model training instances,model serialized size (bytes),labeling cost,newThreshold,maxPosterior,accuracyBaseLearner (percent),Change detected,Warning detected
100000.0,0.15625,3.557134833600786E-9,100000.0,57.599999999999994,15.575183882824708,14.343434343434334,13.292433537832299,19690.0,5144.0,0.0,1.0,0.0,?,1.0,37.0
200000.0,0.28125,5.911311341656579E-9,200000.0,60.199999999999996,21.26763070958042,14.224137931034472,15.498938428874725,39690.0,5144.0,0.0,1.0,0.0,?,0.0,0.0
300000.0,0.421875,8.006787134541405E-9,300000.0,62.1,25.32372853303489,19.87315010570824,17.96536796536796,59690.0,5144.0,0.0,1.0,0.0,?,0.0,0.0
400000.0,0.546875,9.377900924947525E-9,400000.0,64.5,29.130400063882465,27.698574338085542,28.137651821862352,79690.0,5144.0,0.0,1.0,0.0,?,0.0,0.0
500000.0,0.6875,1.0367431160476471E-8,500000.0,61.1,22.817460317460316,24.0234375,18.10526315789473,99690.0,5144.0,0.0,1.0,0.0,?,0.0,0.0
600000.0,0.828125,1.3573800161894824E-8,600000.0,63.9,28.090514322138567,32.14285714285714,24.31865828092243,119590.0,5144.0,0.0,1.0,0.0,?,0.0,19.0
700000.0,0.96875,1.6227196384635236E-8,700000.0,60.699999999999996,22.674327089563974,18.6335403726708,14.565217391304339,139590.0,5144.0,0.0,1.0,0.0,?,0.0,0.0
800000.0,1.09375,1.80942394460241E-8,800000.0,60.5,22.767089003597675,20.2020202020202,11.235955056179762,159590.0,5144.0,0.0,1.0,0.0,?,0.0,0.0
900000.0,1.234375,1.9656533064941565E-8,900000.0,61.199999999999996,22.642592828888606,27.611940298507452,16.01731601731601,179590.0,5144.0,0.0,1.0,0.0,?,0.0,32.0
1000000.0,1.375,2.0656831717739502E-8,1000000.0,61.199999999999996,22.62284620293554,22.709163346613543,21.138211382113816,199590.0,5144.0,0.0,1.0,0.0,?,0.0,53.0
1100000.0,1.515625,2.387455121303598E-8,1100000.0,61.199999999999996,23.19630075378475,22.554890219560875,18.487394957983184,219490.0,5144.0,0.0,1.0,0.0,?,0.0,50.0
1200000.0,1.65625,2.651514175037543E-8,1200000.0,61.9,24.733901747121713,25.440313111545986,18.415417558886503,239490.0,5144.0,0.0,1.0,0.0,?,0.0,9.0
1300000.0,1.796875,2.8626915688316024E-8,1300000.0,60.6,22.79596187609731,17.226890756302513,19.918699186991866,259490.0,5144.0,0.0,1.0,0.0,?,0.0,48.0
1400000.0,1.9375,3.01801871197919E-8,1400000.0,62.4,24.635705838728423,23.57723577235772,25.691699604743086,279490.0,5144.0,0.0,1.0,0.0,?,0.0,99.0
1500000.0,2.09375,3.129195344323913E-8,1500000.0,59.5,18.822708796010485,15.975103734439825,18.674698795180717,299490.0,5144.0,0.0,1.0,0.0,?,0.0,41.0
1600000.0,2.21875,3.4147491937296255E-8,1600000.0,61.5,23.838989689579584,25.09727626459144,18.60465116279069,319390.0,5144.0,0.0,1.0,0.0,?,0.0,0.0
1700000.0,2.359375,3.680699996443258E-8,1700000.0,62.6,25.599974536889686,25.940594059405942,22.727272727272727,339390.0,5144.0,0.0,1.0,0.0,?,0.0,0.0
1800000.0,2.5,3.8913535212890966E-8,1800000.0,61.8,24.472792410899636,24.65483234714004,19.238900634249468,359390.0,5144.0,0.0,1.0,0.0,?,0.0,0.0
1900000.0,2.640625,4.0467097682671414E-8,1900000.0,62.3,25.013326544088976,25.494071146245062,22.587268993839835,379390.0,5144.0,0.0,1.0,0.0,?,0.0,0.0
2000000.0,2.796875,4.157886400611864E-8,2000000.0,61.5,22.749089041205842,23.913043478260867,18.60465116279069,399390.0,5144.0,0.0,1.0,0.0,?,0.0,0.0
2100000.0,2.953125,4.515443126567536E-8,2100000.0,62.4,25.041366798907518,26.129666011787823,23.732251521298174,419290.0,5144.0,0.0,1.0,0.0,?,0.0,0.0
2200000.0,3.09375,4.7819469020598465E-8,2200000.0,60.5,21.14509302882696,21.471172962226635,19.05737704918032,439290.0,5144.0,0.0,1.0,0.0,?,0.0,0.0
2300000.0,3.234375,4.993153399684363E-8,2300000.0,60.4,22.940407248271992,19.838056680161937,10.810810810810796,459290.0,5144.0,0.0,1.0,0.0,?,0.0,0.0
2400000.0,3.34375,5.1144161261618136E-8,2400000.0,62.7,25.654558790700648,24.032586558044805,24.186991869918696,479290.0,5144.0,0.0,1.0,0.0,?,0.0,0.0
2500000.0,3.484375,5.215028068050742E-8,2500000.0,63.6,27.29161256816412,27.634194831013918,26.907630522088354,499290.0,5144.0,0.0,1.0,0.0,?,0.0,0.0
2600000.0,3.609375,5.5010734488152793E-8,2600000.0,59.199999999999996,19.157654462378588,15.876288659793806,10.329670329670314,519190.0,5144.0,0.0,1.0,0.0,?,0.0,0.0
2700000.0,3.75,5.76757722430759E-8,2700000.0,59.4,19.241908277903303,15.592515592515586,16.803278688524586,539190.0,5144.0,0.0,1.0,0.0,?,0.0,0.0
2800000.0,3.890625,5.978783721932106E-8,2800000.0,61.0,22.86789049613746,23.976608187134502,17.197452229299355,559190.0,5144.0,0.0,1.0,0.0,?,0.0,0.0
2900000.0,4.046875,6.152016188328465E-8,2900000.0,63.7,27.305788301638927,28.82352941176471,26.21951219512195,579190.0,5144.0,0.0,1.0,0.0,?,0.0,0.0
3000000.0,4.171875,6.241449025563068E-8,3000000.0,60.6,22.59575337513948,22.134387351778653,13.215859030836993,599190.0,5144.0,0.0,1.0,0.0,?,0.0,0.0
3100000.0,4.296875,6.52798593768643E-8,3100000.0,62.2,25.35574504050141,24.096385542168676,19.057815845824404,619090.0,5144.0,0.0,1.0,0.0,?,0.0,0.0
3200000.0,4.4375,6.795042685957419E-8,3200000.0,57.99999999999999,17.725461618927838,13.402061855670091,6.873614190687344,639090.0,5144.0,0.0,1.0,0.0,?,0.0,0.0
3300000.0,4.5625,6.983273326315814E-8,3300000.0,60.699999999999996,20.888624065962375,20.606060606060602,19.46721311475409,659090.0,5144.0,0.0,1.0,0.0,?,0.0,0.0
3400000.0,4.703125,7.139735518851215E-8,3400000.0,61.8,23.924689425531824,24.95088408644401,21.88139059304703,679090.0,5144.0,0.0,1.0,0.0,?,0.0,0.0
3500000.0,4.84375,7.240900433518822E-8,3500000.0,61.5,23.40442463791182,18.60465116279069,21.267893660531694,699090.0,5144.0,0.0,1.0,0.0,?,0.0,0.0
3600000.0,4.984375,7.563254459657605E-8,3600000.0,59.8,20.131604043486547,24.007561436672965,16.770186335403718,718990.0,5144.0,0.0,1.0,0.0,?,0.0,0.0
3700000.0,5.125,7.831737295620974E-8,3700000.0,58.699999999999996,18.25602292789904,14.84536082474226,11.373390557939901,738990.0,5144.0,0.0,1.0,0.0,?,0.0,7.0
3800000.0,5.25,8.021235569483707E-8,3800000.0,60.8,22.335636847777845,19.836400817995905,16.23931623931623,758990.0,5144.0,0.0,1.0,0.0,?,0.0,0.0
3900000.0,5.40625,8.196666991959019E-8,3900000.0,65.8,31.358381502890182,32.94117647058824,33.33333333333334,778990.0,5144.0,0.0,1.0,0.0,?,0.0,0.0
4000000.0,5.546875,8.299257994319005E-8,4000000.0,62.0,24.41270662184473,23.076923076923077,22.448979591836732,798990.0,5144.0,0.0,1.0,0.0,?,0.0,0.0
4100000.0,5.6875,8.623591080928845E-8,4100000.0,60.0,21.354279310277015,17.012448132780076,10.913140311803996,818890.0,5144.0,0.0,1.0,0.0,?,0.0,0.0
4200000.0,5.84375,8.922519757308897E-8,4200000.0,59.699999999999996,20.104359962569973,14.799154334038045,16.21621621621621,838890.0,5144.0,0.0,1.0,0.0,?,0.0,0.0
4300000.0,6.0,9.160007013835844E-8,4300000.0,61.7,23.741030113333174,18.336886993603404,21.35523613963039,858890.0,5144.0,0.0,1.0,0.0,?,0.0,0.0
4400000.0,6.15625,9.336052850509687E-8,4400000.0,62.3,25.03718314788156,23.52941176470588,21.784232365145225,878890.0,5144.0,0.0,1.0,0.0,?,0.0,0.0
4500000.0,6.296875,9.439196825648351E-8,4500000.0,62.8,24.978522076884918,27.34375,28.32369942196532,898890.0,5144.0,0.0,1.0,0.0,?,0.0,0.0
4600000.0,6.4375,9.763529912258192E-8,4600000.0,61.199999999999996,23.140008002947614,23.015873015873016,17.622080679405514,918790.0,5144.0,0.0,1.0,0.0,?,0.0,0.0
4700000.0,6.578125,1.0030935906494662E-7,4700000.0,59.9,20.609780241536324,17.319587628865975,14.132762312633822,17398.0,5144.0,0.0,1.0,0.0,?,3.0,17.0
4800000.0,6.734375,1.0266612258015411E-7,4800000.0,59.5,20.333928697882644,19.32270916334661,10.792951541850208,37398.0,5144.0,0.0,1.0,0.0,?,0.0,0.0
4900000.0,6.875,1.0423423696516293E-7,4900000.0,60.9,22.653900933692032,23.483365949119374,18.029350104821795,57398.0,5144.0,0.0,1.0,0.0,?,0.0,0.0
5000000.0,7.03125,1.0545110045414836E-7,5000000.0,62.2,24.01338007783603,24.550898203592812,21.739130434782606,77398.0,5144.0,0.0,1.0,0.0,?,0.0,0.0
5100000.0,7.171875,1.0876515362825663E-7,5100000.0,61.3,12.763962274358468,17.484008528784642,6.295399515738503,6968.0,5144.0,0.0,1.0,0.0,?,2.0,50.0
5200000.0,7.3125,1.1152623402368695E-7,5200000.0,62.0,10.788488897862198,18.279569892473113,-2.425876010781673,26968.0,5144.0,0.0,1.0,0.0,?,0.0,0.0
5300000.0,7.4375,1.1348899634968907E-7,5300000.0,62.9,22.580591308993185,15.681818181818171,4.134366925064603,46968.0,5144.0,0.0,1.0,0.0,?,0.0,0.0
5400000.0,7.578125,1.1514413118776351E-7,5400000.0,60.5,8.018889892789618,18.55670103092783,-3.4031413612565475,66968.0,5144.0,0.0,1.0,0.0,?,0.0,0.0
5500000.0,7.71875,1.1624629324716002E-7,5500000.0,61.8,11.677117437064165,20.250521920668056,0.0,86968.0,5144.0,0.0,1.0,0.0,?,0.0,0.0
5600000.0,7.84375,1.1919211829081181E-7,5600000.0,61.6,9.892997935047863,20.496894409937884,-3.7837837837837873,106868.0,5144.0,0.0,1.0,0.0,?,0.0,0.0
5700000.0,7.984375,1.2195319868624215E-7,5700000.0,64.5,13.672353753671976,23.819742489270386,2.203856749311297,126868.0,5144.0,0.0,1.0,0.0,?,0.0,0.0
5800000.0,8.125,1.2416130630299453E-7,5800000.0,61.0,11.109490315492922,15.766738660907118,0.25575447570332505,146868.0,5144.0,0.0,1.0,0.0,?,0.0,0.0
5900000.0,8.28125,1.2600034501196614E-7,5900000.0,62.7,9.46953516368295,21.802935010482177,-3.8997214484679703,166868.0,5144.0,0.0,1.0,0.0,?,0.0,0.0
6000000.0,8.421875,1.2710250707136264E-7,6000000.0,62.4,13.45180001841452,19.999999999999996,3.589743589743593,186868.0,5144.0,0.0,1.0,0.0,?,0.0,0.0
6100000.0,8.578125,1.307909325179127E-7,6100000.0,60.6,7.394784963169422,14.90280777537796,-4.509283819628651,206768.0,5144.0,0.0,1.0,0.0,?,0.0,0.0
6200000.0,8.71875,1.3355754264112982E-7,6200000.0,60.3,8.508480825958692,15.531914893617014,-2.3195876288659814,226768.0,5144.0,0.0,1.0,0.0,?,0.0,0.0
6300000.0,8.859375,1.35771179985669E-7,6300000.0,60.199999999999996,8.701775956910913,14.408602150537625,-0.2518891687657433,246768.0,5144.0,0.0,1.0,0.0,?,0.0,0.0
6400000.0,8.984375,1.3724732626643453E-7,6400000.0,58.5,9.407635080856418,14.432989690721639,3.0373831775700957,266768.0,5144.0,0.0,1.0,0.0,?,0.0,0.0
6500000.0,9.125,1.3835501805361783E-7,6500000.0,64.2,14.641590050738165,25.10460251046025,1.1049723756906087,286768.0,5144.0,0.0,1.0,0.0,?,0.0,0.0
6600000.0,9.28125,1.420434435001679E-7,6600000.0,60.5,9.354604786076871,18.55670103092783,1.0025062656641612,306668.0,5144.0,0.0,1.0,0.0,?,0.0,0.0
6700000.0,9.4375,1.451174547481869E-7,6700000.0,61.0,7.4798946694185355,13.907284768211909,-6.267029972752049,326668.0,5144.0,0.0,1.0,0.0,?,0.0,0.0
6800000.0,9.59375,1.4757705179767485E-7,6800000.0,62.6,9.251935069031616,20.93023255813953,-5.352112676056343,346668.0,5144.0,0.0,1.0,0.0,?,0.0,0.0
6900000.0,9.734375,1.492377163635361E-7,6900000.0,61.7,10.062650874012567,20.041753653444673,1.5424164524421609,366668.0,5144.0,0.0,1.0,0.0,?,0.0,0.0
7000000.0,9.875,1.5034540815071939E-7,7000000.0,61.3,11.110498608086871,13.228699551569495,1.5267175572519098,386668.0,5144.0,0.0,1.0,0.0,?,0.0,0.0
7100000.0,10.0,1.5330106382154768E-7,7100000.0,62.2,13.33455612619222,19.057815845824404,0.5263157894736846,406568.0,5144.0,0.0,1.0,0.0,?,0.0,0.0
7200000.0,10.140625,1.5607320367255156E-7,7200000.0,61.199999999999996,6.856155175724968,17.622080679405514,-7.777777777777785,426568.0,5144.0,0.0,1.0,0.0,?,0.0,0.0
7300000.0,10.296875,1.5853894486402485E-7,7300000.0,60.099999999999994,7.009480837893518,15.999999999999993,-4.724409448818902,446568.0,5144.0,0.0,1.0,0.0,?,0.0,0.0
7400000.0,10.4375,1.6020513915767285E-7,7400000.0,62.7,11.747726261794579,21.141649048625787,1.322751322751324,466568.0,5144.0,0.0,1.0,0.0,?,0.0,0.0
7500000.0,10.59375,1.6144205195208404E-7,7500000.0,63.1,11.978550437006229,19.256017505470453,-1.3736263736263747,486568.0,5144.0,0.0,1.0,0.0,?,0.0,0.0
7600000.0,10.71875,1.6439770762291233E-7,7600000.0,62.4,11.395984541427081,16.81415929203539,0.5291005291005296,506468.0,5144.0,0.0,1.0,0.0,?,0.0,0.0
7700000.0,10.859375,1.671698474739162E-7,7700000.0,61.6,10.314320280641446,18.471337579617828,-0.2610966057441255,526468.0,5144.0,0.0,1.0,0.0,?,0.0,0.0
7800000.0,11.0,1.6938901454624216E-7,7800000.0,63.7,14.559285969834468,23.093220338983052,3.457446808510641,546468.0,5144.0,0.0,1.0,0.0,?,0.0,0.0
7900000.0,11.140625,1.7105520883989016E-7,7900000.0,60.5,11.74052160234525,20.523138832997983,5.275779376498805,566468.0,5144.0,0.0,1.0,0.0,?,0.0,0.0
8000000.0,11.28125,1.7216843035486023E-7,8000000.0,61.4,12.594934129187394,17.521367521367516,3.258145363408524,586468.0,5144.0,0.0,1.0,0.0,?,0.0,0.0
8100000.0,11.421875,1.7549907271232882E-7,8100000.0,63.800000000000004,14.553720217722784,23.14225053078556,1.362397820163489,606368.0,5144.0,0.0,1.0,0.0,?,0.0,0.0
8200000.0,11.578125,1.7858537224431845E-7,8200000.0,59.699999999999996,7.6983683453501,15.157894736842096,-2.284263959390865,626368.0,5144.0,0.0,1.0,0.0,?,0.0,0.0
8300000.0,11.734375,1.8105725757777704E-7,8300000.0,62.4,12.733484347729219,19.486081370449675,2.0833333333333353,646368.0,5144.0,0.0,1.0,0.0,?,0.0,0.0
8400000.0,11.875,1.827289815992118E-7,8400000.0,60.099999999999994,7.9525321128008155,16.352201257861626,-2.835051546391755,666368.0,5144.0,0.0,1.0,0.0,?,0.0,0.0
8500000.0,12.0,1.8372342714832902E-7,8500000.0,62.1,12.093519506424819,18.843683083511774,2.820512820512823,686368.0,5144.0,0.0,1.0,0.0,?,0.0,0.0
8600000.0,12.125,1.8668399813274555E-7,8600000.0,58.9,2.5068316380749756,10.457516339869267,-10.78167115902966,706268.0,5144.0,0.0,1.0,0.0,?,0.0,0.0
8700000.0,12.28125,1.8977029766473518E-7,8700000.0,59.599999999999994,6.984454431592113,15.481171548117146,-3.061224489795921,726268.0,5144.0,0.0,1.0,0.0,?,0.0,0.0
8800000.0,12.421875,1.919949944648479E-7,8800000.0,58.3,6.443507134523909,16.09657947686116,-2.2058823529411784,746268.0,5144.0,0.0,1.0,0.0,?,0.0,0.0
8900000.0,12.578125,1.9385246559977543E-7,8900000.0,62.3,11.676506419267172,16.035634743875267,-0.2659574468085109,766268.0,5144.0,0.0,1.0,0.0,?,0.0,0.0
9000000.0,12.75,1.9521982822981156E-7,9000000.0,60.4,9.109688080975005,16.455696202531637,-1.278772378516625,786268.0,5144.0,0.0,1.0,0.0,?,0.0,0.0
9100000.0,12.890625,1.9855600031506695E-7,9100000.0,57.699999999999996,1.9025797534345665,11.32075471698112,-10.443864229765023,806168.0,5144.0,0.0,1.0,0.0,?,0.0,0.0
9200000.0,13.0,2.007207108868494E-7,9200000.0,61.7,10.999776918500878,21.516393442622945,1.2886597938144342,826168.0,5144.0,0.0,1.0,0.0,?,0.0,0.0
9300000.0,13.125,2.027031344672045E-7,9300000.0,61.7,16.170548065137464,20.041753653444673,9.45626477541372,846168.0,5144.0,0.0,1.0,0.0,?,0.0,0.0
9400000.0,13.265625,2.0438038821642606E-7,9400000.0,61.6,9.83714334015817,18.297872340425524,-0.5235602094240842,866168.0,5144.0,0.0,1.0,0.0,?,0.0,0.0
9500000.0,13.4375,2.0575450940264606E-7,9500000.0,64.0,12.959381044487426,20.704845814977972,-1.1235955056179785,886168.0,5144.0,0.0,1.0,0.0,?,0.0,0.0
9600000.0,13.59375,2.0946136727515204E-7,9600000.0,64.9,15.707671322356925,24.839400428265524,5.39083557951483,906068.0,5144.0,0.0,1.0,0.0,?,0.0,0.0
9700000.0,13.71875,2.11935322214332E-7,9700000.0,60.8,8.048565369963784,14.035087719298234,-3.703703703703707,926068.0,5144.0,0.0,1.0,0.0,?,0.0,0.0
9800000.0,13.875,2.1441335168977589E-7,9800000.0,63.5,13.740133289218692,24.273858921161825,3.4391534391534426,946068.0,5144.0,0.0,1.0,0.0,?,0.0,0.0
9900000.0,14.0,2.1590424391130616E-7,9900000.0,64.7,16.183873112356352,26.611226611226613,3.2876712328767157,966068.0,5144.0,0.0,1.0,0.0,?,0.0,0.0
1.0E7,14.140625,2.1702852488184978E-7,1.0E7,64.60000000000001,15.488922841864028,24.034334763948497,4.324324324324328,986068.0,5144.0,0.0,1.0,0.0,?,0.0,0.0
