learning evaluation instances,evaluation time (cpu seconds),model cost (RAM-Hours),classified instances,classifications correct (percent),Kappa Statistic (percent),Kappa Temporal Statistic (percent),Kappa M Statistic (percent),model training instances,model serialized size (bytes),labeling cost,newThreshold,maxPosterior,accuracyBaseLearner (percent),Change detected,Warning detected
100000.0,0.125,2.829151021109687E-9,100000.0,62.2,10.059532024041214,19.7452229299363,-1.8867924528301903,19900.0,5144.0,0.0,1.0,0.0,?,0.0,14.0
200000.0,0.28125,5.751175598965751E-9,200000.0,63.4,14.653085780644428,24.84599589322382,3.9370078740157513,39900.0,5144.0,0.0,1.0,0.0,?,0.0,0.0
300000.0,0.421875,7.828024940358268E-9,300000.0,65.0,17.16564504295553,22.222222222222218,6.166219839142097,59900.0,5144.0,0.0,1.0,0.0,?,0.0,0.0
400000.0,0.578125,9.521221121152241E-9,400000.0,62.5,8.726256656898371,16.666666666666657,-3.5911602209944786,79900.0,5144.0,0.0,1.0,0.0,?,0.0,0.0
500000.0,0.75,1.0707881301641463E-8,500000.0,63.800000000000004,14.32155451941965,24.4258872651357,0.8219178082191789,99900.0,5144.0,0.0,1.0,0.0,?,0.0,0.0
600000.0,0.890625,1.3890676200389861E-8,600000.0,62.7,14.602316955904564,25.250501002004004,4.60358056265985,119800.0,5144.0,0.0,1.0,0.0,?,0.0,0.0
700000.0,1.03125,1.652049832046032E-8,700000.0,61.6,8.899823018926996,14.093959731543611,-2.9490616621983943,139800.0,5144.0,0.0,1.0,0.0,?,0.0,0.0
800000.0,1.171875,1.8597347661852837E-8,800000.0,64.4,15.398033241918855,25.210084033613445,4.043126684636123,159800.0,5144.0,0.0,1.0,0.0,?,0.0,0.0
900000.0,1.3125,2.0121224224567414E-8,900000.0,61.1,10.6716390491237,18.27731092436974,0.5115089514066501,179800.0,5144.0,0.0,1.0,0.0,?,0.0,0.0
1000000.0,1.453125,2.109212800860405E-8,1000000.0,63.6,15.840485350695477,23.36842105263158,5.699481865284979,199800.0,5144.0,0.0,1.0,0.0,?,0.0,0.0
1100000.0,1.59375,2.4280452635139226E-8,1100000.0,60.0,8.159141839021347,17.525773195876283,-0.5025125628140708,219700.0,5144.0,0.0,1.0,0.0,?,0.0,0.0
1200000.0,1.734375,2.6915804482996462E-8,1200000.0,61.199999999999996,10.622143594279802,14.725274725274714,-1.0416666666666676,239700.0,5144.0,0.0,1.0,0.0,?,0.0,0.0
1300000.0,1.90625,2.9460934456437826E-8,1300000.0,67.30000000000001,17.923334872793724,28.28947368421053,5.763688760806922,259700.0,5144.0,0.0,1.0,0.0,?,0.0,0.0
1400000.0,2.046875,3.099034074693918E-8,1400000.0,63.9,14.372189225602,22.198275862068964,1.90217391304348,279700.0,5144.0,0.0,1.0,0.0,?,0.0,0.0
1500000.0,2.1875,3.1966774258762595E-8,1500000.0,63.4,16.645410487191644,24.22360248447205,6.632653061224496,299700.0,5144.0,0.0,1.0,0.0,?,0.0,0.0
1600000.0,2.328125,3.515509888529777E-8,1600000.0,63.9,14.858490566037725,21.52173913043478,3.7333333333333365,319600.0,5144.0,0.0,1.0,0.0,?,0.0,0.0
1700000.0,2.484375,3.8083267605139144E-8,1700000.0,65.7,20.109191868373482,23.946784922394677,9.49868073878629,339600.0,5144.0,0.0,1.0,0.0,?,0.0,0.0
1800000.0,2.625,4.016564667431844E-8,1800000.0,64.1,11.866370760256899,20.399113082039907,-0.5602240896358549,359600.0,5144.0,0.0,1.0,0.0,?,0.0,0.0
1900000.0,2.765625,4.1695052964819794E-8,1900000.0,63.6,15.119462361078067,21.551724137931032,4.461942257217852,379600.0,5144.0,0.0,1.0,0.0,?,0.0,0.0
2000000.0,2.90625,4.267148647664321E-8,2000000.0,61.1,11.143394916214376,19.12681912681912,2.506265664160403,399600.0,5144.0,0.0,1.0,0.0,?,0.0,0.0
2100000.0,3.046875,4.5865340830965166E-8,2100000.0,61.9,9.63769697084687,12.413793103448285,-4.958677685950417,419500.0,5144.0,0.0,1.0,0.0,?,0.0,0.0
2200000.0,3.1875,4.850622240660918E-8,2200000.0,67.30000000000001,21.27007974113024,30.866807610993664,8.403361344537823,439500.0,5144.0,0.0,1.0,0.0,?,0.0,0.0
2300000.0,3.328125,5.059413120357526E-8,2300000.0,63.2,14.18110585107624,21.03004291845493,4.9095607235142165,459500.0,5144.0,0.0,1.0,0.0,?,0.0,0.0
2400000.0,3.46875,5.2129067221863394E-8,2400000.0,62.7,12.430625334547878,18.73638344226579,1.5831134564643814,479500.0,5144.0,0.0,1.0,0.0,?,0.0,0.0
2500000.0,3.609375,5.311103046147359E-8,2500000.0,59.3,9.511316643692457,16.768916155419216,0.7317073170731713,499500.0,5144.0,0.0,1.0,0.0,?,0.0,0.0
2600000.0,3.765625,5.665975752183132E-8,2600000.0,66.9,20.699568758984196,26.11607142857143,8.055555555555562,519400.0,5144.0,0.0,1.0,0.0,?,0.0,0.0
2700000.0,3.921875,5.959407038365801E-8,2700000.0,64.3,14.186817941445137,23.717948717948715,3.5135135135135167,539400.0,5144.0,0.0,1.0,0.0,?,0.0,0.0
2800000.0,4.078125,6.191396904695364E-8,2800000.0,64.0,15.35983824324642,20.704845814977972,2.4390243902439046,559400.0,5144.0,0.0,1.0,0.0,?,0.0,0.0
2900000.0,4.21875,6.344890506524177E-8,2900000.0,65.7,18.901793145191803,24.282560706401764,7.79569892473119,579400.0,5144.0,0.0,1.0,0.0,?,0.0,0.0
3000000.0,4.359375,6.443086830485196E-8,3000000.0,63.2,13.801180549048997,23.492723492723492,1.6042780748663117,599400.0,5144.0,0.0,1.0,0.0,?,0.0,0.0
3100000.0,4.5,6.76302523869607E-8,3100000.0,64.0,12.959381044487426,24.210526315789473,-1.1235955056179785,619300.0,5144.0,0.0,1.0,0.0,?,0.0,0.0
3200000.0,4.640625,7.027666369039148E-8,3200000.0,60.699999999999996,10.395082445644237,12.472160356347427,1.5037593984962419,639300.0,5144.0,0.0,1.0,0.0,?,0.0,0.0
3300000.0,4.78125,7.237010221514434E-8,3300000.0,63.7,15.28429935681413,24.375,4.9738219895288,659300.0,5144.0,0.0,1.0,0.0,?,0.0,0.0
3400000.0,4.921875,7.391056796121925E-8,3400000.0,64.60000000000001,14.004615571480622,23.043478260869563,-2.6086956521739157,679300.0,5144.0,0.0,1.0,0.0,?,0.0,0.0
3500000.0,5.09375,7.511750381025999E-8,3500000.0,62.9,11.333957899164465,16.62921348314606,-0.8152173913043484,699300.0,5144.0,0.0,1.0,0.0,?,0.0,0.0
3600000.0,5.234375,7.831688789236872E-8,3600000.0,61.5,10.618104825229373,22.379032258064512,-0.522193211488251,719200.0,5144.0,0.0,1.0,0.0,?,0.0,0.0
3700000.0,5.375,8.096329919579951E-8,3700000.0,63.4,15.236965946566858,21.794871794871792,4.687500000000004,739200.0,5144.0,0.0,1.0,0.0,?,0.0,0.0
3800000.0,5.515625,8.305673772055236E-8,3800000.0,62.5,13.629495872641511,22.52066115702479,1.0554089709762544,759200.0,5144.0,0.0,1.0,0.0,?,0.0,0.0
3900000.0,5.65625,8.459720346662727E-8,3900000.0,63.9,16.760436073859545,24.31865828092243,7.90816326530613,779200.0,5144.0,0.0,1.0,0.0,?,0.0,0.0
4000000.0,5.796875,8.558469643402424E-8,4000000.0,62.8,12.522045855379194,22.17573221757322,0.8000000000000007,799200.0,5144.0,0.0,1.0,0.0,?,0.0,0.0
4100000.0,5.9375,8.878961024391975E-8,4100000.0,64.3,13.071004188175698,26.239669421487605,-0.5633802816901414,819100.0,5144.0,0.0,1.0,0.0,?,0.0,0.0
4200000.0,6.078125,9.144155127513732E-8,4200000.0,62.4,12.165950289665487,19.999999999999996,2.0833333333333353,839100.0,5144.0,0.0,1.0,0.0,?,0.0,0.0
4300000.0,6.21875,9.354051952767695E-8,4300000.0,61.8,14.260960905691542,22.672064777327932,7.50605326876514,859100.0,5144.0,0.0,1.0,0.0,?,0.0,0.0
4400000.0,6.375,9.525829227641217E-8,4400000.0,60.9,11.108079843586598,22.266401590457257,2.9776674937965284,879100.0,5144.0,0.0,1.0,0.0,?,0.0,0.0
4500000.0,6.515625,9.625131497159593E-8,4500000.0,62.3,13.970937237577118,23.217922606924642,4.797979797979802,899100.0,5144.0,0.0,1.0,0.0,?,0.0,0.0
4600000.0,6.65625,9.945622878149144E-8,4600000.0,63.2,15.755544567148325,24.123711340206185,6.59898477157361,919000.0,5144.0,0.0,1.0,0.0,?,0.0,0.0
4700000.0,6.796875,1.0210816981270901E-7,4700000.0,64.2,16.179273335175203,24.47257383966245,4.021447721179628,939000.0,5144.0,0.0,1.0,0.0,?,0.0,0.0
4800000.0,6.953125,1.0444035675997527E-7,4800000.0,64.3,18.852570805109792,25.157232704402517,9.62025316455697,959000.0,5144.0,0.0,1.0,0.0,?,0.0,0.0
4900000.0,7.09375,1.0598635223383696E-7,4900000.0,65.0,15.005633912266378,22.737306843267106,0.5681818181818187,979000.0,5144.0,0.0,1.0,0.0,?,0.0,0.0
5000000.0,7.234375,1.0705941046277673E-7,5000000.0,63.3,15.493865821758837,24.016563146997928,5.655526992287922,999000.0,5144.0,0.0,1.0,0.0,?,0.0,0.0
5100000.0,7.375,1.1034988953421504E-7,5100000.0,42.6,-12.437464006299631,-14.800000000000002,-18.840579710144933,1018900.0,5144.0,0.0,1.0,0.0,?,0.0,0.0
5200000.0,7.515625,1.1308739582697541E-7,5200000.0,40.9,-14.63530068975149,-15.655577299412919,-24.68354430379748,1038900.0,5144.0,0.0,1.0,0.0,?,0.0,0.0
5300000.0,7.65625,1.1527192934105784E-7,5300000.0,40.8,-13.69921947022312,-16.306483300589395,-25.690021231422516,1058900.0,5144.0,0.0,1.0,0.0,?,0.0,0.0
5400000.0,7.796875,1.1690349007646233E-7,5400000.0,41.6,-12.862890913377733,-14.50980392156863,-23.46723044397464,1078900.0,5144.0,0.0,1.0,0.0,?,0.0,0.0
5500000.0,7.9375,1.1798207803318888E-7,5500000.0,44.0,-12.12872377489357,-7.074569789674948,-11.776447105788423,1098900.0,5144.0,0.0,1.0,0.0,?,0.0,0.0
5600000.0,8.078125,1.212725571046272E-7,5600000.0,50.8,2.275860151194345,5.927342256214154,-2.286902286902289,1118800.0,5144.0,0.0,1.0,0.0,?,0.0,0.0
5700000.0,8.21875,1.2401006339738757E-7,5700000.0,52.900000000000006,6.16333556469352,4.848484848484853,4.268292682926833,1138800.0,5144.0,0.0,1.0,0.0,?,0.0,0.0
5800000.0,8.359375,1.2619459691147002E-7,5800000.0,51.800000000000004,4.625466979041359,0.6185567010309284,-2.118644067796612,1158800.0,5144.0,0.0,1.0,0.0,?,0.0,0.0
5900000.0,8.5,1.2782615764687452E-7,5900000.0,52.1,5.958205391991338,6.990291262135928,-8.126410835214456,1178800.0,5144.0,0.0,1.0,0.0,?,0.0,0.0
6000000.0,8.640625,1.2894316265980396E-7,6000000.0,52.1,4.529944511767327,3.0364372469635654,2.443991853360491,1198800.0,5144.0,0.0,1.0,0.0,?,0.0,1.0
6100000.0,8.78125,1.3227758851523193E-7,6100000.0,55.50000000000001,16.053574797208068,8.997955010224958,1.1111111111111123,1218700.0,5144.0,0.0,1.0,0.0,?,0.0,0.0
6200000.0,8.921875,1.3505904159198196E-7,6200000.0,56.49999999999999,13.570435128154168,14.201183431952652,7.446808510638281,1238700.0,5144.0,0.0,1.0,0.0,?,0.0,0.0
6300000.0,9.0625,1.3728752189005406E-7,6300000.0,57.599999999999994,15.489027525861543,18.14671814671814,12.936344969199167,1258700.0,5144.0,0.0,1.0,0.0,?,0.0,0.0
6400000.0,9.1875,1.387768619072933E-7,6400000.0,56.599999999999994,15.92796925365732,11.428571428571416,8.438818565400828,1278700.0,5144.0,0.0,1.0,0.0,?,0.0,0.0
6500000.0,9.359375,1.4014884881261313E-7,6500000.0,56.699999999999996,16.653834308592533,11.451942740286286,7.478632478632462,1298700.0,5144.0,0.0,1.0,0.0,?,0.0,0.0
6600000.0,9.515625,1.4385376642975533E-7,6600000.0,55.900000000000006,14.277050352999732,14.534883720930244,7.352941176470596,1318600.0,5144.0,0.0,1.0,0.0,?,0.0,0.0
6700000.0,9.671875,1.4694426984836649E-7,6700000.0,56.99999999999999,16.02316979333887,13.827655310621232,10.60291060291059,1338600.0,5144.0,0.0,1.0,0.0,?,0.0,0.0
6800000.0,9.8125,1.4917275014643858E-7,6800000.0,56.00000000000001,14.949878416985287,13.894324853228976,6.581740976645442,1358600.0,5144.0,0.0,1.0,0.0,?,0.0,0.0
6900000.0,9.953125,1.5084825766583273E-7,6900000.0,58.4,16.799999999999994,10.920770877944312,17.296222664015897,1378600.0,5144.0,0.0,1.0,0.0,?,0.0,0.0
7000000.0,10.09375,1.5197079240654894E-7,7000000.0,55.800000000000004,14.556019934351202,6.553911205074002,5.756929637526658,1398600.0,5144.0,0.0,1.0,0.0,?,0.0,0.0
7100000.0,10.21875,1.5493964181385094E-7,7100000.0,55.7,13.9972820811493,11.57684630738524,6.736842105263165,1418500.0,5144.0,0.0,1.0,0.0,?,0.0,0.0
7200000.0,10.40625,1.586556188865667E-7,7200000.0,56.2,13.98440721902556,9.316770186335413,10.429447852760745,1438500.0,5144.0,0.0,1.0,0.0,?,0.0,0.0
7300000.0,10.546875,1.608896289124256E-7,7300000.0,54.7,14.55796478203794,5.031446540880507,-0.4434589800443463,1458500.0,5144.0,0.0,1.0,0.0,?,0.0,0.0
7400000.0,10.703125,1.6275744807595997E-7,7400000.0,56.39999999999999,16.11093366991574,13.492063492063483,6.6381156316916305,1478500.0,5144.0,0.0,1.0,0.0,?,0.0,0.0
7500000.0,10.84375,1.6388551254446298E-7,7500000.0,57.3,15.91177628987789,17.88461538461538,12.320328542094444,1498500.0,5144.0,0.0,1.0,0.0,?,0.0,0.0
7600000.0,10.984375,1.6722546812767774E-7,7600000.0,55.7,14.047341870391932,9.034907597535941,6.736842105263165,1518400.0,5144.0,0.0,1.0,0.0,?,0.0,0.0
7700000.0,11.125,1.7001245093221457E-7,7700000.0,57.49999999999999,16.473409064109116,10.714285714285701,12.551440329218094,1538400.0,5144.0,0.0,1.0,0.0,?,0.0,0.0
7800000.0,11.265625,1.7224646095807345E-7,7800000.0,57.8,16.613974075245007,22.14022140221401,13.877551020408152,1558400.0,5144.0,0.0,1.0,0.0,?,0.0,0.0
7900000.0,11.4375,1.7430106203796127E-7,7900000.0,57.4,18.41049861527676,16.959064327485372,7.991360691144692,1578400.0,5144.0,0.0,1.0,0.0,?,0.0,0.0
8000000.0,11.59375,1.755544670029646E-7,8000000.0,58.9,17.383613411594435,17.799999999999994,18.45238095238095,1598400.0,5144.0,0.0,1.0,0.0,?,0.0,0.0
8100000.0,11.75,1.7927167290407743E-7,8100000.0,59.3,18.504160893210404,18.762475049900193,16.938775510204074,1618300.0,5144.0,0.0,1.0,0.0,?,0.0,0.0
8200000.0,11.890625,1.8206418543640103E-7,8200000.0,56.3,16.80690826295869,11.359026369168344,4.585152838427928,1638300.0,5144.0,0.0,1.0,0.0,?,0.0,0.0
8300000.0,12.03125,1.8430372519004668E-7,8300000.0,56.2,16.04949629697779,10.79429735234217,5.1948051948052,1658300.0,5144.0,0.0,1.0,0.0,?,0.0,0.0
8400000.0,12.171875,1.859902921650144E-7,8400000.0,56.39999999999999,14.560397568498637,7.430997876857733,6.43776824034333,1678300.0,5144.0,0.0,1.0,0.0,?,0.0,0.0
8500000.0,12.328125,1.8724984127200302E-7,8500000.0,52.400000000000006,9.755505672511074,1.449275362318842,-5.309734513274342,1698300.0,5144.0,0.0,1.0,0.0,?,0.0,0.0
8600000.0,12.484375,1.9096704717311586E-7,8600000.0,56.8,15.450616897350775,10.373443983402476,9.999999999999986,1718200.0,5144.0,0.0,1.0,0.0,?,0.0,0.0
8700000.0,12.640625,1.9406983887569764E-7,8700000.0,58.8,18.073534967885607,17.269076305220878,16.43002028397565,1738200.0,5144.0,0.0,1.0,0.0,?,0.0,0.0
8800000.0,12.78125,1.963093786293433E-7,8800000.0,60.4,21.08881493732937,19.838056680161937,20.321931589537222,1758200.0,5144.0,0.0,1.0,0.0,?,0.0,0.0
8900000.0,12.921875,1.97995945604311E-7,8900000.0,53.7,12.605892212675357,5.316973415132929,-3.118040089086863,1778200.0,5144.0,0.0,1.0,0.0,?,0.0,0.0
9000000.0,13.0625,1.9912953980060078E-7,9000000.0,57.99999999999999,17.34528809103039,16.334661354581666,13.7577002053388,1798200.0,5144.0,0.0,1.0,0.0,?,0.0,0.0
9100000.0,13.1875,2.0210821983507927E-7,9100000.0,54.300000000000004,13.804810332860557,9.504950495049513,-1.7817371937639215,1818100.0,5144.0,0.0,1.0,0.0,?,0.0,0.0
9200000.0,13.359375,2.0552804926410308E-7,9200000.0,56.3,16.20454528022579,14.481409001956939,5.411255411255392,1838100.0,5144.0,0.0,1.0,0.0,?,0.0,0.0
9300000.0,13.5,2.0777311874553553E-7,9300000.0,58.4,18.40353375465354,11.864406779661005,13.871635610766036,1858100.0,5144.0,0.0,1.0,0.0,?,0.0,0.0
9400000.0,13.640625,2.0946521544829003E-7,9400000.0,57.49999999999999,17.868047771808445,18.42610364683301,9.57446808510637,1878100.0,5144.0,0.0,1.0,0.0,?,0.0,0.0
9500000.0,13.78125,2.106043393723666E-7,9500000.0,55.7,14.532882653454967,2.2075055187637993,5.944798301486205,1898100.0,5144.0,0.0,1.0,0.0,?,0.0,0.0
9600000.0,13.90625,2.135830194068451E-7,9600000.0,59.099999999999994,19.031706312755375,22.09523809523809,16.869918699186982,1918000.0,5144.0,0.0,1.0,0.0,?,0.0,0.0
9700000.0,14.046875,2.1638106166695548E-7,9700000.0,61.6,23.56201031912861,23.046092184368735,20.331950207468875,1938000.0,5144.0,0.0,1.0,0.0,?,0.0,0.0
9800000.0,14.1875,2.1862613114838793E-7,9800000.0,56.599999999999994,17.200854700854684,13.026052104208405,5.65217391304346,1958000.0,5144.0,0.0,1.0,0.0,?,0.0,0.0
9900000.0,14.3125,2.2013021710639194E-7,9900000.0,56.49999999999999,14.785415964707447,15.039062499999991,9.751037344398327,1978000.0,5144.0,0.0,1.0,0.0,?,0.0,0.0
1.0E7,14.46875,2.213959103553659E-7,1.0E7,55.7,14.013975155279512,12.277227722772288,6.736842105263165,1998000.0,5144.0,0.0,1.0,0.0,?,0.0,0.0
