learning evaluation instances,evaluation time (cpu seconds),model cost (RAM-Hours),classified instances,classifications correct (percent),Kappa Statistic (percent),Kappa Temporal Statistic (percent),Kappa M Statistic (percent),model training instances,model serialized size (bytes),labeling cost,newThreshold,maxPosterior,accuracyBaseLearner (percent),Change detected,Warning detected
100000.0,0.296875,1.1176194271279707E-9,100000.0,66.2,24.71489665003565,27.931769722814504,17.961165048543705,20000.0,2904.0,20000.0,1.0,0.5324472943790471,0.0,0.0,41.0
200000.0,0.625,2.352883004479938E-9,200000.0,68.5,25.401411452659506,32.112068965517246,14.86486486486488,40000.0,2904.0,40000.0,1.0,0.551403975032657,0.0,0.0,0.0
300000.0,0.921875,3.470502431607909E-9,300000.0,68.0,26.536421864597457,27.43764172335601,17.312661498708025,60000.0,2904.0,60000.0,1.0,0.5559842027188919,0.0,0.0,0.0
400000.0,1.21875,4.5881218587358795E-9,400000.0,65.7,20.589352027633982,29.27835051546392,9.973753280839903,80000.0,2904.0,80000.0,1.0,0.7254793197774825,0.0,0.0,0.0
500000.0,1.515625,5.70574128586385E-9,500000.0,65.10000000000001,18.02585591341274,26.98744769874477,8.398950131233603,100000.0,2904.0,100000.0,1.0,0.5755185080122714,0.0,0.0,0.0
600000.0,1.8125,6.8233607129918204E-9,600000.0,67.4,23.09325532567412,32.64462809917356,12.129380053908367,120000.0,2904.0,120000.0,1.0,0.5068382613945367,0.0,0.0,0.0
700000.0,2.109375,7.940980140119792E-9,700000.0,69.5,26.90268710515466,34.68950749464666,15.97796143250687,140000.0,2904.0,140000.0,1.0,0.7159521023804988,0.0,0.0,0.0
800000.0,2.40625,9.058599567247762E-9,800000.0,65.9,22.605537902859744,26.34989200863931,13.010204081632665,160000.0,2904.0,160000.0,1.0,0.5297834958361767,0.0,0.0,0.0
900000.0,2.703125,1.0176218994375733E-8,900000.0,68.0,22.973233198536487,32.9140461215933,11.111111111111121,180000.0,2904.0,180000.0,1.0,0.6874796355929872,0.0,0.0,0.0
1000000.0,3.0,1.1293838421503703E-8,1000000.0,68.8,29.116684841875667,33.61702127659573,19.999999999999986,200000.0,2904.0,200000.0,1.0,0.5324777986151176,0.0,0.0,0.0
1100000.0,3.28125,1.2352635773519675E-8,1100000.0,65.10000000000001,18.18190343120246,24.622030237580994,7.671957671957679,220000.0,2904.0,220000.0,1.0,0.7451746727219882,0.0,0.0,0.0
1200000.0,3.578125,1.3470255200647645E-8,1200000.0,66.2,22.305994851048183,28.23779193205945,12.88659793814434,240000.0,2904.0,240000.0,1.0,0.5417553836958149,0.0,0.0,0.0
1300000.0,3.859375,1.4529052552663618E-8,1300000.0,67.7,26.424360598081115,30.68669527896996,18.84422110552765,260000.0,2904.0,260000.0,1.0,0.6311380036257848,0.0,0.0,0.0
1400000.0,4.15625,1.564667197979159E-8,1400000.0,64.60000000000001,22.67804799203192,27.160493827160497,17.482517482517494,280000.0,2904.0,280000.0,1.0,0.6081314278600688,0.0,0.0,0.0
1500000.0,4.4375,1.670546933180756E-8,1500000.0,69.39999999999999,27.98780028616611,35.983263598326346,15.469613259668492,300000.0,2904.0,300000.0,1.0,0.6005866771064898,0.0,0.0,0.0
1600000.0,4.734375,1.7823088758935534E-8,1600000.0,68.8,29.22602304691043,35.67010309278349,21.608040201005014,320000.0,2904.0,320000.0,1.0,0.6536919396678534,0.0,0.0,0.0
1700000.0,5.015625,1.8881886110951506E-8,1700000.0,68.89999999999999,26.49213867695303,31.194690265486706,15.027322404371567,340000.0,2904.0,340000.0,1.0,0.7519080791596021,0.0,0.0,0.0
1800000.0,5.296875,1.9940683462967478E-8,1800000.0,68.5,23.67189090168942,33.40380549682876,11.016949152542384,360000.0,2904.0,360000.0,1.0,0.625326897970082,0.0,0.0,0.0
1900000.0,5.59375,2.105830289009545E-8,1900000.0,68.0,26.062846580406656,33.19415448851775,17.525773195876305,380000.0,2904.0,380000.0,1.0,0.5584403030434881,0.0,0.0,0.0
2000000.0,5.890625,2.2175922317223422E-8,2000000.0,69.8,31.34272710325416,32.28699551569505,23.15521628498727,400000.0,2904.0,400000.0,1.0,0.5072061535119419,0.0,0.0,0.0
2100000.0,6.171875,2.3234719669239394E-8,2100000.0,68.8,27.69643626857991,33.333333333333314,17.67810026385223,420000.0,2904.0,420000.0,1.0,0.5202627050407354,0.0,0.0,0.0
2200000.0,6.46875,2.4352339096367366E-8,2200000.0,66.8,20.02274052197207,29.361702127659576,7.520891364902514,440000.0,2904.0,440000.0,1.0,0.5005560229860918,0.0,0.0,0.0
2300000.0,6.765625,2.5469958523495338E-8,2300000.0,66.3,21.217505143070895,29.052631578947373,11.315789473684221,460000.0,2904.0,460000.0,1.0,0.7465567289863818,0.0,0.0,0.0
2400000.0,7.046875,2.652875587551131E-8,2400000.0,67.7,25.503943908851888,31.71247357293869,14.323607427055714,480000.0,2904.0,480000.0,1.0,0.7158046247859997,0.0,0.0,0.0
2500000.0,7.34375,2.7646375302639282E-8,2500000.0,69.6,27.399517588899748,33.4792122538293,16.71232876712327,500000.0,2904.0,500000.0,1.0,0.7722496056463262,0.0,0.0,0.0
2600000.0,7.609375,2.8646350579543257E-8,2600000.0,70.3,30.531515769579816,34.29203539823008,21.42857142857142,520000.0,2904.0,520000.0,1.0,0.6483608315282546,0.0,0.0,0.0
2700000.0,7.90625,2.976397000667123E-8,2700000.0,69.69999999999999,30.13346122983553,35.53191489361701,20.680628272251298,540000.0,2904.0,540000.0,1.0,0.5348105975169206,0.0,0.0,0.0
2800000.0,8.1875,3.0822767358687205E-8,2800000.0,68.8,26.434526728788597,33.89830508474575,17.021276595744666,560000.0,2904.0,560000.0,1.0,0.557888656286046,0.0,0.0,0.0
2900000.0,8.484375,3.1940386785815174E-8,2900000.0,66.7,26.849842276837105,33.13253012048193,20.33492822966509,580000.0,2904.0,580000.0,1.0,0.6910529357909578,0.0,0.0,0.0
3000000.0,8.78125,3.305800621294314E-8,3000000.0,66.0,22.869963295176664,27.350427350427353,14.786967418546379,600000.0,2904.0,600000.0,1.0,0.6389774784106483,0.0,0.0,0.0
3100000.0,9.078125,3.417562564007111E-8,3100000.0,67.7,23.481474462238246,31.567796610169495,12.22826086956523,620000.0,2904.0,620000.0,1.0,0.6042674755498307,0.0,0.0,0.0
3200000.0,9.375,3.529324506719908E-8,3200000.0,67.4,25.8143355831767,31.22362869198313,17.048346055979657,640000.0,2904.0,640000.0,1.0,0.5101728775135203,0.0,0.0,0.0
3300000.0,9.671875,3.641086449432705E-8,3300000.0,68.0,26.57687630498132,31.47751605995718,16.883116883116898,660000.0,2904.0,660000.0,1.0,0.6025863369583738,0.0,0.0,0.0
3400000.0,9.953125,3.7469661846343024E-8,3400000.0,68.5,27.318874019381646,33.962264150943405,19.02313624678665,680000.0,2904.0,680000.0,1.0,0.5194367876419176,0.0,0.0,0.0
3500000.0,10.234375,3.8528459198359E-8,3500000.0,67.30000000000001,24.550069220119994,29.978586723768743,15.938303341902326,700000.0,2904.0,700000.0,1.0,0.7300973645770168,0.0,0.0,0.0
3600000.0,10.53125,3.964607862548697E-8,3600000.0,66.0,20.525095369885555,26.08695652173913,8.602150537634417,720000.0,2904.0,720000.0,1.0,0.6010094124456614,0.0,0.0,0.0
3700000.0,10.8125,4.0704875977502944E-8,3700000.0,65.9,21.7617150933353,28.810020876826727,13.010204081632665,740000.0,2904.0,740000.0,1.0,0.6910595040309334,0.0,0.0,0.0
3800000.0,11.09375,4.176367332951892E-8,3800000.0,65.10000000000001,22.52983378320785,29.919678714859444,14.66992665036676,760000.0,2904.0,760000.0,1.0,0.5335264535248033,0.0,0.0,0.0
3900000.0,11.390625,4.288129275664689E-8,3900000.0,65.60000000000001,19.579193454120396,23.385300668151444,8.266666666666673,780000.0,2904.0,780000.0,1.0,0.504962997167999,0.0,0.0,0.0
4000000.0,11.65625,4.388126803355086E-8,4000000.0,66.0,21.333080365199606,28.27004219409283,13.043478260869575,800000.0,2904.0,800000.0,1.0,0.6547442331205001,0.0,0.0,0.0
4100000.0,11.953125,4.499888746067883E-8,4100000.0,66.8,23.193663014509923,30.398322851153043,13.54166666666668,820000.0,2904.0,820000.0,1.0,0.5565892875339067,0.0,0.0,0.0
4200000.0,12.234375,4.605768481269481E-8,4200000.0,66.0,21.926666176794775,30.470347648261765,12.371134020618566,840000.0,2904.0,840000.0,1.0,0.6884855566796505,0.0,0.0,0.0
4300000.0,12.53125,4.7175304239822776E-8,4300000.0,65.5,24.934072533268356,27.974947807933198,18.246445497630344,860000.0,2904.0,860000.0,1.0,0.7466902142585314,0.0,0.0,0.0
4400000.0,12.828125,4.8292923666950745E-8,4400000.0,69.0,27.693082793752673,34.18259023354563,18.848167539267003,880000.0,2904.0,880000.0,1.0,0.5372696245223012,0.0,0.0,0.0
4500000.0,13.125,4.9410543094078713E-8,4500000.0,65.9,17.380601643665692,24.724061810154524,4.21348314606742,900000.0,2904.0,900000.0,1.0,0.7493933394123289,0.0,0.0,0.0
4600000.0,13.421875,5.052816252120668E-8,4600000.0,69.19999999999999,27.72667542706963,34.047109207708765,16.75675675675674,920000.0,2904.0,920000.0,1.0,0.511765440256828,0.0,0.0,0.0
4700000.0,13.71875,5.164578194833465E-8,4700000.0,66.9,23.10551503043256,27.252747252747255,12.433862433862444,940000.0,2904.0,940000.0,1.0,0.7507899279169666,0.0,0.0,0.0
4800000.0,14.015625,5.276340137546262E-8,4800000.0,67.0,23.72693317554826,31.535269709543574,12.698412698412708,960000.0,2904.0,960000.0,1.0,0.6086311781621454,0.0,0.0,0.0
4900000.0,14.3125,5.388102080259059E-8,4900000.0,69.1,26.38650657518579,35.8921161825726,15.109890109890092,980000.0,2904.0,980000.0,1.0,0.7953968504561841,0.0,0.0,0.0
5000000.0,14.609375,5.499864022971856E-8,5000000.0,66.7,20.582679869498016,28.69379014989294,9.756097560975618,1000000.0,2904.0,1000000.0,1.0,0.6665466859530005,0.0,0.0,0.0
5100000.0,14.90625,5.611134434325828E-8,5100000.0,72.2,34.91534312256517,40.21505376344085,24.456521739130427,15405.0,2904.0,1020000.0,1.0,0.6720693973928306,0.0,1.0,7.0
5200000.0,15.203125,5.7224048456798E-8,5200000.0,71.89999999999999,35.09193384459021,42.65306122448979,24.258760107816705,35405.0,2904.0,1040000.0,1.0,0.8791992337156074,0.0,0.0,0.0
5300000.0,15.5,5.833675257033772E-8,5300000.0,69.3,29.771425434181857,38.10483870967741,21.683673469387745,55405.0,2904.0,1060000.0,1.0,0.7186583488295502,0.0,0.0,0.0
5400000.0,15.796875,5.944945668387744E-8,5400000.0,71.0,33.456935164108955,36.26373626373625,24.083769633507845,75405.0,2904.0,1080000.0,1.0,0.5782433649579177,0.0,0.0,0.0
5500000.0,16.09375,6.056216079741717E-8,5500000.0,69.89999999999999,30.680300308599325,35.82089552238805,18.648648648648635,95405.0,2904.0,1100000.0,1.0,0.5216155019550933,0.0,0.0,0.0
5600000.0,16.390625,6.16748649109569E-8,5600000.0,73.4,39.44223107569721,44.46764091858037,29.066666666666663,115405.0,2904.0,1120000.0,1.0,0.6158329094861017,0.0,0.0,0.0
5700000.0,16.671875,6.272900565009978E-8,5700000.0,73.7,38.63742417172188,39.95433789954337,26.944444444444436,135405.0,2904.0,1140000.0,1.0,0.90147931488408,0.0,0.0,0.0
5800000.0,16.96875,6.384170976363951E-8,5800000.0,71.8,34.4868602014645,39.99999999999999,22.099447513812144,155405.0,2904.0,1160000.0,1.0,0.5267777018374568,0.0,0.0,0.0
5900000.0,17.296875,6.507154062597289E-8,5900000.0,73.8,37.84133883113246,41.38702460850111,25.779036827195462,175405.0,2904.0,1180000.0,1.0,0.5276389377658961,0.0,0.0,0.0
6000000.0,17.609375,6.624280811390944E-8,6000000.0,72.5,36.312517948290385,43.4156378600823,28.010471204188477,195405.0,2904.0,1200000.0,1.0,0.7316231251267405,0.0,0.0,0.0
6100000.0,17.90625,6.735551222744917E-8,6100000.0,71.5,35.12110726643598,39.873417721518976,24.999999999999993,215405.0,2904.0,1220000.0,1.0,0.7688593828517853,0.0,0.0,0.0
6200000.0,18.21875,6.852677971538572E-8,6200000.0,72.0,36.79458239277651,42.148760330578504,27.461139896373055,235405.0,2904.0,1240000.0,1.0,0.5944179343298144,0.0,0.0,0.0
6300000.0,18.5,6.958092045452861E-8,6300000.0,71.7,34.15787220578107,38.876889848812084,24.734042553191482,255405.0,2904.0,1260000.0,1.0,0.7490607230484069,0.0,0.0,0.0
6400000.0,18.796875,7.069362456806833E-8,6400000.0,70.1,32.727959969761315,38.09523809523808,24.494949494949488,275405.0,2904.0,1280000.0,1.0,0.6660219184826748,0.0,0.0,0.0
6500000.0,19.109375,7.186489205600489E-8,6500000.0,73.9,39.75236143043129,45.62499999999999,31.675392670157066,295405.0,2904.0,1300000.0,1.0,0.59042402977467,0.0,0.0,0.0
6600000.0,19.40625,7.297759616954461E-8,6600000.0,70.8,35.04326741263096,38.13559322033897,26.44836272040302,315405.0,2904.0,1320000.0,1.0,0.7444663340909474,0.0,0.0,0.0
6700000.0,19.703125,7.409030028308434E-8,6700000.0,71.8,32.798581621126964,41.73553719008264,21.008403361344527,335405.0,2904.0,1340000.0,1.0,0.8201315279924022,0.0,0.0,0.0
6800000.0,20.0,7.520300439662407E-8,6800000.0,71.0,34.29370261782951,36.681222707423565,25.831202046035802,355405.0,2904.0,1360000.0,1.0,0.5124772015642279,0.0,0.0,0.0
6900000.0,20.3125,7.637427188456062E-8,6900000.0,71.3,32.378941812904074,36.222222222222214,20.055710306406674,375405.0,2904.0,1380000.0,1.0,0.7607466150663489,0.0,0.0,0.0
7000000.0,20.609375,7.748697599810035E-8,7000000.0,72.3,37.98581509474512,43.584521384928706,30.576441102756892,395405.0,2904.0,1400000.0,1.0,0.5495694575650476,0.0,0.0,0.0
7100000.0,20.90625,7.859968011164007E-8,7100000.0,70.8,35.21160511029559,36.105032822757096,27.182044887780542,415404.0,2904.0,1419999.0,1.0,0.7193695186238667,0.0,0.0,0.0
7200000.0,21.21875,7.977094759957663E-8,7200000.0,71.89999999999999,36.95480489643536,43.8,29.040404040404038,435405.0,2904.0,1440000.0,1.0,0.5590516949694178,0.0,0.0,0.0
7300000.0,21.515625,8.088365171311635E-8,7300000.0,74.4,37.81124741892384,40.74074074074075,25.797101449275356,455405.0,2904.0,1460000.0,1.0,0.5245988991652353,0.0,0.0,0.0
7400000.0,21.796875,8.193779245225924E-8,7400000.0,72.3,35.10327248191325,39.25438596491227,23.90109890109889,475405.0,2904.0,1480000.0,1.0,0.8295958969744625,0.0,0.0,0.0
7500000.0,22.109375,8.31090599401958E-8,7500000.0,70.6,30.466207522894106,36.63793103448275,19.672131147540973,495405.0,2904.0,1500000.0,1.0,0.7392064459418066,0.0,0.0,0.0
7600000.0,22.40625,8.422176405373552E-8,7600000.0,71.7,34.832267929185925,42.00819672131147,23.097826086956513,515405.0,2904.0,1520000.0,1.0,0.5635077692326637,0.0,0.0,0.0
7700000.0,22.703125,8.533446816727525E-8,7700000.0,71.2,31.913927857132713,37.2549019607843,20.221606648199433,535405.0,2904.0,1540000.0,1.0,0.7162454919681231,0.0,0.0,0.0
7800000.0,23.0,8.644717228081498E-8,7800000.0,70.7,33.11357452015267,36.85344827586206,23.697916666666657,555405.0,2904.0,1560000.0,1.0,0.636318456752647,0.0,0.0,0.0
7900000.0,23.296875,8.75598763943547E-8,7900000.0,73.6,39.25560505098847,44.303797468354425,30.158730158730158,575405.0,2904.0,1580000.0,1.0,0.5891923637680134,0.0,0.0,0.0
8000000.0,23.59375,8.867258050789443E-8,8000000.0,71.1,33.26991281217674,37.715517241379295,23.34217506631299,595405.0,2904.0,1600000.0,1.0,0.6697155907097424,0.0,0.0,0.0
8100000.0,23.90625,8.984384799583098E-8,8100000.0,73.1,35.647164647566534,40.35476718403547,23.579545454545446,615405.0,2904.0,1620000.0,1.0,0.841811170102292,0.0,0.0,0.0
8200000.0,24.203125,9.095655210937071E-8,8200000.0,73.7,39.925809516848176,41.81415929203539,29.3010752688172,635405.0,2904.0,1640000.0,1.0,0.7111110864518239,0.0,0.0,0.0
8300000.0,24.5,9.206925622291044E-8,8300000.0,71.8,34.704084467907755,40.380549682875255,23.783783783783775,655405.0,2904.0,1660000.0,1.0,0.5082352476889598,0.0,0.0,0.0
8400000.0,24.828125,9.329908708524381E-8,8400000.0,73.6,38.19298771351512,44.421052631578945,27.071823204419882,675405.0,2904.0,1680000.0,1.0,0.6205530544981366,0.0,0.0,0.0
8500000.0,25.125,9.441179119878354E-8,8500000.0,70.7,33.071405728904914,34.59821428571427,22.486772486772477,695405.0,2904.0,1700000.0,1.0,0.5166779295007803,0.0,0.0,0.0
8600000.0,25.421875,9.552449531232327E-8,8600000.0,74.9,40.346607599509454,46.82203389830508,29.88826815642458,715405.0,2904.0,1720000.0,1.0,0.5136856843299341,0.0,0.0,0.0
8700000.0,25.734375,9.669576280025982E-8,8700000.0,72.3,34.210526315789465,38.30734966592427,22.84122562674094,735405.0,2904.0,1740000.0,1.0,0.920743896771041,0.0,0.0,0.0
8800000.0,26.046875,9.786703028819637E-8,8800000.0,73.2,39.07179979175286,43.220338983050844,30.026109660574406,755405.0,2904.0,1760000.0,1.0,0.581954126453186,0.0,0.0,0.0
8900000.0,26.359375,9.903829777613292E-8,8900000.0,72.2,37.37497522031393,40.724946695095944,27.979274611398957,775405.0,2904.0,1780000.0,1.0,0.7224467694700138,0.0,0.0,0.0
9000000.0,26.65625,1.0015100188967265E-7,9000000.0,74.4,41.792782305005815,44.347826086956516,33.67875647668394,795405.0,2904.0,1800000.0,1.0,0.9280292339571886,0.0,0.0,0.0
9100000.0,26.96875,1.013222693776092E-7,9100000.0,72.3,36.804161343310824,40.043290043290035,27.105263157894733,815405.0,2904.0,1820000.0,1.0,0.5148190149133933,0.0,0.0,0.0
9200000.0,27.296875,1.0255210023994258E-7,9200000.0,72.7,34.58633645146448,42.283298097251574,23.314606741573023,835405.0,2904.0,1840000.0,1.0,0.6425693551483277,0.0,0.0,0.0
9300000.0,27.609375,1.0372336772787913E-7,9300000.0,70.39999999999999,33.714326662964226,38.842975206611555,25.628140703517584,855405.0,2904.0,1860000.0,1.0,0.502503613286085,0.0,0.0,0.0
9400000.0,27.90625,1.0483607184141886E-7,9400000.0,72.89999999999999,35.260391782130924,44.00826446280991,23.011363636363626,875405.0,2904.0,1880000.0,1.0,0.7279289852129528,0.0,0.0,0.0
9500000.0,28.21875,1.0600733932935541E-7,9500000.0,71.8,35.36350008939089,41.12734864300626,25.198938992042436,895405.0,2904.0,1900000.0,1.0,0.8036775761084274,0.0,0.0,0.0
9600000.0,28.515625,1.0712004344289514E-7,9600000.0,73.0,37.05354644982001,42.06008583690986,27.807486631016037,915405.0,2904.0,1920000.0,1.0,0.5406754211715725,0.0,0.0,0.0
9700000.0,28.8125,1.0823274755643486E-7,9700000.0,72.2,33.97427371701088,37.10407239819003,22.346368715083788,935405.0,2904.0,1940000.0,1.0,0.5939731436416129,0.0,0.0,0.0
9800000.0,29.109375,1.0934545166997459E-7,9800000.0,70.89999999999999,33.187616519878404,39.374999999999986,22.81167108753315,955405.0,2904.0,1960000.0,1.0,0.5262963186122251,0.0,0.0,0.0
9900000.0,29.421875,1.1051671915791114E-7,9900000.0,73.4,37.88529796375863,42.672413793103445,26.51933701657458,975405.0,2904.0,1980000.0,1.0,0.514604133486225,0.0,0.0,0.0
1.0E7,29.734375,1.116879866458477E-7,1.0E7,72.39999999999999,34.234041032239595,41.15138592750532,22.253521126760553,995405.0,2904.0,2000000.0,1.0,0.5607832577581875,0.0,0.0,0.0
