learning evaluation instances,evaluation time (cpu seconds),model cost (RAM-Hours),classified instances,classifications correct (percent),Kappa Statistic (percent),Kappa Temporal Statistic (percent),Kappa M Statistic (percent),model training instances,model serialized size (bytes),labeling cost,newThreshold,maxPosterior,accuracyBaseLearner (percent),Change detected,Warning detected,tree size (nodes),tree size (leaves),active learning leaves,tree depth,active leaf byte size estimate,inactive leaf byte size estimate,byte size estimate overhead
100000.0,1.015625,1.5650229114625186E-7,100000.0,93.0,85.99568667149484,85.85858585858587,85.68507157464214,59630.0,484464.0,0.0,1.0,0.0,?,1.0,34.0,168.0,122.0,122.0,4.0,0.0,0.0,1.0
200000.0,1.890625,3.4207115984625284E-7,200000.0,95.1,90.15431602636231,89.43965517241378,89.59660297239914,119630.0,722944.0,0.0,1.0,0.0,?,0.0,0.0,252.0,179.0,179.0,5.0,0.0,0.0,1.0
300000.0,2.703125,5.343855203439791E-7,300000.0,95.0,89.94190444004569,89.42917547568709,89.17748917748916,179630.0,832872.0,0.0,1.0,0.0,?,0.0,0.0,294.0,206.0,206.0,6.0,0.0,0.0,1.0
400000.0,3.53125,7.551348405993647E-7,400000.0,95.8,91.59677316089378,91.44602851323829,91.49797570850203,239630.0,962968.0,0.0,1.0,0.0,?,0.0,0.0,348.0,239.0,239.0,8.0,0.0,0.0,1.0
500000.0,4.34375,1.0011092914889256E-6,500000.0,96.0,91.97190165579528,92.18749999999999,91.57894736842105,299630.0,1117280.0,0.0,1.0,0.0,?,0.0,0.0,414.0,278.0,278.0,8.0,0.0,0.0,1.0
600000.0,5.09375,1.2467782168338697E-6,600000.0,97.6,95.19731049387656,95.48872180451127,94.96855345911949,359330.0,1152232.0,0.0,1.0,0.0,?,0.0,0.0,430.0,286.0,286.0,8.0,0.0,0.0,1.0
700000.0,5.890625,1.5096650652897856E-6,700000.0,98.1,96.17490739249476,96.06625258799171,95.8695652173913,419330.0,1176328.0,0.0,1.0,0.0,?,0.0,0.0,442.0,292.0,292.0,8.0,0.0,0.0,1.0
800000.0,6.671875,1.7747912594738106E-6,800000.0,97.5,94.93988584382464,94.94949494949495,94.3820224719101,479330.0,1227816.0,0.0,1.0,0.0,?,0.0,0.0,475.0,310.0,310.0,9.0,0.0,0.0,1.0
900000.0,7.484375,2.0610170839871797E-6,900000.0,98.1,96.19963516497585,96.455223880597,95.88744588744589,539330.0,1292616.0,0.0,1.0,0.0,?,0.0,0.0,500.0,324.0,324.0,9.0,0.0,0.0,1.0
1000000.0,8.28125,2.3534232685859832E-6,1000000.0,97.5,94.99759884744677,95.0199203187251,94.91869918699186,599330.0,1364240.0,0.0,1.0,0.0,?,0.0,0.0,525.0,341.0,341.0,9.0,0.0,0.0,1.0
1100000.0,9.0625,2.6603490308237573E-6,1100000.0,98.1,96.18939126528254,96.20758483033931,96.00840336134453,659030.0,1403288.0,0.0,1.0,0.0,?,0.0,0.0,548.0,354.0,354.0,9.0,0.0,0.0,1.0
1200000.0,9.84375,2.970794739667326E-6,1200000.0,97.8,95.58309207646872,95.69471624266144,95.28907922912205,719030.0,1435728.0,0.0,1.0,0.0,?,0.0,0.0,560.0,360.0,360.0,9.0,0.0,0.0,1.0
1300000.0,10.65625,3.301509455519004E-6,1300000.0,98.1,96.17973732678125,96.00840336134453,96.13821138211381,779030.0,1487976.0,0.0,1.0,0.0,?,0.0,0.0,591.0,377.0,377.0,9.0,0.0,0.0,1.0
1400000.0,11.46875,3.6412019916396175E-6,1400000.0,98.1,96.19969597567804,96.13821138211381,96.24505928853755,839030.0,1545592.0,0.0,1.0,0.0,?,0.0,0.0,616.0,391.0,391.0,9.0,0.0,0.0,1.0
1500000.0,12.265625,3.977622481114749E-6,1500000.0,97.89999999999999,95.79976478682806,95.64315352697095,95.78313253012047,899030.0,1576432.0,0.0,1.0,0.0,?,0.0,0.0,632.0,399.0,399.0,9.0,0.0,0.0,1.0
1600000.0,13.0625,4.332505955567791E-6,1600000.0,98.4,96.78994611122033,96.88715953307393,96.61733615221986,958730.0,1605072.0,0.0,1.0,0.0,?,0.0,0.0,645.0,407.0,407.0,9.0,0.0,0.0,1.0
1700000.0,13.90625,4.7103481807021635E-6,1700000.0,98.7,97.39750160153747,97.42574257425743,97.31404958677685,1018730.0,1629688.0,0.0,1.0,0.0,?,0.0,0.0,653.0,411.0,411.0,9.0,3889.4048780487806,0.0,1.0188730359400398
1800000.0,14.734375,5.085635736274223E-6,1800000.0,97.7,95.38704682749159,95.46351084812623,95.13742071881607,1078730.0,1665496.0,0.0,1.0,0.0,?,0.0,0.0,667.0,421.0,421.0,9.0,3889.4048780487806,0.0,1.0188730359400398
1900000.0,15.546875,5.456537926673062E-6,1900000.0,98.3,96.59752299674163,96.6403162055336,96.50924024640656,1138730.0,1693416.0,0.0,1.0,0.0,?,0.0,0.0,676.0,427.0,427.0,9.0,3889.4048780487806,0.0,1.0188730359400398
2000000.0,16.34375,5.823435947402484E-6,2000000.0,99.3,98.59976476047976,98.61660079051383,98.52008456659618,1198730.0,1723608.0,0.0,1.0,0.0,?,0.0,0.0,701.0,441.0,441.0,10.0,3889.4048780487806,0.0,1.0188730359400398
2100000.0,17.125,6.203858582820329E-6,2100000.0,98.6,97.19929422214398,97.24950884086444,97.16024340770791,1258430.0,1764976.0,0.0,1.0,0.0,?,0.0,0.0,709.0,445.0,445.0,10.0,3889.4048780487806,0.0,1.0188730359400398
2200000.0,17.953125,6.607834980564399E-6,2200000.0,98.5,96.9998799951998,97.01789264413519,96.92622950819671,1318430.0,1783456.0,0.0,1.0,0.0,?,0.0,0.0,719.0,450.0,450.0,10.0,3889.4048780487806,0.0,1.0188730359400398
2300000.0,18.75,6.999543822732651E-6,2300000.0,98.7,97.36637386146316,97.36842105263158,97.07207207207207,1378430.0,1812952.0,0.0,1.0,0.0,?,0.0,0.0,734.0,459.0,459.0,10.0,3889.4048780487806,0.0,1.0188730359400398
2400000.0,19.53125,7.384632772300393E-6,2400000.0,98.5,96.99894362815711,96.94501018329939,96.95121951219512,1438430.0,1833296.0,0.0,1.0,0.0,?,0.0,0.0,740.0,462.0,462.0,10.0,3889.4048780487806,0.0,1.0188730359400398
2500000.0,20.359375,7.794158753111131E-6,2500000.0,98.8,97.59974077200337,97.61431411530815,97.59036144578313,1498430.0,1854592.0,0.0,1.0,0.0,?,0.0,0.0,750.0,467.0,467.0,10.0,3889.4048780487806,0.0,1.0188730359400398
2600000.0,21.15625,8.20585115838589E-6,2600000.0,98.1,96.18185618057007,96.08247422680411,95.82417582417581,1558130.0,1879112.0,0.0,1.0,0.0,?,0.0,0.0,764.0,474.0,474.0,10.0,3889.4048780487806,0.0,1.0188730359400398
2700000.0,21.953125,8.61756005583124E-6,2700000.0,98.3,96.59656934189663,96.46569646569645,96.51639344262296,1618130.0,1894304.0,0.0,1.0,0.0,?,0.0,0.0,770.0,477.0,477.0,10.0,3889.4048780487806,0.0,1.0188730359400398
2800000.0,22.796875,9.06047902794348E-6,2800000.0,99.1,98.19329350549239,98.24561403508771,98.08917197452229,1678130.0,1941312.0,0.0,1.0,0.0,?,0.0,0.0,796.0,493.0,493.0,10.0,3889.4048780487806,0.0,1.0188730359400398
2900000.0,23.59375,9.484278335649936E-6,2900000.0,98.9,97.79994719873277,97.84313725490196,97.76422764227642,1738130.0,1982968.0,0.0,1.0,0.0,?,0.0,0.0,807.0,500.0,500.0,10.0,3889.4048780487806,0.0,1.0188730359400398
3000000.0,24.390625,9.90854107335003E-6,3000000.0,99.1,98.18564482183032,98.22134387351778,98.01762114537445,1798130.0,2000328.0,0.0,1.0,0.0,?,0.0,0.0,813.0,503.0,503.0,10.0,3889.4048780487806,0.0,1.0188730359400398
3100000.0,25.203125,1.035552015916134E-5,3100000.0,99.0,97.99178237347225,97.99196787148594,97.85867237687366,1857830.0,2007800.0,0.0,1.0,0.0,?,0.0,0.0,823.0,508.0,508.0,10.0,3889.4048780487806,0.0,1.0188730359400398
3200000.0,25.984375,1.0791071916982119E-5,3200000.0,99.1,98.18290476805788,98.14432989690721,98.00443458980044,1917830.0,2051376.0,0.0,1.0,0.0,?,0.0,0.0,837.0,518.0,518.0,10.0,3889.4048780487806,0.0,1.0188730359400398
3300000.0,26.78125,1.1233819079481895E-5,3300000.0,98.5,96.99673244490005,96.96969696969697,96.92622950819671,1977830.0,2059160.0,0.0,1.0,0.0,?,0.0,0.0,845.0,522.0,522.0,10.0,3889.4048780487806,0.0,1.0188730359400398
3400000.0,27.640625,1.1713194576764688E-5,3400000.0,98.5,96.99841516320618,97.05304518664047,96.93251533742331,2037830.0,2082800.0,0.0,1.0,0.0,?,0.0,0.0,851.0,525.0,525.0,10.0,3872.916030534351,0.0,1.0200491966130023
3500000.0,28.421875,1.2150175656036787E-5,3500000.0,99.3,98.59913706843415,98.52008456659618,98.56850715746421,2097830.0,2103800.0,0.0,1.0,0.0,?,0.0,0.0,858.0,530.0,530.0,10.0,3872.916030534351,0.0,1.0200491966130023
3600000.0,29.21875,1.261065520035724E-5,3600000.0,99.2,98.3977440235852,98.48771266540642,98.34368530020704,2157530.0,2114520.0,0.0,1.0,0.0,?,0.0,0.0,864.0,533.0,533.0,10.0,3872.916030534351,0.0,1.0200491966130023
3700000.0,30.015625,1.306992751779035E-5,3700000.0,98.1,96.17973732678125,96.08247422680411,95.92274678111588,2217530.0,2123808.0,0.0,1.0,0.0,?,0.0,0.0,870.0,536.0,536.0,10.0,3872.916030534351,0.0,1.0200491966130023
3800000.0,30.8125,1.3532696175388994E-5,3800000.0,98.4,96.78601272738959,96.7280163599182,96.58119658119658,2277530.0,2155800.0,0.0,1.0,0.0,?,0.0,0.0,887.0,546.0,546.0,10.0,3872.916030534351,0.0,1.0200491966130023
3900000.0,31.59375,1.398806117423293E-5,3900000.0,99.4,98.79976955575471,98.82352941176471,98.83040935672514,2337530.0,2179168.0,0.0,1.0,0.0,?,0.0,0.0,898.0,553.0,553.0,10.0,3872.916030534351,0.0,1.0200491966130023
4000000.0,32.390625,1.4451148130724003E-5,4000000.0,99.4,98.79877475024524,98.78542510121457,98.77551020408163,2397530.0,2187592.0,0.0,1.0,0.0,?,0.0,0.0,904.0,556.0,556.0,10.0,3872.916030534351,0.0,1.0200491966130023
4100000.0,33.1875,1.4932119197005202E-5,4100000.0,98.8,97.58215631359433,97.5103734439834,97.32739420935411,2457230.0,2213264.0,0.0,1.0,0.0,?,0.0,0.0,919.0,565.0,565.0,10.0,3872.916030534351,0.0,1.0200491966130023
4200000.0,33.984375,1.5413545447194745E-5,4200000.0,98.8,97.5965293884369,97.4630021141649,97.5051975051975,2517230.0,2230544.0,0.0,1.0,0.0,?,0.0,0.0,931.0,571.0,571.0,10.0,3872.916030534351,0.0,1.0200491966130023
4300000.0,34.765625,1.5886162549981643E-5,4300000.0,99.1,98.19887609868559,98.08102345415777,98.15195071868584,2577230.0,2248760.0,0.0,1.0,0.0,?,0.0,0.0,937.0,574.0,574.0,10.0,3872.916030534351,0.0,1.0200491966130023
4400000.0,35.546875,1.6359489462855792E-5,4400000.0,99.4,98.79878917949293,98.78296146044624,98.75518672199169,2637230.0,2267392.0,0.0,1.0,0.0,?,0.0,0.0,941.0,576.0,576.0,10.0,3872.916030534351,0.0,1.0200491966130023
4500000.0,36.328125,1.6830562445749015E-5,4500000.0,99.4,98.79844759429183,98.828125,98.84393063583815,2697230.0,2271400.0,0.0,1.0,0.0,?,0.0,0.0,947.0,579.0,579.0,10.0,3872.916030534351,0.0,1.0200491966130023
4600000.0,37.125,1.7329772203488073E-5,4600000.0,98.8,97.59413932339179,97.61904761904762,97.45222929936305,2756930.0,2301208.0,0.0,1.0,0.0,?,0.0,0.0,959.0,585.0,585.0,10.0,3872.916030534351,0.0,1.0200491966130023
4700000.0,37.90625,1.7817571804496566E-5,4700000.0,98.8,97.58900586675239,97.52577319587628,97.4304068522484,2816930.0,2308304.0,0.0,1.0,0.0,?,0.0,0.0,971.0,591.0,591.0,10.0,3872.916030534351,0.0,1.0200491966130023
4800000.0,38.671875,1.8296475819725962E-5,4800000.0,99.1,98.18564482183032,98.20717131474103,98.01762114537445,2876930.0,2327776.0,0.0,1.0,0.0,?,0.0,0.0,973.0,592.0,592.0,10.0,3872.916030534351,0.0,1.0200491966130023
4900000.0,39.46875,1.879679879897999E-5,4900000.0,99.3,98.59716065316199,98.63013698630137,98.53249475890985,2936930.0,2351912.0,0.0,1.0,0.0,?,0.0,0.0,985.0,598.0,598.0,10.0,3872.916030534351,0.0,1.0200491966130023
5000000.0,40.265625,1.9296201515114975E-5,5000000.0,99.0,97.99961592625785,98.00399201596807,97.9296066252588,2996930.0,2360264.0,0.0,1.0,0.0,?,0.0,0.0,995.0,603.0,603.0,10.0,3872.916030534351,0.0,1.0200491966130023
5100000.0,41.4375,1.9440066599701018E-5,5100000.0,88.6,76.21501625307224,75.69296375266525,72.39709443099274,58871.0,359904.0,0.0,1.0,0.0,?,3.0,38.0,131.0,90.0,90.0,5.0,0.0,0.0,1.0
5200000.0,42.296875,1.9608224813257246E-5,5200000.0,92.0,82.82104250503559,82.79569892473118,78.43665768194072,118871.0,656024.0,0.0,1.0,0.0,?,0.0,0.0,225.0,158.0,158.0,5.0,0.0,0.0,1.0
5300000.0,43.125,1.9811665535800994E-5,5300000.0,92.0,83.1227189299804,81.81818181818183,79.32816537467701,178871.0,863792.0,0.0,1.0,0.0,?,0.0,0.0,301.0,211.0,211.0,5.0,0.0,0.0,1.0
5400000.0,43.953125,2.0036846981383865E-5,5400000.0,94.19999999999999,87.77691607377683,88.04123711340205,84.81675392670157,238871.0,979992.0,0.0,1.0,0.0,?,0.0,0.0,342.0,236.0,236.0,7.0,0.0,0.0,1.0
5500000.0,44.765625,2.0275817757161962E-5,5500000.0,95.5,90.49293096600272,90.60542797494779,88.21989528795811,298871.0,1080528.0,0.0,1.0,0.0,?,0.0,0.0,384.0,260.0,260.0,7.0,0.0,0.0,1.0
5600000.0,45.625,2.0590344954851194E-5,5600000.0,94.69999999999999,88.59969885996988,89.02691511387162,85.67567567567566,358571.0,1296848.0,0.0,1.0,0.0,?,0.0,0.0,462.0,314.0,314.0,8.0,0.0,0.0,1.0
5700000.0,46.46875,2.092133932617597E-5,5700000.0,94.39999999999999,87.91952679060657,87.98283261802574,84.57300275482092,418571.0,1413264.0,0.0,1.0,0.0,?,0.0,0.0,504.0,341.0,341.0,8.0,0.0,0.0,1.0
5800000.0,47.28125,2.1250727295409896E-5,5800000.0,95.3,90.1625070118301,89.8488120950324,87.97953964194373,478571.0,1478824.0,0.0,1.0,0.0,?,0.0,0.0,531.0,356.0,356.0,8.0,0.0,0.0,1.0
5900000.0,48.09375,2.1590968018345957E-5,5900000.0,96.1,91.5725966774422,91.82389937106917,89.13649025069637,538571.0,1545376.0,0.0,1.0,0.0,?,0.0,0.0,559.0,373.0,373.0,9.0,0.0,0.0,1.0
6000000.0,48.921875,2.1951584656360672E-5,6000000.0,97.5,94.7529698190824,94.68085106382979,93.58974358974358,598571.0,1624856.0,0.0,1.0,0.0,?,0.0,0.0,595.0,397.0,397.0,9.0,0.0,0.0,1.0
6100000.0,49.75,2.2341985313687484E-5,6100000.0,96.0,91.42179464634204,91.36069114470841,89.38992042440317,658271.0,1702584.0,0.0,1.0,0.0,?,0.0,0.0,623.0,414.0,414.0,9.0,0.0,0.0,1.0
6200000.0,50.578125,2.2744359222189017E-5,6200000.0,96.1,91.82266505636069,91.70212765957446,89.94845360824742,718271.0,1773304.0,0.0,1.0,0.0,?,0.0,0.0,654.0,431.0,431.0,9.0,0.0,0.0,1.0
6300000.0,51.390625,2.3142460559029143E-5,6300000.0,96.8,93.29907485352196,93.11827956989247,91.93954659949621,778271.0,1804104.0,0.0,1.0,0.0,?,0.0,0.0,670.0,439.0,439.0,10.0,0.0,0.0,1.0
6400000.0,52.234375,2.3569825862068694E-5,6400000.0,96.1,92.00426439232409,91.95876288659794,90.88785046728971,838271.0,1882944.0,0.0,1.0,0.0,?,0.0,0.0,704.0,462.0,462.0,10.0,0.0,0.0,1.0
6500000.0,53.0625,2.399264650496966E-5,6500000.0,97.2,93.9164291177084,94.14225941422593,92.26519337016575,898271.0,1913728.0,0.0,1.0,0.0,?,0.0,0.0,712.0,466.0,466.0,10.0,0.0,0.0,1.0
6600000.0,53.859375,2.442285631938528E-5,6600000.0,97.2,94.1469859067782,94.22680412371133,92.98245614035086,957971.0,1965952.0,0.0,1.0,0.0,?,0.0,0.0,736.0,481.0,481.0,10.0,0.0,0.0,1.0
6700000.0,54.75,2.4916397427053513E-5,6700000.0,97.2,93.98736487676244,93.81898454746135,92.37057220708446,1017971.0,2036064.0,0.0,1.0,0.0,?,0.0,0.0,762.0,497.0,497.0,10.0,4044.9268292682927,0.0,1.016377033562065
6800000.0,55.59375,2.5398770715886117E-5,6800000.0,97.6,94.75925319358008,94.9260042283298,93.2394366197183,1077971.0,2118784.0,0.0,1.0,0.0,?,0.0,0.0,795.0,518.0,518.0,10.0,4044.9268292682927,0.0,1.016377033562065
6900000.0,56.4375,2.5889059664526343E-5,6900000.0,96.3,92.16148194598624,92.27557411273486,90.48843187660668,1137971.0,2170024.0,0.0,1.0,0.0,?,0.0,0.0,821.0,534.0,534.0,10.0,4044.9268292682927,0.0,1.016377033562065
7000000.0,57.296875,2.6404817536887204E-5,7000000.0,96.89999999999999,93.5053507529603,93.04932735426009,92.1119592875318,1197971.0,2258624.0,0.0,1.0,0.0,?,0.0,0.0,846.0,551.0,551.0,10.0,4044.9268292682927,0.0,1.016377033562065
7100000.0,58.171875,2.6968782250252045E-5,7100000.0,96.8,93.2088285229202,93.14775160599571,91.57894736842105,1257671.0,2368736.0,0.0,1.0,0.0,?,0.0,0.0,892.0,580.0,580.0,10.0,4044.9268292682927,0.0,1.016377033562065
7200000.0,59.015625,2.752111823711959E-5,7200000.0,96.5,92.39064266457953,92.56900212314224,90.27777777777777,1317671.0,2422744.0,0.0,1.0,0.0,?,0.0,0.0,910.0,592.0,592.0,10.0,4044.9268292682927,0.0,1.016377033562065
7300000.0,59.875,2.8086923218021798E-5,7300000.0,97.39999999999999,94.5044028188186,94.52631578947368,93.1758530183727,1377671.0,2452336.0,0.0,1.0,0.0,?,0.0,0.0,928.0,601.0,601.0,10.0,4044.9268292682927,0.0,1.016377033562065
7400000.0,60.734375,2.8668731748540377E-5,7400000.0,97.0,93.62017046904506,93.65750528541226,92.06349206349206,1437671.0,2539256.0,0.0,1.0,0.0,?,0.0,0.0,954.0,620.0,620.0,10.0,4044.9268292682927,0.0,1.016377033562065
7500000.0,61.59375,2.925248781038035E-5,7500000.0,98.3,96.33051286479018,96.2800875273523,95.32967032967032,1497671.0,2563088.0,0.0,1.0,0.0,?,0.0,0.0,973.0,631.0,631.0,10.0,4044.9268292682927,0.0,1.016377033562065
7600000.0,62.46875,2.9869861545092952E-5,7600000.0,97.3,94.27893376276644,94.02654867256636,92.85714285714285,1557371.0,2603688.0,0.0,1.0,0.0,?,0.0,0.0,989.0,639.0,639.0,10.0,4044.9268292682927,0.0,1.016377033562065
7700000.0,63.328125,3.0485505542148742E-5,7700000.0,97.0,93.62719065321295,93.63057324840763,92.16710182767623,1617371.0,2660448.0,0.0,1.0,0.0,?,0.0,0.0,1013.0,654.0,654.0,10.0,4044.9268292682927,0.0,1.016377033562065
7800000.0,64.171875,3.109027731827358E-5,7800000.0,97.8,95.3066866914701,95.33898305084745,94.14893617021276,1677371.0,2677024.0,0.0,1.0,0.0,?,0.0,0.0,1021.0,658.0,658.0,10.0,4044.9268292682927,0.0,1.016377033562065
7900000.0,65.03125,3.17069831200772E-5,7900000.0,97.5,94.83539366695312,94.96981891348088,94.00479616306954,1737371.0,2695456.0,0.0,1.0,0.0,?,0.0,0.0,1023.0,659.0,659.0,10.0,4044.9268292682927,0.0,1.016377033562065
8000000.0,65.890625,3.2330399456744406E-5,8000000.0,97.5,94.78510458994234,94.65811965811966,93.734335839599,1797371.0,2740600.0,0.0,1.0,0.0,?,0.0,0.0,1046.0,672.0,672.0,10.0,4044.9268292682927,0.0,1.016377033562065
8100000.0,66.78125,3.299921450282759E-5,8100000.0,97.8,95.28117747491517,95.32908704883228,94.00544959128064,1857071.0,2778136.0,0.0,1.0,0.0,?,0.0,0.0,1061.0,681.0,681.0,10.0,4044.9268292682927,0.0,1.016377033562065
8200000.0,67.65625,3.366623600919008E-5,8200000.0,97.8,95.40924494599602,95.36842105263158,94.41624365482232,1917071.0,2837056.0,0.0,1.0,0.0,?,0.0,0.0,1082.0,696.0,696.0,10.0,4044.9268292682927,0.0,1.016377033562065
8300000.0,68.515625,3.432485553073802E-5,8300000.0,96.8,93.25577474287641,93.14775160599571,91.66666666666666,1977071.0,2867832.0,0.0,1.0,0.0,?,0.0,0.0,1102.0,706.0,706.0,10.0,4044.9268292682927,0.0,1.016377033562065
8400000.0,69.46875,3.505926569535709E-5,8400000.0,97.3,94.31741648706897,94.33962264150942,93.04123711340205,2037071.0,2898824.0,0.0,1.0,0.0,?,0.0,0.0,1118.0,714.0,714.0,10.0,3996.0056417489423,0.0,1.017495609155546
8500000.0,70.34375,3.573745143108278E-5,8500000.0,97.1,93.91344499013557,93.79014989293361,92.56410256410255,2097071.0,2931456.0,0.0,1.0,0.0,?,0.0,0.0,1127.0,720.0,720.0,10.0,3996.0056417489423,0.0,1.017495609155546
8600000.0,71.21875,3.643541768219116E-5,8600000.0,96.7,92.90975188428715,92.81045751633987,91.10512129380052,2156771.0,2957984.0,0.0,1.0,0.0,?,0.0,0.0,1139.0,729.0,729.0,10.0,3996.0056417489423,0.0,1.017495609155546
8700000.0,72.109375,3.714976266362809E-5,8700000.0,98.1,96.00497905767969,96.02510460251045,95.15306122448979,2216771.0,2990080.0,0.0,1.0,0.0,?,0.0,0.0,1153.0,739.0,739.0,10.0,3996.0056417489423,0.0,1.017495609155546
8800000.0,72.96875,3.7843318584944236E-5,8800000.0,98.3,96.48219577201318,96.579476861167,95.83333333333333,2276771.0,3024376.0,0.0,1.0,0.0,?,0.0,0.0,1162.0,745.0,745.0,10.0,3996.0056417489423,0.0,1.017495609155546
8900000.0,73.859375,3.856243572146116E-5,8900000.0,97.6,94.88002184524012,94.65478841870824,93.61702127659574,2336771.0,3040944.0,0.0,1.0,0.0,?,0.0,0.0,1174.0,751.0,751.0,10.0,3996.0056417489423,0.0,1.017495609155546
9000000.0,74.75,3.928596005102414E-5,9000000.0,96.89999999999999,93.4757170397434,93.45991561181434,92.07161125319693,2396771.0,3075104.0,0.0,1.0,0.0,?,0.0,0.0,1191.0,761.0,761.0,10.0,3996.0056417489423,0.0,1.017495609155546
9100000.0,75.640625,4.002993515718523E-5,9100000.0,97.6,94.93198298835622,94.96855345911949,93.73368146214098,2456471.0,3102752.0,0.0,1.0,0.0,?,0.0,0.0,1203.0,767.0,767.0,10.0,3996.0056417489423,0.0,1.017495609155546
9200000.0,76.515625,4.076794413979063E-5,9200000.0,97.5,94.73338276931374,94.87704918032787,93.55670103092783,2516471.0,3149000.0,0.0,1.0,0.0,?,0.0,0.0,1219.0,775.0,775.0,10.0,3996.0056417489423,0.0,1.017495609155546
9300000.0,77.40625,4.1525131608876933E-5,9300000.0,98.7,97.33600006557538,97.28601252609603,96.92671394799054,2576471.0,3190064.0,0.0,1.0,0.0,?,0.0,0.0,1252.0,796.0,796.0,10.0,3996.0056417489423,0.0,1.017495609155546
9400000.0,78.296875,4.229542084633271E-5,9400000.0,97.89999999999999,95.55450180783592,95.53191489361701,94.50261780104712,2636471.0,3261792.0,0.0,1.0,0.0,?,0.0,0.0,1275.0,809.0,809.0,11.0,3996.0056417489423,0.0,1.017495609155546
9500000.0,79.21875,4.309990391549139E-5,9500000.0,97.89999999999999,95.42300181336309,95.37444933920705,94.10112359550561,2696471.0,3306880.0,0.0,1.0,0.0,?,0.0,0.0,1304.0,828.0,828.0,11.0,3996.0056417489423,0.0,1.017495609155546
9600000.0,80.140625,4.3930269797177385E-5,9600000.0,96.89999999999999,93.36887048334516,93.36188436830835,91.64420485175201,2756171.0,3354376.0,0.0,1.0,0.0,?,0.0,0.0,1314.0,833.0,833.0,11.0,3996.0056417489423,0.0,1.017495609155546
9700000.0,81.046875,4.475547256232759E-5,9700000.0,97.39999999999999,94.47081440650572,94.29824561403508,93.12169312169311,2816171.0,3407352.0,0.0,1.0,0.0,?,0.0,0.0,1331.0,843.0,843.0,11.0,3996.0056417489423,0.0,1.017495609155546
9800000.0,81.953125,4.558228832643688E-5,9800000.0,97.89999999999999,95.54567591186377,95.64315352697095,94.44444444444444,2876171.0,3429352.0,0.0,1.0,0.0,?,0.0,0.0,1342.0,850.0,850.0,11.0,3996.0056417489423,0.0,1.017495609155546
9900000.0,82.84375,4.639911575294619E-5,9900000.0,97.6,94.82256498759573,95.01039501039502,93.42465753424656,2936171.0,3462880.0,0.0,1.0,0.0,?,0.0,0.0,1354.0,856.0,856.0,11.0,3996.0056417489423,0.0,1.017495609155546
1.0E7,83.75,4.723488928801899E-5,1.0E7,97.6,94.85199485199485,94.84978540772532,93.51351351351352,2996171.0,3497560.0,0.0,1.0,0.0,?,0.0,0.0,1370.0,864.0,864.0,11.0,3996.0056417489423,0.0,1.017495609155546
