learning evaluation instances,evaluation time (cpu seconds),model cost (RAM-Hours),classified instances,classifications correct (percent),Kappa Statistic (percent),Kappa Temporal Statistic (percent),Kappa M Statistic (percent),model training instances,model serialized size (bytes),labeling cost,newThreshold,maxPosterior,accuracyBaseLearner (percent),Change detected,Warning detected
100000.0,0.265625,6.9283608657618365E-9,100000.0,90.5,75.51218204501635,76.7156862745098,66.31205673758866,8976.0,1112.0,0.0,1.0,0.0,?,4.0,11.0
200000.0,0.53125,1.319703490783771E-8,200000.0,91.9,79.86557161890748,80.85106382978724,72.35494880546078,18976.0,1112.0,0.0,1.0,0.0,?,0.0,0.0
300000.0,0.765625,1.8146141277005275E-8,300000.0,89.4,73.40091842111867,75.34883720930233,64.7840531561462,28976.0,1112.0,0.0,1.0,0.0,?,0.0,0.0
400000.0,1.015625,2.2804306354373692E-8,400000.0,88.8,71.25743585532226,73.39667458432304,60.97560975609757,38976.0,1112.0,0.0,1.0,0.0,?,0.0,0.0
500000.0,1.265625,2.6841589715331792E-8,500000.0,88.7,71.61602765051042,73.22274881516589,62.45847176079735,48976.0,1112.0,0.0,1.0,0.0,?,0.0,0.0
600000.0,1.515625,3.0257991359879576E-8,600000.0,88.5,70.69317023445464,73.37962962962963,61.66666666666668,58976.0,1112.0,0.0,1.0,0.0,?,0.0,0.0
700000.0,1.765625,3.3053511288017036E-8,700000.0,90.60000000000001,76.03398075579648,75.83547557840618,67.2473867595819,68976.0,1112.0,0.0,1.0,0.0,?,0.0,0.0
800000.0,2.0,3.509223461151123E-8,800000.0,89.0,71.45866955885481,71.42857142857143,61.672473867595826,78976.0,1112.0,0.0,1.0,0.0,?,0.0,0.0
900000.0,2.25,3.6645991106828057E-8,900000.0,89.4,72.75162333489284,74.3961352657005,63.32179930795849,88976.0,1112.0,0.0,1.0,0.0,?,0.0,0.0
1000000.0,2.5,3.757886588573456E-8,1000000.0,90.3,74.06417112299467,74.87046632124354,64.72727272727275,98976.0,1112.0,0.0,1.0,0.0,?,0.0,0.0
1100000.0,2.75,4.410588492949804E-8,1100000.0,89.0,73.42930988671223,76.08695652173914,65.29968454258675,108876.0,1112.0,0.0,1.0,0.0,?,0.0,0.0
1200000.0,3.015625,5.038115583981077E-8,1200000.0,91.2,77.33360807747786,78.53658536585367,68.57142857142858,118876.0,1112.0,0.0,1.0,0.0,?,0.0,0.0
1300000.0,3.25,5.5336082975069686E-8,1300000.0,91.10000000000001,77.2687800741702,78.75894988066827,69.6245733788396,128876.0,1112.0,0.0,1.0,0.0,?,0.0,0.0
1400000.0,3.515625,6.029198023801049E-8,1400000.0,89.4,74.04314714597056,74.14634146341464,66.13418530351439,138876.0,1112.0,0.0,1.0,0.0,?,0.0,0.0
1500000.0,3.765625,6.43354724161327E-8,1500000.0,89.60000000000001,73.28744252947371,73.86934673366835,63.25088339222616,148876.0,1112.0,0.0,1.0,0.0,?,0.0,0.0
1600000.0,4.015625,6.775808287784457E-8,1600000.0,90.3,75.40118885800655,76.84964200477327,67.22972972972975,158876.0,1112.0,0.0,1.0,0.0,?,0.0,0.0
1700000.0,4.265625,7.055981162314615E-8,1700000.0,89.2,72.78170930865542,73.91304347826087,64.70588235294119,168876.0,1112.0,0.0,1.0,0.0,?,0.0,0.0
1800000.0,4.515625,7.274065865203739E-8,1800000.0,89.5,73.19486566798396,73.88059701492537,63.286713286713294,178876.0,1112.0,0.0,1.0,0.0,?,0.0,0.0
1900000.0,4.75,7.420312613248826E-8,1900000.0,89.8,74.64666901972092,76.16822429906543,65.88628762541808,188876.0,1112.0,0.0,1.0,0.0,?,0.0,0.0
2000000.0,4.984375,7.508351700380446E-8,2000000.0,88.8,69.39489331934243,69.72972972972973,57.57575757575758,198876.0,1112.0,0.0,1.0,0.0,?,0.0,0.0
2100000.0,5.234375,8.161674486473204E-8,2100000.0,91.0,77.55039935345151,78.72340425531917,70.0996677740864,208776.0,1112.0,0.0,1.0,0.0,?,0.0,0.0
2200000.0,5.5,8.789861264328163E-8,2200000.0,90.2,73.9754838435555,75.68238213399503,64.74820143884892,218776.0,1112.0,0.0,1.0,0.0,?,0.0,0.0
2300000.0,5.734375,9.285936054463188E-8,2300000.0,88.4,71.41167192429023,72.31503579952268,62.58064516129033,228776.0,1112.0,0.0,1.0,0.0,?,0.0,0.0
2400000.0,5.984375,9.752994325632851E-8,2400000.0,89.5,72.4802381900908,71.62162162162163,62.36559139784947,238776.0,1112.0,0.0,1.0,0.0,?,0.0,0.0
2500000.0,6.234375,1.0157964425161481E-7,2500000.0,88.7,70.81159270548122,73.15914489311164,61.16838487972509,248776.0,1112.0,0.0,1.0,0.0,?,0.0,0.0
2600000.0,6.484375,1.050084635304908E-7,2600000.0,89.3,74.2800826883323,74.70449172576834,67.57575757575758,258776.0,1112.0,0.0,1.0,0.0,?,0.0,0.0
2700000.0,6.734375,1.0781640109295647E-7,2700000.0,90.7,76.77322677322678,78.95927601809956,69.00000000000001,268776.0,1112.0,0.0,1.0,0.0,?,0.0,0.0
2800000.0,6.984375,1.1000345693901181E-7,2800000.0,90.8,74.88863656214517,76.76767676767678,65.67164179104479,278776.0,1112.0,0.0,1.0,0.0,?,0.0,0.0
2900000.0,7.234375,1.1156963106865685E-7,2900000.0,89.4,73.00504754677003,73.95577395577396,64.5484949832776,288776.0,1112.0,0.0,1.0,0.0,?,0.0,0.0
3000000.0,7.484375,1.1251492348189156E-7,3000000.0,89.4,73.67898291617004,75.51963048498847,65.80645161290323,298776.0,1112.0,0.0,1.0,0.0,?,0.0,0.0
3100000.0,7.734375,1.1905436015998324E-7,3100000.0,88.6,72.00214159057307,72.05882352941177,63.10679611650486,308676.0,1112.0,0.0,1.0,0.0,?,0.0,0.0
3200000.0,8.0,1.253428248067697E-7,3200000.0,88.2,70.95427513685951,72.42990654205607,62.42038216560509,318676.0,1112.0,0.0,1.0,0.0,?,0.0,0.0
3300000.0,8.25,1.3064049805204074E-7,3300000.0,88.5,70.11123817444643,71.1779448621554,59.64912280701755,328676.0,1112.0,0.0,1.0,0.0,?,0.0,0.0
3400000.0,8.484375,1.3502499011034766E-7,3400000.0,90.4,74.30062909918352,76.92307692307693,65.0909090909091,338676.0,1112.0,0.0,1.0,0.0,?,0.0,0.0
3500000.0,8.75,1.3933439428607621E-7,3500000.0,88.1,68.39410164881863,68.84816753926701,56.41025641025642,348676.0,1112.0,0.0,1.0,0.0,?,0.0,0.0
3600000.0,9.0,1.427694223821163E-7,3600000.0,87.9,69.71971971971973,72.43735763097949,59.66666666666668,358676.0,1112.0,0.0,1.0,0.0,?,0.0,0.0
3700000.0,9.25,1.4558356876174608E-7,3700000.0,89.3,72.04952719293664,73.25,63.103448275862085,368676.0,1112.0,0.0,1.0,0.0,?,0.0,0.0
3800000.0,9.515625,1.4791391246641674E-7,3800000.0,90.4,76.36073518113588,77.62237762237764,68.62745098039217,378676.0,1112.0,0.0,1.0,0.0,?,0.0,0.0
3900000.0,9.765625,1.4948629541322587E-7,3900000.0,91.0,77.91346002827079,78.1021897810219,70.39473684210527,388676.0,1112.0,0.0,1.0,0.0,?,0.0,0.0
4000000.0,10.0,1.5037832781672475E-7,4000000.0,89.7,74.3671421603273,76.85393258426967,65.43624161073826,398676.0,1112.0,0.0,1.0,0.0,?,0.0,0.0
4100000.0,10.25,1.5692397331198054E-7,4100000.0,88.5,70.76766649720388,72.28915662650603,61.016949152542374,408576.0,1112.0,0.0,1.0,0.0,?,0.0,0.0
4200000.0,10.5,1.6284873709082602E-7,4200000.0,88.4,70.78085642317382,71.07231920199501,60.54421768707484,418576.0,1112.0,0.0,1.0,0.0,?,0.0,0.0
4300000.0,10.75,1.6815261915326117E-7,4300000.0,87.2,68.23553351895693,69.4510739856802,56.90235690235691,428576.0,1112.0,0.0,1.0,0.0,?,0.0,0.0
4400000.0,11.015625,1.7312830702091254E-7,4400000.0,89.60000000000001,74.36857982215739,74.75728155339807,65.56291390728478,438576.0,1112.0,0.0,1.0,0.0,?,0.0,26.0
4500000.0,11.28125,1.7744430806487798E-7,4500000.0,90.10000000000001,74.93290120018231,75.12562814070353,66.32653061224491,448576.0,1112.0,0.0,1.0,0.0,?,0.0,17.0
4600000.0,11.53125,1.8088554497808216E-7,4600000.0,89.0,72.52966795860472,74.35897435897436,63.81578947368423,458576.0,1112.0,0.0,1.0,0.0,?,0.0,0.0
4700000.0,11.78125,1.8370590017487604E-7,4700000.0,90.0,74.47937933850551,76.74418604651163,65.75342465753425,468576.0,1112.0,0.0,1.0,0.0,?,0.0,22.0
4800000.0,12.03125,1.859053736552596E-7,4800000.0,91.4,78.2023531320177,78.60696517412936,69.61130742049471,478576.0,1112.0,0.0,1.0,0.0,?,0.0,0.0
4900000.0,12.28125,1.8748396541923283E-7,4900000.0,91.3,77.88667812153686,80.04587155963304,69.5804195804196,488576.0,1112.0,0.0,1.0,0.0,?,0.0,16.0
5000000.0,12.53125,1.884903112012479E-7,5000000.0,90.0,74.4602166795217,75.18610421836229,65.39792387543254,498576.0,1112.0,0.0,1.0,0.0,?,0.0,0.0
5100000.0,12.78125,1.950908012481199E-7,5100000.0,89.3,78.43941677614875,78.5140562248996,76.2749445676275,8798.0,1112.0,0.0,1.0,0.0,?,2.0,23.0
5200000.0,13.046875,2.0144413509923547E-7,5200000.0,91.0,81.998199819982,82.21343873517787,81.55737704918033,18798.0,1112.0,0.0,1.0,0.0,?,0.0,0.0
5300000.0,13.296875,2.0680286171328687E-7,5300000.0,89.2,78.2088480147857,78.09330628803247,76.36761487964989,28798.0,1112.0,0.0,1.0,0.0,?,0.0,0.0
5400000.0,13.546875,2.1154070661092793E-7,5400000.0,89.1,78.069469482359,79.11877394636015,76.7590618336887,38798.0,1112.0,0.0,1.0,0.0,?,0.0,0.0
5500000.0,13.796875,2.156576697921587E-7,5500000.0,89.0,77.83268107676744,77.50511247443764,76.24190064794817,48798.0,1112.0,0.0,1.0,0.0,?,0.0,0.0
5600000.0,14.046875,2.1915375125697913E-7,5600000.0,88.8,77.4687781640273,77.51004016064257,76.27118644067797,58798.0,1112.0,0.0,1.0,0.0,?,0.0,0.0
5700000.0,14.28125,2.2184925102111362E-7,5700000.0,90.9,81.44190295950665,80.72033898305085,78.73831775700936,68798.0,1112.0,0.0,1.0,0.0,?,0.0,0.0
5800000.0,14.53125,2.2410356905311342E-7,5800000.0,89.0,77.8111283242964,77.08333333333334,76.19047619047619,78798.0,1112.0,0.0,1.0,0.0,?,0.0,0.0
5900000.0,14.78125,2.257370053687029E-7,5900000.0,89.3,78.2415955620989,78.85375494071147,75.7918552036199,88798.0,1112.0,0.0,1.0,0.0,?,0.0,0.0
6000000.0,15.046875,2.2681284463033076E-7,6000000.0,90.3,80.3667570740396,80.56112224448898,78.25112107623319,98798.0,1112.0,0.0,1.0,0.0,?,0.0,0.0
6100000.0,15.296875,2.334195434943669E-7,6100000.0,89.1,78.06311383030108,79.5880149812734,76.35574837310195,108698.0,1112.0,0.0,1.0,0.0,?,0.0,0.0
6200000.0,15.546875,2.3940536064199274E-7,6200000.0,91.4,82.72988332630482,81.89473684210526,81.74097664543525,118698.0,1112.0,0.0,1.0,0.0,?,0.0,0.0
6300000.0,15.796875,2.447702960732082E-7,6300000.0,91.10000000000001,82.04443296722806,82.12851405622492,80.73593073593074,128698.0,1112.0,0.0,1.0,0.0,?,0.0,0.0
6400000.0,16.046875,2.495143497880134E-7,6400000.0,89.0,77.88455738957357,77.13097713097713,76.64543524416136,138698.0,1112.0,0.0,1.0,0.0,?,0.0,0.0
6500000.0,16.3125,2.5389522003630795E-7,6500000.0,89.8,79.39468867798747,79.47686116700201,77.48344370860927,148698.0,1112.0,0.0,1.0,0.0,?,0.0,0.0
6600000.0,16.5625,2.5739751031829246E-7,6600000.0,90.60000000000001,80.96310487709052,81.60469667318982,79.06458797327394,158698.0,1112.0,0.0,1.0,0.0,?,0.0,0.0
6700000.0,16.8125,2.602789188838667E-7,6700000.0,89.3,78.52423349577309,79.42307692307693,77.66179540709813,168698.0,1112.0,0.0,1.0,0.0,?,0.0,0.0
6800000.0,17.0625,2.625394457330306E-7,6800000.0,89.3,78.4230691671708,77.3784355179704,76.22222222222223,178698.0,1112.0,0.0,1.0,0.0,?,0.0,0.0
6900000.0,17.328125,2.6428156868658125E-7,6900000.0,90.10000000000001,79.98819505647776,79.54545454545455,78.04878048780488,188698.0,1112.0,0.0,1.0,0.0,?,0.0,0.0
7000000.0,17.5625,2.652366593894031E-7,7000000.0,89.2,77.74297254966615,76.47058823529413,73.46437346437347,198698.0,1112.0,0.0,1.0,0.0,?,0.0,0.0
7100000.0,17.8125,2.718495670706033E-7,7100000.0,90.5,80.9425226483073,81.93916349809886,79.957805907173,208598.0,1112.0,0.0,1.0,0.0,?,0.0,0.0
7200000.0,18.078125,2.782160946581926E-7,7200000.0,90.5,80.7028234816169,80.57259713701433,78.65168539325843,218598.0,1112.0,0.0,1.0,0.0,?,0.0,0.0
7300000.0,18.328125,2.835872389065722E-7,7300000.0,88.5,76.89111091462973,75.42735042735043,75.47974413646055,228598.0,1112.0,0.0,1.0,0.0,?,0.0,0.0
7400000.0,18.59375,2.886343928467896E-7,7400000.0,89.4,78.35108816417228,78.58585858585859,75.23364485981308,238598.0,1112.0,0.0,1.0,0.0,?,0.0,0.0
7500000.0,18.84375,2.9276377366234854E-7,7500000.0,88.9,77.29615630062344,78.01980198019803,73.82075471698114,248598.0,1112.0,0.0,1.0,0.0,?,0.0,0.0
7600000.0,19.09375,2.962722727614972E-7,7600000.0,89.1,78.21881894043547,78.54330708661418,78.45849802371542,258598.0,1112.0,0.0,1.0,0.0,?,0.0,0.0
7700000.0,19.34375,2.9915989014423553E-7,7700000.0,90.7,81.2448574609167,82.5515947467167,79.47019867549669,268598.0,1112.0,0.0,1.0,0.0,?,0.0,0.0
7800000.0,19.609375,3.01568296789709E-7,7800000.0,90.4,80.17307255416263,80.24691358024691,76.41277641277642,278598.0,1112.0,0.0,1.0,0.0,?,0.0,0.0
7900000.0,19.859375,3.0321415073962673E-7,7900000.0,89.7,79.26864614195543,78.63070539419087,77.94432548179871,288598.0,1112.0,0.0,1.0,0.0,?,0.0,0.0
8000000.0,20.109375,3.042391229731341E-7,8000000.0,89.7,79.32806165455787,80.26819923371647,78.13163481953292,298598.0,1112.0,0.0,1.0,0.0,?,0.0,0.0
8100000.0,20.359375,3.1085823947149844E-7,8100000.0,88.7,77.2282096133229,76.35983263598327,75.38126361655773,308498.0,1112.0,0.0,1.0,0.0,?,0.0,0.0
8200000.0,20.609375,3.1685647425345244E-7,8200000.0,88.4,76.63852548817425,77.16535433070867,75.0,318498.0,1112.0,0.0,1.0,0.0,?,0.0,0.0
8300000.0,20.875,3.2256991188559264E-7,8300000.0,89.0,77.79545170107026,78.72340425531915,75.71743929359823,328498.0,1112.0,0.0,1.0,0.0,?,0.0,0.0
8400000.0,21.125,3.2732638323472603E-7,8400000.0,90.9,81.57402382822941,81.83632734530939,80.13100436681223,338498.0,1112.0,0.0,1.0,0.0,?,0.0,0.0
8500000.0,21.375,3.3146197286744907E-7,8500000.0,89.1,77.81938057059136,76.95560253699789,74.88479262672811,348498.0,1112.0,0.0,1.0,0.0,?,0.0,0.0
8600000.0,21.625,3.3497668078376184E-7,8600000.0,88.4,76.61290322580645,76.61290322580645,74.78260869565217,358498.0,1112.0,0.0,1.0,0.0,?,0.0,0.0
8700000.0,21.890625,3.3805137112115815E-7,8700000.0,89.8,78.98813447593935,79.35222672064778,76.27906976744187,368498.0,1112.0,0.0,1.0,0.0,?,0.0,0.0
8800000.0,22.140625,3.4032431560465024E-7,8800000.0,90.10000000000001,79.98997477524094,80.2,78.43137254901961,378498.0,1112.0,0.0,1.0,0.0,?,0.0,0.0
8900000.0,22.390625,3.4197637837173204E-7,8900000.0,91.0,81.8840579710145,82.5242718446602,80.43478260869566,388498.0,1112.0,0.0,1.0,0.0,?,0.0,0.0
9000000.0,22.640625,3.430075594224035E-7,9000000.0,89.4,78.6578613566352,79.53667953667954,77.10583153347731,398498.0,1112.0,0.0,1.0,0.0,?,0.0,0.0
9100000.0,22.890625,3.4963288473793195E-7,9100000.0,88.7,77.2276589227272,77.26358148893361,75.27352297592998,408398.0,1112.0,0.0,1.0,0.0,?,0.0,0.0
9200000.0,23.15625,3.56012606061995E-7,9200000.0,88.6,77.0243743172813,77.15430861723446,75.27114967462039,418398.0,1112.0,0.0,1.0,0.0,?,0.0,0.0
9300000.0,23.40625,3.613961679447028E-7,9300000.0,87.6,74.94291430072543,75.49407114624506,72.00902934537245,428398.0,1112.0,0.0,1.0,0.0,?,0.0,0.0
9400000.0,23.65625,3.661588481110003E-7,9400000.0,89.8,79.35022026431719,79.43548387096774,77.02702702702703,438398.0,1112.0,0.0,1.0,0.0,?,0.0,0.0
9500000.0,23.90625,3.703006465608874E-7,9500000.0,90.5,80.85526580951998,80.84677419354838,79.56989247311829,448398.0,1112.0,0.0,1.0,0.0,?,0.0,0.0
9600000.0,24.15625,3.738215632943643E-7,9600000.0,88.8,77.50425812256965,77.32793522267207,76.61795407098121,458398.0,1112.0,0.0,1.0,0.0,?,0.0,0.0
9700000.0,24.40625,3.767215983114308E-7,9700000.0,90.0,79.55511939810272,80.6949806949807,76.85185185185186,468398.0,1112.0,0.0,1.0,0.0,?,0.0,0.0
9800000.0,24.671875,3.7914319869337805E-7,9800000.0,91.2,82.29233741146169,82.67716535433071,80.95238095238095,478398.0,1112.0,0.0,1.0,0.0,?,0.0,0.0
9900000.0,24.921875,3.8080147027762395E-7,9900000.0,91.2,82.34810342406676,83.3648393194707,81.62839248434238,488398.0,1112.0,0.0,1.0,0.0,?,0.0,0.0
1.0E7,25.171875,3.818388601454595E-7,1.0E7,90.0,79.81396550610425,79.50819672131148,77.87610619469027,498398.0,1112.0,0.0,1.0,0.0,?,0.0,0.0
