learning evaluation instances,evaluation time (cpu seconds),model cost (RAM-Hours),classified instances,classifications correct (percent),Kappa Statistic (percent),Kappa Temporal Statistic (percent),Kappa M Statistic (percent),model training instances,model serialized size (bytes),labeling cost,newThreshold,maxPosterior,accuracyBaseLearner (percent),Change detected,Warning detected,tree size (nodes),tree size (leaves),active learning leaves,tree depth,active leaf byte size estimate,inactive leaf byte size estimate,byte size estimate overhead
100000.0,0.40625,2.7962572251756985E-8,100000.0,86.6,70.35752365867795,71.18279569892472,63.68563685636857,29944.0,222328.0,29944.0,1.0,0.0,0.0,0.0,5.0,70.0,52.0,52.0,4.0,0.0,0.0,1.0
200000.0,0.8125,7.581457288728819E-8,200000.0,88.4,74.29294518635399,76.32653061224491,68.73315363881402,59702.0,411088.0,59702.0,1.0,0.0,0.0,0.0,0.0,133.0,100.0,100.0,4.0,0.0,0.0,1.0
300000.0,1.21875,1.420308318403032E-7,300000.0,87.6,73.4570861017878,74.94949494949495,68.36734693877551,89831.0,585168.0,89831.0,1.0,0.0,0.0,0.0,0.0,192.0,137.0,137.0,5.0,0.0,0.0,1.0
400000.0,1.640625,2.2401108354743982E-7,400000.0,91.0,80.74429710265858,80.21978021978022,76.37795275590553,119923.0,705632.0,119923.0,1.0,0.0,0.0,0.0,0.0,247.0,166.0,166.0,5.0,0.0,0.0,1.0
500000.0,2.03125,3.076635766774416E-7,500000.0,91.10000000000001,80.79263818509854,81.02345415778252,76.01078167115904,149866.0,781952.0,149866.0,1.0,0.0,0.0,0.0,0.0,277.0,184.0,184.0,5.0,0.0,0.0,1.0
600000.0,2.4375,4.0031471548395023E-7,600000.0,91.2,80.89813496335915,81.58995815899583,76.47058823529413,179971.0,835480.0,179971.0,1.0,0.0,0.0,0.0,0.0,300.0,197.0,197.0,5.0,0.0,0.0,1.0
700000.0,2.84375,5.005067861121561E-7,700000.0,91.3,80.92272607665994,80.13698630136987,75.83333333333334,209925.0,906904.0,209925.0,1.0,0.0,0.0,0.0,0.0,332.0,216.0,216.0,5.0,0.0,0.0,1.0
800000.0,3.28125,6.177891433859864E-7,800000.0,91.3,81.13142073895429,81.48936170212767,75.96685082872929,239901.0,989504.0,239901.0,1.0,0.0,0.0,0.0,0.0,361.0,235.0,235.0,6.0,0.0,0.0,1.0
900000.0,3.703125,7.431728105681636E-7,900000.0,91.3,80.9172025935057,80.4932735426009,75.42372881355934,269842.0,1101816.0,269842.0,1.0,0.0,0.0,0.0,0.0,404.0,267.0,267.0,6.0,0.0,0.0,1.0
1000000.0,4.15625,8.905052608396443E-7,1000000.0,93.30000000000001,85.63008845002274,86.2422997946612,82.4607329842932,299958.0,1209440.0,299958.0,1.0,0.0,0.0,0.0,0.0,436.0,289.0,289.0,6.0,0.0,0.0,1.0
1100000.0,4.59375,1.0423270092966654E-6,1100000.0,93.4,85.90707208746157,86.07594936708863,82.63157894736844,329733.0,1293720.0,329733.0,1.0,0.0,0.0,0.0,0.0,468.0,311.0,311.0,6.0,0.0,0.0,1.0
1200000.0,5.03125,1.1970280967135395E-6,1200000.0,92.9,84.94167550371156,85.3305785123967,81.60621761658032,359647.0,1319064.0,359647.0,1.0,0.0,0.0,0.0,0.0,479.0,318.0,318.0,6.0,0.0,0.0,1.0
1300000.0,5.5,1.3703889433398013E-6,1300000.0,93.89999999999999,86.85582782427318,86.82505399568034,83.81962864721484,389776.0,1381608.0,389776.0,1.0,0.0,0.0,0.0,0.0,504.0,335.0,335.0,6.0,0.0,0.0,1.0
1400000.0,6.03125,1.602396401317997E-6,1400000.0,93.8,86.96070967389154,87.16356107660455,84.38287153652392,419941.0,1639200.0,419941.0,1.0,0.0,0.0,0.0,0.0,605.0,402.0,402.0,7.0,0.0,0.0,1.0
1500000.0,6.5625,1.8602349963556559E-6,1500000.0,94.1,87.48525805822112,87.68267223382044,84.55497382198952,449864.0,1826376.0,449864.0,1.0,0.0,0.0,0.0,0.0,670.0,442.0,442.0,7.0,0.0,0.0,1.0
1600000.0,7.0625,2.1203937487573256E-6,1600000.0,94.39999999999999,88.30365385499036,88.1104033970276,85.89420654911838,479874.0,1961120.0,479874.0,1.0,0.0,0.0,0.0,0.0,713.0,471.0,471.0,7.0,0.0,0.0,1.0
1700000.0,7.578125,2.4042242956865163E-6,1700000.0,96.39999999999999,92.13901711510661,92.56198347107437,89.91596638655462,509732.0,2077240.0,509732.0,1.0,0.0,0.0,0.0,0.0,761.0,504.0,504.0,7.0,0.0,0.0,1.0
1800000.0,8.09375,2.704654212316705E-6,1800000.0,95.0,89.45276738289407,89.05908096280086,87.21227621483375,539822.0,2201280.0,539822.0,1.0,0.0,0.0,0.0,0.0,807.0,536.0,536.0,7.0,0.0,0.0,1.0
1900000.0,8.609375,3.0129105370077817E-6,1900000.0,96.0,91.27677484919724,91.1111111111111,88.85793871866295,569987.0,2259688.0,569987.0,1.0,0.0,0.0,0.0,0.0,828.0,548.0,548.0,7.0,0.0,0.0,1.0
2000000.0,9.125,3.329909943406366E-6,2000000.0,96.3,92.24968579807289,92.46435845213848,90.75,599779.0,2324960.0,599779.0,1.0,0.0,0.0,0.0,0.0,847.0,559.0,559.0,7.0,0.0,0.0,1.0
2100000.0,9.671875,3.6820155219174916E-6,2100000.0,96.1,91.85803757828809,91.48471615720524,90.25,629723.0,2437040.0,629723.0,1.0,0.0,0.0,0.0,0.0,904.0,601.0,601.0,7.0,0.0,0.0,1.0
2200000.0,10.21875,4.05358040653583E-6,2200000.0,96.1,91.79375820624178,92.19999999999999,90.15151515151514,659772.0,2574024.0,659772.0,1.0,0.0,0.0,0.0,0.0,948.0,629.0,629.0,7.0,0.0,0.0,1.0
2300000.0,10.78125,4.448980390508141E-6,2300000.0,95.6,90.27774708884813,89.81481481481481,87.24637681159419,689949.0,2664504.0,689949.0,1.0,0.0,0.0,0.0,0.0,972.0,644.0,644.0,7.0,0.0,0.0,1.0
2400000.0,11.328125,4.839185146718389E-6,2400000.0,95.5,90.29804408568766,90.15317286652078,87.63736263736263,719873.0,2705264.0,719873.0,1.0,0.0,0.0,0.0,0.0,985.0,652.0,652.0,7.0,0.0,0.0,1.0
2500000.0,11.890625,5.244862275301582E-6,2500000.0,95.8,90.9395278199641,90.94827586206897,88.52459016393442,749823.0,2734832.0,749823.0,1.0,0.0,0.0,0.0,0.0,997.0,658.0,658.0,7.0,0.0,0.0,1.0
2600000.0,12.4375,5.642189547264327E-6,2600000.0,95.7,90.73994314755792,91.18852459016392,88.31521739130433,779947.0,2755360.0,779947.0,1.0,0.0,0.0,0.0,0.0,1007.0,663.0,663.0,7.0,0.0,0.0,1.0
2700000.0,13.046875,6.102290644776076E-6,2700000.0,96.1,91.54167136573813,91.50326797385621,89.22651933701657,809985.0,2865168.0,809985.0,1.0,0.0,0.0,0.0,0.0,1058.0,699.0,699.0,7.0,0.0,0.0,1.0
2800000.0,13.625,6.55214366916981E-6,2800000.0,95.6,90.63510982462114,90.49676025917925,88.54166666666666,839998.0,2954056.0,839998.0,1.0,0.0,0.0,0.0,0.0,1084.0,715.0,715.0,8.0,0.0,0.0,1.0
2900000.0,14.21875,7.022734563280311E-6,2900000.0,96.8,93.18069454626045,93.24894514767932,91.53439153439152,869891.0,3009688.0,869891.0,1.0,0.0,0.0,0.0,0.0,1110.0,731.0,731.0,8.0,0.0,0.0,1.0
3000000.0,14.84375,7.533325697295368E-6,3000000.0,95.19999999999999,89.71700336339681,89.6551724137931,87.26790450928381,899984.0,3103504.0,899984.0,1.0,0.0,0.0,0.0,0.0,1156.0,760.0,760.0,8.0,0.0,0.0,1.0
3100000.0,15.453125,8.049717677446704E-6,3100000.0,96.7,92.74285060828106,92.69911504424778,90.65155807365439,929764.0,3220816.0,929764.0,1.0,0.0,0.0,0.0,0.0,1216.0,799.0,799.0,8.0,0.0,0.0,1.0
3200000.0,16.125,8.653535494684346E-6,3200000.0,96.0,91.36322807987285,91.1504424778761,89.24731182795698,959879.0,3418384.0,959879.0,1.0,0.0,0.0,0.0,0.0,1290.0,851.0,851.0,8.0,0.0,0.0,1.0
3300000.0,16.78125,9.267995935968228E-6,3300000.0,96.1,91.56450343043527,91.77215189873417,89.48787061994608,989986.0,3563208.0,989986.0,1.0,0.0,0.0,0.0,0.0,1330.0,877.0,877.0,8.0,0.0,0.0,1.0
3400000.0,17.5625,1.0012737087284527E-5,3400000.0,96.7,92.79947632555094,93.05263157894737,90.85872576177285,1019707.0,3628448.0,1019707.0,1.0,0.0,0.0,0.0,0.0,1360.0,895.0,895.0,8.0,4018.2973893303065,0.0,1.0159271437126425
3500000.0,18.21875,1.0653316664199036E-5,3500000.0,96.6,92.74694518397159,92.41071428571428,91.005291005291,1049292.0,3716456.0,1049292.0,1.0,0.0,0.0,0.0,0.0,1391.0,915.0,915.0,8.0,4018.2973893303065,0.0,1.0159271437126425
3600000.0,18.890625,1.1333523887313076E-5,3600000.0,96.89999999999999,93.26022489107653,93.41825902335455,91.34078212290501,1079112.0,3856144.0,1079112.0,1.0,0.0,0.0,0.0,0.0,1451.0,954.0,954.0,8.0,4018.2973893303065,0.0,1.0159271437126425
3700000.0,19.5625,1.2030025180946624E-5,3700000.0,95.8,90.87432643837997,90.66666666666666,88.33333333333331,1109386.0,3949448.0,1109386.0,1.0,0.0,0.0,0.0,0.0,1480.0,970.0,970.0,8.0,4018.2973893303065,0.0,1.0159271437126425
3800000.0,20.203125,1.270643221990516E-5,3800000.0,96.0,91.55330498059371,91.54334038054968,89.55613577023497,1139163.0,4023448.0,1139163.0,1.0,0.0,0.0,0.0,0.0,1501.0,985.0,985.0,8.0,4018.2973893303065,0.0,1.0159271437126425
3900000.0,20.890625,1.3446824224148362E-5,3900000.0,95.8,91.12219662220718,91.02564102564101,89.09090909090908,1169127.0,4104608.0,1169127.0,1.0,0.0,0.0,0.0,0.0,1534.0,1006.0,1006.0,8.0,4018.2973893303065,0.0,1.0159271437126425
4000000.0,21.5625,1.417918554377846E-5,4000000.0,96.2,91.91324185365521,91.7391304347826,90.15544041450777,1198972.0,4155080.0,1198972.0,1.0,0.0,0.0,0.0,0.0,1553.0,1020.0,1020.0,8.0,4018.2973893303065,0.0,1.0159271437126425
4100000.0,22.25,1.49458149745543E-5,4100000.0,97.5,94.67541318793661,94.60043196544275,93.42105263157893,1228880.0,4251648.0,1228880.0,1.0,0.0,0.0,0.0,0.0,1587.0,1043.0,1043.0,8.0,4018.2973893303065,0.0,1.0159271437126425
4200000.0,22.953125,1.5752129321400493E-5,4200000.0,96.8,92.99459270124126,93.23467230443974,90.98591549295773,1258911.0,4373640.0,1258911.0,1.0,0.0,0.0,0.0,0.0,1631.0,1074.0,1074.0,8.0,4018.2973893303065,0.0,1.0159271437126425
4300000.0,23.65625,1.6573090170924037E-5,4300000.0,97.39999999999999,94.55565792779964,94.61697722567287,93.46733668341707,1288946.0,4453800.0,1288946.0,1.0,0.0,0.0,0.0,0.0,1659.0,1091.0,1091.0,8.0,4018.2973893303065,0.0,1.0159271437126425
4400000.0,24.34375,1.7382809310220186E-5,4400000.0,97.6,94.73222124670764,95.05154639175257,93.18181818181817,1318965.0,4493040.0,1318965.0,1.0,0.0,0.0,0.0,0.0,1670.0,1098.0,1098.0,8.0,4018.2973893303065,0.0,1.0159271437126425
4500000.0,25.0625,1.8241391775922647E-5,4500000.0,97.6,94.88543371522094,94.97907949790795,93.61702127659574,1349153.0,4557704.0,1349153.0,1.0,0.0,0.0,0.0,0.0,1700.0,1119.0,1119.0,8.0,4018.2973893303065,0.0,1.0159271437126425
4600000.0,25.765625,1.909267445120754E-5,4600000.0,96.7,92.89509718645847,92.91845493562231,91.17647058823528,1379057.0,4619864.0,1379057.0,1.0,0.0,0.0,0.0,0.0,1731.0,1136.0,1136.0,8.0,4018.2973893303065,0.0,1.0159271437126425
4700000.0,26.484375,1.9974535259987336E-5,4700000.0,97.1,93.67160427013957,93.42403628117914,91.89944134078212,1409092.0,4682336.0,1409092.0,1.0,0.0,0.0,0.0,0.0,1742.0,1143.0,1143.0,8.0,4018.2973893303065,0.0,1.0159271437126425
4800000.0,27.171875,2.082137665840694E-5,4800000.0,97.5,94.66955505709971,94.80249480249479,93.36870026525197,1439400.0,4700920.0,1439400.0,1.0,0.0,0.0,0.0,0.0,1750.0,1147.0,1147.0,8.0,4018.2973893303065,0.0,1.0159271437126425
4900000.0,27.890625,2.1711097571015777E-5,4900000.0,97.5,94.57799446521675,94.60043196544275,93.0939226519337,1469219.0,4724408.0,1469219.0,1.0,0.0,0.0,0.0,0.0,1756.0,1150.0,1150.0,8.0,4018.2973893303065,0.0,1.0159271437126425
5000000.0,28.578125,2.256308685496657E-5,5000000.0,98.1,95.85894250468593,95.95744680851064,94.64788732394366,1499327.0,4729696.0,1499327.0,1.0,0.0,0.0,0.0,0.0,1768.0,1156.0,1156.0,8.0,4018.2973893303065,0.0,1.0159271437126425
5100000.0,29.421875,2.2631863862948705E-5,5100000.0,88.5,76.81657272338744,76.72064777327935,74.66960352422907,29454.0,275088.0,1529381.0,1.0,0.0,0.0,1.0,1.0,90.0,65.0,65.0,5.0,0.0,0.0,1.0
5200000.0,29.875,2.2697229707975775E-5,5200000.0,92.5,84.96957842673572,84.72505091649695,84.30962343096236,59422.0,516824.0,1559349.0,1.0,0.0,0.0,0.0,0.0,176.0,126.0,126.0,5.0,0.0,0.0,1.0
5300000.0,30.3125,2.2781713859229874E-5,5300000.0,94.89999999999999,89.71857108297718,89.67611336032387,88.8157894736842,89381.0,704976.0,1589308.0,1.0,0.0,0.0,0.0,0.0,246.0,173.0,173.0,6.0,0.0,0.0,1.0
5400000.0,30.734375,2.2870314941327615E-5,5400000.0,95.3,90.51463168516649,90.38854805725971,89.55555555555554,119326.0,770016.0,1619253.0,1.0,0.0,0.0,0.0,0.0,275.0,189.0,189.0,6.0,0.0,0.0,1.0
5500000.0,31.140625,2.2963660562204E-5,5500000.0,96.5,92.95411721127985,92.85714285714285,92.32456140350877,149170.0,845984.0,1649097.0,1.0,0.0,0.0,0.0,0.0,310.0,208.0,208.0,7.0,0.0,0.0,1.0
5600000.0,31.578125,2.3078069013232996E-5,5600000.0,96.89999999999999,93.76678945421205,93.50104821802935,93.31896551724137,178734.0,968088.0,1678661.0,1.0,0.0,0.0,0.0,0.0,375.0,248.0,248.0,7.0,0.0,0.0,1.0
5700000.0,32.03125,2.321584632025205E-5,5700000.0,96.1,92.08449697993115,91.89189189189189,91.196388261851,208792.0,1131768.0,1708719.0,1.0,0.0,0.0,0.0,0.0,447.0,290.0,290.0,7.0,0.0,0.0,1.0
5800000.0,32.46875,2.3359656624961656E-5,5800000.0,97.39999999999999,94.74959612277867,94.6611909650924,94.22222222222221,238856.0,1226656.0,1738783.0,1.0,0.0,0.0,0.0,0.0,475.0,307.0,307.0,7.0,0.0,0.0,1.0
5900000.0,32.90625,2.3509122386005615E-5,5900000.0,97.39999999999999,94.78590107651088,94.90196078431372,94.51476793248945,268865.0,1276336.0,1768792.0,1.0,0.0,0.0,0.0,0.0,499.0,319.0,319.0,7.0,0.0,0.0,1.0
6000000.0,33.328125,2.3656421237521713E-5,6000000.0,97.39999999999999,94.76816954350267,94.6611909650924,94.36008676789587,299099.0,1305272.0,1799026.0,1.0,0.0,0.0,0.0,0.0,516.0,329.0,329.0,7.0,0.0,0.0,1.0
6100000.0,33.75,2.381037147845039E-5,6100000.0,97.39999999999999,94.74755963539982,94.8,94.19642857142857,329210.0,1365888.0,1829137.0,1.0,0.0,0.0,0.0,0.0,538.0,340.0,340.0,7.0,0.0,0.0,1.0
6200000.0,34.203125,2.398344908013113E-5,6200000.0,98.1,96.16830421244535,95.94882729211088,95.83333333333333,359223.0,1431448.0,1859150.0,1.0,0.0,0.0,0.0,0.0,567.0,356.0,356.0,8.0,0.0,0.0,1.0
6300000.0,34.65625,2.4166964285541338E-5,6300000.0,98.3,96.59482413268168,96.48760330578511,96.46569646569645,389414.0,1520144.0,1889341.0,1.0,0.0,0.0,0.0,0.0,605.0,381.0,381.0,8.0,0.0,0.0,1.0
6400000.0,35.109375,2.435565515447202E-5,6400000.0,98.9,97.79703922071263,97.83037475345168,97.7035490605428,419609.0,1564040.0,1919536.0,1.0,0.0,0.0,0.0,0.0,625.0,391.0,391.0,8.0,0.0,0.0,1.0
6500000.0,35.5625,2.4551257536384392E-5,6500000.0,98.6,97.18774983829562,97.21669980119285,97.00214132762312,449546.0,1622608.0,1949473.0,1.0,0.0,0.0,0.0,0.0,663.0,410.0,410.0,8.0,0.0,0.0,1.0
6600000.0,36.0,2.474441862432287E-5,6600000.0,97.7,95.34062087239784,95.39999999999999,94.7845804988662,479664.0,1660440.0,1979591.0,1.0,0.0,0.0,0.0,0.0,675.0,416.0,416.0,8.0,0.0,0.0,1.0
6700000.0,36.46875,2.4958419089671235E-5,6700000.0,99.1,98.19422150882825,98.16700610997962,98.10526315789474,509462.0,1718176.0,2009389.0,1.0,0.0,0.0,0.0,0.0,710.0,435.0,435.0,8.0,0.0,0.0,1.0
6800000.0,36.90625,2.516483419135007E-5,6800000.0,98.8,97.59136746098015,97.61904761904762,97.43589743589743,539442.0,1777000.0,2039369.0,1.0,0.0,0.0,0.0,0.0,735.0,452.0,452.0,8.0,0.0,0.0,1.0
6900000.0,37.359375,2.5385045123079594E-5,6900000.0,98.5,96.98310539018503,97.01195219123507,96.77419354838709,569432.0,1831512.0,2069359.0,1.0,0.0,0.0,0.0,0.0,751.0,460.0,460.0,9.0,0.0,0.0,1.0
7000000.0,37.796875,2.560217353877509E-5,7000000.0,98.7,97.39645918449091,97.32510288065843,97.30848861283644,599571.0,1871192.0,2099498.0,1.0,0.0,0.0,0.0,0.0,766.0,469.0,469.0,9.0,0.0,0.0,1.0
7100000.0,38.265625,2.584026324459249E-5,7100000.0,99.0,97.98517085751128,98.00399201596807,97.79735682819383,629479.0,1915976.0,2129406.0,1.0,0.0,0.0,0.0,0.0,788.0,483.0,483.0,9.0,0.0,0.0,1.0
7200000.0,38.765625,2.6103504674716135E-5,7200000.0,99.0,97.98374088650881,98.01980198019803,97.81659388646288,659367.0,1987416.0,2159294.0,1.0,0.0,0.0,0.0,0.0,819.0,503.0,503.0,9.0,0.0,0.0,1.0
7300000.0,39.234375,2.635722216736112E-5,7300000.0,98.8,97.58376288659794,97.44680851063829,97.37991266375545,689123.0,2044272.0,2189050.0,1.0,0.0,0.0,0.0,0.0,840.0,515.0,515.0,9.0,0.0,0.0,1.0
7400000.0,39.703125,2.661564671951864E-5,7400000.0,98.6,97.16313206430775,97.1252566735113,96.83972911963882,718973.0,2082912.0,2218900.0,1.0,0.0,0.0,0.0,0.0,859.0,526.0,526.0,9.0,0.0,0.0,1.0
7500000.0,40.171875,2.6878015810830732E-5,7500000.0,99.1,98.17995033286687,98.20359281437125,97.9955456570156,748805.0,2115256.0,2248732.0,1.0,0.0,0.0,0.0,0.0,873.0,533.0,533.0,10.0,0.0,0.0,1.0
7600000.0,40.671875,2.716071670874954E-5,7600000.0,99.1,98.19493136727931,98.24561403508771,98.09725158562368,778918.0,2137112.0,2278845.0,1.0,0.0,0.0,0.0,0.0,879.0,536.0,536.0,10.0,0.0,0.0,1.0
7700000.0,41.125,2.742007662568035E-5,7700000.0,98.7,97.38966306574032,97.42574257425743,97.23404255319149,809101.0,2163928.0,2309028.0,1.0,0.0,0.0,0.0,0.0,891.0,542.0,542.0,10.0,0.0,0.0,1.0
7800000.0,41.625,2.7709234693449826E-5,7800000.0,98.8,97.59491083131907,97.55102040816325,97.48427672955975,839039.0,2186704.0,2338966.0,1.0,0.0,0.0,0.0,0.0,920.0,558.0,558.0,10.0,0.0,0.0,1.0
7900000.0,42.15625,2.8026337353771355E-5,7900000.0,98.9,97.79237043221373,97.72256728778468,97.67441860465115,869142.0,2258240.0,2369069.0,1.0,0.0,0.0,0.0,0.0,951.0,578.0,578.0,10.0,0.0,0.0,1.0
8000000.0,42.65625,2.833294426737768E-5,8000000.0,98.5,96.97495260759085,96.91358024691358,96.7032967032967,899161.0,2321040.0,2399088.0,1.0,0.0,0.0,0.0,0.0,964.0,586.0,586.0,10.0,0.0,0.0,1.0
8100000.0,43.15625,2.8643743167372635E-5,8100000.0,99.5,98.99404474488975,98.97750511247445,98.92008639308855,929331.0,2353344.0,2429258.0,1.0,0.0,0.0,0.0,0.0,980.0,597.0,597.0,10.0,0.0,0.0,1.0
8200000.0,43.671875,2.8970374583473643E-5,8200000.0,99.3,98.59575355876169,98.65384615384615,98.52008456659618,959473.0,2398952.0,2459400.0,1.0,0.0,0.0,0.0,0.0,1000.0,607.0,607.0,10.0,0.0,0.0,1.0
8300000.0,44.171875,2.929064710365816E-5,8300000.0,98.8,97.59974077200337,97.61431411530815,97.58064516129032,989381.0,2426200.0,2489308.0,1.0,0.0,0.0,0.0,0.0,1004.0,609.0,609.0,10.0,0.0,0.0,1.0
8400000.0,44.765625,2.9673626219543325E-5,8400000.0,99.3,98.58882348197726,98.57142857142857,98.46153846153845,1019323.0,2443432.0,2519250.0,1.0,0.0,0.0,0.0,0.0,1013.0,615.0,615.0,10.0,3866.588617886179,0.0,1.0209995828343046
8500000.0,45.265625,2.9999984415351524E-5,8500000.0,99.0,97.98293563547612,97.99196787148594,97.8401727861771,1049351.0,2473032.0,2549278.0,1.0,0.0,0.0,0.0,0.0,1032.0,626.0,626.0,10.0,3866.588617886179,0.0,1.0209995828343046
8600000.0,45.78125,3.0342182209197852E-5,8600000.0,99.5,98.99165086919695,99.02912621359224,98.89867841409692,1079361.0,2515120.0,2579288.0,1.0,0.0,0.0,0.0,0.0,1049.0,636.0,636.0,10.0,3866.588617886179,0.0,1.0209995828343046
8700000.0,46.3125,3.070147733928429E-5,8700000.0,99.8,99.59673516791948,99.6124031007752,99.55947136563876,1109757.0,2563840.0,2609684.0,1.0,0.0,0.0,0.0,0.0,1070.0,648.0,648.0,10.0,3866.588617886179,0.0,1.0209995828343046
8800000.0,46.8125,3.10450618983143E-5,8800000.0,99.0,97.9814291481631,97.88135593220339,97.79735682819383,1139830.0,2605616.0,2639757.0,1.0,0.0,0.0,0.0,0.0,1081.0,655.0,655.0,10.0,3866.588617886179,0.0,1.0209995828343046
8900000.0,47.3125,3.139037147371306E-5,8900000.0,99.5,98.98886129603714,98.99193548387096,98.88641425389754,1169857.0,2618872.0,2669784.0,1.0,0.0,0.0,0.0,0.0,1089.0,659.0,659.0,10.0,3866.588617886179,0.0,1.0209995828343046
9000000.0,47.828125,3.1747815503169686E-5,9000000.0,99.3,98.5819051091933,98.6111111111111,98.41628959276018,1199668.0,2628880.0,2699595.0,1.0,0.0,0.0,0.0,0.0,1097.0,663.0,663.0,10.0,3866.588617886179,0.0,1.0209995828343046
9100000.0,48.359375,3.211767881617158E-5,9100000.0,99.4,98.79952461174625,98.8394584139265,98.77300613496932,1229890.0,2640360.0,2729817.0,1.0,0.0,0.0,0.0,0.0,1103.0,666.0,666.0,10.0,3866.588617886179,0.0,1.0209995828343046
9200000.0,48.875,3.247893467131589E-5,9200000.0,99.1,98.19035822864221,98.17444219066937,98.0561555075594,1259863.0,2657312.0,2759790.0,1.0,0.0,0.0,0.0,0.0,1105.0,667.0,667.0,10.0,3866.588617886179,0.0,1.0209995828343046
9300000.0,49.375,3.283002465549444E-5,9300000.0,99.6,99.19510300669272,99.20477137176938,99.13232104121475,1289896.0,2663312.0,2789823.0,1.0,0.0,0.0,0.0,0.0,1111.0,670.0,670.0,10.0,3866.588617886179,0.0,1.0209995828343046
9400000.0,49.90625,3.320725447136082E-5,9400000.0,99.1,98.18690218135812,98.15573770491804,98.03063457330416,1320073.0,2693664.0,2820000.0,1.0,0.0,0.0,0.0,0.0,1125.0,677.0,677.0,10.0,3866.588617886179,0.0,1.0209995828343046
9500000.0,50.4375,3.358652601794651E-5,9500000.0,99.4,98.77459490149785,98.80952380952381,98.6013986013986,1349869.0,2708448.0,2849796.0,1.0,0.0,0.0,0.0,0.0,1131.0,680.0,680.0,10.0,3866.588617886179,0.0,1.0209995828343046
9600000.0,50.96875,3.397013500539794E-5,9600000.0,98.9,97.7943181635894,97.86407766990291,97.69392033542977,1379841.0,2739880.0,2879768.0,1.0,0.0,0.0,0.0,0.0,1142.0,687.0,687.0,10.0,3866.588617886179,0.0,1.0209995828343046
9700000.0,51.484375,3.4342574492459095E-5,9700000.0,99.2,98.39424497398677,98.36065573770492,98.30148619957538,1409934.0,2740704.0,2909861.0,1.0,0.0,0.0,0.0,0.0,1148.0,690.0,690.0,10.0,3866.588617886179,0.0,1.0209995828343046
9800000.0,52.0,3.4718738299691025E-5,9800000.0,99.6,99.19830361043968,99.19678714859438,99.16142557651992,1439613.0,2768488.0,2939540.0,1.0,0.0,0.0,0.0,0.0,1154.0,693.0,693.0,10.0,3866.588617886179,0.0,1.0209995828343046
9900000.0,52.53125,3.510767755667783E-5,9900000.0,99.1,98.19236454785012,98.2,98.07692307692307,1469463.0,2778432.0,2969390.0,1.0,0.0,0.0,0.0,0.0,1160.0,696.0,696.0,10.0,3866.588617886179,0.0,1.0209995828343046
1.0E7,53.0625,3.549911812620445E-5,1.0E7,98.7,97.37320670842594,97.44094488188976,97.10467706013362,1499501.0,2796544.0,2999428.0,1.0,0.0,0.0,0.0,0.0,1173.0,704.0,704.0,10.0,3866.588617886179,0.0,1.0209995828343046
