learning evaluation instances,evaluation time (cpu seconds),model cost (RAM-Hours),classified instances,classifications correct (percent),Kappa Statistic (percent),Kappa Temporal Statistic (percent),Kappa M Statistic (percent),model training instances,model serialized size (bytes),labeling cost,newThreshold,maxPosterior,accuracyBaseLearner (percent),Change detected,Warning detected
100000.0,0.140625,3.2052048482000826E-9,100000.0,63.0,27.631192911768732,20.940170940170937,17.960088691796003,19900.0,5144.0,0.0,1.0,0.0,?,0.0,3.0
200000.0,0.296875,6.169915044059356E-9,200000.0,62.9,27.46369274324102,24.43991853360489,15.489749430523908,39900.0,5144.0,0.0,1.0,0.0,?,0.0,50.0
300000.0,0.4375,8.285181441654762E-9,300000.0,63.3,27.846807172066683,23.060796645702304,19.340659340659336,59900.0,5144.0,0.0,1.0,0.0,?,0.0,21.0
400000.0,0.578125,9.847475060572227E-9,400000.0,62.9,28.28478864309408,22.54697286012526,13.519813519813532,79900.0,5144.0,0.0,1.0,0.0,?,0.0,0.0
500000.0,0.71875,1.0856795900811752E-8,500000.0,62.9,26.691432184634838,20.8955223880597,20.726495726495724,99900.0,5144.0,0.0,1.0,0.0,?,0.0,0.0
600000.0,0.828125,1.3362182976884975E-8,600000.0,64.2,29.63836477987422,27.67676767676768,20.44444444444444,119800.0,5144.0,0.0,1.0,0.0,?,0.0,0.0
700000.0,0.96875,1.603042215315832E-8,700000.0,62.4,26.768463695855406,22.633744855967073,14.545454545454534,139800.0,5144.0,0.0,1.0,0.0,?,0.0,0.0
800000.0,1.109375,1.814568855075373E-8,800000.0,63.0,27.970721071484196,21.610169491525422,15.909090909090901,159800.0,5144.0,0.0,1.0,0.0,?,0.0,0.0
900000.0,1.25,1.9695758560879365E-8,900000.0,62.6,27.061393244402836,24.291497975708502,15.384615384615374,179800.0,5144.0,0.0,1.0,0.0,?,0.0,17.0
1000000.0,1.390625,2.0668408574743405E-8,1000000.0,64.0,29.419791474695035,27.710843373493976,20.529801324503307,199800.0,5144.0,0.0,1.0,0.0,?,0.0,55.0
1100000.0,1.53125,2.3858479431105986E-8,1100000.0,62.7,26.693133131559293,25.100401606425706,17.29490022172948,219700.0,5144.0,0.0,1.0,0.0,?,0.0,0.0
1200000.0,1.671875,2.6532248335166112E-8,1200000.0,61.6,24.008549038233195,20.661157024793383,16.883116883116873,239700.0,5144.0,0.0,1.0,0.0,?,0.0,6.0
1300000.0,1.84375,2.910868109514316E-8,1300000.0,61.4,24.13760573566868,24.90272373540856,16.45021645021644,259700.0,5144.0,0.0,1.0,0.0,?,0.0,23.0
1400000.0,2.015625,3.1024909630003905E-8,1400000.0,64.5,30.419443355546843,28.571428571428577,19.318181818181813,279700.0,5144.0,0.0,1.0,0.0,?,0.0,21.0
1500000.0,2.15625,3.202317101466987E-8,1500000.0,64.1,29.819211160113856,26.883910386965375,19.144144144144136,299700.0,5144.0,0.0,1.0,0.0,?,0.0,67.0
1600000.0,2.28125,3.487663990300563E-8,1600000.0,61.9,26.21712692203417,14.189189189189177,6.845965770171154,319600.0,5144.0,0.0,1.0,0.0,?,0.0,0.0
1700000.0,2.390625,3.694333524132769E-8,1700000.0,65.8,32.892753987190765,25.813449023861175,22.972972972972972,339600.0,5144.0,0.0,1.0,0.0,?,0.0,0.0
1800000.0,2.53125,3.904754218334953E-8,1800000.0,61.8,25.92276575692583,21.721311475409834,11.778290993071602,359600.0,5144.0,0.0,1.0,0.0,?,0.0,0.0
1900000.0,2.6875,4.0771135698176093E-8,1900000.0,63.2,28.08707716960116,23.01255230125523,14.617169373549896,379600.0,5144.0,0.0,1.0,0.0,?,0.0,0.0
2000000.0,2.828125,4.176939708284206E-8,2000000.0,62.9,27.428504362114147,25.94810379241517,16.62921348314606,399600.0,5144.0,0.0,1.0,0.0,?,0.0,0.0
2100000.0,2.984375,4.5342377335247065E-8,2100000.0,63.9,29.092223322176668,30.84291187739464,16.435185185185198,419500.0,5144.0,0.0,1.0,0.0,?,0.0,0.0
2200000.0,3.125,4.800508678373363E-8,2200000.0,63.3,28.272681077277873,26.305220883534137,17.52808988764044,439500.0,5144.0,0.0,1.0,0.0,?,0.0,0.0
2300000.0,3.265625,5.011482345354226E-8,2300000.0,62.8,26.521421375945632,24.848484848484848,20.34261241970021,459500.0,5144.0,0.0,1.0,0.0,?,0.0,0.0
2400000.0,3.40625,5.1671587344672945E-8,2400000.0,61.9,25.768616295834473,23.030303030303028,12.413793103448285,479500.0,5144.0,0.0,1.0,0.0,?,0.0,0.0
2500000.0,3.546875,5.267537845712569E-8,2500000.0,61.3,23.873445011841902,19.20668058455114,13.808463251670366,499500.0,5144.0,0.0,1.0,0.0,?,0.0,0.0
2600000.0,3.671875,5.55337626590497E-8,2600000.0,62.9,27.601845274800755,23.662551440329217,15.489749430523908,519400.0,5144.0,0.0,1.0,0.0,?,0.0,0.0
2700000.0,3.8125,5.8196472107536264E-8,2700000.0,64.0,29.70864232242645,25.311203319502074,18.3673469387755,539400.0,5144.0,0.0,1.0,0.0,?,0.0,0.0
2800000.0,3.953125,6.030620877734488E-8,2800000.0,64.2,30.21768962075849,25.72614107883818,15.962441314554003,559400.0,5144.0,0.0,1.0,0.0,?,0.0,0.0
2900000.0,4.09375,6.186297266847556E-8,2900000.0,65.10000000000001,31.09085739558981,32.49516441005804,25.427350427350426,579400.0,5144.0,0.0,1.0,0.0,?,0.0,0.0
3000000.0,4.21875,6.275523143510023E-8,3000000.0,64.2,29.666011787819258,22.844827586206897,20.44444444444444,599400.0,5144.0,0.0,1.0,0.0,?,0.0,0.0
3100000.0,4.359375,6.597644339005151E-8,3100000.0,62.6,26.563279283383263,26.953125,18.87201735357917,619300.0,5144.0,0.0,1.0,0.0,?,0.0,0.0
3200000.0,4.515625,6.894115358591079E-8,3200000.0,64.5,30.551751660889092,28.714859437751006,19.86455981941309,639300.0,5144.0,0.0,1.0,0.0,?,0.0,0.0
3300000.0,4.640625,7.080457483728726E-8,3300000.0,64.3,30.850404437970695,28.45691382765531,16.588785046728987,659300.0,5144.0,0.0,1.0,0.0,?,0.0,3.0
3400000.0,4.78125,7.238345763956506E-8,3400000.0,63.0,27.714327020384566,24.024640657084188,12.529550827423177,679300.0,5144.0,0.0,1.0,0.0,?,0.0,30.0
3500000.0,4.921875,7.340936766316492E-8,3500000.0,63.9,29.356419368473784,29.35420743639922,19.599109131403115,699300.0,5144.0,0.0,1.0,0.0,?,0.0,18.0
3600000.0,5.0625,7.661311731984217E-8,3600000.0,65.10000000000001,31.224480143778283,31.027667984189726,22.616407982261638,719200.0,5144.0,0.0,1.0,0.0,?,0.0,66.0
3700000.0,5.21875,7.95862352889445E-8,3700000.0,66.7,34.42455081801928,33.13253012048193,27.292576419213976,739200.0,5144.0,0.0,1.0,0.0,?,0.0,31.0
3800000.0,5.375,8.194332218004597E-8,3800000.0,63.2,27.54308036417478,22.19873150105708,16.74208144796379,759200.0,5144.0,0.0,1.0,0.0,?,0.0,2.0
3900000.0,5.515625,8.351172760335935E-8,3900000.0,62.9,27.578102429159273,26.824457593688365,15.296803652968027,779200.0,5144.0,0.0,1.0,0.0,?,0.0,55.0
4000000.0,5.671875,8.463998609739873E-8,4000000.0,63.5,28.10091873236995,26.411290322580644,19.956140350877188,799200.0,5144.0,0.0,1.0,0.0,?,0.0,0.0
4100000.0,5.796875,8.751363364151782E-8,4100000.0,59.5,20.530892879567993,20.275590551181097,11.378555798687076,819100.0,5144.0,0.0,1.0,0.0,?,0.0,0.0
4200000.0,5.9375,9.019351434997386E-8,4200000.0,63.9,28.964974419519873,28.08764940239044,21.350762527233112,839100.0,5144.0,0.0,1.0,0.0,?,0.0,0.0
4300000.0,6.078125,9.232042227975196E-8,4300000.0,60.9,22.292973376896956,20.68965517241379,19.712525667351123,859100.0,5144.0,0.0,1.0,0.0,?,0.0,0.0
4400000.0,6.21875,9.389435743085211E-8,4400000.0,61.7,25.27470812261971,25.1953125,15.07760532150775,879100.0,5144.0,0.0,1.0,0.0,?,0.0,0.0
4500000.0,6.375,9.50287600668768E-8,4500000.0,62.0,25.637172020790285,19.83122362869198,12.844036697247715,899100.0,5144.0,0.0,1.0,0.0,?,0.0,0.0
4600000.0,6.515625,9.826161355401078E-8,4600000.0,63.3,27.690998218873634,25.557809330628807,20.04357298474945,919000.0,5144.0,0.0,1.0,0.0,?,0.0,0.0
4700000.0,6.65625,1.0094149426246681E-7,4700000.0,64.5,30.83697007481298,24.307036247334754,15.476190476190489,939000.0,5144.0,0.0,1.0,0.0,?,0.0,0.0
4800000.0,6.796875,1.0306840219224491E-7,4800000.0,64.9,31.242262305872025,29.940119760479046,20.76749435665914,959000.0,5144.0,0.0,1.0,0.0,?,0.0,0.0
4900000.0,6.9375,1.0464233734334507E-7,4900000.0,64.4,30.256249510226475,27.789046653144016,19.45701357466063,979000.0,5144.0,0.0,1.0,0.0,?,0.0,0.0
5000000.0,7.078125,1.0574740978578724E-7,5000000.0,64.3,30.367006834566045,26.69404517453799,18.67881548974942,999000.0,5144.0,0.0,1.0,0.0,?,0.0,0.0
5100000.0,7.203125,1.0867512577937707E-7,5100000.0,62.2,10.059532024041214,19.57446808510638,-1.8867924528301903,11285.0,5144.0,0.0,1.0,0.0,?,2.0,52.0
5200000.0,7.359375,1.117203565728333E-7,5200000.0,63.4,14.653085780644428,25.0,3.9370078740157513,31285.0,5144.0,0.0,1.0,0.0,?,0.0,0.0
5300000.0,7.53125,1.1439425482725102E-7,5300000.0,64.9,16.97888283378748,21.999999999999996,5.8981233243967885,51285.0,5144.0,0.0,1.0,0.0,?,0.0,0.0
5400000.0,7.671875,1.1602901698400575E-7,5400000.0,62.4,8.626530384108799,16.629711751662963,-3.5812672176308578,71285.0,5144.0,0.0,1.0,0.0,?,0.0,0.0
5500000.0,7.8125,1.1715009653319913E-7,5500000.0,63.9,14.442000682567993,24.63465553235908,0.8241758241758249,91285.0,5144.0,0.0,1.0,0.0,?,0.0,15.0
5600000.0,7.953125,1.204830671971043E-7,5600000.0,62.8,14.873752282619144,25.301204819277107,4.8593350383631755,111185.0,5144.0,0.0,1.0,0.0,?,0.0,0.0
5700000.0,8.09375,1.2324764005218942E-7,5700000.0,61.6,8.978856546885352,14.093959731543611,-2.6737967914438525,47296.0,5144.0,0.0,1.0,0.0,?,1.0,17.0
5800000.0,8.234375,1.2546360570316513E-7,5800000.0,64.5,15.75859974181791,25.57651991614256,4.5698924731182835,67296.0,5144.0,0.0,1.0,0.0,?,0.0,113.0
5900000.0,8.375,1.271265985754629E-7,5900000.0,61.199999999999996,10.779985283296547,18.315789473684205,0.5128205128205132,87296.0,5144.0,0.0,1.0,0.0,?,0.0,0.0
6000000.0,8.53125,1.2835995423504048E-7,6000000.0,63.6,15.840485350695477,23.20675105485232,5.699481865284979,107296.0,5144.0,0.0,1.0,0.0,?,0.0,0.0
6100000.0,8.671875,1.3168390271150404E-7,6100000.0,59.9,8.062948221786096,17.319587628865975,-0.5012531328320806,127196.0,5144.0,0.0,1.0,0.0,?,0.0,73.0
6200000.0,8.796875,1.3414673351993164E-7,6200000.0,61.1,10.508880095702573,14.505494505494495,-1.0389610389610398,147196.0,5144.0,0.0,1.0,0.0,?,0.0,11.0
6300000.0,8.9375,1.3636444540073474E-7,6300000.0,67.30000000000001,17.84992915498478,28.13186813186814,5.491329479768792,167196.0,5144.0,0.0,1.0,0.0,?,0.0,0.0
6400000.0,9.0625,1.3784421349151268E-7,6400000.0,63.800000000000004,14.255801945114232,22.1505376344086,1.8970189701897036,187196.0,5144.0,0.0,1.0,0.0,?,0.0,0.0
6500000.0,9.21875,1.3906010685281621E-7,6500000.0,63.3,16.52488786585755,24.016563146997928,6.615776081424942,207196.0,5144.0,0.0,1.0,0.0,?,0.0,14.0
6600000.0,9.375,1.427695517324739E-7,6600000.0,63.800000000000004,14.744894114100534,21.47505422993492,3.7234042553191524,227096.0,5144.0,0.0,1.0,0.0,?,0.0,12.0
6700000.0,9.53125,1.4586458241360056E-7,6700000.0,65.8,20.23360823972834,24.16851441241685,9.52380952380953,247096.0,5144.0,0.0,1.0,0.0,?,0.0,0.0
6800000.0,9.671875,1.480971372479366E-7,6800000.0,64.1,11.866370760256899,20.57522123893805,-0.5602240896358549,267096.0,5144.0,0.0,1.0,0.0,?,0.0,0.0
6900000.0,9.8125,1.497767193035947E-7,6900000.0,63.5,15.004796989539779,21.50537634408602,4.450261780104716,287096.0,5144.0,0.0,1.0,0.0,?,0.0,0.0
7000000.0,9.953125,1.5089430639313327E-7,7000000.0,61.1,11.143394916214376,19.294605809128626,2.506265664160403,307096.0,5144.0,0.0,1.0,0.0,?,0.0,12.0
7100000.0,10.09375,1.5423833651261196E-7,7100000.0,61.9,9.574215597854472,12.413793103448285,-5.248618784530391,326996.0,5144.0,0.0,1.0,0.0,?,0.0,20.0
7200000.0,10.265625,1.576496288180351E-7,7200000.0,67.30000000000001,21.212413261372422,30.866807610993664,8.146067415730345,346996.0,5144.0,0.0,1.0,0.0,?,0.0,0.0
7300000.0,10.4375,1.6038506550507411E-7,7300000.0,63.2,14.18110585107624,21.03004291845493,4.9095607235142165,366996.0,5144.0,0.0,1.0,0.0,?,0.0,0.0
7400000.0,10.578125,1.6207017728851898E-7,7400000.0,62.7,12.430625334547878,18.913043478260864,1.5831134564643814,386996.0,5144.0,0.0,1.0,0.0,?,0.0,0.0
7500000.0,10.734375,1.6332810951603782E-7,7500000.0,59.3,9.587702150346539,16.768916155419216,0.9732360097323608,406996.0,5144.0,0.0,1.0,0.0,?,0.0,0.0
7600000.0,10.859375,1.6630058073335222E-7,7600000.0,66.9,20.864134956535068,25.950782997762868,8.310249307479232,426896.0,5144.0,0.0,1.0,0.0,?,0.0,0.0
7700000.0,11.015625,1.6940175555646418E-7,7700000.0,64.3,14.186817941445137,23.717948717948715,3.5135135135135167,446896.0,5144.0,0.0,1.0,0.0,?,0.0,0.0
7800000.0,11.15625,1.71639840118587E-7,7800000.0,64.0,15.35983824324642,20.704845814977972,2.4390243902439046,466896.0,5144.0,0.0,1.0,0.0,?,0.0,0.0
7900000.0,11.296875,1.7332495190203186E-7,7900000.0,65.8,19.08925732455144,24.669603524229075,8.064516129032265,486896.0,5144.0,0.0,1.0,0.0,?,0.0,0.0
8000000.0,11.453125,1.745828841295507E-7,8000000.0,63.2,13.801180549048997,23.333333333333332,1.6042780748663117,506896.0,5144.0,0.0,1.0,0.0,?,0.0,0.0
8100000.0,11.625,1.7867679060954183E-7,8100000.0,64.0,12.959381044487426,24.050632911392405,-1.1235955056179785,526796.0,5144.0,0.0,1.0,0.0,?,0.0,0.0
8200000.0,11.765625,1.8147337767812938E-7,8200000.0,60.6,10.291438979963573,12.249443207126937,1.5000000000000013,546796.0,5144.0,0.0,1.0,0.0,?,0.0,0.0
8300000.0,11.90625,1.8371699196803899E-7,8300000.0,63.7,15.450047981515484,24.532224532224532,5.221932114882511,566796.0,5144.0,0.0,1.0,0.0,?,0.0,0.0
8400000.0,12.046875,1.8540763347927065E-7,8400000.0,64.60000000000001,14.004615571480622,23.043478260869563,-2.6086956521739157,586796.0,5144.0,0.0,1.0,0.0,?,0.0,0.0
8500000.0,12.1875,1.8654530221182438E-7,8500000.0,62.9,11.333957899164465,16.44144144144143,-0.8152173913043484,606796.0,5144.0,0.0,1.0,0.0,?,0.0,0.0
8600000.0,12.359375,1.9063920869181551E-7,8600000.0,61.4,10.508939832331782,22.334004024144864,-0.5208333333333338,626696.0,5144.0,0.0,1.0,0.0,?,0.0,0.0
8700000.0,12.53125,1.9405725955342252E-7,8700000.0,63.3,15.120958416207964,21.41327623126338,4.6753246753246795,646696.0,5144.0,0.0,1.0,0.0,?,0.0,0.0
8800000.0,12.6875,1.9655016431998873E-7,8800000.0,62.5,13.68992819002025,22.680412371134018,1.3157894736842117,666696.0,5144.0,0.0,1.0,0.0,?,0.0,0.0
8900000.0,12.828125,1.982408058312204E-7,8900000.0,63.9,16.760436073859545,24.159663865546218,7.90816326530613,686696.0,5144.0,0.0,1.0,0.0,?,0.0,0.0
9000000.0,12.953125,1.992520669268237E-7,9000000.0,62.7,12.410061806090438,21.802935010482177,0.7978723404255326,706696.0,5144.0,0.0,1.0,0.0,?,0.0,0.0
9100000.0,13.09375,2.0260715650187596E-7,9100000.0,64.3,13.071004188175698,26.239669421487605,-0.5633802816901414,726596.0,5144.0,0.0,1.0,0.0,?,0.0,0.0
9200000.0,13.234375,2.0540927329825027E-7,9200000.0,62.3,11.884594528898115,19.787234042553187,1.822916666666668,746596.0,5144.0,0.0,1.0,0.0,?,0.0,0.0
9300000.0,13.390625,2.079083222068018E-7,9300000.0,61.8,14.260960905691542,22.672064777327932,7.50605326876514,766596.0,5144.0,0.0,1.0,0.0,?,0.0,0.0
9400000.0,13.546875,2.097929569168223E-7,9400000.0,60.9,11.108079843586598,22.111553784860554,2.9776674937965284,786596.0,5144.0,0.0,1.0,0.0,?,0.0,0.0
9500000.0,13.6875,2.109361553771628E-7,9500000.0,62.2,13.859504395899902,23.014256619144604,4.785894206549123,806596.0,5144.0,0.0,1.0,0.0,?,0.0,0.0
9600000.0,13.828125,2.1429124495221504E-7,9600000.0,63.2,15.599040397785396,24.123711340206185,6.36132315521629,826496.0,5144.0,0.0,1.0,0.0,?,0.0,0.0
9700000.0,13.96875,2.1709336174858936E-7,9700000.0,64.2,16.179273335175203,24.47257383966245,4.021447721179628,846496.0,5144.0,0.0,1.0,0.0,?,0.0,0.0
9800000.0,14.109375,2.1934250576628573E-7,9800000.0,64.3,18.852570805109792,25.0,9.62025316455697,866496.0,5144.0,0.0,1.0,0.0,?,0.0,0.0
9900000.0,14.25,2.2103867700530416E-7,9900000.0,65.0,15.005633912266378,22.907488986784138,0.5681818181818187,886496.0,5144.0,0.0,1.0,0.0,?,0.0,0.0
1.0E7,14.390625,2.2218187546564466E-7,1.0E7,63.3,15.493865821758837,24.173553719008265,5.655526992287922,906496.0,5144.0,0.0,1.0,0.0,?,0.0,0.0
