learning evaluation instances,evaluation time (cpu seconds),model cost (RAM-Hours),classified instances,classifications correct (percent),Kappa Statistic (percent),Kappa Temporal Statistic (percent),Kappa M Statistic (percent),model training instances,model serialized size (bytes),labeling cost,newThreshold,maxPosterior,accuracyBaseLearner (percent),Change detected,Warning detected,tree size (nodes),tree size (leaves),active learning leaves,tree depth,active leaf byte size estimate,inactive leaf byte size estimate,byte size estimate overhead
100000.0,0.921875,5.428407651682695E-8,100000.0,74.2,47.95344051965867,43.66812227074235,27.731092436974787,33515.0,119672.0,0.0,1.0,0.0,?,7.0,106.0,37.0,28.0,28.0,5.0,0.0,0.0,1.0
200000.0,1.609375,9.462625409166019E-8,200000.0,75.6,50.01454494798644,48.19532908704883,35.62005277044855,73515.0,133216.0,0.0,1.0,0.0,?,0.0,0.0,41.0,30.0,30.0,7.0,0.0,0.0,1.0
300000.0,2.390625,1.726520066666934E-7,300000.0,75.1,48.1185148143518,49.696969696969695,34.81675392670157,113515.0,306232.0,0.0,1.0,0.0,?,0.0,0.0,104.0,70.0,70.0,7.0,0.0,0.0,1.0
400000.0,3.15625,2.6340188924223185E-7,400000.0,83.2,65.05125815470643,65.92292089249491,54.0983606557377,153515.0,392272.0,0.0,1.0,0.0,?,0.0,0.0,144.0,90.0,90.0,8.0,0.0,0.0,1.0
500000.0,3.890625,3.7254807668634587E-7,500000.0,83.3,65.16885803911099,65.06276150627615,57.50636132315521,193515.0,522608.0,0.0,1.0,0.0,?,0.0,0.0,194.0,124.0,124.0,8.0,0.0,0.0,1.0
600000.0,4.71875,5.780557532691293E-7,600000.0,84.89999999999999,68.6737589829552,68.54166666666666,61.57760814249363,233315.0,849080.0,0.0,1.0,0.0,?,0.0,0.0,280.0,194.0,194.0,9.0,0.0,0.0,1.0
700000.0,5.53125,8.033420373168256E-7,700000.0,86.2,70.68084184226294,70.0,61.98347107438016,273315.0,975664.0,0.0,1.0,0.0,?,0.0,0.0,322.0,224.0,224.0,9.0,0.0,0.0,1.0
800000.0,6.3125,1.0249191998607583E-6,800000.0,86.6,71.44075021312872,71.12068965517241,62.77777777777778,313315.0,1014360.0,0.0,1.0,0.0,?,0.0,0.0,342.0,234.0,234.0,9.0,0.0,0.0,1.0
900000.0,7.078125,1.248827643899454E-6,900000.0,86.8,72.58988234414649,72.78350515463917,66.0668380462725,353315.0,1062656.0,0.0,1.0,0.0,?,0.0,0.0,364.0,245.0,245.0,9.0,0.0,0.0,1.0
1000000.0,7.84375,1.4851588962806595E-6,1000000.0,89.2,77.38390404074248,77.21518987341773,72.44897959183673,393315.0,1139352.0,0.0,1.0,0.0,?,0.0,0.0,398.0,262.0,262.0,9.0,0.0,0.0,1.0
1100000.0,8.640625,1.7732045509748987E-6,1100000.0,87.1,73.1373120653034,72.25806451612902,66.49350649350649,433115.0,1285240.0,0.0,1.0,0.0,?,0.0,0.0,446.0,295.0,295.0,10.0,0.0,0.0,1.0
1200000.0,9.453125,2.088672610827618E-6,1200000.0,89.0,76.7217444301483,77.13097713097713,70.1086956521739,473115.0,1402728.0,0.0,1.0,0.0,?,0.0,0.0,491.0,321.0,321.0,10.0,0.0,0.0,1.0
1300000.0,10.21875,2.3972035139902595E-6,1300000.0,89.9,79.05954552993863,80.35019455252919,74.49494949494951,513115.0,1473744.0,0.0,1.0,0.0,?,0.0,0.0,516.0,337.0,337.0,10.0,0.0,0.0,1.0
1400000.0,10.96875,2.7079982747737727E-6,1400000.0,90.60000000000001,80.00816687651003,78.3410138248848,74.03314917127074,553115.0,1531944.0,0.0,1.0,0.0,?,0.0,0.0,544.0,351.0,351.0,10.0,0.0,0.0,1.0
1500000.0,11.765625,3.0506396109962623E-6,1500000.0,89.60000000000001,78.32818627757426,76.83741648106904,73.1266149870801,593115.0,1606192.0,0.0,1.0,0.0,?,0.0,0.0,578.0,368.0,368.0,11.0,0.0,0.0,1.0
1600000.0,12.5625,3.4354662703764102E-6,1600000.0,88.7,76.37189384498289,75.43478260869566,70.95115681233933,632915.0,1752768.0,0.0,1.0,0.0,?,0.0,0.0,628.0,402.0,402.0,11.0,0.0,0.0,1.0
1700000.0,13.34375,3.820807453141444E-6,1700000.0,91.2,81.70972502234324,81.2366737739872,77.37789203084834,672915.0,1806752.0,0.0,1.0,0.0,?,0.0,0.0,654.0,415.0,415.0,11.0,0.0,0.0,1.0
1800000.0,14.140625,4.23177090447603E-6,1800000.0,89.9,78.70312579072554,79.21810699588477,73.69791666666667,712915.0,1907648.0,0.0,1.0,0.0,?,0.0,0.0,691.0,437.0,437.0,11.0,0.0,0.0,1.0
1900000.0,14.921875,4.64182770681671E-6,1900000.0,90.60000000000001,80.30068696115045,79.78494623655914,75.71059431524549,752915.0,1957168.0,0.0,1.0,0.0,?,0.0,0.0,713.0,448.0,448.0,12.0,0.0,0.0,1.0
2000000.0,15.703125,5.059862192461474E-6,2000000.0,90.9,80.65887353878853,80.38793103448276,75.73333333333335,792915.0,2010760.0,0.0,1.0,0.0,?,0.0,0.0,735.0,459.0,459.0,12.0,0.0,0.0,1.0
2100000.0,16.5,5.508899468825096E-6,2100000.0,92.30000000000001,83.73207359018348,84.38133874239352,79.89556135770236,832715.0,2062544.0,0.0,1.0,0.0,?,0.0,0.0,763.0,473.0,473.0,12.0,0.0,0.0,1.0
2200000.0,17.25,5.938591526096894E-6,2200000.0,92.7,84.28214624063389,84.6638655462185,79.72222222222224,872715.0,2113112.0,0.0,1.0,0.0,?,0.0,0.0,785.0,484.0,484.0,12.0,0.0,0.0,1.0
2300000.0,18.03125,6.3914099397758645E-6,2300000.0,90.8,80.4248655273371,78.94736842105264,74.86338797814209,912715.0,2153144.0,0.0,1.0,0.0,?,0.0,0.0,801.0,492.0,492.0,12.0,0.0,0.0,1.0
2400000.0,18.8125,6.856775338140627E-6,2400000.0,91.7,82.83421575115818,83.33333333333334,79.09319899244333,952715.0,2229488.0,0.0,1.0,0.0,?,0.0,0.0,835.0,518.0,518.0,12.0,0.0,0.0,1.0
2500000.0,19.609375,7.3614440043456855E-6,2500000.0,89.8,78.99505766062603,79.05544147843942,74.50000000000001,992715.0,2388920.0,0.0,1.0,0.0,?,0.0,0.0,877.0,548.0,548.0,12.0,0.0,0.0,1.0
2600000.0,20.5,7.967301256333788E-6,2600000.0,91.0,81.31136103128064,80.60344827586208,77.83251231527095,1032515.0,2512432.0,0.0,1.0,0.0,?,0.0,0.0,919.0,578.0,578.0,12.0,4288.246823956443,0.0,1.0179378574113012
2700000.0,21.328125,8.535326277423237E-6,2700000.0,91.10000000000001,80.9202853810798,79.9097065462754,75.8807588075881,1072515.0,2548520.0,0.0,1.0,0.0,?,0.0,0.0,935.0,586.0,586.0,12.0,4288.246823956443,0.0,1.0179378574113012
2800000.0,22.140625,9.11029185064965E-6,2800000.0,93.30000000000001,85.76249288124646,85.40305010893248,81.94070080862535,1112515.0,2646712.0,0.0,1.0,0.0,?,0.0,0.0,969.0,612.0,612.0,13.0,4288.246823956443,0.0,1.0179378574113012
2900000.0,22.953125,9.697934664371943E-6,2900000.0,91.8,82.46964255173594,83.29938900203668,77.83783783783785,1152515.0,2721048.0,0.0,1.0,0.0,?,0.0,0.0,999.0,627.0,627.0,13.0,4288.246823956443,0.0,1.0179378574113012
3000000.0,23.796875,1.0319073852669035E-5,3000000.0,90.3,79.6237322600432,79.09482758620689,74.93540051679587,1192515.0,2785024.0,0.0,1.0,0.0,?,0.0,0.0,1023.0,639.0,639.0,13.0,4288.246823956443,0.0,1.0179378574113012
3100000.0,24.625,1.0950937931839792E-5,3100000.0,92.4,84.09882163899304,83.9662447257384,80.80808080808082,1232315.0,2830824.0,0.0,1.0,0.0,?,0.0,0.0,1039.0,647.0,647.0,13.0,4288.246823956443,0.0,1.0179378574113012
3200000.0,25.453125,1.1586238364947754E-5,3200000.0,92.30000000000001,83.70370370370371,83.92484342379959,79.46666666666667,1272315.0,2861096.0,0.0,1.0,0.0,?,0.0,0.0,1053.0,654.0,654.0,13.0,4288.246823956443,0.0,1.0179378574113012
3300000.0,26.25,1.2203228608187703E-5,3300000.0,91.7,82.43059024749584,82.78008298755188,78.10026385224276,1312315.0,2902744.0,0.0,1.0,0.0,?,0.0,0.0,1073.0,664.0,664.0,13.0,4288.246823956443,0.0,1.0179378574113012
3400000.0,27.109375,1.2881796541882474E-5,3400000.0,91.3,81.69638724553772,81.91268191268192,77.0448548812665,1352315.0,2976336.0,0.0,1.0,0.0,?,0.0,0.0,1103.0,688.0,688.0,13.0,4288.246823956443,0.0,1.0179378574113012
3500000.0,27.953125,1.3555949521509725E-5,3500000.0,92.80000000000001,85.00156233725654,84.03547671840356,81.7721518987342,1392315.0,3026744.0,0.0,1.0,0.0,?,0.0,0.0,1127.0,700.0,700.0,13.0,4288.246823956443,0.0,1.0179378574113012
3600000.0,28.8125,1.4269110591461261E-5,3600000.0,92.80000000000001,84.68899521531101,84.1409691629956,81.10236220472441,1432115.0,3088168.0,0.0,1.0,0.0,?,0.0,0.0,1141.0,707.0,707.0,13.0,4288.246823956443,0.0,1.0179378574113012
3700000.0,29.65625,1.4971000685666999E-5,3700000.0,90.60000000000001,79.72389991371872,79.56521739130436,73.88888888888889,1472115.0,3110208.0,0.0,1.0,0.0,?,0.0,0.0,1153.0,713.0,713.0,13.0,4288.246823956443,0.0,1.0179378574113012
3800000.0,30.53125,1.5711141103464697E-5,3800000.0,92.0,82.89838218695489,82.10290827740494,78.2608695652174,1512115.0,3178600.0,0.0,1.0,0.0,?,0.0,0.0,1197.0,744.0,744.0,13.0,4288.246823956443,0.0,1.0179378574113012
3900000.0,31.40625,1.6468508660586344E-5,3900000.0,93.0,84.95173807425243,85.26315789473685,80.82191780821918,1552115.0,3268696.0,0.0,1.0,0.0,?,0.0,0.0,1215.0,753.0,753.0,13.0,4288.246823956443,0.0,1.0179378574113012
4000000.0,32.265625,1.7217561221008913E-5,4000000.0,91.8,82.84597780018494,82.8092243186583,78.9203084832905,1592115.0,3306352.0,0.0,1.0,0.0,?,0.0,0.0,1227.0,759.0,759.0,13.0,4288.246823956443,0.0,1.0179378574113012
4100000.0,33.125,1.798961065813071E-5,4100000.0,93.0,85.22427440633247,85.10638297872342,81.33333333333334,1631915.0,3352056.0,0.0,1.0,0.0,?,0.0,0.0,1253.0,781.0,781.0,13.0,4288.246823956443,0.0,1.0179378574113012
4200000.0,34.015625,1.8803407793812867E-5,4200000.0,93.4,86.1540591683205,85.92750533049042,83.12020460358058,1671915.0,3425448.0,0.0,1.0,0.0,?,0.0,0.0,1269.0,789.0,789.0,13.0,4288.246823956443,0.0,1.0179378574113012
4300000.0,34.890625,1.961012613416339E-5,4300000.0,90.3,79.60556746982887,79.317697228145,74.8051948051948,1711915.0,3471424.0,0.0,1.0,0.0,?,0.0,0.0,1285.0,797.0,797.0,14.0,4288.246823956443,0.0,1.0179378574113012
4400000.0,35.765625,2.0416181683281645E-5,4400000.0,92.10000000000001,83.50703143267529,83.40336134453781,80.05050505050507,1751915.0,3482848.0,0.0,1.0,0.0,?,0.0,0.0,1289.0,799.0,799.0,14.0,4288.246823956443,0.0,1.0179378574113012
4500000.0,36.65625,2.1240057669476504E-5,4500000.0,91.7,81.52287156837428,81.95652173913044,75.14970059880241,1791915.0,3511928.0,0.0,1.0,0.0,?,0.0,0.0,1309.0,809.0,809.0,14.0,4288.246823956443,0.0,1.0179378574113012
4600000.0,37.53125,2.206946302774466E-5,4600000.0,93.60000000000001,86.24129331842808,85.90308370044055,82.5136612021858,1831715.0,3542456.0,0.0,1.0,0.0,?,0.0,0.0,1319.0,814.0,814.0,14.0,4288.246823956443,0.0,1.0179378574113012
4700000.0,38.421875,2.291619706536747E-5,4700000.0,92.2,83.39521100854935,83.47457627118645,79.25531914893618,1871715.0,3567656.0,0.0,1.0,0.0,?,0.0,0.0,1331.0,820.0,820.0,14.0,4288.246823956443,0.0,1.0179378574113012
4800000.0,39.296875,2.3754847093692263E-5,4800000.0,93.2,85.52452316076295,85.77405857740587,81.81818181818184,1911715.0,3611728.0,0.0,1.0,0.0,?,0.0,0.0,1351.0,830.0,830.0,14.0,4288.246823956443,0.0,1.0179378574113012
4900000.0,40.171875,2.4597213099089768E-5,4900000.0,91.60000000000001,82.10023866348449,82.31578947368422,77.41935483870968,1951715.0,3642368.0,0.0,1.0,0.0,?,0.0,0.0,1367.0,838.0,838.0,14.0,4288.246823956443,0.0,1.0179378574113012
5000000.0,41.0625,2.5458219364130253E-5,5000000.0,93.30000000000001,85.72949946751865,85.52915766738663,82.13333333333335,1991715.0,3668936.0,0.0,1.0,0.0,?,0.0,0.0,1377.0,843.0,843.0,14.0,4288.246823956443,0.0,1.0179378574113012
5100000.0,42.03125,2.550339445911555E-5,5100000.0,97.6,95.09867991112273,94.98956158663883,94.44444444444444,35530.0,68232.0,0.0,1.0,0.0,?,6.0,15.0,28.0,16.0,16.0,4.0,0.0,0.0,1.0
5200000.0,42.515625,2.5525923863622466E-5,5200000.0,97.3,94.53812791299843,94.74708171206225,94.02654867256636,75530.0,82096.0,0.0,1.0,0.0,?,0.0,0.0,34.0,19.0,19.0,4.0,0.0,0.0,1.0
5300000.0,42.96875,2.5545365190029973E-5,5300000.0,96.39999999999999,92.74193548387096,92.5155925155925,92.17391304347825,115530.0,82552.0,0.0,1.0,0.0,?,0.0,0.0,34.0,19.0,19.0,4.0,0.0,0.0,1.0
5400000.0,43.40625,2.556251264953365E-5,5400000.0,97.3,94.56434208407151,94.66403162055336,94.13043478260869,155530.0,82608.0,0.0,1.0,0.0,?,0.0,0.0,34.0,19.0,19.0,4.0,0.0,0.0,1.0
5500000.0,43.84375,2.5578033916341762E-5,5500000.0,97.1,94.16372169405021,93.98340248962656,93.73650107991361,195530.0,82640.0,0.0,1.0,0.0,?,0.0,0.0,34.0,19.0,19.0,4.0,0.0,0.0,1.0
5600000.0,44.265625,2.559928815268601E-5,5600000.0,97.1,94.1494512588767,94.29133858267717,93.58407079646017,235330.0,82648.0,0.0,1.0,0.0,?,0.0,0.0,34.0,19.0,19.0,4.0,0.0,0.0,1.0
5700000.0,44.71875,2.562042875474112E-5,5700000.0,97.39999999999999,94.71357756604978,94.6938775510204,93.99538106235565,275330.0,82648.0,0.0,1.0,0.0,?,0.0,0.0,34.0,19.0,19.0,4.0,0.0,0.0,1.0
5800000.0,45.171875,2.5640428066253663E-5,5800000.0,97.2,94.32635610220663,94.38877755511021,93.65079365079364,315330.0,87288.0,0.0,1.0,0.0,?,0.0,0.0,36.0,20.0,20.0,4.0,0.0,0.0,1.0
5900000.0,45.609375,2.5659096685962546E-5,5900000.0,97.39999999999999,94.79831465394788,94.54926624737945,94.8,355330.0,95976.0,0.0,1.0,0.0,?,0.0,0.0,40.0,22.0,22.0,5.0,0.0,0.0,1.0
6000000.0,46.046875,2.567613730207086E-5,6000000.0,97.0,93.9573874966262,94.16342412451361,93.43544857768052,395330.0,95992.0,0.0,1.0,0.0,?,0.0,0.0,40.0,22.0,22.0,5.0,0.0,0.0,1.0
6100000.0,46.484375,2.570883319195774E-5,6100000.0,97.3,94.57874869488394,94.78764478764478,94.27966101694915,435130.0,176472.0,0.0,1.0,0.0,?,0.0,0.0,60.0,41.0,41.0,6.0,0.0,0.0,1.0
6200000.0,46.9375,2.5741167256556867E-5,6200000.0,98.0,95.97799156987033,95.94320486815415,95.67099567099567,475130.0,177824.0,0.0,1.0,0.0,?,0.0,0.0,60.0,41.0,41.0,6.0,0.0,0.0,1.0
6300000.0,47.375,2.577094125121625E-5,6300000.0,97.3,94.59342560553632,94.75728155339806,94.42148760330578,515130.0,179456.0,0.0,1.0,0.0,?,0.0,0.0,60.0,41.0,41.0,6.0,0.0,0.0,1.0
6400000.0,47.8125,2.5799601539296823E-5,6400000.0,97.2,94.39831949584875,94.70699432892249,94.36619718309859,555130.0,183992.0,0.0,1.0,0.0,?,0.0,0.0,62.0,42.0,42.0,6.0,0.0,0.0,1.0
6500000.0,48.25,2.5826665514614432E-5,6500000.0,96.6,93.18364073777065,92.81183932346723,92.87211740041928,595130.0,184280.0,0.0,1.0,0.0,?,0.0,0.0,64.0,43.0,43.0,6.0,0.0,0.0,1.0
6600000.0,48.6875,2.5861278247450375E-5,6600000.0,97.2,94.38868759418988,94.5736434108527,94.1908713692946,634930.0,193336.0,0.0,1.0,0.0,?,0.0,0.0,66.0,44.0,44.0,6.0,0.0,0.0,1.0
6700000.0,49.125,2.5899151514749973E-5,6700000.0,97.8,95.56721512305008,95.34883720930232,95.14348785871964,674930.0,236576.0,0.0,1.0,0.0,?,0.0,0.0,86.0,63.0,63.0,6.0,0.0,0.0,1.0
6800000.0,49.609375,2.596260556149193E-5,6800000.0,97.3,94.56806019394037,94.7265625,94.10480349344978,714930.0,422448.0,0.0,1.0,0.0,?,0.0,0.0,126.0,101.0,101.0,6.0,0.0,0.0,1.0
6900000.0,50.046875,2.6020022115618403E-5,6900000.0,96.6,93.13685910375453,93.21357285429141,92.44444444444444,754930.0,437728.0,0.0,1.0,0.0,?,0.0,0.0,126.0,101.0,101.0,6.0,0.0,0.0,1.0
7000000.0,50.5,2.6077885639905513E-5,7000000.0,97.3,94.55082665977783,94.5233265720081,94.02654867256636,794930.0,438448.0,0.0,1.0,0.0,?,0.0,0.0,126.0,101.0,101.0,6.0,0.0,0.0,1.0
7100000.0,50.953125,2.614306674028436E-5,7100000.0,97.5,94.98917662150244,95.0199203187251,94.71458773784354,834730.0,443104.0,0.0,1.0,0.0,?,0.0,0.0,128.0,102.0,102.0,6.0,0.0,0.0,1.0
7200000.0,51.40625,2.620671080270161E-5,7200000.0,97.3,94.59675805483289,94.67455621301775,94.46721311475409,874730.0,444392.0,0.0,1.0,0.0,?,0.0,0.0,128.0,102.0,102.0,6.0,0.0,0.0,1.0
7300000.0,51.828125,2.6264448145714895E-5,7300000.0,97.2,94.38922731644757,94.45544554455445,94.16666666666667,914730.0,444888.0,0.0,1.0,0.0,?,0.0,0.0,128.0,102.0,102.0,6.0,0.0,0.0,1.0
7400000.0,52.296875,2.6327483161973454E-5,7400000.0,97.1,94.17689391505493,94.3579766536965,93.81663113006397,954730.0,450048.0,0.0,1.0,0.0,?,0.0,0.0,130.0,103.0,103.0,6.0,0.0,0.0,1.0
7500000.0,52.75,2.638679932311384E-5,7500000.0,96.89999999999999,93.76864381568049,93.9334637964775,93.30453563714902,994730.0,450648.0,0.0,1.0,0.0,?,0.0,0.0,130.0,103.0,103.0,6.0,0.0,0.0,1.0
7600000.0,53.234375,2.6457429016267672E-5,7600000.0,97.89999999999999,95.78905153398837,95.96928982725528,95.57894736842105,1034530.0,450688.0,0.0,1.0,0.0,?,0.0,0.0,130.0,103.0,103.0,6.0,4341.126213592233,0.0,1.0078723251985973
7700000.0,53.703125,2.6533783885598595E-5,7700000.0,97.2,94.38057928199858,94.66666666666667,93.9655172413793,1074530.0,530992.0,0.0,1.0,0.0,?,0.0,0.0,150.0,122.0,122.0,6.0,4341.126213592233,0.0,1.0078723251985973
7800000.0,54.15625,2.6606142831345396E-5,7800000.0,97.3,94.58366433162418,94.56740442655935,94.30379746835442,1114530.0,533016.0,0.0,1.0,0.0,?,0.0,0.0,150.0,122.0,122.0,6.0,4341.126213592233,0.0,1.0078723251985973
7900000.0,54.609375,2.6676906596144866E-5,7900000.0,97.8,95.59550741756591,95.53752535496956,95.44513457556936,1154530.0,533808.0,0.0,1.0,0.0,?,0.0,0.0,150.0,122.0,122.0,6.0,4341.126213592233,0.0,1.0078723251985973
8000000.0,55.078125,2.67489376063976E-5,8000000.0,97.0,93.943382741871,93.74999999999999,93.22799097065462,1194530.0,538512.0,0.0,1.0,0.0,?,0.0,0.0,152.0,123.0,123.0,6.0,4341.126213592233,0.0,1.0078723251985973
8100000.0,55.53125,2.6825342178603426E-5,8100000.0,96.2,92.37621378701549,92.63565891472868,91.9831223628692,1234330.0,538560.0,0.0,1.0,0.0,?,0.0,0.0,152.0,123.0,123.0,6.0,4341.126213592233,0.0,1.0078723251985973
8200000.0,55.984375,2.6900064355383317E-5,8200000.0,97.39999999999999,94.78397637542531,94.50317124735729,94.44444444444444,1274330.0,538608.0,0.0,1.0,0.0,?,0.0,0.0,152.0,123.0,123.0,6.0,4341.126213592233,0.0,1.0078723251985973
8300000.0,56.4375,2.697364524162064E-5,8300000.0,97.1,94.16790012227298,94.44444444444444,93.8034188034188,1314330.0,543240.0,0.0,1.0,0.0,?,0.0,0.0,156.0,125.0,125.0,6.0,4341.126213592233,0.0,1.0078723251985973
8400000.0,56.890625,2.704715110465056E-5,8400000.0,97.3,94.57722434223739,94.71624266144813,94.25531914893617,1354330.0,557160.0,0.0,1.0,0.0,?,0.0,0.0,176.0,144.0,144.0,6.0,4341.126213592233,0.0,1.0078723251985973
8500000.0,57.34375,2.712592078346966E-5,8500000.0,97.89999999999999,95.77750253349848,95.74898785425101,95.47413793103448,1394330.0,616240.0,0.0,1.0,0.0,?,0.0,0.0,176.0,144.0,144.0,6.0,4341.126213592233,0.0,1.0078723251985973
8600000.0,57.796875,2.7212094315069002E-5,8600000.0,98.1,96.19534309995434,96.13821138211381,96.05809128630705,1434130.0,621784.0,0.0,1.0,0.0,?,0.0,0.0,176.0,144.0,144.0,6.0,4341.126213592233,0.0,1.0078723251985973
8700000.0,58.265625,2.7299502819207394E-5,8700000.0,96.7,93.35438449517487,93.16770186335404,92.76315789473684,1474130.0,621864.0,0.0,1.0,0.0,?,0.0,0.0,176.0,144.0,144.0,6.0,4341.126213592233,0.0,1.0078723251985973
8800000.0,58.734375,2.7385696723488056E-5,8800000.0,97.89999999999999,95.7855359594127,95.72301425661914,95.50321199143468,1514130.0,626232.0,0.0,1.0,0.0,?,0.0,0.0,176.0,144.0,144.0,6.0,4341.126213592233,0.0,1.0078723251985973
8900000.0,59.21875,2.7481848179983595E-5,8900000.0,97.6,95.19625307740037,95.24752475247524,95.05154639175257,1554130.0,697104.0,0.0,1.0,0.0,?,0.0,0.0,196.0,163.0,163.0,6.0,4341.126213592233,0.0,1.0078723251985973
9000000.0,59.6875,2.7575029913956918E-5,9000000.0,98.1,96.18486153055323,96.28180039138942,95.94882729211088,1594130.0,712544.0,0.0,1.0,0.0,?,0.0,0.0,196.0,163.0,163.0,6.0,4341.126213592233,0.0,1.0078723251985973
9100000.0,60.140625,2.7671973964768563E-5,9100000.0,97.0,93.95110069804298,94.30740037950663,93.3774834437086,1633930.0,713392.0,0.0,1.0,0.0,?,0.0,0.0,196.0,163.0,163.0,6.0,4341.126213592233,0.0,1.0078723251985973
9200000.0,60.625,2.777445398452174E-5,9200000.0,97.1,94.18972743811057,94.22310756972111,93.88185654008439,1673930.0,718592.0,0.0,1.0,0.0,?,0.0,0.0,198.0,164.0,164.0,7.0,4341.126213592233,0.0,1.0078723251985973
9300000.0,61.078125,2.7868698137657092E-5,9300000.0,96.7,93.37024566253345,93.503937007874,92.91845493562231,1713930.0,719136.0,0.0,1.0,0.0,?,0.0,0.0,198.0,164.0,164.0,7.0,4341.126213592233,0.0,1.0078723251985973
9400000.0,61.546875,2.7964457500881202E-5,9400000.0,95.39999999999999,90.78049152005643,90.08620689655172,90.35639412997902,1753930.0,719232.0,0.0,1.0,0.0,?,0.0,0.0,198.0,164.0,164.0,7.0,4341.126213592233,0.0,1.0078723251985973
9500000.0,62.015625,2.8058481305682407E-5,9500000.0,97.3,94.58596682601302,94.36325678496867,94.29175475687103,1793930.0,719320.0,0.0,1.0,0.0,?,0.0,0.0,198.0,164.0,164.0,7.0,4341.126213592233,0.0,1.0078723251985973
9600000.0,62.5,2.8162863002055217E-5,9600000.0,97.89999999999999,95.78729448015214,95.93810444874275,95.54140127388536,1833730.0,719368.0,0.0,1.0,0.0,?,0.0,0.0,198.0,164.0,164.0,7.0,4341.126213592233,0.0,1.0078723251985973
9700000.0,62.953125,2.825882612443011E-5,9700000.0,98.2,96.37060187518904,96.1864406779661,96.04395604395603,1873730.0,719400.0,0.0,1.0,0.0,?,0.0,0.0,198.0,164.0,164.0,7.0,4341.126213592233,0.0,1.0078723251985973
9800000.0,63.421875,2.8356357910929034E-5,9800000.0,97.2,94.3829466259564,94.52054794520548,94.00428265524626,1913730.0,719448.0,0.0,1.0,0.0,?,0.0,0.0,198.0,164.0,164.0,7.0,4341.126213592233,0.0,1.0078723251985973
9900000.0,63.890625,2.8452147348111283E-5,9900000.0,97.6,95.16915991690954,95.16129032258064,94.8051948051948,1953730.0,719480.0,0.0,1.0,0.0,?,0.0,0.0,198.0,164.0,164.0,7.0,4341.126213592233,0.0,1.0078723251985973
1.0E7,64.34375,2.854307359989939E-5,1.0E7,97.6,95.18984094407388,95.1417004048583,94.97907949790795,1993730.0,719632.0,0.0,1.0,0.0,?,0.0,0.0,198.0,164.0,164.0,7.0,4341.126213592233,0.0,1.0078723251985973
