learning evaluation instances,evaluation time (cpu seconds),model cost (RAM-Hours),classified instances,classifications correct (percent),Kappa Statistic (percent),Kappa Temporal Statistic (percent),Kappa M Statistic (percent),model training instances,model serialized size (bytes),labeling cost,newThreshold,maxPosterior,accuracyBaseLearner (percent),Change detected,Warning detected,tree size (nodes),tree size (leaves),active learning leaves,tree depth,active leaf byte size estimate,inactive leaf byte size estimate,byte size estimate overhead
100000.0,0.453125,1.2015904455135266E-8,100000.0,90.2,77.78382299601016,77.10280373831776,71.17647058823529,19900.0,18656.0,0.0,1.0,0.0,?,0.0,14.0,19.0,10.0,10.0,4.0,0.0,0.0,1.0
200000.0,0.859375,2.3151159338239166E-8,200000.0,91.3,80.79300600494525,80.53691275167786,75.35410764872522,39900.0,31536.0,0.0,1.0,0.0,?,0.0,0.0,33.0,17.0,17.0,6.0,0.0,0.0,1.0
300000.0,1.25,3.4240527181989615E-8,300000.0,89.7,76.82101321427285,77.7056277056277,70.40229885057472,59900.0,44752.0,0.0,1.0,0.0,?,0.0,0.0,47.0,24.0,24.0,7.0,0.0,0.0,1.0
400000.0,1.578125,4.434333984843558E-8,400000.0,88.6,74.70320647952957,75.8985200845666,68.24512534818942,79900.0,63392.0,0.0,1.0,0.0,?,0.0,0.0,67.0,34.0,34.0,8.0,0.0,0.0,1.0
500000.0,1.890625,5.4257398005574934E-8,500000.0,88.4,74.12066019088245,75.21367521367522,67.50700280112045,99900.0,76440.0,0.0,1.0,0.0,?,0.0,0.0,81.0,41.0,41.0,8.0,0.0,0.0,1.0
600000.0,2.1875,6.778495541463295E-8,600000.0,88.8,74.9570692615913,76.17021276595744,69.23076923076923,119800.0,91352.0,0.0,1.0,0.0,?,0.0,0.0,97.0,49.0,49.0,9.0,0.0,0.0,1.0
700000.0,2.5,8.17185759337412E-8,700000.0,90.7,78.62579980878137,78.62068965517243,71.90332326283988,139800.0,97088.0,0.0,1.0,0.0,?,0.0,0.0,105.0,53.0,53.0,10.0,0.0,0.0,1.0
800000.0,2.828125,9.712371845833129E-8,800000.0,89.8,76.84975034044486,76.87074829931973,70.85714285714286,159800.0,115584.0,0.0,1.0,0.0,?,0.0,0.0,123.0,62.0,62.0,10.0,0.0,0.0,1.0
900000.0,3.15625,1.1298588813386029E-7,900000.0,89.3,75.78418503598425,77.33050847457628,69.164265129683,179800.0,130376.0,0.0,1.0,0.0,?,0.0,0.0,139.0,70.0,70.0,10.0,0.0,0.0,1.0
1000000.0,3.5,1.2976773885182208E-7,1000000.0,90.10000000000001,77.52839593604446,78.0,71.38728323699422,199800.0,141680.0,0.0,1.0,0.0,?,0.0,0.0,151.0,76.0,76.0,10.0,0.0,0.0,1.0
1100000.0,3.84375,1.5131615024680893E-7,1100000.0,89.0,76.45386670319886,78.08764940239044,71.50259067357513,219700.0,156592.0,0.0,1.0,0.0,?,0.0,0.0,167.0,84.0,84.0,10.0,0.0,0.0,1.0
1200000.0,4.1875,1.7452930074392094E-7,1200000.0,91.3,80.8026690909733,80.75221238938055,75.76601671309193,239700.0,184552.0,0.0,1.0,0.0,?,0.0,0.0,197.0,99.0,99.0,10.0,0.0,0.0,1.0
1300000.0,4.546875,1.9894262853388985E-7,1300000.0,91.2,80.52063042323357,81.2366737739872,75.95628415300547,259700.0,195568.0,0.0,1.0,0.0,?,0.0,0.0,209.0,105.0,105.0,10.0,0.0,0.0,1.0
1400000.0,4.890625,2.2246311548062496E-7,1400000.0,89.60000000000001,77.56754541493571,77.39130434782608,73.1266149870801,279700.0,206920.0,0.0,1.0,0.0,?,0.0,0.0,221.0,111.0,111.0,10.0,0.0,0.0,1.0
1500000.0,5.265625,2.486208621929917E-7,1500000.0,90.2,77.82082850521437,78.02690582959642,71.34502923976609,299700.0,221472.0,0.0,1.0,0.0,?,0.0,0.0,237.0,119.0,119.0,10.0,0.0,0.0,1.0
1600000.0,5.625,2.783119432731635E-7,1600000.0,90.60000000000001,78.70798224155115,80.12684989429177,72.83236994219654,319600.0,232656.0,0.0,1.0,0.0,?,0.0,0.0,249.0,125.0,125.0,10.0,0.0,0.0,1.0
1700000.0,6.0,3.0985118226251667E-7,1700000.0,89.3,76.44085112379344,77.13675213675214,71.23655913978494,339600.0,247808.0,0.0,1.0,0.0,?,0.0,0.0,265.0,133.0,133.0,10.0,0.0,0.0,1.0
1800000.0,6.359375,3.4022132038242286E-7,1800000.0,89.3,75.72595281306715,75.7918552036199,68.52941176470588,359600.0,258824.0,0.0,1.0,0.0,?,0.0,0.0,277.0,139.0,139.0,11.0,0.0,0.0,1.0
1900000.0,6.734375,3.7284011745618447E-7,1900000.0,90.10000000000001,77.87472175786453,78.28947368421053,71.63323782234957,379600.0,277752.0,0.0,1.0,0.0,?,0.0,0.0,297.0,149.0,149.0,11.0,0.0,0.0,1.0
2000000.0,7.078125,4.0272645290113157E-7,2000000.0,89.0,74.12495295445993,73.17073170731709,65.625,399600.0,287072.0,0.0,1.0,0.0,?,0.0,0.0,307.0,154.0,154.0,11.0,0.0,0.0,1.0
2100000.0,7.453125,4.407127724132604E-7,2100000.0,90.7,79.5658287924064,80.33826638477802,74.45054945054946,419500.0,303848.0,0.0,1.0,0.0,?,0.0,0.0,325.0,163.0,163.0,11.0,0.0,0.0,1.0
2200000.0,7.828125,4.78683569882479E-7,2200000.0,90.60000000000001,77.69975327386601,78.5876993166287,70.625,439500.0,313168.0,0.0,1.0,0.0,?,0.0,0.0,335.0,168.0,168.0,11.0,0.0,0.0,1.0
2300000.0,8.21875,5.191564883312418E-7,2300000.0,88.5,74.58001768346595,74.83588621444201,68.4065934065934,459500.0,331632.0,0.0,1.0,0.0,?,0.0,0.0,355.0,178.0,178.0,11.0,0.0,0.0,1.0
2400000.0,8.609375,5.59589793232994E-7,2400000.0,89.5,76.07219361013627,75.91743119266056,69.02654867256638,479500.0,340720.0,0.0,1.0,0.0,?,0.0,0.0,365.0,183.0,183.0,11.0,0.0,0.0,1.0
2500000.0,9.0,6.006237688577839E-7,2500000.0,89.0,74.26828355415824,75.16930022573364,66.0493827160494,499500.0,356056.0,0.0,1.0,0.0,?,0.0,0.0,385.0,193.0,193.0,11.0,0.0,0.0,1.0
2600000.0,9.40625,6.495141294888326E-7,2600000.0,89.5,77.55451047456178,78.26086956521739,73.75,519400.0,376544.0,0.0,1.0,0.0,?,0.0,0.0,403.0,202.0,202.0,11.0,0.0,0.0,1.0
2700000.0,9.796875,6.96681737382379E-7,2700000.0,90.4,78.86067866029552,80.87649402390439,73.4072022160665,539400.0,387560.0,0.0,1.0,0.0,?,0.0,0.0,415.0,208.0,208.0,11.0,0.0,0.0,1.0
2800000.0,10.21875,7.476236270223228E-7,2800000.0,90.8,78.35905156191193,78.99543378995433,71.25,559400.0,397048.0,0.0,1.0,0.0,?,0.0,0.0,425.0,213.0,213.0,11.0,0.0,0.0,1.0
2900000.0,10.609375,7.949545397423209E-7,2900000.0,89.7,76.62915229624252,76.32183908045977,70.40229885057472,579400.0,408112.0,0.0,1.0,0.0,?,0.0,0.0,437.0,219.0,219.0,11.0,0.0,0.0,1.0
3000000.0,11.015625,8.440046480649877E-7,3000000.0,89.2,76.01705453899449,77.07006369426752,70.1657458563536,599400.0,415952.0,0.0,1.0,0.0,?,0.0,0.0,447.0,224.0,224.0,11.0,0.0,0.0,1.0
3100000.0,11.40625,8.965330198407174E-7,3100000.0,88.7,75.0481372219965,75.0,68.87052341597797,619300.0,430360.0,0.0,1.0,0.0,?,0.0,0.0,461.0,231.0,231.0,11.0,0.0,0.0,1.0
3200000.0,11.78125,9.473607254525026E-7,3200000.0,88.5,74.8818354170489,75.63559322033898,69.16890080428955,639300.0,443912.0,0.0,1.0,0.0,?,0.0,0.0,477.0,239.0,239.0,12.0,0.0,0.0,1.0
3300000.0,12.1875,1.0027662695695957E-6,3300000.0,89.2,75.42941644864067,76.26373626373628,68.69565217391305,659300.0,456600.0,0.0,1.0,0.0,?,0.0,0.0,491.0,246.0,246.0,12.0,0.0,0.0,1.0
3400000.0,12.5625,1.0540697257965802E-6,3400000.0,90.9,78.81158610412594,79.41176470588236,72.91666666666667,679300.0,467712.0,0.0,1.0,0.0,?,0.0,0.0,501.0,251.0,251.0,12.0,0.0,0.0,1.0
3500000.0,12.953125,1.1076781730581487E-6,3500000.0,88.6,73.79647677540363,73.48837209302326,66.07142857142857,699300.0,478824.0,0.0,1.0,0.0,?,0.0,0.0,513.0,257.0,257.0,12.0,0.0,0.0,1.0
3600000.0,13.34375,1.1675649633010227E-6,3600000.0,88.4,74.49203975723458,75.47568710359408,68.64864864864865,719200.0,502240.0,0.0,1.0,0.0,?,0.0,0.0,539.0,270.0,270.0,12.0,0.0,0.0,1.0
3700000.0,13.75,1.2309225793513986E-6,3700000.0,89.9,76.44150027990297,76.51162790697676,69.85074626865672,739200.0,521816.0,0.0,1.0,0.0,?,0.0,0.0,563.0,282.0,282.0,12.0,0.0,0.0,1.0
3800000.0,14.125,1.2893925627900495E-6,3800000.0,90.5,79.28026172300983,80.33126293995859,74.66666666666667,759200.0,531160.0,0.0,1.0,0.0,?,0.0,0.0,571.0,286.0,286.0,13.0,0.0,0.0,1.0
3900000.0,14.546875,1.3565429576879573E-6,3900000.0,91.4,80.98556671855101,80.84632516703788,75.97765363128492,779200.0,553048.0,0.0,1.0,0.0,?,0.0,0.0,593.0,297.0,297.0,13.0,0.0,0.0,1.0
4000000.0,14.953125,1.4210137629157137E-6,4000000.0,89.5,77.11341284787613,77.80126849894292,71.7741935483871,799200.0,560720.0,0.0,1.0,0.0,?,0.0,0.0,601.0,301.0,301.0,13.0,0.0,0.0,1.0
4100000.0,15.359375,1.4911303878761825E-6,4100000.0,88.4,74.2405400604015,75.3715498938429,67.95580110497238,819100.0,575752.0,0.0,1.0,0.0,?,0.0,0.0,617.0,309.0,309.0,13.0,0.0,0.0,1.0
4200000.0,15.78125,1.5645156963728366E-6,4200000.0,88.9,75.50966375430235,75.6043956043956,69.16666666666667,839100.0,590400.0,0.0,1.0,0.0,?,0.0,0.0,633.0,317.0,317.0,13.0,0.0,0.0,1.0
4300000.0,16.203125,1.6379254520870742E-6,4300000.0,87.7,72.85103828224325,72.96703296703296,65.4494382022472,859100.0,600104.0,0.0,1.0,0.0,?,0.0,0.0,643.0,322.0,322.0,13.0,0.0,0.0,1.0
4400000.0,16.625,1.7119420226663348E-6,4400000.0,89.9,77.4977497749775,77.65486725663717,71.38810198300284,879100.0,615064.0,0.0,1.0,0.0,?,0.0,0.0,661.0,331.0,331.0,13.0,0.0,0.0,1.0
4500000.0,17.0625,1.7888647400670578E-6,4500000.0,90.2,78.28081575483031,77.62557077625571,72.70194986072424,899100.0,625984.0,0.0,1.0,0.0,?,0.0,0.0,671.0,336.0,336.0,13.0,0.0,0.0,1.0
4600000.0,17.5,1.8722324683848351E-6,4600000.0,88.9,75.37535938664679,76.92307692307693,69.5054945054945,919000.0,644288.0,0.0,1.0,0.0,?,0.0,0.0,691.0,346.0,346.0,13.0,0.0,0.0,1.0
4700000.0,17.9375,1.9562448788848186E-6,4700000.0,90.0,77.58490836710541,79.50819672131148,71.5909090909091,939000.0,659392.0,0.0,1.0,0.0,?,0.0,0.0,707.0,354.0,354.0,13.0,0.0,0.0,1.0
4800000.0,18.375,2.0404528671254714E-6,4800000.0,91.10000000000001,79.83487252920546,80.73593073593074,73.66863905325445,959000.0,670576.0,0.0,1.0,0.0,?,0.0,0.0,719.0,360.0,360.0,13.0,0.0,0.0,1.0
4900000.0,18.8125,2.125045672679941E-6,4900000.0,91.2,80.4819191596579,81.62839248434238,75.00000000000001,979000.0,683408.0,0.0,1.0,0.0,?,0.0,0.0,733.0,367.0,367.0,13.0,0.0,0.0,1.0
5000000.0,19.265625,2.213141673968898E-6,5000000.0,90.3,78.3945117605132,78.39643652561247,72.67605633802818,999000.0,696192.0,0.0,1.0,0.0,?,0.0,0.0,749.0,375.0,375.0,13.0,0.0,0.0,1.0
5100000.0,19.8125,2.227033578997685E-6,5100000.0,88.7,76.6879569573039,76.60455486542443,72.30392156862746,16540.0,13064.0,0.0,1.0,0.0,?,1.0,32.0,13.0,7.0,7.0,4.0,0.0,0.0,1.0
5200000.0,20.3125,2.240446693677869E-6,5200000.0,90.60000000000001,80.92222763435623,80.33472803347281,79.01785714285715,36540.0,27976.0,0.0,1.0,0.0,?,0.0,0.0,29.0,15.0,15.0,6.0,0.0,0.0,1.0
5300000.0,20.734375,2.252776822489169E-6,5300000.0,89.2,77.6991282011043,78.52882703777337,74.22434367541767,56540.0,46616.0,0.0,1.0,0.0,?,0.0,0.0,49.0,25.0,25.0,6.0,0.0,0.0,1.0
5400000.0,21.109375,2.263343453200327E-6,5400000.0,88.6,76.64288611972775,77.64705882352942,73.67205542725173,76540.0,52088.0,0.0,1.0,0.0,?,0.0,0.0,55.0,28.0,28.0,6.0,0.0,0.0,1.0
5500000.0,21.484375,2.27574090887275E-6,5500000.0,88.4,75.92641785097624,75.98343685300208,72.11538461538461,96540.0,80192.0,0.0,1.0,0.0,?,0.0,0.0,87.0,44.0,44.0,8.0,0.0,0.0,1.0
5600000.0,21.859375,2.292593190860417E-6,5600000.0,88.7,76.71543375231816,76.74897119341564,73.72093023255815,116440.0,87624.0,0.0,1.0,0.0,?,0.0,0.0,93.0,47.0,47.0,8.0,0.0,0.0,1.0
5700000.0,22.234375,2.3094299508051737E-6,5700000.0,90.60000000000001,80.3501847918792,79.4759825327511,76.3819095477387,136440.0,96944.0,0.0,1.0,0.0,?,0.0,0.0,103.0,52.0,52.0,8.0,0.0,0.0,1.0
5800000.0,22.59375,2.326076889100174E-6,5800000.0,89.5,78.36603838894979,77.7542372881356,75.35211267605635,156440.0,111856.0,0.0,1.0,0.0,?,0.0,0.0,119.0,60.0,60.0,9.0,0.0,0.0,1.0
5900000.0,22.96875,2.3440064008658128E-6,5900000.0,89.60000000000001,78.39948491079404,79.11646586345383,74.93975903614458,176440.0,127008.0,0.0,1.0,0.0,?,0.0,0.0,139.0,70.0,70.0,10.0,0.0,0.0,1.0
6000000.0,23.328125,2.3618522876252725E-6,6000000.0,90.3,79.75370486328534,80.08213552361397,76.04938271604938,196440.0,143544.0,0.0,1.0,0.0,?,0.0,0.0,153.0,77.0,77.0,10.0,0.0,0.0,1.0
6100000.0,23.703125,2.386017004027962E-6,6100000.0,89.3,78.21572539598517,79.58015267175573,75.51487414187645,216340.0,161944.0,0.0,1.0,0.0,?,0.0,0.0,173.0,87.0,87.0,10.0,0.0,0.0,1.0
6200000.0,24.078125,2.4105309663961327E-6,6200000.0,91.3,82.29922849051077,81.37044967880087,80.27210884353741,236340.0,174968.0,0.0,1.0,0.0,?,0.0,0.0,189.0,95.0,95.0,10.0,0.0,0.0,1.0
6300000.0,24.453125,2.4359351179252065E-6,6300000.0,91.3,82.136550670598,82.24489795918369,79.81438515081207,256340.0,193512.0,0.0,1.0,0.0,?,0.0,0.0,207.0,104.0,104.0,11.0,0.0,0.0,1.0
6400000.0,24.828125,2.4613307323306797E-6,6400000.0,89.60000000000001,78.75374363123036,78.19706498951781,76.41723356009071,276340.0,202904.0,0.0,1.0,0.0,?,0.0,0.0,217.0,109.0,109.0,11.0,0.0,0.0,1.0
6500000.0,25.203125,2.4872882446895043E-6,6500000.0,89.8,78.82631349511138,78.96907216494846,75.30266343825667,296340.0,218104.0,0.0,1.0,0.0,?,0.0,0.0,233.0,117.0,117.0,11.0,0.0,0.0,1.0
6600000.0,25.59375,2.5195312466368907E-6,6600000.0,90.7,80.57319518716578,80.82474226804123,77.03703703703705,316240.0,231032.0,0.0,1.0,0.0,?,0.0,0.0,247.0,124.0,124.0,11.0,0.0,0.0,1.0
6700000.0,25.984375,2.5526950614423387E-6,6700000.0,89.2,78.05154634985023,78.74015748031496,76.05321507760532,336240.0,249504.0,0.0,1.0,0.0,?,0.0,0.0,267.0,134.0,134.0,12.0,0.0,0.0,1.0
6800000.0,26.375,2.58640780682779E-6,6800000.0,89.2,77.60869114506666,76.77419354838709,73.46437346437347,356240.0,264344.0,0.0,1.0,0.0,?,0.0,0.0,283.0,142.0,142.0,12.0,0.0,0.0,1.0
6900000.0,26.78125,2.6214900814617673E-6,6900000.0,90.0,79.33166884373088,79.25311203319502,75.84541062801932,376240.0,274024.0,0.0,1.0,0.0,?,0.0,0.0,293.0,147.0,147.0,12.0,0.0,0.0,1.0
7000000.0,27.1875,2.6567699387669563E-6,7000000.0,88.5,75.50627465346705,73.80410022779044,69.65699208443272,396240.0,285352.0,0.0,1.0,0.0,?,0.0,0.0,307.0,154.0,154.0,12.0,0.0,0.0,1.0
7100000.0,27.609375,2.700437034945935E-6,7100000.0,90.8,81.27493283399822,82.23938223938224,78.99543378995433,416140.0,310944.0,0.0,1.0,0.0,?,0.0,0.0,333.0,167.0,167.0,12.0,0.0,0.0,1.0
7200000.0,28.015625,2.7425238254687022E-6,7200000.0,90.10000000000001,79.19696065493852,78.61771058315335,75.37313432835822,436140.0,320768.0,0.0,1.0,0.0,?,0.0,0.0,345.0,173.0,173.0,12.0,0.0,0.0,1.0
7300000.0,28.4375,2.7865943007378112E-6,7300000.0,88.6,76.66688498821065,75.53648068669528,73.61111111111111,456140.0,333552.0,0.0,1.0,0.0,?,0.0,0.0,357.0,179.0,179.0,12.0,0.0,0.0,1.0
7400000.0,28.8125,2.825740892957482E-6,7400000.0,89.8,78.52242721840166,78.79417879417879,73.7789203084833,476140.0,342752.0,0.0,1.0,0.0,?,0.0,0.0,367.0,184.0,184.0,12.0,0.0,0.0,1.0
7500000.0,29.234375,2.870806719228211E-6,7500000.0,89.1,77.18538860190387,78.06841046277665,72.61306532663318,496140.0,361512.0,0.0,1.0,0.0,?,0.0,0.0,387.0,194.0,194.0,12.0,0.0,0.0,1.0
7600000.0,29.625,2.91661776524658E-6,7600000.0,89.5,78.76814817810491,78.95791583166333,77.41935483870968,516040.0,363496.0,0.0,1.0,0.0,?,0.0,0.0,389.0,195.0,195.0,12.0,0.0,0.0,1.0
7700000.0,30.03125,2.9638475906621248E-6,7700000.0,90.8,81.07984715806967,82.5426944971537,78.14726840855107,536040.0,369088.0,0.0,1.0,0.0,?,0.0,0.0,395.0,198.0,198.0,12.0,0.0,0.0,1.0
7800000.0,30.4375,3.0114145677847164E-6,7800000.0,90.60000000000001,79.81654527964821,79.74137931034483,74.86631016042782,556040.0,381728.0,0.0,1.0,0.0,?,0.0,0.0,409.0,205.0,205.0,12.0,0.0,0.0,1.0
7900000.0,30.859375,3.061398650364329E-6,7900000.0,89.8,78.84475785543918,78.66108786610879,75.42168674698796,576040.0,396520.0,0.0,1.0,0.0,?,0.0,0.0,425.0,213.0,213.0,12.0,0.0,0.0,1.0
8000000.0,31.25,3.1086471022313664E-6,8000000.0,89.8,79.22403819517999,80.30888030888032,76.92307692307693,596040.0,415448.0,0.0,1.0,0.0,?,0.0,0.0,445.0,223.0,223.0,12.0,0.0,0.0,1.0
8100000.0,31.65625,3.1626611598767338E-6,8100000.0,88.7,76.77286742034944,76.21052631578948,73.41176470588235,615940.0,423240.0,0.0,1.0,0.0,?,0.0,0.0,455.0,228.0,228.0,12.0,0.0,0.0,1.0
8200000.0,32.078125,3.219356876797974E-6,8200000.0,88.6,76.5860872065559,77.2,73.54988399071927,635940.0,438176.0,0.0,1.0,0.0,?,0.0,0.0,473.0,237.0,237.0,12.0,0.0,0.0,1.0
8300000.0,32.515625,3.2795088029363086E-6,8300000.0,89.0,77.24781268744701,77.68762677484787,73.36561743341406,655940.0,459488.0,0.0,1.0,0.0,?,0.0,0.0,493.0,247.0,247.0,12.0,0.0,0.0,1.0
8400000.0,32.9375,3.3371457377345194E-6,8400000.0,90.9,81.10151187904968,81.90854870775348,78.48699763593382,675940.0,465656.0,0.0,1.0,0.0,?,0.0,0.0,499.0,250.0,250.0,12.0,0.0,0.0,1.0
8500000.0,33.359375,3.3945853485622337E-6,8500000.0,88.8,76.65187952369834,75.70498915401302,72.41379310344827,695940.0,473352.0,0.0,1.0,0.0,?,0.0,0.0,507.0,254.0,254.0,13.0,0.0,0.0,1.0
8600000.0,33.796875,3.460181760601699E-6,8600000.0,88.1,75.63253036719115,75.8130081300813,72.26107226107227,715840.0,488024.0,0.0,1.0,0.0,?,0.0,0.0,525.0,263.0,263.0,13.0,0.0,0.0,1.0
8700000.0,34.234375,3.5260751610621807E-6,8700000.0,89.8,78.4263959390863,78.83817427385893,74.50000000000001,735840.0,500096.0,0.0,1.0,0.0,?,0.0,0.0,539.0,270.0,270.0,13.0,0.0,0.0,1.0
8800000.0,34.671875,3.5933421329698624E-6,8800000.0,90.2,79.95491902196369,80.4,77.67653758542141,755840.0,521552.0,0.0,1.0,0.0,?,0.0,0.0,561.0,281.0,281.0,13.0,0.0,0.0,1.0
8900000.0,35.109375,3.6616784442837033E-6,8900000.0,91.2,81.82681783450015,82.50497017892646,78.8968824940048,775840.0,540360.0,0.0,1.0,0.0,?,0.0,0.0,581.0,291.0,291.0,13.0,0.0,0.0,1.0
9000000.0,35.546875,3.731105825863778E-6,9000000.0,89.5,78.44916054349164,78.30578512396694,75.52447552447553,795840.0,559360.0,0.0,1.0,0.0,?,0.0,0.0,601.0,301.0,301.0,13.0,0.0,0.0,1.0
9100000.0,35.96875,3.8032556767575437E-6,9100000.0,88.3,76.01947956121798,75.97535934291582,72.91666666666667,815740.0,568416.0,0.0,1.0,0.0,?,0.0,0.0,609.0,305.0,305.0,13.0,0.0,0.0,1.0
9200000.0,36.40625,3.878223522204077E-6,9200000.0,88.6,76.51111807077984,76.68711656441718,72.98578199052133,835740.0,579144.0,0.0,1.0,0.0,?,0.0,0.0,625.0,313.0,313.0,13.0,0.0,0.0,1.0
9300000.0,36.828125,3.950293919640696E-6,9300000.0,87.8,74.85655872848382,75.45271629778672,70.3883495145631,855740.0,586648.0,0.0,1.0,0.0,?,0.0,0.0,629.0,315.0,315.0,13.0,0.0,0.0,1.0
9400000.0,37.265625,4.025502615453054E-6,9400000.0,89.60000000000001,78.56730689967853,78.94736842105263,75.11961722488039,875740.0,600200.0,0.0,1.0,0.0,?,0.0,0.0,649.0,325.0,325.0,13.0,0.0,0.0,1.0
9500000.0,37.703125,4.101948159384644E-6,9500000.0,90.3,80.04690006993872,80.0,77.44186046511629,895740.0,620488.0,0.0,1.0,0.0,?,0.0,0.0,665.0,333.0,333.0,13.0,0.0,0.0,1.0
9600000.0,38.140625,4.183964952567798E-6,9600000.0,89.0,77.51164283582273,78.08764940239044,74.94305239179954,915640.0,631168.0,0.0,1.0,0.0,?,0.0,0.0,677.0,339.0,339.0,13.0,0.0,0.0,1.0
9700000.0,38.59375,4.2696273885667315E-6,9700000.0,89.9,78.92988868305547,80.2734375,75.42579075425792,935640.0,646680.0,0.0,1.0,0.0,?,0.0,0.0,695.0,348.0,348.0,13.0,0.0,0.0,1.0
9800000.0,39.046875,4.3554530000417585E-6,9800000.0,91.2,81.8765214454298,82.25806451612904,78.8968824940048,955640.0,657528.0,0.0,1.0,0.0,?,0.0,0.0,707.0,354.0,354.0,13.0,0.0,0.0,1.0
9900000.0,39.5,4.441722186230536E-6,9900000.0,91.60000000000001,82.78441579734799,83.81502890173411,80.41958041958043,975640.0,670744.0,0.0,1.0,0.0,?,0.0,0.0,721.0,361.0,361.0,13.0,0.0,0.0,1.0
1.0E7,39.953125,4.5283833686779765E-6,1.0E7,90.5,80.43351101078423,80.1255230125523,77.54137115839245,995640.0,683528.0,0.0,1.0,0.0,?,0.0,0.0,733.0,367.0,367.0,13.0,0.0,0.0,1.0
