learning evaluation instances,evaluation time (cpu seconds),model cost (RAM-Hours),classified instances,classifications correct (percent),Kappa Statistic (percent),Kappa Temporal Statistic (percent),Kappa M Statistic (percent),model training instances,model serialized size (bytes),labeling cost,newThreshold,maxPosterior,accuracyBaseLearner (percent),Change detected,Warning detected
100000.0,0.125,5.436336828602685E-9,100000.0,67.30000000000001,30.971882124461704,29.373650107991367,28.13186813186814,9900.0,9208.0,0.0,1.0,0.0,?,0.0,4.0
200000.0,0.265625,1.0999242982102766E-8,200000.0,69.5,33.744047825935844,33.40611353711789,29.561200923787528,19900.0,9208.0,0.0,1.0,0.0,?,0.0,0.0
300000.0,0.40625,1.6009176356924905E-8,300000.0,70.0,34.11111501563763,36.97478991596637,29.245283018867923,29900.0,9208.0,0.0,1.0,0.0,?,0.0,0.0
400000.0,0.546875,2.0474868102206126E-8,400000.0,69.5,33.48395763909486,38.87775551102203,28.904428904428904,39900.0,9208.0,0.0,1.0,0.0,?,0.0,13.0
500000.0,0.671875,2.3952840516964597E-8,500000.0,72.1,37.125910434845316,40.764331210191074,30.94059405940594,49900.0,9208.0,0.0,1.0,0.0,?,0.0,20.0
600000.0,0.8125,2.7312586704889935E-8,600000.0,68.4,30.48742394312289,39.694656488549626,25.995316159250603,59900.0,9208.0,0.0,1.0,0.0,?,0.0,0.0
700000.0,0.9375,2.9807496401998736E-8,700000.0,69.6,33.40460209249749,36.26834381551362,28.638497652582156,69900.0,9208.0,0.0,1.0,0.0,?,0.0,0.0
800000.0,1.0625,3.18108747402827E-8,800000.0,67.0,28.292358572974486,31.818181818181824,23.787528868360294,79900.0,9208.0,0.0,1.0,0.0,?,0.0,0.0
900000.0,1.171875,3.313374084730944E-8,900000.0,68.60000000000001,32.2925651198896,38.55185909980432,28.636363636363637,89900.0,9208.0,0.0,1.0,0.0,?,0.0,0.0
1000000.0,1.28125,3.402651701536444E-8,1000000.0,68.2,30.516710949517574,34.96932515337424,25.70093457943927,99900.0,9208.0,0.0,1.0,0.0,?,0.0,0.0
1100000.0,1.40625,3.9475530179010505E-8,1100000.0,68.5,31.651304483674448,34.782608695652186,27.25173210161665,109800.0,9208.0,0.0,1.0,0.0,?,0.0,0.0
1200000.0,1.546875,4.505269720943439E-8,1200000.0,71.3,35.6588799713043,43.39250493096646,30.508474576271183,119800.0,9208.0,0.0,1.0,0.0,?,0.0,0.0
1300000.0,1.671875,4.951864765543078E-8,1300000.0,68.30000000000001,29.467782128871505,35.17382413087935,24.703087885985767,129800.0,9208.0,0.0,1.0,0.0,?,0.0,0.0
1400000.0,1.796875,5.349306674260233E-8,1400000.0,67.60000000000001,27.812633680308014,34.01221995926681,22.48803827751198,139800.0,9208.0,0.0,1.0,0.0,?,0.0,0.0
1500000.0,1.9375,5.7411315436992386E-8,1500000.0,68.30000000000001,30.240132389704605,35.17382413087935,25.059101654846355,149800.0,9208.0,0.0,1.0,0.0,?,0.0,0.0
1600000.0,2.0625,6.040267180651427E-8,1600000.0,69.5,32.65859452966995,35.517970401691315,27.55344418052256,159800.0,9208.0,0.0,1.0,0.0,?,0.0,0.0
1700000.0,2.1875,6.290249681721132E-8,1700000.0,69.8,33.54575220927366,37.34439834024895,28.436018957345965,169800.0,9208.0,0.0,1.0,0.0,?,0.0,0.0
1800000.0,2.328125,6.516182717556756E-8,1800000.0,69.89999999999999,35.880503412605755,38.696537678207726,32.51121076233182,179800.0,9208.0,0.0,1.0,0.0,?,0.0,0.0
1900000.0,2.453125,6.667858946861493E-8,1900000.0,69.39999999999999,32.59169512060798,36.382536382536365,27.999999999999996,189800.0,9208.0,0.0,1.0,0.0,?,0.0,0.0
2000000.0,2.578125,6.770382040283747E-8,2000000.0,68.30000000000001,30.895868575713724,36.472945891783574,26.78983833718247,199800.0,9208.0,0.0,1.0,0.0,?,0.0,0.0
2100000.0,2.703125,7.315774888007177E-8,2100000.0,65.8,23.43889214733761,31.46292585170341,18.377088305489274,209700.0,9208.0,0.0,1.0,0.0,?,0.0,0.0
2200000.0,2.84375,7.874044563828243E-8,2200000.0,69.1,31.284468955701815,33.1168831168831,25.54216867469879,219700.0,9208.0,0.0,1.0,0.0,?,0.0,0.0
2300000.0,2.953125,8.2652453177919E-8,2300000.0,67.10000000000001,28.16217443708842,30.29661016949153,23.84259259259261,229700.0,9208.0,0.0,1.0,0.0,?,0.0,0.0
2400000.0,3.078125,8.66317875786788E-8,2400000.0,68.30000000000001,29.654976522071046,34.9075975359343,24.16267942583734,239700.0,9208.0,0.0,1.0,0.0,?,0.0,0.0
2500000.0,3.21875,9.055556600085564E-8,2500000.0,66.60000000000001,26.4900079232327,30.41666666666667,22.325581395348852,249700.0,9208.0,0.0,1.0,0.0,?,0.0,0.0
2600000.0,3.34375,9.355183768396577E-8,2600000.0,70.39999999999999,35.53333101021012,39.094650205761305,30.516431924882625,259700.0,9208.0,0.0,1.0,0.0,?,0.0,0.0
2700000.0,3.46875,9.605657800825107E-8,2700000.0,68.7,31.49965421550692,37.40000000000001,26.525821596244153,269700.0,9208.0,0.0,1.0,0.0,?,0.0,0.0
2800000.0,3.609375,9.832143809439409E-8,2800000.0,68.89999999999999,30.418829425451932,36.530612244897945,25.060240963855414,279700.0,9208.0,0.0,1.0,0.0,?,0.0,0.0
2900000.0,3.734375,9.984311570102972E-8,2900000.0,67.30000000000001,27.868071364286113,34.33734939759037,22.877358490566056,289700.0,9208.0,0.0,1.0,0.0,?,0.0,0.0
3000000.0,3.859375,1.008732619488405E-7,3000000.0,68.89999999999999,29.751170060897365,35.4771784232365,23.58722358722358,299700.0,9208.0,0.0,1.0,0.0,?,0.0,0.0
3100000.0,3.984375,1.0633210573966305E-7,3100000.0,67.7,28.802560462717253,33.67556468172486,23.459715639810444,309600.0,9208.0,0.0,1.0,0.0,?,0.0,0.0
3200000.0,4.125,1.1192033222566048E-7,3200000.0,70.5,34.840037814866186,37.76371308016876,30.09478672985782,319600.0,9208.0,0.0,1.0,0.0,?,0.0,0.0
3300000.0,4.25,1.1639611329883337E-7,3300000.0,70.19999999999999,32.6985618269856,38.42975206611569,26.237623762376234,329600.0,9208.0,0.0,1.0,0.0,?,0.0,0.0
3400000.0,4.359375,1.198823317988879E-7,3400000.0,68.4,31.868359321098396,34.02922755741128,28.506787330316747,339600.0,9208.0,0.0,1.0,0.0,?,0.0,0.0
3500000.0,4.5,1.2381163994885153E-7,3500000.0,68.60000000000001,30.927376956141106,37.94466403162057,26.463700234192057,349600.0,9208.0,0.0,1.0,0.0,?,0.0,0.0
3600000.0,4.609375,1.264376785709626E-7,3600000.0,69.1,30.78081037974229,37.322515212981735,25.181598062953984,359600.0,9208.0,0.0,1.0,0.0,?,0.0,0.0
3700000.0,4.734375,1.2894733420883615E-7,3700000.0,67.7,28.790003262872926,29.629629629629633,22.727272727272744,369600.0,9208.0,0.0,1.0,0.0,?,0.0,0.0
3800000.0,4.875,1.3121772402276595E-7,3800000.0,69.39999999999999,30.39126478616923,41.04046242774565,23.499999999999993,379600.0,9208.0,0.0,1.0,0.0,?,0.0,0.0
3900000.0,5.0,1.327443169429898E-7,3900000.0,66.0,24.394376720583868,29.752066115702487,18.46522781774582,389600.0,9208.0,0.0,1.0,0.0,?,0.0,0.0
4000000.0,5.125,1.3377937850438884E-7,4000000.0,71.0,33.98047643330661,43.35937499999999,26.76767676767676,399600.0,9208.0,0.0,1.0,0.0,?,0.0,0.0
4100000.0,5.25,1.3924313760879966E-7,4100000.0,66.8,26.722787006096137,35.90733590733592,21.140142517814745,409500.0,9208.0,0.0,1.0,0.0,?,0.0,0.0
4200000.0,5.390625,1.4483689382258387E-7,4200000.0,69.3,29.938747752106394,34.957627118644055,23.057644110275678,419500.0,9208.0,0.0,1.0,0.0,?,0.0,0.0
4300000.0,5.515625,1.49317590209345E-7,4300000.0,72.0,38.4184990828755,44.66403162055336,32.853717026378895,429500.0,9208.0,0.0,1.0,0.0,?,0.0,0.0
4400000.0,5.625,1.5280810960878926E-7,4400000.0,71.0,36.86731250680309,38.42887473460721,31.76470588235294,439500.0,9208.0,0.0,1.0,0.0,?,0.0,0.0
4500000.0,5.765625,1.5674294748653965E-7,4500000.0,68.7,30.36025773379375,35.860655737704924,25.29832935560861,449500.0,9208.0,0.0,1.0,0.0,?,0.0,0.0
4600000.0,5.890625,1.597490497968263E-7,4600000.0,68.8,31.76599234554401,36.45621181262728,26.58823529411764,459500.0,9208.0,0.0,1.0,0.0,?,0.0,0.0
4700000.0,6.015625,1.6226362074828807E-7,4700000.0,70.3,33.72725081892588,41.30434782608695,28.087167070217912,469500.0,9208.0,0.0,1.0,0.0,?,0.0,0.0
4800000.0,6.140625,1.6428666034092502E-7,4800000.0,68.60000000000001,31.060223505390056,34.03361344537816,26.463700234192057,479500.0,9208.0,0.0,1.0,0.0,?,0.0,0.0
4900000.0,6.265625,1.6581816857473714E-7,4900000.0,67.0,27.664574053940328,32.653061224489804,23.61111111111113,489500.0,9208.0,0.0,1.0,0.0,?,0.0,0.0
5000000.0,6.390625,1.6693290995640885E-7,5000000.0,68.2,29.58993888938094,36.27254509018037,24.644549763033194,499500.0,9208.0,0.0,1.0,0.0,?,0.0,0.0
5100000.0,6.515625,1.7244866790456903E-7,5100000.0,59.699999999999996,19.27730149827738,18.58585858585858,18.749999999999993,6055.0,9208.0,0.0,1.0,0.0,?,2.0,21.0
5200000.0,6.65625,1.7810092281757128E-7,5200000.0,61.3,22.51073236368296,20.206185567010305,20.696721311475404,16055.0,9208.0,0.0,1.0,0.0,?,0.0,0.0
5300000.0,6.78125,1.8263361804808178E-7,5300000.0,63.1,24.71108644554714,27.218934911242602,18.362831858407073,26055.0,9208.0,0.0,1.0,0.0,?,0.0,0.0
5400000.0,6.921875,1.8717992740372816E-7,5400000.0,61.1,22.31311210876963,26.185958254269448,21.57258064516129,36055.0,9208.0,0.0,1.0,0.0,?,0.0,0.0
5500000.0,7.046875,1.90729559916589E-7,5500000.0,61.9,23.225728448797007,23.18548387096774,20.292887029288696,46055.0,9208.0,0.0,1.0,0.0,?,0.0,0.0
5600000.0,7.171875,1.9378766107062497E-7,5600000.0,58.8,16.077306651891927,15.746421267893652,11.965811965811953,56055.0,9208.0,0.0,1.0,0.0,?,0.0,0.0
5700000.0,7.3125,1.9667505209023753E-7,5700000.0,59.699999999999996,18.914133487859246,21.442495126705648,17.078189300411513,66055.0,9208.0,0.0,1.0,0.0,?,0.0,0.0
5800000.0,7.4375,1.9875009052662385E-7,5800000.0,61.9,22.805737904206175,25.440313111545986,14.382022471910103,76055.0,9208.0,0.0,1.0,0.0,?,0.0,0.0
5900000.0,7.578125,2.0053153598888052E-7,5900000.0,59.099999999999994,17.125952342356936,17.871485943775095,14.07563025210083,86055.0,9208.0,0.0,1.0,0.0,?,0.0,0.0
6000000.0,7.6875,2.0148701474277508E-7,6000000.0,61.199999999999996,22.07427045048301,18.828451882845183,23.921568627450977,96055.0,9208.0,0.0,1.0,0.0,?,0.0,0.0
6100000.0,7.796875,2.0631760384680496E-7,6100000.0,61.9,23.859085349768584,24.404761904761905,25.730994152046783,105955.0,9208.0,0.0,1.0,0.0,?,0.0,0.0
6200000.0,7.9375,2.1197538848759398E-7,6200000.0,62.3,24.333046989779945,25.04970178926441,23.217922606924642,115955.0,9208.0,0.0,1.0,0.0,?,0.0,0.0
6300000.0,8.0625,2.1651299903169274E-7,6300000.0,56.699999999999996,13.988319891939122,11.81262729124235,7.081545064377666,125955.0,9208.0,0.0,1.0,0.0,?,0.0,0.0
6400000.0,8.203125,2.2106483811512588E-7,6400000.0,60.5,20.714572460859085,22.700587084148726,21.78217821782178,135955.0,9208.0,0.0,1.0,0.0,?,0.0,0.0
6500000.0,8.328125,2.2461938594157495E-7,6500000.0,59.4,17.61898578014413,17.647058823529406,13.247863247863236,145955.0,9208.0,0.0,1.0,0.0,?,0.0,0.0
6600000.0,8.453125,2.276824024091992E-7,6600000.0,60.4,20.49469964664312,22.504892367906066,17.671517671517663,155955.0,9208.0,0.0,1.0,0.0,?,0.0,0.0
6700000.0,8.59375,2.3057532315659852E-7,6700000.0,62.6,25.359730177420325,24.899598393574294,25.2,165955.0,9208.0,0.0,1.0,0.0,?,0.0,0.0
6800000.0,8.71875,2.3265527690657307E-7,6800000.0,61.8,23.187053600154425,22.828282828282827,21.399176954732507,175955.0,9208.0,0.0,1.0,0.0,?,0.0,0.0
6900000.0,8.859375,2.344422520966165E-7,6900000.0,61.9,23.831076920616383,24.103585657370516,20.125786163522008,185955.0,9208.0,0.0,1.0,0.0,?,0.0,0.0
7000000.0,8.96875,2.354020317499008E-7,7000000.0,61.199999999999996,20.9118778944622,22.24448897795591,15.283842794759817,195955.0,9208.0,0.0,1.0,0.0,?,0.0,0.0
7100000.0,9.09375,2.409276203252375E-7,7100000.0,61.7,23.60534882236548,26.061776061776065,21.516393442622945,205855.0,9208.0,0.0,1.0,0.0,?,0.0,0.0
7200000.0,9.234375,2.465909346938133E-7,7200000.0,59.699999999999996,18.868425926671538,19.07630522088353,15.866388308977028,215855.0,9208.0,0.0,1.0,0.0,?,0.0,0.0
7300000.0,9.359375,2.511334605515003E-7,7300000.0,62.6,23.542086605963714,26.08695652173913,18.87201735357917,225855.0,9208.0,0.0,1.0,0.0,?,0.0,0.0
7400000.0,9.5,2.5569082936272023E-7,7400000.0,56.8,12.43184075568078,17.39961759082217,8.280254777070049,235855.0,9208.0,0.0,1.0,0.0,?,0.0,0.0
7500000.0,9.625,2.5925029250275757E-7,7500000.0,59.099999999999994,18.11549519103715,24.259259259259245,16.016427104722787,245855.0,9208.0,0.0,1.0,0.0,?,0.0,0.0
7600000.0,9.765625,2.627017157566216E-7,7600000.0,63.4,26.70148679825686,25.910931174089068,26.358148893360163,255855.0,9208.0,0.0,1.0,0.0,?,0.0,0.0
7700000.0,9.890625,2.652781161790093E-7,7700000.0,61.3,21.840287595427558,22.444889779559116,19.709543568464724,265855.0,9208.0,0.0,1.0,0.0,?,0.0,0.0
7800000.0,10.015625,2.673629852425721E-7,7800000.0,62.5,23.592263869532264,23.935091277890468,16.851441241685137,275855.0,9208.0,0.0,1.0,0.0,?,0.0,0.0
7900000.0,10.15625,2.691554901604023E-7,7900000.0,60.4,20.323534737731624,22.807017543859647,18.685831622176586,285855.0,9208.0,0.0,1.0,0.0,?,0.0,0.0
8000000.0,10.28125,2.7025729650631545E-7,8000000.0,61.0,21.11490928214567,19.087136929460573,16.488222698072796,295855.0,9208.0,0.0,1.0,0.0,?,0.0,0.0
8100000.0,10.40625,2.7578780039524037E-7,8100000.0,60.3,20.215117727919484,22.612085769980506,17.634854771784227,305755.0,9208.0,0.0,1.0,0.0,?,0.0,0.0
8200000.0,10.53125,2.8082677292534045E-7,8200000.0,62.5,25.189121899837218,25.0,25.595238095238095,315755.0,9208.0,0.0,1.0,0.0,?,0.0,0.0
8300000.0,10.671875,2.859426442430251E-7,8300000.0,62.0,24.722662440570524,21.97125256673511,21.325051759834366,325755.0,9208.0,0.0,1.0,0.0,?,0.0,0.0
8400000.0,10.796875,2.8999855405547555E-7,8400000.0,62.6,24.88602357855837,23.360655737704917,23.517382413087933,335755.0,9208.0,0.0,1.0,0.0,?,0.0,0.0
8500000.0,10.90625,2.931173852023979E-7,8500000.0,63.4,25.913030804795,24.380165289256198,20.261437908496728,345755.0,9208.0,0.0,1.0,0.0,?,0.0,0.0
8600000.0,11.046875,2.9657433818404875E-7,8600000.0,59.9,19.3639200797915,18.32993890020366,16.804979253112027,355755.0,9208.0,0.0,1.0,0.0,?,0.0,0.0
8700000.0,11.171875,2.9915565392002463E-7,8700000.0,60.8,20.039164490861616,21.7564870259481,14.782608695652163,365755.0,9208.0,0.0,1.0,0.0,?,0.0,0.0
8800000.0,11.3125,3.015066613443196E-7,8800000.0,60.5,20.80486318288262,20.2020202020202,19.87829614604462,375755.0,9208.0,0.0,1.0,0.0,?,0.0,0.0
8900000.0,11.421875,3.0290513273535507E-7,8900000.0,60.699999999999996,20.877793436682104,23.984526112185687,17.263157894736835,385755.0,9208.0,0.0,1.0,0.0,?,0.0,0.0
9000000.0,11.53125,3.0387351418741877E-7,9000000.0,60.199999999999996,18.968662453580045,26.022304832713743,11.946902654867243,395755.0,9208.0,0.0,1.0,0.0,?,0.0,0.0
9100000.0,11.671875,3.1010086079024606E-7,9100000.0,57.8,14.411691930766757,17.416829745596864,8.459869848156167,405655.0,9208.0,0.0,1.0,0.0,?,0.0,0.0
9200000.0,11.8125,3.157752346143954E-7,9200000.0,60.4,20.799999999999997,21.893491124260354,20.799999999999997,415655.0,9208.0,0.0,1.0,0.0,?,0.0,0.0
9300000.0,11.953125,3.208966356598668E-7,9300000.0,59.599999999999994,18.7818891654236,19.199999999999996,17.043121149897324,425655.0,9208.0,0.0,1.0,0.0,?,0.0,0.0
9400000.0,12.078125,3.2495746078590546E-7,9400000.0,62.5,25.184345772017753,27.18446601941748,28.97727272727273,435655.0,9208.0,0.0,1.0,0.0,?,0.0,0.0
9500000.0,12.21875,3.28972916274021E-7,9500000.0,61.199999999999996,22.068009721413222,23.921568627450977,22.24448897795591,445655.0,9208.0,0.0,1.0,0.0,?,0.0,0.0
9600000.0,12.34375,3.3205067868240996E-7,9600000.0,60.199999999999996,20.189299751343544,20.558882235528937,19.59595959595959,455655.0,9208.0,0.0,1.0,0.0,?,0.0,0.0
9700000.0,12.484375,3.349601886131696E-7,9700000.0,61.8,23.033526756931007,29.259259259259252,20.083682008368196,465655.0,9208.0,0.0,1.0,0.0,?,0.0,0.0
9800000.0,12.609375,3.370548883039089E-7,9800000.0,62.4,24.58249591822816,25.83826429980276,23.732251521298174,475655.0,9208.0,0.0,1.0,0.0,?,0.0,0.0
9900000.0,12.75,3.388584526773127E-7,9900000.0,63.5,25.634046159864393,27.579365079365083,20.479302832244002,485655.0,9208.0,0.0,1.0,0.0,?,0.0,0.0
1.0E7,12.875,3.3997008965040235E-7,1.0E7,60.3,19.237372956522442,22.003929273084477,16.77148846960167,495655.0,9208.0,0.0,1.0,0.0,?,0.0,0.0
