learning evaluation instances,evaluation time (cpu seconds),model cost (RAM-Hours),classified instances,classifications correct (percent),Kappa Statistic (percent),Kappa Temporal Statistic (percent),Kappa M Statistic (percent),model training instances,model serialized size (bytes),labeling cost,newThreshold,maxPosterior,accuracyBaseLearner (percent),Change detected,Warning detected
100000.0,0.296875,2.11112718615267E-9,100000.0,69.19999999999999,37.45608726906471,34.18803418803417,31.707317073170714,9940.0,2904.0,0.0,1.0,0.0,?,0.0,0.0
200000.0,0.578125,3.027315768930647E-9,200000.0,69.89999999999999,38.35605216593484,38.696537678207726,31.43507972665146,19900.0,2904.0,0.0,1.0,0.0,?,0.0,0.0
300000.0,0.890625,5.310996332102352E-9,300000.0,69.69999999999999,38.039343994110666,36.47798742138363,33.40659340659339,29840.0,2904.0,0.0,1.0,0.0,?,0.0,0.0
400000.0,1.21875,6.444396502855751E-9,400000.0,68.30000000000001,34.93698945035098,33.8204592901879,26.10722610722613,39800.0,2904.0,0.0,1.0,0.0,?,0.0,0.0
500000.0,1.515625,8.67226238672932E-9,500000.0,67.80000000000001,34.73114094830383,31.34328358208956,31.196581196581203,49740.0,2904.0,0.0,1.0,0.0,?,0.0,0.0
600000.0,1.796875,9.699045525242885E-9,600000.0,71.2,41.1042944785276,41.81818181818181,35.999999999999986,59700.0,2904.0,0.0,1.0,0.0,?,0.0,0.0
700000.0,2.109375,1.2105608928120798E-8,700000.0,67.4,33.5236541598695,32.921810699588484,25.90909090909091,69640.0,2904.0,0.0,1.0,0.0,?,0.0,0.0
800000.0,2.390625,1.3187689344502157E-8,800000.0,68.5,35.593358959679406,33.26271186440678,28.40909090909091,79600.0,2904.0,0.0,1.0,0.0,?,0.0,0.0
900000.0,2.6875,1.5532293926096624E-8,900000.0,66.8,32.75758705056953,32.793522267206484,24.8868778280543,89540.0,2904.0,0.0,1.0,0.0,?,0.0,0.0
1000000.0,2.984375,1.6732859270026285E-8,1000000.0,70.19999999999999,39.385803260148805,40.16064257028111,34.21633554083884,99500.0,2904.0,0.0,1.0,0.0,?,0.0,0.0
1100000.0,3.28125,1.91358332004812E-8,1100000.0,67.2,33.28858787398053,34.13654618473896,27.272727272727277,109440.0,2904.0,0.0,1.0,0.0,?,0.0,0.0
1200000.0,3.5625,2.0328508172598148E-8,1200000.0,67.2,33.40804625704495,32.23140495867769,29.00432900432901,119400.0,2904.0,0.0,1.0,0.0,?,0.0,0.0
1300000.0,3.875,2.2919395835035376E-8,1300000.0,68.7,36.639163070146324,39.105058365758765,32.25108225108226,129340.0,2904.0,0.0,1.0,0.0,?,0.0,0.0
1400000.0,4.1875,2.4306031668351757E-8,1400000.0,70.19999999999999,38.78389482333606,40.04024144869214,32.27272727272725,139300.0,2904.0,0.0,1.0,0.0,?,0.0,0.0
1500000.0,4.46875,2.6693127842413055E-8,1500000.0,68.0,34.683213585891586,34.826883910386975,27.927927927927932,149240.0,2904.0,0.0,1.0,0.0,?,0.0,0.0
1600000.0,4.765625,2.8068801232924066E-8,1600000.0,69.5,36.50383891544392,31.306306306306286,25.42787286063569,159200.0,2904.0,0.0,1.0,0.0,?,0.0,0.0
1700000.0,5.046875,3.051119468485316E-8,1700000.0,70.5,39.551162256975175,36.00867678958784,33.558558558558545,169140.0,2904.0,0.0,1.0,0.0,?,0.0,0.0
1800000.0,5.359375,3.2020713357875745E-8,1800000.0,69.1,36.53310548238948,36.680327868852444,28.637413394919164,179100.0,2904.0,0.0,1.0,0.0,?,0.0,0.0
1900000.0,5.65625,3.465716468377246E-8,1900000.0,71.1,40.59316389708844,39.539748953974886,32.94663573085847,189040.0,2904.0,0.0,1.0,0.0,?,0.0,0.0
2000000.0,5.953125,3.6149576772004364E-8,2000000.0,69.5,37.851495639416406,39.12175648702594,31.46067415730335,199000.0,2904.0,0.0,1.0,0.0,?,0.0,0.0
2100000.0,6.265625,3.898623011385401E-8,2100000.0,68.8,35.5307964426224,40.22988505747126,27.777777777777775,208940.0,2904.0,0.0,1.0,0.0,?,0.0,0.0
2200000.0,6.5625,4.053701155094637E-8,2200000.0,69.1,36.92332816199884,37.951807228915655,30.561797752808967,218900.0,2904.0,0.0,1.0,0.0,?,0.0,0.0
2300000.0,6.859375,4.329020157456398E-8,2300000.0,68.5,36.225522748254825,36.363636363636374,32.54817987152035,228840.0,2904.0,0.0,1.0,0.0,?,0.0,0.0
2400000.0,7.171875,4.4984044507145885E-8,2400000.0,67.30000000000001,33.06860979204194,33.939393939393945,24.82758620689657,238800.0,2904.0,0.0,1.0,0.0,?,0.0,0.0
2500000.0,7.46875,4.7795603879623945E-8,2500000.0,68.0,34.517207650027224,33.19415448851775,28.730512249443212,248740.0,2904.0,0.0,1.0,0.0,?,0.0,0.0
2600000.0,7.765625,4.9463124014437204E-8,2600000.0,68.4,35.203146338362615,34.979423868312765,28.018223234624152,258700.0,2904.0,0.0,1.0,0.0,?,0.0,0.0
2700000.0,8.0625,5.233305273577571E-8,2700000.0,69.39999999999999,37.30561667916456,36.51452282157675,30.61224489795916,268640.0,2904.0,0.0,1.0,0.0,?,0.0,0.0
2800000.0,8.359375,5.405894221944942E-8,2800000.0,70.0,37.94267558085656,37.75933609958505,29.577464788732392,278600.0,2904.0,0.0,1.0,0.0,?,0.0,0.0
2900000.0,8.65625,5.698724028964838E-8,2900000.0,69.69999999999999,38.82841268815814,41.392649903288195,35.25641025641024,288540.0,2904.0,0.0,1.0,0.0,?,0.0,0.0
3000000.0,8.9375,5.867759076257547E-8,3000000.0,69.19999999999999,37.16850265197877,33.6206896551724,31.555555555555536,298500.0,2904.0,0.0,1.0,0.0,?,0.0,0.0
3100000.0,9.234375,6.166425818163488E-8,3100000.0,66.7,32.34457537586347,34.960937500000014,27.765726681127983,308440.0,2904.0,0.0,1.0,0.0,?,0.0,0.0
3200000.0,9.546875,6.360386679362921E-8,3200000.0,70.39999999999999,39.54569406036443,40.56224899598393,33.18284424379231,318400.0,2904.0,0.0,1.0,0.0,?,0.0,0.0
3300000.0,9.875,6.696943374764589E-8,3300000.0,68.7,36.205772052828976,37.2745490981964,26.869158878504695,328340.0,2904.0,0.0,1.0,0.0,?,0.0,0.0
3400000.0,10.1875,6.897048377949331E-8,3400000.0,68.7,35.24602373347017,35.72895277207393,26.00472813238773,338300.0,2904.0,0.0,1.0,0.0,?,0.0,0.0
3500000.0,10.484375,7.207388989627361E-8,3500000.0,69.5,37.884909902570946,40.31311154598825,32.071269487750534,348240.0,2904.0,0.0,1.0,0.0,?,0.0,0.0
3600000.0,10.796875,7.413638134797415E-8,3600000.0,70.6,39.79579717326932,41.89723320158102,34.81152993348114,358200.0,2904.0,0.0,1.0,0.0,?,0.0,0.0
3700000.0,11.09375,7.729815681361491E-8,3700000.0,70.1,39.25085536421041,39.95983935742971,34.71615720524016,368140.0,2904.0,0.0,1.0,0.0,?,0.0,0.0
3800000.0,11.390625,7.931589304159086E-8,3800000.0,69.69999999999999,37.64970244709483,35.94080338266383,31.44796380090496,378100.0,2904.0,0.0,1.0,0.0,?,0.0,0.0
3900000.0,11.6875,8.253603785609206E-8,3900000.0,69.39999999999999,37.179739850216784,39.644970414201175,30.136986301369845,388040.0,2904.0,0.0,1.0,0.0,?,0.0,0.0
4000000.0,11.96875,8.450287471835813E-8,4000000.0,69.1,37.171625160629176,37.701612903225794,32.23684210526314,398000.0,2904.0,0.0,1.0,0.0,?,0.0,0.0
4100000.0,12.265625,8.543494105752972E-8,4100000.0,65.9,30.679221655729847,32.8740157480315,25.38293216630197,407960.0,2904.0,0.0,1.0,0.0,?,0.0,0.0
4200000.0,12.5625,8.756941598322657E-8,4200000.0,67.9,34.686004492626246,36.05577689243029,30.065359477124186,417900.0,2904.0,0.0,1.0,0.0,?,0.0,0.0
4300000.0,12.890625,8.866410805947251E-8,4300000.0,68.5,36.769842225701574,36.105476673428,35.31827515400411,427860.0,2904.0,0.0,1.0,0.0,?,0.0,0.0
4400000.0,13.1875,9.085695233402981E-8,4400000.0,68.89999999999999,36.733581245473694,39.257812499999986,31.042128603104196,437800.0,2904.0,0.0,1.0,0.0,?,0.0,0.0
4500000.0,13.46875,9.18505571058227E-8,4500000.0,66.2,30.55098954566376,28.691983122362874,22.477064220183504,447760.0,2904.0,0.0,1.0,0.0,?,0.0,0.0
4600000.0,13.765625,9.410177072924045E-8,4600000.0,69.89999999999999,38.8166613817271,38.94523326572007,34.4226579520697,457700.0,2904.0,0.0,1.0,0.0,?,0.0,0.0
4700000.0,14.078125,9.526721745108564E-8,4700000.0,70.19999999999999,38.266489890619816,36.46055437100212,29.047619047619044,467660.0,2904.0,0.0,1.0,0.0,?,0.0,0.0
4800000.0,14.375,9.757680042336384E-8,4800000.0,70.7,40.20017633804655,41.51696606786427,33.86004514672685,477600.0,2904.0,0.0,1.0,0.0,?,0.0,0.0
4900000.0,14.65625,9.868099975089232E-8,4900000.0,69.3,37.424073183259814,37.72819472616632,30.542986425339347,487560.0,2904.0,0.0,1.0,0.0,?,0.0,0.0
5000000.0,14.953125,1.01217915976627E-7,5000000.0,71.7,42.38787010195107,41.889117043121146,35.53530751708427,497500.0,2904.0,0.0,1.0,0.0,?,0.0,0.0
5100000.0,15.234375,1.0268358487842811E-7,5100000.0,73.0,38.258336267967955,42.553191489361694,27.223719676549862,7194.0,2904.0,0.0,1.0,0.0,?,2.0,19.0
5200000.0,15.53125,1.0543308841685454E-7,5200000.0,73.2,38.92907112940199,45.08196721311475,29.65879265091863,17134.0,2904.0,0.0,1.0,0.0,?,0.0,0.0
5300000.0,15.84375,1.0712305083870887E-7,5300000.0,76.3,46.26727609097835,47.333333333333336,36.46112600536193,27094.0,2904.0,0.0,1.0,0.0,?,0.0,0.0
5400000.0,16.15625,1.1007870650953716E-7,5400000.0,74.2,40.01813405249576,42.793791574279375,28.92561983471074,37034.0,2904.0,0.0,1.0,0.0,?,0.0,0.0
5500000.0,16.4375,1.1165496996707386E-7,5500000.0,74.5,40.10485174189184,46.764091858037574,29.945054945054945,46994.0,2904.0,0.0,1.0,0.0,?,0.0,0.0
5600000.0,16.734375,1.1452121220322118E-7,5600000.0,73.6,41.17253827127482,46.98795180722891,32.48081841432225,56934.0,2904.0,0.0,1.0,0.0,?,0.0,0.0
5700000.0,17.046875,1.1633405746478172E-7,5700000.0,71.3,33.90569009828936,35.79418344519014,23.262032085561486,66894.0,2904.0,0.0,1.0,0.0,?,0.0,0.0
5800000.0,17.328125,1.1910474212426276E-7,5800000.0,72.5,36.889549827421604,42.34800838574423,26.075268817204293,76834.0,2904.0,0.0,1.0,0.0,?,0.0,0.0
5900000.0,17.640625,1.2097902880567641E-7,5900000.0,72.6,38.910193525372335,42.3157894736842,29.743589743589737,86794.0,2904.0,0.0,1.0,0.0,?,0.0,0.0
6000000.0,17.9375,1.2396200973954464E-7,6000000.0,73.3,40.494762647648756,43.67088607594936,30.82901554404145,96734.0,2904.0,0.0,1.0,0.0,?,0.0,0.0
6100000.0,18.21875,1.257041650306847E-7,6100000.0,72.0,37.56828468862182,42.268041237113394,29.82456140350877,106694.0,2904.0,0.0,1.0,0.0,?,0.0,0.0
6200000.0,18.515625,1.2874551531341338E-7,6200000.0,72.89999999999999,39.44945929037446,40.43956043956043,29.61038961038961,116634.0,2904.0,0.0,1.0,0.0,?,0.0,0.0
6300000.0,18.8125,1.3064282635847725E-7,6300000.0,72.7,34.74831492901189,39.99999999999999,21.098265895953748,126594.0,2904.0,0.0,1.0,0.0,?,0.0,0.0
6400000.0,19.125,1.3390568912857107E-7,6400000.0,74.5,41.52341815113101,45.16129032258064,30.894308943089428,136534.0,2904.0,0.0,1.0,0.0,?,0.0,0.0
6500000.0,19.4375,1.3596430006954404E-7,6500000.0,73.4,40.794423101749004,44.927536231884055,32.31552162849873,146494.0,2904.0,0.0,1.0,0.0,?,0.0,0.0
6600000.0,19.71875,1.3895617384049627E-7,6600000.0,73.5,38.979460256056,42.516268980477214,29.521276595744677,156434.0,2904.0,0.0,1.0,0.0,?,0.0,0.0
6700000.0,20.03125,1.4107622620132235E-7,6700000.0,71.7,35.57111764759449,37.25055432372504,25.132275132275122,166394.0,2904.0,0.0,1.0,0.0,?,0.0,0.0
6800000.0,20.328125,1.4429268453063236E-7,6800000.0,74.6,39.96208629386431,43.80530973451327,28.851540616246496,176334.0,2904.0,0.0,1.0,0.0,?,0.0,0.0
6900000.0,20.609375,1.4625602893324362E-7,6900000.0,73.7,40.07418952050238,43.44086021505375,31.15183246073298,186294.0,2904.0,0.0,1.0,0.0,?,0.0,0.0
7000000.0,20.890625,1.4935849725993145E-7,7000000.0,73.0,40.121619643657105,43.98340248962655,32.33082706766917,196234.0,2904.0,0.0,1.0,0.0,?,0.0,0.0
7100000.0,21.1875,1.514892857004371E-7,7100000.0,73.7,38.54623286070791,39.54022988505748,27.348066298342538,206194.0,2904.0,0.0,1.0,0.0,?,0.0,0.0
7200000.0,21.46875,1.546470513049927E-7,7200000.0,76.8,45.57465655731552,50.95137420718816,34.831460674157306,216134.0,2904.0,0.0,1.0,0.0,?,0.0,0.0
7300000.0,21.75,1.5672099026333956E-7,7300000.0,74.4,42.42403796414996,45.064377682403425,33.850129198966414,226094.0,2904.0,0.0,1.0,0.0,?,0.0,0.0
7400000.0,22.046875,1.6011255663923094E-7,7400000.0,75.5,44.741661629512016,46.7391304347826,35.35620052770449,236034.0,2904.0,0.0,1.0,0.0,?,0.0,0.0
7500000.0,22.359375,1.6247837467946944E-7,7500000.0,71.39999999999999,37.62621966911363,41.51329243353782,30.41362530413625,245994.0,2904.0,0.0,1.0,0.0,?,0.0,0.0
7600000.0,22.65625,1.6592831040422126E-7,7600000.0,71.7,33.92111628949555,36.689038031319896,21.60664819944597,255934.0,2904.0,0.0,1.0,0.0,?,0.0,0.0
7700000.0,22.9375,1.681128439183037E-7,7700000.0,71.89999999999999,35.4408859072738,39.95726495726495,24.054054054054046,265894.0,2904.0,0.0,1.0,0.0,?,0.0,0.0
7800000.0,23.25,1.7180579662736924E-7,7800000.0,74.6,42.06600825673426,44.05286343612334,31.16531165311653,275834.0,2904.0,0.0,1.0,0.0,?,0.0,0.0
7900000.0,23.546875,1.7417006246331672E-7,7900000.0,75.7,45.26238016290637,46.475770925110126,34.67741935483871,285794.0,2904.0,0.0,1.0,0.0,?,0.0,0.0
8000000.0,23.84375,1.7773673688578944E-7,8000000.0,75.5,43.64344009642723,48.95833333333333,34.49197860962567,295734.0,2904.0,0.0,1.0,0.0,?,0.0,0.0
8100000.0,24.171875,1.8041438630057712E-7,8100000.0,74.3,39.91283854556337,45.780590717299575,27.80898876404494,305694.0,2904.0,0.0,1.0,0.0,?,0.0,0.0
8200000.0,24.453125,1.8162568772418637E-7,8200000.0,72.5,38.69817209094962,38.75278396436524,31.25,315654.0,2904.0,0.0,1.0,0.0,?,0.0,0.0
8300000.0,24.75,1.8410669225785474E-7,8300000.0,74.5,42.90806182944959,46.985446985446984,33.420365535248045,325594.0,2904.0,0.0,1.0,0.0,?,0.0,0.0
8400000.0,25.046875,1.854436575538583E-7,8400000.0,75.6,42.627383667615035,46.95652173913043,29.275362318840575,335554.0,2904.0,0.0,1.0,0.0,?,0.0,0.0
8500000.0,25.359375,1.8811668269336232E-7,8500000.0,72.5,36.20910423664335,38.063063063063055,25.271739130434774,345494.0,2904.0,0.0,1.0,0.0,?,0.0,0.0
8600000.0,25.65625,1.8951201733822634E-7,8600000.0,73.9,41.47247187987729,47.48490945674044,32.03125,355454.0,2904.0,0.0,1.0,0.0,?,0.0,0.0
8700000.0,25.9375,1.9197303724164775E-7,8700000.0,72.2,36.28091407091612,40.47109207708778,27.792207792207783,365394.0,2904.0,0.0,1.0,0.0,?,0.0,0.0
8800000.0,26.25,1.93503251971884E-7,8800000.0,72.5,37.260448987041435,43.298969072164944,27.631578947368418,375354.0,2904.0,0.0,1.0,0.0,?,0.0,0.0
8900000.0,26.546875,1.9615936455213372E-7,8900000.0,71.1,35.60720842765725,39.28571428571427,26.275510204081627,385294.0,2904.0,0.0,1.0,0.0,?,0.0,0.0
9000000.0,26.84375,1.9767143789471862E-7,9000000.0,73.0,38.4258921404072,43.39622641509433,28.19148936170212,395254.0,2904.0,0.0,1.0,0.0,?,0.0,0.0
9100000.0,27.15625,2.0052878729378195E-7,9100000.0,74.8,40.6905316670197,47.933884297520656,29.01408450704225,405194.0,2904.0,0.0,1.0,0.0,?,0.0,0.0
9200000.0,27.453125,2.020992299852273E-7,9200000.0,74.6,42.35238579417532,45.95744680851063,33.85416666666667,415154.0,2904.0,0.0,1.0,0.0,?,0.0,0.0
9300000.0,27.734375,2.047261417222521E-7,9300000.0,72.5,39.80492417609358,44.33198380566801,33.41404358353511,425094.0,2904.0,0.0,1.0,0.0,?,0.0,0.0
9400000.0,28.03125,2.063549537625579E-7,9400000.0,71.6,37.28718494539126,43.426294820717125,29.528535980148877,435054.0,2904.0,0.0,1.0,0.0,?,0.0,0.0
9500000.0,28.359375,2.094841976132659E-7,9500000.0,73.7,41.36008918617614,46.435845213849284,33.75314861460957,444994.0,2904.0,0.0,1.0,0.0,?,0.0,0.0
9600000.0,28.640625,2.1108257998194972E-7,9600000.0,72.7,39.14942938659058,43.71134020618556,30.534351145038162,454954.0,2904.0,0.0,1.0,0.0,?,0.0,0.0
9700000.0,28.9375,2.1397216995764122E-7,9700000.0,75.4,43.34590777819232,48.10126582278481,34.048257372654156,464894.0,2904.0,0.0,1.0,0.0,?,0.0,0.0
9800000.0,29.234375,2.157177206956679E-7,9800000.0,74.4,42.92720989856203,46.21848739495798,35.189873417721515,474854.0,2904.0,0.0,1.0,0.0,?,0.0,0.0
9900000.0,29.53125,2.1866568002021985E-7,9900000.0,75.5,42.52819637059696,46.0352422907489,30.39772727272727,484794.0,2904.0,0.0,1.0,0.0,?,0.0,0.0
1.0E7,29.828125,2.20469600107107E-7,1.0E7,72.39999999999999,37.81458833708097,42.97520661157024,29.048843187660665,494754.0,2904.0,0.0,1.0,0.0,?,0.0,0.0
