learning evaluation instances,evaluation time (cpu seconds),model cost (RAM-Hours),classified instances,classifications correct (percent),Kappa Statistic (percent),Kappa Temporal Statistic (percent),Kappa M Statistic (percent),model training instances,model serialized size (bytes),labeling cost,newThreshold,maxPosterior,accuracyBaseLearner (percent),Change detected,Warning detected
100000.0,0.3125,1.2603898843129476E-8,100000.0,69.1,37.41493291853003,33.97435897435896,31.48558758314854,29700.0,2904.0,0.0,1.0,0.0,?,0.0,3.0
200000.0,0.625,2.397896928919686E-8,200000.0,68.4,35.71774393692203,35.64154786150714,28.018223234624152,59700.0,2904.0,0.0,1.0,0.0,?,0.0,0.0
300000.0,0.953125,3.463252344065242E-8,300000.0,67.7,34.43221956071617,32.28511530398323,29.010989010989015,89700.0,2904.0,0.0,1.0,0.0,?,0.0,0.0
400000.0,1.265625,4.354993709259563E-8,400000.0,69.6,37.876775314192294,36.53444676409185,29.137529137529132,119700.0,2904.0,0.0,1.0,0.0,?,0.0,0.0
500000.0,1.59375,5.1622951610220805E-8,500000.0,66.60000000000001,32.298761107867946,28.784648187633266,28.632478632478637,149700.0,2904.0,0.0,1.0,0.0,?,0.0,0.0
600000.0,1.90625,5.808270846803983E-8,600000.0,68.8,36.45621181262728,36.969696969696955,30.666666666666647,179700.0,2904.0,0.0,1.0,0.0,?,0.0,0.0
700000.0,2.234375,6.357518335183462E-8,700000.0,67.10000000000001,32.89548829240436,32.3045267489712,25.227272727272727,209700.0,2904.0,0.0,1.0,0.0,?,0.0,0.0
800000.0,2.546875,6.757728341552946E-8,800000.0,68.30000000000001,35.626675331004805,32.83898305084747,27.95454545454546,239700.0,2904.0,0.0,1.0,0.0,?,0.0,0.0
900000.0,2.921875,7.090520941548877E-8,900000.0,66.0,31.169630421403816,31.174089068825918,23.076923076923077,269700.0,2904.0,0.0,1.0,0.0,?,0.0,0.0
1000000.0,3.25,7.252687484853797E-8,1000000.0,68.5,36.42631103074141,36.74698795180724,30.463576158940402,299700.0,2904.0,0.0,1.0,0.0,?,0.0,0.0
1100000.0,3.5625,8.514306197563807E-8,1100000.0,65.5,29.844967545671945,30.722891566265066,23.50332594235033,329400.0,2904.0,0.0,1.0,0.0,?,0.0,0.0
1200000.0,3.890625,9.709978864217798E-8,1200000.0,66.10000000000001,31.22783669958535,29.95867768595042,26.623376623376625,359400.0,2904.0,0.0,1.0,0.0,?,0.0,0.0
1300000.0,4.21875,1.0776624549180268E-7,1300000.0,66.4,32.05642552090074,34.63035019455254,27.272727272727277,389400.0,2904.0,0.0,1.0,0.0,?,0.0,0.0
1400000.0,4.53125,1.1669594742771651E-7,1400000.0,71.2,41.04159842777595,42.05231388329979,34.54545454545453,419400.0,2904.0,0.0,1.0,0.0,?,0.0,0.0
1500000.0,4.859375,1.2478186464351083E-7,1500000.0,67.9,34.762462198809885,34.62321792260693,27.7027027027027,449400.0,2904.0,0.0,1.0,0.0,?,0.0,0.0
1600000.0,5.171875,1.3125390978530048E-7,1600000.0,67.9,33.775107692815546,27.7027027027027,21.515892420537917,479400.0,2904.0,0.0,1.0,0.0,?,0.0,0.0
1700000.0,5.484375,1.3649712653002805E-7,1700000.0,68.7,36.2431965583548,32.104121475054235,29.50450450450451,509400.0,2904.0,0.0,1.0,0.0,?,0.0,0.0
1800000.0,5.8125,1.407122342950768E-7,1800000.0,68.7,36.06347079346665,35.860655737704924,27.71362586605083,539400.0,2904.0,0.0,1.0,0.0,?,0.0,0.0
1900000.0,6.140625,1.4363707224321034E-7,1900000.0,70.0,38.55858438978433,37.23849372384936,30.39443155452436,569400.0,2904.0,0.0,1.0,0.0,?,0.0,0.0
2000000.0,6.453125,1.4519380379675164E-7,2000000.0,69.1,37.65133171912831,38.32335329341316,30.561797752808967,599400.0,2904.0,0.0,1.0,0.0,?,0.0,0.0
2100000.0,6.78125,1.584537029783759E-7,2100000.0,67.7,34.01807455344742,38.12260536398468,25.2314814814815,629100.0,2904.0,0.0,1.0,0.0,?,0.0,0.0
2200000.0,7.109375,1.7042333234308495E-7,2200000.0,67.60000000000001,34.142325751570226,34.939759036144586,27.19101123595506,659100.0,2904.0,0.0,1.0,0.0,?,0.0,0.0
2300000.0,7.421875,1.805941509600315E-7,2300000.0,66.4,32.14616040163011,32.121212121212125,28.051391862955033,689100.0,2904.0,0.0,1.0,0.0,?,0.0,0.0
2400000.0,7.765625,1.904303402019044E-7,2400000.0,66.9,32.46551864849427,33.13131313131314,23.908045977011515,719100.0,2904.0,0.0,1.0,0.0,?,0.0,0.0
2500000.0,8.09375,1.9852916011586788E-7,2500000.0,66.5,31.860156701299335,30.06263048016702,25.389755011135858,749100.0,2904.0,0.0,1.0,0.0,?,0.0,0.0
2600000.0,8.40625,2.0501349354162815E-7,2600000.0,66.5,31.66612271540471,31.06995884773663,23.69020501138952,779100.0,2904.0,0.0,1.0,0.0,?,0.0,0.0
2700000.0,8.734375,2.1053177382176124E-7,2700000.0,68.60000000000001,35.883561280205186,34.854771784232376,28.798185941043087,809100.0,2904.0,0.0,1.0,0.0,?,0.0,0.0
2800000.0,9.0625,2.1475978428497914E-7,2800000.0,68.10000000000001,34.354035477631,33.817427385892124,25.117370892018798,839100.0,2904.0,0.0,1.0,0.0,?,0.0,0.0
2900000.0,9.375,2.1755763251955313E-7,2900000.0,69.69999999999999,38.76511673025932,41.392649903288195,35.25641025641024,869100.0,2904.0,0.0,1.0,0.0,?,0.0,0.0
3000000.0,9.671875,2.1904820136518945E-7,3000000.0,67.10000000000001,33.062054933875906,29.0948275862069,26.88888888888889,899100.0,2904.0,0.0,1.0,0.0,?,0.0,0.0
3100000.0,10.0,2.3232100324498286E-7,3100000.0,65.8,30.724636506901206,33.20312500000001,25.813449023861175,928800.0,2904.0,0.0,1.0,0.0,?,0.0,0.0
3200000.0,10.328125,2.4430353530786106E-7,3200000.0,68.30000000000001,35.51195775117789,36.345381526104426,28.44243792325057,958800.0,2904.0,0.0,1.0,0.0,?,0.0,0.0
3300000.0,10.625,2.5397748686373235E-7,3300000.0,69.3,37.538656857319566,38.47695390781562,28.27102803738317,988800.0,2904.0,0.0,1.0,0.0,?,0.0,0.0
3400000.0,10.9375,2.629317653675874E-7,3400000.0,70.1,38.495083720738876,38.603696098562615,29.314420803782504,1018800.0,2904.0,0.0,1.0,0.0,?,0.0,0.0
3500000.0,11.265625,2.7104348797972004E-7,3500000.0,69.39999999999999,37.87483199811594,40.117416829745586,31.84855233853005,1048800.0,2904.0,0.0,1.0,0.0,?,0.0,0.0
3600000.0,11.578125,2.7754010968945095E-7,3600000.0,69.89999999999999,38.62103279798366,40.51383399209485,33.25942350332593,1078800.0,2904.0,0.0,1.0,0.0,?,0.0,0.0
3700000.0,11.90625,2.8307129266775316E-7,3700000.0,68.5,36.369292426531786,36.74698795180724,31.222707423580793,1108800.0,2904.0,0.0,1.0,0.0,?,0.0,0.0
3800000.0,12.234375,2.873122058291402E-7,3800000.0,68.2,35.074480595844776,32.76955602536999,28.054298642533944,1138800.0,2904.0,0.0,1.0,0.0,?,0.0,0.0
3900000.0,12.546875,2.901223423476848E-7,3900000.0,68.7,36.310139100284076,38.26429980276135,28.538812785388128,1168800.0,2904.0,0.0,1.0,0.0,?,0.0,0.0
4000000.0,12.921875,2.920199120934639E-7,4000000.0,66.8,32.60361179680397,33.06451612903227,27.192982456140353,1198800.0,2904.0,0.0,1.0,0.0,?,0.0,0.0
4100000.0,13.25,3.0530561667142645E-7,4100000.0,65.5,30.207718014905204,32.08661417322835,24.50765864332604,1228500.0,2904.0,0.0,1.0,0.0,?,0.0,0.0
4200000.0,13.5625,3.167298402533763E-7,4200000.0,66.3,31.726647271902188,32.868525896414354,26.57952069716776,1258500.0,2904.0,0.0,1.0,0.0,?,0.0,0.0
4300000.0,13.890625,3.2743500519750845E-7,4300000.0,67.2,34.21184587921456,33.4685598377282,32.64887063655031,1288500.0,2904.0,0.0,1.0,0.0,?,0.0,0.0
4400000.0,14.21875,3.3684990032472544E-7,4400000.0,66.3,31.852007635810658,34.17968750000001,25.277161862527713,1318500.0,2904.0,0.0,1.0,0.0,?,0.0,0.0
4500000.0,14.53125,3.4458763871548905E-7,4500000.0,64.3,26.743384332523473,24.68354430379747,18.119266055045884,1348500.0,2904.0,0.0,1.0,0.0,?,0.0,0.0
4600000.0,14.875,3.517474397085607E-7,4600000.0,68.7,36.58884449882904,36.51115618661259,31.808278867102402,1378500.0,2904.0,0.0,1.0,0.0,?,0.0,0.0
4700000.0,15.203125,3.5729152538503213E-7,4700000.0,66.60000000000001,31.444991789819394,28.784648187633266,20.476190476190492,1408500.0,2904.0,0.0,1.0,0.0,?,0.0,0.0
4800000.0,15.515625,3.613427785846095E-7,4800000.0,68.89999999999999,36.76188307251845,37.92415169660678,29.79683972911962,1438500.0,2904.0,0.0,1.0,0.0,?,0.0,0.0
4900000.0,15.84375,3.6430632462725047E-7,4900000.0,68.2,35.562832317468555,35.49695740365112,28.054298642533944,1468500.0,2904.0,0.0,1.0,0.0,?,0.0,0.0
5000000.0,16.15625,3.660868322994146E-7,5000000.0,69.89999999999999,38.93581972068715,38.1930184804928,31.43507972665146,1498500.0,2904.0,0.0,1.0,0.0,?,0.0,0.0
5100000.0,16.484375,3.795816964055929E-7,5100000.0,56.8,10.025117987895046,8.085106382978708,-16.44204851752023,1528200.0,2904.0,0.0,1.0,0.0,?,0.0,0.0
5200000.0,16.796875,3.912051195382244E-7,5200000.0,56.599999999999994,7.801990967144352,11.06557377049179,-13.910761154855656,1558200.0,2904.0,0.0,1.0,0.0,?,0.0,0.0
5300000.0,17.125,4.0211944401057235E-7,5300000.0,57.49999999999999,8.591928559752915,5.555555555555537,-13.941018766756045,1588200.0,2904.0,0.0,1.0,0.0,?,0.0,0.0
5400000.0,17.4375,4.1128521034907966E-7,5400000.0,59.3,12.562624066546926,9.756097560975595,-12.121212121212132,1618200.0,2904.0,0.0,1.0,0.0,?,0.0,0.0
5500000.0,17.765625,4.1961899518759715E-7,5500000.0,61.1,14.2204424372861,18.78914405010438,-6.868131868131874,1648200.0,2904.0,0.0,1.0,0.0,?,0.0,0.0
5600000.0,18.078125,4.263271047319803E-7,5600000.0,62.4,17.890663556993935,24.497991967871485,3.8363171355498755,1678200.0,2904.0,0.0,1.0,0.0,?,0.0,0.0
5700000.0,18.40625,4.3208034993666744E-7,5700000.0,61.9,15.11527390362799,14.76510067114093,-1.8716577540106967,1708200.0,2904.0,0.0,1.0,0.0,?,0.0,0.0
5800000.0,18.734375,4.3654332532443936E-7,5800000.0,62.5,16.68147884820477,21.383647798742132,-0.8064516129032264,1738200.0,2904.0,0.0,1.0,0.0,?,0.0,0.0
5900000.0,19.03125,4.394138684599764E-7,5900000.0,63.6,19.47615255287143,23.36842105263158,6.666666666666672,1768200.0,2904.0,0.0,1.0,0.0,?,0.0,0.0
6000000.0,19.34375,4.412066644161112E-7,6000000.0,65.8,23.50772974520471,27.848101265822788,11.398963730569958,1798200.0,2904.0,0.0,1.0,0.0,?,0.0,0.0
6100000.0,19.671875,4.5471443122045865E-7,6100000.0,65.2,22.336337220979903,28.247422680412377,12.781954887218056,1827900.0,2904.0,0.0,1.0,0.0,?,0.0,0.0
6200000.0,19.984375,4.6635014263706076E-7,6200000.0,66.3,22.471703321983988,25.934065934065938,12.467532467532479,1857900.0,2904.0,0.0,1.0,0.0,?,0.0,0.0
6300000.0,20.3125,4.772773698075778E-7,6300000.0,67.10000000000001,19.344558086627377,27.692307692307693,4.913294797687866,1887900.0,2904.0,0.0,1.0,0.0,?,0.0,0.0
6400000.0,20.625,4.864554244300557E-7,6400000.0,66.2,18.8323383490786,27.311827956989248,8.401084010840117,1917900.0,2904.0,0.0,1.0,0.0,?,0.0,0.0
6500000.0,20.921875,4.940071893442007E-7,6500000.0,65.7,20.82763969420541,28.985507246376812,12.72264631043258,1947900.0,2904.0,0.0,1.0,0.0,?,0.0,0.0
6600000.0,21.25,5.010636070639721E-7,6600000.0,67.9,24.179437274427926,30.368763557483735,14.6276595744681,1977900.0,2904.0,0.0,1.0,0.0,?,0.0,0.0
6700000.0,21.578125,5.068297549668284E-7,6700000.0,65.8,18.754038541943828,24.16851441241685,9.52380952380953,2007900.0,2904.0,0.0,1.0,0.0,?,0.0,0.0
6800000.0,21.890625,5.11092496001058E-7,6800000.0,70.7,27.86662465041162,35.17699115044247,17.927170868347325,2037900.0,2904.0,0.0,1.0,0.0,?,0.0,0.0
6900000.0,22.203125,5.141264086382255E-7,6900000.0,68.2,24.834067658793973,31.61290322580646,16.753926701570695,2067900.0,2904.0,0.0,1.0,0.0,?,0.0,0.0
7000000.0,22.515625,5.159314928783309E-7,7000000.0,65.60000000000001,20.948253278119687,28.630705394190876,13.784461152882216,2097900.0,2904.0,0.0,1.0,0.0,?,0.0,0.0
7100000.0,22.8125,5.28164479571084E-7,7100000.0,69.6,24.948649075683367,30.11494252873563,16.022099447513796,2127600.0,2904.0,0.0,1.0,0.0,?,0.0,0.0
7200000.0,23.140625,5.403948792566854E-7,7200000.0,68.89999999999999,23.14763561600505,34.24947145877377,12.640449438202229,2157600.0,2904.0,0.0,1.0,0.0,?,0.0,0.0
7300000.0,23.453125,5.508140505601961E-7,7300000.0,67.4,22.836949266477642,30.04291845493563,15.762273901808799,2187600.0,2904.0,0.0,1.0,0.0,?,0.0,0.0
7400000.0,23.765625,5.600043934666446E-7,7400000.0,68.5,24.764980128401124,31.52173913043479,16.88654353562007,2217600.0,2904.0,0.0,1.0,0.0,?,0.0,0.0
7500000.0,24.09375,5.683639837015004E-7,7500000.0,66.2,23.308359388826634,30.87934560327199,17.761557177615586,2247600.0,2904.0,0.0,1.0,0.0,?,0.0,0.0
7600000.0,24.40625,5.750966698138248E-7,7600000.0,67.30000000000001,18.79811273901167,26.845637583892618,9.418282548476462,2277600.0,2904.0,0.0,1.0,0.0,?,0.0,0.0
7700000.0,24.734375,5.808757204148502E-7,7700000.0,66.5,18.661681153790134,28.418803418803424,9.459459459459469,2307600.0,2904.0,0.0,1.0,0.0,?,0.0,0.0
7800000.0,25.046875,5.851507497330505E-7,7800000.0,68.30000000000001,22.658781278057553,30.1762114537445,14.092140921409227,2337600.0,2904.0,0.0,1.0,0.0,?,0.0,0.0
7900000.0,25.375,5.883492607002455E-7,7900000.0,67.80000000000001,22.60210753018999,29.074889867841414,13.440860215053776,2367600.0,2904.0,0.0,1.0,0.0,?,0.0,0.0
8000000.0,25.6875,5.901666332243216E-7,8000000.0,69.1,24.9176280774053,35.624999999999986,17.379679144385012,2397600.0,2904.0,0.0,1.0,0.0,?,0.0,0.0
8100000.0,26.015625,6.037002054250073E-7,8100000.0,67.60000000000001,18.720398169703813,31.645569620253173,8.988764044943828,2427300.0,2904.0,0.0,1.0,0.0,?,0.0,0.0
8200000.0,26.390625,6.176925510064594E-7,8200000.0,65.5,19.730107026523985,23.16258351893096,13.750000000000012,2457300.0,2904.0,0.0,1.0,0.0,?,0.0,0.0
8300000.0,26.71875,6.286455835733148E-7,8300000.0,69.0,26.47233225018381,35.550935550935534,19.060052219321136,2487300.0,2904.0,0.0,1.0,0.0,?,0.0,0.0
8400000.0,27.03125,6.37848214763734E-7,8400000.0,69.0,20.376030616700465,32.6086956521739,10.144927536231862,2517300.0,2904.0,0.0,1.0,0.0,?,0.0,0.0
8500000.0,27.375,6.466193978364268E-7,8500000.0,68.4,22.673348733409025,28.828828828828833,14.130434782608708,2547300.0,2904.0,0.0,1.0,0.0,?,0.0,0.0
8600000.0,27.703125,6.537016209525365E-7,8600000.0,67.60000000000001,23.399909214707233,34.808853118712285,15.625000000000014,2577300.0,2904.0,0.0,1.0,0.0,?,0.0,0.0
8700000.0,28.015625,6.592177669517695E-7,8700000.0,66.60000000000001,20.250232802464136,28.479657387580303,13.24675324675326,2607300.0,2904.0,0.0,1.0,0.0,?,0.0,0.0
8800000.0,28.4375,6.650056457147001E-7,8800000.0,67.2,21.33537989255565,32.37113402061856,13.684210526315802,2637300.0,2904.0,0.0,1.0,0.0,?,0.0,0.0
8900000.0,28.75,6.680641349198088E-7,8900000.0,66.0,20.45369469192185,28.571428571428577,13.265306122448992,2667300.0,2904.0,0.0,1.0,0.0,?,0.0,0.0
9000000.0,29.125,6.702597278894647E-7,9000000.0,67.80000000000001,21.977979375048466,32.49475890985325,14.361702127659587,2697300.0,2904.0,0.0,1.0,0.0,?,0.0,0.0
9100000.0,29.46875,6.844512730215984E-7,9100000.0,70.1,24.41860465116279,38.22314049586776,15.774647887323928,2727000.0,2904.0,0.0,1.0,0.0,?,0.0,0.0
9200000.0,29.84375,6.984583645438152E-7,9200000.0,66.4,20.649914982051783,28.510638297872344,12.50000000000001,2757000.0,2904.0,0.0,1.0,0.0,?,0.0,0.0
9300000.0,30.25,7.120352367767027E-7,9300000.0,68.2,29.123854949071713,35.627530364372475,23.002421307506072,2787000.0,2904.0,0.0,1.0,0.0,?,0.0,0.0
9400000.0,30.65625,7.240146320934094E-7,9400000.0,67.30000000000001,26.049553583543666,34.86055776892431,18.858560794044678,2817000.0,2904.0,0.0,1.0,0.0,?,0.0,0.0
9500000.0,31.078125,7.347958550478018E-7,9500000.0,67.80000000000001,25.28828975150236,34.41955193482689,18.891687657430747,2847000.0,2904.0,0.0,1.0,0.0,?,0.0,0.0
9600000.0,31.453125,7.429045702641206E-7,9600000.0,68.5,26.784369508827737,35.05154639175259,19.847328244274827,2877000.0,2904.0,0.0,1.0,0.0,?,0.0,0.0
9700000.0,31.875,7.503679565464454E-7,9700000.0,70.1,27.714921187506036,36.91983122362868,19.8391420911528,2907000.0,2904.0,0.0,1.0,0.0,?,0.0,0.0
9800000.0,32.265625,7.557424639041222E-7,9800000.0,66.7,22.6085339778749,30.042016806722692,15.696202531645584,2937000.0,2904.0,0.0,1.0,0.0,?,0.0,0.0
9900000.0,32.65625,7.595809357654715E-7,9900000.0,69.89999999999999,25.01843400625759,33.700440528634346,14.488636363636346,2967000.0,2904.0,0.0,1.0,0.0,?,0.0,0.0
1.0E7,33.15625,7.625280543126992E-7,1.0E7,65.4,18.45353972915264,28.512396694214882,11.053984575835486,2997000.0,2904.0,0.0,1.0,0.0,?,0.0,0.0
