learning evaluation instances,evaluation time (cpu seconds),model cost (RAM-Hours),classified instances,classifications correct (percent),Kappa Statistic (percent),Kappa Temporal Statistic (percent),Kappa M Statistic (percent),model training instances,model serialized size (bytes),labeling cost,newThreshold,maxPosterior,accuracyBaseLearner (percent),Change detected,Warning detected,tree size (nodes),tree size (leaves),active learning leaves,tree depth,active leaf byte size estimate,inactive leaf byte size estimate,byte size estimate overhead
100000.0,0.34375,2.1322177619569834E-8,100000.0,80.30000000000001,56.796729709814386,57.63440860215054,46.61246612466125,19900.0,148288.0,0.0,1.0,0.0,?,0.0,10.0,52.0,40.0,40.0,3.0,0.0,0.0,1.0
200000.0,0.65625,4.084890760067437E-8,200000.0,80.80000000000001,58.401760992118014,60.81632653061225,48.2479784366577,39900.0,180408.0,0.0,1.0,0.0,?,0.0,0.0,76.0,58.0,58.0,4.0,0.0,0.0,1.0
300000.0,1.03125,8.620121257586613E-8,300000.0,81.89999999999999,62.95174311025232,63.43434343434342,53.82653061224488,59800.0,359968.0,0.0,1.0,0.0,?,0.0,0.0,130.0,94.0,94.0,4.0,0.0,0.0,1.0
400000.0,1.34375,1.2920761946588757E-7,400000.0,86.3,71.40209077853112,69.89010989010988,64.04199475065616,79800.0,454456.0,0.0,1.0,0.0,?,0.0,0.0,173.0,120.0,120.0,4.0,0.0,0.0,1.0
500000.0,1.71875,1.8911727238446475E-7,500000.0,88.9,76.23004180086342,76.33262260127933,70.08086253369272,99800.0,569952.0,0.0,1.0,0.0,?,0.0,0.0,225.0,152.0,152.0,5.0,0.0,0.0,1.0
600000.0,2.0625,2.5683231393082275E-7,600000.0,89.1,76.60843813039186,77.19665271966527,70.85561497326204,119700.0,667712.0,0.0,1.0,0.0,?,0.0,0.0,262.0,175.0,175.0,5.0,0.0,0.0,1.0
700000.0,2.421875,3.3320726490476066E-7,700000.0,89.4,76.9404803341455,75.79908675799086,70.55555555555556,139700.0,757808.0,0.0,1.0,0.0,?,0.0,0.0,301.0,199.0,199.0,5.0,0.0,0.0,1.0
800000.0,2.78125,4.248345956309802E-7,800000.0,89.4,77.13388327063127,77.4468085106383,70.7182320441989,159600.0,875744.0,0.0,1.0,0.0,?,0.0,0.0,354.0,236.0,236.0,6.0,0.0,0.0,1.0
900000.0,3.140625,5.209460828660263E-7,900000.0,90.7,79.62724428905655,79.14798206278027,73.72881355932203,179600.0,954112.0,0.0,1.0,0.0,?,0.0,0.0,381.0,254.0,254.0,6.0,0.0,0.0,1.0
1000000.0,3.484375,6.192446582847171E-7,1000000.0,91.7,82.4647393372939,82.95687885010268,78.27225130890054,199600.0,1055808.0,0.0,1.0,0.0,?,0.0,0.0,423.0,284.0,284.0,6.0,0.0,0.0,1.0
1100000.0,3.875,7.548119174316525E-7,1100000.0,91.9,82.76595744680851,82.9113924050633,78.6842105263158,219500.0,1245648.0,0.0,1.0,0.0,?,0.0,0.0,518.0,351.0,351.0,6.0,0.0,0.0,1.0
1200000.0,4.25,8.956729046379526E-7,1200000.0,92.9,84.99970421951983,85.3305785123967,81.60621761658032,239500.0,1386024.0,0.0,1.0,0.0,?,0.0,0.0,574.0,388.0,388.0,6.0,0.0,0.0,1.0
1300000.0,4.65625,1.0632608448051744E-6,1300000.0,94.3,87.89736969501371,87.68898488120949,84.88063660477452,259400.0,1482608.0,0.0,1.0,0.0,?,0.0,0.0,611.0,414.0,414.0,7.0,0.0,0.0,1.0
1400000.0,5.0625,1.237087352718744E-6,1400000.0,95.19999999999999,89.92252944510926,90.06211180124222,87.90931989924432,279400.0,1572080.0,0.0,1.0,0.0,?,0.0,0.0,643.0,436.0,436.0,7.0,0.0,0.0,1.0
1500000.0,5.46875,1.416766511586805E-6,1500000.0,93.89999999999999,87.15107804561578,87.26513569937369,84.03141361256543,299400.0,1657896.0,0.0,1.0,0.0,?,0.0,0.0,682.0,463.0,463.0,7.0,0.0,0.0,1.0
1600000.0,5.890625,1.6202459422250587E-6,1600000.0,93.60000000000001,86.60970210771659,86.41188959660299,83.87909319899246,319300.0,1766536.0,0.0,1.0,0.0,?,0.0,0.0,734.0,498.0,498.0,7.0,0.0,0.0,1.0
1700000.0,6.296875,1.8199086965372164E-6,1700000.0,95.1,89.32033756451388,89.87603305785123,86.27450980392155,339300.0,1832096.0,0.0,1.0,0.0,?,0.0,0.0,761.0,516.0,516.0,7.0,0.0,0.0,1.0
1800000.0,6.703125,2.030478855077591E-6,1800000.0,94.19999999999999,87.81005544323058,87.308533916849,85.16624040920715,359200.0,1889856.0,0.0,1.0,0.0,?,0.0,0.0,795.0,536.0,536.0,7.0,0.0,0.0,1.0
1900000.0,7.09375,2.237538865301758E-6,1900000.0,94.5,88.04233448416804,87.77777777777777,84.67966573816155,379200.0,1965384.0,0.0,1.0,0.0,?,0.0,0.0,822.0,554.0,554.0,7.0,0.0,0.0,1.0
2000000.0,7.5,2.4580470118154255E-6,2000000.0,95.0,89.59200666111573,89.81670061099796,87.49999999999999,399200.0,2044648.0,0.0,1.0,0.0,?,0.0,0.0,851.0,573.0,573.0,7.0,0.0,0.0,1.0
2100000.0,7.9375,2.7139659181961584E-6,2100000.0,95.1,89.81288981288981,89.30131004366811,87.75,419100.0,2161600.0,0.0,1.0,0.0,?,0.0,0.0,912.0,617.0,617.0,7.0,0.0,0.0,1.0
2200000.0,8.359375,2.9662524725103546E-6,2200000.0,96.1,91.83663217120466,92.19999999999999,90.15151515151514,439100.0,2242192.0,0.0,1.0,0.0,?,0.0,0.0,937.0,634.0,634.0,7.0,0.0,0.0,1.0
2300000.0,8.796875,3.244163914738844E-6,2300000.0,95.19999999999999,89.40841589620247,88.88888888888889,86.08695652173913,459000.0,2339896.0,0.0,1.0,0.0,?,0.0,0.0,979.0,661.0,661.0,8.0,0.0,0.0,1.0
2400000.0,9.25,3.542049186459432E-6,2400000.0,95.3,89.92592338557563,89.71553610503281,87.08791208791207,479000.0,2455528.0,0.0,1.0,0.0,?,0.0,0.0,1036.0,697.0,697.0,8.0,0.0,0.0,1.0
2500000.0,9.65625,3.8127895742137397E-6,2500000.0,94.39999999999999,87.90538555903035,87.9310344827586,84.69945355191255,499000.0,2520576.0,0.0,1.0,0.0,?,0.0,0.0,1057.0,709.0,709.0,8.0,0.0,0.0,1.0
2600000.0,10.078125,4.10796877177846E-6,2600000.0,94.39999999999999,88.02886753086841,88.52459016393442,84.78260869565216,518900.0,2603088.0,0.0,1.0,0.0,?,0.0,0.0,1105.0,742.0,742.0,8.0,0.0,0.0,1.0
2700000.0,10.53125,4.431750179113199E-6,2700000.0,96.5,92.44536922718285,92.37472766884531,90.33149171270716,538900.0,2690680.0,0.0,1.0,0.0,?,0.0,0.0,1164.0,782.0,782.0,8.0,0.0,0.0,1.0
2800000.0,10.953125,4.745683885024239E-6,2800000.0,95.8,91.04309550619305,90.92872570194383,89.06249999999999,558800.0,2759000.0,0.0,1.0,0.0,?,0.0,0.0,1196.0,801.0,801.0,8.0,0.0,0.0,1.0
2900000.0,11.40625,5.088397398746261E-6,2900000.0,96.1,91.76179330973122,91.77215189873417,89.68253968253967,578800.0,2836240.0,0.0,1.0,0.0,?,0.0,0.0,1238.0,828.0,828.0,8.0,0.0,0.0,1.0
3000000.0,11.859375,5.440342518138801E-6,3000000.0,95.7,90.81235844622024,90.73275862068965,88.59416445623341,598800.0,2945016.0,0.0,1.0,0.0,?,0.0,0.0,1286.0,861.0,861.0,8.0,0.0,0.0,1.0
3100000.0,12.328125,5.819191929832513E-6,3100000.0,94.89999999999999,88.82774574578082,88.71681415929203,85.55240793201132,618700.0,3020896.0,0.0,1.0,0.0,?,0.0,0.0,1344.0,902.0,902.0,8.0,0.0,0.0,1.0
3200000.0,12.75,6.167525490228499E-6,3200000.0,96.2,91.84913171803143,91.5929203539823,89.78494623655912,638700.0,3118408.0,0.0,1.0,0.0,?,0.0,0.0,1372.0,919.0,919.0,8.0,0.0,0.0,1.0
3300000.0,13.21875,6.572464545671309E-6,3300000.0,95.89999999999999,91.18112675086897,91.35021097046413,88.9487870619946,658600.0,3219984.0,0.0,1.0,0.0,?,0.0,0.0,1427.0,957.0,957.0,8.0,0.0,0.0,1.0
3400000.0,13.703125,6.99685821827087E-6,3400000.0,96.5,92.36308095134191,92.63157894736841,90.30470914127423,678600.0,3297640.0,0.0,1.0,0.0,?,0.0,0.0,1458.0,977.0,977.0,8.0,0.0,0.0,1.0
3500000.0,14.171875,7.4138055141601286E-6,3500000.0,96.6,92.7695265315844,92.41071428571428,91.005291005291,698600.0,3379184.0,0.0,1.0,0.0,?,0.0,0.0,1504.0,1006.0,1006.0,8.0,0.0,0.0,1.0
3600000.0,14.609375,7.81166496583157E-6,3600000.0,97.39999999999999,94.35077350947331,94.47983014861995,92.73743016759775,718500.0,3410224.0,0.0,1.0,0.0,?,0.0,0.0,1525.0,1018.0,1018.0,8.0,0.0,0.0,1.0
3700000.0,15.078125,8.240859153577021E-6,3700000.0,96.3,91.93618690611106,91.77777777777777,89.72222222222221,738500.0,3464488.0,0.0,1.0,0.0,?,0.0,0.0,1556.0,1038.0,1038.0,8.0,0.0,0.0,1.0
3800000.0,15.53125,8.666276375556157E-6,3800000.0,96.5,92.58348872690286,92.60042283298097,90.8616187989556,758400.0,3508352.0,0.0,1.0,0.0,?,0.0,0.0,1575.0,1049.0,1049.0,8.0,0.0,0.0,1.0
3900000.0,16.015625,9.1225574659701E-6,3900000.0,96.0,91.56954075073239,91.45299145299145,89.6103896103896,778400.0,3550760.0,0.0,1.0,0.0,?,0.0,0.0,1604.0,1068.0,1068.0,8.0,0.0,0.0,1.0
4000000.0,16.5,9.582251950632779E-6,4000000.0,96.6,92.80636425186188,92.6086956521739,91.19170984455958,798400.0,3608224.0,0.0,1.0,0.0,?,0.0,0.0,1636.0,1090.0,1090.0,8.0,0.0,0.0,1.0
4100000.0,16.984375,1.0058830957859753E-5,4100000.0,97.0,93.62027900646478,93.52051835853132,92.10526315789474,818300.0,3696888.0,0.0,1.0,0.0,?,0.0,0.0,1663.0,1108.0,1108.0,8.0,0.0,0.0,1.0
4200000.0,17.46875,1.0546454124980501E-5,4200000.0,96.7,92.7710843373494,93.02325581395348,90.70422535211267,838300.0,3815024.0,0.0,1.0,0.0,?,0.0,0.0,1709.0,1140.0,1140.0,8.0,0.0,0.0,1.0
4300000.0,17.953125,1.1053090048436488E-5,4300000.0,97.2,94.15185135677048,94.20289855072464,92.96482412060301,858200.0,3920608.0,0.0,1.0,0.0,?,0.0,0.0,1758.0,1172.0,1172.0,8.0,0.0,0.0,1.0
4400000.0,18.453125,1.1584671382378372E-5,4400000.0,97.2,93.87018809765667,94.22680412371133,92.04545454545455,878200.0,4017152.0,0.0,1.0,0.0,?,0.0,0.0,1811.0,1206.0,1206.0,8.0,0.0,0.0,1.0
4500000.0,18.953125,1.2123629825914071E-5,4500000.0,97.1,93.82316356262885,93.93305439330544,92.2872340425532,898200.0,4104344.0,0.0,1.0,0.0,?,0.0,0.0,1853.0,1236.0,1236.0,8.0,0.0,0.0,1.0
4600000.0,19.453125,1.2682119138642318E-5,4600000.0,97.0,93.5793168393117,93.56223175965664,91.97860962566844,918100.0,4209240.0,0.0,1.0,0.0,?,0.0,0.0,1890.0,1262.0,1262.0,8.0,0.0,0.0,1.0
4700000.0,19.984375,1.3279554615211156E-5,4700000.0,96.89999999999999,93.27682978668031,92.9705215419501,91.34078212290501,938100.0,4268832.0,0.0,1.0,0.0,?,0.0,0.0,1912.0,1276.0,1276.0,8.0,0.0,0.0,1.0
4800000.0,20.5,1.3877577989155221E-5,4800000.0,96.39999999999999,92.30397585158644,92.5155925155925,90.45092838196285,958000.0,4358944.0,0.0,1.0,0.0,?,0.0,0.0,1958.0,1308.0,1308.0,8.0,0.0,0.0,1.0
4900000.0,21.015625,1.448111741208575E-5,4900000.0,96.7,92.81715524521796,92.87257019438444,90.88397790055248,978000.0,4430360.0,0.0,1.0,0.0,?,0.0,0.0,1981.0,1321.0,1321.0,8.0,0.0,0.0,1.0
5000000.0,21.546875,1.5112635608400323E-5,5000000.0,98.3,96.28545208233186,96.38297872340425,95.2112676056338,998000.0,4528776.0,0.0,1.0,0.0,?,0.0,0.0,2019.0,1349.0,1349.0,8.0,0.0,0.0,1.0
5100000.0,22.15625,1.5151485826613176E-5,5100000.0,74.9,48.462922049656285,49.19028340080971,44.71365638766519,18301.0,148984.0,0.0,1.0,0.0,?,2.0,8.0,50.0,39.0,39.0,3.0,0.0,0.0,1.0
5200000.0,22.53125,1.5187873375705548E-5,5200000.0,85.6,71.05737072292256,70.67209775967413,69.8744769874477,38301.0,307624.0,0.0,1.0,0.0,?,0.0,0.0,130.0,97.0,97.0,4.0,0.0,0.0,1.0
5300000.0,22.921875,1.5243093851798526E-5,5300000.0,88.4,76.49385598028726,76.51821862348179,74.56140350877193,58201.0,432848.0,0.0,1.0,0.0,?,0.0,0.0,205.0,148.0,148.0,5.0,0.0,0.0,1.0
5400000.0,23.296875,1.530468687027072E-5,5400000.0,92.5,84.79627001824448,84.66257668711657,83.33333333333334,78201.0,551232.0,0.0,1.0,0.0,?,0.0,0.0,262.0,184.0,184.0,5.0,0.0,0.0,1.0
5500000.0,23.640625,1.536419204462113E-5,5500000.0,94.1,88.08889319572975,87.95918367346938,87.06140350877192,98201.0,615528.0,0.0,1.0,0.0,?,0.0,0.0,306.0,209.0,209.0,6.0,0.0,0.0,1.0
5600000.0,24.0,1.5437457315985944E-5,5600000.0,95.1,90.12463118520549,89.72746331236895,89.43965517241378,118101.0,688328.0,0.0,1.0,0.0,?,0.0,0.0,350.0,234.0,234.0,7.0,0.0,0.0,1.0
5700000.0,24.34375,1.5516591471775127E-5,5700000.0,95.89999999999999,91.67472120468814,91.47609147609147,90.74492099322798,138101.0,819920.0,0.0,1.0,0.0,?,0.0,0.0,407.0,267.0,267.0,8.0,0.0,0.0,1.0
5800000.0,24.6875,1.5602160484478294E-5,5800000.0,96.39999999999999,92.73021001615508,92.60780287474331,92.0,158001.0,846456.0,0.0,1.0,0.0,?,0.0,0.0,423.0,278.0,278.0,8.0,0.0,0.0,1.0
5900000.0,25.015625,1.568390179373738E-5,5900000.0,96.8,93.58264747878262,93.72549019607843,93.24894514767932,178001.0,877440.0,0.0,1.0,0.0,?,0.0,0.0,460.0,301.0,301.0,8.0,0.0,0.0,1.0
6000000.0,25.359375,1.5774942391241593E-5,6000000.0,97.7,95.3667518109957,95.27720739219711,95.01084598698482,198001.0,968184.0,0.0,1.0,0.0,?,0.0,0.0,508.0,328.0,328.0,8.0,0.0,0.0,1.0
6100000.0,25.703125,1.5880737272608613E-5,6100000.0,97.1,94.12793805582102,94.19999999999999,93.52678571428571,217901.0,1087768.0,0.0,1.0,0.0,?,0.0,0.0,539.0,345.0,345.0,8.0,0.0,0.0,1.0
6200000.0,26.0625,1.5997648879420013E-5,6200000.0,98.2,96.37319062510075,96.16204690831556,96.05263157894737,237901.0,1185528.0,0.0,1.0,0.0,?,0.0,0.0,572.0,363.0,363.0,9.0,0.0,0.0,1.0
6300000.0,26.453125,1.6139165446576147E-5,6300000.0,98.0,95.99421564739484,95.86776859504131,95.84199584199584,257801.0,1282088.0,0.0,1.0,0.0,?,0.0,0.0,614.0,384.0,384.0,9.0,0.0,0.0,1.0
6400000.0,26.8125,1.6273805425347143E-5,6400000.0,97.8,95.596671083339,95.66074950690336,95.40709812108558,277801.0,1359912.0,0.0,1.0,0.0,?,0.0,0.0,641.0,399.0,399.0,9.0,0.0,0.0,1.0
6500000.0,27.171875,1.6407863780235253E-5,6500000.0,98.0,95.9835647469445,96.02385685884691,95.71734475374733,297801.0,1383944.0,0.0,1.0,0.0,?,0.0,0.0,656.0,408.0,408.0,10.0,0.0,0.0,1.0
6600000.0,27.53125,1.655267102048836E-5,6600000.0,98.4,96.75325992995158,96.8,96.37188208616779,317701.0,1453576.0,0.0,1.0,0.0,?,0.0,0.0,679.0,424.0,424.0,10.0,0.0,0.0,1.0
6700000.0,27.875,1.6692635027639985E-5,6700000.0,98.2,96.39170091209782,96.33401221995926,96.21052631578947,337701.0,1500128.0,0.0,1.0,0.0,?,0.0,0.0,699.0,437.0,437.0,10.0,0.0,0.0,1.0
6800000.0,28.21875,1.6838185159334297E-5,6800000.0,98.5,96.98727424641686,97.02380952380952,96.7948717948718,357601.0,1517096.0,0.0,1.0,0.0,?,0.0,0.0,707.0,441.0,441.0,10.0,0.0,0.0,1.0
6900000.0,28.578125,1.6989962217242773E-5,6900000.0,98.2,96.3781967444013,96.41434262948206,96.12903225806451,377601.0,1543160.0,0.0,1.0,0.0,?,0.0,0.0,721.0,448.0,448.0,10.0,0.0,0.0,1.0
7000000.0,28.921875,1.713544120624041E-5,7000000.0,98.2,96.39485184843957,96.29629629629629,96.27329192546583,397601.0,1576752.0,0.0,1.0,0.0,?,0.0,0.0,733.0,454.0,454.0,10.0,0.0,0.0,1.0
7100000.0,29.296875,1.7301613212718324E-5,7100000.0,99.1,98.18497156455452,98.20359281437125,98.01762114537445,417501.0,1607792.0,0.0,1.0,0.0,?,0.0,0.0,747.0,461.0,461.0,10.0,0.0,0.0,1.0
7200000.0,29.65625,1.7462505849026563E-5,7200000.0,98.9,97.78098750090778,97.82178217821782,97.59825327510917,437501.0,1655616.0,0.0,1.0,0.0,?,0.0,0.0,765.0,470.0,470.0,10.0,0.0,0.0,1.0
7300000.0,30.0,1.7624542589247647E-5,7300000.0,98.6,97.18296255754805,97.02127659574468,96.94323144104803,457401.0,1701184.0,0.0,1.0,0.0,?,0.0,0.0,784.0,481.0,481.0,10.0,0.0,0.0,1.0
7400000.0,30.375,1.780097932270211E-5,7400000.0,98.5,96.9597963468913,96.91991786447637,96.61399548532731,477401.0,1728080.0,0.0,1.0,0.0,?,0.0,0.0,795.0,488.0,488.0,10.0,0.0,0.0,1.0
7500000.0,30.734375,1.7971443465083016E-5,7500000.0,98.7,97.37103936969658,97.40518962075848,97.10467706013362,497401.0,1773096.0,0.0,1.0,0.0,?,0.0,0.0,823.0,505.0,505.0,10.0,0.0,0.0,1.0
7600000.0,31.09375,1.8152389481353268E-5,7600000.0,99.5,98.99696682768693,99.02534113060429,98.94291754756871,517301.0,1839784.0,0.0,1.0,0.0,?,0.0,0.0,842.0,516.0,516.0,10.0,0.0,0.0,1.0
7700000.0,31.46875,1.8342479403751595E-5,7700000.0,98.8,97.59132878362104,97.62376237623762,97.44680851063829,537301.0,1883136.0,0.0,1.0,0.0,?,0.0,0.0,861.0,527.0,527.0,10.0,0.0,0.0,1.0
7800000.0,31.84375,1.8540468493786956E-5,7800000.0,99.3,98.59638428592054,98.57142857142857,98.53249475890985,557201.0,1918640.0,0.0,1.0,0.0,?,0.0,0.0,878.0,537.0,537.0,10.0,0.0,0.0,1.0
7900000.0,32.21875,1.8739430815912788E-5,7900000.0,99.4,98.79570790296617,98.75776397515527,98.73150105708245,577201.0,1958840.0,0.0,1.0,0.0,?,0.0,0.0,892.0,544.0,544.0,10.0,0.0,0.0,1.0
8000000.0,32.609375,1.8948178848303445E-5,8000000.0,98.9,97.78243690024998,97.73662551440329,97.58241758241758,597201.0,2003848.0,0.0,1.0,0.0,?,0.0,0.0,918.0,560.0,560.0,10.0,0.0,0.0,1.0
8100000.0,32.96875,1.91486903349869E-5,8100000.0,99.5,98.99404474488975,98.97750511247445,98.92008639308855,617101.0,2048920.0,0.0,1.0,0.0,?,0.0,0.0,933.0,569.0,569.0,10.0,0.0,0.0,1.0
8200000.0,33.359375,1.936810330436048E-5,8200000.0,99.2,98.39566830442193,98.46153846153845,98.30866807610994,637101.0,2093624.0,0.0,1.0,0.0,?,0.0,0.0,939.0,572.0,572.0,11.0,0.0,0.0,1.0
8300000.0,33.734375,1.9586233021174044E-5,8300000.0,99.2,98.39990399423965,98.40954274353876,98.38709677419355,657001.0,2124944.0,0.0,1.0,0.0,?,0.0,0.0,949.0,577.0,577.0,11.0,0.0,0.0,1.0
8400000.0,34.09375,1.9793534334490288E-5,8400000.0,99.3,98.58779857972885,98.57142857142857,98.46153846153845,677001.0,2136568.0,0.0,1.0,0.0,?,0.0,0.0,964.0,586.0,586.0,11.0,0.0,0.0,1.0
8500000.0,34.46875,2.0010411422440993E-5,8500000.0,98.8,97.57776387234816,97.59036144578313,97.40820734341253,697001.0,2172576.0,0.0,1.0,0.0,?,0.0,0.0,994.0,604.0,604.0,11.0,0.0,0.0,1.0
8600000.0,34.84375,2.023544379173675E-5,8600000.0,99.2,98.38753890062402,98.44660194174757,98.23788546255507,716901.0,2210712.0,0.0,1.0,0.0,?,0.0,0.0,998.0,606.0,606.0,11.0,0.0,0.0,1.0
8700000.0,35.21875,2.0460540577510585E-5,8700000.0,99.7,99.39454118330872,99.4186046511628,99.33920704845815,736901.0,2241608.0,0.0,1.0,0.0,?,0.0,0.0,1008.0,611.0,611.0,11.0,0.0,0.0,1.0
8800000.0,35.609375,2.070121066127387E-5,8800000.0,98.7,97.37634512767109,97.2457627118644,97.13656387665198,756801.0,2257040.0,0.0,1.0,0.0,?,0.0,0.0,1020.0,617.0,617.0,11.0,0.0,0.0,1.0
8900000.0,35.984375,2.093049218981631E-5,8900000.0,99.1,98.17769498663644,98.18548387096774,97.9955456570156,776801.0,2269184.0,0.0,1.0,0.0,?,0.0,0.0,1032.0,623.0,623.0,11.0,0.0,0.0,1.0
9000000.0,36.390625,2.1178810727886035E-5,9000000.0,99.3,98.5819051091933,98.6111111111111,98.41628959276018,796801.0,2298760.0,0.0,1.0,0.0,?,0.0,0.0,1040.0,627.0,627.0,11.0,0.0,0.0,1.0
9100000.0,36.765625,2.1414034094454523E-5,9100000.0,99.6,99.199542138103,99.22630560928432,99.18200408997954,816701.0,2314824.0,0.0,1.0,0.0,?,0.0,0.0,1048.0,631.0,631.0,11.0,0.0,0.0,1.0
9200000.0,37.15625,2.165677782613785E-5,9200000.0,99.0,97.98838898119948,97.97160243407707,97.8401727861771,836701.0,2322592.0,0.0,1.0,0.0,?,0.0,0.0,1056.0,635.0,635.0,11.0,0.0,0.0,1.0
9300000.0,37.53125,2.1894989962068705E-5,9300000.0,99.0,97.9877575167318,98.01192842942345,97.83080260303687,856601.0,2330224.0,0.0,1.0,0.0,?,0.0,0.0,1072.0,646.0,646.0,11.0,0.0,0.0,1.0
9400000.0,37.90625,2.213310353302708E-5,9400000.0,99.1,98.18690218135812,98.15573770491804,98.03063457330416,876601.0,2359456.0,0.0,1.0,0.0,?,0.0,0.0,1078.0,649.0,649.0,11.0,0.0,0.0,1.0
9500000.0,38.3125,2.2390237621342153E-5,9500000.0,99.4,98.77388372330643,98.80952380952381,98.6013986013986,896601.0,2381936.0,0.0,1.0,0.0,?,0.0,0.0,1089.0,656.0,656.0,11.0,0.0,0.0,1.0
9600000.0,38.6875,2.2633416034902145E-5,9600000.0,99.1,98.19601680510567,98.25242718446601,98.11320754716981,916501.0,2396152.0,0.0,1.0,0.0,?,0.0,0.0,1093.0,658.0,658.0,11.0,0.0,0.0,1.0
9700000.0,39.0625,2.2875171077127268E-5,9700000.0,98.9,97.79134206087863,97.74590163934425,97.66454352441613,936501.0,2411816.0,0.0,1.0,0.0,?,0.0,0.0,1104.0,665.0,665.0,11.0,0.0,0.0,1.0
9800000.0,39.453125,2.3132858008870656E-5,9800000.0,99.3,98.59664317046375,98.59437751004016,98.53249475890985,956401.0,2423992.0,0.0,1.0,0.0,?,0.0,0.0,1115.0,672.0,672.0,11.0,0.0,0.0,1.0
9900000.0,39.828125,2.33788901500197E-5,9900000.0,99.2,98.39259306886132,98.4,98.29059829059828,976401.0,2440416.0,0.0,1.0,0.0,?,0.0,0.0,1132.0,682.0,682.0,11.0,0.0,0.0,1.0
1.0E7,40.21875,2.3633154147925485E-5,1.0E7,99.1,98.18220010341263,98.22834645669292,97.9955456570156,996401.0,2450768.0,0.0,1.0,0.0,?,0.0,0.0,1136.0,684.0,684.0,11.0,0.0,0.0,1.0
