learning evaluation instances,evaluation time (cpu seconds),model cost (RAM-Hours),classified instances,classifications correct (percent),Kappa Statistic (percent),Kappa Temporal Statistic (percent),Kappa M Statistic (percent),model training instances,model serialized size (bytes),labeling cost,newThreshold,maxPosterior,accuracyBaseLearner (percent),Change detected,Warning detected
100000.0,0.46875,1.791146739075581E-8,100000.0,70.8,36.39757613776459,36.244541484716144,18.20728291316525,29700.0,3024.0,0.0,1.0,0.0,?,0.0,0.0
200000.0,0.90625,3.299902244988415E-8,200000.0,70.89999999999999,37.63448234477201,38.21656050955413,23.218997361477562,59700.0,3024.0,0.0,1.0,0.0,?,0.0,0.0
300000.0,1.34375,4.64567630034354E-8,300000.0,67.80000000000001,31.73337856173678,34.949494949494955,15.706806282722527,89700.0,3024.0,0.0,1.0,0.0,?,0.0,0.0
400000.0,1.78125,5.828468905140956E-8,400000.0,70.3,35.96653874347807,39.75659229208924,18.852459016393432,119700.0,3024.0,0.0,1.0,0.0,?,0.0,0.0
500000.0,2.203125,6.81185823244353E-8,500000.0,72.0,41.153970635831335,41.422594142259406,28.753180661577606,149700.0,3024.0,0.0,1.0,0.0,?,0.0,0.0
600000.0,2.65625,7.699288996971315E-8,600000.0,71.0,37.76476799134715,39.58333333333333,26.20865139949109,179700.0,3024.0,0.0,1.0,0.0,?,0.0,0.0
700000.0,3.09375,8.393137250095605E-8,700000.0,70.5,36.47443903699556,35.86956521739129,18.73278236914599,209700.0,3024.0,0.0,1.0,0.0,?,0.0,0.0
800000.0,3.546875,8.942963581325278E-8,800000.0,70.0,35.0536889504676,35.34482758620688,16.66666666666665,239700.0,3024.0,0.0,1.0,0.0,?,0.0,0.0
900000.0,3.984375,9.310848933334151E-8,900000.0,70.19999999999999,36.359326348520234,38.556701030927826,23.393316195372744,269700.0,3024.0,0.0,1.0,0.0,?,0.0,0.0
1000000.0,4.421875,9.515752834785314E-8,1000000.0,72.8,42.677951242539706,42.61603375527426,30.61224489795918,299700.0,3024.0,0.0,1.0,0.0,?,0.0,0.0
1100000.0,4.875,1.1248882704724867E-7,1100000.0,70.5,37.369963058893454,36.559139784946225,23.376623376623368,329400.0,3024.0,0.0,1.0,0.0,?,0.0,0.0
1200000.0,5.3125,1.2759268025143278E-7,1200000.0,72.3,39.24266086437733,42.411642411642404,24.72826086956521,359400.0,3024.0,0.0,1.0,0.0,?,0.0,0.0
1300000.0,5.765625,1.415479346178472E-7,1300000.0,71.5,39.34105227311425,44.552529182879375,28.030303030303028,389400.0,3024.0,0.0,1.0,0.0,?,0.0,0.0
1400000.0,6.21875,1.5381516681777108E-7,1400000.0,71.39999999999999,37.71125901662194,34.10138248847927,20.994475138121533,419400.0,3024.0,0.0,1.0,0.0,?,0.0,0.0
1500000.0,6.671875,1.643943768512044E-7,1500000.0,72.1,40.02527966706505,37.861915367483284,27.90697674418604,449400.0,3024.0,0.0,1.0,0.0,?,0.0,0.0
1600000.0,7.109375,1.7297897203308016E-7,1600000.0,68.89999999999999,33.98989684594812,32.39130434782607,20.05141388174806,479400.0,3024.0,0.0,1.0,0.0,?,0.0,0.0
1700000.0,7.5625,1.8018213773353237E-7,1700000.0,73.6,44.09740603493913,43.71002132196161,32.13367609254499,509400.0,3024.0,0.0,1.0,0.0,?,0.0,0.0
1800000.0,8.0,1.8550710390425396E-7,1800000.0,69.8,35.72279925080878,37.860082304526735,21.354166666666657,539400.0,3024.0,0.0,1.0,0.0,?,0.0,0.0
1900000.0,8.4375,1.8920225556939847E-7,1900000.0,69.19999999999999,34.77367736688958,33.76344086021504,20.413436692506448,569400.0,3024.0,0.0,1.0,0.0,?,0.0,0.0
2000000.0,8.890625,1.91341354770379E-7,2000000.0,72.6,40.91644204851752,40.948275862068954,26.933333333333326,599400.0,3024.0,0.0,1.0,0.0,?,0.0,0.0
2100000.0,9.328125,2.0809132062519597E-7,2100000.0,71.7,39.30997804007686,42.59634888438133,26.109660574412523,629100.0,3024.0,0.0,1.0,0.0,?,0.0,0.0
2200000.0,9.78125,2.2375147737976586E-7,2200000.0,74.2,43.11165990474511,45.79831932773109,28.33333333333333,659100.0,3024.0,0.0,1.0,0.0,?,0.0,0.0
2300000.0,10.234375,2.377236119678452E-7,2300000.0,72.5,40.572406579823145,37.07093821510298,24.863387978142068,689100.0,3024.0,0.0,1.0,0.0,?,0.0,0.0
2400000.0,10.65625,2.4916054422242784E-7,2400000.0,73.2,43.58773580536926,46.18473895582329,32.49370277078086,719100.0,3024.0,0.0,1.0,0.0,?,0.0,0.0
2500000.0,11.09375,2.593912520549365E-7,2500000.0,68.5,34.292866082603275,35.31827515400411,21.250000000000018,749100.0,3024.0,0.0,1.0,0.0,?,0.0,0.0
2600000.0,11.546875,2.6829932014354414E-7,2600000.0,69.3,35.87547727861373,33.83620689655171,24.384236453201964,779100.0,3024.0,0.0,1.0,0.0,?,0.0,0.0
2700000.0,11.984375,2.752703989648986E-7,2700000.0,71.89999999999999,38.375030702831666,36.568848758465,23.848238482384815,809100.0,3024.0,0.0,1.0,0.0,?,0.0,0.0
2800000.0,12.4375,2.8080242272052516E-7,2800000.0,73.3,42.44201086487884,41.83006535947712,28.032345013477084,839100.0,3024.0,0.0,1.0,0.0,?,0.0,0.0
2900000.0,12.875,2.8451387253072545E-7,2900000.0,72.3,39.74331085490537,43.584521384928706,25.13513513513513,869100.0,3024.0,0.0,1.0,0.0,?,0.0,0.0
3000000.0,13.3125,2.8659550783534865E-7,3000000.0,68.4,32.36735654816687,31.89655172413794,18.346253229974177,899100.0,3024.0,0.0,1.0,0.0,?,0.0,0.0
3100000.0,13.765625,3.03960566978074E-7,3100000.0,70.39999999999999,37.41542625169147,37.55274261603375,25.252525252525242,928800.0,3024.0,0.0,1.0,0.0,?,0.0,0.0
3200000.0,14.21875,3.196376039543088E-7,3200000.0,69.19999999999999,33.15246880086814,35.69937369519832,17.866666666666653,958800.0,3024.0,0.0,1.0,0.0,?,0.0,0.0
3300000.0,14.671875,3.33626618764053E-7,3300000.0,72.6,41.67110164981372,43.153526970954346,27.704485488126647,988800.0,3024.0,0.0,1.0,0.0,?,0.0,0.0
3400000.0,15.109375,3.455034392471945E-7,3400000.0,71.1,38.44620325958237,39.916839916839905,23.74670184696569,1018800.0,3024.0,0.0,1.0,0.0,?,0.0,0.0
3500000.0,15.5625,3.561164097239576E-7,3500000.0,68.30000000000001,32.69924843955672,29.71175166297118,19.74683544303799,1048800.0,3024.0,0.0,1.0,0.0,?,0.0,0.0
3600000.0,16.015625,3.650413580342302E-7,3600000.0,71.39999999999999,39.24278667420112,37.0044052863436,24.93438320209973,1078800.0,3024.0,0.0,1.0,0.0,?,0.0,0.0
3700000.0,16.421875,3.715296366458968E-7,3700000.0,71.0,36.526002451409546,36.95652173913042,19.444444444444432,1108800.0,3024.0,0.0,1.0,0.0,?,0.0,0.0
3800000.0,16.875,3.770785406231883E-7,3800000.0,69.8,35.00120527566376,32.43847874720356,17.934782608695638,1138800.0,3024.0,0.0,1.0,0.0,?,0.0,0.0
3900000.0,17.3125,3.808062885784443E-7,3900000.0,70.89999999999999,37.04024231934226,38.73684210526315,20.273972602739715,1168800.0,3024.0,0.0,1.0,0.0,?,0.0,0.0
4000000.0,17.75,3.829042220281233E-7,4000000.0,71.0,38.00902075628993,39.20335429769391,25.44987146529562,1198800.0,3024.0,0.0,1.0,0.0,?,0.0,0.0
4100000.0,18.203125,4.002861613925135E-7,4100000.0,72.0,39.75255513717052,40.42553191489361,25.333333333333325,1228500.0,3024.0,0.0,1.0,0.0,?,0.0,0.0
4200000.0,18.640625,4.1543890903186494E-7,4200000.0,72.7,41.850558064241284,41.7910447761194,30.179028132992325,1258500.0,3024.0,0.0,1.0,0.0,?,0.0,0.0
4300000.0,19.09375,4.2944480406327407E-7,4300000.0,73.7,44.21820649868499,43.92324093816631,31.68831168831169,1288500.0,3024.0,0.0,1.0,0.0,?,0.0,0.0
4400000.0,19.515625,4.4091316845474997E-7,4400000.0,70.8,38.3154194551477,38.65546218487394,26.262626262626256,1318500.0,3024.0,0.0,1.0,0.0,?,0.0,0.0
4500000.0,19.953125,4.511764725773701E-7,4500000.0,71.1,35.66397449711043,37.173913043478244,13.47305389221555,1348500.0,3024.0,0.0,1.0,0.0,?,0.0,0.0
4600000.0,20.40625,4.601183011093076E-7,4600000.0,73.5,42.60043840268933,41.62995594713655,27.595628415300546,1378500.0,3024.0,0.0,1.0,0.0,?,0.0,0.0
4700000.0,20.859375,4.673721074747545E-7,4700000.0,69.39999999999999,34.233149931224204,35.169491525423716,18.617021276595732,1408500.0,3024.0,0.0,1.0,0.0,?,0.0,0.0
4800000.0,21.296875,4.727459680806434E-7,4800000.0,71.7,38.87108062105254,40.7949790794979,24.33155080213903,1438500.0,3024.0,0.0,1.0,0.0,?,0.0,0.0
4900000.0,21.75,4.766237301131092E-7,4900000.0,71.7,38.38396154114121,40.42105263157894,23.924731182795693,1468500.0,3024.0,0.0,1.0,0.0,?,0.0,0.0
5000000.0,22.1875,4.791128190441266E-7,5000000.0,71.8,38.92799133730373,39.09287257019437,24.79999999999999,1498500.0,3024.0,0.0,1.0,0.0,?,0.0,0.0
5100000.0,22.625,4.965156161536775E-7,5100000.0,76.7,51.86825535852987,51.356993736951985,46.064814814814824,26219.0,3024.0,0.0,1.0,0.0,?,1.0,5.0
5200000.0,23.0625,5.122885987576514E-7,5200000.0,81.10000000000001,61.482652928133575,63.22957198443581,58.18584070796461,56219.0,3024.0,0.0,1.0,0.0,?,0.0,0.0
5300000.0,23.515625,5.269368800024194E-7,5300000.0,83.0,65.59261658031087,64.65696465696465,63.043478260869556,86219.0,3024.0,0.0,1.0,0.0,?,0.0,0.0
5400000.0,23.953125,5.39450233595239E-7,5400000.0,82.1,63.85882732999514,64.62450592885375,61.086956521739125,116219.0,3024.0,0.0,1.0,0.0,?,0.0,0.0
5500000.0,24.40625,5.507224705070259E-7,5500000.0,81.3,62.17453921711409,61.20331950207467,59.61123110151186,146219.0,3024.0,0.0,1.0,0.0,?,0.0,0.0
5600000.0,24.84375,5.599761950886914E-7,5600000.0,84.7,68.97709576953022,69.88188976377953,66.1504424778761,176219.0,3024.0,0.0,1.0,0.0,?,0.0,0.0
5700000.0,25.296875,5.678723876674972E-7,5700000.0,85.3,70.0379112143818,70.0,66.05080831408776,206219.0,3024.0,0.0,1.0,0.0,?,0.0,0.0
5800000.0,25.734375,5.738664832380085E-7,5800000.0,82.19999999999999,63.723663991456704,64.32865731462924,59.63718820861676,236219.0,3024.0,0.0,1.0,0.0,?,0.0,0.0
5900000.0,26.1875,5.783866314838332E-7,5900000.0,84.0,67.9596291327072,66.45702306079664,68.0,266219.0,3024.0,0.0,1.0,0.0,?,0.0,0.0
6000000.0,26.640625,5.812187575631673E-7,6000000.0,83.8,67.1994395558561,68.48249027237352,64.55142231947482,296219.0,3024.0,0.0,1.0,0.0,?,0.0,0.0
6100000.0,27.078125,5.98637852817774E-7,6100000.0,82.5,64.70350947962888,66.21621621621621,62.92372881355931,325919.0,3024.0,0.0,1.0,0.0,?,0.0,0.0
6200000.0,27.53125,6.149910364506975E-7,6200000.0,82.8,65.2514020655213,65.11156186612575,62.770562770562755,355919.0,3024.0,0.0,1.0,0.0,?,0.0,0.0
6300000.0,27.984375,6.296561979171304E-7,6300000.0,81.2,62.250208828632026,63.49514563106797,61.15702479338844,385919.0,3024.0,0.0,1.0,0.0,?,0.0,0.0
6400000.0,28.4375,6.426333372170729E-7,6400000.0,82.3,64.5560495013817,66.5406427221172,64.38631790744466,415919.0,3024.0,0.0,1.0,0.0,?,0.0,0.0
6500000.0,28.859375,6.531438945482176E-7,6500000.0,81.89999999999999,63.65753754718496,61.73361522198731,62.05450733752619,445919.0,3024.0,0.0,1.0,0.0,?,0.0,0.0
6600000.0,29.296875,6.624139172749388E-7,6600000.0,83.39999999999999,66.71852695398334,67.82945736434108,65.56016597510373,475919.0,3024.0,0.0,1.0,0.0,?,0.0,0.0
6700000.0,29.75,6.703269900754096E-7,6700000.0,82.5,64.63503354619674,63.00211416490485,61.368653421633546,505919.0,3024.0,0.0,1.0,0.0,?,0.0,0.0
6800000.0,30.203125,6.765520407093898E-7,6800000.0,84.6,68.80165958964052,69.921875,66.37554585152837,535919.0,3024.0,0.0,1.0,0.0,?,0.0,0.0
6900000.0,30.640625,6.809326199193797E-7,6900000.0,84.6,68.76267748478702,69.26147704590818,65.77777777777777,565919.0,3024.0,0.0,1.0,0.0,?,0.0,0.0
7000000.0,31.078125,6.836833846237925E-7,7000000.0,82.8,65.17203395321712,65.11156186612575,61.946902654867245,595919.0,3024.0,0.0,1.0,0.0,?,0.0,0.0
7100000.0,31.53125,7.017414706448715E-7,7100000.0,83.2,66.16981945154834,66.53386454183267,64.48202959830866,625619.0,3024.0,0.0,1.0,0.0,?,0.0,0.0
7200000.0,31.984375,7.181115344994598E-7,7200000.0,83.5,66.94843956572252,67.45562130177514,66.18852459016392,655619.0,3024.0,0.0,1.0,0.0,?,0.0,0.0
7300000.0,32.421875,7.322872988879681E-7,7300000.0,82.19999999999999,64.2799807352705,64.75247524752474,62.91666666666666,685619.0,3024.0,0.0,1.0,0.0,?,0.0,0.0
7400000.0,32.875,7.452813184095753E-7,7400000.0,84.5,68.83770677689405,69.8443579766537,66.95095948827291,715619.0,3024.0,0.0,1.0,0.0,?,0.0,0.0
7500000.0,33.328125,7.565873157646921E-7,7500000.0,84.39999999999999,68.5345575273003,69.4716242661448,66.30669546436285,745619.0,3024.0,0.0,1.0,0.0,?,0.0,0.0
7600000.0,33.75,7.655419823196199E-7,7600000.0,83.39999999999999,66.6163901458019,68.13819577735124,65.05263157894736,775619.0,3024.0,0.0,1.0,0.0,?,0.0,0.0
7700000.0,34.1875,7.731984886858198E-7,7700000.0,84.1,67.89953969151254,69.71428571428571,65.73275862068965,805619.0,3024.0,0.0,1.0,0.0,?,0.0,0.0
7800000.0,34.609375,7.790099415514204E-7,7800000.0,82.5,64.73224722090107,64.78873239436619,63.080168776371295,835619.0,3024.0,0.0,1.0,0.0,?,0.0,0.0
7900000.0,35.0625,7.835638502405749E-7,7900000.0,83.5,66.88289792707012,66.53144016227179,65.83850931677017,865619.0,3024.0,0.0,1.0,0.0,?,0.0,0.0
8000000.0,35.5,7.863309130900435E-7,8000000.0,85.0,69.60498640329725,68.74999999999999,66.13995485327312,895619.0,3024.0,0.0,1.0,0.0,?,0.0,0.0
8100000.0,35.9375,8.037826046347618E-7,8100000.0,83.39999999999999,66.62645757941293,67.82945736434108,64.9789029535865,925319.0,3024.0,0.0,1.0,0.0,?,0.0,0.0
8200000.0,36.40625,8.207346157481273E-7,8200000.0,83.7,67.1095112029444,65.53911205073994,65.17094017094016,955319.0,3024.0,0.0,1.0,0.0,?,0.0,0.0
8300000.0,36.859375,8.3543353765789E-7,8300000.0,84.3,68.39367390324036,69.92337164750957,66.45299145299145,985319.0,3024.0,0.0,1.0,0.0,?,0.0,0.0
8400000.0,37.3125,8.484444374011623E-7,8400000.0,84.5,68.86925085358506,69.66731898238747,67.02127659574467,1015319.0,3024.0,0.0,1.0,0.0,?,0.0,0.0
8500000.0,37.765625,8.597673149779439E-7,8500000.0,85.2,70.13335055374382,70.04048582995951,68.10344827586206,1045319.0,3024.0,0.0,1.0,0.0,?,0.0,0.0
8600000.0,38.21875,8.69402170388235E-7,8600000.0,83.89999999999999,67.67665411209174,67.27642276422763,66.59751037344398,1075319.0,3024.0,0.0,1.0,0.0,?,0.0,0.0
8700000.0,38.65625,8.770749748994908E-7,8700000.0,83.0,65.56362222078174,64.80331262939958,62.71929824561402,1105319.0,3024.0,0.0,1.0,0.0,?,0.0,0.0
8800000.0,39.09375,8.831179649051694E-7,8800000.0,85.9,71.56730683917178,71.28309572301426,69.80728051391863,1135319.0,3024.0,0.0,1.0,0.0,?,0.0,0.0
8900000.0,39.546875,8.876887538159888E-7,8900000.0,85.0,69.92963534671131,70.29702970297029,69.0721649484536,1165319.0,3024.0,0.0,1.0,0.0,?,0.0,0.0
9000000.0,40.0,8.905715205603177E-7,9000000.0,84.1,67.95801895917973,68.88454011741683,66.09808102345414,1195319.0,3024.0,0.0,1.0,0.0,?,0.0,0.0
9100000.0,40.4375,9.080395102500917E-7,9100000.0,84.0,67.61644922461635,69.63946869070207,64.67991169977924,1225019.0,3024.0,0.0,1.0,0.0,?,0.0,0.0
9200000.0,40.90625,9.250089836617312E-7,9200000.0,86.2,72.26152955554126,72.50996015936255,70.88607594936708,1255019.0,3024.0,0.0,1.0,0.0,?,0.0,0.0
9300000.0,41.359375,9.397247857931588E-7,9300000.0,83.3,66.3113556955999,67.12598425196849,64.16309012875536,1285019.0,3024.0,0.0,1.0,0.0,?,0.0,0.0
9400000.0,41.8125,9.527525657580959E-7,9400000.0,82.8,65.43144371957665,62.931034482758605,63.94129979035639,1315019.0,3024.0,0.0,1.0,0.0,?,0.0,0.0
9500000.0,42.25,9.637012974255616E-7,9500000.0,83.2,66.21390619532383,64.92693110647181,64.48202959830866,1345019.0,3024.0,0.0,1.0,0.0,?,0.0,0.0
9600000.0,42.671875,9.726873961173827E-7,9600000.0,82.8,65.37911877780238,66.7311411992263,63.48195329087047,1375019.0,3024.0,0.0,1.0,0.0,?,0.0,0.0
9700000.0,43.125,9.806511095828482E-7,9700000.0,85.0,69.67798014918432,68.22033898305084,67.03296703296702,1405019.0,3024.0,0.0,1.0,0.0,?,0.0,0.0
9800000.0,43.5625,9.867103977335826E-7,9800000.0,82.69999999999999,65.17012281054961,66.14481409001957,62.955032119914335,1435019.0,3024.0,0.0,1.0,0.0,?,0.0,0.0
9900000.0,44.0,9.911398713787398E-7,9900000.0,83.7,66.96312030288534,67.13709677419354,64.7186147186147,1465019.0,3024.0,0.0,1.0,0.0,?,0.0,0.0
1.0E7,44.453125,9.940395183447336E-7,1.0E7,83.89999999999999,67.65483489902682,67.4089068825911,66.31799163179916,1495019.0,3024.0,0.0,1.0,0.0,?,0.0,0.0
