learning evaluation instances,evaluation time (cpu seconds),model cost (RAM-Hours),classified instances,classifications correct (percent),Kappa Statistic (percent),Kappa Temporal Statistic (percent),Kappa M Statistic (percent),model training instances,model serialized size (bytes),labeling cost,newThreshold,maxPosterior,accuracyBaseLearner (percent),Change detected,Warning detected,tree size (nodes),tree size (leaves),active learning leaves,tree depth,active leaf byte size estimate,inactive leaf byte size estimate,byte size estimate overhead
100000.0,0.984375,1.316075213253498E-7,100000.0,93.30000000000001,86.59646146582699,86.46464646464648,86.29856850715747,59322.0,405880.0,0.0,1.0,0.0,?,2.0,22.0,135.0,101.0,101.0,4.0,0.0,0.0,1.0
200000.0,1.875,3.203426604159176E-7,200000.0,95.7,91.36795785957473,90.73275862068965,90.87048832271762,119322.0,722280.0,0.0,1.0,0.0,?,0.0,0.0,251.0,180.0,180.0,5.0,0.0,0.0,1.0
300000.0,2.703125,5.203795929749807E-7,300000.0,95.39999999999999,90.7437218287186,90.27484143763212,90.04329004329004,179322.0,851520.0,0.0,1.0,0.0,?,0.0,0.0,301.0,211.0,211.0,6.0,0.0,0.0,1.0
400000.0,3.515625,7.35608498669333E-7,400000.0,95.7,91.39683403492485,91.24236252545825,91.29554655870444,239322.0,956544.0,0.0,1.0,0.0,?,0.0,0.0,343.0,238.0,238.0,8.0,0.0,0.0,1.0
500000.0,4.3125,9.635467884234257E-7,500000.0,95.19999999999999,90.37014745711706,90.62499999999999,89.89473684210525,299322.0,1053000.0,0.0,1.0,0.0,?,0.0,0.0,394.0,268.0,268.0,8.0,0.0,0.0,1.0
600000.0,5.078125,1.2127350136223766E-6,600000.0,97.7,95.39760675551287,95.67669172932328,95.17819706498952,359022.0,1144168.0,0.0,1.0,0.0,?,0.0,0.0,425.0,285.0,285.0,8.0,0.0,0.0,1.0
700000.0,5.859375,1.4766501650835076E-6,700000.0,97.7,95.36962473828314,95.23809523809523,95.0,419022.0,1206744.0,0.0,1.0,0.0,?,0.0,0.0,458.0,303.0,303.0,8.0,0.0,0.0,1.0
800000.0,6.65625,1.7529682372696697E-6,800000.0,97.39999999999999,94.73396390739877,94.74747474747474,94.15730337078652,479022.0,1256248.0,0.0,1.0,0.0,?,0.0,0.0,481.0,316.0,316.0,9.0,0.0,0.0,1.0
900000.0,7.453125,2.034967862224827E-6,900000.0,97.6,95.1981560919393,95.52238805970148,94.8051948051948,539022.0,1298768.0,0.0,1.0,0.0,?,0.0,0.0,497.0,324.0,324.0,9.0,0.0,0.0,1.0
1000000.0,8.234375,2.32461565044812E-6,1000000.0,97.8,95.59915503776725,95.61752988047807,95.52845528455283,599022.0,1378888.0,0.0,1.0,0.0,?,0.0,0.0,531.0,347.0,347.0,9.0,0.0,0.0,1.0
1100000.0,9.03125,2.642317526301162E-6,1100000.0,97.89999999999999,95.78989574979951,95.80838323353294,95.58823529411764,658722.0,1425696.0,0.0,1.0,0.0,?,0.0,0.0,550.0,358.0,358.0,9.0,0.0,0.0,1.0
1200000.0,9.828125,2.9685326606138714E-6,1200000.0,97.39999999999999,94.77863417102785,94.9119373776908,94.43254817987152,718722.0,1481920.0,0.0,1.0,0.0,?,0.0,0.0,573.0,371.0,371.0,9.0,0.0,0.0,1.0
1300000.0,10.625,3.295237612393167E-6,1300000.0,97.89999999999999,95.7799123829428,95.58823529411764,95.73170731707317,778722.0,1499344.0,0.0,1.0,0.0,?,0.0,0.0,591.0,380.0,380.0,9.0,0.0,0.0,1.0
1400000.0,11.4375,3.6361375047514833E-6,1400000.0,98.0,95.99991999839996,95.9349593495935,96.04743083003953,838722.0,1551328.0,0.0,1.0,0.0,?,0.0,0.0,618.0,395.0,395.0,9.0,0.0,0.0,1.0
1500000.0,12.21875,3.9725034083757135E-6,1500000.0,97.7,95.4002575855752,95.22821576763485,95.38152610441767,898722.0,1608712.0,0.0,1.0,0.0,?,0.0,0.0,637.0,406.0,406.0,9.0,0.0,0.0,1.0
1600000.0,13.015625,4.335501030760093E-6,1600000.0,98.8,97.59037112300753,97.66536964980544,97.4630021141649,958422.0,1644312.0,0.0,1.0,0.0,?,0.0,0.0,650.0,414.0,414.0,9.0,0.0,0.0,1.0
1700000.0,13.828125,4.711269640312012E-6,1700000.0,98.6,97.19641140660045,97.22772277227722,97.10743801652893,1018422.0,1686192.0,0.0,1.0,0.0,?,0.0,0.0,671.0,426.0,426.0,9.0,3865.81990521327,0.0,1.018408999519424
1800000.0,14.609375,5.079538192755232E-6,1800000.0,97.89999999999999,95.78908530912123,95.85798816568047,95.56025369978857,1078422.0,1735544.0,0.0,1.0,0.0,?,0.0,0.0,692.0,438.0,438.0,9.0,3865.81990521327,0.0,1.018408999519424
1900000.0,15.375,5.441762882077859E-6,1900000.0,98.9,97.7988554048105,97.82608695652173,97.74127310061601,1138422.0,1757296.0,0.0,1.0,0.0,?,0.0,0.0,702.0,443.0,443.0,9.0,3865.81990521327,0.0,1.018408999519424
2000000.0,16.171875,5.820216966741201E-6,2000000.0,98.9,97.79963033789677,97.82608695652173,97.67441860465115,1198422.0,1779368.0,0.0,1.0,0.0,?,0.0,0.0,712.0,448.0,448.0,9.0,3865.81990521327,0.0,1.018408999519424
2100000.0,16.9375,6.199350302469813E-6,2100000.0,98.4,96.79883477585841,96.8565815324165,96.75456389452333,1258122.0,1796680.0,0.0,1.0,0.0,?,0.0,0.0,720.0,452.0,452.0,9.0,3865.81990521327,0.0,1.018408999519424
2200000.0,17.703125,6.5784519473608175E-6,2200000.0,98.8,97.59956792222599,97.61431411530815,97.54098360655738,1318122.0,1811624.0,0.0,1.0,0.0,?,0.0,0.0,728.0,456.0,456.0,9.0,3865.81990521327,0.0,1.018408999519424
2300000.0,18.484375,6.965183646469895E-6,2300000.0,98.9,97.76952275897868,97.77327935222672,97.52252252252251,1378122.0,1826176.0,0.0,1.0,0.0,?,0.0,0.0,742.0,463.0,463.0,9.0,3865.81990521327,0.0,1.018408999519424
2400000.0,19.296875,7.372303160890523E-6,2400000.0,98.1,96.19841854211352,96.13034623217922,96.13821138211381,1438122.0,1864560.0,0.0,1.0,0.0,?,0.0,0.0,756.0,470.0,470.0,9.0,3865.81990521327,0.0,1.018408999519424
2500000.0,20.078125,7.762317125323332E-6,2500000.0,98.6,97.19983198991939,97.21669980119285,97.18875502008032,1498122.0,1872528.0,0.0,1.0,0.0,?,0.0,0.0,766.0,475.0,475.0,9.0,3865.81990521327,0.0,1.018408999519424
2600000.0,20.84375,8.159724982558854E-6,2600000.0,98.2,96.38329080351222,96.28865979381443,96.04395604395603,1557822.0,1888360.0,0.0,1.0,0.0,?,0.0,0.0,770.0,477.0,477.0,9.0,3865.81990521327,0.0,1.018408999519424
2700000.0,21.625,8.564151810585625E-6,2700000.0,97.8,95.59534868821476,95.42619542619542,95.49180327868852,1617822.0,1898096.0,0.0,1.0,0.0,?,0.0,0.0,778.0,481.0,481.0,9.0,3865.81990521327,0.0,1.018408999519424
2800000.0,22.40625,8.969314318771164E-6,2800000.0,98.7,97.39092040300244,97.46588693957115,97.23991507430998,1677822.0,1916832.0,0.0,1.0,0.0,?,0.0,0.0,784.0,484.0,484.0,9.0,3865.81990521327,0.0,1.018408999519424
2900000.0,23.203125,9.384722410080334E-6,2900000.0,99.0,98.000023999712,98.0392156862745,97.96747967479675,1737822.0,1942272.0,0.0,1.0,0.0,?,0.0,0.0,798.0,491.0,491.0,9.0,3865.81990521327,0.0,1.018408999519424
3000000.0,23.984375,9.793977240203984E-6,3000000.0,99.0,97.98442362578002,98.02371541501977,97.79735682819383,1797822.0,1967208.0,0.0,1.0,0.0,?,0.0,0.0,804.0,494.0,494.0,9.0,3865.81990521327,0.0,1.018408999519424
3100000.0,24.75,1.0208891116134409E-5,3100000.0,99.3,98.59406131499453,98.59437751004016,98.50107066381156,1857522.0,1976104.0,0.0,1.0,0.0,?,0.0,0.0,808.0,496.0,496.0,9.0,3865.81990521327,0.0,1.018408999519424
3200000.0,25.53125,1.0633491749306107E-5,3200000.0,99.1,98.18362354992614,98.14432989690721,98.00443458980044,1917522.0,1997264.0,0.0,1.0,0.0,?,0.0,0.0,817.0,502.0,502.0,9.0,3865.81990521327,0.0,1.018408999519424
3300000.0,26.3125,1.1061494296882303E-5,3300000.0,98.5,96.99711723254325,96.96969696969697,96.92622950819671,1977522.0,2029168.0,0.0,1.0,0.0,?,0.0,0.0,828.0,509.0,509.0,9.0,3865.81990521327,0.0,1.018408999519424
3400000.0,27.15625,1.1521370906848462E-5,3400000.0,98.5,96.99867941894433,97.05304518664047,96.93251533742331,2037522.0,2033504.0,0.0,1.0,0.0,?,0.0,0.0,830.0,510.0,510.0,9.0,3915.992141453831,0.0,1.0200517749994984
3500000.0,27.9375,1.1945685352354E-5,3500000.0,99.2,98.3989433025797,98.30866807610994,98.3640081799591,2097522.0,2041240.0,0.0,1.0,0.0,?,0.0,0.0,836.0,513.0,513.0,9.0,3915.992141453831,0.0,1.0200517749994984
3600000.0,28.71875,1.2389344143836449E-5,3600000.0,99.5,98.99891081496668,99.05482041587902,98.9648033126294,2157222.0,2075992.0,0.0,1.0,0.0,?,0.0,0.0,851.0,522.0,522.0,9.0,3915.992141453831,0.0,1.0200517749994984
3700000.0,29.546875,1.2865220034857178E-5,3700000.0,98.4,96.78337648969875,96.70103092783505,96.56652360515021,2217222.0,2117144.0,0.0,1.0,0.0,?,0.0,0.0,873.0,536.0,536.0,10.0,3915.992141453831,0.0,1.0200517749994984
3800000.0,30.328125,1.3312975998916146E-5,3800000.0,98.8,97.5907484741407,97.54601226993866,97.43589743589743,2277222.0,2126432.0,0.0,1.0,0.0,?,0.0,0.0,879.0,539.0,539.0,10.0,3915.992141453831,0.0,1.0200517749994984
3900000.0,31.125,1.3775406567017651E-5,3900000.0,99.3,98.59968632973786,98.62745098039215,98.635477582846,2337222.0,2169200.0,0.0,1.0,0.0,?,0.0,0.0,890.0,546.0,546.0,10.0,3915.992141453831,0.0,1.0200517749994984
4000000.0,31.921875,1.4235651922515696E-5,4000000.0,99.3,98.59882301132951,98.582995951417,98.57142857142857,2397222.0,2173760.0,0.0,1.0,0.0,?,0.0,0.0,896.0,549.0,549.0,10.0,3915.992141453831,0.0,1.0200517749994984
4100000.0,32.71875,1.4714685158752318E-5,4100000.0,99.0,97.98579583220874,97.9253112033195,97.7728285077951,2456922.0,2203824.0,0.0,1.0,0.0,?,0.0,0.0,905.0,555.0,555.0,10.0,3915.992141453831,0.0,1.0200517749994984
4200000.0,33.515625,1.5194437453626758E-5,4200000.0,99.4,98.79826469421845,98.73150105708245,98.75259875259876,2516922.0,2222432.0,0.0,1.0,0.0,?,0.0,0.0,916.0,562.0,562.0,10.0,3915.992141453831,0.0,1.0200517749994984
4300000.0,34.3125,1.5674602052766E-5,4300000.0,99.0,97.99885534525748,97.86780383795309,97.94661190965093,2576922.0,2239544.0,0.0,1.0,0.0,?,0.0,0.0,922.0,565.0,565.0,10.0,3915.992141453831,0.0,1.0200517749994984
4400000.0,35.125,1.616556051885709E-5,4400000.0,99.4,98.7986160056385,98.78296146044624,98.75518672199169,2636922.0,2261168.0,0.0,1.0,0.0,?,0.0,0.0,932.0,570.0,570.0,10.0,3915.992141453831,0.0,1.0200517749994984
4500000.0,35.921875,1.6644992865622043E-5,4500000.0,99.1,98.19671080050011,98.2421875,98.26589595375722,2696922.0,2266200.0,0.0,1.0,0.0,?,0.0,0.0,942.0,575.0,575.0,10.0,3915.992141453831,0.0,1.0200517749994984
4600000.0,36.703125,1.7132540233433246E-5,4600000.0,98.4,96.79293162129333,96.82539682539682,96.60297239915074,2756622.0,2291920.0,0.0,1.0,0.0,?,0.0,0.0,950.0,579.0,579.0,10.0,3915.992141453831,0.0,1.0200517749994984
4700000.0,37.484375,1.7620111854436497E-5,4700000.0,99.4,98.7956643918105,98.76288659793815,98.7152034261242,2816622.0,2307160.0,0.0,1.0,0.0,?,0.0,0.0,954.0,581.0,581.0,10.0,3915.992141453831,0.0,1.0200517749994984
4800000.0,38.296875,1.812528282041765E-5,4800000.0,99.3,98.58831121687574,98.60557768924303,98.45814977973568,2876622.0,2313272.0,0.0,1.0,0.0,?,0.0,0.0,958.0,583.0,583.0,10.0,3915.992141453831,0.0,1.0200517749994984
4900000.0,39.0625,1.8601933617093083E-5,4900000.0,99.4,98.79745541565953,98.82583170254404,98.74213836477988,2936622.0,2331496.0,0.0,1.0,0.0,?,0.0,0.0,970.0,589.0,589.0,10.0,3915.992141453831,0.0,1.0200517749994984
5000000.0,39.875,1.9106783406136352E-5,5000000.0,99.0,97.9992317049747,98.00399201596807,97.9296066252588,2996622.0,2339656.0,0.0,1.0,0.0,?,0.0,0.0,974.0,591.0,591.0,10.0,3915.992141453831,0.0,1.0200517749994984
5100000.0,41.125,1.9298809185986304E-5,5100000.0,86.6,71.7343705834954,71.42857142857143,67.5544794188862,58765.0,478888.0,0.0,1.0,0.0,?,2.0,34.0,161.0,117.0,117.0,4.0,0.0,0.0,1.0
5200000.0,42.125,1.9561301418838817E-5,5200000.0,89.5,77.36483573337932,77.41935483870968,71.69811320754718,118765.0,915392.0,0.0,1.0,0.0,?,0.0,0.0,301.0,220.0,220.0,5.0,0.0,0.0,1.0
5300000.0,43.078125,1.986284381321942E-5,5300000.0,92.2,83.37021733846726,82.27272727272728,79.84496124031008,178765.0,1138088.0,0.0,1.0,0.0,?,0.0,0.0,386.0,276.0,276.0,6.0,0.0,0.0,1.0
5400000.0,44.0,2.018513309950423E-5,5400000.0,93.10000000000001,85.34944752554293,85.77319587628867,81.93717277486913,238765.0,1281176.0,0.0,1.0,0.0,?,0.0,0.0,441.0,311.0,311.0,6.0,0.0,0.0,1.0
5500000.0,44.921875,2.0537884200974886E-5,5500000.0,93.5,86.11526466441663,86.43006263048018,82.98429319371729,298765.0,1423456.0,0.0,1.0,0.0,?,0.0,0.0,496.0,343.0,343.0,6.0,0.0,0.0,1.0
5600000.0,45.84375,2.09457588627831E-5,5600000.0,92.5,83.81318254413607,84.472049689441,79.72972972972974,358465.0,1593080.0,0.0,1.0,0.0,?,0.0,0.0,565.0,385.0,385.0,6.0,0.0,0.0,1.0
5700000.0,46.78125,2.139044404935299E-5,5700000.0,91.2,81.01639924238177,81.11587982832619,75.75757575757576,418465.0,1730976.0,0.0,1.0,0.0,?,0.0,0.0,617.0,417.0,417.0,7.0,0.0,0.0,1.0
5800000.0,47.71875,2.185234124125499E-5,5800000.0,93.7,86.82559598494355,86.39308855291577,83.88746803069054,478465.0,1816672.0,0.0,1.0,0.0,?,0.0,0.0,662.0,441.0,441.0,7.0,0.0,0.0,1.0
5900000.0,48.65625,2.2345171924421772E-5,5900000.0,94.69999999999999,88.4203626829801,88.88888888888889,85.2367688022284,538465.0,1958920.0,0.0,1.0,0.0,?,0.0,0.0,716.0,477.0,477.0,7.0,0.0,0.0,1.0
6000000.0,49.640625,2.2914657634424254E-5,6000000.0,94.0,87.43613367953765,87.23404255319149,84.6153846153846,598465.0,2177496.0,0.0,1.0,0.0,?,0.0,0.0,795.0,527.0,527.0,7.0,0.0,0.0,1.0
6100000.0,50.578125,2.3501769206227943E-5,6100000.0,93.10000000000001,85.27252236869067,85.09719222462205,81.69761273209551,658165.0,2300424.0,0.0,1.0,0.0,?,0.0,0.0,853.0,559.0,559.0,7.0,0.0,0.0,1.0
6200000.0,51.5,2.4099006615061727E-5,6200000.0,94.1,87.5590418353576,87.44680851063829,84.79381443298968,718165.0,2398680.0,0.0,1.0,0.0,?,0.0,0.0,887.0,579.0,579.0,7.0,0.0,0.0,1.0
6300000.0,52.4375,2.4720412200420268E-5,6300000.0,95.3,90.19607843137254,89.89247311827955,88.16120906801007,778165.0,2471480.0,0.0,1.0,0.0,?,0.0,0.0,919.0,598.0,598.0,7.0,0.0,0.0,1.0
6400000.0,53.390625,2.537330101606333E-5,6400000.0,94.69999999999999,89.1468169457095,89.0721649484536,87.61682242990653,838165.0,2571968.0,0.0,1.0,0.0,?,0.0,0.0,961.0,625.0,625.0,8.0,0.0,0.0,1.0
6500000.0,54.34375,2.6040171570558516E-5,6500000.0,95.5,90.30999405679636,90.5857740585774,87.56906077348066,898165.0,2643528.0,0.0,1.0,0.0,?,0.0,0.0,997.0,646.0,646.0,8.0,0.0,0.0,1.0
6600000.0,55.3125,2.6752846186152764E-5,6600000.0,95.7,91.00004186027041,91.13402061855669,89.22305764411027,957865.0,2721552.0,0.0,1.0,0.0,?,0.0,0.0,1023.0,662.0,662.0,8.0,0.0,0.0,1.0
6700000.0,56.40625,2.7582958250099588E-5,6700000.0,96.6,92.70727427941435,92.49448123620309,90.73569482288828,1017865.0,2826360.0,0.0,1.0,0.0,?,0.0,0.0,1062.0,686.0,686.0,8.0,4058.205278592375,0.0,1.0166607893352448
6800000.0,57.375,2.8333447860657344E-5,6800000.0,95.39999999999999,89.98061466750886,90.27484143763212,87.04225352112674,1077865.0,2902080.0,0.0,1.0,0.0,?,0.0,0.0,1095.0,707.0,707.0,8.0,4058.205278592375,0.0,1.0166607893352448
6900000.0,58.359375,2.910718396176688E-5,6900000.0,96.2,91.94584214698413,92.06680584551148,90.23136246786632,1137865.0,2960752.0,0.0,1.0,0.0,?,0.0,0.0,1127.0,726.0,726.0,8.0,4058.205278592375,0.0,1.0166607893352448
7000000.0,59.359375,2.9922666564945962E-5,7000000.0,96.6,92.87364127586972,92.37668161434976,91.34860050890585,1197865.0,3089352.0,0.0,1.0,0.0,?,0.0,0.0,1170.0,755.0,755.0,8.0,4058.205278592375,0.0,1.0166607893352448
7100000.0,60.34375,3.075585422468269E-5,7100000.0,95.39999999999999,90.217761143246,90.14989293361883,87.89473684210525,1257565.0,3147632.0,0.0,1.0,0.0,?,0.0,0.0,1203.0,773.0,773.0,8.0,4058.205278592375,0.0,1.0166607893352448
7200000.0,61.359375,3.164332201575033E-5,7200000.0,96.1,91.47950712225814,91.71974522292993,89.16666666666666,1317565.0,3268224.0,0.0,1.0,0.0,?,0.0,0.0,1251.0,803.0,803.0,8.0,4058.205278592375,0.0,1.0166607893352448
7300000.0,62.34375,3.2511982588200936E-5,7300000.0,95.7,90.86979047230786,90.94736842105262,88.71391076115485,1377565.0,3316576.0,0.0,1.0,0.0,?,0.0,0.0,1270.0,814.0,814.0,8.0,4058.205278592375,0.0,1.0166607893352448
7400000.0,63.328125,3.3395926746177596E-5,7400000.0,96.6,92.77702243371854,92.81183932346723,91.005291005291,1437565.0,3391512.0,0.0,1.0,0.0,?,0.0,0.0,1301.0,834.0,834.0,8.0,4058.205278592375,0.0,1.0166607893352448
7500000.0,64.328125,3.430770396436048E-5,7500000.0,96.8,93.08054248546912,92.99781181619255,91.2087912087912,1497565.0,3459792.0,0.0,1.0,0.0,?,0.0,0.0,1323.0,848.0,848.0,8.0,4058.205278592375,0.0,1.0166607893352448
7600000.0,65.296875,3.521261332530736E-5,7600000.0,96.6,92.79941717635496,92.47787610619469,91.005291005291,1557265.0,3485136.0,0.0,1.0,0.0,?,0.0,0.0,1335.0,854.0,854.0,8.0,4058.205278592375,0.0,1.0166607893352448
7700000.0,66.28125,3.613707467189266E-5,7700000.0,96.5,92.56135816847886,92.56900212314224,90.8616187989556,1617265.0,3519688.0,0.0,1.0,0.0,?,0.0,0.0,1353.0,866.0,866.0,9.0,4058.205278592375,0.0,1.0166607893352448
7800000.0,67.265625,3.708000792863055E-5,7800000.0,97.3,94.23697556477639,94.27966101694915,92.81914893617021,1677265.0,3607104.0,0.0,1.0,0.0,?,0.0,0.0,1385.0,888.0,888.0,9.0,4058.205278592375,0.0,1.0166607893352448
7900000.0,68.28125,3.807063489350387E-5,7900000.0,96.2,92.14710538171266,92.35412474849095,90.8872901678657,1737265.0,3689568.0,0.0,1.0,0.0,?,0.0,0.0,1416.0,908.0,908.0,9.0,4058.205278592375,0.0,1.0166607893352448
8000000.0,69.28125,3.9056715096295296E-5,8000000.0,95.8,91.2204788601673,91.02564102564101,89.4736842105263,1797265.0,3745872.0,0.0,1.0,0.0,?,0.0,0.0,1440.0,923.0,923.0,9.0,4058.205278592375,0.0,1.0166607893352448
8100000.0,70.3125,4.010814297038855E-5,8100000.0,97.6,94.84631275151068,94.90445859872611,93.46049046321525,1856965.0,3814088.0,0.0,1.0,0.0,?,0.0,0.0,1462.0,937.0,937.0,9.0,4058.205278592375,0.0,1.0166607893352448
8200000.0,71.328125,4.1158753091521145E-5,8200000.0,96.7,93.1229942066436,93.05263157894737,91.6243654822335,1916965.0,3886536.0,0.0,1.0,0.0,?,0.0,0.0,1498.0,961.0,961.0,9.0,4058.205278592375,0.0,1.0166607893352448
8300000.0,72.359375,4.223216832744785E-5,8300000.0,95.5,90.49268993492774,90.36402569593147,88.28124999999999,1976965.0,3926416.0,0.0,1.0,0.0,?,0.0,0.0,1523.0,975.0,975.0,9.0,4058.205278592375,0.0,1.0166607893352448
8400000.0,73.546875,4.3484184716362505E-5,8400000.0,96.3,92.22741328314062,92.24318658280922,90.46391752577318,2036965.0,3993312.0,0.0,1.0,0.0,?,0.0,0.0,1543.0,988.0,988.0,9.0,3972.930612244898,0.0,1.0175308824617206
8500000.0,74.625,4.464201638863111E-5,8500000.0,96.0,91.6317991631799,91.43468950749464,89.74358974358974,2096965.0,4083928.0,0.0,1.0,0.0,?,0.0,0.0,1572.0,1007.0,1007.0,9.0,3972.930612244898,0.0,1.0175308824617206
8600000.0,75.65625,4.5773351739626375E-5,8600000.0,95.3,89.94635202313621,89.76034858387798,87.33153638814015,2156665.0,4112400.0,0.0,1.0,0.0,?,0.0,0.0,1581.0,1013.0,1013.0,9.0,3972.930612244898,0.0,1.0175308824617206
8700000.0,76.671875,4.689346051438608E-5,8700000.0,97.1,93.90233645645847,93.93305439330544,92.60204081632652,2216665.0,4149952.0,0.0,1.0,0.0,?,0.0,0.0,1607.0,1029.0,1029.0,9.0,3972.930612244898,0.0,1.0175308824617206
8800000.0,77.71875,4.8064565473598325E-5,8800000.0,96.7,93.16611719487749,93.36016096579476,91.91176470588235,2276665.0,4225792.0,0.0,1.0,0.0,?,0.0,0.0,1638.0,1046.0,1046.0,9.0,3972.930612244898,0.0,1.0175308824617206
8900000.0,78.75,4.9231022551086625E-5,8900000.0,95.6,90.62329514457174,90.20044543429843,88.29787234042553,2336665.0,4288792.0,0.0,1.0,0.0,?,0.0,0.0,1670.0,1065.0,1065.0,9.0,3972.930612244898,0.0,1.0175308824617206
9000000.0,79.765625,5.039311133764891E-5,9000000.0,95.89999999999999,91.41051855327991,91.35021097046413,89.51406649616366,2396665.0,4354424.0,0.0,1.0,0.0,?,0.0,0.0,1691.0,1080.0,1080.0,9.0,3972.930612244898,0.0,1.0175308824617206
9100000.0,80.828125,5.1642267919507703E-5,9100000.0,96.39999999999999,92.39797448253434,92.45283018867923,90.60052219321148,2456365.0,4414816.0,0.0,1.0,0.0,?,0.0,0.0,1714.0,1093.0,1093.0,10.0,3972.930612244898,0.0,1.0175308824617206
9200000.0,81.875,5.289324960257444E-5,9200000.0,96.8,93.29983249581238,93.44262295081967,91.75257731958763,2516365.0,4504256.0,0.0,1.0,0.0,?,0.0,0.0,1752.0,1118.0,1118.0,10.0,3972.930612244898,0.0,1.0175308824617206
9300000.0,82.921875,5.415505137837802E-5,9300000.0,97.8,95.49595659739994,95.40709812108558,94.79905437352245,2576365.0,4559152.0,0.0,1.0,0.0,?,0.0,0.0,1764.0,1124.0,1124.0,10.0,3972.930612244898,0.0,1.0175308824617206
9400000.0,84.015625,5.5499666454529176E-5,9400000.0,96.8,93.24951480887688,93.19148936170211,91.62303664921465,2636365.0,4666904.0,0.0,1.0,0.0,?,0.0,0.0,1808.0,1152.0,1152.0,10.0,3972.930612244898,0.0,1.0175308824617206
9500000.0,85.078125,5.681242124410345E-5,9500000.0,97.3,94.07811622683884,94.05286343612335,92.41573033707866,2696365.0,4705824.0,0.0,1.0,0.0,?,0.0,0.0,1825.0,1162.0,1162.0,10.0,3972.930612244898,0.0,1.0175308824617206
9600000.0,86.125,5.813715678717319E-5,9600000.0,97.3,94.23086784841284,94.21841541755887,92.72237196765498,2756065.0,4760304.0,0.0,1.0,0.0,?,0.0,0.0,1851.0,1178.0,1178.0,10.0,3972.930612244898,0.0,1.0175308824617206
9700000.0,87.21875,5.953336907421341E-5,9700000.0,97.7,95.11133405317167,94.95614035087718,93.91534391534391,2816065.0,4818192.0,0.0,1.0,0.0,?,0.0,0.0,1874.0,1191.0,1191.0,10.0,3972.930612244898,0.0,1.0175308824617206
9800000.0,88.3125,6.094038793687811E-5,9800000.0,97.1,93.829629692673,93.98340248962656,92.32804232804233,2876065.0,4871336.0,0.0,1.0,0.0,?,0.0,0.0,1895.0,1203.0,1203.0,10.0,3972.930612244898,0.0,1.0175308824617206
9900000.0,89.375,6.231372616538363E-5,9900000.0,97.5,94.60369538939733,94.80249480249479,93.15068493150685,2936065.0,4910016.0,0.0,1.0,0.0,?,0.0,0.0,1915.0,1213.0,1213.0,10.0,3972.930612244898,0.0,1.0175308824617206
1.0E7,90.484375,6.376012225195557E-5,1.0E7,97.3,94.19878819131107,94.20600858369099,92.7027027027027,2996065.0,4968376.0,0.0,1.0,0.0,?,0.0,0.0,1938.0,1226.0,1226.0,10.0,3972.930612244898,0.0,1.0175308824617206
