learning evaluation instances,evaluation time (cpu seconds),model cost (RAM-Hours),classified instances,classifications correct (percent),Kappa Statistic (percent),Kappa Temporal Statistic (percent),Kappa M Statistic (percent),model training instances,model serialized size (bytes),labeling cost,newThreshold,maxPosterior,accuracyBaseLearner (percent),Change detected,Warning detected
100000.0,0.203125,5.2884893698824776E-9,100000.0,90.2,77.71917060749364,77.10280373831776,71.17647058823529,9900.0,1112.0,0.0,1.0,0.0,?,0.0,18.0
200000.0,0.390625,9.704510577850872E-9,200000.0,92.10000000000001,82.51376764117366,82.32662192393737,77.6203966005666,19900.0,1112.0,0.0,1.0,0.0,?,0.0,0.0
300000.0,0.609375,1.4313263818621636E-8,300000.0,89.8,77.03033796930173,77.92207792207793,70.68965517241381,29900.0,1112.0,0.0,1.0,0.0,?,0.0,0.0
400000.0,0.796875,1.779796245197455E-8,400000.0,89.0,75.62132380644218,76.74418604651163,69.35933147632312,39900.0,1112.0,0.0,1.0,0.0,?,0.0,0.0
500000.0,0.984375,2.0816999798019727E-8,500000.0,88.6,74.5343585115556,75.64102564102564,68.0672268907563,49900.0,1112.0,0.0,1.0,0.0,?,0.0,0.0
600000.0,1.1875,2.3583157194985284E-8,600000.0,88.9,75.19575244020166,76.38297872340426,69.5054945054945,59900.0,1112.0,0.0,1.0,0.0,?,0.0,0.0
700000.0,1.375,2.5670871966414982E-8,700000.0,90.60000000000001,78.37917408445003,78.39080459770116,71.6012084592145,69900.0,1112.0,0.0,1.0,0.0,?,0.0,0.0
800000.0,1.578125,2.742809657421377E-8,800000.0,89.3,75.69838746309335,75.73696145124717,69.42857142857143,79900.0,1112.0,0.0,1.0,0.0,?,0.0,0.0
900000.0,1.765625,2.858448877102799E-8,900000.0,89.1,75.2973384581913,76.90677966101696,68.58789625360231,89900.0,1112.0,0.0,1.0,0.0,?,0.0,0.0
1000000.0,1.96875,2.933278058966001E-8,1000000.0,89.60000000000001,76.34385122102123,76.8888888888889,69.94219653179191,99900.0,1112.0,0.0,1.0,0.0,?,0.0,0.0
1100000.0,2.15625,3.421911969780922E-8,1100000.0,89.0,76.40781030163687,78.08764940239044,71.50259067357513,109800.0,1112.0,0.0,1.0,0.0,?,0.0,0.0
1200000.0,2.359375,3.900818733705415E-8,1200000.0,91.7,81.70806960630476,81.63716814159294,76.88022284122563,119800.0,1112.0,0.0,1.0,0.0,?,0.0,0.0
1300000.0,2.546875,4.296320387058788E-8,1300000.0,91.0,80.07791747830707,80.81023454157783,75.40983606557377,129800.0,1112.0,0.0,1.0,0.0,?,0.0,0.0
1400000.0,2.75,4.674333872066604E-8,1400000.0,89.3,76.90919920239627,76.73913043478261,72.3514211886305,139800.0,1112.0,0.0,1.0,0.0,?,0.0,0.0
1500000.0,2.953125,5.0019007176160815E-8,1500000.0,90.0,77.36819235225956,77.57847533632287,70.76023391812866,149800.0,1112.0,0.0,1.0,0.0,?,0.0,0.0
1600000.0,3.140625,5.257703984777133E-8,1600000.0,90.3,77.98236773531629,79.49260042283298,71.96531791907515,159800.0,1112.0,0.0,1.0,0.0,?,0.0,0.0
1700000.0,3.328125,5.466941123207411E-8,1700000.0,89.1,75.91905266878756,76.70940170940172,70.6989247311828,169800.0,1112.0,0.0,1.0,0.0,?,0.0,0.0
1800000.0,3.53125,5.643168050381873E-8,1800000.0,89.4,75.9702575262967,76.01809954751131,68.82352941176471,179800.0,1112.0,0.0,1.0,0.0,?,0.0,0.0
1900000.0,3.71875,5.759272931350603E-8,1900000.0,89.7,76.94965625895159,77.41228070175438,70.48710601719198,189800.0,1112.0,0.0,1.0,0.0,?,0.0,0.0
2000000.0,3.921875,5.8346065796083885E-8,2000000.0,88.9,73.8232242241298,72.92682926829269,65.3125,199800.0,1112.0,0.0,1.0,0.0,?,0.0,0.0
2100000.0,4.109375,6.323706151710617E-8,2100000.0,90.8,79.77346278317154,80.54968287526427,74.72527472527474,209700.0,1112.0,0.0,1.0,0.0,?,0.0,0.0
2200000.0,4.3125,6.803117382029694E-8,2200000.0,90.2,76.6711102647115,77.67653758542141,69.375,219700.0,1112.0,0.0,1.0,0.0,?,0.0,0.0
2300000.0,4.5,7.199084696670374E-8,2300000.0,88.3,74.07558407487504,74.39824945295405,67.85714285714286,229700.0,1112.0,0.0,1.0,0.0,?,0.0,0.0
2400000.0,4.703125,7.577602648072773E-8,2400000.0,89.7,76.4934638136274,76.37614678899082,69.6165191740413,239700.0,1112.0,0.0,1.0,0.0,?,0.0,0.0
2500000.0,4.890625,7.880437705251906E-8,2500000.0,88.7,73.50105057781781,74.4920993227991,65.12345679012346,249700.0,1112.0,0.0,1.0,0.0,?,0.0,0.0
2600000.0,5.09375,8.158062377737628E-8,2600000.0,89.60000000000001,77.73972602739725,78.46790890269152,74.00000000000001,259700.0,1112.0,0.0,1.0,0.0,?,0.0,0.0
2700000.0,5.28125,8.367765177455213E-8,2700000.0,90.9,79.94941082114875,81.87250996015936,74.79224376731302,269700.0,1112.0,0.0,1.0,0.0,?,0.0,0.0
2800000.0,5.453125,8.51730712585979E-8,2800000.0,90.8,78.32233741753065,78.99543378995433,71.25,279700.0,1112.0,0.0,1.0,0.0,?,0.0,0.0
2900000.0,5.65625,8.643591879970497E-8,2900000.0,89.8,76.90384754727918,76.55172413793105,70.68965517241381,289700.0,1112.0,0.0,1.0,0.0,?,0.0,0.0
3000000.0,5.875,8.725263695749971E-8,3000000.0,89.60000000000001,76.76289212619537,77.91932059447984,71.2707182320442,299700.0,1112.0,0.0,1.0,0.0,?,0.0,0.0
3100000.0,6.078125,9.25562603192197E-8,3100000.0,88.8,75.25397814395998,75.22123893805309,69.14600550964187,309600.0,1112.0,0.0,1.0,0.0,?,0.0,0.0
3200000.0,6.28125,9.735541728635629E-8,3200000.0,88.7,75.31867306196979,76.0593220338983,69.70509383378017,319600.0,1112.0,0.0,1.0,0.0,?,0.0,0.0
3300000.0,6.484375,1.0165010785890949E-7,3300000.0,89.3,75.6740781157641,76.4835164835165,68.98550724637681,329600.0,1112.0,0.0,1.0,0.0,?,0.0,0.0
3400000.0,6.671875,1.0514877633088163E-7,3400000.0,90.5,77.81244745053344,78.50678733031674,71.72619047619048,339600.0,1112.0,0.0,1.0,0.0,?,0.0,0.0
3500000.0,6.859375,1.0818178351554604E-7,3500000.0,88.8,74.21731123388582,73.95348837209302,66.66666666666666,349600.0,1112.0,0.0,1.0,0.0,?,0.0,0.0
3600000.0,7.0625,1.1096307490434909E-7,3600000.0,88.5,74.6974697469747,75.68710359408034,68.91891891891892,359600.0,1112.0,0.0,1.0,0.0,?,0.0,0.0
3700000.0,7.25,1.1306475951439801E-7,3700000.0,89.9,76.44150027990297,76.51162790697676,69.85074626865672,369600.0,1112.0,0.0,1.0,0.0,?,0.0,0.0
3800000.0,7.453125,1.148371181140343E-7,3800000.0,90.5,79.28026172300983,80.33126293995859,74.66666666666667,379600.0,1112.0,0.0,1.0,0.0,?,0.0,0.0
3900000.0,7.640625,1.1600748014946775E-7,3900000.0,91.10000000000001,80.30990876186937,80.1781737193764,75.13966480446929,389600.0,1112.0,0.0,1.0,0.0,?,0.0,0.0
4000000.0,7.84375,1.1677090595993727E-7,4000000.0,89.0,75.95649436944814,76.74418604651163,70.43010752688173,399600.0,1112.0,0.0,1.0,0.0,?,0.0,0.0
4100000.0,8.046875,1.220795739856031E-7,4100000.0,88.4,74.2405400604015,75.3715498938429,67.95580110497238,409500.0,1112.0,0.0,1.0,0.0,?,0.0,0.0
4200000.0,8.234375,1.265142216450638E-7,4200000.0,88.2,73.8521538734267,74.06593406593407,67.22222222222223,419500.0,1112.0,0.0,1.0,0.0,?,0.0,0.0
4300000.0,8.4375,1.3081395688156282E-7,4300000.0,87.8,73.02030995683249,73.18681318681318,65.73033707865167,429500.0,1112.0,0.0,1.0,0.0,?,0.0,0.0
4400000.0,8.625,1.3431728196640804E-7,4400000.0,89.8,77.26006019395831,77.43362831858407,71.10481586402267,439500.0,1112.0,0.0,1.0,0.0,?,0.0,0.0
4500000.0,8.828125,1.3760808441374032E-7,4500000.0,90.5,78.90613897967884,78.31050228310502,73.53760445682452,449500.0,1112.0,0.0,1.0,0.0,?,0.0,0.0
4600000.0,9.015625,1.4018008692397006E-7,4600000.0,88.9,75.31578011030065,76.92307692307693,69.5054945054945,459500.0,1112.0,0.0,1.0,0.0,?,0.0,0.0
4700000.0,9.21875,1.4246195658213556E-7,4700000.0,90.0,77.58490836710541,79.50819672131148,71.5909090909091,469500.0,1112.0,0.0,1.0,0.0,?,0.0,0.0
4800000.0,9.421875,1.442393598457177E-7,4800000.0,91.0,79.56329021944485,80.51948051948052,73.37278106508876,479500.0,1112.0,0.0,1.0,0.0,?,0.0,0.0
4900000.0,9.609375,1.454143784940242E-7,4900000.0,91.5,81.11010364997244,82.25469728601253,75.85227272727273,489500.0,1112.0,0.0,1.0,0.0,?,0.0,0.0
5000000.0,9.8125,1.4622236550268194E-7,5000000.0,89.8,77.23671583833605,77.28285077951003,71.26760563380282,499500.0,1112.0,0.0,1.0,0.0,?,0.0,0.0
5100000.0,10.0,1.5116652422067187E-7,5100000.0,89.7,78.68624497160926,78.67494824016563,74.75490196078432,8553.0,1112.0,0.0,1.0,0.0,?,2.0,10.0
5200000.0,10.265625,1.5751106224747163E-7,5200000.0,90.8,81.30446091819483,80.75313807531381,79.46428571428572,18553.0,1112.0,0.0,1.0,0.0,?,0.0,0.0
5300000.0,10.5,1.625271074266897E-7,5300000.0,89.8,78.89570755244003,79.72166998011929,75.65632458233891,28553.0,1112.0,0.0,1.0,0.0,?,0.0,0.0
5400000.0,10.703125,1.6636988018742863E-7,5400000.0,88.1,75.63851652895947,76.66666666666667,72.51732101616629,38553.0,1112.0,0.0,1.0,0.0,?,0.0,0.0
5500000.0,10.890625,1.694513937561876E-7,5500000.0,88.8,76.77273783057372,76.81159420289855,73.07692307692308,48553.0,1112.0,0.0,1.0,0.0,?,0.0,0.0
5600000.0,11.09375,1.7228523372775976E-7,5600000.0,88.9,77.12754996909129,77.1604938271605,74.18604651162791,58553.0,1112.0,0.0,1.0,0.0,?,0.0,0.0
5700000.0,11.28125,1.7443542472190325E-7,5700000.0,90.5,80.08168605382558,79.25764192139738,76.13065326633168,68553.0,1112.0,0.0,1.0,0.0,?,0.0,0.0
5800000.0,11.484375,1.7626033190430863E-7,5800000.0,89.60000000000001,78.5786082686572,77.96610169491525,75.5868544600939,78553.0,1112.0,0.0,1.0,0.0,?,0.0,0.0
5900000.0,11.6875,1.7758077269213063E-7,5900000.0,89.4,77.95295243245492,78.714859437751,74.45783132530121,88553.0,1112.0,0.0,1.0,0.0,?,0.0,0.0
6000000.0,11.875,1.783339798243509E-7,6000000.0,90.60000000000001,80.3876567422646,80.69815195071868,76.79012345679013,98553.0,1112.0,0.0,1.0,0.0,?,0.0,0.0
6100000.0,12.078125,1.8369519643278582E-7,6100000.0,89.4,78.40269599553385,79.77099236641222,75.74370709382153,108453.0,1112.0,0.0,1.0,0.0,?,0.0,0.0
6200000.0,12.28125,1.8855194664663736E-7,6200000.0,91.2,82.0828667413214,81.15631691648822,80.0453514739229,118453.0,1112.0,0.0,1.0,0.0,?,0.0,0.0
6300000.0,12.46875,1.9256943940288488E-7,6300000.0,91.2,81.91585116745512,82.04081632653062,79.58236658932717,128453.0,1112.0,0.0,1.0,0.0,?,0.0,0.0
6400000.0,12.65625,1.9612127087182466E-7,6400000.0,89.2,77.925937432296,77.35849056603774,75.51020408163265,138453.0,1112.0,0.0,1.0,0.0,?,0.0,0.0
6500000.0,12.859375,1.9946462190192605E-7,6500000.0,89.7,78.61100266635657,78.76288659793815,75.06053268765133,148453.0,1112.0,0.0,1.0,0.0,?,0.0,0.0
6600000.0,13.078125,2.0252188227863775E-7,6600000.0,90.5,80.17115424754749,80.41237113402062,76.54320987654322,158453.0,1112.0,0.0,1.0,0.0,?,0.0,0.0
6700000.0,13.28125,2.0485630051957236E-7,6700000.0,89.2,78.02528719728816,78.74015748031496,76.05321507760532,168453.0,1112.0,0.0,1.0,0.0,?,0.0,0.0
6800000.0,13.5,2.0682701789256598E-7,6800000.0,89.3,77.80746001194665,76.98924731182795,73.71007371007371,178453.0,1112.0,0.0,1.0,0.0,?,0.0,0.0
6900000.0,13.703125,2.0815250334433382E-7,6900000.0,90.10000000000001,79.53107554893934,79.46058091286308,76.08695652173914,188453.0,1112.0,0.0,1.0,0.0,?,0.0,0.0
7000000.0,13.921875,2.090366777136094E-7,7000000.0,88.8,76.08360488406954,74.4874715261959,70.44854881266491,198453.0,1112.0,0.0,1.0,0.0,?,0.0,0.0
7100000.0,14.140625,2.148157283146348E-7,7100000.0,90.9,81.4831394828302,82.43243243243244,79.22374429223746,208353.0,1112.0,0.0,1.0,0.0,?,0.0,0.0
7200000.0,14.34375,2.1967752319243218E-7,7200000.0,90.60000000000001,80.20685937605283,79.6976241900648,76.61691542288558,218353.0,1112.0,0.0,1.0,0.0,?,0.0,0.0
7300000.0,14.546875,2.2403485167564615E-7,7300000.0,88.2,75.82125762245099,74.67811158798283,72.68518518518519,228353.0,1112.0,0.0,1.0,0.0,?,0.0,0.0
7400000.0,14.734375,2.27591339757459E-7,7400000.0,89.7,78.30171985203037,78.5862785862786,73.52185089974293,238353.0,1112.0,0.0,1.0,0.0,?,0.0,0.0
7500000.0,14.9375,2.3093973545150622E-7,7500000.0,89.0,76.9859070063268,77.8672032193159,72.36180904522614,248353.0,1112.0,0.0,1.0,0.0,?,0.0,0.0
7600000.0,15.15625,2.340024285432365E-7,7600000.0,89.5,78.76814817810491,78.95791583166333,77.41935483870968,258353.0,1112.0,0.0,1.0,0.0,?,0.0,0.0
7700000.0,15.359375,2.3634189144811695E-7,7700000.0,90.60000000000001,80.65596845688134,82.16318785578748,77.67220902612827,268353.0,1112.0,0.0,1.0,0.0,?,0.0,0.0
7800000.0,15.5625,2.38176887958414E-7,7800000.0,90.5,79.5464919004108,79.52586206896552,74.59893048128343,278353.0,1112.0,0.0,1.0,0.0,?,0.0,0.0
7900000.0,15.75,2.3940506960368817E-7,7900000.0,89.7,78.64488306518494,78.4518828451883,75.18072289156628,288353.0,1112.0,0.0,1.0,0.0,?,0.0,0.0
8000000.0,15.953125,2.4023113332481846E-7,8000000.0,89.60000000000001,78.80665145092925,79.92277992277992,76.47058823529413,298353.0,1112.0,0.0,1.0,0.0,?,0.0,0.0
8100000.0,16.15625,2.4560243926114506E-7,8100000.0,88.4,76.1341425779241,75.57894736842105,72.70588235294117,308253.0,1112.0,0.0,1.0,0.0,?,0.0,0.0
8200000.0,16.34375,2.500949065304465E-7,8200000.0,88.5,76.37400565380318,77.0,73.31786542923435,318253.0,1112.0,0.0,1.0,0.0,?,0.0,0.0
8300000.0,16.546875,2.544572796776063E-7,8300000.0,89.4,78.04355661241078,78.49898580121705,74.33414043583537,328253.0,1112.0,0.0,1.0,0.0,?,0.0,0.0
8400000.0,16.75,2.5831518643018274E-7,8400000.0,90.7,80.67379865838757,81.51093439363818,78.01418439716313,338253.0,1112.0,0.0,1.0,0.0,?,0.0,0.0
8500000.0,16.9375,2.6141066983756095E-7,8500000.0,88.4,75.81801807811614,74.83731019522777,71.42857142857143,348253.0,1112.0,0.0,1.0,0.0,?,0.0,0.0
8600000.0,17.140625,2.642596438009706E-7,8600000.0,87.9,75.17969083330598,75.40650406504065,71.7948717948718,358253.0,1112.0,0.0,1.0,0.0,?,0.0,0.0
8700000.0,17.34375,2.666041513697969E-7,8700000.0,89.60000000000001,78.00338409475465,78.42323651452283,74.00000000000001,368253.0,1112.0,0.0,1.0,0.0,?,0.0,0.0
8800000.0,17.53125,2.683026509152519E-7,8800000.0,90.10000000000001,79.73520670089165,80.2,77.44874715261959,378253.0,1112.0,0.0,1.0,0.0,?,0.0,0.0
8900000.0,17.71875,2.6953548917339914E-7,8900000.0,91.0,81.38826964674936,82.10735586481114,78.41726618705037,388253.0,1112.0,0.0,1.0,0.0,?,0.0,0.0
9000000.0,17.921875,2.703665975584753E-7,9000000.0,89.5,78.46171518592668,78.30578512396694,75.52447552447553,398253.0,1112.0,0.0,1.0,0.0,?,0.0,0.0
9100000.0,18.125,2.757429481587477E-7,9100000.0,88.1,75.56869508089021,75.564681724846,72.45370370370371,408153.0,1112.0,0.0,1.0,0.0,?,0.0,0.0
9200000.0,18.328125,2.8061483236443675E-7,9200000.0,88.8,76.92320371866089,77.0961145194274,73.45971563981043,418153.0,1112.0,0.0,1.0,0.0,?,0.0,0.0
9300000.0,18.53125,2.849822501755424E-7,9300000.0,87.7,74.62285016340408,75.25150905432596,70.14563106796116,428153.0,1112.0,0.0,1.0,0.0,?,0.0,0.0
9400000.0,18.71875,2.8854805148310143E-7,9400000.0,89.7,78.78056217089271,79.14979757085021,75.35885167464116,438153.0,1112.0,0.0,1.0,0.0,?,0.0,0.0
9500000.0,18.921875,2.9190653650504033E-7,9500000.0,90.2,79.84700172739986,79.79381443298969,77.2093023255814,448153.0,1112.0,0.0,1.0,0.0,?,0.0,0.0
9600000.0,19.125,2.9476055513239583E-7,9600000.0,89.1,77.72163903332353,78.28685258964144,75.17084282460137,458153.0,1112.0,0.0,1.0,0.0,?,0.0,0.0
9700000.0,19.3125,2.9692937257803164E-7,9700000.0,89.9,78.92988868305547,80.2734375,75.42579075425792,468153.0,1112.0,0.0,1.0,0.0,?,0.0,0.0
9800000.0,19.515625,2.987744584162204E-7,9800000.0,91.2,81.86412104874843,82.25806451612904,78.8968824940048,478153.0,1112.0,0.0,1.0,0.0,?,0.0,0.0
9900000.0,19.71875,3.0011507785982574E-7,9900000.0,91.4,82.36425603819166,83.42967244701349,79.95337995337997,488153.0,1112.0,0.0,1.0,0.0,?,0.0,0.0
1.0E7,19.921875,3.009512309088477E-7,1.0E7,90.3,80.02158492680074,79.70711297071131,77.06855791962177,498153.0,1112.0,0.0,1.0,0.0,?,0.0,0.0
