learning evaluation instances,evaluation time (cpu seconds),model cost (RAM-Hours),classified instances,classifications correct (percent),Kappa Statistic (percent),Kappa Temporal Statistic (percent),Kappa M Statistic (percent),model training instances,model serialized size (bytes),labeling cost,newThreshold,maxPosterior,accuracyBaseLearner (percent),Change detected,Warning detected,tree size (nodes),tree size (leaves),active learning leaves,tree depth,active leaf byte size estimate,inactive leaf byte size estimate,byte size estimate overhead
100000.0,0.421875,2.573680831119418E-8,100000.0,74.8,49.54005358365738,49.09090909090909,48.466257668711656,9900.0,39088.0,0.0,1.0,0.0,?,0.0,10.0,11.0,9.0,9.0,2.0,0.0,0.0,1.0
200000.0,0.890625,7.241838223611315E-8,200000.0,79.3,58.074760600806904,55.38793103448276,56.05095541401275,19900.0,203056.0,0.0,1.0,0.0,?,0.0,0.0,75.0,59.0,59.0,3.0,0.0,0.0,1.0
300000.0,1.28125,1.1313625792455342E-7,300000.0,88.5,76.71329407667199,75.68710359408034,75.10822510822511,29900.0,236136.0,0.0,1.0,0.0,?,0.0,0.0,89.0,69.0,69.0,4.0,0.0,0.0,1.0
400000.0,1.703125,1.65570300952014E-7,400000.0,89.7,79.37987475776357,79.0224032586558,79.14979757085021,39900.0,328512.0,0.0,1.0,0.0,?,0.0,0.0,112.0,85.0,85.0,4.0,0.0,0.0,1.0
500000.0,2.15625,2.314659973813428E-7,500000.0,91.8,83.50930115635998,83.98437500000001,82.73684210526316,49900.0,425088.0,0.0,1.0,0.0,?,0.0,0.0,149.0,111.0,111.0,4.0,0.0,0.0,1.0
600000.0,2.5625,2.951498350335492E-7,600000.0,90.9,81.77594424640526,82.89473684210526,80.92243186582809,59900.0,483952.0,0.0,1.0,0.0,?,0.0,0.0,182.0,135.0,135.0,4.0,0.0,0.0,1.0
700000.0,2.953125,3.5792356356978416E-7,700000.0,89.9,79.51484666558495,79.08902691511388,78.04347826086956,69900.0,514288.0,0.0,1.0,0.0,?,0.0,0.0,207.0,152.0,152.0,4.0,0.0,0.0,1.0
800000.0,3.34375,4.211548689959778E-7,800000.0,91.8,83.27247506170825,83.43434343434343,81.57303370786518,79900.0,533928.0,0.0,1.0,0.0,?,0.0,0.0,209.0,153.0,153.0,5.0,0.0,0.0,1.0
900000.0,3.734375,4.879263320213391E-7,900000.0,90.3,80.56454973872343,81.90298507462687,79.00432900432901,89900.0,583968.0,0.0,1.0,0.0,?,0.0,0.0,227.0,165.0,165.0,6.0,0.0,0.0,1.0
1000000.0,4.125,5.564278560794063E-7,1000000.0,92.7,85.38831064851883,85.4581673306773,85.16260162601627,99900.0,616176.0,0.0,1.0,0.0,?,0.0,0.0,234.0,170.0,170.0,6.0,0.0,0.0,1.0
1100000.0,4.53125,6.457142040340437E-7,1100000.0,93.8,87.53297728588892,87.62475049900198,86.97478991596638,109800.0,650792.0,0.0,1.0,0.0,?,0.0,0.0,241.0,175.0,175.0,6.0,0.0,0.0,1.0
1200000.0,4.953125,7.385289387053086E-7,1200000.0,93.60000000000001,87.10296269128926,87.47553816046968,86.29550321199144,119800.0,666832.0,0.0,1.0,0.0,?,0.0,0.0,253.0,184.0,184.0,6.0,0.0,0.0,1.0
1300000.0,5.34375,8.242300181235705E-7,1300000.0,94.1,88.11107080965621,87.6050420168067,88.0081300813008,129800.0,679632.0,0.0,1.0,0.0,?,0.0,0.0,262.0,190.0,190.0,7.0,0.0,0.0,1.0
1400000.0,5.75,9.130118996836246E-7,1400000.0,93.30000000000001,86.60910580805053,86.38211382113822,86.75889328063242,139800.0,691480.0,0.0,1.0,0.0,?,0.0,0.0,273.0,197.0,197.0,7.0,0.0,0.0,1.0
1500000.0,6.15625,1.0021923096953995E-6,1500000.0,94.19999999999999,88.40941155781505,87.9668049792531,88.35341365461846,149800.0,710392.0,0.0,1.0,0.0,?,0.0,0.0,273.0,197.0,197.0,7.0,0.0,0.0,1.0
1600000.0,6.546875,1.0880235479109818E-6,1600000.0,93.60000000000001,87.12910712202813,87.54863813229574,86.46934460887951,159800.0,726328.0,0.0,1.0,0.0,?,0.0,0.0,273.0,197.0,197.0,7.0,0.0,0.0,1.0
1700000.0,6.953125,1.1780430536924138E-6,1700000.0,93.10000000000001,86.1548092975472,86.33663366336634,85.74380165289257,169800.0,748584.0,0.0,1.0,0.0,?,0.0,0.0,281.0,201.0,201.0,7.0,0.0,0.0,1.0
1800000.0,7.34375,1.2643933102178077E-6,1800000.0,93.7,87.32608573198897,87.57396449704143,86.68076109936577,179800.0,761680.0,0.0,1.0,0.0,?,0.0,0.0,283.0,202.0,202.0,7.0,0.0,0.0,1.0
1900000.0,7.765625,1.3583692877242962E-6,1900000.0,94.5,88.97592341674215,89.13043478260867,88.70636550308008,189800.0,783312.0,0.0,1.0,0.0,?,0.0,0.0,295.0,208.0,208.0,7.0,0.0,0.0,1.0
2000000.0,8.1875,1.4536767654741803E-6,2000000.0,93.30000000000001,86.60749980011194,86.75889328063242,85.83509513742072,199800.0,810608.0,0.0,1.0,0.0,?,0.0,0.0,304.0,214.0,214.0,7.0,0.0,0.0,1.0
2100000.0,8.609375,1.5670909003044167E-6,2100000.0,94.0,87.98755510709093,88.21218074656187,87.82961460446246,209700.0,839456.0,0.0,1.0,0.0,?,0.0,0.0,313.0,220.0,220.0,7.0,0.0,0.0,1.0
2200000.0,9.015625,1.6749020950454803E-6,2200000.0,94.8,89.59396449940965,89.66202783300197,89.34426229508196,219700.0,841312.0,0.0,1.0,0.0,?,0.0,0.0,313.0,220.0,220.0,7.0,0.0,0.0,1.0
2300000.0,9.421875,1.782330736103985E-6,2300000.0,94.1,87.9709672157886,88.05668016194332,86.7117117117117,229700.0,852816.0,0.0,1.0,0.0,?,0.0,0.0,315.0,221.0,221.0,7.0,0.0,0.0,1.0
2400000.0,9.828125,1.8887908016848895E-6,2400000.0,94.0,87.97922810616745,87.78004073319754,87.80487804878048,239700.0,858768.0,0.0,1.0,0.0,?,0.0,0.0,319.0,223.0,223.0,7.0,0.0,0.0,1.0
2500000.0,10.25,2.0005861814651224E-6,2500000.0,94.89999999999999,89.79510164879142,89.86083499005963,89.7590361445783,249700.0,885216.0,0.0,1.0,0.0,?,0.0,0.0,332.0,231.0,231.0,7.0,0.0,0.0,1.0
2600000.0,10.65625,2.1075128784610164E-6,2600000.0,95.0,89.91614264221262,89.69072164948453,89.01098901098901,259700.0,893440.0,0.0,1.0,0.0,?,0.0,0.0,336.0,233.0,233.0,7.0,0.0,0.0,1.0
2700000.0,11.078125,2.217381293626709E-6,2700000.0,94.1,88.17218096964058,87.73388773388773,87.90983606557376,269700.0,897856.0,0.0,1.0,0.0,?,0.0,0.0,346.0,238.0,238.0,7.0,0.0,0.0,1.0
2800000.0,11.5,2.326240387952162E-6,2800000.0,95.19999999999999,90.35187515326447,90.64327485380116,89.80891719745222,279700.0,903784.0,0.0,1.0,0.0,?,0.0,0.0,348.0,239.0,239.0,7.0,0.0,0.0,1.0
2900000.0,11.921875,2.434375670014156E-6,2900000.0,95.6,91.20179483385388,91.37254901960785,91.05691056910568,289700.0,912328.0,0.0,1.0,0.0,?,0.0,0.0,357.0,245.0,245.0,7.0,0.0,0.0,1.0
3000000.0,12.34375,2.5421913920177353E-6,3000000.0,96.6,93.13430906917385,93.28063241106719,92.51101321585902,299700.0,924560.0,0.0,1.0,0.0,?,0.0,0.0,366.0,251.0,251.0,7.0,0.0,0.0,1.0
3100000.0,12.734375,2.656656757204069E-6,3100000.0,95.8,91.55204943257931,91.56626506024097,91.00642398286936,309600.0,932384.0,0.0,1.0,0.0,?,0.0,0.0,372.0,254.0,254.0,7.0,0.0,0.0,1.0
3200000.0,13.15625,2.7794385419434142E-6,3200000.0,96.3,92.51194041933132,92.37113402061856,91.79600886917959,319600.0,939840.0,0.0,1.0,0.0,?,0.0,0.0,374.0,255.0,255.0,7.0,0.0,0.0,1.0
3300000.0,13.578125,2.901443254409565E-6,3300000.0,95.8,91.60429859911724,91.5151515151515,91.39344262295081,329600.0,947872.0,0.0,1.0,0.0,?,0.0,0.0,378.0,257.0,257.0,7.0,0.0,0.0,1.0
3400000.0,13.984375,3.0180103042059474E-6,3400000.0,95.1,90.18358695739275,90.37328094302553,89.97955010224949,339600.0,954280.0,0.0,1.0,0.0,?,0.0,0.0,382.0,259.0,259.0,7.0,0.0,0.0,1.0
3500000.0,14.421875,3.1434915338953335E-6,3500000.0,95.39999999999999,90.78662217539866,90.27484143763212,90.59304703476482,349600.0,968936.0,0.0,1.0,0.0,?,0.0,0.0,386.0,261.0,261.0,7.0,0.0,0.0,1.0
3600000.0,14.84375,3.2636190492970247E-6,3600000.0,95.5,90.98210850327048,91.49338374291115,90.6832298136646,359600.0,976096.0,0.0,1.0,0.0,?,0.0,0.0,390.0,263.0,263.0,7.0,0.0,0.0,1.0
3700000.0,15.265625,3.3816781554681558E-6,3700000.0,95.3,90.5291581026075,90.30927835051546,89.91416309012874,369600.0,972352.0,0.0,1.0,0.0,?,0.0,0.0,392.0,264.0,264.0,7.0,0.0,0.0,1.0
3800000.0,15.671875,3.494573530689296E-6,3800000.0,95.89999999999999,91.74611866262964,91.61554192229038,91.23931623931622,379600.0,979992.0,0.0,1.0,0.0,?,0.0,0.0,392.0,264.0,264.0,7.0,0.0,0.0,1.0
3900000.0,16.078125,3.606680256780237E-6,3900000.0,95.5,91.00086391706395,91.17647058823528,91.22807017543859,389600.0,987640.0,0.0,1.0,0.0,?,0.0,0.0,396.0,266.0,266.0,7.0,0.0,0.0,1.0
4000000.0,16.515625,3.7273444791531397E-6,4000000.0,96.89999999999999,93.7910591251402,93.72469635627529,93.67346938775509,399600.0,1002216.0,0.0,1.0,0.0,?,0.0,0.0,401.0,270.0,270.0,7.0,0.0,0.0,1.0
4100000.0,16.9375,3.859609164970203E-6,4100000.0,95.7,91.31741121548166,91.07883817427384,90.42316258351892,409500.0,1010992.0,0.0,1.0,0.0,?,0.0,0.0,405.0,272.0,272.0,7.0,0.0,0.0,1.0
4200000.0,17.359375,3.990597356783433E-6,4200000.0,95.5,90.97530844390252,90.48625792811839,90.64449064449065,419500.0,1014464.0,0.0,1.0,0.0,?,0.0,0.0,409.0,274.0,274.0,7.0,0.0,0.0,1.0
4300000.0,17.8125,4.131284626459496E-6,4300000.0,94.8,89.58429311401592,88.91257995735606,89.32238193018479,429500.0,1029544.0,0.0,1.0,0.0,?,0.0,0.0,415.0,277.0,277.0,7.0,0.0,0.0,1.0
4400000.0,18.28125,4.275413585775015E-6,4400000.0,96.6,93.18724652549572,93.10344827586206,92.9460580912863,439500.0,1033088.0,0.0,1.0,0.0,?,0.0,0.0,419.0,279.0,279.0,7.0,0.0,0.0,1.0
4500000.0,18.703125,4.404276615888295E-6,4500000.0,96.1,92.19644157735927,92.38281249999999,92.48554913294798,449500.0,1040432.0,0.0,1.0,0.0,?,0.0,0.0,421.0,280.0,280.0,7.0,0.0,0.0,1.0
4600000.0,19.140625,4.5366537718412784E-6,4600000.0,94.5,88.95129731858029,89.08730158730158,88.32271762208067,459500.0,1044480.0,0.0,1.0,0.0,?,0.0,0.0,425.0,282.0,282.0,7.0,0.0,0.0,1.0
4700000.0,19.5625,4.6626730666806305E-6,4700000.0,95.8,91.56152053363336,91.34020618556701,91.00642398286936,469500.0,1044736.0,0.0,1.0,0.0,?,0.0,0.0,427.0,283.0,283.0,7.0,0.0,0.0,1.0
4800000.0,19.984375,4.789183925216397E-6,4800000.0,95.1,90.08875619958413,90.23904382470118,89.20704845814977,479500.0,1064376.0,0.0,1.0,0.0,?,0.0,0.0,434.0,288.0,288.0,7.0,0.0,0.0,1.0
4900000.0,20.421875,4.920461861830619E-6,4900000.0,96.0,91.97563803708057,92.17221135029354,91.61425576519915,489500.0,1080232.0,0.0,1.0,0.0,?,0.0,0.0,445.0,295.0,295.0,7.0,0.0,0.0,1.0
5000000.0,20.84375,5.046181678254572E-6,5000000.0,95.89999999999999,91.80668574443254,91.81636726546905,91.51138716356107,499500.0,1085136.0,0.0,1.0,0.0,?,0.0,0.0,456.0,302.0,302.0,7.0,0.0,0.0,1.0
5100000.0,21.359375,5.085248622991559E-6,5100000.0,79.60000000000001,57.80503443853809,56.50319829424307,50.60532687651333,9572.0,96768.0,0.0,1.0,0.0,?,1.0,1.0,31.0,25.0,25.0,3.0,0.0,0.0,1.0
5200000.0,21.78125,5.125760281872419E-6,5200000.0,85.3,69.13476559219257,68.38709677419355,60.37735849056604,19572.0,189984.0,0.0,1.0,0.0,?,0.0,0.0,63.0,47.0,47.0,3.0,0.0,0.0,1.0
5300000.0,22.1875,5.166621219056349E-6,5300000.0,86.0,70.79890037001965,68.18181818181817,63.82428940568475,29572.0,222696.0,0.0,1.0,0.0,?,0.0,0.0,75.0,56.0,56.0,4.0,0.0,0.0,1.0
5400000.0,22.59375,5.213416362595228E-6,5400000.0,84.8,68.40705021616228,68.65979381443297,60.209424083769626,39572.0,294192.0,0.0,1.0,0.0,?,0.0,0.0,104.0,78.0,78.0,4.0,0.0,0.0,1.0
5500000.0,23.015625,5.268550950050769E-6,5500000.0,90.5,80.10804472549103,80.1670146137787,75.13089005235602,49572.0,369080.0,0.0,1.0,0.0,?,0.0,0.0,130.0,97.0,97.0,4.0,0.0,0.0,1.0
5600000.0,23.390625,5.319767482837456E-6,5600000.0,88.1,74.37443473017787,75.36231884057972,67.83783783783784,59572.0,406864.0,0.0,1.0,0.0,?,0.0,0.0,149.0,108.0,108.0,4.0,0.0,0.0,1.0
5700000.0,23.796875,5.382966191973538E-6,5700000.0,89.7,77.89813400168232,77.8969957081545,71.62534435261708,69572.0,495192.0,0.0,1.0,0.0,?,0.0,0.0,177.0,128.0,128.0,4.0,0.0,0.0,1.0
5800000.0,24.171875,5.445993447210641E-6,5800000.0,91.5,82.35372274169173,81.6414686825054,78.2608695652174,79572.0,558536.0,0.0,1.0,0.0,?,0.0,0.0,196.0,142.0,142.0,5.0,0.0,0.0,1.0
5900000.0,24.578125,5.518865299462859E-6,5900000.0,92.9,84.75072809903867,85.11530398322851,80.22284122562675,89572.0,617296.0,0.0,1.0,0.0,?,0.0,0.0,225.0,164.0,164.0,5.0,0.0,0.0,1.0
6000000.0,24.96875,5.590459913946689E-6,6000000.0,93.30000000000001,85.92496113608674,85.74468085106383,82.82051282051283,99572.0,647488.0,0.0,1.0,0.0,?,0.0,0.0,230.0,168.0,168.0,5.0,0.0,0.0,1.0
6100000.0,25.375,5.681714521617526E-6,6100000.0,91.10000000000001,81.12263078411077,80.77753779697625,76.39257294429709,109472.0,670208.0,0.0,1.0,0.0,?,0.0,0.0,242.0,174.0,174.0,5.0,0.0,0.0,1.0
6200000.0,25.765625,5.769874874709381E-6,6200000.0,90.3,79.60402368456467,79.36170212765958,75.00000000000001,119472.0,689448.0,0.0,1.0,0.0,?,0.0,0.0,251.0,180.0,180.0,5.0,0.0,0.0,1.0
6300000.0,26.15625,5.8589350212261915E-6,6300000.0,91.9,83.08934670597176,82.58064516129033,79.59697732997483,129472.0,713496.0,0.0,1.0,0.0,?,0.0,0.0,263.0,189.0,189.0,5.0,0.0,0.0,1.0
6400000.0,26.546875,5.950256373681543E-6,6400000.0,91.4,82.40474008118372,82.26804123711341,79.90654205607478,139472.0,750912.0,0.0,1.0,0.0,?,0.0,0.0,278.0,198.0,198.0,5.0,0.0,0.0,1.0
6500000.0,26.921875,6.039388600685117E-6,6500000.0,92.4,83.60542574120734,84.10041841004184,79.00552486187846,149472.0,781128.0,0.0,1.0,0.0,?,0.0,0.0,290.0,207.0,207.0,5.0,0.0,0.0,1.0
6600000.0,27.3125,6.1317940708249815E-6,6600000.0,92.0,83.31936330009717,83.50515463917526,79.94987468671681,159472.0,791896.0,0.0,1.0,0.0,?,0.0,0.0,296.0,210.0,210.0,5.0,0.0,0.0,1.0
6700000.0,27.703125,6.2235843183265796E-6,6700000.0,92.7,84.3866298219648,83.8852097130243,80.1089918256131,169472.0,800992.0,0.0,1.0,0.0,?,0.0,0.0,303.0,215.0,215.0,5.0,0.0,0.0,1.0
6800000.0,28.09375,6.317952680142804E-6,6800000.0,91.7,82.11361089561245,82.4524312896406,76.61971830985917,179472.0,841592.0,0.0,1.0,0.0,?,0.0,0.0,324.0,230.0,230.0,5.0,0.0,0.0,1.0
6900000.0,28.484375,6.411578894282381E-6,6900000.0,91.4,82.07579022838779,82.04592901878915,77.89203084832906,189472.0,849464.0,0.0,1.0,0.0,?,0.0,0.0,334.0,238.0,238.0,5.0,0.0,0.0,1.0
7000000.0,28.875,6.506965081724856E-6,7000000.0,92.5,84.44060876636848,83.18385650224216,80.91603053435115,199472.0,881952.0,0.0,1.0,0.0,?,0.0,0.0,345.0,245.0,245.0,5.0,0.0,0.0,1.0
7100000.0,29.25,6.612663209024403E-6,7100000.0,91.5,82.2768974145121,81.79871520342613,77.63157894736842,209372.0,890608.0,0.0,1.0,0.0,?,0.0,0.0,352.0,250.0,250.0,5.0,0.0,0.0,1.0
7200000.0,29.65625,6.726085751627882E-6,7200000.0,91.4,81.62707229533413,81.74097664543525,76.11111111111111,219372.0,895456.0,0.0,1.0,0.0,?,0.0,0.0,358.0,253.0,253.0,5.0,0.0,0.0,1.0
7300000.0,30.046875,6.836358548348976E-6,7300000.0,91.3,81.7668164442358,81.6842105263158,77.16535433070867,229372.0,922536.0,0.0,1.0,0.0,?,0.0,0.0,371.0,261.0,261.0,6.0,0.0,0.0,1.0
7400000.0,30.4375,6.9462918003814086E-6,7400000.0,91.7,82.71683089147837,82.4524312896406,78.04232804232805,239372.0,934312.0,0.0,1.0,0.0,?,0.0,0.0,375.0,263.0,263.0,6.0,0.0,0.0,1.0
7500000.0,30.796875,7.0466896027533545E-6,7500000.0,92.0,83.07952622673436,82.49452954048141,78.02197802197803,249372.0,941512.0,0.0,1.0,0.0,?,0.0,0.0,375.0,263.0,263.0,6.0,0.0,0.0,1.0
7600000.0,31.203125,7.16072843513555E-6,7600000.0,91.4,82.0830347172453,80.97345132743364,77.24867724867725,259372.0,961816.0,0.0,1.0,0.0,?,0.0,0.0,388.0,271.0,271.0,6.0,0.0,0.0,1.0
7700000.0,31.609375,7.273650715231068E-6,7700000.0,90.8,80.7249917243171,80.46709129511677,75.97911227154049,269372.0,966360.0,0.0,1.0,0.0,?,0.0,0.0,392.0,273.0,273.0,6.0,0.0,0.0,1.0
7800000.0,31.96875,7.374428581291189E-6,7800000.0,93.5,86.28576251160437,86.22881355932205,82.71276595744682,279372.0,990992.0,0.0,1.0,0.0,?,0.0,0.0,401.0,279.0,279.0,6.0,0.0,0.0,1.0
7900000.0,32.375,7.488335411633469E-6,7900000.0,92.7,85.10325687698965,85.3118712273642,82.49400479616308,289372.0,1005984.0,0.0,1.0,0.0,?,0.0,0.0,410.0,285.0,285.0,6.0,0.0,0.0,1.0
8000000.0,32.765625,7.596880572641062E-6,8000000.0,92.30000000000001,84.15181327954555,83.54700854700855,80.70175438596492,299372.0,1011480.0,0.0,1.0,0.0,?,0.0,0.0,417.0,290.0,290.0,6.0,0.0,0.0,1.0
8100000.0,33.140625,7.71413951750017E-6,8100000.0,93.0,85.2547763992164,85.13800424628451,80.9264305177112,309272.0,1009112.0,0.0,1.0,0.0,?,0.0,0.0,419.0,291.0,291.0,6.0,0.0,0.0,1.0
8200000.0,33.53125,7.834811274531401E-6,8200000.0,90.8,81.05374147418367,80.63157894736842,76.6497461928934,319272.0,1009728.0,0.0,1.0,0.0,?,0.0,0.0,421.0,292.0,292.0,6.0,0.0,0.0,1.0
8300000.0,33.921875,7.954752202042275E-6,8300000.0,92.10000000000001,83.53535521950081,83.08351177730194,79.42708333333334,329272.0,1017656.0,0.0,1.0,0.0,?,0.0,0.0,423.0,293.0,293.0,6.0,0.0,0.0,1.0
8400000.0,34.328125,8.07826575409207E-6,8400000.0,92.30000000000001,84.0201221941825,83.85744234800839,80.15463917525774,339272.0,1021168.0,0.0,1.0,0.0,?,0.0,0.0,427.0,295.0,295.0,6.0,0.0,0.0,1.0
8500000.0,34.734375,8.202472106657094E-6,8500000.0,93.0,85.48922056384744,85.01070663811564,82.05128205128206,349272.0,1042912.0,0.0,1.0,0.0,?,0.0,0.0,437.0,303.0,303.0,6.0,0.0,0.0,1.0
8600000.0,35.125,8.321885931460807E-6,8600000.0,91.10000000000001,81.29261709980915,80.61002178649238,76.01078167115904,359272.0,1057912.0,0.0,1.0,0.0,?,0.0,0.0,444.0,308.0,308.0,6.0,0.0,0.0,1.0
8700000.0,35.53125,8.446171317094315E-6,8700000.0,92.10000000000001,83.58298282655319,83.47280334728035,79.84693877551021,369272.0,1073944.0,0.0,1.0,0.0,?,0.0,0.0,446.0,309.0,309.0,6.0,0.0,0.0,1.0
8800000.0,35.921875,8.564155012006974E-6,8800000.0,92.4,84.46849556943401,84.7082494969819,81.37254901960786,379272.0,1074080.0,0.0,1.0,0.0,?,0.0,0.0,448.0,310.0,310.0,6.0,0.0,0.0,1.0
8900000.0,36.3125,8.682163768551415E-6,8900000.0,91.7,82.5972457520506,81.51447661469933,77.92553191489363,389272.0,1089448.0,0.0,1.0,0.0,?,0.0,0.0,452.0,312.0,312.0,6.0,0.0,0.0,1.0
9000000.0,36.703125,8.79909972556763E-6,9000000.0,90.7,80.71035667172761,80.37974683544304,76.2148337595908,399272.0,1094024.0,0.0,1.0,0.0,?,0.0,0.0,461.0,318.0,318.0,7.0,0.0,0.0,1.0
9100000.0,37.109375,8.937542119787798E-6,9100000.0,91.7,82.75432180851064,82.59958071278827,78.32898172323762,409172.0,1117088.0,0.0,1.0,0.0,?,0.0,0.0,465.0,320.0,320.0,7.0,0.0,0.0,1.0
9200000.0,37.5,9.06913023855951E-6,9200000.0,93.0,85.493069832217,85.65573770491804,81.95876288659795,419172.0,1117152.0,0.0,1.0,0.0,?,0.0,0.0,465.0,320.0,320.0,7.0,0.0,0.0,1.0
9300000.0,37.90625,9.204051457345484E-6,9300000.0,94.19999999999999,88.20749921722192,87.89144050104383,86.2884160756501,429172.0,1113992.0,0.0,1.0,0.0,?,0.0,0.0,478.0,328.0,328.0,7.0,0.0,0.0,1.0
9400000.0,38.3125,9.338160485236179E-6,9400000.0,93.0,85.50748641844443,85.10638297872342,81.67539267015708,439172.0,1121448.0,0.0,1.0,0.0,?,0.0,0.0,485.0,333.0,333.0,7.0,0.0,0.0,1.0
9500000.0,38.71875,9.470736776064665E-6,9500000.0,91.60000000000001,82.04145857563113,81.4977973568282,76.40449438202248,449172.0,1122056.0,0.0,1.0,0.0,?,0.0,0.0,487.0,334.0,334.0,7.0,0.0,0.0,1.0
9600000.0,39.09375,9.591998079688182E-6,9600000.0,92.2,83.66676857486274,83.29764453961457,78.97574123989219,459172.0,1125728.0,0.0,1.0,0.0,?,0.0,0.0,487.0,334.0,334.0,7.0,0.0,0.0,1.0
9700000.0,39.484375,9.717182547319678E-6,9700000.0,92.30000000000001,83.85134851726019,83.1140350877193,79.62962962962963,469172.0,1129736.0,0.0,1.0,0.0,?,0.0,0.0,487.0,334.0,334.0,7.0,0.0,0.0,1.0
9800000.0,39.90625,9.850710630416867E-6,9800000.0,92.0,83.26499874487492,83.40248962655602,78.83597883597885,479172.0,1129608.0,0.0,1.0,0.0,?,0.0,0.0,491.0,336.0,336.0,7.0,0.0,0.0,1.0
9900000.0,40.3125,9.978551663354865E-6,9900000.0,91.9,82.89479241457956,83.16008316008316,77.80821917808221,489172.0,1137728.0,0.0,1.0,0.0,?,0.0,0.0,500.0,342.0,342.0,7.0,0.0,0.0,1.0
1.0E7,40.6875,1.0095093489831518E-5,1.0E7,91.7,82.55642890168552,82.18884120171674,77.56756756756758,499172.0,1137824.0,0.0,1.0,0.0,?,0.0,0.0,500.0,342.0,342.0,7.0,0.0,0.0,1.0
