learning evaluation instances,evaluation time (cpu seconds),model cost (RAM-Hours),classified instances,classifications correct (percent),Kappa Statistic (percent),Kappa Temporal Statistic (percent),Kappa M Statistic (percent),model training instances,model serialized size (bytes),labeling cost,newThreshold,maxPosterior,accuracyBaseLearner (percent),Change detected,Warning detected
100000.0,0.421875,1.7069396562874317E-8,100000.0,66.8,33.812593948238266,32.929292929292934,32.106339468302664,9900.0,2904.0,0.0,1.0,0.0,?,0.0,20.0
200000.0,0.828125,3.190911633686887E-8,200000.0,66.3,33.05043666213715,27.370689655172413,28.450106157112533,19900.0,2904.0,0.0,1.0,0.0,?,0.0,0.0
300000.0,1.234375,4.5151359194682705E-8,300000.0,69.8,40.21790770595127,36.152219873150095,34.63203463203462,29900.0,2904.0,0.0,1.0,0.0,?,0.0,0.0
400000.0,1.609375,5.590037391003635E-8,400000.0,71.3,42.66879744306832,41.5478615071283,41.90283400809716,39900.0,2904.0,0.0,1.0,0.0,?,0.0,0.0
500000.0,2.015625,6.594766293548875E-8,500000.0,68.7,37.73622438830317,38.867187500000014,34.10526315789475,49900.0,2904.0,0.0,1.0,0.0,?,0.0,0.0
600000.0,2.421875,7.439747504476044E-8,600000.0,70.3,40.82014904555055,44.17293233082705,37.73584905660376,59900.0,2904.0,0.0,1.0,0.0,?,0.0,0.0
700000.0,2.828125,8.125233256982432E-8,700000.0,66.7,34.3143443269686,31.055900621118017,27.608695652173914,69900.0,2904.0,0.0,1.0,0.0,?,0.0,6.0
800000.0,3.234375,8.643320244219568E-8,800000.0,67.10000000000001,35.057244374259774,33.53535353535354,26.06741573033708,11576.0,2904.0,0.0,1.0,0.0,?,1.0,16.0
900000.0,3.625,8.995234060825572E-8,900000.0,68.5,37.11068519405847,41.23134328358209,31.818181818181824,21576.0,2904.0,0.0,1.0,0.0,?,0.0,21.0
1000000.0,4.03125,9.194918675348162E-8,1000000.0,67.2,34.58838544990429,34.661354581673315,33.33333333333334,31576.0,2904.0,0.0,1.0,0.0,?,0.0,19.0
1100000.0,4.421875,1.0770891094580292E-7,1100000.0,66.8,34.11861823723649,33.73253493013973,30.252100840336137,41476.0,2904.0,0.0,1.0,0.0,?,0.0,0.0
1200000.0,4.828125,1.225671278209322E-7,1200000.0,67.4,35.3884817085981,36.203522504892376,30.192719486081376,51476.0,2904.0,0.0,1.0,0.0,?,0.0,34.0
1300000.0,5.234375,1.3581525612001618E-7,1300000.0,65.4,31.91120906801007,27.3109243697479,29.674796747967484,61476.0,2904.0,0.0,1.0,0.0,?,0.0,40.0
1400000.0,5.640625,1.4740873464486665E-7,1400000.0,69.1,38.07615230460921,37.1951219512195,38.932806324110665,71476.0,2904.0,0.0,1.0,0.0,?,0.0,29.0
1500000.0,6.015625,1.5670022953094707E-7,1500000.0,67.4,34.66645824064389,32.36514522821577,34.53815261044178,81476.0,2904.0,0.0,1.0,0.0,?,0.0,3.0
1600000.0,6.421875,1.6515088241754305E-7,1600000.0,69.0,38.286597043330765,39.68871595330739,34.46088794926003,17127.0,2904.0,0.0,1.0,0.0,?,1.0,44.0
1700000.0,6.828125,1.7200405838795833E-7,1700000.0,68.60000000000001,37.4800892003823,37.82178217821783,35.12396694214877,27127.0,2904.0,0.0,1.0,0.0,?,0.0,0.0
1800000.0,7.234375,1.772597574421929E-7,1800000.0,69.0,38.471798251011236,38.85601577909269,34.46088794926003,37127.0,2904.0,0.0,1.0,0.0,?,0.0,0.0
1900000.0,7.625,1.8077727872878313E-7,1900000.0,70.39999999999999,41.01165019908567,41.50197628458498,39.21971252566735,47127.0,2904.0,0.0,1.0,0.0,?,0.0,0.0
2000000.0,8.03125,1.8283802395065625E-7,2000000.0,68.7,37.234801998861016,38.14229249011859,33.826638477801275,57127.0,2904.0,0.0,1.0,0.0,?,0.0,0.0
2100000.0,8.4375,1.9929203618731764E-7,2100000.0,67.9,36.022131160610364,36.9351669941061,34.88843813387425,67027.0,2904.0,0.0,1.0,0.0,?,0.0,0.0
2200000.0,8.828125,2.1357716630316442E-7,2200000.0,67.9,35.910234396837446,36.18290258449306,34.22131147540984,77027.0,2904.0,0.0,1.0,0.0,?,0.0,0.0
2300000.0,9.234375,2.2683622470746436E-7,2300000.0,66.7,34.958904965780185,32.59109311740892,25.0,87027.0,2904.0,0.0,1.0,0.0,?,0.0,0.0
2400000.0,9.640625,2.384978061955836E-7,2400000.0,69.5,39.165469921812665,37.881873727087566,38.0081300813008,97027.0,2904.0,0.0,1.0,0.0,?,0.0,0.0
2500000.0,10.03125,2.481748298224476E-7,2500000.0,69.69999999999999,39.47263284059129,39.76143141153081,39.15662650602409,107027.0,2904.0,0.0,1.0,0.0,?,0.0,0.0
2600000.0,10.421875,2.5631581795298393E-7,2600000.0,67.2,34.770244094519505,32.37113402061856,27.912087912087912,117027.0,2904.0,0.0,1.0,0.0,?,0.0,0.0
2700000.0,10.828125,2.63184968692561E-7,2700000.0,66.7,33.70231743250777,30.769230769230777,31.762295081967217,127027.0,2904.0,0.0,1.0,0.0,?,0.0,0.0
2800000.0,11.21875,2.682538858304421E-7,2800000.0,66.5,33.84414866305938,34.697855750487335,28.874734607218688,137027.0,2904.0,0.0,1.0,0.0,?,0.0,0.0
2900000.0,11.625,2.7192808273765776E-7,2900000.0,69.19999999999999,38.33710384592283,39.607843137254896,37.39837398373982,147027.0,2904.0,0.0,1.0,0.0,?,0.0,0.0
3000000.0,12.03125,2.740048027286927E-7,3000000.0,68.0,36.95127910092525,36.75889328063242,29.515418502202646,157027.0,2904.0,0.0,1.0,0.0,?,0.0,0.0
3100000.0,12.4375,2.904747897345159E-7,3100000.0,67.7,36.02490869189756,35.14056224899599,30.835117773019277,166927.0,2904.0,0.0,1.0,0.0,?,0.0,0.0
3200000.0,12.828125,3.0477528020532596E-7,3200000.0,67.80000000000001,36.53296540849514,33.60824742268042,28.603104212860313,176927.0,2904.0,0.0,1.0,0.0,?,0.0,0.0
3300000.0,13.234375,3.180503133787877E-7,3300000.0,67.7,35.029930484037095,34.747474747474755,33.81147540983607,186927.0,2904.0,0.0,1.0,0.0,?,0.0,0.0
3400000.0,13.640625,3.297278696360688E-7,3400000.0,68.8,37.832506425966876,38.703339882121796,36.19631901840489,196927.0,2904.0,0.0,1.0,0.0,?,0.0,0.0
3500000.0,14.046875,3.398079489771691E-7,3500000.0,68.2,36.66474138102732,32.76955602536999,34.96932515337424,206927.0,2904.0,0.0,1.0,0.0,?,0.0,0.0
3600000.0,14.453125,3.482905514020887E-7,3600000.0,65.9,32.20352462145312,35.53875236294897,29.399585921325055,216927.0,2904.0,0.0,1.0,0.0,?,0.0,0.0
3700000.0,14.84375,3.549108643912607E-7,3700000.0,68.60000000000001,37.657840817039656,35.257731958762896,32.61802575107297,226927.0,2904.0,0.0,1.0,0.0,?,0.0,0.0
3800000.0,15.25,3.601985129838189E-7,3800000.0,65.8,32.15577985145687,30.061349693251536,26.923076923076927,236927.0,2904.0,0.0,1.0,0.0,?,0.0,0.0
3900000.0,15.65625,3.6388868466019633E-7,3900000.0,72.0,43.83464920726618,45.09803921568627,45.419103313840154,246927.0,2904.0,0.0,1.0,0.0,?,0.0,0.0
4000000.0,16.046875,3.659178683948186E-7,4000000.0,69.1,38.4731790848632,37.4493927125506,36.93877551020407,256927.0,2904.0,0.0,1.0,0.0,?,0.0,18.0
4100000.0,16.421875,3.811519774090913E-7,4100000.0,66.8,34.38553635871349,31.120331950207476,26.05790645879733,266827.0,2904.0,0.0,1.0,0.0,?,0.0,0.0
4200000.0,16.828125,3.96058118591706E-7,4200000.0,66.2,32.864310429072546,28.541226215644823,29.72972972972973,276827.0,2904.0,0.0,1.0,0.0,?,0.0,0.0
4300000.0,17.234375,4.0936678285814E-7,4300000.0,69.89999999999999,39.99968106142756,35.82089552238805,38.1930184804928,286827.0,2904.0,0.0,1.0,0.0,?,0.0,0.0
4400000.0,17.625,4.206275399256912E-7,4400000.0,69.3,38.87725278138364,37.72819472616632,36.3070539419087,296827.0,2904.0,0.0,1.0,0.0,?,0.0,0.0
4500000.0,18.03125,4.3074125035976373E-7,4500000.0,70.3,40.053285968028405,41.99218749999999,42.774566473988436,306827.0,2904.0,0.0,1.0,0.0,?,0.0,0.0
4600000.0,18.4375,4.392574838776556E-7,4600000.0,67.5,35.64203505825882,35.51587301587303,30.997876857749475,316827.0,2904.0,0.0,1.0,0.0,?,0.0,0.0
4700000.0,18.84375,4.461762404793667E-7,4700000.0,65.7,32.06037317276077,29.27835051546392,26.552462526766597,326827.0,2904.0,0.0,1.0,0.0,?,0.0,0.0
4800000.0,19.234375,4.5129285556160745E-7,4800000.0,68.10000000000001,37.09129059485215,36.45418326693228,29.735682819383264,336827.0,2904.0,0.0,1.0,0.0,?,0.0,0.0
4900000.0,19.640625,4.550166583309571E-7,4900000.0,67.0,34.70285843183969,35.42074363992173,30.817610062893085,346827.0,2904.0,0.0,1.0,0.0,?,0.0,0.0
5000000.0,20.046875,4.573859688308504E-7,5000000.0,68.60000000000001,36.84227464358125,37.32534930139722,34.9896480331263,356827.0,2904.0,0.0,1.0,0.0,?,0.0,0.0
5100000.0,20.453125,4.7414854634553196E-7,5100000.0,56.49999999999999,10.572582170434272,7.249466950959471,-5.326876513317195,366727.0,2904.0,0.0,1.0,0.0,?,0.0,0.0
5200000.0,20.84375,4.887303738440905E-7,5200000.0,61.3,17.942411263305207,16.77419354838709,-4.312668463611864,376727.0,2904.0,0.0,1.0,0.0,?,0.0,0.0
5300000.0,21.234375,5.017672730092374E-7,5300000.0,70.19999999999999,29.38890600194298,32.27272727272725,22.997416020671828,3590.0,2904.0,0.0,1.0,0.0,?,2.0,7.0
5400000.0,21.640625,5.137281712248094E-7,5400000.0,69.19999999999999,26.624737945492654,36.494845360824726,19.371727748691086,13590.0,2904.0,0.0,1.0,0.0,?,0.0,0.0
5500000.0,22.03125,5.236929993973011E-7,5500000.0,69.1,25.59165470674925,35.490605427974934,19.109947643979044,23590.0,2904.0,0.0,1.0,0.0,?,0.0,0.0
5600000.0,22.4375,5.324589437805117E-7,5600000.0,71.3,29.06223738197637,40.579710144927525,22.43243243243242,33590.0,2904.0,0.0,1.0,0.0,?,0.0,0.0
5700000.0,22.828125,5.393517009603481E-7,5700000.0,72.0,30.85087992255298,39.914163090128746,22.86501377410467,43590.0,2904.0,0.0,1.0,0.0,?,0.0,0.0
5800000.0,23.234375,5.449226915111972E-7,5800000.0,68.10000000000001,25.24932513497302,31.10151187904968,18.4143222506394,53590.0,2904.0,0.0,1.0,0.0,?,0.0,0.0
5900000.0,23.625,5.487433776983784E-7,5900000.0,70.89999999999999,27.075710949168514,38.99371069182389,18.941504178272968,63590.0,2904.0,0.0,1.0,0.0,?,0.0,0.0
6000000.0,24.03125,5.511194144168661E-7,6000000.0,69.89999999999999,29.392446633825937,35.957446808510625,22.82051282051281,73590.0,2904.0,0.0,1.0,0.0,?,0.0,0.0
6100000.0,24.421875,5.672437449296315E-7,6100000.0,68.7,23.925724285436516,32.39740820734342,16.976127320954923,83490.0,2904.0,0.0,1.0,0.0,?,0.0,0.0
6200000.0,24.828125,5.824155717467267E-7,6200000.0,69.0,26.78180031743631,34.04255319148935,20.103092783505144,93490.0,2904.0,0.0,1.0,0.0,?,0.0,0.0
6300000.0,25.21875,5.954678312668369E-7,6300000.0,68.2,24.924570441056375,31.61290322580646,19.89924433249372,103490.0,2904.0,0.0,1.0,0.0,?,0.0,0.0
6400000.0,25.625,6.074447042515708E-7,6400000.0,66.10000000000001,24.623785976021928,30.103092783505158,20.7943925233645,113490.0,2904.0,0.0,1.0,0.0,?,0.0,0.0
6500000.0,26.03125,6.178241003201239E-7,6500000.0,72.39999999999999,32.23069065765696,42.25941422594141,23.75690607734806,123490.0,2904.0,0.0,1.0,0.0,?,0.0,0.0
6600000.0,26.4375,6.266060194724963E-7,6600000.0,71.8,34.95439888176924,41.85567010309278,29.32330827067669,133490.0,2904.0,0.0,1.0,0.0,?,0.0,0.0
6700000.0,26.828125,6.33514137007296E-7,6700000.0,71.6,30.066830500711628,37.30684326710815,22.615803814713885,143490.0,2904.0,0.0,1.0,0.0,?,0.0,0.0
6800000.0,27.234375,6.39101102327307E-7,6800000.0,71.7,28.983688833124205,40.169133192389,20.281690140845058,153490.0,2904.0,0.0,1.0,0.0,?,0.0,0.0
6900000.0,27.625,6.429371488694515E-7,6900000.0,68.0,23.944612664172706,33.19415448851775,17.737789203084848,163490.0,2904.0,0.0,1.0,0.0,?,0.0,0.0
7000000.0,28.03125,6.45329160357101E-7,7000000.0,71.1,32.89432132706704,35.20179372197308,26.46310432569974,173490.0,2904.0,0.0,1.0,0.0,?,0.0,0.0
7100000.0,28.421875,6.614688512248297E-7,7100000.0,71.3,31.52319144874976,38.54389721627408,24.473684210526308,183390.0,2904.0,0.0,1.0,0.0,?,0.0,0.0
7200000.0,28.8125,6.760725065962307E-7,7200000.0,70.89999999999999,26.119630344267257,38.21656050955413,19.166666666666654,193390.0,2904.0,0.0,1.0,0.0,?,0.0,0.0
7300000.0,29.203125,6.891401264713041E-7,7300000.0,69.69999999999999,27.119312660554,36.21052631578946,20.47244094488188,203390.0,2904.0,0.0,1.0,0.0,?,0.0,0.0
7400000.0,29.609375,7.011329742251998E-7,7400000.0,71.1,30.49877350776777,38.90063424947145,23.544973544973537,213390.0,2904.0,0.0,1.0,0.0,?,0.0,0.0
7500000.0,30.0,7.111285231076181E-7,7500000.0,71.1,27.683468791287996,36.76148796498905,20.60439560439559,223390.0,2904.0,0.0,1.0,0.0,?,0.0,0.0
7600000.0,30.40625,7.199264170291523E-7,7600000.0,70.39999999999999,28.773557664542686,34.513274336283175,21.693121693121682,233390.0,2904.0,0.0,1.0,0.0,?,0.0,0.0
7700000.0,30.78125,7.265729558033248E-7,7700000.0,70.6,29.642516979127283,37.57961783439489,23.237597911227144,243390.0,2904.0,0.0,1.0,0.0,?,0.0,0.0
7800000.0,31.1875,7.321624434553087E-7,7800000.0,71.3,30.33304204291678,39.19491525423728,23.670212765957437,253390.0,2904.0,0.0,1.0,0.0,?,0.0,17.0
7900000.0,31.59375,7.361107337702479E-7,7900000.0,68.60000000000001,29.446763763498385,36.820925553319924,24.700239808153494,263390.0,2904.0,0.0,1.0,0.0,?,0.0,111.0
8000000.0,31.984375,7.384277220504979E-7,8000000.0,68.30000000000001,26.15886326578154,32.264957264957275,20.551378446115308,273390.0,2904.0,0.0,1.0,0.0,?,0.0,39.0
8100000.0,32.375,7.545843901526597E-7,8100000.0,72.5,32.679879362343826,41.613588110403384,25.068119891008166,283290.0,2904.0,0.0,1.0,0.0,?,0.0,0.0
8200000.0,32.78125,7.697898480627272E-7,8200000.0,70.39999999999999,30.759586054606363,37.68421052631577,24.8730964467005,293290.0,2904.0,0.0,1.0,0.0,?,0.0,0.0
8300000.0,33.171875,7.828744451722337E-7,8300000.0,70.19999999999999,28.844317096466092,36.1884368308351,22.39583333333332,303290.0,2904.0,0.0,1.0,0.0,?,0.0,0.0
8400000.0,33.5625,7.944230067854126E-7,8400000.0,69.5,27.694962828098923,36.05870020964359,21.39175257731958,313290.0,2904.0,0.0,1.0,0.0,?,0.0,0.0
8500000.0,33.96875,8.048360339469379E-7,8500000.0,71.0,31.22747106810852,37.90149892933618,25.64102564102563,323290.0,2904.0,0.0,1.0,0.0,?,0.0,0.0
8600000.0,34.375,8.136515841922826E-7,8600000.0,69.3,24.49656176525563,33.11546840958604,17.250673854447424,333290.0,2904.0,0.0,1.0,0.0,?,0.0,0.0
8700000.0,34.765625,8.205920393164787E-7,8700000.0,66.9,22.04721442432693,30.753138075313814,15.561224489795933,343290.0,2904.0,0.0,1.0,0.0,?,0.0,0.0
8800000.0,35.15625,8.259964589443472E-7,8800000.0,67.10000000000001,24.88447277575848,33.80281690140846,19.36274509803923,353290.0,2904.0,0.0,1.0,0.0,?,0.0,0.0
8900000.0,35.5625,8.300195784411497E-7,8900000.0,69.89999999999999,27.545302239596364,32.9621380846325,19.946808510638288,363290.0,2904.0,0.0,1.0,0.0,?,0.0,0.0
9000000.0,35.953125,8.323519270763629E-7,9000000.0,68.0,24.668659808375914,32.489451476793256,18.158567774936078,373290.0,2904.0,0.0,1.0,0.0,?,0.0,0.0
9100000.0,36.359375,8.49170836671773E-7,9100000.0,70.3,28.96436259268117,37.73584905660376,22.45430809399477,383190.0,2904.0,0.0,1.0,0.0,?,0.0,0.0
9200000.0,36.75,8.638068296325704E-7,9200000.0,68.4,25.047438330170785,35.245901639344275,18.55670103092785,393190.0,2904.0,0.0,1.0,0.0,?,0.0,0.0
9300000.0,37.15625,8.77430785395619E-7,9300000.0,68.30000000000001,29.571832287649098,33.8204592901879,25.059101654846355,403190.0,2904.0,0.0,1.0,0.0,?,0.0,0.0
9400000.0,37.5625,8.894572642424869E-7,9400000.0,71.2,31.0014374700527,38.72340425531914,24.60732984293193,413190.0,2904.0,0.0,1.0,0.0,?,0.0,0.0
9500000.0,37.953125,8.994851507143015E-7,9500000.0,70.8,26.214926821379485,35.6828193832599,17.977528089887628,423190.0,2904.0,0.0,1.0,0.0,?,0.0,0.0
9600000.0,38.34375,9.079770016897884E-7,9600000.0,71.5,29.996069954804476,38.97216274089935,23.180592991913738,433190.0,2904.0,0.0,1.0,0.0,?,0.0,0.0
9700000.0,38.734375,9.149328171689478E-7,9700000.0,69.5,27.078850475780598,33.11403508771928,19.3121693121693,443190.0,2904.0,0.0,1.0,0.0,?,0.0,0.0
9800000.0,39.140625,9.205693883510928E-7,9800000.0,70.6,29.337794185509907,39.00414937759335,22.222222222222214,453190.0,2904.0,0.0,1.0,0.0,?,0.0,0.0
9900000.0,39.5,9.241424332786765E-7,9900000.0,72.3,31.32344919918677,42.411642411642404,24.109589041095884,463190.0,2904.0,0.0,1.0,0.0,?,0.0,0.0
1.0E7,39.90625,9.265840506284601E-7,1.0E7,70.39999999999999,27.536231884057955,36.480686695278955,19.999999999999986,473190.0,2904.0,0.0,1.0,0.0,?,0.0,0.0
