learning evaluation instances,evaluation time (cpu seconds),model cost (RAM-Hours),classified instances,classifications correct (percent),Kappa Statistic (percent),Kappa Temporal Statistic (percent),Kappa M Statistic (percent),model training instances,model serialized size (bytes),labeling cost,newThreshold,maxPosterior,accuracyBaseLearner (percent),Change detected,Warning detected
100000.0,0.125,6.933179166581896E-10,100000.0,67.30000000000001,30.971882124461704,29.373650107991367,28.13186813186814,10000.0,5144.0,10000.0,1.0,0.7654516640253566,0.0,0.0,40.0
200000.0,0.25,1.3866358333163792E-9,200000.0,69.5,33.744047825935844,33.40611353711789,29.561200923787528,20000.0,5144.0,20000.0,1.0,0.7626656274356975,0.0,0.0,0.0
300000.0,0.390625,2.1666184895568423E-9,300000.0,70.0,34.11111501563763,36.97478991596637,29.245283018867923,30000.0,5144.0,30000.0,1.0,0.7713390759592796,0.0,0.0,0.0
400000.0,0.515625,2.859936406215032E-9,400000.0,69.5,33.48395763909486,38.87775551102203,28.904428904428904,40000.0,5144.0,40000.0,1.0,0.540119173944984,0.0,0.0,0.0
500000.0,0.625,3.466589583290948E-9,500000.0,72.1,37.125910434845316,40.764331210191074,30.94059405940594,50000.0,5144.0,50000.0,1.0,0.5552129642908361,0.0,0.0,0.0
600000.0,0.75,4.1599074999491375E-9,600000.0,68.4,30.48742394312289,39.694656488549626,25.995316159250603,60000.0,5144.0,60000.0,1.0,0.5397375720076808,0.0,0.0,0.0
700000.0,0.875,4.853225416607327E-9,700000.0,69.6,33.40460209249749,36.26834381551362,28.638497652582156,70000.0,5144.0,70000.0,1.0,0.7756359073799475,0.0,0.0,0.0
800000.0,1.0,5.546543333265517E-9,800000.0,67.0,28.292358572974486,31.818181818181824,23.787528868360294,80000.0,5144.0,80000.0,1.0,0.5545566178405402,0.0,0.0,0.0
900000.0,1.140625,6.32652598950598E-9,900000.0,68.60000000000001,32.2925651198896,38.55185909980432,28.636363636363637,90000.0,5144.0,90000.0,1.0,0.5541329389788294,0.0,0.0,0.0
1000000.0,1.265625,7.01984390616417E-9,1000000.0,68.2,30.516710949517574,34.96932515337424,25.70093457943927,100000.0,5144.0,100000.0,1.0,0.7778399552322328,0.0,0.0,0.0
1100000.0,1.40625,7.799826562404633E-9,1100000.0,68.5,31.651304483674448,34.782608695652186,27.25173210161665,110000.0,5144.0,110000.0,1.0,0.777883142461157,0.0,0.0,0.0
1200000.0,1.53125,8.493144479062821E-9,1200000.0,71.3,35.6588799713043,43.39250493096646,30.508474576271183,120000.0,5144.0,120000.0,1.0,0.5365127062663523,0.0,0.0,0.0
1300000.0,1.65625,9.18646239572101E-9,1300000.0,68.30000000000001,29.467782128871505,35.17382413087935,24.703087885985767,130000.0,5144.0,130000.0,1.0,0.6940334358186011,0.0,0.0,0.0
1400000.0,1.78125,9.879780312379199E-9,1400000.0,67.60000000000001,27.812633680308014,34.01221995926681,22.48803827751198,140000.0,5144.0,140000.0,1.0,0.5562035138006869,0.0,0.0,0.0
1500000.0,1.890625,1.0486433489455114E-8,1500000.0,68.30000000000001,30.240132389704605,35.17382413087935,25.059101654846355,150000.0,5144.0,150000.0,1.0,0.5366685149816195,0.0,0.0,0.0
1600000.0,2.015625,1.1179751406113303E-8,1600000.0,69.5,32.65859452966995,35.517970401691315,27.55344418052256,160000.0,5144.0,160000.0,1.0,0.555409596003101,0.0,0.0,0.0
1700000.0,2.125,1.1786404583189219E-8,1700000.0,69.8,33.54575220927366,37.34439834024895,28.436018957345965,170000.0,5144.0,170000.0,1.0,0.8780279455732504,0.0,0.0,0.0
1800000.0,2.25,1.2479722499847407E-8,1800000.0,69.89999999999999,35.880503412605755,38.696537678207726,32.51121076233182,180000.0,5144.0,180000.0,1.0,0.535437760571769,0.0,0.0,0.0
1900000.0,2.359375,1.3086375676923323E-8,1900000.0,69.39999999999999,32.59169512060798,36.382536382536365,27.999999999999996,190000.0,5144.0,190000.0,1.0,0.5357986976445052,0.0,0.0,0.0
2000000.0,2.484375,1.3779693593581512E-8,2000000.0,68.30000000000001,30.895868575713724,36.472945891783574,26.78983833718247,200000.0,5144.0,200000.0,1.0,0.5354216573338012,0.0,0.0,0.0
2100000.0,2.609375,1.44730115102397E-8,2100000.0,65.8,23.43889214733761,31.46292585170341,18.377088305489274,210000.0,5144.0,210000.0,1.0,0.6947536249323145,0.0,0.0,0.0
2200000.0,2.734375,1.516632942689789E-8,2200000.0,69.1,31.284468955701815,33.1168831168831,25.54216867469879,220000.0,5144.0,220000.0,1.0,0.5558960567872666,0.0,0.0,0.0
2300000.0,2.859375,1.5859647343556078E-8,2300000.0,67.10000000000001,28.16217443708842,30.29661016949153,23.84259259259261,230000.0,5144.0,230000.0,1.0,0.6944842801985659,0.0,0.0,0.0
2400000.0,2.96875,1.6466300520631994E-8,2400000.0,68.30000000000001,29.654976522071046,34.9075975359343,24.16267942583734,240000.0,5144.0,240000.0,1.0,0.5553392777912952,0.0,0.0,0.0
2500000.0,3.09375,1.7159618437290182E-8,2500000.0,66.60000000000001,26.4900079232327,30.41666666666667,22.325581395348852,250000.0,5144.0,250000.0,1.0,0.6964839185000762,0.0,0.0,0.0
2600000.0,3.21875,1.785293635394837E-8,2600000.0,70.39999999999999,35.53333101021012,39.094650205761305,30.516431924882625,260000.0,5144.0,260000.0,1.0,0.535244349919368,0.0,0.0,0.0
2700000.0,3.359375,1.8632919010188833E-8,2700000.0,68.7,31.49965421550692,37.40000000000001,26.525821596244153,270000.0,5144.0,270000.0,1.0,0.5356632819440228,0.0,0.0,0.0
2800000.0,3.46875,1.923957218726475E-8,2800000.0,68.89999999999999,30.418829425451932,36.530612244897945,25.060240963855414,280000.0,5144.0,280000.0,1.0,0.7724679860302678,0.0,0.0,0.0
2900000.0,3.59375,1.9932890103922937E-8,2900000.0,67.30000000000001,27.868071364286113,34.33734939759037,22.877358490566056,290000.0,5144.0,290000.0,1.0,0.5358023401587965,0.0,0.0,0.0
3000000.0,3.71875,2.0626208020581126E-8,3000000.0,68.89999999999999,29.751170060897365,35.4771784232365,23.58722358722358,300000.0,5144.0,300000.0,1.0,0.5356966266057175,0.0,0.0,0.0
3100000.0,3.84375,2.1319525937239315E-8,3100000.0,67.7,28.802560462717253,33.67556468172486,23.459715639810444,310000.0,5144.0,310000.0,1.0,0.6958064913216527,0.0,0.0,0.0
3200000.0,3.96875,2.2012843853897504E-8,3200000.0,70.5,34.840037814866186,37.76371308016876,30.09478672985782,320000.0,5144.0,320000.0,1.0,0.7721580330043105,0.0,0.0,0.0
3300000.0,4.09375,2.2706161770555692E-8,3300000.0,70.19999999999999,32.6985618269856,38.42975206611569,26.237623762376234,330000.0,5144.0,330000.0,1.0,0.5360750096236687,0.0,0.0,0.0
3400000.0,4.21875,2.339947968721388E-8,3400000.0,68.4,31.868359321098396,34.02922755741128,28.506787330316747,340000.0,5144.0,340000.0,1.0,0.5557498862659859,0.0,0.0,0.0
3500000.0,4.34375,2.409279760387207E-8,3500000.0,68.60000000000001,30.927376956141106,37.94466403162057,26.463700234192057,350000.0,5144.0,350000.0,1.0,0.6961732510063203,0.0,0.0,0.0
3600000.0,4.46875,2.478611552053026E-8,3600000.0,69.1,30.78081037974229,37.322515212981735,25.181598062953984,360000.0,5144.0,360000.0,1.0,0.6966827161367981,0.0,0.0,0.0
3700000.0,4.59375,2.5479433437188447E-8,3700000.0,67.7,28.790003262872926,29.629629629629633,22.727272727272744,370000.0,5144.0,370000.0,1.0,0.5365869561673757,0.0,0.0,0.0
3800000.0,4.734375,2.625941609342891E-8,3800000.0,69.39999999999999,30.39126478616923,41.04046242774565,23.499999999999993,380000.0,5144.0,380000.0,1.0,0.5367861675126904,0.0,0.0,0.0
3900000.0,4.859375,2.6952734010087098E-8,3900000.0,66.0,24.394376720583868,29.752066115702487,18.46522781774582,390000.0,5144.0,390000.0,1.0,0.5544379011213767,0.0,0.0,0.0
4000000.0,4.984375,2.7646051926745287E-8,4000000.0,71.0,33.98047643330661,43.35937499999999,26.76767676767676,400000.0,5144.0,400000.0,1.0,0.8772920716650028,0.0,0.0,0.0
4100000.0,5.109375,2.8339369843403476E-8,4100000.0,66.8,26.722787006096137,35.90733590733592,21.140142517814745,410000.0,5144.0,410000.0,1.0,0.5370141797075895,0.0,0.0,0.0
4200000.0,5.234375,2.9032687760061664E-8,4200000.0,69.3,29.938747752106394,34.957627118644055,23.057644110275678,420000.0,5144.0,420000.0,1.0,0.6965997990928738,0.0,0.0,0.0
4300000.0,5.34375,2.963934093713758E-8,4300000.0,72.0,38.4184990828755,44.66403162055336,32.853717026378895,430000.0,5144.0,430000.0,1.0,0.7732941622441244,0.0,0.0,0.0
4400000.0,5.46875,3.033265885379577E-8,4400000.0,71.0,36.86731250680309,38.42887473460721,31.76470588235294,440000.0,5144.0,440000.0,1.0,0.6962828253437113,0.0,0.0,0.0
4500000.0,5.59375,3.1025976770453964E-8,4500000.0,68.7,30.36025773379375,35.860655737704924,25.29832935560861,450000.0,5144.0,450000.0,1.0,0.5375342832296475,0.0,0.0,0.0
4600000.0,5.71875,3.1719294687112156E-8,4600000.0,68.8,31.76599234554401,36.45621181262728,26.58823529411764,460000.0,5144.0,460000.0,1.0,0.6957794788137366,0.0,0.0,0.0
4700000.0,5.84375,3.241261260377035E-8,4700000.0,70.3,33.72725081892588,41.30434782608695,28.087167070217912,470000.0,5144.0,470000.0,1.0,0.5375716245144915,0.0,0.0,0.0
4800000.0,5.953125,3.3019265780846264E-8,4800000.0,68.60000000000001,31.060223505390056,34.03361344537816,26.463700234192057,480000.0,5144.0,480000.0,1.0,0.5552148551706434,0.0,0.0,0.0
4900000.0,6.078125,3.3712583697504456E-8,4900000.0,67.0,27.664574053940328,32.653061224489804,23.61111111111113,490000.0,5144.0,490000.0,1.0,0.7741226609842178,0.0,0.0,0.0
5000000.0,6.1875,3.431923687458037E-8,5000000.0,68.2,29.58993888938094,36.27254509018037,24.644549763033194,500000.0,5144.0,500000.0,1.0,0.537486450680477,0.0,0.0,0.0
5100000.0,6.3125,3.5012554791238563E-8,5100000.0,50.4,0.33436213991769526,-0.20202020202020218,0.0,510000.0,5144.0,510000.0,1.0,0.7678408672988055,0.0,0.0,0.0
5200000.0,6.4375,3.5705872707896756E-8,5200000.0,49.1,-2.1628825588490335,-4.948453608247427,-4.303278688524594,520000.0,5144.0,520000.0,1.0,0.5543535411956464,0.0,0.0,0.0
5300000.0,6.5625,3.639919062455495E-8,5300000.0,54.50000000000001,3.5362957937584865,10.256410256410266,-0.6637168141592927,530000.0,5144.0,530000.0,1.0,0.5375384422981815,0.0,0.0,0.0
5400000.0,6.6875,3.709250854121314E-8,5400000.0,48.1,-3.318946982847865,1.5180265654648968,-4.6370967741935525,540000.0,5144.0,540000.0,1.0,0.5531572817500506,0.0,0.0,0.0
5500000.0,6.8125,3.778582645787133E-8,5500000.0,51.800000000000004,1.0575754589943274,2.822580645161293,-0.8368200836820092,550000.0,5144.0,550000.0,1.0,0.5376661095432501,0.0,0.0,0.0
5600000.0,6.9375,3.8479144374529524E-8,5600000.0,53.0,0.8003512089693404,3.8854805725971406,-0.4273504273504277,560000.0,5144.0,560000.0,1.0,0.6736852952289355,0.0,0.0,0.0
5700000.0,7.0625,3.9172462291187716E-8,5700000.0,50.8,-0.04717671747653568,4.093567251461992,-1.234567901234569,570000.0,5144.0,570000.0,1.0,0.8337348068330176,0.0,0.0,0.0
5800000.0,7.1875,3.986578020784591E-8,5800000.0,54.2,4.426034515139491,10.371819960861066,-2.9213483146067443,580000.0,5144.0,580000.0,1.0,0.5511619267759111,0.0,0.0,0.0
5900000.0,7.3125,4.05590981245041E-8,5900000.0,51.2,-0.5141049301344693,2.008032128514058,-2.521008403361347,590000.0,5144.0,590000.0,1.0,0.5506572424230125,0.0,0.0,0.0
6000000.0,7.4375,4.125241604116229E-8,6000000.0,51.9,2.5392477083552816,-0.6276150627615069,5.686274509803926,600000.0,5144.0,600000.0,1.0,0.5378526230872009,0.0,0.0,0.0
6100000.0,7.5625,4.1945733957820484E-8,6100000.0,50.3,0.832448740153072,1.38888888888889,3.1189083820662793,610000.0,5144.0,610000.0,1.0,0.5380379187398822,0.0,0.0,0.0
6200000.0,7.6875,4.2639051874478676E-8,6200000.0,48.5,-4.162452975203277,-2.385685884691851,-4.887983706720982,620000.0,5144.0,620000.0,1.0,0.5495571116167083,0.0,0.0,0.0
6300000.0,7.8125,4.3370140095551824E-8,6300000.0,47.5,-3.0219780219780157,-6.924643584521391,-12.660944206008596,630000.0,5144.0,630000.0,1.0,0.7115392019713285,0.0,0.0,4.0
6400000.0,7.9375,4.410122831662497E-8,6400000.0,49.9,-1.3382310107123343,1.9569471624266161,0.7920792079207928,640000.0,5144.0,640000.0,1.0,0.6467484199228842,0.0,0.0,0.0
6500000.0,8.0625,4.483231653769812E-8,6500000.0,52.5,1.272031925507153,3.651115618661261,-1.495726495726497,650000.0,5144.0,650000.0,1.0,0.6441249486873742,0.0,0.0,0.0
6600000.0,8.203125,4.565479078640541E-8,6600000.0,49.5,-2.4606794461848165,1.1741682974559697,-4.989604989604994,660000.0,5144.0,660000.0,1.0,0.6998938390013545,0.0,0.0,0.0
6700000.0,8.3125,4.629449297984442E-8,6700000.0,50.6,1.7755950132225147,0.8032128514056233,1.200000000000001,670000.0,5144.0,670000.0,1.0,0.5474981054011429,0.0,0.0,0.0
6800000.0,8.4375,4.702558120091757E-8,6800000.0,50.9,0.21866540940829585,0.8080808080808087,-1.0288065843621408,680000.0,5144.0,680000.0,1.0,0.6356262499418631,0.0,0.0,0.0
6900000.0,8.578125,4.784805544962486E-8,6900000.0,49.2,-1.4753882232618352,-1.195219123505977,-6.498951781970656,690000.0,5144.0,690000.0,1.0,0.5376109723034395,0.0,0.0,0.0
7000000.0,8.703125,4.857914367069801E-8,7000000.0,52.400000000000006,-0.39483008807747794,4.609218436873752,-3.9301310043668156,700000.0,5144.0,700000.0,1.0,0.68546261538286,0.0,0.0,0.0
7100000.0,8.828125,4.9310231891771157E-8,7100000.0,49.9,0.7173714874559097,3.281853281853285,-2.6639344262295106,710000.0,5144.0,710000.0,1.0,0.5461753957406384,0.0,0.0,0.0
7200000.0,8.96875,5.013270614047845E-8,7200000.0,53.900000000000006,5.4490860761986095,7.429718875502014,3.75782881002088,720000.0,5144.0,720000.0,1.0,0.5458293870600504,0.0,0.0,0.0
7300000.0,9.109375,5.0955180389185745E-8,7300000.0,52.1,-0.6353261508983703,5.335968379446645,-3.904555314533626,730000.0,5144.0,730000.0,1.0,0.5455021883542727,0.0,0.0,0.0
7400000.0,9.234375,5.168626861025889E-8,7400000.0,53.800000000000004,4.25703876553752,11.663479923518175,1.9108280254777086,740000.0,5144.0,740000.0,1.0,0.6725168115817878,0.0,0.0,0.0
7500000.0,9.375,5.2508742858966187E-8,7500000.0,48.4,-3.6040558176889914,4.4444444444444375,-5.954825462012326,750000.0,5144.0,750000.0,1.0,0.5382945481457118,0.0,0.0,0.0
7600000.0,9.5,5.3239831080039334E-8,7600000.0,51.800000000000004,3.172409359732584,2.4291497975708523,3.0181086519114717,760000.0,5144.0,760000.0,1.0,0.5382801861675102,0.0,0.0,0.0
7700000.0,9.640625,5.406230532874663E-8,7700000.0,48.699999999999996,-4.795679067829168,-2.805611222444892,-6.43153526970955,770000.0,5144.0,770000.0,1.0,0.5385032668707959,0.0,0.0,0.0
7800000.0,9.765625,5.4793393549819776E-8,7800000.0,54.300000000000004,2.646647806673709,7.302231237322522,-1.330376940133039,780000.0,5144.0,780000.0,1.0,0.6608882983007168,0.0,0.0,0.0
7900000.0,9.890625,5.552448177089292E-8,7900000.0,49.2,-3.2482551451369774,0.9746588693957123,-4.312114989733064,790000.0,5144.0,790000.0,1.0,0.5385805863683499,0.0,0.0,0.0
8000000.0,10.015625,5.625556999196607E-8,8000000.0,51.300000000000004,-1.5277106022448677,-1.03734439834025,-4.282655246252681,800000.0,5144.0,800000.0,1.0,0.6561075348764405,0.0,0.0,0.0
8100000.0,10.15625,5.7078044240673365E-8,8100000.0,51.2,0.25997808989681404,4.873294346978561,-1.2448132780082999,810000.0,5144.0,810000.0,1.0,0.7324008511803283,0.0,0.0,0.0
8200000.0,10.28125,5.780913246174651E-8,8200000.0,49.8,0.5672814857070375,-0.40000000000000036,0.39682539682539714,820000.0,5144.0,820000.0,1.0,0.5437211330451753,0.0,0.0,0.0
8300000.0,10.40625,5.854022068281966E-8,8300000.0,48.6,0.05910900945743587,-5.54414784394251,-6.418219461697729,830000.0,5144.0,830000.0,1.0,0.543356327227673,0.0,0.0,0.0
8400000.0,10.53125,5.927130890389281E-8,8400000.0,51.800000000000004,2.2625608831246784,1.2295081967213126,1.4314928425357885,840000.0,5144.0,840000.0,1.0,0.5387139425315183,0.0,0.0,0.0
8500000.0,10.671875,6.009378315260011E-8,8500000.0,53.6,2.212443466568881,4.132231404958682,-1.0893246187363845,850000.0,5144.0,850000.0,1.0,0.6444169344341384,0.0,0.0,0.0
8600000.0,10.796875,6.082487137367326E-8,8600000.0,51.2,0.8061532707544882,0.6109979633401228,-1.2448132780082999,860000.0,5144.0,860000.0,1.0,0.5390314762905862,0.0,0.0,0.0
8700000.0,10.921875,6.15559595947464E-8,8700000.0,52.800000000000004,1.1394101876675604,5.78842315369262,-2.6086956521739157,870000.0,5144.0,870000.0,1.0,0.5423391217572869,0.0,0.0,0.0
8800000.0,11.0625,6.23784338434537E-8,8800000.0,52.300000000000004,3.7864179501867814,3.63636363636364,3.245436105476676,880000.0,5144.0,880000.0,1.0,0.5392301468534973,0.0,0.0,0.0
8900000.0,11.1875,6.310952206452685E-8,8900000.0,52.5,2.0416580738296597,8.123791102514513,0.0,890000.0,5144.0,890000.0,1.0,0.7100649025348725,0.0,0.0,0.0
9000000.0,11.328125,6.393199631323415E-8,9000000.0,55.60000000000001,5.925825479693538,17.47211895910781,1.7699115044247804,900000.0,5144.0,900000.0,1.0,0.5392244030152343,0.0,0.0,0.0
9100000.0,11.453125,6.46630845343073E-8,9100000.0,53.300000000000004,2.0463297787547483,8.610567514677111,-1.3015184381778755,910000.0,5144.0,910000.0,1.0,0.6313638799571275,0.0,0.0,0.0
9200000.0,11.578125,6.539417275538045E-8,9200000.0,51.5,3.0000000000000027,4.339250493096651,3.0000000000000027,920000.0,5144.0,920000.0,1.0,0.5413439939082428,0.0,0.0,0.0
9300000.0,11.71875,6.621664700408775E-8,9300000.0,51.300000000000004,1.1921862699745966,2.6000000000000023,0.0,930000.0,5144.0,930000.0,1.0,0.6277926355957079,0.0,0.0,0.0
9400000.0,11.84375,6.69477352251609E-8,9400000.0,50.0,0.7530855865691065,2.9126213592233037,5.303030303030307,940000.0,5144.0,940000.0,1.0,0.6259785818307627,0.0,0.0,0.0
9500000.0,11.984375,6.77702094738682E-8,9500000.0,51.7,1.5571498451002732,5.294117647058829,3.206412825651305,950000.0,5144.0,950000.0,1.0,0.6967507539033151,0.0,0.0,0.0
9600000.0,12.109375,6.850129769494134E-8,9600000.0,49.3,-2.0983527326916076,-1.1976047904191627,-2.4242424242424265,960000.0,5144.0,960000.0,1.0,0.6947486147120127,0.0,0.0,0.0
9700000.0,12.234375,6.923238591601449E-8,9700000.0,50.4,-1.6226848057695538,8.148148148148145,-3.765690376569041,970000.0,5144.0,970000.0,1.0,0.6200255447613887,0.0,0.0,0.0
9800000.0,12.359375,6.996347413708764E-8,9800000.0,50.2,-0.4579105561495157,1.7751479289940844,-1.0141987829614614,980000.0,5144.0,980000.0,1.0,0.5395446286808636,0.0,0.0,0.0
9900000.0,12.484375,7.069456235816079E-8,9900000.0,52.7,0.12584565748022383,6.150793650793656,-3.0501089324618764,990000.0,5144.0,990000.0,1.0,0.5395171265229798,0.0,0.0,0.0
1.0E7,12.609375,7.142565057923393E-8,1.0E7,51.300000000000004,-2.0835953548819983,4.3222003929273125,-2.0964360587002115,1000000.0,5144.0,1000000.0,1.0,0.5395309154714186,0.0,0.0,0.0
