learning evaluation instances,evaluation time (cpu seconds),model cost (RAM-Hours),classified instances,classifications correct (percent),Kappa Statistic (percent),Kappa Temporal Statistic (percent),Kappa M Statistic (percent),model training instances,model serialized size (bytes),labeling cost,newThreshold,maxPosterior,accuracyBaseLearner (percent),Change detected,Warning detected
100000.0,0.875,1.7181866698794894E-8,100000.0,74.3,46.748112355266755,46.23430962343096,40.37122969837588,58733.0,3024.0,0.0,1.0,0.0,?,6.0,39.0
200000.0,1.71875,3.0606881611877016E-8,200000.0,77.4,53.879057010383335,56.11650485436894,50.0,118733.0,3024.0,0.0,1.0,0.0,?,0.0,0.0
300000.0,2.546875,4.0698279109266063E-8,300000.0,76.8,52.755456541129234,51.767151767151766,49.45533769063181,178733.0,3024.0,0.0,1.0,0.0,?,0.0,0.0
400000.0,3.390625,4.7836866643693706E-8,400000.0,76.9,53.14781762128834,54.34782608695653,49.78260869565217,238733.0,3024.0,0.0,1.0,0.0,?,0.0,0.0
500000.0,4.21875,5.1758252084255215E-8,500000.0,77.3,54.04225682887523,52.80665280665281,50.9719222462203,298733.0,3024.0,0.0,1.0,0.0,?,0.0,0.0
600000.0,5.046875,6.801966163847181E-8,600000.0,78.0,55.156219424695074,56.692913385826785,51.32743362831859,358433.0,3024.0,0.0,1.0,0.0,?,0.0,0.0
700000.0,5.890625,8.144467655155394E-8,700000.0,79.80000000000001,58.40728737269954,58.69120654396729,53.34872979214782,418433.0,3024.0,0.0,1.0,0.0,?,0.0,0.0
800000.0,6.703125,9.134567032257716E-8,800000.0,76.6,52.06568230609135,53.01204819277109,47.05882352941176,478433.0,3024.0,0.0,1.0,0.0,?,0.0,0.0
900000.0,7.53125,9.835206179155244E-8,900000.0,76.1,52.06001524451398,49.78991596638656,52.104208416833664,538433.0,3024.0,0.0,1.0,0.0,?,0.0,0.0
1000000.0,8.359375,1.0227344723211395E-7,1000000.0,78.60000000000001,56.504241852675406,58.36575875486382,53.17286652078776,598433.0,3024.0,0.0,1.0,0.0,?,0.0,0.0
1100000.0,9.1875,1.1856570684661468E-7,1100000.0,76.7,52.81337588905271,54.932301740812385,50.63559322033898,658133.0,3024.0,0.0,1.0,0.0,?,0.0,0.0
1200000.0,10.015625,1.3177296043270163E-7,1200000.0,76.9,53.21841128914667,53.23886639676114,50.10799136069114,718133.0,3024.0,0.0,1.0,0.0,?,0.0,0.0
1300000.0,10.84375,1.4189520799037482E-7,1300000.0,74.2,48.06449664834833,49.90291262135923,46.58385093167702,778133.0,3024.0,0.0,1.0,0.0,?,0.0,0.0
1400000.0,11.671875,1.4893244951963424E-7,1400000.0,76.0,51.92615857957823,54.545454545454554,51.80722891566265,838133.0,3024.0,0.0,1.0,0.0,?,0.0,0.0
1500000.0,12.5,1.5288468502047988E-7,1500000.0,74.3,48.22222938559732,45.550847457627114,46.23430962343096,898133.0,3024.0,0.0,1.0,0.0,?,0.0,0.0
1600000.0,13.328125,1.6917694463498062E-7,1600000.0,78.3,56.37068431676895,57.94573643410853,54.9792531120332,957833.0,3024.0,0.0,1.0,0.0,?,0.0,0.0
1700000.0,14.125,1.818858112932907E-7,1700000.0,74.7,48.701935944330444,46.51162790697674,44.27312775330396,1017833.0,3024.0,0.0,1.0,0.0,?,0.0,0.0
1800000.0,14.953125,1.920080588509639E-7,1800000.0,79.0,57.23850326616385,58.984375000000014,54.14847161572053,1077833.0,3024.0,0.0,1.0,0.0,?,0.0,0.0
1900000.0,15.765625,1.9891252223816183E-7,1900000.0,79.0,57.1860206241055,58.00000000000001,53.43680709534369,1137833.0,3024.0,0.0,1.0,0.0,?,0.0,0.0
2000000.0,16.578125,2.0279018725785946E-7,2000000.0,76.9,53.04534478132547,53.144016227180536,48.78048780487805,1197833.0,3024.0,0.0,1.0,0.0,?,0.0,0.0
2100000.0,17.390625,2.188053137312333E-7,2100000.0,77.7,54.96223290382519,55.666003976143145,52.85412262156448,1257533.0,3024.0,0.0,1.0,0.0,?,0.0,0.0
2200000.0,18.203125,2.3179364183710685E-7,2200000.0,77.0,53.82731415493948,54.63510848126233,52.772073921971256,1317533.0,3024.0,0.0,1.0,0.0,?,0.0,0.0
2300000.0,19.046875,2.421383073346483E-7,2300000.0,75.5,50.67683462043308,51.48514851485149,48.8517745302714,1377533.0,3024.0,0.0,1.0,0.0,?,0.0,0.0
2400000.0,19.875,2.4920639892419183E-7,2400000.0,77.9,55.345957697871974,57.087378640776706,52.87846481876333,1437533.0,3024.0,0.0,1.0,0.0,?,0.0,0.0
2500000.0,20.6875,2.5311433192756445E-7,2500000.0,76.9,53.145536858844345,54.79452054794521,50.21551724137932,1497533.0,3024.0,0.0,1.0,0.0,?,0.0,0.0
2600000.0,21.515625,2.694374416023493E-7,2600000.0,75.4,50.3904233350542,52.783109404990405,48.319327731092436,1557233.0,3024.0,0.0,1.0,0.0,?,0.0,0.0
2700000.0,22.328125,2.8242576970822286E-7,2700000.0,76.7,52.684591016164404,55.61904761904762,49.89247311827957,1617233.0,3024.0,0.0,1.0,0.0,?,0.0,0.0
2800000.0,23.125,2.9219573156701196E-7,2800000.0,75.2,49.82296408700051,50.10060362173038,47.78947368421053,1677233.0,3024.0,0.0,1.0,0.0,?,0.0,0.0
2900000.0,23.9375,2.991304629378849E-7,2900000.0,77.5,54.771323813199544,54.45344129554657,53.51239669421488,1737233.0,3024.0,0.0,1.0,0.0,?,0.0,0.0
3000000.0,24.734375,3.0296324338350033E-7,3000000.0,78.5,56.037754367597984,55.208333333333336,51.46726862302483,1797233.0,3024.0,0.0,1.0,0.0,?,0.0,0.0
3100000.0,25.5625,3.1931720311856936E-7,3100000.0,77.5,54.627217216652014,56.47969052224372,52.53164556962025,1856933.0,3024.0,0.0,1.0,0.0,?,0.0,0.0
3200000.0,26.390625,3.325861568252246E-7,3200000.0,76.7,52.791195253995525,50.63559322033898,50.31982942430704,1916933.0,3024.0,0.0,1.0,0.0,?,0.0,0.0
3300000.0,27.203125,3.4257795454727284E-7,3300000.0,76.9,53.40036150022595,55.74712643678161,50.641025641025635,1976933.0,3024.0,0.0,1.0,0.0,?,0.0,0.0
3400000.0,28.03125,3.4967689619710055E-7,3400000.0,77.5,54.571885448466354,55.88235294117647,52.02558635394456,2036933.0,3024.0,0.0,1.0,0.0,?,0.0,0.0
3500000.0,28.84375,3.5376307399322595E-7,3500000.0,77.8,55.06946018587481,55.15151515151515,52.1551724137931,2096933.0,3024.0,0.0,1.0,0.0,?,0.0,8.0
3600000.0,29.671875,3.7026785624523965E-7,3600000.0,74.7,49.05151234443594,48.577235772357724,47.5103734439834,2156633.0,3024.0,0.0,1.0,0.0,?,0.0,0.0
3700000.0,30.484375,3.8343442914386596E-7,3700000.0,76.6,52.263408066260034,51.5527950310559,48.57142857142857,2216633.0,3024.0,0.0,1.0,0.0,?,0.0,0.0
3800000.0,31.296875,3.93574203674992E-7,3800000.0,79.2,57.87154060535356,57.63747454175153,55.55555555555556,2276633.0,3024.0,0.0,1.0,0.0,?,0.0,0.0
3900000.0,32.109375,4.006871798386177E-7,3900000.0,79.0,57.84351512815571,58.49802371541502,56.6115702479339,2336633.0,3024.0,0.0,1.0,0.0,?,0.0,0.0
4000000.0,32.9375,4.048519379769763E-7,4000000.0,77.3,54.11063582038863,55.6640625,51.70212765957447,2396633.0,3024.0,0.0,1.0,0.0,?,0.0,0.0
4100000.0,33.765625,4.213875702892741E-7,4100000.0,77.8,54.81927710843374,57.87476280834915,50.88495575221239,2456333.0,3024.0,0.0,1.0,0.0,?,0.0,0.0
4200000.0,34.578125,4.3458441117157545E-7,4200000.0,77.4,54.401652839203294,55.069582504970185,52.320675105485236,2516333.0,3024.0,0.0,1.0,0.0,?,0.0,0.0
4300000.0,35.40625,4.449500314270457E-7,4300000.0,75.2,49.73000145945157,51.181102362204726,46.78111587982832,2576333.0,3024.0,0.0,1.0,0.0,?,0.0,0.0
4400000.0,36.25,4.52368015733858E-7,4400000.0,75.1,49.700221399828706,46.336206896551715,47.79874213836478,2636333.0,3024.0,0.0,1.0,0.0,?,0.0,0.0
4500000.0,37.0625,4.564844615136584E-7,4500000.0,75.8,51.16320369383768,49.583333333333336,48.9451476793249,2696333.0,3024.0,0.0,1.0,0.0,?,0.0,0.0
4600000.0,37.890625,4.7302009382595623E-7,4600000.0,77.10000000000001,53.76166054193757,55.705996131528046,51.276595744680854,2756033.0,3024.0,0.0,1.0,0.0,?,0.0,0.0
4700000.0,38.71875,4.864707201098403E-7,4700000.0,79.10000000000001,57.52723134449683,55.72033898305085,54.06593406593407,2816033.0,3024.0,0.0,1.0,0.0,?,0.0,0.0
4800000.0,39.53125,4.966407626246413E-7,4800000.0,76.0,51.42801632018652,52.94117647058824,48.717948717948715,2876033.0,3024.0,0.0,1.0,0.0,?,0.0,0.0
4900000.0,40.34375,5.037840067719419E-7,4900000.0,77.60000000000001,54.33938880010437,54.747474747474755,51.515151515151516,2936033.0,3024.0,0.0,1.0,0.0,?,0.0,0.0
5000000.0,41.171875,5.086668857580257E-7,5000000.0,76.3,52.2523974534612,52.121212121212125,50.625,2996033.0,3024.0,0.0,1.0,0.0,?,0.0,0.0
5100000.0,42.015625,5.262479276603294E-7,5100000.0,74.7,46.77046076162424,44.517543859649116,31.62162162162162,34774.0,3024.0,0.0,1.0,0.0,?,21.0,196.0
5200000.0,42.8125,5.398836543059182E-7,5200000.0,76.6,50.63395287019262,49.56896551724138,39.53488372093024,94774.0,3024.0,0.0,1.0,0.0,?,0.0,0.0
5300000.0,43.625,5.50759949773136E-7,5300000.0,77.10000000000001,52.10808097707881,52.88065843621399,42.17171717171718,154774.0,3024.0,0.0,1.0,0.0,?,0.0,0.0
5400000.0,44.453125,5.587603987401557E-7,5400000.0,77.5,52.13784301212508,52.02558635394456,39.18918918918919,214774.0,3024.0,0.0,1.0,0.0,?,0.0,0.0
5500000.0,45.28125,5.636758416787616E-7,5500000.0,73.0,43.93524728708891,45.233265720081135,33.660933660933665,274774.0,3024.0,0.0,1.0,0.0,?,0.0,0.0
5600000.0,46.078125,5.802801590309373E-7,5600000.0,76.9,50.61992304403592,49.45295404814004,40.00000000000001,334474.0,3024.0,0.0,1.0,0.0,?,0.0,0.0
5700000.0,46.875,5.939158856765262E-7,5700000.0,74.5,45.61972191418579,42.82511210762331,29.166666666666664,394474.0,3024.0,0.0,1.0,0.0,?,0.0,0.0
5800000.0,47.6875,6.04792181143744E-7,5800000.0,75.3,48.0791383239021,48.86128364389234,37.93969849246231,454474.0,3024.0,0.0,1.0,0.0,?,0.0,0.0
5900000.0,48.5,6.126416782434614E-7,5900000.0,74.5,46.39749098216613,47.20496894409937,35.92964824120603,514474.0,3024.0,0.0,1.0,0.0,?,0.0,0.0
6000000.0,49.328125,6.175571211820673E-7,6000000.0,76.3,50.77227295009098,49.35897435897436,42.05378973105135,574474.0,3024.0,0.0,1.0,0.0,?,0.0,0.0
6100000.0,50.15625,6.348434382946125E-7,6100000.0,76.9,51.43385753931544,48.55233853006681,39.84375000000001,634174.0,3024.0,0.0,1.0,0.0,?,0.0,0.0
6200000.0,50.96875,6.487768001130056E-7,6200000.0,77.0,50.44577259349591,50.43103448275862,36.28808864265928,694174.0,3024.0,0.0,1.0,0.0,?,0.0,0.0
6300000.0,51.8125,6.601028467735481E-7,6300000.0,76.6,50.349884786271105,51.35135135135135,39.53488372093024,754174.0,3024.0,0.0,1.0,0.0,?,0.0,0.0
6400000.0,52.671875,6.684372136886747E-7,6400000.0,77.9,52.633248458973114,49.19540229885059,39.11845730027549,814174.0,3024.0,0.0,1.0,0.0,?,0.0,0.0
6500000.0,53.515625,6.734768329705627E-7,6500000.0,74.9,46.06975265139145,43.468468468468465,31.97831978319783,874174.0,3024.0,0.0,1.0,0.0,?,0.0,0.0
6600000.0,54.34375,6.907631500831079E-7,6600000.0,75.9,49.577370491254506,49.15611814345991,37.239583333333336,933874.0,3024.0,0.0,1.0,0.0,?,0.0,0.0
6700000.0,55.171875,7.049644611672393E-7,6700000.0,78.0,54.09244945996027,52.38095238095239,45.27363184079603,993874.0,3024.0,0.0,1.0,0.0,?,0.0,0.0
6800000.0,55.984375,7.158710246181321E-7,6800000.0,76.7,50.91512741000405,47.64044943820224,39.94845360824743,1053874.0,3024.0,0.0,1.0,0.0,?,0.0,0.0
6900000.0,56.8125,7.23902323645436E-7,6900000.0,75.9,49.32546090701117,49.26315789473684,37.886597938144334,1113874.0,3024.0,0.0,1.0,0.0,?,0.0,0.0
7000000.0,57.625,7.287552903613281E-7,7000000.0,76.7,49.94629430719657,51.15303983228512,35.6353591160221,1173874.0,3024.0,0.0,1.0,0.0,?,0.0,0.0
7100000.0,58.46875,7.463991965374184E-7,7100000.0,75.8,48.53801169590644,50.712830957230146,36.482939632545936,1233574.0,3024.0,0.0,1.0,0.0,?,0.0,0.0
7200000.0,59.28125,7.603628263394865E-7,7200000.0,75.9,48.508234409318945,51.115618661257614,36.24338624338625,1293574.0,3024.0,0.0,1.0,0.0,?,0.0,0.0
7300000.0,60.109375,7.715099814554882E-7,7300000.0,75.3,47.798667703648604,48.21802935010482,33.42318059299191,1353574.0,3024.0,0.0,1.0,0.0,?,0.0,0.0
7400000.0,60.90625,7.792678985020352E-7,7400000.0,75.5,49.049619431851276,48.63731656184486,37.17948717948718,1413574.0,3024.0,0.0,1.0,0.0,?,0.0,0.0
7500000.0,61.703125,7.840572248419953E-7,7500000.0,75.3,48.933178961296726,47.44680851063829,38.86138613861387,1473574.0,3024.0,0.0,1.0,0.0,?,0.0,0.0
7600000.0,62.53125,8.013743920148246E-7,7600000.0,74.6,47.0868608759416,47.84394250513347,35.85858585858586,1533274.0,3024.0,0.0,1.0,0.0,?,0.0,0.0
7700000.0,63.359375,8.156065531592401E-7,7700000.0,74.9,45.49923568649249,45.670995670995666,29.494382022471903,1593274.0,3024.0,0.0,1.0,0.0,?,0.0,0.0
7800000.0,64.171875,8.265433845938079E-7,7800000.0,77.2,51.87335092348285,50.967741935483865,39.20000000000001,1653274.0,3024.0,0.0,1.0,0.0,?,0.0,0.0
7900000.0,64.984375,8.344534176608753E-7,7900000.0,77.0,50.571012262687134,53.441295546558706,38.99204244031831,1713274.0,3024.0,0.0,1.0,0.0,?,0.0,0.0
8000000.0,65.8125,8.394305607200495E-7,8000000.0,76.0,49.27484158955739,49.044585987261144,38.30334190231363,1773274.0,3024.0,0.0,1.0,0.0,?,0.0,0.0
8100000.0,66.609375,8.561239357934228E-7,8100000.0,76.3,49.84848741345161,46.621621621621614,36.46112600536193,1832974.0,3024.0,0.0,1.0,0.0,?,0.0,0.0
8200000.0,67.453125,8.706560604170791E-7,8200000.0,75.5,48.04610960786476,51.09780439121756,38.28715365239295,1892974.0,3024.0,0.0,1.0,0.0,?,0.0,0.0
8300000.0,68.265625,8.816231598353219E-7,8300000.0,74.9,47.57683857007995,47.70833333333333,38.329238329238336,1952974.0,3024.0,0.0,1.0,0.0,?,0.0,0.0
8400000.0,69.09375,8.89716158983194E-7,8400000.0,75.7,48.19028450569694,45.63758389261744,35.88390501319261,2012974.0,3024.0,0.0,1.0,0.0,?,0.0,0.0
8500000.0,69.90625,8.946296616664362E-7,8500000.0,74.6,46.38522427440633,44.90238611713666,35.69620253164557,2072974.0,3024.0,0.0,1.0,0.0,?,0.0,0.0
8600000.0,70.734375,9.119776788995497E-7,8600000.0,75.2,47.99443037125266,49.59349593495935,38.30845771144279,2132674.0,3024.0,0.0,1.0,0.0,?,0.0,0.0
8700000.0,71.515625,9.254333498473795E-7,8700000.0,75.6,48.27768945416005,47.526881720430104,36.95090439276486,2192674.0,3024.0,0.0,1.0,0.0,?,0.0,0.0
8800000.0,72.34375,9.366113550236654E-7,8800000.0,75.8,48.7155578348641,46.46017699115043,38.1074168797954,2252674.0,3024.0,0.0,1.0,0.0,?,0.0,0.0
8900000.0,73.171875,9.447043541715376E-7,8900000.0,75.9,48.777895855472906,48.394004282655246,36.910994764397905,2312674.0,3024.0,0.0,1.0,0.0,?,0.0,0.0
9000000.0,74.0,9.497123472909959E-7,9000000.0,78.10000000000001,52.94532203448099,53.404255319148945,40.650406504065046,2372674.0,3024.0,0.0,1.0,0.0,?,0.0,0.0
9100000.0,74.828125,9.670912145843936E-7,9100000.0,75.3,47.2879995902549,46.420824295010846,32.880434782608695,2432374.0,3024.0,0.0,1.0,0.0,?,0.0,0.0
9200000.0,75.640625,9.811153803538117E-7,9200000.0,74.8,46.43221549554452,45.689655172413794,35.05154639175258,2492374.0,3024.0,0.0,1.0,0.0,?,0.0,0.0
9300000.0,76.46875,9.923242355903817E-7,9300000.0,78.60000000000001,55.18756308292815,54.56475583864119,45.2685421994885,2552374.0,3024.0,0.0,1.0,0.0,?,0.0,0.0
9400000.0,77.296875,1.000448084798538E-6,9400000.0,76.5,51.0326893263765,50.73375262054507,42.26044226044227,2612374.0,3024.0,0.0,1.0,0.0,?,0.0,0.0
9500000.0,78.140625,1.0055820004911058E-6,9500000.0,74.2,44.962113454843326,45.56962025316456,30.645161290322577,2672374.0,3024.0,0.0,1.0,0.0,?,0.0,0.0
9600000.0,78.921875,1.0219771583150658E-6,9600000.0,77.7,51.87119609789788,50.44444444444445,37.883008356545965,2732074.0,3024.0,0.0,1.0,0.0,?,0.0,0.0
9700000.0,79.71875,1.0357316285889181E-6,9700000.0,76.5,50.35700705564241,49.57081545064377,37.99472295514512,2792074.0,3024.0,0.0,1.0,0.0,?,0.0,0.0
9800000.0,80.546875,1.0469404838254881E-6,9800000.0,74.8,46.26774017467248,45.922746781115876,30.769230769230766,2852074.0,3024.0,0.0,1.0,0.0,?,0.0,0.0
9900000.0,81.359375,1.0549110528599056E-6,9900000.0,77.3,49.891837004988744,51.4957264957265,32.84023668639053,2912074.0,3024.0,0.0,1.0,0.0,?,0.0,0.0
1.0E7,82.1875,1.059949896039648E-6,1.0E7,74.4,44.793319991719,46.21848739495798,31.550802139037433,2972074.0,3024.0,0.0,1.0,0.0,?,0.0,0.0
