learning evaluation instances,evaluation time (cpu seconds),model cost (RAM-Hours),classified instances,classifications correct (percent),Kappa Statistic (percent),Kappa Temporal Statistic (percent),Kappa M Statistic (percent),model training instances,model serialized size (bytes),labeling cost,newThreshold,maxPosterior,accuracyBaseLearner (percent),Change detected,Warning detected
100000.0,0.390625,1.5741938518153297E-8,100000.0,72.2,36.27857722440485,40.97664543524415,25.067385444743927,9717.0,2904.0,0.0,1.0,0.0,?,1.0,31.0
200000.0,0.796875,3.051607766085201E-8,200000.0,72.2,36.30485686922333,42.91581108829568,27.03412073490813,19717.0,2904.0,0.0,1.0,0.0,?,0.0,0.0
300000.0,1.203125,4.3692739887370005E-8,300000.0,76.7,47.174157507164374,48.22222222222222,37.533512064343164,29717.0,2904.0,0.0,1.0,0.0,?,0.0,0.0
400000.0,1.59375,5.482657191654047E-8,400000.0,73.9,39.09212258118717,41.99999999999999,27.90055248618784,39717.0,2904.0,0.0,1.0,0.0,?,0.0,0.0
500000.0,1.984375,6.442436844938332E-8,500000.0,74.2,39.401056958308864,46.13778705636743,29.31506849315068,49717.0,2904.0,0.0,1.0,0.0,?,0.0,0.0
600000.0,2.375,7.248612948589855E-8,600000.0,73.2,40.16494826947207,46.29258517034068,31.45780051150895,59717.0,2904.0,0.0,1.0,0.0,?,0.0,0.0
700000.0,2.78125,7.927288404769369E-8,700000.0,71.5,34.47914367689251,36.24161073825502,23.592493297587122,69717.0,2904.0,0.0,1.0,0.0,?,0.0,0.0
800000.0,3.171875,8.42625740915537E-8,800000.0,72.3,36.545316265474234,41.80672268907562,25.33692722371967,79717.0,2904.0,0.0,1.0,0.0,?,0.0,0.0
900000.0,3.5625,8.771622863908609E-8,900000.0,72.3,38.42528786733651,41.80672268907562,29.156010230179024,89717.0,2904.0,0.0,1.0,0.0,?,0.0,0.0
1000000.0,3.953125,8.963384769029087E-8,1000000.0,73.3,40.61546400007117,43.78947368421052,30.82901554404145,99717.0,2904.0,0.0,1.0,0.0,?,0.0,0.0
1100000.0,4.34375,1.0539114656340744E-7,1100000.0,71.7,37.284484669048226,41.64948453608247,28.894472361809044,109617.0,2904.0,0.0,1.0,0.0,?,0.0,0.0
1200000.0,4.75,1.2018126047526796E-7,1200000.0,72.7,39.1613627854736,39.99999999999999,28.906249999999993,119617.0,2904.0,0.0,1.0,0.0,?,0.0,0.0
1300000.0,5.15625,1.3337389747094776E-7,1300000.0,72.5,34.305453364038556,39.69298245614034,20.74927953890489,129617.0,2904.0,0.0,1.0,0.0,?,0.0,0.0
1400000.0,5.546875,1.445230898550815E-7,1400000.0,74.3,40.962969769365074,44.61206896551724,30.163043478260864,139617.0,2904.0,0.0,1.0,0.0,?,0.0,0.0
1500000.0,5.9375,1.5413624674288762E-7,1500000.0,74.0,42.263279445727484,46.16977225672878,33.6734693877551,149617.0,2904.0,0.0,1.0,0.0,?,0.0,0.0
1600000.0,6.34375,1.6253645299002526E-7,1600000.0,74.0,40.332759609868035,43.47826086956521,30.666666666666664,159617.0,2904.0,0.0,1.0,0.0,?,0.0,0.0
1700000.0,6.75,1.6933918232098219E-7,1700000.0,71.6,35.69976317588831,37.02882483370287,25.06596306068601,169617.0,2904.0,0.0,1.0,0.0,?,0.0,0.0
1800000.0,7.140625,1.7434423271980549E-7,1800000.0,74.7,40.39990953978364,43.90243902439024,29.13165266106442,179617.0,2904.0,0.0,1.0,0.0,?,0.0,0.0
1900000.0,7.546875,1.77952008218401E-7,1900000.0,73.6,40.100467851648816,43.103448275862064,30.70866141732283,189617.0,2904.0,0.0,1.0,0.0,?,0.0,0.0
2000000.0,7.953125,1.799623068008158E-7,2000000.0,73.4,41.21936667182286,44.698544698544694,33.33333333333333,199617.0,2904.0,0.0,1.0,0.0,?,0.0,0.0
2100000.0,8.34375,1.9573496602889564E-7,2100000.0,73.4,38.00025172830125,38.850574712643684,26.72176308539944,209517.0,2904.0,0.0,1.0,0.0,?,0.0,0.0
2200000.0,8.75,2.1054105470991797E-7,2200000.0,76.4,44.96088958128298,50.10570824524313,33.89355742296919,219517.0,2904.0,0.0,1.0,0.0,?,0.0,0.0
2300000.0,9.15625,2.2374966647475957E-7,2300000.0,75.1,44.19692881410631,46.56652360515021,35.65891472868217,229517.0,2904.0,0.0,1.0,0.0,?,0.0,0.0
2400000.0,9.5625,2.3536080132342045E-7,2400000.0,74.7,42.999531379546525,44.88017429193899,33.24538258575198,239517.0,2904.0,0.0,1.0,0.0,?,0.0,0.0
2500000.0,9.96875,2.453744592559006E-7,2500000.0,71.8,38.60489419141339,42.33128834355828,31.21951219512195,249517.0,2904.0,0.0,1.0,0.0,?,0.0,0.0
2600000.0,10.328125,2.5281954246262704E-7,2600000.0,71.6,33.69443406798655,36.60714285714285,21.1111111111111,259517.0,2904.0,0.0,1.0,0.0,?,0.0,0.0
2700000.0,10.734375,2.5963824656274577E-7,2700000.0,71.6,34.868360700853124,39.316239316239304,23.243243243243235,269517.0,2904.0,0.0,1.0,0.0,?,0.0,0.0
2800000.0,11.109375,2.644578408863809E-7,2800000.0,74.1,41.241594598764024,42.95154185022026,29.810298102981026,279517.0,2904.0,0.0,1.0,0.0,?,0.0,0.0
2900000.0,11.515625,2.680815911541382E-7,2900000.0,75.8,45.64436138862934,46.57836644591612,34.946236559139784,289517.0,2904.0,0.0,1.0,0.0,?,0.0,0.0
3000000.0,11.90625,2.7002993091526955E-7,3000000.0,75.1,43.05343371785606,48.23284823284823,33.42245989304813,299517.0,2904.0,0.0,1.0,0.0,?,0.0,0.0
3100000.0,12.3125,2.864494712816344E-7,3100000.0,73.7,39.08427216128076,44.63157894736842,26.12359550561797,309417.0,2904.0,0.0,1.0,0.0,?,0.0,0.0
3200000.0,12.734375,3.0184161409528717E-7,3200000.0,72.2,38.2921577767419,38.08463251670378,30.32581453634085,319417.0,2904.0,0.0,1.0,0.0,?,0.0,0.0
3300000.0,13.140625,3.150662006292906E-7,3300000.0,74.5,42.81947097919974,46.87499999999999,33.246073298429316,329417.0,2904.0,0.0,1.0,0.0,?,0.0,0.0
3400000.0,13.53125,3.2624611372335087E-7,3400000.0,75.2,41.94077022123376,46.086956521739125,28.1159420289855,339417.0,2904.0,0.0,1.0,0.0,?,0.0,0.0
3500000.0,13.921875,3.3588999132108355E-7,3500000.0,73.1,37.82934270130349,39.5505617977528,26.90217391304347,349417.0,2904.0,0.0,1.0,0.0,?,0.0,0.0
3600000.0,14.3125,3.4399783342248864E-7,3600000.0,73.6,40.92400230933445,46.774193548387096,31.070496083550914,359417.0,2904.0,0.0,1.0,0.0,?,0.0,0.0
3700000.0,14.71875,3.5083251229176916E-7,3700000.0,72.39999999999999,36.89409182366928,41.02564102564102,28.124999999999993,369417.0,2904.0,0.0,1.0,0.0,?,0.0,0.0
3800000.0,15.125,3.5606971424486897E-7,3800000.0,72.3,37.18137121500752,42.76859504132231,26.912928759894456,379417.0,2904.0,0.0,1.0,0.0,?,0.0,0.0
3900000.0,15.53125,3.597094392817881E-7,3900000.0,70.5,34.585159035674366,38.1551362683438,24.744897959183664,389417.0,2904.0,0.0,1.0,0.0,?,0.0,0.0
4000000.0,15.90625,3.615945913932389E-7,4000000.0,73.0,38.25042881646655,43.514644351464426,27.999999999999996,399417.0,2904.0,0.0,1.0,0.0,?,0.0,0.0
4100000.0,16.3125,3.780301065287655E-7,4100000.0,75.2,41.87000445350772,48.760330578512395,30.140845070422532,409317.0,2904.0,0.0,1.0,0.0,?,0.0,0.0
4200000.0,16.71875,3.9286814474811145E-7,4200000.0,74.9,43.479670695898115,46.595744680851055,34.63541666666667,419317.0,2904.0,0.0,1.0,0.0,?,0.0,0.0
4300000.0,17.109375,4.0559945369346265E-7,4300000.0,72.8,40.52954938015174,44.939271255060724,34.14043583535109,429317.0,2904.0,0.0,1.0,0.0,?,0.0,0.0
4400000.0,17.515625,4.1724253808044716E-7,4400000.0,72.1,38.364879910927314,44.53280318091451,30.769230769230766,439317.0,2904.0,0.0,1.0,0.0,?,0.0,0.0
4500000.0,17.90625,4.269017760331431E-7,4500000.0,73.7,41.48481720123882,46.435845213849284,33.58585858585859,449317.0,2904.0,0.0,1.0,0.0,?,0.0,0.0
4600000.0,18.296875,4.3502497848951145E-7,4600000.0,72.7,39.41465233331262,43.71134020618556,30.710659898477154,459317.0,2904.0,0.0,1.0,0.0,?,0.0,0.0
4700000.0,18.703125,4.418756321279538E-7,4700000.0,75.6,44.06825506709517,48.52320675105485,34.584450402144775,469317.0,2904.0,0.0,1.0,0.0,?,0.0,0.0
4800000.0,19.109375,4.471288088502155E-7,4800000.0,75.0,44.472825000555275,47.58909853249476,36.708860759493675,479317.0,2904.0,0.0,1.0,0.0,?,0.0,0.0
4900000.0,19.515625,4.507845086562964E-7,4900000.0,75.4,42.65199552405819,45.69536423841059,30.11363636363636,489317.0,2904.0,0.0,1.0,0.0,?,0.0,0.0
5000000.0,19.890625,4.5290870022856516E-7,5000000.0,72.89999999999999,39.27524670831503,43.892339544513455,30.334190231362467,499317.0,2904.0,0.0,1.0,0.0,?,0.0,0.0
5100000.0,20.296875,4.693845726756585E-7,5100000.0,64.5,28.82576547388006,29.000000000000004,26.501035196687372,6241.0,2904.0,0.0,1.0,0.0,?,1.0,6.0
5200000.0,20.703125,4.842629682065711E-7,5200000.0,67.80000000000001,35.411919509612,36.98630136986302,32.06751054852322,16241.0,2904.0,0.0,1.0,0.0,?,0.0,0.0
5300000.0,21.09375,4.970330822591979E-7,5300000.0,67.0,33.60267842771142,35.166994106090385,29.93630573248408,26241.0,2904.0,0.0,1.0,0.0,?,0.0,0.0
5400000.0,21.484375,5.082671608154971E-7,5400000.0,68.60000000000001,36.96171528377266,38.43137254901962,33.61522198731502,36241.0,2904.0,0.0,1.0,0.0,?,0.0,0.0
5500000.0,21.890625,5.183531255978676E-7,5500000.0,67.60000000000001,35.20077759066891,38.049713193116645,35.32934131736528,46241.0,2904.0,0.0,1.0,0.0,?,0.0,0.0
5600000.0,22.28125,5.265151331615116E-7,5600000.0,68.2,36.142783130449466,39.19694072657745,33.887733887733894,56241.0,2904.0,0.0,1.0,0.0,?,0.0,0.0
5700000.0,22.65625,5.331391649734642E-7,5700000.0,66.2,32.32637109174783,31.717171717171723,31.300813008130085,66241.0,2904.0,0.0,1.0,0.0,?,0.0,7.0
5800000.0,23.0625,5.387177225202321E-7,5800000.0,67.7,34.99959752072769,33.40206185567011,31.567796610169495,76241.0,2904.0,0.0,1.0,0.0,?,0.0,0.0
5900000.0,23.46875,5.426988031508193E-7,5900000.0,70.0,39.266091449070544,41.74757281553397,32.279909706546256,86241.0,2904.0,0.0,1.0,0.0,?,0.0,0.0
6000000.0,23.875,5.450824068652258E-7,6000000.0,66.7,33.342407840374094,32.59109311740892,32.17922606924644,96241.0,2904.0,0.0,1.0,0.0,?,0.0,0.0
6100000.0,24.28125,5.618508698211775E-7,6100000.0,66.60000000000001,33.09294871794872,31.697341513292436,25.77777777777778,42802.0,2904.0,0.0,1.0,0.0,?,1.0,15.0
6200000.0,24.6875,5.770218558609484E-7,6200000.0,69.69999999999999,39.317471761595755,40.23668639053253,35.53191489361701,52802.0,2904.0,0.0,1.0,0.0,?,0.0,0.0
6300000.0,25.078125,5.900733069413237E-7,6300000.0,67.0,33.92467412850651,36.2934362934363,32.2381930184805,62802.0,2904.0,0.0,1.0,0.0,?,0.0,0.0
6400000.0,25.484375,6.020493391487332E-7,6400000.0,68.60000000000001,36.48661768989289,35.91836734693879,33.75527426160338,72802.0,2904.0,0.0,1.0,0.0,?,0.0,0.0
6500000.0,25.890625,6.124278944399621E-7,6500000.0,68.5,36.50422498871186,35.58282208588958,32.6923076923077,82802.0,2904.0,0.0,1.0,0.0,?,0.0,0.0
6600000.0,26.296875,6.212156990336046E-7,6600000.0,68.0,35.51715243745165,37.98449612403102,32.77310924369748,92802.0,2904.0,0.0,1.0,0.0,?,0.0,53.0
6700000.0,26.703125,6.283942558285261E-7,6700000.0,68.4,36.49594257303973,36.67334669338678,34.30353430353431,102802.0,2904.0,0.0,1.0,0.0,?,0.0,28.0
6800000.0,27.109375,6.33975335707267E-7,6800000.0,67.9,35.06178234166,37.181996086105684,31.84713375796179,112802.0,2904.0,0.0,1.0,0.0,?,0.0,0.0
6900000.0,27.5,6.378057231712671E-7,6900000.0,67.10000000000001,34.20000000000001,29.550321199143475,34.592445328031815,122802.0,2904.0,0.0,1.0,0.0,?,0.0,0.0
7000000.0,27.90625,6.401918492176465E-7,7000000.0,66.60000000000001,32.16538647450922,29.386892177589857,28.784648187633266,132802.0,2904.0,0.0,1.0,0.0,?,0.0,0.0
7100000.0,28.296875,6.563258810072307E-7,7100000.0,68.5,36.299292214357955,37.12574850299402,33.6842105263158,142702.0,2904.0,0.0,1.0,0.0,?,0.0,0.0
7200000.0,28.703125,6.715077971522177E-7,7200000.0,69.19999999999999,38.14391581145943,36.231884057971,37.01431492842534,152702.0,2904.0,0.0,1.0,0.0,?,0.0,0.0
7300000.0,29.125,6.856147148129011E-7,7300000.0,68.10000000000001,34.97651816580785,33.123689727463315,29.268292682926834,162702.0,2904.0,0.0,1.0,0.0,?,0.0,0.0
7400000.0,29.53125,6.976016771255266E-7,7400000.0,69.6,38.51008313274944,39.68253968253968,34.9036402569593,172702.0,2904.0,0.0,1.0,0.0,?,0.0,0.0
7500000.0,29.90625,7.071919713376295E-7,7500000.0,66.60000000000001,32.91744829220679,35.76923076923078,31.416837782340867,182702.0,2904.0,0.0,1.0,0.0,?,0.0,0.0
7600000.0,30.3125,7.159839798178937E-7,7600000.0,67.60000000000001,34.65765856609863,33.470225872689944,31.789473684210535,192702.0,2904.0,0.0,1.0,0.0,?,0.0,0.0
7700000.0,30.703125,7.229017986295123E-7,7700000.0,67.80000000000001,35.27377985044626,32.352941176470594,33.744855967078195,202702.0,2904.0,0.0,1.0,0.0,?,0.0,0.0
7800000.0,31.109375,7.284988532774149E-7,7800000.0,69.1,37.97920597326481,42.98892988929887,36.93877551020407,212702.0,2904.0,0.0,1.0,0.0,?,0.0,0.0
7900000.0,31.53125,7.326522609218953E-7,7900000.0,71.2,41.770892725000905,43.85964912280701,37.79697624190064,222702.0,2904.0,0.0,1.0,0.0,?,0.0,0.0
8000000.0,31.921875,7.349619732445311E-7,8000000.0,66.4,32.877325321229954,32.800000000000004,33.33333333333334,232702.0,2904.0,0.0,1.0,0.0,?,0.0,0.0
8100000.0,32.296875,7.504653897032967E-7,8100000.0,70.6,41.21716458794032,41.31736526946107,39.99999999999999,242602.0,2904.0,0.0,1.0,0.0,?,0.0,0.0
8200000.0,32.703125,7.656632806174454E-7,8200000.0,69.8,38.81883893552882,38.74239350912778,34.06113537117903,252602.0,2904.0,0.0,1.0,0.0,?,0.0,0.0
8300000.0,33.125,7.797867874614891E-7,8300000.0,68.0,35.13233004670473,34.826883910386975,30.73593073593074,262602.0,2904.0,0.0,1.0,0.0,?,0.0,0.0
8400000.0,33.53125,7.917897245432764E-7,8400000.0,66.9,33.392361250855245,29.723991507431002,28.96995708154507,272602.0,2904.0,0.0,1.0,0.0,?,0.0,0.0
8500000.0,33.921875,8.017949747025135E-7,8500000.0,66.5,31.46032473484353,30.641821946169777,25.88495575221239,282602.0,2904.0,0.0,1.0,0.0,?,0.0,0.0
8600000.0,34.3125,8.10264189365423E-7,8600000.0,68.5,36.529301298429154,34.64730290456433,34.375000000000014,292602.0,2904.0,0.0,1.0,0.0,?,0.0,0.0
8700000.0,34.71875,8.174746956986683E-7,8700000.0,67.0,33.8849598301044,33.73493975903615,33.06288032454362,302602.0,2904.0,0.0,1.0,0.0,?,0.0,0.0
8800000.0,35.109375,8.228718393689226E-7,8800000.0,68.60000000000001,37.146448774355754,36.437246963562764,36.820925553319924,312602.0,2904.0,0.0,1.0,0.0,?,0.0,0.0
8900000.0,35.515625,8.268873918698062E-7,8900000.0,66.3,31.139045999934613,31.083844580777104,24.94432071269488,322602.0,2904.0,0.0,1.0,0.0,?,0.0,0.0
9000000.0,35.921875,8.293054674545093E-7,9000000.0,67.80000000000001,35.28028460595342,35.85657370517929,33.88090349075976,332602.0,2904.0,0.0,1.0,0.0,?,0.0,0.0
9100000.0,36.3125,8.454702199540202E-7,9100000.0,69.0,36.61646418012373,38.6138613861386,30.95768374164809,342502.0,2904.0,0.0,1.0,0.0,?,0.0,0.0
9200000.0,36.734375,8.61269234317458E-7,9200000.0,66.2,31.29299269835591,33.85518590998044,26.83982683982684,352502.0,2904.0,0.0,1.0,0.0,?,0.0,0.0
9300000.0,37.125,8.743619158243136E-7,9300000.0,67.80000000000001,35.261026735989645,31.779661016949156,33.33333333333334,362502.0,2904.0,0.0,1.0,0.0,?,0.0,0.0
9400000.0,37.53125,8.863808276752627E-7,9400000.0,69.1,37.68402371637154,40.69097888675623,34.25531914893615,372502.0,2904.0,0.0,1.0,0.0,?,0.0,0.0
9500000.0,37.9375,8.968022626100311E-7,9500000.0,67.0,33.20189625647234,27.1523178807947,29.93630573248408,382502.0,2904.0,0.0,1.0,0.0,?,0.0,0.0
9600000.0,38.34375,9.056262206286188E-7,9600000.0,68.60000000000001,37.05901218729956,40.190476190476204,36.178861788617894,392502.0,2904.0,0.0,1.0,0.0,?,0.0,0.0
9700000.0,38.75,9.128527017310258E-7,9700000.0,68.89999999999999,37.7511969383997,37.67535070140279,35.4771784232365,402502.0,2904.0,0.0,1.0,0.0,?,0.0,0.0
9800000.0,39.140625,9.182652057562434E-7,9800000.0,68.2,35.596241088788084,36.27254509018037,30.869565217391308,412502.0,2904.0,0.0,1.0,0.0,?,0.0,0.0
9900000.0,39.53125,9.221416742851333E-7,9900000.0,69.3,38.26663985521817,40.039062499999986,36.3070539419087,422502.0,2904.0,0.0,1.0,0.0,?,0.0,0.0
1.0E7,39.9375,9.245757246389982E-7,1.0E7,66.4,32.15547703180212,33.46534653465347,29.263157894736846,432502.0,2904.0,0.0,1.0,0.0,?,0.0,0.0
