learning evaluation instances,evaluation time (cpu seconds),model cost (RAM-Hours),classified instances,classifications correct (percent),Kappa Statistic (percent),Kappa Temporal Statistic (percent),Kappa M Statistic (percent),model training instances,model serialized size (bytes),labeling cost,newThreshold,maxPosterior,accuracyBaseLearner (percent),Change detected,Warning detected,tree size (nodes),tree size (leaves),active learning leaves,tree depth,active leaf byte size estimate,inactive leaf byte size estimate,byte size estimate overhead
100000.0,0.390625,2.998341288831499E-8,100000.0,76.2,52.396191695335624,50.82644628099173,51.91919191919192,29700.0,111344.0,0.0,1.0,0.0,?,0.0,23.0,41.0,30.0,30.0,3.0,0.0,0.0,1.0
200000.0,0.8125,7.261761412438419E-8,200000.0,79.60000000000001,59.28550044905698,56.59574468085107,57.50000000000001,59700.0,220208.0,0.0,1.0,0.0,?,0.0,0.0,93.0,68.0,68.0,4.0,0.0,0.0,1.0
300000.0,1.234375,1.6481156409200696E-7,300000.0,80.7,61.47335473258916,61.85770750988143,60.61224489795919,89700.0,688208.0,0.0,1.0,0.0,?,0.0,0.0,261.0,194.0,194.0,5.0,0.0,0.0,1.0
400000.0,1.671875,2.96274213016861E-7,400000.0,86.6,73.33216578636278,73.2,72.02505219206681,119700.0,1019080.0,0.0,1.0,0.0,?,0.0,0.0,401.0,291.0,291.0,6.0,0.0,0.0,1.0
500000.0,2.09375,4.404525518313878E-7,500000.0,86.5,73.00323961124666,72.67206477732793,71.27659574468085,149700.0,1193112.0,0.0,1.0,0.0,?,0.0,0.0,488.0,345.0,345.0,7.0,0.0,0.0,1.0
600000.0,2.546875,6.15566095802933E-7,600000.0,89.60000000000001,79.20665387076137,79.76653696498055,78.77551020408163,179700.0,1380312.0,0.0,1.0,0.0,?,0.0,0.0,561.0,389.0,389.0,7.0,0.0,0.0,1.0
700000.0,2.984375,7.976426341984836E-7,700000.0,91.0,81.99848787298134,81.9277108433735,81.21085594989562,209700.0,1509872.0,0.0,1.0,0.0,?,0.0,0.0,635.0,435.0,435.0,7.0,0.0,0.0,1.0
800000.0,3.4375,1.0020180424261426E-6,800000.0,91.5,82.98747878438532,83.74760994263863,83.0,239700.0,1658984.0,0.0,1.0,0.0,?,0.0,0.0,723.0,482.0,482.0,7.0,0.0,0.0,1.0
900000.0,3.890625,1.2142005531738204E-6,900000.0,91.0,81.94105560549633,81.89134808853119,80.9725158562368,269700.0,1740320.0,0.0,1.0,0.0,?,0.0,0.0,770.0,507.0,507.0,7.0,0.0,0.0,1.0
1000000.0,4.359375,1.447833492420614E-6,1000000.0,93.10000000000001,86.15514266222563,86.06060606060608,84.83516483516485,299700.0,1871496.0,0.0,1.0,0.0,?,0.0,0.0,834.0,545.0,545.0,7.0,0.0,0.0,1.0
1100000.0,4.796875,1.6930245975446372E-6,1100000.0,94.0,87.99226701996085,87.1244635193133,87.42138364779873,329400.0,1973776.0,0.0,1.0,0.0,?,0.0,0.0,886.0,574.0,574.0,8.0,0.0,0.0,1.0
1200000.0,5.265625,1.9655596568352648E-6,1200000.0,93.8,87.57549888379884,87.6,86.83651804670912,359400.0,2069488.0,0.0,1.0,0.0,?,0.0,0.0,943.0,604.0,604.0,8.0,0.0,0.0,1.0
1300000.0,5.734375,2.2495160293247967E-6,1300000.0,94.1,88.17218096964059,88.7189292543021,87.49999999999999,389400.0,2178400.0,0.0,1.0,0.0,?,0.0,0.0,1005.0,641.0,641.0,8.0,0.0,0.0,1.0
1400000.0,6.171875,2.521055802288983E-6,1400000.0,93.60000000000001,87.1881618615601,87.20000000000002,87.42632612966602,419400.0,2250736.0,0.0,1.0,0.0,?,0.0,0.0,1041.0,659.0,659.0,8.0,0.0,0.0,1.0
1500000.0,6.625,2.812519087456167E-6,1500000.0,94.3,88.58767468866374,89.12213740458014,87.8723404255319,449400.0,2352736.0,0.0,1.0,0.0,?,0.0,0.0,1100.0,696.0,696.0,8.0,0.0,0.0,1.0
1600000.0,7.125,3.1414580815989114E-6,1600000.0,94.89999999999999,89.78938095619444,89.86083499005963,89.3528183716075,479400.0,2424160.0,0.0,1.0,0.0,?,0.0,0.0,1139.0,717.0,717.0,8.0,0.0,0.0,1.0
1700000.0,7.59375,3.4647841756749486E-6,1700000.0,93.8,87.60381802404858,87.19008264462809,87.49999999999999,509400.0,2562016.0,0.0,1.0,0.0,?,0.0,0.0,1202.0,756.0,756.0,8.0,0.0,0.0,1.0
1800000.0,8.078125,3.805495054823243E-6,1800000.0,93.8,87.55235039732094,87.89062499999999,87.4493927125506,539400.0,2629480.0,0.0,1.0,0.0,?,0.0,0.0,1254.0,782.0,782.0,9.0,0.0,0.0,1.0
1900000.0,8.5625,4.153854743991461E-6,1900000.0,94.89999999999999,89.76725521669341,90.11627906976743,89.1025641025641,569400.0,2705288.0,0.0,1.0,0.0,?,0.0,0.0,1312.0,814.0,814.0,9.0,0.0,0.0,1.0
2000000.0,9.046875,4.512424541947743E-6,2000000.0,95.19999999999999,90.39758019020793,90.3030303030303,90.38076152304609,599400.0,2801472.0,0.0,1.0,0.0,?,0.0,0.0,1355.0,837.0,837.0,9.0,0.0,0.0,1.0
2100000.0,9.53125,4.897986719798711E-6,2100000.0,94.69999999999999,89.39312674613149,88.91213389121337,89.00414937759335,629100.0,2880672.0,0.0,1.0,0.0,?,0.0,0.0,1396.0,862.0,862.0,9.0,0.0,0.0,1.0
2200000.0,10.03125,5.305001589780053E-6,2200000.0,94.1,88.18610686166932,88.3168316831683,87.68267223382044,659100.0,2965064.0,0.0,1.0,0.0,?,0.0,0.0,1445.0,888.0,888.0,9.0,0.0,0.0,1.0
2300000.0,10.53125,5.718991031042404E-6,2300000.0,94.6,89.1731059952923,89.41176470588235,88.58350951374206,689100.0,3033904.0,0.0,1.0,0.0,?,0.0,0.0,1484.0,912.0,912.0,9.0,0.0,0.0,1.0
2400000.0,11.03125,6.14403423646258E-6,2400000.0,95.89999999999999,91.78685897435896,91.75050301810865,91.40461215932913,719100.0,3134024.0,0.0,1.0,0.0,?,0.0,0.0,1529.0,936.0,936.0,9.0,0.0,0.0,1.0
2500000.0,11.515625,6.560457307690134E-6,2500000.0,95.6,91.16164152421509,90.79497907949789,90.53763440860214,749100.0,3186104.0,0.0,1.0,0.0,?,0.0,0.0,1563.0,953.0,953.0,9.0,0.0,0.0,1.0
2600000.0,11.984375,6.969365155479561E-6,2600000.0,97.3,94.56779790598668,94.74708171206225,94.14316702819956,779100.0,3249784.0,0.0,1.0,0.0,?,0.0,0.0,1598.0,972.0,972.0,10.0,0.0,0.0,1.0
2700000.0,12.46875,7.394431482276155E-6,2700000.0,96.0,91.98586306244214,91.64926931106471,91.64926931106471,809100.0,3284904.0,0.0,1.0,0.0,?,0.0,0.0,1626.0,986.0,986.0,10.0,0.0,0.0,1.0
2800000.0,12.96875,7.8396419606482E-6,2800000.0,95.0,90.00095990784884,90.19607843137254,89.99999999999999,839100.0,3349408.0,0.0,1.0,0.0,?,0.0,0.0,1675.0,1012.0,1012.0,10.0,0.0,0.0,1.0
2900000.0,13.53125,8.346182488215466E-6,2900000.0,96.8,93.5923877566549,93.4020618556701,93.23467230443974,869100.0,3403280.0,0.0,1.0,0.0,?,0.0,0.0,1711.0,1030.0,1030.0,10.0,0.0,0.0,1.0
3000000.0,14.03125,8.804996484994061E-6,3000000.0,95.8,91.59677316089378,91.699604743083,91.32231404958677,899100.0,3484200.0,0.0,1.0,0.0,?,0.0,0.0,1752.0,1052.0,1052.0,10.0,0.0,0.0,1.0
3100000.0,14.53125,9.293601421328884E-6,3100000.0,95.3,90.59684053842089,90.58116232464928,90.36885245901638,928800.0,3577184.0,0.0,1.0,0.0,?,0.0,0.0,1791.0,1076.0,1076.0,10.0,0.0,0.0,1.0
3200000.0,15.03125,9.789216112241977E-6,3200000.0,97.1,94.1654125656894,94.08163265306122,94.04517453798768,958800.0,3646200.0,0.0,1.0,0.0,?,0.0,0.0,1821.0,1091.0,1091.0,10.0,0.0,0.0,1.0
3300000.0,15.546875,1.0306415335637415E-5,3300000.0,95.89999999999999,91.79678433946106,91.99218749999999,91.56378600823044,988800.0,3706808.0,0.0,1.0,0.0,?,0.0,0.0,1857.0,1112.0,1112.0,10.0,0.0,0.0,1.0
3400000.0,16.140625,1.0913713388921072E-5,3400000.0,97.2,94.39991039856636,94.49901768172889,94.38877755511021,1018800.0,3797968.0,0.0,1.0,0.0,?,0.0,0.0,1905.0,1139.0,1139.0,10.0,3271.657142857143,0.0,1.0258104237258532
3500000.0,16.6875,1.1479616676095046E-5,3500000.0,96.1,92.19875180028804,92.15291750503017,92.0245398773006,1048800.0,3859160.0,0.0,1.0,0.0,?,0.0,0.0,1936.0,1156.0,1156.0,10.0,3271.657142857143,0.0,1.0258104237258532
3600000.0,17.1875,1.1999680654197518E-5,3600000.0,97.3,94.58114237546663,94.07894736842105,94.16846652267819,1078800.0,3894760.0,0.0,1.0,0.0,?,0.0,0.0,1954.0,1165.0,1165.0,10.0,3271.657142857143,0.0,1.0258104237258532
3700000.0,17.734375,1.2578706211772645E-5,3700000.0,96.5,92.99831959670321,92.92929292929293,92.827868852459,1108800.0,3981648.0,0.0,1.0,0.0,?,0.0,0.0,2007.0,1196.0,1196.0,10.0,3271.657142857143,0.0,1.0258104237258532
3800000.0,18.25,1.3127491725350006E-5,3800000.0,95.39999999999999,90.79484511326342,90.8,90.61224489795917,1138800.0,4017960.0,0.0,1.0,0.0,?,0.0,0.0,2040.0,1214.0,1214.0,10.0,3271.657142857143,0.0,1.0258104237258532
3900000.0,18.78125,1.3699675489786185E-5,3900000.0,96.6,93.19213010239837,93.26732673267327,92.78131634819532,1168800.0,4082064.0,0.0,1.0,0.0,?,0.0,0.0,2077.0,1234.0,1234.0,10.0,3271.657142857143,0.0,1.0258104237258532
4000000.0,19.34375,1.4317063194337406E-5,4000000.0,97.2,94.37262846485304,94.45544554455445,93.81898454746135,1198800.0,4176184.0,0.0,1.0,0.0,?,0.0,0.0,2117.0,1257.0,1257.0,10.0,3271.657142857143,0.0,1.0258104237258532
4100000.0,19.921875,1.4982030908059745E-5,4100000.0,96.5,92.99647022099138,92.88617886178862,92.69311064718163,1228500.0,4242336.0,0.0,1.0,0.0,?,0.0,0.0,2151.0,1274.0,1274.0,10.0,3271.657142857143,0.0,1.0258104237258532
4200000.0,20.453125,1.5596843635042512E-5,4200000.0,97.5,94.99727851951462,95.03968253968253,94.95967741935483,1258500.0,4284640.0,0.0,1.0,0.0,?,0.0,0.0,2177.0,1287.0,1287.0,10.0,3271.657142857143,0.0,1.0258104237258532
4300000.0,20.984375,1.6216094954870645E-5,4300000.0,97.39999999999999,94.7516310315871,94.8,94.24778761061945,1288500.0,4331872.0,0.0,1.0,0.0,?,0.0,0.0,2199.0,1298.0,1298.0,10.0,3271.657142857143,0.0,1.0258104237258532
4400000.0,21.515625,1.6835226431592474E-5,4400000.0,95.8,91.57725859821517,91.39344262295081,91.12050739957715,1318500.0,4346112.0,0.0,1.0,0.0,?,0.0,0.0,2220.0,1310.0,1310.0,10.0,3271.657142857143,0.0,1.0258104237258532
4500000.0,22.046875,1.74568867078051E-5,4500000.0,96.7,93.39524457609478,93.39999999999999,93.12499999999999,1348500.0,4379504.0,0.0,1.0,0.0,?,0.0,0.0,2255.0,1329.0,1329.0,10.0,3271.657142857143,0.0,1.0258104237258532
4600000.0,22.625,1.8137064212674484E-5,4600000.0,98.3,96.59534242844211,96.62027833001989,96.71179883945841,1378500.0,4418960.0,0.0,1.0,0.0,?,0.0,0.0,2288.0,1347.0,1347.0,10.0,3271.657142857143,0.0,1.0258104237258532
4700000.0,23.1875,1.880358616795598E-5,4700000.0,97.3,94.59922228800947,94.77756286266924,94.50101832993889,1408500.0,4466360.0,0.0,1.0,0.0,?,0.0,0.0,2323.0,1366.0,1366.0,10.0,3271.657142857143,0.0,1.0258104237258532
4800000.0,23.765625,1.949517101618565E-5,4800000.0,96.8,93.57728929494694,93.30543933054393,93.08855291576673,1438500.0,4524960.0,0.0,1.0,0.0,?,0.0,0.0,2359.0,1384.0,1384.0,10.0,3271.657142857143,0.0,1.0258104237258532
4900000.0,24.296875,2.013295733680328E-5,4900000.0,96.8,93.59961597695862,93.62549800796812,93.62549800796812,1468500.0,4556552.0,0.0,1.0,0.0,?,0.0,0.0,2384.0,1398.0,1398.0,10.0,3271.657142857143,0.0,1.0258104237258532
5000000.0,24.84375,2.079531055642292E-5,5000000.0,97.7,95.39756991691613,95.28688524590163,95.29652351738241,1498500.0,4610280.0,0.0,1.0,0.0,?,0.0,0.0,2410.0,1411.0,1411.0,10.0,3271.657142857143,0.0,1.0258104237258532
5100000.0,25.4375,2.0847679536220515E-5,5100000.0,87.9,75.37146346427845,74.2004264392324,73.1111111111111,28756.0,153512.0,0.0,1.0,0.0,?,1.0,3.0,63.0,47.0,47.0,3.0,0.0,0.0,1.0
5200000.0,25.890625,2.0910052893062432E-5,5200000.0,87.0,73.48897345226587,73.57723577235772,70.3872437357631,58756.0,359264.0,0.0,1.0,0.0,?,0.0,0.0,156.0,113.0,113.0,4.0,0.0,0.0,1.0
5300000.0,26.234375,2.0970161357480617E-5,5300000.0,87.1,73.76128874786428,72.95597484276729,71.71052631578947,88756.0,517760.0,0.0,1.0,0.0,?,0.0,0.0,222.0,158.0,158.0,5.0,0.0,0.0,1.0
5400000.0,26.578125,2.103725105472323E-5,5400000.0,90.4,80.09331259720062,80.0,77.62237762237764,118756.0,611024.0,0.0,1.0,0.0,?,0.0,0.0,262.0,181.0,181.0,6.0,0.0,0.0,1.0
5500000.0,26.984375,2.112548559024516E-5,5500000.0,90.0,79.85040943968019,78.72340425531915,78.63247863247864,148756.0,710904.0,0.0,1.0,0.0,?,0.0,0.0,318.0,215.0,215.0,6.0,0.0,0.0,1.0
5600000.0,27.3125,2.120012158734931E-5,5600000.0,91.0,81.72959805115714,81.78137651821864,80.0,178756.0,765480.0,0.0,1.0,0.0,?,0.0,0.0,357.0,236.0,236.0,7.0,0.0,0.0,1.0
5700000.0,27.6875,2.1288002737694318E-5,5700000.0,92.80000000000001,85.28768702006188,85.15463917525774,83.5990888382688,208756.0,807088.0,0.0,1.0,0.0,?,0.0,0.0,386.0,252.0,252.0,7.0,0.0,0.0,1.0
5800000.0,28.03125,2.1375627774331306E-5,5800000.0,94.39999999999999,88.61418347430057,88.13559322033898,87.27272727272725,238756.0,901208.0,0.0,1.0,0.0,?,0.0,0.0,443.0,282.0,282.0,7.0,0.0,0.0,1.0
5900000.0,28.375,2.1464502788148822E-5,5900000.0,93.89999999999999,87.57809509070026,87.65182186234817,86.19909502262442,268756.0,930336.0,0.0,1.0,0.0,?,0.0,0.0,469.0,298.0,298.0,8.0,0.0,0.0,1.0
6000000.0,28.734375,2.1562598639219587E-5,6000000.0,95.3,90.48914143253765,90.56224899598394,89.62472406181014,298756.0,1000920.0,0.0,1.0,0.0,?,0.0,0.0,509.0,321.0,321.0,9.0,0.0,0.0,1.0
6100000.0,29.109375,2.1684959679583296E-5,6100000.0,96.6,93.11272444415634,93.18637274549097,92.47787610619469,328456.0,1069744.0,0.0,1.0,0.0,?,0.0,0.0,552.0,344.0,344.0,9.0,0.0,0.0,1.0
6200000.0,29.46875,2.1808073539028154E-5,6200000.0,95.39999999999999,90.7272646640246,90.51546391752576,90.06479481641468,358456.0,1147472.0,0.0,1.0,0.0,?,0.0,0.0,607.0,376.0,376.0,9.0,0.0,0.0,1.0
6300000.0,29.828125,2.1933374066267993E-5,6300000.0,95.19999999999999,90.35012946909629,90.66147859922178,89.61038961038959,388456.0,1186032.0,0.0,1.0,0.0,?,0.0,0.0,626.0,387.0,387.0,9.0,0.0,0.0,1.0
6400000.0,30.1875,2.206210929822798E-5,6400000.0,96.3,92.47906333848279,92.570281124498,91.59090909090908,418456.0,1237880.0,0.0,1.0,0.0,?,0.0,0.0,659.0,405.0,405.0,9.0,0.0,0.0,1.0
6500000.0,30.546875,2.2192297846130616E-5,6500000.0,97.39999999999999,94.72676531671858,94.6938775510204,94.14414414414414,448456.0,1268512.0,0.0,1.0,0.0,?,0.0,0.0,681.0,416.0,416.0,9.0,0.0,0.0,1.0
6600000.0,30.890625,2.2317888182846626E-5,6600000.0,97.1,93.99903984637541,93.46846846846846,92.90953545232273,478456.0,1295600.0,0.0,1.0,0.0,?,0.0,0.0,704.0,432.0,432.0,9.0,0.0,0.0,1.0
6700000.0,31.234375,2.2445502529282956E-5,6700000.0,96.5,92.88415402756881,92.40780911062906,92.13483146067415,508456.0,1333312.0,0.0,1.0,0.0,?,0.0,0.0,726.0,443.0,443.0,9.0,0.0,0.0,1.0
6800000.0,31.578125,2.2573600646056654E-5,6800000.0,96.89999999999999,93.68496532842255,93.66053169734151,92.85714285714285,538456.0,1353816.0,0.0,1.0,0.0,?,0.0,0.0,740.0,450.0,450.0,9.0,0.0,0.0,1.0
6900000.0,31.9375,2.2708762747546042E-5,6900000.0,97.7,95.31201591468684,95.18828451882845,94.66357308584686,568456.0,1382168.0,0.0,1.0,0.0,?,0.0,0.0,762.0,461.0,461.0,9.0,0.0,0.0,1.0
7000000.0,32.296875,2.2845573031291785E-5,7000000.0,97.7,95.340545358778,95.39999999999999,94.8314606741573,598456.0,1414912.0,0.0,1.0,0.0,?,0.0,0.0,791.0,477.0,477.0,9.0,0.0,0.0,1.0
7100000.0,32.640625,2.299236744875089E-5,7100000.0,96.8,93.47215875709902,93.86973180076627,92.59259259259258,628156.0,1456888.0,0.0,1.0,0.0,?,0.0,0.0,809.0,486.0,486.0,9.0,0.0,0.0,1.0
7200000.0,33.015625,2.3153826963001247E-5,7200000.0,97.7,95.3343070431678,95.38152610441767,94.8314606741573,658156.0,1485560.0,0.0,1.0,0.0,?,0.0,0.0,826.0,496.0,496.0,9.0,0.0,0.0,1.0
7300000.0,33.375,2.330911458961459E-5,7300000.0,97.7,95.3755830786553,95.34412955465586,95.07494646680942,688156.0,1506664.0,0.0,1.0,0.0,?,0.0,0.0,835.0,502.0,502.0,9.0,0.0,0.0,1.0
7400000.0,33.71875,2.345889700033392E-5,7400000.0,97.89999999999999,95.71760675394592,95.76612903225806,95.17241379310344,718156.0,1535728.0,0.0,1.0,0.0,?,0.0,0.0,856.0,514.0,514.0,9.0,0.0,0.0,1.0
7500000.0,34.078125,2.361932032120725E-5,7500000.0,97.2,94.331983805668,94.15448851774529,93.77777777777777,748156.0,1591880.0,0.0,1.0,0.0,?,0.0,0.0,886.0,532.0,532.0,9.0,0.0,0.0,1.0
7600000.0,34.421875,2.3772556709850005E-5,7600000.0,97.5,94.91058923162112,94.8559670781893,94.30523917995444,778156.0,1604616.0,0.0,1.0,0.0,?,0.0,0.0,894.0,536.0,536.0,9.0,0.0,0.0,1.0
7700000.0,34.78125,2.3933617436947926E-5,7700000.0,96.39999999999999,92.69833156876346,92.5311203319502,91.83673469387755,808156.0,1628968.0,0.0,1.0,0.0,?,0.0,0.0,914.0,549.0,549.0,9.0,0.0,0.0,1.0
7800000.0,35.1875,2.411718350938625E-5,7800000.0,98.0,95.91287892721245,95.8592132505176,95.31615925058547,838156.0,1658280.0,0.0,1.0,0.0,?,0.0,0.0,920.0,552.0,552.0,9.0,0.0,0.0,1.0
7900000.0,35.515625,2.426529765620621E-5,7900000.0,97.3,94.57290795651893,94.76744186046511,94.23076923076923,868156.0,1671624.0,0.0,1.0,0.0,?,0.0,0.0,928.0,556.0,556.0,9.0,0.0,0.0,1.0
8000000.0,35.859375,2.442251945871653E-5,8000000.0,97.6,95.13549668605711,94.81641468682504,94.65478841870824,898156.0,1709792.0,0.0,1.0,0.0,?,0.0,0.0,944.0,567.0,567.0,9.0,0.0,0.0,1.0
8100000.0,36.234375,2.4609503420328516E-5,8100000.0,97.3,94.55583694933298,94.7265625,94.14316702819956,927856.0,1732136.0,0.0,1.0,0.0,?,0.0,0.0,960.0,575.0,575.0,9.0,0.0,0.0,1.0
8200000.0,36.578125,2.4781190667353158E-5,8200000.0,98.2,96.35091247460844,96.3855421686747,95.93679458239276,957856.0,1750456.0,0.0,1.0,0.0,?,0.0,0.0,966.0,578.0,578.0,9.0,0.0,0.0,1.0
8300000.0,36.9375,2.4960005054405582E-5,8300000.0,98.2,96.31943990054307,96.39999999999999,95.79439252336448,987856.0,1758320.0,0.0,1.0,0.0,?,0.0,0.0,972.0,581.0,581.0,9.0,0.0,0.0,1.0
8400000.0,37.328125,2.515402331482619E-5,8400000.0,98.4,96.7263962942806,96.72131147540983,96.2174940898345,1017856.0,1770016.0,0.0,1.0,0.0,?,0.0,0.0,982.0,586.0,586.0,9.0,2938.0445969125212,0.0,1.0288636682079306
8500000.0,37.671875,2.5325209717266264E-5,8500000.0,97.6,95.13973268529769,95.30332681017613,94.66666666666667,1047856.0,1790208.0,0.0,1.0,0.0,?,0.0,0.0,991.0,592.0,592.0,9.0,2938.0445969125212,0.0,1.0288636682079306
8600000.0,38.03125,2.550519925231735E-5,8600000.0,97.39999999999999,94.74333313115383,94.86166007905138,94.23503325942349,1077856.0,1816256.0,0.0,1.0,0.0,?,0.0,0.0,1003.0,598.0,598.0,10.0,2938.0445969125212,0.0,1.0288636682079306
8700000.0,38.40625,2.5691686508556208E-5,8700000.0,97.6,95.15933844292053,95.18072289156626,94.75982532751091,1107856.0,1817752.0,0.0,1.0,0.0,?,0.0,0.0,1007.0,600.0,600.0,10.0,2938.0445969125212,0.0,1.0288636682079306
8800000.0,38.765625,2.587078873249185E-5,8800000.0,96.89999999999999,93.7021055283324,93.4322033898305,92.9864253393665,1137856.0,1836984.0,0.0,1.0,0.0,?,0.0,0.0,1015.0,604.0,604.0,11.0,2938.0445969125212,0.0,1.0288636682079306
8900000.0,39.125,2.6049742203516268E-5,8900000.0,97.6,95.11004437634728,95.26627218934911,94.50800915331807,1167856.0,1850504.0,0.0,1.0,0.0,?,0.0,0.0,1023.0,608.0,608.0,11.0,2938.0445969125212,0.0,1.0288636682079306
9000000.0,39.484375,2.6228027773969292E-5,9000000.0,97.3,94.55109058912801,94.55645161290323,94.07894736842105,1197856.0,1858472.0,0.0,1.0,0.0,?,0.0,0.0,1027.0,610.0,610.0,11.0,2938.0445969125212,0.0,1.0288636682079306
9100000.0,39.84375,2.641990712921446E-5,9100000.0,98.1,96.16437471232811,96.25984251968504,95.84245076586433,1227556.0,1867672.0,0.0,1.0,0.0,?,0.0,0.0,1035.0,614.0,614.0,11.0,2938.0445969125212,0.0,1.0288636682079306
9200000.0,40.203125,2.6612189604849042E-5,9200000.0,98.0,95.97034171502257,96.02385685884691,95.65217391304347,1257556.0,1887136.0,0.0,1.0,0.0,?,0.0,0.0,1044.0,620.0,620.0,12.0,2938.0445969125212,0.0,1.0288636682079306
9300000.0,40.5625,2.680391946341843E-5,9300000.0,97.8,95.59577194106342,95.53752535496956,95.49180327868852,1287556.0,1896352.0,0.0,1.0,0.0,?,0.0,0.0,1057.0,628.0,628.0,12.0,2938.0445969125212,0.0,1.0288636682079306
9400000.0,40.9375,2.7004033521128203E-5,9400000.0,97.7,95.3525964841382,95.49902152641879,94.88888888888889,1317556.0,1911928.0,0.0,1.0,0.0,?,0.0,0.0,1071.0,635.0,635.0,12.0,2938.0445969125212,0.0,1.0288636682079306
9500000.0,41.34375,2.7223808509815074E-5,9500000.0,96.8,93.49000716099212,93.24894514767932,92.66055045871559,1347556.0,1955360.0,0.0,1.0,0.0,?,0.0,0.0,1091.0,648.0,648.0,12.0,2938.0445969125212,0.0,1.0288636682079306
9600000.0,41.703125,2.7418863739714857E-5,9600000.0,98.5,96.98116245371115,96.95740365111561,96.73913043478261,1377556.0,1977304.0,0.0,1.0,0.0,?,0.0,0.0,1103.0,654.0,654.0,13.0,2938.0445969125212,0.0,1.0288636682079306
9700000.0,42.0625,2.761313950435983E-5,9700000.0,97.6,95.06735120870448,94.88272921108741,94.27207637231503,1407556.0,1984096.0,0.0,1.0,0.0,?,0.0,0.0,1105.0,655.0,655.0,13.0,2938.0445969125212,0.0,1.0288636682079306
9800000.0,42.46875,2.7837091474793853E-5,9800000.0,97.7,95.32956991430775,95.40918163672654,94.79638009049773,1437556.0,2040376.0,0.0,1.0,0.0,?,0.0,0.0,1126.0,670.0,670.0,13.0,2938.0445969125212,0.0,1.0288636682079306
9900000.0,42.828125,2.8036462026648223E-5,9900000.0,97.89999999999999,95.73368439016066,95.74898785425101,95.24886877828054,1467556.0,2068992.0,0.0,1.0,0.0,?,0.0,0.0,1141.0,679.0,679.0,13.0,2938.0445969125212,0.0,1.0288636682079306
1.0E7,43.25,2.8270882030483335E-5,1.0E7,97.7,95.32470911559759,95.28688524590163,94.76082004555808,1497556.0,2087592.0,0.0,1.0,0.0,?,0.0,0.0,1148.0,684.0,684.0,13.0,2938.0445969125212,0.0,1.0288636682079306
