learning evaluation instances,evaluation time (cpu seconds),model cost (RAM-Hours),classified instances,classifications correct (percent),Kappa Statistic (percent),Kappa Temporal Statistic (percent),Kappa M Statistic (percent),model training instances,model serialized size (bytes),labeling cost,newThreshold,maxPosterior,accuracyBaseLearner (percent),Change detected,Warning detected,tree size (nodes),tree size (leaves),active learning leaves,tree depth,active leaf byte size estimate,inactive leaf byte size estimate,byte size estimate overhead
100000.0,0.953125,8.659485805158815E-8,100000.0,87.4,74.55563229253754,73.07692307692307,72.06208425720621,39583.0,240872.0,0.0,1.0,0.0,?,1.0,28.0,77.0,57.0,57.0,4.0,0.0,0.0,1.0
200000.0,1.734375,1.850046101026237E-7,200000.0,89.3,78.32498744064692,78.20773930753563,75.62642369020502,79583.0,391336.0,0.0,1.0,0.0,?,0.0,0.0,131.0,96.0,96.0,4.0,0.0,0.0,1.0
300000.0,2.5,3.0027369373581475E-7,300000.0,92.2,84.28401603836313,83.64779874213836,82.85714285714286,119583.0,501168.0,0.0,1.0,0.0,?,0.0,0.0,173.0,123.0,123.0,5.0,0.0,0.0,1.0
400000.0,3.234375,4.220089370695253E-7,400000.0,92.60000000000001,84.90418235747713,84.55114822546975,82.75058275058277,159583.0,574864.0,0.0,1.0,0.0,?,0.0,0.0,199.0,139.0,139.0,5.0,0.0,0.0,1.0
500000.0,3.96875,5.55477551339815E-7,500000.0,93.2,86.32297097251723,85.50106609808104,85.47008547008548,199583.0,651536.0,0.0,1.0,0.0,?,0.0,0.0,228.0,158.0,158.0,5.0,0.0,0.0,1.0
600000.0,4.6875,7.083137299762004E-7,600000.0,92.30000000000001,84.42871587462083,84.44444444444446,82.8888888888889,239383.0,709968.0,0.0,1.0,0.0,?,0.0,0.0,251.0,174.0,174.0,5.0,0.0,0.0,1.0
700000.0,5.453125,8.812490462635953E-7,700000.0,94.69999999999999,89.25820835022293,89.09465020576131,87.95454545454544,279383.0,776008.0,0.0,1.0,0.0,?,0.0,0.0,283.0,193.0,193.0,5.0,0.0,0.0,1.0
800000.0,6.171875,1.054626514410807E-6,800000.0,94.0,87.87192755498057,87.28813559322033,86.36363636363636,319383.0,850120.0,0.0,1.0,0.0,?,0.0,0.0,320.0,213.0,213.0,6.0,0.0,0.0,1.0
900000.0,6.90625,1.240436298151811E-6,900000.0,94.6,89.04754178159986,89.06882591093115,87.78280542986424,359383.0,910656.0,0.0,1.0,0.0,?,0.0,0.0,341.0,225.0,225.0,6.0,0.0,0.0,1.0
1000000.0,7.625,1.4265961039604413E-6,1000000.0,95.0,89.89551967342318,89.9598393574297,88.962472406181,399383.0,948824.0,0.0,1.0,0.0,?,0.0,0.0,360.0,236.0,236.0,6.0,0.0,0.0,1.0
1100000.0,8.34375,1.6350123203463025E-6,1100000.0,96.39999999999999,92.72730211191065,92.7710843373494,92.01773835920176,439183.0,1007320.0,0.0,1.0,0.0,?,0.0,0.0,377.0,246.0,246.0,6.0,0.0,0.0,1.0
1200000.0,9.078125,1.8478270956418581E-6,1200000.0,95.89999999999999,91.74352571589672,91.5289256198347,91.12554112554112,479183.0,1021728.0,0.0,1.0,0.0,?,0.0,0.0,389.0,252.0,252.0,6.0,0.0,0.0,1.0
1300000.0,9.796875,2.058224700805214E-6,1300000.0,95.19999999999999,90.3530773683195,90.66147859922178,89.61038961038959,519183.0,1048144.0,0.0,1.0,0.0,?,0.0,0.0,399.0,257.0,257.0,6.0,0.0,0.0,1.0
1400000.0,10.484375,2.2605929471966297E-6,1400000.0,95.89999999999999,91.69031211998377,91.75050301810865,90.68181818181817,559183.0,1069528.0,0.0,1.0,0.0,?,0.0,0.0,405.0,260.0,260.0,6.0,0.0,0.0,1.0
1500000.0,11.203125,2.475078282360402E-6,1500000.0,96.5,92.9383090680182,92.87169042769857,92.1171171171171,599183.0,1100264.0,0.0,1.0,0.0,?,0.0,0.0,424.0,271.0,271.0,6.0,0.0,0.0,1.0
1600000.0,11.921875,2.7078036994983757E-6,1600000.0,95.8,91.35129792307598,90.54054054054052,89.73105134474328,638983.0,1137360.0,0.0,1.0,0.0,?,0.0,0.0,438.0,278.0,278.0,6.0,0.0,0.0,1.0
1700000.0,12.65625,2.94455181574449E-6,1700000.0,97.1,94.11965091003471,93.70932754880693,93.46846846846846,678983.0,1147048.0,0.0,1.0,0.0,?,0.0,0.0,444.0,281.0,281.0,6.0,0.0,0.0,1.0
1800000.0,13.390625,3.1862638166381257E-6,1800000.0,95.6,91.03420450979513,90.98360655737704,89.83833718244803,718983.0,1188176.0,0.0,1.0,0.0,?,0.0,0.0,461.0,291.0,291.0,6.0,0.0,0.0,1.0
1900000.0,14.125,3.4290047672887647E-6,1900000.0,97.5,94.91580574310584,94.76987447698745,94.19953596287702,758983.0,1208680.0,0.0,1.0,0.0,?,0.0,0.0,469.0,295.0,295.0,7.0,0.0,0.0,1.0
2000000.0,14.828125,3.6623592798908555E-6,2000000.0,96.5,92.92843576999232,93.01397205588822,92.13483146067415,798983.0,1228984.0,0.0,1.0,0.0,?,0.0,0.0,480.0,302.0,302.0,7.0,0.0,0.0,1.0
2100000.0,15.578125,3.928129250804584E-6,2100000.0,95.5,90.8430871412525,91.37931034482759,89.58333333333333,838783.0,1254800.0,0.0,1.0,0.0,?,0.0,0.0,493.0,310.0,310.0,7.0,0.0,0.0,1.0
2200000.0,16.296875,4.187363924251663E-6,2200000.0,96.8,93.51294370451458,93.57429718875501,92.80898876404494,878783.0,1294224.0,0.0,1.0,0.0,?,0.0,0.0,510.0,320.0,320.0,7.0,0.0,0.0,1.0
2300000.0,17.03125,4.45624810203703E-6,2300000.0,95.8,91.57218822112972,91.5151515151515,91.00642398286936,918783.0,1330408.0,0.0,1.0,0.0,?,0.0,0.0,521.0,327.0,327.0,7.0,0.0,0.0,1.0
2400000.0,17.71875,4.7069976507272165E-6,2400000.0,96.8,93.48998067338013,93.53535353535352,92.64367816091954,958783.0,1340080.0,0.0,1.0,0.0,?,0.0,0.0,529.0,331.0,331.0,7.0,0.0,0.0,1.0
2500000.0,18.4375,4.97097159192587E-6,2500000.0,96.2,92.31376039159368,92.06680584551148,91.53674832962137,998783.0,1365016.0,0.0,1.0,0.0,?,0.0,0.0,538.0,337.0,337.0,7.0,0.0,0.0,1.0
2600000.0,19.203125,5.2711757275068935E-6,2600000.0,96.8,93.50973337173407,93.4156378600823,92.71070615034168,1038583.0,1400064.0,0.0,1.0,0.0,?,0.0,0.0,551.0,345.0,345.0,7.0,3941.3724340175954,0.0,1.0187975071576956
2700000.0,19.9375,5.561573618453825E-6,2700000.0,96.6,93.10397981494326,92.9460580912863,92.29024943310657,1078583.0,1428032.0,0.0,1.0,0.0,?,0.0,0.0,562.0,352.0,352.0,7.0,3941.3724340175954,0.0,1.0187975071576956
2800000.0,20.65625,5.844488267838542E-6,2800000.0,96.5,92.87986915233824,92.73858921161825,91.78403755868544,1118583.0,1436168.0,0.0,1.0,0.0,?,0.0,0.0,566.0,354.0,354.0,7.0,3941.3724340175954,0.0,1.0187975071576956
2900000.0,21.390625,6.13602149921159E-6,2900000.0,96.1,92.17093852380034,92.45647969052224,91.66666666666666,1158583.0,1464232.0,0.0,1.0,0.0,?,0.0,0.0,581.0,363.0,363.0,7.0,3941.3724340175954,0.0,1.0187975071576956
3000000.0,22.140625,6.435871667539081E-6,3000000.0,97.39999999999999,94.74747474747474,94.39655172413792,94.22222222222221,1198583.0,1490168.0,0.0,1.0,0.0,?,0.0,0.0,593.0,369.0,369.0,7.0,3941.3724340175954,0.0,1.0187975071576956
3100000.0,22.890625,6.7500983520100525E-6,3100000.0,96.5,92.95604572532604,93.16406249999999,92.40780911062906,1238383.0,1503240.0,0.0,1.0,0.0,?,0.0,0.0,599.0,372.0,372.0,7.0,3941.3724340175954,0.0,1.0187975071576956
3200000.0,23.625,7.0562238235854455E-6,3200000.0,97.89999999999999,95.75156787376086,95.78313253012047,95.25959367945823,1278383.0,1510192.0,0.0,1.0,0.0,?,0.0,0.0,607.0,376.0,376.0,7.0,3941.3724340175954,0.0,1.0187975071576956
3300000.0,24.375,7.369828074135715E-6,3300000.0,98.3,96.53513777922713,96.59318637274549,96.02803738317756,1318383.0,1530256.0,0.0,1.0,0.0,?,0.0,0.0,615.0,380.0,380.0,7.0,3941.3724340175954,0.0,1.0187975071576956
3400000.0,25.09375,7.66796907151325E-6,3400000.0,96.89999999999999,93.65939064698759,93.63449691991785,92.67139479905437,1358383.0,1532568.0,0.0,1.0,0.0,?,0.0,0.0,615.0,380.0,380.0,7.0,3941.3724340175954,0.0,1.0187975071576956
3500000.0,25.84375,7.980624925241703E-6,3500000.0,97.89999999999999,95.75146473311106,95.8904109589041,95.32293986636971,1398383.0,1555624.0,0.0,1.0,0.0,?,0.0,0.0,627.0,386.0,386.0,7.0,3941.3724340175954,0.0,1.0187975071576956
3600000.0,26.578125,8.299366810307322E-6,3600000.0,97.3,94.55087064977839,94.66403162055336,94.01330376940132,1438183.0,1561120.0,0.0,1.0,0.0,?,0.0,0.0,629.0,387.0,387.0,7.0,3941.3724340175954,0.0,1.0187975071576956
3700000.0,27.328125,8.624943212554275E-6,3700000.0,97.5,94.96532113195691,94.97991967871485,94.5414847161572,1478183.0,1576480.0,0.0,1.0,0.0,?,0.0,0.0,641.0,393.0,393.0,7.0,3941.3724340175954,0.0,1.0187975071576956
3800000.0,28.0625,8.943125786673694E-6,3800000.0,97.39999999999999,94.72162671344117,94.50317124735729,94.11764705882352,1518183.0,1588400.0,0.0,1.0,0.0,?,0.0,0.0,645.0,395.0,395.0,7.0,3941.3724340175954,0.0,1.0187975071576956
3900000.0,28.796875,9.261103178788392E-6,3900000.0,96.89999999999999,93.69205850513995,93.88560157790926,92.92237442922374,1558183.0,1602448.0,0.0,1.0,0.0,?,0.0,0.0,651.0,398.0,398.0,7.0,3941.3724340175954,0.0,1.0187975071576956
4000000.0,29.515625,9.572852092484636E-6,4000000.0,97.1,94.15369728247721,94.15322580645162,93.64035087719299,1598183.0,1620416.0,0.0,1.0,0.0,?,0.0,0.0,661.0,403.0,403.0,7.0,3941.3724340175954,0.0,1.0187975071576956
4100000.0,30.234375,9.89757226003955E-6,4100000.0,97.1,94.1598195585629,94.29133858267717,93.6542669584245,1637983.0,1629176.0,0.0,1.0,0.0,?,0.0,0.0,665.0,405.0,405.0,7.0,3941.3724340175954,0.0,1.0187975071576956
4200000.0,30.96875,1.0230199647291255E-5,4200000.0,96.8,93.55880209822021,93.62549800796812,93.02832244008714,1677983.0,1648776.0,0.0,1.0,0.0,?,0.0,0.0,672.0,410.0,410.0,7.0,3941.3724340175954,0.0,1.0187975071576956
4300000.0,31.703125,1.0561541227313381E-5,4300000.0,97.39999999999999,94.79648242211735,94.7261663286004,94.6611909650924,1717983.0,1657160.0,0.0,1.0,0.0,?,0.0,0.0,676.0,412.0,412.0,7.0,3941.3724340175954,0.0,1.0187975071576956
4400000.0,32.453125,1.089856824061523E-5,4400000.0,97.6,95.15345377000715,95.3125,94.67849223946784,1757983.0,1665296.0,0.0,1.0,0.0,?,0.0,0.0,676.0,412.0,412.0,7.0,3941.3724340175954,0.0,1.0187975071576956
4500000.0,33.1875,1.1225686111073528E-5,4500000.0,96.89999999999999,93.6983672672868,93.45991561181434,92.88990825688073,1797983.0,1665280.0,0.0,1.0,0.0,?,0.0,0.0,680.0,414.0,414.0,8.0,3941.3724340175954,0.0,1.0187975071576956
4600000.0,33.9375,1.1575487765690519E-5,4600000.0,98.4,96.78046385467015,96.75456389452333,96.51416122004358,1837783.0,1685416.0,0.0,1.0,0.0,?,0.0,0.0,686.0,417.0,417.0,8.0,3941.3724340175954,0.0,1.0187975071576956
4700000.0,34.65625,1.1913298189433085E-5,4700000.0,98.6,97.12832294059731,97.01492537313433,96.66666666666667,1877783.0,1714416.0,0.0,1.0,0.0,?,0.0,0.0,693.0,422.0,422.0,8.0,3941.3724340175954,0.0,1.0187975071576956
4800000.0,35.421875,1.2271000596228989E-5,4800000.0,98.1,96.15085410521539,96.20758483033931,95.71106094808127,1917783.0,1718776.0,0.0,1.0,0.0,?,0.0,0.0,699.0,425.0,425.0,8.0,3941.3724340175954,0.0,1.0187975071576956
4900000.0,36.15625,1.2614396239061737E-5,4900000.0,97.39999999999999,94.73155232784333,94.7261663286004,94.11764705882352,1957783.0,1735416.0,0.0,1.0,0.0,?,0.0,0.0,709.0,430.0,430.0,8.0,3941.3724340175954,0.0,1.0187975071576956
5000000.0,36.90625,1.2967292989035034E-5,5000000.0,98.0,95.94558981532161,95.89322381930184,95.44419134396355,1997783.0,1759480.0,0.0,1.0,0.0,?,0.0,0.0,719.0,435.0,435.0,8.0,3941.3724340175954,0.0,1.0187975071576956
5100000.0,38.015625,1.3060123601462694E-5,5100000.0,76.4,49.4341336738673,49.787234042553195,36.38814016172507,37813.0,210768.0,0.0,1.0,0.0,?,3.0,62.0,67.0,49.0,49.0,4.0,0.0,0.0,1.0
5200000.0,38.8125,1.3140801650782428E-5,5200000.0,81.89999999999999,61.17579428747929,62.90983606557376,52.49343832020996,77813.0,293520.0,0.0,1.0,0.0,?,0.0,0.0,99.0,68.0,68.0,5.0,0.0,0.0,1.0
5300000.0,39.640625,1.325533935515624E-5,5300000.0,84.3,66.0845596177276,65.1111111111111,57.90884718498659,117813.0,451280.0,0.0,1.0,0.0,?,0.0,0.0,164.0,105.0,105.0,5.0,0.0,0.0,1.0
5400000.0,40.453125,1.3388570611520361E-5,5400000.0,85.2,67.65239437851069,67.18403547671839,59.228650137741035,157813.0,565200.0,0.0,1.0,0.0,?,0.0,0.0,213.0,134.0,134.0,6.0,0.0,0.0,1.0
5500000.0,41.28125,1.3535795668657456E-5,5500000.0,85.9,69.4572488129484,70.56367432150313,61.263736263736256,197813.0,633376.0,0.0,1.0,0.0,?,0.0,0.0,245.0,150.0,150.0,6.0,0.0,0.0,1.0
5600000.0,42.0625,1.3702054533900487E-5,5600000.0,83.89999999999999,65.80201704376492,67.67068273092369,58.823529411764696,237613.0,707664.0,0.0,1.0,0.0,?,0.0,0.0,279.0,170.0,170.0,6.0,0.0,0.0,1.0
5700000.0,42.875,1.3892386341467502E-5,5700000.0,84.89999999999999,67.38350944798209,66.21923937360178,59.62566844919785,277613.0,805296.0,0.0,1.0,0.0,?,0.0,0.0,312.0,188.0,188.0,7.0,0.0,0.0,1.0
5800000.0,43.703125,1.4105152351678248E-5,5800000.0,84.2,66.29462761963273,66.87631027253667,57.5268817204301,317613.0,907720.0,0.0,1.0,0.0,?,0.0,0.0,351.0,212.0,212.0,7.0,0.0,0.0,1.0
5900000.0,44.5625,1.4337280299514534E-5,5900000.0,84.2,66.42013091898325,66.73684210526315,59.487179487179475,357613.0,973584.0,0.0,1.0,0.0,?,0.0,0.0,380.0,228.0,228.0,8.0,0.0,0.0,1.0
6000000.0,45.46875,1.4607271942723959E-5,6000000.0,86.8,72.04479609643698,72.15189873417721,65.80310880829016,397613.0,1095776.0,0.0,1.0,0.0,?,0.0,0.0,430.0,259.0,259.0,8.0,0.0,0.0,1.0
6100000.0,46.359375,1.489382980960525E-5,6100000.0,87.1,72.74663241333852,73.4020618556701,67.66917293233082,437413.0,1126768.0,0.0,1.0,0.0,?,0.0,0.0,453.0,272.0,272.0,8.0,0.0,0.0,1.0
6200000.0,47.28125,1.5209777177208004E-5,6200000.0,86.3,71.11167341430499,69.89010989010988,64.41558441558442,477413.0,1222632.0,0.0,1.0,0.0,?,0.0,0.0,481.0,289.0,289.0,8.0,0.0,0.0,1.0
6300000.0,48.203125,1.5540772292297337E-5,6300000.0,86.8,70.75349628658029,70.98901098901098,61.849710982658955,517413.0,1300584.0,0.0,1.0,0.0,?,0.0,0.0,517.0,310.0,310.0,9.0,0.0,0.0,1.0
6400000.0,49.125,1.588370334098323E-5,6400000.0,89.1,76.58009178885126,76.55913978494624,70.46070460704608,557413.0,1365552.0,0.0,1.0,0.0,?,0.0,0.0,538.0,322.0,322.0,9.0,0.0,0.0,1.0
6500000.0,50.046875,1.6242098063230518E-5,6500000.0,88.0,74.93807616318654,75.15527950310559,69.46564885496184,597413.0,1445304.0,0.0,1.0,0.0,?,0.0,0.0,567.0,341.0,341.0,9.0,0.0,0.0,1.0
6600000.0,51.0,1.66445642308746E-5,6600000.0,87.8,73.91824867453394,73.53579175704989,67.55319148936171,637213.0,1513760.0,0.0,1.0,0.0,?,0.0,0.0,588.0,356.0,356.0,9.0,0.0,0.0,1.0
6700000.0,51.96875,1.7071405923666645E-5,6700000.0,88.2,75.18923465096721,73.8359201773836,68.78306878306879,677213.0,1599584.0,0.0,1.0,0.0,?,0.0,0.0,619.0,376.0,376.0,10.0,0.0,0.0,1.0
6800000.0,52.9375,1.7502081043656093E-5,6800000.0,87.9,73.56185215612928,73.23008849557522,66.1064425770308,717213.0,1629936.0,0.0,1.0,0.0,?,0.0,0.0,645.0,392.0,392.0,10.0,0.0,0.0,1.0
6900000.0,53.90625,1.794744027493936E-5,6900000.0,88.7,76.07898591835526,75.6989247311828,70.41884816753927,757213.0,1703432.0,0.0,1.0,0.0,?,0.0,0.0,669.0,407.0,407.0,10.0,0.0,0.0,1.0
7000000.0,54.859375,1.8401756048357738E-5,7000000.0,88.0,74.9579502247524,75.10373443983403,69.92481203007519,797213.0,1783728.0,0.0,1.0,0.0,?,0.0,0.0,701.0,426.0,426.0,10.0,0.0,0.0,1.0
7100000.0,55.828125,1.888873563277432E-5,7100000.0,89.60000000000001,77.4038795800598,76.09195402298852,71.2707182320442,837013.0,1823184.0,0.0,1.0,0.0,?,0.0,0.0,717.0,434.0,434.0,11.0,0.0,0.0,1.0
7200000.0,56.8125,1.9394173707243886E-5,7200000.0,88.0,73.79638040668017,74.63002114164905,66.29213483146067,877013.0,1879776.0,0.0,1.0,0.0,?,0.0,0.0,738.0,446.0,446.0,11.0,0.0,0.0,1.0
7300000.0,57.828125,1.993704050417162E-5,7300000.0,90.0,78.76163331535152,78.54077253218884,74.16020671834626,917013.0,1975952.0,0.0,1.0,0.0,?,0.0,0.0,781.0,472.0,472.0,11.0,0.0,0.0,1.0
7400000.0,58.828125,2.0484660247651242E-5,7400000.0,89.4,77.38821029817699,76.95652173913044,72.0316622691293,957013.0,2041488.0,0.0,1.0,0.0,?,0.0,0.0,808.0,487.0,487.0,11.0,0.0,0.0,1.0
7500000.0,59.859375,2.106252320421239E-5,7500000.0,90.7,80.78432993098889,80.98159509202455,77.37226277372264,997013.0,2105672.0,0.0,1.0,0.0,?,0.0,0.0,828.0,500.0,500.0,11.0,0.0,0.0,1.0
7600000.0,60.9375,2.1699022036045792E-5,7600000.0,89.60000000000001,77.37605777806783,76.7337807606264,71.19113573407203,1036813.0,2160720.0,0.0,1.0,0.0,?,0.0,0.0,850.0,514.0,514.0,11.0,4131.424,0.0,1.0199524425476543
7700000.0,61.90625,2.228273350434999E-5,7700000.0,88.6,75.89648173207037,75.64102564102564,69.1891891891892,1076813.0,2222664.0,0.0,1.0,0.0,?,0.0,0.0,886.0,535.0,535.0,11.0,4131.424,0.0,1.0199524425476543
7800000.0,62.859375,2.2866356691035135E-5,7800000.0,89.7,78.23680051386506,77.31277533039648,72.08672086720867,1116813.0,2275424.0,0.0,1.0,0.0,?,0.0,0.0,900.0,542.0,542.0,11.0,4131.424,0.0,1.0199524425476543
7900000.0,63.8125,2.3456436174456034E-5,7900000.0,90.10000000000001,79.05240706886045,78.19383259911895,73.38709677419355,1156813.0,2316624.0,0.0,1.0,0.0,?,0.0,0.0,910.0,547.0,547.0,11.0,4131.424,0.0,1.0199524425476543
8000000.0,64.796875,2.407462277915329E-5,8000000.0,90.3,79.25098183498328,79.79166666666667,74.06417112299467,1196813.0,2365944.0,0.0,1.0,0.0,?,0.0,0.0,939.0,563.0,563.0,11.0,4131.424,0.0,1.0199524425476543
8100000.0,65.765625,2.4703124395778614E-5,8100000.0,89.0,76.21930127983397,76.79324894514768,69.10112359550563,1236613.0,2385176.0,0.0,1.0,0.0,?,0.0,0.0,955.0,571.0,571.0,11.0,4131.424,0.0,1.0199524425476543
8200000.0,66.765625,2.5369667823219468E-5,8200000.0,89.3,77.66179540709813,76.16926503340757,73.25,1276613.0,2468720.0,0.0,1.0,0.0,?,0.0,0.0,992.0,594.0,594.0,11.0,4131.424,0.0,1.0199524425476543
8300000.0,67.75,2.6033540165776183E-5,8300000.0,90.0,78.71498082219772,79.20997920997921,73.89033942558747,1316613.0,2514112.0,0.0,1.0,0.0,?,0.0,0.0,1002.0,599.0,599.0,11.0,4131.424,0.0,1.0199524425476543
8400000.0,68.765625,2.6722737950169382E-5,8400000.0,91.7,81.72289262749935,81.95652173913044,75.94202898550726,1356613.0,2545304.0,0.0,1.0,0.0,?,0.0,0.0,1016.0,606.0,606.0,11.0,4131.424,0.0,1.0199524425476543
8500000.0,69.765625,2.7403890724397372E-5,8500000.0,91.10000000000001,80.72424846227152,79.95495495495496,75.81521739130436,1396613.0,2570272.0,0.0,1.0,0.0,?,0.0,0.0,1033.0,616.0,616.0,11.0,4131.424,0.0,1.0199524425476543
8600000.0,70.765625,2.8117703946514265E-5,8600000.0,90.10000000000001,78.93939651798023,80.08048289738431,74.21875000000001,1436413.0,2635432.0,0.0,1.0,0.0,?,0.0,0.0,1052.0,627.0,627.0,12.0,4131.424,0.0,1.0199524425476543
8700000.0,71.78125,2.8853121362367855E-5,8700000.0,90.60000000000001,80.0919160471864,79.87152034261243,75.58441558441558,1476413.0,2690184.0,0.0,1.0,0.0,?,0.0,0.0,1078.0,643.0,643.0,12.0,4131.424,0.0,1.0199524425476543
8800000.0,72.796875,2.9597757901582457E-5,8800000.0,89.8,78.39715350728567,78.96907216494846,73.15789473684211,1516413.0,2740272.0,0.0,1.0,0.0,?,0.0,0.0,1091.0,651.0,651.0,12.0,4131.424,0.0,1.0199524425476543
8900000.0,73.8125,3.0352397589012986E-5,8900000.0,90.0,79.02121374865736,78.99159663865547,74.48979591836735,1556413.0,2793376.0,0.0,1.0,0.0,?,0.0,0.0,1114.0,667.0,667.0,12.0,4131.424,0.0,1.0199524425476543
9000000.0,74.8125,3.1103788642212756E-5,9000000.0,90.8,80.45613677305326,80.71278825995807,75.53191489361703,1596413.0,2840720.0,0.0,1.0,0.0,?,0.0,0.0,1136.0,681.0,681.0,12.0,4131.424,0.0,1.0199524425476543
9100000.0,75.8125,3.1879830769159735E-5,9100000.0,91.8,82.27371970859724,83.05785123966943,76.90140845070424,1636213.0,2874872.0,0.0,1.0,0.0,?,0.0,0.0,1150.0,688.0,688.0,12.0,4131.424,0.0,1.0199524425476543
9200000.0,76.8125,3.2658991791928815E-5,9200000.0,90.8,80.45746524827516,80.42553191489363,76.04166666666667,1676213.0,2901984.0,0.0,1.0,0.0,?,0.0,0.0,1162.0,694.0,694.0,12.0,4131.424,0.0,1.0199524425476543
9300000.0,77.84375,3.3471913775429135E-5,9300000.0,90.2,79.6566541423619,80.16194331983806,76.27118644067798,1716213.0,2952256.0,0.0,1.0,0.0,?,0.0,0.0,1184.0,708.0,708.0,12.0,4131.424,0.0,1.0199524425476543
9400000.0,78.828125,3.4252093755640096E-5,9400000.0,92.2,83.78991732857838,84.46215139442232,80.64516129032259,1756213.0,2983808.0,0.0,1.0,0.0,?,0.0,0.0,1200.0,716.0,716.0,12.0,4131.424,0.0,1.0199524425476543
9500000.0,79.859375,3.50767734926194E-5,9500000.0,90.8,80.61778697262474,81.26272912423626,76.82619647355165,1796213.0,3026376.0,0.0,1.0,0.0,?,0.0,0.0,1211.0,723.0,723.0,12.0,4131.424,0.0,1.0199524425476543
9600000.0,80.890625,3.5926915200737624E-5,9600000.0,90.60000000000001,80.29771411563985,80.61855670103093,76.08142493638678,1836013.0,3060808.0,0.0,1.0,0.0,?,0.0,0.0,1231.0,733.0,733.0,12.0,4131.424,0.0,1.0199524425476543
9700000.0,81.90625,3.6774761360397366E-5,9700000.0,90.60000000000001,80.03356061088809,80.16877637130803,74.79892761394102,1876013.0,3116112.0,0.0,1.0,0.0,?,0.0,0.0,1254.0,749.0,749.0,12.0,4131.424,0.0,1.0199524425476543
9800000.0,82.921875,3.762583820692575E-5,9800000.0,90.9,80.86788327306367,80.88235294117648,76.96202531645571,1916013.0,3143464.0,0.0,1.0,0.0,?,0.0,0.0,1266.0,755.0,755.0,12.0,4131.424,0.0,1.0199524425476543
9900000.0,83.96875,3.851217799820007E-5,9900000.0,92.30000000000001,83.21913628676536,83.03964757709252,78.12500000000001,1956013.0,3192000.0,0.0,1.0,0.0,?,0.0,0.0,1284.0,767.0,767.0,12.0,4131.424,0.0,1.0199524425476543
1.0E7,85.0,3.9392944502954693E-5,1.0E7,91.10000000000001,81.14518630250748,81.6115702479339,77.12082262210798,1996013.0,3235712.0,0.0,1.0,0.0,?,0.0,0.0,1319.0,789.0,789.0,13.0,4131.424,0.0,1.0199524425476543
